# This was generated using Cloudy10 and the columns are ordered 
# as log10 of the fraction of the metallicity to the solar metallicity
# 'h_*_Z' and 'c_*_Z' stands for cooling and heating respectively 
# at * metalicity
#
# Redshift = 2.5
# hden = 3.5
#     temp   h_-3.00_Z   c_-3.00_Z   h_-2.75_Z   c_-2.75_Z   h_-2.50_Z   c_-2.50_Z   h_-2.25_Z   c_-2.25_Z   h_-2.00_Z   c_-2.00_Z   h_-1.75_Z   c_-1.75_Z   h_-1.50_Z   c_-1.50_Z   h_-1.25_Z   c_-1.25_Z   h_-1.00_Z   c_-1.00_Z   h_-0.75_Z   c_-0.75_Z   h_-0.50_Z   c_-0.50_Z   h_-0.25_Z   c_-0.25_Z    h_0.00_Z    c_0.00_Z    h_0.25_Z    c_0.25_Z    h_0.50_Z    c_0.50_Z    h_0.75_Z    c_0.75_Z    h_1.00_Z    c_1.00_Z    h_1.25_Z    c_1.25_Z    h_1.50_Z    c_1.50_Z 
      4.00  3.4083e-27  1.3444e-25  3.4084e-27  1.3466e-25  3.4084e-27  1.3506e-25  3.4085e-27  1.3578e-25  3.4087e-27  1.3704e-25  3.4091e-27  1.3929e-25  3.4097e-27  1.4329e-25  3.4108e-27  1.5039e-25  3.4127e-27  1.6303e-25  3.4161e-27  1.8555e-25  3.4221e-27  2.257e-25  3.4327e-27  2.9729e-25  3.4515e-27  4.2475e-25  3.4844e-27  6.5065e-25  3.5416e-27  1.0475e-24   3.64e-27  1.7359e-24  3.8091e-27  2.9059e-24  4.1096e-27  4.8478e-24  4.6509e-27  7.9938e-24
      4.05  3.3978e-27  5.7136e-25  3.3978e-27  5.717e-25  3.3979e-27  5.723e-25  3.398e-27  5.7337e-25  3.3983e-27  5.7526e-25  3.3987e-27  5.7862e-25  3.3995e-27  5.8457e-25  3.4008e-27  5.9513e-25  3.4033e-27  6.1389e-25  3.4075e-27  6.4725e-25  3.4152e-27  7.0661e-25  3.4286e-27  8.1218e-25  3.4523e-27  9.994e-25  3.4939e-27  1.3293e-24  3.5661e-27  1.9036e-24  3.6896e-27  2.8834e-24  3.8987e-27  4.5037e-24  4.2511e-27  7.0688e-24  4.8319e-27  1.0951e-23
      4.10  3.2606e-27  3.2341e-24  3.2606e-27  3.2349e-24  3.2608e-27  3.2363e-24  3.261e-27  3.2387e-24  3.2614e-27  3.243e-24  3.2622e-27  3.2506e-24  3.2636e-27  3.2641e-24  3.266e-27  3.288e-24  3.2702e-27  3.3306e-24  3.2778e-27  3.4062e-24  3.2913e-27  3.5405e-24  3.3151e-27  3.7787e-24  3.3573e-27  4.1999e-24  3.4313e-27  4.9403e-24  3.5599e-27  6.2268e-24  3.7795e-27  8.4137e-24  4.1423e-27  1.1986e-23  4.7073e-27  1.743e-23  5.5075e-27  2.4852e-23
      4.15  2.7216e-27  2.3722e-23  2.7218e-27  2.3725e-23  2.7221e-27  2.373e-23  2.7227e-27  2.374e-23  2.7238e-27  2.3756e-23  2.7258e-27  2.3786e-23  2.7292e-27  2.3839e-23  2.7354e-27  2.3933e-23  2.7463e-27   2.41e-23  2.7658e-27  2.4398e-23  2.8004e-27  2.4926e-23  2.8617e-27  2.5864e-23  2.9705e-27  2.753e-23  3.1628e-27  3.0481e-23  3.5014e-27  3.5692e-23  4.0925e-27  4.4837e-23  5.109e-27  6.0705e-23  6.8089e-27  8.7652e-23  9.5076e-27  1.3165e-22
      4.20  1.7558e-27  8.6046e-23  1.7561e-27  8.6054e-23  1.7566e-27  8.607e-23  1.7575e-27  8.6097e-23  1.7591e-27  8.6145e-23  1.762e-27  8.6231e-23  1.767e-27  8.6384e-23  1.776e-27  8.6655e-23  1.792e-27  8.7138e-23  1.8205e-27  8.7998e-23  1.871e-27  8.9525e-23  1.9609e-27  9.2242e-23  2.1206e-27  9.7073e-23  2.4045e-27  1.0566e-22  2.9084e-27  1.2094e-22  3.8023e-27  1.4811e-22  5.3853e-27  1.9642e-22  8.177e-27  2.8227e-22  1.3067e-26  4.347e-22
      4.25  9.493e-28  1.2964e-22  9.493e-28  1.2965e-22  9.4932e-28  1.2968e-22  9.4934e-28  1.2972e-22  9.4939e-28  1.298e-22  9.4947e-28  1.2994e-22  9.4961e-28  1.3018e-22  9.4986e-28  1.3062e-22  9.5031e-28  1.314e-22  9.5112e-28  1.3278e-22  9.5255e-28  1.3525e-22  9.5514e-28  1.3963e-22  9.5981e-28  1.4742e-22  9.6837e-28  1.6129e-22  9.8436e-28   1.86e-22  1.0151e-27  2.3009e-22  1.0769e-27  3.0891e-22  1.2081e-27  4.5046e-22  1.5073e-27  7.0656e-22
      4.30  6.0796e-28  1.2071e-22  6.0732e-28  1.2073e-22  6.0621e-28  1.2076e-22  6.042e-28  1.2081e-22  6.0065e-28  1.2091e-22  5.9434e-28  1.2107e-22  5.831e-28  1.2137e-22  5.6313e-28  1.2189e-22  5.2762e-28  1.2283e-22  5.1944e-28  1.2449e-22  5.2067e-28  1.2745e-22  5.2289e-28  1.3271e-22  5.2704e-28  1.4207e-22  5.3494e-28  1.5873e-22  5.5051e-28  1.8842e-22  5.8213e-28  2.4141e-22  6.4789e-28  3.3626e-22  7.8552e-28  5.0685e-22  1.0694e-27  8.1632e-22
      4.35  5.5796e-28  9.6172e-23  5.5652e-28  9.6192e-23  5.5397e-28  9.6228e-23  5.4942e-28  9.6291e-23  5.4134e-28  9.6403e-23  5.2697e-28  9.6603e-23  5.0142e-28  9.6958e-23  4.5598e-28  9.7589e-23  3.7518e-28  9.8711e-23  3.5368e-28  1.0071e-22  3.5475e-28  1.0426e-22  3.5683e-28  1.1058e-22  3.6112e-28  1.2182e-22  3.7044e-28  1.4184e-22  3.9173e-28  1.775e-22  4.4182e-28  2.4116e-22  5.5962e-28  3.5512e-22  8.285e-28  5.6012e-22  1.335e-27  9.3221e-22
      4.40  5.8965e-28  7.5527e-23  5.8743e-28  7.5552e-23  5.8349e-28  7.5597e-23  5.7649e-28  7.5677e-23  5.6403e-28  7.5819e-23  5.4187e-28  7.6071e-23  5.0248e-28  7.6519e-23  4.3243e-28  7.7317e-23  3.0788e-28  7.8735e-23  2.4162e-28  8.1258e-23  2.4289e-28  8.5744e-23  2.4573e-28  9.3725e-23  2.525e-28  1.0793e-22  2.6947e-28  1.3321e-22  3.1294e-28  1.7825e-22  4.2307e-28  2.5864e-22  6.8757e-28  4.0247e-22  1.0734e-27  6.6116e-22  1.6038e-27  1.1304e-21
      4.45  5.1795e-28  6.0236e-23  5.1519e-28  6.0269e-23  5.1028e-28  6.0327e-23  5.0155e-28  6.0431e-23  4.8604e-28  6.0614e-23  4.5844e-28  6.0941e-23  4.0939e-28  6.1523e-23  3.2217e-28  6.2557e-23  1.6715e-28  6.4396e-23  1.6976e-28  6.7667e-23  1.9588e-28  7.3484e-23  2.4449e-28  8.3832e-23  3.3715e-28  1.0224e-22  5.1868e-28  1.3502e-22  8.8315e-28  1.9341e-22  1.575e-27  2.9758e-22  2.7602e-27  4.8398e-22  4.8732e-27  8.1905e-22  8.8482e-27  1.4264e-21
      4.50  3.6935e-28  4.7852e-23  3.6629e-28  4.7894e-23  3.6084e-28  4.797e-23  3.5116e-28  4.8104e-23  3.3394e-28  4.8343e-23  3.0332e-28  4.8768e-23  2.4889e-28  4.9523e-23  1.5216e-28  5.0867e-23  1.2047e-28  5.3256e-23  1.5762e-28  5.7505e-23  2.2555e-28  6.5063e-23  3.5173e-28  7.8507e-23  5.9062e-28  1.0243e-22  1.0514e-27  1.4501e-22  1.8766e-27  2.2088e-22  3.2942e-27  3.563e-22  5.8106e-27  5.9867e-22  1.024e-26  1.0345e-21  1.8498e-26  1.8253e-21
      4.55  2.4462e-28  3.8055e-23  2.4144e-28  3.811e-23  2.358e-28  3.8208e-23  2.2577e-28  3.8383e-23  2.0794e-28  3.8693e-23  1.7624e-28  3.9245e-23  1.1991e-28  4.0226e-23  7.7492e-29  4.1971e-23  1.0641e-28  4.5073e-23  1.5883e-28  5.0592e-23   2.55e-28  6.0407e-23  4.3456e-28  7.7866e-23  7.771e-28  1.0893e-22  1.3871e-27  1.6425e-22  2.4629e-27  2.6284e-22  4.3834e-27  4.3884e-22  7.7215e-27   7.54e-22  1.3726e-26  1.3213e-21  2.4867e-26  2.3522e-21
      4.60  1.6454e-28  3.0745e-23  1.6154e-28  3.0817e-23  1.562e-28  3.0944e-23  1.4671e-28  3.1171e-23  1.2985e-28  3.1573e-23  9.9867e-29  3.2288e-23  4.7143e-29  3.3561e-23  6.4778e-29  3.5824e-23  9.6593e-29  3.9849e-23  1.5456e-28  4.7007e-23  2.6186e-28  5.9738e-23  4.6487e-28  8.2387e-23  8.3014e-28  1.2269e-22  1.4882e-27  1.9446e-22  2.6494e-27  3.224e-22  4.7047e-27  5.5087e-22  8.3403e-27  9.6018e-22  1.4892e-26  1.6977e-21  2.7014e-26   3.04e-21
      4.65  1.1671e-28  2.6144e-23  1.1413e-28  2.6236e-23  1.0955e-28  2.6401e-23  1.0139e-28  2.6694e-23  8.6904e-29  2.7214e-23  6.1156e-29  2.814e-23  3.8388e-29  2.9786e-23  5.4847e-29  3.2714e-23  8.4682e-29  3.792e-23  1.3948e-28  4.718e-23  2.4221e-28  6.365e-23  4.3244e-28  9.2952e-23  7.7729e-28  1.451e-22  1.3926e-27  2.3797e-22  2.5043e-27  4.0355e-22  4.4628e-27  6.9935e-22  7.9142e-27  1.2296e-21  1.4129e-26  2.1863e-21  2.5608e-26  3.9306e-21
      4.70  8.8345e-29  2.5092e-23  8.6323e-29  2.5211e-23  8.2726e-29  2.5423e-23  7.6333e-29  2.5801e-23  6.4972e-29  2.6472e-23  4.479e-29  2.7666e-23  3.2714e-29  2.9788e-23  4.6621e-29  3.3563e-23  7.2012e-29  4.0276e-23  1.1922e-28  5.2215e-23  2.0945e-28  7.3453e-23  3.7534e-28  1.1124e-22  6.8258e-28  1.785e-22  1.2311e-27  2.9829e-22  2.195e-27  5.1194e-22  3.8845e-27  8.9384e-22  6.8987e-27  1.5792e-21  1.2319e-26  2.8175e-21  2.231e-26  5.0821e-21
      4.75  7.1156e-29  2.9855e-23  6.9711e-29  3.0008e-23  6.7142e-29  3.0279e-23  6.2576e-29  3.0761e-23  5.4465e-29  3.1619e-23  4.007e-29  3.3144e-23  2.9955e-29  3.5855e-23  4.136e-29  4.0678e-23  6.2498e-29  4.9256e-23  1.0278e-28  6.4511e-23  1.8237e-28  9.1648e-23  3.2802e-28  1.3993e-22  5.8831e-28  2.2589e-22  1.0481e-27  3.7903e-22  1.8627e-27  6.5225e-22  3.2966e-27  1.141e-21   5.84e-27  2.0191e-21  1.0403e-26  3.609e-21  1.8817e-26  6.5265e-21
      4.80  5.9259e-29  4.3538e-23  5.8363e-29  4.373e-23  5.677e-29  4.4071e-23  5.3941e-29  4.4678e-23  4.8926e-29  4.5756e-23  4.005e-29  4.7675e-23  2.9795e-29  5.1087e-23  3.9596e-29  5.7154e-23  5.8363e-29  6.7946e-23  9.5902e-29  8.7139e-23  1.6878e-28  1.2128e-22  2.9468e-28  1.8204e-22  5.2002e-28  2.9021e-22  9.2291e-28  4.8298e-22  1.6331e-27  8.2703e-22  2.8821e-27  1.4429e-21  5.1069e-27  2.5507e-21  9.0918e-27  4.5606e-21  1.6431e-26  8.2606e-21
      4.85  4.7981e-29  6.4864e-23  4.7614e-29   6.51e-23  4.6963e-29  6.5521e-23  4.5814e-29  6.6268e-23  4.3794e-29  6.7597e-23  4.028e-29  6.9961e-23  3.4272e-29  7.4165e-23  4.0223e-29  8.1641e-23  5.9374e-29  9.4938e-23  9.7353e-29  1.1859e-22  1.6621e-28  1.6066e-22  2.8581e-28  2.3554e-22  5.0208e-28  3.6885e-22  8.8373e-28  6.0647e-22  1.5536e-27  1.0307e-21  2.7293e-27  1.7906e-21  4.7939e-27  3.1589e-21  8.4469e-27  5.6459e-21  1.5117e-26  1.0237e-20
      4.90  3.5754e-29  8.0697e-23  3.5901e-29  8.0979e-23  3.6167e-29  8.1481e-23  3.6657e-29  8.2373e-23  3.7578e-29  8.396e-23  3.9374e-29  8.6782e-23  4.3062e-29   9.18e-23  5.1168e-29  1.0072e-22  6.9073e-29  1.166e-22  1.0696e-28  1.4483e-22  1.804e-28  1.9505e-22  3.1305e-28  2.8443e-22  5.5093e-28  4.4359e-22  9.5828e-28  7.273e-22  1.6548e-27  1.2339e-21  2.8469e-27  2.1417e-21  4.9048e-27  3.7772e-21  8.4451e-27  6.7529e-21  1.4846e-26  1.2257e-20
      4.95  2.547e-29  7.9592e-23  2.5984e-29  7.9917e-23  2.6911e-29  8.0493e-23  2.8595e-29  8.1518e-23  3.1707e-29  8.3342e-23  3.7609e-29  8.6584e-23  4.9207e-29  9.235e-23  7.3241e-29  1.026e-22    1.2e-28  1.2084e-22  2.0379e-28  1.5328e-22  3.5295e-28  2.1099e-22  6.1666e-28  3.1369e-22  1.0672e-27  4.9658e-22  1.8319e-27  8.2261e-22  3.1253e-27  1.4049e-21  5.316e-27  2.4484e-21  9.046e-27  4.3292e-21  1.5565e-26  7.7538e-21  2.7281e-26  1.4096e-20
      5.00  1.9082e-29  6.761e-23  1.9751e-29  6.7967e-23  2.0971e-29  6.8603e-23  2.3236e-29  6.9734e-23  2.7565e-29  7.1744e-23  3.6154e-29  7.5319e-23  5.4207e-29  8.1676e-23  9.1939e-29  9.2982e-23  1.6368e-28  1.1309e-22  2.9545e-28  1.4886e-22  5.1394e-28  2.1249e-22  8.8392e-28  3.2574e-22  1.501e-27  5.2744e-22  2.5119e-27  8.8705e-22  4.1609e-27  1.5295e-21  6.8917e-27  2.6815e-21  1.1492e-26   4.76e-21  1.9506e-26  8.5506e-21  3.3705e-26  1.5591e-20
      5.05  1.5919e-29  5.4078e-23  1.6639e-29  5.4446e-23  1.8006e-29  5.5099e-23  2.0714e-29  5.6261e-23  2.6371e-29  5.8326e-23  3.8641e-29    6.2e-23  6.3533e-29  6.8533e-23  1.1944e-28  8.0152e-23  2.3231e-28  1.0082e-22  4.0482e-28  1.3758e-22  6.8657e-28  2.0298e-22   1.14e-27  3.1938e-22  1.8555e-27  5.2673e-22  2.9532e-27  8.9651e-22  4.6716e-27  1.5575e-21  7.4457e-27  2.7435e-21  1.2132e-26  4.8865e-21  2.0265e-26  8.804e-21  3.4233e-26  1.6109e-20
      5.10  1.4491e-29  4.2686e-23  1.528e-29  4.3043e-23  1.6941e-29  4.3679e-23  2.0687e-29  4.481e-23  2.9588e-29  4.682e-23  4.6245e-29  5.0395e-23  8.478e-29  5.6752e-23  1.7611e-28  6.8058e-23  3.2176e-28  8.8167e-23  5.457e-28  1.2394e-22  8.8719e-28  1.8759e-22  1.3972e-27  3.0088e-22  2.1435e-27  5.0272e-22  3.2294e-27  8.6278e-22  4.8842e-27  1.5067e-21  7.4096e-27  2.6631e-21  1.1541e-26  4.7556e-21  1.8802e-26  8.5906e-21  3.1696e-26  1.5771e-20
      5.15  1.3944e-29  3.3945e-23  1.4938e-29   3.43e-23  1.7346e-29  3.4932e-23  2.3638e-29  3.6055e-23  3.6088e-29  3.8052e-23  6.2457e-29  4.1604e-23  1.2675e-28  4.792e-23  2.4795e-28  5.9153e-23  4.3401e-28  7.9132e-23  7.074e-28  1.1467e-22  1.0886e-27  1.7792e-22  1.6213e-27  2.905e-22  2.3655e-27  4.9109e-22  3.4167e-27  8.4901e-22  4.7034e-27  1.4893e-21  6.8655e-27  2.6402e-21  1.0611e-26  4.7252e-21  1.7254e-26  8.5546e-21  2.9156e-26  1.5749e-20
      5.20  1.3893e-29  2.7409e-23  1.5335e-29  2.7776e-23  1.9255e-29  2.8427e-23  2.9614e-29  2.9584e-23  4.8211e-29  3.1643e-23  9.258e-29  3.5304e-23  1.9601e-28  4.1814e-23  3.3728e-28  5.3392e-23  5.514e-28  7.3986e-23  8.6497e-28  1.1062e-22  1.2783e-27  1.7581e-22  1.8224e-27  2.9187e-22  2.5311e-27  4.9868e-22  3.2342e-27  8.6778e-22  4.4029e-27  1.5283e-21  6.435e-27  2.7163e-21  1.0036e-26  4.8707e-21  1.6488e-26  8.8347e-21  2.8185e-26  1.6303e-20
      5.25  1.4146e-29  2.2511e-23  1.6412e-29  2.2889e-23  2.2928e-29  2.3559e-23  3.9245e-29  2.4752e-23  7.3074e-29  2.6872e-23  1.3413e-28  3.0644e-23  2.5432e-28  3.735e-23  4.1851e-28  4.9278e-23  6.4757e-28  7.0494e-23  9.7554e-28  1.0824e-22  1.4104e-27  1.754e-22  1.9689e-27  2.9498e-22  2.4132e-27  5.0809e-22  3.1376e-27  8.8851e-22  4.3822e-27  1.5696e-21  6.5556e-27  2.7952e-21  1.0392e-26  5.0204e-21  1.729e-26  9.1221e-21  2.9957e-26  1.6874e-20
      5.30  1.484e-29  1.8803e-23  1.8787e-29  1.9186e-23  3.0437e-29  1.9867e-23  6.0746e-29  2.1079e-23  9.8529e-29  2.3235e-23  1.6874e-28  2.7068e-23  2.9616e-28  3.3884e-23  4.6628e-28  4.6007e-23  7.1321e-28  6.7571e-23  1.034e-27  1.0593e-22  1.5069e-27  1.742e-22  1.899e-27  2.9576e-22  2.3857e-27  5.1242e-22  3.107e-27  8.9927e-22  4.2938e-27  1.5921e-21  6.3624e-27  2.8398e-21  9.9011e-27  5.1078e-21  1.6323e-26  9.2968e-21  2.8193e-26  1.7239e-20
      5.35  1.6268e-29  1.5974e-23  2.3402e-29  1.6364e-23  4.4225e-29  1.7057e-23  7.6291e-29  1.8291e-23  1.1907e-28  2.0484e-23  1.9073e-28  2.4385e-23  3.2041e-28  3.1322e-23  4.9189e-28  4.3659e-23  7.3465e-28  6.5604e-23  1.1121e-27  1.0465e-22  1.5458e-27  1.7413e-22  1.834e-27  2.9786e-22  2.2712e-27  5.1841e-22  2.9604e-27  9.123e-22  4.1079e-27  1.6181e-21  6.0031e-27  2.8899e-21  9.4016e-27  5.2046e-21  1.5557e-26  9.4885e-21  2.6991e-26  1.7637e-20
      5.40  1.746e-29  1.3764e-23  2.7375e-29  1.4144e-23  5.137e-29  1.4819e-23  7.9516e-29  1.6021e-23  1.2512e-28  1.8157e-23  1.9187e-28  2.1957e-23  3.098e-28  2.8714e-23  5.0777e-28  4.0731e-23  7.7035e-28  6.2107e-23  1.2056e-27  1.0014e-22  1.4837e-27  1.6782e-22  1.7798e-27  2.8836e-22  2.2455e-27  5.0327e-22  2.9749e-27  8.8717e-22  4.1882e-27  1.5754e-21  6.169e-27  2.8165e-21  9.6306e-27  5.0787e-21  1.5942e-26  9.2753e-21  2.7671e-26  1.7288e-20
      5.45  1.5928e-29  1.1969e-23  2.336e-29  1.2288e-23  4.5014e-29  1.2854e-23  6.927e-29  1.3861e-23  1.0726e-28  1.5652e-23  1.7399e-28  1.8837e-23  2.8319e-28  2.4501e-23  4.6476e-28  3.4574e-23  7.876e-28  5.2492e-23  1.2646e-27  8.437e-23  1.4962e-27  1.4111e-22  1.8452e-27  2.4217e-22  2.3686e-27  4.2239e-22  3.0905e-27  7.4444e-22  4.2556e-27  1.3221e-21  6.1962e-27  2.3652e-21  9.5779e-27  4.2699e-21  1.5709e-26  7.8149e-21  2.7182e-26  1.4618e-20
      5.50  1.3227e-29  1.0474e-23  1.6213e-29  1.0703e-23  2.4962e-29  1.1112e-23  4.9447e-29  1.1838e-23  8.3714e-29  1.3129e-23  1.4314e-28  1.5425e-23  2.5023e-28  1.9508e-23  4.3979e-28  2.677e-23  7.5948e-28  3.9687e-23  1.2124e-27  6.2668e-23  1.5709e-27  1.0358e-22  1.9706e-27  1.7645e-22  2.4123e-27  3.0642e-22  3.0662e-27  5.3877e-22  4.0198e-27  9.5583e-22  5.6162e-27  1.7097e-21  8.4215e-27  3.089e-21  1.3492e-26  5.6642e-21  2.2948e-26  1.0631e-20
      5.55  1.1971e-29  9.3076e-24  1.3468e-29  9.4803e-24  1.7723e-29  9.7872e-24  2.9757e-29  1.0333e-23  6.0886e-29  1.1304e-23  1.2384e-28  1.303e-23  2.4085e-28   1.61e-23  4.4774e-28  2.156e-23  7.9165e-28  3.1273e-23  1.2092e-27  4.8553e-23  1.6026e-27  7.9315e-23  1.9685e-27  1.3412e-22  2.3483e-27  2.3188e-22   2.83e-27  4.0669e-22  3.5933e-27  7.206e-22  4.8318e-27  1.2884e-21  7.0132e-27  2.3287e-21  1.0978e-26  4.2747e-21  1.8329e-26  8.0397e-21
      5.60  1.1462e-29  8.4111e-24  1.3027e-29  8.5609e-24  1.7522e-29  8.8274e-24  3.0604e-29  9.3012e-24  5.5587e-29  1.0144e-23  1.1484e-28  1.1642e-23  2.4665e-28  1.4307e-23  4.7065e-28  1.9046e-23  8.6872e-28  2.7475e-23  1.2027e-27  4.2475e-23  1.5698e-27  6.9177e-23  1.8152e-27  1.1675e-22  2.0965e-27  2.0162e-22  2.4951e-27  3.5341e-22  3.1262e-27  6.2603e-22  4.1483e-27  1.1194e-21  5.9391e-27  2.0239e-21  9.1867e-27  3.718e-21  1.5207e-26  7.0018e-21
      5.65  1.1105e-29  7.7115e-24  1.3146e-29  7.8546e-24  1.9009e-29  8.1089e-24  3.4953e-29  8.5612e-24  6.6419e-29  9.3655e-24  1.2985e-28  1.0796e-23  2.5975e-28  1.3339e-23  5.0827e-28  1.7863e-23  9.1988e-28  2.591e-23  1.2118e-27  4.0229e-23  1.5123e-27  6.5722e-23  1.684e-27  1.1114e-22  1.9308e-27  1.9217e-22  2.2772e-27  3.371e-22  2.8543e-27  5.9747e-22  3.7878e-27  1.0688e-21  5.4324e-27  1.9333e-21  8.4138e-27  3.554e-21  1.3959e-26  6.6996e-21
      5.70  1.0775e-29  7.1548e-24  1.3245e-29  7.2948e-24  2.0331e-29  7.5438e-24  4.1123e-29  7.9865e-24  7.5924e-29  8.7738e-24  1.4852e-28  1.0174e-23  2.9644e-28  1.2663e-23  5.7303e-28  1.7091e-23  9.0193e-28  2.4968e-23  1.1358e-27  3.8985e-23  1.3561e-27  6.394e-23  1.5297e-27  1.084e-22  1.7495e-27  1.8773e-22  2.0714e-27  3.2963e-22  2.617e-27  5.8458e-22  3.538e-27  1.0463e-21  5.1561e-27  1.8935e-21  8.1001e-27  3.483e-21  1.3604e-26  6.5719e-21
      5.75  1.0144e-29  6.6479e-24  1.2851e-29  6.7813e-24  2.0666e-29  7.0184e-24  4.1377e-29  7.4399e-24  8.2334e-29  8.1896e-24  1.6266e-28  9.5227e-24  3.3492e-28  1.1893e-23  6.0414e-28  1.611e-23  8.0026e-28  2.3612e-23  9.8172e-28  3.6961e-23  1.1259e-27  6.0728e-23  1.2976e-27  1.0307e-22  1.5082e-27  1.7863e-22  1.8364e-27  3.1379e-22  2.377e-27  5.567e-22  3.3001e-27  9.967e-22  4.9506e-27  1.8046e-21  7.9704e-27  3.3218e-21  1.3655e-26  6.2744e-21
      5.80  9.4832e-30  6.2574e-24  1.2068e-29  6.3798e-24  1.9577e-29  6.5976e-24  4.001e-29  6.9848e-24  8.5201e-29  7.6733e-24  1.8246e-28  8.8975e-24  3.4504e-28  1.1075e-23  5.4134e-28  1.4948e-23  6.8579e-28  2.1839e-23  8.3627e-28  3.4101e-23  9.4913e-28  5.5932e-23  1.1323e-27  9.4829e-23  1.3549e-27  1.6424e-22  1.6902e-27  2.8842e-22  2.2627e-27  5.1165e-22  3.2584e-27  9.1617e-22  5.0414e-27  1.6594e-21  8.3346e-27  3.0567e-21  1.4591e-26  5.7804e-21
      5.85  9.0939e-30  5.9601e-24  1.216e-29  6.0756e-24  2.0277e-29  6.2808e-24  4.1535e-29  6.6458e-24  9.3197e-29  7.2948e-24  2.0199e-28  8.4489e-24  3.199e-28  1.0502e-23  4.7864e-28  1.4154e-23  6.023e-28  2.065e-23  7.5346e-28  3.2211e-23  8.8672e-28  5.2793e-23  1.0472e-27  8.9467e-23  1.2885e-27  1.5491e-22  1.6653e-27  2.7202e-22  2.3196e-27  4.8258e-22  3.4661e-27  8.6428e-22  5.5424e-27  1.5661e-21  9.3922e-27  2.8868e-21  1.6759e-26  5.4654e-21
      5.90  8.8392e-30  5.7436e-24  1.2554e-29  5.8588e-24  2.2416e-29  6.0638e-24  4.7186e-29  6.4281e-24  1.0467e-28  7.076e-24  2.0622e-28  8.2281e-24  3.2312e-28  1.0278e-23  4.3486e-28  1.3924e-23  5.7483e-28  2.0409e-23  7.1027e-28  3.1951e-23  8.425e-28   5.25e-23  1.0091e-27  8.9115e-23  1.2847e-27  1.5446e-22  1.7468e-27  2.7141e-22  2.5409e-27  4.8171e-22  3.956e-27  8.6309e-22  6.5328e-27  1.5647e-21  1.1337e-26  2.8863e-21  2.0595e-26  5.4706e-21
      5.95  8.4684e-30  5.589e-24  1.2462e-29  5.7066e-24  2.3495e-29  5.9157e-24  5.0432e-29  6.2876e-24  1.1393e-28  6.9489e-24  2.1283e-28  8.1249e-24  3.3318e-28  1.0217e-23  4.4541e-28  1.3938e-23  5.5647e-28  2.0558e-23  6.7764e-28  3.2339e-23  8.3486e-28  5.3314e-23  1.0209e-27  9.0691e-23  1.3269e-27  1.574e-22  1.8627e-27  2.768e-22  2.8047e-27  4.9156e-22  4.4872e-27  8.8116e-22  7.5652e-27  1.5983e-21  1.3325e-26  2.9506e-21  2.4484e-26  5.5988e-21
      6.00  7.8229e-30  5.4797e-24  1.1769e-29  5.5977e-24  2.2417e-29  5.8076e-24  4.9694e-29  6.1807e-24  1.1319e-28  6.8441e-24  2.3022e-28  8.0239e-24  3.4603e-28  1.0123e-23  4.536e-28  1.3856e-23  5.5955e-28  2.0498e-23  6.9495e-28  3.2317e-23  8.566e-28  5.3361e-23  1.0917e-27  9.0862e-23  1.4745e-27  1.578e-22  2.1461e-27  2.7762e-22  3.3419e-27  4.9319e-22  5.5039e-27  8.8442e-22  9.4666e-27  1.6051e-21  1.6907e-26  2.9655e-21  3.1393e-26  5.634e-21
      6.05  7.0077e-30  5.4228e-24  1.0235e-29  5.5375e-24  1.9309e-29  5.7414e-24  4.3736e-29  6.1039e-24  1.0286e-28  6.7485e-24  2.3063e-28  7.8947e-24  3.5404e-28  9.9336e-24  4.6546e-28  1.3561e-23  5.8003e-28  2.0014e-23  7.1055e-28  3.1498e-23  8.7581e-28  5.1944e-23  1.1451e-27  8.8383e-23  1.6025e-27  1.5343e-22  2.4099e-27  2.6988e-22  3.8548e-27  4.7945e-22  6.4704e-27  8.5996e-22  1.1275e-26  1.5614e-21  2.0321e-26  2.8872e-21  3.8002e-26  5.4928e-21
      6.10  6.3293e-30  5.3977e-24  8.9927e-30  5.5065e-24  1.6431e-29  5.6998e-24  3.6694e-29  6.0436e-24  8.7201e-29  6.6548e-24  2.0035e-28  7.7416e-24  3.3239e-28  9.6748e-24  4.5625e-28  1.3114e-23  5.6242e-28  1.9233e-23  6.8196e-28  3.0122e-23  8.6926e-28  4.951e-23  1.1708e-27  8.4063e-23  1.6974e-27  1.4575e-22  2.6357e-27  2.5621e-22  4.3151e-27  4.5504e-22  7.3573e-27  8.1624e-22  1.2958e-26  1.4826e-21  2.3527e-26  2.7438e-21  4.4251e-26  5.2273e-21
      6.15  5.9877e-30    5.4e-24  8.5071e-30  5.5009e-24  1.5064e-29  5.6802e-24  3.2064e-29  5.9991e-24  7.3085e-29  6.5661e-24  1.5246e-28  7.5742e-24  2.5025e-28  9.3673e-24  3.8328e-28  1.2557e-23  4.8947e-28  1.8232e-23  6.1759e-28  2.8331e-23  8.1858e-28  4.6314e-23  1.1455e-27  7.8364e-23  1.7253e-27  1.3559e-22  2.7569e-27  2.3807e-22  4.6122e-27  4.226e-22  7.9767e-27  7.5798e-22  1.4176e-26  1.3772e-21  2.5897e-26  2.5508e-21  4.8945e-26  4.8664e-21
      6.20  5.8758e-30  5.4785e-24  8.2362e-30  5.5144e-24  1.4299e-29  5.6746e-24  2.8899e-29  5.9594e-24  5.8197e-29  6.4659e-24  1.1265e-28  7.3665e-24  1.8162e-28  8.9682e-24  2.7203e-28  1.1817e-23  3.808e-28  1.6886e-23  5.1906e-28  2.5907e-23  7.2152e-28  4.1969e-23  1.0671e-27  7.0598e-23  1.6683e-27  1.2172e-22  2.7437e-27  2.1329e-22  4.6768e-27  3.7821e-22  8.1869e-27  6.7812e-22  1.4663e-26  1.2324e-21  2.6927e-26  2.2842e-21  5.1106e-26  4.364e-21
      6.25  5.2683e-30  5.4663e-24  7.5049e-30  5.5421e-24  1.2714e-29  5.6769e-24  2.3017e-29  5.9167e-24  4.4048e-29  6.3429e-24  8.2009e-29  7.1008e-24  1.2791e-28  8.4488e-24  1.9352e-28  1.0846e-23  2.816e-28  1.5111e-23  4.0839e-28  2.2701e-23  6.0669e-28  3.6217e-23  9.4601e-28  6.0307e-23  1.5396e-27  1.0333e-22  2.5962e-27  1.804e-22  4.4934e-27  3.1927e-22  7.9413e-27  5.7194e-22  1.431e-26  1.0393e-21  2.6393e-26  1.9277e-21  5.0273e-26  3.6883e-21
      6.30  4.6075e-30  5.5497e-24  6.3564e-30  5.6102e-24  9.9196e-30  5.7178e-24  1.7831e-29  5.9091e-24  3.1759e-29  6.2492e-24  5.7754e-29  6.854e-24  8.5535e-29  7.9295e-24  1.3436e-28  9.8424e-24  2.0875e-28  1.3245e-23  3.1543e-28  1.9301e-23  4.9943e-28  3.0083e-23  8.1236e-28  4.9304e-23  1.3663e-27  8.3633e-23  2.3495e-27  1.4515e-22  4.1172e-27  2.5602e-22  7.3313e-27  4.5786e-22  1.3275e-26  8.3163e-22  2.4568e-26  1.5431e-21  4.6945e-26  2.9566e-21
      6.35  4.0085e-30  5.6562e-24  5.2383e-30  5.7041e-24  7.8135e-30  5.7892e-24  1.2898e-29  5.9406e-24  2.3413e-29  6.2098e-24  4.2094e-29  6.6884e-24  5.8952e-29  7.5396e-24  9.0192e-29  9.0533e-24  1.4727e-28  1.1746e-23  2.4733e-28  1.6538e-23  4.0906e-28  2.5071e-23   6.95e-28  4.0282e-23  1.1963e-27  6.7452e-23  2.0894e-27  1.1615e-22  3.6998e-27  2.0395e-22  6.6308e-27  3.6389e-22  1.2056e-26  6.6035e-22  2.2383e-26  1.2256e-21  4.2895e-26  2.3513e-21
      6.40  3.4359e-30  5.7852e-24  4.4622e-30  5.824e-24  6.4314e-30  5.8932e-24  9.9808e-30  6.0161e-24  1.691e-29  6.2347e-24  3.1326e-29  6.6233e-24  4.4165e-29  7.3144e-24  6.6867e-29  8.5436e-24  1.1085e-28  1.073e-23  1.9531e-28  1.4621e-23  3.475e-28  2.155e-23  6.1573e-28  3.3902e-23  1.0892e-27  5.5967e-23  1.9358e-27  9.5522e-23  3.4656e-27  1.6686e-22  6.2522e-27  2.969e-22  1.1418e-26  5.3818e-22  2.1268e-26  9.9897e-22  4.0886e-26  1.9187e-21
      6.45  2.9912e-30  5.9332e-24  3.9392e-30  5.9653e-24  5.4904e-30  6.0225e-24  8.3708e-30  6.1242e-24  1.3384e-29  6.305e-24  2.3268e-29  6.6264e-24  3.7411e-29  7.1981e-24  5.7609e-29  8.2148e-24  9.7388e-29  1.0023e-23  1.7437e-28  1.3241e-23  3.1904e-28  1.8972e-23  5.8119e-28  2.9188e-23  1.051e-27  4.7439e-23  1.8982e-27  8.0163e-23  3.4256e-27  1.392e-22  6.2128e-27  2.4688e-22  1.1387e-26  4.4685e-22  2.1272e-26  8.293e-22  4.1011e-26  1.5943e-21
      6.50  2.4834e-30  6.0979e-24  3.3695e-30  6.1247e-24  4.5829e-30  6.1722e-24  6.8157e-30  6.2567e-24  1.0794e-29  6.407e-24  1.8416e-29  6.6742e-24  2.9038e-29  7.1494e-24  4.6496e-29  7.9946e-24  7.9862e-29  9.4979e-24  1.4502e-28  1.2173e-23  2.7047e-28  1.6936e-23  5.0584e-28  2.5428e-23  9.3451e-28  4.0601e-23  1.7098e-27  6.7808e-23  3.1146e-27  1.1691e-22  5.6823e-27  2.065e-22  1.0455e-26   3.73e-22  1.9589e-26  6.9184e-22  3.7866e-26  1.3308e-21
      6.55  2.0592e-30  6.309e-24  2.8228e-30  6.3316e-24  3.7715e-30  6.3718e-24  5.5463e-30  6.4434e-24  8.9147e-30  6.5706e-24  1.5278e-29  6.7969e-24  2.4392e-29  7.1993e-24  3.9095e-29  7.9149e-24  6.8879e-29  9.1879e-24  1.2762e-28  1.1453e-23  2.4249e-28  1.5487e-23  4.6156e-28  2.2678e-23  8.6841e-28  3.5527e-23  1.6112e-27  5.857e-23  2.9608e-27  1.0016e-22  5.4319e-27  1.7608e-22  1.0034e-26  3.1727e-22  1.8854e-26  5.8788e-22  3.6537e-26  1.1309e-21
      6.60  1.713e-30  6.5377e-24  2.3248e-30  6.5576e-24  3.1303e-30  6.5929e-24  4.5071e-30  6.6557e-24  7.3696e-30  6.7673e-24  1.3254e-29  6.9658e-24  2.1701e-29  7.3187e-24  3.5161e-29  7.9465e-24  6.307e-29  9.0632e-24  1.1961e-28  1.1051e-23  2.3108e-28  1.4589e-23  4.4592e-28  2.0899e-23  8.4941e-28  3.2172e-23  1.5934e-27  5.2392e-23  2.9542e-27  8.8896e-23  5.4509e-27  1.5554e-22  1.0107e-26  2.7954e-22  1.9043e-26  5.1738e-22  3.6987e-26  9.9513e-22
      6.65  1.4264e-30  6.7831e-24  1.8841e-30  6.8012e-24  2.5918e-30  6.8335e-24  3.7525e-30  6.8907e-24  6.1413e-30  6.9926e-24  1.1458e-29  7.1737e-24  1.9341e-29  7.4958e-24  3.1859e-29  8.0687e-24  5.8732e-29  9.0879e-24  1.1407e-28  1.0902e-23  2.2414e-28  1.4131e-23  4.3787e-28  1.989e-23  8.4286e-28  3.018e-23  1.5963e-27  4.8638e-23  2.9827e-27  8.1964e-23  5.5344e-27  1.4282e-22   1.03e-26  2.5609e-22  1.9458e-26  4.7348e-22  3.787e-26  9.1054e-22
      6.70  1.187e-30  7.044e-24  1.5056e-30  7.0611e-24  2.1305e-30  7.1624e-24  3.1286e-30  7.1456e-24  5.2387e-30  7.2419e-24  1.0611e-29  7.413e-24  1.9352e-29  7.7173e-24  3.4193e-29  8.2586e-24  6.5786e-29  9.2216e-24  1.3048e-28  1.0935e-23  2.5828e-28  1.3987e-23  5.054e-28  1.9429e-23  9.7389e-28  2.9153e-23  1.8464e-27  4.6595e-23  3.4562e-27  7.8093e-23  6.4256e-27  1.3562e-22  1.1978e-26  2.4274e-22  2.2658e-26  4.4841e-22  4.4154e-26  8.6221e-22
      6.75  9.8906e-31  7.3192e-24  1.203e-30  7.3359e-24  1.7014e-30  7.3654e-24  2.6237e-30  7.4179e-24  4.9698e-30  7.5864e-24  1.0632e-29  7.6772e-24  2.0731e-29  7.9725e-24  3.8495e-29  8.4976e-24  7.6294e-29  9.4317e-24  1.5277e-28  1.1094e-23  3.0177e-28  1.4055e-23  5.8875e-28  1.9334e-23  1.1305e-27  2.8767e-23  2.1399e-27  4.5691e-23  4.0036e-27  7.6253e-23  7.4472e-27  1.3209e-22  1.3894e-26  2.3606e-22  2.6306e-26  4.3581e-22  5.1312e-26  8.3794e-22
      6.80  8.2812e-31  7.6481e-24  9.7107e-31  7.6646e-24  1.3866e-30  7.6938e-24  2.2817e-30  7.7458e-24  4.4781e-30  7.8383e-24  1.0029e-29  8.0027e-24  2.1374e-29  8.2952e-24  4.0958e-29  8.8153e-24  8.2372e-29  9.7407e-24  1.6477e-28  1.1387e-23  3.2433e-28  1.432e-23  6.3089e-28  1.955e-23   1.21e-27  2.8896e-23  2.2897e-27  4.5663e-23  4.2873e-27  7.5945e-23  7.9865e-27  1.3127e-22  1.4923e-26  2.3434e-22  2.829e-26  4.3241e-22  5.5247e-26  8.314e-22
      6.85  6.9802e-31  7.9947e-24  7.9663e-31  8.0112e-24  1.1178e-30  8.1211e-24  1.9212e-30  8.0931e-24  3.9095e-30  8.1862e-24  9.5074e-30  8.3517e-24  2.253e-29  8.6462e-24  4.466e-29  9.1699e-24  9.1895e-29  1.0102e-23  1.8385e-28  1.176e-23  3.6279e-28  1.4712e-23  7.0483e-28  1.9978e-23  1.3505e-27  2.9389e-23  2.5529e-27  4.6272e-23  4.7777e-27  7.6768e-23  8.901e-27  1.3249e-22  1.664e-26  2.3632e-22  3.157e-26  4.3593e-22  6.1705e-26  8.3822e-22
      6.90  5.9457e-31  8.3583e-24  6.7264e-31  8.3751e-24  9.076e-31  8.4049e-24  1.5988e-30  8.4579e-24  3.6396e-30  8.5522e-24  9.6145e-30  8.7198e-24  2.4342e-29  9.0179e-24  5.0099e-29  9.5482e-24  1.0522e-28  1.0492e-23  2.1151e-28  1.217e-23  4.2021e-28  1.516e-23  8.2183e-28  2.0492e-23  1.5772e-27  3.002e-23  2.979e-27  4.7116e-23  5.5663e-27  7.7997e-23  1.0358e-26  1.3444e-22  1.9355e-26  2.3961e-22  3.6722e-26  4.4188e-22  7.1802e-26  8.4974e-22
      6.95  5.1177e-31  8.7383e-24  5.847e-31  8.7551e-24  8.0094e-31  8.7851e-24  1.4745e-30  8.8384e-24  3.5464e-30  8.9331e-24  9.5384e-30  9.1016e-24  2.4892e-29  9.4011e-24  5.1626e-29  9.934e-24  1.0671e-28  1.0882e-23  2.1371e-28  1.2569e-23  4.2919e-28  1.5573e-23  8.4555e-28  2.093e-23  1.6287e-27  3.0504e-23  3.0821e-27  4.7682e-23  5.7663e-27  7.8715e-23  1.074e-26  1.3544e-22  2.0083e-26  2.4117e-22  3.8134e-26  4.4456e-22  7.4628e-26  8.5487e-22
      7.00  4.4251e-31  9.1339e-24  5.1346e-31  9.1505e-24  7.3181e-31  9.1801e-24  1.3764e-30  9.2325e-24  3.3297e-30  9.3259e-24  9.0572e-30  9.4918e-24  2.5162e-29  9.7869e-24  5.2201e-29  1.0312e-23  1.0477e-28  1.1245e-23  2.1272e-28  1.2907e-23  4.3158e-28  1.5865e-23  8.563e-28  2.1141e-23  1.6591e-27  3.0571e-23  3.1548e-27  4.749e-23  5.9212e-27  7.8057e-23  1.1051e-26  1.3393e-22  2.0694e-26  2.3811e-22  3.9337e-26  4.3858e-22  7.7059e-26  8.4317e-22
      7.05  3.7137e-31  9.5953e-24  4.3892e-31  9.6112e-24  6.4066e-31  9.6394e-24  1.2408e-30  9.6895e-24  3.0168e-30  9.7787e-24  8.3867e-30  9.9372e-24  2.399e-29  1.0219e-23  5.1627e-29  1.072e-23  1.0474e-28  1.1612e-23  2.1387e-28  1.3199e-23  4.3723e-28  1.6024e-23  8.767e-28  2.1062e-23  1.721e-27  3.0065e-23  3.3029e-27  4.6221e-23  6.237e-27  7.541e-23  1.1684e-26  1.2877e-22  2.1929e-26  2.2828e-22  4.1747e-26  4.1983e-22  8.1877e-26  8.0659e-22
      7.10  3.0826e-31  1.0077e-23  3.646e-31  1.0092e-23  5.4004e-31  1.0118e-23  1.072e-30  1.0164e-23  2.6881e-30  1.0246e-23  7.6378e-30  1.0391e-23  2.2145e-29  1.065e-23  5.147e-29  1.111e-23  1.0596e-28  1.1928e-23   2.16e-28  1.3383e-23  4.4176e-28  1.5975e-23  9.037e-28  2.0595e-23  1.8054e-27  2.8853e-23  3.5113e-27  4.3668e-23  6.6878e-27  7.0438e-23  1.2596e-26  1.1938e-22  2.3719e-26  2.1067e-22  4.5248e-26  3.8644e-22  8.8868e-26  7.4149e-22
      7.15  2.5536e-31  1.058e-23  3.0677e-31  1.0593e-23  4.614e-31  1.0616e-23  9.3609e-31  1.0656e-23  2.3992e-30  1.0728e-23  6.6776e-30  1.0856e-23  1.8917e-29  1.1083e-23  4.6142e-29  1.1487e-23  9.3151e-29  1.2205e-23  1.8654e-28  1.3482e-23  3.8668e-28  1.5757e-23  8.0513e-28  1.9811e-23  1.642e-27  2.7056e-23  3.2521e-27  4.0054e-23  6.2813e-27  6.354e-23  1.1946e-26  1.0649e-22  2.2639e-26  1.8659e-22  4.3368e-26  3.4087e-22  8.541e-26  6.5263e-22
      7.20  2.1034e-31  1.1104e-23  2.5339e-31  1.1115e-23  3.8443e-31  1.1134e-23  7.8629e-31  1.1168e-23  1.9672e-30  1.1229e-23  5.3921e-30  1.1337e-23  1.4958e-29  1.1529e-23  3.7982e-29  1.187e-23  7.3519e-29  1.2478e-23  1.5043e-28  1.3558e-23  3.173e-28  1.5481e-23  6.7471e-28  1.8908e-23  1.4123e-27  2.5031e-23  2.8675e-27  3.6015e-23  5.6511e-27  5.586e-23  1.0907e-26  9.2148e-23  2.088e-26  1.5985e-22  4.0262e-26  2.9025e-22  7.9632e-26  5.5385e-22
      7.25  1.7235e-31  1.1648e-23  2.0703e-31  1.1657e-23  3.1215e-31  1.1673e-23  6.2349e-31  1.1701e-23  1.5348e-30  1.1752e-23  4.1053e-30  1.1842e-23  1.1063e-29  1.2001e-23  2.765e-29  1.2285e-23  5.491e-29  1.2789e-23  1.1237e-28  1.3687e-23  2.4003e-28  1.5284e-23  5.2488e-28  1.813e-23  1.1328e-27  2.3213e-23  2.3734e-27  3.2332e-23  4.8013e-27  4.8805e-23  9.4513e-27  7.8927e-23  1.8346e-26  1.3512e-22  3.5703e-26  2.4339e-22  7.1036e-26  4.6227e-22
      7.30  1.4056e-31  1.2277e-23  1.676e-31  1.2285e-23  2.4752e-31  1.2298e-23  4.8485e-31  1.2322e-23  1.1755e-30  1.2364e-23  3.0564e-30  1.2439e-23  8.0697e-30  1.2572e-23  1.9924e-29  1.2809e-23  4.1473e-29  1.323e-23  8.4493e-29  1.398e-23  1.7874e-28  1.5314e-23  4.0057e-28  1.7691e-23  8.9868e-28  2.1936e-23  1.956e-27  2.9549e-23  4.0908e-27  4.3302e-23  8.2618e-27  6.8447e-23  1.6333e-26  1.1536e-22  3.2182e-26  2.0574e-22  6.454e-26  3.8847e-22
      7.35  1.1457e-31  1.2935e-23  1.3488e-31  1.2942e-23   1.95e-31  1.2953e-23  3.7334e-31  1.2973e-23  8.9313e-31  1.3009e-23  2.2451e-30  1.3073e-23  5.8631e-30  1.3186e-23  1.4882e-29  1.3388e-23  3.2741e-29  1.3747e-23  6.5833e-29  1.4386e-23  1.3962e-28  1.5523e-23  3.1806e-28  1.755e-23  7.3906e-28  2.1169e-23  1.6688e-27  2.7659e-23  3.5983e-27  3.9382e-23  7.4475e-27  6.0813e-23  1.4992e-26  1.0079e-22  2.9908e-26  1.7782e-22  6.047e-26  3.3354e-22
      7.40  9.3427e-32  1.3622e-23  1.0894e-31  1.3627e-23  1.5486e-31  1.3637e-23  2.8868e-31  1.3655e-23  6.9015e-31  1.3686e-23  1.7064e-30  1.3742e-23  4.4828e-30  1.3841e-23  1.1665e-29  1.4018e-23  2.7913e-29  1.4332e-23  5.4868e-29  1.489e-23  1.1596e-28  1.5885e-23  2.669e-28  1.7658e-23  6.308e-28  2.0824e-23  1.4618e-27  2.6503e-23  3.2398e-27  3.6758e-23  6.8599e-27  5.5505e-23  1.4047e-26  9.0475e-23  2.8359e-26  1.5784e-22  5.7796e-26  2.9403e-22
      7.45  7.6339e-32  1.4336e-23  8.7794e-32  1.4341e-23  1.2384e-31  1.435e-23  2.3125e-31  1.4366e-23  5.4612e-31  1.4394e-23  1.366e-30  1.4444e-23  3.5654e-30  1.4533e-23  9.4584e-30  1.4692e-23  2.2342e-29  1.4974e-23  4.3036e-29  1.5475e-23   8.92e-29  1.6369e-23  2.0657e-28  1.7961e-23  4.9739e-28  2.0806e-23  1.1849e-27  2.5908e-23  2.7082e-27  3.5123e-23  5.8959e-27  5.1967e-23  1.2339e-26  8.3384e-23  2.5305e-26  1.439e-22  5.212e-26  2.6622e-22
      7.50  6.1965e-32  1.5078e-23  7.2744e-32  1.5083e-23  1.0219e-31  1.5091e-23  1.963e-31  1.5257e-23  4.5298e-31  1.5132e-23  1.1263e-30  1.5178e-23  2.9578e-30  1.526e-23  7.9204e-30  1.5406e-23  1.8588e-29  1.5665e-23  3.5288e-29  1.6127e-23  7.2516e-29  1.6949e-23  1.6756e-28  1.8416e-23  4.077e-28  2.1036e-23  9.9216e-28  2.5735e-23  2.3306e-27  3.4221e-23  5.2124e-27  4.9734e-23  1.1154e-26  7.8665e-23  2.3251e-26  1.3438e-22  4.8425e-26  2.4699e-22
      7.55  5.1464e-32  1.5929e-23  6.0371e-32  1.5934e-23  8.7108e-32  1.5941e-23  1.6402e-31  1.5955e-23  3.9393e-31  1.598e-23  9.9286e-31  1.6023e-23  2.6259e-30   1.61e-23  7.0475e-30  1.6238e-23  1.5848e-29  1.6482e-23  3.057e-29  1.6918e-23  6.1904e-29  1.7693e-23  1.4143e-28  1.9075e-23  3.444e-28  2.1544e-23  8.496e-28  2.5974e-23  2.0424e-27  3.3975e-23  4.6904e-27  4.8599e-23  1.0282e-26  7.5871e-23  2.1841e-26  1.2839e-22  4.6098e-26  2.3451e-22
      7.60  4.2533e-32  1.6818e-23  5.0721e-32  1.6822e-23  7.5489e-32  1.683e-23  1.4829e-31  1.6843e-23  3.6201e-31  1.6867e-23  9.2242e-31  1.6908e-23  2.4567e-30  1.6983e-23  6.5668e-30  1.7115e-23  1.3596e-29  1.735e-23  2.6931e-29  1.7768e-23  5.3173e-29  1.8513e-23  1.181e-28  1.9842e-23  2.8273e-28  2.2217e-23  6.9622e-28  2.6477e-23  1.6942e-27  3.4172e-23  3.9693e-27  4.8237e-23  8.8878e-27  7.4466e-23  1.9226e-26  1.2497e-22  4.1128e-26   2.27e-22
      7.65  3.5282e-32  1.7745e-23  4.3008e-32  1.7749e-23  6.6552e-32  1.7756e-23  1.3554e-31  1.7769e-23  3.3687e-31  1.7792e-23  8.8493e-31  1.7833e-23  2.346e-30  1.7906e-23  6.196e-30  1.8035e-23  1.2258e-29  1.8265e-23  2.3968e-29  1.8673e-23  4.6631e-29  1.9402e-23  1.0053e-28  2.0701e-23  2.3504e-28  2.3022e-23  5.731e-28  2.7188e-23  1.4018e-27  3.4711e-23  3.3367e-27  4.8464e-23  7.6212e-27  7.4109e-23  1.6795e-26  1.2348e-22  3.6456e-26  2.2322e-22
      7.70  2.9252e-32  1.8709e-23  3.6591e-32  1.8713e-23  5.913e-32  1.8721e-23  1.2367e-31  1.8733e-23  3.1563e-31  1.8756e-23  8.443e-31  1.8797e-23  2.2638e-30  1.8868e-23  5.9858e-30  1.8996e-23  1.0969e-29  1.9224e-23  2.1313e-29  1.9629e-23  4.1268e-29  2.035e-23  8.6494e-29  2.1637e-23  1.9693e-28  2.3936e-23  4.7295e-28  2.8061e-23  1.156e-27  3.5513e-23  2.7838e-27  4.9136e-23  6.4751e-27  7.4537e-23  1.454e-26  1.2344e-22  3.2063e-26  2.2221e-22
      7.75  2.442e-32  1.9711e-23  3.1421e-32  1.9715e-23  5.3064e-32  1.9723e-23  1.1605e-31  1.9735e-23  2.9752e-31  1.9758e-23  8.0627e-31  1.9798e-23  2.1731e-30  1.987e-23  5.5047e-30  1.9998e-23  1.0096e-29  2.0226e-23  1.9154e-29  2.063e-23  3.718e-29  2.1351e-23  7.5078e-29  2.2637e-23  1.6668e-28  2.4935e-23  3.9217e-28  2.9059e-23  9.5188e-28  3.6508e-23  2.3075e-27  5.0127e-23  5.4521e-27  7.5519e-23  1.2472e-26  1.244e-22  2.7966e-26  2.2312e-22
      7.80  2.0434e-32  2.0854e-23  2.7057e-32  2.0858e-23  4.7706e-32  2.0865e-23  1.0754e-31  2.0878e-23  2.7915e-31  2.0901e-23  7.6552e-31  2.0942e-23  2.0516e-30  2.1014e-23  5.067e-30  2.1143e-23  9.3956e-30  2.1586e-23  1.7568e-29  2.1998e-23  3.3059e-29  2.2506e-23  6.6079e-29  2.3801e-23  1.4162e-28  2.6115e-23  3.2682e-28  3.0268e-23  7.8402e-28  3.7771e-23  1.9047e-27  5.1488e-23  4.5591e-27  7.7063e-23  1.0619e-26  1.2629e-22  2.4237e-26  2.2571e-22
      7.85  1.6935e-32  2.2048e-23  2.3243e-32  2.2052e-23  4.2559e-32  2.2059e-23  9.7443e-32  2.2072e-23  2.5542e-31  2.2095e-23  7.0407e-31  2.2137e-23  1.9165e-30  2.221e-23  4.6672e-30  2.234e-23  8.3797e-30  2.2571e-23  1.5535e-29  2.2982e-23  2.9566e-29  2.3716e-23  5.8001e-29  2.5023e-23  1.2171e-28  2.736e-23  2.7317e-28  3.1553e-23  6.4588e-28  3.913e-23  1.5666e-27  5.2979e-23  3.789e-27  7.8804e-23  8.9806e-27  1.2851e-22  2.0885e-26  2.2888e-22
      7.90  1.428e-32  2.3293e-23  1.9742e-32  2.3298e-23  3.7181e-32  2.3305e-23  8.7198e-32  2.3318e-23  2.3011e-31  2.3341e-23  6.3465e-31  2.3383e-23  1.7414e-30  2.3457e-23  3.9721e-30  2.3588e-23  7.3122e-30  2.3821e-23  1.3325e-29  2.4237e-23  2.5218e-29  2.4977e-23  4.8835e-29  2.6297e-23  1.0042e-28  2.8656e-23  2.2068e-28  3.2889e-23  5.1428e-28  4.0536e-23  1.2439e-27  5.4518e-23  3.0374e-27  8.0586e-23  7.3302e-27  1.3076e-22  1.7404e-26  2.3206e-22
      7.95  1.1902e-32  2.4591e-23  1.6684e-32  2.4595e-23  3.2086e-32  2.4602e-23  7.6254e-32  2.4615e-23  2.021e-31  2.4639e-23  5.5779e-31  2.468e-23  1.5403e-30  2.4755e-23  3.3632e-30  2.4887e-23   6.12e-30  2.5122e-23  1.1199e-29  2.554e-23  2.0983e-29  2.6284e-23  4.0359e-29  2.7612e-23  8.1515e-29  2.9986e-23  1.7557e-28  3.4245e-23  4.0258e-28  4.1941e-23  9.6736e-28  5.6009e-23  2.3746e-27  8.2238e-23  5.816e-27  1.3272e-22  1.4076e-26  2.3463e-22
      8.00  9.8854e-33  2.5939e-23  1.394e-32  2.5943e-23  2.6868e-32  2.5951e-23  6.5687e-32  2.5964e-23  1.7259e-31  2.5988e-23  4.8129e-31  2.6029e-23  1.3203e-30  2.6104e-23  2.8722e-30  2.6499e-23  5.0175e-30  2.6471e-23  9.2343e-30  2.689e-23  1.7174e-29  2.7637e-23  3.2798e-29  2.8968e-23  6.5338e-29  3.1347e-23  1.3772e-28  3.5615e-23  3.1178e-28  4.3327e-23  7.4253e-28  5.7426e-23  1.8258e-27  8.3711e-23  4.5234e-27  1.343e-22  1.1136e-26  2.364e-22
      8.05  8.1861e-33  2.7472e-23  1.1512e-32  2.7477e-23  2.2239e-32  2.7484e-23  5.3968e-32  2.7497e-23  1.4457e-31  2.7521e-23  3.9548e-31  2.7563e-23  1.1073e-30  2.7637e-23  2.2658e-30  2.7769e-23  4.0679e-30  2.8005e-23  7.4643e-30  2.8424e-23  1.3808e-29  2.9171e-23  2.6254e-29  3.0502e-23  5.1708e-29  3.2882e-23  1.0745e-28  3.7153e-23  2.3983e-28  4.4868e-23  5.6631e-28  5.8971e-23  1.393e-27  8.5265e-23  3.4844e-27  1.3586e-22  8.7143e-27  2.3797e-22
      8.10  6.761e-33  2.9076e-23  9.4066e-33  2.9081e-23  1.8097e-32  2.9088e-23  4.3682e-32  2.9101e-23  1.1652e-31  2.9125e-23  3.2241e-31  2.9166e-23  8.8646e-31  2.924e-23  1.8199e-30  2.9372e-23  3.2323e-30  2.9607e-23  5.862e-30  3.0025e-23  1.0904e-29  3.0769e-23  2.0596e-29  3.2097e-23  4.0325e-29  3.4469e-23  8.3085e-29  3.8726e-23  1.8266e-28  4.6417e-23  4.2569e-28  6.0476e-23  1.0516e-27  8.6683e-23  2.6509e-27  1.371e-22  6.7236e-27  2.3885e-22
      8.15  5.5845e-33  3.0752e-23  7.6365e-33  3.0756e-23  1.4448e-32  3.0763e-23  3.4317e-32  3.0776e-23  9.1902e-32   3.08e-23  2.5182e-31  3.0841e-23  7.0759e-31  3.0915e-23  1.4066e-30  3.1046e-23  2.5248e-30  3.128e-23  4.6134e-30  3.1695e-23  8.3924e-30  3.2436e-23  1.5771e-29  3.3756e-23  3.0946e-29  3.6116e-23  6.3103e-29  4.035e-23  1.3657e-28  4.7999e-23  3.1822e-28  6.198e-23  7.8004e-28  8.804e-23  1.9768e-27  1.3817e-22  5.0753e-27  2.3931e-22
      8.20  4.6247e-33   3.25e-23  6.1836e-33  3.2504e-23  1.141e-32  3.2511e-23  2.6704e-32  3.2524e-23  7.0756e-32  3.2547e-23  1.9473e-31  3.2589e-23  5.4831e-31  3.2662e-23  1.0832e-30  3.2792e-23  1.9446e-30  3.3024e-23  3.5488e-30  3.3437e-23  6.4403e-30  3.4173e-23  1.2056e-29  3.5484e-23  2.3522e-29  3.7829e-23  4.7677e-29  4.2036e-23  1.0272e-28  4.9635e-23  2.3684e-28  6.3524e-23  5.7951e-28  8.9411e-23  1.4757e-27  1.392e-22  3.8304e-27  2.3962e-22
      8.25  3.8194e-33  3.4321e-23  4.9879e-33  3.4325e-23  8.6507e-33  3.4332e-23  2.0542e-32  3.4345e-23  5.4002e-32  3.4368e-23  1.4995e-31  3.4409e-23  4.1915e-31  3.4482e-23  8.2611e-31  3.4611e-23  1.4819e-30  3.4842e-23  2.7558e-30  3.5606e-23  4.8998e-30  3.5983e-23  9.2306e-30  3.7287e-23  1.7784e-29  3.9617e-23  3.5892e-29  4.3798e-23  7.6917e-29  5.135e-23  1.7658e-28  6.5152e-23  4.318e-28  9.0873e-23  1.1048e-27  1.4034e-22  2.8961e-27  2.4007e-22
      8.30  3.2052e-33  3.6388e-23  4.0444e-33  3.6392e-23  6.7568e-33  3.6399e-23  1.5358e-32  3.6412e-23  4.056e-32  3.6435e-23  1.1284e-31  3.6476e-23  3.1767e-31  3.6549e-23  6.3285e-31  3.6678e-23  1.1344e-30  3.6909e-23  2.0494e-30  3.7318e-23  3.7448e-30  3.8049e-23  6.978e-30  3.935e-23  1.3411e-29  4.1677e-23  2.698e-29  4.5852e-23  5.7451e-29  5.3394e-23  1.3205e-28  6.7176e-23  3.2304e-28  9.2856e-23  8.3037e-28  1.4223e-22  2.1966e-27  2.4175e-22
      8.35  2.7105e-33  3.8556e-23  3.3436e-33  3.856e-23  5.3073e-33  3.8567e-23  1.1613e-32  3.858e-23  2.9854e-32  3.8603e-23  8.2444e-32  3.8644e-23  2.3223e-31  3.8717e-23  4.684e-31  3.8847e-23  8.3916e-31  3.9077e-23  1.5157e-30  3.9488e-23  2.7701e-30  4.0219e-23  5.1615e-30  4.1523e-23  9.9201e-30  4.3853e-23  1.9961e-29  4.8034e-23  4.2701e-29  5.5586e-23  9.8004e-29  6.9385e-23  2.3935e-28  9.5096e-23  6.1921e-28  1.4452e-22  1.665e-27  2.4411e-22
      8.40  2.302e-33  4.0827e-23  2.7703e-33  4.0831e-23  4.1903e-33  4.0838e-23  8.8122e-33  4.0851e-23  2.1788e-32  4.0875e-23  5.9792e-32  4.0916e-23  1.6766e-31  4.0989e-23  3.3921e-31  4.1119e-23  6.0746e-31  4.1351e-23  1.0973e-30  4.1763e-23  2.0071e-30  4.2498e-23  3.7447e-30  4.3808e-23  7.2121e-30  4.6149e-23  1.4558e-29  5.035e-23  3.1284e-29  5.7937e-23  7.2246e-29   7.18e-23  1.788e-28  9.7625e-23  4.671e-28  1.4726e-22  1.2617e-27  2.4724e-22
      8.45  2.0059e-33  4.3204e-23  2.3353e-33  4.3208e-23  3.3994e-33  4.3216e-23  6.4809e-33  4.3229e-23  1.6152e-32  4.3252e-23  4.416e-32  4.3294e-23  1.2196e-31  4.3368e-23  2.4767e-31  4.3499e-23  4.4333e-31  4.3733e-23  8.0089e-31  4.4148e-23  1.4658e-30  4.4889e-23  2.7388e-30  4.621e-23  5.2858e-30  4.8571e-23  1.0704e-29  5.2806e-23  2.3104e-29  6.0456e-23  5.3665e-29  7.4432e-23  1.3375e-28  1.0046e-22  3.5234e-28  1.5048e-22  9.6109e-28  2.5122e-22
      8.50  1.7615e-33  4.5691e-23  2.0038e-33  4.5695e-23  2.7966e-33  4.5703e-23  5.0565e-33  4.5716e-23  1.2166e-32  4.574e-23  3.219e-32  4.5782e-23  8.9868e-32  4.5856e-23  1.8071e-31  4.5989e-23  3.2643e-31  4.6226e-23  5.8983e-31  4.6646e-23  1.0801e-30  4.7396e-23  2.0205e-30  4.8733e-23  3.9074e-30  5.1121e-23  7.9362e-30  5.5407e-23   1.72e-29  6.3146e-23  3.9952e-29  7.7285e-23  1.0072e-28  1.0362e-22  2.6727e-28  1.5421e-22  7.3534e-28  2.5606e-22
