# This was generated using Cloudy10 and the columns are ordered 
# as log10 of the fraction of the metallicity to the solar metallicity
# 'h_*_Z' and 'c_*_Z' stands for cooling and heating respectively 
# at * metalicity
#
# Redshift = 7.0
# hden = 2.5
#     temp   h_-3.00_Z   c_-3.00_Z   h_-2.75_Z   c_-2.75_Z   h_-2.50_Z   c_-2.50_Z   h_-2.25_Z   c_-2.25_Z   h_-2.00_Z   c_-2.00_Z   h_-1.75_Z   c_-1.75_Z   h_-1.50_Z   c_-1.50_Z   h_-1.25_Z   c_-1.25_Z   h_-1.00_Z   c_-1.00_Z   h_-0.75_Z   c_-0.75_Z   h_-0.50_Z   c_-0.50_Z   h_-0.25_Z   c_-0.25_Z    h_0.00_Z    c_0.00_Z    h_0.25_Z    c_0.25_Z    h_0.50_Z    c_0.50_Z    h_0.75_Z    c_0.75_Z    h_1.00_Z    c_1.00_Z    h_1.25_Z    c_1.25_Z    h_1.50_Z    c_1.50_Z 
      4.00  7.5934e-27  2.0553e-25  7.5936e-27  2.0587e-25  7.594e-27  2.0647e-25  7.5946e-27  2.0754e-25  7.5957e-27  2.0943e-25  7.5977e-27  2.128e-25  7.6011e-27  2.1878e-25  7.6073e-27  2.2941e-25  7.6182e-27  2.483e-25  7.6376e-27  2.8186e-25  7.6721e-27  3.4149e-25  7.7333e-27  4.4742e-25  7.8419e-27  6.3546e-25  8.0343e-27  9.688e-25  8.3739e-27  1.5585e-24  8.9713e-27  2.5991e-24  1.0018e-26  4.4362e-24  1.185e-26  7.7061e-24  1.509e-26  1.3713e-23
      4.05  7.5701e-27  8.3056e-25  7.5703e-27  8.3105e-25  7.5707e-27  8.3191e-25  7.5714e-27  8.3345e-25  7.5726e-27  8.3617e-25  7.5747e-27  8.4102e-25  7.5785e-27  8.4962e-25  7.5852e-27  8.6487e-25  7.5972e-27  8.9193e-25  7.6184e-27  9.3999e-25  7.6561e-27  1.0253e-24  7.7231e-27  1.1767e-24  7.8418e-27  1.4448e-24  8.0519e-27  1.9184e-24  8.4223e-27  2.7512e-24  9.0716e-27  4.2043e-24  1.0201e-26  6.7234e-24  1.2156e-26  1.1077e-23  1.5553e-26  1.8805e-23
      4.10  7.3199e-27  3.8831e-24  7.3202e-27  3.8841e-24  7.3206e-27  3.8858e-24  7.3215e-27  3.8887e-24  7.323e-27  3.894e-24  7.3256e-27  3.9033e-24  7.3302e-27  3.9199e-24  7.3385e-27  3.9494e-24  7.3532e-27  4.0017e-24  7.3794e-27  4.0945e-24  7.426e-27  4.2592e-24  7.5086e-27  4.5511e-24  7.655e-27  5.0677e-24  7.9139e-27  5.9781e-24  8.3699e-27  7.5708e-24  9.1671e-27  1.0326e-23  1.0544e-26  1.5006e-23  1.2888e-26  2.2788e-23  1.6817e-26  3.5592e-23
      4.15  6.1888e-27  2.4138e-23  6.1892e-27  2.4141e-23   6.19e-27  2.4147e-23  6.1913e-27  2.4157e-23  6.1937e-27  2.4175e-23  6.1979e-27  2.4206e-23  6.2054e-27  2.4262e-23  6.2187e-27  2.4363e-23  6.2424e-27  2.454e-23  6.2845e-27  2.4856e-23  6.3594e-27  2.5418e-23  6.4924e-27  2.6416e-23  6.7285e-27  2.8186e-23  7.147e-27  3.1321e-23  7.8869e-27  3.6858e-23  9.1893e-27  4.658e-23  1.1463e-26  6.3473e-23  1.5375e-26  9.2303e-23  2.1944e-26  1.4003e-22
      4.20  3.9684e-27  8.6051e-23  3.969e-27  8.606e-23   3.97e-27  8.6077e-23  3.9717e-27  8.6106e-23  3.9748e-27  8.6157e-23  3.9803e-27  8.6249e-23  3.9902e-27  8.6412e-23  4.0076e-27  8.6702e-23  4.0387e-27  8.7218e-23  4.0939e-27  8.8136e-23  4.192e-27  8.9768e-23  4.3665e-27  9.2669e-23  4.6767e-27  9.7829e-23  5.2281e-27  1.0701e-22  6.2075e-27  1.2332e-22  7.9465e-27  1.5234e-22  1.1031e-26  2.0394e-22  1.6488e-26  2.9563e-22  2.6103e-26  4.5844e-22
      4.25  2.053e-27  1.2959e-22  2.0532e-27  1.296e-22  2.0538e-27  1.2963e-22  2.0547e-27  1.2967e-22  2.0563e-27  1.2976e-22  2.0591e-27  1.2991e-22  2.0642e-27  1.3018e-22  2.0733e-27  1.3065e-22  2.0894e-27  1.315e-22  2.118e-27   1.33e-22  2.169e-27  1.3568e-22  2.2597e-27  1.4044e-22  2.4209e-27  1.4891e-22  2.708e-27  1.6399e-22  3.2194e-27  1.9085e-22  4.1312e-27  2.3877e-22  5.7604e-27  3.2448e-22  8.6808e-27  4.7842e-22  1.3946e-26  7.5705e-22
      4.30  1.1505e-27  1.2058e-22  1.1501e-27  1.2059e-22  1.1495e-27  1.2063e-22  1.1484e-27  1.2068e-22  1.1464e-27  1.2079e-22  1.1429e-27  1.2097e-22  1.1366e-27  1.213e-22  1.1254e-27  1.2188e-22  1.1376e-27  1.2291e-22  1.1661e-27  1.2474e-22  1.2168e-27   1.28e-22  1.307e-27  1.338e-22  1.4676e-27  1.4412e-22  1.7537e-27  1.6249e-22  2.2642e-27  1.9523e-22  3.1761e-27  2.5367e-22  4.808e-27  3.583e-22  7.7334e-27  5.4659e-22  1.2983e-26  8.8849e-22
      4.35  8.4119e-28  9.5692e-23  8.4003e-28  9.5714e-23  8.3795e-28  9.5753e-23  8.3427e-28  9.5823e-23  8.2771e-28  9.5946e-23  8.1606e-28  9.6166e-23  7.9533e-28  9.6557e-23  7.5848e-28  9.7253e-23  7.7236e-28  9.849e-23  8.0061e-28  1.0069e-22  8.5092e-28  1.046e-22  9.4056e-28  1.1157e-22  1.1005e-27  1.2396e-22  1.3867e-27  1.4601e-22  1.9001e-27  1.8533e-22  2.8255e-27  2.5552e-22  4.5001e-27  3.8121e-22  7.5405e-27  6.075e-22  1.2987e-26  1.0188e-21
      4.40  7.3923e-28  7.4685e-23  7.3728e-28  7.4713e-23  7.3379e-28  7.4761e-23  7.276e-28  7.4848e-23  7.1658e-28  7.5002e-23   6.97e-28  7.5277e-23  6.6217e-28  7.5764e-23  6.0025e-28  7.6631e-23  5.7026e-28  7.8174e-23  5.982e-28  8.0917e-23  6.4806e-28  8.5796e-23  7.372e-28  9.4475e-23  8.9719e-28  1.0992e-22  1.186e-27  1.3742e-22  1.7114e-27  1.8642e-22  2.6762e-27  2.739e-22  4.4589e-27  4.3053e-22  7.5654e-27  7.125e-22  1.2969e-26  1.2248e-21
      4.45  6.136e-28  6.0078e-23  6.1094e-28  6.0113e-23  6.0621e-28  6.0175e-23  5.9779e-28  6.0287e-23  5.8282e-28  6.0484e-23  5.562e-28  6.0835e-23  5.0886e-28  6.146e-23  4.247e-28  6.2571e-23  3.6542e-28  6.4547e-23  3.9265e-28  6.8062e-23  4.4154e-28  7.4312e-23  5.2992e-28  8.5431e-23  6.9134e-28  1.0522e-22  9.9029e-28  1.4044e-22  1.553e-27  2.0319e-22  2.5868e-27  3.1518e-22  4.3718e-27  5.1562e-22  7.4668e-27  8.7616e-22  1.2919e-26  1.5304e-21
      4.50  4.2704e-28  4.8674e-23  4.2382e-28  4.8719e-23  4.1809e-28   4.88e-23  4.079e-28  4.8943e-23  3.898e-28  4.9198e-23  3.576e-28  4.9652e-23  3.0036e-28  5.0458e-23  1.9863e-28  5.1893e-23  1.9778e-28  5.4444e-23  2.2403e-28  5.898e-23  2.7243e-28  6.705e-23  3.6346e-28  8.1404e-23  5.3895e-28  1.0694e-22  8.8544e-28  1.5241e-22  1.5075e-27  2.3341e-22  2.5566e-27  3.7799e-22  4.3643e-27  6.3673e-22  7.3905e-27  1.1021e-21  1.2663e-26  1.9466e-21
      4.55  2.722e-28  3.9109e-23  2.6869e-28  3.9167e-23  2.6245e-28  3.9271e-23  2.5137e-28  3.9456e-23  2.3165e-28  3.9784e-23  1.9661e-28  4.0369e-23  1.3432e-28  4.1407e-23  9.3939e-29  4.3255e-23  1.0715e-28  4.654e-23  1.3161e-28  5.2384e-23  1.7802e-28  6.2776e-23  2.6892e-28  8.1264e-23  4.5328e-28  1.1416e-22  7.8004e-28  1.7273e-22  1.3474e-27  2.7712e-22  2.3483e-27  4.6347e-22  4.0019e-27  7.9716e-22  6.8699e-27  1.3978e-21  1.1898e-26  2.4894e-21
      4.60  1.7665e-28  3.1658e-23  1.7325e-28  3.1733e-23  1.6719e-28  3.1866e-23  1.5642e-28  3.2103e-23  1.3727e-28  3.2525e-23  1.0324e-28  3.3274e-23  4.7617e-29  3.4607e-23  5.4071e-29  3.6978e-23    6.6e-29  4.1193e-23  8.8603e-29  4.8691e-23  1.3297e-28  6.2026e-23  2.2399e-28  8.575e-23  3.8898e-28  1.2797e-22  6.8939e-28  2.0315e-22  1.2092e-27  3.3716e-22  2.1158e-27  5.7649e-22  3.6508e-27  1.0053e-21  6.2878e-27  1.7782e-21  1.0926e-26  3.1853e-21
      4.65  1.2186e-28  2.6862e-23  1.1892e-28  2.6958e-23  1.1367e-28  2.7128e-23  1.0435e-28  2.7431e-23  8.7778e-29  2.797e-23  5.8328e-29  2.8927e-23  3.0992e-29  3.0631e-23  3.6835e-29  3.3661e-23  4.779e-29  3.9048e-23  6.901e-29  4.8631e-23  1.1202e-28  6.5675e-23  1.9557e-28  9.5998e-23  3.5012e-28  1.4997e-22  6.2508e-28  2.4608e-22  1.1344e-27  4.1745e-22  1.9965e-27  7.2362e-22  3.452e-27  1.2726e-21  5.9569e-27  2.2632e-21  1.0354e-26  4.0706e-21
      4.70  9.0939e-29  2.5648e-23  8.8742e-29  2.5771e-23  8.4544e-29  2.5988e-23  7.7267e-29  2.6374e-23  6.4448e-29  2.7329e-23  4.1471e-29  2.8282e-23  2.5302e-29  3.0453e-23  3.0906e-29  3.4315e-23  4.1527e-29  4.1183e-23  6.2454e-29  5.3397e-23  1.0592e-28  7.5125e-23  1.8812e-28  1.1378e-22  3.4585e-28  1.8259e-22  6.334e-28  3.0515e-22  1.123e-27  5.2374e-22  1.9552e-27  9.1449e-22  3.402e-27  1.6158e-21  5.9051e-27  2.8832e-21  1.0303e-26  5.2018e-21
      4.75  7.3644e-29  3.0292e-23  7.2257e-29  3.0749e-23  6.912e-29  3.0721e-23  6.3974e-29  3.121e-23  5.4831e-29  3.208e-23  3.8601e-29  3.3626e-23  2.5598e-29  3.6375e-23  3.1439e-29  4.1265e-23  4.2682e-29  4.9961e-23  6.5342e-29  6.5427e-23  1.1347e-28  9.294e-23  2.0303e-28  1.419e-22  3.6434e-28  2.2904e-22  6.4784e-28  3.843e-22  1.1479e-27  6.6132e-22  2.011e-27  1.1568e-21  3.5061e-27  2.0472e-21  6.1069e-27  3.6594e-21  1.0723e-26  6.6182e-21
      4.80  6.2807e-29  4.3886e-23  6.2133e-29  4.4519e-23  6.0024e-29  4.4423e-23  5.6677e-29  4.5035e-23  5.1063e-29  4.6122e-23  4.1318e-29  4.8056e-23  2.9407e-29  5.1494e-23  3.6017e-29  5.761e-23  4.9089e-29  6.8486e-23  7.6489e-29  8.783e-23  1.3124e-28  1.2224e-22  2.2467e-28  1.8348e-22  3.9528e-28  2.925e-22  6.9882e-28  4.8678e-22  1.2296e-27  8.3354e-22  2.1527e-27  1.4542e-21  3.7772e-27  2.5708e-21  6.6271e-27  4.5967e-21  1.1736e-26  8.3264e-21
      4.85  5.3058e-29  6.513e-23  5.2641e-29  6.5367e-23  5.1901e-29  6.5789e-23  5.0593e-29  6.654e-23  4.8292e-29  6.7875e-23  4.4272e-29  7.025e-23  3.7104e-29  7.4473e-23  4.2106e-29  8.1982e-23  5.8679e-29  9.5338e-23  9.2014e-29  1.1909e-22  1.5256e-28  1.6136e-22  2.5929e-28  2.3657e-22  4.5218e-28  3.7048e-22  7.908e-28  6.0917e-22  1.383e-27  1.0354e-21  2.4176e-27  1.7987e-21  4.2217e-27  3.1734e-21  7.3638e-27  5.6722e-21  1.2991e-26  1.0286e-20
      4.90  4.1792e-29  8.0877e-23  4.1692e-29  8.116e-23  4.1937e-29  8.1663e-23  4.2631e-29  8.2557e-23  4.3492e-29  8.4148e-23  4.5174e-29  8.6977e-23  4.8654e-29  9.2008e-23  5.6366e-29  1.0095e-22  7.3595e-29  1.1687e-22  1.1133e-28  1.4517e-22  1.8447e-28  1.9552e-22  3.1593e-28  2.8513e-22  5.5188e-28  4.447e-22  9.5706e-28  7.2913e-22  1.6464e-27  1.2371e-21  2.8224e-27  2.1472e-21  4.8434e-27  3.7872e-21  8.2959e-27  6.7714e-21  1.4468e-26  1.2292e-20
      4.95  3.1062e-29  7.9698e-23  3.1593e-29  8.0023e-23  3.2549e-29   8.06e-23  3.4284e-29  8.1626e-23  3.7484e-29  8.3452e-23  4.3533e-29  8.6697e-23  5.5411e-29  9.2469e-23  7.983e-29  1.0273e-22  1.2698e-28  1.2099e-22  2.1358e-28  1.5346e-22  3.6621e-28  2.1124e-22  6.3681e-28  3.1405e-22  1.0992e-27  4.9714e-22  1.885e-27  8.2351e-22  3.2135e-27  1.4064e-21  5.4645e-27  2.4511e-21  9.2959e-27  4.334e-21  1.5981e-26  7.7625e-21  2.7951e-26  1.4112e-20
      5.00  2.3903e-29  6.8345e-23  2.4254e-29  6.8026e-23  2.5527e-29  6.8662e-23  2.7689e-29  6.9792e-23  3.2157e-29  7.1803e-23  4.1248e-29  7.5378e-23  5.9385e-29  8.1737e-23  9.8392e-29  9.3044e-23  1.7224e-28  1.1316e-22  3.0727e-28  1.4893e-22  5.3247e-28  2.1257e-22  9.1416e-28  3.2584e-22  1.5513e-27  5.2757e-22  2.5968e-27  8.8724e-22  4.3066e-27  1.5298e-21  7.1436e-27  2.682e-21  1.193e-26  4.7608e-21  2.0272e-26  8.552e-21  3.5042e-26  1.5593e-20
      5.05  1.9203e-29  5.411e-23  1.9955e-29  5.4477e-23  2.1377e-29  5.513e-23  2.4179e-29  5.6291e-23  3.0012e-29  5.8357e-23  4.2559e-29  6.2029e-23  6.783e-29  6.856e-23  1.2511e-28  8.0175e-23  2.3997e-28  1.0083e-22  4.1648e-28  1.3758e-22  7.0536e-28  2.0296e-22  1.1708e-27  3.1933e-22  1.9076e-27  5.2661e-22  3.0422e-27  8.9627e-22  4.8252e-27  1.557e-21  7.7131e-27  2.7427e-21  1.2601e-26  4.8849e-21  2.1093e-26  8.801e-21  3.5709e-26  1.6103e-20
      5.10  1.6852e-29  4.2703e-23  1.7667e-29  4.3061e-23  1.9373e-29  4.3696e-23  2.3195e-29  4.4826e-23  3.2243e-29  4.6835e-23  4.9108e-29  5.0408e-23  8.7902e-29  5.6761e-23  1.8042e-28  6.8061e-23  3.2759e-28  8.8158e-23  5.5536e-28  1.2391e-22  9.0257e-28  1.8752e-22  1.4224e-27  3.0075e-22  2.1863e-27  5.0247e-22  3.3027e-27  8.6231e-22  5.0106e-27  1.5058e-21  7.6288e-27  2.6615e-21  1.1925e-26  4.7528e-21  1.9482e-26  8.5854e-21  3.2918e-26  1.5761e-20
      5.15  1.5631e-29  3.3955e-23  1.6646e-29  3.4309e-23  1.9091e-29  3.4941e-23  2.5441e-29  3.6063e-23  3.8011e-29  3.8059e-23  6.4544e-29  4.1608e-23  1.2905e-28  4.792e-23  2.5118e-28  5.9145e-23  4.3867e-28  7.9111e-23  7.1488e-28  1.1463e-22  1.1004e-27  1.7783e-22  1.641e-27  2.9033e-22  2.3981e-27  4.9079e-22  3.4733e-27  8.4846e-22  4.7995e-27  1.4884e-21  7.0315e-27  2.6384e-21  1.0903e-26  4.722e-21  1.7775e-26  8.5485e-21  3.0102e-26  1.5737e-20
      5.20  1.5088e-29  2.7415e-23  1.6544e-29  2.7781e-23  2.0486e-29  2.8431e-23  3.0628e-29  2.9588e-23  4.9131e-29  3.1646e-23  9.4027e-29  3.5304e-23  1.958e-28  4.181e-23  3.4569e-28  5.3914e-23  5.5448e-28  7.3961e-23  8.6964e-28  1.1057e-22  1.2858e-27  1.7572e-22  1.8353e-27  2.9171e-22  2.5522e-27  4.9838e-22  3.2684e-27  8.6724e-22   4.46e-27  1.5274e-21  6.5332e-27  2.7145e-21  1.0208e-26  4.8675e-21  1.6795e-26  8.8287e-21  2.8744e-26  1.6292e-20
      5.25  1.4992e-29  2.2515e-23  1.7263e-29  2.2892e-23  2.3594e-29  2.3562e-23  3.9779e-29  2.4754e-23  7.332e-29  2.6873e-23  1.3387e-28  3.0643e-23  2.554e-28  3.7346e-23  4.1575e-28  4.9267e-23  6.4941e-28  7.0472e-23  9.7876e-28  1.082e-22  1.4156e-27  1.7532e-22  1.9771e-27  2.9484e-22  2.425e-27  5.0784e-22  3.1562e-27  8.8807e-22  4.4128e-27  1.5688e-21  6.6078e-27  2.7937e-21  1.0484e-26  5.0177e-21  1.7454e-26  9.117e-21  3.0255e-26  1.6864e-20
      5.30  1.5435e-29  1.8805e-23  1.9384e-29  1.9188e-23  3.0768e-29  1.9869e-23  6.0792e-29  2.1081e-23  9.9157e-29  2.3235e-23  1.694e-28  2.7067e-23  2.9687e-28  3.3881e-23  4.6704e-28    4.6e-23  7.1466e-28  6.7557e-23  1.0363e-27  1.0591e-22  1.5104e-27  1.7415e-22  1.9036e-27  2.9567e-22  2.3926e-27  5.1226e-22  3.1168e-27  8.9897e-22  4.3094e-27  1.5916e-21  6.3889e-27  2.8388e-21  9.9469e-27  5.106e-21  1.6404e-26  9.2935e-21  2.834e-26  1.7233e-20
      5.35  1.6676e-29  1.5975e-23  2.3609e-29  1.6365e-23  4.4229e-29  1.7059e-23  7.5981e-29  1.8292e-23  1.1948e-28  2.0485e-23  1.9111e-28  2.4385e-23  3.208e-28  3.1321e-23  4.9265e-28  4.3657e-23  7.3594e-28   6.56e-23  1.1136e-27  1.0464e-22  1.5482e-27  1.7411e-22  1.8369e-27  2.9782e-22  2.275e-27  5.1835e-22  2.9658e-27  9.122e-22  4.1163e-27  1.6179e-21  6.0165e-27  2.8895e-21  9.4242e-27  5.2039e-21  1.5597e-26  9.4872e-21  2.7062e-26  1.7634e-20
      5.40  1.7734e-29  1.3765e-23  2.7651e-29  1.4145e-23  5.1646e-29  1.482e-23  7.9035e-29  1.6022e-23  1.2538e-28  1.8158e-23  1.9211e-28  2.1958e-23  3.071e-28  2.8715e-23  5.035e-28  4.0734e-23  7.7144e-28  6.2111e-23  1.2073e-27  1.0014e-22  1.4851e-27  1.6783e-22  1.7819e-27  2.8838e-22  2.2475e-27  5.0329e-22  2.9772e-27  8.8721e-22  4.1915e-27  1.5754e-21  6.1778e-27  2.8167e-21  9.6454e-27  5.0789e-21  1.5968e-26  9.2757e-21  2.7721e-26  1.7289e-20
      5.45  1.6146e-29  1.197e-23  2.3545e-29  1.2288e-23  4.5165e-29  1.2855e-23  6.9446e-29  1.3862e-23  1.074e-28  1.5653e-23  1.724e-28  1.8839e-23  2.8082e-28  2.4504e-23  4.6523e-28  3.4579e-23  7.8815e-28  5.2499e-23  1.2657e-27  8.4382e-23  1.4979e-27  1.4113e-22  1.8463e-27  2.4221e-22  2.3706e-27  4.2245e-22  3.0931e-27  7.4455e-22  4.2601e-27  1.3223e-21  6.204e-27  2.3655e-21  9.5932e-27  4.2706e-21  1.5736e-26  7.816e-21  2.7234e-26  1.462e-20
      5.50  1.3355e-29  1.0474e-23  1.6444e-29  1.0704e-23  2.5083e-29  1.1112e-23  4.9548e-29  1.1838e-23  8.3773e-29  1.313e-23  1.4323e-28  1.5426e-23  2.5054e-28  1.9511e-23  4.4014e-28  2.6775e-23  7.5986e-28  3.9695e-23  1.2132e-27  6.2682e-23  1.5716e-27  1.036e-22  1.9723e-27  1.7649e-22  2.4145e-27  3.065e-22  3.0692e-27  5.3891e-22  4.0255e-27  9.5608e-22  5.6277e-27  1.7102e-21  8.442e-27  3.0898e-21  1.3531e-26  5.6657e-21  2.3023e-26  1.0633e-20
      5.55  1.2062e-29  9.308e-24  1.3558e-29  9.4807e-24  1.7807e-29  9.7878e-24  2.9822e-29  1.0334e-23  6.0982e-29  1.1305e-23  1.2515e-28  1.3032e-23  2.3877e-28  1.6103e-23  4.4809e-28  2.1565e-23  7.9213e-28  3.1281e-23  1.2095e-27  4.8567e-23  1.6031e-27  7.934e-23  1.9696e-27  1.3416e-22  2.3504e-27  2.3196e-22  2.8332e-27  4.0683e-22  3.599e-27  7.2085e-22  4.8416e-27  1.2889e-21  7.0334e-27  2.3295e-21  1.1017e-26  4.2762e-21  1.8405e-26  8.0425e-21
      5.60  1.1526e-29  8.4114e-24  1.3089e-29  8.5612e-24  1.7579e-29  8.8278e-24  3.0619e-29  9.3018e-24  5.5678e-29  1.0145e-23  1.1602e-28  1.1644e-23  2.4681e-28  1.4309e-23  4.7109e-28  1.905e-23  8.6917e-28  2.7482e-23  1.203e-27  4.2488e-23  1.5702e-27   6.92e-23  1.816e-27  1.1679e-22  2.0978e-27  2.0169e-22  2.4971e-27  3.5354e-22  3.1301e-27  6.2626e-22  4.1565e-27  1.1198e-21  5.9543e-27  2.0247e-21  9.2163e-27  3.7194e-21  1.5264e-26  7.0045e-21
      5.65  1.1151e-29  7.7118e-24  1.3169e-29  7.8548e-24  1.9048e-29  8.1093e-24  3.5337e-29  8.5618e-24  6.715e-29  9.3664e-24  1.3121e-28  1.0797e-23  2.5988e-28  1.3342e-23  5.0352e-28  1.7867e-23  9.2024e-28  2.5916e-23  1.212e-27  4.0241e-23  1.5125e-27  6.5743e-23  1.6844e-27  1.1118e-22  1.9317e-27  1.9224e-22  2.2788e-27  3.3723e-22  2.8574e-27  5.9769e-22  3.7943e-27  1.0692e-21  5.4457e-27  1.934e-21  8.4387e-27  3.5554e-21  1.4008e-26  6.7022e-21
      5.70  1.0789e-29  7.155e-24  1.3163e-29  7.2951e-24  2.0538e-29  7.5441e-24  4.1519e-29  7.987e-24  7.5269e-29  8.7745e-24  1.4864e-28  1.0175e-23  2.9366e-28  1.2665e-23  5.6752e-28  1.7094e-23  9.0208e-28  2.4974e-23  1.1359e-27  3.8996e-23  1.3563e-27  6.3959e-23  1.5302e-27  1.0844e-22  1.7502e-27  1.8779e-22  2.0727e-27  3.2973e-22  2.6197e-27  5.8477e-22  3.5433e-27  1.0466e-21  5.1666e-27  1.8941e-21  8.1205e-27  3.4842e-21  1.3644e-26  6.5743e-21
      5.75  1.0168e-29  6.6481e-24  1.2874e-29  6.7815e-24  2.0684e-29  7.0186e-24  4.1009e-29  7.4403e-24  8.1581e-29  8.1902e-24  1.6273e-28  9.5237e-24  3.3507e-28  1.1895e-23  6.0422e-28  1.6113e-23  8.003e-28  2.3617e-23  9.8187e-28  3.697e-23  1.1262e-27  6.0743e-23  1.2981e-27  1.031e-22  1.5088e-27  1.7868e-22  1.8376e-27  3.1388e-22  2.3791e-27  5.5685e-22  3.3041e-27  9.9698e-22  4.9581e-27  1.8051e-21  7.9849e-27  3.3228e-21  1.3684e-26  6.2764e-21
      5.80  9.5024e-30  6.2575e-24  1.2194e-29   6.38e-24  1.9593e-29  6.5978e-24  4.0018e-29  6.985e-24  8.5218e-29  7.6737e-24  1.8247e-28  8.8982e-24  3.451e-28  1.1076e-23  5.4144e-28  1.495e-23  6.8587e-28  2.1842e-23  8.3642e-28  3.4107e-23  9.4934e-28  5.5942e-23  1.1326e-27  9.4846e-23  1.3554e-27  1.6427e-22  1.691e-27  2.8848e-22  2.2642e-27  5.1175e-22  3.2611e-27  9.1635e-22  5.0465e-27  1.6597e-21  8.3443e-27  3.0573e-21  1.461e-26  5.7817e-21
      5.85  9.1097e-30  5.9602e-24  1.2175e-29  6.0757e-24  2.0482e-29  6.281e-24  4.1547e-29  6.646e-24  9.3203e-29  7.2951e-24  2.0002e-28  8.4492e-24  3.2309e-28  1.0502e-23  4.7869e-28  1.4154e-23  6.0238e-28  2.0652e-23  7.5356e-28  3.2213e-23  8.8686e-28  5.2797e-23  1.0474e-27  8.9474e-23  1.2888e-27  1.5493e-22  1.6657e-27  2.7205e-22  2.3204e-27  4.8262e-22  3.4674e-27  8.6436e-22  5.5449e-27  1.5662e-21  9.3968e-27  2.8871e-21  1.6769e-26  5.466e-21
      5.90  8.852e-30  5.7437e-24  1.2566e-29  5.8589e-24  2.2428e-29  6.0639e-24  4.7197e-29  6.4282e-24  1.0366e-28  7.0761e-24  2.0623e-28  8.2283e-24  3.2635e-28  1.0278e-23  4.3489e-28  1.3924e-23  5.7487e-28  2.041e-23  7.1032e-28  3.1952e-23  8.4258e-28  5.2501e-23  1.0092e-27  8.9118e-23  1.2848e-27  1.5447e-22  1.747e-27  2.7142e-22  2.5412e-27  4.8172e-22  3.9566e-27  8.6312e-22  6.5337e-27  1.5647e-21  1.1339e-26  2.8864e-21  2.0599e-26  5.4709e-21
      5.95  8.4798e-30  5.5891e-24  1.259e-29  5.7067e-24  2.3506e-29  5.9158e-24  5.0935e-29  6.2877e-24  1.1396e-28  6.949e-24  2.1496e-28  8.125e-24  3.3318e-28  1.0217e-23  4.4544e-28  1.3938e-23  5.565e-28  2.0559e-23  6.7768e-28  3.234e-23  8.349e-28  5.3315e-23  1.0209e-27  9.0691e-23  1.327e-27  1.574e-22  1.8628e-27  2.768e-22  2.8048e-27  4.9156e-22  4.4875e-27  8.8116e-22  7.5656e-27  1.5983e-21  1.3325e-26  2.9506e-21  2.4485e-26  5.5989e-21
      6.00  7.8332e-30  5.4798e-24  1.1779e-29  5.5978e-24  2.2427e-29  5.8077e-24  4.9232e-29  6.1808e-24  1.154e-28  6.9127e-24  2.2798e-28  8.024e-24  3.4606e-28  1.0123e-23  4.492e-28  1.3856e-23  5.6505e-28  2.0498e-23  6.9497e-28  3.2317e-23  8.5662e-28  5.3361e-23  1.0918e-27  9.0862e-23  1.4745e-27  1.578e-22  2.1461e-27  2.7762e-22  3.3419e-27  4.9319e-22  5.5039e-27  8.8442e-22  9.4667e-27  1.6051e-21  1.6907e-26  2.9655e-21  3.1393e-26  5.634e-21
      6.05  6.9528e-30  5.4229e-24  1.0245e-29  5.5376e-24  1.9319e-29  5.7415e-24  4.3324e-29  6.104e-24  1.0287e-28  6.7486e-24  2.3064e-28  7.8948e-24  3.5405e-28  9.9337e-24  4.6548e-28  1.3561e-23  5.8005e-28  2.0014e-23  7.1056e-28  3.1498e-23  8.7583e-28  5.1944e-23  1.1451e-27  8.8382e-23  1.6025e-27  1.5343e-22  2.4099e-27  2.6988e-22  3.8548e-27  4.7945e-22  6.4703e-27  8.5996e-22  1.1275e-26  1.5614e-21  2.0321e-26  2.8872e-21  3.8002e-26  5.4928e-21
      6.10  6.3378e-30  5.3978e-24  9.0855e-30  5.5066e-24  1.6596e-29  5.6999e-24  3.6701e-29  6.0437e-24  8.7208e-29  6.6549e-24  2.0036e-28  7.7417e-24  3.324e-28  9.6749e-24  4.5627e-28  1.3114e-23  5.6243e-28  1.9233e-23  6.8197e-28  3.0122e-23  8.6926e-28  4.951e-23  1.1708e-27  8.4063e-23  1.6974e-27  1.4575e-22  2.6356e-27  2.5621e-22  4.315e-27  4.5504e-22  7.3572e-27  8.1624e-22  1.2958e-26  1.4826e-21  2.3527e-26  2.7438e-21  4.425e-26  5.2273e-21
      6.15  5.9957e-30  5.4001e-24  8.4355e-30  5.501e-24  1.493e-29  5.6803e-24  3.2681e-29  6.0592e-24  7.3093e-29  6.5662e-24  1.5252e-28  7.5743e-24  2.5026e-28  9.3674e-24  3.8329e-28  1.2557e-23  4.8948e-28  1.8232e-23  6.1759e-28  2.8331e-23  8.1858e-28  4.6314e-23  1.1455e-27  7.8364e-23  1.7253e-27  1.3559e-22  2.7569e-27  2.3807e-22  4.6122e-27  4.226e-22  7.9765e-27  7.5797e-22  1.4176e-26  1.3772e-21  2.5896e-26  2.5508e-21  4.8944e-26  4.8664e-21
      6.20  5.775e-30  5.4244e-24  8.2436e-30  5.5145e-24  1.4171e-29  5.6747e-24  2.9458e-29  6.0192e-24  5.8205e-29  6.4661e-24  1.1265e-28  7.3666e-24  1.8163e-28  8.9684e-24  2.7203e-28  1.1817e-23  3.8081e-28  1.6886e-23  5.1906e-28  2.5907e-23  7.2151e-28  4.1969e-23  1.0671e-27  7.0597e-23  1.6682e-27  1.2172e-22  2.7437e-27  2.1328e-22  4.6767e-27  3.7821e-22  8.1867e-27  6.7812e-22  1.4662e-26  1.2324e-21  2.6926e-26  2.2842e-21  5.1105e-26  4.364e-21
      6.25  5.2754e-30  5.4664e-24  7.5119e-30  5.5422e-24  1.2721e-29  5.6771e-24  2.3246e-29  5.9168e-24  4.4056e-29  6.3431e-24  8.2016e-29  7.101e-24  1.2792e-28  8.4489e-24  1.9352e-28  1.0846e-23  2.8161e-28  1.5111e-23  4.0839e-28  2.2701e-23  6.0668e-28  3.6216e-23  9.4599e-28  6.0307e-23  1.5395e-27  1.0333e-22  2.5961e-27  1.804e-22  4.4933e-27  3.1927e-22  7.9411e-27  5.7194e-22  1.431e-26  1.0393e-21  2.6392e-26  1.9277e-21  5.0272e-26  3.6883e-21
      6.30  4.6142e-30  5.5499e-24  6.3653e-30  5.6104e-24  9.9261e-30  5.718e-24  1.7668e-29  5.9093e-24  3.1781e-29  6.2494e-24  5.7726e-29  6.8541e-24  8.554e-29  7.9297e-24  1.3437e-28  9.8425e-24  2.0875e-28  1.3245e-23  3.1543e-28  1.9301e-23  4.9943e-28  3.0083e-23  8.1234e-28  4.9304e-23  1.3663e-27  8.3633e-23  2.3494e-27  1.4515e-22  4.1171e-27  2.5602e-22  7.3311e-27  4.5786e-22  1.3274e-26  8.3162e-22  2.4567e-26  1.5431e-21  4.6944e-26  2.9566e-21
      6.35  4.0148e-30  5.6564e-24  5.2445e-30  5.7043e-24  7.8198e-30  5.7894e-24  1.2904e-29  5.9408e-24  2.342e-29   6.21e-24  4.2871e-29  6.7554e-24  5.8899e-29  7.5397e-24  9.0197e-29  9.0535e-24  1.4727e-28  1.1746e-23  2.4733e-28  1.6538e-23  4.0905e-28  2.5071e-23  6.9498e-28  4.0282e-23  1.1962e-27  6.7451e-23  2.0893e-27  1.1615e-22  3.6997e-27  2.0394e-22  6.6306e-27  3.6388e-22  1.2056e-26  6.6034e-22  2.2382e-26  1.2256e-21  4.2894e-26  2.3513e-21
      6.40  3.475e-30  5.7854e-24  4.4681e-30  5.8243e-24  6.4995e-30  5.8934e-24  9.9866e-30  6.0163e-24  1.6916e-29  6.2349e-24  3.1332e-29  6.6235e-24  4.417e-29  7.3146e-24  6.687e-29  8.5438e-24  1.1085e-28  1.073e-23  1.9531e-28  1.4621e-23  3.4749e-28  2.155e-23  6.1571e-28  3.3902e-23  1.0892e-27  5.5967e-23  1.9357e-27  9.5521e-23  3.4655e-27  1.6686e-22  6.252e-27  2.969e-22  1.1417e-26  5.3818e-22  2.1267e-26  9.9896e-22  4.0884e-26  1.9187e-21
      6.45  2.9966e-30  5.9334e-24  3.9446e-30  5.9656e-24  5.4958e-30  6.0227e-24  8.3763e-30  6.1244e-24  1.3389e-29  6.3052e-24  2.3685e-29  6.6267e-24  3.7469e-29  7.1983e-24  5.7613e-29  8.215e-24  9.739e-29  1.0023e-23  1.7437e-28  1.3241e-23  3.1903e-28  1.8972e-23  5.8117e-28  2.9188e-23  1.051e-27  4.7439e-23  1.8981e-27  8.0163e-23  3.4255e-27  1.392e-22  6.2126e-27  2.4688e-22  1.1387e-26  4.4684e-22  2.1272e-26  8.2929e-22  4.101e-26  1.5943e-21
      6.50  2.4884e-30  6.0982e-24  3.3745e-30  6.1249e-24  4.588e-30  6.1725e-24  6.8853e-30  6.257e-24  1.0799e-29  6.4073e-24  1.842e-29  6.6745e-24  2.9043e-29  7.1497e-24   4.65e-29  7.9948e-24  7.9864e-29  9.4981e-24  1.4502e-28  1.2173e-23  2.7047e-28  1.6936e-23  5.0582e-28  2.5429e-23  9.3448e-28  4.0601e-23  1.7097e-27  6.7808e-23  3.1145e-27  1.1691e-22  5.6821e-27  2.065e-22  1.0455e-26   3.73e-22  1.9588e-26  6.9184e-22  3.7865e-26  1.3307e-21
      6.55  2.0639e-30  6.3093e-24  2.8275e-30  6.3319e-24  3.7762e-30  6.3721e-24  5.5509e-30  6.4437e-24  8.9193e-30  6.5709e-24  1.5283e-29  6.7972e-24  2.4594e-29  7.1996e-24  3.9098e-29  7.9152e-24  6.8881e-29  9.1882e-24  1.2762e-28  1.1453e-23  2.4248e-28  1.5487e-23  4.6155e-28  2.2678e-23  8.6838e-28  3.5527e-23  1.6111e-27  5.857e-23  2.9607e-27  1.0016e-22  5.4317e-27  1.7608e-22  1.0033e-26  3.1727e-22  1.8854e-26  5.8787e-22  3.6536e-26  1.1309e-21
      6.60  1.7173e-30  6.5381e-24  2.3068e-30  6.5579e-24  3.1347e-30  6.5932e-24  4.5543e-30  6.656e-24  7.3738e-30  6.7676e-24  1.3257e-29  6.9661e-24  2.1705e-29  7.3191e-24  3.5165e-29  7.9468e-24  6.3072e-29  9.0636e-24  1.1961e-28  1.1051e-23  2.3107e-28  1.459e-23  4.4591e-28  2.0899e-23  8.4937e-28  3.2173e-23  1.5933e-27  5.2393e-23  2.9541e-27  8.8896e-23  5.4507e-27  1.5554e-22  1.0107e-26  2.7954e-22  1.9043e-26  5.1737e-22  3.6986e-26  9.9513e-22
      6.65  1.4304e-30  6.7835e-24  1.8882e-30  6.8016e-24  2.5959e-30  6.8338e-24  3.7565e-30  6.8911e-24  6.1453e-30  6.993e-24  1.1461e-29  7.1741e-24  1.9193e-29  7.4962e-24  3.1863e-29  8.0691e-24  5.8734e-29  9.0882e-24  1.1407e-28  1.0902e-23  2.2413e-28  1.4132e-23  4.3785e-28  1.989e-23  8.4283e-28  3.0181e-23  1.5963e-27  4.8638e-23  2.9826e-27  8.1964e-23  5.5342e-27  1.4282e-22   1.03e-26  2.5609e-22  1.9457e-26  4.7348e-22  3.7869e-26  9.1054e-22
      6.70  1.1793e-30  7.0444e-24  1.5094e-30  7.0615e-24  2.0943e-30  7.092e-24  3.1324e-30  7.1461e-24  5.2425e-30  7.2423e-24  1.0528e-29  7.4134e-24  1.9498e-29  7.7178e-24  3.4196e-29  8.2591e-24  6.5788e-29  9.222e-24  1.3048e-28  1.0936e-23  2.5827e-28  1.3988e-23  5.0538e-28  1.9429e-23  9.7386e-28  2.9153e-23  1.8464e-27  4.6596e-23  3.456e-27  7.8094e-23  6.4254e-27  1.3562e-22  1.1978e-26  2.4274e-22  2.2657e-26  4.4841e-22  4.4153e-26  8.6221e-22
      6.75  9.9262e-31  7.3197e-24  1.2066e-30  7.3363e-24  1.705e-30  7.3659e-24  2.6515e-30  7.4184e-24  4.8491e-30  7.5117e-24  1.0635e-29  7.6777e-24  2.0591e-29  7.9729e-24  3.8498e-29  8.498e-24  7.6295e-29  9.4322e-24  1.5277e-28  1.1095e-23  3.0177e-28  1.4055e-23  5.8873e-28  1.9334e-23  1.1305e-27  2.8768e-23  2.1398e-27  4.5691e-23  4.0034e-27  7.6254e-23  7.447e-27  1.3209e-22  1.3894e-26  2.3606e-22  2.6305e-26  4.3581e-22  5.131e-26  8.3794e-22
      6.80  8.315e-31  7.6487e-24  9.7444e-31  7.6651e-24   1.39e-30  7.6944e-24  2.285e-30  7.7464e-24  4.4813e-30  7.8389e-24  1.0032e-29  8.0033e-24  2.1377e-29  8.2957e-24  4.0961e-29  8.8159e-24  8.2373e-29  9.7412e-24  1.6477e-28  1.1388e-23  3.2432e-28  1.4321e-23  6.3087e-28  1.9551e-23   1.21e-27  2.8896e-23  2.2896e-27  4.5663e-23  4.2871e-27  7.5946e-23  7.9863e-27  1.3127e-22  1.4922e-26  2.3434e-22  2.829e-26  4.3241e-22  5.5246e-26  8.314e-22
      6.85  7.012e-31  7.9953e-24  7.9226e-31  8.0119e-24  1.1011e-30  8.0413e-24  1.9243e-30  8.0937e-24  3.9126e-30  8.1868e-24  9.507e-30  8.3524e-24  2.2542e-29  8.6468e-24  4.4662e-29  9.1705e-24  9.1896e-29  1.0102e-23  1.8385e-28  1.176e-23  3.6279e-28  1.4713e-23  7.0482e-28  1.9979e-23  1.3504e-27  2.9389e-23  2.5528e-27  4.6272e-23  4.7775e-27  7.6768e-23  8.9007e-27  1.3249e-22  1.664e-26  2.3632e-22  3.1569e-26  4.3593e-22  6.1703e-26  8.3822e-22
      6.90  5.9759e-31  8.359e-24  6.7565e-31  8.3758e-24  9.1061e-31  8.4056e-24  1.6018e-30  8.4586e-24  3.6144e-30  8.5529e-24  9.6838e-30  8.7205e-24  2.4344e-29  9.0186e-24  5.0101e-29  9.5489e-24  1.0522e-28  1.0492e-23  2.1151e-28  1.2171e-23  4.202e-28  1.5161e-23  8.2181e-28  2.0492e-23  1.5772e-27  3.0021e-23  2.9789e-27  4.7116e-23  5.5662e-27  7.7998e-23  1.0358e-26  1.3444e-22  1.9355e-26  2.3961e-22  3.6721e-26  4.4188e-22   7.18e-26  8.4974e-22
      6.95  5.1464e-31  8.7391e-24  5.8757e-31  8.7559e-24  8.038e-31  8.7859e-24  1.4774e-30  8.8392e-24  3.5486e-30  8.9339e-24  9.5411e-30  9.1024e-24  2.4895e-29  9.4019e-24  5.1628e-29  9.9347e-24  1.0671e-28  1.0883e-23  2.1371e-28  1.2569e-23  4.2919e-28  1.5573e-23  8.4553e-28  2.093e-23  1.6286e-27  3.0504e-23  3.082e-27  4.7683e-23  5.7662e-27  7.8716e-23  1.0739e-26  1.3544e-22  2.0083e-26  2.4117e-22  3.8133e-26  4.4456e-22  7.4626e-26  8.5487e-22
      7.00  4.4527e-31  9.1348e-24  5.1621e-31  9.1514e-24  7.3456e-31  9.1809e-24  1.3791e-30  9.2334e-24  3.3327e-30  9.3268e-24  9.0598e-30  9.4927e-24  2.5164e-29  9.7878e-24  5.2203e-29  1.0313e-23  1.0477e-28  1.1246e-23  2.1272e-28  1.2908e-23  4.3157e-28  1.5866e-23  8.5628e-28  2.1142e-23  1.659e-27  3.0572e-23  3.1547e-27  4.7491e-23  5.921e-27  7.8058e-23  1.1051e-26  1.3394e-22  2.0693e-26  2.3811e-22  3.9336e-26  4.3858e-22  7.7057e-26  8.4317e-22
      7.05  3.7402e-31  9.5963e-24  4.4157e-31  9.6122e-24  6.433e-31  9.6404e-24  1.2435e-30  9.6905e-24  3.0439e-30  9.7797e-24  8.3891e-30  9.9382e-24  2.3993e-29  1.022e-23  5.1629e-29  1.0721e-23  1.0474e-28  1.1613e-23  2.1387e-28   1.32e-23  4.3722e-28  1.6025e-23  8.7668e-28  2.1063e-23  1.721e-27  3.0066e-23  3.3028e-27  4.6222e-23  6.2368e-27  7.5411e-23  1.1683e-26  1.2877e-22  2.1928e-26  2.2828e-22  4.1746e-26  4.1983e-22  8.1874e-26  8.0659e-22
      7.10  3.1075e-31  1.0079e-23  3.6716e-31  1.0093e-23  5.475e-31  1.0119e-23  1.0746e-30  1.0165e-23  2.7129e-30  1.0247e-23  7.6398e-30  1.0392e-23  2.2147e-29  1.0651e-23  5.1472e-29  1.1111e-23  1.0596e-28  1.1929e-23   2.16e-28  1.3384e-23  4.4175e-28  1.5976e-23  9.0368e-28  2.0596e-23  1.8054e-27  2.8854e-23  3.5112e-27  4.3669e-23  6.6876e-27  7.0439e-23  1.2595e-26  1.1938e-22  2.3718e-26  2.1067e-22  4.5246e-26  3.8644e-22  8.8866e-26  7.4149e-22
      7.15  2.5831e-31  1.0582e-23  3.0972e-31  1.0594e-23  4.6434e-31  1.0617e-23  9.3902e-31  1.0657e-23  2.402e-30  1.0729e-23  6.7338e-30  1.0857e-23  1.8919e-29  1.1084e-23  4.6144e-29  1.1488e-23  9.3152e-29  1.2206e-23  1.8654e-28  1.3484e-23  3.8667e-28  1.5758e-23  8.0511e-28  1.9813e-23  1.6419e-27  2.7057e-23  3.252e-27  4.0056e-23  6.2811e-27  6.3541e-23  1.1945e-26  1.0649e-22  2.2639e-26  1.8659e-22  4.3367e-26  3.4087e-22  8.5408e-26  6.5263e-22
      7.20  2.1313e-31  1.1105e-23  2.5619e-31  1.1116e-23  3.8371e-31  1.1135e-23  7.8908e-31  1.1169e-23   1.97e-30  1.123e-23  5.3948e-30  1.1338e-23  1.4961e-29  1.153e-23  3.7985e-29  1.1872e-23  7.352e-29  1.2479e-23  1.5043e-28  1.3559e-23  3.1729e-28  1.5482e-23  6.7469e-28  1.8909e-23  1.4123e-27  2.5032e-23  2.8675e-27  3.6016e-23  5.6509e-27  5.5861e-23  1.0906e-26  9.215e-23  2.0879e-26  1.5985e-22  4.0261e-26  2.9025e-22  7.963e-26  5.5385e-22
      7.25  1.7502e-31  1.165e-23  2.097e-31  1.1659e-23  3.1481e-31  1.1675e-23  6.2615e-31  1.1703e-23  1.5374e-30  1.1754e-23  4.1079e-30  1.1843e-23  1.1066e-29  1.2003e-23  2.7652e-29  1.2286e-23  5.5281e-29  1.2791e-23  1.1237e-28  1.3688e-23  2.4003e-28  1.5285e-23  5.2487e-28  1.8131e-23  1.1328e-27  2.3215e-23  2.3734e-27  3.2333e-23  4.8012e-27  4.8807e-23  9.451e-27  7.8929e-23  1.8345e-26  1.3513e-22  3.5702e-26  2.4339e-22  7.1034e-26  4.6227e-22
      7.30  1.4314e-31  1.2279e-23  1.7017e-31  1.2287e-23  2.5009e-31   1.23e-23  4.8741e-31  1.2324e-23  1.1781e-30  1.2366e-23  3.0321e-30  1.2441e-23  8.0722e-30  1.2574e-23  1.977e-29  1.2811e-23  4.1762e-29  1.3232e-23  8.4493e-29  1.3981e-23  1.7874e-28  1.5315e-23  4.0056e-28  1.7692e-23  8.9866e-28  2.1938e-23  1.9559e-27  2.9551e-23  4.0907e-27  4.3304e-23  8.2616e-27  6.8449e-23  1.6333e-26  1.1536e-22  3.2181e-26  2.0574e-22  6.4538e-26  3.8847e-22
      7.35  1.1705e-31  1.2937e-23  1.3737e-31  1.2944e-23  1.9748e-31  1.2955e-23  3.7582e-31  1.2975e-23  8.956e-31  1.3011e-23  2.2676e-30  1.3075e-23  5.9164e-30  1.3189e-23  1.4884e-29  1.339e-23  3.2741e-29  1.3749e-23  6.5834e-29  1.4388e-23  1.3961e-28  1.5525e-23  3.1805e-28  1.7552e-23  7.3904e-28  2.1171e-23  1.6688e-27  2.7661e-23  3.5982e-27  3.9384e-23  7.4472e-27  6.0815e-23  1.4991e-26  1.008e-22  2.9907e-26  1.7782e-22  6.0468e-26  3.3354e-22
      7.40  9.5832e-32  1.3624e-23  1.1135e-31  1.363e-23  1.5727e-31  1.364e-23  2.9108e-31  1.3657e-23  6.9255e-31  1.3689e-23  1.7242e-30  1.3744e-23  4.4462e-30  1.3844e-23  1.1764e-29  1.402e-23  2.7915e-29  1.4334e-23  5.5195e-29  1.4893e-23  1.1596e-28  1.5887e-23  2.6689e-28  1.766e-23  6.3078e-28  2.0827e-23  1.4618e-27  2.6505e-23  3.2397e-27  3.676e-23  6.8597e-27  5.5508e-23  1.4046e-26  9.0478e-23  2.8359e-26  1.5784e-22  5.7795e-26  2.9403e-22
      7.45  7.7932e-32  1.4339e-23  9.0947e-32  1.4344e-23  1.2616e-31  1.4353e-23  2.3357e-31  1.4369e-23  5.4843e-31  1.4397e-23  1.3683e-30  1.4447e-23  3.5677e-30  1.4536e-23  9.4605e-30  1.4695e-23  2.2344e-29  1.4976e-23  4.2774e-29  1.5478e-23  8.9199e-29  1.6371e-23  2.0542e-28  1.7964e-23  4.9738e-28  2.0809e-23  1.1849e-27  2.5911e-23  2.7081e-27  3.5126e-23  5.8957e-27  5.197e-23  1.2339e-26  8.3387e-23  2.5304e-26  1.439e-22  5.2119e-26  2.6622e-22
      7.50  6.4783e-32  1.5082e-23  7.4284e-32  1.5086e-23  1.0441e-31  1.5094e-23  1.9317e-31  1.5109e-23  4.552e-31  1.5135e-23  1.1285e-30  1.5181e-23  2.9599e-30  1.5263e-23  7.9224e-30  1.5409e-23  1.8448e-29  1.5668e-23  3.5289e-29  1.613e-23  7.2516e-29  1.6953e-23  1.6755e-28  1.8419e-23  4.0769e-28  2.1039e-23  9.9214e-28  2.5738e-23  2.3306e-27  3.4225e-23  5.2123e-27  4.9738e-23  1.1153e-26  7.8669e-23  2.3251e-26  1.3439e-22  4.8424e-26   2.47e-22
      7.55  5.3094e-32  1.5933e-23  6.2488e-32  1.5938e-23  8.9225e-32  1.5945e-23  1.6614e-31  1.5959e-23  3.9604e-31  1.5983e-23  9.9495e-31  1.6027e-23  2.628e-30  1.6104e-23  6.9899e-30  1.6242e-23  1.585e-29  1.6486e-23  3.0571e-29  1.6921e-23  6.1904e-29  1.7696e-23  1.4143e-28  1.9079e-23  3.4439e-28  2.1548e-23  8.4957e-28  2.5978e-23  2.0424e-27  3.3979e-23  4.6903e-27  4.8604e-23  1.0281e-26  7.5876e-23  2.1841e-26  1.2839e-22  4.6097e-26  2.3452e-22
      7.60  4.4135e-32  1.6823e-23  5.225e-32  1.6827e-23  7.7491e-32  1.6834e-23  1.5029e-31  1.6847e-23  3.6401e-31  1.6871e-23  9.2439e-31  1.6913e-23  2.4808e-30  1.6987e-23  6.5115e-30  1.7119e-23  1.3709e-29  1.7354e-23  2.6932e-29  1.7773e-23  5.3173e-29  1.8518e-23  1.181e-28  1.9847e-23  2.8272e-28  2.2222e-23  6.962e-28  2.6482e-23  1.6942e-27  3.4177e-23  3.9692e-27  4.8243e-23  8.8875e-27  7.4472e-23  1.9225e-26  1.2497e-22  4.1127e-26  2.2701e-22
      7.65  3.7171e-32  1.775e-23  4.4895e-32  1.7754e-23  6.8439e-32  1.7761e-23  1.3743e-31  1.7774e-23  3.3874e-31  1.7797e-23  8.8679e-31  1.7838e-23  2.3693e-30  1.7911e-23  6.1977e-30  1.804e-23  1.2155e-29  1.827e-23  2.3969e-29  1.8679e-23  4.6631e-29  1.9407e-23  1.0052e-28  2.0706e-23  2.3504e-28  2.3028e-23  5.7309e-28  2.7193e-23  1.4018e-27  3.4717e-23  3.3366e-27  4.8471e-23  7.621e-27  7.4116e-23  1.6794e-26  1.2349e-22  3.6455e-26  2.2323e-22
      7.70  3.1032e-32  1.8715e-23  3.837e-32  1.8719e-23  6.0908e-32  1.8727e-23  1.2662e-31  1.8739e-23  3.1739e-31  1.8762e-23  8.3812e-31  1.8802e-23  2.2655e-30  1.8874e-23  5.9873e-30  1.9002e-23  1.097e-29  1.923e-23  2.1314e-29  1.9635e-23  4.156e-29  2.0356e-23  8.6492e-29  2.1643e-23  1.9693e-28  2.3942e-23  4.7293e-28  2.8067e-23  1.156e-27  3.552e-23  2.7837e-27  4.9143e-23  6.4749e-27  7.4546e-23  1.454e-26  1.2345e-22  3.2062e-26  2.2222e-22
      7.75  2.6104e-32  1.9718e-23  3.3104e-32  1.9722e-23  5.4251e-32  1.9729e-23  1.1773e-31  1.9742e-23  2.9918e-31  1.9765e-23  8.0791e-31  1.9805e-23  2.1746e-30  1.9877e-23  5.4576e-30  2.0005e-23  1.0097e-29  2.0232e-23  1.9128e-29  2.0637e-23   3.69e-29  2.1358e-23  7.5327e-29  2.2644e-23  1.6667e-28  2.4942e-23  3.9216e-28  2.9066e-23  9.5184e-28  3.6516e-23  2.3075e-27  5.0135e-23  5.452e-27  7.5529e-23  1.2471e-26  1.2441e-22  2.7965e-26  2.2314e-22
      7.80  2.2038e-32  2.0862e-23  2.8661e-32  2.0866e-23  4.9308e-32  2.0873e-23  1.0914e-31  2.0886e-23  2.8073e-31  2.0909e-23  7.6708e-31  2.095e-23  2.0727e-30  2.1022e-23  5.1628e-30  2.1362e-23  9.145e-30  2.138e-23  1.7291e-29  2.1787e-23  3.3322e-29  2.2514e-23  6.589e-29  2.3809e-23  1.4217e-28  2.6123e-23  3.268e-28  3.0277e-23  7.8399e-28  3.778e-23  1.9046e-27  5.1497e-23  4.559e-27  7.7074e-23  1.0619e-26  1.2631e-22  2.4236e-26  2.2573e-22
      7.85  1.8632e-32  2.2057e-23  2.4571e-32  2.2061e-23  4.4099e-32  2.2068e-23  9.9914e-32  2.2081e-23  2.5694e-31  2.2104e-23  7.0557e-31  2.2146e-23  1.9365e-30  2.2219e-23  4.5804e-30  2.2349e-23  8.3806e-30  2.258e-23  1.5521e-29  2.2991e-23  2.9566e-29  2.3725e-23  5.786e-29  2.5032e-23  1.2169e-28  2.7369e-23  2.7315e-28  3.1563e-23  6.4586e-28  3.914e-23  1.5666e-27  5.2991e-23  3.7888e-27  7.8817e-23  8.9803e-27  1.2853e-22  2.0885e-26  2.289e-22
      7.90  1.5646e-32  2.3304e-23  2.1057e-32  2.3308e-23  3.8675e-32  2.3315e-23  8.9526e-32  2.3328e-23  2.3382e-31  2.3352e-23  6.361e-31  2.3393e-23  1.7597e-30  2.3467e-23  3.9733e-30  2.3598e-23  7.2447e-30  2.3831e-23  1.3336e-29  2.4247e-23  2.5217e-29  2.4987e-23  4.883e-29  2.6307e-23  1.0042e-28  2.8666e-23  2.2067e-28   3.29e-23  5.1425e-28  4.0548e-23  1.2438e-27  5.453e-23  3.0373e-27  8.0601e-23   7.33e-27  1.3078e-22  1.7404e-26  2.3209e-22
      7.95  1.3364e-32  2.4602e-23  1.8146e-32  2.4606e-23  3.3546e-32  2.4614e-23  7.7711e-32  2.4627e-23  2.0355e-31  2.465e-23  5.6466e-31  2.4692e-23  1.5417e-30  2.4766e-23  3.3644e-30  2.4898e-23  6.1209e-30  2.5133e-23   1.12e-29  2.5551e-23  2.0982e-29  2.6296e-23  4.0358e-29  2.7624e-23  8.0933e-29  2.9998e-23  1.7556e-28  3.4258e-23  4.0256e-28  4.1954e-23  9.6732e-28  5.6023e-23  2.3745e-27  8.2255e-23  5.8158e-27  1.3274e-22  1.4076e-26  2.3466e-22
      8.00  1.1324e-32  2.5952e-23  1.5378e-32  2.5956e-23  2.8557e-32  2.5964e-23  6.712e-32  2.5977e-23  1.757e-31  2.6001e-23  4.7801e-31  2.6042e-23  1.3345e-30  2.6117e-23  2.7918e-30  2.6249e-23  5.0185e-30  2.6485e-23  9.2348e-30  2.6904e-23  1.7174e-29  2.765e-23  3.2848e-29  2.8981e-23  6.5331e-29  3.136e-23  1.382e-28  3.5629e-23  3.1176e-28  4.3342e-23  7.425e-28  5.7442e-23  1.8258e-27  8.373e-23  4.5232e-27  1.3432e-22  1.1136e-26  2.3644e-22
      8.05  9.6054e-33  2.7487e-23  1.2931e-32  2.7491e-23  2.3864e-32  2.7499e-23  5.5902e-32  2.7512e-23  1.4598e-31  2.7535e-23  4.0075e-31  2.7577e-23  1.0978e-30  2.7652e-23  2.267e-30  2.7784e-23  4.0689e-30  2.802e-23  7.3951e-30  2.8439e-23  1.3797e-29  2.9185e-23  2.6215e-29  3.0517e-23  5.1705e-29  3.2897e-23  1.0779e-28  3.7168e-23  2.3982e-28  4.4884e-23  5.6628e-28  5.8989e-23  1.393e-27  8.5285e-23  3.4843e-27  1.3588e-22  8.714e-27   2.38e-22
      8.10  8.1705e-33  2.9092e-23  1.0816e-32  2.9096e-23  1.9505e-32  2.9104e-23  4.4673e-32  2.9117e-23  1.1791e-31  2.914e-23  3.2064e-31  2.9182e-23  8.9651e-31  2.9256e-23  1.821e-30  2.9388e-23  3.2334e-30  2.9623e-23  5.8627e-30  3.0041e-23  1.0895e-29  3.0785e-23  2.0595e-29  3.2113e-23  4.0321e-29  3.4486e-23  8.3079e-29  3.8743e-23  1.8264e-28  4.6435e-23  4.278e-28  6.0495e-23  1.0516e-27  8.6705e-23  2.6508e-27  1.3713e-22  6.7233e-27  2.3888e-22
      8.15  6.9876e-33  3.0768e-23  9.0393e-33  3.0772e-23  1.585e-32  3.078e-23  3.5717e-32  3.0793e-23  9.3294e-32  3.0816e-23  2.5567e-31  3.0858e-23  7.089e-31  3.0931e-23  1.4079e-30  3.1063e-23  2.5505e-30  3.1296e-23  4.6142e-30  3.1712e-23  8.3928e-30  3.2452e-23  1.577e-29  3.3772e-23  3.0944e-29  3.6132e-23  6.3098e-29  4.0367e-23  1.3709e-28  4.8016e-23  3.1819e-28  6.1998e-23  7.7999e-28  8.8061e-23  1.9767e-27  1.382e-22  5.0751e-27  2.3934e-22
      8.20  6.0236e-33  3.2514e-23  7.5822e-33  3.2518e-23  1.2808e-32  3.2526e-23  2.8099e-32  3.2539e-23  7.2145e-32  3.2562e-23  1.9801e-31  3.2603e-23  5.4963e-31  3.2677e-23  1.095e-30  3.2807e-23  1.9647e-30  3.3039e-23  3.5497e-30  3.3452e-23  6.4407e-30  3.4187e-23  1.2055e-29  3.5499e-23  2.3329e-29  3.7844e-23  4.7673e-29  4.205e-23  1.0271e-28  4.9649e-23  2.3682e-28  6.3539e-23  5.7947e-28  8.9425e-23  1.4756e-27  1.3921e-22  3.8302e-27  2.3963e-22
      8.25  5.2154e-33  3.4329e-23  6.3838e-33  3.4333e-23  1.0046e-32  3.434e-23  2.1936e-32  3.4353e-23  5.5389e-32  3.4376e-23  1.4986e-31  3.4417e-23  4.2047e-31  3.449e-23  8.2736e-31  3.462e-23  1.4831e-30  3.485e-23  2.6794e-30  3.526e-23  4.9003e-30  3.5991e-23  9.2305e-30  3.7295e-23  1.7782e-29  3.9624e-23  3.5888e-29  4.3804e-23  7.6908e-29  5.1355e-23  1.7656e-28  6.5154e-23  4.3176e-28  9.087e-23  1.1047e-27  1.4032e-22  2.8959e-27  2.4003e-22
      8.30  4.5994e-33  3.638e-23  5.4689e-33  3.6384e-23  8.1503e-33  3.6391e-23  1.675e-32  3.6404e-23  4.1947e-32  3.6427e-23  1.1421e-31  3.6468e-23   3.19e-31  3.6541e-23  6.3412e-31  3.667e-23  1.1355e-30   3.69e-23  2.0504e-30  3.731e-23  3.7455e-30  3.8039e-23  6.9781e-30  3.934e-23  1.341e-29  4.1666e-23  2.691e-29  4.5838e-23  5.7651e-29  5.3375e-23  1.3203e-28  6.7148e-23  3.2301e-28  9.2812e-23  8.3031e-28  1.4215e-22  2.1965e-27  2.4161e-22
      8.35  4.1034e-33  3.8513e-23  4.7364e-33  3.8518e-23  6.7423e-33  3.8525e-23  1.3004e-32  3.8538e-23  3.124e-32  3.8561e-23  8.3819e-32  3.8602e-23  2.3357e-31  3.8674e-23  4.6968e-31  3.8804e-23  8.4035e-31  3.9034e-23  1.5167e-30  3.9444e-23  2.7709e-30  4.0174e-23  5.1618e-30  4.1476e-23  9.9194e-30  4.3803e-23  1.9959e-29  4.7978e-23  4.2695e-29  5.5518e-23  9.7992e-29  6.9298e-23  2.4072e-28  9.497e-23  6.2312e-28  1.4432e-22  1.6541e-27  2.4376e-22
      8.40  3.7081e-33  4.0721e-23  4.1622e-33  4.0725e-23  5.5818e-33  4.0732e-23  1.0202e-32  4.0745e-23  2.3174e-32  4.0768e-23  6.1168e-32  4.0809e-23  1.7065e-31  4.0882e-23  3.405e-31  4.1012e-23  6.0868e-31  4.1243e-23  1.0984e-30  4.1654e-23  2.0079e-30  4.2387e-23  3.7451e-30  4.3693e-23  7.2117e-30  4.6027e-23  1.4556e-29  5.0215e-23  3.128e-29  5.778e-23  7.2236e-29  7.1602e-23  1.7878e-28  9.735e-23  4.6706e-28  1.4684e-22  1.2531e-27  2.4653e-22
      8.45  3.3974e-33  4.2987e-23  3.7126e-33  4.2991e-23  4.7904e-33  4.2999e-23  7.8708e-33  4.3012e-23  1.7539e-32  4.3035e-23  4.5117e-32  4.3076e-23  1.2331e-31  4.315e-23  2.4657e-31  4.328e-23  4.4458e-31  4.3513e-23  8.0201e-31  4.3926e-23  1.4667e-30  4.4663e-23  2.7393e-30  4.5977e-23  5.2857e-30  4.8325e-23  1.0703e-29  5.2537e-23  2.3101e-29  6.0146e-23  5.3657e-29  7.4046e-23  1.3373e-28  9.9937e-23  3.5231e-28  1.4969e-22   9.61e-28  2.4988e-22
      8.50  3.1524e-33  4.5295e-23  3.3946e-33  4.5299e-23  4.1871e-33  4.5306e-23  6.4462e-33  4.532e-23  1.3444e-32  4.5343e-23  3.357e-32  4.5385e-23  9.1225e-32  4.5459e-23  1.8203e-31  4.559e-23  3.2776e-31  4.5825e-23  5.9099e-31  4.6241e-23  1.0811e-30  4.6984e-23  2.0211e-30  4.8309e-23  3.9075e-30  5.0675e-23  7.9352e-30  5.4922e-23  1.7197e-29  6.2591e-23  4.0151e-29  7.6601e-23  1.007e-28  1.0269e-22  2.6724e-28  1.5282e-22  7.3527e-28  2.5375e-22
