# This was generated using Cloudy10 and the columns are ordered 
# as log10 of the fraction of the metallicity to the solar metallicity
# 'h_*_Z' and 'c_*_Z' stands for cooling and heating respectively 
# at * metalicity
#
# Redshift = 8.5
# hden = 5.5
#     temp   h_-3.00_Z   c_-3.00_Z   h_-2.75_Z   c_-2.75_Z   h_-2.50_Z   c_-2.50_Z   h_-2.25_Z   c_-2.25_Z   h_-2.00_Z   c_-2.00_Z   h_-1.75_Z   c_-1.75_Z   h_-1.50_Z   c_-1.50_Z   h_-1.25_Z   c_-1.25_Z   h_-1.00_Z   c_-1.00_Z   h_-0.75_Z   c_-0.75_Z   h_-0.50_Z   c_-0.50_Z   h_-0.25_Z   c_-0.25_Z    h_0.00_Z    c_0.00_Z    h_0.25_Z    c_0.25_Z    h_0.50_Z    c_0.50_Z    h_0.75_Z    c_0.75_Z    h_1.00_Z    c_1.00_Z    h_1.25_Z    c_1.25_Z    h_1.50_Z    c_1.50_Z 
      4.00  5.8394e-30  5.3345e-27  5.8407e-30  5.3433e-27  5.843e-30  5.3587e-27  5.8471e-30  5.3861e-27  5.8544e-30  5.4345e-27  5.8673e-30  5.5207e-27   5.89e-30  5.6742e-27  5.9302e-30  5.948e-27  6.0021e-30  6.4356e-27  6.1325e-30  7.3029e-27  6.3744e-30  8.834e-27  6.8307e-30  1.1513e-26  7.6939e-30  1.6137e-26  9.3439e-30  2.4013e-26  1.2682e-29  3.751e-26  1.9904e-29  6.3308e-26  3.4179e-29  1.2314e-25  6.1487e-29  2.8099e-25  1.1096e-28  7.1503e-25
      4.05  5.7429e-30  1.1044e-25  5.7493e-30  1.1049e-25  5.7606e-30  1.1057e-25  5.7808e-30  1.107e-25  5.8167e-30  1.1095e-25  5.8804e-30  1.1138e-25  5.9934e-30  1.1215e-25  6.1932e-30  1.1352e-25  6.5456e-30  1.1595e-25  7.1632e-30  1.2024e-25  8.2346e-30  1.2773e-25  1.006e-29  1.4052e-25  1.3069e-29  1.6144e-25  1.7728e-29  1.9287e-25  2.4169e-29  2.3297e-25  3.1726e-29  2.7276e-25  4.1252e-29  3.3396e-25  5.8749e-29  5.5479e-25  9.1583e-29  1.2461e-24
      4.10  5.4058e-30    2.5e-24  5.4531e-30  2.5004e-24  5.5373e-30  2.5012e-24  5.687e-30  2.5025e-24  5.9531e-30  2.5049e-24  6.4261e-30  2.5092e-24  7.2668e-30  2.5168e-24  8.7604e-30  2.5303e-24  1.1411e-29  2.5542e-24  1.611e-29  2.5967e-24  2.4418e-29  2.672e-24  3.9041e-29  2.8051e-24  6.4567e-29  3.0388e-24  1.0847e-28  3.4442e-24  1.8194e-28  4.1314e-24  2.9849e-28  5.2438e-24  4.639e-28  6.8782e-24  6.3921e-28  8.7372e-24  6.8243e-28  9.5153e-24
      4.15  5.848e-30  2.346e-23  6.0413e-30  2.3462e-23  6.3849e-30  2.3466e-23  6.996e-30  2.3473e-23  8.0827e-30  2.3486e-23  1.0015e-29  2.3509e-23  1.3451e-29  2.3549e-23  1.9559e-29  2.3622e-23  3.0416e-29  2.375e-23  4.9708e-29  2.3977e-23  8.3969e-29  2.4382e-23  1.4475e-28   2.51e-23  2.5237e-28  2.6375e-23  4.4232e-28  2.8632e-23  7.7556e-28  3.2613e-23  1.354e-27  3.9589e-23  2.3389e-27  5.1661e-23  3.9566e-27  7.2078e-23  6.4379e-27  1.0518e-22
      4.20  1.4087e-29  8.6004e-23  1.4475e-29  8.601e-23  1.5165e-29  8.6022e-23  1.6391e-29  8.6043e-23  1.8572e-29  8.6081e-23  2.245e-29  8.6148e-23  2.9347e-29  8.6268e-23  4.161e-29  8.648e-23  6.3417e-29  8.6857e-23  1.0219e-28  8.7528e-23  1.7114e-28  8.8721e-23  2.9369e-28  9.0844e-23  5.1155e-28  9.4617e-23  8.9865e-28  1.0133e-22  1.5859e-27  1.1327e-22  2.805e-27  1.345e-22  4.9634e-27  1.7227e-22  8.7692e-27  2.3947e-22  1.5434e-26   3.59e-22
      4.25  5.012e-29  1.2902e-22  5.0412e-29  1.2903e-22  5.0932e-29  1.2905e-22  5.1857e-29  1.2909e-22  5.3501e-29  1.2914e-22  5.6425e-29  1.2925e-22  6.1624e-29  1.2943e-22  7.0871e-29  1.2976e-22  8.7317e-29  1.3035e-22  1.1657e-28  1.3139e-22  1.686e-28  1.3324e-22  2.6118e-28  1.3653e-22  4.2598e-28  1.4239e-22  7.1954e-28  1.5282e-22  1.2432e-27  1.714e-22  2.1794e-27  2.0456e-22  3.8597e-27  2.6387e-22  6.895e-27  3.7049e-22  1.244e-26  5.6369e-22
      4.30  1.4267e-28  1.2001e-22  1.4261e-28  1.2002e-22  1.425e-28  1.2004e-22  1.423e-28  1.2008e-22  1.4196e-28  1.2015e-22  1.4135e-28  1.2027e-22  1.4026e-28  1.2048e-22  1.3833e-28  1.2086e-22  1.349e-28  1.2153e-22  1.405e-28  1.2273e-22  2.4398e-28  1.2485e-22  4.2819e-28  1.2864e-22  7.5631e-28  1.3537e-22  1.3415e-27  1.4736e-22  2.3874e-27  1.6872e-22  4.2628e-27  2.0687e-22  7.6445e-27  2.7516e-22  1.3796e-26  3.981e-22  2.5149e-26  6.2143e-22
      4.35  3.1029e-28  9.5909e-23  3.097e-28  9.5924e-23  3.0864e-28  9.5949e-23  3.069e-28  9.5995e-23  3.0344e-28  9.6075e-23  2.9765e-28  9.6218e-23  2.8699e-28  9.6473e-23  2.684e-28  9.6927e-23  2.3511e-28  9.7733e-23  2.079e-28  9.9167e-23  3.5953e-28  1.0172e-22  6.2952e-28  1.0626e-22  1.1107e-27  1.1433e-22  1.9697e-27  1.2871e-22  3.5071e-27  1.5433e-22  6.2686e-27  2.0006e-22  1.1257e-26  2.8195e-22  2.034e-26  4.2937e-22  3.7003e-26  6.9719e-22
      4.40  4.6652e-28  7.5568e-23  4.6537e-28  7.5587e-23  4.6333e-28  7.562e-23  4.5969e-28  7.568e-23  4.5323e-28  7.5785e-23  4.4173e-28  7.5973e-23  4.213e-28  7.6307e-23  3.8496e-28   7.69e-23  3.2038e-28  7.7955e-23  2.6375e-28  7.9833e-23  4.5335e-28  8.3172e-23  7.9135e-28  8.9112e-23  1.3949e-27  9.9681e-23  2.4754e-27  1.185e-22  4.4168e-27  1.5202e-22  7.9211e-27  2.1185e-22  1.4275e-26  3.1891e-22  2.565e-26  5.1152e-22  4.6255e-26  8.6108e-22
      4.45  4.5262e-28  5.9911e-23  4.5101e-28  5.9937e-23  4.4815e-28  5.9982e-23  4.4307e-28  6.0062e-23  4.3403e-28  6.0205e-23  4.1795e-28  6.0459e-23  3.8937e-28  6.0912e-23  3.3857e-28  6.1716e-23  2.4834e-28  6.3145e-23  3.1988e-28  6.5688e-23  5.4803e-28  7.0212e-23  9.5644e-28  7.8258e-23  1.6903e-27  9.2573e-23  3.0149e-27  1.1806e-22  5.4175e-27  1.6345e-22  9.7337e-27  2.4446e-22  1.7359e-26  3.8944e-22  3.0928e-26  6.5014e-22  5.5392e-26  1.1229e-21
      4.50  3.3308e-28  4.7264e-23  3.3112e-28  4.7298e-23  3.2763e-28  4.7359e-23  3.2143e-28  4.7468e-23  3.1042e-28  4.7662e-23  2.9083e-28  4.8006e-23  2.5602e-28  4.8619e-23  1.9418e-28  4.9708e-23  2.1168e-28  5.1646e-23  3.5706e-28  5.5092e-23  6.1749e-28  6.122e-23  1.086e-27  7.2122e-23  1.9339e-27  9.1519e-23  3.4781e-27  1.2605e-22  6.2299e-27  1.8758e-22  1.1077e-26  2.9742e-22  1.9703e-26  4.9403e-22  3.5035e-26  8.4776e-22  6.2799e-26  1.4898e-21
      4.55  2.2443e-28  3.7495e-23  2.2229e-28  3.7542e-23  2.1848e-28  3.7624e-23  2.1172e-28  3.7772e-23  1.9969e-28  3.8033e-23  1.783e-28  3.8499e-23  1.4031e-28  3.9326e-23  1.2737e-28  4.0798e-23  2.1314e-28  4.3415e-23  3.6665e-28  4.807e-23  6.4261e-28  5.6349e-23  1.1419e-27  7.1077e-23  2.0532e-27  9.7283e-23  3.6744e-27  1.4394e-22  6.5493e-27  2.2711e-22  1.1672e-26  3.7558e-22  2.0708e-26  6.4148e-22  3.6885e-26  1.1202e-21  6.6217e-26  1.9904e-21
      4.60  1.5206e-28  3.0294e-23  1.5008e-28  3.0659e-23  1.4641e-28  3.0771e-23  1.3987e-28  3.0971e-23  1.2831e-28  3.1018e-23  1.078e-28  3.1644e-23  7.1379e-29  3.2757e-23  1.1827e-28  3.4738e-23  2.0235e-28  3.8259e-23  3.5327e-28  4.4522e-23  6.2584e-28  5.5662e-23  1.1228e-27  7.5479e-23  2.0108e-27  1.1074e-22  3.5989e-27  1.7354e-22  6.4136e-27  2.8547e-22  1.1412e-26  4.8535e-22   2.03e-26  8.4342e-22  3.623e-26  1.4886e-21  6.5158e-26  2.6626e-21
      4.65  1.0757e-28  2.5792e-23  1.0589e-28  2.5875e-23  1.0289e-28  2.6024e-23  9.7572e-29  2.6289e-23  8.8115e-29  2.6761e-23  7.1315e-29  2.7599e-23  6.4332e-29  2.9089e-23  1.0877e-28  3.174e-23  1.8836e-28  3.6454e-23  3.3163e-28  4.4837e-23  5.9169e-28  5.9749e-23  1.0618e-27  8.6277e-23  1.9045e-27  1.3349e-22  3.4039e-27  2.1757e-22  6.0928e-27  3.6745e-22  1.0862e-26  6.3519e-22  1.9329e-26  1.1151e-21  3.4531e-26  1.9806e-21  6.2195e-26  3.5582e-21
      4.70  8.089e-29  2.4816e-23  7.9792e-29  2.4927e-23  7.784e-29  2.5125e-23  7.4372e-29  2.5477e-23  6.8212e-29  2.6104e-23  5.7278e-29  2.7218e-23  6.1759e-29  2.9199e-23  1.048e-28  3.2722e-23  1.8199e-28  3.8988e-23  3.2133e-28  5.0132e-23  5.7543e-28  6.9954e-23  1.0329e-27  1.0522e-22  1.858e-27  1.6799e-22  3.3289e-27  2.798e-22  5.9372e-27  4.7919e-22  1.0562e-26  8.3555e-22  1.8831e-26  1.475e-21  3.3708e-26  2.6301e-21  6.0855e-26  4.7416e-21
      4.75  6.4477e-29  2.9625e-23  6.4072e-29  2.9771e-23  6.3354e-29  3.003e-23  6.2079e-29  3.0491e-23  5.9821e-29  3.1312e-23  5.5834e-29  3.277e-23  6.4397e-29  3.5364e-23  1.0869e-28  3.9978e-23  1.8833e-28  4.8182e-23  3.3265e-28  6.2775e-23  5.9736e-28  8.8733e-23  1.0723e-27  1.3492e-22  1.9178e-27  2.1714e-22  3.4205e-27  3.6362e-22  6.094e-27  6.2495e-22  1.0853e-26  1.0924e-21  1.9365e-26  1.9321e-21  3.4718e-26  3.4523e-21  6.2882e-26  6.241e-21
      4.80  5.3075e-29  4.3331e-23  5.3379e-29  4.3518e-23  5.3921e-29  4.385e-23  5.4889e-29  4.4441e-23  5.6625e-29  4.5492e-23  5.9756e-29  4.736e-23  7.099e-29  5.0683e-23  1.1876e-28  5.6592e-23  2.0506e-28  6.7102e-23  3.6273e-28  8.5795e-23  6.4928e-28  1.1905e-22  1.1554e-27  1.7822e-22  2.0559e-27  2.8357e-22  3.6633e-27  4.7129e-22  6.5232e-27  8.0635e-22  1.162e-26  1.406e-21  2.0766e-26  2.4847e-21  3.731e-26  4.4415e-21  6.7775e-26  8.043e-21
      4.85  4.2517e-29  6.4676e-23  4.3498e-29  6.4909e-23  4.5246e-29  6.5324e-23  4.8361e-29  6.6061e-23  5.3927e-29  6.7372e-23   6.39e-29  6.9703e-23  8.1881e-29  7.3849e-23  1.3055e-28  8.1222e-23  2.2557e-28  9.4336e-23  3.9847e-28  1.1766e-22  7.0678e-28  1.5915e-22  1.2529e-27  2.3299e-22  2.2283e-27  3.6447e-22  3.963e-27  5.9881e-22  7.0491e-27  1.0172e-21  1.2551e-26  1.7665e-21  2.2408e-26  3.1157e-21  4.0233e-26  5.5676e-21  7.3097e-26  1.0093e-20
      4.90  3.1693e-29  8.054e-23  3.3265e-29  8.0821e-23  3.6065e-29  8.132e-23  4.1059e-29  8.2208e-23  4.9992e-29  8.3787e-23  6.6037e-29  8.6594e-23  9.5072e-29  9.1587e-23  1.4824e-28  1.0047e-22  2.4637e-28  1.1626e-22  4.2639e-28  1.4434e-22  7.5303e-28  1.9431e-22  1.336e-27  2.8324e-22  2.3755e-27  4.4159e-22  4.2119e-27  7.2384e-22  7.4615e-27  1.2279e-21  1.3228e-26  2.1309e-21  2.3528e-26  3.7579e-21  4.2078e-26  6.7177e-21  7.6287e-26  1.2191e-20
      4.95  2.3093e-29  7.948e-23  2.4979e-29  7.9805e-23  2.8343e-29  8.0382e-23  3.4364e-29  8.1408e-23  4.5191e-29  8.3232e-23  6.4816e-29  8.6476e-23  1.0082e-28  9.2246e-23  1.6833e-28  1.0251e-22  2.9185e-28  1.2075e-22  5.1245e-28  1.5321e-22  9.0523e-28  2.1096e-22  1.6014e-27  3.1372e-22  2.8225e-27  4.9672e-22  4.9611e-27  8.2295e-22  8.7088e-27  1.4056e-21  1.5299e-26  2.4497e-21  2.6966e-26  4.3316e-21  4.7956e-26  7.7579e-21  8.654e-26  1.4103e-20
      5.00  1.7939e-29  6.7539e-23  1.9788e-29  6.7897e-23  2.3106e-29  6.8535e-23  2.9105e-29  6.9669e-23  4.0077e-29  7.1685e-23  6.0473e-29  7.527e-23  9.9585e-29  8.1645e-23  1.7438e-28  9.2983e-23  3.1221e-28  1.1315e-22  5.6164e-28  1.4902e-22  9.8858e-28  2.1283e-22  1.7295e-27  3.2641e-22  3.008e-27  5.2868e-22  5.1979e-27  8.8932e-22  8.9537e-27  1.5336e-21  1.5464e-26  2.6889e-21  2.6894e-26  4.7732e-21  4.7383e-26  8.5745e-21  8.4819e-26  1.5634e-20
      5.05  1.5284e-29  5.403e-23  1.6911e-29  5.4398e-23  1.9892e-29  5.5053e-23  2.5473e-29  5.6217e-23  3.6228e-29  5.8287e-23  5.7595e-29  6.1969e-23  9.8731e-29  6.8516e-23  1.8294e-28  8.016e-23  3.4642e-28  1.0087e-22  6.0841e-28  1.3771e-22  1.0495e-27  2.0325e-22  1.7869e-27  3.1991e-22  3.008e-27  5.277e-22  5.0079e-27  8.9827e-22  8.341e-27  1.5606e-21  1.4016e-26  2.7492e-21  2.395e-26  4.8967e-21  4.1708e-26  8.8223e-21  7.3882e-26  1.6141e-20
      5.10  1.4106e-29  4.2653e-23  1.5525e-29  4.301e-23  1.8305e-29  4.3646e-23  2.4045e-29  4.4777e-23  3.6472e-29  4.6787e-23  5.9445e-29  5.0363e-23  1.0926e-28  5.6721e-23  2.1998e-28  6.8029e-23  4.0053e-28  8.8141e-23  6.8568e-28  1.2392e-22  1.1367e-27  1.8758e-22  1.8421e-27  3.0089e-22  2.9361e-27  5.0276e-22  4.6438e-27  8.6287e-22  7.4126e-27  1.5068e-21  1.1989e-26  2.6634e-21  1.9788e-26  4.756e-21  3.3784e-26  8.5909e-21  5.9338e-26  1.577e-20
      5.15  1.3699e-29  3.3922e-23  1.5092e-29  3.4276e-23  1.8217e-29  3.4907e-23  2.578e-29  3.6029e-23  4.0462e-29  3.8024e-23  7.084e-29  4.1571e-23  1.4228e-28  4.7879e-23  2.7555e-28  5.9098e-23  4.8343e-28  7.9053e-23  7.9525e-28  1.1455e-22  1.2453e-27  1.7771e-22  1.9009e-27  2.9016e-22  2.8648e-27  4.9049e-22  4.3116e-27  8.4796e-22  6.332e-27  1.4875e-21  9.7862e-27  2.6368e-21  1.5874e-26  4.719e-21  2.6827e-26  8.5427e-21  4.6858e-26  1.5725e-20
      5.20  1.3727e-29  2.7393e-23  1.5393e-29  2.7759e-23  1.9713e-29  2.8408e-23  3.0766e-29  2.9564e-23  5.0601e-29  3.1619e-23  9.7178e-29  3.5274e-23  2.0437e-28  4.1773e-23  3.521e-28  5.3332e-23  5.7817e-28  7.3892e-23  9.1272e-28  1.1047e-22  1.3627e-27  1.7555e-22  1.9739e-27  2.9142e-22  2.813e-27  4.9788e-22  3.7399e-27  8.6636e-22  5.308e-27  1.5258e-21  8.0571e-27  2.7117e-21  1.2958e-26  4.8622e-21  2.1805e-26  8.8186e-21  3.803e-26  1.6272e-20
      5.25  1.4034e-29   2.25e-23  1.6398e-29  2.2876e-23  2.309e-29  2.3546e-23  3.9696e-29  2.4736e-23  7.4063e-29  2.6854e-23  1.3599e-28  3.0619e-23  2.5766e-28  3.7314e-23  4.2451e-28  4.9223e-23  6.5825e-28  7.0405e-23  9.9434e-28  1.0809e-22  1.4441e-27  1.7514e-22  2.0359e-27  2.9453e-22  2.5354e-27  5.0729e-22  3.3566e-27  8.8709e-22  4.7733e-27  1.567e-21  7.2545e-27  2.7906e-21  1.1645e-26  5.0119e-21  1.9566e-26  9.1059e-21  3.4168e-26  1.6842e-20
      5.30  1.4785e-29  1.8794e-23  1.8761e-29  1.9177e-23  3.0463e-29  1.9857e-23  6.0798e-29  2.1067e-23   9.87e-29  2.3219e-23  1.6912e-28  2.7045e-23  2.9677e-28  3.385e-23  4.6739e-28  4.5953e-23  7.145e-28  6.7481e-23  1.0374e-27  1.0578e-22  1.5139e-27  1.7393e-22  1.9174e-27  2.9529e-22  2.4195e-27  5.1159e-22  3.1687e-27  8.9779e-22  4.4023e-27  1.5895e-21  6.5684e-27  2.835e-21  1.0286e-26  5.099e-21  1.7024e-26  9.2801e-21  2.9495e-26  1.7206e-20
      5.35  1.6262e-29  1.5967e-23  2.3401e-29  1.6356e-23  4.4235e-29  1.7049e-23  7.6234e-29  1.828e-23  1.1899e-28  2.0469e-23  1.9065e-28  2.4362e-23  3.2032e-28  3.1286e-23  4.9132e-28   4.36e-23  7.3331e-28  6.5503e-23  1.1104e-27  1.0447e-22  1.546e-27  1.7382e-22  1.8354e-27  2.9731e-22  2.2756e-27  5.1745e-22  2.9688e-27  9.1058e-22  4.1296e-27  1.615e-21  6.0426e-27  2.8843e-21  9.4721e-27  5.1943e-21  1.5696e-26  9.4692e-21  2.7248e-26  1.7599e-20
      5.40  1.7494e-29  1.3759e-23  2.7411e-29  1.4138e-23  5.1361e-29  1.4812e-23  7.9488e-29  1.6011e-23  1.2505e-28  1.8143e-23  1.9177e-28  2.1934e-23  3.0961e-28  2.8677e-23  5.0685e-28  4.067e-23  7.6866e-28  6.2002e-23  1.2032e-27  9.9952e-23  1.4825e-27  1.675e-22  1.7778e-27  2.8779e-22  2.2446e-27  5.0224e-22  2.9743e-27  8.8534e-22  4.1904e-27  1.5721e-21  6.1646e-27  2.8106e-21  9.6255e-27  5.0678e-21  1.5932e-26  9.255e-21  2.7647e-26  1.7249e-20
      5.45  1.6013e-29  1.1965e-23  2.3623e-29  1.2283e-23  4.5093e-29  1.2848e-23  6.9286e-29  1.3853e-23  1.0729e-28  1.564e-23  1.7402e-28  1.8819e-23  2.8282e-28  2.4472e-23  4.642e-28  3.4525e-23  7.8684e-28  5.2407e-23  1.263e-27  8.4222e-23  1.4941e-27  1.4085e-22  1.8435e-27  2.4171e-22  2.3654e-27  4.2156e-22  3.0863e-27  7.4297e-22  4.2475e-27  1.3195e-21  6.1829e-27  2.3604e-21  9.5521e-27  4.2612e-21  1.5662e-26  7.7985e-21  2.7092e-26  1.4586e-20
      5.50  1.3317e-29  1.0471e-23  1.641e-29   1.07e-23  2.5256e-29  1.1107e-23  5.0018e-29  1.1832e-23  8.4581e-29  1.3121e-23  1.4313e-28  1.5412e-23  2.4992e-28  1.9488e-23  4.3935e-28  2.6737e-23  7.5923e-28  3.963e-23  1.2113e-27  6.2568e-23  1.5698e-27  1.034e-22  1.9681e-27  1.7614e-22  2.4085e-27  3.0587e-22  3.0606e-27  5.3779e-22  4.0085e-27  9.5407e-22  5.5928e-27  1.7065e-21  8.3774e-27  3.0832e-21  1.341e-26  5.6533e-21  2.2794e-26  1.0609e-20
      5.55  1.2032e-29  9.3053e-24  1.3529e-29  9.4776e-24  1.7784e-29  9.7841e-24  3.0089e-29  1.0329e-23  6.1477e-29  1.1298e-23  1.2494e-28  1.3021e-23  2.4058e-28  1.6086e-23  4.4721e-28  2.1536e-23  7.9093e-28  3.1231e-23  1.2093e-27  4.8482e-23  1.6023e-27  7.9189e-23  1.9666e-27  1.339e-22  2.3446e-27  2.3148e-22  2.8239e-27  4.0599e-22  3.582e-27  7.1933e-22  4.8093e-27  1.2862e-21  6.9698e-27  2.3245e-21  1.0892e-26  4.267e-21  1.8167e-26  8.0248e-21
      5.60  1.1497e-29  8.4093e-24  1.3108e-29  8.5588e-24  1.7598e-29  8.8248e-24  3.0671e-29  9.2979e-24  5.5518e-29  1.0139e-23  1.1586e-28  1.1635e-23  2.4888e-28  1.4295e-23  4.6999e-28  1.9026e-23  8.6818e-28  2.7441e-23  1.2028e-27  4.2416e-23  1.5697e-27  6.9073e-23  1.8144e-27  1.1657e-22  2.0942e-27  2.013e-22  2.4914e-27  3.5282e-22  3.1182e-27  6.2499e-22  4.1307e-27  1.1175e-21  5.905e-27  2.0205e-21  9.1199e-27  3.7117e-21  1.5077e-26  6.9897e-21
      5.65  1.1157e-29  7.7101e-24  1.3175e-29  7.8529e-24  1.9053e-29  8.1068e-24  3.5267e-29  8.5584e-24  6.6946e-29  9.3613e-24  1.3078e-28  1.0789e-23  2.6207e-28  1.3329e-23  5.1784e-28  1.8023e-23  9.1981e-28  2.5878e-23  1.2123e-27  4.0174e-23  1.5126e-27  6.5625e-23  1.6839e-27  1.1097e-22  1.9292e-27  1.9187e-22  2.274e-27  3.3656e-22  2.8471e-27  5.9649e-22  3.7721e-27  1.067e-21  5.3998e-27  1.9301e-21  8.3511e-27  3.5481e-21  1.3838e-26  6.6883e-21
      5.70  1.0804e-29  7.1536e-24  1.329e-29  7.2934e-24  2.0556e-29  7.5419e-24  4.1544e-29  7.9839e-24  7.5815e-29  8.7699e-24  1.4817e-28  1.0167e-23  2.9612e-28  1.2653e-23  5.7288e-28  1.7073e-23  9.0195e-28  2.4937e-23  1.1357e-27  3.893e-23  1.3562e-27  6.3843e-23  1.5287e-27  1.0823e-22  1.7473e-27  1.8742e-22  2.0671e-27  3.2908e-22  2.6092e-27  5.836e-22  3.5213e-27  1.0445e-21  5.1246e-27  1.8903e-21  8.0393e-27  3.4771e-21  1.3489e-26  6.5607e-21
      5.75  1.0202e-29  6.6469e-24  1.2892e-29   6.78e-24  2.0722e-29  7.0167e-24  4.1393e-29  7.4376e-24  8.2288e-29  8.1859e-24  1.641e-28  9.5167e-24  3.3108e-28  1.1883e-23  5.9822e-28  1.6092e-23  8.0062e-28  2.3581e-23  9.8124e-28  3.6908e-23  1.1251e-27  6.0633e-23  1.2959e-27  1.029e-22  1.5052e-27  1.7833e-22  1.831e-27  3.1326e-22  2.3686e-27  5.5574e-22  3.2846e-27  9.9498e-22  4.9211e-27  1.8015e-21  7.9143e-27  3.316e-21  1.3549e-26  6.2634e-21
      5.80  9.5202e-30  6.2565e-24  1.2225e-29  6.3788e-24  1.981e-29  6.5962e-24  4.045e-29  6.9828e-24  8.5231e-29  7.6702e-24  1.8246e-28  8.8925e-24  3.449e-28  1.1066e-23  5.4118e-28  1.4933e-23  6.8538e-28  2.1813e-23  8.3561e-28  3.4056e-23  9.4791e-28  5.5852e-23  1.1305e-27  9.4687e-23  1.3516e-27  1.6398e-22  1.6843e-27  2.8797e-22  2.253e-27  5.1084e-22  3.2421e-27  9.1471e-22  5.0127e-27  1.6568e-21  8.2826e-27  3.0518e-21  1.4493e-26  5.7711e-21
      5.85  9.1256e-30  5.9595e-24  1.2202e-29  6.0748e-24  2.0499e-29  6.2799e-24  4.1983e-29  6.6444e-24  9.4169e-29  7.2927e-24  2.0001e-28  8.4455e-24  3.231e-28  1.0496e-23  4.786e-28  1.4144e-23  6.0194e-28  2.0633e-23  7.5299e-28  3.2181e-23  8.8576e-28  5.274e-23  1.0456e-27  8.9373e-23  1.2859e-27  1.5475e-22  1.6607e-27  2.7172e-22  2.3119e-27  4.8204e-22  3.4549e-27  8.6332e-22  5.5232e-27  1.5643e-21  9.3566e-27  2.8835e-21  1.6693e-26  5.4592e-21
      5.90  8.8674e-30  5.7432e-24  1.2582e-29  5.8583e-24  2.2444e-29  6.0631e-24  4.7216e-29  6.4272e-24  1.047e-28  7.0747e-24  2.0624e-28  8.2262e-24  3.2315e-28  1.0275e-23  4.349e-28  1.3918e-23  5.6921e-28   2.04e-23  7.1009e-28  3.1935e-23   8.42e-28  5.2471e-23  1.0082e-27  8.9064e-23  1.2829e-27  1.5437e-22  1.7284e-27  2.7125e-22  2.5354e-27  4.8142e-22  3.9469e-27  8.6256e-22  6.5167e-27  1.5637e-21  1.1307e-26  2.8846e-21  2.0539e-26  5.4673e-21
      5.95  8.493e-30  5.5886e-24  1.2837e-29  5.7633e-24  2.3529e-29  5.9153e-24  5.0955e-29  6.2872e-24  1.162e-28  7.0177e-24  2.1285e-28  8.1241e-24  3.3324e-28  1.0216e-23  4.4549e-28  1.3936e-23  5.565e-28  2.0555e-23  6.7766e-28  3.2333e-23  8.3481e-28  5.3303e-23  1.0206e-27  9.0672e-23  1.3263e-27  1.5737e-22  1.8597e-27  2.7674e-22  2.7988e-27  4.9145e-22  4.477e-27  8.8097e-22  7.5469e-27  1.598e-21  1.3291e-26   2.95e-21  2.4418e-26  5.5977e-21
      6.00  7.8448e-30  5.4795e-24  1.1791e-29  5.5975e-24  2.2443e-29  5.8074e-24  5.0702e-29  6.2424e-24  1.1321e-28  6.8441e-24  2.3029e-28  8.024e-24  3.4617e-28  1.0123e-23  4.5383e-28  1.3857e-23  5.7087e-28  2.0499e-23  6.9541e-28  3.232e-23  8.5719e-28  5.3366e-23  1.0927e-27  9.0872e-23  1.4735e-27  1.5782e-22  2.1433e-27  2.7765e-22  3.3359e-27  4.9325e-22  5.493e-27  8.8453e-22  9.4466e-27  1.6053e-21  1.6869e-26  2.9659e-21  3.132e-26  5.6348e-21
      6.05  7.0328e-30  5.4227e-24  1.0359e-29  5.5374e-24  1.9529e-29  5.7414e-24  4.3789e-29  6.1041e-24  1.0492e-28  6.8164e-24  2.3075e-28  7.8955e-24  3.5425e-28  9.9353e-24  4.6582e-28  1.3564e-23  5.8055e-28  2.002e-23  7.1141e-28  3.1508e-23  8.772e-28  5.1963e-23  1.145e-27  8.8416e-23  1.6014e-27  1.5349e-22  2.407e-27  2.6999e-22  3.8486e-27  4.7964e-22  6.4576e-27  8.6031e-22  1.1251e-26  1.5621e-21  2.0276e-26  2.8884e-21  3.7915e-26  5.4952e-21
      6.10  6.3474e-30  5.3976e-24  9.0976e-30  5.5064e-24  1.6614e-29  5.6999e-24  3.675e-29  6.0439e-24  8.8963e-29  6.7221e-24  2.0051e-28  7.7429e-24  3.3264e-28  9.6772e-24  4.5663e-28  1.3118e-23  5.5761e-28  1.9241e-23  6.8293e-28  3.0136e-23  8.6945e-28  4.9535e-23  1.1703e-27  8.4109e-23  1.6959e-27  1.4583e-22  2.6321e-27  2.5636e-22  4.3075e-27  4.5531e-22  7.3426e-27  8.1672e-22  1.2931e-26  1.4835e-21  2.3474e-26  2.7455e-21  4.4146e-26  5.2307e-21
      6.15  6.0031e-30    5.4e-24  8.5243e-30  5.5009e-24  1.5086e-29  5.6803e-24  3.2098e-29  5.9994e-24  7.3142e-29  6.5667e-24  1.5258e-28  7.5754e-24  2.5042e-28  9.3695e-24  3.8354e-28  1.2561e-23  4.8985e-28  1.8239e-23  6.1815e-28  2.8344e-23  8.1835e-28  4.6337e-23  1.1448e-27  7.8406e-23  1.7231e-27  1.3566e-22  2.7523e-27  2.3821e-22  4.6033e-27  4.2284e-22  7.9598e-27  7.5842e-22  1.4144e-26  1.3781e-21  2.5836e-26  2.5523e-21  4.8825e-26  4.8695e-21
      6.20  5.7798e-30  5.4242e-24  8.2492e-30  5.5143e-24  1.4314e-29  5.6746e-24  2.8924e-29  5.9596e-24  5.822e-29  6.4663e-24  1.1268e-28  7.3672e-24  1.8166e-28  8.9695e-24  2.7204e-28  1.182e-23  3.8078e-28  1.689e-23  5.1887e-28  2.5914e-23  7.2105e-28  4.1982e-23  1.0658e-27  7.0622e-23  1.6656e-27  1.2176e-22  2.7386e-27  2.1336e-22  4.6673e-27  3.7835e-22  8.1691e-27  6.7837e-22  1.4629e-26  1.2328e-21  2.6863e-26  2.2851e-21  5.0979e-26  4.3657e-21
      6.25  5.2786e-30  5.4662e-24  7.518e-30  5.542e-24  1.2723e-29  5.6769e-24  2.3241e-29  5.9166e-24  4.4044e-29  6.3429e-24  8.2031e-29  7.1008e-24  1.2783e-28  8.4488e-24  1.9335e-28  1.0846e-23  2.8126e-28  1.5111e-23  4.0772e-28  2.2702e-23  6.0591e-28  3.6217e-23  9.4436e-28  6.0309e-23  1.5366e-27  1.0333e-22  2.5908e-27  1.8041e-22  4.4832e-27  3.1928e-22  7.9226e-27  5.7196e-22  1.4276e-26  1.0394e-21  2.6326e-26  1.9277e-21  5.0139e-26  3.6883e-21
      6.30  4.6163e-30  5.5496e-24  6.3668e-30  5.6101e-24  9.9301e-30  5.7177e-24  1.7834e-29  5.9089e-24  3.1763e-29  6.249e-24  5.7677e-29  6.8536e-24  8.5441e-29  7.9289e-24  1.3417e-28  9.8412e-24  2.0839e-28  1.3243e-23  3.1474e-28  1.9297e-23  4.986e-28  3.0077e-23  8.1093e-28  4.9293e-23  1.3636e-27  8.3613e-23  2.3447e-27  1.4511e-22  4.1085e-27  2.5595e-22  7.3155e-27  4.5774e-22  1.3245e-26  8.314e-22  2.4511e-26  1.5427e-21  4.6828e-26  2.9557e-21
      6.35  4.0158e-30  5.6562e-24  5.2453e-30  5.704e-24   7.82e-30  5.7891e-24  1.2903e-29  5.9405e-24  2.3409e-29  6.2095e-24  4.2074e-29  6.688e-24  5.8846e-29  7.5389e-24  9.0096e-29  9.0522e-24  1.4708e-28  1.1744e-23  2.4695e-28  1.6534e-23  4.0832e-28  2.5065e-23  6.9389e-28  4.0271e-23  1.1943e-27  6.7432e-23  2.086e-27  1.1611e-22  3.6937e-27  2.0388e-22  6.6195e-27  3.6377e-22  1.2035e-26  6.6013e-22  2.2341e-26  1.2252e-21  4.2809e-26  2.3504e-21
      6.40  3.4767e-30  5.7851e-24  4.5116e-30  5.824e-24  6.5011e-30  5.8931e-24  9.9859e-30  6.016e-24  1.6756e-29  6.2345e-24  3.1298e-29  6.6231e-24  4.415e-29  7.3141e-24  6.6835e-29  8.543e-24  1.1078e-28  1.0729e-23  1.9517e-28  1.4619e-23  3.4722e-28  2.1547e-23  6.151e-28  3.3896e-23  1.0881e-27  5.5957e-23  1.934e-27  9.5504e-23  3.4623e-27  1.6683e-22  6.2461e-27  2.9684e-22  1.1406e-26  5.3807e-22  2.1244e-26  9.9875e-22  4.0835e-26  1.9183e-21
      6.45  2.9972e-30  5.9331e-24  3.945e-30  5.9653e-24  5.4957e-30  6.0225e-24  8.3756e-30  6.1241e-24  1.3266e-29  6.3049e-24  2.3478e-29  6.6263e-24  3.741e-29  7.198e-24   5.76e-29  8.2146e-24  9.7363e-29  1.0023e-23  1.7432e-28  1.3241e-23  3.1894e-28  1.8971e-23  5.8097e-28  2.9186e-23  1.0506e-27  4.7437e-23  1.8974e-27  8.0158e-23  3.4242e-27  1.3919e-22  6.2102e-27  2.4686e-22  1.1382e-26  4.4681e-22  2.1262e-26  8.2923e-22  4.0988e-26  1.5942e-21
      6.50  2.4885e-30  6.0979e-24  3.3743e-30  6.1246e-24  4.5877e-30  6.1722e-24  6.885e-30  6.2567e-24   1.07e-29  6.407e-24  1.842e-29  6.6742e-24  2.9041e-29  7.1494e-24  4.6495e-29  7.9945e-24  7.9858e-29  9.4979e-24  1.4501e-28  1.2173e-23  2.7044e-28  1.6936e-23  5.0578e-28  2.5428e-23  9.3439e-28  4.0601e-23  1.7095e-27  6.7808e-23  3.1142e-27  1.1691e-22  5.6815e-27  2.065e-22  1.0453e-26   3.73e-22  1.9585e-26  6.9184e-22  3.7859e-26  1.3307e-21
      6.55  2.0636e-30  6.3089e-24  2.8273e-30  6.3316e-24  3.7762e-30  6.3718e-24  5.5513e-30  6.4434e-24  8.9203e-30  6.5706e-24  1.5284e-29  6.7969e-24  2.4397e-29  7.1993e-24  3.9098e-29  7.9149e-24  6.8879e-29  9.1879e-24  1.2761e-28  1.1453e-23  2.4248e-28  1.5487e-23  4.6154e-28  2.2678e-23  8.6837e-28  3.5527e-23  1.6111e-27  5.8571e-23  2.9607e-27  1.0017e-22  5.4316e-27  1.7609e-22  1.0033e-26  3.1727e-22  1.8853e-26  5.8789e-22  3.6535e-26  1.1309e-21
      6.60  1.7167e-30  6.5377e-24  2.3288e-30  6.5576e-24  3.1346e-30  6.5929e-24  4.5548e-30  6.6557e-24  7.4436e-30  6.7673e-24  1.326e-29  6.9658e-24  2.1707e-29  7.3187e-24  3.5166e-29  7.9465e-24  6.3072e-29  9.0633e-24  1.1961e-28  1.1051e-23  2.3107e-28  1.4589e-23  4.4591e-28  2.0899e-23  8.4938e-28  3.2173e-23  1.5933e-27  5.2393e-23  2.9541e-27  8.8898e-23  5.4507e-27  1.5555e-22  1.0107e-26  2.7954e-22  1.9043e-26  5.1738e-22  3.6986e-26  9.9515e-22
      6.65  1.4295e-30  6.7831e-24  1.8877e-30  6.8012e-24  2.5954e-30  6.8335e-24  3.7566e-30  6.8907e-24   6.09e-30  6.9926e-24  1.1463e-29  7.1737e-24  1.9347e-29  7.4958e-24  3.1863e-29  8.0687e-24  5.8734e-29  9.0879e-24  1.1407e-28  1.0902e-23  2.2413e-28  1.4131e-23  4.3785e-28  1.989e-23  8.4283e-28  3.0181e-23  1.5963e-27  4.8638e-23  2.9826e-27  8.1965e-23  5.5342e-27  1.4282e-22   1.03e-26  2.561e-22  1.9457e-26  4.7349e-22  3.7869e-26  9.1056e-22
      6.70  1.1894e-30  7.044e-24  1.5084e-30  7.0611e-24  2.0935e-30  7.0915e-24  3.1318e-30  7.1456e-24   5.29e-30  7.2419e-24  1.0616e-29  7.413e-24  1.9356e-29  7.7173e-24  3.4195e-29  8.2586e-24  6.5787e-29  9.2216e-24  1.3048e-28  1.0935e-23  2.5845e-28  1.3987e-23  5.0538e-28  1.9429e-23  9.7387e-28  2.9153e-23  1.8464e-27  4.6596e-23  3.4561e-27  7.8094e-23  6.4254e-27  1.3563e-22  1.1978e-26  2.4274e-22  2.2657e-26  4.4841e-22  4.4153e-26  8.6222e-22
      6.75   9.91e-31  7.3193e-24  1.2051e-30  7.3359e-24  1.7036e-30  7.3654e-24  2.6518e-30  7.4179e-24  4.8899e-30  7.5113e-24  1.0556e-29  7.6773e-24  2.059e-29  7.9725e-24  3.8496e-29  8.4976e-24  7.6293e-29  9.4317e-24  1.5277e-28  1.1094e-23  3.0177e-28  1.4055e-23  5.8873e-28  1.9334e-23  1.1305e-27  2.8767e-23  2.1398e-27  4.5691e-23  4.0035e-27  7.6254e-23  7.447e-27  1.3209e-22  1.3894e-26  2.3607e-22  2.6305e-26  4.3581e-22  5.131e-26  8.3795e-22
      6.80  8.2962e-31  7.6481e-24  9.7264e-31  7.6646e-24  1.3883e-30  7.6938e-24  2.2835e-30  7.7458e-24  4.4779e-30  7.8383e-24  1.0031e-29  8.0028e-24  2.1376e-29  8.2952e-24  4.0958e-29  8.8154e-24  8.2371e-29  9.7407e-24  1.6477e-28  1.1387e-23  3.2432e-28  1.432e-23  6.3087e-28  1.955e-23   1.21e-27  2.8896e-23  2.2896e-27  4.5663e-23  4.2872e-27  7.5946e-23  7.9863e-27  1.3127e-22  1.4922e-26  2.3434e-22  2.829e-26  4.3241e-22  5.5246e-26  8.3141e-22
      6.85  6.9915e-31  7.9947e-24  7.978e-31  8.0113e-24  1.0992e-30  8.0407e-24  1.9224e-30  8.0931e-24  3.911e-30  8.1862e-24  9.5058e-30  8.3518e-24  2.2532e-29  8.6462e-24  4.466e-29  9.1699e-24  9.1893e-29  1.0102e-23  1.8384e-28  1.176e-23  3.6278e-28  1.4713e-23  7.0481e-28  1.9978e-23  1.3504e-27  2.9389e-23  2.5528e-27  4.6272e-23  4.7775e-27  7.6768e-23  8.9007e-27  1.3249e-22  1.664e-26  2.3632e-22  3.1569e-26  4.3593e-22  6.1703e-26  8.3822e-22
      6.90  5.9541e-31  8.3583e-24  6.735e-31  8.3751e-24  9.085e-31  8.4049e-24  1.6018e-30  8.4579e-24  3.6407e-30  8.5522e-24  9.6157e-30  8.7199e-24  2.4342e-29  9.018e-24  5.0098e-29  9.5482e-24  1.0521e-28  1.0492e-23  2.1151e-28  1.217e-23  4.202e-28  1.516e-23  8.2181e-28  2.0492e-23  1.5772e-27  3.002e-23  2.9789e-27  4.7116e-23  5.5662e-27  7.7997e-23  1.0358e-26  1.3444e-22  1.9355e-26  2.3961e-22  3.6721e-26  4.4188e-22  7.1801e-26  8.4974e-22
      6.95  5.1235e-31  8.7383e-24  5.853e-31  8.7552e-24  8.0156e-31  8.7851e-24  1.4752e-30  8.8384e-24  3.5465e-30  8.9332e-24  9.6075e-30  9.1016e-24  2.4887e-29  9.4012e-24  5.1958e-29  9.934e-24  1.067e-28  1.0882e-23  2.1371e-28  1.2569e-23  4.2918e-28  1.5573e-23  8.4553e-28  2.093e-23  1.6286e-27  3.0504e-23  3.082e-27  4.7682e-23  5.7662e-27  7.8715e-23  1.0739e-26  1.3544e-22  2.0083e-26  2.4117e-22  3.8133e-26  4.4456e-22  7.4626e-26  8.5487e-22
      7.00  4.429e-31  9.134e-24  5.1385e-31  9.1506e-24  7.3222e-31  9.1801e-24  1.3883e-30  9.2326e-24  3.3301e-30  9.3259e-24  9.0577e-30  9.4919e-24  2.5162e-29  9.7869e-24   5.22e-29  1.0312e-23  1.0477e-28  1.1245e-23  2.1272e-28  1.2907e-23  4.3157e-28  1.5865e-23  8.5628e-28  2.1141e-23  1.659e-27  3.0571e-23  3.1547e-27  4.749e-23  5.921e-27  7.8057e-23  1.1051e-26  1.3393e-22  2.0693e-26  2.3811e-22  3.9336e-26  4.3858e-22  7.7057e-26  8.4317e-22
      7.05  3.7154e-31  9.5954e-24  4.391e-31  9.6113e-24  6.4085e-31  9.6394e-24  1.241e-30  9.6896e-24  3.0415e-30  9.7787e-24  8.3869e-30  9.9372e-24  2.3991e-29  1.0219e-23  5.1626e-29  1.072e-23  1.0473e-28  1.1612e-23  2.1386e-28  1.3199e-23  4.3722e-28  1.6024e-23  8.7668e-28  2.1062e-23  1.721e-27  3.0065e-23  3.3028e-27  4.6221e-23  6.2368e-27  7.541e-23  1.1683e-26  1.2877e-22  2.1928e-26  2.2828e-22  4.1746e-26  4.1983e-22  8.1875e-26  8.0659e-22
      7.10  3.0814e-31  1.0078e-23  3.6799e-31  1.0092e-23  5.4531e-31  1.0118e-23  1.0826e-30  1.0164e-23  2.6881e-30  1.0246e-23  7.5774e-30  1.0391e-23  2.2145e-29  1.065e-23  5.1114e-29  1.111e-23  1.0596e-28  1.1928e-23  2.1599e-28  1.3383e-23  4.4175e-28  1.5975e-23  9.0368e-28  2.0595e-23  1.8054e-27  2.8853e-23  3.5112e-27  4.3668e-23  6.6876e-27  7.0438e-23  1.2595e-26  1.1938e-22  2.3718e-26  2.1067e-22  4.5247e-26  3.8644e-22  8.8866e-26  7.4149e-22
      7.15  2.5513e-31  1.058e-23  3.0654e-31  1.0593e-23  4.6117e-31  1.0616e-23  9.3587e-31  1.0656e-23  2.399e-30  1.0728e-23  6.6774e-30  1.0856e-23  1.8917e-29  1.1083e-23  4.6141e-29  1.1487e-23  9.3149e-29  1.2205e-23  1.8654e-28  1.3482e-23  3.8667e-28  1.5757e-23  8.0511e-28  1.9811e-23  1.6419e-27  2.7056e-23  3.252e-27  4.0055e-23  6.2811e-27  6.3541e-23  1.1945e-26  1.0649e-22  2.2639e-26  1.8659e-22  4.3367e-26  3.4087e-22  8.5409e-26  6.5264e-22
      7.20  2.0998e-31  1.1104e-23  2.5304e-31  1.1115e-23  3.8408e-31  1.1134e-23  7.8595e-31  1.1168e-23  1.9669e-30  1.1229e-23  5.3918e-30  1.1337e-23  1.4958e-29  1.1529e-23  3.7982e-29  1.187e-23  7.3517e-29  1.2478e-23  1.5042e-28  1.3558e-23  3.1729e-28  1.5481e-23  6.747e-28  1.8908e-23  1.4123e-27  2.5031e-23  2.8675e-27  3.6015e-23  5.651e-27  5.586e-23  1.0906e-26  9.2149e-23  2.0879e-26  1.5985e-22  4.0262e-26  2.9026e-22  7.9631e-26  5.5385e-22
      7.25  1.7192e-31  1.1648e-23  2.066e-31  1.1657e-23  3.1172e-31  1.1673e-23  6.2306e-31  1.1702e-23  1.5343e-30  1.1752e-23  4.1049e-30  1.1842e-23  1.1063e-29  1.2001e-23  2.7863e-29  1.2285e-23  5.4908e-29  1.2789e-23  1.1236e-28  1.3687e-23  2.4003e-28  1.5284e-23  5.2487e-28  1.813e-23  1.1328e-27  2.3214e-23  2.3734e-27  3.2332e-23  4.8012e-27  4.8805e-23  9.4511e-27  7.8928e-23  1.8346e-26  1.3513e-22  3.5703e-26  2.4339e-22  7.1034e-26  4.6228e-22
      7.30  1.4008e-31  1.2278e-23  1.6712e-31  1.2285e-23  2.4704e-31  1.2298e-23  4.8437e-31  1.2322e-23  1.1751e-30  1.2364e-23  3.0559e-30  1.2439e-23  8.0693e-30  1.2572e-23  1.9767e-29  1.2809e-23  4.1472e-29  1.323e-23  8.4491e-29  1.398e-23  1.7874e-28  1.5314e-23  4.0056e-28  1.7691e-23  8.9867e-28  2.1936e-23  1.956e-27  2.955e-23  4.0907e-27  4.3302e-23  8.2617e-27  6.8448e-23  1.6333e-26  1.1536e-22  3.2181e-26  2.0574e-22  6.4539e-26  3.8847e-22
      7.35  1.1407e-31  1.2936e-23  1.3439e-31  1.2942e-23  1.945e-31  1.2953e-23  3.7284e-31  1.2973e-23  8.9264e-31  1.3009e-23  2.2445e-30  1.3073e-23  5.9136e-30  1.3187e-23  1.4881e-29  1.3389e-23  3.2738e-29  1.3748e-23  6.5832e-29  1.4386e-23  1.3961e-28  1.5523e-23  3.1805e-28  1.755e-23  7.3904e-28  2.1169e-23  1.6688e-27  2.766e-23  3.5982e-27  3.9382e-23  7.4473e-27  6.0814e-23  1.4992e-26  1.0079e-22  2.9907e-26  1.7782e-22  6.0469e-26  3.3355e-22
      7.40  9.2937e-32  1.3622e-23  1.0845e-31  1.3628e-23  1.5438e-31  1.3637e-23  2.9087e-31  1.3655e-23  6.8967e-31  1.3687e-23  1.7059e-30  1.3742e-23  4.4823e-30  1.3842e-23  1.1665e-29  1.4018e-23  2.7912e-29  1.4332e-23  5.4866e-29  1.4891e-23  1.1596e-28  1.5885e-23  2.6689e-28  1.7658e-23  6.3079e-28  2.0825e-23  1.4618e-27  2.6503e-23  3.2397e-27  3.6758e-23  6.8598e-27  5.5506e-23  1.4046e-26  9.0476e-23  2.8359e-26  1.5784e-22  5.7795e-26  2.9403e-22
      7.45  7.5867e-32  1.4337e-23  8.8156e-32  1.4342e-23  1.2453e-31  1.4351e-23  2.3302e-31  1.4366e-23  5.4565e-31  1.4395e-23  1.3655e-30  1.4445e-23  3.5649e-30  1.4534e-23  9.458e-30  1.4692e-23  2.2176e-29  1.4974e-23  4.3299e-29  1.5631e-23  8.9198e-29  1.6369e-23  2.0657e-28  1.7962e-23  4.9738e-28  2.0807e-23  1.1849e-27  2.5909e-23  2.7082e-27  3.5124e-23  5.8958e-27  5.1968e-23  1.2339e-26  8.3385e-23  2.5305e-26  1.439e-22  5.2119e-26  2.6622e-22
      7.50  6.2108e-32  1.5079e-23  7.2293e-32  1.5084e-23  1.0272e-31  1.5092e-23  1.9235e-31  1.5106e-23  4.5253e-31  1.5132e-23  1.1361e-30  1.5178e-23  2.9573e-30  1.526e-23  7.9198e-30  1.5406e-23  1.8445e-29  1.5666e-23  3.5286e-29  1.6128e-23  7.2514e-29  1.695e-23  1.6755e-28  1.8416e-23  4.0769e-28  2.1036e-23  9.9214e-28  2.5735e-23  2.3306e-27  3.4222e-23  5.2123e-27  4.9735e-23  1.1154e-26  7.8667e-23  2.3251e-26  1.3439e-22  4.8424e-26   2.47e-22
      7.55  5.1038e-32  1.593e-23  5.9938e-32  1.5935e-23  8.6693e-32  1.5942e-23  1.6512e-31  1.5956e-23  3.9349e-31  1.598e-23  9.9239e-31  1.6024e-23  2.6254e-30  1.6101e-23  7.0469e-30  1.6239e-23  1.5723e-29  1.6483e-23  3.0568e-29  1.6918e-23  6.1902e-29  1.7694e-23  1.4142e-28  1.9076e-23  3.4439e-28  2.1545e-23  8.4958e-28  2.5975e-23  2.0424e-27  3.3976e-23  4.6903e-27  4.8601e-23  1.0281e-26  7.5873e-23  2.1841e-26  1.2839e-22  4.6097e-26  2.3451e-22
      7.60  4.2111e-32  1.6819e-23  5.0307e-32  1.6823e-23  7.5067e-32  1.6831e-23  1.4791e-31  1.6844e-23  3.6159e-31  1.6868e-23  9.3052e-31  1.6909e-23  2.4562e-30  1.6984e-23  6.5091e-30  1.7116e-23  1.3595e-29  1.7351e-23  2.693e-29  1.7769e-23  5.3171e-29  1.8515e-23  1.181e-28  1.9843e-23  2.8272e-28  2.2218e-23  6.9621e-28  2.6478e-23  1.6942e-27  3.4174e-23  3.9692e-27  4.8239e-23  8.8876e-27  7.4468e-23  1.9225e-26  1.2497e-22  4.1127e-26   2.27e-22
      7.65  3.4865e-32  1.7746e-23  4.259e-32  1.775e-23  6.6133e-32  1.7758e-23  1.3512e-31  1.7771e-23  3.3644e-31  1.7794e-23  8.7625e-31  1.7834e-23  2.3455e-30  1.7907e-23  6.2511e-30  1.8036e-23  1.2256e-29  1.8266e-23  2.4152e-29  1.8675e-23  4.6629e-29  1.9403e-23  1.0052e-28  2.0702e-23  2.3504e-28  2.3024e-23  5.7309e-28  2.7189e-23  1.4018e-27  3.4713e-23  3.3366e-27  4.8467e-23  7.621e-27  7.4112e-23  1.6794e-26  1.2349e-22  3.6455e-26  2.2323e-22
      7.70  2.8835e-32  1.8711e-23  3.617e-32  1.8715e-23  5.8709e-32  1.8722e-23  1.2442e-31  1.8735e-23  3.1519e-31  1.8758e-23  8.4384e-31  1.8798e-23  2.2633e-30  1.887e-23  5.9306e-30  1.8998e-23  1.1064e-29  1.9226e-23  2.1237e-29  1.9631e-23  4.1266e-29  2.0352e-23  8.649e-29  2.1639e-23  1.9693e-28  2.3938e-23  4.7293e-28  2.8063e-23  1.156e-27  3.5516e-23  2.7837e-27  4.9139e-23  6.475e-27  7.4541e-23  1.454e-26  1.2344e-22  3.2062e-26  2.2222e-22
      7.75  2.3993e-32  1.9713e-23  3.0993e-32  1.9717e-23  5.2635e-32  1.9725e-23  1.1561e-31  1.9737e-23  2.9707e-31  1.976e-23  8.058e-31  1.9801e-23  2.1725e-30  1.9872e-23  5.4554e-30      2e-23  1.0095e-29  2.0228e-23  1.9153e-29  2.0633e-23  3.7177e-29  2.1354e-23  7.5326e-29  2.2639e-23  1.6667e-28  2.4938e-23  3.9216e-28  2.9061e-23  9.5185e-28  3.6511e-23  2.3075e-27  5.013e-23  5.452e-27  7.5524e-23  1.2472e-26  1.2441e-22  2.7965e-26  2.2313e-22
      7.80  1.9997e-32  2.0857e-23  2.6619e-32  2.0861e-23  4.7267e-32  2.0868e-23  1.071e-31  2.0881e-23  2.7874e-31  2.0904e-23  7.6504e-31  2.0944e-23  2.0707e-30  2.1017e-23  5.1138e-30  2.1145e-23  9.2268e-30  2.1374e-23  1.7268e-29  2.1782e-23  3.3056e-29  2.2508e-23  6.6081e-29  2.3803e-23  1.4217e-28  2.6118e-23  3.268e-28  3.0271e-23  7.8399e-28  3.7775e-23  1.9046e-27  5.1492e-23  4.559e-27  7.7069e-23  1.0619e-26  1.263e-22  2.4236e-26  2.2572e-22
      7.85  1.6642e-32  2.2051e-23  2.2795e-32  2.2055e-23  4.2109e-32  2.2062e-23  9.7933e-32  2.2075e-23  2.5746e-31  2.2099e-23  7.0358e-31  2.214e-23  1.9159e-30  2.2213e-23  4.6222e-30  2.2343e-23  8.3786e-30  2.2574e-23  1.5519e-29  2.2986e-23  2.9564e-29  2.3719e-23  5.7997e-29  2.5026e-23  1.2127e-28  2.7363e-23  2.7316e-28  3.1557e-23  6.4586e-28  3.9134e-23  1.5666e-27  5.2984e-23  3.7889e-27  7.881e-23  8.9803e-27  1.2852e-22  2.0885e-26  2.289e-22
      7.90  1.3821e-32  2.3297e-23  1.9282e-32  2.3301e-23  3.672e-32  2.3308e-23  8.7571e-32  2.3322e-23  2.3189e-31  2.3345e-23  6.3415e-31  2.3386e-23  1.7578e-30  2.346e-23  3.9713e-30  2.3591e-23  7.2428e-30  2.3825e-23  1.3334e-29  2.424e-23  2.5215e-29  2.498e-23  4.8727e-29   2.63e-23  1.0042e-28  2.8659e-23  2.2067e-28  3.2893e-23  5.1425e-28  4.0541e-23  1.2438e-27  5.4523e-23  3.0373e-27  8.0593e-23   7.33e-27  1.3077e-22  1.7404e-26  2.3208e-22
      7.95  1.1432e-32  2.4595e-23  1.6214e-32  2.4599e-23  3.1614e-32  2.4606e-23  7.6518e-32  2.4619e-23  2.036e-31  2.4643e-23  5.5727e-31  2.4685e-23  1.5397e-30  2.4759e-23  3.3624e-30  2.4891e-23  6.1189e-30  2.5126e-23  1.1199e-29  2.5544e-23  2.098e-29  2.6288e-23  4.0358e-29  2.7617e-23  8.1509e-29  2.999e-23  1.7489e-28  3.425e-23  4.0067e-28  4.1946e-23  9.6732e-28  5.6015e-23  2.3745e-27  8.2247e-23  5.8158e-27  1.3273e-22  1.4076e-26  2.3465e-22
      8.00  9.4062e-33  2.5944e-23  1.346e-32  2.5948e-23  2.6639e-32  2.5955e-23  6.5202e-32  2.5969e-23  1.7378e-31  2.5992e-23  4.8077e-31  2.6034e-23  1.3197e-30  2.6108e-23  2.8172e-30  2.6241e-23  5.0166e-30  2.6476e-23  9.2329e-30  2.6895e-23  1.7172e-29  2.7641e-23  3.2846e-29  2.8972e-23  6.5329e-29  3.1351e-23  1.382e-28  3.562e-23  3.1177e-28  4.3333e-23  7.4249e-28  5.7433e-23  1.8258e-27  8.3721e-23  4.5232e-27  1.3431e-22  1.1136e-26  2.3642e-22
      8.05  7.6952e-33  2.7477e-23  1.102e-32  2.7481e-23  2.1953e-32  2.7489e-23  5.3991e-32  2.7502e-23  1.4686e-31  2.7801e-23  3.9884e-31  2.7567e-23  1.1067e-30  2.7642e-23  2.2651e-30  2.7774e-23  4.067e-30  2.801e-23  7.463e-30  2.8429e-23  1.3806e-29  2.9175e-23  2.6249e-29  3.0507e-23  5.159e-29  3.2887e-23  1.0779e-28  3.7158e-23  2.3981e-28  4.4874e-23  5.6628e-28  5.8979e-23  1.3929e-27  8.5274e-23  3.4843e-27  1.3587e-22  8.714e-27  2.3799e-22
      8.10  6.2638e-33  2.908e-23  8.9091e-33  2.9084e-23  1.7598e-32  2.9092e-23  4.3181e-32  2.9105e-23  1.1601e-31  2.9128e-23  3.2188e-31  2.917e-23  8.8586e-31  2.9244e-23  1.8014e-30  2.9376e-23  3.2314e-30  2.9611e-23  5.8608e-30  3.0029e-23  1.0802e-29  3.0773e-23  2.0593e-29  3.2101e-23  4.0319e-29  3.4473e-23  8.3077e-29  3.8731e-23  1.8264e-28  4.6422e-23  4.278e-28  6.0481e-23  1.0516e-27  8.669e-23  2.6508e-27  1.3711e-22  6.7233e-27  2.3886e-22
      8.15  5.0819e-33  3.0753e-23  7.1336e-33  3.0757e-23  1.3945e-32  3.0764e-23  3.3811e-32  3.0777e-23  9.1388e-32  3.0801e-23  2.5377e-31  3.0842e-23   7.07e-31  3.0916e-23  1.4198e-30  3.1047e-23  2.5485e-30  3.1281e-23  4.5685e-30  3.1696e-23  8.3908e-30  3.2436e-23  1.5769e-29  3.3757e-23  3.0942e-29  3.6116e-23  6.3096e-29  4.035e-23  1.3709e-28  4.7999e-23  3.1819e-28  6.1979e-23  7.7999e-28  8.8039e-23  1.9767e-27  1.3817e-22  5.0751e-27  2.393e-22
      8.20  4.1176e-33  3.2492e-23  5.6762e-33  3.2497e-23  1.0902e-32  3.2504e-23  2.6193e-32  3.2517e-23  7.0239e-32  3.254e-23  1.9611e-31  3.2581e-23  5.4772e-31  3.2655e-23  1.0825e-30  3.2785e-23  1.9818e-30  3.3017e-23  3.514e-30  3.343e-23  6.4388e-30  3.4165e-23  1.2053e-29  3.5477e-23  2.3519e-29  3.782e-23  4.7545e-29  4.2026e-23  1.0271e-28  4.9624e-23  2.3568e-28  6.351e-23  5.7946e-28  8.939e-23  1.4756e-27  1.3917e-22  3.8302e-27  2.3956e-22
      8.25  3.3084e-33  3.4296e-23  4.4767e-33   3.43e-23  8.1388e-33  3.4307e-23  2.0029e-32  3.432e-23  5.3482e-32  3.4343e-23  1.4941e-31  3.4384e-23  4.1446e-31  3.4457e-23  8.2545e-31  3.4587e-23  1.4811e-30  3.4817e-23  2.6775e-30  3.5227e-23  4.9443e-30  3.5958e-23  9.1467e-30  3.726e-23  1.778e-29  3.9589e-23  3.5886e-29  4.3767e-23  7.6907e-29  5.1314e-23  1.7656e-28  6.5107e-23  4.3176e-28  9.0811e-23  1.1047e-27  1.4024e-22  2.8959e-27  2.3991e-22
      8.30  2.6911e-33  3.6328e-23  3.5605e-33  3.6332e-23  6.2988e-33  3.6339e-23  1.4983e-32  3.6352e-23  4.043e-32  3.6375e-23  1.1231e-31  3.6416e-23  3.1709e-31  3.6489e-23  6.3221e-31  3.6618e-23  1.1336e-30  3.6848e-23  2.0485e-30  3.7257e-23  3.7436e-30  3.7986e-23  6.9762e-30  3.9286e-23  1.3408e-29  4.161e-23  2.6975e-29  4.5778e-23  5.7649e-29  5.3309e-23  1.3203e-28  6.707e-23   3.23e-28  9.2712e-23  8.3031e-28  1.4201e-22  2.1965e-27  2.4139e-22
      8.35  2.1937e-33  3.8431e-23  2.8268e-33  3.8436e-23  4.8326e-33  3.8443e-23  1.1199e-32  3.8456e-23  2.9617e-32  3.8479e-23  8.433e-32  3.8907e-23  2.3395e-31  3.8592e-23  4.6776e-31  3.8721e-23  8.3843e-31  3.8951e-23  1.5148e-30  3.9361e-23  2.769e-30  4.009e-23  5.1598e-30  4.139e-23  9.9175e-30  4.3713e-23  1.9957e-29  4.7882e-23  4.2693e-29  5.5411e-23  9.799e-29  6.917e-23  2.4071e-28  9.4804e-23  6.2311e-28  1.4408e-22  1.6649e-27  2.4338e-22
      8.40  1.7971e-33  4.0593e-23  2.2513e-33  4.0597e-23  3.7028e-33  4.0604e-23  8.2917e-33  4.0617e-23  2.1469e-32  4.064e-23  5.9842e-32  4.0681e-23  1.6876e-31  4.0754e-23  3.3859e-31  4.0883e-23  6.0677e-31  4.1114e-23  1.0965e-30  4.1524e-23  2.006e-30  4.2255e-23  3.7432e-30  4.3558e-23  7.2098e-30  4.5886e-23  1.4555e-29  5.0064e-23  3.1278e-29  5.7611e-23  7.2234e-29  7.1399e-23  1.7878e-28  9.7085e-23  4.6706e-28  1.4645e-22  1.2616e-27  2.459e-22
      8.45  1.4853e-33  4.2793e-23  1.8146e-33  4.2797e-23  2.8783e-33  4.2805e-23  5.9587e-33  4.2818e-23  1.5776e-32  4.2841e-23  4.363e-32  4.2882e-23  1.2261e-31  4.2955e-23  2.4707e-31  4.3085e-23  4.4266e-31  4.3317e-23  8.0009e-31  4.3729e-23  1.4648e-30  4.4463e-23  2.7616e-30  4.5772e-23  5.327e-30  4.8111e-23  1.0701e-29  5.2308e-23  2.3099e-29  5.9888e-23  5.3655e-29  7.3736e-23  1.3373e-28  9.9531e-23  3.523e-28  1.491e-22   9.61e-28  2.4892e-22
      8.50  1.2394e-33  4.5011e-23  1.4816e-33  4.5016e-23  2.2742e-33  4.5023e-23  4.5331e-33  4.5036e-23  1.164e-32  4.5059e-23  3.1967e-32  4.5101e-23  9.0199e-32  4.5174e-23  1.8191e-31  4.5305e-23  3.2585e-31  4.5538e-23  5.8907e-31  4.5953e-23  1.0792e-30  4.6692e-23  2.037e-30  4.8009e-23  3.9056e-30  5.0363e-23  7.9332e-30  5.4586e-23  1.7195e-29  6.2213e-23  4.0149e-29  7.6147e-23  1.007e-28  1.021e-22  2.6724e-28  1.5195e-22  7.3527e-28  2.5233e-22
