# This was generated using Cloudy10 and the columns are ordered 
# as log10 of the fraction of the metallicity to the solar metallicity
# 'h_*_Z' and 'c_*_Z' stands for cooling and heating respectively 
# at * metalicity
#
# NOTE: This was generated separately from loop_coolingcurve_w_UV.py
#       using Output_metals_w_redshift.py.
#
# Redshift = 1.5
# hden = -1.5
#
#     temp   h_-3.00_Z   c_-3.00_Z   h_-2.75_Z   c_-2.75_Z   h_-2.50_Z   c_-2.50_Z   h_-2.25_Z   c_-2.25_Z   h_-2.00_Z   c_-2.00_Z   h_-1.75_Z   c_-1.75_Z   h_-1.50_Z   c_-1.50_Z   h_-1.25_Z   c_-1.25_Z   h_-1.00_Z   c_-1.00_Z   h_-0.75_Z   c_-0.75_Z   h_-0.50_Z   c_-0.50_Z   h_-0.25_Z   c_-0.25_Z    h_0.00_Z    c_0.00_Z    h_0.25_Z    c_0.25_Z    h_0.50_Z    c_0.50_Z    h_0.75_Z    c_0.75_Z    h_1.00_Z    c_1.00_Z    h_1.25_Z    c_1.25_Z    h_1.50_Z    c_1.50_Z 
      1.00  1.1308e-22  2.3512e-26  1.1308e-22  2.3513e-26  1.1308e-22  2.3514e-26  1.1309e-22  2.3515e-26  1.1309e-22  2.3518e-26  1.1310e-22  2.3523e-26  1.1311e-22  2.3531e-26  1.1314e-22  2.3545e-26  1.1319e-22  2.3572e-26  1.1327e-22  2.3618e-26  1.1341e-22  2.3701e-26  1.1367e-22  2.3848e-26  1.1413e-22  2.4110e-26  1.1495e-22  2.4576e-26  1.1641e-22  2.5407e-26  1.1900e-22  2.6889e-26  1.2362e-22  2.9540e-26  1.3183e-22  3.4303e-26  1.4647e-22  4.2927e-26
      1.05  1.0950e-22  2.5740e-26  1.0950e-22  2.5741e-26  1.0950e-22  2.5743e-26  1.0950e-22  2.5746e-26  1.0951e-22  2.5752e-26  1.0952e-22  2.5761e-26  1.0953e-22  2.5779e-26  1.0956e-22  2.5810e-26  1.0960e-22  2.5866e-26  1.0968e-22  2.5965e-26  1.0983e-22  2.6142e-26  1.1008e-22  2.6456e-26  1.1053e-22  2.7014e-26  1.1134e-22  2.8009e-26  1.1277e-22  2.9781e-26  1.1532e-22  3.2945e-26  1.1986e-22  3.8606e-26  1.2793e-22  4.8787e-26  1.4232e-22  6.7244e-26
      1.10  1.0593e-22  2.8112e-26  1.0593e-22  2.8114e-26  1.0594e-22  2.8117e-26  1.0594e-22  2.8124e-26  1.0594e-22  2.8135e-26  1.0595e-22  2.8155e-26  1.0596e-22  2.8191e-26  1.0599e-22  2.8254e-26  1.0603e-22  2.8368e-26  1.0611e-22  2.8569e-26  1.0625e-22  2.8927e-26  1.0650e-22  2.9564e-26  1.0695e-22  3.0698e-26  1.0774e-22  3.2717e-26  1.0915e-22  3.6316e-26  1.1165e-22  4.2740e-26  1.1611e-22  5.4241e-26  1.2404e-22  7.4938e-26  1.3818e-22  1.1250e-25
      1.15  1.0239e-22  3.0635e-26  1.0239e-22  3.0639e-26  1.0239e-22  3.0646e-26  1.0239e-22  3.0658e-26  1.0240e-22  3.0679e-26  1.0241e-22  3.0718e-26  1.0242e-22  3.0786e-26  1.0244e-22  3.0908e-26  1.0249e-22  3.1124e-26  1.0257e-22  3.1509e-26  1.0270e-22  3.2194e-26  1.0295e-22  3.3412e-26  1.0339e-22  3.5581e-26  1.0416e-22  3.9442e-26  1.0554e-22  4.6324e-26  1.0800e-22  5.8612e-26  1.1237e-22  8.0621e-26  1.2016e-22  1.2025e-25  1.3402e-22  1.9226e-25
      1.20  9.8871e-23  3.3318e-26  9.8872e-23  3.3325e-26  9.8873e-23  3.3338e-26  9.8876e-23  3.3359e-26  9.8880e-23  3.3398e-26  9.8888e-23  3.3468e-26  9.8901e-23  3.3591e-26  9.8925e-23  3.3809e-26  9.8968e-23  3.4199e-26  9.9044e-23  3.4891e-26  9.9179e-23  3.6122e-26  9.9420e-23  3.8313e-26  9.9848e-23  4.2212e-26  1.0061e-22  4.9155e-26  1.0196e-22  6.1533e-26  1.0437e-22  8.3637e-26  1.0866e-22  1.2324e-25  1.1629e-22  1.9459e-25  1.2987e-22  3.2435e-25
      1.25  9.5384e-23  3.6170e-26  9.5385e-23  3.6182e-26  9.5386e-23  3.6203e-26  9.5388e-23  3.6240e-26  9.5393e-23  3.6306e-26  9.5400e-23  3.6423e-26  9.5413e-23  3.6632e-26  9.5437e-23  3.7003e-26  9.5479e-23  3.7663e-26  9.5553e-23  3.8836e-26  9.5686e-23  4.0923e-26  9.5922e-23  4.4637e-26  9.6341e-23  5.1245e-26  9.7087e-23  6.3015e-26  9.8413e-23  8.3997e-26  1.0077e-22  1.2147e-25  1.0497e-22  1.8864e-25  1.1244e-22  3.0971e-25  1.2573e-22  5.3010e-25
      1.30  9.1933e-23  3.9204e-26  9.1933e-23  3.9223e-26  9.1935e-23  3.9256e-26  9.1937e-23  3.9316e-26  9.1941e-23  3.9421e-26  9.1948e-23  3.9610e-26  9.1961e-23  3.9944e-26  9.1984e-23  4.0539e-26  9.2026e-23  4.1597e-26  9.2098e-23  4.3479e-26  9.2228e-23  4.6827e-26  9.2459e-23  5.2783e-26  9.2869e-23  6.3383e-26  9.3599e-23  8.2261e-26  9.4897e-23  1.1592e-25  9.7205e-23  1.7605e-25  1.0131e-22  2.8384e-25  1.0862e-22  4.7823e-25  1.2163e-22  8.3237e-25
      1.35  8.8521e-23  4.2423e-26  8.8522e-23  4.2452e-26  8.8523e-23  4.2503e-26  8.8526e-23  4.2594e-26  8.8530e-23  4.2755e-26  8.8537e-23  4.3042e-26  8.8549e-23  4.3552e-26  8.8572e-23  4.4459e-26  8.8612e-23  4.6072e-26  8.8683e-23  4.8941e-26  8.8810e-23  5.4044e-26  8.9036e-23  6.3124e-26  8.9437e-23  7.9283e-26  9.0151e-23  1.0806e-25  9.1420e-23  1.5938e-25  9.3678e-23  2.5106e-25  9.7693e-23  4.1547e-25  1.0484e-22  7.1209e-25  1.1755e-22  1.2529e-24
      1.40  8.5154e-23  4.5837e-26  8.5155e-23  4.5879e-26  8.5156e-23  4.5953e-26  8.5158e-23  4.6085e-26  8.5162e-23  4.6320e-26  8.5169e-23  4.6738e-26  8.5182e-23  4.7480e-26  8.5204e-23  4.8800e-26  8.5243e-23  5.1148e-26  8.5313e-23  5.5324e-26  8.5437e-23  6.2752e-26  8.5657e-23  7.5967e-26  8.6050e-23  9.9488e-26  8.6747e-23  1.4138e-25  8.7988e-23  2.1608e-25  9.0195e-23  3.4958e-25  9.4119e-23  5.8900e-25  1.0110e-22  1.0212e-24  1.1352e-22  1.8097e-24
      1.45  8.1835e-23  4.9453e-26  8.1836e-23  4.9512e-26  8.1837e-23  4.9615e-26  8.1839e-23  4.9800e-26  8.1843e-23  5.0127e-26  8.1850e-23  5.0710e-26  8.1862e-23  5.1747e-26  8.1884e-23  5.3590e-26  8.1922e-23  5.6868e-26  8.1990e-23  6.2698e-26  8.2112e-23  7.3069e-26  8.2327e-23  9.1520e-26  8.2711e-23  1.2436e-25  8.3392e-23  1.8286e-25  8.4605e-23  2.8717e-25  8.6761e-23  4.7360e-25  9.0595e-23  8.0806e-25  9.7415e-23  1.4120e-24  1.0955e-22  2.5146e-24
      1.50  7.8569e-23  5.3279e-26  7.8570e-23  5.3358e-26  7.8571e-23  5.3497e-26  7.8573e-23  5.3745e-26  7.8577e-23  5.4186e-26  7.8584e-23  5.4970e-26  7.8595e-23  5.6364e-26  7.8616e-23  5.8843e-26  7.8654e-23  6.3253e-26  7.8720e-23  7.1095e-26  7.8839e-23  8.5046e-26  7.9049e-23  1.0987e-25  7.9424e-23  1.5405e-25  8.0090e-23  2.3274e-25  8.1274e-23  3.7308e-25  8.3380e-23  6.2393e-25  8.7124e-23  1.0740e-24  9.3783e-23  1.8871e-24  1.0562e-22  3.3726e-24
      1.55  7.5360e-23  5.7332e-26  7.5360e-23  5.7434e-26  7.5362e-23  5.7616e-26  7.5364e-23  5.7938e-26  7.5367e-23  5.8512e-26  7.5374e-23  5.9533e-26  7.5385e-23  6.1347e-26  7.5406e-23  6.4574e-26  7.5442e-23  7.0312e-26  7.5507e-23  8.0519e-26  7.5623e-23  9.8674e-26  7.5829e-23  1.3098e-25  7.6194e-23  1.8848e-25  7.6844e-23  2.9089e-25  7.8000e-23  4.7356e-25  8.0056e-23  8.0011e-25  8.3711e-23  1.3862e-24  9.0209e-23  2.4452e-24  1.0176e-22  4.3811e-24
      1.60  7.2210e-23  6.1610e-26  7.2211e-23  6.1739e-26  7.2212e-23  6.1969e-26  7.2214e-23  6.2377e-26  7.2218e-23  6.3102e-26  7.2224e-23  6.4392e-26  7.2235e-23  6.6685e-26  7.2255e-23  7.0764e-26  7.2291e-23  7.8019e-26  7.2355e-23  9.0921e-26  7.2467e-23  1.1387e-25  7.2668e-23  1.5471e-25  7.3025e-23  2.2740e-25  7.3659e-23  3.5688e-25  7.4787e-23  5.8783e-25  7.6792e-23  1.0007e-24  8.0356e-23  1.7419e-24  8.6693e-23  3.0817e-24  9.7954e-23  5.5322e-24
      1.65  6.9125e-23  6.6120e-26  6.9125e-23  6.6279e-26  6.9126e-23  6.6562e-26  6.9128e-23  6.7064e-26  6.9132e-23  6.7959e-26  6.9138e-23  6.9548e-26  6.9149e-23  7.2376e-26  6.9169e-23  7.7404e-26  6.9203e-23  8.6346e-26  6.9265e-23  1.0225e-25  6.9375e-23  1.3054e-25  6.9571e-23  1.8088e-25  6.9918e-23  2.7048e-25  7.0536e-23  4.3010e-25  7.1635e-23  7.1482e-25  7.3589e-23  1.2239e-24  7.7063e-23  2.1379e-24  8.3236e-23  3.7905e-24  9.4201e-23  6.8149e-24
      1.70  6.6106e-23  7.0868e-26  6.6107e-23  7.1060e-26  6.6108e-23  7.1401e-26  6.6110e-23  7.2008e-26  6.6113e-23  7.3087e-26  6.6119e-23  7.5005e-26  6.6130e-23  7.8417e-26  6.6149e-23  8.4484e-26  6.6183e-23  9.5274e-26  6.6243e-23  1.1447e-25  6.6350e-23  1.4860e-25  6.6540e-23  2.0935e-25  6.6878e-23  3.1747e-25  6.7480e-23  5.1008e-25  6.8550e-23  8.5368e-25  7.0451e-23  1.4681e-24  7.3831e-23  2.5713e-24  7.9836e-23  4.5668e-24  9.0500e-23  8.2202e-24
      1.75  6.3157e-23  7.5862e-26  6.3158e-23  7.6089e-26  6.3159e-23  7.6494e-26  6.3161e-23  7.7213e-26  6.3164e-23  7.8493e-26  6.3170e-23  8.0768e-26  6.3180e-23  8.4814e-26  6.3199e-23  9.2009e-26  6.3232e-23  1.0481e-25  6.3290e-23  1.2757e-25  6.3394e-23  1.6805e-25  6.3579e-23  2.4009e-25  6.3908e-23  3.6832e-25  6.4492e-23  5.9677e-25  6.5531e-23  1.0043e-24  6.7378e-23  1.7331e-24  7.0661e-23  3.0419e-24  7.6492e-23  5.4097e-24  8.6844e-23  9.7465e-24
      1.80  6.0281e-23  8.1129e-26  6.0282e-23  8.1395e-26  6.0283e-23  8.1868e-26  6.0285e-23  8.2710e-26  6.0288e-23  8.4208e-26  6.0294e-23  8.6871e-26  6.0304e-23  9.1606e-26  6.0322e-23  1.0003e-25  6.0354e-23  1.1500e-25  6.0410e-23  1.4164e-25  6.0511e-23  1.8902e-25  6.0690e-23  2.7334e-25  6.1009e-23  4.2342e-25  6.1575e-23  6.9079e-25  6.2583e-23  1.1678e-24  6.4373e-23  2.0208e-24  6.7554e-23  3.5530e-24  7.3205e-23  6.3254e-24  8.3232e-23  1.1405e-23
      1.85  5.7481e-23  8.6657e-26  5.7481e-23  8.6966e-26  5.7482e-23  8.7515e-26  5.7484e-23  8.8492e-26  5.7487e-23  9.0228e-26  5.7493e-23  9.3316e-26  5.7502e-23  9.8807e-26  5.7520e-23  1.0857e-25  5.7550e-23  1.2594e-25  5.7605e-23  1.5683e-25  5.7703e-23  2.1178e-25  5.7876e-23  3.0955e-25  5.8184e-23  4.8359e-25  5.8732e-23  7.9365e-25  5.9706e-23  1.3468e-24  6.1437e-23  2.3361e-24  6.4513e-23  4.1132e-24  6.9975e-23  7.3290e-24  7.9664e-23  1.3222e-23
      1.90  5.4757e-23  9.2457e-26  5.4758e-23  9.2813e-26  5.4759e-23  9.3446e-26  5.4761e-23  9.4572e-26  5.4764e-23  9.6575e-26  5.4769e-23  1.0014e-25  5.4778e-23  1.0647e-25  5.4795e-23  1.1773e-25  5.4825e-23  1.3776e-25  5.4878e-23  1.7338e-25  5.4972e-23  2.3675e-25  5.5139e-23  3.4949e-25  5.5436e-23  5.5020e-25  5.5965e-23  9.0777e-25  5.6904e-23  1.5457e-24  5.8574e-23  2.6866e-24  6.1540e-23  4.7360e-24  6.6808e-23  8.4450e-24  7.6151e-23  1.5243e-23
      1.95  5.2114e-23  9.8536e-26  5.2114e-23  9.8945e-26  5.2115e-23  9.9673e-26  5.2117e-23  1.0097e-25  5.2120e-23  1.0327e-25  5.2125e-23  1.0736e-25  5.2134e-23  1.1465e-25  5.2150e-23  1.2759e-25  5.2178e-23  1.5062e-25  5.2229e-23  1.9158e-25  5.2320e-23  2.6444e-25  5.2481e-23  3.9407e-25  5.2768e-23  6.2484e-25  5.3278e-23  1.0360e-24  5.4183e-23  1.7694e-24  5.5793e-23  3.0812e-24  5.8654e-23  5.4374e-24  6.3733e-23  9.7015e-24  7.2742e-23  1.7516e-23
      2.00  4.9551e-23  1.0490e-25  4.9551e-23  1.0537e-25  4.9552e-23  1.0621e-25  4.9554e-23  1.0770e-25  4.9556e-23  1.1035e-25  4.9561e-23  1.1505e-25  4.9570e-23  1.2342e-25  4.9585e-23  1.3830e-25  4.9613e-23  1.6477e-25  4.9662e-23  2.1185e-25  4.9749e-23  2.9560e-25  4.9904e-23  4.4461e-25  5.0179e-23  7.0987e-25  5.0668e-23  1.1824e-24  5.1538e-23  2.0255e-24  5.3085e-23  3.5332e-24  5.5832e-23  6.2413e-24  6.0709e-23  1.1142e-23  6.9378e-23  2.0120e-23
      2.05  4.7070e-23  1.1161e-25  4.7070e-23  1.1215e-25  4.7071e-23  1.1311e-25  4.7073e-23  1.1482e-25  4.7075e-23  1.1786e-25  4.7080e-23  1.2327e-25  4.7088e-23  1.3289e-25  4.7103e-23  1.5000e-25  4.7130e-23  1.8043e-25  4.7177e-23  2.3454e-25  4.7260e-23  3.3081e-25  4.7408e-23  5.0209e-25  4.7672e-23  8.0699e-25  4.8141e-23  1.3502e-24  4.8975e-23  2.3192e-24  5.0458e-23  4.0521e-24  5.3091e-23  7.1643e-24  5.7767e-23  1.2795e-23  6.6077e-23  2.3110e-23
      2.10  4.4673e-23  1.1862e-25  4.4673e-23  1.1924e-25  4.4674e-23  1.2034e-25  4.4675e-23  1.2231e-25  4.4678e-23  1.2580e-25  4.4682e-23  1.3202e-25  4.4690e-23  1.4307e-25  4.4704e-23  1.6273e-25  4.4730e-23  1.9769e-25  4.4775e-23  2.5986e-25  4.4855e-23  3.7046e-25  4.4997e-23  5.6725e-25  4.5250e-23  9.1755e-25  4.5699e-23  1.5416e-24  4.6498e-23  2.6548e-24  4.7918e-23  4.6454e-24  5.0441e-23  8.2202e-24  5.4932e-23  1.4687e-23  6.2882e-23  2.6528e-23
      2.15  4.2359e-23  1.2595e-25  4.2359e-23  1.2666e-25  4.2360e-23  1.2793e-25  4.2362e-23  1.3018e-25  4.2364e-23  1.3419e-25  4.2368e-23  1.4132e-25  4.2376e-23  1.5400e-25  4.2390e-23  1.7654e-25  4.2414e-23  2.1663e-25  4.2457e-23  2.8795e-25  4.2533e-23  4.1479e-25  4.2670e-23  6.4049e-25  4.2912e-23  1.0422e-24  4.3342e-23  1.7579e-24  4.4108e-23  3.0346e-24  4.5468e-23  5.3174e-24  4.7886e-23  9.4162e-24  5.2188e-23  1.6829e-23  5.9806e-23  3.0399e-23
      2.20  4.0130e-23  1.3361e-25  4.0130e-23  1.3442e-25  4.0131e-23  1.3587e-25  4.0132e-23  1.3845e-25  4.0135e-23  1.4303e-25  4.0139e-23  1.5118e-25  4.0146e-23  1.6567e-25  4.0159e-23  1.9144e-25  4.0182e-23  2.3727e-25  4.0224e-23  3.1879e-25  4.0297e-23  4.6379e-25  4.0428e-23  7.2178e-25  4.0660e-23  1.1810e-24  4.1072e-23  1.9991e-24  4.1806e-23  3.4583e-24  4.3115e-23  6.0673e-24  4.5434e-23  1.0751e-23  4.9551e-23  1.9221e-23  5.6856e-23  3.4719e-23
      2.25  3.7987e-23  1.4161e-25  3.7988e-23  1.4253e-25  3.7988e-23  1.4418e-25  3.7990e-23  1.4711e-25  3.7992e-23  1.5232e-25  3.7996e-23  1.6159e-25  3.8003e-23  1.7807e-25  3.8015e-23  2.0739e-25  3.8038e-23  2.5952e-25  3.8077e-23  3.5223e-25  3.8148e-23  5.1716e-25  3.8273e-23  8.1061e-25  3.8496e-23  1.3329e-24  3.8892e-23  2.2634e-24  3.9597e-23  3.9230e-24  4.0849e-23  6.8901e-24  4.3074e-23  1.2216e-23  4.7025e-23  2.1845e-23  5.4039e-23  3.9458e-23
      2.30  3.5926e-23  1.5001e-25  3.5927e-23  1.5106e-25  3.5927e-23  1.5292e-25  3.5929e-23  1.5623e-25  3.5931e-23  1.6213e-25  3.5935e-23  1.7261e-25  3.5941e-23  1.9124e-25  3.5953e-23  2.2439e-25  3.5975e-23  2.8333e-25  3.6013e-23  3.8817e-25  3.6080e-23  5.7466e-25  3.6200e-23  9.0647e-25  3.6413e-23  1.4971e-24  3.6792e-23  2.5491e-24  3.7466e-23  4.4255e-24  3.8664e-23  7.7799e-24  4.0792e-23  1.3801e-23  4.4571e-23  2.4683e-23  5.1281e-23  4.4581e-23
      2.35  3.3949e-23  1.5877e-25  3.3950e-23  1.5994e-25  3.3950e-23  1.6203e-25  3.3951e-23  1.6574e-25  3.3953e-23  1.7235e-25  3.3957e-23  1.8410e-25  3.3964e-23  2.0499e-25  3.3975e-23  2.4214e-25  3.3996e-23  3.0822e-25  3.4032e-23  4.2574e-25  3.4097e-23  6.3479e-25  3.4213e-23  1.0067e-24  3.4419e-23  1.6688e-24  3.4785e-23  2.8481e-24  3.5436e-23  4.9514e-24  3.6592e-23  8.7114e-24  3.8647e-23  1.5460e-23  4.2296e-23  2.7655e-23  4.8773e-23  4.9952e-23
      2.40  3.2055e-23  1.6788e-25  3.2055e-23  1.6919e-25  3.2056e-23  1.7151e-25  3.2057e-23  1.7564e-25  3.2059e-23  1.8298e-25  3.2063e-23  1.9604e-25  3.2069e-23  2.1926e-25  3.2080e-23  2.6056e-25  3.2100e-23  3.3401e-25  3.2135e-23  4.6464e-25  3.2198e-23  6.9700e-25  3.2310e-23  1.1104e-24  3.2509e-23  1.8463e-24  3.2863e-23  3.1571e-24  3.3491e-23  5.4949e-24  3.4609e-23  9.6741e-24  3.6594e-23  1.7174e-23  4.0120e-23  3.0728e-23  4.6377e-23  5.5505e-23
      2.45  3.0243e-23  1.7737e-25  3.0243e-23  1.7881e-25  3.0244e-23  1.8137e-25  3.0245e-23  1.8592e-25  3.0247e-23  1.9402e-25  3.0250e-23  2.0842e-25  3.0256e-23  2.3401e-25  3.0267e-23  2.7954e-25  3.0286e-23  3.6051e-25  3.0321e-23  5.0451e-25  3.0381e-23  7.6066e-25  3.0489e-23  1.2164e-24  3.0682e-23  2.0276e-24  3.1024e-23  3.4726e-24  3.1631e-23  6.0497e-24  3.2711e-23  1.0657e-23  3.4630e-23  1.8924e-23  3.8037e-23  3.3864e-23  4.4085e-23  6.1172e-23
      2.50  2.8511e-23  1.8724e-25  2.8512e-23  1.8881e-25  2.8512e-23  1.9161e-25  2.8513e-23  1.9659e-25  2.8515e-23  2.0544e-25  2.8519e-23  2.2118e-25  2.8524e-23  2.4917e-25  2.8535e-23  2.9895e-25  2.8554e-23  3.8748e-25  2.8587e-23  5.4494e-25  2.8645e-23  8.2502e-25  2.8750e-23  1.3234e-24  2.8936e-23  2.2104e-24  2.9266e-23  3.7903e-24  2.9854e-23  6.6082e-24  3.0898e-23  1.1645e-23  3.2754e-23  2.0685e-23  3.6048e-23  3.7020e-23  4.1894e-23  6.6878e-23
      2.55  2.6860e-23  1.9759e-25  2.6860e-23  1.9930e-25  2.6860e-23  2.0233e-25  2.6861e-23  2.0773e-25  2.6863e-23  2.1733e-25  2.6866e-23  2.3440e-25  2.6872e-23  2.6475e-25  2.6882e-23  3.1873e-25  2.6900e-23  4.1474e-25  2.6932e-23  5.8549e-25  2.6989e-23  8.8923e-25  2.7090e-23  1.4296e-24  2.7270e-23  2.3915e-24  2.7590e-23  4.1049e-24  2.8159e-23  7.1608e-24  2.9169e-23  1.2623e-23  3.0965e-23  2.2427e-23  3.4152e-23  4.0141e-23  3.9808e-23  7.2521e-23
      2.60  2.5285e-23  2.0833e-25  2.5286e-23  2.1017e-25  2.5286e-23  2.1343e-25  2.5287e-23  2.1923e-25  2.5289e-23  2.2956e-25  2.5292e-23  2.4792e-25  2.5298e-23  2.8056e-25  2.5307e-23  3.3862e-25  2.5325e-23  4.4187e-25  2.5356e-23  6.2551e-25  2.5411e-23  9.5217e-25  2.5509e-23  1.5334e-24  2.5683e-23  2.5679e-24  2.5993e-23  4.4106e-24  2.6544e-23  7.6972e-24  2.7522e-23  1.3572e-23  2.9260e-23  2.4116e-23  3.2347e-23  4.3170e-23  3.7822e-23  7.7998e-23
      2.65  2.3787e-23  2.1947e-25  2.3788e-23  2.2143e-25  2.3788e-23  2.2492e-25  2.3789e-23  2.3112e-25  2.3791e-23  2.4214e-25  2.3794e-23  2.6174e-25  2.3799e-23  2.9661e-25  2.3809e-23  3.5861e-25  2.3826e-23  4.6887e-25  2.3856e-23  6.6498e-25  2.3909e-23  1.0138e-24  2.4004e-23  1.6345e-24  2.4173e-23  2.7393e-24  2.4473e-23  4.7071e-24  2.5007e-23  8.2170e-24  2.5955e-23  1.4491e-23  2.7639e-23  2.5752e-23  3.0630e-23  4.6102e-23  3.5934e-23  8.3304e-23
      2.70  2.2363e-23  2.3101e-25  2.2364e-23  2.3309e-25  2.2364e-23  2.3679e-25  2.2365e-23  2.4337e-25  2.2367e-23  2.5507e-25  2.2370e-23  2.7587e-25  2.2375e-23  3.1285e-25  2.2384e-23  3.7863e-25  2.2400e-23  4.9562e-25  2.2430e-23  7.0369e-25  2.2481e-23  1.0738e-24  2.2573e-23  1.7323e-24  2.2737e-23  2.9045e-24  2.3028e-23  4.9923e-24  2.3546e-23  8.7163e-24  2.4466e-23  1.5374e-23  2.6099e-23  2.7322e-23  2.8999e-23  4.8917e-23  3.4141e-23  8.8399e-23
      2.75  2.1011e-23  2.4297e-25  2.1012e-23  2.4516e-25  2.1012e-23  2.4906e-25  2.1013e-23  2.5600e-25  2.1015e-23  2.6833e-25  2.1018e-23  2.9027e-25  2.1023e-23  3.2928e-25  2.1032e-23  3.9865e-25  2.1047e-23  5.2203e-25  2.1076e-23  7.4146e-25  2.1126e-23  1.1318e-24  2.1215e-23  1.8263e-24  2.1374e-23  3.0625e-24  2.1657e-23  5.2645e-24  2.2159e-23  9.1920e-24  2.3052e-23  1.6213e-23  2.4638e-23  2.8817e-23  2.7452e-23  5.1596e-23  3.2442e-23  9.3251e-23
      2.80  1.9730e-23  2.5549e-25  1.9730e-23  2.5779e-25  1.9730e-23  2.6188e-25  1.9731e-23  2.6916e-25  1.9733e-23  2.8209e-25  1.9735e-23  3.0510e-25  1.9740e-23  3.4600e-25  1.9749e-23  4.1875e-25  1.9764e-23  5.4813e-25  1.9792e-23  7.7824e-25  1.9841e-23  1.1876e-24  1.9928e-23  1.9159e-24  2.0082e-23  3.2122e-24  2.0357e-23  5.5215e-24  2.0845e-23  9.6403e-24  2.1712e-23  1.7004e-23  2.3252e-23  3.0223e-23  2.5986e-23  5.4117e-23  3.0832e-23  9.7819e-23
      2.85  1.8515e-23  2.6844e-25  1.8515e-23  2.7084e-25  1.8516e-23  2.7511e-25  1.8517e-23  2.8269e-25  1.8518e-23  2.9618e-25  1.8521e-23  3.2018e-25  1.8526e-23  3.6284e-25  1.8534e-23  4.3871e-25  1.8549e-23  5.7364e-25  1.8576e-23  8.1363e-25  1.8623e-23  1.2405e-24  1.8708e-23  2.0001e-24  1.8858e-23  3.3521e-24  1.9125e-23  5.7605e-24  1.9600e-23  1.0056e-23  2.0443e-23  1.7737e-23  2.1940e-23  3.1525e-23  2.4597e-23  5.6453e-23  2.9307e-23  1.0205e-22
      2.90  1.7366e-23  2.8183e-25  1.7367e-23  2.8432e-25  1.7367e-23  2.8875e-25  1.7368e-23  2.9662e-25  1.7369e-23  3.1061e-25  1.7372e-23  3.3550e-25  1.7376e-23  3.7975e-25  1.7385e-23  4.5846e-25  1.7399e-23  5.9843e-25  1.7425e-23  8.4738e-25  1.7472e-23  1.2902e-24  1.7554e-23  2.0781e-24  1.7700e-23  3.4807e-24  1.7959e-23  5.9791e-24  1.8421e-23  1.0436e-23  1.9241e-23  1.8404e-23  2.0698e-23  3.2710e-23  2.3282e-23  5.8576e-23  2.7862e-23  1.0591e-22
      2.95  1.6280e-23  2.9569e-25  1.6280e-23  2.9825e-25  1.6281e-23  3.0282e-25  1.6282e-23  3.1094e-25  1.6283e-23  3.2538e-25  1.6286e-23  3.5106e-25  1.6290e-23  3.9672e-25  1.6298e-23  4.7793e-25  1.6312e-23  6.2236e-25  1.6338e-23  8.7923e-25  1.6383e-23  1.3362e-24  1.6463e-23  2.1492e-24  1.6605e-23  3.5964e-24  1.6858e-23  6.1744e-24  1.7307e-23  1.0773e-23  1.8104e-23  1.8996e-23  1.9522e-23  3.3760e-23  2.2037e-23  6.0459e-23  2.6492e-23  1.0933e-22
      3.00  1.5255e-23  3.1005e-25  1.5255e-23  3.1268e-25  1.5255e-23  3.1737e-25  1.5256e-23  3.2570e-25  1.5258e-23  3.4052e-25  1.5260e-23  3.6688e-25  1.5264e-23  4.1375e-25  1.5272e-23  4.9710e-25  1.5286e-23  6.4534e-25  1.5311e-23  9.0899e-25  1.5354e-23  1.3780e-24  1.5432e-23  2.2125e-24  1.5571e-23  3.6979e-24  1.5817e-23  6.3441e-24  1.6254e-23  1.1065e-23  1.7031e-23  1.9505e-23  1.8410e-23  3.4663e-23  2.0857e-23  6.2077e-23  2.5192e-23  1.1227e-22
      3.05  1.4287e-23  3.2522e-25  1.4288e-23  3.2792e-25  1.4288e-23  3.3271e-25  1.4289e-23  3.4124e-25  1.4290e-23  3.5640e-25  1.4293e-23  3.8337e-25  1.4297e-23  4.3133e-25  1.4304e-23  5.1661e-25  1.4318e-23  6.6829e-25  1.4342e-23  9.3805e-25  1.4385e-23  1.4179e-24  1.4461e-23  2.2718e-24  1.4596e-23  3.7917e-24  1.4836e-23  6.4993e-24  1.5263e-23  1.1329e-23  1.6021e-23  1.9967e-23  1.7366e-23  3.5478e-23  1.9753e-23  6.3536e-23  2.3980e-23  1.1491e-22
      3.10  1.3376e-23  3.4075e-25  1.3376e-23  3.4350e-25  1.3376e-23  3.4838e-25  1.3377e-23  3.5707e-25  1.3378e-23  3.7251e-25  1.3381e-23  3.9997e-25  1.3385e-23  4.4880e-25  1.3392e-23  5.3564e-25  1.3405e-23  6.9008e-25  1.3429e-23  9.6477e-25  1.3471e-23  1.4534e-24  1.3545e-23  2.3228e-24  1.3677e-23  3.8704e-24  1.3911e-23  6.6275e-24  1.4327e-23  1.1546e-23  1.5066e-23  2.0342e-23  1.6380e-23  3.6138e-23  1.8707e-23  6.4717e-23  2.2829e-23  1.1706e-22
      3.15  1.2517e-23  3.5710e-25  1.2517e-23  3.5989e-25  1.2518e-23  3.6484e-25  1.2519e-23  3.7364e-25  1.2520e-23  3.8929e-25  1.2522e-23  4.1712e-25  1.2526e-23  4.6661e-25  1.2533e-23  5.5463e-25  1.2546e-23  7.1117e-25  1.2569e-23  9.8958e-25  1.2610e-23  1.4848e-24  1.2682e-23  2.3661e-24  1.2811e-23  3.9347e-24  1.3039e-23  6.7293e-24  1.3446e-23  1.1715e-23  1.4167e-23  2.0631e-23  1.5447e-23  3.6644e-23  1.7716e-23  6.5619e-23  2.1733e-23  1.1870e-22
      3.20  1.1710e-23  3.7417e-25  1.1710e-23  3.7698e-25  1.1710e-23  3.8197e-25  1.1711e-23  3.9085e-25  1.1712e-23  4.0664e-25  1.1714e-23  4.3472e-25  1.1718e-23  4.8465e-25  1.1725e-23  5.7345e-25  1.1738e-23  7.3138e-25  1.1760e-23  1.0123e-24  1.1800e-23  1.5119e-24  1.1870e-23  2.4010e-24  1.1996e-23  3.9836e-24  1.2219e-23  6.8031e-24  1.2615e-23  1.1833e-23  1.3319e-23  2.0829e-23  1.4567e-23  3.6988e-23  1.6778e-23  6.6229e-23  2.0693e-23  1.1981e-22
      3.25  1.0950e-23  3.9178e-25  1.0951e-23  3.9460e-25  1.0951e-23  3.9961e-25  1.0952e-23  4.0853e-25  1.0953e-23  4.2439e-25  1.0955e-23  4.5258e-25  1.0959e-23  5.0273e-25  1.0966e-23  5.9191e-25  1.0978e-23  7.5050e-25  1.1000e-23  1.0326e-24  1.1039e-23  1.5344e-24  1.1107e-23  2.4272e-24  1.1230e-23  4.0166e-24  1.1447e-23  6.8481e-24  1.1834e-23  1.1900e-23  1.2520e-23  2.0935e-23  1.3737e-23  3.7166e-23  1.5893e-23  6.6542e-23  1.9708e-23  1.2039e-22
      3.30  1.0237e-23  4.1033e-25  1.0238e-23  4.1315e-25  1.0238e-23  4.1817e-25  1.0239e-23  4.2709e-25  1.0240e-23  4.4295e-25  1.0242e-23  4.7116e-25  1.0246e-23  5.2133e-25  1.0252e-23  6.1054e-25  1.0264e-23  7.6920e-25  1.0286e-23  1.0514e-24  1.0323e-23  1.5534e-24  1.0391e-23  2.4466e-24  1.0510e-23  4.0367e-24  1.0722e-23  6.8695e-24  1.1099e-23  1.1924e-23  1.1769e-23  2.0964e-23  1.2956e-23  3.7205e-23  1.5058e-23  6.6604e-23  1.8775e-23  1.2051e-22
      3.35  9.5680e-24  4.2947e-25  9.5682e-24  4.3228e-25  9.5686e-24  4.3729e-25  9.5693e-24  4.4618e-25  9.5704e-24  4.6200e-25  9.5725e-24  4.9014e-25  9.5762e-24  5.4017e-25  9.5828e-24  6.2914e-25  9.5944e-24  7.8737e-25  9.6151e-24  1.0688e-24  9.6520e-24  1.5694e-24  9.7176e-24  2.4602e-24  9.8341e-24  4.0460e-24  1.0041e-23  6.8712e-24  1.0409e-23  1.1912e-23  1.1062e-23  2.0928e-23  1.2220e-23  3.7128e-23  1.4269e-23  6.6458e-23  1.7890e-23  1.2025e-22
      3.40  8.9403e-24  4.4922e-25  8.9405e-24  4.5202e-25  8.9409e-24  4.5700e-25  8.9415e-24  4.6585e-25  8.9427e-24  4.8159e-25  8.9447e-24  5.0958e-25  8.9483e-24  5.5936e-25  8.9547e-24  6.4788e-25  8.9661e-24  8.0532e-25  8.9863e-24  1.0853e-24  9.0223e-24  1.5835e-24  9.0863e-24  2.4698e-24  9.2000e-24  4.0476e-24  9.4020e-24  6.8587e-24  9.7610e-24  1.1874e-23  1.0398e-23  2.0846e-23  1.1527e-23  3.6967e-23  1.3524e-23  6.6159e-23  1.7051e-23  1.1971e-22
      3.45  8.3520e-24  4.6959e-25  8.3522e-24  4.7238e-25  8.3525e-24  4.7732e-25  8.3531e-24  4.8612e-25  8.3542e-24  5.0176e-25  8.3562e-24  5.2957e-25  8.3597e-24  5.7904e-25  8.3660e-24  6.6700e-25  8.3771e-24  8.2344e-25  8.3968e-24  1.1017e-24  8.4320e-24  1.5967e-24  8.4944e-24  2.4774e-24  8.6054e-24  4.0453e-24  8.8026e-24  6.8386e-24  9.1528e-24  1.1823e-23  9.7741e-24  2.0739e-23  1.0875e-23  3.6760e-23  1.2822e-23  6.5774e-23  1.6256e-23  1.1901e-22
      3.50  7.8008e-24  4.9062e-25  7.8010e-24  4.9338e-25  7.8014e-24  4.9830e-25  7.8020e-24  5.0704e-25  7.8031e-24  5.2258e-25  7.8050e-24  5.5022e-25  7.8084e-24  5.9937e-25  7.8145e-24  6.8677e-25  7.8254e-24  8.4223e-25  7.8446e-24  1.1187e-24  7.8789e-24  1.6106e-24  7.9399e-24  2.4857e-24  8.0482e-24  4.0437e-24  8.2406e-24  6.8194e-24  8.5823e-24  1.1772e-23  9.1885e-24  2.0632e-23  1.0262e-23  3.6553e-23  1.2159e-23  6.5387e-23  1.5502e-23  1.1830e-22
      3.55  7.2850e-24  5.1288e-25  7.2852e-24  5.1563e-25  7.2855e-24  5.2053e-25  7.2861e-24  5.2923e-25  7.2872e-24  5.4470e-25  7.2891e-24  5.7221e-25  7.2924e-24  6.2113e-25  7.2984e-24  7.0814e-25  7.3089e-24  8.6288e-25  7.3278e-24  1.1381e-24  7.3612e-24  1.6277e-24  7.4207e-24  2.4988e-24  7.5264e-24  4.0496e-24  7.7143e-24  6.8126e-24  8.0477e-24  1.1742e-23  8.6390e-24  2.0562e-23  9.6859e-24  3.6409e-23  1.1534e-23  6.5111e-23  1.4788e-23  1.1778e-22
      3.60  6.8024e-24  5.3587e-25  6.8025e-24  5.3862e-25  6.8029e-24  5.4351e-25  6.8034e-24  5.5220e-25  6.8045e-24  5.6766e-25  6.8063e-24  5.9515e-25  6.8096e-24  6.4404e-25  6.8154e-24  7.3098e-25  6.8257e-24  8.8561e-25  6.8441e-24  1.1606e-24  6.8768e-24  1.6499e-24  6.9348e-24  2.5204e-24  7.0380e-24  4.0700e-24  7.2214e-24  6.8310e-24  7.5468e-24  1.1757e-23  8.1237e-24  2.0569e-23  9.1446e-24  3.6404e-23  1.0946e-23  6.5082e-23  1.4112e-23  1.1771e-22
      3.65  6.3510e-24  5.5961e-25  6.3511e-24  5.6238e-25  6.3515e-24  5.6729e-25  6.3520e-24  5.7604e-25  6.3530e-24  5.9159e-25  6.3548e-24  6.1925e-25  6.3580e-24  6.6844e-25  6.3637e-24  7.5590e-25  6.3738e-24  9.1147e-25  6.3917e-24  1.1881e-24  6.4236e-24  1.6803e-24  6.4803e-24  2.5561e-24  6.5811e-24  4.1151e-24  6.7600e-24  6.8926e-24  7.0777e-24  1.1848e-23  7.6407e-24  2.0713e-23  8.6362e-24  3.6641e-23  1.0391e-23  6.5486e-23  1.3472e-23  1.1842e-22
      3.70  5.9291e-24  5.8415e-25  5.9292e-24  5.8698e-25  5.9295e-24  5.9202e-25  5.9301e-24  6.0096e-25  5.9311e-24  6.1688e-25  5.9328e-24  6.4518e-25  5.9359e-24  6.9550e-25  5.9415e-24  7.8500e-25  5.9513e-24  9.4417e-25  5.9689e-24  1.2273e-24  6.0000e-24  1.7309e-24  6.0554e-24  2.6269e-24  6.1537e-24  4.2221e-24  6.3285e-24  7.0639e-24  6.6385e-24  1.2134e-23  7.1879e-24  2.1203e-23  8.1588e-24  3.7498e-23  9.8688e-24  6.7002e-23  1.2866e-23  1.2114e-22
      3.75  5.5349e-24  6.0949e-25  5.5351e-24  6.1240e-25  5.5354e-24  6.1756e-25  5.5359e-24  6.2675e-25  5.5369e-24  6.4308e-25  5.5386e-24  6.7213e-25  5.5416e-24  7.2379e-25  5.5470e-24  8.1567e-25  5.5567e-24  9.7906e-25  5.5738e-24  1.2697e-24  5.6042e-24  1.7866e-24  5.6583e-24  2.7064e-24  5.7543e-24  4.3438e-24  5.9249e-24  7.2610e-24  6.2276e-24  1.2466e-23  6.7636e-24  2.1775e-23  7.7105e-24  3.8499e-23  9.3766e-24  6.8782e-23  1.2293e-23  1.2435e-22
      3.80  5.1670e-24  6.3662e-25  5.1672e-24  6.3966e-25  5.1674e-24  6.4508e-25  5.1680e-24  6.5470e-25  5.1689e-24  6.7182e-25  5.1706e-24  7.0226e-25  5.1736e-24  7.5640e-25  5.1788e-24  8.5267e-25  5.1882e-24  1.0239e-24  5.2050e-24  1.3284e-24  5.2347e-24  1.8701e-24  5.2875e-24  2.8340e-24  5.3813e-24  4.5499e-24  5.5478e-24  7.6068e-24  5.8433e-24  1.3061e-23  6.3664e-24  2.2816e-23  7.2899e-24  4.0342e-23  8.9133e-24  7.2079e-23  1.1751e-23  1.3033e-22
      3.85  4.8234e-24  6.6506e-25  4.8236e-24  6.6833e-25  4.8239e-24  6.7416e-25  4.8244e-24  6.8452e-25  4.8253e-24  7.0293e-25  4.8269e-24  7.3569e-25  4.8298e-24  7.9393e-25  4.8350e-24  8.9751e-25  4.8442e-24  1.0817e-24  4.8605e-24  1.4094e-24  4.8895e-24  1.9922e-24  4.9411e-24  3.0293e-24  5.0327e-24  4.8755e-24  5.1954e-24  8.1645e-24  5.4839e-24  1.4033e-23  5.9946e-24  2.4530e-23  6.8955e-24  4.3391e-23  8.4778e-24  7.7551e-23  1.1240e-23  1.4028e-22
      3.90  4.5028e-24  6.9626e-25  4.5029e-24  6.9989e-25  4.5032e-24  7.0636e-25  4.5037e-24  7.1785e-25  4.5046e-24  7.3829e-25  4.5062e-24  7.7465e-25  4.5091e-24  8.3929e-25  4.5141e-24  9.5426e-25  4.5231e-24  1.1587e-24  4.5390e-24  1.5224e-24  4.5674e-24  2.1693e-24  4.6178e-24  3.3204e-24  4.7074e-24  5.3695e-24  4.8663e-24  9.0203e-24  5.1482e-24  1.5534e-23  5.6470e-24  2.7187e-23  6.5264e-24  4.8129e-23  8.0695e-24  8.6072e-23  1.0760e-23  1.5579e-22
      3.95  4.2036e-24  7.3580e-25  4.2038e-24  7.3997e-25  4.2040e-24  7.4737e-25  4.2045e-24  7.6054e-25  4.2054e-24  7.8397e-25  4.2070e-24  8.2562e-25  4.2098e-24  8.9968e-25  4.2147e-24  1.0314e-24  4.2235e-24  1.2657e-24  4.2391e-24  1.6823e-24  4.2668e-24  2.4235e-24  4.3161e-24  3.7424e-24  4.4037e-24  6.0903e-24  4.5592e-24  1.0273e-23  4.8351e-24  1.7738e-23  5.3224e-24  3.1093e-23  6.1816e-24  5.5099e-23  7.6878e-24  9.8611e-23  1.0311e-23  1.7862e-22
