# This was generated using Cloudy10 and the columns are ordered 
# as log10 of the fraction of the metallicity to the solar metallicity
# 'h_*_Z' and 'c_*_Z' stands for cooling and heating respectively 
# at * metalicity
#
# NOTE: This was generated separately from loop_coolingcurve_w_UV.py
#       using Output_metals_w_redshift.py.
#
# Redshift = 1.0
# hden = -1.0
#
#     temp   h_-3.00_Z   c_-3.00_Z   h_-2.75_Z   c_-2.75_Z   h_-2.50_Z   c_-2.50_Z   h_-2.25_Z   c_-2.25_Z   h_-2.00_Z   c_-2.00_Z   h_-1.75_Z   c_-1.75_Z   h_-1.50_Z   c_-1.50_Z   h_-1.25_Z   c_-1.25_Z   h_-1.00_Z   c_-1.00_Z   h_-0.75_Z   c_-0.75_Z   h_-0.50_Z   c_-0.50_Z   h_-0.25_Z   c_-0.25_Z    h_0.00_Z    c_0.00_Z    h_0.25_Z    c_0.25_Z    h_0.50_Z    c_0.50_Z    h_0.75_Z    c_0.75_Z    h_1.00_Z    c_1.00_Z    h_1.25_Z    c_1.25_Z    h_1.50_Z    c_1.50_Z 
      1.00  3.8135e-23  8.4815e-27  3.8136e-23  8.4817e-27  3.8136e-23  8.4820e-27  3.8137e-23  8.4826e-27  3.8138e-23  8.4837e-27  3.8141e-23  8.4856e-27  3.8145e-23  8.4890e-27  3.8152e-23  8.4950e-27  3.8166e-23  8.5057e-27  3.8189e-23  8.5247e-27  3.8232e-23  8.5585e-27  3.8307e-23  8.6187e-27  3.8441e-23  8.7258e-27  3.8679e-23  8.9166e-27  3.9103e-23  9.2566e-27  3.9856e-23  9.8635e-27  4.1198e-23  1.0948e-26  4.3589e-23  1.2892e-26  4.7855e-23  1.6402e-26
      1.05  3.7520e-23  9.4114e-27  3.7520e-23  9.4118e-27  3.7521e-23  9.4126e-27  3.7522e-23  9.4139e-27  3.7523e-23  9.4162e-27  3.7525e-23  9.4205e-27  3.7529e-23  9.4279e-27  3.7537e-23  9.4412e-27  3.7550e-23  9.4649e-27  3.7574e-23  9.5070e-27  3.7616e-23  9.5818e-27  3.7691e-23  9.7149e-27  3.7824e-23  9.9519e-27  3.8061e-23  1.0374e-26  3.8482e-23  1.1125e-26  3.9231e-23  1.2467e-26  4.0565e-23  1.4865e-26  4.2941e-23  1.9168e-26  4.7182e-23  2.6947e-26
      1.10  3.6894e-23  1.0426e-26  3.6894e-23  1.0427e-26  3.6895e-23  1.0429e-26  3.6895e-23  1.0432e-26  3.6897e-23  1.0437e-26  3.6899e-23  1.0446e-26  3.6903e-23  1.0461e-26  3.6911e-23  1.0489e-26  3.6924e-23  1.0539e-26  3.6947e-23  1.0628e-26  3.6989e-23  1.0786e-26  3.7064e-23  1.1067e-26  3.7196e-23  1.1567e-26  3.7431e-23  1.2457e-26  3.7850e-23  1.4043e-26  3.8594e-23  1.6872e-26  3.9919e-23  2.1934e-26  4.2281e-23  3.1024e-26  4.6494e-23  4.7470e-26
      1.15  3.6258e-23  1.1534e-26  3.6258e-23  1.1536e-26  3.6258e-23  1.1539e-26  3.6259e-23  1.1545e-26  3.6260e-23  1.1555e-26  3.6263e-23  1.1572e-26  3.6267e-23  1.1604e-26  3.6274e-23  1.1660e-26  3.6287e-23  1.1759e-26  3.6311e-23  1.1935e-26  3.6352e-23  1.2250e-26  3.6426e-23  1.2808e-26  3.6557e-23  1.3803e-26  3.6791e-23  1.5573e-26  3.7206e-23  1.8727e-26  3.7945e-23  2.4357e-26  3.9261e-23  3.4428e-26  4.1605e-23  5.2528e-26  4.5788e-23  8.5308e-26
      1.20  3.5611e-23  1.2743e-26  3.5611e-23  1.2746e-26  3.5611e-23  1.2752e-26  3.5612e-23  1.2762e-26  3.5613e-23  1.2781e-26  3.5616e-23  1.2814e-26  3.5620e-23  1.2872e-26  3.5627e-23  1.2977e-26  3.5640e-23  1.3163e-26  3.5663e-23  1.3493e-26  3.5704e-23  1.4080e-26  3.5778e-23  1.5125e-26  3.5908e-23  1.6984e-26  3.6140e-23  2.0294e-26  3.6552e-23  2.6193e-26  3.7285e-23  3.6722e-26  3.8590e-23  5.5564e-26  4.0916e-23  8.9445e-26  4.5065e-23  1.5086e-25
      1.25  3.4954e-23  1.4060e-26  3.4954e-23  1.4066e-26  3.4954e-23  1.4076e-26  3.4955e-23  1.4095e-26  3.4956e-23  1.4127e-26  3.4959e-23  1.4185e-26  3.4963e-23  1.4289e-26  3.4970e-23  1.4473e-26  3.4983e-23  1.4799e-26  3.5006e-23  1.5381e-26  3.5047e-23  1.6415e-26  3.5119e-23  1.8255e-26  3.5249e-23  2.1528e-26  3.5478e-23  2.7357e-26  3.5887e-23  3.7744e-26  3.6614e-23  5.6285e-26  3.7908e-23  8.9477e-26  4.0214e-23  1.4919e-25  4.4327e-23  2.5751e-25
      1.30  3.4287e-23  1.5498e-26  3.4288e-23  1.5508e-26  3.4288e-23  1.5525e-26  3.4289e-23  1.5555e-26  3.4290e-23  1.5610e-26  3.4292e-23  1.5706e-26  3.4296e-23  1.5878e-26  3.4304e-23  1.6184e-26  3.4316e-23  1.6728e-26  3.4339e-23  1.7695e-26  3.4380e-23  1.9415e-26  3.4452e-23  2.2476e-26  3.4580e-23  2.7922e-26  3.4807e-23  3.7619e-26  3.5212e-23  5.4901e-26  3.5933e-23  8.5756e-26  3.7215e-23  1.4100e-25  3.9500e-23  2.4044e-25  4.3576e-23  4.2096e-25
      1.35  3.3612e-23  1.7064e-26  3.3612e-23  1.7079e-26  3.3613e-23  1.7107e-26  3.3613e-23  1.7155e-26  3.3614e-23  1.7241e-26  3.3617e-23  1.7393e-26  3.3621e-23  1.7665e-26  3.3628e-23  1.8147e-26  3.3641e-23  1.9006e-26  3.3663e-23  2.0533e-26  3.3703e-23  2.3248e-26  3.3774e-23  2.8080e-26  3.3901e-23  3.6678e-26  3.4127e-23  5.1987e-26  3.4528e-23  7.9274e-26  3.5241e-23  1.2800e-25  3.6512e-23  2.1526e-25  3.8775e-23  3.7238e-25  4.2812e-23  6.5784e-25
      1.40  3.2927e-23  1.8769e-26  3.2928e-23  1.8792e-26  3.2928e-23  1.8833e-26  3.2929e-23  1.8905e-26  3.2930e-23  1.9034e-26  3.2932e-23  1.9264e-26  3.2936e-23  1.9672e-26  3.2943e-23  2.0399e-26  3.2956e-23  2.1691e-26  3.2978e-23  2.3988e-26  3.3018e-23  2.8075e-26  3.3088e-23  3.5346e-26  3.3214e-23  4.8285e-26  3.3437e-23  7.1325e-26  3.3834e-23  1.1239e-25  3.4541e-23  1.8573e-25  3.5799e-23  3.1712e-25  3.8040e-23  5.5377e-25  4.2037e-23  9.8401e-25
      1.45  3.2235e-23  2.0622e-26  3.2235e-23  2.0655e-26  3.2235e-23  2.0714e-26  3.2236e-23  2.0819e-26  3.2237e-23  2.1005e-26  3.2239e-23  2.1336e-26  3.2243e-23  2.1925e-26  3.2250e-23  2.2971e-26  3.2263e-23  2.4833e-26  3.2285e-23  2.8144e-26  3.2324e-23  3.4033e-26  3.2394e-23  4.4509e-26  3.2518e-23  6.3155e-26  3.2739e-23  9.6357e-26  3.3132e-23  1.5554e-25  3.3832e-23  2.6125e-25  3.5077e-23  4.5066e-25  3.7295e-23  7.9196e-25  4.1252e-23  1.4128e-24
      1.50  3.1534e-23  2.2636e-26  3.1534e-23  2.2682e-26  3.1534e-23  2.2763e-26  3.1535e-23  2.2908e-26  3.1536e-23  2.3166e-26  3.1539e-23  2.3625e-26  3.1542e-23  2.4441e-26  3.1549e-23  2.5892e-26  3.1562e-23  2.8472e-26  3.1584e-23  3.3061e-26  3.1622e-23  4.1224e-26  3.1692e-23  5.5746e-26  3.1815e-23  8.1591e-26  3.2033e-23  1.2762e-25  3.2422e-23  2.0967e-25  3.3114e-23  3.5623e-25  3.4346e-23  6.1889e-25  3.6541e-23  1.0924e-24  4.0455e-23  1.9542e-24
      1.55  3.0826e-23  2.4825e-26  3.0826e-23  2.4887e-26  3.0826e-23  2.4996e-26  3.0827e-23  2.5190e-26  3.0828e-23  2.5535e-26  3.0830e-23  2.6150e-26  3.0834e-23  2.7242e-26  3.0841e-23  2.9184e-26  3.0853e-23  3.2639e-26  3.0875e-23  3.8783e-26  3.0913e-23  4.9711e-26  3.0982e-23  6.9154e-26  3.1103e-23  1.0376e-25  3.1320e-23  1.6538e-25  3.1704e-23  2.7525e-25  3.2389e-23  4.7151e-25  3.3608e-23  8.2331e-25  3.5778e-23  1.4577e-24  3.9649e-23  2.6130e-24
      1.60  3.0111e-23  2.7198e-26  3.0111e-23  2.7278e-26  3.0111e-23  2.7419e-26  3.0112e-23  2.7672e-26  3.0113e-23  2.8120e-26  3.0115e-23  2.8917e-26  3.0119e-23  3.0336e-26  3.0126e-23  3.2857e-26  3.0138e-23  3.7342e-26  3.0159e-23  4.5319e-26  3.0197e-23  5.9507e-26  3.0265e-23  8.4750e-26  3.0385e-23  1.2968e-25  3.0599e-23  2.0969e-25  3.0979e-23  3.5234e-25  3.1656e-23  6.0720e-25  3.2860e-23  1.0641e-24  3.5005e-23  1.8883e-24  3.8830e-23  3.3902e-24
      1.65  2.9390e-23  2.9766e-26  2.9390e-23  2.9867e-26  2.9390e-23  3.0046e-26  2.9391e-23  3.0365e-26  2.9392e-23  3.0932e-26  2.9394e-23  3.1939e-26  2.9398e-23  3.3732e-26  2.9405e-23  3.6919e-26  2.9417e-23  4.2587e-26  2.9438e-23  5.2668e-26  2.9475e-23  7.0600e-26  2.9542e-23  1.0250e-25  2.9661e-23  1.5929e-25  2.9872e-23  2.6041e-25  3.0247e-23  4.4073e-25  3.0915e-23  7.6290e-25  3.2104e-23  1.3406e-24  3.4221e-23  2.3830e-24  3.7996e-23  4.2833e-24
      1.70  2.8663e-23  3.2543e-26  2.8663e-23  3.2667e-26  2.8664e-23  3.2889e-26  2.8664e-23  3.3282e-26  2.8665e-23  3.3982e-26  2.8667e-23  3.5227e-26  2.8671e-23  3.7440e-26  2.8678e-23  4.1376e-26  2.8689e-23  4.8376e-26  2.8710e-23  6.0827e-26  2.8747e-23  8.2973e-26  2.8813e-23  1.2237e-25  2.8930e-23  1.9250e-25  2.9138e-23  3.1740e-25  2.9508e-23  5.4012e-25  3.0166e-23  9.3808e-25  3.1338e-23  1.6518e-24  3.3424e-23  2.9399e-24  3.7143e-23  5.2894e-24
      1.75  2.7931e-23  3.5541e-26  2.7932e-23  3.5691e-26  2.7932e-23  3.5960e-26  2.7933e-23  3.6436e-26  2.7934e-23  3.7284e-26  2.7936e-23  3.8792e-26  2.7939e-23  4.1473e-26  2.7946e-23  4.6242e-26  2.7957e-23  5.4722e-26  2.7978e-23  6.9806e-26  2.8014e-23  9.6635e-26  2.8079e-23  1.4437e-25  2.8194e-23  2.2933e-25  2.8399e-23  3.8065e-25  2.8762e-23  6.5048e-25  2.9410e-23  1.1327e-24  3.0562e-23  1.9976e-24  3.2613e-23  3.5590e-24  3.6269e-23  6.4082e-24
      1.80  2.7196e-23  3.8784e-26  2.7196e-23  3.8963e-26  2.7196e-23  3.9283e-26  2.7197e-23  3.9852e-26  2.7198e-23  4.0863e-26  2.7200e-23  4.2662e-26  2.7203e-23  4.5861e-26  2.7210e-23  5.1549e-26  2.7221e-23  6.1666e-26  2.7241e-23  7.9658e-26  2.7277e-23  1.1166e-25  2.7340e-23  1.6861e-25  2.7453e-23  2.6996e-25  2.7654e-23  4.5048e-25  2.8011e-23  7.7240e-25  2.8645e-23  1.3477e-24  2.9775e-23  2.3798e-24  3.1786e-23  4.2434e-24  3.5368e-23  7.6453e-24
      1.85  2.6456e-23  4.2277e-26  2.6457e-23  4.2489e-26  2.6457e-23  4.2866e-26  2.6458e-23  4.3537e-26  2.6459e-23  4.4730e-26  2.6461e-23  4.6850e-26  2.6464e-23  5.0621e-26  2.6470e-23  5.7328e-26  2.6481e-23  6.9255e-26  2.6501e-23  9.0469e-26  2.6536e-23  1.2820e-25  2.6598e-23  1.9534e-25  2.6708e-23  3.1483e-25  2.6904e-23  5.2767e-25  2.7253e-23  9.0725e-25  2.7873e-23  1.5857e-24  2.8977e-23  2.8028e-24  3.0941e-23  5.0010e-24  3.4440e-23  9.0150e-24
      1.90  2.5715e-23  4.6037e-26  2.5715e-23  4.6285e-26  2.5715e-23  4.6726e-26  2.5716e-23  4.7510e-26  2.5717e-23  4.8904e-26  2.5719e-23  5.1383e-26  2.5722e-23  5.5791e-26  2.5728e-23  6.3631e-26  2.5739e-23  7.7574e-26  2.5758e-23  1.0237e-25  2.5792e-23  1.4648e-25  2.5852e-23  2.2496e-25  2.5960e-23  3.6465e-25  2.6150e-23  6.1347e-25  2.6490e-23  1.0572e-24  2.7094e-23  1.8503e-24  2.8168e-23  3.2734e-24  3.0080e-23  5.8440e-24  3.3484e-23  1.0539e-23
      1.95  2.4971e-23  5.0079e-26  2.4971e-23  5.0367e-26  2.4971e-23  5.0879e-26  2.4972e-23  5.1789e-26  2.4973e-23  5.3407e-26  2.4975e-23  5.6285e-26  2.4978e-23  6.1403e-26  2.4984e-23  7.0505e-26  2.4994e-23  8.6692e-26  2.5013e-23  1.1548e-25  2.5046e-23  1.6669e-25  2.5105e-23  2.5781e-25  2.5209e-23  4.1998e-25  2.5394e-23  7.0885e-25  2.5724e-23  1.2240e-24  2.6311e-23  2.1449e-24  2.7354e-23  3.7972e-24  2.9211e-23  6.7819e-24  3.2515e-23  1.2234e-23
      2.00  2.4226e-23  5.4421e-26  2.4226e-23  5.4754e-26  2.4227e-23  5.5347e-26  2.4227e-23  5.6401e-26  2.4228e-23  5.8275e-26  2.4230e-23  6.1607e-26  2.4233e-23  6.7534e-26  2.4239e-23  7.8073e-26  2.4249e-23  9.6817e-26  2.4267e-23  1.3015e-25  2.4299e-23  1.8945e-25  2.4356e-23  2.9496e-25  2.4456e-23  4.8276e-25  2.4636e-23  8.1726e-25  2.4954e-23  1.4138e-24  2.5521e-23  2.4802e-24  2.6529e-23  4.3936e-24  2.8322e-23  7.8504e-24  3.1511e-23  1.4166e-23
      2.05  2.3482e-23  5.9098e-26  2.3482e-23  5.9483e-26  2.3482e-23  6.0167e-26  2.3483e-23  6.1384e-26  2.3484e-23  6.3548e-26  2.3485e-23  6.7396e-26  2.3488e-23  7.4239e-26  2.3494e-23  8.6409e-26  2.3504e-23  1.0805e-25  2.3521e-23  1.4655e-25  2.3552e-23  2.1502e-25  2.3606e-23  3.3685e-25  2.3703e-23  5.5370e-25  2.3876e-23  9.3995e-25  2.4183e-23  1.6288e-24  2.4728e-23  2.8602e-24  2.5699e-23  5.0698e-24  2.7424e-23  9.0617e-24  3.0492e-23  1.6356e-23
      2.10  2.2738e-23  6.4110e-26  2.2738e-23  6.4553e-26  2.2738e-23  6.5340e-26  2.2739e-23  6.6741e-26  2.2740e-23  6.9232e-26  2.2741e-23  7.3662e-26  2.2744e-23  8.1539e-26  2.2750e-23  9.5548e-26  2.2759e-23  1.2046e-25  2.2776e-23  1.6477e-25  2.2805e-23  2.4359e-25  2.2857e-23  3.8383e-25  2.2951e-23  6.3345e-25  2.3116e-23  1.0781e-24  2.3411e-23  1.8710e-24  2.3935e-23  3.2884e-24  2.4867e-23  5.8319e-24  2.6523e-23  1.0427e-23  2.9467e-23  1.8823e-23
      2.15  2.1996e-23  6.9475e-26  2.1996e-23  6.9982e-26  2.1997e-23  7.0886e-26  2.1997e-23  7.2492e-26  2.1998e-23  7.5348e-26  2.1999e-23  8.0427e-26  2.2002e-23  8.9460e-26  2.2007e-23  1.0552e-25  2.2016e-23  1.3409e-25  2.2032e-23  1.8490e-25  2.2060e-23  2.7529e-25  2.2111e-23  4.3609e-25  2.2200e-23  7.2232e-25  2.2359e-23  1.2322e-24  2.2641e-23  2.1414e-24  2.3144e-23  3.7667e-24  2.4037e-23  6.6832e-24  2.5624e-23  1.1952e-23  2.8445e-23  2.1579e-23
      2.20  2.1257e-23  7.5209e-26  2.1257e-23  7.5789e-26  2.1257e-23  7.6819e-26  2.1258e-23  7.8652e-26  2.1259e-23  8.1911e-26  2.1260e-23  8.7707e-26  2.1263e-23  9.8014e-26  2.1268e-23  1.1634e-25  2.1276e-23  1.4894e-25  2.1292e-23  2.0692e-25  2.1319e-23  3.1005e-25  2.1367e-23  4.9354e-25  2.1452e-23  8.2014e-25  2.1605e-23  1.4019e-24  2.1875e-23  2.4394e-24  2.2356e-23  4.2938e-24  2.3212e-23  7.6215e-24  2.4732e-23  1.3633e-23  2.7433e-23  2.4616e-23
      2.25  2.0522e-23  8.1331e-26  2.0522e-23  8.1989e-26  2.0522e-23  8.3157e-26  2.0523e-23  8.5236e-26  2.0523e-23  8.8932e-26  2.0525e-23  9.5505e-26  2.0527e-23  1.0719e-25  2.0532e-23  1.2798e-25  2.0540e-23  1.6495e-25  2.0555e-23  2.3071e-25  2.0581e-23  3.4767e-25  2.0627e-23  5.5577e-25  2.0709e-23  9.2617e-25  2.0855e-23  1.5859e-24  2.1114e-23  2.7625e-24  2.1575e-23  4.8656e-24  2.2394e-23  8.6392e-24  2.3850e-23  1.5456e-23  2.6436e-23  2.7909e-23
      2.30  1.9791e-23  8.7892e-26  1.9791e-23  8.8633e-26  1.9792e-23  8.9949e-26  1.9792e-23  9.2290e-26  1.9793e-23  9.6453e-26  1.9794e-23  1.0386e-25  1.9797e-23  1.1702e-25  1.9801e-23  1.4043e-25  1.9809e-23  1.8207e-25  1.9823e-23  2.5613e-25  1.9847e-23  3.8786e-25  1.9891e-23  6.2223e-25  1.9969e-23  1.0394e-24  2.0108e-23  1.7824e-24  2.0354e-23  3.1075e-24  2.0792e-23  5.4758e-24  2.1571e-23  9.7250e-24  2.2955e-23  1.7400e-23  2.5415e-23  3.1417e-23
      2.35  1.9067e-23  9.4876e-26  1.9067e-23  9.5703e-26  1.9067e-23  9.7173e-26  1.9068e-23  9.9788e-26  1.9068e-23  1.0444e-25  1.9070e-23  1.1271e-25  1.9072e-23  1.2741e-25  1.9076e-23  1.5356e-25  1.9084e-23  2.0006e-25  1.9097e-23  2.8277e-25  1.9121e-23  4.2989e-25  1.9163e-23  6.9165e-25  1.9239e-23  1.1576e-24  1.9372e-23  1.9874e-24  1.9610e-23  3.4673e-24  2.0033e-23  6.1123e-24  2.0785e-23  1.0858e-23  2.2121e-23  1.9429e-23  2.4495e-23  3.5083e-23
      2.40  1.8349e-23  1.0230e-25  1.8349e-23  1.0321e-25  1.8349e-23  1.0484e-25  1.8350e-23  1.0774e-25  1.8350e-23  1.1288e-25  1.8352e-23  1.2204e-25  1.8354e-23  1.3832e-25  1.8358e-23  1.6727e-25  1.8365e-23  2.1876e-25  1.8378e-23  3.1034e-25  1.8401e-23  4.7323e-25  1.8442e-23  7.6305e-25  1.8515e-23  1.2789e-24  1.8644e-23  2.1977e-24  1.8874e-23  3.8363e-24  1.9283e-23  6.7648e-24  2.0009e-23  1.2019e-23  2.1299e-23  2.1508e-23  2.3592e-23  3.8838e-23
      2.45  1.7639e-23  1.1018e-25  1.7639e-23  1.1118e-25  1.7639e-23  1.1297e-25  1.7640e-23  1.1614e-25  1.7640e-23  1.2180e-25  1.7642e-23  1.3185e-25  1.7644e-23  1.4972e-25  1.7648e-23  1.8150e-25  1.7655e-23  2.3802e-25  1.7667e-23  3.3855e-25  1.7690e-23  5.1737e-25  1.7729e-23  8.3552e-25  1.7799e-23  1.4018e-24  1.7924e-23  2.4104e-24  1.8146e-23  4.2091e-24  1.8541e-23  7.4238e-24  1.9243e-23  1.3191e-23  2.0489e-23  2.3607e-23  2.2703e-23  4.2628e-23
      2.50  1.6938e-23  1.1852e-25  1.6938e-23  1.1962e-25  1.6938e-23  1.2156e-25  1.6939e-23  1.2502e-25  1.6939e-23  1.3117e-25  1.6940e-23  1.4211e-25  1.6943e-23  1.6156e-25  1.6946e-23  1.9616e-25  1.6953e-23  2.5769e-25  1.6965e-23  3.6712e-25  1.6987e-23  5.6177e-25  1.7025e-23  9.0808e-25  1.7093e-23  1.5245e-24  1.7213e-23  2.6224e-24  1.7428e-23  4.5803e-24  1.7809e-23  8.0794e-24  1.8487e-23  1.4357e-23  1.9691e-23  2.5693e-23  2.1829e-23  4.6395e-23
      2.55  1.6247e-23  1.2741e-25  1.6247e-23  1.2860e-25  1.6247e-23  1.3069e-25  1.6247e-23  1.3443e-25  1.6248e-23  1.4107e-25  1.6249e-23  1.5288e-25  1.6251e-23  1.7387e-25  1.6255e-23  2.1121e-25  1.6261e-23  2.7762e-25  1.6273e-23  3.9573e-25  1.6294e-23  6.0583e-25  1.6331e-23  9.7963e-25  1.6396e-23  1.6449e-24  1.6513e-23  2.8299e-24  1.6720e-23  4.9431e-24  1.7089e-23  8.7198e-24  1.7744e-23  1.5495e-23  1.8907e-23  2.7729e-23  2.0973e-23  5.0068e-23
      2.60  1.5566e-23  1.3681e-25  1.5566e-23  1.3807e-25  1.5566e-23  1.4032e-25  1.5567e-23  1.4432e-25  1.5567e-23  1.5142e-25  1.5568e-23  1.6406e-25  1.5570e-23  1.8654e-25  1.5574e-23  2.2651e-25  1.5580e-23  2.9760e-25  1.5592e-23  4.2404e-25  1.5612e-23  6.4894e-25  1.5647e-23  1.0491e-24  1.5711e-23  1.7613e-24  1.5823e-23  3.0298e-24  1.6024e-23  5.2919e-24  1.6380e-23  9.3345e-24  1.7013e-23  1.6587e-23  1.8138e-23  2.9681e-23  2.0134e-23  5.3590e-23
      2.65  1.4897e-23  1.4672e-25  1.4897e-23  1.4806e-25  1.4897e-23  1.5045e-25  1.4898e-23  1.5470e-25  1.4898e-23  1.6225e-25  1.4899e-23  1.7568e-25  1.4901e-23  1.9957e-25  1.4905e-23  2.4206e-25  1.4911e-23  3.1762e-25  1.4922e-23  4.5200e-25  1.4941e-23  6.9104e-25  1.4976e-23  1.1163e-24  1.5037e-23  1.8733e-24  1.5146e-23  3.2215e-24  1.5340e-23  5.6257e-24  1.5685e-23  9.9223e-24  1.6297e-23  1.7629e-23  1.7385e-23  3.1545e-23  1.9315e-23  5.6950e-23
      2.70  1.4241e-23  1.5715e-25  1.4241e-23  1.5857e-25  1.4241e-23  1.6109e-25  1.4241e-23  1.6558e-25  1.4242e-23  1.7355e-25  1.4243e-23  1.8774e-25  1.4245e-23  2.1297e-25  1.4248e-23  2.5784e-25  1.4254e-23  3.3764e-25  1.4265e-23  4.7956e-25  1.4284e-23  7.3201e-25  1.4317e-23  1.1812e-24  1.4376e-23  1.9806e-24  1.4482e-23  3.4044e-24  1.4669e-23  5.9433e-24  1.5003e-23  1.0481e-23  1.5595e-23  1.8619e-23  1.6648e-23  3.3313e-23  1.8515e-23  6.0134e-23
      2.75  1.3598e-23  1.6811e-25  1.3598e-23  1.6960e-25  1.3598e-23  1.7225e-25  1.3598e-23  1.7696e-25  1.3599e-23  1.8534e-25  1.3600e-23  2.0024e-25  1.3602e-23  2.2674e-25  1.3605e-23  2.7385e-25  1.3611e-23  3.5765e-25  1.3621e-23  5.0668e-25  1.3639e-23  7.7178e-25  1.3672e-23  1.2434e-24  1.3729e-23  2.0829e-24  1.3831e-23  3.5780e-24  1.4013e-23  6.2442e-24  1.4336e-23  1.1009e-23  1.4910e-23  1.9554e-23  1.5928e-23  3.4981e-23  1.7736e-23  6.3138e-23
      2.80  1.2969e-23  1.7973e-25  1.2969e-23  1.8129e-25  1.2969e-23  1.8406e-25  1.2970e-23  1.8898e-25  1.2970e-23  1.9774e-25  1.2971e-23  2.1330e-25  1.2973e-23  2.4099e-25  1.2976e-23  2.9022e-25  1.2982e-23  3.7778e-25  1.2992e-23  5.3350e-25  1.3009e-23  8.1050e-25  1.3041e-23  1.3033e-24  1.3096e-23  2.1805e-24  1.3195e-23  3.7427e-24  1.3371e-23  6.5284e-24  1.3684e-23  1.1506e-23  1.4240e-23  2.0434e-23  1.5227e-23  3.6551e-23  1.6978e-23  6.5960e-23
      2.85  1.2355e-23  1.9191e-25  1.2355e-23  1.9353e-25  1.2356e-23  1.9641e-25  1.2356e-23  2.0153e-25  1.2356e-23  2.1064e-25  1.2357e-23  2.2683e-25  1.2359e-23  2.5563e-25  1.2362e-23  3.0685e-25  1.2367e-23  3.9792e-25  1.2377e-23  5.5991e-25  1.2394e-23  8.4805e-25  1.2425e-23  1.3607e-24  1.2479e-23  2.2731e-24  1.2575e-23  3.8982e-24  1.2745e-23  6.7958e-24  1.3049e-23  1.1974e-23  1.3588e-23  2.1260e-23  1.4545e-23  3.8021e-23  1.6242e-23  6.8601e-23
      2.90  1.1757e-23  2.0467e-25  1.1757e-23  2.0634e-25  1.1757e-23  2.0933e-25  1.1758e-23  2.1463e-25  1.1758e-23  2.2407e-25  1.1759e-23  2.4084e-25  1.1761e-23  2.7068e-25  1.1764e-23  3.2374e-25  1.1769e-23  4.1810e-25  1.1778e-23  5.8592e-25  1.1795e-23  8.8444e-25  1.1824e-23  1.4155e-24  1.1877e-23  2.3608e-24  1.1970e-23  4.0443e-24  1.2136e-23  7.0462e-24  1.2430e-23  1.2410e-23  1.2953e-23  2.2029e-23  1.3882e-23  3.9390e-23  1.5528e-23  7.1060e-23
      2.95  1.1175e-23  2.1801e-25  1.1175e-23  2.1974e-25  1.1175e-23  2.2282e-25  1.1176e-23  2.2830e-25  1.1176e-23  2.3804e-25  1.1177e-23  2.5535e-25  1.1179e-23  2.8615e-25  1.1181e-23  3.4091e-25  1.1187e-23  4.3830e-25  1.1196e-23  6.1152e-25  1.1212e-23  9.1963e-25  1.1240e-23  1.4678e-24  1.1291e-23  2.4434e-24  1.1382e-23  4.1810e-24  1.1543e-23  7.2793e-24  1.1829e-23  1.2815e-23  1.2336e-23  2.2743e-23  1.3238e-23  4.0657e-23  1.4836e-23  7.3333e-23
      3.00  1.0610e-23  2.3198e-25  1.0610e-23  2.3376e-25  1.0610e-23  2.3693e-25  1.0610e-23  2.4256e-25  1.0611e-23  2.5258e-25  1.0612e-23  2.7039e-25  1.0613e-23  3.0206e-25  1.0616e-23  3.5839e-25  1.0621e-23  4.5856e-25  1.0630e-23  6.3672e-25  1.0645e-23  9.5362e-25  1.0673e-23  1.5174e-24  1.0723e-23  2.5209e-24  1.0811e-23  4.3081e-24  1.0967e-23  7.4946e-24  1.1245e-23  1.3188e-23  1.1738e-23  2.3398e-23  1.2614e-23  4.1820e-23  1.4166e-23  7.5416e-23
      3.05  1.0062e-23  2.4681e-25  1.0062e-23  2.4863e-25  1.0062e-23  2.5188e-25  1.0062e-23  2.5765e-25  1.0063e-23  2.6792e-25  1.0064e-23  2.8618e-25  1.0065e-23  3.1865e-25  1.0068e-23  3.7639e-25  1.0073e-23  4.7909e-25  1.0081e-23  6.6174e-25  1.0096e-23  9.8662e-25  1.0123e-23  1.5646e-24  1.0172e-23  2.5934e-24  1.0257e-23  4.4255e-24  1.0409e-23  7.6922e-24  1.0679e-23  1.3529e-23  1.1159e-23  2.3994e-23  1.2011e-23  4.2877e-23  1.3519e-23  7.7308e-23
      3.10  9.5312e-24  2.6214e-25  9.5313e-24  2.6401e-25  9.5315e-24  2.6733e-25  9.5317e-24  2.7323e-25  9.5322e-24  2.8372e-25  9.5330e-24  3.0239e-25  9.5345e-24  3.3558e-25  9.5372e-24  3.9461e-25  9.5418e-24  4.9958e-25  9.5502e-24  6.8628e-25  9.5650e-24  1.0184e-24  9.5913e-24  1.6092e-24  9.6381e-24  2.6607e-24  9.7213e-24  4.5335e-24  9.8693e-24  7.8725e-24  1.0132e-23  1.3838e-23  1.0599e-23  2.4535e-23  1.1427e-23  4.3833e-23  1.2898e-23  7.9019e-23
      3.15  9.0187e-24  2.7834e-25  9.0188e-24  2.8024e-25  9.0189e-24  2.8363e-25  9.0192e-24  2.8965e-25  9.0197e-24  3.0035e-25  9.0205e-24  3.1938e-25  9.0219e-24  3.5322e-25  9.0245e-24  4.1340e-25  9.0290e-24  5.2044e-25  9.0371e-24  7.1080e-25  9.0516e-24  1.0494e-24  9.0772e-24  1.6518e-24  9.1228e-24  2.7240e-24  9.2038e-24  4.6335e-24  9.3478e-24  8.0380e-24  9.6038e-24  1.4120e-23  1.0058e-23  2.5026e-23  1.0864e-23  4.4701e-23  1.2295e-23  8.0569e-23
      3.20  8.5244e-24  2.9533e-25  8.5244e-24  2.9727e-25  8.5246e-24  3.0071e-25  8.5248e-24  3.0683e-25  8.5253e-24  3.1772e-25  8.5261e-24  3.3709e-25  8.5275e-24  3.7153e-25  8.5300e-24  4.3277e-25  8.5344e-24  5.4169e-25  8.5423e-24  7.3541e-25  8.5564e-24  1.0800e-24  8.5813e-24  1.6930e-24  8.6257e-24  2.7841e-24  8.7047e-24  4.7271e-24  8.8450e-24  8.1916e-24  9.0942e-24  1.4381e-23  9.5369e-24  2.5478e-23  1.0324e-23  4.5497e-23  1.1715e-23  8.1990e-23
      3.25  8.0484e-24  3.1297e-25  8.0484e-24  3.1494e-25  8.0486e-24  3.1844e-25  8.0488e-24  3.2466e-25  8.0493e-24  3.3573e-25  8.0500e-24  3.5541e-25  8.0514e-24  3.9041e-25  8.0538e-24  4.5266e-25  8.0582e-24  5.6336e-25  8.0659e-24  7.6025e-25  8.0795e-24  1.1105e-24  8.1039e-24  1.7335e-24  8.1472e-24  2.8425e-24  8.2241e-24  4.8173e-24  8.3609e-24  8.3385e-24  8.6038e-24  1.4629e-23  9.0365e-24  2.5907e-23  9.8021e-24  4.6252e-23  1.1157e-23  8.3338e-23
      3.30  7.5909e-24  3.3156e-25  7.5909e-24  3.3356e-25  7.5911e-24  3.3712e-25  7.5913e-24  3.4345e-25  7.5917e-24  3.5470e-25  7.5925e-24  3.7470e-25  7.5938e-24  4.1028e-25  7.5962e-24  4.7355e-25  7.6004e-24  5.8606e-25  7.6079e-24  7.8617e-25  7.6213e-24  1.1421e-24  7.6450e-24  1.7754e-24  7.6872e-24  2.9025e-24  7.7629e-24  4.9097e-24  7.8964e-24  8.4884e-24  8.1335e-24  1.4882e-23  8.5545e-24  2.6345e-23  9.3008e-24  4.7021e-23  1.0621e-23  8.4710e-23
      3.35  7.1522e-24  3.5084e-25  7.1523e-24  3.5287e-25  7.1524e-24  3.5649e-25  7.1526e-24  3.6293e-25  7.1531e-24  3.7438e-25  7.1538e-24  3.9474e-25  7.1551e-24  4.3095e-25  7.1574e-24  4.9534e-25  7.1615e-24  6.0986e-25  7.1689e-24  8.1353e-25  7.1819e-24  1.1758e-24  7.2051e-24  1.8204e-24  7.2463e-24  2.9675e-24  7.3196e-24  5.0104e-24  7.4499e-24  8.6528e-24  7.6812e-24  1.5160e-23  8.0919e-24  2.6826e-23  8.8200e-24  4.7870e-23  1.0108e-23  8.6226e-23
      3.40  6.7315e-24  3.7078e-25  6.7316e-24  3.7286e-25  6.7317e-24  3.7656e-25  6.7319e-24  3.8313e-25  6.7323e-24  3.9482e-25  6.7331e-24  4.1560e-25  6.7343e-24  4.5256e-25  6.7366e-24  5.1829e-25  6.7406e-24  6.3519e-25  6.7478e-24  8.4309e-25  6.7605e-24  1.2129e-24  6.7832e-24  1.8708e-24  6.8234e-24  3.0418e-24  6.8950e-24  5.1271e-24  7.0221e-24  8.8451e-24  7.2480e-24  1.5487e-23  7.6489e-24  2.7395e-23  8.3595e-24  4.8875e-23  9.6163e-24  8.8024e-23
      3.45  6.3291e-24  3.9141e-25  6.3292e-24  3.9354e-25  6.3293e-24  3.9733e-25  6.3296e-24  4.0407e-25  6.3300e-24  4.1605e-25  6.3307e-24  4.3736e-25  6.3319e-24  4.7526e-25  6.3341e-24  5.4265e-25  6.3380e-24  6.6250e-25  6.3450e-24  8.7566e-25  6.3575e-24  1.2548e-24  6.3796e-24  1.9294e-24  6.4189e-24  3.1299e-24  6.4888e-24  5.2679e-24  6.6130e-24  9.0799e-24  6.8336e-24  1.5890e-23  7.2251e-24  2.8099e-23  7.9190e-24  5.0120e-23  9.1459e-24  9.0254e-23
      3.50  5.9449e-24  4.1272e-25  5.9450e-24  4.1492e-25  5.9451e-24  4.1883e-25  5.9453e-24  4.2578e-25  5.9457e-24  4.3814e-25  5.9464e-24  4.6011e-25  5.9476e-24  4.9919e-25  5.9497e-24  5.6869e-25  5.9536e-24  6.9228e-25  5.9604e-24  9.1210e-25  5.9726e-24  1.3031e-24  5.9942e-24  1.9987e-24  6.0326e-24  3.2368e-24  6.1009e-24  5.4416e-24  6.2222e-24  9.3726e-24  6.4378e-24  1.6395e-23  6.8203e-24  2.8985e-23  7.4982e-24  5.1693e-23  8.6963e-24  9.3076e-23
      3.55  5.5786e-24  4.3521e-25  5.5786e-24  4.3749e-25  5.5788e-24  4.4155e-25  5.5790e-24  4.4877e-25  5.5794e-24  4.6160e-25  5.5800e-24  4.8442e-25  5.5812e-24  5.2501e-25  5.5833e-24  5.9719e-25  5.5871e-24  7.2555e-25  5.5938e-24  9.5384e-25  5.6056e-24  1.3599e-24  5.6268e-24  2.0824e-24  5.6643e-24  3.3681e-24  5.7311e-24  5.6579e-24  5.8497e-24  9.7404e-24  6.0604e-24  1.7034e-23  6.4343e-24  3.0108e-23  7.0966e-24  5.3688e-23  8.2675e-24  9.6655e-23
      3.60  5.2299e-24  4.5841e-25  5.2299e-24  4.6080e-25  5.2300e-24  4.6505e-25  5.2302e-24  4.7260e-25  5.2306e-24  4.8603e-25  5.2313e-24  5.0991e-25  5.2324e-24  5.5238e-25  5.2345e-24  6.2791e-25  5.2382e-24  7.6222e-25  5.2447e-24  1.0011e-24  5.2563e-24  1.4260e-24  5.2770e-24  2.1820e-24  5.3137e-24  3.5275e-24  5.3790e-24  5.9235e-24  5.4949e-24  1.0195e-23  5.7009e-24  1.7827e-23  6.0664e-24  3.1506e-23  6.7138e-24  5.6176e-23  7.8578e-24  1.0112e-22
      3.65  4.8984e-24  4.8232e-25  4.8984e-24  4.8484e-25  4.8986e-24  4.8932e-25  4.8988e-24  4.9728e-25  4.8991e-24  5.1145e-25  4.8998e-24  5.3663e-25  4.9009e-24  5.8142e-25  4.9029e-24  6.6107e-25  4.9065e-24  8.0272e-25  4.9128e-24  1.0547e-24  4.9243e-24  1.5028e-24  4.9445e-24  2.3000e-24  4.9804e-24  3.7189e-24  5.0442e-24  6.2457e-24  5.1576e-24  1.0750e-23  5.3590e-24  1.8797e-23  5.7162e-24  3.3221e-23  6.3490e-24  5.9228e-23  7.4667e-24  1.0660e-22
      3.70  4.5838e-24  5.0697e-25  4.5838e-24  5.0966e-25  4.5840e-24  5.1443e-25  4.5842e-24  5.2293e-25  4.5845e-24  5.3803e-25  4.5851e-24  5.6490e-25  4.5862e-24  6.1267e-25  4.5882e-24  6.9762e-25  4.5917e-24  8.4870e-25  4.5980e-24  1.1174e-24  4.6091e-24  1.5953e-24  4.6288e-24  2.4457e-24  4.6639e-24  3.9589e-24  4.7263e-24  6.6537e-24  4.8372e-24  1.1458e-23  5.0340e-24  2.0038e-23  5.3832e-24  3.5416e-23  6.0017e-24  6.3133e-23  7.0931e-24  1.1359e-22
      3.75  4.2856e-24  5.3234e-25  4.2857e-24  5.3522e-25  4.2858e-24  5.4032e-25  4.2860e-24  5.4941e-25  4.2863e-24  5.6556e-25  4.2869e-24  5.9428e-25  4.2880e-24  6.4536e-25  4.2900e-24  7.3620e-25  4.2934e-24  8.9775e-25  4.2995e-24  1.1851e-24  4.3103e-24  1.6961e-24  4.3296e-24  2.6053e-24  4.3639e-24  4.2234e-24  4.4249e-24  7.1046e-24  4.5332e-24  1.2241e-23  4.7255e-24  2.1413e-23  5.0665e-24  3.7847e-23  5.6705e-24  6.7455e-23  6.7359e-24  1.2131e-22
      3.80  4.0040e-24  5.5942e-25  4.0040e-24  5.6253e-25  4.0041e-24  5.6805e-25  4.0043e-24  5.7788e-25  4.0046e-24  5.9536e-25  4.0052e-24  6.2644e-25  4.0063e-24  6.8171e-25  4.0082e-24  7.8001e-25  4.0115e-24  9.5481e-25  4.0175e-24  1.2657e-24  4.0281e-24  1.8187e-24  4.0469e-24  2.8025e-24  4.0804e-24  4.5531e-24  4.1399e-24  7.6704e-24  4.2456e-24  1.3227e-23  4.4334e-24  2.3147e-23  4.7663e-24  4.0916e-23  5.3557e-24  7.2912e-23  6.3949e-24  1.3106e-22
      3.85  3.7374e-24  5.8872e-25  3.7374e-24  5.9215e-25  3.7375e-24  5.9824e-25  3.7377e-24  6.0906e-25  3.7380e-24  6.2832e-25  3.7386e-24  6.6257e-25  3.7396e-24  7.2346e-25  3.7415e-24  8.3176e-25  3.7448e-24  1.0244e-24  3.7505e-24  1.3669e-24  3.7609e-24  1.9761e-24  3.7793e-24  3.0600e-24  3.8120e-24  4.9887e-24  3.8701e-24  8.4229e-24  3.9732e-24  1.4543e-23  4.1564e-24  2.5469e-23  4.4813e-24  4.5034e-23  5.0563e-24  8.0245e-23  6.0699e-24  1.4418e-22
      3.90  3.4857e-24  6.2618e-25  3.4858e-24  6.3006e-25  3.4859e-24  6.3696e-25  3.4861e-24  6.4923e-25  3.4864e-24  6.7104e-25  3.4870e-24  7.0984e-25  3.4880e-24  7.7883e-25  3.4898e-24  9.0152e-25  3.4930e-24  1.1197e-24  3.4986e-24  1.5078e-24  3.5087e-24  2.1980e-24  3.5267e-24  3.4258e-24  3.5586e-24  5.6108e-24  3.6153e-24  9.5011e-24  3.7161e-24  1.6434e-23  3.8949e-24  2.8810e-23  4.2123e-24  5.0967e-23  4.7735e-24  9.0837e-23  5.7629e-24  1.6321e-22
      3.95  3.2486e-24  6.9536e-25  3.2486e-24  6.9990e-25  3.2487e-24  7.0795e-25  3.2489e-24  7.2228e-25  3.2492e-24  7.4776e-25  3.2498e-24  7.9307e-25  3.2507e-24  8.7364e-25  3.2525e-24  1.0169e-24  3.2556e-24  1.2718e-24  3.2612e-24  1.7250e-24  3.2710e-24  2.5311e-24  3.2886e-24  3.9651e-24  3.3198e-24  6.5170e-24  3.3753e-24  1.1061e-23  3.4738e-24  1.9158e-23  3.6487e-24  3.3615e-23  3.9591e-24  5.9499e-23  4.5079e-24  1.0609e-22  5.4758e-24  1.9070e-22
