# This was generated using Cloudy10 and the columns are ordered 
# as log10 of the fraction of the metallicity to the solar metallicity
# 'h_*_Z' and 'c_*_Z' stands for cooling and heating respectively 
# at * metalicity
#
# Redshift = 5.5
# hden = 2.5
#     temp   h_-3.00_Z   c_-3.00_Z   h_-2.75_Z   c_-2.75_Z   h_-2.50_Z   c_-2.50_Z   h_-2.25_Z   c_-2.25_Z   h_-2.00_Z   c_-2.00_Z   h_-1.75_Z   c_-1.75_Z   h_-1.50_Z   c_-1.50_Z   h_-1.25_Z   c_-1.25_Z   h_-1.00_Z   c_-1.00_Z   h_-0.75_Z   c_-0.75_Z   h_-0.50_Z   c_-0.50_Z   h_-0.25_Z   c_-0.25_Z    h_0.00_Z    c_0.00_Z    h_0.25_Z    c_0.25_Z    h_0.50_Z    c_0.50_Z    h_0.75_Z    c_0.75_Z    h_1.00_Z    c_1.00_Z    h_1.25_Z    c_1.25_Z    h_1.50_Z    c_1.50_Z 
      4.00  1.1692e-26  2.518e-25  1.1692e-26  2.5222e-25  1.1692e-26  2.5295e-25  1.1693e-26  2.5426e-25  1.1694e-26  2.5659e-25  1.1695e-26  2.6072e-25  1.1698e-26  2.6807e-25  1.1703e-26  2.8114e-25  1.1712e-26  3.0435e-25  1.1727e-26  3.4561e-25  1.1754e-26  4.1893e-25  1.1802e-26  5.4923e-25  1.1888e-26  7.8068e-25  1.204e-26  1.1914e-24  1.2308e-26  1.9188e-24  1.2781e-26  3.2043e-24  1.3609e-26  5.4691e-24  1.5058e-26  9.4727e-24  1.7613e-26  1.6661e-23
      4.05  1.1656e-26  9.9846e-25  1.1656e-26  9.9905e-25  1.1656e-26  1.0001e-24  1.1657e-26  1.002e-24  1.1658e-26  1.0053e-24  1.166e-26  1.0112e-24  1.1663e-26  1.0216e-24  1.1668e-26  1.0402e-24  1.1678e-26  1.0731e-24  1.1695e-26  1.1315e-24  1.1725e-26  1.2353e-24  1.1779e-26  1.4196e-24  1.1874e-26  1.7464e-24  1.2043e-26  2.3244e-24  1.2342e-26  3.3431e-24  1.2866e-26  5.1264e-24  1.3779e-26  8.2204e-24  1.536e-26  1.3553e-23  1.8103e-26  2.2825e-23
      4.10  1.1302e-26  4.3334e-24  1.1302e-26  4.3345e-24  1.1303e-26  4.3364e-24  1.1303e-26  4.3398e-24  1.1304e-26  4.3457e-24  1.1307e-26  4.3564e-24  1.131e-26  4.3753e-24  1.1317e-26  4.4088e-24  1.1329e-26  4.4683e-24  1.135e-26  4.5739e-24  1.1387e-26  4.7614e-24  1.1454e-26  5.094e-24  1.1572e-26  5.6831e-24  1.1782e-26  6.7229e-24  1.2151e-26  8.5481e-24  1.2797e-26  1.172e-23  1.3918e-26  1.7139e-23  1.5833e-26  2.6208e-23  1.9051e-26  4.1101e-23
      4.15  9.6409e-27   2.45e-23  9.6412e-27  2.4503e-23  9.6418e-27  2.4509e-23  9.6429e-27  2.4519e-23  9.6448e-27  2.4537e-23  9.6481e-27  2.457e-23  9.6541e-27  2.4627e-23  9.6648e-27  2.4728e-23  9.6838e-27  2.4912e-23  9.7175e-27  2.5235e-23  9.7774e-27  2.5811e-23  9.8838e-27  2.6834e-23  1.0073e-26  2.8648e-23  1.0408e-26  3.1864e-23  1.1001e-26  3.7544e-23  1.2044e-26  4.7525e-23  1.3868e-26  6.4891e-23  1.7007e-26  9.4586e-23  2.2282e-26  1.4388e-22
      4.20  6.2316e-27  8.6065e-23  6.2321e-27  8.6074e-23  6.2328e-27  8.6091e-23  6.2342e-27  8.612e-23  6.2366e-27  8.6171e-23  6.2408e-27  8.6263e-23  6.2484e-27  8.6427e-23  6.2618e-27  8.6718e-23  6.2858e-27  8.7235e-23  6.3283e-27  8.8155e-23  6.4039e-27  8.979e-23  6.5384e-27  9.2699e-23  6.7774e-27  9.7872e-23  7.2023e-27  1.0707e-22  7.957e-27  1.2343e-22  9.297e-27  1.5252e-22  1.1674e-26  2.0425e-22  1.5879e-26  2.9618e-22  2.3287e-26  4.5943e-22
      4.25  3.2579e-27  1.2955e-22  3.2581e-27  1.2957e-22  3.2583e-27  1.296e-22  3.2587e-27  1.2964e-22  3.2595e-27  1.2973e-22  3.2609e-27  1.2988e-22  3.2633e-27  1.3015e-22  3.2677e-27  1.3062e-22  3.2755e-27  1.3147e-22  3.2892e-27  1.3297e-22  3.3137e-27  1.3565e-22  3.3574e-27  1.4041e-22  3.435e-27  1.4889e-22  3.5733e-27  1.6397e-22  3.8202e-27  1.9084e-22  4.2616e-27  2.3878e-22  5.0539e-27  3.2452e-22  6.4855e-27  4.7852e-22  9.1006e-27  7.5723e-22
      4.30  1.8404e-27  1.2057e-22  1.8399e-27  1.2059e-22  1.839e-27  1.2062e-22  1.8374e-27  1.2068e-22  1.8345e-27  1.2078e-22  1.8294e-27  1.2097e-22  1.8203e-27  1.2129e-22  1.8042e-27  1.2187e-22  1.8009e-27  1.229e-22  1.8136e-27  1.2473e-22  1.8363e-27  1.2799e-22  1.8766e-27  1.3379e-22  1.9485e-27  1.4411e-22  2.0769e-27  1.6249e-22  2.3067e-27  1.9523e-22  2.7195e-27  2.5369e-22  3.4634e-27  3.5833e-22  4.808e-27  5.4665e-22  7.2411e-27  8.886e-22
      4.35  1.3214e-27  9.5695e-23  1.3201e-27  9.5717e-23  1.3178e-27  9.5756e-23  1.3136e-27  9.5826e-23  1.3061e-27  9.595e-23  1.2929e-27  9.617e-23  1.2693e-27  9.6561e-23  1.2274e-27  9.7257e-23  1.2292e-27  9.8494e-23  1.2413e-27  1.0069e-22  1.2631e-27  1.0461e-22  1.3019e-27  1.1157e-22  1.3716e-27  1.2396e-22  1.497e-27  1.4602e-22  1.7247e-27  1.8534e-22  2.1416e-27  2.5554e-22  2.9115e-27  3.8124e-22  4.3409e-27  6.0756e-22  6.9161e-27  1.0189e-21
      4.40  1.0931e-27  7.4687e-23  1.0909e-27  7.4714e-23  1.0872e-27  7.4763e-23  1.0805e-27  7.485e-23  1.0686e-27  7.5004e-23  1.0474e-27  7.5278e-23  1.0097e-27  7.5766e-23  9.4277e-28  7.6633e-23  9.0254e-28  7.8176e-23  9.1447e-28  8.0919e-23  9.3584e-28  8.5798e-23  9.7432e-28  9.4479e-23  1.0442e-27  1.0992e-22  1.1728e-27  1.3743e-22  1.4132e-27  1.8643e-22  1.871e-27  2.7392e-22  2.7511e-27  4.3056e-22  4.2499e-27  7.1255e-22  6.7863e-27  1.2249e-21
      4.45  8.2866e-28  6.0076e-23  8.2585e-28  6.0111e-23  8.2084e-28  6.0173e-23  8.1193e-28  6.0285e-23  7.9609e-28  6.0482e-23  7.6793e-28  6.0833e-23  7.1786e-28  6.1458e-23  6.2883e-28  6.2569e-23  5.6054e-28  6.4545e-23  5.7231e-28  6.806e-23  5.937e-28  7.4311e-23  6.3318e-28  8.543e-23  7.0763e-28  1.0522e-22  8.5189e-28  1.4044e-22  1.1394e-27  2.0319e-22  1.6832e-27  3.1519e-22  2.5953e-27  5.1563e-22  4.1333e-27  8.7618e-22  6.8031e-27  1.5305e-21
      4.50  5.2559e-28  4.8672e-23  5.2223e-28  4.8717e-23  5.1625e-28  4.8798e-23  5.0561e-28  4.8941e-23  4.867e-28  4.9196e-23  4.5308e-28  4.965e-23  3.9331e-28  5.0456e-23  2.8708e-28  5.1891e-23  2.7813e-28  5.4442e-23  2.9009e-28  5.8979e-23  3.1307e-28  6.7048e-23  3.589e-28  8.1402e-23  4.5398e-28  1.0694e-22  6.5741e-28  1.524e-22  1.0248e-27  2.3341e-22   1.62e-27  3.7799e-22  2.6182e-27  6.3674e-22  4.1976e-27  1.1021e-21  6.8773e-27  1.9466e-21
      4.55  3.1231e-28  3.9108e-23  3.0868e-28  3.9167e-23  3.0222e-28  3.927e-23  2.9073e-28  3.9455e-23  2.703e-28  3.9784e-23  2.3399e-28  4.0368e-23  1.6944e-28  4.1407e-23  1.2502e-28  4.3254e-23  1.3107e-28  4.654e-23  1.428e-28  5.2383e-23  1.6656e-28  6.2775e-23  2.1718e-28  8.1263e-23  3.2985e-28  1.1416e-22  5.2914e-28  1.7273e-22  8.6956e-28  2.7712e-22  1.4661e-27  4.6347e-22  2.3983e-27  7.9716e-22  3.9767e-27  1.3978e-21  6.6907e-27  2.4894e-21
      4.60  1.9376e-28  3.1658e-23  1.9024e-28  3.1733e-23  1.8399e-28  3.1866e-23  1.7286e-28  3.2103e-23  1.5309e-28  3.2525e-23  1.1795e-28  3.3274e-23  6.0343e-29  3.4607e-23  6.3277e-29  3.6978e-23  6.8948e-29  4.1193e-23  8.0422e-29  4.8691e-23   1.05e-28  6.2026e-23  1.6082e-28  8.5749e-23  2.6323e-28  1.2797e-22  4.5233e-28  2.0315e-22  7.7413e-28  3.3716e-22  1.3286e-27  5.7649e-22  2.2367e-27  1.0053e-21  3.7566e-27  1.7782e-21  6.3981e-27  3.1854e-21
      4.65  1.3015e-28  2.6862e-23  1.271e-28  2.6957e-23  1.2169e-28  2.7128e-23  1.1205e-28  2.7431e-23  9.4921e-29  2.7969e-23  6.448e-29  2.8927e-23  3.5377e-29  3.0631e-23  3.8082e-29  3.366e-23  4.3458e-29  3.9048e-23  5.4758e-29  4.8631e-23  8.0132e-29  6.5675e-23  1.3231e-28  9.5998e-23  2.3112e-28  1.4997e-22  4.0702e-28  2.4608e-22  7.4039e-28  4.1745e-22  1.2901e-27  7.2362e-22  2.1913e-27  1.2726e-21  3.7134e-27  2.2632e-21  6.3659e-27  4.0706e-21
      4.70  9.5762e-29  2.5648e-23  9.3367e-29  2.5771e-23  8.9109e-29  2.5988e-23  8.1539e-29  2.6374e-23  6.8083e-29  2.706e-23  4.4178e-29  2.8282e-23  2.6352e-29  3.0453e-23  2.9011e-29  3.4315e-23  3.4398e-29  4.1182e-23  4.6017e-29  5.3397e-23  7.2933e-29  7.5125e-23  1.2571e-28  1.1378e-22  2.3114e-28  1.8259e-22  4.2573e-28  3.0515e-22  7.5018e-28  5.2374e-22  1.2893e-27  9.1449e-22  2.2163e-27  1.6158e-21  3.7979e-27  2.8832e-21  6.5636e-27  5.2018e-21
      4.75  7.6759e-29  3.0292e-23  7.4916e-29  3.0446e-23  7.1858e-29  3.0721e-23  6.6425e-29  3.121e-23  5.6898e-29  3.208e-23  3.9761e-29  3.3626e-23  2.5146e-29  3.6375e-23  2.8121e-29  4.1265e-23  3.4267e-29  4.9961e-23  4.7864e-29  6.5427e-23  7.987e-29  9.294e-23  1.4077e-28  1.419e-22  2.5112e-28  2.2904e-22  4.4399e-28  3.843e-22  7.8284e-28  6.6132e-22  1.3593e-27  1.1568e-21  2.3445e-27  2.0472e-21  4.037e-27  3.6594e-21  7.0306e-27  6.6182e-21
      4.80  6.4872e-29  4.3886e-23  6.3962e-29  4.408e-23  6.2024e-29  4.4423e-23  5.8581e-29  4.5035e-23  5.2473e-29  4.6122e-23  4.1654e-29  4.8056e-23  2.8168e-29  5.1494e-23  3.1976e-29  5.761e-23  4.0067e-29  6.8486e-23  5.8607e-29  8.783e-23  9.7605e-29  1.2224e-22  1.6301e-28  1.8348e-22  2.8376e-28  2.925e-22  4.9858e-28  4.8678e-22  8.714e-28  8.3354e-22  1.5131e-27  1.4542e-21  2.6351e-27  2.5708e-21  4.5854e-27  4.5967e-21  8.0744e-27  8.3264e-21
      4.85  5.4624e-29  6.513e-23  5.4122e-29  6.5367e-23  5.3006e-29  6.5789e-23  5.1653e-29  6.654e-23  4.8873e-29  6.7875e-23  4.4002e-29  7.025e-23  3.5583e-29  7.4473e-23  3.7629e-29  8.1982e-23  4.9414e-29  9.5338e-23  7.4234e-29  1.1909e-22  1.1964e-28  1.6136e-22  1.9942e-28  2.3657e-22  3.4437e-28  3.7048e-22  5.9765e-28  6.0917e-22  1.0377e-27  1.0354e-21  1.801e-27  1.7987e-21  3.1197e-27  3.1734e-21  5.3895e-27  5.6722e-21  9.4369e-27  1.0286e-20
      4.90  4.2722e-29  8.0877e-23  4.2779e-29  8.116e-23  4.2885e-29  8.1663e-23  4.3091e-29  8.2557e-23  4.3506e-29  8.4148e-23  4.4397e-29  8.6977e-23  4.647e-29  9.2008e-23  5.168e-29  1.0095e-22  6.4458e-29  1.1687e-22  9.4281e-29  1.4517e-22  1.5334e-28  1.9552e-22  2.5975e-28  2.8513e-22  4.5112e-28  4.447e-22  7.7694e-28  7.2913e-22  1.3248e-27  1.2371e-21  2.2482e-27  2.1472e-21  3.8167e-27  3.7872e-21  6.4542e-27  6.7714e-21  1.1145e-26  1.2292e-20
      4.95  3.1522e-29  7.9698e-23  3.1984e-29  8.0023e-23  3.2816e-29   8.06e-23  3.4758e-29  8.2442e-23  3.7589e-29  8.4285e-23  4.2497e-29  8.6697e-23  5.3143e-29  9.2469e-23  7.4935e-29  1.0273e-22  1.1932e-28  1.2099e-22  1.9827e-28  1.5346e-22  3.3857e-28  2.1124e-22  5.8721e-28  3.1405e-22  1.0105e-27  4.9714e-22  1.7267e-27  8.2351e-22  2.9312e-27  1.4064e-21  4.9605e-27  2.4511e-21  8.3944e-27  4.334e-21  1.4363e-26  7.7625e-21  2.5026e-26  1.4112e-20
      5.00  2.3582e-29  6.7668e-23  2.4223e-29  6.8026e-23  2.5579e-29  6.8662e-23  2.7565e-29  6.9792e-23  3.1927e-29  7.1803e-23  4.0007e-29  7.5378e-23  5.7734e-29  8.1737e-23  9.4638e-29  9.3044e-23  1.6535e-28  1.1316e-22  2.948e-28  1.4893e-22  5.1006e-28  2.1257e-22  8.7408e-28  3.2584e-22  1.4797e-27  5.2757e-22  2.4692e-27  8.8724e-22  4.079e-27  1.5298e-21  6.7374e-27  2.682e-21  1.1203e-26  4.7608e-21  1.8965e-26  8.5519e-21  3.2676e-26  1.5593e-20
      5.05  1.9299e-29  5.411e-23  2.001e-29  5.4477e-23  2.136e-29  5.513e-23  2.3861e-29  5.6291e-23  2.964e-29  5.8357e-23  4.1783e-29  6.2029e-23  6.6335e-29  6.856e-23  1.215e-28  8.0175e-23  2.3493e-28  1.0083e-22  4.0739e-28  1.3758e-22  6.8908e-28  2.0296e-22  1.1417e-27  3.1933e-22  1.8558e-27  5.2661e-22  2.9497e-27  8.9627e-22  4.6603e-27  1.557e-21  7.4186e-27  2.7427e-21  1.2073e-26  4.8849e-21  2.0144e-26  8.801e-21  3.3986e-26  1.6103e-20
      5.10  1.6901e-29  4.2703e-23  1.7689e-29  4.3061e-23  1.9348e-29  4.3696e-23  2.2915e-29  4.4826e-23  3.175e-29  4.6835e-23  4.823e-29  5.0408e-23  8.6902e-29  5.6761e-23  1.7858e-28  6.8061e-23  3.2425e-28  8.8158e-23  5.4935e-28  1.2391e-22  8.9181e-28  1.8752e-22  1.4032e-27  3.0075e-22  2.152e-27  5.0247e-22  3.2417e-27  8.6231e-22  4.9018e-27  1.5058e-21  7.4343e-27  2.6615e-21  1.1576e-26  4.7528e-21  1.8853e-26  8.5854e-21  3.1775e-26  1.5761e-20
      5.15  1.5661e-29  3.3955e-23  1.6527e-29  3.4309e-23  1.8927e-29  3.4941e-23  2.5374e-29  3.6063e-23  3.7853e-29  3.8059e-23  6.5264e-29  4.2024e-23  1.2735e-28  4.792e-23  2.5006e-28  5.9145e-23  4.3663e-28  7.9111e-23  7.1121e-28  1.1463e-22  1.0939e-27  1.7783e-22  1.6293e-27  2.9033e-22  2.3773e-27  4.9079e-22  3.4361e-27  8.4846e-22  4.733e-27  1.4884e-21  6.9127e-27  2.6384e-21  1.069e-26  4.722e-21  1.7391e-26  8.5485e-21  2.9401e-26  1.5737e-20
      5.20  1.5109e-29  2.7415e-23  1.6555e-29  2.7781e-23  2.0481e-29  2.8431e-23  3.0594e-29  2.9588e-23  4.9468e-29  3.1646e-23  9.3848e-29  3.5304e-23  1.9726e-28  4.181e-23  3.3882e-28  5.3381e-23  5.5332e-28  7.3961e-23  8.6755e-28  1.1057e-22  1.2821e-27  1.7572e-22  1.8286e-27  2.9171e-22  2.5403e-27  4.9838e-22  3.2472e-27  8.6724e-22  4.4221e-27  1.5274e-21  6.4655e-27  2.7145e-21  1.0086e-26  4.8675e-21  1.6575e-26  8.8287e-21  2.8342e-26  1.6292e-20
      5.25  1.5008e-29  2.2515e-23  1.7275e-29  2.2892e-23  2.3794e-29  2.3562e-23  4.0119e-29  2.4754e-23  7.3279e-29  2.6873e-23  1.3378e-28  3.0643e-23  2.5523e-28  3.7346e-23  4.1937e-28  4.9267e-23  6.4881e-28  7.0472e-23  9.7767e-28  1.082e-22  1.4136e-27  1.7532e-22  1.9736e-27  2.9484e-22  2.4187e-27  5.0784e-22  3.1451e-27  8.8807e-22  4.3928e-27  1.5688e-21  6.5721e-27  2.7937e-21  1.042e-26  5.0177e-21  1.7337e-26  9.117e-21  3.0042e-26  1.6864e-20
      5.30  1.5326e-29  1.8805e-23  1.9394e-29  1.9188e-23  3.0774e-29  1.9869e-23  6.1358e-29  2.1081e-23  9.8211e-29  2.3235e-23  1.6936e-28  2.7067e-23  2.9679e-28  3.3881e-23  4.6689e-28    4.6e-23  7.1438e-28  6.7557e-23  1.0358e-27  1.0591e-22  1.5095e-27  1.7415e-22  1.9019e-27  2.9567e-22  2.3896e-27  5.1226e-22  3.1115e-27  8.9897e-22  4.2998e-27  1.5916e-21  6.3718e-27  2.8388e-21  9.9161e-27  5.106e-21  1.6348e-26  9.2935e-21  2.8237e-26  1.7233e-20
      5.35  1.6553e-29  1.5975e-23  2.3618e-29  1.6365e-23  4.4236e-29  1.7059e-23  7.6707e-29  1.8292e-23  1.1948e-28  2.0485e-23  1.911e-28  2.4385e-23  3.2077e-28  3.1321e-23  4.9259e-28  4.3657e-23  7.3583e-28   6.56e-23  1.1134e-27  1.0464e-22  1.5479e-27  1.7411e-22  1.8362e-27  2.9782e-22  2.2738e-27  5.1835e-22  2.9636e-27  9.122e-22  4.1123e-27  1.6179e-21  6.0093e-27  2.8895e-21  9.4113e-27  5.2039e-21  1.5574e-26  9.4872e-21  2.7019e-26  1.7634e-20
      5.40  1.7742e-29  1.3765e-23  2.7659e-29  1.4145e-23  5.1653e-29  1.482e-23  7.9796e-29  1.6022e-23  1.2538e-28  1.8158e-23  1.9027e-28  2.1958e-23  3.071e-28  2.8715e-23  5.0841e-28  4.0733e-23  7.7141e-28  6.2111e-23  1.2073e-27  1.0014e-22  1.485e-27  1.6783e-22  1.7817e-27  2.8838e-22  2.2471e-27  5.0329e-22  2.9766e-27  8.8721e-22  4.1902e-27  1.5754e-21  6.1755e-27  2.8167e-21  9.6413e-27  5.0789e-21  1.596e-26  9.2757e-21  2.7707e-26  1.7289e-20
      5.45  1.6122e-29  1.197e-23  2.3754e-29  1.2288e-23  4.5202e-29  1.2855e-23  6.9452e-29  1.3862e-23  1.0639e-28  1.5653e-23  1.724e-28  1.8839e-23  2.8356e-28  2.4503e-23  4.6523e-28  3.4579e-23  7.8815e-28  5.2499e-23  1.2657e-27  8.4382e-23  1.4979e-27  1.4113e-22  1.8463e-27  2.4221e-22  2.3706e-27  4.2245e-22  3.093e-27  7.4455e-22  4.2599e-27  1.3223e-21  6.2038e-27  2.3655e-21  9.5926e-27  4.2706e-21  1.5735e-26  7.816e-21  2.7232e-26  1.462e-20
      5.50  1.3389e-29  1.0474e-23  1.6477e-29  1.0704e-23  2.5088e-29  1.1112e-23  5.001e-29  1.1838e-23  8.3778e-29  1.313e-23  1.4187e-28  1.5426e-23  2.5055e-28  1.9511e-23  4.4015e-28  2.6775e-23  7.5987e-28  3.9695e-23  1.2132e-27  6.2682e-23  1.5716e-27  1.036e-22  1.9723e-27  1.7649e-22  2.4145e-27  3.065e-22  3.0692e-27  5.3891e-22  4.0256e-27  9.5608e-22  5.628e-27  1.7102e-21  8.4424e-27  3.0898e-21  1.3532e-26  5.6657e-21  2.3024e-26  1.0633e-20
      5.55  1.2066e-29  9.308e-24  1.3562e-29  9.4807e-24  1.7811e-29  9.7878e-24  2.9826e-29  1.0334e-23  6.0986e-29  1.1305e-23  1.2515e-28  1.3032e-23  2.411e-28  1.6103e-23  4.481e-28  2.1565e-23  7.9214e-28  3.1281e-23  1.2095e-27  4.8567e-23  1.6031e-27  7.934e-23  1.9697e-27  1.3416e-22  2.3504e-27  2.3196e-22  2.8333e-27  4.0683e-22  3.5992e-27  7.2085e-22  4.8419e-27  1.2889e-21  7.034e-27  2.3295e-21  1.1018e-26  4.2762e-21  1.8406e-26  8.0425e-21
      5.60  1.1528e-29  8.4113e-24  1.3092e-29  8.5612e-24  1.7582e-29  8.8278e-24  3.0645e-29  9.3018e-24  5.5682e-29  1.0145e-23  1.1603e-28  1.1644e-23  2.4923e-28  1.4309e-23  4.7572e-28  1.905e-23  8.6918e-28  2.7482e-23  1.203e-27  4.2488e-23  1.5703e-27   6.92e-23  1.816e-27  1.1679e-22  2.0978e-27  2.0169e-22  2.4972e-27  3.5354e-22  3.1302e-27  6.2626e-22  4.1568e-27  1.1198e-21  5.9547e-27  2.0247e-21  9.2172e-27  3.7194e-21  1.5265e-26  7.0045e-21
      5.65  1.1153e-29  7.7117e-24  1.3171e-29  7.8548e-24  1.8885e-29  8.1093e-24  3.5339e-29  8.5617e-24  6.6518e-29  9.3663e-24  1.2995e-28  1.0797e-23  2.5989e-28  1.3342e-23  5.0849e-28  1.7867e-23  9.2025e-28  2.5916e-23  1.212e-27  4.0241e-23  1.5125e-27  6.5743e-23  1.6845e-27  1.1118e-22  1.9318e-27  1.9224e-22  2.2788e-27  3.3723e-22  2.8575e-27  5.9769e-22  3.7945e-27  1.0692e-21  5.4461e-27  1.934e-21  8.4395e-27  3.5554e-21  1.4009e-26  6.7022e-21
      5.70  1.0791e-29  7.155e-24  1.3165e-29  7.2951e-24  2.054e-29  7.5441e-24  4.1521e-29  7.987e-24  7.5271e-29  8.7745e-24  1.4864e-28  1.0175e-23  2.9367e-28  1.2665e-23  5.7315e-28  1.7094e-23  9.0209e-28  2.4974e-23  1.1359e-27  3.8996e-23  1.3563e-27  6.3959e-23  1.5302e-27  1.0844e-22  1.7503e-27  1.8779e-22  2.0728e-27  3.2973e-22  2.6198e-27  5.8477e-22  3.5435e-27  1.0466e-21  5.167e-27  1.8941e-21  8.1212e-27  3.4842e-21  1.3645e-26  6.5743e-21
      5.75  1.017e-29  6.6481e-24  1.2763e-29  6.7814e-24  2.0685e-29  7.0186e-24  4.1011e-29  7.4403e-24  8.1582e-29  8.1902e-24  1.6273e-28  9.5236e-24  3.3508e-28  1.1895e-23  6.0422e-28  1.6112e-23  8.003e-28  2.3617e-23  9.8188e-28  3.697e-23  1.1262e-27  6.0743e-23  1.2981e-27  1.031e-22  1.5089e-27  1.7868e-22  1.8376e-27  3.1388e-22  2.3792e-27  5.5685e-22  3.3043e-27  9.9698e-22  4.9584e-27  1.8051e-21  7.9855e-27  3.3228e-21  1.3685e-26  6.2764e-21
      5.80  9.5032e-30  6.2575e-24  1.2087e-29  6.3799e-24  1.9594e-29  6.5977e-24  4.0019e-29  6.985e-24  8.5219e-29  7.6736e-24  1.8247e-28  8.8982e-24  3.451e-28  1.1076e-23  5.4144e-28  1.495e-23  6.8587e-28  2.1842e-23  8.3643e-28  3.4107e-23  9.4935e-28  5.5942e-23  1.1326e-27  9.4846e-23  1.3554e-27  1.6427e-22  1.6911e-27  2.8848e-22  2.2643e-27  5.1175e-22  3.2613e-27  9.1635e-22  5.0468e-27  1.6597e-21  8.3448e-27  3.0573e-21  1.4611e-26  5.7817e-21
      5.85  9.1101e-30  5.9602e-24  1.2176e-29  6.0756e-24  2.0482e-29  6.2809e-24  4.1547e-29  6.646e-24  9.3203e-29  7.295e-24  2.0201e-28  8.4492e-24  3.231e-28  1.0502e-23  4.787e-28  1.4154e-23  6.0238e-28  2.0652e-23  7.5357e-28  3.2213e-23  8.8686e-28  5.2797e-23  1.0474e-27  8.9474e-23  1.2888e-27  1.5493e-22  1.6658e-27  2.7205e-22  2.3204e-27  4.8262e-22  3.4676e-27  8.6436e-22  5.5451e-27  1.5662e-21  9.3973e-27  2.8871e-21  1.6769e-26  5.466e-21
      5.90  8.8522e-30  5.7437e-24  1.2566e-29  5.8589e-24  2.2428e-29  6.0638e-24  4.7197e-29  6.4282e-24  1.0468e-28  7.0761e-24  2.0623e-28  8.2283e-24  3.2635e-28  1.0278e-23  4.3489e-28  1.3924e-23  5.7487e-28  2.041e-23  7.1033e-28  3.1952e-23  8.4259e-28  5.2501e-23  1.0092e-27  8.9118e-23  1.2848e-27  1.5447e-22  1.747e-27  2.7142e-22  2.5413e-27  4.8172e-22  3.9567e-27  8.6312e-22  6.5339e-27  1.5647e-21  1.1339e-26  2.8864e-21   2.06e-26  5.4709e-21
      5.95  8.4798e-30  5.589e-24  1.259e-29  5.7066e-24  2.3506e-29  5.9158e-24  5.0935e-29  6.2877e-24  1.1396e-28  6.9489e-24  2.1284e-28  8.125e-24  3.3318e-28  1.0217e-23  4.4544e-28  1.3938e-23  5.5651e-28  2.0559e-23  6.7768e-28  3.234e-23  8.349e-28  5.3315e-23  1.0209e-27  9.0691e-23  1.327e-27  1.574e-22  1.8628e-27  2.768e-22  2.8048e-27  4.9156e-22  4.4876e-27  8.8116e-22  7.5658e-27  1.5983e-21  1.3326e-26  2.9506e-21  2.4486e-26  5.5989e-21
      6.00  7.833e-30  5.4798e-24  1.1779e-29  5.5978e-24  2.2427e-29  5.8076e-24  4.9714e-29  6.1807e-24  1.154e-28  6.9126e-24  2.3024e-28  8.0239e-24  3.4605e-28  1.0123e-23  4.492e-28  1.3856e-23  5.6505e-28  2.0498e-23  6.9497e-28  3.2317e-23  8.5663e-28  5.3361e-23  1.0918e-27  9.0862e-23  1.4745e-27  1.578e-22  2.1462e-27  2.7762e-22  3.342e-27  4.9319e-22  5.504e-27  8.8442e-22  9.4668e-27  1.6051e-21  1.6907e-26  2.9655e-21  3.1394e-26  5.634e-21
      6.05  6.9525e-30  5.4229e-24  1.0244e-29  5.5376e-24  1.9318e-29  5.7415e-24  4.3324e-29  6.104e-24  1.0287e-28  6.7486e-24  2.3064e-28  7.8947e-24  3.5406e-28  9.9336e-24  4.6547e-28  1.3561e-23  5.8005e-28  2.0014e-23  7.1056e-28  3.1497e-23  8.7583e-28  5.1944e-23  1.1451e-27  8.8382e-23  1.6026e-27  1.5343e-22  2.4099e-27  2.6988e-22  3.8548e-27  4.7945e-22  6.4704e-27  8.5996e-22  1.1275e-26  1.5614e-21  2.0321e-26  2.8872e-21  3.8002e-26  5.4928e-21
      6.10  6.3374e-30  5.3978e-24  9.0851e-30  5.5065e-24  1.6595e-29  5.6999e-24  3.6351e-29  6.0436e-24  8.7208e-29  6.6549e-24  2.0036e-28  7.7417e-24  3.324e-28  9.6748e-24  4.5627e-28  1.3114e-23  5.6243e-28  1.9233e-23  6.8197e-28  3.0122e-23  8.6926e-28  4.951e-23  1.1708e-27  8.4063e-23  1.6974e-27  1.4575e-22  2.6356e-27  2.5621e-22  4.3151e-27  4.5504e-22  7.3572e-27  8.1624e-22  1.2958e-26  1.4826e-21  2.3527e-26  2.7438e-21  4.425e-26  5.2273e-21
      6.15  5.9952e-30  5.4001e-24  8.435e-30  5.5009e-24  1.4929e-29  5.6803e-24  3.2071e-29  5.9991e-24  7.3093e-29  6.5661e-24  1.5247e-28  7.5742e-24  2.5026e-28  9.3673e-24  3.8329e-28  1.2557e-23  4.8948e-28  1.8232e-23  6.176e-28  2.8331e-23  8.1858e-28  4.6313e-23  1.1455e-27  7.8364e-23  1.7253e-27  1.3559e-22  2.7569e-27  2.3807e-22  4.6122e-27  4.226e-22  7.9766e-27  7.5797e-22  1.4176e-26  1.3772e-21  2.5897e-26  2.5508e-21  4.8945e-26  4.8664e-21
      6.20  5.7744e-30  5.4243e-24  8.243e-30  5.5144e-24  1.4306e-29  5.6746e-24  2.8907e-29  5.9595e-24  5.8204e-29  6.466e-24  1.1265e-28  7.3666e-24  1.8163e-28  8.9683e-24  2.7203e-28  1.1817e-23  3.8081e-28  1.6886e-23  5.1906e-28  2.5907e-23  7.2152e-28  4.1968e-23  1.0671e-27  7.0597e-23  1.6682e-27  1.2172e-22  2.7437e-27  2.1328e-22  4.6768e-27  3.7821e-22  8.1867e-27  6.7812e-22  1.4662e-26  1.2324e-21  2.6926e-26  2.2842e-21  5.1105e-26  4.364e-21
      6.25  5.2747e-30  5.4663e-24  7.5112e-30  5.5422e-24  1.2599e-29  5.677e-24  2.3246e-29  5.9167e-24  4.4055e-29  6.343e-24  8.2015e-29  7.1009e-24  1.2792e-28  8.4488e-24  1.9352e-28  1.0846e-23  2.8161e-28  1.5111e-23  4.0839e-28  2.2701e-23  6.0668e-28  3.6216e-23   9.46e-28  6.0307e-23  1.5395e-27  1.0333e-22  2.5961e-27  1.804e-22  4.4933e-27  3.1927e-22  7.9411e-27  5.7194e-22  1.431e-26  1.0393e-21  2.6392e-26  1.9277e-21  5.0272e-26  3.6883e-21
      6.30  4.6134e-30  5.5498e-24  6.3645e-30  5.6103e-24  9.9254e-30  5.7179e-24  1.7667e-29  5.9092e-24  3.1765e-29  6.2493e-24  5.776e-29  6.854e-24  8.554e-29  7.9296e-24  1.3436e-28  9.8424e-24  2.0875e-28  1.3245e-23  3.1543e-28  1.9301e-23  4.9943e-28  3.0083e-23  8.1234e-28  4.9304e-23  1.3663e-27  8.3632e-23  2.3494e-27  1.4515e-22  4.1171e-27  2.5602e-22  7.3311e-27  4.5786e-22  1.3274e-26  8.3162e-22  2.4568e-26  1.5431e-21  4.6944e-26  2.9566e-21
      6.35  4.014e-30  5.6563e-24  5.2438e-30  5.7042e-24  7.7444e-30  5.7893e-24  1.2903e-29  5.9407e-24  2.3419e-29  6.2099e-24  4.2099e-29  6.6885e-24  5.8898e-29  7.5396e-24  9.0196e-29  9.0534e-24  1.4727e-28  1.1746e-23  2.4733e-28  1.6538e-23  4.0905e-28  2.5071e-23  6.9498e-28  4.0282e-23  1.1962e-27  6.7451e-23  2.0893e-27  1.1615e-22  3.6997e-27  2.0394e-22  6.6306e-27  3.6388e-22  1.2056e-26  6.6034e-22  2.2382e-26  1.2256e-21  4.2894e-26  2.3513e-21
      6.40  3.4742e-30  5.7853e-24  4.4672e-30  5.8241e-24  6.4986e-30  5.8933e-24  9.9858e-30  6.0162e-24  1.6915e-29  6.2348e-24  3.1308e-29  6.6234e-24  4.4169e-29  7.3145e-24  6.687e-29  8.5437e-24  1.1085e-28  1.073e-23  1.9531e-28  1.4621e-23  3.4749e-28  2.155e-23  6.1571e-28  3.3902e-23  1.0892e-27  5.5967e-23  1.9357e-27  9.5521e-23  3.4655e-27  1.6686e-22  6.252e-27  2.969e-22  1.1417e-26  5.3818e-22  2.1267e-26  9.9896e-22  4.0884e-26  1.9187e-21
      6.45  2.9957e-30  5.9333e-24  3.9437e-30  5.9654e-24  5.495e-30  6.0226e-24  8.3754e-30  6.1243e-24  1.3388e-29  6.3051e-24  2.3685e-29  6.6265e-24  3.7415e-29  7.1982e-24  5.7612e-29  8.2149e-24  9.739e-29  1.0023e-23  1.7437e-28  1.3241e-23  3.1903e-28  1.8972e-23  5.8117e-28  2.9188e-23  1.051e-27  4.7439e-23  1.8981e-27  8.0163e-23  3.4255e-27  1.392e-22  6.2126e-27  2.4688e-22  1.1387e-26  4.4684e-22  2.1272e-26  8.2929e-22  4.101e-26  1.5943e-21
      6.50  2.4875e-30  6.098e-24  3.3736e-30  6.1248e-24  4.5871e-30  6.1723e-24  6.8844e-30  6.2568e-24  1.0798e-29  6.4071e-24  1.8259e-29  6.6743e-24  2.9042e-29  7.1495e-24  4.6499e-29  7.9947e-24  7.9864e-29  9.498e-24  1.4502e-28  1.2173e-23  2.7046e-28  1.6936e-23  5.0582e-28  2.5428e-23  9.3448e-28  4.0601e-23  1.7097e-27  6.7808e-23  3.1145e-27  1.1691e-22  5.6821e-27  2.065e-22  1.0455e-26   3.73e-22  1.9588e-26  6.9184e-22  3.7865e-26  1.3307e-21
      6.55  2.0629e-30  6.3091e-24  2.8266e-30  6.3317e-24  3.7393e-30  6.372e-24   5.55e-30  6.4435e-24  8.9184e-30  6.5708e-24  1.5148e-29  6.797e-24  2.4396e-29  7.1994e-24  3.9097e-29  7.915e-24  6.888e-29  9.188e-24  1.2762e-28  1.1453e-23  2.4248e-28  1.5487e-23  4.6155e-28  2.2678e-23  8.6838e-28  3.5527e-23  1.6111e-27  5.857e-23  2.9607e-27  1.0016e-22  5.4317e-27  1.7608e-22  1.0033e-26  3.1727e-22  1.8854e-26  5.8787e-22  3.6536e-26  1.1309e-21
      6.60  1.7163e-30  6.5379e-24  2.3058e-30  6.5578e-24  3.1337e-30  6.5931e-24  4.5533e-30  6.6558e-24  7.441e-30  6.7674e-24  1.3256e-29  6.9659e-24  2.1704e-29  7.3189e-24  3.5164e-29  7.9466e-24  6.3071e-29  9.0634e-24  1.1961e-28  1.1051e-23  2.3107e-28  1.4589e-23  4.4591e-28  2.0899e-23  8.4937e-28  3.2173e-23  1.5933e-27  5.2392e-23  2.9541e-27  8.8896e-23  5.4507e-27  1.5554e-22  1.0107e-26  2.7954e-22  1.9043e-26  5.1737e-22  3.6986e-26  9.9513e-22
      6.65  1.4294e-30  6.7833e-24  1.8872e-30  6.8014e-24  2.5701e-30  6.8336e-24  3.8264e-30  6.9598e-24  6.1444e-30  6.9928e-24  1.146e-29  7.1739e-24  1.9192e-29  7.496e-24  3.1862e-29  8.0689e-24  5.8733e-29  9.088e-24  1.1407e-28  1.0902e-23  2.2413e-28  1.4132e-23  4.3785e-28  1.989e-23  8.4283e-28  3.018e-23  1.5963e-27  4.8638e-23  2.9826e-27  8.1964e-23  5.5342e-27  1.4282e-22   1.03e-26  2.5609e-22  1.9457e-26  4.7348e-22  3.7869e-26  9.1054e-22
      6.70  1.1783e-30  7.0442e-24  1.5084e-30  7.0613e-24  2.0933e-30  7.0917e-24  3.1314e-30  7.1458e-24  5.2887e-30  7.2421e-24  1.0527e-29  7.4132e-24  1.9497e-29  7.7175e-24  3.4195e-29  8.2588e-24  6.5787e-29  9.2218e-24  1.3048e-28  1.0935e-23  2.5827e-28  1.3987e-23  5.0538e-28  1.9429e-23  9.7386e-28  2.9153e-23  1.8464e-27  4.6596e-23  3.456e-27  7.8093e-23  6.4254e-27  1.3562e-22  1.1978e-26  2.4274e-22  2.2657e-26  4.4841e-22  4.4153e-26  8.6221e-22
      6.75  9.9158e-31  7.3195e-24  1.2056e-30  7.3361e-24  1.7039e-30  7.3656e-24  2.6262e-30  7.4181e-24  4.8481e-30  7.5115e-24  1.0555e-29  7.6775e-24  2.059e-29  7.9727e-24  3.8497e-29  8.4978e-24  7.6294e-29  9.4319e-24  1.5277e-28  1.1094e-23  3.0177e-28  1.4055e-23  5.8873e-28  1.9334e-23  1.1305e-27  2.8768e-23  2.1398e-27  4.5691e-23  4.0034e-27  7.6253e-23  7.447e-27  1.3209e-22  1.3894e-26  2.3606e-22  2.6305e-26  4.3581e-22  5.131e-26  8.3794e-22
      6.80  8.3044e-31  7.6484e-24  9.7338e-31  7.6648e-24  1.3889e-30  7.6941e-24  2.284e-30  7.7461e-24  4.4803e-30  7.8386e-24  1.0031e-29  8.003e-24  2.1376e-29  8.2954e-24  4.096e-29  8.8156e-24  8.2372e-29  9.7409e-24  1.6477e-28  1.1388e-23  3.2432e-28  1.4321e-23  6.3087e-28  1.955e-23   1.21e-27  2.8896e-23  2.2896e-27  4.5663e-23  4.2871e-27  7.5945e-23  7.9863e-27  1.3127e-22  1.4922e-26  2.3434e-22  2.829e-26  4.3241e-22  5.5246e-26  8.314e-22
      6.85  7.0013e-31  7.995e-24  7.9119e-31  8.0115e-24    1.1e-30  8.041e-24  1.9233e-30  8.0933e-24  3.9115e-30  8.1865e-24  9.5059e-30  8.352e-24  2.2541e-29  8.6464e-24  4.4661e-29  9.1701e-24  9.1895e-29  1.0102e-23  1.8384e-28  1.176e-23  3.6278e-28  1.4713e-23  7.0481e-28  1.9978e-23  1.3504e-27  2.9389e-23  2.5528e-27  4.6272e-23  4.7775e-27  7.6768e-23  8.9007e-27  1.3249e-22  1.664e-26  2.3632e-22  3.1569e-26  4.3593e-22  6.1703e-26  8.3822e-22
      6.90  5.9651e-31  8.3586e-24  6.7457e-31  8.3754e-24  9.0952e-31  8.4052e-24  1.6007e-30  8.4582e-24  3.6133e-30  8.5525e-24  9.6827e-30  8.7202e-24  2.4343e-29  9.0183e-24   5.01e-29  9.5485e-24  1.0521e-28  1.0492e-23  2.1151e-28  1.2171e-23  4.202e-28  1.516e-23  8.218e-28  2.0492e-23  1.5772e-27  3.002e-23  2.9789e-27  4.7116e-23  5.5662e-27  7.7997e-23  1.0358e-26  1.3444e-22  1.9355e-26  2.3961e-22  3.6721e-26  4.4188e-22   7.18e-26  8.4973e-22
      6.95  5.1355e-31  8.7387e-24  5.8648e-31  8.7555e-24  8.0271e-31  8.7855e-24  1.4762e-30  8.8387e-24  3.5475e-30  8.9335e-24   9.54e-30  9.1019e-24  2.4888e-29  9.4015e-24  5.1627e-29  9.9343e-24  1.0671e-28  1.0882e-23  2.1371e-28  1.2569e-23  4.2919e-28  1.5573e-23  8.4553e-28  2.093e-23  1.6286e-27  3.0504e-23  3.082e-27  4.7682e-23  5.7662e-27  7.8715e-23  1.0739e-26  1.3544e-22  2.0083e-26  2.4117e-22  3.8133e-26  4.4456e-22  7.4626e-26  8.5487e-22
      7.00  4.4416e-31  9.1344e-24  5.1511e-31  9.151e-24  7.3345e-31  9.1805e-24  1.3894e-30  9.233e-24  3.3315e-30  9.3263e-24  9.0587e-30  9.4922e-24  2.5346e-29  9.7873e-24  5.2202e-29  1.0312e-23  1.0477e-28  1.1246e-23  2.1272e-28  1.2907e-23  4.3157e-28  1.5866e-23  8.5628e-28  2.1142e-23  1.659e-27  3.0571e-23  3.1547e-27  4.749e-23  5.921e-27  7.8057e-23  1.1051e-26  1.3393e-22  2.0693e-26  2.3811e-22  3.9336e-26  4.3858e-22  7.7057e-26  8.4317e-22
      7.05  3.729e-31  9.5958e-24  4.4045e-31  9.6117e-24  6.4219e-31  9.6399e-24  1.2424e-30   9.69e-24  3.0428e-30  9.7791e-24  8.388e-30  9.9376e-24  2.3991e-29  1.0219e-23  5.1627e-29  1.0721e-23  1.0474e-28  1.1612e-23  2.1387e-28  1.3199e-23  4.3722e-28  1.6024e-23  8.7668e-28  2.1062e-23  1.721e-27  3.0066e-23  3.3028e-27  4.6221e-23  6.2368e-27  7.541e-23  1.1683e-26  1.2877e-22  2.1928e-26  2.2828e-22  4.1746e-26  4.1983e-22  8.1874e-26  8.0659e-22
      7.10  3.0963e-31  1.0078e-23  3.6604e-31  1.0093e-23  5.4637e-31  1.0118e-23  1.0735e-30  1.0164e-23  2.7118e-30  1.0246e-23  7.6387e-30  1.0392e-23  2.2146e-29  1.065e-23  5.1471e-29  1.111e-23  1.0596e-28  1.1928e-23   2.16e-28  1.3384e-23  4.4175e-28  1.5975e-23  9.0367e-28  2.0596e-23  1.8053e-27  2.8853e-23  3.5112e-27  4.3669e-23  6.6876e-27  7.0438e-23  1.2595e-26  1.1938e-22  2.3718e-26  2.1067e-22  4.5246e-26  3.8644e-22  8.8866e-26  7.4149e-22
      7.15  2.5718e-31  1.0581e-23  3.0859e-31  1.0594e-23  4.6321e-31  1.0616e-23  9.3789e-31  1.0657e-23  2.401e-30  1.0729e-23  6.7327e-30  1.0856e-23  1.8918e-29  1.1083e-23  4.6143e-29  1.1487e-23  9.3151e-29  1.2205e-23  1.8654e-28  1.3483e-23  3.8667e-28  1.5757e-23  8.0511e-28  1.9812e-23  1.6419e-27  2.7056e-23  3.252e-27  4.0055e-23  6.2811e-27  6.3541e-23  1.1945e-26  1.0649e-22  2.2639e-26  1.8659e-22  4.3367e-26  3.4087e-22  8.5408e-26  6.5263e-22
      7.20   2.12e-31  1.1104e-23  2.5505e-31  1.1115e-23  3.8257e-31  1.1135e-23  7.8794e-31  1.1169e-23  1.9688e-30  1.1229e-23  5.3937e-30  1.1337e-23  1.496e-29  1.1529e-23  3.7983e-29  1.1871e-23  7.3519e-29  1.2478e-23  1.5042e-28  1.3559e-23  3.1729e-28  1.5482e-23  6.7469e-28  1.8909e-23  1.4123e-27  2.5031e-23  2.8675e-27  3.6015e-23  5.6509e-27  5.586e-23  1.0906e-26  9.2149e-23  2.0879e-26  1.5985e-22  4.0261e-26  2.9025e-22  7.963e-26  5.5385e-22
      7.25  1.7388e-31  1.1649e-23  2.0856e-31  1.1658e-23  3.1367e-31  1.1674e-23  6.2501e-31  1.1702e-23  1.5363e-30  1.1753e-23  4.1068e-30  1.1842e-23  1.1065e-29  1.2002e-23  2.7651e-29  1.2286e-23  5.528e-29  1.279e-23  1.1237e-28  1.3687e-23  2.4003e-28  1.5285e-23  5.2486e-28  1.8131e-23  1.1328e-27  2.3214e-23  2.3734e-27  3.2333e-23  4.8012e-27  4.8806e-23  9.451e-27  7.8928e-23  1.8345e-26  1.3512e-22  3.5702e-26  2.4339e-22  7.1034e-26  4.6227e-22
      7.30  1.4199e-31  1.2278e-23  1.6902e-31  1.2286e-23  2.4894e-31  1.2299e-23  4.8627e-31  1.2323e-23  1.1769e-30  1.2365e-23  3.031e-30  1.244e-23  8.071e-30  1.2573e-23  1.9769e-29  1.281e-23  4.1761e-29  1.3231e-23  8.4492e-29  1.3981e-23  1.7873e-28  1.5314e-23  4.0056e-28  1.7691e-23  8.9866e-28  2.1937e-23  1.9559e-27  2.955e-23  4.0907e-27  4.3303e-23  8.2616e-27  6.8448e-23  1.6333e-26  1.1536e-22  3.2181e-26  2.0574e-22  6.4538e-26  3.8847e-22
      7.35  1.159e-31  1.2936e-23  1.3622e-31  1.2943e-23  1.9633e-31  1.2954e-23  3.7467e-31  1.2974e-23  8.9445e-31  1.301e-23  2.2665e-30  1.3074e-23  5.9153e-30  1.3188e-23  1.4883e-29  1.3389e-23  3.2739e-29  1.3748e-23  6.5833e-29  1.4387e-23  1.3961e-28  1.5524e-23  3.1805e-28  1.7551e-23  7.3904e-28  2.117e-23  1.6688e-27  2.766e-23  3.5982e-27  3.9383e-23  7.4472e-27  6.0814e-23  1.4991e-26  1.0079e-22  2.9907e-26  1.7782e-22  6.0468e-26  3.3354e-22
      7.40  9.4678e-32  1.3623e-23  1.1019e-31  1.3628e-23  1.5611e-31  1.3638e-23  2.8993e-31  1.3656e-23  6.9139e-31  1.3687e-23  1.7231e-30  1.3743e-23  4.445e-30  1.3842e-23  1.1763e-29  1.4019e-23  2.7914e-29  1.4333e-23  5.5194e-29  1.4892e-23  1.1596e-28  1.5886e-23  2.6689e-28  1.7659e-23  6.3078e-28  2.0825e-23  1.4618e-27  2.6504e-23  3.2397e-27  3.6759e-23  6.8597e-27  5.5507e-23  1.4046e-26  9.0477e-23  2.8359e-26  1.5784e-22  5.7795e-26  2.9403e-22
      7.45  7.6774e-32  1.4338e-23  8.9789e-32  1.4343e-23   1.25e-31  1.4352e-23  2.3241e-31  1.4367e-23  5.4727e-31  1.4396e-23  1.3671e-30  1.4446e-23  3.5665e-30  1.4535e-23  9.4593e-30  1.4693e-23  2.2343e-29  1.4975e-23  4.2773e-29  1.5477e-23  8.9198e-29  1.637e-23  2.0542e-28  1.7963e-23  4.9738e-28  2.0808e-23  1.1849e-27  2.591e-23  2.7081e-27  3.5125e-23  5.8957e-27  5.1969e-23  1.2339e-26  8.3386e-23  2.5304e-26  1.439e-22  5.2119e-26  2.6622e-22
      7.50  6.3622e-32  1.508e-23  7.3124e-32  1.5085e-23  1.0325e-31  1.5093e-23  1.9201e-31  1.5108e-23  4.5404e-31  1.5133e-23  1.1273e-30  1.518e-23  2.9588e-30  1.5262e-23  7.9213e-30  1.5407e-23  1.8446e-29  1.5667e-23  3.5288e-29  1.6129e-23  7.2515e-29  1.6951e-23  1.6755e-28  1.8418e-23  4.0769e-28  2.1038e-23  9.9213e-28  2.5737e-23  2.3306e-27  3.4223e-23  5.2123e-27  4.9736e-23  1.1153e-26  7.8668e-23  2.3251e-26  1.3439e-22  4.8424e-26   2.47e-22
      7.55  5.1931e-32  1.5932e-23  6.1325e-32  1.5936e-23  8.8062e-32  1.5944e-23  1.6497e-31  1.5957e-23  3.9487e-31  1.5982e-23  9.9379e-31  1.6025e-23  2.6268e-30  1.6102e-23  6.9887e-30  1.624e-23  1.5849e-29  1.6484e-23  3.0569e-29  1.692e-23  6.1903e-29  1.7695e-23  1.4142e-28  1.9077e-23  3.4439e-28  2.1546e-23  8.4957e-28  2.5976e-23  2.0424e-27  3.3977e-23  4.6903e-27  4.8602e-23  1.0281e-26  7.5875e-23  2.1841e-26  1.2839e-22  4.6097e-26  2.3451e-22
      7.60  4.2969e-32  1.6821e-23  5.1085e-32  1.6825e-23  7.6326e-32  1.6832e-23  1.4913e-31  1.6846e-23  3.6284e-31  1.6869e-23  9.2323e-31  1.6911e-23  2.4797e-30  1.6985e-23  6.5103e-30  1.7117e-23  1.3708e-29  1.7352e-23  2.6931e-29  1.7771e-23  5.3172e-29  1.8516e-23  1.181e-28  1.9845e-23  2.8272e-28  2.222e-23  6.962e-28  2.648e-23  1.6942e-27  3.4175e-23  3.9692e-27  4.8241e-23  8.8875e-27  7.447e-23  1.9225e-26  1.2497e-22  4.1127e-26  2.2701e-22
      7.65  3.6003e-32  1.7748e-23  4.3728e-32  1.7752e-23  6.7271e-32  1.7759e-23  1.3626e-31  1.7772e-23  3.3758e-31  1.7795e-23  8.8562e-31  1.7836e-23  2.3682e-30  1.7909e-23  6.1965e-30  1.8038e-23  1.2154e-29  1.8268e-23  2.3968e-29  1.8677e-23  4.663e-29  1.9405e-23  1.0052e-28  2.0704e-23  2.3504e-28  2.3026e-23  5.7309e-28  2.7191e-23  1.4018e-27  3.4715e-23  3.3366e-27  4.8468e-23  7.621e-27  7.4114e-23  1.6794e-26  1.2349e-22  3.6455e-26  2.2323e-22
      7.70  2.9862e-32  1.8713e-23   3.72e-32  1.8717e-23  5.9739e-32  1.8724e-23  1.2545e-31  1.8737e-23  3.1622e-31  1.876e-23  8.3695e-31   1.88e-23  2.2643e-30  1.8872e-23  5.9861e-30    1.9e-23  1.0969e-29  1.9227e-23  2.1313e-29  1.9632e-23  4.1559e-29  2.0354e-23  8.6491e-29  2.164e-23  1.9693e-28  2.394e-23  4.7293e-28  2.8065e-23  1.156e-27  3.5518e-23  2.7837e-27  4.9141e-23  6.4749e-27  7.4543e-23  1.454e-26  1.2345e-22  3.2062e-26  2.2222e-22
      7.75  2.4932e-32  1.9715e-23  3.1933e-32  1.972e-23  5.308e-32  1.9727e-23  1.1655e-31  1.974e-23  2.9801e-31  1.9762e-23  8.0674e-31  1.9803e-23  2.1735e-30  1.9874e-23  5.4564e-30  2.0002e-23  1.0096e-29  2.023e-23  1.9127e-29  2.0635e-23  3.6899e-29  2.1356e-23  7.5326e-29  2.2641e-23  1.6667e-28  2.494e-23  3.9216e-28  2.9063e-23  9.5184e-28  3.6513e-23  2.3075e-27  5.0132e-23  5.452e-27  7.5526e-23  1.2471e-26  1.2441e-22  2.7965e-26  2.2314e-22
      7.80  2.0865e-32  2.0859e-23  2.7488e-32  2.0863e-23  4.8135e-32  2.087e-23  1.0797e-31  2.0883e-23  2.7956e-31  2.0906e-23  7.6591e-31  2.0947e-23  2.0716e-30  2.1019e-23  5.1616e-30  2.1359e-23  9.1438e-30  2.1377e-23  1.729e-29  2.1784e-23  3.3321e-29  2.2511e-23  6.5889e-29  2.3806e-23  1.4217e-28  2.612e-23  3.268e-28  3.0274e-23  7.8399e-28  3.7777e-23  1.9046e-27  5.1494e-23  4.559e-27  7.7071e-23  1.0619e-26  1.263e-22  2.4236e-26  2.2573e-22
      7.85  1.7458e-32  2.2054e-23  2.3397e-32  2.2058e-23  4.2925e-32  2.2065e-23  9.8739e-32  2.2078e-23  2.5577e-31  2.2101e-23  7.0439e-31  2.2142e-23  1.9353e-30  2.2215e-23  4.5792e-30  2.2345e-23  8.3794e-30  2.2576e-23  1.552e-29  2.2988e-23  2.9564e-29  2.3721e-23  5.7998e-29  2.5029e-23  1.2169e-28  2.7366e-23  2.7315e-28  3.156e-23  6.4586e-28  3.9136e-23  1.5666e-27  5.2987e-23  3.7888e-27  7.8813e-23  8.9803e-27  1.2852e-22  2.0885e-26  2.289e-22
      7.90  1.4471e-32   2.33e-23  1.9881e-32  2.3304e-23  3.7499e-32  2.3311e-23  8.835e-32  2.3325e-23  2.3265e-31  2.3348e-23  6.3493e-31  2.3389e-23  1.7586e-30  2.3463e-23  3.9721e-30  2.3594e-23  7.2436e-30  2.3828e-23  1.3334e-29  2.4243e-23  2.5216e-29  2.4983e-23  4.8829e-29  2.6303e-23  1.0042e-28  2.8662e-23  2.2067e-28  3.2896e-23  5.1425e-28  4.0544e-23  1.2438e-27  5.4526e-23  3.0373e-27  8.0597e-23   7.33e-27  1.3077e-22  1.7404e-26  2.3208e-22
      7.95  1.2187e-32  2.4598e-23  1.6969e-32  2.4602e-23  3.2369e-32  2.4609e-23  7.6534e-32  2.4623e-23  2.0237e-31  2.4646e-23  5.6349e-31  2.4688e-23  1.5555e-30  2.4762e-23  3.3632e-30  2.4894e-23  6.1171e-30  2.5129e-23  1.1199e-29  2.5547e-23  2.0981e-29  2.6292e-23  4.0356e-29  2.762e-23  8.0932e-29  2.9994e-23  1.7556e-28  3.4253e-23  4.0256e-28  4.195e-23  9.6732e-28  5.6019e-23  2.3745e-27  8.2251e-23  5.8158e-27  1.3274e-22  1.4076e-26  2.3466e-22
      8.00  1.0147e-32  2.5948e-23  1.4201e-32  2.5952e-23  2.738e-32  2.5959e-23  6.5942e-32  2.5972e-23  1.7452e-31  2.5996e-23  4.7683e-31  2.6038e-23  1.3333e-30  2.6112e-23  2.7906e-30  2.6244e-23  5.0173e-30  2.648e-23  9.2337e-30  2.6899e-23  1.7173e-29  2.7645e-23  3.2847e-29  2.8976e-23  6.533e-29  3.1355e-23  1.382e-28  3.5624e-23  3.1176e-28  4.3337e-23  7.4249e-28  5.7437e-23  1.8258e-27  8.3725e-23  4.5232e-27  1.3431e-22  1.1136e-26  2.3643e-22
      8.05  8.4272e-33  2.7482e-23  1.1752e-32  2.7486e-23  2.2685e-32  2.7493e-23  5.4723e-32  2.7507e-23  1.448e-31  2.753e-23  3.9957e-31  2.7572e-23  1.0966e-30  2.7646e-23  2.2658e-30  2.7779e-23  4.0677e-30  2.8014e-23  7.3939e-30  2.8433e-23  1.3819e-29  2.918e-23  2.6214e-29  3.0512e-23  5.1704e-29  3.2892e-23  1.0779e-28  3.7163e-23  2.3981e-28  4.4879e-23  5.6628e-28  5.8984e-23  1.3929e-27  8.528e-23  3.4843e-27  1.3588e-22  8.714e-27   2.38e-22
      8.10  6.9915e-33  2.9086e-23  9.6369e-33  2.9091e-23  1.8326e-32  2.9098e-23  4.3908e-32  2.9111e-23  1.1673e-31  2.9135e-23  3.1946e-31  2.9176e-23  8.9533e-31  2.9251e-23  1.8198e-30  2.9382e-23  3.2635e-30  2.9617e-23  5.8615e-30  3.0035e-23  1.0894e-29  3.078e-23  2.0594e-29  3.2107e-23  4.032e-29  3.448e-23  8.3078e-29  3.8737e-23  1.8264e-28  4.6429e-23  4.278e-28  6.0489e-23  1.0516e-27  8.6699e-23  2.6508e-27  1.3713e-22  6.7233e-27  2.3888e-22
      8.15  5.808e-33  3.0762e-23  7.8597e-33  3.0766e-23  1.4671e-32  3.0773e-23  3.4537e-32  3.0787e-23  9.2114e-32  3.081e-23  2.5449e-31  3.0851e-23  7.0772e-31  3.0925e-23  1.4067e-30  3.1056e-23  2.5493e-30  3.129e-23  4.613e-30  3.1706e-23  8.3916e-30  3.2446e-23  1.5769e-29  3.3766e-23  3.0943e-29  3.6126e-23  6.3097e-29  4.036e-23  1.3709e-28  4.801e-23  3.1819e-28  6.1992e-23  7.7999e-28  8.8055e-23  1.9767e-27  1.3819e-22  5.0751e-27  2.3933e-22
      8.20  4.8434e-33  3.2508e-23  6.402e-33  3.2512e-23  1.1627e-32  3.252e-23  2.6919e-32  3.2533e-23  7.0965e-32  3.2556e-23  1.9683e-31  3.2597e-23  5.4308e-31  3.267e-23  1.0832e-30  3.2801e-23  1.9635e-30  3.3033e-23  3.5148e-30  3.3446e-23  6.4395e-30  3.4181e-23  1.2054e-29  3.5493e-23  2.352e-29  3.7837e-23  4.7671e-29  4.2044e-23  1.0271e-28  4.9644e-23  2.3681e-28  6.3533e-23  5.7947e-28  8.942e-23  1.4756e-27  1.3921e-22  3.8302e-27  2.3963e-22
      8.25  4.0065e-33  3.4323e-23  5.203e-33  3.4327e-23  9.021e-33  3.4679e-23  2.0755e-32  3.4348e-23  5.4209e-32  3.4371e-23  1.4868e-31  3.4412e-23  4.1929e-31  3.4484e-23  8.2618e-31  3.4614e-23  1.4819e-30  3.4845e-23  2.6782e-30  3.5255e-23  4.8992e-30  3.5986e-23  9.2293e-30  3.7289e-23  1.7781e-29  3.9619e-23  3.5887e-29  4.3799e-23  7.6907e-29  5.135e-23  1.7656e-28  6.515e-23  4.3176e-28  9.0868e-23  1.1047e-27  1.4032e-22  2.8959e-27  2.4004e-22
      8.30  3.4182e-33  3.6376e-23  4.2877e-33  3.638e-23  7.026e-33  3.6387e-23  1.5569e-32   3.64e-23  4.0766e-32  3.6423e-23  1.1303e-31  3.6464e-23  3.1782e-31  3.6537e-23  6.3294e-31  3.6666e-23  1.1344e-30  3.6897e-23  2.0492e-30  3.7306e-23  3.7443e-30  3.8036e-23  6.9769e-30  3.9337e-23  1.3409e-29  4.1663e-23  2.6909e-29  4.5836e-23  5.7649e-29  5.3374e-23  1.3203e-28  6.7148e-23  3.2301e-28  9.2815e-23  8.3031e-28  1.4216e-22  2.1965e-27  2.4164e-22
      8.35  2.9218e-33  3.8514e-23  3.5548e-33  3.8518e-23  5.5607e-33  3.8525e-23  1.1822e-32  3.8538e-23  3.0059e-32  3.8561e-23  8.2637e-32  3.8602e-23  2.3698e-31  3.8675e-23  4.685e-31  3.8804e-23  8.3917e-31  3.9035e-23  1.5155e-30  3.9445e-23  2.7697e-30  4.0175e-23  5.1606e-30  4.1477e-23  9.9182e-30  4.3805e-23  1.9957e-29  4.798e-23  4.2694e-29  5.5523e-23  9.7991e-29  6.9306e-23  2.4071e-28  9.4984e-23  6.2312e-28  1.4434e-22  1.6541e-27  2.4381e-22
      8.40  2.5261e-33  4.0728e-23  2.9803e-33  4.0732e-23  4.4319e-33  4.074e-23  9.0204e-33  4.0753e-23  2.1992e-32  4.0776e-23  5.9986e-32  4.0817e-23  1.6782e-31  4.089e-23  3.3932e-31  4.102e-23  6.075e-31  4.1251e-23  1.0972e-30  4.1662e-23  2.0067e-30  4.2395e-23  3.744e-30  4.3702e-23  7.2106e-30  4.6037e-23  1.4555e-29  5.0227e-23  3.1278e-29  5.7795e-23  7.2235e-29  7.1623e-23  1.7878e-28  9.7382e-23  4.6706e-28  1.4689e-22  1.2531e-27  2.4662e-22
      8.45  2.2446e-33  4.344e-23  2.5303e-33  4.301e-23  3.608e-33  4.3018e-23  6.6885e-33  4.3031e-23  1.6356e-32  4.3054e-23  4.3934e-32  4.3095e-23  1.2213e-31  4.3169e-23  2.4539e-31   4.33e-23  4.4339e-31  4.3532e-23  8.0083e-31  4.3946e-23  1.4655e-30  4.4683e-23  2.7381e-30  4.5998e-23  5.2845e-30  4.8348e-23  1.0701e-29  5.2563e-23  2.3099e-29  6.0177e-23  5.3656e-29  7.4087e-23  1.3373e-28  9.9996e-23  3.523e-28  1.4978e-22   9.61e-28  2.5005e-22
      8.50  1.9698e-33  4.5331e-23  2.212e-33  4.5335e-23  3.0045e-33  4.5342e-23  5.2636e-33  4.5355e-23  1.2261e-32  4.5379e-23  3.2387e-32  4.542e-23  9.0042e-32  4.5495e-23  1.8085e-31  4.5626e-23  3.2658e-31  4.5861e-23  5.8981e-31  4.6278e-23  1.0799e-30  4.7022e-23  2.0199e-30  4.8347e-23  3.9063e-30  5.0717e-23  7.934e-30  5.4968e-23  1.7196e-29  6.2645e-23  4.015e-29  7.667e-23  1.007e-28  1.0279e-22  2.6724e-28  1.5297e-22  7.3527e-28   2.54e-22
