# This was generated using Cloudy10 and the columns are ordered 
# as log10 of the fraction of the metallicity to the solar metallicity
# 'h_*_Z' and 'c_*_Z' stands for cooling and heating respectively 
# at * metalicity
#
# Redshift = 6.0
# hden = 4.5
#     temp   h_-3.00_Z   c_-3.00_Z   h_-2.75_Z   c_-2.75_Z   h_-2.50_Z   c_-2.50_Z   h_-2.25_Z   c_-2.25_Z   h_-2.00_Z   c_-2.00_Z   h_-1.75_Z   c_-1.75_Z   h_-1.50_Z   c_-1.50_Z   h_-1.25_Z   c_-1.25_Z   h_-1.00_Z   c_-1.00_Z   h_-0.75_Z   c_-0.75_Z   h_-0.50_Z   c_-0.50_Z   h_-0.25_Z   c_-0.25_Z    h_0.00_Z    c_0.00_Z    h_0.25_Z    c_0.25_Z    h_0.50_Z    c_0.50_Z    h_0.75_Z    c_0.75_Z    h_1.00_Z    c_1.00_Z    h_1.25_Z    c_1.25_Z    h_1.50_Z    c_1.50_Z 
      1.00  1.0296e-28  2.0799e-32  1.0296e-28  2.1277e-32  1.0297e-28  2.2128e-32  1.0298e-28  2.3642e-32   1.03e-28  2.6333e-32  1.0303e-28  3.1122e-32  1.031e-28  3.9642e-32  1.0321e-28  5.4809e-32  1.0342e-28  8.183e-32  1.0379e-28  1.3002e-31  1.0447e-28  2.1613e-31  1.0574e-28  3.7027e-31  1.0822e-28  6.4672e-31  1.1319e-28  1.1428e-30  1.2319e-28  2.032e-30  1.4304e-28  3.6219e-30  1.8232e-28  6.461e-30  2.6235e-28  1.1531e-29  4.1065e-28  2.0533e-29
      1.05  1.0297e-28  2.3432e-32  1.0297e-28  2.407e-32  1.0298e-28  2.5205e-32  1.0299e-28  2.7222e-32  1.0301e-28  3.0812e-32  1.0305e-28  3.7197e-32  1.0311e-28  4.8558e-32  1.0322e-28  6.8782e-32  1.0343e-28  1.0481e-31  1.0379e-28  1.6907e-31  1.0446e-28  2.8388e-31  1.0572e-28  4.8943e-31  1.0816e-28  8.5814e-31  1.1309e-28  1.5201e-30  1.2304e-28  2.7073e-30  1.4285e-28  4.8317e-30  1.8196e-28  8.6275e-30  2.6153e-28  1.5416e-29  4.0992e-28  2.748e-29
      1.10  1.0298e-28  2.6395e-32  1.0299e-28  2.7225e-32  1.0299e-28   2.87e-32   1.03e-28  3.1325e-32  1.0302e-28  3.5992e-32  1.0306e-28  4.4295e-32  1.0312e-28  5.9069e-32  1.0323e-28  8.5366e-32  1.0343e-28  1.3221e-31  1.038e-28  2.1575e-31  1.0446e-28  3.6498e-31  1.057e-28  6.3212e-31  1.0812e-28  1.1114e-30  1.1302e-28  1.9727e-30  1.2294e-28  3.5194e-30  1.4271e-28  6.292e-30  1.8168e-28  1.1255e-29  2.6075e-28  2.0153e-29  4.0912e-28  3.5996e-29
      1.15   1.03e-28  2.973e-32   1.03e-28  3.079e-32  1.0301e-28  3.2675e-32  1.0302e-28  3.6027e-32  1.0304e-28  4.1988e-32  1.0307e-28  5.2593e-32  1.0313e-28  7.146e-32  1.0325e-28  1.0504e-31  1.0344e-28  1.6485e-31  1.038e-28  2.7148e-31  1.0446e-28  4.619e-31  1.0568e-28  8.0275e-31  1.0807e-28  1.4147e-30  1.1293e-28  2.5163e-30  1.228e-28  4.5001e-30  1.4251e-28  8.0683e-30  1.8132e-28  1.4479e-29  2.5974e-28  2.6021e-29  4.0794e-28  4.6645e-29
      1.20  1.0301e-28  3.3486e-32  1.0302e-28  3.4822e-32  1.0302e-28  3.7199e-32  1.0303e-28  4.1426e-32  1.0305e-28  4.8944e-32  1.0309e-28  6.2316e-32  1.0315e-28  8.6105e-32  1.0326e-28  1.2844e-31  1.0345e-28  2.0381e-31  1.038e-28  3.3813e-31  1.0445e-28  5.7789e-31  1.0565e-28  1.007e-30  1.0801e-28  1.7784e-30  1.1282e-28  3.1718e-30  1.2263e-28  5.6936e-30  1.4224e-28  1.0257e-29  1.8085e-28  1.8507e-29  2.5847e-28  3.3461e-29  4.0633e-28  6.0338e-29
      1.25  1.0303e-28  3.7717e-32  1.0303e-28  3.9387e-32  1.0304e-28  4.2357e-32  1.0305e-28  4.7639e-32  1.0307e-28  5.7033e-32  1.031e-28  7.374e-32  1.0316e-28  1.0346e-31  1.0327e-28  1.5632e-31  1.0346e-28  2.5041e-31  1.0381e-28  4.1797e-31  1.0444e-28  7.1685e-31  1.0563e-28  1.2518e-30  1.0794e-28  2.2155e-30  1.1269e-28  3.9661e-30  1.2242e-28  7.1602e-30  1.419e-28  1.2994e-29  1.8027e-28  2.3644e-29  2.5697e-28  4.3126e-29  4.0428e-28  7.8448e-29
      1.30  1.0305e-28  4.331e-32  1.0305e-28  4.5383e-32  1.0306e-28  4.9071e-32  1.0307e-28  5.5628e-32  1.0308e-28  6.7289e-32  1.0312e-28  8.8024e-32  1.0318e-28  1.249e-31  1.0328e-28  1.9047e-31  1.0347e-28  3.0708e-31  1.0381e-28  5.1459e-31  1.0443e-28  8.8356e-31  1.0558e-28  1.5454e-30  1.0786e-28  2.7418e-30  1.1254e-28  4.9337e-30  1.2217e-28  8.9803e-30  1.415e-28  1.6467e-29  1.7958e-28  3.0312e-29  2.5524e-28  5.5927e-29  4.0182e-28  1.0291e-28
      1.35  1.0307e-28  5.0937e-32  1.0307e-28  5.3499e-32  1.0307e-28  5.8056e-32  1.0309e-28  6.6159e-32  1.031e-28  8.0567e-32  1.0314e-28  1.0618e-31  1.0319e-28  1.5172e-31  1.033e-28  2.3265e-31  1.0348e-28  3.7647e-31  1.0381e-28  6.3207e-31  1.0441e-28  1.0871e-30  1.0554e-28  1.9015e-30  1.0777e-28  3.3775e-30  1.1238e-28  6.1188e-30  1.2189e-28  1.1258e-29  1.4103e-28  2.0921e-29  1.788e-28  3.9067e-29  2.5335e-28  7.3054e-29  3.9898e-28  1.3625e-28
      1.40  1.0309e-28  5.9472e-32  1.0309e-28  6.2631e-32  1.031e-28  6.8248e-32  1.031e-28  7.8235e-32  1.0312e-28  9.599e-32  1.0315e-28  1.2755e-31  1.0321e-28  1.8363e-31  1.0331e-28  2.8324e-31  1.0349e-28  4.6006e-31  1.0381e-28  7.7387e-31  1.044e-28  1.3317e-30  1.055e-28  2.3305e-30  1.0768e-28  4.1549e-30  1.122e-28  7.5792e-30  1.2159e-28  1.4128e-29  1.4053e-28  2.6666e-29  1.7794e-28  5.0609e-29  2.5136e-28  9.5972e-29  3.9584e-28  1.8152e-28
      1.45  1.0311e-28  6.9057e-32  1.0311e-28  7.2951e-32  1.0312e-28  7.9876e-32  1.0313e-28  9.2186e-32  1.0314e-28  1.1407e-31  1.0317e-28  1.5296e-31  1.0323e-28  2.2202e-31  1.0333e-28  3.4461e-31  1.035e-28  5.6196e-31  1.0381e-28  9.4707e-31  1.0438e-28  1.6305e-30  1.0546e-28  2.8546e-30  1.0758e-28  5.1053e-30  1.1201e-28  9.3969e-30  1.2126e-28  1.7768e-29  1.3999e-28   3.41e-29  1.7702e-28  6.5787e-29  2.4934e-28  1.2644e-28  3.9244e-28  2.4228e-28
      1.50  1.0313e-28  7.9873e-32  1.0313e-28  8.4695e-32  1.0314e-28  9.3268e-32  1.0315e-28  1.0851e-31  1.0316e-28  1.356e-31  1.0319e-28  1.8372e-31  1.0325e-28  2.6915e-31  1.0334e-28  4.2066e-31  1.0351e-28  6.8896e-31  1.0381e-28  1.1635e-30  1.0437e-28  2.0042e-30  1.054e-28  3.5103e-30  1.0746e-28  6.2983e-30  1.118e-28  1.1701e-29  1.2091e-28  2.2443e-29  1.3939e-28  4.3758e-29  1.7602e-28  8.5697e-29  2.4731e-28  1.6666e-28  3.8882e-28  3.2275e-28
      1.55  1.0315e-28  9.2227e-32  1.0316e-28  9.8294e-32  1.0316e-28  1.0908e-31  1.0317e-28  1.2826e-31  1.0319e-28  1.6233e-31  1.0321e-28  2.2285e-31  1.0327e-28  3.3024e-31  1.0336e-28  5.2056e-31  1.0352e-28  8.572e-31  1.0382e-28  1.4517e-30  1.0435e-28  2.503e-30  1.0536e-28  4.3859e-30  1.0736e-28  7.8902e-30  1.1161e-28  1.4787e-29  1.2058e-28  2.867e-29  1.3883e-28   5.66e-29  1.7507e-28  1.1211e-28  2.4543e-28  2.1988e-28  3.8516e-28  4.2867e-28
      1.60  1.0318e-28  1.0652e-31  1.0318e-28  1.1437e-31  1.0318e-28  1.2831e-31  1.0319e-28  1.5309e-31  1.0321e-28  1.9712e-31  1.0324e-28  2.7531e-31  1.0329e-28  4.1401e-31  1.0338e-28  6.5967e-31  1.0353e-28  1.0938e-30  1.0382e-28  1.8595e-30  1.0434e-28  3.2114e-30  1.0532e-28  5.6309e-30  1.0727e-28  1.0145e-29  1.1143e-28  1.9085e-29  1.2025e-28  3.7287e-29  1.3829e-28  7.412e-29  1.7413e-28  1.4769e-28  2.4363e-28  2.9089e-28  3.8147e-28  5.6834e-28
      1.65  1.032e-28  1.2343e-31  1.032e-28  1.3397e-31  1.0321e-28  1.5271e-31  1.0322e-28   1.86e-31  1.0323e-28  2.4517e-31  1.0326e-28  3.5021e-31  1.0331e-28  5.3653e-31  1.0339e-28  8.6643e-31  1.0355e-28  1.4492e-30  1.0383e-28  2.4762e-30  1.0433e-28  4.2876e-30  1.0528e-28  7.5245e-30  1.0717e-28  1.3554e-29  1.1125e-28  2.5495e-29  1.1994e-28  4.9801e-29  1.3775e-28  9.8945e-29  1.7321e-28   1.97e-28  2.4192e-28  3.8754e-28  3.7779e-28  7.5504e-28
      1.70  1.0323e-28  1.4403e-31  1.0323e-28  1.5888e-31  1.0323e-28  1.8527e-31  1.0324e-28  2.3218e-31  1.0326e-28  3.1553e-31  1.0328e-28  4.6353e-31  1.0333e-28  7.2604e-31  1.0341e-28  1.1909e-30  1.0356e-28  2.0121e-30  1.0383e-28  3.4593e-30  1.0432e-28  6.0104e-30  1.0524e-28  1.0559e-29  1.0709e-28  1.8983e-29  1.1108e-28  3.5507e-29  1.1964e-28  6.8795e-29  1.3724e-28  1.3548e-28  1.7233e-28  2.675e-28  2.4029e-28  5.2248e-28  3.7416e-28  1.0098e-27
      1.75  1.0325e-28  1.6998e-31  1.0326e-28  1.9188e-31  1.0326e-28  2.308e-31  1.0327e-28  2.9999e-31  1.0328e-28  4.2294e-31  1.0331e-28  6.4126e-31  1.0335e-28  1.0286e-30  1.0344e-28  1.7147e-30  1.0358e-28  2.9274e-30  1.0384e-28  5.0656e-30  1.0432e-28  8.8351e-30  1.0521e-28  1.5539e-29  1.0701e-28  2.7838e-29  1.1091e-28  5.1549e-29  1.1936e-28  9.8402e-29  1.3675e-28  1.9068e-28  1.7149e-28  3.7077e-28  2.3877e-28  7.1494e-28  3.7062e-28  1.3643e-27
      1.80  1.0328e-28  2.0379e-31  1.0328e-28  2.3719e-31  1.0329e-28  2.9657e-31  1.033e-28  4.0211e-31  1.0331e-28  5.8967e-31  1.0333e-28  9.2281e-31  1.0338e-28  1.514e-30  1.0346e-28  2.5618e-30  1.036e-28  4.4149e-30  1.0385e-28  7.6854e-30  1.0432e-28  1.3453e-29  1.0519e-28  2.3684e-29  1.0693e-28  4.2225e-29  1.1076e-28  7.7283e-29  1.1909e-28  1.448e-28  1.363e-28  2.748e-28  1.707e-28  5.2369e-28  2.3736e-28  9.9257e-28  3.6721e-28  1.8637e-27
      1.85  1.0331e-28  2.4877e-31  1.0331e-28  3.0053e-31  1.0332e-28  3.9256e-31  1.0332e-28  5.5615e-31  1.0334e-28  8.4689e-31  1.0336e-28  1.3634e-30  1.0341e-28  2.2803e-30  1.0348e-28  3.906e-30  1.0362e-28  6.7836e-30  1.0387e-28  1.1867e-29  1.0432e-28  2.0835e-29  1.0516e-28  3.6708e-29  1.0686e-28  6.5189e-29  1.1062e-28  1.1783e-28  1.1885e-28  2.1655e-28  1.3588e-28  4.0199e-28  1.6998e-28  7.4926e-28  2.3608e-28  1.3925e-27  3.6396e-28  2.5688e-27
      1.90  1.0334e-28  3.0922e-31  1.0334e-28  3.8929e-31  1.0335e-28  5.3167e-31  1.0335e-28  7.8477e-31  1.0337e-28  1.2347e-30  1.0339e-28  2.034e-30  1.0343e-28  3.4534e-30  1.0351e-28  5.9714e-30  1.0364e-28  1.0432e-29  1.0388e-28  1.8317e-29  1.0432e-28  3.2239e-29  1.0515e-28   5.68e-29  1.0681e-28  1.006e-28  1.1051e-28  1.7985e-28  1.1865e-28  3.2477e-28  1.3554e-28  5.9035e-28  1.6937e-28  1.0765e-27  2.3498e-28  1.9608e-27  3.612e-28  3.5542e-27
      1.95  1.0337e-28  3.8995e-31  1.0337e-28  5.1177e-31  1.0338e-28  7.2837e-31  1.0338e-28  1.1135e-30  1.034e-28  1.798e-30  1.0342e-28  3.0146e-30  1.0346e-28  5.1755e-30  1.0353e-28  9.0108e-30  1.0367e-28  1.581e-29  1.039e-28  2.7843e-29  1.0433e-28  4.9101e-29  1.0514e-28  8.6583e-29  1.068e-28  1.5294e-28  1.1052e-28  2.7096e-28  1.1866e-28  4.819e-28  1.355e-28  8.5964e-28  1.6918e-28  1.5356e-27  2.344e-28  2.7422e-27  3.6008e-28  4.8864e-27
      2.00  1.034e-28  4.9719e-31  1.034e-28  6.7872e-31  1.0341e-28  1.0015e-30  1.0341e-28  1.5754e-30  1.0343e-28  2.5956e-30  1.0345e-28  4.4087e-30  1.0349e-28  7.6299e-30  1.0356e-28  1.3348e-29  1.0369e-28  2.3489e-29  1.0392e-28  4.1444e-29  1.0434e-28  7.3169e-29  1.0514e-28  1.2904e-28  1.0676e-28  2.2733e-28  1.1043e-28  3.997e-28  1.185e-28  7.0236e-28  1.3523e-28  1.2344e-27  1.6869e-28  2.1688e-27  2.3353e-28  3.8099e-27  3.5774e-28  6.6915e-27
      2.05  1.0343e-28  6.368e-31  1.0344e-28  9.0007e-31  1.0344e-28  1.3682e-30  1.0345e-28  2.2005e-30  1.0346e-28  3.6803e-30  1.0348e-28  6.3103e-30  1.0352e-28  1.0983e-29  1.0359e-28  1.928e-29  1.0372e-28  3.3998e-29  1.0394e-28  6.0066e-29  1.0436e-28  1.0607e-28  1.0513e-28  1.872e-28  1.0672e-28  3.2917e-28  1.1033e-28  5.7546e-28  1.1832e-28  1.0018e-27  1.3492e-28   1.74e-27  1.6819e-28  3.0163e-27  2.3269e-28  5.2275e-27  3.5543e-28  9.0751e-27
      2.10  1.0347e-28  8.1391e-31  1.0347e-28  1.1847e-30  1.0347e-28  1.8439e-30  1.0348e-28  3.0161e-30  1.0349e-28    5.1e-30  1.0351e-28  8.8041e-30  1.0355e-28  1.5386e-29  1.0362e-28  2.7075e-29  1.0375e-28  4.7814e-29  1.0397e-28  8.4558e-29  1.0437e-28  1.4944e-28  1.0513e-28  2.6378e-28  1.0668e-28  4.6327e-28  1.1023e-28  8.0652e-28  1.1816e-28  1.3941e-27  1.3466e-28  2.3994e-27  1.6777e-28  4.1156e-27  2.3198e-28  7.0553e-27  3.5361e-28  1.2136e-26
      2.15  1.035e-28  1.0329e-30  1.035e-28  1.5399e-30  1.0351e-28  2.4413e-30  1.0352e-28  4.044e-30  1.0353e-28  6.8934e-30  1.0355e-28  1.1959e-29  1.0359e-28  2.096e-29  1.0366e-28  3.6947e-29  1.0378e-28  6.532e-29   1.04e-28  1.1561e-28  1.0439e-28  2.0444e-28  1.0514e-28  3.6096e-28  1.0665e-28  6.3353e-28  1.1016e-28  1.0997e-27  1.1803e-28  1.891e-27  1.3444e-28  3.2324e-27  1.6741e-28    5.5e-27  2.314e-28  9.3497e-27  3.5224e-28  1.5968e-26
      2.20  1.0354e-28  1.297e-30  1.0354e-28  1.9707e-30  1.0354e-28  3.1686e-30  1.0355e-28  5.2986e-30  1.0356e-28  9.0857e-30  1.0358e-28  1.5818e-29  1.0362e-28  2.7782e-29  1.0369e-28  4.9035e-29  1.0381e-28  8.6762e-29  1.0403e-28  1.5355e-28  1.0442e-28  2.7187e-28  1.0515e-28  4.8019e-28  1.0664e-28  8.4261e-28  1.101e-28  1.4599e-27  1.1791e-28  2.501e-27  1.3426e-28  4.2541e-27  1.6712e-28  7.1959e-27  2.3094e-28  1.2158e-26  3.5126e-28  2.0656e-26
      2.25  1.0358e-28  1.6077e-30  1.0358e-28  2.4794e-30  1.0358e-28  4.0294e-30  1.0359e-28  6.7855e-30  1.036e-28  1.1686e-29  1.0362e-28  2.0397e-29  1.0366e-28  3.588e-29  1.0373e-28  6.3388e-29  1.0384e-28  1.1223e-28  1.0406e-28  1.9873e-28  1.0445e-28  3.5202e-28  1.0516e-28  6.2201e-28  1.0663e-28  1.0916e-27  1.1005e-28  1.8892e-27  1.1783e-28  3.2284e-27  1.3412e-28  5.473e-27  1.6691e-28  9.2204e-27  2.3062e-28  1.5512e-26  3.5059e-28  2.6263e-26
      2.30  1.0361e-28  1.9657e-30  1.0362e-28  3.0661e-30  1.0362e-28  5.0228e-30  1.0363e-28  8.5021e-30  1.0364e-28  1.4688e-29  1.0366e-28  2.5686e-29  1.037e-28  4.5235e-29  1.0376e-28  7.9969e-29  1.0388e-28  1.4165e-28  1.0409e-28  2.5095e-28  1.0448e-28  4.447e-28  1.0519e-28  7.8616e-28  1.0663e-28  1.3802e-27  1.1001e-28  2.3875e-27  1.1776e-28  4.0738e-27  1.3402e-28  6.8919e-27  1.6677e-28  1.1581e-26  2.3042e-28  1.9432e-26  3.5021e-28  3.2834e-26
      2.35  1.0365e-28  2.3696e-30  1.0366e-28  3.7279e-30  1.0366e-28  6.1433e-30  1.0367e-28  1.0438e-29  1.0368e-28  1.8075e-29  1.037e-28  3.1651e-29  1.0374e-28  5.5785e-29  1.038e-28  9.8672e-29  1.0392e-28  1.7485e-28  1.0413e-28  3.0988e-28  1.0451e-28  5.4934e-28  1.0521e-28  9.7166e-28  1.0663e-28  1.7068e-27  1.0999e-28  2.9525e-27  1.1772e-28  5.0345e-27  1.3396e-28  8.5082e-27  1.6669e-28  1.4278e-26  2.3034e-28  2.3925e-26  3.5012e-28  4.0391e-26
      2.40  1.0369e-28  2.8142e-30  1.037e-28  4.4546e-30  1.037e-28  7.3715e-30  1.0371e-28  1.2558e-29  1.0372e-28  2.1781e-29  1.0374e-28  3.8178e-29  1.0378e-28  6.7327e-29  1.0384e-28  1.1913e-28  1.0396e-28  2.1116e-28  1.0417e-28  3.7436e-28  1.0455e-28  6.6392e-28  1.0525e-28  1.175e-27  1.0665e-28  2.0653e-27  1.0998e-28  3.5741e-27  1.177e-28  6.0934e-27  1.3394e-28  1.0294e-26  1.6668e-28  1.7268e-26  2.3037e-28  2.8921e-26  3.5024e-28  4.8826e-26
      2.45  1.0374e-28  3.2908e-30  1.0374e-28  5.2295e-30  1.0374e-28  8.6771e-30  1.0375e-28  1.4808e-29  1.0376e-28  2.5708e-29  1.0378e-28  4.509e-29  1.0382e-28  7.9546e-29  1.0388e-28  1.4079e-28   1.04e-28  2.4961e-28  1.0421e-28  4.4264e-28  1.0459e-28  7.8528e-28  1.0528e-28  1.3905e-27  1.0667e-28  2.4461e-27  1.0999e-28  4.2354e-27  1.177e-28  7.2225e-27  1.3395e-28  1.2203e-26  1.6672e-28  2.0471e-26  2.3051e-28  3.4289e-26  3.5057e-28  5.7917e-26
      2.50  1.0378e-28  3.8025e-30  1.0378e-28  6.0575e-30  1.0379e-28  1.0067e-29  1.0379e-28  1.7198e-29  1.038e-28  2.9876e-29  1.0382e-28  5.242e-29  1.0386e-28   9.25e-29  1.0393e-28  1.6375e-28  1.0405e-28  2.9036e-28  1.0426e-28  5.1502e-28  1.0464e-28  9.1402e-28  1.0533e-28  1.6194e-27  1.0671e-28  2.8511e-27    1.1e-28  4.9408e-27  1.1772e-28  8.4306e-27  1.3399e-28  1.4253e-26  1.6683e-28  2.3925e-26  2.3075e-28  4.0106e-26  3.511e-28  6.7814e-26
      2.55  1.0382e-28  4.3478e-30  1.0383e-28  6.9331e-30  1.0383e-28  1.153e-29  1.0384e-28  1.9706e-29  1.0385e-28  3.4242e-29  1.0387e-28  6.009e-29  1.0391e-28  1.0605e-28  1.0397e-28  1.8775e-28  1.0409e-28  3.3297e-28  1.043e-28  5.9072e-28  1.0468e-28  1.0487e-27  1.0537e-28  1.8591e-27  1.0674e-28  3.2761e-27  1.1003e-28  5.683e-27  1.1776e-28  9.7059e-27  1.3405e-28  1.6426e-26  1.6698e-28  2.7603e-26  2.3108e-28  4.6325e-26  3.5179e-28  7.8444e-26
      2.60  1.0387e-28  4.9223e-30  1.0387e-28  7.8481e-30  1.0388e-28  1.3051e-29  1.0388e-28  2.2303e-29  1.0389e-28  3.8755e-29  1.0392e-28  6.8009e-29  1.0395e-28  1.2002e-28  1.0402e-28  2.1251e-28  1.0414e-28  3.7691e-28  1.0435e-28  6.6879e-28  1.0473e-28  1.1877e-27  1.0542e-28  2.1066e-27  1.0679e-28  3.7157e-27  1.1005e-28  6.4531e-27  1.178e-28  1.1034e-26  1.3414e-28  1.8697e-26  1.6714e-28  3.1463e-26  2.3144e-28  5.2884e-26  3.5253e-28  8.9699e-26
      2.65  1.0392e-28  5.5263e-30  1.0392e-28  8.801e-30  1.0392e-28  1.4624e-29  1.0393e-28  2.498e-29  1.0394e-28  4.3394e-29  1.0396e-28  7.6139e-29   1.04e-28  1.3436e-28  1.0407e-28  2.379e-28  1.0419e-28  4.2197e-28  1.044e-28  7.4885e-28  1.0479e-28  1.3303e-27  1.0548e-28  2.3608e-27  1.0683e-28  4.168e-27  1.1009e-28  7.2477e-27  1.1785e-28  1.2409e-26  1.3423e-28  2.1059e-26  1.6732e-28  3.5496e-26  2.3183e-28  5.9766e-26  3.5336e-28  1.0156e-25
      2.70  1.0397e-28  6.1596e-30  1.0397e-28  9.7897e-30  1.0397e-28  1.6245e-29  1.0398e-28  2.7724e-29  1.0399e-28  4.8138e-29  1.0401e-28  8.4438e-29  1.0405e-28  1.4899e-28  1.0412e-28  2.6378e-28  1.0424e-28  4.679e-28  1.0445e-28  8.3043e-28  1.0484e-28  1.4756e-27  1.0553e-28  2.6201e-27  1.0689e-28   4.63e-27  1.1013e-28  8.0617e-27  1.1791e-28  1.3823e-26  1.3435e-28   2.35e-26  1.6752e-28  3.9683e-26  2.3226e-28  6.6941e-26  3.5428e-28  1.1397e-25
      2.75  1.0402e-28  6.8201e-30  1.0402e-28  1.0808e-29  1.0402e-28   1.79e-29  1.0403e-28  3.0511e-29  1.0404e-28  5.2937e-29  1.0406e-28  9.2816e-29  1.041e-28  1.6373e-28  1.0417e-28  2.8985e-28  1.0429e-28  5.1414e-28  1.045e-28  9.1253e-28  1.0489e-28  1.6218e-27  1.0558e-28  2.8803e-27  1.0694e-28  5.0918e-27  1.1022e-28  8.873e-27  1.1806e-28  1.5241e-26  1.3458e-28  2.5972e-26  1.6785e-28  4.3968e-26  2.3282e-28  7.4348e-26  3.5535e-28  1.2686e-25
      2.80  1.0407e-28  7.5157e-30  1.0407e-28  1.1866e-29  1.0407e-28  1.9601e-29  1.0408e-28  3.3357e-29  1.0409e-28  5.7818e-29  1.0411e-28  1.0132e-28  1.0415e-28  1.7868e-28  1.0422e-28  3.1626e-28  1.0434e-28  5.6095e-28  1.0455e-28  9.9559e-28  1.0493e-28  1.7696e-27  1.0562e-28  3.1435e-27  1.0699e-28  5.5588e-27  1.1031e-28  9.6947e-27  1.1822e-28  1.6685e-26  1.3482e-28  2.8503e-26  1.6823e-28  4.8381e-26  2.3342e-28  8.2016e-26  3.5646e-28  1.4025e-25
      2.85  1.0412e-28  8.2487e-30  1.0412e-28  1.2965e-29  1.0412e-28  2.1352e-29  1.0413e-28  3.6267e-29  1.0414e-28  6.2789e-29  1.0416e-28  1.0996e-28  1.042e-28  1.9384e-28  1.0427e-28  3.4302e-28  1.0438e-28  6.0836e-28  1.046e-28  1.0797e-27  1.0498e-28  1.9193e-27  1.0567e-28  3.4099e-27  1.0704e-28  6.0314e-27  1.1042e-28  1.0528e-26  1.1839e-28  1.8156e-26  1.3507e-28  3.1097e-26  1.686e-28  5.293e-26  2.3406e-28  8.9953e-26  3.5767e-28  1.5415e-25
      2.90  1.0417e-28  9.0245e-30  1.0417e-28  1.4113e-29  1.0418e-28  2.3161e-29  1.0418e-28  3.9251e-29  1.042e-28  6.7864e-29  1.0422e-28  1.1875e-28  1.0425e-28  2.0924e-28  1.0432e-28  3.7019e-28  1.0444e-28  6.5648e-28  1.0465e-28  1.165e-27  1.0502e-28  2.071e-27  1.0571e-28   3.68e-27  1.071e-28  6.5109e-27  1.1052e-28  1.1376e-26  1.1855e-28  1.966e-26  1.3529e-28  3.3764e-26  1.6893e-28  5.7629e-26  2.3465e-28  9.8176e-26  3.5889e-28  1.6856e-25
      2.95  1.0423e-28  9.8494e-30  1.0423e-28  1.5315e-29  1.0423e-28  2.5035e-29  1.0424e-28  4.232e-29  1.0425e-28  7.3058e-29  1.0427e-28  1.2772e-28  1.0431e-28  2.2494e-28  1.0437e-28  3.9784e-28  1.0449e-28  7.0541e-28  1.047e-28  1.2526e-27  1.0507e-28  2.2252e-27  1.0576e-28  3.9544e-27  1.0716e-28  6.9986e-27  1.1061e-28  1.2241e-26  1.1869e-28  2.1202e-26  1.3548e-28  3.6514e-26  1.692e-28  6.2497e-26  2.3515e-28  1.0672e-25  3.6003e-28  1.8352e-25
      3.00  1.0428e-28  1.073e-29  1.0429e-28  1.6581e-29  1.0429e-28  2.6984e-29  1.043e-28  4.5485e-29  1.0431e-28  7.8386e-29  1.0433e-28  1.369e-28  1.0436e-28  2.4095e-28  1.0443e-28  4.2603e-28  1.0454e-28  7.5525e-28  1.0475e-28  1.341e-27  1.0512e-28  2.3821e-27  1.0581e-28  4.2337e-27  1.0722e-28  7.4957e-27  1.107e-28  1.3127e-26  1.188e-28  2.2789e-26  1.356e-28  3.936e-26  1.6934e-28  6.7559e-26  2.3548e-28  1.1561e-25  3.6103e-28  1.9906e-25
      3.05  1.0434e-28  1.1677e-29  1.0434e-28  1.7917e-29  1.0435e-28  2.9012e-29  1.0435e-28  4.8743e-29  1.0436e-28  8.3832e-29  1.0438e-28  1.4623e-28  1.0442e-28  2.5721e-28  1.0448e-28  4.5459e-28  1.046e-28  8.0571e-28  1.0481e-28  1.4304e-27  1.0518e-28  2.5407e-27  1.0587e-28  4.516e-27  1.0729e-28  7.9993e-27  1.1078e-28  1.4029e-26  1.1887e-28  2.4415e-26  1.3563e-28  4.2292e-26  1.6931e-28  7.2803e-26  2.3557e-28  1.2484e-25  3.6177e-28  2.1511e-25
      3.10  1.044e-28  1.2696e-29  1.044e-28  1.9333e-29  1.0441e-28  3.1135e-29  1.0441e-28  5.2123e-29  1.0442e-28  8.9446e-29  1.0444e-28  1.5582e-28  1.0448e-28  2.7386e-28  1.0454e-28  4.8382e-28  1.0466e-28  8.5729e-28  1.0486e-28  1.5218e-27  1.0524e-28  2.7027e-27  1.0594e-28  4.8041e-27  1.0736e-28  8.5141e-27  1.1084e-28  1.4957e-26  1.1889e-28  2.6095e-26  1.3553e-28  4.5346e-26  1.6905e-28  7.8304e-26  2.3529e-28  1.3454e-25  3.6213e-28  2.3191e-25
      3.15  1.0446e-28  1.3803e-29  1.0446e-28  2.0847e-29  1.0447e-28  3.3374e-29  1.0447e-28  5.5651e-29  1.0448e-28  9.5267e-29  1.045e-28  1.6572e-28  1.0454e-28  2.9101e-28  1.046e-28  5.1386e-28  1.0472e-28  9.1026e-28  1.0493e-28  1.6155e-27  1.053e-28  2.8686e-27  1.0601e-28  5.0994e-27  1.0743e-28  9.0425e-27  1.1088e-28  1.5913e-26  1.1884e-28  2.7836e-26  1.3529e-28  4.8538e-26  1.6849e-28  8.4109e-26  2.3451e-28  1.4483e-25  3.6192e-28  2.4964e-25
      3.20  1.0452e-28  1.5011e-29  1.0452e-28  2.2477e-29  1.0453e-28  3.5754e-29  1.0453e-28  5.9365e-29  1.0454e-28  1.0135e-28  1.0456e-28  1.7602e-28  1.046e-28  3.0882e-28  1.0467e-28   5.45e-28  1.0478e-28  9.6511e-28  1.0499e-28  1.7125e-27  1.0537e-28  3.0402e-27  1.0608e-28  5.4045e-27  1.0751e-28  9.5887e-27  1.1091e-28  1.6904e-26  1.1873e-28  2.965e-26  1.349e-28  5.1888e-26  1.6759e-28  9.0274e-26  2.3311e-28  1.5585e-25  3.6093e-28  2.6858e-25
      3.25  1.0458e-28  1.634e-29  1.0459e-28  2.4248e-29  1.0459e-28  3.8311e-29  1.046e-28  6.332e-29  1.0461e-28  1.0779e-28  1.0463e-28  1.8688e-28  1.0466e-28  3.2754e-28  1.0473e-28  5.777e-28  1.0485e-28  1.0227e-27  1.0506e-28  1.8142e-27  1.0544e-28  3.2201e-27  1.0616e-28  5.724e-27  1.076e-28  1.016e-26  1.1092e-28  1.7942e-26  1.1857e-28  3.1554e-26  1.3436e-28  5.5424e-26  1.6633e-28  9.6866e-26  2.3098e-28  1.678e-25  3.5892e-28  2.8916e-25
      3.30  1.0465e-28  1.7829e-29  1.0465e-28  2.6209e-29  1.0465e-28  4.1112e-29  1.0466e-28  6.7612e-29  1.0467e-28  1.1474e-28  1.0469e-28  1.9855e-28  1.0473e-28  3.4759e-28  1.0479e-28  6.1268e-28  1.0491e-28  1.0842e-27  1.0513e-28  1.9229e-27  1.0552e-28  3.415e-27  1.0624e-28  6.0654e-27  1.0768e-28  1.0771e-26  1.1093e-28  1.9049e-26  1.1837e-28  3.3579e-26  1.3372e-28  5.9192e-26  1.6476e-28  1.0397e-25  2.2808e-28  1.8092e-25  3.5566e-28  3.1197e-25
      3.35  1.0471e-28  1.9524e-29  1.0471e-28  2.8438e-29  1.0472e-28  4.4289e-29  1.0472e-28  7.2478e-29  1.0474e-28  1.2261e-28  1.0476e-28  2.1175e-28  1.0479e-28  3.7029e-28  1.0486e-28  6.5225e-28  1.0498e-28  1.1538e-27  1.052e-28  2.0459e-27  1.0559e-28  3.6329e-27  1.0633e-28  6.4519e-27  1.0776e-28  1.1461e-26  1.1094e-28  2.0295e-26  1.1816e-28  3.5845e-26  1.3303e-28  6.3376e-26  1.6299e-28  1.1186e-25  2.2449e-28  1.9571e-25  3.5097e-28  3.3801e-25
      3.40  1.0478e-28  2.1444e-29  1.0478e-28  3.0953e-29  1.0478e-28  4.7863e-29  1.0479e-28  7.7934e-29  1.048e-28  1.3141e-28  1.0482e-28  2.2651e-28  1.0486e-28  3.9564e-28  1.0493e-28  6.9643e-28  1.0505e-28  1.2314e-27  1.0527e-28  2.1832e-27  1.0567e-28  3.8763e-27  1.0641e-28  6.884e-27  1.0785e-28  1.2232e-26  1.1096e-28  2.1686e-26  1.1796e-28  3.8367e-26  1.3235e-28  6.8004e-26  1.6116e-28  1.2057e-25  2.2041e-28  2.1227e-25  3.4482e-28  3.6793e-25
      3.45  1.0484e-28  2.3635e-29  1.0484e-28  3.3822e-29  1.0485e-28  5.1937e-29  1.0485e-28  8.4152e-29  1.0487e-28  1.4144e-28  1.0489e-28  2.4332e-28  1.0493e-28  4.245e-28   1.05e-28  7.4675e-28  1.0512e-28  1.3199e-27  1.0534e-28  2.3396e-27  1.0575e-28  4.1538e-27  1.065e-28  7.377e-27  1.0794e-28  1.3114e-26  1.1098e-28  2.3273e-26  1.1778e-28  4.1241e-26  1.3172e-28  7.3248e-26  1.5941e-28  1.3036e-25  2.1615e-28  2.3099e-25  3.3737e-28  4.0263e-25
      3.50  1.0491e-28  2.6153e-29  1.0491e-28  3.7124e-29  1.0491e-28  5.6633e-29  1.0492e-28  9.1327e-29  1.0493e-28  1.5302e-28  1.0495e-28  2.6275e-28  1.0499e-28  4.5788e-28  1.0507e-28  8.0493e-28  1.0519e-28  1.4223e-27  1.0542e-28  2.5205e-27  1.0583e-28  4.4749e-27  1.0659e-28  7.9476e-27  1.0803e-28  1.4134e-26  1.1101e-28  2.5111e-26  1.1762e-28  4.4568e-26  1.3117e-28  7.9302e-26  1.5785e-28  1.4156e-25  2.1204e-28  2.5226e-25  3.2903e-28  4.4277e-25
      3.55  1.0497e-28  2.9101e-29  1.0497e-28  4.0994e-29  1.0498e-28  6.2144e-29  1.0499e-28  9.9755e-29   1.05e-28  1.6664e-28  1.0502e-28  2.8559e-28  1.0506e-28  4.9713e-28  1.0513e-28  8.7338e-28  1.0526e-28  1.5427e-27  1.055e-28  2.7334e-27  1.0591e-28  4.8526e-27  1.0668e-28  8.6191e-27  1.0812e-28  1.5335e-26  1.1107e-28  2.7274e-26  1.1751e-28  4.8487e-26  1.3072e-28  8.6436e-26  1.5655e-28  1.5468e-25  2.0839e-28  2.7689e-25  3.2046e-28  4.8941e-25
      3.60  1.0504e-28  3.2535e-29  1.0504e-28  4.5527e-29  1.0504e-28  6.8631e-29  1.0505e-28  1.0972e-28  1.0506e-28  1.8278e-28  1.0509e-28  3.1272e-28  1.0513e-28  5.4382e-28  1.052e-28  9.5484e-28  1.0534e-28  1.686e-27  1.0557e-28  2.987e-27   1.06e-28  5.3026e-27  1.0678e-28  9.4189e-27  1.0823e-28  1.6765e-26  1.1115e-28  2.9846e-26  1.1745e-28  5.3151e-26  1.3039e-28  9.4945e-26  1.5556e-28  1.7031e-25  2.0546e-28  3.0593e-25  3.1266e-28  5.438e-25
      3.65  1.051e-28  3.6566e-29  1.0511e-28  5.0883e-29  1.0511e-28  7.6343e-29  1.0512e-28  1.2162e-28  1.0513e-28  2.0214e-28  1.0515e-28  3.4533e-28  1.052e-28  5.9999e-28  1.0527e-28  1.0529e-27  1.0541e-28  1.8587e-27  1.0565e-28  3.2925e-27  1.0609e-28  5.8447e-27  1.0689e-28  1.0391e-26  1.0837e-28  1.8486e-26  1.1128e-28  3.2937e-26  1.1749e-28  5.8741e-26  1.3026e-28  1.0513e-25  1.5502e-28  1.8897e-25  2.036e-28  3.4012e-25  3.0703e-28  6.0594e-25
      3.70  1.0517e-28  4.1484e-29  1.0518e-28  5.7418e-29  1.0518e-28  8.5753e-29  1.0519e-28  1.3614e-28  1.052e-28  2.2575e-28  1.0523e-28  3.8511e-28  1.0527e-28  6.6854e-28  1.0535e-28  1.1727e-27  1.0549e-28  2.0694e-27  1.0575e-28  3.6652e-27  1.062e-28  6.5061e-27  1.0702e-28  1.1567e-26  1.0854e-28  2.0582e-26  1.115e-28  3.6688e-26  1.177e-28  6.5491e-26  1.3046e-28  1.1733e-25  1.5518e-28  2.1102e-25  2.0336e-28  3.794e-25  3.0547e-28  6.7296e-25
      3.75  1.0525e-28  4.9343e-29  1.0525e-28  6.7306e-29  1.0525e-28  9.925e-29  1.0526e-28  1.5606e-28  1.0528e-28  2.5708e-28  1.053e-28  4.3674e-28  1.0535e-28  7.5626e-28  1.0544e-28  1.3246e-27  1.0559e-28  2.3356e-27  1.0586e-28  4.1346e-27  1.0634e-28  7.3373e-27  1.0721e-28  1.3043e-26  1.0881e-28  2.3205e-26  1.1186e-28  4.1364e-26  1.1819e-28  7.3826e-26  1.3122e-28  1.3214e-25  1.5642e-28  2.3693e-25  2.0543e-28  4.228e-25  3.1016e-28  7.3734e-25
      3.80  1.0999e-28  7.7454e-29  1.0999e-28  9.8044e-29  1.0999e-28  1.3466e-28    1.1e-28  1.9977e-28  1.1001e-28  3.1556e-28  1.1003e-28  5.2149e-28  1.1007e-28  8.8772e-28  1.1014e-28  1.5391e-27  1.1026e-28  2.6979e-27  1.1047e-28  4.7597e-27  1.1086e-28  8.4298e-27  1.1157e-28  1.4967e-26  1.1292e-28  2.6605e-26  1.1559e-28  4.7389e-26  1.2137e-28  8.4469e-26  1.3402e-28  1.5055e-25  1.5969e-28  2.6732e-25  2.1054e-28  4.6787e-25  3.2309e-28  7.8604e-25
      3.85  1.1033e-28  2.4654e-28  1.1034e-28  2.7081e-28  1.1034e-28  3.1397e-28  1.1035e-28  3.9073e-28  1.1036e-28  5.2722e-28  1.1039e-28  7.6995e-28  1.1044e-28  1.2016e-27  1.1052e-28  1.9693e-27  1.1066e-28  3.3348e-27  1.1093e-28  5.7636e-27  1.114e-28  1.0085e-26  1.1226e-28  1.7773e-26  1.1385e-28  3.1431e-26  1.1693e-28  5.5719e-26  1.2331e-28  9.8667e-26  1.3687e-28  1.7385e-25  1.6413e-28  3.0231e-25  2.1808e-28  5.0999e-25  3.4448e-28  8.1158e-25
      3.90  1.1067e-28  1.2326e-27  1.1068e-28  1.2622e-27  1.1068e-28  1.3147e-27  1.1069e-28  1.4082e-27  1.1071e-28  1.5743e-27  1.1074e-28  1.8698e-27  1.108e-28  2.3951e-27  1.1091e-28  3.3292e-27  1.111e-28  4.9898e-27  1.1143e-28  7.9414e-27  1.1203e-28  1.3185e-26  1.1311e-28  2.2491e-26  1.1509e-28  3.8945e-26  1.1879e-28  6.7935e-26  1.2608e-28  1.1831e-25  1.4086e-28  2.0364e-25  1.6975e-28  3.414e-25  2.2675e-28  5.4602e-25  3.6553e-28  8.4992e-25
      3.95  1.1097e-28  6.2136e-27  1.1098e-28  6.2507e-27  1.1098e-28  6.3167e-27   1.11e-28  6.4341e-27  1.1102e-28  6.6428e-27  1.1107e-28  7.0139e-27  1.1115e-28  7.6736e-27  1.1128e-28  8.846e-27  1.1153e-28  1.0928e-26  1.1197e-28  1.4624e-26  1.1276e-28  2.1173e-26  1.1417e-28  3.2717e-26  1.1669e-28  5.3013e-26  1.2127e-28  8.817e-26  1.2976e-28  1.4753e-25  1.4576e-28  2.4321e-25  1.754e-28  3.8642e-25  2.3366e-28  5.8891e-25  3.7027e-28  9.6884e-25
