# This was generated using Cloudy10 and the columns are ordered 
# as log10 of the fraction of the metallicity to the solar metallicity
# 'h_*_Z' and 'c_*_Z' stands for cooling and heating respectively 
# at * metalicity
#
# NOTE: This was generated separately from loop_coolingcurve_w_UV.py
#       using Output_metals_w_redshift.py.
#
# Redshift = 1.5
# hden = -4.5
#
#     temp   h_-3.00_Z   c_-3.00_Z   h_-2.75_Z   c_-2.75_Z   h_-2.50_Z   c_-2.50_Z   h_-2.25_Z   c_-2.25_Z   h_-2.00_Z   c_-2.00_Z   h_-1.75_Z   c_-1.75_Z   h_-1.50_Z   c_-1.50_Z   h_-1.25_Z   c_-1.25_Z   h_-1.00_Z   c_-1.00_Z   h_-0.75_Z   c_-0.75_Z   h_-0.50_Z   c_-0.50_Z   h_-0.25_Z   c_-0.25_Z    h_0.00_Z    c_0.00_Z    h_0.25_Z    c_0.25_Z    h_0.50_Z    c_0.50_Z    h_0.75_Z    c_0.75_Z    h_1.00_Z    c_1.00_Z    h_1.25_Z    c_1.25_Z    h_1.50_Z    c_1.50_Z 
      4.00  8.6666e-24  1.0940e-24  8.6741e-24  1.0968e-24  8.6874e-24  1.1017e-24  8.7110e-24  1.1105e-24  8.7530e-24  1.1260e-24  8.8276e-24  1.1537e-24  8.9603e-24  1.2029e-24  9.1961e-24  1.2904e-24  9.6148e-24  1.4462e-24  1.0358e-23  1.7234e-24  1.1674e-23  2.2173e-24  1.4003e-23  3.0981e-24  1.8124e-23  4.6728e-24  2.5449e-23  7.4983e-24  3.8508e-23  1.2602e-23  6.1891e-23  2.1917e-23  1.0425e-22  3.9206e-23  1.8153e-22  7.2276e-23  3.2494e-22  1.3840e-22
      4.05  8.0105e-24  1.1434e-24  8.0177e-24  1.1460e-24  8.0306e-24  1.1507e-24  8.0535e-24  1.1589e-24  8.0943e-24  1.1737e-24  8.1667e-24  1.2000e-24  8.2954e-24  1.2466e-24  8.5242e-24  1.3297e-24  8.9304e-24  1.4774e-24  9.6513e-24  1.7404e-24  1.0929e-23  2.2090e-24  1.3190e-23  3.0448e-24  1.7189e-23  4.5391e-24  2.4299e-23  7.2210e-24  3.6970e-23  1.2067e-23  5.9676e-23  2.0917e-23  1.0080e-22  3.7356e-23  1.7587e-22  6.8851e-23  3.1523e-22  1.3199e-22
      4.10  7.4012e-24  1.1950e-24  7.4082e-24  1.1976e-24  7.4207e-24  1.2020e-24  7.4429e-24  1.2100e-24  7.4824e-24  1.2241e-24  7.5527e-24  1.2492e-24  7.6775e-24  1.2938e-24  7.8994e-24  1.3732e-24  8.2935e-24  1.5145e-24  8.9928e-24  1.7661e-24  1.0232e-23  2.2142e-24  1.2426e-23  3.0137e-24  1.6307e-23  4.4433e-24  2.3207e-23  7.0097e-24  3.5496e-23  1.1649e-23  5.7546e-23  2.0123e-23  9.7471e-23  3.5882e-23  1.7035e-22  6.6124e-23  3.0572e-22  1.2691e-22
      4.15  6.8354e-24  1.2495e-24  6.8423e-24  1.2519e-24  6.8544e-24  1.2563e-24  6.8759e-24  1.2639e-24  6.9142e-24  1.2776e-24  6.9824e-24  1.3019e-24  7.1034e-24  1.3452e-24  7.3186e-24  1.4221e-24  7.7008e-24  1.5591e-24  8.3791e-24  1.8028e-24  9.5817e-24  2.2371e-24  1.1710e-23  3.0119e-24  1.5475e-23  4.3978e-24  2.2169e-23  6.8862e-24  3.4087e-23  1.1386e-23  5.5499e-23  1.9609e-23  9.4253e-23  3.4917e-23  1.6501e-22  6.4346e-23  2.9646e-22  1.2368e-22
      4.20  6.3104e-24  1.3074e-24  6.3170e-24  1.3098e-24  6.3287e-24  1.3140e-24  6.3496e-24  1.3217e-24  6.3868e-24  1.3352e-24  6.4529e-24  1.3593e-24  6.5703e-24  1.4021e-24  6.7790e-24  1.4783e-24  7.1497e-24  1.6139e-24  7.8078e-24  1.8553e-24  8.9745e-24  2.2854e-24  1.1040e-23  3.0529e-24  1.4693e-23  4.4262e-24  2.1189e-23  6.8926e-24  3.2747e-23  1.1355e-23  5.3542e-23  1.9510e-23  9.1163e-23  3.4714e-23  1.5987e-22  6.4002e-23  2.8757e-22  1.2326e-22
      4.25  5.8232e-24  1.3695e-24  5.8296e-24  1.3720e-24  5.8410e-24  1.3764e-24  5.8613e-24  1.3842e-24  5.8973e-24  1.3980e-24  5.9614e-24  1.4226e-24  6.0754e-24  1.4665e-24  6.2780e-24  1.5445e-24  6.6378e-24  1.6832e-24  7.2765e-24  1.9303e-24  8.4092e-24  2.3707e-24  1.0415e-23  3.1568e-24  1.3962e-23  4.5641e-24  2.0267e-23  7.0920e-24  3.1484e-23  1.1668e-23  5.1692e-23  2.0033e-23  8.8236e-23  3.5654e-23  1.5499e-22  6.5818e-23  2.7912e-22  1.2710e-22
      4.30  5.3714e-24  1.4394e-24  5.3776e-24  1.4420e-24  5.3887e-24  1.4467e-24  5.4084e-24  1.4551e-24  5.4434e-24  1.4699e-24  5.5057e-24  1.4962e-24  5.6164e-24  1.5431e-24  5.8132e-24  1.6266e-24  6.1628e-24  1.7751e-24  6.7835e-24  2.0395e-24  7.8842e-24  2.5111e-24  9.8340e-24  3.3533e-24  1.3282e-23  4.8620e-24  1.9409e-23  7.5729e-24  3.0305e-23  1.2482e-23  4.9965e-23  2.1462e-23  8.5504e-23  3.8260e-23  1.5045e-22  7.0789e-23  2.7126e-22  1.3718e-22
      4.35  4.9523e-24  1.5163e-24  4.9584e-24  1.5193e-24  4.9692e-24  1.5246e-24  4.9883e-24  1.5340e-24  5.0224e-24  1.5507e-24  5.0830e-24  1.5803e-24  5.1907e-24  1.6332e-24  5.3822e-24  1.7271e-24  5.7224e-24  1.8944e-24  6.3264e-24  2.1924e-24  7.3978e-24  2.7240e-24  9.2958e-24  3.6740e-24  1.2653e-23  5.3776e-24  1.8616e-23  8.4399e-24  2.9221e-23  1.3987e-23  4.8374e-23  2.4142e-23  8.2991e-23  4.3174e-23  1.4628e-22  8.0142e-23  2.6409e-22  1.5598e-22
      4.40  4.5637e-24  1.6020e-24  4.5696e-24  1.6055e-24  4.5801e-24  1.6117e-24  4.5988e-24  1.6228e-24  4.6320e-24  1.6426e-24  4.6911e-24  1.6777e-24  4.7961e-24  1.7401e-24  4.9827e-24  1.8513e-24  5.3143e-24  2.0492e-24  5.9031e-24  2.4018e-24  6.9477e-24  3.0311e-24  8.7987e-24  4.1567e-24  1.2074e-23  6.1772e-24  1.7886e-23  9.8117e-24  2.8235e-23  1.6396e-23  4.6922e-23  2.8460e-23  8.0706e-23  5.1114e-23  1.4250e-22  9.5249e-23  2.5764e-22  1.8623e-22
      4.45  4.2033e-24  1.6979e-24  4.2091e-24  1.7022e-24  4.2194e-24  1.7098e-24  4.2376e-24  1.7235e-24  4.2700e-24  1.7477e-24  4.3277e-24  1.7907e-24  4.4303e-24  1.8673e-24  4.6125e-24  2.0036e-24  4.9363e-24  2.2463e-24  5.5113e-24  2.6790e-24  6.5317e-24  3.4514e-24  8.3400e-24  4.8340e-24  1.1540e-23  7.3185e-24  1.7216e-23  1.1791e-23  2.7337e-23  1.9894e-23  4.5603e-23  3.4755e-23  7.8638e-23  6.2706e-23  1.3910e-22  1.1731e-22  2.5188e-22  2.3038e-22
      4.50  3.8691e-24  1.8055e-24  3.8747e-24  1.8109e-24  3.8847e-24  1.8206e-24  3.9026e-24  1.8377e-24  3.9343e-24  1.8681e-24  3.9907e-24  1.9223e-24  4.0910e-24  2.0186e-24  4.2693e-24  2.1901e-24  4.5860e-24  2.4954e-24  5.1485e-24  3.0399e-24  6.1456e-24  4.0122e-24  7.9162e-24  5.7538e-24  1.1048e-23  8.8861e-24  1.6600e-23  1.4532e-23  2.6517e-23  2.4757e-23  4.4405e-23  4.3529e-23  7.6763e-23  7.8895e-23  1.3603e-22  1.4818e-22  2.4671e-22  2.9221e-22
      4.55  3.5590e-24  1.9289e-24  3.5645e-24  1.9357e-24  3.5744e-24  1.9479e-24  3.5918e-24  1.9695e-24  3.6229e-24  2.0078e-24  3.6782e-24  2.0761e-24  3.7764e-24  2.1975e-24  3.9510e-24  2.4136e-24  4.2612e-24  2.7986e-24  4.8122e-24  3.4850e-24  5.7901e-24  4.7113e-24  7.5237e-24  6.9085e-24  1.0593e-23  1.0863e-23  1.6030e-23  1.8000e-23  2.5763e-23  3.0914e-23  4.3307e-23  5.4649e-23  7.5057e-23  9.9423e-23  1.3325e-22  1.8732e-22  2.4204e-22  3.7068e-22
      4.60  3.2712e-24  2.0652e-24  3.2766e-24  2.0737e-24  3.2862e-24  2.0889e-24  3.3034e-24  2.1158e-24  3.3338e-24  2.1638e-24  3.3880e-24  2.2491e-24  3.4843e-24  2.4008e-24  3.6554e-24  2.6709e-24  3.9596e-24  3.1520e-24  4.4998e-24  4.0099e-24  5.4587e-24  5.5428e-24  7.1587e-24  8.2903e-24  1.0169e-23  1.3238e-23  1.5500e-23  2.2179e-23  2.5061e-23  3.8342e-23  4.2283e-23  6.8080e-23  7.3465e-23  1.2425e-22  1.3065e-22  2.3475e-22  2.3770e-22  4.6595e-22
      4.65  3.0039e-24  2.2157e-24  3.0092e-24  2.2262e-24  3.0187e-24  2.2450e-24  3.0355e-24  2.2785e-24  3.0654e-24  2.3379e-24  3.1185e-24  2.4437e-24  3.2129e-24  2.6319e-24  3.3808e-24  2.9670e-24  3.6791e-24  3.5637e-24  4.2091e-24  4.6280e-24  5.1497e-24  6.5297e-24  6.8175e-24  9.9390e-24  9.7712e-24  1.6080e-23  1.5000e-23  2.7195e-23  2.4397e-23  4.7266e-23  4.1313e-23  8.4235e-23  7.1952e-23  1.5414e-22  1.2817e-22  2.9194e-22  2.3355e-22  5.8110e-22
      4.70  2.7556e-24  2.3820e-24  2.7608e-24  2.3949e-24  2.7701e-24  2.4179e-24  2.7866e-24  2.4587e-24  2.8159e-24  2.5314e-24  2.8680e-24  2.6605e-24  2.9607e-24  2.8904e-24  3.1253e-24  3.2996e-24  3.4180e-24  4.0285e-24  3.9379e-24  5.3283e-24  4.8607e-24  7.6512e-24  6.4972e-24  1.1816e-23  9.3957e-24  1.9319e-23  1.4526e-23  3.2920e-23  2.3763e-23  5.7456e-23  4.0380e-23  1.0270e-22  7.0489e-23  1.8836e-22  1.2578e-22  3.5754e-22  2.2949e-22  7.1370e-22
      4.75  2.5249e-24  2.5680e-24  2.5300e-24  2.5835e-24  2.5391e-24  2.6111e-24  2.5553e-24  2.6601e-24  2.5840e-24  2.7474e-24  2.6352e-24  2.9026e-24  2.7260e-24  3.1787e-24  2.8875e-24  3.6702e-24  3.1746e-24  4.5456e-24  3.6844e-24  6.1069e-24  4.5896e-24  8.8971e-24  6.1950e-24  1.3900e-23  9.0387e-24  2.2915e-23  1.4074e-23  3.9272e-23  2.3150e-23  6.8767e-23  3.9469e-23  1.2321e-22  6.9051e-23  2.2642e-22  1.2341e-22  4.3066e-22  2.2545e-22  8.6203e-22
      4.80  2.3106e-24  2.7831e-24  2.3156e-24  2.8014e-24  2.3245e-24  2.8340e-24  2.3404e-24  2.8919e-24  2.3685e-24  2.9950e-24  2.4186e-24  3.1783e-24  2.5077e-24  3.5044e-24  2.6660e-24  4.0849e-24  2.9474e-24  5.1189e-24  3.4473e-24  6.9629e-24  4.3347e-24  1.0258e-23  5.9087e-24  1.6166e-23  8.6974e-24  2.6814e-23  1.3645e-23  4.6102e-23  2.2555e-23  8.0934e-23  3.8577e-23  1.4528e-22  6.7631e-23  2.6742e-22  1.2105e-22  5.0968e-22  2.2143e-22  1.0231e-21
      4.85  2.1114e-24  3.0342e-24  2.1163e-24  3.0555e-24  2.1250e-24  3.0933e-24  2.1405e-24  3.1607e-24  2.1681e-24  3.2804e-24  2.2172e-24  3.4934e-24  2.3044e-24  3.8724e-24  2.4595e-24  4.5469e-24  2.7352e-24  5.7483e-24  3.2249e-24  7.8908e-24  4.0944e-24  1.1719e-23  5.6367e-24  1.8583e-23  8.3697e-24  3.0953e-23  1.3228e-23  5.3323e-23  2.1967e-23  9.3782e-23  3.7687e-23  1.6857e-22  6.6202e-23  3.1070e-22  1.1866e-22  5.9309e-22  2.1733e-22  1.1934e-21
      4.90  1.9259e-24  3.3354e-24  1.9307e-24  3.3598e-24  1.9392e-24  3.4031e-24  1.9544e-24  3.4802e-24  1.9814e-24  3.6172e-24  2.0295e-24  3.8609e-24  2.1149e-24  4.2945e-24  2.2667e-24  5.0664e-24  2.5366e-24  6.4410e-24  3.0160e-24  8.8923e-24  3.8672e-24  1.3272e-23  5.3773e-24  2.1124e-23  8.0537e-24  3.5272e-23  1.2820e-23  6.0817e-23  2.1386e-23  1.0708e-22  3.6796e-23  1.9266e-22  6.4757e-23  3.5543e-22  1.1622e-22  6.7936e-22  2.1310e-22  1.3696e-21
      4.95  1.7527e-24  3.7018e-24  1.7574e-24  3.7293e-24  1.7657e-24  3.7782e-24  1.7806e-24  3.8651e-24  1.8070e-24  4.0197e-24  1.8540e-24  4.2947e-24  1.9376e-24  4.7840e-24  2.0861e-24  5.6548e-24  2.3500e-24  7.2058e-24  2.8190e-24  9.9712e-24  3.6517e-24  1.4912e-23  5.1292e-24  2.3766e-23  7.7481e-24  3.9719e-23  1.2420e-23  6.8479e-23  2.0808e-23  1.2064e-22  3.5901e-23  2.1715e-22  6.3293e-23  4.0087e-22  1.1373e-22  7.6691e-22  2.0875e-22  1.5484e-21
      5.00  1.5901e-24  4.1462e-24  1.5946e-24  4.1768e-24  1.6028e-24  4.2313e-24  1.6173e-24  4.3282e-24  1.6432e-24  4.5004e-24  1.6891e-24  4.8069e-24  1.7708e-24  5.3520e-24  1.9159e-24  6.3223e-24  2.1740e-24  8.0503e-24  2.6324e-24  1.1131e-23  3.4464e-24  1.6634e-23  4.8909e-24  2.6493e-23  7.4516e-24  4.4253e-23  1.2026e-23  7.6224e-23  2.0234e-23  1.3428e-22  3.5004e-23  2.4173e-22  6.1816e-23  4.4636e-22  1.1120e-22  8.5441e-22  2.0428e-22  1.7267e-21
      5.05  1.4360e-24  4.6801e-24  1.4405e-24  4.7139e-24  1.4485e-24  4.7739e-24  1.4627e-24  4.8806e-24  1.4879e-24  5.0705e-24  1.5328e-24  5.4082e-24  1.6125e-24  6.0090e-24  1.7544e-24  7.0782e-24  2.0064e-24  8.9823e-24  2.4542e-24  1.2377e-23  3.2495e-24  1.8439e-23  4.6606e-24  2.9295e-23  7.1627e-24  4.8847e-23  1.1639e-23  8.3999e-23  1.9664e-23  1.4789e-22  3.4107e-23  2.6617e-22  6.0328e-23  4.9149e-22  1.0864e-22  9.4097e-22  1.9972e-22  1.9023e-21
      5.10  1.2886e-24  5.2887e-24  1.2930e-24  5.3255e-24  1.3007e-24  5.3910e-24  1.3146e-24  5.5075e-24  1.3392e-24  5.7147e-24  1.3830e-24  6.0833e-24  1.4609e-24  6.7390e-24  1.5994e-24  7.9058e-24  1.8454e-24  9.9837e-24  2.2826e-24  1.3687e-23  3.0589e-24  2.0300e-23  4.4366e-24  3.2132e-23  6.8796e-24  5.3443e-23  1.1257e-23  9.1711e-23  1.9097e-23  1.6133e-22  3.3209e-23  2.9022e-22  5.8832e-23  5.3576e-22  1.0605e-22  1.0256e-21  1.9508e-22  2.0732e-21
      5.15  1.1463e-24  5.9516e-24  1.1505e-24  5.9914e-24  1.1581e-24  6.0624e-24  1.1717e-24  6.1885e-24  1.1957e-24  6.4127e-24  1.2384e-24  6.8116e-24  1.3144e-24  7.5213e-24  1.4494e-24  8.7839e-24  1.6895e-24  1.1029e-23  2.1160e-24  1.5034e-23  2.8733e-24  2.2185e-23  4.2173e-24  3.4990e-23  6.6027e-24  5.7967e-23  1.0877e-23  9.9279e-23  1.8532e-23  1.7446e-22  3.2309e-23  3.1364e-22  5.7325e-23  5.7875e-22  1.0342e-22  1.1075e-21  1.9036e-22  2.2391e-21
      5.20  1.0086e-24  6.6311e-24  1.0128e-24  6.6739e-24  1.0202e-24  6.7500e-24  1.0334e-24  6.8854e-24  1.0568e-24  7.1261e-24  1.0984e-24  7.5542e-24  1.1725e-24  8.3158e-24  1.3041e-24  9.6712e-24  1.5381e-24  1.2084e-23  1.9538e-24  1.6385e-23  2.6919e-24  2.4039e-23  4.0017e-24  3.7765e-23  6.3304e-24  6.2404e-23  1.0500e-23  1.0670e-22  1.7965e-23  1.8729e-22  3.1402e-23  3.3647e-22  5.5801e-23  6.2054e-22  1.0076e-22  1.1868e-21  1.8553e-22  2.3959e-21
      5.25  8.7658e-25  7.2775e-24  8.8064e-25  7.3233e-24  8.8785e-25  7.4048e-24  9.0068e-25  7.5497e-24  9.2348e-25  7.8073e-24  9.6404e-25  8.2615e-24  1.0361e-24  9.0735e-24  1.1643e-24  1.0519e-23  1.3921e-24  1.3091e-23  1.7968e-24  1.7673e-23  2.5154e-24  2.5856e-23  3.7904e-24  4.0459e-23  6.0614e-24  6.6542e-23  1.0123e-23  1.1360e-22  1.7396e-23  1.9922e-22  3.0486e-23  3.5766e-22  5.4253e-23  6.5983e-22  9.8039e-23  1.2610e-21  1.8057e-22  2.5429e-21
      5.30  7.5236e-25  7.8486e-24  7.5630e-25  7.8972e-24  7.6332e-25  7.9835e-24  7.7579e-25  8.1372e-24  7.9797e-25  8.4103e-24  8.3741e-25  8.8962e-24  9.0753e-25  9.7605e-24  1.0322e-24  1.1277e-23  1.2537e-24  1.3999e-23  1.6472e-24  1.8845e-23  2.3458e-24  2.7499e-23  3.5852e-24  4.2971e-23  5.7971e-24  7.0677e-23  9.7491e-24  1.2056e-22  1.6825e-23  2.1129e-22  2.9558e-23  3.7912e-22  5.2672e-23  6.9835e-22  9.5243e-23  1.3336e-21  1.7544e-22  2.6860e-21
      5.35  6.3875e-25  8.3108e-24  6.4258e-25  8.3623e-24  6.4939e-25  8.4540e-24  6.6150e-25  8.6170e-24  6.8304e-25  8.9024e-24  7.2133e-25  9.4144e-24  7.8941e-25  1.0325e-23  9.1043e-25  1.1946e-23  1.1255e-24  1.4774e-23  1.5075e-24  1.9870e-23  2.1855e-24  2.8966e-23  3.3887e-24  4.5236e-23  5.5391e-24  7.4330e-23  9.3776e-24  1.2673e-22  1.6249e-23  2.2201e-22  2.8613e-23  3.9816e-22  5.1049e-23  7.3917e-22  9.2348e-23  1.4097e-21  1.7008e-22  2.8337e-21
      5.40  5.3813e-25  8.6562e-24  5.4184e-25  8.7104e-24  5.4844e-25  8.8068e-24  5.6018e-25  8.9782e-24  5.8105e-25  9.2831e-24  6.1815e-25  9.8253e-24  6.8413e-25  1.0790e-23  8.0139e-25  1.2506e-23  1.0098e-24  1.5561e-23  1.3798e-24  2.1004e-23  2.0365e-24  3.0717e-23  3.2039e-24  4.8070e-23  5.2883e-24  7.9117e-23  9.0084e-24  1.3501e-22  1.5667e-23  2.3659e-22  2.7644e-23  4.2416e-22  4.9367e-23  7.7998e-22  8.9319e-23  1.4851e-21  1.6441e-22  2.9764e-21
      5.45  4.5173e-25  8.9048e-24  4.5532e-25  8.9620e-24  4.6170e-25  9.0639e-24  4.7304e-25  9.2450e-24  4.9321e-25  9.5671e-24  5.2908e-25  1.0140e-23  5.9285e-25  1.1159e-23  7.0619e-25  1.2972e-23  9.0755e-25  1.6199e-23  1.2650e-24  2.1861e-23  1.8992e-24  3.2051e-23  3.0290e-24  5.0158e-23  5.0438e-24  8.2644e-23  8.6394e-24  1.4115e-22  1.5073e-23  2.4737e-22  2.6642e-23  4.4394e-22  4.7609e-23  8.1534e-22  8.6123e-23  1.5594e-21  1.5836e-22  3.1147e-21
      5.50  3.7945e-25  9.0790e-24  3.8290e-25  9.1392e-24  3.8905e-25  9.2462e-24  3.9998e-25  9.4365e-24  4.1942e-25  9.7748e-24  4.5399e-25  1.0377e-23  5.1543e-25  1.1447e-23  6.2463e-25  1.3351e-23  8.1860e-25  1.6741e-23  1.1628e-24  2.2780e-23  1.7734e-24  3.3550e-23  2.8631e-24  5.2760e-23  4.8043e-24  8.7143e-23  8.2680e-24  1.4899e-22  1.4464e-23  2.6120e-22  2.5599e-23  4.6786e-22  4.5763e-23  8.5811e-22  8.2744e-23  1.6260e-21  1.5192e-22  3.2335e-21
      5.55  3.2011e-25  9.2339e-24  3.2343e-25  9.2971e-24  3.2934e-25  9.4094e-24  3.3984e-25  9.6092e-24  3.5851e-25  9.9644e-24  3.9170e-25  1.0596e-23  4.5071e-25  1.1720e-23  5.5556e-25  1.3719e-23  7.4173e-25  1.7277e-23  1.0719e-24  2.3615e-23  1.6587e-24  3.4911e-23  2.7049e-24  5.5063e-23  4.5685e-24  9.1123e-23  7.8931e-24  1.5595e-22  1.3839e-23  2.7347e-22  2.4517e-23  4.8951e-22  4.3833e-23  8.9633e-22  7.9196e-23  1.6927e-21  1.4515e-22  3.3467e-21
      5.60  2.7201e-25  9.3978e-24  2.7519e-25  9.4641e-24  2.8084e-25  9.5820e-24  2.9090e-25  9.7918e-24  3.0877e-25  1.0165e-23  3.4055e-25  1.0828e-23  3.9702e-25  1.2008e-23  4.9735e-25  1.4106e-23  6.7535e-25  1.7841e-23  9.9091e-25  2.4493e-23  1.5529e-24  3.6344e-23  2.5538e-24  5.7486e-23  4.3366e-24  9.5305e-23  7.5163e-24  1.6325e-22  1.3201e-23  2.8630e-22  2.3404e-23  5.1212e-22  4.1842e-23  9.3609e-22  7.5533e-23  1.7618e-21  1.3816e-22  3.4637e-21
      5.65  2.3327e-25  9.5976e-24  2.3630e-25  9.6673e-24  2.4170e-25  9.7913e-24  2.5129e-25  1.0012e-23  2.6836e-25  1.0404e-23  2.9869e-25  1.1101e-23  3.5258e-25  1.2340e-23  4.4826e-25  1.4546e-23  6.1790e-25  1.8471e-23  9.1861e-25  2.5459e-23  1.4551e-24  3.7908e-23  2.4097e-24  6.0116e-23  4.1099e-24  9.9828e-23  7.1418e-24  1.7114e-22  1.2560e-23  3.0016e-22  2.2280e-23  5.3659e-22  3.9827e-23  9.7920e-22  7.1829e-23  1.8377e-21  1.3113e-22  3.5925e-21
      5.70  2.0211e-25  9.8529e-24  2.0500e-25  9.9264e-24  2.1014e-25  1.0057e-23  2.1928e-25  1.0289e-23  2.3553e-25  1.0702e-23  2.6442e-25  1.1437e-23  3.1573e-25  1.2743e-23  4.0672e-25  1.5067e-23  5.6797e-25  1.9203e-23  8.5434e-25  2.6564e-23  1.3648e-24  3.9680e-23  2.2732e-24  6.3073e-23  3.8908e-24  1.0490e-22  6.7749e-24  1.7997e-22  1.1928e-23  3.1568e-22  2.1166e-23  5.6405e-22  3.7828e-23  1.0282e-21  6.8165e-23  1.9281e-21  1.2421e-22  3.7514e-21
      5.75  1.7700e-25  1.0136e-23  1.7975e-25  1.0214e-23  1.8464e-25  1.0352e-23  1.9333e-25  1.0597e-23  2.0879e-25  1.1034e-23  2.3626e-25  1.1810e-23  2.8501e-25  1.3190e-23  3.7140e-25  1.5646e-23  5.2436e-25  2.0016e-23  7.9674e-25  2.7794e-23  1.2817e-24  4.1650e-23  2.1446e-24  6.6363e-23  3.6813e-24  1.1053e-22  6.4207e-24  1.8985e-22  1.1314e-23  3.3309e-22  2.0082e-23  5.9495e-22  3.5883e-23  1.0833e-21  6.4611e-23  2.0248e-21  1.1755e-22  3.9278e-21
      5.80  1.5669e-25  1.0526e-23  1.5930e-25  1.0608e-23  1.6394e-25  1.0754e-23  1.7220e-25  1.1013e-23  1.8688e-25  1.1473e-23  2.1296e-25  1.2292e-23  2.5920e-25  1.3749e-23  3.4111e-25  1.6340e-23  4.8613e-25  2.0950e-23  7.4491e-25  2.9157e-23  1.2052e-24  4.3776e-23  2.0241e-24  6.9848e-23  3.4823e-24  1.1644e-22  6.0816e-24  2.0008e-22  1.0723e-23  3.5109e-22  1.9038e-23  6.2700e-22  3.4009e-23  1.1416e-21  6.1199e-23  2.1307e-21  1.1120e-22  4.1236e-21
      5.85  1.4016e-25  1.1019e-23  1.4264e-25  1.1105e-23  1.4704e-25  1.1258e-23  1.5487e-25  1.1530e-23  1.6878e-25  1.2013e-23  1.9349e-25  1.2872e-23  2.3728e-25  1.4401e-23  3.1483e-25  1.7120e-23  4.5242e-25  2.1959e-23  6.9768e-25  3.0572e-23  1.1339e-24  4.5913e-23  1.9100e-24  7.3272e-23  3.2919e-24  1.2217e-22  5.7548e-24  2.0988e-22  1.0152e-23  3.6828e-22  1.8027e-23  6.5760e-22  3.2199e-23  1.1964e-21  5.7909e-23  2.2307e-21  1.0511e-22  4.3201e-21
      5.90  1.2664e-25  1.1621e-23  1.2897e-25  1.1710e-23  1.3313e-25  1.1868e-23  1.4052e-25  1.2150e-23  1.5367e-25  1.2652e-23  1.7702e-25  1.3543e-23  2.1839e-25  1.5129e-23  2.9165e-25  1.7950e-23  4.2186e-25  2.2970e-23  6.5370e-25  3.1906e-23  1.0660e-24  4.7822e-23  1.7997e-24  7.6207e-23  3.1058e-24  1.2693e-22  5.4337e-24  2.1794e-22  9.5894e-24  3.8229e-22  1.7029e-23  6.8253e-22  3.0413e-23  1.2420e-21  5.4675e-23  2.3169e-21  9.9162e-23  4.4777e-21
      5.95  1.1549e-25  1.2336e-23  1.1768e-25  1.2427e-23  1.2159e-25  1.2588e-23  1.2853e-25  1.2875e-23  1.4089e-25  1.3386e-23  1.6284e-25  1.4294e-23  2.0175e-25  1.5909e-23  2.7067e-25  1.8782e-23  3.9336e-25  2.3895e-23  6.1150e-25  3.2996e-23  9.9950e-25  4.9207e-23  1.6899e-24  7.8117e-23  2.9190e-24  1.2979e-22  5.1094e-24  2.2251e-22  9.0193e-24  3.8996e-22  1.6018e-23  6.9712e-22  2.8604e-23  1.2681e-21  5.1406e-23  2.3701e-21  9.3171e-23  4.5835e-21
      6.00  1.0623e-25  1.3171e-23  1.0827e-25  1.3262e-23  1.1191e-25  1.3422e-23  1.1839e-25  1.3708e-23  1.2991e-25  1.4216e-23  1.5038e-25  1.5119e-23  1.8673e-25  1.6726e-23  2.5117e-25  1.9585e-23  3.6578e-25  2.4671e-23  5.6951e-25  3.3726e-23  9.3187e-25  4.9855e-23  1.5766e-24  7.8621e-23  2.7246e-24  1.3004e-22  4.7704e-24  2.2232e-22  8.4222e-24  3.8908e-22  1.4959e-23  6.9405e-22  2.6713e-23  1.2647e-21  4.8004e-23  2.3606e-21  8.6966e-23  4.5718e-21
      6.05  9.8477e-26  1.4152e-23  1.0036e-25  1.4238e-23  1.0372e-25  1.4393e-23  1.0968e-25  1.4667e-23  1.2030e-25  1.5155e-23  1.3918e-25  1.6023e-23  1.7273e-25  1.7567e-23  2.3229e-25  2.0313e-23  3.3806e-25  2.5201e-23  5.2610e-25  3.3902e-23  8.6058e-25  4.9401e-23  1.4557e-24  7.7046e-23  2.5155e-24  1.2647e-22  4.4042e-24  2.1520e-22  7.7762e-24  3.7564e-22  1.3814e-23  6.6934e-22  2.4674e-23  1.2181e-21  4.4355e-23  2.2764e-21  8.0385e-23  4.4209e-21
      6.10  9.1946e-26  1.5271e-23  9.3656e-26  1.5350e-23  9.6698e-26  1.5492e-23  1.0211e-25  1.5744e-23  1.1173e-25  1.6192e-23  1.2885e-25  1.6989e-23  1.5928e-25  1.8407e-23  2.1336e-25  2.0930e-23  3.0937e-25  2.5418e-23  4.8006e-25  3.3408e-23  7.8366e-25  4.7644e-23  1.3239e-24  7.3040e-23  2.2860e-24  1.1846e-22  4.0012e-24  2.0005e-22  7.0643e-24  3.4771e-22  1.2552e-23  6.1855e-22  2.2433e-23  1.1257e-21  4.0362e-23  2.1081e-21  7.3243e-23  4.1093e-21
      6.15  8.6401e-26  1.6541e-23  8.7920e-26  1.6611e-23  9.0621e-26  1.6734e-23  9.5424e-26  1.6954e-23  1.0397e-25  1.7344e-23  1.1916e-25  1.8038e-23  1.4617e-25  1.9274e-23  1.9418e-25  2.1472e-23  2.7949e-25  2.5382e-23  4.3117e-25  3.2343e-23  7.0094e-25  4.4746e-23  1.1811e-24  6.6891e-23  2.0362e-24  1.0651e-22  3.5610e-24  1.7773e-22  6.2855e-24  3.0678e-22  1.1170e-23  5.4406e-22  1.9978e-23  9.8991e-22  3.5994e-23  1.8584e-21  6.5452e-23  3.6479e-21
      6.20  8.1668e-26  1.7979e-23  8.2988e-26  1.8036e-23  8.5334e-26  1.8138e-23  8.9504e-26  1.8319e-23  9.6921e-26  1.8641e-23  1.1011e-25  1.9214e-23  1.3355e-25  2.0234e-23  1.7523e-25  2.2047e-23  2.4932e-25  2.5273e-23  3.8107e-25  3.1015e-23  6.1544e-25  4.1248e-23  1.0326e-24  5.9514e-23  1.7756e-24  9.2205e-23  3.1008e-24  1.5105e-22  5.4696e-24  2.5780e-22  9.7197e-24  4.5429e-22  1.7392e-23  8.2518e-22  3.1369e-23  1.5559e-21  5.7153e-23  3.0697e-21
      6.25  7.7624e-26  1.9604e-23  7.8752e-26  1.9649e-23  8.0756e-26  1.9730e-23  8.4319e-26  1.9874e-23  9.0653e-26  2.0129e-23  1.0191e-25  2.0585e-23  1.2193e-25  2.1398e-23  1.5752e-25  2.2840e-23  2.2082e-25  2.5405e-23  3.3338e-25  2.9974e-23  5.3363e-25  3.8113e-23  8.9005e-25  5.2642e-23  1.5249e-24  7.8649e-23  2.6573e-24  1.2545e-22  4.6815e-24  2.1042e-22  8.3139e-24  3.6694e-22  1.4872e-23  6.6307e-22  2.6827e-23  1.2449e-21  4.8902e-23  2.4542e-21
      6.30  7.4171e-26  2.1460e-23  7.5128e-26  2.1496e-23  7.6831e-26  2.1560e-23  7.9857e-26  2.1673e-23  8.5235e-26  2.1876e-23  9.4791e-26  2.2237e-23  1.1178e-25  2.2881e-23  1.4199e-25  2.4023e-23  1.9572e-25  2.6055e-23  2.9130e-25  2.9672e-23  4.6132e-25  3.6117e-23  7.6393e-25  4.7620e-23  1.3029e-24  6.8209e-23  2.2640e-24  1.0525e-22  3.9817e-24  1.7245e-22  7.0625e-24  2.9622e-22  1.2621e-23  5.2997e-22  2.2741e-23  9.8859e-22  4.1398e-23  1.9468e-21
      6.35  7.1219e-26  2.3549e-23  7.2033e-26  2.3578e-23  7.3478e-26  2.3630e-23  7.6048e-26  2.3723e-23  8.0613e-26  2.3889e-23  8.8717e-26  2.4184e-23  1.0312e-25  2.4710e-23  1.2875e-25  2.5643e-23  1.7434e-25  2.7303e-23  2.5542e-25  3.0258e-23  3.9968e-25  3.5522e-23  6.5641e-25  4.4917e-23  1.1136e-24  6.1729e-23  1.9287e-24  9.1962e-23  3.3846e-24  1.4680e-22  5.9940e-24  2.4837e-22  1.0695e-23  4.3913e-22  1.9237e-23  8.1253e-22  3.4934e-23  1.5851e-21
      6.40  6.8688e-26  2.5895e-23  6.9378e-26  2.5919e-23  7.0604e-26  2.5963e-23  7.2783e-26  2.6042e-23  7.6652e-26  2.6181e-23  8.3517e-26  2.6430e-23  9.5707e-26  2.6874e-23  1.1742e-25  2.7661e-23  1.5603e-25  2.9062e-23  2.2472e-25  3.1554e-23  3.4690e-25  3.5994e-23  5.6434e-25  4.3917e-23  9.5150e-25  5.8094e-23  1.6415e-24  8.3585e-23  2.8735e-24  1.2980e-22  5.0795e-24  2.1487e-22  9.0485e-24  3.7505e-22  1.6242e-23  6.8987e-22  2.9413e-23  1.3441e-21
      6.45  6.6510e-26  2.8524e-23  6.7095e-26  2.8545e-23  6.8134e-26  2.8582e-23  6.9979e-26  2.8649e-23  7.3254e-26  2.8768e-23  7.9062e-26  2.8980e-23  8.9366e-26  2.9358e-23  1.0774e-25  3.0029e-23  1.4040e-25  3.1222e-23  1.9851e-25  3.3345e-23  3.0187e-25  3.7137e-23  4.8580e-25  4.3893e-23  8.1324e-25  5.5999e-23  1.3967e-24  7.7743e-23  2.4378e-24  1.1715e-22  4.3004e-24  1.8958e-22  7.6464e-24  3.2607e-22  1.3696e-23  5.9398e-22  2.4729e-23  1.1456e-21
      6.50  6.4635e-26  3.1468e-23  6.5132e-26  3.1486e-23  6.6014e-26  3.1518e-23  6.7582e-26  3.1575e-23  7.0363e-26  3.1677e-23  7.5293e-26  3.1859e-23  8.4040e-26  3.2183e-23  9.9637e-26  3.2758e-23  1.2737e-25  3.3780e-23  1.7671e-25  3.5600e-23  2.6447e-25  3.8841e-23  4.2062e-25  4.4625e-23  6.9857e-25  5.4969e-23  1.1937e-24  7.3561e-23  2.0767e-24  1.0724e-22  3.6551e-24  1.6943e-22  6.4864e-24  2.8607e-22  1.1593e-23  5.1353e-22  2.0871e-23  9.8109e-22
      6.55  6.3020e-26  3.4793e-23  6.3445e-26  3.4809e-23  6.4202e-26  3.4836e-23  6.5545e-26  3.4886e-23  6.7929e-26  3.4974e-23  7.2154e-26  3.5131e-23  7.9653e-26  3.5411e-23  9.3025e-26  3.5909e-23  1.1681e-25  3.6793e-23  1.5911e-25  3.8366e-23  2.3435e-25  4.1168e-23  3.6822e-25  4.6166e-23  6.0648e-25  5.5106e-23  1.0308e-24  7.1168e-23  1.7872e-24  1.0026e-22  3.1383e-24  1.5365e-22  5.5586e-24  2.5402e-22  9.9144e-24  4.4922e-22  1.7803e-23  8.4956e-22
      6.60  6.1624e-26  3.8512e-23  6.1993e-26  3.8526e-23  6.2649e-26  3.8551e-23  6.3812e-26  3.8594e-23  6.5877e-26  3.8671e-23  6.9537e-26  3.8809e-23  7.6037e-26  3.9055e-23  8.7625e-26  3.9492e-23  1.0824e-25  4.0268e-23  1.4489e-25  4.1649e-23  2.1010e-25  4.4107e-23  3.2612e-25  4.8492e-23  5.3259e-25  5.6333e-23  9.0020e-25  7.0419e-23  1.5554e-24  9.5918e-23  2.7248e-24  1.4269e-22  4.8175e-24  2.3038e-22  8.5775e-24  4.0113e-22  1.5370e-23  7.4999e-22
      6.65  6.0416e-26  4.2671e-23  6.0738e-26  4.2684e-23  6.1310e-26  4.2706e-23  6.2327e-26  4.2745e-23  6.4130e-26  4.2814e-23  6.7328e-26  4.2937e-23  7.3011e-26  4.3157e-23  8.3138e-26  4.3548e-23  1.0115e-25  4.4242e-23  1.3319e-25  4.5476e-23  1.9019e-25  4.7673e-23  2.9160e-25  5.1592e-23  4.7205e-25  5.8598e-23  7.9330e-25  7.1218e-23  1.3657e-24  9.4018e-23  2.3868e-24  1.3583e-22  4.2127e-24  2.1412e-22  7.4887e-24  3.6594e-22  1.3394e-23  6.7606e-22
      6.70  5.9366e-26  4.7321e-23  5.9648e-26  4.7333e-23  6.0150e-26  4.7353e-23  6.1041e-26  4.7388e-23  6.2624e-26  4.7451e-23  6.5431e-26  4.7563e-23  7.0422e-26  4.7765e-23  7.9315e-26  4.8121e-23  9.5131e-26  4.8754e-23  1.2327e-25  4.9879e-23  1.7332e-25  5.1882e-23  2.6237e-25  5.5454e-23  4.2083e-25  6.1840e-23  7.0289e-25  7.3306e-23  1.2053e-24  9.4050e-23  2.1013e-24  1.3205e-22  3.7024e-24  2.0318e-22  6.5717e-24  3.4088e-22  1.1735e-23  6.2149e-22
      6.75  5.8451e-26  5.2519e-23  5.8699e-26  5.2530e-23  5.9140e-26  5.2548e-23  5.9923e-26  5.2581e-23  6.1314e-26  5.2640e-23  6.3784e-26  5.2744e-23  6.8175e-26  5.2930e-23  7.5999e-26  5.3261e-23  8.9914e-26  5.3847e-23  1.1467e-25  5.4889e-23  1.5871e-25  5.6743e-23  2.3707e-25  6.0049e-23  3.7649e-25  6.5960e-23  6.2466e-25  7.6570e-23  1.0666e-24  9.5758e-23  1.8546e-24  1.3089e-22  3.2618e-24  1.9657e-22  5.7815e-24  3.2352e-22  1.0309e-23  5.8177e-22
      6.80  5.7653e-26  5.8370e-23  5.7871e-26  5.8380e-23  5.8258e-26  5.8397e-23  5.8948e-26  5.8428e-23  6.0172e-26  5.8484e-23  6.2349e-26  5.8582e-23  6.6219e-26  5.8758e-23  7.3113e-26  5.9071e-23  8.5375e-26  5.9624e-23  1.0719e-25  6.0607e-23  1.4600e-25  6.2355e-23  2.1506e-25  6.5473e-23  3.3794e-25  7.1046e-23  5.5664e-25  8.1048e-23  9.4609e-25  9.9129e-23  1.6402e-24  1.3221e-22  2.8792e-24  1.9400e-22  5.0960e-24  3.1329e-22  9.0751e-24  5.5515e-22
      6.85  5.6956e-26  6.4911e-23  5.7148e-26  6.4921e-23  5.7490e-26  6.4938e-23  5.8097e-26  6.4968e-23  5.9178e-26  6.5021e-23  6.1099e-26  6.5115e-23  6.4517e-26  6.5286e-23  7.0604e-26  6.5589e-23  8.1433e-26  6.6124e-23  1.0070e-25  6.7072e-23  1.3497e-25  6.8760e-23  1.9596e-25  7.1769e-23  3.0449e-25  7.7146e-23  4.9764e-25  8.6796e-23  8.4155e-25  1.0423e-22  1.4544e-24  1.3613e-22  2.5479e-24  1.9565e-22  4.5031e-24  3.1042e-22  8.0094e-24  5.4265e-22
      6.90  5.6346e-26  7.2224e-23  5.6516e-26  7.2234e-23  5.6818e-26  7.2250e-23  5.7354e-26  7.2280e-23  5.8308e-26  7.2332e-23  6.0005e-26  7.2425e-23  6.3027e-26  7.2594e-23  6.8407e-26  7.2894e-23  7.7978e-26  7.3422e-23  9.5002e-26  7.4357e-23  1.2530e-25  7.6021e-23  1.7921e-25  7.8987e-23  2.7516e-25  8.4289e-23  4.4591e-25  9.3800e-23  7.4993e-25  1.1098e-22  1.2916e-24  1.4244e-22  2.2578e-24  2.0104e-22  3.9846e-24  3.1392e-22  7.0792e-24  5.4195e-22
      6.95  5.5813e-26  8.0401e-23  5.5963e-26  8.0410e-23  5.6229e-26  8.0427e-23  5.6702e-26  8.0456e-23  5.7544e-26  8.0509e-23  5.9043e-26  8.0602e-23  6.1713e-26  8.0770e-23  6.6467e-26  8.1072e-23  7.4920e-26  8.1600e-23  8.9961e-26  8.2536e-23  1.1673e-25  8.4200e-23  1.6438e-25  8.7164e-23  2.4918e-25  9.2462e-23  4.0011e-25  1.0197e-22  6.6881e-25  1.1914e-22  1.1475e-24  1.5051e-22  2.0012e-24  2.0906e-22  3.5266e-24  3.2162e-22  6.2588e-24  5.4892e-22
      7.00  5.5346e-26  8.9543e-23  5.5477e-26  8.9553e-23  5.5712e-26  8.9569e-23  5.6129e-26  8.9599e-23  5.6871e-26  8.9651e-23  5.8191e-26  8.9745e-23  6.0545e-26  8.9912e-23  6.4738e-26  9.0217e-23  7.2190e-26  9.0747e-23  8.5454e-26  9.1684e-23  1.0907e-25  9.3349e-23  1.5111e-25  9.6316e-23  2.2594e-25  1.0162e-22  3.5913e-25  1.1113e-22  5.9627e-25  1.2830e-22  1.0187e-24  1.5970e-22  1.7721e-24  2.1824e-22  3.1179e-24  3.3076e-22  5.5281e-24  5.5772e-22
      7.05  5.4935e-26  9.9818e-23  5.5051e-26  9.9828e-23  5.5256e-26  9.9844e-23  5.5622e-26  9.9873e-23  5.6272e-26  9.9925e-23  5.7430e-26  1.0002e-22  5.9493e-26  1.0018e-22  6.3172e-26  1.0049e-22  6.9712e-26  1.0101e-22  8.1350e-26  1.0194e-22  1.0207e-25  1.0358e-22  1.3898e-25  1.0652e-22  2.0469e-25  1.1175e-22  3.2167e-25  1.2115e-22  5.2998e-25  1.3812e-22  9.0113e-25  1.6913e-22  1.5631e-24  2.2690e-22  2.7460e-24  3.3804e-22  4.8654e-24  5.6207e-22
      7.10  5.4574e-26  1.1131e-22  5.4675e-26  1.1132e-22  5.4853e-26  1.1133e-22  5.5170e-26  1.1136e-22  5.5734e-26  1.1141e-22  5.6739e-26  1.1150e-22  5.8528e-26  1.1166e-22  6.1721e-26  1.1195e-22  6.7396e-26  1.1246e-22  7.7492e-26  1.1336e-22  9.5470e-26  1.1495e-22  1.2750e-25  1.1777e-22  1.8455e-25  1.2282e-22  2.8613e-25  1.3187e-22  4.6707e-25  1.4822e-22  7.8950e-25  1.7809e-22  1.3647e-24  2.3379e-22  2.3930e-24  3.4081e-22  4.2364e-24  5.5747e-22
      7.15  5.4256e-26  1.2416e-22  5.4341e-26  1.2417e-22  5.4493e-26  1.2419e-22  5.4764e-26  1.2421e-22  5.5245e-26  1.2426e-22  5.6101e-26  1.2434e-22  5.7625e-26  1.2449e-22  6.0344e-26  1.2477e-22  6.5180e-26  1.2525e-22  7.3778e-26  1.2609e-22  8.9092e-26  1.2758e-22  1.1638e-25  1.3023e-22  1.6500e-25  1.3496e-22  2.5162e-25  1.4343e-22  4.0594e-25  1.5874e-22  6.8104e-25  1.8670e-22  1.1720e-24  2.3880e-22  2.0502e-24  3.3897e-22  3.6258e-24  5.4103e-22
      7.20  5.3975e-26  1.3854e-22  5.4046e-26  1.3855e-22  5.4173e-26  1.3857e-22  5.4398e-26  1.3859e-22  5.4800e-26  1.3863e-22  5.5514e-26  1.3871e-22  5.6784e-26  1.3884e-22  5.9047e-26  1.3909e-22  6.3079e-26  1.3954e-22  7.0246e-26  1.4032e-22  8.3008e-26  1.4169e-22  1.0575e-25  1.4412e-22  1.4629e-25  1.4844e-22  2.1855e-25  1.5620e-22  3.4734e-25  1.7021e-22  5.7702e-25  1.9580e-22  9.8714e-25  2.4341e-22  1.7211e-24  3.3492e-22  3.0390e-24  5.1875e-22
      7.25  5.3728e-26  1.5463e-22  5.3786e-26  1.5464e-22  5.3890e-26  1.5465e-22  5.4075e-26  1.5468e-22  5.4404e-26  1.5471e-22  5.4990e-26  1.5478e-22  5.6032e-26  1.5491e-22  5.7885e-26  1.5513e-22  6.1193e-26  1.5555e-22  6.7071e-26  1.5626e-22  7.7533e-26  1.5751e-22  9.6181e-26  1.5972e-22  1.2943e-25  1.6365e-22  1.8873e-25  1.7071e-22  2.9449e-25  1.8343e-22  4.8316e-25  2.0664e-22  8.2018e-25  2.4978e-22  1.4235e-24  3.3247e-22  2.5076e-24  4.9844e-22
      7.30  5.3511e-26  1.7270e-22  5.3559e-26  1.7271e-22  5.3644e-26  1.7272e-22  5.3795e-26  1.7274e-22  5.4064e-26  1.7277e-22  5.4542e-26  1.7284e-22  5.5393e-26  1.7295e-22  5.6904e-26  1.7315e-22  5.9603e-26  1.7354e-22  6.4405e-26  1.7420e-22  7.2944e-26  1.7535e-22  8.8166e-26  1.7738e-22  1.1532e-25  1.8099e-22  1.6379e-25  1.8745e-22  2.5028e-25  1.9909e-22  4.0467e-25  2.2030e-22  6.8056e-25  2.5968e-22  1.1746e-24  3.3493e-22  2.0625e-24  4.8572e-22
      7.35  5.3322e-26  1.9292e-22  5.3361e-26  1.9293e-22  5.3431e-26  1.9294e-22  5.3555e-26  1.9296e-22  5.3776e-26  1.9299e-22  5.4169e-26  1.9305e-22  5.4867e-26  1.9315e-22  5.6110e-26  1.9334e-22  5.8326e-26  1.9370e-22  6.2276e-26  1.9433e-22  6.9297e-26  1.9542e-22  8.1813e-26  1.9731e-22  1.0416e-25  2.0067e-22  1.4407e-25  2.0669e-22  2.1534e-25  2.1752e-22  3.4267e-25  2.3724e-22  5.7030e-25  2.7378e-22  9.7804e-25  3.4351e-22  1.7110e-24  4.8236e-22
      7.40  5.3157e-26  2.1555e-22  5.3189e-26  2.1556e-22  5.3247e-26  2.1557e-22  5.3351e-26  2.1558e-22  5.3535e-26  2.1562e-22  5.3862e-26  2.1567e-22  5.4444e-26  2.1577e-22  5.5480e-26  2.1595e-22  5.7326e-26  2.1628e-22  6.0625e-26  2.1691e-22  6.6482e-26  2.1795e-22  7.6922e-26  2.1976e-22  9.5566e-26  2.2296e-22  1.2889e-25  2.2868e-22  1.8847e-25  2.3897e-22  2.9497e-25  2.5767e-22  4.8548e-25  2.9227e-22  8.2686e-25  3.5818e-22  1.4408e-24  4.8860e-22
      7.45  5.3012e-26  2.4088e-22  5.3039e-26  2.4089e-22  5.3089e-26  2.4090e-22  5.3176e-26  2.4091e-22  5.3332e-26  2.4094e-22  5.3610e-26  2.4100e-22  5.4103e-26  2.4110e-22  5.4982e-26  2.4127e-22  5.6555e-26  2.4162e-22  5.9356e-26  2.4224e-22  6.4326e-26  2.4325e-22  7.3183e-26  2.4501e-22  8.9001e-26  2.4812e-22  1.1729e-25  2.5368e-22  1.6791e-25  2.6366e-22  2.5848e-25  2.8180e-22  4.2060e-25  3.1535e-22  7.1121e-25  3.7883e-22  1.2339e-24  5.0405e-22
      7.50  5.2884e-26  2.6924e-22  5.2908e-26  2.6924e-22  5.2951e-26  2.6925e-22  5.3026e-26  2.6927e-22  5.3161e-26  2.6930e-22  5.3401e-26  2.6935e-22  5.3827e-26  2.6945e-22  5.4586e-26  2.6962e-22  5.5952e-26  2.7000e-22  5.8375e-26  2.7062e-22  6.2669e-26  2.7164e-22  7.0319e-26  2.7339e-22  8.3988e-26  2.7647e-22  1.0844e-25  2.8198e-22  1.5224e-25  2.9187e-22  2.3070e-25  3.0983e-22  3.7128e-25  3.4293e-22  6.2347e-25  4.0543e-22  1.0774e-24  5.2817e-22
      7.55  5.2772e-26  3.0106e-22  5.2793e-26  3.0107e-22  5.2830e-26  3.0107e-22  5.2897e-26  3.0109e-22  5.3015e-26  3.0112e-22  5.3225e-26  3.0118e-22  5.3599e-26  3.0128e-22  5.4266e-26  3.0145e-22  5.5474e-26  3.0187e-22  5.7605e-26  3.0252e-22  6.1377e-26  3.0355e-22  6.8094e-26  3.0532e-22  8.0088e-26  3.0844e-22  1.0155e-25  3.1400e-22  1.4000e-25  3.2400e-22  2.0894e-25  3.4211e-22  3.3255e-25  3.7543e-22  5.5446e-25  4.3819e-22  9.5406e-25  5.6098e-22
      7.60  5.2672e-26  3.3669e-22  5.2691e-26  3.3669e-22  5.2724e-26  3.3670e-22  5.2783e-26  3.3672e-22  5.2888e-26  3.3675e-22  5.3075e-26  3.3681e-22  5.3409e-26  3.3691e-22  5.4002e-26  3.3709e-22  5.5087e-26  3.3757e-22  5.6988e-26  3.3825e-22  6.0348e-26  3.3932e-22  6.6328e-26  3.4114e-22  7.6999e-26  3.4435e-22  9.6085e-26  3.5006e-22  1.3028e-25  3.6032e-22  1.9162e-25  3.7888e-22  3.0167e-25  4.1298e-22  4.9933e-25  4.7705e-22  8.5539e-25  6.0192e-22
      7.65  5.2583e-26  3.7658e-22  5.2600e-26  3.7659e-22  5.2630e-26  3.7660e-22  5.2683e-26  3.7661e-22  5.2777e-26  3.7665e-22  5.2946e-26  3.7671e-22  5.3246e-26  3.7681e-22  5.3781e-26  3.7700e-22  5.4768e-26  3.7757e-22  5.6483e-26  3.7829e-22  5.9509e-26  3.7941e-22  6.4889e-26  3.8131e-22  7.4488e-26  3.8465e-22  9.1646e-26  3.9059e-22  1.2238e-25  4.0124e-22  1.7751e-25  4.2052e-22  2.7648e-25  4.5589e-22  4.5433e-25  5.2218e-22  7.7482e-25  6.5091e-22
      7.70  5.2503e-26  4.2124e-22  5.2518e-26  4.2125e-22  5.2545e-26  4.2126e-22  5.2593e-26  4.2128e-22  5.2679e-26  4.2132e-22  5.2832e-26  4.2138e-22  5.3104e-26  4.2149e-22  5.3597e-26  4.2174e-22  5.4498e-26  4.2237e-22  5.6056e-26  4.2315e-22  5.8804e-26  4.2433e-22  6.3685e-26  4.2633e-22  7.2385e-26  4.2984e-22  8.7930e-26  4.3608e-22  1.1576e-25  4.4727e-22  1.6568e-25  4.6749e-22  2.5531e-25  5.0453e-22  4.1648e-25  5.7383e-22  7.0699e-25  7.0794e-22
      7.75  5.2430e-26  4.7125e-22  5.2444e-26  4.7126e-22  5.2468e-26  4.7127e-22  5.2512e-26  4.7129e-22  5.2591e-26  4.7133e-22  5.2730e-26  4.7139e-22  5.2978e-26  4.7151e-22  5.3436e-26  4.7185e-22  5.4263e-26  4.7255e-22  5.5686e-26  4.7339e-22  5.8192e-26  4.7466e-22  6.2641e-26  4.7678e-22  7.0566e-26  4.8050e-22  8.4715e-26  4.8710e-22  1.1003e-25  4.9892e-22  1.5543e-25  5.2028e-22  2.3695e-25  5.5935e-22  3.8358e-25  6.3232e-22  6.4800e-25  7.7310e-22
      7.80  5.2363e-26  5.2735e-22  5.2376e-26  5.2736e-22  5.2398e-26  5.2737e-22  5.2438e-26  5.2740e-22  5.2510e-26  5.2743e-22  5.2637e-26  5.2750e-22  5.2863e-26  5.2763e-22  5.3291e-26  5.2807e-22  5.4052e-26  5.2887e-22  5.5355e-26  5.2979e-22  5.7645e-26  5.3115e-22  6.1706e-26  5.3342e-22  6.8937e-26  5.3737e-22  8.1839e-26  5.4439e-22  1.0491e-25  5.5696e-22  1.4626e-25  5.7966e-22  2.2050e-25  6.2112e-22  3.5408e-25  6.9840e-22  5.9506e-25  8.4705e-22
      7.85  5.2301e-26  5.9017e-22  5.2312e-26  5.9018e-22  5.2333e-26  5.9019e-22  5.2370e-26  5.9022e-22  5.2435e-26  5.9026e-22  5.2551e-26  5.9033e-22  5.2757e-26  5.9046e-22  5.3158e-26  5.9105e-22  5.3859e-26  5.9195e-22  5.5051e-26  5.9297e-22  5.7142e-26  5.9444e-22  6.0846e-26  5.9687e-22  6.7436e-26  6.0109e-22  7.9188e-26  6.0858e-22  1.0019e-25  6.2198e-22  1.3781e-25  6.4614e-22  2.0534e-25  6.9026e-22  3.2687e-25  7.7231e-22  5.4619e-25  9.2969e-22
      7.90  5.2242e-26  6.6051e-22  5.2253e-26  6.6052e-22  5.2271e-26  6.6053e-22  5.2305e-26  6.6056e-22  5.2364e-26  6.6060e-22  5.2469e-26  6.6068e-22  5.2656e-26  6.6082e-22  5.3036e-26  6.6162e-22  5.3680e-26  6.6265e-22  5.4767e-26  6.6376e-22  5.6668e-26  6.6535e-22  6.0034e-26  6.6796e-22  6.6018e-26  6.7247e-22  7.6685e-26  6.8047e-22  9.5733e-26  6.9476e-22  1.2983e-25  7.2053e-22  1.9100e-25  7.6752e-22  3.0108e-25  8.5474e-22  4.9978e-25  1.0215e-21
      7.95  5.2186e-26  7.3926e-22  5.2195e-26  7.3927e-22  5.2212e-26  7.3929e-22  5.2242e-26  7.3931e-22  5.2296e-26  7.3936e-22  5.2391e-26  7.3944e-22  5.2560e-26  7.3959e-22  5.2921e-26  7.4067e-22  5.3511e-26  7.4184e-22  5.4498e-26  7.4308e-22  5.6218e-26  7.4480e-22  5.9260e-26  7.4759e-22  6.4666e-26  7.5242e-22  7.4294e-26  7.6096e-22  9.1477e-26  7.7622e-22  1.2221e-25  8.0369e-22  1.7730e-25  8.5372e-22  2.7638e-25  9.4642e-22  4.5516e-25  1.1231e-21
      8.00  5.2131e-26  8.2743e-22  5.2140e-26  8.2744e-22  5.2155e-26  8.2746e-22  5.2182e-26  8.2749e-22  5.2230e-26  8.2754e-22  5.2315e-26  8.2763e-22  5.2467e-26  8.2779e-22  5.2812e-26  8.2920e-22  5.3351e-26  8.3056e-22  5.4242e-26  8.3194e-22  5.5789e-26  8.3382e-22  5.8522e-26  8.3682e-22  6.3373e-26  8.4199e-22  7.2011e-26  8.5111e-22  8.7415e-26  8.6739e-22  1.1494e-25  8.9669e-22  1.6426e-25  9.4996e-22  2.5287e-25  1.0484e-21  4.1268e-25  1.2355e-21
      8.05  5.2076e-26  9.2628e-22  5.2084e-26  9.2629e-22  5.2098e-26  9.2630e-22  5.2122e-26  9.2633e-22  5.2164e-26  9.2639e-22  5.2240e-26  9.2648e-22  5.2375e-26  9.2665e-22  5.2707e-26  9.2850e-22  5.3199e-26  9.3010e-22  5.4000e-26  9.3165e-22  5.5383e-26  9.3370e-22  5.7821e-26  9.3693e-22  6.2147e-26  9.4247e-22  6.9844e-26  9.5223e-22  8.3565e-26  9.6964e-22  1.0807e-25  1.0009e-21  1.5193e-25  1.0577e-21  2.3068e-25  1.1625e-21  3.7261e-25  1.3608e-21
      8.10  5.2021e-26  1.0369e-21  5.2028e-26  1.0369e-21  5.2040e-26  1.0370e-21  5.2061e-26  1.0370e-21  5.2099e-26  1.0370e-21  5.2166e-26  1.0371e-21  5.2286e-26  1.0373e-21  5.2607e-26  1.0397e-21  5.3056e-26  1.0416e-21  5.3774e-26  1.0434e-21  5.5004e-26  1.0456e-21  5.7166e-26  1.0491e-21  6.1000e-26  1.0551e-21  6.7818e-26  1.0655e-21  7.9965e-26  1.0842e-21  1.0165e-25  1.1176e-21  1.4043e-25  1.1783e-21  2.1000e-25  1.2899e-21  3.3529e-25  1.5003e-21
      8.15  5.1964e-26  1.1608e-21  5.1970e-26  1.1608e-21  5.1981e-26  1.1608e-21  5.1999e-26  1.1608e-21  5.2033e-26  1.1609e-21  5.2092e-26  1.1610e-21  5.2197e-26  1.1612e-21  5.2512e-26  1.1643e-21  5.2924e-26  1.1665e-21  5.3565e-26  1.1686e-21  5.4655e-26  1.1711e-21  5.6564e-26  1.1749e-21  5.9944e-26  1.1813e-21  6.5954e-26  1.1925e-21  7.6655e-26  1.2125e-21  9.5745e-26  1.2483e-21  1.2986e-25  1.3132e-21  1.9102e-25  1.4323e-21  3.0105e-25  1.6560e-21
      8.20  5.1904e-26  1.2994e-21  5.1910e-26  1.2994e-21  5.1919e-26  1.2994e-21  5.1935e-26  1.2994e-21  5.1964e-26  1.2995e-21  5.2016e-26  1.2996e-21  5.2109e-26  1.2998e-21  5.2420e-26  1.3038e-21  5.2801e-26  1.3065e-21  5.3376e-26  1.3089e-21  5.4339e-26  1.3116e-21  5.6019e-26  1.3158e-21  5.8989e-26  1.3227e-21  6.4267e-26  1.3348e-21  7.3662e-26  1.3563e-21  9.0412e-26  1.3948e-21  1.2033e-25  1.4643e-21  1.7392e-25  1.5918e-21  2.7024e-25  1.8302e-21
      8.25  5.1841e-26  1.4544e-21  5.1845e-26  1.4544e-21  5.1853e-26  1.4545e-21  5.1868e-26  1.4545e-21  5.1893e-26  1.4546e-21  5.1938e-26  1.4547e-21  5.2019e-26  1.4549e-21  5.2333e-26  1.4599e-21  5.2689e-26  1.4633e-21  5.3205e-26  1.4661e-21  5.4056e-26  1.4692e-21  5.5532e-26  1.4737e-21  5.8138e-26  1.4813e-21  6.2764e-26  1.4943e-21  7.0996e-26  1.5175e-21  8.5667e-26  1.5590e-21  1.1186e-25  1.6338e-21  1.5874e-25  1.7706e-21  2.4292e-25  2.0256e-21
      8.30  5.1772e-26  1.6280e-21  5.1776e-26  1.6281e-21  5.1783e-26  1.6281e-21  5.1795e-26  1.6281e-21  5.1817e-26  1.6282e-21  5.1857e-26  1.6283e-21  5.1928e-26  1.6286e-21  5.2248e-26  1.6350e-21  5.2586e-26  1.6391e-21  5.3052e-26  1.6424e-21  5.3806e-26  1.6460e-21  5.5104e-26  1.6510e-21  5.7389e-26  1.6592e-21  6.1442e-26  1.6734e-21  6.8651e-26  1.6985e-21  8.1495e-26  1.7434e-21  1.0442e-25  1.8243e-21  1.4542e-25  1.9719e-21  2.1898e-25  2.2459e-21
      8.35  5.1696e-26  1.8222e-21  5.1699e-26  1.8222e-21  5.1706e-26  1.8222e-21  5.1717e-26  1.8223e-21  5.1736e-26  1.8224e-21  5.1771e-26  1.8225e-21  5.1833e-26  1.8228e-21  5.2166e-26  1.8309e-21  5.2491e-26  1.8361e-21  5.2916e-26  1.8401e-21  5.3586e-26  1.8441e-21  5.4729e-26  1.8497e-21  5.6735e-26  1.8587e-21  6.0289e-26  1.8741e-21  6.6608e-26  1.9014e-21  7.7862e-26  1.9502e-21  9.7937e-26  2.0380e-21  1.3382e-25  2.1977e-21  1.9816e-25  2.4934e-21
      8.40  5.1612e-26  2.0392e-21  5.1615e-26  2.0393e-21  5.1621e-26  2.0393e-21  5.1630e-26  2.0393e-21  5.1648e-26  2.0394e-21  5.1678e-26  2.0396e-21  5.1732e-26  2.0399e-21  5.2084e-26  2.0502e-21  5.2403e-26  2.0567e-21  5.2795e-26  2.0615e-21  5.3394e-26  2.0662e-21  5.4404e-26  2.0725e-21  5.6169e-26  2.0823e-21  5.9292e-26  2.0992e-21  6.4841e-26  2.1290e-21  7.4721e-26  2.1822e-21  9.2339e-26  2.2777e-21  1.2382e-25  2.4513e-21  1.8021e-25  2.7716e-21
      8.45  5.1519e-26  2.2818e-21  5.1522e-26  2.2818e-21  5.1526e-26  2.2818e-21  5.1535e-26  2.2819e-21  5.1550e-26  2.2820e-21  5.1577e-26  2.2822e-21  5.1624e-26  2.2825e-21  5.2001e-26  2.2957e-21  5.2320e-26  2.3039e-21  5.2687e-26  2.3097e-21  5.3227e-26  2.3152e-21  5.4123e-26  2.3222e-21  5.5681e-26  2.3331e-21  5.8433e-26  2.3517e-21  6.3320e-26  2.3843e-21  7.2018e-26  2.4424e-21  8.7523e-26  2.5467e-21  1.1521e-25  2.7359e-21  1.6479e-25  3.0840e-21
      8.50  5.1414e-26  2.5526e-21  5.1417e-26  2.5527e-21  5.1421e-26  2.5527e-21  5.1428e-26  2.5527e-21  5.1441e-26  2.5529e-21  5.1465e-26  2.5531e-21  5.1507e-26  2.5534e-21  5.1917e-26  2.5703e-21  5.2241e-26  2.5806e-21  5.2590e-26  2.5878e-21  5.3081e-26  2.5943e-21  5.3880e-26  2.6022e-21  5.5261e-26  2.6143e-21  5.7695e-26  2.6347e-21  6.2014e-26  2.6705e-21  6.9697e-26  2.7342e-21  8.3389e-26  2.8484e-21  1.0783e-25  3.0553e-21  1.5156e-25  3.4349e-21
