# This was generated using Cloudy10 and the columns are ordered 
# as log10 of the fraction of the metallicity to the solar metallicity
# 'h_*_Z' and 'c_*_Z' stands for cooling and heating respectively 
# at * metalicity
#
# NOTE: This was generated separately from loop_coolingcurve_w_UV.py
#       using Output_metals_w_redshift.py.
#
# Redshift = 7.5
# hden = -5.5
#
#     temp   h_-3.00_Z   c_-3.00_Z   h_-2.75_Z   c_-2.75_Z   h_-2.50_Z   c_-2.50_Z   h_-2.25_Z   c_-2.25_Z   h_-2.00_Z   c_-2.00_Z   h_-1.75_Z   c_-1.75_Z   h_-1.50_Z   c_-1.50_Z   h_-1.25_Z   c_-1.25_Z   h_-1.00_Z   c_-1.00_Z   h_-0.75_Z   c_-0.75_Z   h_-0.50_Z   c_-0.50_Z   h_-0.25_Z   c_-0.25_Z    h_0.00_Z    c_0.00_Z    h_0.25_Z    c_0.25_Z    h_0.50_Z    c_0.50_Z    h_0.75_Z    c_0.75_Z    h_1.00_Z    c_1.00_Z    h_1.25_Z    c_1.25_Z    h_1.50_Z    c_1.50_Z 
      1.00  3.3238e-22  1.5731e-25  3.3240e-22  1.5731e-25  3.3243e-22  1.5731e-25  3.3248e-22  1.5731e-25  3.3256e-22  1.5732e-25  3.3272e-22  1.5732e-25  3.3300e-22  1.5734e-25  3.3349e-22  1.5736e-25  3.3436e-22  1.5739e-25  3.3591e-22  1.5746e-25  3.3866e-22  1.5758e-25  3.4352e-22  1.5779e-25  3.5210e-22  1.5817e-25  3.6718e-22  1.5884e-25  3.9366e-22  1.6003e-25  4.4074e-22  1.6215e-25  5.2506e-22  1.6594e-25  6.7606e-22  1.7276e-25  9.4736e-22  1.8509e-25
      1.05  3.1394e-22  1.7247e-25  3.1396e-22  1.7247e-25  3.1398e-22  1.7247e-25  3.1403e-22  1.7247e-25  3.1412e-22  1.7248e-25  3.1427e-22  1.7248e-25  3.1454e-22  1.7250e-25  3.1503e-22  1.7252e-25  3.1589e-22  1.7256e-25  3.1741e-22  1.7263e-25  3.1997e-22  1.7275e-25  3.2490e-22  1.7299e-25  3.3333e-22  1.7340e-25  3.4817e-22  1.7412e-25  3.7422e-22  1.7541e-25  4.2044e-22  1.7770e-25  5.0324e-22  1.8180e-25  6.5153e-22  1.8917e-25  9.1795e-22  2.0251e-25
      1.10  2.9661e-22  1.8928e-25  2.9663e-22  1.8928e-25  2.9665e-22  1.8928e-25  2.9670e-22  1.8928e-25  2.9679e-22  1.8929e-25  2.9694e-22  1.8929e-25  2.9721e-22  1.8931e-25  2.9768e-22  1.8933e-25  2.9853e-22  1.8938e-25  3.0003e-22  1.8946e-25  3.0270e-22  1.8960e-25  3.0741e-22  1.8985e-25  3.1573e-22  1.9030e-25  3.3036e-22  1.9109e-25  3.5605e-22  1.9250e-25  4.0152e-22  1.9502e-25  4.8301e-22  1.9953e-25  6.2899e-22  2.0763e-25  8.9124e-22  2.2231e-25
      1.15  2.8033e-22  2.0793e-25  2.8034e-22  2.0793e-25  2.8037e-22  2.0793e-25  2.8042e-22  2.0793e-25  2.8050e-22  2.0794e-25  2.8065e-22  2.0795e-25  2.8091e-22  2.0796e-25  2.8138e-22  2.0799e-25  2.8222e-22  2.0804e-25  2.8370e-22  2.0813e-25  2.8633e-22  2.0829e-25  2.9099e-22  2.0858e-25  2.9920e-22  2.0909e-25  3.1365e-22  2.1001e-25  3.3903e-22  2.1163e-25  3.8387e-22  2.1452e-25  4.6417e-22  2.1969e-25  6.0810e-22  2.2901e-25  8.6670e-22  2.4592e-25
      1.20  2.6502e-22  2.2863e-25  2.6504e-22  2.2864e-25  2.6506e-22  2.2864e-25  2.6511e-22  2.2864e-25  2.6519e-22  2.2865e-25  2.6534e-22  2.2866e-25  2.6560e-22  2.2868e-25  2.6607e-22  2.2871e-25  2.6689e-22  2.2878e-25  2.6836e-22  2.2889e-25  2.7095e-22  2.2910e-25  2.7555e-22  2.2946e-25  2.8367e-22  2.3010e-25  2.9796e-22  2.3125e-25  3.2305e-22  2.3329e-25  3.6731e-22  2.3693e-25  4.4657e-22  2.4346e-25  5.8860e-22  2.5526e-25  8.4391e-22  2.7680e-25
      1.25  2.5063e-22  2.5164e-25  2.5065e-22  2.5164e-25  2.5067e-22  2.5165e-25  2.5072e-22  2.5165e-25  2.5080e-22  2.5166e-25  2.5095e-22  2.5168e-25  2.5120e-22  2.5171e-25  2.5166e-22  2.5176e-25  2.5248e-22  2.5185e-25  2.5392e-22  2.5202e-25  2.5649e-22  2.5231e-25  2.6103e-22  2.5284e-25  2.6905e-22  2.5377e-25  2.8317e-22  2.5543e-25  3.0795e-22  2.5840e-25  3.5163e-22  2.6371e-25  4.2980e-22  2.7326e-25  5.6989e-22  2.9059e-25  8.2182e-22  3.2250e-25
      1.30  2.3710e-22  2.7722e-25  2.3712e-22  2.7723e-25  2.3714e-22  2.7723e-25  2.3719e-22  2.7724e-25  2.3727e-22  2.7725e-25  2.3741e-22  2.7728e-25  2.3767e-22  2.7733e-25  2.3812e-22  2.7742e-25  2.3892e-22  2.7757e-25  2.4035e-22  2.7785e-25  2.4288e-22  2.7834e-25  2.4737e-22  2.7922e-25  2.5529e-22  2.8077e-25  2.6924e-22  2.8355e-25  2.9373e-22  2.8851e-25  3.3689e-22  2.9741e-25  4.1394e-22  3.1347e-25  5.5213e-22  3.4276e-25  8.0074e-22  3.9717e-25
      1.35  2.2438e-22  3.0568e-25  2.2439e-22  3.0569e-25  2.2441e-22  3.0570e-25  2.2446e-22  3.0571e-25  2.2454e-22  3.0574e-25  2.2468e-22  3.0579e-25  2.2493e-22  3.0588e-25  2.2538e-22  3.0604e-25  2.2617e-22  3.0632e-25  2.2758e-22  3.0681e-25  2.3008e-22  3.0770e-25  2.3451e-22  3.0928e-25  2.4234e-22  3.1209e-25  2.5612e-22  3.1710e-25  2.8031e-22  3.2607e-25  3.2297e-22  3.4218e-25  3.9890e-22  3.7134e-25  5.3521e-22  4.2475e-25  7.8052e-22  5.2464e-25
      1.40  2.1240e-22  3.3848e-25  2.1241e-22  3.3849e-25  2.1244e-22  3.3851e-25  2.1248e-22  3.3854e-25  2.1256e-22  3.3859e-25  2.1270e-22  3.3868e-25  2.1295e-22  3.3884e-25  2.1339e-22  3.3913e-25  2.1417e-22  3.3964e-25  2.1556e-22  3.4055e-25  2.1803e-22  3.4217e-25  2.2240e-22  3.4505e-25  2.3013e-22  3.5018e-25  2.4374e-22  3.5935e-25  2.6765e-22  3.7575e-25  3.0979e-22  4.0528e-25  3.8461e-22  4.5879e-25  5.1903e-22  5.5708e-25  7.6103e-22  7.4175e-25
      1.45  2.0112e-22  3.7530e-25  2.0113e-22  3.7532e-25  2.0116e-22  3.7535e-25  2.0120e-22  3.7540e-25  2.0128e-22  3.7549e-25  2.0142e-22  3.7565e-25  2.0166e-22  3.7594e-25  2.0210e-22  3.7645e-25  2.0287e-22  3.7735e-25  2.0424e-22  3.7896e-25  2.0668e-22  3.8183e-25  2.1099e-22  3.8694e-25  2.1862e-22  3.9605e-25  2.3205e-22  4.1231e-25  2.5566e-22  4.4144e-25  2.9726e-22  4.9389e-25  3.7096e-22  5.8911e-25  5.0345e-22  7.6432e-25  7.4203e-22  1.0945e-24
      1.50  1.9050e-22  4.1609e-25  1.9051e-22  4.1612e-25  1.9053e-22  4.1617e-25  1.9058e-22  4.1626e-25  1.9065e-22  4.1641e-25  1.9079e-22  4.1668e-25  1.9103e-22  4.1717e-25  1.9146e-22  4.1803e-25  1.9222e-22  4.1956e-25  1.9358e-22  4.2229e-25  1.9598e-22  4.2714e-25  2.0023e-22  4.3579e-25  2.0776e-22  4.5120e-25  2.2102e-22  4.7873e-25  2.4432e-22  5.2807e-25  2.8538e-22  6.1695e-25  3.5798e-22  7.7846e-25  4.8854e-22  1.0761e-24  7.2366e-22  1.6381e-24
      1.55  1.8049e-22  4.6136e-25  1.8050e-22  4.6141e-25  1.8052e-22  4.6148e-25  1.8057e-22  4.6162e-25  1.8064e-22  4.6187e-25  1.8078e-22  4.6231e-25  1.8101e-22  4.6309e-25  1.8144e-22  4.6447e-25  1.8219e-22  4.6694e-25  1.8352e-22  4.7132e-25  1.8589e-22  4.7913e-25  1.9009e-22  4.9303e-25  1.9751e-22  5.1781e-25  2.1060e-22  5.6208e-25  2.3360e-22  6.4144e-25  2.7412e-22  7.8448e-25  3.4569e-22  1.0446e-24  4.7432e-22  1.5244e-24  7.0595e-22  2.4318e-24
      1.60  1.7105e-22  5.1166e-25  1.7106e-22  5.1172e-25  1.7108e-22  5.1184e-25  1.7113e-22  5.1205e-25  1.7120e-22  5.1243e-25  1.7133e-22  5.1310e-25  1.7157e-22  5.1429e-25  1.7198e-22  5.1641e-25  1.7272e-22  5.2018e-25  1.7404e-22  5.2688e-25  1.7638e-22  5.3882e-25  1.8052e-22  5.6007e-25  1.8784e-22  5.9797e-25  2.0075e-22  6.6568e-25  2.2345e-22  7.8708e-25  2.6343e-22  1.0059e-24  3.3398e-22  1.4042e-24  4.6069e-22  2.1393e-24  6.8883e-22  3.5315e-24
      1.65  1.6214e-22  5.6760e-25  1.6215e-22  5.6770e-25  1.6218e-22  5.6787e-25  1.6222e-22  5.6818e-25  1.6229e-22  5.6873e-25  1.6242e-22  5.6971e-25  1.6265e-22  5.7144e-25  1.6306e-22  5.7453e-25  1.6379e-22  5.8003e-25  1.6509e-22  5.8981e-25  1.6740e-22  6.0722e-25  1.7148e-22  6.3823e-25  1.7870e-22  6.9352e-25  1.9144e-22  7.9231e-25  2.1384e-22  9.6943e-25  2.5328e-22  1.2889e-24  3.2284e-22  1.8704e-24  4.4765e-22  2.9446e-24  6.7234e-22  4.9810e-24
      1.70  1.5373e-22  6.2988e-25  1.5374e-22  6.3002e-25  1.5377e-22  6.3026e-25  1.5381e-22  6.3069e-25  1.5388e-22  6.3146e-25  1.5401e-22  6.3282e-25  1.5424e-22  6.3525e-25  1.5464e-22  6.3957e-25  1.5536e-22  6.4725e-25  1.5664e-22  6.6091e-25  1.5892e-22  6.8523e-25  1.6294e-22  7.2854e-25  1.7007e-22  8.0578e-25  1.8264e-22  9.4379e-25  2.0474e-22  1.1913e-24  2.4365e-22  1.6377e-24  3.1226e-22  2.4507e-24  4.3519e-22  3.9535e-24  6.5647e-22  6.8047e-24
      1.75  1.4579e-22  6.9928e-25  1.4580e-22  6.9946e-25  1.4582e-22  6.9979e-25  1.4586e-22  7.0037e-25  1.4593e-22  7.0140e-25  1.4606e-22  7.0323e-25  1.4628e-22  7.0649e-25  1.4668e-22  7.1229e-25  1.4740e-22  7.2260e-25  1.4866e-22  7.4095e-25  1.5090e-22  7.7360e-25  1.5487e-22  8.3177e-25  1.6190e-22  9.3549e-25  1.7430e-22  1.1208e-24  1.9611e-22  1.4532e-24  2.3450e-22  2.0529e-24  3.0219e-22  3.1455e-24  4.2329e-22  5.1662e-24  6.4122e-22  9.0032e-24
      1.80  1.3828e-22  7.7669e-25  1.3829e-22  7.7693e-25  1.3831e-22  7.7735e-25  1.3835e-22  7.7810e-25  1.3842e-22  7.7944e-25  1.3855e-22  7.8182e-25  1.3877e-22  7.8604e-25  1.3916e-22  7.9355e-25  1.3986e-22  8.0692e-25  1.4111e-22  8.3069e-25  1.4332e-22  8.7301e-25  1.4724e-22  9.4839e-25  1.5417e-22  1.0828e-24  1.6640e-22  1.3230e-24  1.8792e-22  1.7539e-24  2.2579e-22  2.5313e-24  2.9259e-22  3.9482e-24  4.1189e-22  6.5705e-24  6.2652e-22  1.1553e-23
      1.85  1.3117e-22  8.6307e-25  1.3118e-22  8.6337e-25  1.3121e-22  8.6390e-25  1.3125e-22  8.6484e-25  1.3131e-22  8.6652e-25  1.3144e-22  8.6950e-25  1.3166e-22  8.7481e-25  1.3205e-22  8.8424e-25  1.3274e-22  9.0102e-25  1.3396e-22  9.3087e-25  1.3614e-22  9.8401e-25  1.4001e-22  1.0787e-24  1.4685e-22  1.2474e-24  1.5892e-22  1.5491e-24  1.8016e-22  2.0902e-24  2.1752e-22  3.0667e-24  2.8343e-22  4.8469e-24  4.0096e-22  8.1439e-24  6.1236e-22  1.4413e-23
      1.90  1.2445e-22  9.5951e-25  1.2446e-22  9.5988e-25  1.2448e-22  9.6052e-25  1.2452e-22  9.6168e-25  1.2459e-22  9.6372e-25  1.2471e-22  9.6737e-25  1.2492e-22  9.7384e-25  1.2531e-22  9.8536e-25  1.2599e-22  1.0059e-24  1.2720e-22  1.0423e-24  1.2935e-22  1.1072e-24  1.3316e-22  1.2228e-24  1.3991e-22  1.4289e-24  1.5182e-22  1.7974e-24  1.7278e-22  2.4583e-24  2.0963e-22  3.6513e-24  2.7469e-22  5.8269e-24  3.9047e-22  9.8589e-24  5.9876e-22  1.7531e-23
      1.95  1.1807e-22  1.0672e-24  1.1809e-22  1.0677e-24  1.1811e-22  1.0684e-24  1.1815e-22  1.0698e-24  1.1821e-22  1.0723e-24  1.1833e-22  1.0766e-24  1.1854e-22  1.0843e-24  1.1892e-22  1.0981e-24  1.1960e-22  1.1225e-24  1.2079e-22  1.1660e-24  1.2291e-22  1.2434e-24  1.2667e-22  1.3812e-24  1.3333e-22  1.6271e-24  1.4508e-22  2.0665e-24  1.6576e-22  2.8549e-24  2.0213e-22  4.2781e-24  2.6634e-22  6.8742e-24  3.8043e-22  1.1689e-23  5.8579e-22  2.0856e-23
      2.00  1.1203e-22  1.1876e-24  1.1204e-22  1.1881e-24  1.1207e-22  1.1890e-24  1.1210e-22  1.1906e-24  1.1217e-22  1.1935e-24  1.1229e-22  1.1986e-24  1.1250e-22  1.2076e-24  1.1287e-22  1.2237e-24  1.1353e-22  1.2522e-24  1.1471e-22  1.3031e-24  1.1680e-22  1.3936e-24  1.2051e-22  1.5547e-24  1.2708e-22  1.8422e-24  1.3868e-22  2.3560e-24  1.5910e-22  3.2778e-24  1.9499e-22  4.9423e-24  2.5839e-22  7.9793e-24  3.7087e-22  1.3615e-23  5.7334e-22  2.4351e-23
      2.05  1.0630e-22  1.3223e-24  1.0631e-22  1.3229e-24  1.0633e-22  1.3239e-24  1.0637e-22  1.3258e-24  1.0644e-22  1.3290e-24  1.0655e-22  1.3349e-24  1.0676e-22  1.3453e-24  1.0713e-22  1.3638e-24  1.0778e-22  1.3966e-24  1.0894e-22  1.4551e-24  1.1101e-22  1.5593e-24  1.1467e-22  1.7447e-24  1.2115e-22  2.0755e-24  1.3260e-22  2.6668e-24  1.5277e-22  3.7277e-24  1.8821e-22  5.6435e-24  2.5082e-22  9.1396e-24  3.6175e-22  1.5629e-23  5.6145e-22  2.8000e-23
      2.10  1.0086e-22  1.4729e-24  1.0087e-22  1.4735e-24  1.0089e-22  1.4747e-24  1.0093e-22  1.4768e-24  1.0099e-22  1.4806e-24  1.0111e-22  1.4872e-24  1.0131e-22  1.4990e-24  1.0167e-22  1.5200e-24  1.0232e-22  1.5574e-24  1.0347e-22  1.6239e-24  1.0551e-22  1.7423e-24  1.0912e-22  1.9531e-24  1.1553e-22  2.3292e-24  1.2684e-22  3.0014e-24  1.4676e-22  4.2074e-24  1.8176e-22  6.3853e-24  2.4363e-22  1.0360e-23  3.5309e-22  1.7740e-23  5.5016e-22  3.1809e-23
      2.15  9.5688e-23  1.6414e-24  9.5700e-23  1.6421e-24  9.5720e-23  1.6434e-24  9.5756e-23  1.6458e-24  9.5820e-23  1.6500e-24  9.5933e-23  1.6575e-24  9.6135e-23  1.6708e-24  9.6494e-23  1.6945e-24  9.7132e-23  1.7366e-24  9.8266e-23  1.8115e-24  1.0028e-22  1.9449e-24  1.0385e-22  2.1824e-24  1.1018e-22  2.6060e-24  1.2136e-22  3.3633e-24  1.4106e-22  4.7218e-24  1.7567e-22  7.1748e-24  2.3681e-22  1.1651e-23  3.4492e-22  1.9962e-23  5.3947e-22  3.5803e-23
      2.20  9.0773e-23  1.8299e-24  9.0784e-23  1.8308e-24  9.0804e-23  1.8323e-24  9.0840e-23  1.8349e-24  9.0903e-23  1.8396e-24  9.1015e-23  1.8480e-24  9.1215e-23  1.8629e-24  9.1569e-23  1.8894e-24  9.2200e-23  1.9365e-24  9.3321e-23  2.0203e-24  9.5311e-23  2.1695e-24  9.8843e-23  2.4353e-24  1.0510e-22  2.9093e-24  1.1615e-22  3.7565e-24  1.3564e-22  5.2762e-24  1.6988e-22  8.0196e-24  2.3035e-22  1.3024e-23  3.3726e-22  2.2312e-23  5.2935e-22  4.0010e-23
      2.25  8.6097e-23  2.0410e-24  8.6108e-23  2.0420e-24  8.6128e-23  2.0436e-24  8.6163e-23  2.0466e-24  8.6225e-23  2.0518e-24  8.6336e-23  2.0611e-24  8.6534e-23  2.0777e-24  8.6885e-23  2.1072e-24  8.7508e-23  2.1596e-24  8.8617e-23  2.2530e-24  9.0585e-23  2.4190e-24  9.4077e-23  2.7148e-24  1.0026e-22  3.2423e-24  1.1120e-22  4.1850e-24  1.3048e-22  5.8757e-24  1.6437e-22  8.9270e-24  2.2420e-22  1.4491e-23  3.2998e-22  2.4809e-23  5.1972e-22  4.4454e-23
      2.30  8.1646e-23  2.2775e-24  8.1657e-23  2.2786e-24  8.1677e-23  2.2804e-24  8.1712e-23  2.2837e-24  8.1773e-23  2.2895e-24  8.1883e-23  2.2998e-24  8.2078e-23  2.3182e-24  8.2425e-23  2.3508e-24  8.3042e-23  2.4090e-24  8.4139e-23  2.5124e-24  8.6086e-23  2.6964e-24  8.9541e-23  3.0242e-24  9.5662e-23  3.6087e-24  1.0649e-22  4.6530e-24  1.2557e-22  6.5257e-24  1.5912e-22  9.9041e-24  2.1833e-22  1.6061e-23  3.2303e-22  2.7468e-23  5.1052e-22  4.9163e-23
      2.35  7.7408e-23  2.5424e-24  7.7419e-23  2.5435e-24  7.7438e-23  2.5455e-24  7.7472e-23  2.5491e-24  7.7533e-23  2.5556e-24  7.7642e-23  2.5670e-24  7.7835e-23  2.5873e-24  7.8179e-23  2.6233e-24  7.8789e-23  2.6875e-24  7.9874e-23  2.8017e-24  8.1800e-23  3.0050e-24  8.5219e-23  3.3670e-24  9.1276e-23  4.0124e-24  1.0199e-22  5.1654e-24  1.2088e-22  7.2325e-24  1.5411e-22  1.0960e-23  2.1271e-22  1.7747e-23  3.1636e-22  3.0310e-23  5.0172e-22  5.4168e-23
      2.40  7.3370e-23  2.8391e-24  7.3380e-23  2.8403e-24  7.3399e-23  2.8425e-24  7.3433e-23  2.8465e-24  7.3494e-23  2.8536e-24  7.3601e-23  2.8662e-24  7.3792e-23  2.8885e-24  7.4132e-23  2.9283e-24  7.4736e-23  2.9990e-24  7.5809e-23  3.1248e-24  7.7715e-23  3.3487e-24  8.1098e-23  3.7475e-24  8.7092e-23  4.4584e-24  9.7695e-23  5.7282e-24  1.1640e-22  8.0039e-24  1.4930e-22  1.2106e-23  2.0730e-22  1.9569e-23  3.0990e-22  3.3365e-23  4.9319e-22  5.9521e-23
      2.45  6.9520e-23  3.1715e-24  6.9531e-23  3.1729e-24  6.9550e-23  3.1753e-24  6.9584e-23  3.1797e-24  6.9643e-23  3.1875e-24  6.9750e-23  3.2013e-24  6.9939e-23  3.2259e-24  7.0275e-23  3.2696e-24  7.0872e-23  3.3474e-24  7.1934e-23  3.4858e-24  7.3819e-23  3.7320e-24  7.7166e-23  4.1706e-24  8.3098e-23  4.9523e-24  9.3591e-23  6.3484e-24  1.1210e-22  8.8497e-24  1.4468e-22  1.3355e-23  2.0209e-22  2.1547e-23  3.0366e-22  3.6670e-23  4.8489e-22  6.5286e-23
      2.50  6.5851e-23  3.5440e-24  6.5861e-23  3.5455e-24  6.5880e-23  3.5482e-24  6.5913e-23  3.5530e-24  6.5972e-23  3.5615e-24  6.6077e-23  3.5767e-24  6.6264e-23  3.6037e-24  6.6597e-23  3.6518e-24  6.7187e-23  3.7373e-24  6.8238e-23  3.8893e-24  7.0103e-23  4.1599e-24  7.3414e-23  4.6417e-24  7.9282e-23  5.5005e-24  8.9665e-23  7.0340e-24  1.0799e-22  9.7804e-24  1.4023e-22  1.4725e-23  1.9704e-22  2.3707e-23  2.9760e-22  4.0265e-23  4.7680e-22  7.1532e-23
      2.55  6.2351e-23  3.9616e-24  6.2361e-23  3.9632e-24  6.2380e-23  3.9662e-24  6.2412e-23  3.9715e-24  6.2471e-23  3.9809e-24  6.2575e-23  3.9975e-24  6.2760e-23  4.0272e-24  6.3088e-23  4.0800e-24  6.3673e-23  4.1738e-24  6.4711e-23  4.3408e-24  6.6556e-23  4.6380e-24  6.9831e-23  5.1670e-24  7.5635e-23  6.1099e-24  8.5907e-23  7.7932e-24  1.0404e-22  1.0807e-23  1.3595e-22  1.6230e-23  1.9216e-22  2.6072e-23  2.9168e-22  4.4190e-23  4.6897e-22  7.8324e-23
      2.60  5.9012e-23  4.4297e-24  5.9022e-23  4.4315e-24  5.9041e-23  4.4347e-24  5.9073e-23  4.4405e-24  5.9131e-23  4.4508e-24  5.9234e-23  4.4691e-24  5.9417e-23  4.5017e-24  5.9742e-23  4.5596e-24  6.0319e-23  4.6626e-24  6.1346e-23  4.8459e-24  6.3170e-23  5.1720e-24  6.6408e-23  5.7525e-24  7.2149e-23  6.7871e-24  8.2307e-23  8.6337e-24  1.0024e-22  1.1939e-23  1.3182e-22  1.7883e-23  1.8741e-22  2.8662e-23  2.8588e-22  4.8475e-23  4.6130e-22  8.5716e-23
      2.65  5.5827e-23  4.9544e-24  5.5838e-23  4.9564e-24  5.5856e-23  4.9599e-24  5.5888e-23  4.9663e-24  5.5945e-23  4.9776e-24  5.6047e-23  4.9976e-24  5.6227e-23  5.0334e-24  5.6548e-23  5.0969e-24  5.7120e-23  5.2098e-24  5.8134e-23  5.4107e-24  5.9938e-23  5.7682e-24  6.3139e-23  6.4047e-24  6.8814e-23  7.5388e-24  7.8859e-23  9.5627e-24  9.6595e-23  1.3184e-23  1.2783e-22  1.9694e-23  1.8280e-22  3.1488e-23  2.8021e-22  5.3136e-23  4.5379e-22  9.3733e-23
      2.70  5.2789e-23  5.5426e-24  5.2799e-23  5.5448e-24  5.2817e-23  5.5487e-24  5.2849e-23  5.5557e-24  5.2905e-23  5.5680e-24  5.3006e-23  5.5900e-24  5.3184e-23  5.6291e-24  5.3502e-23  5.6986e-24  5.4066e-23  5.8222e-24  5.5069e-23  6.0422e-24  5.6851e-23  6.4335e-24  6.0014e-23  7.1302e-24  6.5624e-23  8.3715e-24  7.5553e-23  1.0586e-23  9.3088e-23  1.4548e-23  1.2397e-22  2.1667e-23  1.7832e-22  3.4553e-23  2.7464e-22  5.8175e-23  4.4641e-22  1.0237e-22
      2.75  4.9891e-23  6.2021e-24  4.9901e-23  6.2045e-24  4.9918e-23  6.2088e-24  4.9950e-23  6.2164e-24  5.0006e-23  6.2299e-24  5.0105e-23  6.2539e-24  5.0281e-23  6.2966e-24  5.0595e-23  6.3725e-24  5.1152e-23  6.5075e-24  5.2143e-23  6.7478e-24  5.3904e-23  7.1752e-24  5.7029e-23  7.9361e-24  6.2571e-23  9.2916e-24  7.2383e-23  1.1710e-23  8.9713e-23  1.6035e-23  1.2024e-22  2.3803e-23  1.7396e-22  3.7853e-23  2.6916e-22  6.3576e-23  4.3910e-22  1.1161e-22
      2.80  4.7127e-23  6.9418e-24  4.7136e-23  6.9444e-24  4.7154e-23  6.9491e-24  4.7185e-23  6.9574e-24  4.7240e-23  6.9721e-24  4.7338e-23  6.9982e-24  4.7512e-23  7.0447e-24  4.7822e-23  7.1274e-24  4.8372e-23  7.2744e-24  4.9351e-23  7.5360e-24  5.1089e-23  8.0014e-24  5.4176e-23  8.8299e-24  5.9650e-23  1.0306e-23  6.9342e-23  1.2938e-23  8.6463e-23  1.7646e-23  1.1663e-22  2.6097e-23  1.6972e-22  4.1373e-23  2.6377e-22  6.9309e-23  4.3184e-22  1.2137e-22
      2.85  4.4491e-23  7.7713e-24  4.4500e-23  7.7741e-24  4.4518e-23  7.7792e-24  4.4548e-23  7.7881e-24  4.4603e-23  7.8041e-24  4.4699e-23  7.8324e-24  4.4871e-23  7.8829e-24  4.5177e-23  7.9726e-24  4.5720e-23  8.1321e-24  4.6686e-23  8.4158e-24  4.8403e-23  8.9207e-24  5.1450e-23  9.8194e-24  5.6855e-23  1.1420e-23  6.6424e-23  1.4276e-23  8.3331e-23  1.9380e-23  1.1313e-22  2.8542e-23  1.6557e-22  4.5092e-23  2.5845e-22  7.5329e-23  4.2460e-22  1.3158e-22
      2.90  4.1978e-23  8.7014e-24  4.1988e-23  8.7045e-24  4.2004e-23  8.7099e-24  4.2035e-23  8.7196e-24  4.2088e-23  8.7369e-24  4.2184e-23  8.7675e-24  4.2353e-23  8.8220e-24  4.2655e-23  8.9188e-24  4.3191e-23  9.0911e-24  4.4144e-23  9.3977e-24  4.5838e-23  9.9430e-24  4.8845e-23  1.0914e-23  5.4178e-23  1.2643e-23  6.3622e-23  1.5726e-23  8.0309e-23  2.1239e-23  1.0972e-22  3.1129e-23  1.6151e-22  4.8988e-23  2.5317e-22  8.1587e-23  4.1737e-22  1.4214e-22
      2.95  3.9583e-23  9.7446e-24  3.9593e-23  9.7479e-24  3.9610e-23  9.7537e-24  3.9639e-23  9.7642e-24  3.9692e-23  9.7827e-24  3.9786e-23  9.8156e-24  3.9954e-23  9.8742e-24  4.0251e-23  9.9783e-24  4.0780e-23  1.0164e-23  4.1720e-23  1.0493e-23  4.3390e-23  1.1079e-23  4.6355e-23  1.2123e-23  5.1615e-23  1.3981e-23  6.0930e-23  1.7296e-23  7.7392e-23  2.3221e-23  1.0641e-22  3.3849e-23  1.5751e-22  5.3034e-23  2.4793e-22  8.8030e-23  4.1013e-22  1.5295e-22
      3.00  3.7302e-23  1.0915e-23  3.7312e-23  1.0918e-23  3.7328e-23  1.0924e-23  3.7358e-23  1.0936e-23  3.7410e-23  1.0955e-23  3.7502e-23  1.0991e-23  3.7667e-23  1.1053e-23  3.7960e-23  1.1165e-23  3.8482e-23  1.1363e-23  3.9408e-23  1.1715e-23  4.1054e-23  1.2342e-23  4.3976e-23  1.3458e-23  4.9161e-23  1.5446e-23  5.8342e-23  1.8992e-23  7.4570e-23  2.5328e-23  1.0318e-22  3.6693e-23  1.5357e-22  5.7204e-23  2.4271e-22  9.4603e-23  4.0283e-22  1.6391e-22
      3.05  3.5131e-23  1.2227e-23  3.5140e-23  1.2231e-23  3.5156e-23  1.2238e-23  3.5185e-23  1.2250e-23  3.5237e-23  1.2271e-23  3.5328e-23  1.2308e-23  3.5490e-23  1.2375e-23  3.5779e-23  1.2493e-23  3.6292e-23  1.2704e-23  3.7204e-23  1.3079e-23  3.8825e-23  1.3746e-23  4.1703e-23  1.4934e-23  4.6809e-23  1.7049e-23  5.5852e-23  2.0821e-23  7.1837e-23  2.7562e-23  1.0003e-22  3.9654e-23  1.4968e-22  6.1473e-23  2.3748e-22  1.0125e-22  3.9542e-22  1.7490e-22
      3.10  3.3065e-23  1.3699e-23  3.3074e-23  1.3703e-23  3.3090e-23  1.3710e-23  3.3118e-23  1.3723e-23  3.3169e-23  1.3745e-23  3.3259e-23  1.3785e-23  3.3418e-23  1.3855e-23  3.3702e-23  1.3981e-23  3.4207e-23  1.4204e-23  3.5105e-23  1.4601e-23  3.6700e-23  1.5306e-23  3.9532e-23  1.6563e-23  4.4556e-23  1.8801e-23  5.3455e-23  2.2792e-23  6.9186e-23  2.9925e-23  9.6933e-23  4.2720e-23  1.4581e-22  6.5810e-23  2.3223e-22  1.0790e-22  3.8787e-22  1.8581e-22
      3.15  3.1100e-23  1.5351e-23  3.1109e-23  1.5355e-23  3.1125e-23  1.5363e-23  3.1152e-23  1.5376e-23  3.1202e-23  1.5399e-23  3.1290e-23  1.5441e-23  3.1447e-23  1.5515e-23  3.1727e-23  1.5647e-23  3.2223e-23  1.5882e-23  3.3105e-23  1.6299e-23  3.4673e-23  1.7041e-23  3.7457e-23  1.8363e-23  4.2396e-23  2.0717e-23  5.1145e-23  2.4916e-23  6.6614e-23  3.2420e-23  9.3900e-23  4.5883e-23  1.4198e-22  7.0182e-23  2.2695e-22  1.1448e-22  3.8019e-22  1.9648e-22
      3.20  2.9233e-23  1.7204e-23  2.9241e-23  1.7208e-23  2.9257e-23  1.7216e-23  2.9284e-23  1.7230e-23  2.9333e-23  1.7254e-23  2.9420e-23  1.7298e-23  2.9574e-23  1.7375e-23  2.9848e-23  1.7513e-23  3.0336e-23  1.7758e-23  3.1202e-23  1.8195e-23  3.2742e-23  1.8971e-23  3.5476e-23  2.0352e-23  4.0326e-23  2.2813e-23  4.8920e-23  2.7203e-23  6.4114e-23  3.5050e-23  9.0920e-23  4.9130e-23  1.3816e-22  7.4551e-23  2.2164e-22  1.2091e-22  3.7234e-22  2.0675e-22
      3.25  2.7459e-23  1.9282e-23  2.7468e-23  1.9287e-23  2.7483e-23  1.9295e-23  2.7510e-23  1.9309e-23  2.7558e-23  1.9334e-23  2.7643e-23  1.9380e-23  2.7794e-23  1.9460e-23  2.8063e-23  1.9603e-23  2.8541e-23  1.9858e-23  2.9391e-23  2.0311e-23  3.0902e-23  2.1117e-23  3.3584e-23  2.2551e-23  3.8343e-23  2.5107e-23  4.6774e-23  2.9665e-23  6.1684e-23  3.7817e-23  8.7992e-23  5.2447e-23  1.3436e-22  7.8874e-23  2.1629e-22  1.2710e-22  3.6433e-22  2.1644e-22
      3.30  2.5777e-23  2.1614e-23  2.5785e-23  2.1619e-23  2.5800e-23  2.1627e-23  2.5826e-23  2.1642e-23  2.5873e-23  2.1668e-23  2.5957e-23  2.1714e-23  2.6105e-23  2.1797e-23  2.6368e-23  2.1945e-23  2.6837e-23  2.2207e-23  2.7670e-23  2.2674e-23  2.9150e-23  2.3505e-23  3.1779e-23  2.4984e-23  3.6444e-23  2.7619e-23  4.4708e-23  3.2320e-23  5.9325e-23  4.0727e-23  8.5119e-23  5.5824e-23  1.3059e-22  8.3108e-23  2.1093e-22  1.3294e-22  3.5621e-22  2.2535e-22
      3.35  2.4181e-23  2.4230e-23  2.4189e-23  2.4234e-23  2.4204e-23  2.4243e-23  2.4230e-23  2.4258e-23  2.4276e-23  2.4285e-23  2.4357e-23  2.4332e-23  2.4502e-23  2.4417e-23  2.4760e-23  2.4568e-23  2.5219e-23  2.4837e-23  2.6035e-23  2.5314e-23  2.7484e-23  2.6164e-23  3.0059e-23  2.7677e-23  3.4626e-23  3.0373e-23  4.2720e-23  3.5185e-23  5.7037e-23  4.3791e-23  8.2306e-23  5.9253e-23  1.2686e-22  8.7219e-23  2.0561e-22  1.3835e-22  3.4802e-22  2.3329e-22
      3.40  2.2669e-23  2.7164e-23  2.2677e-23  2.7169e-23  2.2692e-23  2.7177e-23  2.2717e-23  2.7193e-23  2.2762e-23  2.7220e-23  2.2842e-23  2.7268e-23  2.2984e-23  2.7354e-23  2.3236e-23  2.7508e-23  2.3685e-23  2.7780e-23  2.4483e-23  2.8265e-23  2.5901e-23  2.9128e-23  2.8420e-23  3.0664e-23  3.2890e-23  3.3401e-23  4.0812e-23  3.8287e-23  5.4825e-23  4.7030e-23  7.9565e-23  6.2745e-23  1.2320e-22  9.1193e-23  2.0035e-22  1.4327e-22  3.3985e-22  2.4013e-22
      3.45  2.1238e-23  3.0455e-23  2.1246e-23  3.0460e-23  2.1260e-23  3.0469e-23  2.1285e-23  3.0484e-23  2.1328e-23  3.0512e-23  2.1407e-23  3.0561e-23  2.1545e-23  3.0647e-23  2.1792e-23  3.0802e-23  2.2231e-23  3.1076e-23  2.3012e-23  3.1565e-23  2.4398e-23  3.2434e-23  2.6861e-23  3.3981e-23  3.1232e-23  3.6739e-23  3.8979e-23  4.1662e-23  5.2686e-23  5.0476e-23  7.6892e-23  6.6329e-23  1.1960e-22  9.5052e-23  1.9515e-22  1.4770e-22  3.3182e-22  2.4579e-22
      3.50  1.9884e-23  3.4148e-23  1.9892e-23  3.4153e-23  1.9905e-23  3.4162e-23  1.9930e-23  3.4177e-23  1.9972e-23  3.4205e-23  2.0049e-23  3.4253e-23  2.0184e-23  3.4340e-23  2.0426e-23  3.4494e-23  2.0855e-23  3.4769e-23  2.1617e-23  3.5257e-23  2.2972e-23  3.6126e-23  2.5378e-23  3.7674e-23  2.9650e-23  4.0433e-23  3.7221e-23  4.5359e-23  5.0620e-23  5.4181e-23  7.4288e-23  7.0059e-23  1.1607e-22  9.8856e-23  1.9001e-22  1.5172e-22  3.2389e-22  2.5037e-22
      3.55  1.8605e-23  3.8292e-23  1.8612e-23  3.8296e-23  1.8625e-23  3.8305e-23  1.8649e-23  3.8320e-23  1.8691e-23  3.8348e-23  1.8765e-23  3.8396e-23  1.8898e-23  3.8482e-23  1.9133e-23  3.8636e-23  1.9552e-23  3.8908e-23  2.0297e-23  3.9394e-23  2.1620e-23  4.0258e-23  2.3970e-23  4.1796e-23  2.8141e-23  4.4538e-23  3.5536e-23  4.9436e-23  4.8626e-23  5.8212e-23  7.1757e-23  7.4016e-23  1.1261e-22  1.0271e-22  1.8496e-22  1.5547e-22  3.1605e-22  2.5409e-22
      3.60  1.7397e-23  4.2940e-23  1.7404e-23  4.2945e-23  1.7417e-23  4.2953e-23  1.7440e-23  4.2968e-23  1.7481e-23  4.2995e-23  1.7553e-23  4.3043e-23  1.7683e-23  4.3129e-23  1.7912e-23  4.3280e-23  1.8321e-23  4.3550e-23  1.9048e-23  4.4030e-23  2.0339e-23  4.4884e-23  2.2633e-23  4.6405e-23  2.6705e-23  4.9118e-23  3.3924e-23  5.3963e-23  4.6707e-23  6.2649e-23  6.9303e-23  7.8302e-23  1.0923e-22  1.0675e-22  1.8002e-22  1.5914e-22  3.0837e-22  2.5725e-22
      3.65  1.6256e-23  4.8155e-23  1.6264e-23  4.8160e-23  1.6276e-23  4.8168e-23  1.6299e-23  4.8183e-23  1.6338e-23  4.8210e-23  1.6409e-23  4.8257e-23  1.6536e-23  4.8341e-23  1.6760e-23  4.8490e-23  1.7159e-23  4.8756e-23  1.7868e-23  4.9229e-23  1.9128e-23  5.0071e-23  2.1366e-23  5.1570e-23  2.5339e-23  5.4244e-23  3.2386e-23  5.9022e-23  4.4865e-23  6.7589e-23  6.6934e-23  8.3038e-23  1.0596e-22  1.1114e-22  1.7520e-22  1.6298e-22  3.0084e-22  2.6026e-22
      3.70  1.5182e-23  5.4006e-23  1.5189e-23  5.4010e-23  1.5201e-23  5.4018e-23  1.5223e-23  5.4033e-23  1.5262e-23  5.4059e-23  1.5331e-23  5.4106e-23  1.5454e-23  5.4188e-23  1.5673e-23  5.4335e-23  1.6062e-23  5.4597e-23  1.6754e-23  5.5062e-23  1.7983e-23  5.5890e-23  2.0167e-23  5.7366e-23  2.4045e-23  5.9996e-23  3.0922e-23  6.4699e-23  4.3104e-23  7.3134e-23  6.4658e-23  8.8355e-23  1.0279e-22  1.1607e-22  1.7053e-22  1.6727e-22  2.9352e-22  2.6353e-22
      3.75  1.4169e-23  6.0570e-23  1.4176e-23  6.0574e-23  1.4188e-23  6.0582e-23  1.4209e-23  6.0597e-23  1.4247e-23  6.0622e-23  1.4315e-23  6.0668e-23  1.4435e-23  6.0749e-23  1.4649e-23  6.0894e-23  1.5028e-23  6.1151e-23  1.5703e-23  6.1609e-23  1.6903e-23  6.2424e-23  1.9035e-23  6.3875e-23  2.2819e-23  6.6463e-23  2.9533e-23  7.1091e-23  4.1428e-23  7.9395e-23  6.2480e-23  9.4387e-23  9.9754e-23  1.2172e-22  1.6607e-22  1.7225e-22  2.8657e-22  2.6749e-22
      3.80  1.3217e-23  6.7935e-23  1.3223e-23  6.7940e-23  1.3235e-23  6.7948e-23  1.3256e-23  6.7962e-23  1.3293e-23  6.7987e-23  1.3359e-23  6.8032e-23  1.3476e-23  6.8112e-23  1.3685e-23  6.8255e-23  1.4055e-23  6.8508e-23  1.4714e-23  6.8959e-23  1.5886e-23  6.9762e-23  1.7967e-23  7.1191e-23  2.1662e-23  7.3742e-23  2.8218e-23  7.8302e-23  3.9836e-23  8.6488e-23  6.0406e-23  1.0128e-22  9.6848e-23  1.2826e-22  1.6178e-22  1.7820e-22  2.7990e-22  2.7255e-22
      3.85  1.2321e-23  7.6199e-23  1.2327e-23  7.6203e-23  1.2339e-23  7.6211e-23  1.2359e-23  7.6225e-23  1.2395e-23  7.6250e-23  1.2460e-23  7.6295e-23  1.2574e-23  7.6374e-23  1.2778e-23  7.6515e-23  1.3140e-23  7.6765e-23  1.3784e-23  7.7210e-23  1.4928e-23  7.8003e-23  1.6960e-23  7.9415e-23  2.0570e-23  8.1934e-23  2.6974e-23  8.6439e-23  3.8326e-23  9.4529e-23  5.8432e-23  1.0915e-22  9.4071e-23  1.3585e-22  1.5767e-22  1.8534e-22  2.7353e-22  2.7902e-22
      3.90  1.1479e-23  8.5470e-23  1.1485e-23  8.5475e-23  1.1497e-23  8.5482e-23  1.1516e-23  8.5496e-23  1.1552e-23  8.5521e-23  1.1615e-23  8.5565e-23  1.1727e-23  8.5644e-23  1.1926e-23  8.5783e-23  1.2279e-23  8.6031e-23  1.2908e-23  8.6472e-23  1.4026e-23  8.7258e-23  1.6012e-23  8.8658e-23  1.9539e-23  9.1155e-23  2.5797e-23  9.5622e-23  3.6891e-23  1.0365e-22  5.6545e-23  1.1816e-22  9.1403e-23  1.4468e-22  1.5370e-22  1.9389e-22  2.6738e-22  2.8726e-22
      3.95  1.0689e-23  9.5872e-23  1.0695e-23  9.5876e-23  1.0706e-23  9.5884e-23  1.0725e-23  9.5898e-23  1.0760e-23  9.5923e-23  1.0821e-23  9.5967e-23  1.0931e-23  9.6045e-23  1.1125e-23  9.6183e-23  1.1471e-23  9.6430e-23  1.2085e-23  9.6870e-23  1.3177e-23  9.7652e-23  1.5117e-23  9.9045e-23  1.8563e-23  1.0153e-22  2.4677e-23  1.0598e-22  3.5518e-23  1.1397e-22  5.4730e-23  1.2844e-22  8.8820e-23  1.5489e-22  1.4983e-22  2.0405e-22  2.6136e-22  2.9754e-22
