# This was generated using Cloudy10 and the columns are ordered 
# as log10 of the fraction of the metallicity to the solar metallicity
# 'h_*_Z' and 'c_*_Z' stands for cooling and heating respectively 
# at * metalicity
#
# NOTE: This was generated separately from loop_coolingcurve_w_UV.py
#       using Output_metals_w_redshift.py.
#
# Redshift = 8.5
# hden = -6.5
#
#     temp   h_-3.00_Z   c_-3.00_Z   h_-2.75_Z   c_-2.75_Z   h_-2.50_Z   c_-2.50_Z   h_-2.25_Z   c_-2.25_Z   h_-2.00_Z   c_-2.00_Z   h_-1.75_Z   c_-1.75_Z   h_-1.50_Z   c_-1.50_Z   h_-1.25_Z   c_-1.25_Z   h_-1.00_Z   c_-1.00_Z   h_-0.75_Z   c_-0.75_Z   h_-0.50_Z   c_-0.50_Z   h_-0.25_Z   c_-0.25_Z    h_0.00_Z    c_0.00_Z    h_0.25_Z    c_0.25_Z    h_0.50_Z    c_0.50_Z    h_0.75_Z    c_0.75_Z    h_1.00_Z    c_1.00_Z    h_1.25_Z    c_1.25_Z    h_1.50_Z    c_1.50_Z 
      4.00  1.4461e-23  1.6724e-21  1.4473e-23  1.6725e-21  1.4495e-23  1.6725e-21  1.4532e-23  1.6725e-21  1.4599e-23  1.6726e-21  1.4717e-23  1.6726e-21  1.4928e-23  1.6728e-21  1.5302e-23  1.6731e-21  1.5967e-23  1.6736e-21  1.7150e-23  1.6745e-21  1.9251e-23  1.6761e-21  2.2980e-23  1.6790e-21  2.9595e-23  1.6841e-21  4.1313e-23  1.6932e-21  6.2073e-23  1.7095e-21  9.9369e-23  1.7387e-21  1.6684e-22  1.7911e-21  2.9153e-22  1.8866e-21  5.2831e-22  2.0629e-21
      4.05  1.3702e-23  1.8766e-21  1.3714e-23  1.8766e-21  1.3734e-23  1.8766e-21  1.3770e-23  1.8767e-21  1.3834e-23  1.8767e-21  1.3947e-23  1.8768e-21  1.4149e-23  1.8770e-21  1.4507e-23  1.8773e-21  1.5145e-23  1.8779e-21  1.6278e-23  1.8788e-21  1.8291e-23  1.8806e-21  2.1865e-23  1.8837e-21  2.8207e-23  1.8892e-21  3.9446e-23  1.8991e-21  5.9357e-23  1.9167e-21  9.5127e-23  1.9482e-21  1.5980e-22  2.0047e-21  2.7960e-22  2.1073e-21  5.0719e-22  2.2957e-21
      4.10  1.2996e-23  2.1057e-21  1.3007e-23  2.1057e-21  1.3026e-23  2.1057e-21  1.3061e-23  2.1057e-21  1.3122e-23  2.1058e-21  1.3231e-23  2.1059e-21  1.3424e-23  2.1061e-21  1.3767e-23  2.1064e-21  1.4378e-23  2.1070e-21  1.5463e-23  2.1081e-21  1.7391e-23  2.1100e-21  2.0816e-23  2.1134e-21  2.6893e-23  2.1195e-21  3.7668e-23  2.1302e-21  5.6768e-23  2.1494e-21  9.1047e-23  2.1836e-21  1.5303e-22  2.2451e-21  2.6804e-22  2.3561e-21  4.8666e-22  2.5592e-21
      4.15  1.2340e-23  2.3627e-21  1.2350e-23  2.3627e-21  1.2369e-23  2.3627e-21  1.2402e-23  2.3628e-21  1.2460e-23  2.3628e-21  1.2564e-23  2.3630e-21  1.2749e-23  2.3632e-21  1.3078e-23  2.3635e-21  1.3663e-23  2.3642e-21  1.4702e-23  2.3654e-21  1.6548e-23  2.3675e-21  1.9828e-23  2.3712e-21  2.5651e-23  2.3778e-21  3.5978e-23  2.3896e-21  5.4292e-23  2.4107e-21  8.7133e-23  2.4482e-21  1.4652e-22  2.5154e-21  2.5689e-22  2.6366e-21  4.6677e-22  2.8573e-21
      4.20  1.1730e-23  2.6511e-21  1.1740e-23  2.6511e-21  1.1758e-23  2.6511e-21  1.1789e-23  2.6512e-21  1.1845e-23  2.6512e-21  1.1945e-23  2.6514e-21  1.2122e-23  2.6516e-21  1.2437e-23  2.6520e-21  1.2996e-23  2.6527e-21  1.3991e-23  2.6540e-21  1.5760e-23  2.6564e-21  1.8901e-23  2.6605e-21  2.4479e-23  2.6678e-21  3.4377e-23  2.6808e-21  5.1937e-23  2.7041e-21  8.3397e-23  2.7455e-21  1.4029e-22  2.8195e-21  2.4620e-22  2.9528e-21  4.4767e-22  3.1946e-21
      4.25  1.1163e-23  2.9747e-21  1.1173e-23  2.9747e-21  1.1190e-23  2.9747e-21  1.1220e-23  2.9748e-21  1.1274e-23  2.9748e-21  1.1369e-23  2.9750e-21  1.1539e-23  2.9752e-21  1.1840e-23  2.9757e-21  1.2377e-23  2.9765e-21  1.3330e-23  2.9780e-21  1.5024e-23  2.9805e-21  1.8034e-23  2.9851e-21  2.3380e-23  2.9933e-21  3.2868e-23  3.0077e-21  4.9711e-23  3.0335e-21  7.9863e-23  3.0795e-21  1.3438e-22  3.1617e-21  2.3610e-22  3.3093e-21  4.2956e-22  3.5766e-21
      4.30  1.0637e-23  3.3377e-21  1.0647e-23  3.3378e-21  1.0663e-23  3.3378e-21  1.0692e-23  3.3378e-21  1.0743e-23  3.3379e-21  1.0835e-23  3.3381e-21  1.0997e-23  3.3384e-21  1.1286e-23  3.3389e-21  1.1800e-23  3.3398e-21  1.2714e-23  3.3414e-21  1.4339e-23  3.3443e-21  1.7225e-23  3.3494e-21  2.2353e-23  3.3585e-21  3.1458e-23  3.3747e-21  4.7627e-23  3.4036e-21  7.6550e-23  3.4550e-21  1.2888e-22  3.5468e-21  2.2670e-22  3.7116e-21  4.1267e-22  4.0096e-21
      4.35  1.0149e-23  3.7451e-21  1.0158e-23  3.7451e-21  1.0174e-23  3.7452e-21  1.0201e-23  3.7452e-21  1.0251e-23  3.7453e-21  1.0339e-23  3.7455e-21  1.0495e-23  3.7458e-21  1.0772e-23  3.7464e-21  1.1266e-23  3.7474e-21  1.2143e-23  3.7493e-21  1.3703e-23  3.7525e-21  1.6474e-23  3.7583e-21  2.1399e-23  3.7685e-21  3.0147e-23  3.7867e-21  4.5690e-23  3.8192e-21  7.3476e-23  3.8770e-21  1.2385e-22  3.9804e-21  2.1799e-22  4.1657e-21  3.9718e-22  4.5009e-21
      4.40  9.6963e-24  4.2022e-21  9.7048e-24  4.2022e-21  9.7198e-24  4.2023e-21  9.7465e-24  4.2023e-21  9.7940e-24  4.2025e-21  9.8784e-24  4.2027e-21  1.0028e-23  4.2030e-21  1.0295e-23  4.2037e-21  1.0770e-23  4.2048e-21  1.1613e-23  4.2069e-21  1.3113e-23  4.2105e-21  1.5779e-23  4.2171e-21  2.0516e-23  4.2286e-21  2.8934e-23  4.2493e-21  4.3900e-23  4.2860e-21  7.0641e-23  4.3515e-21  1.1924e-22  4.4686e-21  2.1002e-22  4.6786e-21  3.8303e-22  5.0589e-21
      4.45  9.2762e-24  4.7151e-21  9.2844e-24  4.7151e-21  9.2988e-24  4.7152e-21  9.3246e-24  4.7152e-21  9.3703e-24  4.7154e-21  9.4516e-24  4.7156e-21  9.5961e-24  4.7160e-21  9.8531e-24  4.7167e-21  1.0310e-23  4.7181e-21  1.1123e-23  4.7204e-21  1.2567e-23  4.7246e-21  1.5135e-23  4.7319e-21  1.9700e-23  4.7451e-21  2.7815e-23  4.7685e-21  4.2249e-23  4.8103e-21  6.8033e-23  4.8849e-21  1.1502e-22  5.0183e-21  2.0278e-22  5.2578e-21  3.7026e-22  5.6924e-21
      4.50  8.8868e-24  5.2905e-21  8.8946e-24  5.2906e-21  8.9086e-24  5.2906e-21  8.9334e-24  5.2907e-21  8.9775e-24  5.2909e-21  9.0559e-24  5.2911e-21  9.1953e-24  5.2916e-21  9.4432e-24  5.2924e-21  9.8840e-24  5.2939e-21  1.0668e-23  5.2966e-21  1.2061e-23  5.3013e-21  1.4539e-23  5.3098e-21  1.8945e-23  5.3248e-21  2.6779e-23  5.3515e-21  4.0723e-23  5.3993e-21  6.5627e-23  5.4847e-21  1.1113e-22  5.6373e-21  1.9612e-22  5.9120e-21  3.5859e-22  6.4120e-21
      4.55  8.5259e-24  5.9362e-21  8.5335e-24  5.9363e-21  8.5469e-24  5.9363e-21  8.5709e-24  5.9364e-21  8.6135e-24  5.9366e-21  8.6893e-24  5.9369e-21  8.8239e-24  5.9374e-21  9.0634e-24  5.9384e-21  9.4891e-24  5.9401e-21  1.0246e-23  5.9431e-21  1.1593e-23  5.9486e-21  1.3986e-23  5.9582e-21  1.8243e-23  5.9754e-21  2.5816e-23  6.0060e-21  3.9301e-23  6.0606e-21  6.3389e-23  6.1585e-21  1.0752e-22  6.3336e-21  1.8994e-22  6.6494e-21  3.4777e-22  7.2264e-21
      4.60  8.1916e-24  6.6607e-21  8.1989e-24  6.6607e-21  8.2119e-24  6.6608e-21  8.2351e-24  6.6609e-21  8.2763e-24  6.6611e-21  8.3495e-24  6.6614e-21  8.4797e-24  6.6621e-21  8.7112e-24  6.6632e-21  9.1228e-24  6.6651e-21  9.8548e-24  6.6686e-21  1.1156e-23  6.6748e-21  1.3471e-23  6.6858e-21  1.7588e-23  6.7055e-21  2.4914e-23  6.7405e-21  3.7964e-23  6.8031e-21  6.1292e-23  6.9154e-21  1.0412e-22  7.1164e-21  1.8412e-22  7.4797e-21  3.3761e-22  8.1461e-21
      4.65  7.8819e-24  7.4736e-21  7.8890e-24  7.4736e-21  7.9016e-24  7.4737e-21  7.9240e-24  7.4738e-21  7.9639e-24  7.4740e-21  8.0346e-24  7.4744e-21  8.1606e-24  7.4751e-21  8.3845e-24  7.4764e-21  8.7826e-24  7.4786e-21  9.4906e-24  7.4826e-21  1.0750e-23  7.4897e-21  1.2989e-23  7.5023e-21  1.6972e-23  7.5248e-21  2.4060e-23  7.5649e-21  3.6695e-23  7.6366e-21  5.9294e-23  7.7655e-21  1.0089e-22  7.9964e-21  1.7856e-22  8.4146e-21  3.2790e-22  9.1848e-21
      4.70  7.5952e-24  8.3857e-21  7.6021e-24  8.3857e-21  7.6143e-24  8.3858e-21  7.6359e-24  8.3859e-21  7.6745e-24  8.3862e-21  7.7429e-24  8.3866e-21  7.8647e-24  8.3874e-21  8.0813e-24  8.3889e-21  8.4663e-24  8.3914e-21  9.1511e-24  8.3960e-21  1.0369e-23  8.4041e-21  1.2535e-23  8.4185e-21  1.6388e-23  8.4441e-21  2.3247e-23  8.4900e-21  3.5476e-23  8.5720e-21  5.7366e-23  8.7194e-21  9.7764e-23  8.9836e-21  1.7319e-22  9.4635e-21  3.1846e-22  1.0351e-20
      4.75  7.3298e-24  9.4091e-21  7.3364e-24  9.4091e-21  7.3482e-24  9.4092e-21  7.3691e-24  9.4094e-21  7.4064e-24  9.4097e-21  7.4726e-24  9.4102e-21  7.5903e-24  9.4111e-21  7.7997e-24  9.4127e-21  8.1720e-24  9.4156e-21  8.8341e-24  9.4208e-21  1.0012e-23  9.4300e-21  1.2106e-23  9.4464e-21  1.5832e-23  9.4757e-21  2.2465e-23  9.5279e-21  3.4296e-23  9.6214e-21  5.5523e-23  9.7895e-21  9.4691e-23  1.0091e-20  1.6789e-22  1.0640e-20  3.0910e-22  1.1659e-20
      4.80  7.0838e-24  1.0557e-20  7.0902e-24  1.0557e-20  7.1016e-24  1.0558e-20  7.1218e-24  1.0558e-20  7.1578e-24  1.0558e-20  7.2218e-24  1.0559e-20  7.3355e-24  1.0560e-20  7.5378e-24  1.0562e-20  7.8976e-24  1.0565e-20  8.5373e-24  1.0571e-20  9.6750e-24  1.0581e-20  1.1698e-23  1.0600e-20  1.5299e-23  1.0633e-20  2.1709e-23  1.0692e-20  3.3146e-23  1.0799e-20  5.3716e-23  1.0990e-20  9.1645e-23  1.1333e-20  1.6259e-22  1.1959e-20  2.9969e-22  1.3124e-20
      4.85  6.8551e-24  1.1846e-20  6.8613e-24  1.1846e-20  6.8723e-24  1.1846e-20  6.8918e-24  1.1846e-20  6.9266e-24  1.1847e-20  6.9884e-24  1.1847e-20  7.0982e-24  1.1848e-20  7.2935e-24  1.1851e-20  7.6407e-24  1.1854e-20  8.2583e-24  1.1861e-20  9.3566e-24  1.1873e-20  1.1310e-23  1.1894e-20  1.4786e-23  1.1932e-20  2.0975e-23  1.1999e-20  3.2019e-23  1.2119e-20  5.1927e-23  1.2336e-20  8.8613e-23  1.2725e-20  1.5729e-22  1.3436e-20  2.9018e-22  1.4762e-20
      4.90  6.6411e-24  1.3292e-20  6.6470e-24  1.3292e-20  6.6576e-24  1.3292e-20  6.6765e-24  1.3292e-20  6.7100e-24  1.3293e-20  6.7696e-24  1.3293e-20  6.8755e-24  1.3295e-20  7.0638e-24  1.3297e-20  7.3988e-24  1.3301e-20  7.9944e-24  1.3309e-20  9.0537e-24  1.3322e-20  1.0938e-23  1.3346e-20  1.4290e-23  1.3389e-20  2.0259e-23  1.3465e-20  3.0912e-23  1.3601e-20  5.0155e-23  1.3845e-20  8.5592e-23  1.4285e-20  1.5197e-22  1.5089e-20  2.8057e-22  1.6591e-20
      4.95  6.4381e-24  1.4914e-20  6.4438e-24  1.4914e-20  6.4540e-24  1.4914e-20  6.4722e-24  1.4915e-20  6.5045e-24  1.4915e-20  6.5619e-24  1.4916e-20  6.6640e-24  1.4918e-20  6.8455e-24  1.4920e-20  7.1683e-24  1.4925e-20  7.7423e-24  1.4933e-20  8.7630e-24  1.4949e-20  1.0578e-23  1.4975e-20  1.3808e-23  1.5023e-20  1.9560e-23  1.5109e-20  2.9825e-23  1.5262e-20  4.8404e-23  1.5537e-20  8.2592e-23  1.6033e-20  1.4666e-22  1.6939e-20  2.7089e-22  1.8632e-20
      5.00  6.2418e-24  1.6735e-20  6.2473e-24  1.6735e-20  6.2571e-24  1.6735e-20  6.2746e-24  1.6735e-20  6.3058e-24  1.6736e-20  6.3610e-24  1.6737e-20  6.4593e-24  1.6738e-20  6.6341e-24  1.6741e-20  6.9450e-24  1.6747e-20  7.4977e-24  1.6756e-20  8.4807e-24  1.6773e-20  1.0229e-23  1.6804e-20  1.3339e-23  1.6857e-20  1.8876e-23  1.6954e-20  2.8757e-23  1.7126e-20  4.6678e-23  1.7434e-20  7.9628e-23  1.7991e-20  1.4139e-22  1.9007e-20  2.6121e-22  2.0909e-20
      5.05  6.0475e-24  1.8778e-20  6.0528e-24  1.8778e-20  6.0623e-24  1.8778e-20  6.0791e-24  1.8778e-20  6.1091e-24  1.8779e-20  6.1623e-24  1.8780e-20  6.2569e-24  1.8782e-20  6.4252e-24  1.8785e-20  6.7245e-24  1.8791e-20  7.2566e-24  1.8802e-20  8.2027e-24  1.8821e-20  9.8852e-24  1.8855e-20  1.2878e-23  1.8915e-20  1.8205e-23  1.9023e-20  2.7710e-23  1.9216e-20  4.4989e-23  1.9561e-20  7.6721e-23  2.0184e-20  1.3621e-22  2.1321e-20  2.5161e-22  2.3447e-20
      5.10  5.8517e-24  2.1070e-20  5.8569e-24  2.1070e-20  5.8660e-24  2.1070e-20  5.8822e-24  2.1070e-20  5.9110e-24  2.1071e-20  5.9623e-24  2.1072e-20  6.0534e-24  2.1074e-20  6.2154e-24  2.1078e-20  6.5034e-24  2.1085e-20  7.0156e-24  2.1097e-20  7.9263e-24  2.1118e-20  9.5454e-24  2.1156e-20  1.2425e-23  2.1223e-20  1.7549e-23  2.1344e-20  2.6691e-23  2.1559e-20  4.3346e-23  2.1945e-20  7.3892e-23  2.2641e-20  1.3115e-22  2.3910e-20  2.4219e-22  2.6278e-20
      5.15  5.6544e-24  2.3641e-20  5.6593e-24  2.3642e-20  5.6681e-24  2.3642e-20  5.6837e-24  2.3642e-20  5.7115e-24  2.3643e-20  5.7608e-24  2.3644e-20  5.8485e-24  2.3647e-20  6.0045e-24  2.3651e-20  6.2819e-24  2.3658e-20  6.7750e-24  2.3672e-20  7.6516e-24  2.3696e-20  9.2100e-24  2.3738e-20  1.1980e-23  2.3813e-20  1.6907e-23  2.3948e-20  2.5724e-23  2.4188e-20  4.1759e-23  2.4618e-20  7.1165e-23  2.5393e-20  1.2626e-22  2.6805e-20  2.3305e-22  2.9434e-20
      5.20  5.4599e-24  2.6527e-20  5.4647e-24  2.6527e-20  5.4731e-24  2.6527e-20  5.4882e-24  2.6528e-20  5.5149e-24  2.6529e-20  5.5624e-24  2.6530e-20  5.6470e-24  2.6533e-20  5.7973e-24  2.6537e-20  6.0644e-24  2.6546e-20  6.5395e-24  2.6561e-20  7.3837e-24  2.6587e-20  8.8840e-24  2.6634e-20  1.1550e-23  2.6718e-20  1.6288e-23  2.6868e-20  2.4797e-23  2.7135e-20  4.0243e-23  2.7614e-20  6.8557e-23  2.8475e-20  1.2157e-22  3.0043e-20  2.2423e-22  3.2954e-20
      5.25  5.2766e-24  2.9764e-20  5.2811e-24  2.9764e-20  5.2893e-24  2.9764e-20  5.3038e-24  2.9765e-20  5.3296e-24  2.9766e-20  5.3754e-24  2.9767e-20  5.4569e-24  2.9770e-20  5.6018e-24  2.9776e-20  5.8594e-24  2.9785e-20  6.3172e-24  2.9801e-20  7.1306e-24  2.9831e-20  8.5755e-24  2.9883e-20  1.1141e-23  2.9977e-20  1.5698e-23  3.0143e-20  2.3919e-23  3.0441e-20  3.8805e-23  3.0972e-20  6.6080e-23  3.1929e-20  1.1711e-22  3.3666e-20  2.1578e-22  3.6882e-20
      5.30  5.1129e-24  3.3395e-20  5.1173e-24  3.3396e-20  5.1252e-24  3.3396e-20  5.1392e-24  3.3396e-20  5.1640e-24  3.3398e-20  5.2082e-24  3.3399e-20  5.2868e-24  3.3403e-20  5.4266e-24  3.3408e-20  5.6750e-24  3.3419e-20  6.1164e-24  3.3437e-20  6.9004e-24  3.3470e-20  8.2923e-24  3.3528e-20  1.0762e-23  3.3632e-20  1.5160e-23  3.3817e-20  2.3095e-23  3.4148e-20  3.7448e-23  3.4738e-20  6.3728e-23  3.5798e-20  1.1285e-22  3.7721e-20  2.0767e-22  4.1267e-20
      5.35  4.9742e-24  3.7470e-20  4.9784e-24  3.7470e-20  4.9860e-24  3.7470e-20  4.9995e-24  3.7471e-20  5.0235e-24  3.7472e-20  5.0662e-24  3.7474e-20  5.1420e-24  3.7478e-20  5.2768e-24  3.7484e-20  5.5164e-24  3.7496e-20  5.9420e-24  3.7516e-20  6.6976e-24  3.7552e-20  8.0378e-24  3.7617e-20  1.0413e-23  3.7733e-20  1.4668e-23  3.7938e-20  2.2322e-23  3.8305e-20  3.6159e-23  3.8960e-20  6.1481e-23  4.0135e-20  1.0875e-22  4.2261e-20  1.9981e-22  4.6168e-20
      5.40  4.8614e-24  4.2040e-20  4.8655e-24  4.2040e-20  4.8728e-24  4.2041e-20  4.8858e-24  4.2042e-20  4.9089e-24  4.2043e-20  4.9501e-24  4.2045e-20  5.0232e-24  4.2049e-20  5.1531e-24  4.2056e-20  5.3841e-24  4.2069e-20  5.7941e-24  4.2092e-20  6.5215e-24  4.2132e-20  7.8108e-24  4.2204e-20  1.0098e-23  4.2333e-20  1.4208e-23  4.2562e-20  2.1586e-23  4.2969e-20  3.4918e-23  4.3696e-20  5.9295e-23  4.4998e-20  1.0474e-22  4.7349e-20  1.9207e-22  5.1652e-20
      5.45  4.7719e-24  4.7168e-20  4.7759e-24  4.7168e-20  4.7829e-24  4.7169e-20  4.7955e-24  4.7170e-20  4.8177e-24  4.7171e-20  4.8573e-24  4.7174e-20  4.9277e-24  4.7178e-20  5.0528e-24  4.7186e-20  5.2750e-24  4.7200e-20  5.6692e-24  4.7226e-20  6.3682e-24  4.7271e-20  7.6057e-24  4.7351e-20  9.8132e-24  4.7494e-20  1.3770e-23  4.7749e-20  2.0869e-23  4.8201e-20  3.3691e-23  4.9007e-20  5.7115e-23  5.0451e-20  1.0071e-22  5.3050e-20  1.8426e-22  5.7788e-20
      5.50  4.7018e-24  5.2921e-20  4.7056e-24  5.2921e-20  4.7124e-24  5.2922e-20  4.7244e-24  5.2923e-20  4.7458e-24  5.2924e-20  4.7838e-24  5.2927e-20  4.8514e-24  5.2932e-20  4.9714e-24  5.2941e-20  5.1846e-24  5.2957e-20  5.5626e-24  5.2985e-20  6.2321e-24  5.3035e-20  7.4165e-24  5.3124e-20  9.5418e-24  5.3285e-20  1.3339e-23  5.3568e-20  2.0151e-23  5.4070e-20  3.2447e-23  5.4966e-20  5.4889e-23  5.6567e-20  9.6584e-23  5.9444e-20  1.7623e-22  6.4668e-20
      5.55  4.6468e-24  5.9375e-20  4.6505e-24  5.9376e-20  4.6569e-24  5.9376e-20  4.6684e-24  5.9377e-20  4.6889e-24  5.9379e-20  4.7253e-24  5.9382e-20  4.7899e-24  5.9388e-20  4.9047e-24  5.9398e-20  5.1084e-24  5.9415e-20  5.4693e-24  5.9447e-20  6.1079e-24  5.9502e-20  7.2442e-24  5.9603e-20  9.2773e-24  5.9782e-20  1.2909e-23  6.0097e-20  1.9422e-23  6.0656e-20  3.1170e-23  6.1652e-20  5.2588e-23  6.3430e-20  9.2303e-23  6.6617e-20  1.6792e-22  7.2382e-20
      5.60  4.6033e-24  6.6616e-20  4.6068e-24  6.6617e-20  4.6130e-24  6.6617e-20  4.6239e-24  6.6618e-20  4.6434e-24  6.6620e-20  4.6781e-24  6.6624e-20  4.7396e-24  6.6630e-20  4.8489e-24  6.6641e-20  5.0427e-24  6.6661e-20  5.3858e-24  6.6696e-20  5.9920e-24  6.6758e-20  7.0781e-24  6.6873e-20  9.0148e-24  6.7073e-20  1.2474e-23  6.7424e-20  1.8675e-23  6.8046e-20  2.9855e-23  6.9154e-20  5.0215e-23  7.1131e-20  8.7897e-23  7.4668e-20  1.5939e-22  8.1041e-20
      5.65  4.5685e-24  7.4739e-20  4.5718e-24  7.4740e-20  4.5776e-24  7.4740e-20  4.5881e-24  7.4742e-20  4.6066e-24  7.4744e-20  4.6394e-24  7.4748e-20  4.6978e-24  7.4755e-20  4.8014e-24  7.4767e-20  4.9849e-24  7.4789e-20  5.3095e-24  7.4828e-20  5.8858e-24  7.4901e-20  6.9166e-24  7.5030e-20  8.7537e-24  7.5253e-20  1.2035e-23  7.5645e-20  1.7914e-23  7.6339e-20  2.8509e-23  7.7574e-20  4.7787e-23  7.9775e-20  8.3407e-23  8.3708e-20  1.5078e-22  9.0770e-20
      5.70  4.5402e-24  8.3852e-20  4.5433e-24  8.3852e-20  4.5488e-24  8.3853e-20  4.5587e-24  8.3854e-20  4.5761e-24  8.3857e-20  4.6072e-24  8.3861e-20  4.6623e-24  8.3869e-20  4.7601e-24  8.3883e-20  4.9331e-24  8.3907e-20  5.2388e-24  8.3951e-20  5.7851e-24  8.4038e-20  6.7591e-24  8.4183e-20  8.4947e-24  8.4432e-20  1.1594e-23  8.4870e-20  1.7147e-23  8.5645e-20  2.7151e-23  8.7024e-20  4.5340e-23  8.9480e-20  7.8905e-23  9.3860e-20  1.4224e-22  1.0171e-19
      5.75  4.5168e-24  9.4073e-20  4.5197e-24  9.4074e-20  4.5249e-24  9.4075e-20  4.5342e-24  9.4076e-20  4.5506e-24  9.4079e-20  4.5798e-24  9.4084e-20  4.6316e-24  9.4093e-20  4.7234e-24  9.4108e-20  4.8859e-24  9.4135e-20  5.1734e-24  9.4187e-20  5.6885e-24  9.4290e-20  6.6048e-24  9.4453e-20  8.2378e-24  9.4732e-20  1.1154e-23  9.5221e-20  1.6377e-23  9.6089e-20  2.5787e-23  9.7631e-20  4.2891e-23  1.0038e-19  7.4432e-23  1.0527e-19  1.3385e-22  1.1401e-19
      5.80  4.4972e-24  1.0554e-19  4.5000e-24  1.0554e-19  4.5048e-24  1.0554e-19  4.5135e-24  1.0554e-19  4.5288e-24  1.0555e-19  4.5561e-24  1.0555e-19  4.6045e-24  1.0556e-19  4.6902e-24  1.0558e-19  4.8419e-24  1.0561e-19  5.1121e-24  1.0568e-19  5.5943e-24  1.0579e-19  6.4519e-24  1.0598e-19  7.9802e-24  1.0629e-19  1.0709e-23  1.0684e-19  1.5600e-23  1.0781e-19  2.4410e-23  1.0954e-19  4.0428e-23  1.1261e-19  6.9969e-23  1.1808e-19  1.2558e-22  1.2783e-19
      5.85  4.4806e-24  1.1840e-19  4.4831e-24  1.1840e-19  4.4876e-24  1.1840e-19  4.4956e-24  1.1840e-19  4.5098e-24  1.1841e-19  4.5351e-24  1.1841e-19  4.5799e-24  1.1842e-19  4.6594e-24  1.1844e-19  4.7998e-24  1.1848e-19  5.0519e-24  1.1857e-19  5.4994e-24  1.1870e-19  6.2955e-24  1.1891e-19  7.7144e-24  1.1926e-19  1.0249e-23  1.1987e-19  1.4791e-23  1.2097e-19  2.2980e-23  1.2290e-19  3.7884e-23  1.2635e-19  6.5402e-23  1.3247e-19  1.1727e-22  1.4337e-19
      5.90  4.4662e-24  1.3282e-19  4.4685e-24  1.3282e-19  4.4727e-24  1.3283e-19  4.4800e-24  1.3283e-19  4.4930e-24  1.3283e-19  4.5160e-24  1.3284e-19  4.5570e-24  1.3285e-19  4.6297e-24  1.3287e-19  4.7589e-24  1.3292e-19  4.9903e-24  1.3304e-19  5.4004e-24  1.3318e-19  6.1298e-24  1.3341e-19  7.4300e-24  1.3381e-19  9.7533e-24  1.3450e-19  1.3921e-23  1.3573e-19  2.1442e-23  1.3791e-19  3.5155e-23  1.4177e-19  6.0540e-23  1.4865e-19  1.0853e-22  1.6086e-19
      5.95  4.4537e-24  1.4900e-19  4.4557e-24  1.4900e-19  4.4594e-24  1.4900e-19  4.4660e-24  1.4900e-19  4.4776e-24  1.4901e-19  4.4983e-24  1.4902e-19  4.5351e-24  1.4903e-19  4.6002e-24  1.4905e-19  4.7174e-24  1.4914e-19  4.9254e-24  1.4927e-19  5.2938e-24  1.4943e-19  5.9491e-24  1.4969e-19  7.1176e-24  1.5014e-19  9.2067e-24  1.5092e-19  1.2958e-23  1.5230e-19  1.9740e-23  1.5475e-19  3.2138e-23  1.5910e-19  5.5183e-23  1.6682e-19  9.8980e-23  1.8057e-19
      6.00  4.4426e-24  1.6714e-19  4.4444e-24  1.6714e-19  4.4476e-24  1.6714e-19  4.4533e-24  1.6714e-19  4.4635e-24  1.6715e-19  4.4815e-24  1.6716e-19  4.5137e-24  1.6717e-19  4.5707e-24  1.6720e-19  4.6743e-24  1.6733e-19  4.8565e-24  1.6748e-19  5.1790e-24  1.6767e-19  5.7526e-24  1.6796e-19  6.7756e-24  1.6846e-19  8.6060e-24  1.6934e-19  1.1897e-23  1.7089e-19  1.7859e-23  1.7365e-19  2.8797e-23  1.7855e-19  4.9238e-23  1.8725e-19  8.8366e-23  2.0271e-19
      6.05  4.4326e-24  1.8748e-19  4.4341e-24  1.8748e-19  4.4369e-24  1.8748e-19  4.4417e-24  1.8749e-19  4.4503e-24  1.8749e-19  4.4657e-24  1.8750e-19  4.4929e-24  1.8752e-19  4.5419e-24  1.8757e-19  4.6309e-24  1.8774e-19  4.7859e-24  1.8791e-19  5.0601e-24  1.8812e-19  5.5475e-24  1.8846e-19  6.4172e-24  1.8902e-19  7.9743e-24  1.9001e-19  1.0777e-23  1.9176e-19  1.5867e-23  1.9487e-19  2.5237e-23  2.0039e-19  4.2850e-23  2.1019e-19  7.6843e-23  2.2761e-19
      6.10  4.4236e-24  2.1028e-19  4.4248e-24  2.1029e-19  4.4271e-24  2.1029e-19  4.4311e-24  2.1029e-19  4.4382e-24  2.1030e-19  4.4509e-24  2.1031e-19  4.4735e-24  2.1033e-19  4.5153e-24  2.1044e-19  4.5895e-24  2.1065e-19  4.7181e-24  2.1084e-19  4.9451e-24  2.1108e-19  5.3486e-24  2.1145e-19  6.0686e-24  2.1209e-19  7.3582e-24  2.1321e-19  9.6813e-24  2.1518e-19  1.3906e-23  2.1868e-19  2.1705e-23  2.2490e-19  3.6429e-23  2.3595e-19  6.5051e-23  2.5558e-19
      6.15  4.4153e-24  2.3585e-19  4.4163e-24  2.3585e-19  4.4182e-24  2.3585e-19  4.4214e-24  2.3586e-19  4.4272e-24  2.3587e-19  4.4375e-24  2.3588e-19  4.4559e-24  2.3590e-19  4.4916e-24  2.3611e-19  4.5527e-24  2.3634e-19  4.6576e-24  2.3656e-19  4.8425e-24  2.3683e-19  5.1707e-24  2.3726e-19  5.7563e-24  2.3797e-19  6.8051e-24  2.3923e-19  8.6947e-24  2.4145e-19  1.2132e-23  2.4540e-19  1.8481e-23  2.5241e-19  3.0484e-23  2.6485e-19  5.3896e-23  2.8697e-19
      6.20  4.4076e-24  2.6451e-19  4.4085e-24  2.6451e-19  4.4099e-24  2.6451e-19  4.4126e-24  2.6452e-19  4.4173e-24  2.6453e-19  4.4256e-24  2.6454e-19  4.4404e-24  2.6456e-19  4.4715e-24  2.6490e-19  4.5216e-24  2.6517e-19  4.6068e-24  2.6542e-19  4.7564e-24  2.6573e-19  5.0217e-24  2.6621e-19  5.4948e-24  2.6702e-19  6.3416e-24  2.6843e-19  7.8662e-24  2.7094e-19  1.0636e-23  2.7538e-19  1.5744e-23  2.8327e-19  2.5380e-23  2.9729e-19  4.4134e-23  3.2221e-19
      6.25  4.4004e-24  2.9663e-19  4.4011e-24  2.9663e-19  4.4023e-24  2.9663e-19  4.4044e-24  2.9664e-19  4.4082e-24  2.9665e-19  4.4150e-24  2.9666e-19  4.4275e-24  2.9673e-19  4.4549e-24  2.9719e-19  4.4962e-24  2.9750e-19  4.5657e-24  2.9779e-19  4.6870e-24  2.9815e-19  4.9019e-24  2.9869e-19  5.2846e-24  2.9960e-19  5.9692e-24  3.0120e-19  7.2002e-24  3.0402e-19  9.4320e-24  3.0903e-19  1.3534e-23  3.1793e-19  2.1232e-23  3.3373e-19  3.6109e-23  3.6183e-19
      6.30  4.3935e-24  3.3262e-19  4.3941e-24  3.3263e-19  4.3951e-24  3.3263e-19  4.3968e-24  3.3264e-19  4.3999e-24  3.3265e-19  4.4054e-24  3.3266e-19  4.4170e-24  3.3284e-19  4.4409e-24  3.3339e-19  4.4755e-24  3.3378e-19  4.5326e-24  3.3411e-19  4.6315e-24  3.3452e-19  4.8064e-24  3.3514e-19  5.1176e-24  3.3617e-19  5.6737e-24  3.3798e-19  6.6720e-24  3.4117e-19  8.4776e-24  3.4682e-19  1.1783e-23  3.5687e-19  1.7945e-23  3.7471e-19  2.9739e-23  4.0644e-19
      6.35  4.3868e-24  3.7295e-19  4.3873e-24  3.7296e-19  4.3881e-24  3.7296e-19  4.3895e-24  3.7297e-19  4.3920e-24  3.7298e-19  4.3965e-24  3.7300e-19  4.4073e-24  3.7328e-19  4.4289e-24  3.7398e-19  4.4583e-24  3.7445e-19  4.5055e-24  3.7485e-19  4.5866e-24  3.7533e-19  4.7294e-24  3.7603e-19  4.9831e-24  3.7721e-19  5.4359e-24  3.7925e-19  6.2477e-24  3.8286e-19  7.7124e-24  3.8926e-19  1.0383e-23  4.0063e-19  1.5328e-23  4.2082e-19  2.4697e-23  4.5673e-19
      6.40  4.3802e-24  4.1813e-19  4.3806e-24  4.1814e-19  4.3812e-24  4.1814e-19  4.3824e-24  4.1815e-19  4.3845e-24  4.1816e-19  4.3881e-24  4.1818e-19  4.3985e-24  4.1860e-19  4.4185e-24  4.1949e-19  4.4438e-24  4.2007e-19  4.4831e-24  4.2056e-19  4.5497e-24  4.2111e-19  4.6663e-24  4.2192e-19  4.8733e-24  4.2325e-19  5.2422e-24  4.2557e-19  5.9026e-24  4.2966e-19  7.0913e-24  4.3691e-19  9.2498e-24  4.4980e-19  1.3222e-23  4.7269e-19  2.0671e-23  5.1336e-19
      6.45  4.3735e-24  4.6874e-19  4.3738e-24  4.6874e-19  4.3743e-24  4.6874e-19  4.3753e-24  4.6875e-19  4.3770e-24  4.6876e-19  4.3800e-24  4.6879e-19  4.3910e-24  4.6946e-19  4.4098e-24  4.7055e-19  4.4319e-24  4.7126e-19  4.4648e-24  4.7184e-19  4.5196e-24  4.7248e-19  4.6153e-24  4.7340e-19  4.7846e-24  4.7492e-19  5.0859e-24  4.7755e-19  5.6247e-24  4.8219e-19  6.5924e-24  4.9042e-19  8.3433e-24  5.0502e-19  1.1547e-23  5.3099e-19  1.7501e-23  5.7714e-19
      6.50  4.3667e-24  5.2540e-19  4.3669e-24  5.2540e-19  4.3673e-24  5.2540e-19  4.3681e-24  5.2541e-19  4.3695e-24  5.2543e-19  4.3720e-24  5.2546e-19  4.3838e-24  5.2642e-19  4.4021e-24  5.2778e-19  4.4218e-24  5.2866e-19  4.4497e-24  5.2936e-19  4.4954e-24  5.3011e-19  4.5742e-24  5.3117e-19  4.7134e-24  5.3290e-19  4.9609e-24  5.3588e-19  5.4028e-24  5.4114e-19  6.1951e-24  5.5046e-19  7.6243e-24  5.6702e-19  1.0226e-23  5.9645e-19  1.5024e-23  6.4877e-19
      6.55  4.3595e-24  5.8883e-19  4.3597e-24  5.8883e-19  4.3601e-24  5.8883e-19  4.3608e-24  5.8885e-19  4.3619e-24  5.8886e-19  4.3639e-24  5.8890e-19  4.3765e-24  5.9018e-19  4.3950e-24  5.9191e-19  4.4132e-24  5.9302e-19  4.4373e-24  5.9387e-19  4.4757e-24  5.9476e-19  4.5412e-24  5.9598e-19  4.6565e-24  5.9794e-19  4.8611e-24  6.0133e-19  5.2260e-24  6.0728e-19  5.8793e-24  6.1783e-19  7.0548e-24  6.3657e-19  9.1866e-24  6.6989e-19  1.3094e-23  7.2914e-19
      6.60  4.3520e-24  6.5981e-19  4.3522e-24  6.5982e-19  4.3525e-24  6.5982e-19  4.3530e-24  6.5984e-19  4.3540e-24  6.5986e-19  4.3557e-24  6.5989e-19  4.3695e-24  6.6161e-19  4.3885e-24  6.6381e-19  4.4057e-24  6.6520e-19  4.4270e-24  6.6624e-19  4.4594e-24  6.6728e-19  4.5142e-24  6.6868e-19  4.6101e-24  6.7092e-19  4.7799e-24  6.7475e-19  5.0825e-24  6.8149e-19  5.6236e-24  6.9342e-19  6.5953e-24  7.1461e-19  8.3523e-24  7.5229e-19  1.1557e-23  8.1929e-19
      6.65  4.3440e-24  7.3923e-19  4.3442e-24  7.3924e-19  4.3444e-24  7.3925e-19  4.3449e-24  7.3926e-19  4.3457e-24  7.3928e-19  4.3471e-24  7.3932e-19  4.3629e-24  7.4167e-19  4.3826e-24  7.4443e-19  4.3992e-24  7.4615e-19  4.4181e-24  7.4741e-19  4.4457e-24  7.4864e-19  4.4915e-24  7.5026e-19  4.5712e-24  7.5280e-19  4.7121e-24  7.5714e-19  4.9627e-24  7.6475e-19  5.4104e-24  7.7824e-19  6.2133e-24  8.0218e-19  7.6617e-24  8.4475e-19  1.0295e-23  9.2045e-19
      6.70  4.3355e-24  8.2806e-19  4.3356e-24  8.2806e-19  4.3358e-24  8.2807e-19  4.3362e-24  8.2809e-19  4.3368e-24  8.2811e-19  4.3379e-24  8.2816e-19  4.3553e-24  8.3118e-19  4.3765e-24  8.3470e-19  4.3930e-24  8.3688e-19  4.4101e-24  8.3844e-19  4.4337e-24  8.3990e-19  4.4719e-24  8.4176e-19  4.5377e-24  8.4466e-19  4.6536e-24  8.4957e-19  4.8596e-24  8.5818e-19  5.2273e-24  8.7341e-19  5.8859e-24  9.0045e-19  7.0718e-24  9.4851e-19  9.2214e-24  1.0340e-18
      6.75  4.3262e-24  9.2736e-19  4.3263e-24  9.2736e-19  4.3264e-24  9.2737e-19  4.3267e-24  9.2739e-19  4.3272e-24  9.2742e-19  4.3282e-24  9.2747e-19  4.3462e-24  9.3108e-19  4.3697e-24  9.3569e-19  4.3867e-24  9.3851e-19  4.4026e-24  9.4047e-19  4.4230e-24  9.4224e-19  4.4546e-24  9.4441e-19  4.5083e-24  9.4771e-19  4.6026e-24  9.5328e-19  4.7698e-24  9.6300e-19  5.0678e-24  9.8019e-19  5.6011e-24  1.0107e-18  6.5598e-24  1.0650e-18  8.2934e-24  1.1614e-18
      6.80  4.3160e-24  1.0383e-18  4.3161e-24  1.0383e-18  4.3162e-24  1.0383e-18  4.3164e-24  1.0384e-18  4.3169e-24  1.0384e-18  4.3176e-24  1.0385e-18  4.3344e-24  1.0423e-18  4.3616e-24  1.0485e-18  4.3800e-24  1.0522e-18  4.3955e-24  1.0548e-18  4.4133e-24  1.0570e-18  4.4395e-24  1.0595e-18  4.4830e-24  1.0633e-18  4.5587e-24  1.0696e-18  4.6926e-24  1.0806e-18  4.9311e-24  1.1000e-18  5.3572e-24  1.1344e-18  6.1220e-24  1.1956e-18  7.5017e-24  1.3044e-18
      6.85  4.3049e-24  1.1623e-18  4.3049e-24  1.1623e-18  4.3050e-24  1.1623e-18  4.3052e-24  1.1623e-18  4.3055e-24  1.1623e-18  4.3061e-24  1.1624e-18  4.3216e-24  1.1664e-18  4.3532e-24  1.1747e-18  4.3735e-24  1.1796e-18  4.3890e-24  1.1829e-18  4.4051e-24  1.1856e-18  4.4269e-24  1.1886e-18  4.4622e-24  1.1930e-18  4.5228e-24  1.2002e-18  4.6297e-24  1.2126e-18  4.8196e-24  1.2345e-18  5.1586e-24  1.2733e-18  5.7660e-24  1.3423e-18  6.8596e-24  1.4649e-18
      6.90  4.2926e-24  1.3006e-18  4.2926e-24  1.3006e-18  4.2927e-24  1.3006e-18  4.2929e-24  1.3006e-18  4.2931e-24  1.3007e-18  4.2936e-24  1.3007e-18  4.3092e-24  1.3054e-18  4.3452e-24  1.3161e-18  4.3676e-24  1.3225e-18  4.3836e-24  1.3267e-18  4.3984e-24  1.3300e-18  4.4171e-24  1.3335e-18  4.4462e-24  1.3385e-18  4.4954e-24  1.3466e-18  4.5817e-24  1.3606e-18  4.7348e-24  1.3853e-18  5.0078e-24  1.4291e-18  5.4963e-24  1.5069e-18  6.3744e-24  1.6451e-18
      6.95  4.2790e-24  1.4549e-18  4.2791e-24  1.4549e-18  4.2791e-24  1.4549e-18  4.2792e-24  1.4549e-18  4.2795e-24  1.4550e-18  4.2798e-24  1.4551e-18  4.2948e-24  1.4601e-18  4.3362e-24  1.4740e-18  4.3613e-24  1.4823e-18  4.3784e-24  1.4877e-18  4.3929e-24  1.4918e-18  4.4097e-24  1.4960e-18  4.4345e-24  1.5017e-18  4.4758e-24  1.5109e-18  4.5477e-24  1.5268e-18  4.6750e-24  1.5546e-18  4.9016e-24  1.6040e-18  5.3065e-24  1.6916e-18  6.0334e-24  1.8475e-18
      7.00  4.2640e-24  1.6269e-18  4.2640e-24  1.6269e-18  4.2641e-24  1.6269e-18  4.2642e-24  1.6269e-18  4.2644e-24  1.6270e-18  4.2647e-24  1.6271e-18  4.2731e-24  1.6302e-18  4.3230e-24  1.6492e-18  4.3530e-24  1.6605e-18  4.3726e-24  1.6676e-18  4.3879e-24  1.6729e-18  4.4041e-24  1.6780e-18  4.4267e-24  1.6847e-18  4.4632e-24  1.6952e-18  4.5263e-24  1.7132e-18  4.6376e-24  1.7446e-18  4.8354e-24  1.8002e-18  5.1888e-24  1.8991e-18  5.8224e-24  2.0748e-18
      7.05  4.2472e-24  1.8185e-18  4.2473e-24  1.8185e-18  4.2473e-24  1.8185e-18  4.2474e-24  1.8185e-18  4.2476e-24  1.8186e-18  4.2479e-24  1.8187e-18  4.2484e-24  1.8189e-18  4.3066e-24  1.8437e-18  4.3430e-24  1.8592e-18  4.3661e-24  1.8689e-18  4.3832e-24  1.8757e-18  4.3998e-24  1.8821e-18  4.4215e-24  1.8899e-18  4.4557e-24  1.9019e-18  4.5140e-24  1.9223e-18  4.6166e-24  1.9578e-18  4.7988e-24  2.0205e-18  5.1240e-24  2.1320e-18  5.7070e-24  2.3300e-18
      7.10  4.2286e-24  2.0316e-18  4.2286e-24  2.0316e-18  4.2287e-24  2.0316e-18  4.2288e-24  2.0317e-18  4.2289e-24  2.0317e-18  4.2292e-24  2.0318e-18  4.2297e-24  2.0321e-18  4.2828e-24  2.0575e-18  4.3286e-24  2.0794e-18  4.3573e-24  2.0930e-18  4.3774e-24  2.1024e-18  4.3956e-24  2.1104e-18  4.4176e-24  2.1198e-18  4.4510e-24  2.1337e-18  4.5073e-24  2.1568e-18  4.6056e-24  2.1969e-18  4.7800e-24  2.2677e-18  5.0912e-24  2.3934e-18  5.6494e-24  2.6167e-18
      7.15  4.2146e-24  2.2721e-18  4.2146e-24  2.2721e-18  4.2146e-24  2.2721e-18  4.2147e-24  2.2722e-18  4.2149e-24  2.2723e-18  4.2151e-24  2.2724e-18  4.2156e-24  2.2726e-18  4.2535e-24  2.2930e-18  4.3112e-24  2.3240e-18  4.3466e-24  2.3430e-18  4.3707e-24  2.3557e-18  4.3909e-24  2.3661e-18  4.4139e-24  2.3775e-18  4.4473e-24  2.3936e-18  4.5024e-24  2.4198e-18  4.5982e-24  2.4652e-18  4.7676e-24  2.5451e-18  5.0698e-24  2.6868e-18  5.6116e-24  2.9385e-18
      7.20  4.2142e-24  2.5493e-18  4.2143e-24  2.5494e-18  4.2143e-24  2.5494e-18  4.2144e-24  2.5494e-18  4.2145e-24  2.5495e-18  4.2148e-24  2.5497e-18  4.2153e-24  2.5499e-18  4.2161e-24  2.5504e-18  4.2843e-24  2.5916e-18  4.3302e-24  2.6193e-18  4.3605e-24  2.6373e-18  4.3844e-24  2.6513e-18  4.4094e-24  2.6656e-18  4.4436e-24  2.6846e-18  4.4985e-24  2.7147e-18  4.5929e-24  2.7661e-18  4.7595e-24  2.8563e-18  5.0560e-24  3.0160e-18  5.5873e-24  3.2996e-18
      7.25  4.2139e-24  2.8604e-18  4.2140e-24  2.8604e-18  4.2140e-24  2.8605e-18  4.2141e-24  2.8605e-18  4.2142e-24  2.8606e-18  4.2145e-24  2.8608e-18  4.2150e-24  2.8611e-18  4.2158e-24  2.8616e-18  4.2489e-24  2.8840e-18  4.3092e-24  2.9249e-18  4.3479e-24  2.9509e-18  4.3767e-24  2.9701e-18  4.4045e-24  2.9882e-18  4.4399e-24  3.0107e-18  4.4951e-24  3.0453e-18  4.5887e-24  3.1035e-18  4.7531e-24  3.2053e-18  5.0454e-24  3.3853e-18  5.5687e-24  3.7047e-18
      7.30  4.2137e-24  3.2094e-18  4.2137e-24  3.2094e-18  4.2138e-24  3.2095e-18  4.2139e-24  3.2095e-18  4.2140e-24  3.2097e-18  4.2143e-24  3.2098e-18  4.2147e-24  3.2102e-18  4.2156e-24  3.2108e-18  4.2171e-24  3.2119e-18  4.2828e-24  3.2619e-18  4.3328e-24  3.2998e-18  4.3678e-24  3.3261e-18  4.3988e-24  3.3490e-18  4.4360e-24  3.3760e-18  4.4918e-24  3.4158e-18  4.5852e-24  3.4819e-18  4.7483e-24  3.5967e-18  5.0379e-24  3.7994e-18  5.5557e-24  4.1590e-18
      7.35  4.2135e-24  3.6010e-18  4.2135e-24  3.6011e-18  4.2136e-24  3.6011e-18  4.2136e-24  3.6012e-18  4.2138e-24  3.6013e-18  4.2141e-24  3.6015e-18  4.2145e-24  3.6019e-18  4.2154e-24  3.6026e-18  4.2168e-24  3.6038e-18  4.2516e-24  3.6334e-18  4.3143e-24  3.6869e-18  4.3568e-24  3.7229e-18  4.3920e-24  3.7524e-18  4.4316e-24  3.7849e-18  4.4886e-24  3.8310e-18  4.5823e-24  3.9061e-18  4.7448e-24  4.0357e-18  5.0328e-24  4.2639e-18  5.5473e-24  4.6684e-18
      7.40  4.2133e-24  4.0404e-18  4.2133e-24  4.0405e-18  4.2134e-24  4.0405e-18  4.2135e-24  4.0406e-18  4.2136e-24  4.0407e-18  4.2139e-24  4.0410e-18  4.2143e-24  4.0414e-18  4.2152e-24  4.0422e-18  4.2166e-24  4.0435e-18  4.2193e-24  4.0460e-18  4.2950e-24  4.1185e-18  4.3467e-24  4.1678e-18  4.3868e-24  4.2056e-18  4.4286e-24  4.2445e-18  4.4865e-24  4.2974e-18  4.5803e-24  4.3824e-18  4.7425e-24  4.5283e-18  5.0293e-24  4.7849e-18  5.5416e-24  5.2397e-18
      7.45  4.2132e-24  4.5334e-18  4.2132e-24  4.5335e-18  4.2132e-24  4.5335e-18  4.2133e-24  4.5336e-18  4.2135e-24  4.5338e-18  4.2137e-24  4.5340e-18  4.2142e-24  4.5345e-18  4.2150e-24  4.5354e-18  4.2165e-24  4.5369e-18  4.2191e-24  4.5397e-18  4.2923e-24  4.6184e-18  4.3450e-24  4.6748e-18  4.3856e-24  4.7180e-18  4.4276e-24  4.7620e-18  4.4853e-24  4.8216e-18  4.5787e-24  4.9172e-18  4.7399e-24  5.0812e-18  5.0249e-24  5.3696e-18  5.5338e-24  5.8805e-18
      7.50  4.2130e-24  5.0866e-18  4.2130e-24  5.0866e-18  4.2131e-24  5.0867e-18  4.2132e-24  5.0868e-18  4.2133e-24  5.0870e-18  4.2136e-24  5.0873e-18  4.2140e-24  5.0878e-18  4.2149e-24  5.0888e-18  4.2163e-24  5.0905e-18  4.2190e-24  5.0936e-18  4.2897e-24  5.1789e-18  4.3434e-24  5.2435e-18  4.3846e-24  5.2927e-18  4.4267e-24  5.3425e-18  4.4844e-24  5.4098e-18  4.5774e-24  5.5172e-18  4.7380e-24  5.7016e-18  5.0218e-24  6.0255e-18  5.5284e-24  6.5994e-18
      7.55  4.2129e-24  5.7073e-18  4.2129e-24  5.7073e-18  4.2130e-24  5.7073e-18  4.2131e-24  5.7075e-18  4.2132e-24  5.7077e-18  4.2135e-24  5.7080e-18  4.2139e-24  5.7086e-18  4.2148e-24  5.7097e-18  4.2162e-24  5.7117e-18  4.2188e-24  5.7152e-18  4.2868e-24  5.8071e-18  4.3417e-24  5.8813e-18  4.3834e-24  5.9373e-18  4.4259e-24  5.9938e-18  4.4836e-24  6.0696e-18  4.5764e-24  6.1904e-18  4.7365e-24  6.3975e-18  5.0196e-24  6.7613e-18  5.5247e-24  7.4058e-18
      7.60  4.2128e-24  6.4036e-18  4.2128e-24  6.4037e-18  4.2129e-24  6.4038e-18  4.2130e-24  6.4039e-18  4.2131e-24  6.4041e-18  4.2134e-24  6.4045e-18  4.2138e-24  6.4052e-18  4.2146e-24  6.4064e-18  4.2161e-24  6.4086e-18  4.2187e-24  6.4125e-18  4.2835e-24  6.5108e-18  4.3397e-24  6.5961e-18  4.3822e-24  6.6603e-18  4.4250e-24  6.7243e-18  4.4827e-24  6.8098e-18  4.5752e-24  6.9457e-18  4.7346e-24  7.1783e-18  5.0162e-24  7.5869e-18  5.5186e-24  8.3105e-18
      7.65  4.2127e-24  7.1850e-18  4.2127e-24  7.1850e-18  4.2128e-24  7.1851e-18  4.2129e-24  7.1853e-18  4.2130e-24  7.1855e-18  4.2133e-24  7.1859e-18  4.2137e-24  7.1867e-18  4.2146e-24  7.1881e-18  4.2160e-24  7.1906e-18  4.2186e-24  7.1950e-18  4.2794e-24  7.2985e-18  4.3373e-24  7.3971e-18  4.3808e-24  7.4708e-18  4.4240e-24  7.5436e-18  4.4818e-24  7.6401e-18  4.5741e-24  7.7930e-18  4.7328e-24  8.0543e-18  5.0132e-24  8.5131e-18  5.5130e-24  9.3255e-18
      7.70  4.2126e-24  8.0617e-18  4.2127e-24  8.0618e-18  4.2127e-24  8.0618e-18  4.2128e-24  8.0620e-18  4.2129e-24  8.0623e-18  4.2132e-24  8.0628e-18  4.2137e-24  8.0636e-18  4.2145e-24  8.0652e-18  4.2159e-24  8.0680e-18  4.2185e-24  8.0729e-18  4.2742e-24  8.1793e-18  4.3343e-24  8.2942e-18  4.3790e-24  8.3792e-18  4.4229e-24  8.4623e-18  4.4809e-24  8.5714e-18  4.5730e-24  8.7434e-18  4.7312e-24  9.0371e-18  5.0104e-24  9.5522e-18  5.5079e-24  1.0464e-17
      7.75  4.2126e-24  9.0454e-18  4.2126e-24  9.0454e-18  4.2127e-24  9.0455e-18  4.2127e-24  9.0457e-18  4.2129e-24  9.0460e-18  4.2131e-24  9.0466e-18  4.2136e-24  9.0476e-18  4.2144e-24  9.0493e-18  4.2159e-24  9.0524e-18  4.2185e-24  9.0579e-18  4.2675e-24  9.1630e-18  4.3304e-24  9.2980e-18  4.3767e-24  9.3970e-18  4.4215e-24  9.4922e-18  4.4799e-24  9.6158e-18  4.5720e-24  9.8096e-18  4.7297e-24  1.0140e-17  5.0078e-24  1.0718e-17  5.5032e-24  1.1742e-17
      7.80  4.2125e-24  1.0149e-17  4.2126e-24  1.0149e-17  4.2126e-24  1.0149e-17  4.2127e-24  1.0149e-17  4.2128e-24  1.0150e-17  4.2131e-24  1.0150e-17  4.2135e-24  1.0152e-17  4.2144e-24  1.0153e-17  4.2158e-24  1.0157e-17  4.2184e-24  1.0163e-17  4.2585e-24  1.0260e-17  4.3252e-24  1.0420e-17  4.3737e-24  1.0537e-17  4.4197e-24  1.0647e-17  4.4787e-24  1.0787e-17  4.5709e-24  1.1005e-17  4.7284e-24  1.1376e-17  5.0055e-24  1.2026e-17  5.4989e-24  1.3176e-17
      7.85  4.2125e-24  1.1387e-17  4.2125e-24  1.1388e-17  4.2126e-24  1.1388e-17  4.2126e-24  1.1388e-17  4.2128e-24  1.1388e-17  4.2130e-24  1.1389e-17  4.2135e-24  1.1390e-17  4.2143e-24  1.1392e-17  4.2158e-24  1.1396e-17  4.2184e-24  1.1403e-17  4.2466e-24  1.1479e-17  4.3183e-24  1.1673e-17  4.3697e-24  1.1812e-17  4.4173e-24  1.1940e-17  4.4772e-24  1.2100e-17  4.5698e-24  1.2347e-17  4.7271e-24  1.2764e-17  5.0035e-24  1.3494e-17  5.4952e-24  1.4785e-17
      7.90  4.2124e-24  1.2777e-17  4.2125e-24  1.2777e-17  4.2125e-24  1.2777e-17  4.2126e-24  1.2777e-17  4.2127e-24  1.2778e-17  4.2130e-24  1.2779e-17  4.2135e-24  1.2780e-17  4.2143e-24  1.2782e-17  4.2157e-24  1.2787e-17  4.2183e-24  1.2795e-17  4.2378e-24  1.2854e-17  4.3133e-24  1.3082e-17  4.3668e-24  1.3244e-17  4.4156e-24  1.3392e-17  4.4761e-24  1.3574e-17  4.5689e-24  1.3852e-17  4.7259e-24  1.4321e-17  5.0016e-24  1.5141e-17  5.4915e-24  1.6590e-17
      7.95  4.2124e-24  1.4336e-17  4.2124e-24  1.4336e-17  4.2125e-24  1.4336e-17  4.2126e-24  1.4336e-17  4.2127e-24  1.4337e-17  4.2130e-24  1.4338e-17  4.2134e-24  1.4339e-17  4.2142e-24  1.4342e-17  4.2157e-24  1.4347e-17  4.2183e-24  1.4356e-17  4.2271e-24  1.4386e-17  4.3071e-24  1.4658e-17  4.3632e-24  1.4849e-17  4.4135e-24  1.5019e-17  4.4748e-24  1.5226e-17  4.5679e-24  1.5540e-17  4.7249e-24  1.6068e-17  4.9998e-24  1.6988e-17  5.4880e-24  1.8616e-17
      8.00  4.2124e-24  1.6085e-17  4.2124e-24  1.6085e-17  4.2125e-24  1.6085e-17  4.2125e-24  1.6086e-17  4.2127e-24  1.6086e-17  4.2129e-24  1.6087e-17  4.2134e-24  1.6089e-17  4.2142e-24  1.6092e-17  4.2157e-24  1.6098e-17  4.2183e-24  1.6108e-17  4.2229e-24  1.6125e-17  4.2993e-24  1.6417e-17  4.3587e-24  1.6643e-17  4.4109e-24  1.6842e-17  4.4732e-24  1.7079e-17  4.5668e-24  1.7434e-17  4.7238e-24  1.8027e-17  4.9982e-24  1.9061e-17  5.4849e-24  2.0888e-17
      8.05  4.2124e-24  1.8048e-17  4.2124e-24  1.8048e-17  4.2124e-24  1.8048e-17  4.2125e-24  1.8049e-17  4.2127e-24  1.8049e-17  4.2129e-24  1.8050e-17  4.2134e-24  1.8052e-17  4.2142e-24  1.8056e-17  4.2156e-24  1.8062e-17  4.2182e-24  1.8073e-17  4.2228e-24  1.8093e-17  4.2895e-24  1.8378e-17  4.3531e-24  1.8650e-17  4.4077e-24  1.8884e-17  4.4713e-24  1.9155e-17  4.5656e-24  1.9557e-17  4.7228e-24  2.0225e-17  4.9969e-24  2.1387e-17  5.4824e-24  2.3439e-17
      8.10  4.2123e-24  2.0250e-17  4.2124e-24  2.0250e-17  4.2124e-24  2.0250e-17  4.2125e-24  2.0251e-17  4.2126e-24  2.0252e-17  4.2129e-24  2.0253e-17  4.2134e-24  2.0255e-17  4.2142e-24  2.0259e-17  4.2156e-24  2.0266e-17  4.2182e-24  2.0278e-17  4.2228e-24  2.0300e-17  4.2775e-24  2.0563e-17  4.3462e-24  2.0893e-17  4.4037e-24  2.1169e-17  4.4690e-24  2.1482e-17  4.5642e-24  2.1937e-17  4.7218e-24  2.2690e-17  4.9957e-24  2.3996e-17  5.4803e-24  2.6300e-17
      8.15  4.2123e-24  2.2721e-17  4.2123e-24  2.2721e-17  4.2124e-24  2.2721e-17  4.2125e-24  2.2722e-17  4.2126e-24  2.2723e-17  4.2129e-24  2.2724e-17  4.2133e-24  2.2726e-17  4.2142e-24  2.2731e-17  4.2156e-24  2.2739e-17  4.2182e-24  2.2753e-17  4.2228e-24  2.2777e-17  4.2630e-24  2.2994e-17  4.3378e-24  2.3397e-17  4.3989e-24  2.3726e-17  4.4663e-24  2.4089e-17  4.5625e-24  2.4606e-17  4.7206e-24  2.5454e-17  4.9946e-24  2.6922e-17  5.4785e-24  2.9510e-17
      8.20  4.2123e-24  2.5493e-17  4.2123e-24  2.5493e-17  4.2124e-24  2.5494e-17  4.2125e-24  2.5494e-17  4.2126e-24  2.5495e-17  4.2129e-24  2.5497e-17  4.2133e-24  2.5499e-17  4.2141e-24  2.5504e-17  4.2156e-24  2.5513e-17  4.2182e-24  2.5529e-17  4.2228e-24  2.5557e-17  4.2455e-24  2.5694e-17  4.3278e-24  2.6192e-17  4.3931e-24  2.6587e-17  4.4629e-24  2.7008e-17  4.5606e-24  2.7597e-17  4.7193e-24  2.8554e-17  4.9935e-24  3.0205e-17  5.4770e-24  3.3111e-17
      8.25  4.2123e-24  2.8604e-17  4.2123e-24  2.8604e-17  4.2124e-24  2.8604e-17  4.2124e-24  2.8605e-17  4.2126e-24  2.8606e-17  4.2128e-24  2.8608e-17  4.2133e-24  2.8611e-17  4.2141e-24  2.8616e-17  4.2156e-24  2.8626e-17  4.2182e-24  2.8644e-17  4.2228e-24  2.8675e-17  4.2310e-24  2.8731e-17  4.3158e-24  2.9307e-17  4.3863e-24  2.9785e-17  4.4590e-24  3.0277e-17  4.5583e-24  3.0950e-17  4.7179e-24  3.2031e-17  4.9924e-24  3.3887e-17  5.4757e-24  3.7151e-17
      8.30  4.2123e-24  3.2094e-17  4.2123e-24  3.2094e-17  4.2123e-24  3.2095e-17  4.2124e-24  3.2095e-17  4.2126e-24  3.2096e-17  4.2128e-24  3.2098e-17  4.2133e-24  3.2102e-17  4.2141e-24  3.2108e-17  4.2156e-24  3.2119e-17  4.2182e-24  3.2139e-17  4.2228e-24  3.2174e-17  4.2310e-24  3.2236e-17  4.3018e-24  3.2776e-17  4.3782e-24  3.3358e-17  4.4544e-24  3.3937e-17  4.5556e-24  3.4707e-17  4.7163e-24  3.5928e-17  4.9913e-24  3.8016e-17  5.4746e-24  4.1683e-17
      8.35  4.2123e-24  3.6010e-17  4.2123e-24  3.6010e-17  4.2123e-24  3.6011e-17  4.2124e-24  3.6012e-17  4.2126e-24  3.6013e-17  4.2128e-24  3.6015e-17  4.2133e-24  3.6019e-17  4.2141e-24  3.6026e-17  4.2156e-24  3.6038e-17  4.2181e-24  3.6061e-17  4.2228e-24  3.6100e-17  4.2309e-24  3.6170e-17  4.2856e-24  3.6637e-17  4.3689e-24  3.7348e-17  4.4490e-24  3.8032e-17  4.5525e-24  3.8916e-17  4.7145e-24  4.0298e-17  4.9901e-24  4.2648e-17  5.4736e-24  4.6766e-17
      8.40  4.2123e-24  4.0404e-17  4.2123e-24  4.0404e-17  4.2123e-24  4.0405e-17  4.2124e-24  4.0406e-17  4.2126e-24  4.0407e-17  4.2128e-24  4.0410e-17  4.2133e-24  4.0414e-17  4.2141e-24  4.0422e-17  4.2156e-24  4.0436e-17  4.2181e-24  4.0461e-17  4.2227e-24  4.0505e-17  4.2309e-24  4.0583e-17  4.2670e-24  4.0928e-17  4.3581e-24  4.1802e-17  4.4428e-24  4.2614e-17  4.5489e-24  4.3630e-17  4.7123e-24  4.5195e-17  4.9888e-24  4.7841e-17  5.4725e-24  5.2468e-17
      8.45  4.2122e-24  4.5334e-17  4.2123e-24  4.5335e-17  4.2123e-24  4.5335e-17  4.2124e-24  4.5336e-17  4.2125e-24  4.5337e-17  4.2128e-24  4.5340e-17  4.2133e-24  4.5345e-17  4.2141e-24  4.5354e-17  4.2155e-24  4.5370e-17  4.2181e-24  4.5398e-17  4.2227e-24  4.5447e-17  4.2309e-24  4.5535e-17  4.2457e-24  4.5693e-17  4.3457e-24  4.6770e-17  4.4356e-24  4.7737e-17  4.5448e-24  4.8910e-17  4.7099e-24  5.0685e-17  4.9873e-24  5.3665e-17  5.4714e-24  5.8864e-17
      8.50  4.2122e-24  5.0866e-17  4.2123e-24  5.0866e-17  4.2123e-24  5.0867e-17  4.2124e-24  5.0868e-17  4.2125e-24  5.0869e-17  4.2128e-24  5.0873e-17  4.2133e-24  5.0878e-17  4.2141e-24  5.0888e-17  4.2155e-24  5.0906e-17  4.2181e-24  5.0937e-17  4.2227e-24  5.0992e-17  4.2309e-24  5.1091e-17  4.2455e-24  5.1267e-17  4.3317e-24  5.2308e-17  4.4275e-24  5.3464e-17  4.5401e-24  5.4822e-17  4.7072e-24  5.6838e-17  4.9856e-24  6.0195e-17  5.4703e-24  6.6037e-17
