# This was generated using Cloudy10 and the columns are ordered 
# as log10 of the fraction of the metallicity to the solar metallicity
# 'h_*_Z' and 'c_*_Z' stands for cooling and heating respectively 
# at * metalicity
#
# NOTE: This was generated separately from loop_coolingcurve_w_UV.py
#       using Output_metals_w_redshift.py.
#
# Redshift = 8.5
# hden = -2.0
#
#     temp   h_-3.00_Z   c_-3.00_Z   h_-2.75_Z   c_-2.75_Z   h_-2.50_Z   c_-2.50_Z   h_-2.25_Z   c_-2.25_Z   h_-2.00_Z   c_-2.00_Z   h_-1.75_Z   c_-1.75_Z   h_-1.50_Z   c_-1.50_Z   h_-1.25_Z   c_-1.25_Z   h_-1.00_Z   c_-1.00_Z   h_-0.75_Z   c_-0.75_Z   h_-0.50_Z   c_-0.50_Z   h_-0.25_Z   c_-0.25_Z    h_0.00_Z    c_0.00_Z    h_0.25_Z    c_0.25_Z    h_0.50_Z    c_0.50_Z    h_0.75_Z    c_0.75_Z    h_1.00_Z    c_1.00_Z    h_1.25_Z    c_1.25_Z    h_1.50_Z    c_1.50_Z 
      1.00  7.7308e-23  1.5703e-26  7.7309e-23  1.5703e-26  7.7310e-23  1.5703e-26  7.7311e-23  1.5704e-26  7.7314e-23  1.5705e-26  7.7319e-23  1.5706e-26  7.7328e-23  1.5709e-26  7.7344e-23  1.5714e-26  7.7372e-23  1.5722e-26  7.7422e-23  1.5738e-26  7.7512e-23  1.5765e-26  7.7670e-23  1.5813e-26  7.7953e-23  1.5899e-26  7.8455e-23  1.6051e-26  7.9348e-23  1.6324e-26  8.0938e-23  1.6810e-26  8.3769e-23  1.7683e-26  8.8816e-23  1.9256e-26  9.7828e-23  2.2125e-26
      1.05  7.5382e-23  1.7152e-26  7.5383e-23  1.7152e-26  7.5384e-23  1.7153e-26  7.5385e-23  1.7154e-26  7.5388e-23  1.7157e-26  7.5393e-23  1.7162e-26  7.5402e-23  1.7170e-26  7.5417e-23  1.7186e-26  7.5445e-23  1.7212e-26  7.5495e-23  1.7260e-26  7.5583e-23  1.7345e-26  7.5739e-23  1.7497e-26  7.6018e-23  1.7766e-26  7.6513e-23  1.8246e-26  7.7395e-23  1.9101e-26  7.8964e-23  2.0629e-26  8.1758e-23  2.3368e-26  8.6737e-23  2.8306e-26  9.5628e-23  3.7301e-26
      1.10  7.3445e-23  1.8717e-26  7.3446e-23  1.8718e-26  7.3447e-23  1.8720e-26  7.3448e-23  1.8724e-26  7.3451e-23  1.8731e-26  7.3456e-23  1.8743e-26  7.3465e-23  1.8765e-26  7.3480e-23  1.8803e-26  7.3508e-23  1.8872e-26  7.3556e-23  1.8994e-26  7.3643e-23  1.9210e-26  7.3798e-23  1.9596e-26  7.4073e-23  2.0282e-26  7.4561e-23  2.1503e-26  7.5431e-23  2.3681e-26  7.6978e-23  2.7572e-26  7.9733e-23  3.4545e-26  8.4644e-23  4.7118e-26  9.3411e-23  7.0014e-26
      1.15  7.1500e-23  2.0407e-26  7.1501e-23  2.0409e-26  7.1501e-23  2.0414e-26  7.1503e-23  2.0422e-26  7.1506e-23  2.0436e-26  7.1510e-23  2.0462e-26  7.1519e-23  2.0508e-26  7.1534e-23  2.0590e-26  7.1561e-23  2.0735e-26  7.1610e-23  2.0993e-26  7.1695e-23  2.1452e-26  7.1847e-23  2.2268e-26  7.2118e-23  2.3721e-26  7.2600e-23  2.6309e-26  7.3457e-23  3.0922e-26  7.4981e-23  3.9164e-26  7.7696e-23  5.3939e-26  8.2535e-23  8.0587e-26  9.1172e-23  1.2914e-25
      1.20  6.9548e-23  2.2228e-26  6.9549e-23  2.2233e-26  6.9550e-23  2.2242e-26  6.9551e-23  2.2257e-26  6.9554e-23  2.2285e-26  6.9559e-23  2.2334e-26  6.9567e-23  2.2422e-26  6.9582e-23  2.2577e-26  6.9609e-23  2.2853e-26  6.9656e-23  2.3345e-26  6.9740e-23  2.4219e-26  6.9890e-23  2.5774e-26  7.0157e-23  2.8542e-26  7.0631e-23  3.3472e-26  7.1475e-23  4.2262e-26  7.2976e-23  5.7967e-26  7.5649e-23  8.6127e-26  8.0413e-23  1.3693e-25  8.8914e-23  2.2956e-25
      1.25  6.7592e-23  2.4190e-26  6.7593e-23  2.4198e-26  6.7594e-23  2.4214e-26  6.7595e-23  2.4241e-26  6.7598e-23  2.4290e-26  6.7602e-23  2.4376e-26  6.7611e-23  2.4530e-26  6.7625e-23  2.4804e-26  6.7652e-23  2.5291e-26  6.7698e-23  2.6156e-26  6.7781e-23  2.7696e-26  6.7929e-23  3.0436e-26  6.8191e-23  3.5311e-26  6.8658e-23  4.3995e-26  6.9488e-23  5.9480e-26  7.0965e-23  8.7151e-26  7.3595e-23  1.3678e-25  7.8281e-23  2.2635e-25  8.6643e-23  3.8976e-25
      1.30  6.5635e-23  2.6300e-26  6.5635e-23  2.6314e-26  6.5636e-23  2.6339e-26  6.5637e-23  2.6384e-26  6.5640e-23  2.6465e-26  6.5644e-23  2.6608e-26  6.5653e-23  2.6862e-26  6.5667e-23  2.7314e-26  6.5693e-23  2.8117e-26  6.5739e-23  2.9546e-26  6.5820e-23  3.2088e-26  6.5965e-23  3.6611e-26  6.6223e-23  4.4662e-26  6.6682e-23  5.9000e-26  6.7499e-23  8.4569e-26  6.8951e-23  1.3026e-25  7.1537e-23  2.1224e-25  7.6143e-23  3.6025e-25  8.4362e-23  6.3044e-25
      1.35  6.3677e-23  2.8566e-26  6.3677e-23  2.8588e-26  6.3678e-23  2.8628e-26  6.3680e-23  2.8698e-26  6.3682e-23  2.8824e-26  6.3687e-23  2.9047e-26  6.3695e-23  2.9443e-26  6.3709e-23  3.0149e-26  6.3734e-23  3.1403e-26  6.3779e-23  3.3634e-26  6.3859e-23  3.7602e-26  6.4002e-23  4.4662e-26  6.4256e-23  5.7228e-26  6.4707e-23  7.9610e-26  6.5509e-23  1.1953e-25  6.6936e-23  1.9087e-25  6.9477e-23  3.1888e-25  7.4003e-23  5.5009e-25  8.2077e-23  9.7243e-25
      1.40  6.1722e-23  3.0997e-26  6.1722e-23  3.1030e-26  6.1723e-23  3.1089e-26  6.1724e-23  3.1193e-26  6.1727e-23  3.1380e-26  6.1731e-23  3.1711e-26  6.1739e-23  3.2300e-26  6.1753e-23  3.3348e-26  6.1778e-23  3.5211e-26  6.1822e-23  3.8525e-26  6.1901e-23  4.4419e-26  6.2041e-23  5.4906e-26  6.2290e-23  7.3574e-26  6.2733e-23  1.0682e-25  6.3521e-23  1.6613e-25  6.4923e-23  2.7213e-25  6.7419e-23  4.6236e-25  7.1863e-23  8.0608e-25  7.9790e-23  1.4342e-24
      1.45  5.9772e-23  3.4086e-26  5.9773e-23  3.4133e-26  5.9774e-23  3.4217e-26  5.9775e-23  3.4366e-26  5.9777e-23  3.4630e-26  5.9782e-23  3.5101e-26  5.9789e-23  3.5939e-26  5.9803e-23  3.7428e-26  5.9828e-23  4.0076e-26  5.9871e-23  4.4787e-26  5.9948e-23  5.3166e-26  6.0086e-23  6.8075e-26  6.0330e-23  9.4612e-26  6.0765e-23  1.4188e-25  6.1539e-23  2.2619e-25  6.2915e-23  3.7692e-25  6.5365e-23  6.4745e-25  6.9727e-23  1.1364e-24  7.7505e-23  2.0304e-24
      1.50  5.7830e-23  3.7539e-26  5.7831e-23  3.7604e-26  5.7832e-23  3.7718e-26  5.7833e-23  3.7922e-26  5.7835e-23  3.8284e-26  5.7840e-23  3.8927e-26  5.7847e-23  4.0072e-26  5.7861e-23  4.2108e-26  5.7885e-23  4.5728e-26  5.7927e-23  5.2167e-26  5.8003e-23  6.3622e-26  5.8138e-23  8.4002e-26  5.8378e-23  1.2028e-25  5.8805e-23  1.8490e-25  5.9564e-23  3.0016e-25  6.0914e-23  5.0624e-25  6.3317e-23  8.7618e-25  6.7596e-23  1.5450e-24  7.5223e-23  2.7684e-24
      1.55  5.5898e-23  4.1197e-26  5.5899e-23  4.1282e-26  5.5900e-23  4.1433e-26  5.5901e-23  4.1702e-26  5.5903e-23  4.2180e-26  5.5907e-23  4.3030e-26  5.5915e-23  4.4541e-26  5.5928e-23  4.7229e-26  5.5952e-23  5.2009e-26  5.5993e-23  6.0511e-26  5.6068e-23  7.5634e-26  5.6200e-23  1.0254e-25  5.6435e-23  1.5044e-25  5.6854e-23  2.3576e-25  5.7598e-23  3.8796e-25  5.8922e-23  6.6009e-25  6.1278e-23  1.1487e-24  6.5472e-23  2.0322e-24  7.2945e-23  3.6492e-24
      1.60  5.3979e-23  4.5069e-26  5.3979e-23  4.5177e-26  5.3980e-23  4.5371e-26  5.3981e-23  4.5715e-26  5.3984e-23  4.6327e-26  5.3988e-23  4.7415e-26  5.3995e-23  4.9350e-26  5.4008e-23  5.2792e-26  5.4031e-23  5.8913e-26  5.4072e-23  6.9799e-26  5.4145e-23  8.9164e-26  5.4274e-23  1.2362e-25  5.4505e-23  1.8495e-25  5.4915e-23  2.9421e-25  5.5644e-23  4.8912e-25  5.6941e-23  8.3764e-25  5.9248e-23  1.4635e-24  6.3355e-23  2.5955e-24  7.0669e-23  4.6680e-24
      1.65  5.2074e-23  4.9163e-26  5.2074e-23  4.9298e-26  5.2075e-23  4.9540e-26  5.2076e-23  4.9969e-26  5.2079e-23  5.0732e-26  5.2083e-23  5.2088e-26  5.2090e-23  5.4501e-26  5.2102e-23  5.8792e-26  5.2125e-23  6.6423e-26  5.2165e-23  7.9995e-26  5.2236e-23  1.0414e-25  5.2363e-23  1.4710e-25  5.2589e-23  2.2356e-25  5.2989e-23  3.5979e-25  5.3703e-23  6.0281e-25  5.4971e-23  1.0374e-24  5.7227e-23  1.8179e-24  6.1242e-23  3.2299e-24  6.8391e-23  5.8160e-24
      1.70  5.0186e-23  5.3489e-26  5.0187e-23  5.3655e-26  5.0187e-23  5.3949e-26  5.0189e-23  5.4472e-26  5.0191e-23  5.5401e-26  5.0195e-23  5.7055e-26  5.0202e-23  5.9995e-26  5.0214e-23  6.5224e-26  5.0236e-23  7.4523e-26  5.0275e-23  9.1063e-26  5.0345e-23  1.2049e-25  5.0469e-23  1.7284e-25  5.0689e-23  2.6603e-25  5.1080e-23  4.3204e-25  5.1776e-23  7.2822e-25  5.3014e-23  1.2579e-24  5.5216e-23  2.2093e-24  5.9133e-23  3.9308e-24  6.6105e-23  7.0847e-24
      1.75  4.8318e-23  5.8059e-26  4.8319e-23  5.8257e-26  4.8320e-23  5.8609e-26  4.8321e-23  5.9234e-26  4.8323e-23  6.0346e-26  4.8327e-23  6.2323e-26  4.8334e-23  6.5839e-26  4.8346e-23  7.2092e-26  4.8367e-23  8.3213e-26  4.8405e-23  1.0299e-25  4.8473e-23  1.3818e-25  4.8593e-23  2.0078e-25  4.8808e-23  3.1223e-25  4.9189e-23  5.1077e-25  4.9866e-23  8.6499e-25  5.1071e-23  1.4985e-24  5.3214e-23  2.6365e-24  5.7025e-23  4.6959e-24  6.3804e-23  8.4700e-24
      1.80  4.6473e-23  6.2895e-26  4.6473e-23  6.3128e-26  4.6474e-23  6.3542e-26  4.6475e-23  6.4279e-26  4.6477e-23  6.5589e-26  4.6481e-23  6.7919e-26  4.6487e-23  7.2062e-26  4.6499e-23  7.9429e-26  4.6520e-23  9.2532e-26  4.6557e-23  1.1584e-25  4.6623e-23  1.5729e-25  4.6739e-23  2.3106e-25  4.6947e-23  3.6237e-25  4.7317e-23  5.9631e-25  4.7974e-23  1.0137e-24  4.9143e-23  1.7602e-24  5.1221e-23  3.1012e-24  5.4916e-23  5.5284e-24  6.1486e-23  9.9773e-24
      1.85  4.4652e-23  6.7998e-26  4.4652e-23  6.8269e-26  4.4653e-23  6.8752e-26  4.4654e-23  6.9611e-26  4.4656e-23  7.1138e-26  4.4659e-23  7.3853e-26  4.4666e-23  7.8681e-26  4.4677e-23  8.7268e-26  4.4697e-23  1.0254e-25  4.4733e-23  1.2970e-25  4.4796e-23  1.7802e-25  4.4909e-23  2.6399e-25  4.5110e-23  4.1702e-25  4.5467e-23  6.8967e-25  4.6102e-23  1.1761e-24  4.7231e-23  2.0462e-24  4.9239e-23  3.6092e-24  5.2806e-23  6.4384e-24  5.9147e-23  1.1625e-23
      1.90  4.2857e-23  7.3380e-26  4.2858e-23  7.3694e-26  4.2858e-23  7.4253e-26  4.2859e-23  7.5246e-26  4.2861e-23  7.7012e-26  4.2865e-23  8.0154e-26  4.2871e-23  8.5740e-26  4.2882e-23  9.5674e-26  4.2901e-23  1.1334e-25  4.2935e-23  1.4476e-25  4.2997e-23  2.0066e-25  4.3105e-23  3.0012e-25  4.3298e-23  4.7718e-25  4.3642e-23  7.9262e-25  4.4253e-23  1.3554e-24  4.5339e-23  2.3620e-24  4.7270e-23  4.1703e-24  5.0700e-23  7.4435e-24  5.6794e-23  1.3444e-23
      1.95  4.1092e-23  7.9053e-26  4.1092e-23  7.9415e-26  4.1093e-23  8.0058e-26  4.1094e-23  8.1202e-26  4.1096e-23  8.3236e-26  4.1099e-23  8.6853e-26  4.1105e-23  9.3286e-26  4.1115e-23  1.0473e-25  4.1134e-23  1.2507e-25  4.1167e-23  1.6126e-25  4.1226e-23  2.2562e-25  4.1330e-23  3.4016e-25  4.1515e-23  5.4404e-25  4.1845e-23  9.0727e-25  4.2431e-23  1.5553e-24  4.3472e-23  2.7144e-24  4.5323e-23  4.7965e-24  4.8613e-23  8.5651e-24  5.4453e-23  1.5472e-23
      2.00  3.9358e-23  8.5031e-26  3.9358e-23  8.5447e-26  3.9359e-23  8.6186e-26  3.9360e-23  8.7500e-26  3.9362e-23  8.9838e-26  3.9365e-23  9.3995e-26  3.9370e-23  1.0139e-25  3.9380e-23  1.1453e-25  3.9398e-23  1.3791e-25  3.9429e-23  1.7950e-25  3.9485e-23  2.5347e-25  3.9585e-23  3.8509e-25  3.9762e-23  6.1938e-25  4.0076e-23  1.0368e-24  4.0635e-23  1.7815e-24  4.1629e-23  3.1133e-24  4.3395e-23  5.5057e-24  4.6533e-23  9.8352e-24  5.2103e-23  1.7769e-23
      2.05  3.7657e-23  9.1350e-26  3.7658e-23  9.1827e-26  3.7658e-23  9.2676e-26  3.7659e-23  9.4184e-26  3.7661e-23  9.6866e-26  3.7664e-23  1.0164e-25  3.7669e-23  1.1012e-25  3.7679e-23  1.2521e-25  3.7695e-23  1.5203e-25  3.7725e-23  1.9975e-25  3.7778e-23  2.8464e-25  3.7873e-23  4.3568e-25  3.8041e-23  7.0454e-25  3.8340e-23  1.1835e-24  3.8872e-23  2.0380e-24  3.9817e-23  3.5662e-24  4.1497e-23  6.3109e-24  4.4480e-23  1.1277e-23  4.9776e-23  2.0376e-23
      2.10  3.5992e-23  9.8002e-26  3.5992e-23  9.8548e-26  3.5992e-23  9.9520e-26  3.5993e-23  1.0125e-25  3.5995e-23  1.0432e-25  3.5998e-23  1.0979e-25  3.6003e-23  1.1951e-25  3.6012e-23  1.3679e-25  3.6028e-23  1.6753e-25  3.6056e-23  2.2220e-25  3.6107e-23  3.1945e-25  3.6196e-23  4.9248e-25  3.6356e-23  8.0050e-25  3.6640e-23  1.3492e-24  3.7145e-23  2.3281e-24  3.8042e-23  4.0786e-24  3.9636e-23  7.2223e-24  4.2467e-23  1.2909e-23  4.7493e-23  2.3325e-23
      2.15  3.4363e-23  1.0500e-25  3.4363e-23  1.0562e-25  3.4364e-23  1.0673e-25  3.4365e-23  1.0871e-25  3.4366e-23  1.1222e-25  3.4369e-23  1.1847e-25  3.4374e-23  1.2957e-25  3.4382e-23  1.4932e-25  3.4397e-23  1.8445e-25  3.4424e-23  2.4693e-25  3.4472e-23  3.5806e-25  3.4557e-23  5.5580e-25  3.4709e-23  9.0779e-25  3.4978e-23  1.5348e-24  3.5456e-23  2.6534e-24  3.6307e-23  4.6535e-24  3.7818e-23  8.2449e-24  4.0503e-23  1.4741e-23  4.5269e-23  2.6633e-23
      2.20  3.2773e-23  1.1235e-25  3.2774e-23  1.1306e-25  3.2774e-23  1.1432e-25  3.2775e-23  1.1657e-25  3.2776e-23  1.2057e-25  3.2779e-23  1.2768e-25  3.2783e-23  1.4032e-25  3.2792e-23  1.6281e-25  3.2806e-23  2.0280e-25  3.2831e-23  2.7392e-25  3.2877e-23  4.0044e-25  3.2957e-23  6.2555e-25  3.3101e-23  1.0262e-24  3.3356e-23  1.7400e-24  3.3810e-23  3.0133e-24  3.4616e-23  5.2898e-24  3.6049e-23  9.3770e-24  3.8595e-23  1.6768e-23  4.3115e-23  3.0293e-23
      2.25  3.1224e-23  1.2007e-25  3.1224e-23  1.2087e-25  3.1225e-23  1.2231e-25  3.1225e-23  1.2485e-25  3.1227e-23  1.2938e-25  3.1229e-23  1.3743e-25  3.1233e-23  1.5175e-25  3.1241e-23  1.7721e-25  3.1255e-23  2.2250e-25  3.1279e-23  3.0305e-25  3.1322e-23  4.4632e-25  3.1398e-23  7.0125e-25  3.1535e-23  1.1550e-24  3.1777e-23  1.9633e-24  3.2207e-23  3.4051e-24  3.2972e-23  5.9828e-24  3.4331e-23  1.0610e-23  3.6747e-23  1.8975e-23  4.1037e-23  3.4279e-23
      2.30  2.9716e-23  1.2822e-25  2.9716e-23  1.2912e-25  2.9717e-23  1.3073e-25  2.9717e-23  1.3360e-25  2.9719e-23  1.3870e-25  2.9721e-23  1.4776e-25  2.9725e-23  1.6388e-25  2.9732e-23  1.9254e-25  2.9745e-23  2.4352e-25  2.9768e-23  3.3418e-25  2.9808e-23  4.9546e-25  2.9881e-23  7.8241e-25  3.0009e-23  1.2932e-24  3.0237e-23  2.2030e-24  3.0643e-23  3.8257e-24  3.1364e-23  6.7267e-24  3.2646e-23  1.1933e-23  3.4924e-23  2.1344e-23  3.8972e-23  3.8551e-23
      2.35  2.8251e-23  1.3675e-25  2.8251e-23  1.3776e-25  2.8252e-23  1.3956e-25  2.8252e-23  1.4276e-25  2.8254e-23  1.4845e-25  2.8256e-23  1.5857e-25  2.8260e-23  1.7656e-25  2.8267e-23  2.0855e-25  2.8279e-23  2.6544e-25  2.8301e-23  3.6664e-25  2.8340e-23  5.4665e-25  2.8409e-23  8.6692e-25  2.8531e-23  1.4370e-24  2.8750e-23  2.4524e-24  2.9138e-23  4.2635e-24  2.9828e-23  7.5010e-24  3.1056e-23  1.3311e-23  3.3236e-23  2.3811e-23  3.7111e-23  4.3007e-23
      2.40  2.6830e-23  1.4569e-25  2.6830e-23  1.4681e-25  2.6831e-23  1.4880e-25  2.6831e-23  1.5234e-25  2.6832e-23  1.5864e-25  2.6835e-23  1.6983e-25  2.6838e-23  1.8975e-25  2.6845e-23  2.2515e-25  2.6857e-23  2.8813e-25  2.6878e-23  4.0013e-25  2.6915e-23  5.9936e-25  2.6981e-23  9.5383e-25  2.7099e-23  1.5848e-24  2.7308e-23  2.7086e-24  2.7680e-23  4.7130e-24  2.8341e-23  8.2960e-24  2.9517e-23  1.4726e-23  3.1606e-23  2.6344e-23  3.5317e-23  4.7580e-23
      2.45  2.5454e-23  1.5504e-25  2.5454e-23  1.5627e-25  2.5454e-23  1.5845e-25  2.5455e-23  1.6234e-25  2.5456e-23  1.6925e-25  2.5458e-23  1.8154e-25  2.5462e-23  2.0340e-25  2.5468e-23  2.4227e-25  2.5479e-23  3.1140e-25  2.5499e-23  4.3435e-25  2.5535e-23  6.5305e-25  2.5598e-23  1.0422e-24  2.5711e-23  1.7348e-24  2.5912e-23  2.9684e-24  2.6268e-23  5.1686e-24  2.6902e-23  9.1015e-24  2.8028e-23  1.6159e-23  3.0029e-23  2.8910e-23  3.3586e-23  5.2212e-23
      2.50  2.4123e-23  1.6481e-25  2.4123e-23  1.6615e-25  2.4124e-23  1.6853e-25  2.4124e-23  1.7276e-25  2.4125e-23  1.8029e-25  2.4127e-23  1.9367e-25  2.4131e-23  2.1747e-25  2.4137e-23  2.5979e-25  2.4148e-23  3.3507e-25  2.4167e-23  4.6895e-25  2.4201e-23  7.0709e-25  2.4262e-23  1.1308e-24  2.4370e-23  1.8850e-24  2.4562e-23  3.2283e-24  2.4904e-23  5.6240e-24  2.5511e-23  9.9061e-24  2.6591e-23  1.7590e-23  2.8509e-23  3.1471e-23  3.1917e-23  5.6836e-23
      2.55  2.2838e-23  1.7509e-25  2.2839e-23  1.7654e-25  2.2839e-23  1.7911e-25  2.2840e-23  1.8368e-25  2.2841e-23  1.9180e-25  2.2842e-23  2.0626e-25  2.2846e-23  2.3196e-25  2.2852e-23  2.7767e-25  2.2862e-23  3.5896e-25  2.2880e-23  5.0354e-25  2.2913e-23  7.6071e-25  2.2971e-23  1.2183e-24  2.3075e-23  2.0327e-24  2.3259e-23  3.4834e-24  2.3588e-23  6.0704e-24  2.4170e-23  1.0695e-23  2.5205e-23  1.8992e-23  2.7045e-23  3.3980e-23  3.0311e-23  6.1364e-23
      2.60  2.1600e-23  1.8581e-25  2.1600e-23  1.8736e-25  2.1601e-23  1.9011e-25  2.1601e-23  1.9501e-25  2.1602e-23  2.0371e-25  2.1604e-23  2.1919e-25  2.1607e-23  2.4672e-25  2.1613e-23  2.9568e-25  2.1623e-23  3.8275e-25  2.1640e-23  5.3761e-25  2.1672e-23  8.1307e-25  2.1728e-23  1.3032e-24  2.1827e-23  2.1755e-24  2.2004e-23  3.7293e-24  2.2319e-23  6.5002e-24  2.2878e-23  1.1453e-23  2.3872e-23  2.0339e-23  2.5637e-23  3.6391e-23  2.8771e-23  6.5715e-23
      2.65  2.0408e-23  1.9698e-25  2.0409e-23  1.9863e-25  2.0409e-23  2.0155e-25  2.0410e-23  2.0676e-25  2.0410e-23  2.1602e-25  2.0412e-23  2.3249e-25  2.0415e-23  2.6177e-25  2.0421e-23  3.1385e-25  2.0430e-23  4.0646e-25  2.0447e-23  5.7119e-25  2.0477e-23  8.6419e-25  2.0531e-23  1.3855e-24  2.0627e-23  2.3134e-24  2.0797e-23  3.9661e-24  2.1099e-23  6.9136e-24  2.1636e-23  1.2182e-23  2.2590e-23  2.1634e-23  2.4285e-23  3.8706e-23  2.7295e-23  6.9893e-23
      2.70  1.9263e-23  2.0860e-25  1.9264e-23  2.1034e-25  1.9264e-23  2.1344e-25  1.9264e-23  2.1894e-25  1.9265e-23  2.2873e-25  1.9267e-23  2.4614e-25  1.9270e-23  2.7709e-25  1.9275e-23  3.3214e-25  1.9284e-23  4.3005e-25  1.9301e-23  6.0418e-25  1.9330e-23  9.1392e-25  1.9381e-23  1.4650e-24  1.9473e-23  2.4459e-24  1.9637e-23  4.1930e-24  1.9927e-23  7.3087e-24  2.0444e-23  1.2877e-23  2.1361e-23  2.2869e-23  2.2991e-23  4.0915e-23  2.5884e-23  7.3878e-23
      2.75  1.8165e-23  2.2068e-25  1.8165e-23  2.2251e-25  1.8165e-23  2.2577e-25  1.8166e-23  2.3155e-25  1.8167e-23  2.4184e-25  1.8168e-23  2.6014e-25  1.8171e-23  2.9269e-25  1.8176e-23  3.5056e-25  1.8185e-23  4.5348e-25  1.8201e-23  6.3653e-25  1.8229e-23  9.6215e-25  1.8278e-23  1.5415e-24  1.8367e-23  2.5726e-24  1.8524e-23  4.4092e-24  1.8804e-23  7.6846e-24  1.9301e-23  1.3539e-23  2.0185e-23  2.4042e-23  2.1753e-23  4.3011e-23  2.4538e-23  7.7659e-23
      2.80  1.7112e-23  2.3337e-25  1.7113e-23  2.3529e-25  1.7113e-23  2.3869e-25  1.7113e-23  2.4474e-25  1.7114e-23  2.5551e-25  1.7116e-23  2.7465e-25  1.7118e-23  3.0868e-25  1.7123e-23  3.6921e-25  1.7132e-23  4.7686e-25  1.7147e-23  6.6832e-25  1.7174e-23  1.0089e-24  1.7222e-23  1.6148e-24  1.7307e-23  2.6933e-24  1.7459e-23  4.6142e-24  1.7729e-23  8.0400e-24  1.8208e-23  1.4163e-23  1.9060e-23  2.5148e-23  2.0572e-23  4.4988e-23  2.3254e-23  8.1224e-23
      2.85  1.6106e-23  2.4655e-25  1.6106e-23  2.4854e-25  1.6106e-23  2.5208e-25  1.6107e-23  2.5838e-25  1.6107e-23  2.6958e-25  1.6109e-23  2.8951e-25  1.6111e-23  3.2494e-25  1.6116e-23  3.8795e-25  1.6124e-23  5.0001e-25  1.6139e-23  6.9931e-25  1.6165e-23  1.0538e-24  1.6211e-23  1.6846e-24  1.6294e-23  2.8073e-24  1.6440e-23  4.8069e-24  1.6700e-23  8.3730e-24  1.7163e-23  1.4747e-23  1.7985e-23  2.6182e-23  1.9444e-23  4.6834e-23  2.2032e-23  8.4553e-23
      2.90  1.5144e-23  2.6021e-25  1.5144e-23  2.6227e-25  1.5144e-23  2.6595e-25  1.5145e-23  2.7247e-25  1.5146e-23  2.8409e-25  1.5147e-23  3.0473e-25  1.5150e-23  3.4145e-25  1.5154e-23  4.0674e-25  1.5162e-23  5.2287e-25  1.5176e-23  7.2941e-25  1.5201e-23  1.0968e-24  1.5246e-23  1.7504e-24  1.5326e-23  2.9139e-24  1.5467e-23  4.9861e-24  1.5719e-23  8.6816e-24  1.6166e-23  1.5286e-23  1.6960e-23  2.7136e-23  1.8369e-23  4.8538e-23  2.0868e-23  8.7626e-23
      2.95  1.4227e-23  2.7439e-25  1.4227e-23  2.7652e-25  1.4227e-23  2.8031e-25  1.4228e-23  2.8705e-25  1.4228e-23  2.9903e-25  1.4230e-23  3.2033e-25  1.4232e-23  3.5821e-25  1.4237e-23  4.2558e-25  1.4244e-23  5.4539e-25  1.4258e-23  7.5849e-25  1.4282e-23  1.1375e-24  1.4326e-23  1.8119e-24  1.4402e-23  3.0123e-24  1.4539e-23  5.1503e-24  1.4782e-23  8.9632e-24  1.5214e-23  1.5778e-23  1.5982e-23  2.8004e-23  1.7344e-23  5.0086e-23  1.9759e-23  9.0416e-23
      3.00  1.3353e-23  2.8914e-25  1.3353e-23  2.9133e-25  1.3353e-23  2.9522e-25  1.3354e-23  3.0214e-25  1.3355e-23  3.1444e-25  1.3356e-23  3.3633e-25  1.3358e-23  3.7525e-25  1.3362e-23  4.4446e-25  1.3370e-23  5.6755e-25  1.3383e-23  7.8647e-25  1.3407e-23  1.1759e-24  1.3448e-23  1.8687e-24  1.3523e-23  3.1019e-24  1.3655e-23  5.2984e-24  1.3890e-23  9.2155e-24  1.4308e-23  1.6216e-23  1.5050e-23  2.8777e-23  1.6367e-23  5.1463e-23  1.8701e-23  9.2899e-23
      3.05  1.2522e-23  3.0472e-25  1.2522e-23  3.0697e-25  1.2522e-23  3.1095e-25  1.2523e-23  3.1804e-25  1.2524e-23  3.3065e-25  1.2525e-23  3.5308e-25  1.2527e-23  3.9296e-25  1.2531e-23  4.6388e-25  1.2538e-23  5.9001e-25  1.2551e-23  8.1434e-25  1.2574e-23  1.2134e-24  1.2615e-23  1.9233e-24  1.2687e-23  3.1870e-24  1.2815e-23  5.4377e-24  1.3043e-23  9.4516e-24  1.3448e-23  1.6626e-23  1.4167e-23  2.9497e-23  1.5443e-23  5.2744e-23  1.7703e-23  9.5204e-23
      3.10  1.1733e-23  3.2074e-25  1.1733e-23  3.2303e-25  1.1733e-23  3.2710e-25  1.1733e-23  3.3434e-25  1.1734e-23  3.4721e-25  1.1735e-23  3.7010e-25  1.1737e-23  4.1081e-25  1.1741e-23  4.8321e-25  1.1748e-23  6.1197e-25  1.1761e-23  8.4096e-25  1.1783e-23  1.2483e-24  1.1822e-23  1.9730e-24  1.1892e-23  3.2630e-24  1.2016e-23  5.5606e-24  1.2237e-23  9.6581e-24  1.2630e-23  1.6982e-23  1.3327e-23  3.0121e-23  1.4563e-23  5.3853e-23  1.6751e-23  9.7201e-23
      3.15  1.0984e-23  3.3761e-25  1.0984e-23  3.3994e-25  1.0984e-23  3.4408e-25  1.0984e-23  3.5144e-25  1.0985e-23  3.6454e-25  1.0986e-23  3.8782e-25  1.0988e-23  4.2924e-25  1.0992e-23  5.0288e-25  1.0999e-23  6.3386e-25  1.1011e-23  8.6681e-25  1.1032e-23  1.2812e-24  1.1070e-23  2.0184e-24  1.1138e-23  3.3307e-24  1.1259e-23  5.6679e-24  1.1473e-23  9.8362e-24  1.1853e-23  1.7286e-23  1.2528e-23  3.0653e-23  1.3725e-23  5.4797e-23  1.5844e-23  9.8898e-23
      3.20  1.0274e-23  3.5525e-25  1.0274e-23  3.5761e-25  1.0274e-23  3.6180e-25  1.0274e-23  3.6927e-25  1.0275e-23  3.8255e-25  1.0276e-23  4.0616e-25  1.0278e-23  4.4814e-25  1.0282e-23  5.2281e-25  1.0289e-23  6.5560e-25  1.0300e-23  8.9178e-25  1.0321e-23  1.3119e-24  1.0358e-23  2.0593e-24  1.0424e-23  3.3897e-24  1.0540e-23  5.7594e-24  1.0748e-23  9.9854e-24  1.1116e-23  1.7539e-23  1.1770e-23  3.1092e-23  1.2929e-23  5.5571e-23  1.4980e-23  1.0029e-22
      3.25  9.6020e-24  3.7349e-25  9.6022e-24  3.7588e-25  9.6024e-24  3.8012e-25  9.6027e-24  3.8767e-25  9.6034e-24  4.0109e-25  9.6045e-24  4.2495e-25  9.6065e-24  4.6738e-25  9.6101e-24  5.4284e-25  9.6164e-24  6.7705e-25  9.6278e-24  9.1574e-25  9.6479e-24  1.3403e-24  9.6837e-24  2.0957e-24  9.7474e-24  3.4403e-24  9.8605e-24  5.8352e-24  1.0062e-23  1.0106e-23  1.0419e-23  1.7740e-23  1.1052e-23  3.1438e-23  1.2175e-23  5.6181e-23  1.4160e-23  1.0138e-22
      3.30  8.9671e-24  3.9273e-25  8.9673e-24  3.9513e-25  8.9675e-24  3.9941e-25  8.9678e-24  4.0702e-25  8.9684e-24  4.2055e-25  8.9695e-24  4.4461e-25  8.9715e-24  4.8740e-25  8.9749e-24  5.6350e-25  8.9811e-24  6.9884e-25  8.9921e-24  9.3954e-25  9.0116e-24  1.3677e-24  9.0463e-24  2.1295e-24  9.1080e-24  3.4854e-24  9.2177e-24  5.9005e-24  9.4126e-24  1.0208e-23  9.7586e-24  1.7906e-23  1.0372e-23  3.1720e-23  1.1459e-23  5.6674e-23  1.3380e-23  1.0227e-22
      3.35  8.3677e-24  4.1262e-25  8.3678e-24  4.1504e-25  8.3680e-24  4.1935e-25  8.3683e-24  4.2702e-25  8.3689e-24  4.4065e-25  8.3700e-24  4.6488e-25  8.3719e-24  5.0798e-25  8.3752e-24  5.8462e-25  8.3812e-24  7.2092e-25  8.3919e-24  9.6334e-25  8.4108e-24  1.3946e-24  8.4444e-24  2.1618e-24  8.5042e-24  3.5274e-24  8.6105e-24  5.9598e-24  8.7994e-24  1.0298e-23  9.1347e-24  1.8052e-23  9.7293e-24  3.1965e-23  1.0782e-23  5.7098e-23  1.2640e-23  1.0302e-22
      3.40  7.8023e-24  4.3320e-25  7.8024e-24  4.3564e-25  7.8026e-24  4.3998e-25  7.8029e-24  4.4769e-25  7.8035e-24  4.6142e-25  7.8045e-24  4.8582e-25  7.8064e-24  5.2921e-25  7.8096e-24  6.0638e-25  7.8154e-24  7.4363e-25  7.8257e-24  9.8773e-25  7.8441e-24  1.4219e-24  7.8767e-24  2.1945e-24  7.9347e-24  3.5695e-24  8.0377e-24  6.0187e-24  8.2205e-24  1.0387e-23  8.5455e-24  1.8194e-23  9.1214e-24  3.2202e-23  1.0140e-23  5.7508e-23  1.1938e-23  1.0374e-22
      3.45  7.2696e-24  4.5448e-25  7.2697e-24  4.5694e-25  7.2699e-24  4.6131e-25  7.2702e-24  4.6909e-25  7.2708e-24  4.8292e-25  7.2718e-24  5.0751e-25  7.2736e-24  5.5125e-25  7.2767e-24  6.2902e-25  7.2824e-24  7.6734e-25  7.2924e-24  1.0134e-24  7.3101e-24  1.4510e-24  7.3417e-24  2.2295e-24  7.3979e-24  3.6153e-24  7.4977e-24  6.0836e-24  7.6751e-24  1.0486e-23  7.9898e-24  1.8353e-23  8.5475e-24  3.2470e-23  9.5336e-24  5.7968e-23  1.1272e-23  1.0455e-22
      3.50  6.7683e-24  4.7650e-25  6.7684e-24  4.7898e-25  6.7686e-24  4.8340e-25  6.7689e-24  4.9125e-25  6.7695e-24  5.0522e-25  6.7704e-24  5.3006e-25  6.7721e-24  5.7423e-25  6.7752e-24  6.5278e-25  6.7807e-24  7.9248e-25  6.7903e-24  1.0409e-24  6.8076e-24  1.4829e-24  6.8382e-24  2.2693e-24  6.8926e-24  3.6688e-24  6.9893e-24  6.1617e-24  7.1610e-24  1.0607e-23  7.4659e-24  1.8552e-23  8.0059e-24  3.2807e-23  8.9599e-24  5.8549e-23  1.0640e-23  1.0556e-22
      3.55  6.2971e-24  4.9982e-25  6.2972e-24  5.0233e-25  6.2973e-24  5.0681e-25  6.2976e-24  5.1477e-25  6.2982e-24  5.2893e-25  6.2991e-24  5.5410e-25  6.3008e-24  5.9887e-25  6.3037e-24  6.7849e-25  6.3090e-24  8.2008e-25  6.3184e-24  1.0719e-24  6.3350e-24  1.5198e-24  6.3648e-24  2.3168e-24  6.4175e-24  3.7353e-24  6.5112e-24  6.2617e-24  6.6775e-24  1.0767e-23  6.9727e-24  1.8818e-23  7.4952e-24  3.3259e-23  8.4179e-24  5.9333e-23  1.0041e-23  1.0693e-22
      3.60  5.8544e-24  5.2395e-25  5.8545e-24  5.2651e-25  5.8547e-24  5.3107e-25  5.8550e-24  5.3918e-25  5.8555e-24  5.5359e-25  5.8564e-24  5.7923e-25  5.8580e-24  6.2482e-25  5.8609e-24  7.0589e-25  5.8660e-24  8.5007e-25  5.8751e-24  1.1065e-24  5.8912e-24  1.5626e-24  5.9200e-24  2.3741e-24  5.9710e-24  3.8185e-24  6.0617e-24  6.3909e-24  6.2228e-24  1.0978e-23  6.5085e-24  1.9173e-23  7.0139e-24  3.3872e-23  7.9056e-24  6.0398e-23  9.4717e-24  1.0879e-22
      3.65  5.4390e-24  5.4893e-25  5.4391e-24  5.5156e-25  5.4393e-24  5.5623e-25  5.4396e-24  5.6453e-25  5.4401e-24  5.7930e-25  5.4409e-24  6.0556e-25  5.4425e-24  6.5226e-25  5.4453e-24  7.3531e-25  5.4502e-24  8.8301e-25  5.4590e-24  1.1457e-24  5.4747e-24  1.6130e-24  5.5025e-24  2.4443e-24  5.5519e-24  3.9238e-24  5.6397e-24  6.5586e-24  5.7955e-24  1.1256e-23  6.0718e-24  1.9649e-23  6.5604e-24  3.4696e-23  7.4215e-24  6.1840e-23  8.9314e-24  1.1133e-22
      3.70  5.0496e-24  5.7483e-25  5.0497e-24  5.7755e-25  5.0498e-24  5.8240e-25  5.0501e-24  5.9102e-25  5.0506e-24  6.0635e-25  5.0514e-24  6.3360e-25  5.0530e-24  6.8208e-25  5.0557e-24  7.6828e-25  5.0604e-24  9.2159e-25  5.0689e-24  1.1942e-24  5.0840e-24  1.6792e-24  5.1109e-24  2.5420e-24  5.1587e-24  4.0776e-24  5.2436e-24  6.8121e-24  5.3942e-24  1.1687e-23  5.6611e-24  2.0395e-23  6.1329e-24  3.6001e-23  6.9636e-24  6.4139e-23  8.4173e-24  1.1539e-22
      3.75  4.6848e-24  6.0163e-25  4.6849e-24  6.0447e-25  4.6851e-24  6.0950e-25  4.6853e-24  6.1846e-25  4.6858e-24  6.3438e-25  4.6866e-24  6.6270e-25  4.6881e-24  7.1306e-25  4.6907e-24  8.0262e-25  4.6953e-24  9.6189e-25  4.7035e-24  1.2452e-24  4.7181e-24  1.7490e-24  4.7441e-24  2.6454e-24  4.7902e-24  4.2406e-24  4.8721e-24  7.0812e-24  5.0175e-24  1.2145e-23  5.2750e-24  2.1188e-23  5.7299e-24  3.7391e-23  6.5301e-24  6.6590e-23  7.9277e-24  1.1974e-22
      3.80  4.3437e-24  6.3035e-25  4.3438e-24  6.3334e-25  4.3440e-24  6.3866e-25  4.3442e-24  6.4811e-25  4.3447e-24  6.6493e-25  4.3455e-24  6.9484e-25  4.3469e-24  7.4802e-25  4.3494e-24  8.4260e-25  4.3538e-24  1.0108e-24  4.3617e-24  1.3100e-24  4.3758e-24  1.8421e-24  4.4009e-24  2.7887e-24  4.4453e-24  4.4733e-24  4.5243e-24  7.4730e-24  4.6645e-24  1.2820e-23  4.9126e-24  2.2368e-23  5.3506e-24  3.9472e-23  6.1204e-24  7.0288e-23  7.4624e-24  1.2637e-22
      3.85  4.0246e-24  6.6078e-25  4.0247e-24  6.6402e-25  4.0248e-24  6.6977e-25  4.0250e-24  6.8001e-25  4.0255e-24  6.9821e-25  4.0262e-24  7.3058e-25  4.0276e-24  7.8815e-25  4.0300e-24  8.9052e-25  4.0343e-24  1.0726e-24  4.0419e-24  1.3964e-24  4.0555e-24  1.9723e-24  4.0796e-24  2.9969e-24  4.1225e-24  4.8202e-24  4.1986e-24  8.0670e-24  4.3336e-24  1.3854e-23  4.5725e-24  2.4188e-23  4.9940e-24  4.2702e-23  5.7341e-24  7.6063e-23  7.0222e-24  1.3679e-22
      3.90  3.7264e-24  6.9548e-25  3.7265e-24  6.9911e-25  3.7266e-24  7.0555e-25  3.7268e-24  7.1701e-25  3.7273e-24  7.3739e-25  3.7280e-24  7.7362e-25  3.7293e-24  8.3806e-25  3.7316e-24  9.5265e-25  3.7358e-24  1.1565e-24  3.7431e-24  1.5189e-24  3.7562e-24  2.1636e-24  3.7795e-24  3.3106e-24  3.8208e-24  5.3518e-24  3.8941e-24  8.9866e-24  4.0242e-24  1.5466e-23  4.2544e-24  2.7038e-23  4.6603e-24  4.7775e-23  5.3721e-24  8.5160e-23  6.6094e-24  1.5328e-22
      3.95  3.4480e-24  7.4428e-25  3.4481e-24  7.4849e-25  3.4482e-24  7.5596e-25  3.4484e-24  7.6926e-25  3.4488e-24  7.9291e-25  3.4495e-24  8.3496e-25  3.4508e-24  9.0973e-25  3.4530e-24  1.0427e-24  3.4571e-24  1.2792e-24  3.4641e-24  1.6998e-24  3.4768e-24  2.4480e-24  3.4992e-24  3.7790e-24  3.5391e-24  6.1480e-24  3.6099e-24  1.0367e-23  3.7354e-24  1.7888e-23  3.9575e-24  3.1324e-23  4.3489e-24  5.5413e-23  5.0346e-24  9.8878e-23  6.2250e-24  1.7820e-22
