# This was generated using Cloudy10 and the columns are ordered 
# as log10 of the fraction of the metallicity to the solar metallicity
# 'h_*_Z' and 'c_*_Z' stands for cooling and heating respectively 
# at * metalicity
#
# NOTE: This was generated separately from loop_coolingcurve_w_UV.py
#       using Output_metals_w_redshift.py.
#
# Redshift = 0.5
# hden = -3.0
#
#     temp   h_-3.00_Z   c_-3.00_Z   h_-2.75_Z   c_-2.75_Z   h_-2.50_Z   c_-2.50_Z   h_-2.25_Z   c_-2.25_Z   h_-2.00_Z   c_-2.00_Z   h_-1.75_Z   c_-1.75_Z   h_-1.50_Z   c_-1.50_Z   h_-1.25_Z   c_-1.25_Z   h_-1.00_Z   c_-1.00_Z   h_-0.75_Z   c_-0.75_Z   h_-0.50_Z   c_-0.50_Z   h_-0.25_Z   c_-0.25_Z    h_0.00_Z    c_0.00_Z    h_0.25_Z    c_0.25_Z    h_0.50_Z    c_0.50_Z    h_0.75_Z    c_0.75_Z    h_1.00_Z    c_1.00_Z    h_1.25_Z    c_1.25_Z    h_1.50_Z    c_1.50_Z 
      1.00  2.0749e-22  4.9292e-26  2.0749e-22  4.9293e-26  2.0750e-22  4.9294e-26  2.0750e-22  4.9297e-26  2.0751e-22  4.9301e-26  2.0753e-22  4.9308e-26  2.0757e-22  4.9322e-26  2.0762e-22  4.9345e-26  2.0773e-22  4.9387e-26  2.0791e-22  4.9462e-26  2.0824e-22  4.9595e-26  2.0882e-22  4.9831e-26  2.0986e-22  5.0252e-26  2.1170e-22  5.1001e-26  2.1497e-22  5.2337e-26  2.2080e-22  5.4724e-26  2.3117e-22  5.9004e-26  2.4964e-22  6.6725e-26  2.8272e-22  8.0803e-26
      1.05  1.9611e-22  5.2381e-26  1.9611e-22  5.2382e-26  1.9611e-22  5.2385e-26  1.9612e-22  5.2389e-26  1.9613e-22  5.2398e-26  1.9615e-22  5.2412e-26  1.9618e-22  5.2438e-26  1.9623e-22  5.2484e-26  1.9633e-22  5.2566e-26  1.9651e-22  5.2712e-26  1.9683e-22  5.2972e-26  1.9739e-22  5.3434e-26  1.9840e-22  5.4256e-26  2.0018e-22  5.5721e-26  2.0335e-22  5.8334e-26  2.0900e-22  6.3004e-26  2.1904e-22  7.1384e-26  2.3694e-22  8.6527e-26  2.6900e-22  1.1421e-25
      1.10  1.8524e-22  5.5589e-26  1.8524e-22  5.5592e-26  1.8524e-22  5.5597e-26  1.8525e-22  5.5605e-26  1.8526e-22  5.5621e-26  1.8527e-22  5.5648e-26  1.8531e-22  5.5697e-26  1.8536e-22  5.5783e-26  1.8546e-22  5.5936e-26  1.8563e-22  5.6209e-26  1.8594e-22  5.6695e-26  1.8648e-22  5.7558e-26  1.8746e-22  5.9096e-26  1.8919e-22  6.1836e-26  1.9226e-22  6.6722e-26  1.9773e-22  7.5461e-26  2.0747e-22  9.1153e-26  2.2483e-22  1.1954e-25  2.5590e-22  1.7154e-25
      1.15  1.7487e-22  5.8923e-26  1.7487e-22  5.8928e-26  1.7488e-22  5.8936e-26  1.7488e-22  5.8951e-26  1.7489e-22  5.8979e-26  1.7491e-22  5.9027e-26  1.7494e-22  5.9113e-26  1.7499e-22  5.9266e-26  1.7509e-22  5.9537e-26  1.7525e-22  6.0020e-26  1.7555e-22  6.0880e-26  1.7608e-22  6.2410e-26  1.7702e-22  6.5134e-26  1.7870e-22  6.9986e-26  1.8168e-22  7.8642e-26  1.8699e-22  9.4128e-26  1.9643e-22  1.2195e-25  2.1327e-22  1.7234e-25  2.4341e-22  2.6478e-25
      1.20  1.6500e-22  6.2387e-26  1.6500e-22  6.2395e-26  1.6500e-22  6.2409e-26  1.6501e-22  6.2435e-26  1.6502e-22  6.2481e-26  1.6503e-22  6.2561e-26  1.6506e-22  6.2705e-26  1.6511e-22  6.2961e-26  1.6521e-22  6.3416e-26  1.6537e-22  6.4226e-26  1.6566e-22  6.5666e-26  1.6617e-22  6.8228e-26  1.6709e-22  7.2790e-26  1.6871e-22  8.0918e-26  1.7161e-22  9.5422e-26  1.7676e-22  1.2137e-25  1.8592e-22  1.6802e-25  2.0226e-22  2.5257e-25  2.3150e-22  4.0789e-25
      1.25  1.5560e-22  6.5988e-26  1.5561e-22  6.6001e-26  1.5561e-22  6.6023e-26  1.5561e-22  6.6064e-26  1.5562e-22  6.6136e-26  1.5564e-22  6.6265e-26  1.5567e-22  6.6494e-26  1.5572e-22  6.6900e-26  1.5580e-22  6.7623e-26  1.5596e-22  6.8909e-26  1.5624e-22  7.1197e-26  1.5674e-22  7.5268e-26  1.5763e-22  8.2516e-26  1.5921e-22  9.5432e-26  1.6202e-22  1.1848e-25  1.6702e-22  1.5973e-25  1.7592e-22  2.3391e-25  1.9178e-22  3.6844e-25  2.2018e-22  6.1588e-25
      1.30  1.4667e-22  6.9741e-26  1.4667e-22  6.9760e-26  1.4668e-22  6.9795e-26  1.4668e-22  6.9857e-26  1.4669e-22  6.9966e-26  1.4671e-22  7.0161e-26  1.4673e-22  7.0507e-26  1.4678e-22  7.1122e-26  1.4687e-22  7.2217e-26  1.4702e-22  7.4164e-26  1.4730e-22  7.7627e-26  1.4778e-22  8.3790e-26  1.4864e-22  9.4763e-26  1.5018e-22  1.1432e-25  1.5291e-22  1.4922e-25  1.5777e-22  2.1169e-25  1.6641e-22  3.2407e-25  1.8183e-22  5.2797e-25  2.0943e-22  9.0336e-25
      1.35  1.3819e-22  7.3643e-26  1.3819e-22  7.3671e-26  1.3820e-22  7.3721e-26  1.3820e-22  7.3810e-26  1.3821e-22  7.3969e-26  1.3822e-22  7.4251e-26  1.3825e-22  7.4752e-26  1.3830e-22  7.5645e-26  1.3838e-22  7.7231e-26  1.3853e-22  8.0053e-26  1.3880e-22  8.5073e-26  1.3927e-22  9.4006e-26  1.4011e-22  1.0991e-25  1.4160e-22  1.3826e-25  1.4426e-22  1.8885e-25  1.4898e-22  2.7943e-25  1.5738e-22  4.4240e-25  1.7238e-22  7.3822e-25  1.9921e-22  1.2832e-24
      1.40  1.3014e-22  7.7698e-26  1.3014e-22  7.7738e-26  1.3015e-22  7.7808e-26  1.3015e-22  7.7932e-26  1.3016e-22  7.8153e-26  1.3017e-22  7.8547e-26  1.3020e-22  7.9246e-26  1.3025e-22  8.0491e-26  1.3033e-22  8.2703e-26  1.3047e-22  8.6639e-26  1.3073e-22  9.3642e-26  1.3119e-22  1.0610e-25  1.3201e-22  1.2829e-25  1.3346e-22  1.6782e-25  1.3604e-22  2.3840e-25  1.4064e-22  3.6476e-25  1.4881e-22  5.9216e-25  1.6340e-22  1.0050e-24  1.8951e-22  1.7661e-24
      1.45  1.2251e-22  8.1914e-26  1.2251e-22  8.1967e-26  1.2252e-22  8.2061e-26  1.2252e-22  8.2229e-26  1.2253e-22  8.2528e-26  1.2254e-22  8.3058e-26  1.2257e-22  8.4002e-26  1.2261e-22  8.5681e-26  1.2269e-22  8.8666e-26  1.2283e-22  9.3976e-26  1.2309e-22  1.0342e-25  1.2353e-22  1.2023e-25  1.2433e-22  1.5016e-25  1.2574e-22  2.0350e-25  1.2826e-22  2.9872e-25  1.3273e-22  4.6921e-25  1.4068e-22  7.7604e-25  1.5489e-22  1.3332e-24  1.8030e-22  2.3606e-24
      1.50  1.1528e-22  8.6295e-26  1.1529e-22  8.6365e-26  1.1529e-22  8.6488e-26  1.1529e-22  8.6708e-26  1.1530e-22  8.7100e-26  1.1531e-22  8.7796e-26  1.1534e-22  8.9033e-26  1.1538e-22  9.1234e-26  1.1546e-22  9.5148e-26  1.1560e-22  1.0211e-25  1.1584e-22  1.1450e-25  1.1628e-22  1.3653e-25  1.1705e-22  1.7578e-25  1.1843e-22  2.4571e-25  1.2088e-22  3.7055e-25  1.2523e-22  5.9408e-25  1.3298e-22  9.9638e-25  1.4680e-22  1.7269e-24  1.7154e-22  3.0740e-24
      1.55  1.0844e-22  9.0865e-26  1.0845e-22  9.0954e-26  1.0845e-22  9.1113e-26  1.0845e-22  9.1395e-26  1.0846e-22  9.1896e-26  1.0847e-22  9.2787e-26  1.0850e-22  9.4371e-26  1.0854e-22  9.7188e-26  1.0861e-22  1.0220e-25  1.0875e-22  1.1111e-25  1.0899e-22  1.2697e-25  1.0941e-22  1.5518e-25  1.1017e-22  2.0542e-25  1.1151e-22  2.9495e-25  1.1389e-22  4.5477e-25  1.1813e-22  7.4091e-25  1.2567e-22  1.2558e-24  1.3914e-22  2.1908e-24  1.6323e-22  3.9144e-24
      1.60  1.0197e-22  9.5614e-26  1.0198e-22  9.5726e-26  1.0198e-22  9.5925e-26  1.0198e-22  9.6279e-26  1.0199e-22  9.6908e-26  1.0200e-22  9.8026e-26  1.0203e-22  1.0002e-25  1.0207e-22  1.0355e-25  1.0214e-22  1.0985e-25  1.0227e-22  1.2104e-25  1.0250e-22  1.4095e-25  1.0292e-22  1.7638e-25  1.0365e-22  2.3946e-25  1.0496e-22  3.5187e-25  1.0728e-22  5.5254e-25  1.1140e-22  9.1177e-25  1.1875e-22  1.5582e-24  1.3186e-22  2.7315e-24  1.5533e-22  4.8933e-24
      1.65  9.5860e-23  1.0055e-25  9.5861e-23  1.0069e-25  9.5864e-23  1.0093e-25  9.5868e-23  1.0137e-25  9.5875e-23  1.0215e-25  9.5888e-23  1.0353e-25  9.5910e-23  1.0599e-25  9.5951e-23  1.1037e-25  9.6022e-23  1.1815e-25  9.6149e-23  1.3200e-25  9.6376e-23  1.5662e-25  9.6778e-23  2.0045e-25  9.7493e-23  2.7847e-25  9.8764e-23  4.1752e-25  1.0102e-22  6.6569e-25  1.0504e-22  1.1099e-24  1.1220e-22  1.9090e-24  1.2497e-22  3.3589e-24  1.4783e-22  6.0286e-24
      1.70  9.0086e-23  1.0567e-25  9.0087e-23  1.0584e-25  9.0090e-23  1.0614e-25  9.0093e-23  1.0668e-25  9.0100e-23  1.0763e-25  9.0113e-23  1.0932e-25  9.0135e-23  1.1234e-25  9.0174e-23  1.1769e-25  9.0244e-23  1.2721e-25  9.0368e-23  1.4415e-25  9.0588e-23  1.7429e-25  9.0980e-23  2.2791e-25  9.1676e-23  3.2337e-25  9.2914e-23  4.9348e-25  9.5115e-23  7.9708e-25  9.9028e-23  1.3404e-24  1.0600e-22  2.3175e-24  1.1843e-22  4.0893e-24  1.4070e-22  7.3488e-24
      1.75  8.4637e-23  1.1100e-25  8.4638e-23  1.1121e-25  8.4640e-23  1.1157e-25  8.4644e-23  1.1222e-25  8.4651e-23  1.1338e-25  8.4663e-23  1.1544e-25  8.4684e-23  1.1910e-25  8.4722e-23  1.2560e-25  8.4790e-23  1.3718e-25  8.4911e-23  1.5776e-25  8.5126e-23  1.9438e-25  8.5507e-23  2.5953e-25  8.6185e-23  3.7552e-25  8.7391e-23  5.8219e-25  8.9534e-23  9.5100e-25  9.3343e-23  1.6109e-24  1.0013e-22  2.7971e-24  1.1224e-22  4.9470e-24  1.3392e-22  8.8975e-24
      1.80  7.9498e-23  1.1657e-25  7.9499e-23  1.1682e-25  7.9501e-23  1.1726e-25  7.9505e-23  1.1805e-25  7.9511e-23  1.1945e-25  7.9523e-23  1.2194e-25  7.9544e-23  1.2637e-25  7.9581e-23  1.3425e-25  7.9647e-23  1.4826e-25  7.9765e-23  1.7319e-25  7.9974e-23  2.1752e-25  8.0345e-23  2.9641e-25  8.1005e-23  4.3685e-25  8.2179e-23  6.8706e-25  8.4265e-23  1.1335e-24  8.7973e-23  1.9321e-24  9.4579e-23  3.3672e-24  1.0637e-22  5.9661e-24  1.2749e-22  1.0736e-23
      1.85  7.4654e-23  1.2235e-25  7.4655e-23  1.2266e-25  7.4657e-23  1.2319e-25  7.4661e-23  1.2415e-25  7.4667e-23  1.2584e-25  7.4679e-23  1.2885e-25  7.4699e-23  1.3421e-25  7.4735e-23  1.4375e-25  7.4800e-23  1.6070e-25  7.4914e-23  1.9085e-25  7.5117e-23  2.4448e-25  7.5479e-23  3.3992e-25  7.6122e-23  5.0980e-25  7.7264e-23  8.1244e-25  7.9295e-23  1.3524e-24  8.2903e-23  2.3180e-24  8.9334e-23  4.0525e-24  1.0081e-22  7.1915e-24  1.2138e-22  1.2946e-23
      1.90  7.0091e-23  1.2837e-25  7.0092e-23  1.2874e-25  7.0094e-23  1.2939e-25  7.0098e-23  1.3054e-25  7.0104e-23  1.3259e-25  7.0115e-23  1.3624e-25  7.0135e-23  1.4273e-25  7.0170e-23  1.5426e-25  7.0233e-23  1.7478e-25  7.0344e-23  2.1127e-25  7.0542e-23  2.7618e-25  7.0894e-23  3.9168e-25  7.1520e-23  5.9727e-25  7.2632e-23  9.6351e-25  7.4608e-23  1.6168e-24  7.8120e-23  2.7850e-24  8.4380e-23  4.8824e-24  9.5557e-23  8.6760e-24  1.1557e-22  1.5623e-23
      1.95  6.5796e-23  1.3464e-25  6.5797e-23  1.3508e-25  6.5799e-23  1.3587e-25  6.5802e-23  1.3726e-25  6.5808e-23  1.3975e-25  6.5819e-23  1.4416e-25  6.5839e-23  1.5202e-25  6.5873e-23  1.6598e-25  6.5934e-23  1.9082e-25  6.6042e-23  2.3500e-25  6.6235e-23  3.1359e-25  6.6578e-23  4.5342e-25  6.7187e-23  7.0231e-25  6.8270e-23  1.1457e-24  7.0195e-23  1.9364e-24  7.3614e-23  3.3502e-24  7.9712e-23  5.8878e-24  9.0599e-23  1.0475e-23  1.1010e-22  1.8867e-23
      2.00  6.1754e-23  1.4116e-25  6.1755e-23  1.4169e-25  6.1757e-23  1.4264e-25  6.1761e-23  1.4433e-25  6.1767e-23  1.4734e-25  6.1777e-23  1.5268e-25  6.1796e-23  1.6218e-25  6.1829e-23  1.7907e-25  6.1889e-23  2.0912e-25  6.1994e-23  2.6256e-25  6.2182e-23  3.5762e-25  6.2515e-23  5.2676e-25  6.3108e-23  8.2780e-25  6.4162e-23  1.3640e-24  6.6035e-23  2.3204e-24  6.9363e-23  4.0300e-24  7.5297e-23  7.0979e-24  8.5894e-23  1.2641e-23  1.0488e-22  2.2776e-23
      2.05  5.7954e-23  1.4800e-25  5.7955e-23  1.4864e-25  5.7956e-23  1.4979e-25  5.7960e-23  1.5182e-25  5.7965e-23  1.5545e-25  5.7976e-23  1.6189e-25  5.7994e-23  1.7334e-25  5.8026e-23  1.9371e-25  5.8084e-23  2.2994e-25  5.8187e-23  2.9438e-25  5.8370e-23  4.0900e-25  5.8694e-23  6.1292e-25  5.9271e-23  9.7590e-25  6.0297e-23  1.6224e-24  6.2118e-23  2.7755e-24  6.5357e-23  4.8364e-24  7.1131e-23  8.5342e-24  8.1443e-23  1.5214e-23  9.9917e-23  2.7420e-23
      2.10  5.4381e-23  1.5512e-25  5.4382e-23  1.5589e-25  5.4384e-23  1.5726e-25  5.4387e-23  1.5970e-25  5.4392e-23  1.6405e-25  5.4402e-23  1.7177e-25  5.4420e-23  1.8550e-25  5.4452e-23  2.0992e-25  5.4508e-23  2.5335e-25  5.4608e-23  3.3060e-25  5.4786e-23  4.6800e-25  5.5102e-23  7.1247e-25  5.5663e-23  1.1476e-24  5.6661e-23  1.9226e-24  5.8434e-23  3.3048e-24  6.1585e-23  5.7752e-24  6.7203e-23  1.0207e-23  7.7239e-23  1.8213e-23  9.5220e-23  3.2837e-23
      2.15  5.1024e-23  1.6253e-25  5.1025e-23  1.6345e-25  5.1027e-23  1.6508e-25  5.1030e-23  1.6799e-25  5.1035e-23  1.7315e-25  5.1045e-23  1.8233e-25  5.1062e-23  1.9866e-25  5.1093e-23  2.2769e-25  5.1148e-23  2.7933e-25  5.1245e-23  3.7117e-25  5.1418e-23  5.3454e-25  5.1725e-23  8.2520e-25  5.2272e-23  1.3426e-24  5.3243e-23  2.2640e-24  5.4968e-23  3.9074e-24  5.8035e-23  6.8446e-24  6.3502e-23  1.2114e-23  7.3270e-23  2.1632e-23  9.0770e-23  3.9020e-23
      2.20  4.7872e-23  1.7026e-25  4.7873e-23  1.7134e-25  4.7874e-23  1.7326e-25  4.7877e-23  1.7667e-25  4.7883e-23  1.8275e-25  4.7892e-23  1.9355e-25  4.7909e-23  2.1277e-25  4.7939e-23  2.4694e-25  4.7992e-23  3.0771e-25  4.8087e-23  4.1579e-25  4.8255e-23  6.0805e-25  4.8554e-23  9.5012e-25  4.9086e-23  1.5590e-24  5.0031e-23  2.6435e-24  5.1711e-23  4.5775e-24  5.4696e-23  8.0345e-24  6.0015e-23  1.4237e-23  6.9521e-23  2.5441e-23  8.6555e-23  4.5912e-23
      2.25  4.4913e-23  1.7830e-25  4.4914e-23  1.7955e-25  4.4915e-23  1.8179e-25  4.4918e-23  1.8576e-25  4.4923e-23  1.9283e-25  4.4933e-23  2.0540e-25  4.4949e-23  2.2775e-25  4.4978e-23  2.6750e-25  4.5030e-23  3.3819e-25  4.5122e-23  4.6392e-25  4.5286e-23  6.8758e-25  4.5577e-23  1.0855e-24  4.6095e-23  1.7938e-24  4.7015e-23  3.0554e-24  4.8649e-23  5.3054e-24  5.1554e-23  9.3274e-24  5.6730e-23  1.6545e-23  6.5983e-23  2.9584e-23  8.2563e-23  5.3415e-23
      2.30  4.2136e-23  1.8674e-25  4.2137e-23  1.8818e-25  4.2139e-23  1.9075e-25  4.2142e-23  1.9532e-25  4.2147e-23  2.0344e-25  4.2156e-23  2.1788e-25  4.2172e-23  2.4356e-25  4.2200e-23  2.8923e-25  4.2251e-23  3.7045e-25  4.2340e-23  5.1491e-25  4.2500e-23  7.7188e-25  4.2783e-23  1.2291e-24  4.3287e-23  2.0429e-24  4.4182e-23  3.4925e-24  4.5773e-23  6.0780e-24  4.8600e-23  1.0700e-23  5.3635e-23  1.8996e-23  6.2640e-23  3.3987e-23  7.8776e-23  6.1397e-23
      2.35  3.9533e-23  1.9552e-25  3.9533e-23  1.9716e-25  3.9535e-23  2.0007e-25  3.9538e-23  2.0525e-25  3.9543e-23  2.1446e-25  3.9551e-23  2.3084e-25  3.9567e-23  2.5997e-25  3.9595e-23  3.1177e-25  3.9644e-23  4.0390e-25  3.9731e-23  5.6775e-25  3.9886e-23  8.5921e-25  4.0162e-23  1.3778e-24  4.0653e-23  2.3009e-24  4.1524e-23  3.9452e-24  4.3073e-23  6.8782e-24  4.5825e-23  1.2122e-23  5.0725e-23  2.1535e-23  5.9491e-23  3.8552e-23  7.5201e-23  6.9681e-23
      2.40  3.7091e-23  2.0465e-25  3.7092e-23  2.0649e-25  3.7093e-23  2.0975e-25  3.7096e-23  2.1555e-25  3.7101e-23  2.2587e-25  3.7109e-23  2.4421e-25  3.7125e-23  2.7683e-25  3.7151e-23  3.3485e-25  3.7199e-23  4.3802e-25  3.7284e-23  6.2152e-25  3.7435e-23  9.4795e-25  3.7704e-23  1.5288e-24  3.8181e-23  2.5626e-24  3.9030e-23  4.4043e-24  4.0538e-23  7.6895e-24  4.3217e-23  1.3564e-23  4.7986e-23  2.4111e-23  5.6519e-23  4.3185e-23  7.1814e-23  7.8098e-23
      2.45  3.4803e-23  2.1415e-25  3.4804e-23  2.1618e-25  3.4805e-23  2.1979e-25  3.4808e-23  2.2621e-25  3.4812e-23  2.3762e-25  3.4821e-23  2.5792e-25  3.4835e-23  2.9401e-25  3.4862e-23  3.5821e-25  3.4908e-23  4.7237e-25  3.4991e-23  6.7543e-25  3.5138e-23  1.0366e-24  3.5400e-23  1.6793e-24  3.5864e-23  2.8233e-24  3.6690e-23  4.8614e-24  3.8158e-23  8.4972e-24  4.0767e-23  1.4999e-23  4.5409e-23  2.6676e-23  5.3715e-23  4.7801e-23  6.8605e-23  8.6494e-23
      2.50  3.2659e-23  2.2401e-25  3.2659e-23  2.2623e-25  3.2661e-23  2.3018e-25  3.2663e-23  2.3720e-25  3.2668e-23  2.4969e-25  3.2676e-23  2.7190e-25  3.2690e-23  3.1138e-25  3.2716e-23  3.8161e-25  3.2761e-23  5.0650e-25  3.2842e-23  7.2863e-25  3.2985e-23  1.1238e-24  3.3240e-23  1.8269e-24  3.3692e-23  3.0785e-24  3.4497e-23  5.3082e-24  3.5926e-23  9.2864e-24  3.8466e-23  1.6401e-23  4.2985e-23  2.9183e-23  5.1070e-23  5.2315e-23  6.5567e-23  9.4715e-23
      2.55  3.0650e-23  2.3438e-25  3.0651e-23  2.3678e-25  3.0652e-23  2.4106e-25  3.0655e-23  2.4866e-25  3.0659e-23  2.6218e-25  3.0667e-23  2.8621e-25  3.0681e-23  3.2896e-25  3.0706e-23  4.0498e-25  3.0750e-23  5.4017e-25  3.0829e-23  7.8063e-25  3.0968e-23  1.2084e-24  3.1216e-23  1.9695e-24  3.1657e-23  3.3244e-24  3.2441e-23  5.7384e-24  3.3833e-23  1.0045e-23  3.6308e-23  1.7750e-23  4.0711e-23  3.1594e-23  4.8586e-23  5.6659e-23  6.2709e-23  1.0264e-22
      2.60  2.8769e-23  2.4514e-25  2.8770e-23  2.4772e-25  2.8771e-23  2.5230e-25  2.8774e-23  2.6044e-25  2.8778e-23  2.7493e-25  2.8786e-23  3.0068e-25  2.8799e-23  3.4649e-25  2.8824e-23  4.2795e-25  2.8867e-23  5.7282e-25  2.8943e-23  8.3049e-25  2.9079e-23  1.2889e-24  2.9321e-23  2.1045e-24  2.9751e-23  3.5564e-24  3.0515e-23  6.1434e-24  3.1872e-23  1.0760e-23  3.4285e-23  1.9018e-23  3.8577e-23  3.3861e-23  4.6250e-23  6.0747e-23  6.0016e-23  1.1010e-22
      2.65  2.7008e-23  2.5631e-25  2.7009e-23  2.5905e-25  2.7010e-23  2.6391e-25  2.7013e-23  2.7256e-25  2.7017e-23  2.8794e-25  2.7024e-23  3.1528e-25  2.7038e-23  3.6392e-25  2.7061e-23  4.5040e-25  2.7103e-23  6.0422e-25  2.7178e-23  8.7780e-25  2.7311e-23  1.3645e-24  2.7547e-23  2.2305e-24  2.7966e-23  3.7722e-24  2.8711e-23  6.5192e-24  3.0035e-23  1.1421e-23  3.2388e-23  2.0193e-23  3.6575e-23  3.5960e-23  4.4056e-23  6.4535e-23  5.7483e-23  1.1702e-22
      2.70  2.5360e-23  2.6790e-25  2.5360e-23  2.7078e-25  2.5362e-23  2.7590e-25  2.5364e-23  2.8501e-25  2.5368e-23  3.0120e-25  2.5375e-23  3.2998e-25  2.5388e-23  3.8118e-25  2.5411e-23  4.7223e-25  2.5452e-23  6.3416e-25  2.5525e-23  9.2217e-25  2.5655e-23  1.4345e-24  2.5885e-23  2.3462e-24  2.6294e-23  3.9693e-24  2.7022e-23  6.8615e-24  2.8314e-23  1.2023e-23  3.0612e-23  2.1260e-23  3.4699e-23  3.7868e-23  4.1999e-23  6.7979e-23  5.5103e-23  1.2333e-22
      2.75  2.3817e-23  2.7993e-25  2.3817e-23  2.8293e-25  2.3819e-23  2.8828e-25  2.3821e-23  2.9779e-25  2.3825e-23  3.1470e-25  2.3832e-23  3.4477e-25  2.3845e-23  3.9825e-25  2.3867e-23  4.9335e-25  2.3907e-23  6.6249e-25  2.3978e-23  9.6334e-25  2.4105e-23  1.4985e-24  2.4330e-23  2.4508e-24  2.4730e-23  4.1463e-24  2.5441e-23  7.1675e-24  2.6704e-23  1.2560e-23  2.8948e-23  2.2211e-23  3.2942e-23  3.9568e-23  4.0071e-23  7.1048e-23  5.2872e-23  1.2895e-22
      2.80  2.2373e-23  2.9257e-25  2.2373e-23  2.9569e-25  2.2375e-23  3.0124e-25  2.2377e-23  3.1110e-25  2.2381e-23  3.2863e-25  2.2388e-23  3.5982e-25  2.2400e-23  4.1527e-25  2.2422e-23  5.1389e-25  2.2461e-23  6.8929e-25  2.2531e-23  1.0013e-24  2.2655e-23  1.5563e-24  2.2875e-23  2.5438e-24  2.3266e-23  4.3021e-24  2.3961e-23  7.4354e-24  2.5196e-23  1.3028e-23  2.7392e-23  2.3039e-23  3.1297e-23  4.1047e-23  3.8266e-23  7.3719e-23  5.0783e-23  1.3385e-22
      2.85  2.1021e-23  3.0568e-25  2.1022e-23  3.0890e-25  2.1023e-23  3.1461e-25  2.1025e-23  3.2477e-25  2.1029e-23  3.4283e-25  2.1036e-23  3.7495e-25  2.1048e-23  4.3207e-25  2.1070e-23  5.3366e-25  2.1108e-23  7.1434e-25  2.1176e-23  1.0357e-24  2.1297e-23  1.6074e-24  2.1513e-23  2.6247e-24  2.1896e-23  4.4360e-24  2.2576e-23  7.6637e-24  2.3786e-23  1.3425e-23  2.5935e-23  2.3740e-23  2.9759e-23  4.2298e-23  3.6578e-23  7.5979e-23  4.8830e-23  1.3800e-22
      2.90  1.9757e-23  3.1929e-25  1.9758e-23  3.2257e-25  1.9759e-23  3.2842e-25  1.9761e-23  3.3882e-25  1.9765e-23  3.5731e-25  1.9771e-23  3.9020e-25  1.9783e-23  4.4868e-25  1.9804e-23  5.5269e-25  1.9842e-23  7.3766e-25  1.9909e-23  1.0667e-24  2.0027e-23  1.6520e-24  2.0239e-23  2.6935e-24  2.0614e-23  4.5479e-24  2.1281e-23  7.8527e-24  2.2466e-23  1.3752e-23  2.4572e-23  2.4314e-23  2.8319e-23  4.3321e-23  3.5000e-23  7.7826e-23  4.7001e-23  1.4140e-22
      2.95  1.8574e-23  3.3341e-25  1.8574e-23  3.3676e-25  1.8576e-23  3.4272e-25  1.8578e-23  3.5330e-25  1.8581e-23  3.7213e-25  1.8588e-23  4.0561e-25  1.8600e-23  4.6515e-25  1.8620e-23  5.7103e-25  1.8657e-23  7.5935e-25  1.8723e-23  1.0943e-24  1.8839e-23  1.6902e-24  1.9046e-23  2.7505e-24  1.9414e-23  4.6385e-24  2.0068e-23  8.0031e-24  2.1231e-23  1.4010e-23  2.3297e-23  2.4764e-23  2.6972e-23  4.4121e-23  3.3524e-23  7.9270e-23  4.5288e-23  1.4406e-22
      3.00  1.7467e-23  3.4813e-25  1.7467e-23  3.5152e-25  1.7468e-23  3.5755e-25  1.7470e-23  3.6828e-25  1.7474e-23  3.8734e-25  1.7480e-23  4.2126e-25  1.7492e-23  4.8156e-25  1.7512e-23  5.8881e-25  1.7548e-23  7.7955e-25  1.7613e-23  1.1188e-24  1.7727e-23  1.7224e-24  1.7930e-23  2.7964e-24  1.8291e-23  4.7087e-24  1.8933e-23  8.1168e-24  2.0074e-23  1.4201e-23  2.2102e-23  2.5096e-23  2.5709e-23  4.4707e-23  3.2140e-23  8.0325e-23  4.3680e-23  1.4600e-22
      3.05  1.6430e-23  3.6378e-25  1.6431e-23  3.6719e-25  1.6432e-23  3.7327e-25  1.6434e-23  3.8408e-25  1.6438e-23  4.0331e-25  1.6444e-23  4.3749e-25  1.6455e-23  4.9829e-25  1.6475e-23  6.0641e-25  1.6511e-23  7.9870e-25  1.6574e-23  1.1407e-24  1.6686e-23  1.7492e-24  1.6886e-23  2.8319e-24  1.7241e-23  4.7598e-24  1.7872e-23  8.1957e-24  1.8993e-23  1.4330e-23  2.0985e-23  2.5315e-23  2.4529e-23  4.5089e-23  3.0847e-23  8.1011e-23  4.2176e-23  1.4727e-22
      3.10  1.5461e-23  3.7987e-25  1.5461e-23  3.8330e-25  1.5462e-23  3.8941e-25  1.5464e-23  4.0026e-25  1.5468e-23  4.1956e-25  1.5474e-23  4.5388e-25  1.5485e-23  5.1492e-25  1.5505e-23  6.2346e-25  1.5540e-23  8.1651e-25  1.5602e-23  1.1599e-24  1.5712e-23  1.7707e-24  1.5908e-23  2.8578e-24  1.6257e-23  4.7933e-24  1.6877e-23  8.2429e-24  1.7979e-23  1.4402e-23  1.9937e-23  2.5431e-23  2.3420e-23  4.5287e-23  2.9629e-23  8.1362e-23  4.0757e-23  1.4792e-22
      3.15  1.4553e-23  3.9692e-25  1.4553e-23  4.0035e-25  1.4555e-23  4.0646e-25  1.4556e-23  4.1731e-25  1.4560e-23  4.3662e-25  1.4566e-23  4.7095e-25  1.4577e-23  5.3200e-25  1.4596e-23  6.4058e-25  1.4630e-23  8.3368e-25  1.4691e-23  1.1772e-24  1.4800e-23  1.7882e-24  1.4993e-23  2.8756e-24  1.5336e-23  4.8117e-24  1.5945e-23  8.2623e-24  1.7028e-23  1.4423e-23  1.8953e-23  2.5456e-23  2.2377e-23  4.5321e-23  2.8481e-23  8.1415e-23  3.9412e-23  1.4802e-22
      3.20  1.3703e-23  4.1483e-25  1.3703e-23  4.1825e-25  1.3704e-23  4.2434e-25  1.3706e-23  4.3516e-25  1.3710e-23  4.5441e-25  1.3716e-23  4.8864e-25  1.3726e-23  5.4952e-25  1.3745e-23  6.5778e-25  1.3779e-23  8.5033e-25  1.3839e-23  1.1928e-24  1.3946e-23  1.8021e-24  1.4135e-23  2.8863e-24  1.4472e-23  4.8168e-24  1.5072e-23  8.2576e-24  1.6137e-23  1.4401e-23  1.8029e-23  2.5402e-23  2.1396e-23  4.5211e-23  2.7396e-23  8.1207e-23  3.8135e-23  1.4764e-22
      3.25  1.2906e-23  4.3342e-25  1.2907e-23  4.3683e-25  1.2908e-23  4.4288e-25  1.2910e-23  4.5364e-25  1.2913e-23  4.7278e-25  1.2919e-23  5.0682e-25  1.2930e-23  5.6736e-25  1.2948e-23  6.7501e-25  1.2981e-23  8.6647e-25  1.3040e-23  1.2070e-24  1.3145e-23  1.8129e-24  1.3332e-23  2.8910e-24  1.3663e-23  4.8107e-24  1.4253e-23  8.2321e-24  1.5300e-23  1.4341e-23  1.7161e-23  2.5281e-23  2.0471e-23  4.4980e-23  2.6370e-23  8.0777e-23  3.6924e-23  1.4685e-22
      3.30  1.2160e-23  4.5314e-25  1.2161e-23  4.5652e-25  1.2162e-23  4.6253e-25  1.2164e-23  4.7321e-25  1.2167e-23  4.9220e-25  1.2173e-23  5.2597e-25  1.2183e-23  5.8603e-25  1.2202e-23  6.9284e-25  1.2234e-23  8.8280e-25  1.2292e-23  1.2207e-24  1.2395e-23  1.8218e-24  1.2579e-23  2.8914e-24  1.2905e-23  4.7960e-24  1.3484e-23  8.1907e-24  1.4514e-23  1.4252e-23  1.6344e-23  2.5106e-23  1.9598e-23  4.4651e-23  2.5398e-23  8.0170e-23  3.5773e-23  1.4573e-22
      3.35  1.1461e-23  4.7362e-25  1.1462e-23  4.7697e-25  1.1463e-23  4.8291e-25  1.1464e-23  4.9349e-25  1.1468e-23  5.1230e-25  1.1473e-23  5.4574e-25  1.1483e-23  6.0522e-25  1.1502e-23  7.1100e-25  1.1534e-23  8.9913e-25  1.1591e-23  1.2338e-24  1.1692e-23  1.8290e-24  1.1872e-23  2.8884e-24  1.2193e-23  4.7746e-24  1.2763e-23  8.1365e-24  1.3775e-23  1.4139e-23  1.5575e-23  2.4889e-23  1.8775e-23  4.4246e-23  2.4478e-23  7.9425e-23  3.4677e-23  1.4436e-22
      3.40  1.0805e-23  4.9488e-25  1.0806e-23  4.9819e-25  1.0807e-23  5.0407e-25  1.0809e-23  5.1453e-25  1.0812e-23  5.3313e-25  1.0817e-23  5.6621e-25  1.0827e-23  6.2504e-25  1.0845e-23  7.2965e-25  1.0877e-23  9.1571e-25  1.0933e-23  1.2466e-24  1.1032e-23  1.8354e-24  1.1210e-23  2.8831e-24  1.1525e-23  4.7486e-24  1.2085e-23  8.0734e-24  1.3081e-23  1.4010e-23  1.4851e-23  2.4642e-23  1.7999e-23  4.3786e-23  2.3607e-23  7.8579e-23  3.3634e-23  1.4280e-22
      3.45  1.0190e-23  5.1696e-25  1.0190e-23  5.2023e-25  1.0191e-23  5.2604e-25  1.0193e-23  5.3638e-25  1.0196e-23  5.5476e-25  1.0202e-23  5.8744e-25  1.0211e-23  6.4556e-25  1.0229e-23  7.4893e-25  1.0260e-23  9.3277e-25  1.0315e-23  1.2598e-24  1.0413e-23  1.8415e-24  1.0588e-23  2.8767e-24  1.0898e-23  4.7200e-24  1.1449e-23  8.0053e-24  1.2429e-23  1.3871e-23  1.4170e-23  2.4377e-23  1.7266e-23  4.3293e-23  2.2783e-23  7.7674e-23  3.2644e-23  1.4114e-22
      3.50  9.6118e-24  5.3989e-25  9.6123e-24  5.4311e-25  9.6133e-24  5.4886e-25  9.6150e-24  5.5907e-25  9.6181e-24  5.7722e-25  9.6235e-24  6.0951e-25  9.6332e-24  6.6693e-25  9.6503e-24  7.6904e-25  9.6809e-24  9.5065e-25  9.7352e-24  1.2737e-24  9.8318e-24  1.8483e-24  1.0003e-23  2.8710e-24  1.0309e-23  4.6919e-24  1.0851e-23  7.9373e-24  1.1816e-23  1.3732e-23  1.3529e-23  2.4110e-23  1.6576e-23  4.2798e-23  2.2004e-23  7.6762e-23  3.1705e-23  1.3946e-22
      3.55  9.0689e-24  5.6431e-25  9.0694e-24  5.6750e-25  9.0704e-24  5.7318e-25  9.0720e-24  5.8327e-25  9.0751e-24  6.0122e-25  9.0804e-24  6.3314e-25  9.0899e-24  6.8991e-25  9.1068e-24  7.9087e-25  9.1369e-24  9.7042e-25  9.1904e-24  1.2898e-24  9.2855e-24  1.8579e-24  9.4545e-24  2.8690e-24  9.7551e-24  4.6693e-24  1.0289e-23  7.8780e-24  1.1239e-23  1.3607e-23  1.2926e-23  2.3868e-23  1.5926e-23  4.2345e-23  2.1269e-23  7.5928e-23  3.0817e-23  1.3793e-22
      3.60  8.5584e-24  5.8968e-25  8.5589e-24  5.9285e-25  8.5598e-24  5.9847e-25  8.5615e-24  6.0848e-25  8.5645e-24  6.2627e-25  8.5697e-24  6.5791e-25  8.5791e-24  7.1418e-25  8.5958e-24  8.1425e-25  8.6254e-24  9.9223e-25  8.6781e-24  1.3088e-24  8.7717e-24  1.8720e-24  8.9383e-24  2.8742e-24  9.2344e-24  4.6586e-24  9.7606e-24  7.8392e-24  1.0696e-23  1.3518e-23  1.2358e-23  2.3690e-23  1.5313e-23  4.2006e-23  2.0576e-23  7.5299e-23  2.9978e-23  1.3677e-22
      3.65  8.0780e-24  6.1605e-25  8.0785e-24  6.1920e-25  8.0794e-24  6.2481e-25  8.0811e-24  6.3478e-25  8.0840e-24  6.5251e-25  8.0892e-24  6.8404e-25  8.0984e-24  7.4010e-25  8.1148e-24  8.3981e-25  8.1440e-24  1.0171e-24  8.1960e-24  1.3326e-24  8.2883e-24  1.8937e-24  8.4525e-24  2.8923e-24  8.7443e-24  4.6704e-24  9.2630e-24  7.8396e-24  1.0185e-23  1.3498e-23  1.1823e-23  2.3634e-23  1.4735e-23  4.1887e-23  1.9922e-23  7.5068e-23  2.9186e-23  1.3634e-22
      3.70  7.6256e-24  6.4345e-25  7.6261e-24  6.4663e-25  7.6270e-24  6.5230e-25  7.6286e-24  6.6237e-25  7.6315e-24  6.8028e-25  7.6366e-24  7.1214e-25  7.6457e-24  7.6879e-25  7.6619e-24  8.6954e-25  7.6907e-24  1.0487e-24  7.7419e-24  1.3674e-24  7.8330e-24  1.9345e-24  7.9948e-24  2.9435e-24  8.2826e-24  4.7402e-24  8.7941e-24  7.9426e-24  9.7032e-24  1.3661e-23  1.1319e-23  2.3904e-23  1.4191e-23  4.2352e-23  1.9304e-23  7.5895e-23  2.8437e-23  1.3786e-22
      3.75  7.1991e-24  6.7192e-25  7.1996e-24  6.7515e-25  7.2005e-24  6.8089e-25  7.2021e-24  6.9110e-25  7.2049e-24  7.0927e-25  7.2100e-24  7.4157e-25  7.2190e-24  7.9901e-25  7.2350e-24  9.0117e-25  7.2634e-24  1.0829e-24  7.3139e-24  1.4060e-24  7.4037e-24  1.9810e-24  7.5634e-24  3.0041e-24  7.8474e-24  4.8259e-24  8.3520e-24  8.0733e-24  9.2490e-24  1.3872e-23  1.0843e-23  2.4260e-23  1.3676e-23  4.2971e-23  1.8721e-23  7.6999e-23  2.7730e-23  1.3988e-22
      3.80  6.7968e-24  7.0249e-25  6.7973e-24  7.0582e-25  6.7982e-24  7.1175e-25  6.7998e-24  7.2229e-25  6.8026e-24  7.4103e-25  6.8076e-24  7.7436e-25  6.8165e-24  8.3363e-25  6.8322e-24  9.3904e-25  6.8603e-24  1.1265e-24  6.9101e-24  1.4600e-24  6.9988e-24  2.0532e-24  7.1564e-24  3.1090e-24  7.4367e-24  4.9889e-24  7.9348e-24  8.3399e-24  8.8201e-24  1.4324e-23  1.0393e-23  2.5045e-23  1.3190e-23  4.4361e-23  1.8169e-23  7.9499e-23  2.7059e-23  1.4447e-22
      3.85  6.4169e-24  7.3433e-25  6.4174e-24  7.3784e-25  6.4183e-24  7.4409e-25  6.4199e-24  7.5519e-25  6.4226e-24  7.7494e-25  6.4276e-24  8.1005e-25  6.4363e-24  8.7250e-25  6.4519e-24  9.8355e-25  6.4796e-24  1.1811e-24  6.5288e-24  1.5324e-24  6.6163e-24  2.1574e-24  6.7720e-24  3.2697e-24  7.0487e-24  5.2504e-24  7.5405e-24  8.7811e-24  8.4146e-24  1.5087e-23  9.9680e-24  2.6385e-23  1.2730e-23  4.6747e-23  1.7645e-23  8.3804e-23  2.6421e-23  1.5237e-22
      3.90  6.0578e-24  7.6765e-25  6.0583e-24  7.7143e-25  6.0592e-24  7.7816e-25  6.0607e-24  7.9013e-25  6.0635e-24  8.1140e-25  6.0683e-24  8.4924e-25  6.0770e-24  9.1654e-25  6.0924e-24  1.0362e-24  6.1197e-24  1.2491e-24  6.1683e-24  1.6277e-24  6.2548e-24  2.3012e-24  6.4085e-24  3.4999e-24  6.6818e-24  5.6345e-24  7.1675e-24  9.4399e-24  8.0308e-24  1.6237e-23  9.5650e-24  2.8418e-23  1.2292e-23  5.0376e-23  1.7147e-23  9.0362e-23  2.5813e-23  1.6442e-22
      3.95  5.7181e-24  8.0314e-25  5.7186e-24  8.0731e-25  5.7194e-24  8.1473e-25  5.7210e-24  8.2792e-25  5.7237e-24  8.5139e-25  5.7285e-24  8.9311e-25  5.7370e-24  9.6731e-25  5.7522e-24  1.0993e-24  5.7792e-24  1.3340e-24  5.8272e-24  1.7515e-24  5.9126e-24  2.4942e-24  6.0645e-24  3.8160e-24  6.3344e-24  6.1700e-24  6.8142e-24  1.0367e-23  7.6671e-24  1.7863e-23  9.1826e-24  3.1301e-23  1.1877e-23  5.5534e-23  1.6672e-23  9.9689e-23  2.5231e-23  1.8155e-22
