# This was generated using Cloudy10 and the columns are ordered 
# as log10 of the fraction of the metallicity to the solar metallicity
# 'h_*_Z' and 'c_*_Z' stands for cooling and heating respectively 
# at * metalicity
#
# NOTE: This was generated separately from loop_coolingcurve_w_UV.py
#       using Output_metals_w_redshift.py.
#
# Redshift = 6.0
# hden = -2.0
#
#     temp   h_-3.00_Z   c_-3.00_Z   h_-2.75_Z   c_-2.75_Z   h_-2.50_Z   c_-2.50_Z   h_-2.25_Z   c_-2.25_Z   h_-2.00_Z   c_-2.00_Z   h_-1.75_Z   c_-1.75_Z   h_-1.50_Z   c_-1.50_Z   h_-1.25_Z   c_-1.25_Z   h_-1.00_Z   c_-1.00_Z   h_-0.75_Z   c_-0.75_Z   h_-0.50_Z   c_-0.50_Z   h_-0.25_Z   c_-0.25_Z    h_0.00_Z    c_0.00_Z    h_0.25_Z    c_0.25_Z    h_0.50_Z    c_0.50_Z    h_0.75_Z    c_0.75_Z    h_1.00_Z    c_1.00_Z    h_1.25_Z    c_1.25_Z    h_1.50_Z    c_1.50_Z 
      1.00  1.1524e-22  2.2531e-26  1.1524e-22  2.2532e-26  1.1525e-22  2.2532e-26  1.1525e-22  2.2534e-26  1.1525e-22  2.2536e-26  1.1526e-22  2.2541e-26  1.1527e-22  2.2548e-26  1.1530e-22  2.2562e-26  1.1534e-22  2.2586e-26  1.1541e-22  2.2628e-26  1.1555e-22  2.2704e-26  1.1578e-22  2.2839e-26  1.1620e-22  2.3079e-26  1.1695e-22  2.3506e-26  1.1827e-22  2.4268e-26  1.2063e-22  2.5627e-26  1.2484e-22  2.8060e-26  1.3232e-22  3.2437e-26  1.4565e-22  4.0377e-26
      1.05  1.1156e-22  2.4430e-26  1.1156e-22  2.4431e-26  1.1156e-22  2.4433e-26  1.1156e-22  2.4436e-26  1.1157e-22  2.4441e-26  1.1157e-22  2.4451e-26  1.1159e-22  2.4467e-26  1.1161e-22  2.4497e-26  1.1165e-22  2.4550e-26  1.1172e-22  2.4644e-26  1.1185e-22  2.4811e-26  1.1209e-22  2.5108e-26  1.1250e-22  2.5638e-26  1.1323e-22  2.6580e-26  1.1453e-22  2.8260e-26  1.1685e-22  3.1259e-26  1.2097e-22  3.6631e-26  1.2830e-22  4.6302e-26  1.4138e-22  6.3874e-26
      1.10  1.0789e-22  2.6462e-26  1.0789e-22  2.6464e-26  1.0789e-22  2.6467e-26  1.0790e-22  2.6474e-26  1.0790e-22  2.6484e-26  1.0791e-22  2.6504e-26  1.0792e-22  2.6538e-26  1.0794e-22  2.6600e-26  1.0798e-22  2.6709e-26  1.0805e-22  2.6902e-26  1.0818e-22  2.7247e-26  1.0841e-22  2.7860e-26  1.0881e-22  2.8952e-26  1.0953e-22  3.0895e-26  1.1081e-22  3.4359e-26  1.1308e-22  4.0546e-26  1.1711e-22  5.1630e-26  1.2430e-22  7.1602e-26  1.3712e-22  1.0793e-25
      1.15  1.0425e-22  2.8633e-26  1.0425e-22  2.8637e-26  1.0425e-22  2.8643e-26  1.0425e-22  2.8655e-26  1.0425e-22  2.8676e-26  1.0426e-22  2.8714e-26  1.0427e-22  2.8780e-26  1.0430e-22  2.8898e-26  1.0434e-22  2.9108e-26  1.0441e-22  2.9482e-26  1.0453e-22  3.0146e-26  1.0475e-22  3.1328e-26  1.0515e-22  3.3432e-26  1.0585e-22  3.7178e-26  1.0710e-22  4.3857e-26  1.0932e-22  5.5787e-26  1.1328e-22  7.7170e-26  1.2031e-22  1.1572e-25  1.3285e-22  1.8592e-25
      1.20  1.0063e-22  3.0950e-26  1.0063e-22  3.0956e-26  1.0063e-22  3.0968e-26  1.0063e-22  3.0990e-26  1.0064e-22  3.1028e-26  1.0064e-22  3.1095e-26  1.0066e-22  3.1215e-26  1.0068e-22  3.1428e-26  1.0072e-22  3.1808e-26  1.0079e-22  3.2483e-26  1.0091e-22  3.3683e-26  1.0113e-22  3.5818e-26  1.0151e-22  3.9619e-26  1.0220e-22  4.6387e-26  1.0342e-22  5.8455e-26  1.0559e-22  8.0016e-26  1.0946e-22  1.1867e-25  1.1634e-22  1.8840e-25  1.2860e-22  3.1549e-25
      1.25  9.7046e-23  3.3419e-26  9.7046e-23  3.3430e-26  9.7047e-23  3.3450e-26  9.7050e-23  3.3487e-26  9.7053e-23  3.3551e-26  9.7060e-23  3.3666e-26  9.7072e-23  3.3870e-26  9.7093e-23  3.4232e-26  9.7131e-23  3.4877e-26  9.7198e-23  3.6025e-26  9.7317e-23  3.8065e-26  9.7530e-23  4.1695e-26  9.7907e-23  4.8156e-26  9.8578e-23  5.9664e-26  9.9772e-23  8.0183e-26  1.0189e-22  1.1685e-25  1.0567e-22  1.8260e-25  1.1239e-22  3.0128e-25  1.2437e-22  5.1775e-25
      1.30  9.3499e-23  3.6318e-26  9.3500e-23  3.6337e-26  9.3501e-23  3.6369e-26  9.3503e-23  3.6428e-26  9.3506e-23  3.6531e-26  9.3513e-23  3.6716e-26  9.3525e-23  3.7043e-26  9.3545e-23  3.7626e-26  9.3582e-23  3.8663e-26  9.3648e-23  4.0507e-26  9.3764e-23  4.3786e-26  9.3972e-23  4.9621e-26  9.4340e-23  6.0006e-26  9.4995e-23  7.8503e-26  9.6160e-23  1.1149e-25  9.8233e-23  1.7044e-25  1.0192e-22  2.7619e-25  1.0848e-22  4.6711e-25  1.2016e-22  8.1566e-25
      1.35  8.9994e-23  3.9813e-26  8.9995e-23  3.9841e-26  8.9996e-23  3.9891e-26  8.9998e-23  3.9980e-26  9.0001e-23  4.0138e-26  9.0008e-23  4.0419e-26  9.0019e-23  4.0920e-26  9.0039e-23  4.1810e-26  9.0075e-23  4.3393e-26  9.0139e-23  4.6208e-26  9.0253e-23  5.1215e-26  9.0455e-23  6.0125e-26  9.0815e-23  7.5983e-26  9.1454e-23  1.0423e-25  9.2591e-23  1.5460e-25  9.4613e-23  2.4464e-25  9.8210e-23  4.0619e-25  1.0461e-22  6.9799e-25  1.1600e-22  1.2310e-24
      1.40  8.6535e-23  4.3484e-26  8.6536e-23  4.3525e-26  8.6537e-23  4.3597e-26  8.6539e-23  4.3727e-26  8.6543e-23  4.3958e-26  8.6549e-23  4.4368e-26  8.6560e-23  4.5097e-26  8.6579e-23  4.6395e-26  8.6615e-23  4.8702e-26  8.6677e-23  5.2805e-26  8.6788e-23  6.0103e-26  8.6985e-23  7.3089e-26  8.7336e-23  9.6203e-26  8.7959e-23  1.3737e-25  8.9068e-23  2.1081e-25  9.1039e-23  3.4207e-25  9.4546e-23  5.7764e-25  1.0078e-22  1.0033e-24  1.1189e-22  1.7814e-24
      1.45  8.3127e-23  4.7339e-26  8.3128e-23  4.7396e-26  8.3129e-23  4.7498e-26  8.3131e-23  4.7679e-26  8.3134e-23  4.8002e-26  8.3140e-23  4.8575e-26  8.3151e-23  4.9595e-26  8.3170e-23  5.1408e-26  8.3204e-23  5.4633e-26  8.3265e-23  6.0369e-26  8.3373e-23  7.0571e-26  8.3565e-23  8.8724e-26  8.3907e-23  1.2104e-25  8.4515e-23  1.7859e-25  8.5595e-23  2.8126e-25  8.7517e-23  4.6480e-25  9.0934e-23  7.9425e-25  9.7012e-23  1.3898e-24  1.0782e-22  2.4789e-24
      1.50  7.9773e-23  5.1386e-26  7.9774e-23  5.1463e-26  7.9775e-23  5.1601e-26  7.9777e-23  5.1845e-26  7.9780e-23  5.2279e-26  7.9786e-23  5.3051e-26  7.9796e-23  5.4424e-26  7.9815e-23  5.6866e-26  7.9848e-23  6.1209e-26  7.9907e-23  6.8932e-26  8.0013e-23  8.2671e-26  8.0200e-23  1.0712e-25  8.0533e-23  1.5063e-25  8.1125e-23  2.2815e-25  8.2177e-23  3.6641e-25  8.4049e-23  6.1363e-25  8.7377e-23  1.0575e-24  9.3295e-23  1.8600e-24  1.0382e-22  3.3285e-24
      1.55  7.6478e-23  5.5639e-26  7.6479e-23  5.5740e-26  7.6480e-23  5.5919e-26  7.6481e-23  5.6237e-26  7.6485e-23  5.6802e-26  7.6490e-23  5.7808e-26  7.6501e-23  5.9597e-26  7.6519e-23  6.2778e-26  7.6551e-23  6.8435e-26  7.6609e-23  7.8498e-26  7.6711e-23  9.6397e-26  7.6894e-23  1.2824e-25  7.7218e-23  1.8494e-25  7.7794e-23  2.8593e-25  7.8818e-23  4.6608e-25  8.0640e-23  7.8821e-25  8.3879e-23  1.3667e-24  8.9637e-23  2.4128e-24  9.9874e-23  4.3282e-24
      1.60  7.3245e-23  6.0100e-26  7.3246e-23  6.0228e-26  7.3247e-23  6.0454e-26  7.3249e-23  6.0856e-26  7.3252e-23  6.1572e-26  7.3257e-23  6.2845e-26  7.3267e-23  6.5109e-26  7.3285e-23  6.9134e-26  7.3317e-23  7.6294e-26  7.3373e-23  8.9027e-26  7.3472e-23  1.1168e-25  7.3650e-23  1.5198e-25  7.3965e-23  2.2372e-25  7.4525e-23  3.5153e-25  7.5522e-23  5.7953e-25  7.7293e-23  9.8727e-25  8.0443e-23  1.7195e-24  8.6041e-23  3.0443e-24  9.5988e-23  5.4707e-24
      1.65  7.0078e-23  6.4777e-26  7.0079e-23  6.4934e-26  7.0080e-23  6.5213e-26  7.0082e-23  6.5710e-26  7.0085e-23  6.6593e-26  7.0090e-23  6.8164e-26  7.0100e-23  7.0957e-26  7.0117e-23  7.5924e-26  7.0148e-23  8.4759e-26  7.0202e-23  1.0047e-25  7.0299e-23  1.2842e-25  7.0471e-23  1.7816e-25  7.0777e-23  2.6669e-25  7.1322e-23  4.2441e-25  7.2290e-23  7.0580e-25  7.4010e-23  1.2090e-24  7.7069e-23  2.1129e-24  8.2505e-23  3.7486e-24  9.2160e-23  6.7457e-24
      1.70  6.6981e-23  6.9676e-26  6.6981e-23  6.9865e-26  6.6982e-23  7.0203e-26  6.6984e-23  7.0803e-26  6.6987e-23  7.1870e-26  6.6992e-23  7.3767e-26  6.7002e-23  7.7142e-26  6.7018e-23  8.3142e-26  6.7048e-23  9.3815e-26  6.7101e-23  1.1280e-25  6.7195e-23  1.4656e-25  6.7362e-23  2.0665e-25  6.7659e-23  3.1360e-25  6.8187e-23  5.0415e-25  6.9125e-23  8.4410e-25  7.0794e-23  1.4521e-24  7.3760e-23  2.5444e-24  7.9029e-23  4.5212e-24  8.8384e-23  8.1449e-24
      1.75  6.3955e-23  7.4804e-26  6.3956e-23  7.5030e-26  6.3957e-23  7.5430e-26  6.3958e-23  7.6143e-26  6.3961e-23  7.7410e-26  6.3966e-23  7.9663e-26  6.3976e-23  8.3669e-26  6.3992e-23  9.0795e-26  6.4021e-23  1.0347e-25  6.4072e-23  1.2601e-25  6.4163e-23  1.6610e-25  6.4324e-23  2.3745e-25  6.4612e-23  3.6445e-25  6.5123e-23  5.9071e-25  6.6031e-23  9.9440e-25  6.7646e-23  1.7165e-24  7.0515e-23  3.0137e-24  7.5612e-23  5.3620e-24  8.4658e-23  9.6678e-24
      1.80  6.1005e-23  8.0188e-26  6.1006e-23  8.0452e-26  6.1007e-23  8.0921e-26  6.1008e-23  8.1756e-26  6.1011e-23  8.3241e-26  6.1016e-23  8.5881e-26  6.1025e-23  9.0577e-26  6.1040e-23  9.8928e-26  6.1068e-23  1.1378e-25  6.1117e-23  1.4019e-25  6.1205e-23  1.8718e-25  6.1361e-23  2.7079e-25  6.1639e-23  4.1963e-25  6.2132e-23  6.8481e-25  6.3009e-23  1.1579e-24  6.4567e-23  2.0042e-24  6.7337e-23  3.5247e-24  7.2254e-23  6.2776e-24  8.0979e-23  1.1326e-23
      1.85  5.8133e-23  8.5819e-26  5.8134e-23  8.6126e-26  5.8134e-23  8.6671e-26  5.8136e-23  8.7641e-26  5.8138e-23  8.9365e-26  5.8143e-23  9.2432e-26  5.8152e-23  9.7885e-26  5.8167e-23  1.0758e-25  5.8193e-23  1.2483e-25  5.8241e-23  1.5551e-25  5.8325e-23  2.1008e-25  5.8476e-23  3.0719e-25  5.8743e-23  4.8005e-25  5.9217e-23  7.8802e-25  6.0061e-23  1.3375e-24  6.1561e-23  2.3204e-24  6.4225e-23  4.0865e-24  6.8956e-23  7.2840e-24  7.7347e-23  1.3149e-23
      1.90  5.5341e-23  9.1708e-26  5.5341e-23  9.2062e-26  5.5342e-23  9.2692e-26  5.5343e-23  9.3812e-26  5.5346e-23  9.5804e-26  5.5350e-23  9.9347e-26  5.5358e-23  1.0565e-25  5.5373e-23  1.1685e-25  5.5398e-23  1.3677e-25  5.5444e-23  1.7221e-25  5.5525e-23  2.3525e-25  5.5669e-23  3.4741e-25  5.5925e-23  5.4709e-25  5.6381e-23  9.0283e-25  5.7191e-23  1.5376e-24  5.8630e-23  2.6729e-24  6.1186e-23  4.7129e-24  6.5724e-23  8.4064e-24  7.3771e-23  1.5181e-23
      1.95  5.2630e-23  9.7864e-26  5.2630e-23  9.8272e-26  5.2631e-23  9.8997e-26  5.2632e-23  1.0029e-25  5.2635e-23  1.0258e-25  5.2639e-23  1.0666e-25  5.2647e-23  1.1392e-25  5.2661e-23  1.2683e-25  5.2685e-23  1.4978e-25  5.2729e-23  1.9060e-25  5.2807e-23  2.6322e-25  5.2945e-23  3.9244e-25  5.3190e-23  6.2246e-25  5.3627e-23  1.0323e-24  5.4403e-23  1.7635e-24  5.5782e-23  3.0713e-24  5.8231e-23  5.4211e-24  6.2580e-23  9.6752e-24  7.0291e-23  1.7476e-23
      2.00  5.0003e-23  1.0430e-25  5.0003e-23  1.0477e-25  5.0004e-23  1.0560e-25  5.0005e-23  1.0709e-25  5.0007e-23  1.0973e-25  5.0012e-23  1.1443e-25  5.0019e-23  1.2279e-25  5.0032e-23  1.3765e-25  5.0056e-23  1.6408e-25  5.0097e-23  2.1109e-25  5.0171e-23  2.9473e-25  5.0303e-23  4.4353e-25  5.0537e-23  7.0842e-25  5.0954e-23  1.1804e-24  5.1694e-23  2.0223e-24  5.3010e-23  3.5283e-24  5.5347e-23  6.2338e-24  5.9496e-23  1.1131e-23  6.6856e-23  2.0109e-23
      2.05  4.7460e-23  1.1105e-25  4.7461e-23  1.1159e-25  4.7461e-23  1.1255e-25  4.7463e-23  1.1426e-25  4.7465e-23  1.1731e-25  4.7469e-23  1.2272e-25  4.7476e-23  1.3234e-25  4.7488e-23  1.4946e-25  4.7511e-23  1.7990e-25  4.7550e-23  2.3404e-25  4.7621e-23  3.3035e-25  4.7746e-23  5.0172e-25  4.7969e-23  8.0677e-25  4.8366e-23  1.3502e-24  4.9071e-23  2.3198e-24  5.0323e-23  4.0539e-24  5.2548e-23  7.1688e-24  5.6498e-23  1.2806e-23  6.3505e-23  2.3137e-23
      2.10  4.5003e-23  1.1810e-25  4.5004e-23  1.1872e-25  4.5004e-23  1.1983e-25  4.5006e-23  1.2180e-25  4.5008e-23  1.2530e-25  4.5012e-23  1.3153e-25  4.5018e-23  1.4261e-25  4.5030e-23  1.6231e-25  4.5051e-23  1.9735e-25  4.5089e-23  2.5967e-25  4.5156e-23  3.7052e-25  4.5275e-23  5.6777e-25  4.5487e-23  9.1888e-25  4.5864e-23  1.5444e-24  4.6535e-23  2.6603e-24  4.7726e-23  4.6559e-24  4.9841e-23  8.2401e-24  5.3599e-23  1.4725e-23  6.0262e-23  2.6605e-23
      2.15  4.2633e-23  1.2546e-25  4.2633e-23  1.2617e-25  4.2634e-23  1.2745e-25  4.2635e-23  1.2971e-25  4.2637e-23  1.3374e-25  4.2641e-23  1.4089e-25  4.2647e-23  1.5362e-25  4.2658e-23  1.7626e-25  4.2679e-23  2.1651e-25  4.2714e-23  2.8811e-25  4.2778e-23  4.1548e-25  4.2892e-23  6.4210e-25  4.3093e-23  1.0455e-24  4.3451e-23  1.7641e-24  4.4088e-23  3.0461e-24  4.5220e-23  5.3385e-24  4.7231e-23  9.4551e-24  5.0804e-23  1.6902e-23  5.7139e-23  3.0538e-23
      2.20  4.0349e-23  1.3314e-25  4.0350e-23  1.3396e-25  4.0350e-23  1.3541e-25  4.0351e-23  1.3800e-25  4.0353e-23  1.4261e-25  4.0357e-23  1.5081e-25  4.0363e-23  1.6538e-25  4.0374e-23  1.9130e-25  4.0393e-23  2.3739e-25  4.0427e-23  3.1937e-25  4.0487e-23  4.6520e-25  4.0595e-23  7.2467e-25  4.0787e-23  1.1865e-24  4.1127e-23  2.0093e-24  4.1733e-23  3.4770e-24  4.2810e-23  6.1012e-24  4.4722e-23  1.0813e-23  4.8117e-23  1.9334e-23  5.4142e-23  3.4931e-23
      2.25  3.8153e-23  1.4114e-25  3.8153e-23  1.4207e-25  3.8154e-23  1.4373e-25  3.8155e-23  1.4669e-25  3.8157e-23  1.5194e-25  3.8160e-23  1.6127e-25  3.8166e-23  1.7787e-25  3.8176e-23  2.0740e-25  3.8194e-23  2.5990e-25  3.8227e-23  3.5329e-25  3.8284e-23  5.1941e-25  3.8387e-23  8.1498e-25  3.8569e-23  1.3411e-24  3.8893e-23  2.2783e-24  3.9469e-23  3.9500e-24  4.0493e-23  6.9389e-24  4.2312e-23  1.2305e-23  4.5543e-23  2.2006e-23  5.1276e-23  3.9757e-23
      2.30  3.6043e-23  1.4954e-25  3.6043e-23  1.5060e-25  3.6044e-23  1.5248e-25  3.6045e-23  1.5582e-25  3.6046e-23  1.6176e-25  3.6049e-23  1.7233e-25  3.6055e-23  1.9113e-25  3.6064e-23  2.2456e-25  3.6082e-23  2.8401e-25  3.6112e-23  3.8975e-25  3.6167e-23  5.7785e-25  3.6264e-23  9.1252e-25  3.6437e-23  1.5082e-24  3.6744e-23  2.5693e-24  3.7289e-23  4.4620e-24  3.8259e-23  7.8456e-24  3.9983e-23  1.3919e-23  4.3044e-23  2.4898e-23  4.8479e-23  4.4977e-23
      2.35  3.4019e-23  1.5828e-25  3.4019e-23  1.5947e-25  3.4019e-23  1.6158e-25  3.4020e-23  1.6533e-25  3.4022e-23  1.7200e-25  3.4025e-23  1.8386e-25  3.4030e-23  2.0496e-25  3.4039e-23  2.4248e-25  3.4056e-23  3.0921e-25  3.4085e-23  4.2788e-25  3.4138e-23  6.3898e-25  3.4231e-23  1.0146e-24  3.4396e-23  1.6831e-24  3.4690e-23  2.8740e-24  3.5212e-23  4.9981e-24  3.6141e-23  8.7953e-24  3.7792e-23  1.5611e-23  4.0723e-23  2.7929e-23  4.5927e-23  5.0454e-23
      2.40  3.2080e-23  1.6738e-25  3.2080e-23  1.6870e-25  3.2081e-23  1.7104e-25  3.2081e-23  1.7522e-25  3.2083e-23  1.8264e-25  3.2086e-23  1.9584e-25  3.2091e-23  2.1932e-25  3.2100e-23  2.6106e-25  3.2116e-23  3.3531e-25  3.2144e-23  4.6736e-25  3.2194e-23  7.0225e-25  3.2283e-23  1.1202e-24  3.2441e-23  1.8641e-24  3.2723e-23  3.1892e-24  3.3224e-23  5.5526e-24  3.4114e-23  9.7775e-24  3.5695e-23  1.7360e-23  3.8503e-23  3.1064e-23  4.3489e-23  5.6120e-23
      2.45  3.0225e-23  1.7683e-25  3.0225e-23  1.7829e-25  3.0226e-23  1.8088e-25  3.0227e-23  1.8548e-25  3.0228e-23  1.9367e-25  3.0231e-23  2.0824e-25  3.0236e-23  2.3414e-25  3.0244e-23  2.8021e-25  3.0259e-23  3.6213e-25  3.0286e-23  5.0784e-25  3.0334e-23  7.6702e-25  3.0420e-23  1.2282e-24  3.0572e-23  2.0490e-24  3.0842e-23  3.5111e-24  3.1321e-23  6.1188e-24  3.2174e-23  1.0781e-23  3.3689e-23  1.9147e-23  3.6380e-23  3.4266e-23  4.1156e-23  6.1907e-23
      2.50  2.8454e-23  1.8665e-25  2.8454e-23  1.8825e-25  2.8454e-23  1.9108e-25  2.8455e-23  1.9612e-25  2.8456e-23  2.0508e-25  2.8459e-23  2.2102e-25  2.8464e-23  2.4937e-25  2.8472e-23  2.9978e-25  2.8486e-23  3.8943e-25  2.8512e-23  5.4888e-25  2.8558e-23  8.3252e-25  2.8640e-23  1.3372e-24  2.8786e-23  2.2354e-24  2.9044e-23  3.8354e-24  2.9505e-23  6.6891e-24  3.0321e-23  1.1790e-23  3.1773e-23  2.0946e-23  3.4352e-23  3.7491e-23  3.8928e-23  6.7736e-23
      2.55  2.6764e-23  1.9694e-25  2.6764e-23  1.9867e-25  2.6764e-23  2.0175e-25  2.6765e-23  2.0722e-25  2.6766e-23  2.1694e-25  2.6769e-23  2.3424e-25  2.6773e-23  2.6500e-25  2.6781e-23  3.1971e-25  2.6795e-23  4.1700e-25  2.6820e-23  5.9003e-25  2.6864e-23  8.9784e-25  2.6943e-23  1.4455e-24  2.7082e-23  2.4203e-24  2.7330e-23  4.1566e-24  2.7771e-23  7.2535e-24  2.8555e-23  1.2790e-23  2.9947e-23  2.2725e-23  3.2419e-23  4.0680e-23  3.6806e-23  7.3503e-23
      2.60  2.5153e-23  2.0761e-25  2.5154e-23  2.0947e-25  2.5154e-23  2.1278e-25  2.5155e-23  2.1867e-25  2.5156e-23  2.2913e-25  2.5159e-23  2.4775e-25  2.5163e-23  2.8085e-25  2.5170e-23  3.3972e-25  2.5184e-23  4.4442e-25  2.5207e-23  6.3063e-25  2.5250e-23  9.6186e-25  2.5325e-23  1.5512e-24  2.5459e-23  2.6002e-24  2.5697e-23  4.4687e-24  2.6120e-23  7.8014e-24  2.6872e-23  1.3759e-23  2.8208e-23  2.4452e-23  3.0579e-23  4.3775e-23  3.4787e-23  7.9101e-23
      2.65  2.3621e-23  2.1866e-25  2.3622e-23  2.2065e-25  2.3622e-23  2.2419e-25  2.3623e-23  2.3048e-25  2.3624e-23  2.4166e-25  2.3626e-23  2.6155e-25  2.3630e-23  2.9692e-25  2.3638e-23  3.5981e-25  2.3650e-23  4.7167e-25  2.3673e-23  6.7062e-25  2.3714e-23  1.0245e-24  2.3786e-23  1.6542e-24  2.3915e-23  2.7749e-24  2.4143e-23  4.7713e-24  2.4550e-23  8.3321e-24  2.5271e-23  1.4698e-23  2.6554e-23  2.6123e-23  2.8830e-23  4.6770e-23  3.2869e-23  8.4521e-23
      2.70  2.2165e-23  2.3011e-25  2.2166e-23  2.3222e-25  2.2166e-23  2.3597e-25  2.2167e-23  2.4265e-25  2.2168e-23  2.5452e-25  2.2170e-23  2.7562e-25  2.2174e-23  3.1316e-25  2.2181e-23  3.7992e-25  2.2193e-23  4.9864e-25  2.2215e-23  7.0979e-25  2.2254e-23  1.0854e-24  2.2324e-23  1.7537e-24  2.2447e-23  2.9432e-24  2.2667e-23  5.0621e-24  2.3057e-23  8.8415e-24  2.3751e-23  1.5598e-23  2.4983e-23  2.7725e-23  2.7170e-23  4.9643e-23  3.1049e-23  8.9722e-23
      2.75  2.0783e-23  2.4195e-25  2.0783e-23  2.4417e-25  2.0784e-23  2.4813e-25  2.0784e-23  2.5517e-25  2.0786e-23  2.6769e-25  2.0788e-23  2.8996e-25  2.0792e-23  3.2956e-25  2.0798e-23  3.9998e-25  2.0810e-23  5.2521e-25  2.0831e-23  7.4795e-25  2.0869e-23  1.1442e-24  2.0936e-23  1.8491e-24  2.1054e-23  3.1040e-24  2.1266e-23  5.3392e-24  2.1641e-23  9.3261e-24  2.2308e-23  1.6454e-23  2.3493e-23  2.9248e-23  2.5597e-23  5.2374e-23  2.9326e-23  9.4668e-23
      2.80  1.9473e-23  2.5434e-25  1.9473e-23  2.5667e-25  1.9474e-23  2.6082e-25  1.9474e-23  2.6821e-25  1.9475e-23  2.8134e-25  1.9477e-23  3.0469e-25  1.9481e-23  3.4622e-25  1.9487e-23  4.2007e-25  1.9499e-23  5.5142e-25  1.9519e-23  7.8502e-25  1.9555e-23  1.2006e-24  1.9620e-23  1.9399e-24  1.9734e-23  3.2560e-24  1.9937e-23  5.6003e-24  2.0299e-23  9.7818e-24  2.0941e-23  1.7258e-23  2.2082e-23  3.0678e-23  2.4106e-23  5.4938e-23  2.7696e-23  9.9314e-23
      2.85  1.8232e-23  2.6713e-25  1.8232e-23  2.6957e-25  1.8233e-23  2.7390e-25  1.8233e-23  2.8160e-25  1.8234e-23  2.9530e-25  1.8236e-23  3.1965e-25  1.8240e-23  3.6296e-25  1.8246e-23  4.3998e-25  1.8257e-23  5.7696e-25  1.8277e-23  8.2059e-25  1.8311e-23  1.2540e-24  1.8374e-23  2.0250e-24  1.8484e-23  3.3976e-24  1.8680e-23  5.8425e-24  1.9028e-23  1.0204e-23  1.9647e-23  1.8001e-23  2.0746e-23  3.1999e-23  2.2696e-23  5.7308e-23  2.6153e-23  1.0361e-22
      2.90  1.7058e-23  2.8035e-25  1.7058e-23  2.8288e-25  1.7059e-23  2.8737e-25  1.7059e-23  2.9536e-25  1.7060e-23  3.0956e-25  1.7062e-23  3.3482e-25  1.7066e-23  3.7974e-25  1.7072e-23  4.5962e-25  1.7082e-23  6.0170e-25  1.7101e-23  8.5438e-25  1.7135e-23  1.3039e-24  1.7195e-23  2.1036e-24  1.7301e-23  3.5272e-24  1.7490e-23  6.0632e-24  1.7826e-23  1.0587e-23  1.8422e-23  1.8675e-23  1.9482e-23  3.3196e-23  2.1361e-23  5.9454e-23  2.4693e-23  1.0750e-22
      2.95  1.5949e-23  2.9401e-25  1.5949e-23  2.9661e-25  1.5949e-23  3.0125e-25  1.5950e-23  3.0949e-25  1.5951e-23  3.2414e-25  1.5953e-23  3.5020e-25  1.5956e-23  3.9653e-25  1.5962e-23  4.7894e-25  1.5972e-23  6.2549e-25  1.5990e-23  8.8615e-25  1.6023e-23  1.3498e-24  1.6080e-23  2.1748e-24  1.6183e-23  3.6434e-24  1.6365e-23  6.2594e-24  1.6689e-23  1.0926e-23  1.7265e-23  1.9270e-23  1.8286e-23  3.4253e-23  2.0099e-23  6.1347e-23  2.3310e-23  1.1094e-22
      3.00  1.4902e-23  3.0815e-25  1.4902e-23  3.1082e-25  1.4902e-23  3.1558e-25  1.4903e-23  3.2403e-25  1.4904e-23  3.3906e-25  1.4906e-23  3.6580e-25  1.4909e-23  4.1334e-25  1.4914e-23  4.9789e-25  1.4924e-23  6.4826e-25  1.4942e-23  9.1570e-25  1.4973e-23  1.3914e-24  1.5029e-23  2.2379e-24  1.5128e-23  3.7447e-24  1.5303e-23  6.4289e-24  1.5616e-23  1.1217e-23  1.6171e-23  1.9779e-23  1.7156e-23  3.5155e-23  1.8903e-23  6.2964e-23  2.1999e-23  1.1388e-22
      3.05  1.3914e-23  3.2307e-25  1.3915e-23  3.2581e-25  1.3915e-23  3.3067e-25  1.3915e-23  3.3931e-25  1.3916e-23  3.5469e-25  1.3918e-23  3.8203e-25  1.3921e-23  4.3065e-25  1.3926e-23  5.1712e-25  1.3936e-23  6.7089e-25  1.3953e-23  9.4440e-25  1.3983e-23  1.4309e-24  1.4037e-23  2.2966e-24  1.4133e-23  3.8376e-24  1.4303e-23  6.5827e-24  1.4605e-23  1.1480e-23  1.5142e-23  2.0237e-23  1.6095e-23  3.5963e-23  1.7785e-23  6.4410e-23  2.0778e-23  1.1650e-22
      3.10  1.2984e-23  3.3833e-25  1.2984e-23  3.4111e-25  1.2984e-23  3.4606e-25  1.2985e-23  3.5486e-25  1.2986e-23  3.7050e-25  1.2988e-23  3.9833e-25  1.2990e-23  4.4780e-25  1.2996e-23  5.3580e-25  1.3005e-23  6.9229e-25  1.3021e-23  9.7062e-25  1.3051e-23  1.4657e-24  1.3103e-23  2.3467e-24  1.3195e-23  3.9149e-24  1.3360e-23  6.7085e-24  1.3652e-23  1.1692e-23  1.4171e-23  2.0605e-23  1.5093e-23  3.6610e-23  1.6726e-23  6.5566e-23  1.9618e-23  1.1860e-22
      3.15  1.2108e-23  3.5436e-25  1.2108e-23  3.5718e-25  1.2109e-23  3.6219e-25  1.2109e-23  3.7111e-25  1.2110e-23  3.8695e-25  1.2112e-23  4.1513e-25  1.2115e-23  4.6525e-25  1.2120e-23  5.5438e-25  1.2129e-23  7.1289e-25  1.2144e-23  9.9481e-25  1.2173e-23  1.4963e-24  1.2223e-23  2.3886e-24  1.2313e-23  3.9771e-24  1.2472e-23  6.8068e-24  1.2754e-23  1.1855e-23  1.3256e-23  2.0883e-23  1.4146e-23  3.7098e-23  1.5724e-23  6.6434e-23  1.8515e-23  1.2017e-22
      3.20  1.1285e-23  3.7108e-25  1.1285e-23  3.7392e-25  1.1285e-23  3.7897e-25  1.1286e-23  3.8796e-25  1.1287e-23  4.0393e-25  1.1288e-23  4.3235e-25  1.1291e-23  4.8287e-25  1.1296e-23  5.7273e-25  1.1304e-23  7.3253e-25  1.1320e-23  1.0167e-24  1.1347e-23  1.5223e-24  1.1396e-23  2.4219e-24  1.1482e-23  4.0233e-24  1.1636e-23  6.8762e-24  1.1909e-23  1.1966e-23  1.2393e-23  2.1068e-23  1.3253e-23  3.7417e-23  1.4776e-23  6.7000e-23  1.7470e-23  1.2120e-22
      3.25  1.0511e-23  3.8830e-25  1.0511e-23  3.9115e-25  1.0511e-23  3.9622e-25  1.0512e-23  4.0524e-25  1.0513e-23  4.2127e-25  1.0514e-23  4.4978e-25  1.0517e-23  5.0048e-25  1.0521e-23  5.9064e-25  1.0530e-23  7.5099e-25  1.0545e-23  1.0362e-24  1.0571e-23  1.5435e-24  1.0618e-23  2.4462e-24  1.0702e-23  4.0532e-24  1.0850e-23  6.9160e-24  1.1114e-23  1.2023e-23  1.1582e-23  2.1158e-23  1.2412e-23  3.7566e-23  1.3882e-23  6.7259e-23  1.6481e-23  1.2167e-22
      3.30  9.7845e-24  4.0642e-25  9.7847e-24  4.0927e-25  9.7849e-24  4.1433e-25  9.7854e-24  4.2334e-25  9.7862e-24  4.3937e-25  9.7876e-24  4.6787e-25  9.7902e-24  5.1854e-25  9.7947e-24  6.0867e-25  9.8028e-24  7.6895e-25  9.8171e-24  1.0540e-24  9.8427e-24  1.5612e-24  9.8881e-24  2.4635e-24  9.9687e-24  4.0697e-24  1.0112e-23  6.9314e-24  1.0367e-23  1.2037e-23  1.0819e-23  2.1168e-23  1.1621e-23  3.7572e-23  1.3039e-23  6.7261e-23  1.5545e-23  1.2168e-22
      3.35  9.1031e-24  4.2507e-25  9.1033e-24  4.2791e-25  9.1035e-24  4.3296e-25  9.1039e-24  4.4194e-25  9.1047e-24  4.5791e-25  9.1061e-24  4.8630e-25  9.1086e-24  5.3679e-25  9.1130e-24  6.2659e-25  9.1208e-24  7.8629e-25  9.1346e-24  1.0703e-24  9.1593e-24  1.5756e-24  9.2031e-24  2.4747e-24  9.2810e-24  4.0751e-24  9.4195e-24  6.9264e-24  9.6655e-24  1.2013e-23  1.0102e-23  2.1112e-23  1.0876e-23  3.7459e-23  1.2244e-23  6.7049e-23  1.4659e-23  1.2130e-22
      3.40  8.4644e-24  4.4428e-25  8.4645e-24  4.4711e-25  8.4648e-24  4.5212e-25  8.4652e-24  4.6105e-25  8.4660e-24  4.7692e-25  8.4673e-24  5.0514e-25  8.4697e-24  5.5533e-25  8.4739e-24  6.4458e-25  8.4814e-24  8.0332e-25  8.4948e-24  1.0856e-24  8.5186e-24  1.5879e-24  8.5610e-24  2.4815e-24  8.6362e-24  4.0723e-24  8.7699e-24  6.9064e-24  9.0073e-24  1.1963e-23  9.4286e-24  2.1008e-23  1.0175e-23  3.7258e-23  1.1494e-23  6.6676e-23  1.3820e-23  1.2062e-22
      3.45  7.8662e-24  4.6406e-25  7.8663e-24  4.6687e-25  7.8665e-24  4.7185e-25  7.8670e-24  4.8070e-25  7.8677e-24  4.9646e-25  7.8690e-24  5.2447e-25  7.8713e-24  5.7429e-25  7.8754e-24  6.6288e-25  7.8826e-24  8.2043e-25  7.8956e-24  1.1007e-24  7.9185e-24  1.5992e-24  7.9594e-24  2.4862e-24  8.0320e-24  4.0652e-24  8.1610e-24  6.8783e-24  8.3899e-24  1.1898e-23  8.7965e-24  2.0875e-23  9.5158e-24  3.7006e-23  1.0787e-23  6.6211e-23  1.3025e-23  1.1977e-22
      3.50  7.3063e-24  4.8443e-25  7.3064e-24  4.8721e-25  7.3066e-24  4.9215e-25  7.3070e-24  5.0094e-25  7.3077e-24  5.1658e-25  7.3090e-24  5.4438e-25  7.3112e-24  5.9382e-25  7.3151e-24  6.8175e-25  7.3221e-24  8.3812e-25  7.3346e-24  1.1162e-24  7.3568e-24  1.6110e-24  7.3962e-24  2.4913e-24  7.4663e-24  4.0584e-24  7.5908e-24  6.8504e-24  7.8118e-24  1.1832e-23  8.2035e-24  2.0742e-23  8.8969e-24  3.6752e-23  1.0121e-23  6.5739e-23  1.2273e-23  1.1890e-22
      3.55  6.7827e-24  5.0596e-25  6.7828e-24  5.0873e-25  6.7830e-24  5.1364e-25  6.7834e-24  5.2238e-25  6.7841e-24  5.3792e-25  6.7853e-24  5.6556e-25  6.7874e-24  6.1471e-25  6.7912e-24  7.0212e-25  6.7980e-24  8.5756e-25  6.8100e-24  1.1340e-24  6.8314e-24  1.6259e-24  6.8694e-24  2.5010e-24  6.9370e-24  4.0589e-24  7.0571e-24  6.8344e-24  7.2701e-24  1.1786e-23  7.6478e-24  2.0644e-23  8.3158e-24  3.6559e-23  9.4936e-24  6.5373e-23  1.1562e-23  1.1822e-22
      3.60  6.2932e-24  5.2814e-25  6.2933e-24  5.3090e-25  6.2935e-24  5.3580e-25  6.2939e-24  5.4452e-25  6.2945e-24  5.6003e-25  6.2957e-24  5.8761e-25  6.2978e-24  6.3666e-25  6.3014e-24  7.2389e-25  6.3080e-24  8.7901e-25  6.3196e-24  1.1549e-24  6.3402e-24  1.6457e-24  6.3769e-24  2.5190e-24  6.4421e-24  4.0737e-24  6.5578e-24  6.8434e-24  6.7632e-24  1.1785e-23  7.1272e-24  2.0624e-23  7.7705e-24  3.6504e-23  8.9034e-24  6.5254e-23  1.0890e-23  1.1798e-22
      3.65  5.8360e-24  5.5098e-25  5.8361e-24  5.5375e-25  5.8363e-24  5.5868e-25  5.8367e-24  5.6744e-25  5.8373e-24  5.8302e-25  5.8385e-24  6.1073e-25  5.8404e-24  6.6001e-25  5.8440e-24  7.4765e-25  5.8503e-24  9.0351e-25  5.8615e-24  1.1807e-24  5.8814e-24  1.6738e-24  5.9167e-24  2.5513e-24  5.9796e-24  4.1132e-24  6.0912e-24  6.8958e-24  6.2892e-24  1.1860e-23  6.6398e-24  2.0740e-23  7.2590e-24  3.6692e-23  8.3482e-24  6.5570e-23  1.0254e-23  1.1853e-22
      3.70  5.4093e-24  5.7455e-25  5.4094e-24  5.7738e-25  5.4096e-24  5.8241e-25  5.4100e-24  5.9137e-25  5.4106e-24  6.0729e-25  5.4117e-24  6.3561e-25  5.4136e-24  6.8597e-25  5.4170e-24  7.7553e-25  5.4231e-24  9.3481e-25  5.4338e-24  1.2181e-24  5.4530e-24  1.7221e-24  5.4871e-24  2.6187e-24  5.5477e-24  4.2149e-24  5.6552e-24  7.0586e-24  5.8460e-24  1.2132e-23  6.1836e-24  2.1205e-23  6.7794e-24  3.7505e-23  7.8260e-24  6.7008e-23  9.6537e-24  1.2111e-22
      3.75  5.0113e-24  5.9880e-25  5.0114e-24  6.0170e-25  5.0116e-24  6.0687e-25  5.0119e-24  6.1605e-25  5.0125e-24  6.3239e-25  5.0136e-24  6.6143e-25  5.0154e-24  7.1309e-25  5.0187e-24  8.0495e-25  5.0245e-24  9.6832e-25  5.0349e-24  1.2589e-24  5.0534e-24  1.7758e-24  5.0863e-24  2.6955e-24  5.1446e-24  4.3326e-24  5.2482e-24  7.2493e-24  5.4319e-24  1.2453e-23  5.7569e-24  2.1759e-23  6.3298e-24  3.8475e-23  7.3350e-24  6.8733e-23  9.0869e-24  1.2422e-22
      3.80  4.6404e-24  6.2471e-25  4.6405e-24  6.2775e-25  4.6407e-24  6.3316e-25  4.6410e-24  6.4278e-25  4.6416e-24  6.5990e-25  4.6426e-24  6.9033e-25  4.6444e-24  7.4444e-25  4.6476e-24  8.4068e-25  4.6532e-24  1.0118e-24  4.6632e-24  1.3163e-24  4.6810e-24  1.8578e-24  4.7126e-24  2.8213e-24  4.7688e-24  4.5366e-24  4.8686e-24  7.5923e-24  5.0454e-24  1.3044e-23  5.3581e-24  2.2794e-23  5.9089e-24  4.0308e-23  6.8740e-24  7.2014e-23  8.5527e-24  1.3017e-22
      3.85  4.2948e-24  6.5180e-25  4.2949e-24  6.5508e-25  4.2951e-24  6.6090e-25  4.2954e-24  6.7126e-25  4.2959e-24  6.8969e-25  4.2969e-24  7.2245e-25  4.2986e-24  7.8071e-25  4.3017e-24  8.8433e-25  4.3071e-24  1.0686e-24  4.3167e-24  1.3964e-24  4.3339e-24  1.9794e-24  4.3643e-24  3.0168e-24  4.4185e-24  4.8635e-24  4.5145e-24  8.1536e-24  4.6847e-24  1.4023e-23  4.9856e-24  2.4523e-23  5.5152e-24  4.3385e-23  6.4417e-24  7.7541e-23  8.0505e-24  1.4023e-22
      3.90  3.9730e-24  6.8150e-25  3.9731e-24  6.8514e-25  3.9733e-24  6.9162e-25  3.9735e-24  7.0314e-25  3.9741e-24  7.2362e-25  3.9750e-24  7.6005e-25  3.9767e-24  8.2484e-25  3.9796e-24  9.4005e-25  3.9848e-24  1.1450e-24  3.9941e-24  1.5094e-24  4.0106e-24  2.1577e-24  4.0400e-24  3.3112e-24  4.0922e-24  5.3647e-24  4.1847e-24  9.0234e-24  4.3486e-24  1.5551e-23  4.6383e-24  2.7229e-23  5.1477e-24  4.8215e-23  6.0379e-24  8.6232e-23  7.5810e-24  1.5607e-22
      3.95  3.6735e-24  7.1924e-25  3.6736e-24  7.2343e-25  3.6737e-24  7.3087e-25  3.6740e-24  7.4411e-25  3.6745e-24  7.6765e-25  3.6754e-24  8.0951e-25  3.6770e-24  8.8396e-25  3.6799e-24  1.0164e-24  3.6849e-24  1.2518e-24  3.6939e-24  1.6706e-24  3.7098e-24  2.4156e-24  3.7381e-24  3.7412e-24  3.7885e-24  6.1011e-24  3.8777e-24  1.0306e-23  4.0358e-24  1.7809e-23  4.3150e-24  3.1234e-23  4.8056e-24  5.5367e-23  5.6618e-24  9.9111e-23  7.1436e-24  1.7955e-22
