# This was generated using Cloudy10 and the columns are ordered 
# as log10 of the fraction of the metallicity to the solar metallicity
# 'h_*_Z' and 'c_*_Z' stands for cooling and heating respectively 
# at * metalicity
#
# NOTE: This was generated separately from loop_coolingcurve_w_UV.py
#       using Output_metals_w_redshift.py.
#
# Redshift = 6.0
# hden = -6.0
#
#     temp   h_-3.00_Z   c_-3.00_Z   h_-2.75_Z   c_-2.75_Z   h_-2.50_Z   c_-2.50_Z   h_-2.25_Z   c_-2.25_Z   h_-2.00_Z   c_-2.00_Z   h_-1.75_Z   c_-1.75_Z   h_-1.50_Z   c_-1.50_Z   h_-1.25_Z   c_-1.25_Z   h_-1.00_Z   c_-1.00_Z   h_-0.75_Z   c_-0.75_Z   h_-0.50_Z   c_-0.50_Z   h_-0.25_Z   c_-0.25_Z    h_0.00_Z    c_0.00_Z    h_0.25_Z    c_0.25_Z    h_0.50_Z    c_0.50_Z    h_0.75_Z    c_0.75_Z    h_1.00_Z    c_1.00_Z    h_1.25_Z    c_1.25_Z    h_1.50_Z    c_1.50_Z 
      4.00  1.0424e-23  1.5689e-22  1.0436e-23  1.5690e-22  1.0457e-23  1.5690e-22  1.0493e-23  1.5691e-22  1.0559e-23  1.5692e-22  1.0675e-23  1.5695e-22  1.0881e-23  1.5699e-22  1.1249e-23  1.5708e-22  1.1902e-23  1.5722e-22  1.3061e-23  1.5748e-22  1.5120e-23  1.5793e-22  1.8770e-23  1.5875e-22  2.5235e-23  1.6021e-22  3.6666e-23  1.6283e-22  5.6987e-23  1.6755e-22  9.3448e-23  1.7618e-22  1.5943e-22  1.9226e-22  2.8239e-22  2.2305e-22  5.1561e-22  2.8509e-22
      4.05  9.6602e-24  1.7596e-22  9.6714e-24  1.7597e-22  9.6912e-24  1.7597e-22  9.7264e-24  1.7598e-22  9.7889e-24  1.7599e-22  9.9001e-24  1.7602e-22  1.0098e-23  1.7607e-22  1.0449e-23  1.7615e-22  1.1074e-23  1.7629e-22  1.2184e-23  1.7655e-22  1.4155e-23  1.7700e-22  1.7651e-23  1.7782e-22  2.3844e-23  1.7927e-22  3.4798e-23  1.8188e-22  5.4257e-23  1.8658e-22  8.9165e-23  1.9515e-22  1.5243e-22  2.1105e-22  2.7029e-22  2.4140e-22  4.9402e-22  3.0218e-22
      4.10  8.9501e-24  1.9736e-22  8.9607e-24  1.9736e-22  8.9797e-24  1.9737e-22  9.0134e-24  1.9737e-22  9.0733e-24  1.9739e-22  9.1797e-24  1.9742e-22  9.3684e-24  1.9746e-22  9.7054e-24  1.9754e-22  1.0303e-23  1.9769e-22  1.1366e-23  1.9795e-22  1.3253e-23  1.9841e-22  1.6601e-23  1.9923e-22  2.2532e-23  2.0070e-22  3.3029e-23  2.0333e-22  5.1660e-23  2.0808e-22  8.5078e-23  2.1670e-22  1.4578e-22  2.3266e-22  2.5877e-22  2.6297e-22  4.7324e-22  3.2327e-22
      4.15  8.2903e-24  2.2136e-22  8.3005e-24  2.2136e-22  8.3187e-24  2.2137e-22  8.3509e-24  2.2138e-22  8.4082e-24  2.2139e-22  8.5101e-24  2.2142e-22  8.6912e-24  2.2147e-22  9.0132e-24  2.2155e-22  9.5856e-24  2.2170e-22  1.0603e-23  2.2197e-22  1.2409e-23  2.2244e-22  1.5615e-23  2.2328e-22  2.1296e-23  2.2479e-22  3.1354e-23  2.2749e-22  4.9192e-23  2.3235e-22  8.1182e-23  2.4117e-22  1.3941e-22  2.5743e-22  2.4774e-22  2.8818e-22  4.5347e-22  3.4890e-22
      4.20  7.6776e-24  2.4829e-22  7.6873e-24  2.4829e-22  7.7047e-24  2.4830e-22  7.7356e-24  2.4830e-22  7.7904e-24  2.4832e-22  7.8879e-24  2.4835e-22  8.0613e-24  2.4840e-22  8.3696e-24  2.4848e-22  8.9175e-24  2.4864e-22  9.8912e-24  2.4892e-22  1.1621e-23  2.4941e-22  1.4690e-23  2.5030e-22  2.0133e-23  2.5187e-22  2.9770e-23  2.5469e-22  4.6851e-23  2.5976e-22  7.7485e-23  2.6894e-22  1.3334e-22  2.8581e-22  2.3721e-22  3.1757e-22  4.3455e-22  3.7989e-22
      4.25  7.1087e-24  2.7850e-22  7.1180e-24  2.7850e-22  7.1346e-24  2.7850e-22  7.1642e-24  2.7851e-22  7.2167e-24  2.7853e-22  7.3101e-24  2.7856e-22  7.4761e-24  2.7861e-22  7.7713e-24  2.7871e-22  8.2960e-24  2.7887e-22  9.2285e-24  2.7917e-22  1.0885e-23  2.7970e-22  1.3825e-23  2.8064e-22  1.9040e-23  2.8231e-22  2.8277e-23  2.8531e-22  4.4640e-23  2.9070e-22  7.3991e-23  3.0046e-22  1.2759e-22  3.1834e-22  2.2721e-22  3.5189e-22  4.1660e-22  4.1736e-22
      4.30  6.5808e-24  3.1239e-22  6.5898e-24  3.1239e-22  6.6057e-24  3.1240e-22  6.6340e-24  3.1241e-22  6.6844e-24  3.1243e-22  6.7738e-24  3.1246e-22  6.9329e-24  3.1252e-22  7.2157e-24  3.1262e-22  7.7185e-24  3.1280e-22  8.6121e-24  3.1312e-22  1.0200e-23  3.1370e-22  1.3018e-23  3.1472e-22  1.8017e-23  3.1654e-22  2.6877e-23  3.1981e-22  4.2568e-23  3.2568e-22  7.0703e-23  3.3629e-22  1.2217e-22  3.5572e-22  2.1780e-22  3.9209e-22  3.9972e-22  4.6286e-22
      4.35  6.0911e-24  3.5042e-22  6.0997e-24  3.5042e-22  6.1150e-24  3.5043e-22  6.1421e-24  3.5044e-22  6.1904e-24  3.5046e-22  6.2762e-24  3.5049e-22  6.4287e-24  3.5056e-22  6.7000e-24  3.5067e-22  7.1822e-24  3.5087e-22  8.0393e-24  3.5123e-22  9.5620e-24  3.5187e-22  1.2266e-23  3.5301e-22  1.7063e-23  3.5504e-22  2.5568e-23  3.5868e-22  4.0638e-23  3.6524e-22  6.7628e-23  3.7709e-22  1.1713e-22  3.9876e-22  2.0905e-22  4.3934e-22  3.8400e-22  5.1828e-22
      4.40  5.6369e-24  3.9308e-22  5.6451e-24  3.9308e-22  5.6598e-24  3.9309e-22  5.6859e-24  3.9310e-22  5.7322e-24  3.9312e-22  5.8146e-24  3.9316e-22  5.9611e-24  3.9324e-22  6.2215e-24  3.9337e-22  6.6845e-24  3.9360e-22  7.5075e-24  3.9400e-22  8.9698e-24  3.9473e-22  1.1567e-23  3.9603e-22  1.6176e-23  3.9835e-22  2.4349e-23  4.0250e-22  3.8839e-23  4.1000e-22  6.4773e-23  4.2357e-22  1.1246e-22  4.4839e-22  2.0097e-22  4.9492e-22  3.6959e-22  5.8573e-22
      4.45  5.2157e-24  4.4094e-22  5.2237e-24  4.4094e-22  5.2378e-24  4.4095e-22  5.2628e-24  4.4097e-22  5.3074e-24  4.4099e-22  5.3866e-24  4.4104e-22  5.5274e-24  4.4113e-22  5.7778e-24  4.4128e-22  6.2229e-24  4.4154e-22  7.0141e-24  4.4202e-22  8.4201e-24  4.4286e-22  1.0917e-23  4.4437e-22  1.5351e-23  4.4706e-22  2.3215e-23  4.5190e-22  3.7166e-23  4.6065e-22  6.2138e-23  4.7652e-22  1.0813e-22  5.0555e-22  1.9348e-22  5.6017e-22  3.5629e-22  6.6732e-22
      4.50  4.8254e-24  4.9464e-22  4.8330e-24  4.9464e-22  4.8466e-24  4.9465e-22  4.8708e-24  4.9467e-22  4.9136e-24  4.9470e-22  4.9899e-24  4.9476e-22  5.1254e-24  4.9486e-22  5.3664e-24  4.9503e-22  5.7948e-24  4.9535e-22  6.5565e-24  4.9591e-22  7.9100e-24  4.9690e-22  1.0314e-23  4.9868e-22  1.4584e-23  5.0186e-22  2.2160e-23  5.0758e-22  3.5606e-23  5.1795e-22  5.9714e-23  5.3681e-22  1.0409e-22  5.7136e-22  1.8652e-22  6.3667e-22  3.4398e-22  7.6568e-22
      4.55  4.4639e-24  5.5489e-22  4.4712e-24  5.5490e-22  4.4843e-24  5.5491e-22  4.5076e-24  5.5493e-22  4.5489e-24  5.5497e-22  4.6223e-24  5.5504e-22  4.7529e-24  5.5515e-22  4.9851e-24  5.5536e-22  5.3980e-24  5.5573e-22  6.1318e-24  5.5639e-22  7.4362e-24  5.5757e-22  9.7535e-24  5.5968e-22  1.3869e-23  5.6346e-22  2.1174e-23  5.7026e-22  3.4147e-23  5.8262e-22  5.7445e-23  6.0517e-22  1.0031e-22  6.4653e-22  1.8001e-22  7.2507e-22  3.3249e-22  8.8140e-22
      4.60  4.1290e-24  6.2249e-22  4.1361e-24  6.2250e-22  4.1487e-24  6.2251e-22  4.1711e-24  6.2254e-22  4.2109e-24  6.2258e-22  4.2818e-24  6.2266e-22  4.4077e-24  6.2280e-22  4.6316e-24  6.2305e-22  5.0297e-24  6.2349e-22  5.7375e-24  6.2427e-22  6.9953e-24  6.2567e-22  9.2303e-24  6.2817e-22  1.3200e-23  6.3265e-22  2.0249e-23  6.4074e-22  3.2773e-23  6.5546e-22  5.5316e-23  6.8236e-22  9.6759e-23  7.3185e-22  1.7387e-22  8.2631e-22  3.2166e-22  1.0156e-21
      4.65  3.8189e-24  6.9834e-22  3.8257e-24  6.9835e-22  3.8379e-24  6.9836e-22  3.8595e-24  6.9839e-22  3.8980e-24  6.9844e-22  3.9663e-24  6.9854e-22  4.0878e-24  6.9870e-22  4.3038e-24  6.9899e-22  4.6879e-24  6.9952e-22  5.3707e-24  7.0045e-22  6.5843e-24  7.0211e-22  8.7409e-24  7.0507e-22  1.2572e-23  7.1040e-22  1.9376e-23  7.2000e-22  3.1471e-23  7.3751e-22  5.3302e-23  7.6949e-22  9.3400e-23  8.2851e-22  1.6808e-22  9.4166e-22  3.1140e-22  1.1702e-21
      4.70  3.5318e-24  7.8344e-22  3.5384e-24  7.8345e-22  3.5501e-24  7.8347e-22  3.5710e-24  7.8350e-22  3.6081e-24  7.8357e-22  3.6740e-24  7.8367e-22  3.7913e-24  7.8387e-22  3.9997e-24  7.8421e-22  4.3703e-24  7.8482e-22  5.0292e-24  7.8592e-22  6.2003e-24  7.8786e-22  8.2814e-24  7.9134e-22  1.1979e-23  7.9759e-22  1.8547e-23  8.0887e-22  3.0227e-23  8.2944e-22  5.1363e-23  8.6699e-22  9.0154e-23  9.3655e-22  1.6247e-22  1.0704e-21  3.0147e-22  1.3426e-21
      4.75  3.2661e-24  8.7894e-22  3.2724e-24  8.7895e-22  3.2838e-24  8.7897e-22  3.3039e-24  8.7901e-22  3.3397e-24  8.7908e-22  3.4033e-24  8.7921e-22  3.5164e-24  8.7944e-22  3.7175e-24  8.7983e-22  4.0751e-24  8.8055e-22  4.7108e-24  8.8182e-22  5.8407e-24  8.8408e-22  7.8487e-24  8.8813e-22  1.1416e-23  8.9539e-22  1.7755e-23  9.0851e-22  2.9031e-23  9.3246e-22  4.9484e-23  9.7611e-22  8.6994e-23  1.0573e-21  1.5699e-22  1.2140e-21  2.9172e-22  1.5345e-21
      4.80  3.0200e-24  9.8611e-22  3.0262e-24  9.8613e-22  3.0371e-24  9.8616e-22  3.0565e-24  9.8620e-22  3.0910e-24  9.8628e-22  3.1524e-24  9.8643e-22  3.2615e-24  9.8669e-22  3.4554e-24  9.8715e-22  3.8003e-24  9.8797e-22  4.4135e-24  9.8943e-22  5.5033e-24  9.9204e-22  7.4401e-24  9.9669e-22  1.0881e-23  1.0051e-21  1.6997e-23  1.0202e-21  2.7878e-23  1.0478e-21  4.7654e-23  1.0980e-21  8.3902e-23  1.1916e-21  1.5159e-22  1.3731e-21  2.8209e-22  1.7458e-21
      4.85  2.7917e-24  1.1064e-21  2.7976e-24  1.1064e-21  2.8082e-24  1.1065e-21  2.8269e-24  1.1065e-21  2.8602e-24  1.1066e-21  2.9193e-24  1.1068e-21  3.0245e-24  1.1071e-21  3.2115e-24  1.1076e-21  3.5440e-24  1.1085e-21  4.1351e-24  1.1102e-21  5.1858e-24  1.1132e-21  7.0531e-24  1.1185e-21  1.0371e-23  1.1280e-21  1.6267e-23  1.1452e-21  2.6761e-23  1.1767e-21  4.5872e-23  1.2338e-21  8.0878e-23  1.3408e-21  1.4629e-22  1.5484e-21  2.7253e-22  1.9765e-21
      4.90  2.5789e-24  1.2414e-21  2.5846e-24  1.2415e-21  2.5948e-24  1.2415e-21  2.6128e-24  1.2416e-21  2.6449e-24  1.2417e-21  2.7019e-24  1.2418e-21  2.8032e-24  1.2422e-21  2.9835e-24  1.2428e-21  3.3039e-24  1.2438e-21  3.8735e-24  1.2457e-21  4.8860e-24  1.2491e-21  6.6854e-24  1.2551e-21  9.8825e-24  1.2658e-21  1.5565e-23  1.2853e-21  2.5689e-23  1.3207e-21  4.4135e-23  1.3852e-21  7.7915e-23  1.5060e-21  1.4107e-22  1.7410e-21  2.6305e-22  2.2268e-21
      4.95  2.3788e-24  1.3930e-21  2.3843e-24  1.3931e-21  2.3941e-24  1.3931e-21  2.4115e-24  1.3932e-21  2.4424e-24  1.3933e-21  2.4973e-24  1.3935e-21  2.5949e-24  1.3939e-21  2.7685e-24  1.3945e-21  3.0772e-24  1.3957e-21  3.6260e-24  1.3978e-21  4.6013e-24  1.4016e-21  6.3346e-24  1.4083e-21  9.4143e-24  1.4203e-21  1.4888e-23  1.4420e-21  2.4659e-23  1.4816e-21  4.2444e-23  1.5537e-21  7.5022e-23  1.6888e-21  1.3595e-22  1.9520e-21  2.5368e-22  2.4972e-21
      5.00  2.1880e-24  1.5632e-21  2.1933e-24  1.5632e-21  2.2027e-24  1.5633e-21  2.2195e-24  1.5633e-21  2.2492e-24  1.5635e-21  2.3021e-24  1.5637e-21  2.3962e-24  1.5641e-21  2.5634e-24  1.5649e-21  2.8608e-24  1.5662e-21  3.3893e-24  1.5685e-21  4.3288e-24  1.5727e-21  5.9983e-24  1.5801e-21  8.9643e-24  1.5935e-21  1.4235e-23  1.6176e-21  2.3663e-23  1.6613e-21  4.0807e-23  1.7412e-21  7.2212e-23  1.8910e-21  1.3095e-22  2.1830e-21  2.4449e-22  2.7882e-21
      5.05  2.0028e-24  1.7542e-21  2.0079e-24  1.7542e-21  2.0170e-24  1.7543e-21  2.0331e-24  1.7544e-21  2.0618e-24  1.7545e-21  2.1128e-24  1.7548e-21  2.2034e-24  1.7552e-21  2.3645e-24  1.7560e-21  2.6510e-24  1.7575e-21  3.1602e-24  1.7601e-21  4.0653e-24  1.7647e-21  5.6735e-24  1.7729e-21  8.5303e-24  1.7876e-21  1.3606e-23  1.8141e-21  2.2704e-23  1.8622e-21  3.9230e-23  1.9501e-21  6.9502e-23  2.1149e-21  1.2612e-22  2.4359e-21  2.3556e-22  3.1016e-21
      5.10  1.8199e-24  1.9686e-21  1.8248e-24  1.9686e-21  1.8336e-24  1.9686e-21  1.8491e-24  1.9687e-21  1.8768e-24  1.9689e-21  1.9259e-24  1.9692e-21  2.0133e-24  1.9697e-21  2.1686e-24  1.9706e-21  2.4448e-24  1.9721e-21  2.9356e-24  1.9750e-21  3.8080e-24  1.9800e-21  5.3578e-24  1.9890e-21  8.1104e-24  2.0051e-21  1.3000e-23  2.0341e-21  2.1784e-23  2.0866e-21  3.7720e-23  2.1826e-21  6.6908e-23  2.3625e-21  1.2149e-22  2.7128e-21  2.2695e-22  3.4381e-21
      5.15  1.6378e-24  2.2090e-21  1.6426e-24  2.2090e-21  1.6510e-24  2.2091e-21  1.6660e-24  2.2092e-21  1.6927e-24  2.2094e-21  1.7401e-24  2.2097e-21  1.8244e-24  2.2102e-21  1.9743e-24  2.2112e-21  2.2407e-24  2.2129e-21  2.7143e-24  2.2160e-21  3.5558e-24  2.2215e-21  5.0505e-24  2.2312e-21  7.7043e-24  2.2487e-21  1.2417e-23  2.2803e-21  2.0907e-23  2.3372e-21  3.6285e-23  2.4414e-21  6.4446e-23  2.6365e-21  1.1708e-22  3.0156e-21  2.1874e-22  3.7993e-21
      5.20  1.4580e-24  2.4787e-21  1.4626e-24  2.4787e-21  1.4707e-24  2.4788e-21  1.4852e-24  2.4789e-21  1.5110e-24  2.4791e-21  1.5568e-24  2.4794e-21  1.6382e-24  2.4800e-21  1.7830e-24  2.4810e-21  2.0403e-24  2.4829e-21  2.4977e-24  2.4862e-21  3.3102e-24  2.4921e-21  4.7530e-24  2.5027e-21  7.3136e-24  2.5216e-21  1.1860e-23  2.5557e-21  2.0075e-23  2.6171e-21  3.4929e-23  2.7295e-21  6.2123e-23  2.9397e-21  1.1293e-22  3.3474e-21  2.1096e-22  4.1874e-21
      5.25  1.2851e-24  2.7810e-21  1.2895e-24  2.7810e-21  1.2974e-24  2.7811e-21  1.3114e-24  2.7812e-21  1.3363e-24  2.7814e-21  1.3806e-24  2.7818e-21  1.4594e-24  2.7824e-21  1.5994e-24  2.7835e-21  1.8482e-24  2.7855e-21  2.2904e-24  2.7891e-21  3.0757e-24  2.7955e-21  4.4696e-24  2.8068e-21  6.9421e-24  2.8272e-21  1.1347e-23  2.8637e-21  1.9291e-23  2.9297e-21  3.3655e-23  3.0502e-21  5.9940e-23  3.2752e-21  1.0902e-22  3.7105e-21  2.0361e-22  4.6040e-21
      5.30  1.1254e-24  3.1199e-21  1.1297e-24  3.1199e-21  1.1373e-24  3.1200e-21  1.1509e-24  3.1201e-21  1.1750e-24  3.1204e-21  1.2178e-24  3.1207e-21  1.2941e-24  3.1214e-21  1.4296e-24  3.1226e-21  1.6704e-24  3.1248e-21  2.0982e-24  3.1286e-21  2.8578e-24  3.1354e-21  4.2053e-24  3.1476e-21  6.5937e-24  3.1693e-21  1.0867e-23  3.2084e-21  1.8557e-23  3.2788e-21  3.2458e-23  3.4074e-21  5.7885e-23  3.6470e-21  1.0533e-22  4.1090e-21  1.9664e-22  5.0526e-21
      5.35  9.8432e-25  3.4999e-21  9.8847e-25  3.4999e-21  9.9587e-25  3.5000e-21  1.0090e-24  3.5001e-21  1.0324e-24  3.5004e-21  1.0739e-24  3.5008e-21  1.1477e-24  3.5015e-21  1.2789e-24  3.5028e-21  1.5121e-24  3.5051e-21  1.9261e-24  3.5092e-21  2.6610e-24  3.5165e-21  3.9636e-24  3.5294e-21  6.2705e-24  3.5526e-21  1.0420e-23  3.5943e-21  1.7867e-23  3.6693e-21  3.1325e-23  3.8060e-21  5.5931e-23  4.0603e-21  1.0180e-22  4.5489e-21  1.8995e-22  5.5414e-21
      5.40  8.6479e-25  3.9260e-21  8.6881e-25  3.9261e-21  8.7597e-25  3.9262e-21  8.8868e-25  3.9263e-21  9.1129e-25  3.9265e-21  9.5150e-25  3.9270e-21  1.0230e-24  3.9277e-21  1.1500e-24  3.9291e-21  1.3756e-24  3.9315e-21  1.7762e-24  3.9359e-21  2.4866e-24  3.9436e-21  3.7450e-24  3.9574e-21  5.9834e-24  3.9820e-21  1.0001e-23  4.0262e-21  1.7210e-23  4.1057e-21  3.0235e-23  4.2504e-21  5.4036e-23  4.5188e-21  9.8362e-23  5.0323e-21  1.8340e-22  6.0727e-21
      5.45  7.6664e-25  4.4040e-21  7.7053e-25  4.4041e-21  7.7745e-25  4.4041e-21  7.8975e-25  4.4043e-21  8.1161e-25  4.4045e-21  8.5048e-25  4.4050e-21  9.1957e-25  4.4058e-21  1.0423e-24  4.4073e-21  1.2604e-24  4.4099e-21  1.6473e-24  4.4145e-21  2.3329e-24  4.4227e-21  3.5463e-24  4.4374e-21  5.7164e-24  4.4635e-21  9.6010e-24  4.5104e-21  1.6570e-23  4.5949e-21  2.9157e-23  4.7482e-21  5.2146e-23  5.0317e-21  9.4914e-23  5.5715e-21  1.7680e-22  6.6522e-21
      5.50  6.8766e-25  4.9402e-21  6.9142e-25  4.9403e-21  6.9809e-25  4.9404e-21  7.0995e-25  4.9405e-21  7.3103e-25  4.9408e-21  7.6852e-25  4.9413e-21  8.3514e-25  4.9421e-21  9.5350e-25  4.9437e-21  1.1636e-24  4.9464e-21  1.5363e-24  4.9513e-21  2.1961e-24  4.9600e-21  3.3656e-24  4.9756e-21  5.4620e-24  5.0034e-21  9.2084e-24  5.0530e-21  1.5929e-23  5.1421e-21  2.8061e-23  5.3039e-21  5.0207e-23  5.6021e-21  9.1358e-23  6.1668e-21  1.6997e-22  7.2897e-21
      5.55  6.2468e-25  5.5418e-21  6.2828e-25  5.5419e-21  6.3469e-25  5.5420e-21  6.4609e-25  5.5422e-21  6.6636e-25  5.5424e-21  7.0238e-25  5.5430e-21  7.6638e-25  5.5439e-21  8.8007e-25  5.5455e-21  1.0818e-24  5.5484e-21  1.4393e-24  5.5536e-21  2.0718e-24  5.5629e-21  3.1986e-24  5.5794e-21  5.2133e-24  5.6088e-21  8.8134e-24  5.6614e-21  1.5270e-23  5.7558e-21  2.6922e-23  5.9266e-21  4.8175e-23  6.2404e-21  8.7620e-23  6.8315e-21  1.6279e-22  7.9942e-21
      5.60  5.7449e-25  6.2169e-21  5.7794e-25  6.2169e-21  5.8407e-25  6.2170e-21  5.9498e-25  6.2172e-21  6.1436e-25  6.2175e-21  6.4882e-25  6.2181e-21  7.1003e-25  6.2191e-21  8.1872e-25  6.2208e-21  1.0115e-24  6.2239e-21  1.3528e-24  6.2294e-21  1.9563e-24  6.2392e-21  3.0375e-24  6.2568e-21  4.9654e-24  6.2881e-21  8.4098e-24  6.3438e-21  1.4586e-23  6.4437e-21  2.5729e-23  6.6243e-21  4.6039e-23  6.9549e-21  8.3683e-23  7.5922e-21  1.5524e-22  8.8195e-21
      5.65  5.3430e-25  6.9743e-21  5.3758e-25  6.9744e-21  5.4342e-25  6.9745e-21  5.5380e-25  6.9747e-21  5.7225e-25  6.9750e-21  6.0504e-25  6.9756e-21  6.6327e-25  6.9766e-21  7.6664e-25  6.9785e-21  9.4986e-25  6.9819e-21  1.2741e-24  6.9878e-21  1.8499e-24  6.9985e-21  2.8793e-24  7.0175e-21  4.7147e-24  7.0511e-21  7.9938e-24  7.1111e-21  1.3873e-23  7.2189e-21  2.4476e-23  7.4131e-21  4.3795e-23  7.7678e-21  7.9565e-23  8.4282e-21  1.4741e-22  9.7044e-21
      5.70  5.0184e-25  7.8241e-21  5.0494e-25  7.8242e-21  5.1047e-25  7.8243e-21  5.2029e-25  7.8245e-21  5.3775e-25  7.8249e-21  5.6877e-25  7.8255e-21  6.2387e-25  7.8266e-21  7.2161e-25  7.8286e-21  8.9478e-25  7.8322e-21  1.2010e-24  7.8386e-21  1.7477e-24  7.8502e-21  2.7225e-24  7.8706e-21  4.4605e-24  7.9066e-21  7.5655e-24  7.9708e-21  1.3132e-23  8.0857e-21  2.3172e-23  8.2925e-21  4.1459e-23  8.6689e-21  7.5296e-23  9.3659e-21  1.3938e-22  1.0702e-20
      5.75  4.7535e-25  8.7776e-21  4.7827e-25  8.7777e-21  4.8346e-25  8.7778e-21  4.9270e-25  8.7780e-21  5.0911e-25  8.7784e-21  5.3827e-25  8.7791e-21  5.9005e-25  8.7803e-21  6.8190e-25  8.7825e-21  8.4455e-25  8.7863e-21  1.1327e-24  8.7933e-21  1.6478e-24  8.8059e-21  2.5653e-24  8.8278e-21  4.2011e-24  8.8665e-21  7.1237e-24  8.9354e-21  1.2364e-23  9.0585e-21  2.1817e-23  9.2798e-21  3.9039e-23  9.6816e-21  7.0906e-23  1.0424e-20  1.3121e-22  1.1829e-20
      5.80  4.5349e-25  9.8474e-21  4.5622e-25  9.8475e-21  4.6106e-25  9.8476e-21  4.6967e-25  9.8479e-21  4.8497e-25  9.8483e-21  5.1216e-25  9.8490e-21  5.6044e-25  9.8503e-21  6.4605e-25  9.8527e-21  7.9765e-25  9.8568e-21  1.0673e-24  9.8647e-21  1.5483e-24  9.8784e-21  2.4051e-24  9.9022e-21  3.9329e-24  9.9441e-21  6.6631e-24  1.0019e-20  1.1560e-23  1.0152e-20  2.0398e-23  1.0391e-20  3.6512e-23  1.0823e-20  6.6358e-23  1.1614e-20  1.2288e-22  1.3121e-20
      5.85  4.3528e-25  1.1048e-20  4.3779e-25  1.1048e-20  4.4225e-25  1.1048e-20  4.5019e-25  1.1048e-20  4.6430e-25  1.1049e-20  4.8936e-25  1.1049e-20  5.3387e-25  1.1051e-20  6.1282e-25  1.1053e-20  7.5264e-25  1.1058e-20  1.0022e-24  1.1067e-20  1.4465e-24  1.1082e-20  2.2379e-24  1.1108e-20  3.6494e-24  1.1153e-20  6.1727e-24  1.1235e-20  1.0701e-23  1.1379e-20  1.8882e-23  1.1638e-20  3.3822e-23  1.2112e-20  6.1551e-23  1.2970e-20  1.1419e-22  1.4569e-20
      5.90  4.1994e-25  1.2394e-20  4.2222e-25  1.2394e-20  4.2627e-25  1.2395e-20  4.3347e-25  1.2395e-20  4.4628e-25  1.2395e-20  4.6902e-25  1.2396e-20  5.0942e-25  1.2398e-20  5.8112e-25  1.2401e-20  7.0838e-25  1.2406e-20  9.3532e-25  1.2416e-20  1.3393e-24  1.2433e-20  2.0589e-24  1.2461e-20  3.3429e-24  1.2511e-20  5.6393e-24  1.2601e-20  9.7643e-24  1.2760e-20  1.7228e-23  1.3045e-20  3.0889e-23  1.3557e-20  5.6334e-23  1.4490e-20  1.0486e-22  1.6213e-20
      5.95  4.0693e-25  1.3905e-20  4.0895e-25  1.3905e-20  4.1255e-25  1.3905e-20  4.1894e-25  1.3906e-20  4.3031e-25  1.3906e-20  4.5052e-25  1.3907e-20  4.8642e-25  1.3909e-20  5.5017e-25  1.3912e-20  6.6356e-25  1.3919e-20  8.6548e-25  1.3930e-20  1.2249e-24  1.3948e-20  1.8654e-24  1.3980e-20  3.0086e-24  1.4035e-20  5.0546e-24  1.4133e-20  8.7343e-24  1.4308e-20  1.5405e-23  1.4621e-20  2.7655e-23  1.5184e-20  5.0582e-23  1.6205e-20  9.4584e-23  1.8083e-20
      6.00  3.9579e-25  1.5600e-20  3.9754e-25  1.5600e-20  4.0065e-25  1.5600e-20  4.0619e-25  1.5601e-20  4.1602e-25  1.5601e-20  4.3352e-25  1.5602e-20  4.6461e-25  1.5604e-20  5.1985e-25  1.5608e-20  6.1820e-25  1.5616e-20  7.9318e-25  1.5629e-20  1.1047e-24  1.5649e-20  1.6599e-24  1.5683e-20  2.6513e-24  1.5744e-20  4.4271e-24  1.5853e-20  7.6250e-24  1.6046e-20  1.3435e-23  1.6391e-20  2.4145e-23  1.7012e-20  4.4306e-23  1.8137e-20  8.3309e-23  2.0201e-20
      6.05  3.8621e-25  1.7501e-20  3.8769e-25  1.7501e-20  3.9031e-25  1.7501e-20  3.9497e-25  1.7502e-20  4.0326e-25  1.7503e-20  4.1800e-25  1.7504e-20  4.4421e-25  1.7506e-20  4.9085e-25  1.7510e-20  5.7382e-25  1.7521e-20  7.2140e-25  1.7534e-20  9.8415e-25  1.7557e-20  1.4525e-24  1.7595e-20  2.2892e-24  1.7662e-20  3.7888e-24  1.7781e-20  6.4925e-24  1.7994e-20  1.1415e-23  1.8375e-20  2.0518e-23  1.9059e-20  3.7750e-23  2.0299e-20  7.1366e-23  2.2578e-20
      6.10  3.7796e-25  1.9634e-20  3.7918e-25  1.9634e-20  3.8134e-25  1.9634e-20  3.8518e-25  1.9635e-20  3.9201e-25  1.9635e-20  4.0416e-25  1.9637e-20  4.2579e-25  1.9639e-20  4.6430e-25  1.9646e-20  5.3275e-25  1.9657e-20  6.5447e-25  1.9673e-20  8.7120e-25  1.9697e-20  1.2576e-24  1.9739e-20  1.9479e-24  1.9813e-20  3.1855e-24  1.9943e-20  5.4182e-24  2.0177e-20  9.4877e-24  2.0594e-20  1.7029e-23  2.1345e-20  3.1355e-23  2.2708e-20  5.9476e-23  2.5214e-20
      6.15  3.7085e-25  2.2026e-20  3.7184e-25  2.2026e-20  3.7359e-25  2.2027e-20  3.7672e-25  2.2027e-20  3.8227e-25  2.2028e-20  3.9217e-25  2.2029e-20  4.0978e-25  2.2032e-20  4.4116e-25  2.2042e-20  4.9689e-25  2.2054e-20  5.9596e-25  2.2071e-20  7.7234e-25  2.2098e-20  1.0868e-24  2.2144e-20  1.6485e-24  2.2224e-20  2.6555e-24  2.2367e-20  4.4718e-24  2.2622e-20  7.7817e-24  2.3077e-20  1.3915e-23  2.3896e-20  2.5569e-23  2.5383e-20  4.8487e-23  2.8117e-20
      6.20  3.6471e-25  2.4710e-20  3.6551e-25  2.4710e-20  3.6693e-25  2.4710e-20  3.6947e-25  2.4711e-20  3.7397e-25  2.4712e-20  3.8199e-25  2.4713e-20  3.9627e-25  2.4716e-20  4.2174e-25  2.4730e-20  4.6692e-25  2.4744e-20  5.4721e-25  2.4763e-20  6.9013e-25  2.4792e-20  9.4485e-25  2.4842e-20  1.3998e-24  2.4930e-20  2.2149e-24  2.5086e-20  3.6838e-24  2.5364e-20  6.3568e-24  2.5860e-20  1.1298e-23  2.6751e-20  2.0660e-23  2.8365e-20  3.9001e-23  3.1329e-20
      6.25  3.5940e-25  2.7720e-20  3.6005e-25  2.7720e-20  3.6121e-25  2.7720e-20  3.6327e-25  2.7721e-20  3.6693e-25  2.7722e-20  3.7344e-25  2.7723e-20  3.8503e-25  2.7728e-20  4.0575e-25  2.7745e-20  4.4244e-25  2.7762e-20  5.0761e-25  2.7782e-20  6.2359e-25  2.7815e-20  8.3025e-25  2.7870e-20  1.1991e-24  2.7966e-20  1.8596e-24  2.8137e-20  3.0484e-24  2.8441e-20  5.2066e-24  2.8983e-20  9.1820e-24  2.9956e-20  1.6670e-23  3.1713e-20  3.1224e-23  3.4923e-20
      6.30  3.5480e-25  3.1096e-20  3.5533e-25  3.1096e-20  3.5627e-25  3.1096e-20  3.5796e-25  3.1097e-20  3.6094e-25  3.1098e-20  3.6624e-25  3.1100e-20  3.7568e-25  3.1107e-20  3.9259e-25  3.1128e-20  4.2247e-25  3.1147e-20  4.7552e-25  3.1171e-20  5.6989e-25  3.1207e-20  7.3799e-25  3.1267e-20  1.0379e-24  3.1374e-20  1.5745e-24  3.1562e-20  2.5388e-24  3.1896e-20  4.2851e-24  3.2493e-20  7.4884e-24  3.3562e-20  1.3481e-23  3.5487e-20  2.5012e-23  3.8985e-20
      6.35  3.5079e-25  3.4882e-20  3.5123e-25  3.4882e-20  3.5200e-25  3.4882e-20  3.5337e-25  3.4883e-20  3.5580e-25  3.4884e-20  3.6011e-25  3.4886e-20  3.6781e-25  3.4897e-20  3.8161e-25  3.4923e-20  4.0593e-25  3.4945e-20  4.4908e-25  3.4972e-20  5.2582e-25  3.5012e-20  6.6247e-25  3.5080e-20  9.0616e-25  3.5198e-20  1.3418e-24  3.5407e-20  2.1235e-24  3.5778e-20  3.5358e-24  3.6439e-20  6.1158e-24  3.7621e-20  1.0910e-23  3.9745e-20  2.0039e-23  4.3590e-20
      6.40  3.4730e-25  3.9128e-20  3.4765e-25  3.9128e-20  3.4828e-25  3.9128e-20  3.4940e-25  3.9129e-20  3.5137e-25  3.9130e-20  3.5486e-25  3.9133e-20  3.6113e-25  3.9149e-20  3.7236e-25  3.9180e-20  3.9210e-25  3.9207e-20  4.2709e-25  3.9237e-20  4.8927e-25  3.9283e-20  5.9995e-25  3.9358e-20  7.9724e-25  3.9490e-20  1.1496e-24  3.9722e-20  1.7812e-24  4.0135e-20  2.9196e-24  4.0871e-20  4.9908e-24  4.2185e-20  8.8150e-24  4.4542e-20  1.6022e-23  4.8794e-20
      6.45  3.4425e-25  4.3889e-20  3.4453e-25  4.3889e-20  3.4504e-25  4.3889e-20  3.4595e-25  4.3890e-20  3.4755e-25  4.3892e-20  3.5036e-25  4.3894e-20  3.5549e-25  4.3918e-20  3.6464e-25  4.3956e-20  3.8064e-25  4.3988e-20  4.0896e-25  4.4023e-20  4.5926e-25  4.4074e-20  5.4877e-25  4.4159e-20  7.0825e-25  4.4306e-20  9.9290e-25  4.4565e-20  1.5024e-24  4.5026e-20  2.4190e-24  4.5846e-20  4.0807e-24  4.7311e-20  7.1308e-24  4.9932e-20  1.2827e-23  5.4653e-20
      6.50  3.4157e-25  4.9227e-20  3.4180e-25  4.9228e-20  3.4222e-25  4.9228e-20  3.4295e-25  4.9229e-20  3.4425e-25  4.9231e-20  3.4652e-25  4.9234e-20  3.5074e-25  4.9267e-20  3.5822e-25  4.9314e-20  3.7121e-25  4.9351e-20  3.9415e-25  4.9392e-20  4.3486e-25  4.9450e-20  5.0729e-25  4.9545e-20  6.3630e-25  4.9710e-20  8.6641e-25  5.0000e-20  1.2779e-24  5.0515e-20  2.0167e-24  5.1431e-20  3.3522e-24  5.3065e-20  5.7913e-24  5.5989e-20  1.0311e-23  6.1238e-20
      6.55  3.3922e-25  5.5213e-20  3.3941e-25  5.5214e-20  3.3975e-25  5.5214e-20  3.4034e-25  5.5215e-20  3.4139e-25  5.5217e-20  3.4324e-25  5.5220e-20  3.4673e-25  5.5264e-20  3.5287e-25  5.5323e-20  3.6344e-25  5.5368e-20  3.8206e-25  5.5416e-20  4.1507e-25  5.5482e-20  4.7378e-25  5.5589e-20  5.7830e-25  5.5774e-20  7.6466e-25  5.6099e-20  1.0976e-24  5.6675e-20  1.6946e-24  5.7701e-20  2.7712e-24  5.9529e-20  4.7297e-24  6.2794e-20  8.3361e-24  6.8645e-20
      6.60  3.3715e-25  6.1924e-20  3.3730e-25  6.1924e-20  3.3758e-25  6.1925e-20  3.3806e-25  6.1926e-20  3.3891e-25  6.1928e-20  3.4039e-25  6.1932e-20  3.4331e-25  6.1990e-20  3.4837e-25  6.2063e-20  3.5697e-25  6.2118e-20  3.7206e-25  6.2174e-20  3.9879e-25  6.2249e-20  4.4628e-25  6.2370e-20  5.3082e-25  6.2578e-20  6.8149e-25  6.2943e-20  9.5054e-25  6.3589e-20  1.4324e-24  6.4739e-20  2.2999e-24  6.6786e-20  3.8732e-24  7.0439e-20  6.7570e-24  7.6975e-20
      6.65  3.3531e-25  6.9446e-20  3.3543e-25  6.9447e-20  3.3565e-25  6.9447e-20  3.3604e-25  6.9449e-20  3.3672e-25  6.9451e-20  3.3791e-25  6.9455e-20  3.4036e-25  6.9533e-20  3.4452e-25  6.9624e-20  3.5148e-25  6.9691e-20  3.6360e-25  6.9756e-20  3.8504e-25  6.9843e-20  4.2313e-25  6.9979e-20  4.9089e-25  7.0213e-20  6.1165e-25  7.0622e-20  8.2717e-25  7.1348e-20  1.2129e-24  7.2639e-20  1.9063e-24  7.4935e-20  3.1614e-24  7.9030e-20  5.4543e-24  8.6347e-20
      6.70  3.3367e-25  7.7878e-20  3.3377e-25  7.7878e-20  3.3394e-25  7.7879e-20  3.3424e-25  7.7881e-20  3.3478e-25  7.7883e-20  3.3571e-25  7.7888e-20  3.3776e-25  7.7988e-20  3.4116e-25  7.8102e-20  3.4670e-25  7.8184e-20  3.5628e-25  7.8262e-20  3.7316e-25  7.8361e-20  4.0312e-25  7.8516e-20  4.5642e-25  7.8779e-20  5.5137e-25  7.9240e-20  7.2079e-25  8.0056e-20  1.0238e-24  8.1505e-20  1.5681e-24  8.4085e-20  2.5517e-24  8.8680e-20  4.3443e-24  9.6883e-20
      6.75  3.3220e-25  8.7327e-20  3.3228e-25  8.7328e-20  3.3241e-25  8.7329e-20  3.3264e-25  8.7330e-20  3.3304e-25  8.7333e-20  3.3376e-25  8.7338e-20  3.3543e-25  8.7458e-20  3.3820e-25  8.7606e-20  3.4252e-25  8.7709e-20  3.4987e-25  8.7803e-20  3.6277e-25  8.7918e-20  3.8563e-25  8.8094e-20  4.2629e-25  8.8391e-20  4.9870e-25  8.8909e-20  6.2789e-25  8.9826e-20  8.5886e-25  9.1456e-20  1.2734e-24  9.4355e-20  2.0216e-24  9.9518e-20  3.3828e-24  1.0873e-19
      6.80  3.3088e-25  9.7916e-20  3.3093e-25  9.7916e-20  3.3103e-25  9.7917e-20  3.3119e-25  9.7919e-20  3.3149e-25  9.7922e-20  3.3201e-25  9.7928e-20  3.3333e-25  9.8057e-20  3.3558e-25  9.8254e-20  3.3888e-25  9.8388e-20  3.4433e-25  9.8503e-20  3.5382e-25  9.8638e-20  3.7059e-25  9.8839e-20  4.0039e-25  9.9175e-20  4.5345e-25  9.9759e-20  5.4810e-25  1.0079e-19  7.1727e-25  1.0262e-19  1.0207e-24  1.0588e-19  1.5678e-24  1.1169e-19  2.5618e-24  1.2203e-19
      6.85  3.2967e-25  1.0978e-19  3.2971e-25  1.0978e-19  3.2977e-25  1.0978e-19  3.2989e-25  1.0978e-19  3.3009e-25  1.0979e-19  3.3046e-25  1.0979e-19  3.3148e-25  1.0993e-19  3.3335e-25  1.1019e-19  3.3582e-25  1.1036e-19  3.3973e-25  1.1051e-19  3.4644e-25  1.1066e-19  3.5823e-25  1.1089e-19  3.7915e-25  1.1127e-19  4.1641e-25  1.1193e-19  4.8286e-25  1.1309e-19  6.0161e-25  1.1516e-19  8.1451e-25  1.1882e-19  1.1982e-24  1.2535e-19  1.8947e-24  1.3698e-19
      6.90  3.2856e-25  1.2307e-19  3.2858e-25  1.2307e-19  3.2863e-25  1.2307e-19  3.2870e-25  1.2307e-19  3.2884e-25  1.2307e-19  3.2908e-25  1.2308e-19  3.2990e-25  1.2324e-19  3.3150e-25  1.2358e-19  3.3336e-25  1.2380e-19  3.3610e-25  1.2397e-19  3.4068e-25  1.2416e-19  3.4868e-25  1.2442e-19  3.6284e-25  1.2485e-19  3.8805e-25  1.2559e-19  4.3301e-25  1.2690e-19  5.1337e-25  1.2922e-19  6.5745e-25  1.3334e-19  9.1715e-25  1.4068e-19  1.3889e-24  1.5378e-19
      6.95  3.2752e-25  1.3795e-19  3.2754e-25  1.3795e-19  3.2757e-25  1.3795e-19  3.2762e-25  1.3795e-19  3.2770e-25  1.3796e-19  3.2786e-25  1.3797e-19  3.2852e-25  1.3814e-19  3.2999e-25  1.3858e-19  3.3144e-25  1.3886e-19  3.3338e-25  1.3907e-19  3.3647e-25  1.3929e-19  3.4179e-25  1.3960e-19  3.5117e-25  1.4008e-19  3.6785e-25  1.4092e-19  3.9762e-25  1.4240e-19  4.5083e-25  1.4501e-19  5.4629e-25  1.4965e-19  7.1846e-25  1.5791e-19  1.0317e-24  1.7265e-19
      7.00  3.2655e-25  1.5461e-19  3.2656e-25  1.5461e-19  3.2658e-25  1.5461e-19  3.2661e-25  1.5462e-19  3.2667e-25  1.5462e-19  3.2677e-25  1.5463e-19  3.2718e-25  1.5476e-19  3.2869e-25  1.5535e-19  3.2997e-25  1.5572e-19  3.3143e-25  1.5599e-19  3.3361e-25  1.5626e-19  3.3725e-25  1.5662e-19  3.4364e-25  1.5717e-19  3.5497e-25  1.5812e-19  3.7519e-25  1.5978e-19  4.1138e-25  1.6272e-19  4.7638e-25  1.6795e-19  5.9382e-25  1.7725e-19  8.0821e-25  1.9382e-19
      7.05  3.2561e-25  1.7326e-19  3.2562e-25  1.7326e-19  3.2563e-25  1.7326e-19  3.2565e-25  1.7327e-19  3.2569e-25  1.7327e-19  3.2576e-25  1.7328e-19  3.2590e-25  1.7330e-19  3.2756e-25  1.7410e-19  3.2881e-25  1.7460e-19  3.3006e-25  1.7496e-19  3.3174e-25  1.7529e-19  3.3445e-25  1.7571e-19  3.3914e-25  1.7634e-19  3.4745e-25  1.7741e-19  3.6230e-25  1.7929e-19  3.8891e-25  1.8260e-19  4.3681e-25  1.8849e-19  5.2368e-25  1.9897e-19  6.8324e-25  2.1762e-19
      7.10  3.2470e-25  1.9413e-19  3.2470e-25  1.9413e-19  3.2471e-25  1.9413e-19  3.2473e-25  1.9414e-19  3.2476e-25  1.9414e-19  3.2481e-25  1.9415e-19  3.2491e-25  1.9417e-19  3.2641e-25  1.9501e-19  3.2780e-25  1.9571e-19  3.2902e-25  1.9620e-19  3.3047e-25  1.9662e-19  3.3270e-25  1.9711e-19  3.3650e-25  1.9784e-19  3.4321e-25  1.9906e-19  3.5522e-25  2.0117e-19  3.7678e-25  2.0491e-19  4.1572e-25  2.1154e-19  4.8666e-25  2.2333e-19  6.1804e-25  2.4433e-19
      7.15  3.2379e-25  2.1747e-19  3.2379e-25  2.1747e-19  3.2380e-25  2.1748e-19  3.2382e-25  2.1748e-19  3.2384e-25  2.1749e-19  3.2388e-25  2.1750e-19  3.2396e-25  2.1752e-19  3.2524e-25  2.1833e-19  3.2686e-25  2.1932e-19  3.2813e-25  2.1997e-19  3.2948e-25  2.2051e-19  3.3141e-25  2.2111e-19  3.3463e-25  2.2195e-19  3.4029e-25  2.2334e-19  3.5041e-25  2.2573e-19  3.6863e-25  2.2994e-19  4.0158e-25  2.3741e-19  4.6182e-25  2.5068e-19  5.7387e-25  2.7432e-19
      7.20  3.2287e-25  2.4357e-19  3.2288e-25  2.4357e-19  3.2288e-25  2.4358e-19  3.2289e-25  2.4358e-19  3.2291e-25  2.4359e-19  3.2295e-25  2.4360e-19  3.2302e-25  2.4363e-19  3.2377e-25  2.4415e-19  3.2579e-25  2.4559e-19  3.2723e-25  2.4653e-19  3.2860e-25  2.4725e-19  3.3038e-25  2.4798e-19  3.3323e-25  2.4898e-19  3.3819e-25  2.5056e-19  3.4706e-25  2.5327e-19  3.6305e-25  2.5802e-19  3.9205e-25  2.6643e-19  4.4515e-25  2.8137e-19  5.4423e-25  3.0795e-19
      7.25  3.2193e-25  2.7274e-19  3.2193e-25  2.7274e-19  3.2194e-25  2.7275e-19  3.2195e-25  2.7275e-19  3.2196e-25  2.7276e-19  3.2200e-25  2.7278e-19  3.2206e-25  2.7281e-19  3.2217e-25  2.7286e-19  3.2458e-25  2.7484e-19  3.2633e-25  2.7619e-19  3.2780e-25  2.7717e-19  3.2951e-25  2.7810e-19  3.3210e-25  2.7928e-19  3.3654e-25  2.8110e-19  3.4446e-25  2.8416e-19  3.5875e-25  2.8952e-19  3.8471e-25  2.9899e-19  4.3233e-25  3.1580e-19  5.2126e-25  3.4570e-19
      7.30  3.2094e-25  3.0533e-19  3.2094e-25  3.0533e-19  3.2095e-25  3.0533e-19  3.2096e-25  3.0534e-19  3.2097e-25  3.0535e-19  3.2100e-25  3.0537e-19  3.2106e-25  3.0540e-19  3.2115e-25  3.0546e-19  3.2318e-25  3.0733e-19  3.2536e-25  3.0929e-19  3.2703e-25  3.1066e-19  3.2876e-25  3.1185e-19  3.3119e-25  3.1325e-19  3.3526e-25  3.1534e-19  3.4249e-25  3.1881e-19  3.5557e-25  3.2485e-19  3.7939e-25  3.3551e-19  4.2316e-25  3.5442e-19  5.0500e-25  3.8803e-19
      7.35  3.1989e-25  3.4170e-19  3.1990e-25  3.4170e-19  3.1990e-25  3.4170e-19  3.1991e-25  3.4171e-19  3.1993e-25  3.4172e-19  3.1995e-25  3.4174e-19  3.2000e-25  3.4178e-19  3.2009e-25  3.4185e-19  3.2159e-25  3.4340e-19  3.2433e-25  3.4622e-19  3.2627e-25  3.4810e-19  3.2808e-25  3.4963e-19  3.3045e-25  3.5132e-19  3.3428e-25  3.5373e-19  3.4105e-25  3.5768e-19  3.5331e-25  3.6448e-19  3.7570e-25  3.7647e-19  4.1691e-25  3.9773e-19  4.9408e-25  4.3551e-19
      7.40  3.1877e-25  3.8227e-19  3.1878e-25  3.8228e-19  3.1878e-25  3.8228e-19  3.1879e-25  3.8229e-19  3.1880e-25  3.8230e-19  3.1883e-25  3.8232e-19  3.1887e-25  3.8237e-19  3.1896e-25  3.8244e-19  3.1975e-25  3.8334e-19  3.2322e-25  3.8741e-19  3.2554e-25  3.9002e-19  3.2752e-25  3.9201e-19  3.2988e-25  3.9405e-19  3.3355e-25  3.9683e-19  3.3999e-25  4.0129e-19  3.5166e-25  4.0896e-19  3.7303e-25  4.2244e-19  4.1247e-25  4.4632e-19  4.8646e-25  4.8877e-19
      7.45  3.1756e-25  4.2750e-19  3.1756e-25  4.2751e-19  3.1756e-25  4.2751e-19  3.1757e-25  4.2752e-19  3.1759e-25  4.2753e-19  3.1761e-25  4.2756e-19  3.1765e-25  4.2761e-19  3.1774e-25  4.2769e-19  3.1938e-25  4.2986e-19  3.2291e-25  4.3454e-19  3.2525e-25  4.3753e-19  3.2719e-25  4.3980e-19  3.2944e-25  4.4211e-19  3.3290e-25  4.4524e-19  3.3892e-25  4.5026e-19  3.4989e-25  4.5887e-19  3.7002e-25  4.7401e-19  4.0724e-25  5.0084e-19  4.7708e-25  5.4851e-19
      7.50  3.1623e-25  4.7787e-19  3.1623e-25  4.7787e-19  3.1624e-25  4.7788e-19  3.1624e-25  4.7789e-19  3.1626e-25  4.7791e-19  3.1628e-25  4.7793e-19  3.1632e-25  4.7799e-19  3.1640e-25  4.7808e-19  3.1904e-25  4.8203e-19  3.2264e-25  4.8740e-19  3.2501e-25  4.9083e-19  3.2693e-25  4.9341e-19  3.2911e-25  4.9603e-19  3.3239e-25  4.9956e-19  3.3812e-25  5.0520e-19  3.4857e-25  5.1488e-19  3.6782e-25  5.3188e-19  4.0350e-25  5.6201e-19  4.7052e-25  6.1553e-19
      7.55  3.1477e-25  5.3391e-19  3.1477e-25  5.3391e-19  3.1477e-25  5.3392e-19  3.1478e-25  5.3393e-19  3.1479e-25  5.3394e-19  3.1482e-25  5.3398e-19  3.1486e-25  5.3403e-19  3.1493e-25  5.3414e-19  3.1870e-25  5.4049e-19  3.2238e-25  5.4667e-19  3.2478e-25  5.5060e-19  3.2670e-25  5.5356e-19  3.2883e-25  5.5652e-19  3.3199e-25  5.6050e-19  3.3748e-25  5.6684e-19  3.4752e-25  5.7771e-19  3.6612e-25  5.9680e-19  4.0072e-25  6.3063e-19  4.6588e-25  6.9072e-19
      7.60  3.1359e-25  5.9700e-19  3.1359e-25  5.9701e-19  3.1359e-25  5.9701e-19  3.1360e-25  5.9703e-19  3.1361e-25  5.9705e-19  3.1364e-25  5.9708e-19  3.1368e-25  5.9715e-19  3.1375e-25  5.9726e-19  3.1834e-25  6.0598e-19  3.2212e-25  6.1312e-19  3.2457e-25  6.1764e-19  3.2649e-25  6.2102e-19  3.2858e-25  6.2438e-19  3.3161e-25  6.2887e-19  3.3683e-25  6.3600e-19  3.4637e-25  6.4820e-19  3.6405e-25  6.6964e-19  3.9699e-25  7.0762e-19  4.5902e-25  7.7508e-19
      7.65  3.1350e-25  6.6985e-19  3.1350e-25  6.6985e-19  3.1350e-25  6.6986e-19  3.1351e-25  6.6987e-19  3.1352e-25  6.6990e-19  3.1354e-25  6.6994e-19  3.1358e-25  6.7001e-19  3.1365e-25  6.7014e-19  3.1795e-25  6.7929e-19  3.2185e-25  6.8757e-19  3.2436e-25  6.9280e-19  3.2630e-25  6.9668e-19  3.2836e-25  7.0050e-19  3.3130e-25  7.0557e-19  3.3629e-25  7.1359e-19  3.4537e-25  7.2730e-19  3.6222e-25  7.5137e-19  3.9364e-25  7.9400e-19  4.5279e-25  8.6973e-19
      7.70  3.1342e-25  7.5158e-19  3.1342e-25  7.5159e-19  3.1342e-25  7.5159e-19  3.1343e-25  7.5161e-19  3.1344e-25  7.5163e-19  3.1346e-25  7.5168e-19  3.1350e-25  7.5176e-19  3.1357e-25  7.5191e-19  3.1749e-25  7.6127e-19  3.2155e-25  7.7094e-19  3.2414e-25  7.7704e-19  3.2612e-25  7.8152e-19  3.2816e-25  7.8589e-19  3.3103e-25  7.9161e-19  3.3583e-25  8.0064e-19  3.4451e-25  8.1604e-19  3.6060e-25  8.4307e-19  3.9061e-25  8.9093e-19  4.4709e-25  9.7593e-19
      7.75  3.1335e-25  8.4329e-19  3.1335e-25  8.4329e-19  3.1336e-25  8.4330e-19  3.1336e-25  8.4332e-19  3.1337e-25  8.4335e-19  3.1339e-25  8.4340e-19  3.1343e-25  8.4349e-19  3.1350e-25  8.4365e-19  3.1692e-25  8.5282e-19  3.2119e-25  8.6425e-19  3.2390e-25  8.7141e-19  3.2593e-25  8.7663e-19  3.2798e-25  8.8164e-19  3.3079e-25  8.8812e-19  3.3544e-25  8.9829e-19  3.4377e-25  9.1560e-19  3.5917e-25  9.4595e-19  3.8789e-25  9.9968e-19  4.4190e-25  1.0951e-18
      7.80  3.1329e-25  9.4618e-19  3.1329e-25  9.4619e-19  3.1330e-25  9.4620e-19  3.1330e-25  9.4622e-19  3.1331e-25  9.4625e-19  3.1334e-25  9.4631e-19  3.1337e-25  9.4641e-19  3.1344e-25  9.4659e-19  3.1620e-25  9.5488e-19  3.2074e-25  9.6855e-19  3.2361e-25  9.7709e-19  3.2572e-25  9.8323e-19  3.2780e-25  9.8901e-19  3.3058e-25  9.9638e-19  3.3510e-25  1.0078e-18  3.4314e-25  1.0273e-18  3.5793e-25  1.0614e-18  3.8548e-25  1.1217e-18  4.3723e-25  1.2288e-18
      7.85  3.1324e-25  1.0616e-18  3.1324e-25  1.0616e-18  3.1325e-25  1.0616e-18  3.1325e-25  1.0617e-18  3.1326e-25  1.0617e-18  3.1328e-25  1.0618e-18  3.1332e-25  1.0619e-18  3.1339e-25  1.0621e-18  3.1526e-25  1.0684e-18  3.2018e-25  1.0850e-18  3.2326e-25  1.0953e-18  3.2549e-25  1.1026e-18  3.2761e-25  1.1094e-18  3.3038e-25  1.1178e-18  3.3480e-25  1.1307e-18  3.4260e-25  1.1526e-18  3.5687e-25  1.1909e-18  3.8337e-25  1.2586e-18  4.3309e-25  1.3788e-18
      7.90  3.1320e-25  1.1912e-18  3.1320e-25  1.1912e-18  3.1320e-25  1.1912e-18  3.1321e-25  1.1912e-18  3.1322e-25  1.1913e-18  3.1324e-25  1.1913e-18  3.1328e-25  1.1915e-18  3.1334e-25  1.1917e-18  3.1457e-25  1.1963e-18  3.1976e-25  1.2160e-18  3.2300e-25  1.2282e-18  3.2531e-25  1.2367e-18  3.2746e-25  1.2445e-18  3.3021e-25  1.2540e-18  3.3455e-25  1.2686e-18  3.4212e-25  1.2932e-18  3.5587e-25  1.3362e-18  3.8132e-25  1.4122e-18  4.2896e-25  1.5472e-18
      7.95  3.1316e-25  1.3365e-18  3.1316e-25  1.3365e-18  3.1317e-25  1.3365e-18  3.1317e-25  1.3366e-18  3.1318e-25  1.3366e-18  3.1320e-25  1.3367e-18  3.1324e-25  1.3368e-18  3.1331e-25  1.3371e-18  3.1374e-25  1.3389e-18  3.1926e-25  1.3624e-18  3.2269e-25  1.3769e-18  3.2510e-25  1.3870e-18  3.2730e-25  1.3960e-18  3.3005e-25  1.4069e-18  3.3432e-25  1.4233e-18  3.4169e-25  1.4510e-18  3.5499e-25  1.4993e-18  3.7947e-25  1.5846e-18  4.2506e-25  1.7361e-18
      8.00  3.1313e-25  1.4996e-18  3.1313e-25  1.4996e-18  3.1313e-25  1.4996e-18  3.1314e-25  1.4996e-18  3.1315e-25  1.4997e-18  3.1317e-25  1.4998e-18  3.1321e-25  1.5000e-18  3.1327e-25  1.5002e-18  3.1339e-25  1.5008e-18  3.1865e-25  1.5259e-18  3.2232e-25  1.5434e-18  3.2487e-25  1.5554e-18  3.2713e-25  1.5658e-18  3.2989e-25  1.5782e-18  3.3411e-25  1.5968e-18  3.4133e-25  1.6280e-18  3.5425e-25  1.6822e-18  3.7787e-25  1.7780e-18  4.2162e-25  1.9481e-18
      8.05  3.1310e-25  1.6826e-18  3.1310e-25  1.6826e-18  3.1311e-25  1.6826e-18  3.1311e-25  1.6826e-18  3.1312e-25  1.6827e-18  3.1314e-25  1.6828e-18  3.1318e-25  1.6830e-18  3.1324e-25  1.6833e-18  3.1336e-25  1.6839e-18  3.1790e-25  1.7082e-18  3.2187e-25  1.7295e-18  3.2459e-25  1.7439e-18  3.2695e-25  1.7562e-18  3.2973e-25  1.7704e-18  3.3393e-25  1.7915e-18  3.4103e-25  1.8265e-18  3.5365e-25  1.8875e-18  3.7657e-25  1.9951e-18  4.1876e-25  2.1860e-18
      8.10  3.1308e-25  1.8879e-18  3.1308e-25  1.8879e-18  3.1308e-25  1.8879e-18  3.1309e-25  1.8879e-18  3.1310e-25  1.8880e-18  3.1312e-25  1.8881e-18  3.1316e-25  1.8883e-18  3.1322e-25  1.8887e-18  3.1333e-25  1.8893e-18  3.1698e-25  1.9113e-18  3.2133e-25  1.9374e-18  3.2427e-25  1.9549e-18  3.2673e-25  1.9695e-18  3.2957e-25  1.9859e-18  3.3376e-25  2.0098e-18  3.4077e-25  2.0492e-18  3.5315e-25  2.1177e-18  3.7550e-25  2.2386e-18  4.1638e-25  2.4529e-18
      8.15  3.1306e-25  2.1182e-18  3.1306e-25  2.1182e-18  3.1306e-25  2.1183e-18  3.1307e-25  2.1183e-18  3.1308e-25  2.1184e-18  3.1310e-25  2.1185e-18  3.1313e-25  2.1187e-18  3.1320e-25  2.1191e-18  3.1331e-25  2.1199e-18  3.1588e-25  2.1372e-18  3.2069e-25  2.1696e-18  3.2388e-25  2.1911e-18  3.2650e-25  2.2084e-18  3.2940e-25  2.2274e-18  3.3360e-25  2.2546e-18  3.4055e-25  2.2991e-18  3.5274e-25  2.3761e-18  3.7461e-25  2.5118e-18  4.1439e-25  2.7524e-18
      8.20  3.1304e-25  2.3767e-18  3.1304e-25  2.3767e-18  3.1304e-25  2.3767e-18  3.1305e-25  2.3768e-18  3.1306e-25  2.3768e-18  3.1308e-25  2.3770e-18  3.1312e-25  2.3773e-18  3.1318e-25  2.3777e-18  3.1329e-25  2.3785e-18  3.1457e-25  2.3882e-18  3.1992e-25  2.4287e-18  3.2343e-25  2.4552e-18  3.2622e-25  2.4761e-18  3.2922e-25  2.4982e-18  3.3344e-25  2.5291e-18  3.4036e-25  2.5793e-18  3.5241e-25  2.6659e-18  3.7392e-25  2.8183e-18  4.1284e-25  3.0884e-18
      8.25  3.1302e-25  2.6667e-18  3.1303e-25  2.6667e-18  3.1303e-25  2.6667e-18  3.1304e-25  2.6668e-18  3.1305e-25  2.6669e-18  3.1307e-25  2.6670e-18  3.1310e-25  2.6673e-18  3.1316e-25  2.6678e-18  3.1328e-25  2.6688e-18  3.1347e-25  2.6704e-18  3.1902e-25  2.7176e-18  3.2291e-25  2.7505e-18  3.2591e-25  2.7758e-18  3.2901e-25  2.8017e-18  3.3328e-25  2.8369e-18  3.4018e-25  2.8936e-18  3.5214e-25  2.9910e-18  3.7338e-25  3.1621e-18  4.1164e-25  3.4654e-18
      8.30  3.1301e-25  2.9921e-18  3.1301e-25  2.9921e-18  3.1302e-25  2.9921e-18  3.1302e-25  2.9922e-18  3.1303e-25  2.9923e-18  3.1305e-25  2.9925e-18  3.1309e-25  2.9928e-18  3.1315e-25  2.9934e-18  3.1326e-25  2.9944e-18  3.1346e-25  2.9962e-18  3.1797e-25  3.0393e-18  3.2230e-25  3.0805e-18  3.2555e-25  3.1112e-18  3.2879e-25  3.1417e-18  3.3312e-25  3.1821e-18  3.4003e-25  3.2461e-18  3.5191e-25  3.3556e-18  3.7296e-25  3.5479e-18  4.1070e-25  3.8884e-18
      8.35  3.1300e-25  3.3571e-18  3.1300e-25  3.3572e-18  3.1301e-25  3.3572e-18  3.1301e-25  3.3573e-18  3.1302e-25  3.3574e-18  3.1304e-25  3.3576e-18  3.1308e-25  3.3580e-18  3.1314e-25  3.3586e-18  3.1325e-25  3.3598e-18  3.1345e-25  3.3618e-18  3.1676e-25  3.3973e-18  3.2159e-25  3.4490e-18  3.2513e-25  3.4867e-18  3.2853e-25  3.5227e-18  3.3295e-25  3.5690e-18  3.3988e-25  3.6415e-18  3.5172e-25  3.7647e-18  3.7261e-25  3.9807e-18  4.0995e-25  4.3630e-18
      8.40  3.1299e-25  3.7668e-18  3.1299e-25  3.7668e-18  3.1300e-25  3.7668e-18  3.1300e-25  3.7669e-18  3.1301e-25  3.7670e-18  3.1303e-25  3.7673e-18  3.1307e-25  3.7677e-18  3.1313e-25  3.7684e-18  3.1324e-25  3.7697e-18  3.1344e-25  3.7720e-18  3.1537e-25  3.7953e-18  3.2079e-25  3.8603e-18  3.2466e-25  3.9067e-18  3.2825e-25  3.9494e-18  3.3276e-25  4.0028e-18  3.3973e-25  4.0848e-18  3.5154e-25  4.2236e-18  3.7232e-25  4.4662e-18  4.0936e-25  4.8954e-18
      8.45  3.1298e-25  4.2264e-18  3.1299e-25  4.2264e-18  3.1299e-25  4.2265e-18  3.1299e-25  4.2265e-18  3.1301e-25  4.2267e-18  3.1303e-25  4.2269e-18  3.1306e-25  4.2274e-18  3.1312e-25  4.2282e-18  3.1323e-25  4.2297e-18  3.1343e-25  4.2323e-18  3.1379e-25  4.2371e-18  3.1987e-25  4.3190e-18  3.2413e-25  4.3763e-18  3.2794e-25  4.4273e-18  3.3256e-25  4.4889e-18  3.3958e-25  4.5820e-18  3.5139e-25  4.7382e-18  3.7208e-25  5.0108e-18  4.0888e-25  5.4927e-18
      8.50  3.1298e-25  4.7421e-18  3.1298e-25  4.7421e-18  3.1298e-25  4.7422e-18  3.1299e-25  4.7423e-18  3.1300e-25  4.7424e-18  3.1302e-25  4.7427e-18  3.1305e-25  4.7432e-18  3.1311e-25  4.7442e-18  3.1322e-25  4.7458e-18  3.1342e-25  4.7487e-18  3.1377e-25  4.7539e-18  3.1882e-25  4.8304e-18  3.2352e-25  4.9013e-18  3.2758e-25  4.9624e-18  3.3234e-25  5.0337e-18  3.3942e-25  5.1394e-18  3.5124e-25  5.3155e-18  3.7188e-25  5.6218e-18  4.0850e-25  6.1627e-18
