# This was generated using Cloudy10 and the columns are ordered 
# as log10 of the fraction of the metallicity to the solar metallicity
# 'h_*_Z' and 'c_*_Z' stands for cooling and heating respectively 
# at * metalicity
#
# Redshift = 2.5
# hden = 4.5
#     temp   h_-3.00_Z   c_-3.00_Z   h_-2.75_Z   c_-2.75_Z   h_-2.50_Z   c_-2.50_Z   h_-2.25_Z   c_-2.25_Z   h_-2.00_Z   c_-2.00_Z   h_-1.75_Z   c_-1.75_Z   h_-1.50_Z   c_-1.50_Z   h_-1.25_Z   c_-1.25_Z   h_-1.00_Z   c_-1.00_Z   h_-0.75_Z   c_-0.75_Z   h_-0.50_Z   c_-0.50_Z   h_-0.25_Z   c_-0.25_Z    h_0.00_Z    c_0.00_Z    h_0.25_Z    c_0.25_Z    h_0.50_Z    c_0.50_Z    h_0.75_Z    c_0.75_Z    h_1.00_Z    c_1.00_Z    h_1.25_Z    c_1.25_Z    h_1.50_Z    c_1.50_Z 
      4.00  3.6006e-28  3.9961e-26  3.6006e-28  4.0027e-26  3.6007e-28  4.0144e-26  3.6008e-28  4.0351e-26  3.6011e-28  4.0719e-26  3.6015e-28  4.1371e-26  3.6022e-28  4.253e-26  3.6035e-28  4.4592e-26  3.6057e-28  4.827e-26  3.6097e-28  5.4834e-26  3.6166e-28  6.6532e-26  3.6286e-28  8.7293e-26  3.6493e-28  1.2379e-25  3.6848e-28  1.8692e-25  3.7487e-28  2.9325e-25  3.8771e-28  4.6492e-25  4.1299e-28  7.2686e-25  4.5509e-28  1.1206e-24  5.2175e-28  1.8161e-24
      4.05  3.5663e-28  2.2659e-25  3.5664e-28  2.2672e-25  3.5666e-28  2.2693e-25  3.5669e-28  2.2731e-25  3.5674e-28  2.2799e-25  3.5684e-28  2.2918e-25  3.5701e-28  2.313e-25  3.5731e-28  2.3506e-25  3.5785e-28  2.4175e-25  3.588e-28  2.5364e-25  3.6047e-28  2.7475e-25  3.6341e-28   3.12e-25  3.6853e-28  3.7692e-25  3.7735e-28  4.876e-25  3.9228e-28  6.6896e-25  4.1657e-28  9.4748e-25  4.5211e-28  1.3333e-24  4.9706e-28  1.8292e-24  5.5743e-28  2.6898e-24
      4.10  3.3329e-28  2.5912e-24  3.3334e-28  2.5918e-24  3.3343e-28  2.5927e-24  3.3359e-28  2.5944e-24  3.3386e-28  2.5974e-24  3.3435e-28  2.6026e-24  3.3522e-28  2.612e-24  3.3676e-28  2.6286e-24  3.3951e-28  2.6585e-24  3.4438e-28  2.7111e-24  3.5299e-28  2.8045e-24  3.6817e-28  2.9698e-24  3.9475e-28  3.2609e-24  4.4069e-28  3.768e-24  5.1824e-28  4.6337e-24  6.433e-28  6.053e-24  8.269e-28  8.1969e-24  1.0443e-27  1.0883e-23  1.1768e-27  1.288e-23
      4.15  2.7462e-28  2.3434e-23  2.748e-28  2.3437e-23  2.7511e-28  2.3442e-23  2.7566e-28  2.345e-23  2.7665e-28  2.3464e-23  2.7841e-28  2.3491e-23  2.8153e-28  2.3537e-23  2.8708e-28  2.3619e-23  2.9695e-28  2.3766e-23  3.1449e-28  2.4026e-23  3.4564e-28  2.4489e-23  4.0092e-28  2.5312e-23  4.9886e-28  2.6771e-23  6.7185e-28  2.9356e-23  9.7577e-28  3.3918e-23  1.5045e-27  4.1918e-23  2.4081e-27  5.5781e-23  3.9015e-27  7.9268e-23  6.2181e-27  1.1747e-22
      4.20  1.8524e-28  8.6034e-23  1.8555e-28  8.6042e-23  1.8609e-28  8.6055e-23  1.8706e-28  8.6079e-23  1.8878e-28  8.6121e-23  1.9185e-28  8.6197e-23  1.9729e-28  8.6331e-23  2.0697e-28  8.6569e-23  2.2419e-28  8.6994e-23  2.548e-28  8.7748e-23  3.0922e-28  8.9089e-23  4.0597e-28  9.1475e-23  5.7794e-28  9.5717e-23  8.8349e-28  1.0326e-22  1.4258e-27  1.1668e-22  2.3876e-27  1.4054e-22  4.0897e-27  1.8298e-22  7.0879e-27  2.5845e-22  1.2328e-26  3.9258e-22
      4.25  1.372e-28  1.2957e-22  1.374e-28  1.2958e-22  1.3776e-28  1.296e-22  1.384e-28  1.2964e-22  1.3953e-28  1.2971e-22  1.4155e-28  1.2983e-22  1.4514e-28  1.3003e-22  1.5152e-28  1.3041e-22  1.6288e-28  1.3107e-22  1.8307e-28  1.3225e-22   2.19e-28  1.3434e-22  2.8294e-28  1.3807e-22  3.9681e-28  1.4469e-22  5.9982e-28  1.5649e-22  9.6243e-28  1.7751e-22  1.6123e-27  2.1501e-22  2.7833e-27  2.8209e-22  4.9135e-27  4.0258e-22  8.8503e-27  6.2075e-22
      4.30  1.8516e-28  1.2069e-22  1.8493e-28  1.2071e-22  1.8451e-28  1.2073e-22  1.8376e-28  1.2077e-22  1.8244e-28  1.2085e-22  1.8008e-28  1.2099e-22  1.759e-28  1.2123e-22  1.6845e-28  1.2166e-22  1.5522e-28  1.2244e-22  1.4971e-28  1.2381e-22  2.2148e-28  1.2624e-22  3.4922e-28  1.3058e-22  5.7675e-28  1.3829e-22  9.8247e-28  1.5203e-22  1.7073e-27  1.7651e-22  3.006e-27  2.202e-22  5.3433e-27  2.9841e-22  9.5783e-27  4.3911e-22  1.7332e-26  6.9448e-22
      4.35  3.2926e-28  9.6423e-23  3.2844e-28  9.6439e-23  3.2698e-28  9.6469e-23  3.2437e-28  9.6521e-23  3.1974e-28  9.6613e-23  3.115e-28  9.6777e-23  2.9686e-28  9.7069e-23  2.7082e-28  9.7588e-23  2.2452e-28  9.8511e-23  1.8625e-28  1.0015e-22  2.9593e-28  1.0307e-22  4.9125e-28  1.0827e-22  8.3947e-28  1.1751e-22  1.4613e-27  1.3397e-22  2.5748e-27  1.633e-22  4.576e-27  2.1564e-22  8.1916e-27  3.0934e-22  1.4768e-26  4.7791e-22  2.6768e-26  7.8392e-22
      4.40  4.7404e-28  7.5924e-23  4.7267e-28  7.5946e-23  4.7024e-28  7.5983e-23  4.6591e-28  7.605e-23  4.5821e-28  7.6169e-23  4.4453e-28  7.6381e-23  4.2019e-28  7.6757e-23  3.7693e-28  7.7427e-23  3.0001e-28  7.8617e-23  2.3235e-28  8.0734e-23  3.8251e-28  8.4499e-23  6.503e-28  9.1198e-23  1.1288e-27  1.0312e-22  1.9862e-27  1.2433e-22  3.5288e-27  1.6214e-22  6.3177e-27  2.2959e-22  1.1382e-26  3.5028e-22  2.0405e-26  5.6733e-22  3.6638e-26  9.6097e-22
      4.45  4.5755e-28  6.0224e-23  4.5572e-28  6.0252e-23  4.5248e-28  6.0302e-23  4.4671e-28  6.0391e-23  4.3645e-28  6.055e-23  4.182e-28  6.0831e-23  3.8577e-28  6.1331e-23  3.2813e-28  6.222e-23  2.2571e-28  6.3802e-23  2.7886e-28  6.6615e-23  4.6835e-28  7.1618e-23  8.0788e-28  8.0519e-23  1.4189e-27  9.6354e-23  2.5244e-27  1.2454e-22  4.5355e-27  1.7476e-22  8.1532e-27  2.6436e-22  1.4524e-26  4.2469e-22  2.5841e-26  7.1292e-22  4.6112e-26  1.2354e-21
      4.50  3.3669e-28  4.7533e-23  3.3449e-28  4.757e-23  3.3057e-28  4.7637e-23  3.2361e-28  4.7755e-23  3.1123e-28  4.7965e-23  2.8922e-28  4.834e-23  2.501e-28  4.9005e-23  1.8059e-28  5.0188e-23  1.844e-28  5.2293e-23  3.0559e-28  5.6035e-23  5.2299e-28  6.2692e-23   9.15e-28  7.4532e-23  1.6267e-27  9.5601e-23  2.9284e-27  1.331e-22  5.2491e-27  1.9993e-22  9.3267e-27  3.1923e-22  1.6576e-26  5.3275e-22  2.9431e-26  9.1683e-22  5.269e-26  1.6138e-21
      4.55  2.2663e-28  3.7706e-23  2.242e-28  3.7756e-23  2.1988e-28  3.7844e-23  2.122e-28  3.8002e-23  1.9855e-28  3.8281e-23  1.7428e-28  3.8779e-23  1.3116e-28  3.9664e-23  1.0852e-28  4.1237e-23  1.7813e-28  4.4035e-23  3.029e-28  4.9012e-23  5.2774e-28  5.7863e-23  9.3612e-28  7.3609e-23  1.6856e-27  1.0163e-22  3.0194e-27  1.5151e-22  5.3824e-27  2.4042e-22  9.5928e-27  3.9915e-22    1.7e-26  6.8339e-22  3.0255e-26  1.1951e-21  5.4312e-26  2.125e-21
      4.60  1.5333e-28  3.0454e-23  1.5092e-28  3.052e-23  1.4663e-28  3.0638e-23  1.3902e-28  3.0846e-23  1.2548e-28  3.1218e-23  1.0142e-28  3.1878e-23  5.8679e-29  3.3053e-23  9.3861e-29  3.5141e-23  1.5802e-28  3.8856e-23  2.735e-28  4.5462e-23  4.8305e-28  5.7211e-23  8.6789e-28  7.8113e-23  1.5567e-27  1.1531e-22  2.7901e-27  1.8154e-22  4.9734e-27  2.996e-22  8.846e-27  5.104e-22  1.5719e-26  8.8804e-22  2.8034e-26  1.5684e-21  5.0421e-26  2.8063e-21
      4.65  1.0826e-28  2.5915e-23  1.0612e-28  2.6003e-23  1.023e-28  2.6158e-23  9.5517e-29  2.6434e-23  8.3459e-29  2.6926e-23  6.2036e-29  2.7799e-23  4.6438e-29  2.9352e-23  7.6242e-29  3.2115e-23  1.2981e-28  3.7028e-23  2.268e-28  4.5766e-23  4.0454e-28  6.1307e-23  7.2827e-28  8.8957e-23  1.3106e-27  1.3816e-22  2.3464e-27  2.2579e-22  4.2087e-27  3.8201e-22  7.5018e-27  6.6106e-22  1.3326e-26  1.1612e-21  2.3765e-26  2.0632e-21  4.2766e-26  3.7073e-21
      4.70  8.1091e-29  2.4914e-23  7.9364e-29  2.5029e-23  7.6294e-29  2.5233e-23  7.0836e-29  2.5596e-23  6.1138e-29  2.6242e-23  4.3913e-29  2.7391e-23  3.6892e-29  2.9434e-23  5.9994e-29  3.3067e-23  1.0174e-28  3.9529e-23  1.7802e-28  5.1021e-23  3.1996e-28  7.1462e-23  5.7792e-28  1.0783e-22  1.0481e-27  1.7256e-22  1.8868e-27  2.8786e-22  3.3671e-27  4.9348e-22  5.9751e-27  8.6098e-22  1.0623e-26  1.5204e-21  1.895e-26  2.7116e-21  3.4107e-26  4.8892e-21
      4.75  6.4326e-29  2.9713e-23  6.3076e-29  2.9862e-23  6.0854e-29  3.0127e-23  5.6905e-29  3.0598e-23  4.9891e-29  3.1436e-23  3.7446e-29  3.2927e-23  3.0727e-29  3.5577e-23  4.8229e-29  4.0291e-23  8.0212e-29  4.8674e-23  1.3978e-28  6.3583e-23  2.5371e-28  9.0106e-23  4.6043e-28  1.373e-22  8.2862e-28  2.213e-22  1.4808e-27  3.7097e-22  2.636e-27  6.3799e-22  4.6772e-27  1.1156e-21  8.3003e-27  1.9737e-21  1.4783e-26  3.5272e-21  2.6614e-26  6.3773e-21
      4.80  5.2628e-29  4.342e-23  5.1859e-29  4.361e-23  5.0491e-29  4.3946e-23  4.8065e-29  4.4546e-23  4.3763e-29  4.5611e-23  3.6156e-29  4.7505e-23  2.8116e-29  5.0874e-23  4.1889e-29  5.6865e-23  6.7719e-29  6.7521e-23  1.1784e-28  8.6472e-23  2.131e-28  1.2019e-22  3.7889e-28  1.8018e-22  6.7356e-28  2.8699e-22  1.2011e-27  4.7732e-22  2.1326e-27  8.1704e-22  3.7754e-27  1.4251e-21  6.6998e-27  2.5189e-21  1.1929e-26  4.5033e-21  2.148e-26  8.1561e-21
      4.85  4.1949e-29  6.4769e-23  4.1664e-29  6.5004e-23  4.1159e-29  6.5422e-23  4.0271e-29  6.6165e-23  3.8714e-29  6.7486e-23  3.6024e-29  6.9835e-23  3.1483e-29  7.4012e-23  3.995e-29  8.144e-23  6.3679e-29  9.4652e-23  1.0979e-28  1.1815e-22  1.9274e-28  1.5996e-22  3.3768e-28  2.3436e-22  5.9871e-28  3.6683e-22  1.0601e-27  6.0293e-22  1.8718e-27  1.0245e-21  3.2981e-27  1.7795e-21  5.8094e-27  3.1391e-21  1.0257e-26   5.61e-21  1.8336e-26  1.0172e-20
      4.90  3.0983e-29  8.0629e-23  3.1183e-29  8.091e-23  3.1542e-29  8.1411e-23  3.2198e-29  8.2301e-23  3.3414e-29  8.3884e-23  3.5736e-29  8.6699e-23  4.0365e-29  9.1704e-23  5.0132e-29  1.0061e-22  7.1055e-29  1.1644e-22  1.1373e-28  1.446e-22  1.9614e-28  1.947e-22  3.4455e-28  2.8386e-22  6.1058e-28  4.4262e-22  1.0675e-27  7.2562e-22  1.8529e-27  1.231e-21  3.2031e-27  2.1364e-21   5.54e-27  3.7678e-21  9.5757e-27  6.736e-21  1.6857e-26  1.2226e-20
      4.95  2.2235e-29  7.955e-23  2.2781e-29  7.9874e-23  2.3763e-29  8.0451e-23  2.5548e-29  8.1476e-23  2.884e-29  8.3299e-23  3.5063e-29  8.6541e-23  4.7232e-29  9.2306e-23  7.2331e-29  1.0256e-22  1.2068e-28  1.208e-22  2.0746e-28  1.5323e-22  3.6206e-28  2.1094e-22  6.3483e-28  3.1364e-22  1.102e-27  4.9652e-22  1.8959e-27  8.2252e-22  3.2532e-27  1.4048e-21  5.5978e-27  2.4482e-21  9.7132e-27  4.329e-21  1.727e-26  7.7536e-21  3.1951e-26  1.4096e-20
      5.00  1.7075e-29  6.7586e-23  1.7818e-29  6.7944e-23  1.9171e-29  6.858e-23  2.1673e-29  6.9712e-23  2.6427e-29  7.1724e-23  3.5767e-29  7.5303e-23  5.5198e-29  8.1668e-23  9.517e-29  9.2987e-23  1.7102e-28  1.1312e-22  3.1022e-28  1.4893e-22  5.4157e-28  2.1263e-22  9.3475e-28  3.2602e-22  1.5946e-27  5.2795e-22  2.6848e-27  8.8798e-22  4.4854e-27  1.5312e-21  7.5192e-27  2.6846e-21  1.2764e-26  4.7655e-21  2.2252e-26  8.5608e-21  4.0118e-26  1.561e-20
      5.05  1.466e-29  5.4064e-23  1.5464e-29  5.4432e-23  1.6982e-29  5.5086e-23  1.9958e-29  5.625e-23  2.6089e-29  5.8319e-23  3.9221e-29  6.1998e-23  6.5689e-29  6.8542e-23  1.241e-28  8.0179e-23  2.4161e-28  1.0088e-22  4.2215e-28  1.3769e-22  7.1841e-28  2.0319e-22  1.198e-27  3.1978e-22  1.961e-27  5.2745e-22  3.1462e-27  8.9781e-22  5.0296e-27  1.5598e-21  8.1255e-27  2.7477e-21  1.3473e-26  4.894e-21  2.3073e-26  8.8178e-21  4.053e-26  1.6134e-20
      5.10  1.3673e-29  4.2678e-23  1.4531e-29  4.3036e-23  1.6313e-29  4.3672e-23  2.0277e-29  4.4805e-23  2.956e-29  4.6818e-23  4.6918e-29  5.0399e-23  8.6738e-29  5.6766e-23  1.8002e-28  6.8091e-23  3.2944e-28  8.8232e-23  5.5965e-28  1.2406e-22  9.1274e-28  1.8781e-22  1.4437e-27  3.0129e-22  2.2279e-27  5.0345e-22  3.3838e-27  8.6408e-22  5.1702e-27  1.509e-21  7.9561e-27  2.6673e-21  1.2615e-26  4.7631e-21  2.1025e-26  8.6042e-21  3.6639e-26  1.5796e-20
      5.15  1.3402e-29  3.394e-23  1.4444e-29  3.4296e-23  1.6942e-29  3.4928e-23  2.3391e-29  3.6053e-23  3.6113e-29  3.8054e-23  6.2986e-29  4.1611e-23  1.282e-28  4.7937e-23  2.5077e-28  5.9188e-23  4.3945e-28  7.9199e-23  7.1735e-28  1.148e-22  1.1069e-27  1.7814e-22  1.6547e-27  2.909e-22  2.4264e-27  4.9181e-22  3.5299e-27  8.503e-22  4.9137e-27  1.4917e-21  7.2631e-27  2.6443e-21  1.1388e-26  4.7326e-21  1.8851e-26  8.568e-21  3.2675e-26  1.5773e-20
      5.20  1.3523e-29  2.7407e-23  1.4993e-29  2.7773e-23  1.8966e-29  2.8425e-23  2.9413e-29  2.9585e-23  4.8165e-29  3.1646e-23  9.2815e-29  3.5313e-23  1.9672e-28  4.1833e-23  3.3872e-28  5.3429e-23  5.5433e-28  7.4054e-23  8.7052e-28  1.1075e-22  1.2882e-27  1.7604e-22  1.8408e-27  2.9228e-22  2.5663e-27  4.994e-22  3.2994e-27  8.6907e-22  4.5244e-27  1.5306e-21  6.6647e-27  2.7204e-21  1.0485e-26  4.8781e-21  1.7414e-26  8.8479e-21  3.0233e-26  1.6328e-20
      5.25  1.3893e-29  2.251e-23  1.617e-29  2.2887e-23  2.2709e-29  2.3559e-23  3.9061e-29  2.4753e-23  7.2956e-29  2.6877e-23  1.3411e-28  3.0653e-23  2.5447e-28  3.7369e-23  4.1896e-28  4.9313e-23  6.4854e-28  7.0558e-23  9.7728e-28  1.0835e-22  1.4139e-27  1.7561e-22  1.9765e-27  2.9535e-22  2.428e-27  5.0876e-22  3.1653e-27  8.897e-22  4.434e-27  1.5717e-21  6.6542e-27  2.799e-21  1.0585e-26  5.0272e-21  1.7692e-26  9.1343e-21  3.086e-26  1.6896e-20
      5.30  1.4669e-29  1.8802e-23  1.8619e-29  1.9185e-23  3.0274e-29  1.9867e-23  6.0585e-29  2.1081e-23  9.8378e-29  2.3238e-23  1.686e-28  2.7075e-23  2.9602e-28  3.3898e-23  4.6614e-28  4.6034e-23  7.1273e-28  6.762e-23  1.0338e-27  1.0602e-22  1.5069e-27  1.7436e-22  1.9004e-27  2.9604e-22  2.3887e-27  5.1293e-22  3.1135e-27  9.0017e-22  4.3061e-27  1.5937e-21  6.3881e-27  2.8427e-21  9.9534e-27  5.113e-21  1.6436e-26  9.3063e-21  2.8457e-26  1.7256e-20
      5.35  1.6158e-29  1.5973e-23  2.3292e-29  1.6363e-23  4.4115e-29  1.7057e-23  7.6169e-29  1.8291e-23  1.1895e-28  2.0486e-23  1.906e-28  2.4389e-23  3.2027e-28  3.1329e-23  4.9155e-28  4.3674e-23  7.3396e-28  6.5632e-23  1.1114e-27  1.0469e-22  1.5452e-27  1.7421e-22  1.8333e-27  2.9801e-22  2.2708e-27  5.187e-22  2.9601e-27  9.1281e-22  4.1085e-27  1.619e-21  6.0052e-27  2.8915e-21  9.4068e-27  5.2075e-21  1.5572e-26  9.4937e-21  2.7033e-26  1.7647e-20
      5.40  1.7393e-29  1.3763e-23  2.7308e-29  1.4143e-23  5.1295e-29  1.4819e-23  7.9439e-29  1.602e-23  1.2504e-28  1.8157e-23  1.9179e-28  2.1957e-23  3.097e-28  2.8715e-23  5.0741e-28  4.0734e-23  7.6966e-28  6.2113e-23  1.2047e-27  1.0015e-22  1.4834e-27  1.6784e-22  1.7788e-27  2.884e-22  2.2449e-27  5.0334e-22  2.9743e-27  8.8729e-22  4.1877e-27  1.5756e-21  6.1641e-27  2.8169e-21  9.6228e-27  5.0794e-21  1.5929e-26  9.2765e-21  2.7648e-26  1.729e-20
      5.45  1.5917e-29  1.1969e-23  2.3523e-29  1.2287e-23  4.4981e-29  1.2853e-23  6.9228e-29  1.386e-23  1.0723e-28  1.5651e-23  1.7398e-28  1.8835e-23  2.8301e-28  2.4499e-23  4.6453e-28  3.4571e-23  7.8734e-28  5.2486e-23  1.264e-27  8.436e-23  1.4953e-27  1.4109e-22  1.8446e-27  2.4214e-22  2.3672e-27  4.2233e-22  3.0885e-27  7.4434e-22  4.2518e-27  1.3219e-21  6.1893e-27  2.3649e-21  9.5638e-27  4.2693e-21  1.5683e-26  7.8137e-21  2.7134e-26  1.4615e-20
      5.50  1.3231e-29  1.0473e-23  1.6322e-29  1.0703e-23  2.516e-29  1.1111e-23   4.99e-29  1.1837e-23  8.4507e-29  1.3127e-23  1.4313e-28  1.5422e-23  2.5006e-28  1.9504e-23  4.3961e-28  2.6764e-23  7.5943e-28  3.9676e-23  1.212e-27  6.265e-23  1.5706e-27  1.0354e-22  1.9695e-27  1.7639e-22  2.4106e-27  3.0632e-22  3.0636e-27  5.3859e-22  4.0143e-27  9.5551e-22  5.6045e-27  1.7091e-21  8.3992e-27  3.088e-21  1.345e-26  5.6622e-21  2.287e-26  1.0627e-20
      5.55  1.1958e-29  9.3072e-24  1.348e-29  9.4797e-24  1.7564e-29  9.7866e-24  2.9747e-29  1.0332e-23  6.1424e-29  1.1302e-23  1.2496e-28  1.3028e-23  2.407e-28  1.6096e-23  4.4756e-28  2.1554e-23  8.0679e-28  3.1573e-23  1.2094e-27  4.8533e-23  1.6026e-27  7.928e-23  1.9677e-27  1.3406e-22  2.3466e-27  2.3177e-22  2.8272e-27  4.0649e-22  3.5878e-27  7.2024e-22  4.821e-27  1.2878e-21  6.9914e-27  2.3275e-21  1.0934e-26  4.2726e-21  1.8247e-26  8.0356e-21
      5.60  1.1456e-29  8.4107e-24  1.302e-29  8.5605e-24  1.7513e-29  8.8268e-24  3.0592e-29  9.3003e-24  5.5525e-29  1.0142e-23  1.1477e-28  1.164e-23  2.4655e-28  1.4303e-23  4.7035e-28  1.9039e-23  8.6852e-28  2.7463e-23  1.2029e-27  4.2455e-23  1.5699e-27  6.9141e-23  1.8149e-27  1.1669e-22  2.0955e-27  2.0151e-22  2.4934e-27  3.5321e-22  3.1222e-27  6.2567e-22  4.1395e-27  1.1188e-21  5.9218e-27  2.0227e-21  9.153e-27  3.7159e-21  1.5141e-26  6.9977e-21
      5.65  1.1103e-29  7.7112e-24  1.3121e-29  7.8542e-24  1.9003e-29  8.1084e-24  3.5247e-29  8.5604e-24  6.6991e-29  9.3642e-24  1.3095e-28  1.0794e-23  2.5964e-28  1.3336e-23  5.0314e-28  1.7856e-23  9.1087e-28  2.5898e-23  1.2357e-27  4.061e-23  1.5126e-27  6.5684e-23  1.684e-27  1.1107e-22  1.9302e-27  1.9205e-22  2.2757e-27  3.3689e-22  2.8508e-27  5.9709e-22  3.7799e-27  1.0681e-21  5.416e-27  1.9321e-21  8.382e-27  3.5517e-21  1.3898e-26  6.6953e-21
      5.70  1.0758e-29  7.1546e-24  1.3245e-29  7.2945e-24  2.0512e-29  7.5433e-24  4.1505e-29  7.9857e-24  7.5855e-29  8.7724e-24  1.4833e-28  1.0171e-23  2.9339e-28  1.2659e-23  5.6734e-28  1.7084e-23  9.0198e-28  2.4955e-23  1.1358e-27  3.8962e-23  1.3564e-27  6.3899e-23  1.5293e-27  1.0833e-22  1.7485e-27  1.876e-22  2.0693e-27  3.2939e-22  2.6132e-27  5.8417e-22  3.5297e-27  1.0455e-21  5.1402e-27  1.8921e-21  8.0694e-27  3.4805e-21  1.3546e-26  6.5672e-21
      5.75  1.0147e-29  6.6477e-24  1.2853e-29  6.7809e-24  2.0683e-29  7.0178e-24  4.0978e-29  7.4391e-24  8.1503e-29  8.1882e-24  1.6256e-28  9.5202e-24  3.3463e-28  1.1889e-23  6.0417e-28  1.6102e-23  8.0048e-28  2.3598e-23  9.8156e-28  3.6938e-23  1.1256e-27  6.0685e-23  1.2969e-27   1.03e-22  1.5068e-27  1.7849e-22  1.8339e-27  3.1355e-22  2.3729e-27  5.5627e-22  3.2924e-27  9.9593e-22  4.9361e-27  1.8032e-21  7.9427e-27  3.3192e-21  1.3602e-26  6.2695e-21
      5.80  9.4868e-30  6.2572e-24  1.2179e-29  6.3795e-24  1.9775e-29  6.5971e-24  4.0015e-29  6.984e-24  8.5197e-29  7.672e-24  1.8245e-28  8.8954e-24  3.4496e-28  1.1071e-23  5.4132e-28  1.4941e-23  6.857e-28  2.1827e-23  8.3604e-28  3.408e-23  9.4863e-28  5.5895e-23  1.1315e-27  9.4762e-23  1.3534e-27  1.6412e-22  1.6874e-27  2.8821e-22  2.2582e-27  5.1127e-22  3.2504e-27  9.1548e-22  5.0272e-27  1.6582e-21  8.3086e-27  3.0544e-21  1.4542e-26  5.776e-21
      5.85  9.1082e-30   5.96e-24  1.2163e-29  6.0754e-24  2.0471e-29  6.2805e-24  4.1942e-29  6.6453e-24  9.3205e-29  7.294e-24  2.0198e-28  8.4474e-24  3.2308e-28  1.0499e-23  4.7863e-28  1.4149e-23  6.0214e-28  2.0642e-23  7.5326e-28  3.2197e-23  8.8633e-28  5.2768e-23  1.0465e-27  8.9422e-23  1.2873e-27  1.5483e-22  1.6632e-27  2.7188e-22  2.3159e-27  4.8232e-22  3.4606e-27  8.6382e-22  5.5328e-27  1.5652e-21  9.3746e-27  2.8852e-21  1.6726e-26  5.4624e-21
      5.90  8.8434e-30  5.7435e-24  1.2558e-29  5.8587e-24  2.242e-29  6.0636e-24  4.7191e-29  6.4278e-24  1.0467e-28  7.0754e-24  2.0622e-28  8.2272e-24  3.2633e-28  1.0276e-23  4.3487e-28  1.3921e-23  5.7482e-28  2.0404e-23  7.0335e-28  3.1943e-23  8.4227e-28  5.2484e-23  1.0087e-27  8.9088e-23  1.2838e-27  1.5441e-22  1.7452e-27  2.7132e-22  2.5384e-27  4.8156e-22  3.9519e-27  8.6281e-22  6.5254e-27  1.5642e-21  1.1323e-26  2.8854e-21  2.0569e-26  5.4689e-21
      5.95  8.4725e-30  5.5889e-24  1.259e-29  5.7065e-24  2.3499e-29  5.9156e-24  5.0931e-29  6.2874e-24  1.1283e-28  6.9486e-24  2.1494e-28  8.1244e-24  3.3973e-28  1.0318e-23  4.4542e-28  1.3936e-23  5.673e-28  2.0761e-23  6.7759e-28  3.2334e-23  8.3472e-28  5.3305e-23  1.0206e-27  9.0675e-23  1.3263e-27  1.5737e-22  1.8614e-27  2.7675e-22  2.8022e-27  4.9147e-22  4.483e-27  8.8099e-22  7.5578e-27  1.598e-21  1.3311e-26  2.9501e-21  2.4457e-26  5.5978e-21
      6.00  7.8267e-30  5.4797e-24  1.1773e-29  5.5977e-24  2.2421e-29  5.8075e-24  5.0674e-29  6.2424e-24  1.1318e-28  6.8439e-24  2.3023e-28  8.0236e-24  3.4605e-28  1.0122e-23  4.5363e-28  1.3855e-23  5.6505e-28  2.0496e-23  6.9495e-28  3.2315e-23  8.5653e-28  5.3356e-23  1.0916e-27  9.0853e-23  1.4739e-27  1.5778e-22  2.145e-27  2.7759e-22  3.3398e-27  4.9314e-22  5.5002e-27  8.8433e-22  9.4599e-27  1.6049e-21  1.6894e-26  2.9652e-21  3.1368e-26  5.6335e-21
      6.05  7.0164e-30  5.4228e-24  1.0341e-29  5.5375e-24  1.9313e-29  5.7414e-24  4.3742e-29  6.1039e-24  1.0287e-28  6.7485e-24  2.3064e-28  7.8945e-24  3.5405e-28  9.9334e-24  4.6549e-28  1.356e-23  5.8006e-28  2.0013e-23  7.1058e-28  3.1496e-23  8.7584e-28  5.1942e-23  1.1449e-27  8.8379e-23  1.6021e-27  1.5342e-22  2.409e-27  2.6987e-22  3.8532e-27  4.7943e-22  6.4672e-27  8.5993e-22  1.1269e-26  1.5614e-21  2.031e-26  2.8871e-21  3.7979e-26  5.4927e-21
      6.10  6.3325e-30  5.3977e-24  9.0805e-30  5.5064e-24  1.6591e-29  5.6998e-24  3.6699e-29  6.0436e-24  8.7234e-29  6.6548e-24  2.0036e-28  7.7416e-24  3.3241e-28  9.6748e-24  4.5627e-28  1.3114e-23  5.6244e-28  1.9233e-23  6.8199e-28  3.0122e-23  8.6919e-28  4.951e-23  1.1706e-27  8.4063e-23  1.697e-27  1.4575e-22  2.635e-27  2.5621e-22  4.3138e-27  4.5504e-22  7.3547e-27  8.1624e-22  1.2954e-26  1.4826e-21  2.3518e-26  2.7438e-21  4.4232e-26  5.2274e-21
      6.15  5.9904e-30    5.4e-24  8.5099e-30  5.5009e-24  1.5067e-29  5.6802e-24  3.2068e-29  5.9991e-24  7.3089e-29  6.5661e-24  1.5247e-28  7.5742e-24  2.5025e-28  9.3673e-24  3.8329e-28  1.2557e-23  4.8948e-28  1.8232e-23  6.176e-28  2.8331e-23  8.1852e-28  4.6314e-23  1.1454e-27  7.8365e-23  1.725e-27  1.3559e-22  2.7564e-27  2.3807e-22  4.6113e-27  4.226e-22  7.9749e-27  7.5799e-22  1.4173e-26  1.3773e-21  2.589e-26  2.5508e-21  4.8932e-26  4.8665e-21
      6.20  5.7696e-30  5.4243e-24  8.2385e-30  5.5144e-24  1.4302e-29  5.6746e-24  2.8901e-29  5.9594e-24  5.8199e-29  6.4659e-24  1.1265e-28  7.3665e-24  1.8162e-28  8.9683e-24  2.7203e-28  1.1817e-23  3.808e-28  1.6886e-23  5.1904e-28  2.5907e-23  7.2148e-28  4.1969e-23  1.067e-27  7.0599e-23  1.6681e-27  1.2172e-22  2.7434e-27  2.1329e-22  4.6762e-27  3.7822e-22  8.1858e-27  6.7813e-22  1.466e-26  1.2324e-21  2.6923e-26  2.2842e-21  5.1097e-26  4.3641e-21
      6.25  5.2702e-30  5.4663e-24  7.5068e-30  5.5421e-24  1.2716e-29  5.6769e-24  2.324e-29  5.9167e-24  4.4069e-29  6.3429e-24  8.201e-29  7.1009e-24  1.2791e-28  8.4488e-24  1.9351e-28  1.0846e-23  2.816e-28  1.5111e-23  4.0838e-28  2.2701e-23  6.0666e-28  3.6217e-23  9.4596e-28  6.0308e-23  1.5395e-27  1.0333e-22  2.596e-27  1.8041e-22  4.4931e-27  3.1928e-22  7.9407e-27  5.7195e-22  1.4309e-26  1.0394e-21  2.639e-26  1.9277e-21  5.0269e-26  3.6883e-21
      6.30  4.609e-30  5.5497e-24  6.3579e-30  5.6102e-24  9.9211e-30  5.7178e-24  1.7833e-29  5.9091e-24  3.176e-29  6.2492e-24  5.772e-29  6.854e-24  8.5534e-29  7.9296e-24  1.3436e-28  9.8424e-24  2.0875e-28  1.3245e-23  3.1542e-28  1.9301e-23  4.9942e-28  3.0084e-23  8.1234e-28  4.9305e-23  1.3663e-27  8.3634e-23  2.3494e-27  1.4515e-22  4.117e-27  2.5602e-22  7.331e-27  4.5787e-22  1.3274e-26  8.3164e-22  2.4567e-26  1.5432e-21  4.6943e-26  2.9567e-21
      6.35  4.0095e-30  5.6562e-24  5.1892e-30  5.7041e-24  7.8146e-30  5.7892e-24  1.2899e-29  5.9406e-24  2.3414e-29  6.2098e-24  4.2094e-29  6.6884e-24  5.8892e-29  7.5396e-24  9.0191e-29  9.0534e-24  1.4727e-28  1.1746e-23  2.4733e-28  1.6538e-23  4.0905e-28  2.5071e-23  6.9499e-28  4.0282e-23  1.1962e-27  6.7452e-23  2.0893e-27  1.1615e-22  3.6998e-27  2.0395e-22  6.6307e-27  3.6389e-22  1.2056e-26  6.6035e-22  2.2383e-26  1.2256e-21  4.2894e-26  2.3513e-21
      6.40  3.4699e-30  5.7852e-24  4.4628e-30  5.824e-24  6.432e-30  5.8932e-24  9.9814e-30  6.0161e-24  1.6911e-29  6.2347e-24  3.1302e-29  6.6233e-24  4.4165e-29  7.3144e-24  6.6865e-29  8.5437e-24  1.1085e-28  1.073e-23  1.9531e-28  1.4621e-23  3.4749e-28  2.155e-23  6.1573e-28  3.3902e-23  1.0892e-27  5.5967e-23  1.9358e-27  9.5522e-23  3.4656e-27  1.6686e-22  6.2522e-27  2.969e-22  1.1418e-26  5.3819e-22  2.1268e-26  9.9898e-22  4.0886e-26  1.9187e-21
      6.45  2.9917e-30  5.9332e-24  3.9397e-30  5.9653e-24  5.4909e-30  6.0225e-24  8.3712e-30  6.1242e-24  1.3384e-29  6.305e-24  2.3269e-29  6.6264e-24  3.7412e-29  7.1981e-24  5.7611e-29  8.2148e-24  9.7387e-29  1.0023e-23  1.7437e-28  1.3241e-23  3.1904e-28  1.8972e-23  5.8119e-28  2.9188e-23  1.051e-27  4.744e-23  1.8982e-27  8.0164e-23  3.4256e-27  1.3921e-22  6.2128e-27  2.4688e-22  1.1387e-26  4.4685e-22  2.1272e-26  8.293e-22  4.1011e-26  1.5943e-21
      6.50  2.4836e-30  6.0979e-24  3.3697e-30  6.1246e-24  4.5832e-30  6.1722e-24  6.8806e-30  6.2567e-24  1.0794e-29  6.407e-24  1.8577e-29  6.6742e-24  2.9039e-29  7.1494e-24  4.6496e-29  7.9946e-24  7.9862e-29  9.4979e-24  1.4502e-28  1.2173e-23  2.7047e-28  1.6936e-23  5.0584e-28  2.5429e-23  9.3451e-28  4.0601e-23  1.7098e-27  6.7809e-23  3.1146e-27  1.1691e-22  5.6823e-27  2.065e-22  1.0455e-26  3.7301e-22  1.9589e-26  6.9185e-22  3.7866e-26  1.3308e-21
      6.55  2.0592e-30  6.309e-24  2.8229e-30  6.3316e-24  3.7718e-30  6.3718e-24  5.5467e-30  6.4434e-24  8.9153e-30  6.5706e-24  1.5279e-29  6.7969e-24  2.4393e-29  7.1993e-24  3.9096e-29  7.9149e-24  6.8879e-29  9.1879e-24  1.2762e-28  1.1453e-23  2.4249e-28  1.5487e-23  4.6156e-28  2.2678e-23  8.6841e-28  3.5527e-23  1.6112e-27  5.8571e-23  2.9608e-27  1.0017e-22  5.4319e-27  1.7609e-22  1.0034e-26  3.1727e-22  1.8854e-26  5.8788e-22  3.6537e-26  1.1309e-21
      6.60  1.7128e-30  6.5377e-24  2.3248e-30  6.5576e-24  3.1305e-30  6.5929e-24  4.5503e-30  6.6557e-24  7.4385e-30  6.7673e-24  1.3254e-29  6.9658e-24  2.1702e-29  7.3187e-24  3.5165e-29  7.9465e-24  6.3071e-29  9.0632e-24  1.1961e-28  1.1051e-23  2.3108e-28  1.4589e-23  4.4592e-28  2.0899e-23  8.4941e-28  3.2173e-23  1.5934e-27  5.2393e-23  2.9542e-27  8.8897e-23  5.4509e-27  1.5554e-22  1.0107e-26  2.7954e-22  1.9044e-26  5.1738e-22  3.6987e-26  9.9514e-22
      6.65  1.4261e-30  6.7831e-24  1.8839e-30  6.8012e-24  2.5917e-30  6.8335e-24  3.7172e-30  6.8907e-24  6.1416e-30  6.9926e-24  1.1459e-29  7.1737e-24  1.919e-29  7.4958e-24  3.186e-29  8.0687e-24  5.8732e-29  9.0879e-24  1.1407e-28  1.0902e-23  2.2414e-28  1.4131e-23  4.3787e-28  1.989e-23  8.4286e-28  3.018e-23  1.5963e-27  4.8638e-23  2.9827e-27  8.1964e-23  5.5344e-27  1.4282e-22   1.03e-26  2.5609e-22  1.9458e-26  4.7349e-22  3.787e-26  9.1055e-22
      6.70  1.1865e-30  7.044e-24  1.5052e-30  7.0611e-24  2.0702e-30  7.0915e-24  3.1284e-30  7.1456e-24  5.2862e-30  7.2419e-24  1.0525e-29  7.413e-24  1.9358e-29  7.7173e-24  3.4193e-29  8.2586e-24  6.5786e-29  9.2216e-24  1.3048e-28  1.0935e-23  2.5828e-28  1.3987e-23  5.054e-28  1.9429e-23  9.7389e-28  2.9153e-23  1.8464e-27  4.6596e-23  3.4562e-27  7.8094e-23  6.4256e-27  1.3562e-22  1.1978e-26  2.4274e-22  2.2658e-26  4.4841e-22  4.4154e-26  8.6222e-22
      6.75  9.8844e-31  7.3192e-24  1.2025e-30  7.3359e-24  1.7009e-30  7.3654e-24  2.6475e-30  7.4179e-24  4.8454e-30  7.5112e-24  1.0552e-29  7.6772e-24  2.0587e-29  7.9725e-24  3.8495e-29  8.4976e-24  7.6293e-29  9.4317e-24  1.5277e-28  1.1094e-23  3.0177e-28  1.4055e-23  5.8875e-28  1.9334e-23  1.1305e-27  2.8767e-23  2.1399e-27  4.5691e-23  4.0036e-27  7.6253e-23  7.4472e-27  1.3209e-22  1.3894e-26  2.3606e-22  2.6306e-26  4.3581e-22  5.1312e-26  8.3795e-22
      6.80  8.274e-31  7.6481e-24  9.7037e-31  7.6646e-24  1.386e-30  7.6938e-24  2.2811e-30  7.7458e-24  4.4762e-30  7.8383e-24  1.0029e-29  8.0027e-24  2.1374e-29  8.2952e-24  4.0958e-29  8.8153e-24  8.2371e-29  9.7407e-24  1.6477e-28  1.1387e-23  3.2433e-28  1.432e-23  6.3089e-28  1.955e-23   1.21e-27  2.8896e-23  2.2897e-27  4.5663e-23  4.2873e-27  7.5945e-23  7.9865e-27  1.3127e-22  1.4923e-26  2.3434e-22  2.8291e-26  4.3241e-22  5.5247e-26  8.314e-22
      6.85  6.9723e-31  7.9947e-24  7.9585e-31  8.0112e-24  1.0972e-30  8.0407e-24  1.9204e-30  8.0931e-24  3.9088e-30  8.1862e-24  9.5035e-30  8.3517e-24  2.253e-29  8.6462e-24  4.4659e-29  9.1699e-24  9.1894e-29  1.0102e-23  1.8385e-28  1.176e-23  3.6279e-28  1.4712e-23  7.0483e-28  1.9978e-23  1.3505e-27  2.9389e-23  2.5529e-27  4.6272e-23  4.7777e-27  7.6768e-23  8.901e-27  1.3249e-22  1.664e-26  2.3632e-22  3.157e-26  4.3593e-22  6.1705e-26  8.3822e-22
      6.90  5.9373e-31  8.3583e-24  6.718e-31  8.3751e-24  9.0744e-31  8.4049e-24  1.5978e-30  8.4579e-24  3.6107e-30  8.5522e-24  9.6138e-30  8.7198e-24  2.4341e-29  9.0179e-24  5.0098e-29  9.5482e-24  1.0521e-28  1.0492e-23  2.1151e-28  1.217e-23  4.202e-28  1.516e-23  8.2183e-28  2.0492e-23  1.5772e-27  3.002e-23  2.979e-27  4.7116e-23  5.5663e-27  7.7997e-23  1.0358e-26  1.3444e-22  1.9355e-26  2.3961e-22  3.6722e-26  4.4188e-22  7.1802e-26  8.4974e-22
      6.95  5.1089e-31  8.7383e-24  5.8383e-31  8.7551e-24  8.0007e-31  8.7851e-24  1.4737e-30  8.8384e-24  3.5456e-30  8.9331e-24  9.5377e-30  9.1016e-24  2.4886e-29  9.4011e-24  5.1625e-29  9.934e-24  1.0671e-28  1.0882e-23  2.1371e-28  1.2569e-23  4.2919e-28  1.5573e-23  8.4555e-28  2.093e-23  1.6287e-27  3.0504e-23  3.0821e-27  4.7682e-23  5.7663e-27  7.8715e-23  1.074e-26  1.3544e-22  2.0083e-26  2.4117e-22  3.8134e-26  4.4456e-22  7.4628e-26  8.5487e-22
      7.00  4.5016e-31  9.2253e-24  5.1257e-31  9.1505e-24  7.3092e-31  9.1801e-24  1.387e-30  9.2325e-24  3.3291e-30  9.3259e-24  9.124e-30  9.4918e-24  2.5161e-29  9.7869e-24   5.22e-29  1.0312e-23  1.0477e-28  1.1245e-23  2.1272e-28  1.2907e-23  4.3158e-28  1.5865e-23  8.563e-28  2.1141e-23  1.6591e-27  3.0571e-23  3.1548e-27  4.749e-23  5.9212e-27  7.8057e-23  1.1051e-26  1.3393e-22  2.0694e-26  2.3811e-22  3.9337e-26  4.3858e-22  7.7059e-26  8.4317e-22
      7.05  3.7044e-31  9.5953e-24   4.38e-31  9.6112e-24  6.3974e-31  9.6394e-24  1.2399e-30  9.6895e-24  3.0404e-30  9.7787e-24  8.3858e-30  9.9372e-24  2.399e-29  1.0219e-23  5.1626e-29  1.072e-23  1.0474e-28  1.1612e-23  2.1387e-28  1.3199e-23  4.3723e-28  1.6024e-23  8.767e-28  2.1062e-23  1.721e-27  3.0065e-23  3.3029e-27  4.6221e-23  6.237e-27  7.541e-23  1.1684e-26  1.2877e-22  2.1929e-26  2.2828e-22  4.1747e-26  4.1983e-22  8.1877e-26  8.0659e-22
      7.10  3.0724e-31  1.0077e-23  3.6709e-31  1.0092e-23  5.4399e-31  1.0118e-23  1.0804e-30  1.0164e-23  2.7095e-30  1.0246e-23  7.6365e-30  1.0391e-23  2.2144e-29  1.065e-23  5.1114e-29  1.111e-23  1.0596e-28  1.1928e-23   2.16e-28  1.3383e-23  4.4176e-28  1.5975e-23  9.037e-28  2.0595e-23  1.8054e-27  2.8853e-23  3.5113e-27  4.3668e-23  6.6878e-27  7.0438e-23  1.2596e-26  1.1938e-22  2.3719e-26  2.1067e-22  4.5248e-26  3.8644e-22  8.8868e-26  7.4149e-22
      7.15  2.544e-31  1.058e-23  3.0581e-31  1.0593e-23  4.6044e-31  1.0616e-23  9.3513e-31  1.0656e-23  2.3982e-30  1.0728e-23  6.6767e-30  1.0856e-23  1.8916e-29  1.1083e-23  4.6477e-29  1.1487e-23  9.315e-29  1.2205e-23  1.8654e-28  1.3482e-23  3.8668e-28  1.5757e-23  8.0513e-28  1.9811e-23  1.642e-27  2.7056e-23  3.2521e-27  4.0054e-23  6.2813e-27  6.354e-23  1.1946e-26  1.0649e-22  2.2639e-26  1.8659e-22  4.3368e-26  3.4087e-22  8.541e-26  6.5263e-22
      7.20  2.0939e-31  1.1104e-23  2.5245e-31  1.1115e-23  3.8348e-31  1.1134e-23  7.8535e-31  1.1168e-23  1.9663e-30  1.1229e-23  5.4359e-30  1.1337e-23  1.4958e-29  1.1529e-23  3.7982e-29  1.187e-23  7.3518e-29  1.2478e-23  1.5043e-28  1.3558e-23  3.173e-28  1.5481e-23  6.7471e-28  1.8908e-23  1.4123e-27  2.5031e-23  2.8675e-27  3.6015e-23  5.6511e-27  5.586e-23  1.0907e-26  9.2149e-23  2.088e-26  1.5985e-22  4.0262e-26  2.9025e-22  7.9632e-26  5.5385e-22
      7.25  1.7143e-31  1.1648e-23  2.0611e-31  1.1657e-23  3.1123e-31  1.1673e-23  6.2257e-31  1.1701e-23  1.5608e-30  1.1869e-23  4.1044e-30  1.1842e-23  1.1154e-29  1.2001e-23  2.7649e-29  1.2285e-23  5.4909e-29  1.2789e-23  1.1237e-28  1.3687e-23  2.4003e-28  1.5284e-23  5.2488e-28  1.813e-23  1.1328e-27  2.3213e-23  2.3734e-27  3.2332e-23  4.8013e-27  4.8805e-23  9.4513e-27  7.8927e-23  1.8346e-26  1.3512e-22  3.5703e-26  2.4339e-22  7.1036e-26  4.6227e-22
      7.30  1.3969e-31  1.2277e-23  1.6672e-31  1.2285e-23  2.4664e-31  1.2298e-23  4.8397e-31  1.2322e-23  1.1747e-30  1.2364e-23  3.0555e-30  1.2439e-23  8.0689e-30  1.2572e-23  1.9767e-29  1.2809e-23  4.176e-29  1.323e-23  8.4492e-29  1.398e-23  1.7874e-28  1.5314e-23  4.0057e-28  1.7691e-23  8.9869e-28  2.1936e-23  1.956e-27  2.9549e-23  4.0908e-27  4.3302e-23  8.2618e-27  6.8447e-23  1.6333e-26  1.1536e-22  3.2182e-26  2.0574e-22  6.454e-26  3.8847e-22
      7.35  1.1374e-31  1.2935e-23  1.3406e-31  1.2942e-23  1.9418e-31  1.2953e-23  3.6909e-31  1.2973e-23  8.9231e-31  1.3009e-23  2.2644e-30  1.3073e-23  5.9132e-30  1.3186e-23  1.4761e-29  1.3388e-23  3.2738e-29  1.3747e-23  6.5833e-29  1.4386e-23  1.3961e-28  1.5523e-23  3.1806e-28  1.755e-23  7.3906e-28  2.1169e-23  1.6688e-27  2.7659e-23  3.5983e-27  3.9382e-23  7.4475e-27  6.0813e-23  1.4992e-26  1.0079e-22  2.9908e-26  1.7782e-22  6.047e-26  3.3354e-22
      7.40  9.2666e-32  1.3622e-23  1.0818e-31  1.3627e-23  1.541e-31  1.3637e-23  2.906e-31  1.3655e-23  6.894e-31  1.3686e-23  1.7211e-30  1.3742e-23  4.482e-30  1.3841e-23  1.1761e-29  1.4018e-23  2.7912e-29  1.4332e-23  5.4867e-29  1.489e-23  1.1596e-28  1.5885e-23  2.669e-28  1.7658e-23  6.308e-28  2.0824e-23  1.4618e-27  2.6503e-23  3.2398e-27  3.6758e-23  6.8599e-27  5.5505e-23  1.4047e-26  9.0475e-23  2.8359e-26  1.5784e-22  5.7797e-26  2.9403e-22
      7.45  7.5643e-32  1.4336e-23  8.7931e-32  1.4341e-23  1.2314e-31  1.435e-23  2.3055e-31  1.4366e-23  5.4543e-31  1.4394e-23  1.3653e-30  1.4444e-23  3.5647e-30  1.4533e-23  9.4577e-30  1.4692e-23  2.2176e-29  1.4974e-23  4.2772e-29  1.5475e-23  8.9199e-29  1.6369e-23  2.0657e-28  1.7961e-23  4.9739e-28  2.0806e-23  1.1849e-27  2.5908e-23  2.7082e-27  3.5123e-23  5.8959e-27  5.1967e-23  1.2339e-26  8.3384e-23  2.5305e-26  1.439e-22  5.212e-26  2.6622e-22
      7.50  6.1923e-32  1.5078e-23  7.2108e-32  1.5083e-23  1.0251e-31  1.5091e-23  1.9031e-31  1.5106e-23  4.5235e-31  1.5132e-23  1.1256e-30  1.5178e-23  2.9571e-30  1.526e-23  7.9197e-30  1.5406e-23  1.8445e-29  1.5665e-23  3.5515e-29  1.6127e-23  7.2516e-29  1.6949e-23  1.6756e-28  1.8416e-23  4.077e-28  2.1036e-23  9.9216e-28  2.5735e-23  2.3306e-27  3.4221e-23  5.2124e-27  4.9734e-23  1.1154e-26  7.8665e-23  2.3251e-26  1.3438e-22  4.8426e-26  2.4699e-22
      7.55  5.0881e-32  1.5929e-23  5.9788e-32  1.5934e-23  8.6525e-32  1.5941e-23  1.6497e-31  1.5955e-23  3.9702e-31  1.598e-23  9.9227e-31  1.6023e-23  2.6253e-30   1.61e-23  7.0381e-30  1.6238e-23  1.5723e-29  1.6482e-23  3.0569e-29  1.6918e-23  6.1904e-29  1.7693e-23  1.4143e-28  1.9075e-23  3.444e-28  2.1544e-23  8.496e-28  2.5974e-23  2.0424e-27  3.3975e-23  4.6904e-27  4.8599e-23  1.0282e-26  7.5871e-23  2.1841e-26  1.2839e-22  4.6098e-26  2.3451e-22
      7.60  4.1991e-32  1.6818e-23  5.018e-32  1.6822e-23  7.4947e-32  1.683e-23  1.4775e-31  1.6843e-23  3.6147e-31  1.6867e-23  9.3044e-31  1.6908e-23  2.4562e-30  1.6983e-23  6.5091e-30  1.7115e-23  1.3709e-29  1.735e-23  2.693e-29  1.7768e-23  5.3173e-29  1.8513e-23  1.181e-28  1.9842e-23  2.8273e-28  2.2217e-23  6.9623e-28  2.6477e-23  1.6942e-27  3.4172e-23  3.9693e-27  4.8237e-23  8.8878e-27  7.4466e-23  1.9226e-26  1.2497e-22  4.1128e-26   2.27e-22
      7.65  3.4775e-32  1.7745e-23  4.2496e-32  1.7749e-23  6.604e-32  1.7756e-23  1.3503e-31  1.7769e-23  3.332e-31  1.7792e-23  8.7619e-31  1.7833e-23  2.3455e-30  1.7906e-23  6.3078e-30  1.8035e-23  1.2256e-29  1.8264e-23  2.4153e-29  1.8673e-23  4.663e-29  1.9402e-23  1.0053e-28  2.0701e-23  2.3504e-28  2.3022e-23  5.7311e-28  2.7188e-23  1.4019e-27  3.4711e-23  3.3367e-27  4.8464e-23  7.6212e-27  7.4109e-23  1.6795e-26  1.2348e-22  3.6456e-26  2.2322e-22
      7.70  2.8762e-32  1.8709e-23   3.61e-32  1.8713e-23  5.8639e-32  1.8721e-23  1.2435e-31  1.8733e-23  3.1513e-31  1.8756e-23  8.4381e-31  1.8797e-23  2.2424e-30  1.8868e-23  5.9308e-30  1.8996e-23  1.1065e-29  1.9224e-23  2.1313e-29  1.9629e-23  4.1267e-29  2.035e-23  8.6494e-29  2.1637e-23  1.9693e-28  2.3936e-23  4.7295e-28  2.8061e-23  1.156e-27  3.5513e-23  2.7838e-27  4.9136e-23  6.4751e-27  7.4537e-23  1.454e-26  1.2344e-22  3.2063e-26  2.2221e-22
      7.75  2.3942e-32  1.9711e-23  3.0943e-32  1.9715e-23  5.2586e-32  1.9723e-23  1.1557e-31  1.9735e-23  2.9704e-31  1.9758e-23  8.0579e-31  1.9798e-23  2.1522e-30  1.987e-23  5.5067e-30  1.9998e-23  1.0006e-29  2.0226e-23  1.9125e-29  2.063e-23  3.7179e-29  2.1351e-23  7.5077e-29  2.2637e-23  1.6667e-28  2.4935e-23  3.9217e-28  2.9059e-23  9.5188e-28  3.6508e-23  2.3075e-27  5.0127e-23  5.4521e-27  7.5519e-23  1.2472e-26  1.244e-22  2.7966e-26  2.2312e-22
      7.80  1.9963e-32  2.0854e-23  2.6586e-32  2.0858e-23  4.7234e-32  2.0865e-23  1.0707e-31  2.0878e-23  2.7867e-31  2.0901e-23  7.6505e-31  2.0942e-23  2.0708e-30  2.1014e-23  5.066e-30  2.1143e-23  9.2274e-30  2.1372e-23  1.729e-29  2.178e-23  3.2797e-29  2.2506e-23  6.6079e-29  2.3801e-23  1.4218e-28  2.6115e-23  3.2682e-28  3.0268e-23  7.8402e-28  3.7771e-23  1.9047e-27  5.1488e-23  4.5591e-27  7.7063e-23  1.0619e-26  1.2629e-22  2.4237e-26  2.2571e-22
      7.85  1.6622e-32  2.2048e-23  2.2777e-32  2.2052e-23  4.2091e-32  2.2059e-23  9.6974e-32  2.2072e-23  2.5495e-31  2.2095e-23  7.036e-31  2.2137e-23  1.916e-30  2.221e-23  4.6225e-30  2.234e-23  8.3792e-30  2.2571e-23  1.5534e-29  2.2982e-23  2.9566e-29  2.3716e-23  5.8005e-29  2.5023e-23  1.217e-28  2.736e-23  2.7317e-28  3.1553e-23  6.4588e-28  3.913e-23  1.5666e-27  5.2979e-23  3.789e-27  7.8804e-23  8.9806e-27  1.2851e-22  2.0885e-26  2.2888e-22
      7.90  1.3813e-32  2.3293e-23  1.9275e-32  2.3298e-23  3.6714e-32  2.3305e-23  8.7568e-32  2.3318e-23  2.2964e-31  2.3341e-23  6.3418e-31  2.3383e-23  1.7579e-30  2.3457e-23  3.9716e-30  2.3588e-23  7.2433e-30  2.3821e-23  1.3335e-29  2.4237e-23  2.5217e-29  2.4977e-23  4.8831e-29  2.6297e-23  1.0042e-28  2.8656e-23  2.1977e-28  3.2889e-23  5.1427e-28  4.0536e-23  1.2439e-27  5.4518e-23  3.0374e-27  8.0586e-23  7.3302e-27  1.3076e-22  1.7404e-26  2.3206e-22
      7.95  1.1434e-32  2.459e-23  1.6217e-32  2.4595e-23  3.1618e-32  2.4602e-23  7.652e-32  2.4615e-23  2.0361e-31  2.4639e-23  5.5732e-31  2.468e-23  1.5398e-30  2.4755e-23  3.3627e-30  2.4887e-23  6.1195e-30  2.5122e-23  1.1207e-29  2.554e-23  2.0982e-29  2.6284e-23  4.0359e-29  2.7612e-23  8.1514e-29  2.9986e-23  1.7557e-28  3.4245e-23  4.0258e-28  4.1941e-23  9.6736e-28  5.6009e-23  2.3746e-27  8.2238e-23  5.816e-27  1.3272e-22  1.4076e-26  2.3463e-22
      8.00  9.4168e-33  2.5939e-23  1.3471e-32  2.5943e-23  2.6651e-32  2.5951e-23  6.5217e-32  2.5964e-23  1.7381e-31  2.5988e-23  4.8082e-31  2.6029e-23  1.3198e-30  2.6104e-23  2.7902e-30  2.6236e-23  5.1138e-30  2.6471e-23  9.2338e-30  2.689e-23  1.7174e-29  2.7637e-23  3.2849e-29  2.8968e-23  6.5334e-29  3.1346e-23  1.382e-28  3.5615e-23  3.1178e-28  4.3327e-23  7.4253e-28  5.7426e-23  1.8258e-27  8.3711e-23  4.5234e-27  1.343e-22  1.1136e-26  2.364e-22
      8.05  7.7127e-33  2.7472e-23  1.1038e-32  2.7477e-23  2.1972e-32  2.7484e-23  5.4013e-32  2.7497e-23  1.441e-31  2.7521e-23  3.9889e-31  2.7563e-23  1.1068e-30  2.7637e-23  2.2654e-30  2.7769e-23  4.0674e-30  2.8005e-23  7.3939e-30  2.8424e-23  1.3808e-29  2.9171e-23  2.6252e-29  3.0502e-23  5.1707e-29  3.2882e-23  1.078e-28  3.7152e-23  2.3983e-28  4.4868e-23  5.6344e-28  5.8971e-23  1.393e-27  8.5265e-23  3.4844e-27  1.3586e-22  8.7143e-27  2.3797e-22
      8.10  6.287e-33  2.9076e-23  8.9326e-33  2.9081e-23  1.7623e-32  2.9088e-23  4.3208e-32  2.9101e-23  1.1604e-31  2.9125e-23  3.2194e-31  2.9166e-23  8.8598e-31  2.924e-23  1.8016e-30  2.9372e-23  3.2318e-30  2.9607e-23  5.8615e-30  3.0025e-23  1.0803e-29  3.0769e-23  2.0623e-29  3.2097e-23  4.0007e-29  3.4469e-23  8.3084e-29  3.8726e-23  1.8266e-28  4.6417e-23  4.2783e-28  6.0476e-23  1.0516e-27  8.6683e-23  2.6509e-27  1.371e-22  6.7236e-27  2.3885e-22
      8.15  5.1102e-33  3.0752e-23  7.1618e-33  3.0756e-23  1.3974e-32  3.0763e-23  3.3842e-32  3.0776e-23  9.1427e-32   3.08e-23  2.5382e-31  3.0841e-23  7.0711e-31  3.0915e-23  1.4062e-30  3.1046e-23  2.5489e-30  3.128e-23  4.6129e-30  3.1695e-23  8.3919e-30  3.2436e-23  1.5771e-29  3.3756e-23  3.1004e-29  3.6116e-23  6.2928e-29  4.035e-23  1.371e-28  4.7999e-23  3.1822e-28  6.198e-23  7.8004e-28  8.804e-23  1.9768e-27  1.3817e-22  5.0753e-27  2.3931e-22
      8.20  4.1494e-33   3.25e-23  5.7082e-33  3.2504e-23  1.0934e-32  3.2511e-23  2.6228e-32  3.2524e-23  6.9599e-32  3.2547e-23  1.9617e-31  3.2589e-23  5.4783e-31  3.2662e-23  1.0933e-30  3.2792e-23  1.9441e-30  3.3024e-23  3.5146e-30  3.3437e-23  6.4398e-30  3.4173e-23  1.2055e-29  3.5484e-23  2.3522e-29  3.7829e-23  4.7676e-29  4.2035e-23  1.0272e-28  4.9635e-23  2.3683e-28  6.3524e-23  5.7951e-28  8.9411e-23  1.4757e-27  1.392e-22  3.8304e-27  2.3962e-22
      8.25  3.3435e-33  3.4321e-23  4.5119e-33  3.4325e-23  8.1746e-33  3.4332e-23  2.0066e-32  3.4345e-23  5.3525e-32  3.4368e-23  1.4947e-31  3.4409e-23  4.1457e-31  3.4482e-23  8.2563e-31  3.4611e-23  1.4814e-30  3.4842e-23  2.678e-30  3.5252e-23  4.8993e-30  3.5983e-23  9.2301e-30  3.7287e-23  1.7783e-29  3.9617e-23  3.5891e-29  4.3798e-23  7.6916e-29  5.135e-23  1.7658e-28  6.5152e-23  4.318e-28  9.0873e-23  1.1048e-27  1.4034e-22  2.8961e-27  2.4007e-22
      8.30  2.7287e-33  3.6388e-23  3.5984e-33  3.6392e-23  6.3369e-33  3.6399e-23  1.5306e-32  3.6778e-23  4.0083e-32  3.6435e-23  1.1236e-31  3.6476e-23  3.1719e-31  3.6549e-23  6.3237e-31  3.6678e-23  1.1339e-30  3.6909e-23  2.0489e-30  3.7318e-23  3.7443e-30  3.8048e-23  6.9775e-30  3.935e-23  1.3411e-29  4.1677e-23  2.698e-29  4.5852e-23  5.7657e-29  5.3394e-23  1.3142e-28  6.7176e-23  3.2304e-28  9.2856e-23  8.3037e-28  1.4223e-22  2.1966e-27  2.4175e-22
      8.35  2.2335e-33  3.8556e-23  2.8667e-33  3.856e-23  4.8729e-33  3.8567e-23  1.124e-32  3.858e-23  2.9662e-32  3.8603e-23  8.1966e-32  3.8644e-23  2.3404e-31  3.8717e-23  4.6792e-31  3.8847e-23  8.3867e-31  3.9077e-23  1.5152e-30  3.9488e-23  2.7697e-30  4.0219e-23  5.161e-30  4.1523e-23  9.9195e-30  4.3853e-23  1.996e-29  4.8034e-23   4.27e-29  5.5586e-23  9.8003e-29  6.9385e-23  2.4074e-28  9.5096e-23  6.2317e-28  1.4452e-22  1.665e-27  2.4411e-22
      8.40  1.8386e-33  4.0827e-23  2.2929e-33  4.0831e-23  3.8092e-33  4.125e-23  8.3349e-33  4.0851e-23  2.1516e-32  4.0874e-23  5.9314e-32  4.0916e-23  1.6718e-31  4.0989e-23  3.3873e-31  4.1119e-23  6.0698e-31  4.1351e-23  1.0968e-30  4.1763e-23  2.0066e-30  4.2498e-23  3.7442e-30  4.3808e-23  7.2116e-30  4.6149e-23  1.4558e-29  5.035e-23  3.1284e-29  5.7937e-23  7.2245e-29   7.18e-23  1.788e-28  9.7625e-23  4.671e-28  1.4726e-22  1.2617e-27  2.4724e-22
      8.45  1.5282e-33  4.3204e-23  1.8576e-33  4.3208e-23  2.9216e-33  4.3216e-23  6.003e-33  4.3229e-23  1.5824e-32  4.3252e-23  4.326e-32  4.3294e-23  1.2148e-31  4.3368e-23  2.4719e-31  4.3499e-23  4.4285e-31  4.3733e-23  8.004e-31  4.4148e-23  1.4653e-30  4.4889e-23  2.7383e-30  4.621e-23  5.2853e-30  4.8571e-23  1.0704e-29  5.2806e-23  2.3104e-29  6.0456e-23  5.3665e-29  7.4432e-23  1.3375e-28  1.0046e-22  3.5234e-28  1.5048e-22  9.6109e-28  2.5122e-22
      8.50  1.2834e-33  4.5691e-23  1.5257e-33  4.5695e-23  2.3185e-33  4.5703e-23  4.5784e-33  4.5716e-23  1.1688e-32  4.574e-23  3.1712e-32  4.5782e-23  8.9389e-32  4.5856e-23  1.8023e-31  4.5989e-23  3.2602e-31  4.6226e-23  5.8935e-31  4.6646e-23  1.0796e-30  4.7396e-23   2.02e-30  4.8732e-23  3.9069e-30  5.1121e-23  7.9357e-30  5.5407e-23   1.72e-29  6.3146e-23  4.0157e-29  7.7285e-23  1.0072e-28  1.0362e-22  2.6727e-28  1.5421e-22  7.3534e-28  2.5606e-22
