# This was generated using Cloudy10 and the columns are ordered 
# as log10 of the fraction of the metallicity to the solar metallicity
# 'h_*_Z' and 'c_*_Z' stands for cooling and heating respectively 
# at * metalicity
#
# NOTE: This was generated separately from loop_coolingcurve_w_UV.py
#       using Output_metals_w_redshift.py.
#
# Redshift = 2.5
# hden = -3.0
#
#     temp   h_-3.00_Z   c_-3.00_Z   h_-2.75_Z   c_-2.75_Z   h_-2.50_Z   c_-2.50_Z   h_-2.25_Z   c_-2.25_Z   h_-2.00_Z   c_-2.00_Z   h_-1.75_Z   c_-1.75_Z   h_-1.50_Z   c_-1.50_Z   h_-1.25_Z   c_-1.25_Z   h_-1.00_Z   c_-1.00_Z   h_-0.75_Z   c_-0.75_Z   h_-0.50_Z   c_-0.50_Z   h_-0.25_Z   c_-0.25_Z    h_0.00_Z    c_0.00_Z    h_0.25_Z    c_0.25_Z    h_0.50_Z    c_0.50_Z    h_0.75_Z    c_0.75_Z    h_1.00_Z    c_1.00_Z    h_1.25_Z    c_1.25_Z    h_1.50_Z    c_1.50_Z 
      4.00  7.2939e-24  9.5906e-25  7.2950e-24  9.6362e-25  7.2970e-24  9.7173e-25  7.3005e-24  9.8616e-25  7.3068e-24  1.0118e-24  7.3179e-24  1.0574e-24  7.3377e-24  1.1386e-24  7.3730e-24  1.2829e-24  7.4356e-24  1.5395e-24  7.5469e-24  1.9961e-24  7.7450e-24  2.8084e-24  8.0970e-24  4.2545e-24  8.7228e-24  6.8308e-24  9.8354e-24  1.1427e-23  1.1813e-23  1.9649e-23  1.5331e-23  3.4421e-23  2.1597e-23  6.1165e-23  3.2794e-23  1.1022e-22  5.2935e-23  2.0211e-22
      4.05  6.8000e-24  1.0053e-24  6.8011e-24  1.0101e-24  6.8030e-24  1.0188e-24  6.8065e-24  1.0343e-24  6.8126e-24  1.0617e-24  6.8236e-24  1.1105e-24  6.8430e-24  1.1973e-24  6.8775e-24  1.3517e-24  6.9390e-24  1.6263e-24  7.0482e-24  2.1148e-24  7.2425e-24  2.9840e-24  7.5879e-24  4.5315e-24  8.2019e-24  7.2886e-24  9.2935e-24  1.2209e-23  1.1234e-23  2.1012e-23  1.4686e-23  3.6838e-23  2.0836e-23  6.5516e-23  3.1828e-23  1.1820e-22  5.1608e-23  2.1715e-22
      4.10  6.3343e-24  1.0593e-24  6.3354e-24  1.0647e-24  6.3373e-24  1.0743e-24  6.3407e-24  1.0912e-24  6.3467e-24  1.1214e-24  6.3574e-24  1.1751e-24  6.3765e-24  1.2705e-24  6.4104e-24  1.4403e-24  6.4707e-24  1.7423e-24  6.5779e-24  2.2794e-24  6.7686e-24  3.2352e-24  7.1076e-24  4.9370e-24  7.7103e-24  7.9694e-24  8.7818e-24  1.3382e-23  1.0687e-23  2.3069e-23  1.4076e-23  4.0494e-23  2.0113e-23  7.2100e-23  3.0909e-23  1.3025e-22  5.0341e-23  2.3977e-22
      4.15  5.8955e-24  1.1292e-24  5.8965e-24  1.1354e-24  5.8984e-24  1.1462e-24  5.9017e-24  1.1655e-24  5.9076e-24  1.1999e-24  5.9182e-24  1.2609e-24  5.9369e-24  1.3695e-24  5.9702e-24  1.5626e-24  6.0295e-24  1.9062e-24  6.1349e-24  2.5173e-24  6.3222e-24  3.6047e-24  6.6553e-24  5.5409e-24  7.2476e-24  8.9916e-24  8.3006e-24  1.5152e-23  1.0173e-23  2.6181e-23  1.3504e-23  4.6029e-23  1.9438e-23  8.2066e-23  3.0052e-23  1.4847e-22  4.9164e-23  2.7384e-22
      4.20  5.4821e-24  1.2289e-24  5.4831e-24  1.2361e-24  5.4850e-24  1.2489e-24  5.4882e-24  1.2718e-24  5.4941e-24  1.3123e-24  5.5044e-24  1.3845e-24  5.5229e-24  1.5128e-24  5.5557e-24  1.7410e-24  5.6141e-24  2.1469e-24  5.7178e-24  2.8690e-24  5.9023e-24  4.1540e-24  6.2303e-24  6.4420e-24  6.8135e-24  1.0520e-23  7.8503e-24  1.7801e-23  9.6939e-24  3.0842e-23  1.2974e-23  5.4321e-23  1.8819e-23  9.6983e-23  2.9274e-23  1.7570e-22  4.8107e-23  3.2461e-22
      4.25  5.0925e-24  1.3799e-24  5.0935e-24  1.3888e-24  5.0954e-24  1.4045e-24  5.0986e-24  1.4325e-24  5.1044e-24  1.4823e-24  5.1146e-24  1.5708e-24  5.1328e-24  1.7282e-24  5.1653e-24  2.0082e-24  5.2229e-24  2.5061e-24  5.3253e-24  3.3920e-24  5.5075e-24  4.9686e-24  5.8315e-24  7.7758e-24  6.4074e-24  1.2780e-23  7.4314e-24  2.1715e-23  9.2522e-24  3.7722e-23  1.2492e-23  6.6553e-23  1.8265e-23  1.1897e-22  2.8594e-23  2.1578e-22  4.7208e-23  3.9919e-22
      4.30  4.7249e-24  1.6141e-24  4.7259e-24  1.6253e-24  4.7277e-24  1.6452e-24  4.7309e-24  1.6805e-24  4.7331e-24  1.7432e-24  4.7468e-24  1.8552e-24  4.7648e-24  2.0540e-24  4.7969e-24  2.4076e-24  4.8540e-24  3.0365e-24  4.9555e-24  4.1554e-24  5.1359e-24  6.1466e-24  5.4567e-24  9.6924e-24  6.0271e-24  1.6013e-23  7.0412e-24  2.7301e-23  8.8444e-24  4.7524e-23  1.2053e-23  8.3958e-23  1.7771e-23  1.5023e-22  2.8004e-23  2.7269e-22  4.6450e-23  5.0490e-22
      4.35  4.3764e-24  1.9650e-24  4.3774e-24  1.9794e-24  4.3792e-24  2.0050e-24  4.3823e-24  2.0506e-24  4.3880e-24  2.1316e-24  4.3981e-24  2.2757e-24  4.4160e-24  2.5319e-24  4.4479e-24  2.9876e-24  4.5046e-24  3.7982e-24  4.6054e-24  5.2402e-24  4.7846e-24  7.8065e-24  5.1032e-24  1.2376e-23  5.6697e-24  2.0523e-23  6.6769e-24  3.5072e-23  8.4677e-24  6.1139e-23  1.1654e-23  1.0811e-22  1.7334e-23  1.9356e-22  2.7500e-23  3.5152e-22  4.5833e-23  6.5120e-22
      4.40  4.0436e-24  2.4684e-24  4.0446e-24  2.4872e-24  4.0463e-24  2.5206e-24  4.0495e-24  2.5800e-24  4.0552e-24  2.6857e-24  4.0652e-24  2.8737e-24  4.0831e-24  3.2080e-24  4.1148e-24  3.8026e-24  4.1713e-24  4.8602e-24  4.2717e-24  6.7417e-24  4.4502e-24  1.0090e-23  4.7675e-24  1.6053e-23  5.3318e-24  2.6682e-23  6.3350e-24  4.5666e-23  8.1187e-24  7.9681e-23  1.1292e-23  1.4098e-22  1.6950e-23  2.5250e-22  2.7080e-23  4.5870e-22  4.5356e-23  8.4999e-22
      4.45  3.7225e-24  3.1495e-24  3.7235e-24  3.1742e-24  3.7252e-24  3.2181e-24  3.7284e-24  3.2961e-24  3.7341e-24  3.4349e-24  3.7441e-24  3.6817e-24  3.7619e-24  4.1207e-24  3.7937e-24  4.9014e-24  3.8501e-24  6.2900e-24  3.9504e-24  8.7604e-24  4.1287e-24  1.3157e-23  4.4458e-24  2.0986e-23  5.0096e-24  3.4942e-23  6.0119e-24  5.9869e-23  7.7941e-24  1.0453e-22  1.0966e-23  1.8502e-22  1.6621e-23  3.3148e-22  2.6749e-23  6.0232e-22  4.5032e-23  1.1164e-21
      4.50  3.4091e-24  4.0089e-24  3.4101e-24  4.0414e-24  3.4119e-24  4.0992e-24  3.4150e-24  4.2020e-24  3.4207e-24  4.3847e-24  3.4308e-24  4.7097e-24  3.4486e-24  5.2876e-24  3.4804e-24  6.3155e-24  3.5350e-24  8.1430e-24  3.6375e-24  1.1397e-23  3.8163e-24  1.7185e-23  4.1342e-24  2.7493e-23  4.6993e-24  4.5869e-23  5.7040e-24  7.8689e-23  7.4908e-24  1.3750e-22  1.0671e-23  2.4348e-22  1.6343e-23  4.3634e-22  2.6507e-23  7.9302e-22  4.4868e-23  1.4702e-21
      4.55  3.1008e-24  5.0096e-24  3.1018e-24  5.0522e-24  3.1036e-24  5.1279e-24  3.1068e-24  5.2625e-24  3.1125e-24  5.5020e-24  3.1226e-24  5.9277e-24  3.1406e-24  6.6849e-24  3.1726e-24  8.0316e-24  3.2295e-24  1.0427e-23  3.3306e-24  1.4689e-23  3.5104e-24  2.2273e-23  3.8301e-24  3.5778e-23  4.3985e-24  5.9854e-23  5.4091e-24  1.0285e-22  7.2066e-24  1.7991e-22  1.0406e-23  3.1879e-22  1.6117e-23  5.7152e-22  2.6356e-23  1.0390e-21  4.4869e-23  1.9268e-21
      4.60  2.7978e-24  6.0594e-24  2.7988e-24  6.1148e-24  2.8007e-24  6.2133e-24  2.8039e-24  6.3885e-24  2.8096e-24  6.7001e-24  2.8198e-24  7.2541e-24  2.8380e-24  8.2395e-24  2.8702e-24  9.9919e-24  2.9276e-24  1.3109e-23  3.0296e-24  1.8654e-23  3.2110e-24  2.8523e-23  3.5336e-24  4.6097e-23  4.1071e-24  7.7427e-23  5.1269e-24  1.3338e-22  6.9410e-24  2.3366e-22  1.0172e-23  4.1440e-22  1.5940e-23  7.4334e-22  2.6290e-23  1.3519e-21  4.5022e-23  2.5079e-21
      4.65  2.5040e-24  7.0968e-24  2.5050e-24  7.1681e-24  2.5069e-24  7.2950e-24  2.5101e-24  7.5206e-24  2.5159e-24  7.9218e-24  2.5262e-24  8.6352e-24  2.5433e-24  9.9030e-24  2.5772e-24  1.2161e-23  2.6352e-24  1.6174e-23  2.7384e-24  2.3315e-23  2.9218e-24  3.6023e-23  3.2479e-24  5.8653e-23  3.8277e-24  9.8996e-23  4.8590e-24  1.7105e-22  6.6939e-24  3.0019e-22  9.9627e-24  5.3294e-22  1.5802e-23  9.5657e-22  2.6289e-23  1.7404e-21  4.5281e-23  3.2295e-21
      4.70  2.2258e-24  8.1195e-24  2.2269e-24  8.2101e-24  2.2287e-24  8.3712e-24  2.2320e-24  8.6578e-24  2.2379e-24  9.1674e-24  2.2483e-24  1.0074e-23  2.2669e-24  1.1685e-23  2.2999e-24  1.4552e-23  2.3585e-24  1.9650e-23  2.4629e-24  2.8721e-23  2.6484e-24  4.4863e-23  2.9783e-24  7.3610e-23  3.5649e-24  1.2486e-22  4.6084e-24  2.1639e-22  6.4652e-24  3.8043e-22  9.7744e-24  6.7609e-22  1.5689e-23  1.2142e-21  2.6316e-23  2.2100e-21  4.5575e-23  4.1018e-21
      4.75  1.9692e-24  9.2757e-24  1.9703e-24  9.3890e-24  1.9722e-24  9.5904e-24  1.9755e-24  9.9485e-24  1.9814e-24  1.0585e-23  1.9920e-24  1.1718e-23  2.0107e-24  1.3732e-23  2.0431e-24  1.7312e-23  2.1033e-24  2.3686e-23  2.2087e-24  3.5022e-23  2.3960e-24  5.5195e-23  2.7292e-24  9.1120e-23  3.3217e-24  1.5517e-22  4.3757e-24  2.6956e-22  6.2517e-24  4.7456e-22  9.5959e-24  8.4406e-22  1.5575e-23  1.5166e-21  2.6324e-23  2.7609e-21  4.5808e-23  5.1251e-21
      4.80  1.7356e-24  1.0889e-23  1.7367e-24  1.1028e-23  1.7386e-24  1.1275e-23  1.7419e-24  1.1714e-23  1.7479e-24  1.2495e-23  1.7585e-24  1.3884e-23  1.7773e-24  1.6355e-23  1.8109e-24  2.0749e-23  1.8705e-24  2.8564e-23  1.9765e-24  4.2468e-23  2.1651e-24  6.7213e-23  2.5003e-24  1.1128e-22  3.0966e-24  1.8984e-22  4.1572e-24  3.3015e-22  6.0454e-24  5.8161e-22  9.4120e-24  1.0348e-21  1.5433e-23  1.8597e-21  2.6258e-23  3.3859e-21  4.5884e-23  6.2857e-21
      4.85  1.5184e-24  1.3461e-23  1.5195e-24  1.3627e-23  1.5213e-24  1.3924e-23  1.5247e-24  1.4452e-23  1.5306e-24  1.5390e-23  1.5407e-24  1.7055e-23  1.5601e-24  2.0026e-23  1.5936e-24  2.5303e-23  1.6532e-24  3.4690e-23  1.7592e-24  5.1389e-23  1.9477e-24  8.1109e-23  2.2829e-24  1.3403e-22  2.8790e-24  2.2839e-22  3.9395e-24  3.9691e-22  5.8276e-24  6.9893e-22  9.1944e-24  1.2432e-21  1.5217e-23  2.2339e-21  2.6044e-23  4.0670e-21  4.5671e-23  7.5501e-21
      4.90  1.3026e-24  1.7391e-23  1.3036e-24  1.7586e-23  1.3055e-24  1.7934e-23  1.3088e-24  1.8553e-23  1.3147e-24  1.9653e-23  1.3252e-24  2.1610e-23  1.3438e-24  2.5091e-23  1.3770e-24  3.1280e-23  1.4360e-24  4.2290e-23  1.5409e-24  6.1876e-23  1.7275e-24  9.6734e-23  2.0592e-24  1.5881e-22  2.6492e-24  2.6948e-22  3.6987e-24  4.6714e-22  5.5673e-24  8.2138e-22  8.8995e-24  1.4598e-21  1.4860e-23  2.6219e-21  2.5574e-23  4.7722e-21  4.4985e-23  8.8591e-21
      4.95  1.0711e-24  2.2431e-23  1.0722e-24  2.2655e-23  1.0740e-24  2.3052e-23  1.0771e-24  2.3755e-23  1.0830e-24  2.5015e-23  1.0932e-24  2.7249e-23  1.1114e-24  3.1221e-23  1.1437e-24  3.8287e-23  1.2013e-24  5.0855e-23  1.3036e-24  7.3215e-23  1.4855e-24  1.1301e-22  1.8089e-24  1.8388e-22  2.3841e-24  3.1021e-22  3.4072e-24  5.3587e-22  5.2288e-24  9.4028e-22  8.4768e-24  1.6692e-21  1.4285e-23  2.9959e-21  2.4721e-23  5.4512e-21  4.3611e-23  1.0119e-20
      5.00  8.2213e-25  2.7204e-23  8.2310e-25  2.7452e-23  8.2484e-25  2.7893e-23  8.2794e-25  2.8676e-23  8.3344e-25  3.0070e-23  8.4323e-25  3.2548e-23  8.6064e-25  3.6956e-23  8.9160e-25  4.4795e-23  9.4668e-25  5.8738e-23  1.0446e-24  8.3544e-23  1.2187e-24  1.2769e-22  1.5282e-24  2.0631e-22  2.0785e-24  3.4647e-22  3.0572e-24  5.9682e-22  4.7993e-24  1.0455e-21  7.9047e-24  1.8541e-21  1.3455e-23  3.3258e-21  2.3420e-23  6.0495e-21  4.1429e-23  1.1228e-20
      5.05  5.8176e-25  2.9816e-23  5.8268e-25  3.0084e-23  5.8432e-25  3.0561e-23  5.8723e-25  3.1409e-23  5.9240e-25  3.2917e-23  6.0161e-25  3.5598e-23  6.1798e-25  4.0368e-23  6.4710e-25  4.8850e-23  6.9888e-25  6.3937e-23  7.9092e-25  9.0778e-23  9.5454e-25  1.3855e-22  1.2454e-24  2.2361e-22  1.7623e-24  3.7527e-22  2.6814e-24  6.4613e-22  4.3166e-24  1.1315e-21  7.2301e-24  2.0061e-21  1.2434e-23  3.5978e-21  2.1772e-23  6.5423e-21  3.8616e-23  1.2138e-20
      5.10  3.8564e-25  2.9484e-23  3.8649e-25  2.9770e-23  3.8801e-25  3.0279e-23  3.9072e-25  3.1184e-23  3.9553e-25  3.2793e-23  4.0408e-25  3.5654e-23  4.1931e-25  4.0743e-23  4.4639e-25  4.9793e-23  4.9451e-25  6.5890e-23  5.8003e-25  9.4529e-23  7.3202e-25  1.4550e-22  1.0020e-24  2.3626e-22  1.4817e-24  3.9806e-22  2.3341e-24  6.8701e-22  3.8497e-24  1.2047e-21  6.5513e-24  2.1375e-21  1.1378e-23  3.8344e-21  2.0023e-23  6.9723e-21  3.5584e-23  1.2932e-20
      5.15  2.4798e-25  2.7062e-23  2.4877e-25  2.7367e-23  2.5018e-25  2.7908e-23  2.5268e-25  2.8870e-23  2.5713e-25  3.0581e-23  2.6505e-25  3.3624e-23  2.7913e-25  3.9036e-23  3.0417e-25  4.8660e-23  3.4866e-25  6.5780e-23  4.2769e-25  9.6236e-23  5.6803e-25  1.5044e-22  8.1718e-25  2.4696e-22  1.2595e-24  4.1903e-22  2.0447e-24  7.2631e-22  3.4440e-24  1.2768e-21  5.9377e-24  2.2686e-21  1.0388e-23  4.0730e-21  1.8352e-23  7.4099e-21  3.2661e-23  1.3748e-20
      5.20  1.5997e-25  2.3829e-23  1.6069e-25  2.4152e-23  1.6199e-25  2.4727e-23  1.6429e-25  2.5749e-23  1.6838e-25  2.7566e-23  1.7567e-25  3.0797e-23  1.8864e-25  3.6544e-23  2.1167e-25  4.6765e-23  2.5256e-25  6.4946e-23  3.2515e-25  9.7291e-23  4.5394e-25  1.5486e-22  6.8234e-25  2.5737e-22  1.0874e-24  4.4012e-22  1.8089e-24  7.6649e-22  3.0932e-24  1.3513e-21  5.3813e-24  2.4051e-21  9.4633e-24  4.3231e-21  1.6763e-23  7.8727e-21  2.9862e-23  1.4622e-20
      5.25  1.0574e-25  2.0623e-23  1.0640e-25  2.0964e-23  1.0758e-25  2.1569e-23  1.0968e-25  2.2646e-23  1.1342e-25  2.4560e-23  1.2006e-25  2.7964e-23  1.3187e-25  3.4019e-23  1.5282e-25  4.4787e-23  1.8999e-25  6.3942e-23  2.5591e-25  9.8021e-23  3.7270e-25  1.5868e-22  5.7948e-25  2.6670e-22  9.4745e-25  4.5927e-22  1.6022e-24  8.0323e-22  2.7678e-24  1.4197e-21  4.8439e-24  2.5311e-21  8.5466e-24  4.5553e-21  1.5164e-23  8.3058e-21  2.7029e-23  1.5451e-20
      5.30  7.2301e-26  1.7804e-23  7.2896e-26  1.8158e-23  7.3960e-26  1.8787e-23  7.5857e-26  1.9905e-23  7.9216e-26  2.1895e-23  8.5187e-26  2.5433e-23  9.5798e-26  3.1726e-23  1.1460e-25  4.2918e-23  1.4791e-25  6.2828e-23  2.0686e-25  9.8252e-23  3.1111e-25  1.6131e-22  4.9610e-25  2.7360e-22  8.2546e-25  4.7382e-22  1.4113e-24  8.3150e-22  2.4540e-24  1.4728e-21  4.3111e-24  2.6296e-21  7.6224e-24  4.7387e-21  1.3538e-23  8.6530e-21  2.4138e-23  1.6130e-20
      5.35  5.1238e-26  1.5453e-23  5.1767e-26  1.5811e-23  5.2714e-26  1.6448e-23  5.4393e-26  1.7581e-23  5.7366e-26  1.9596e-23  6.2642e-26  2.3179e-23  7.2012e-26  2.9552e-23  8.8601e-26  4.0888e-23  1.1792e-25  6.1055e-23  1.6971e-25  9.6943e-23  2.6118e-25  1.6083e-22  4.2413e-25  2.7461e-22  7.1389e-25  4.7750e-22  1.2294e-24  8.4008e-22  2.1467e-24  1.4905e-21  3.7806e-24  2.6649e-21  6.6939e-24  4.8094e-21  1.1899e-23  8.8003e-21  2.1225e-23  1.6455e-20
      5.40  3.7549e-26  1.3511e-23  3.8002e-26  1.3849e-23  3.8816e-26  1.4450e-23  4.0248e-26  1.5518e-23  4.2792e-26  1.7418e-23  4.7298e-26  2.0796e-23  5.5294e-26  2.6805e-23  6.9459e-26  3.7496e-23  9.4445e-26  5.6519e-23  1.3852e-25  9.0384e-23  2.1655e-25  1.5067e-22  3.5543e-25  2.5803e-22  6.0241e-25  4.4952e-22  1.0418e-24  7.9188e-22  1.8237e-24  1.4065e-21  3.2164e-24  2.5177e-21  5.7003e-24  4.5516e-21  1.0139e-23  8.3508e-21  1.8097e-23  1.5681e-20
      5.45  2.8341e-26  1.1898e-23  2.8708e-26  1.2177e-23  2.9365e-26  1.2672e-23  3.0529e-26  1.3552e-23  3.2589e-26  1.5118e-23  3.6251e-26  1.7904e-23  4.2742e-26  2.2858e-23  5.4239e-26  3.1673e-23  7.4586e-26  4.7361e-23  1.1048e-25  7.5298e-23  1.7404e-25  1.2501e-22  2.8698e-25  2.1356e-22  4.8774e-25  3.7155e-22  8.4477e-25  6.5412e-22  1.4801e-24  1.1618e-21  2.6117e-24  2.0808e-21  4.6296e-24  3.7665e-21  8.2356e-24  6.9266e-21  1.4699e-23  1.3059e-20
      5.50  2.1964e-26  1.0552e-23  2.2255e-26  1.0760e-23  2.2774e-26  1.1130e-23  2.3705e-26  1.1787e-23  2.5360e-26  1.2957e-23  2.8292e-26  1.5036e-23  3.3507e-26  1.8736e-23  4.2767e-26  2.5316e-23  5.9156e-26  3.7027e-23  8.8171e-26  5.7874e-23  1.3943e-25  9.4971e-23  2.3032e-25  1.6107e-22  3.9167e-25  2.7900e-22  6.7859e-25  4.8997e-22  1.1890e-24  8.6907e-22  2.0977e-24  1.5557e-21  3.7173e-24  2.8161e-21  6.6089e-24  5.1820e-21  1.1784e-23  9.7823e-21
      5.55  1.7439e-26  9.4994e-24  1.7682e-26  9.6633e-24  1.8116e-26  9.9546e-24  1.8893e-26  1.0473e-23  2.0281e-26  1.1394e-23  2.2759e-26  1.3032e-23  2.7169e-26  1.5947e-23  3.4995e-26  2.1130e-23  4.8871e-26  3.0351e-23  7.3394e-26  4.6760e-23  1.1666e-25  7.5969e-23  1.9328e-25  1.2801e-22  3.2927e-25  2.2087e-22  5.7097e-25  3.8698e-22  1.0010e-24  6.8550e-22  1.7663e-24  1.2261e-21  3.1296e-24  2.2184e-21  5.5615e-24  4.0807e-21  9.9070e-24  7.7011e-21
      5.60  1.4147e-26  8.6902e-24  1.4362e-26  8.8361e-24  1.4747e-26  9.0954e-24  1.5435e-26  9.5566e-24  1.6659e-26  1.0377e-23  1.8853e-26  1.1835e-23  2.2771e-26  1.4429e-23  2.9731e-26  1.9042e-23  4.2084e-26  2.7249e-23  6.3758e-26  4.1851e-23  1.0204e-25  6.7848e-23  1.6967e-25  1.1417e-22  2.8982e-25  1.9682e-22  5.0343e-25  3.4466e-22  8.8341e-25  6.1034e-22  1.5596e-24  1.0915e-21  2.7639e-24  1.9748e-21  4.9109e-24  3.6326e-21  8.7446e-24  6.8557e-21
      5.65  1.1695e-26  8.0659e-24  1.1890e-26  8.2061e-24  1.2239e-26  8.4552e-24  1.2866e-26  8.8984e-24  1.3982e-26  9.6863e-24  1.5975e-26  1.1088e-23  1.9533e-26  1.3580e-23  2.5869e-26  1.8012e-23  3.7138e-26  2.5895e-23  5.6702e-26  3.9925e-23  9.1290e-26  6.4903e-23  1.5243e-25  1.0941e-22  2.6111e-25  1.8882e-22  4.5432e-25  3.3089e-22  7.9803e-25  5.8621e-22  1.4096e-24  1.0488e-21  2.4988e-24  1.8981e-21  4.4401e-24  3.4932e-21  7.9055e-24  6.5974e-21
      5.70  9.8275e-27  7.5805e-24  1.0005e-26  7.7173e-24  1.0324e-26  7.9606e-24  1.0899e-26  8.3931e-24  1.1918e-26  9.1624e-24  1.3740e-26  1.0530e-23  1.6998e-26  1.2963e-23  2.2799e-26  1.7289e-23  3.2987e-26  2.4986e-23  5.0721e-26  3.8683e-23  8.2045e-26  6.3069e-23  1.3753e-25  1.0652e-22  2.3612e-25  1.8406e-22  4.1141e-25  3.2279e-22  7.2323e-25  5.7217e-22  1.2781e-24  1.0241e-21  2.2663e-24  1.8545e-21  4.0277e-24  3.4157e-21  7.1718e-24  6.4585e-21
      5.75  8.3785e-27  7.1462e-24  8.5385e-27  7.2758e-24  8.8257e-27  7.5062e-24  9.3431e-27  7.9159e-24  1.0267e-26  8.6444e-24  1.1919e-26  9.9399e-24  1.4878e-26  1.2244e-23  2.0091e-26  1.6342e-23  2.9154e-26  2.3632e-23  4.5032e-26  3.6607e-23  7.3073e-26  5.9706e-23  1.2286e-25  1.0087e-22  2.1129e-25  1.7432e-22  3.6854e-25  3.0577e-22  6.4826e-25  5.4211e-22  1.1460e-24  9.7059e-22  2.0325e-24  1.7587e-21  3.6129e-24  3.2418e-21  6.4342e-24  6.1378e-21
      5.80  7.2370e-27  6.8335e-24  7.3794e-27  6.9530e-24  7.6353e-27  7.1654e-24  8.0971e-27  7.5431e-24  8.9265e-27  8.2148e-24  1.0417e-26  9.4093e-24  1.3051e-26  1.1534e-23  1.7662e-26  1.5312e-23  2.5645e-26  2.2036e-23  3.9729e-26  3.4000e-23  6.4615e-26  5.5300e-23  1.0884e-25  9.3256e-23  1.8740e-25  1.6100e-22  3.2705e-25  2.8223e-22  5.7550e-25  5.0024e-22  1.0176e-24  8.9561e-22  1.8049e-24  1.6230e-21  3.2083e-24  2.9932e-21  5.7133e-24  5.6721e-21
      5.85  6.3295e-27  6.6203e-24  6.4578e-27  6.7341e-24  6.6889e-27  6.9363e-24  7.1061e-27  7.2958e-24  7.8612e-27  7.9352e-24  9.2168e-27  9.0720e-24  1.1552e-26  1.1095e-23  1.5651e-26  1.4692e-23  2.2793e-26  2.1092e-23  3.5424e-26  3.2481e-23  5.7744e-26  5.2759e-23  9.7358e-26  8.8892e-23  1.6777e-25  1.5338e-22  2.9296e-25  2.6880e-22  5.1566e-25  4.7638e-22  9.1194e-25  8.5289e-22  1.6175e-24  1.5458e-21  2.8749e-24  2.8516e-21  5.1186e-24  5.4064e-21
      5.90  5.6007e-27  6.4944e-24  5.7184e-27  6.6085e-24  5.9308e-27  6.8114e-24  6.3154e-27  7.1722e-24  7.0119e-27  7.8136e-24  8.2479e-27  8.9545e-24  1.0380e-26  1.0984e-23  1.4080e-26  1.4594e-23  2.0603e-26  2.1016e-23  3.2083e-26  3.2444e-23  5.2390e-26  5.2792e-23  8.8438e-26  8.9051e-23  1.5252e-25  1.5377e-22  2.6648e-25  2.6960e-22  4.6917e-25  4.7795e-22  8.2983e-25  8.5595e-22  1.4719e-24  1.5518e-21  2.6160e-24  2.8641e-21  4.6566e-24  5.4340e-21
      5.95  5.0082e-27  6.4386e-24  5.1163e-27  6.5551e-24  5.3120e-27  6.7624e-24  5.6682e-27  7.1308e-24  6.3137e-27  7.7859e-24  7.4512e-27  8.9509e-24  9.4131e-27  1.1023e-23  1.2805e-26  1.4710e-23  1.8744e-26  2.1269e-23  2.9230e-26  3.2940e-23  4.7821e-26  5.3721e-23  8.0779e-26  9.0752e-23  1.3937e-25  1.5685e-22  2.4358e-25  2.7517e-22  4.2893e-25  4.8804e-22  7.5873e-25  8.7435e-22  1.3458e-24  1.5859e-21  2.3918e-24  2.9289e-21  4.2571e-24  5.5625e-21
      6.00  4.5206e-27  6.4388e-24  4.6188e-27  6.5556e-24  4.7971e-27  6.7635e-24  5.1218e-27  7.1330e-24  5.7138e-27  7.7901e-24  6.7705e-27  8.9585e-24  8.5618e-27  1.1037e-23  1.1644e-26  1.4734e-23  1.7046e-26  2.1313e-23  2.6578e-26  3.3019e-23  4.3461e-26  5.3862e-23  7.3432e-26  9.1006e-23  1.2670e-25  1.5731e-22  2.2142e-25  2.7602e-22  3.8991e-25  4.8962e-22  6.8972e-25  8.7743e-22  1.2234e-24  1.5922e-21  2.1741e-24  2.9428e-21  3.8695e-24  5.5955e-21
      6.05  4.1155e-27  6.5036e-24  4.2035e-27  6.6172e-24  4.3632e-27  6.8192e-24  4.6544e-27  7.1784e-24  5.1881e-27  7.8169e-24  6.1584e-27  8.9523e-24  7.7914e-27  1.0972e-23  1.0578e-26  1.4565e-23  1.5445e-26  2.0958e-23  2.4026e-26  3.2334e-23  3.9218e-26  5.2590e-23  6.6214e-26  8.8689e-23  1.1419e-25  1.5314e-22  1.9952e-25  2.6853e-22  3.5130e-25  4.7622e-22  6.2137e-25  8.5346e-22  1.1021e-24  1.5493e-21  1.9585e-24  2.8655e-21  3.4856e-24  5.4555e-21
      6.10  3.7775e-27  6.6143e-24  3.8559e-27  6.7221e-24  3.9979e-27  6.9137e-24  4.2571e-27  7.2544e-24  4.7321e-27  7.8602e-24  5.6016e-27  8.9373e-24  7.0801e-27  1.0853e-23  9.5988e-27  1.4261e-23  1.3958e-26  2.0326e-23  2.1639e-26  3.1118e-23  3.5273e-26  5.0333e-23  5.9486e-26  8.4581e-23  1.0254e-25  1.4572e-22  1.7911e-25  2.5522e-22  3.1530e-25  4.5236e-22  5.5764e-25  8.1058e-22  9.8903e-25  1.4718e-21  1.7575e-24  2.7241e-21  3.1281e-24  5.1929e-21
      6.15  3.4938e-27  6.7682e-24  3.5638e-27  6.8681e-24  3.6903e-27  7.0456e-24  3.9204e-27  7.3614e-24  4.3394e-27  7.9228e-24  5.0947e-27  8.9210e-24  6.3914e-27  1.0697e-23  8.6576e-27  1.3855e-23  1.2556e-26  1.9474e-23  1.9427e-26  2.9475e-23  3.1617e-26  4.7281e-23  5.3263e-26  7.9019e-23  9.1757e-26  1.3569e-22  1.6022e-25  2.3719e-22  2.8200e-25  4.1998e-22  4.9870e-25  7.5229e-22  8.8448e-25  1.3662e-21  1.5718e-24  2.5305e-21  2.7979e-24  4.8303e-21
      6.20  3.2534e-27  6.9619e-24  3.3153e-27  7.0509e-24  3.4270e-27  7.2092e-24  3.6289e-27  7.4906e-24  3.9913e-27  7.9909e-24  4.6405e-27  8.8805e-24  5.7647e-27  1.0463e-23  7.7318e-27  1.3277e-23  1.1180e-26  1.8284e-23  1.7253e-26  2.7195e-23  2.8011e-26  4.3062e-23  4.7126e-26  7.1345e-23  8.1107e-26  1.2185e-22  1.4155e-25  2.1238e-22  2.4906e-25  3.7541e-22  4.4039e-25  6.7197e-22  7.8103e-25  1.2203e-21  1.3881e-24  2.2618e-21  2.4713e-24  4.3236e-21
      6.25  3.0476e-27  7.1937e-24  3.1010e-27  7.2684e-24  3.1971e-27  7.4012e-24  3.3687e-27  7.6374e-24  3.6761e-27  8.0573e-24  4.2251e-27  8.8039e-24  5.1784e-27  1.0132e-23  6.8584e-27  1.2493e-23  9.8164e-27  1.6695e-23  1.5048e-26  2.4172e-23  2.4324e-26  3.7486e-23  4.0805e-26  6.1219e-23  7.0105e-26  1.0361e-22  1.2221e-25  1.7955e-22  2.1491e-25  3.1642e-22  3.7988e-25  5.6560e-22  6.7364e-25  1.0268e-21  1.1972e-24  1.9075e-21  2.1319e-24  3.6517e-21
      6.30  2.8705e-27  7.4902e-24  2.9151e-27  7.5498e-24  2.9948e-27  7.6559e-24  3.1379e-27  7.8445e-24  3.3916e-27  8.1798e-24  3.8447e-27  8.7761e-24  4.6321e-27  9.8364e-24  6.0313e-27  1.1722e-23  8.5088e-27  1.5077e-23  1.2887e-26  2.1047e-23  2.0669e-26  3.1678e-23  3.4492e-26  5.0629e-23  5.9072e-26  8.4479e-23  1.0278e-25  1.4514e-22  1.8055e-25  2.5450e-22  3.1895e-25  4.5367e-22  5.6542e-25  8.2270e-22  1.0048e-24  1.5259e-21  1.7895e-24  2.9249e-21
      6.35  2.7181e-27  7.8353e-24  2.7545e-27  7.8825e-24  2.8197e-27  7.9664e-24  2.9356e-27  8.1156e-24  3.1428e-27  8.3810e-24  3.5104e-27  8.8528e-24  4.1495e-27  9.6918e-24  5.2873e-27  1.1184e-23  7.3122e-27  1.3838e-23  1.0912e-26  1.8562e-23  1.7298e-26  2.6973e-23  2.8652e-26  4.1969e-23  4.8836e-26  6.8755e-23  8.4735e-26  1.1677e-22  1.4860e-25  2.0336e-22  2.6228e-25  3.6114e-22  4.6475e-25  6.5378e-22  8.2575e-25  1.2123e-21  1.4706e-24  2.3259e-21
      6.40  2.5872e-27  8.2316e-24  2.6167e-27  8.2699e-24  2.6694e-27  8.3379e-24  2.7629e-27  8.4590e-24  2.9293e-27  8.6742e-24  3.2262e-27  9.0568e-24  3.7439e-27  9.7373e-24  4.6637e-27  1.0948e-23  6.3034e-27  1.3100e-23  9.2256e-27  1.6931e-23  1.4424e-26  2.3753e-23  2.3667e-26  3.5916e-23  4.0101e-26  5.7643e-23  6.9331e-26  9.6596e-23  1.2134e-25  1.6687e-22  2.1392e-25  2.9499e-22  3.7883e-25  5.3283e-22  6.7296e-25  9.8743e-22  1.1987e-24  1.8961e-21
      6.45  2.4745e-27  8.6793e-24  2.4985e-27  8.7108e-24  2.5410e-27  8.7668e-24  2.6166e-27  8.8665e-24  2.7505e-27  9.0438e-24  2.9884e-27  9.3589e-24  3.4080e-27  9.9194e-24  4.1511e-27  1.0916e-23  5.4761e-27  1.2689e-23  7.8385e-27  1.5844e-23  1.2047e-26  2.1462e-23  1.9536e-26  3.1479e-23  3.2857e-26  4.9374e-23  5.6560e-26  8.1462e-23  9.8735e-26  1.3936e-22  1.7382e-25  2.4499e-22  3.0761e-25  4.4124e-22  5.4634e-25  8.1688e-22  9.7339e-25  1.5690e-21
      6.50  2.3773e-27  9.1799e-24  2.3969e-27  9.2059e-24  2.4314e-27  9.2520e-24  2.4928e-27  9.3341e-24  2.6013e-27  9.4800e-24  2.7940e-27  9.7394e-24  3.1337e-27  1.0201e-23  3.7379e-27  1.1021e-23  4.8145e-27  1.2481e-23  6.7348e-27  1.5078e-23  1.0159e-26  1.9703e-23  1.6260e-26  2.7947e-23  2.7120e-26  4.2679e-23  4.6445e-26  6.9097e-23  8.0840e-26  1.1678e-22  1.4208e-25  2.0380e-22  2.5122e-25  3.6560e-22  4.4602e-25  6.7568e-22  7.9467e-25  1.2975e-21
      6.55  2.2934e-27  9.7676e-24  2.3096e-27  9.7892e-24  2.3381e-27  9.8276e-24  2.3886e-27  9.8958e-24  2.4783e-27  1.0017e-23  2.6373e-27  1.0233e-23  2.9175e-27  1.0617e-23  3.4162e-27  1.1299e-23  4.3063e-27  1.2513e-23  5.8948e-27  1.4673e-23  8.7298e-27  1.8519e-23  1.3786e-26  2.5376e-23  2.2794e-26  3.7629e-23  3.8832e-26  5.9603e-23  6.7382e-26  9.9273e-23  1.1823e-25  1.7169e-22  2.0886e-25  3.0645e-22  3.7070e-25  5.6496e-22  6.6054e-25  1.0843e-21
      6.60  2.2207e-27  1.0419e-23  2.2344e-27  1.0437e-23  2.2583e-27  1.0470e-23  2.3007e-27  1.0528e-23  2.3761e-27  1.0632e-23  2.5099e-27  1.0816e-23  2.7459e-27  1.1144e-23  3.1657e-27  1.1727e-23  3.9161e-27  1.2764e-23  5.2571e-27  1.4610e-23  7.6526e-27  1.7896e-23  1.1929e-26  2.3756e-23  1.9554e-26  3.4226e-23  3.3140e-26  5.3005e-23  5.7336e-26  8.6910e-23  1.0044e-25  1.4883e-22  1.7730e-25  2.6406e-22  3.1462e-25  4.8515e-22  5.6112e-25  9.3917e-22
      6.65  2.1575e-27  1.1138e-23  2.1691e-27  1.1155e-23  2.1896e-27  1.1184e-23  2.2257e-27  1.1236e-23  2.2900e-27  1.1328e-23  2.4045e-27  1.1492e-23  2.6066e-27  1.1784e-23  2.9663e-27  1.2304e-23  3.6102e-27  1.3227e-23  4.7626e-27  1.4871e-23  6.8236e-27  1.7799e-23  1.0506e-26  2.3019e-23  1.7080e-26  3.2346e-23  2.8801e-26  4.9079e-23  4.9691e-26  7.9291e-23  8.6923e-26  1.3447e-22  1.5335e-25  2.3755e-22  2.7213e-25  4.3517e-22  4.8537e-25  8.3254e-22
      6.70  2.1023e-27  1.1931e-23  2.1122e-27  1.1946e-23  2.1297e-27  1.1972e-23  2.1608e-27  1.2019e-23  2.2162e-27  1.2103e-23  2.3154e-27  1.2252e-23  2.4914e-27  1.2518e-23  2.8048e-27  1.2990e-23  3.3673e-27  1.3829e-23  4.3761e-27  1.5323e-23  6.1829e-27  1.7983e-23  9.4154e-27  2.2727e-23  1.5192e-26  3.1208e-23  2.5504e-26  4.6435e-23  4.3898e-26  7.3913e-23  7.6709e-26  1.2411e-22  1.3531e-25  2.1777e-22  2.4029e-25  3.9781e-22  4.2938e-25  7.6354e-22
      6.75  2.0538e-27  1.2802e-23  2.0623e-27  1.2816e-23  2.0775e-27  1.2841e-23  2.1044e-27  1.2885e-23  2.1525e-27  1.2964e-23  2.2391e-27  1.3103e-23  2.3931e-27  1.3352e-23  2.6681e-27  1.3793e-23  3.1630e-27  1.4579e-23  4.0523e-27  1.5976e-23  5.6466e-27  1.8465e-23  8.5035e-27  2.2903e-23  1.3615e-26  3.0834e-23  2.2749e-26  4.5061e-23  3.9058e-26  7.0754e-23  6.8182e-26  1.1769e-22  1.2028e-25  2.0525e-22  2.1380e-25  3.7331e-22  3.8281e-25  7.1176e-22
      6.80  2.0112e-27  1.3800e-23  2.0185e-27  1.3814e-23  2.0317e-27  1.3837e-23  2.0550e-27  1.3879e-23  2.0969e-27  1.3953e-23  2.1726e-27  1.4086e-23  2.3082e-27  1.4321e-23  2.5504e-27  1.4740e-23  2.9870e-27  1.5484e-23  3.7726e-27  1.6809e-23  5.1825e-27  1.9168e-23  7.7124e-27  2.3375e-23  1.2245e-26  3.0893e-23  2.0353e-26  4.4380e-23  3.4846e-26  6.8738e-23  6.0757e-26  1.1324e-22  1.0717e-25  1.9621e-22  1.9064e-25  3.5557e-22  3.4226e-25  6.8893e-22
      6.85  1.9737e-27  1.4898e-23  1.9801e-27  1.4911e-23  1.9914e-27  1.4934e-23  2.0118e-27  1.4975e-23  2.0484e-27  1.5048e-23  2.1151e-27  1.5177e-23  2.2363e-27  1.5407e-23  2.4522e-27  1.5817e-23  2.8440e-27  1.6545e-23  3.5488e-27  1.7842e-23  4.8178e-27  2.0151e-23  7.0984e-27  2.4268e-23  1.1191e-26  3.1645e-23  1.8522e-26  4.4860e-23  3.1641e-26  6.8728e-23  5.5130e-26  1.1234e-22  9.7317e-26  1.9541e-22  1.7338e-25  3.5319e-22  3.1195e-25  6.7114e-22
      6.90  1.9406e-27  1.6104e-23  1.9462e-27  1.6117e-23  1.9561e-27  1.6140e-23  1.9739e-27  1.6181e-23  2.0062e-27  1.6254e-23  2.0655e-27  1.6382e-23  2.1745e-27  1.6612e-23  2.3694e-27  1.7019e-23  2.7248e-27  1.7744e-23  3.3653e-27  1.9035e-23  4.5239e-27  2.1332e-23  6.6148e-27  2.5430e-23  1.0374e-26  3.2753e-23  1.7115e-26  4.5896e-23  2.9196e-26  6.9631e-23  5.0859e-26  1.1300e-22  8.9831e-26  1.9383e-22  1.6041e-25  3.4925e-22  2.8984e-25  6.6508e-22
      6.95  1.9114e-27  1.7430e-23  1.9162e-27  1.7443e-23  1.9249e-27  1.7466e-23  1.9405e-27  1.7506e-23  1.9690e-27  1.7577e-23  2.0216e-27  1.7705e-23  2.1190e-27  1.7931e-23  2.2931e-27  1.8333e-23  2.6101e-27  1.9049e-23  3.1829e-27  2.0322e-23  4.2266e-27  2.2591e-23  6.1157e-27  2.6635e-23  9.5175e-27  3.3885e-23  1.5627e-26  4.6871e-23  2.6586e-26  7.0329e-23  4.6265e-26  1.1320e-22  8.1729e-26  1.9360e-22  1.4612e-25  3.4772e-22  2.6501e-25  6.7189e-22
      7.00  1.8855e-27  1.8887e-23  1.8898e-27  1.8900e-23  1.8974e-27  1.8922e-23  1.9111e-27  1.8962e-23  1.9362e-27  1.9032e-23  1.9826e-27  1.9157e-23  2.0701e-27  1.9380e-23  2.2258e-27  1.9776e-23  2.5071e-27  2.0480e-23  3.0217e-27  2.1733e-23  3.9636e-27  2.3964e-23  5.6741e-27  2.7943e-23  8.7631e-27  3.5055e-23  1.4323e-26  4.7814e-23  2.4314e-26  7.0863e-23  4.2280e-26  1.1299e-22  7.4722e-26  1.9213e-22  1.3395e-25  3.5110e-22  2.4377e-25  6.8528e-22
      7.05  1.8626e-27  2.0540e-23  1.8663e-27  2.0552e-23  1.8729e-27  2.0574e-23  1.8850e-27  2.0612e-23  1.9070e-27  2.0681e-23  1.9479e-27  2.0802e-23  2.0258e-27  2.1018e-23  2.1654e-27  2.1402e-23  2.4179e-27  2.2085e-23  2.8816e-27  2.3301e-23  3.7355e-27  2.5466e-23  5.2963e-27  2.9326e-23  8.1419e-27  3.6428e-23  1.3275e-26  4.8966e-23  2.2521e-26  7.1698e-23  3.9182e-26  1.1317e-22  6.9358e-26  1.9232e-22  1.2464e-25  3.5067e-22  2.2740e-25  6.6170e-22
      7.10  1.8421e-27  2.2360e-23  1.8454e-27  2.2371e-23  1.8512e-27  2.2392e-23  1.8617e-27  2.2429e-23  1.8809e-27  2.2495e-23  1.9167e-27  2.2613e-23  1.9854e-27  2.2821e-23  2.1110e-27  2.3192e-23  2.3386e-27  2.3852e-23  2.7555e-27  2.5025e-23  3.5268e-27  2.7115e-23  4.9588e-27  3.0841e-23  7.5850e-27  3.7499e-23  1.2356e-26  4.9445e-23  2.0981e-26  7.1027e-23  3.6568e-26  1.1053e-22  6.4910e-26  1.8682e-22  1.1693e-25  3.3085e-22  2.1509e-25  6.4493e-22
      7.15  1.8240e-27  2.4363e-23  1.8268e-27  2.4373e-23  1.8317e-27  2.4392e-23  1.8407e-27  2.4426e-23  1.8572e-27  2.4486e-23  1.8879e-27  2.4593e-23  1.9465e-27  2.4782e-23  2.0558e-27  2.5119e-23  2.2500e-27  2.5719e-23  2.6049e-27  2.6786e-23  3.2697e-27  2.8685e-23  4.5139e-27  3.2070e-23  6.8186e-27  3.8120e-23  1.1038e-26  4.8974e-23  1.8703e-26  6.8583e-23  3.2609e-26  1.0521e-22  5.7924e-26  1.7270e-22  1.0456e-25  3.0264e-22  1.9311e-25  5.8456e-22
      7.20  1.8078e-27  2.6569e-23  1.8101e-27  2.6579e-23  1.8143e-27  2.6595e-23  1.8219e-27  2.6625e-23  1.8357e-27  2.6677e-23  1.8613e-27  2.6771e-23  1.9099e-27  2.6938e-23  2.0014e-27  2.7234e-23  2.1603e-27  2.7760e-23  2.4562e-27  2.8697e-23  3.0121e-27  3.0364e-23  4.0603e-27  3.3335e-23  6.0259e-27  3.8644e-23  9.6638e-27  4.8273e-23  1.6325e-26  6.5562e-23  2.8469e-26  9.7168e-23  5.0666e-26  1.5611e-22  9.2129e-26  2.7644e-22  1.7019e-25  5.1487e-22
      7.25  1.7934e-27  2.9002e-23  1.7953e-27  2.9010e-23  1.7988e-27  2.9024e-23  1.8050e-27  2.9050e-23  1.8163e-27  2.9095e-23  1.8373e-27  2.9176e-23  1.8766e-27  2.9320e-23  1.9500e-27  2.9575e-23  2.0790e-27  3.0029e-23  2.3177e-27  3.0838e-23  2.7671e-27  3.2276e-23  3.6235e-27  3.4840e-23  5.2472e-27  3.9419e-23  8.2928e-27  4.7633e-23  1.3928e-26  6.2470e-23  2.4277e-26  8.9620e-23  4.3467e-26  1.4225e-22  7.8974e-26  2.4354e-22  1.4642e-25  4.4730e-22
      7.30  1.7806e-27  3.1749e-23  1.7822e-27  3.1756e-23  1.7850e-27  3.1768e-23  1.7900e-27  3.1790e-23  1.7993e-27  3.1829e-23  1.8162e-27  3.1899e-23  1.8478e-27  3.2023e-23  1.9063e-27  3.2242e-23  2.0112e-27  3.2633e-23  2.2028e-27  3.3329e-23  2.5610e-27  3.4569e-23  3.2518e-27  3.6777e-23  4.5828e-27  4.0721e-23  7.1201e-27  4.7794e-23  1.1885e-26  6.0568e-23  2.0824e-26  8.4980e-23  3.7274e-26  1.2940e-22  6.8026e-26  2.1661e-22  1.2680e-25  3.9081e-22
      7.35  1.7693e-27  3.4783e-23  1.7706e-27  3.4789e-23  1.7729e-27  3.4800e-23  1.7939e-27  3.5168e-23  1.7845e-27  3.4854e-23  1.7983e-27  3.4914e-23  1.8238e-27  3.5023e-23  1.8713e-27  3.5215e-23  1.9576e-27  3.5557e-23  2.1126e-27  3.6166e-23  2.4034e-27  3.7250e-23  2.9672e-27  3.9181e-23  4.0727e-27  4.2630e-23  6.2189e-27  4.8815e-23  1.0310e-26  5.9982e-23  1.8090e-26  8.1322e-23  3.2536e-26  1.2045e-22  5.9719e-26  1.9593e-22  1.1205e-25  3.4765e-22
      7.40  1.7593e-27  3.8136e-23  1.7604e-27  3.8141e-23  1.7622e-27  3.8151e-23  1.7657e-27  3.8168e-23  1.7718e-27  3.8199e-23  1.7832e-27  3.8253e-23  1.8041e-27  3.8349e-23  1.8436e-27  3.8521e-23  1.9162e-27  3.8827e-23  2.0446e-27  3.9370e-23  2.2862e-27  4.0338e-23  2.7578e-27  4.2064e-23  3.6915e-27  4.5145e-23  5.5351e-27  5.0669e-23  9.1544e-27  6.1068e-23  1.6007e-26  7.9634e-23  2.8944e-26  1.1463e-22  5.3468e-26  1.8151e-22  1.0105e-25  3.1639e-22
      7.45  1.7504e-27  4.1842e-23  1.7513e-27  4.1847e-23  1.7529e-27  4.1855e-23  1.7558e-27  4.1871e-23  1.7610e-27  4.1899e-23  1.7705e-27  4.1949e-23  1.7881e-27  4.2037e-23  1.8211e-27  4.2194e-23  1.8818e-27  4.2473e-23  1.9883e-27  4.2970e-23  2.1876e-27  4.3855e-23  2.5765e-27  4.5431e-23  3.3498e-27  4.8248e-23  4.8948e-27  5.3298e-23  7.9418e-27  6.2415e-23  1.3895e-26  7.9678e-23  2.5202e-26  1.1143e-22  4.6808e-26  1.7235e-22  8.8974e-26  2.9496e-22
      7.50  1.7426e-27  4.5940e-23  1.7433e-27  4.5945e-23  1.7447e-27  4.5953e-23  1.7472e-27  4.5968e-23  1.7516e-27  4.5994e-23  1.7598e-27  4.6040e-23  1.7749e-27  4.6122e-23  1.8032e-27  4.6269e-23  1.8554e-27  4.6530e-23  1.9465e-27  4.6995e-23  2.1154e-27  4.7821e-23  2.4448e-27  4.9295e-23  3.1016e-27  5.1927e-23  4.4266e-27  5.6648e-23  7.0812e-27  6.5168e-23  1.2339e-26  8.1203e-23  2.2472e-26  1.1076e-22  4.2016e-26  1.6739e-22  8.0424e-26  2.8133e-22
      7.55  1.7356e-27  5.0557e-23  1.7363e-27  5.0561e-23  1.7375e-27  5.0569e-23  1.7396e-27  5.0583e-23  1.7435e-27  5.0608e-23  1.7507e-27  5.0652e-23  1.7639e-27  5.0731e-23  1.7888e-27  5.0871e-23  1.8340e-27  5.1120e-23  1.9141e-27  5.1564e-23  2.0609e-27  5.2353e-23  2.3461e-27  5.3761e-23  2.9146e-27  5.6275e-23  4.0694e-27  6.0783e-23  6.4168e-27  6.8920e-23  1.1117e-26  8.3776e-23  2.0398e-26  1.1224e-22  3.8476e-26  1.6606e-22  7.4317e-26  2.7427e-22
      7.60  1.7294e-27  5.5671e-23  1.7300e-27  5.5675e-23  1.7311e-27  5.5683e-23  1.7330e-27  5.5696e-23  1.7365e-27  5.5721e-23  1.7429e-27  5.5764e-23  1.7547e-27  5.5840e-23  1.7770e-27  5.5976e-23  1.8167e-27  5.6219e-23  1.8878e-27  5.6651e-23  2.0173e-27  5.7419e-23  2.2649e-27  5.8789e-23  2.7548e-27  6.1236e-23  3.7462e-27  6.5624e-23  5.7713e-27  7.3543e-23  9.8715e-27  8.7997e-23  1.8058e-26  1.1552e-22  3.4180e-26  1.6764e-22  6.6360e-26  2.7243e-22
      7.65  1.7239e-27  6.1338e-23  1.7245e-27  6.1342e-23  1.7254e-27  6.1350e-23  1.7272e-27  6.1363e-23  1.7303e-27  6.1387e-23  1.7361e-27  6.1430e-23  1.7468e-27  6.1506e-23  1.7671e-27  6.1640e-23  1.8024e-27  6.1881e-23  1.8664e-27  6.2308e-23  1.9816e-27  6.3067e-23  2.2002e-27  6.4422e-23  2.6275e-27  6.6841e-23  3.4859e-27  7.1180e-23  5.2394e-27  7.9010e-23  8.8176e-27  9.3299e-23  1.6023e-26  1.1987e-22  3.0412e-26  1.7170e-22  5.9315e-26  2.7481e-22
      7.70  1.7191e-27  6.7621e-23  1.7195e-27  6.7626e-23  1.7204e-27  6.7633e-23  1.7220e-27  6.7647e-23  1.7248e-27  6.7671e-23  1.7301e-27  6.7713e-23  1.7399e-27  6.7789e-23  1.7585e-27  6.7924e-23  1.7903e-27  6.8165e-23  1.8478e-27  6.8593e-23  1.9518e-27  6.9354e-23  2.1466e-27  7.0710e-23  2.5228e-27  7.3133e-23  3.2712e-27  7.7477e-23  4.7939e-27  8.5317e-23  7.9138e-27  9.9622e-23  1.4257e-26  1.2621e-22  2.7049e-26  1.7782e-22  5.2957e-26  2.8064e-22
      7.75  1.7147e-27  7.4591e-23  1.7152e-27  7.4596e-23  1.7160e-27  7.4603e-23  1.7174e-27  7.4617e-23  1.7200e-27  7.4641e-23  1.7248e-27  7.4684e-23  1.7339e-27  7.4760e-23  1.7508e-27  7.4897e-23  1.7797e-27  7.5140e-23  1.8319e-27  7.5571e-23  1.9264e-27  7.6339e-23  2.1012e-27  7.7707e-23  2.4350e-27  8.0162e-23  3.0896e-27  8.4552e-23  4.4175e-27  9.2474e-23  7.1349e-27  1.0693e-22  1.2700e-26  1.3378e-22  2.4021e-26  1.8530e-22  4.7172e-26  2.8920e-22
      7.80  1.7109e-27  8.2430e-23  1.7113e-27  8.2434e-23  1.7120e-27  8.2442e-23  1.7133e-27  8.2456e-23  1.7157e-27  8.2481e-23  1.7202e-27  8.2524e-23  1.7285e-27  8.2602e-23  1.7439e-27  8.2741e-23  1.7703e-27  8.2989e-23  1.8178e-27  8.3429e-23  1.9037e-27  8.4211e-23  2.0618e-27  8.5605e-23  2.3592e-27  8.8094e-23  2.9379e-27  9.2558e-23  4.0956e-27  1.0061e-22  6.4615e-27  1.1536e-22  1.1329e-26  1.4269e-22  2.1323e-26  1.9499e-22  4.1939e-26  3.0038e-22
      7.85  1.7075e-27  9.1137e-23  1.7079e-27  9.1141e-23  1.7085e-27  9.1149e-23  1.7097e-27  9.1163e-23  1.7119e-27  9.1188e-23  1.7160e-27  9.1233e-23  1.7236e-27  9.1313e-23  1.7376e-27  9.1455e-23  1.7617e-27  9.1709e-23  1.8050e-27  9.2158e-23  1.8829e-27  9.2958e-23  2.0253e-27  9.4382e-23  2.2914e-27  9.6925e-23  2.8029e-27  1.0149e-22  3.8155e-27  1.0971e-22  5.8736e-27  1.2472e-22  1.0118e-26  1.5266e-22  1.8903e-26  2.0601e-22  3.7200e-26  3.1319e-22
      7.90  1.7045e-27  1.0081e-22  1.7048e-27  1.0082e-22  1.7054e-27  1.0082e-22  1.7065e-27  1.0084e-22  1.7085e-27  1.0086e-22  1.7122e-27  1.0091e-22  1.7191e-27  1.0099e-22  1.7317e-27  1.0114e-22  1.7535e-27  1.0140e-22  1.7924e-27  1.0186e-22  1.8625e-27  1.0267e-22  1.9898e-27  1.0413e-22  2.2257e-27  1.0673e-22  2.6728e-27  1.1139e-22  3.5499e-27  1.1980e-22  5.3153e-27  1.3513e-22  8.9501e-27  1.6359e-22  1.6517e-26  2.1809e-22  3.2410e-26  3.2692e-22
      7.95  1.7018e-27  1.1157e-22  1.7021e-27  1.1157e-22  1.7026e-27  1.1158e-22  1.7036e-27  1.1159e-22  1.7054e-27  1.1162e-22  1.7087e-27  1.1167e-22  1.7150e-27  1.1175e-22  1.7262e-27  1.1190e-22  1.7457e-27  1.1217e-22  1.7805e-27  1.1263e-22  1.8430e-27  1.1347e-22  1.9566e-27  1.1495e-22  2.1649e-27  1.1761e-22  2.5551e-27  1.2236e-22  3.3078e-27  1.3094e-22  4.8123e-27  1.4657e-22  7.8869e-27  1.7556e-22  1.4292e-26  2.3094e-22  2.7821e-26  3.4163e-22
      8.00  1.6994e-27  1.2353e-22  1.6996e-27  1.2353e-22  1.7001e-27  1.2354e-22  1.7010e-27  1.2355e-22  1.7026e-27  1.2358e-22  1.7056e-27  1.2363e-22  1.7112e-27  1.2371e-22  1.7211e-27  1.2387e-22  1.7384e-27  1.2414e-22  1.7693e-27  1.2461e-22  1.8248e-27  1.2546e-22  1.9248e-27  1.2697e-22  2.1074e-27  1.2967e-22  2.4472e-27  1.3451e-22  3.0952e-27  1.4323e-22  4.3696e-27  1.5913e-22  6.9528e-27  1.8859e-22  1.2317e-26  2.4482e-22  2.3670e-26  3.5701e-22
      8.05  1.6972e-27  1.3697e-22  1.6975e-27  1.3697e-22  1.6979e-27  1.3698e-22  1.6987e-27  1.3699e-22  1.7001e-27  1.3702e-22  1.7028e-27  1.3707e-22  1.7077e-27  1.3716e-22  1.7165e-27  1.3731e-22  1.7317e-27  1.3759e-22  1.7590e-27  1.3808e-22  1.8077e-27  1.3894e-22  1.8956e-27  1.4048e-22  2.0551e-27  1.4322e-22  2.3495e-27  1.4814e-22  2.9043e-27  1.5701e-22  3.9853e-27  1.7316e-22  6.1517e-27  2.0309e-22  1.0625e-26  2.6013e-22  2.0048e-26  3.7375e-22
      8.10  1.6954e-27  1.5193e-22  1.6956e-27  1.5193e-22  1.6960e-27  1.5194e-22  1.6966e-27  1.5196e-22  1.6979e-27  1.5198e-22  1.7002e-27  1.5203e-22  1.7045e-27  1.5212e-22  1.7122e-27  1.5228e-22  1.7256e-27  1.5256e-22  1.7495e-27  1.5306e-22  1.7921e-27  1.5393e-22  1.8687e-27  1.5550e-22  2.0073e-27  1.5828e-22  2.2615e-27  1.6328e-22  2.7364e-27  1.7228e-22  3.6509e-27  1.8866e-22  5.4636e-27  2.1900e-22  9.1768e-27  2.7676e-22  1.7008e-26  3.9150e-22
      8.15  1.6937e-27  1.6859e-22  1.6939e-27  1.6860e-22  1.6942e-27  1.6860e-22  1.6948e-27  1.6862e-22  1.6959e-27  1.6865e-22  1.6979e-27  1.6870e-22  1.7017e-27  1.6879e-22  1.7084e-27  1.6895e-22  1.7201e-27  1.6924e-22  1.7408e-27  1.6974e-22  1.7778e-27  1.7063e-22  1.8443e-27  1.7221e-22  1.9641e-27  1.7503e-22  2.1832e-27  1.8011e-22  2.5890e-27  1.8924e-22  3.3602e-27  2.0586e-22  4.8713e-27  2.3660e-22  7.9339e-27  2.9504e-22  1.4350e-26  4.1092e-22
      8.20  1.6922e-27  1.8715e-22  1.6923e-27  1.8716e-22  1.6926e-27  1.8717e-22  1.6932e-27  1.8718e-22  1.6941e-27  1.8721e-22  1.6959e-27  1.8726e-22  1.6991e-27  1.8735e-22  1.7050e-27  1.8752e-22  1.7152e-27  1.8781e-22  1.7332e-27  1.8833e-22  1.7653e-27  1.8923e-22  1.8228e-27  1.9084e-22  1.9264e-27  1.9371e-22  2.1145e-27  1.9884e-22  2.4617e-27  2.0810e-22  3.1148e-27  2.2493e-22  4.3794e-27  2.5616e-22  6.9158e-27  3.1534e-22  1.2187e-26  4.3242e-22
      8.25  1.6908e-27  2.0784e-22  1.6910e-27  2.0785e-22  1.6913e-27  2.0786e-22  1.6917e-27  2.0787e-22  1.6926e-27  2.0790e-22  1.6941e-27  2.0795e-22  1.6969e-27  2.0804e-22  1.7020e-27  2.0822e-22  1.7108e-27  2.0852e-22  1.7265e-27  2.0904e-22  1.7543e-27  2.0996e-22  1.8041e-27  2.1160e-22  1.8935e-27  2.1452e-22  2.0557e-27  2.1976e-22  2.3522e-27  2.2918e-22  2.9067e-27  2.4631e-22  3.9682e-27  2.7794e-22  6.0828e-27  3.3807e-22  1.0415e-26  4.5659e-22
      8.30  1.6897e-27  2.3108e-22  1.6898e-27  2.3108e-22  1.6900e-27  2.3109e-22  1.6904e-27  2.3111e-22  1.6911e-27  2.3114e-22  1.6925e-27  2.3119e-22  1.6949e-27  2.3128e-22  1.6993e-27  2.3147e-22  1.7070e-27  2.3178e-22  1.7206e-27  2.3231e-22  1.7448e-27  2.3326e-22  1.7879e-27  2.3494e-22  1.8652e-27  2.3793e-22  2.0048e-27  2.4329e-22  2.2597e-27  2.5295e-22  2.7327e-27  2.7048e-22  3.6325e-27  3.0283e-22  5.4004e-27  3.6405e-22  9.0093e-27  4.8484e-22
      8.35  1.6886e-27  2.5699e-22  1.6887e-27  2.5700e-22  1.6889e-27  2.5701e-22  1.6893e-27  2.5702e-22  1.6899e-27  2.5705e-22  1.6910e-27  2.5711e-22  1.6931e-27  2.5721e-22  1.6970e-27  2.5740e-22  1.7037e-27  2.5772e-22  1.7155e-27  2.5827e-22  1.7365e-27  2.5925e-22  1.7739e-27  2.6098e-22  1.8408e-27  2.6406e-22  1.9614e-27  2.6958e-22  2.1808e-27  2.7950e-22  2.5857e-27  2.9753e-22  3.3501e-27  3.3074e-22  4.8381e-27  3.9351e-22  7.8357e-27  5.1696e-22
      8.40  1.6877e-27  2.8591e-22  1.6878e-27  2.8591e-22  1.6879e-27  2.8592e-22  1.6882e-27  2.8594e-22  1.6888e-27  2.8597e-22  1.6898e-27  2.8603e-22  1.6916e-27  2.8613e-22  1.6950e-27  2.8633e-22  1.7009e-27  2.8667e-22  1.7112e-27  2.8724e-22  1.7294e-27  2.8825e-22  1.7619e-27  2.9004e-22  1.8200e-27  2.9323e-22  1.9246e-27  2.9893e-22  2.1140e-27  3.0919e-22  2.4621e-27  3.2780e-22  3.1149e-27  3.6207e-22  4.3746e-27  4.2671e-22  6.8967e-27  5.5337e-22
      8.45  1.6868e-27  3.1818e-22  1.6869e-27  3.1818e-22  1.6870e-27  3.1819e-22  1.6873e-27  3.1821e-22  1.6878e-27  3.1824e-22  1.6887e-27  3.1830e-22  1.6903e-27  3.1841e-22  1.6933e-27  3.1862e-22  1.6985e-27  3.1898e-22  1.7075e-27  3.1958e-22  1.7234e-27  3.2063e-22  1.7518e-27  3.2249e-22  1.8025e-27  3.2580e-22  1.8935e-27  3.3172e-22  2.0580e-27  3.4237e-22  2.3592e-27  3.6168e-22  2.9206e-27  3.9720e-22  3.9950e-27  4.6409e-22  6.1190e-27  5.9481e-22
      8.50  1.6860e-27  3.5420e-22  1.6861e-27  3.5421e-22  1.6862e-27  3.5422e-22  1.6865e-27  3.5424e-22  1.6869e-27  3.5427e-22  1.6877e-27  3.5433e-22  1.6891e-27  3.5444e-22  1.6918e-27  3.5468e-22  1.6964e-27  3.5505e-22  1.7043e-27  3.5568e-22  1.7183e-27  3.5678e-22  1.7432e-27  3.5872e-22  1.7876e-27  3.6218e-22  1.8673e-27  3.6836e-22  2.0111e-27  3.7947e-22  2.2733e-27  3.9960e-22  2.7593e-27  4.3659e-22  3.6823e-27  5.0612e-22  5.4957e-27  6.4165e-22
