# This was generated using Cloudy10 and the columns are ordered 
# as log10 of the fraction of the metallicity to the solar metallicity
# 'h_*_Z' and 'c_*_Z' stands for cooling and heating respectively 
# at * metalicity
#
# NOTE: This was generated separately from loop_coolingcurve_w_UV.py
#       using Output_metals_w_redshift.py.
#
# Redshift = 1.5
# hden = -9.0
#
#     temp   h_-3.00_Z   c_-3.00_Z   h_-2.75_Z   c_-2.75_Z   h_-2.50_Z   c_-2.50_Z   h_-2.25_Z   c_-2.25_Z   h_-2.00_Z   c_-2.00_Z   h_-1.75_Z   c_-1.75_Z   h_-1.50_Z   c_-1.50_Z   h_-1.25_Z   c_-1.25_Z   h_-1.00_Z   c_-1.00_Z   h_-0.75_Z   c_-0.75_Z   h_-0.50_Z   c_-0.50_Z   h_-0.25_Z   c_-0.25_Z    h_0.00_Z    c_0.00_Z    h_0.25_Z    c_0.25_Z    h_0.50_Z    c_0.50_Z    h_0.75_Z    c_0.75_Z    h_1.00_Z    c_1.00_Z    h_1.25_Z    c_1.25_Z    h_1.50_Z    c_1.50_Z 
      1.00  2.2358e-21  2.5222e-24  2.2395e-21  2.5222e-24  2.2461e-21  2.5223e-24  2.2578e-21  2.5223e-24  2.2786e-21  2.5224e-24  2.3155e-21  2.5226e-24  2.3810e-21  2.5230e-24  2.4974e-21  2.5236e-24  2.7037e-21  2.5247e-24  3.0700e-21  2.5266e-24  3.7224e-21  2.5300e-24  4.8845e-21  2.5360e-24  6.9564e-21  2.5468e-24  1.0662e-20  2.5660e-24  1.7323e-20  2.6003e-24  2.9403e-20  2.6616e-24  5.1815e-20  2.8059e-24  9.4054e-20  3.0420e-24  1.7605e-19  3.4350e-24
      1.05  2.1940e-21  2.8250e-24  2.1975e-21  2.8250e-24  2.2039e-21  2.8251e-24  2.2151e-21  2.8251e-24  2.2350e-21  2.8252e-24  2.2704e-21  2.8255e-24  2.3333e-21  2.8258e-24  2.4449e-21  2.8265e-24  2.6430e-21  2.8277e-24  2.9945e-21  2.8298e-24  3.6201e-21  2.8336e-24  4.7350e-21  2.8403e-24  6.7231e-21  2.8523e-24  1.0279e-20  2.8736e-24  1.6672e-20  2.9117e-24  2.8266e-20  2.9797e-24  4.9762e-20  3.1356e-24  9.0341e-20  3.3999e-24  1.6918e-19  3.8368e-24
      1.10  2.1548e-21  3.1643e-24  2.1582e-21  3.1643e-24  2.1642e-21  3.1644e-24  2.1750e-21  3.1644e-24  2.1941e-21  3.1646e-24  2.2280e-21  3.1648e-24  2.2883e-21  3.1653e-24  2.3954e-21  3.1660e-24  2.5853e-21  3.1673e-24  2.9225e-21  3.1697e-24  3.5219e-21  3.1739e-24  4.5909e-21  3.1813e-24  6.4976e-21  3.1946e-24  9.9083e-21  3.2183e-24  1.6038e-20  3.2605e-24  2.7162e-20  3.3360e-24  4.7767e-20  3.5039e-24  8.6727e-20  3.7999e-24  1.6250e-19  4.2856e-24
      1.15  2.1180e-21  3.5446e-24  2.1212e-21  3.5446e-24  2.1270e-21  3.5446e-24  2.1373e-21  3.5447e-24  2.1556e-21  3.5449e-24  2.1882e-21  3.5451e-24  2.2459e-21  3.5456e-24  2.3485e-21  3.5464e-24  2.5305e-21  3.5479e-24  2.8538e-21  3.5505e-24  3.4281e-21  3.5552e-24  4.4523e-21  3.5635e-24  6.2793e-21  3.5782e-24  9.5488e-21  3.6045e-24  1.5426e-20  3.6514e-24  2.6089e-20  3.7351e-24  4.5829e-20  3.9153e-24  8.3217e-20  4.2469e-24  1.5601e-19  4.7873e-24
      1.20  2.0835e-21  3.9708e-24  2.0866e-21  3.9709e-24  2.0921e-21  3.9709e-24  2.1020e-21  3.9710e-24  2.1195e-21  3.9712e-24  2.1507e-21  3.9715e-24  2.2060e-21  3.9720e-24  2.3042e-21  3.9729e-24  2.4785e-21  3.9745e-24  2.7882e-21  3.9774e-24  3.3383e-21  3.9826e-24  4.3187e-21  3.9918e-24  6.0688e-21  4.0082e-24  9.2000e-21  4.0374e-24  1.4831e-20  4.0894e-24  2.5049e-20  4.1824e-24  4.3947e-20  4.3748e-24  7.9804e-20  4.7467e-24  1.4969e-19  5.3480e-24
      1.25  2.0511e-21  4.4487e-24  2.0541e-21  4.4487e-24  2.0594e-21  4.4488e-24  2.0688e-21  4.4489e-24  2.0856e-21  4.4490e-24  2.1154e-21  4.4494e-24  2.1683e-21  4.4499e-24  2.2623e-21  4.4510e-24  2.4291e-21  4.4528e-24  2.7257e-21  4.4560e-24  3.2522e-21  4.4617e-24  4.1903e-21  4.4720e-24  5.8651e-21  4.4902e-24  8.8627e-21  4.5226e-24  1.4255e-20  4.5803e-24  2.4038e-20  4.6835e-24  4.2120e-20  4.8881e-24  7.6489e-20  5.3055e-24  1.4355e-19  5.9748e-24
      1.30  2.0208e-21  4.9844e-24  2.0236e-21  4.9844e-24  2.0287e-21  4.9845e-24  2.0377e-21  4.9846e-24  2.0538e-21  4.9848e-24  2.0823e-21  4.9851e-24  2.1329e-21  4.9858e-24  2.2228e-21  4.9869e-24  2.3823e-21  4.9889e-24  2.6660e-21  4.9925e-24  3.1698e-21  4.9989e-24  4.0668e-21  5.0103e-24  5.6686e-21  5.0305e-24  8.5359e-21  5.0665e-24  1.3695e-20  5.1306e-24  2.3059e-20  5.2452e-24  4.0345e-20  5.4614e-24  7.3267e-20  5.9303e-24  1.3757e-19  6.6758e-24
      1.35  1.9924e-21  5.5850e-24  1.9951e-21  5.5850e-24  1.9999e-21  5.5851e-24  2.0085e-21  5.5852e-24  2.0239e-21  5.5855e-24  2.0511e-21  5.5859e-24  2.0995e-21  5.5867e-24  2.1854e-21  5.5878e-24  2.3379e-21  5.5901e-24  2.6090e-21  5.5941e-24  3.0908e-21  5.6012e-24  3.9481e-21  5.6138e-24  5.4789e-21  5.6362e-24  8.2197e-21  5.6762e-24  1.3153e-20  5.7475e-24  2.2109e-20  5.8748e-24  3.8627e-20  6.1029e-24  7.0137e-20  6.6288e-24  1.3177e-19  7.4597e-24
      1.40  1.9657e-21  6.2585e-24  1.9683e-21  6.2585e-24  1.9729e-21  6.2586e-24  1.9812e-21  6.2587e-24  1.9958e-21  6.2590e-24  2.0218e-21  6.2594e-24  2.0680e-21  6.2602e-24  2.1501e-21  6.2616e-24  2.2958e-21  6.2641e-24  2.5548e-21  6.2685e-24  3.0151e-21  6.2764e-24  3.8340e-21  6.2904e-24  5.2959e-21  6.3154e-24  7.9144e-21  6.3599e-24  1.2628e-20  6.4391e-24  2.1189e-20  6.5805e-24  3.6982e-20  6.8339e-24  6.7106e-20  7.4099e-24  1.2613e-19  8.3364e-24
      1.45  1.9408e-21  7.0136e-24  1.9432e-21  7.0137e-24  1.9477e-21  7.0138e-24  1.9555e-21  7.0139e-24  1.9695e-21  7.0142e-24  1.9943e-21  7.0147e-24  2.0384e-21  7.0156e-24  2.1167e-21  7.0171e-24  2.2558e-21  7.0199e-24  2.5030e-21  7.0248e-24  2.9426e-21  7.0336e-24  3.7243e-21  7.0492e-24  5.1201e-21  7.0769e-24  7.6195e-21  7.1264e-24  1.2121e-20  7.2144e-24  2.0298e-20  7.3717e-24  3.5389e-20  7.6532e-24  6.4168e-20  8.2832e-24  1.2066e-19  9.3171e-24
      1.50  1.9174e-21  7.8604e-24  1.9198e-21  7.8605e-24  1.9240e-21  7.8606e-24  1.9315e-21  7.8608e-24  1.9448e-21  7.8611e-24  1.9684e-21  7.8616e-24  2.0105e-21  7.8626e-24  2.0852e-21  7.8643e-24  2.2179e-21  7.8674e-24  2.4537e-21  7.8730e-24  2.8732e-21  7.8826e-24  3.6193e-21  7.9000e-24  4.9509e-21  7.9309e-24  7.3354e-21  7.9858e-24  1.1631e-20  8.0838e-24  1.9437e-20  8.2586e-24  3.3847e-20  8.5716e-24  6.1325e-20  9.2596e-24  1.1536e-19  1.0414e-23
      1.55  1.8955e-21  8.8101e-24  1.8978e-21  8.8102e-24  1.9018e-21  8.8103e-24  1.9089e-21  8.8105e-24  1.9216e-21  8.8108e-24  1.9442e-21  8.8114e-24  1.9843e-21  8.8125e-24  2.0555e-21  8.8144e-24  2.1820e-21  8.8179e-24  2.4068e-21  8.8240e-24  2.8069e-21  8.8348e-24  3.5185e-21  8.8541e-24  4.7880e-21  8.8885e-24  7.0616e-21  8.9496e-24  1.1158e-20  9.0586e-24  1.8605e-20  9.2531e-24  3.2357e-20  9.6011e-24  5.8572e-20  1.0351e-23  1.1022e-19  1.1642e-23
      1.60  1.8750e-21  9.8751e-24  1.8772e-21  9.8752e-24  1.8810e-21  9.8753e-24  1.8878e-21  9.8755e-24  1.8999e-21  9.8759e-24  1.9214e-21  9.8766e-24  1.9596e-21  9.8778e-24  2.0274e-21  9.8800e-24  2.1480e-21  9.8838e-24  2.3622e-21  9.8906e-24  2.7434e-21  9.9026e-24  3.4218e-21  9.9243e-24  4.6314e-21  9.9624e-24  6.7987e-21  1.0030e-23  1.0702e-20  1.0152e-23  1.7802e-20  1.0368e-23  3.0918e-20  1.0755e-23  5.5913e-20  1.1572e-23  1.0524e-19  1.3015e-23
      1.65  1.8558e-21  1.1070e-23  1.8579e-21  1.1070e-23  1.8615e-21  1.1070e-23  1.8680e-21  1.1070e-23  1.8795e-21  1.1070e-23  1.9000e-21  1.1071e-23  1.9363e-21  1.1073e-23  2.0010e-21  1.1075e-23  2.1158e-21  1.1079e-23  2.3198e-21  1.1087e-23  2.6829e-21  1.1100e-23  3.3291e-21  1.1124e-23  4.4813e-21  1.1167e-23  6.5459e-21  1.1243e-23  1.0264e-20  1.1378e-23  1.7029e-20  1.1618e-23  2.9531e-20  1.2049e-23  5.3346e-20  1.2936e-23  1.0043e-19  1.4551e-23
      1.70  1.8379e-21  1.2409e-23  1.8398e-21  1.2409e-23  1.8433e-21  1.2409e-23  1.8494e-21  1.2410e-23  1.8604e-21  1.2410e-23  1.8799e-21  1.2411e-23  1.9145e-21  1.2413e-23  1.9760e-21  1.2415e-23  2.0853e-21  1.2420e-23  2.2796e-21  1.2428e-23  2.6251e-21  1.2443e-23  3.2404e-21  1.2470e-23  4.3376e-21  1.2517e-23  6.3030e-21  1.2602e-23  9.8426e-21  1.2752e-23  1.6285e-20  1.3020e-23  2.8196e-20  1.3500e-23  5.0874e-20  1.4460e-23  9.5789e-20  1.6270e-23
      1.75  1.8211e-21  1.3912e-23  1.8229e-21  1.3912e-23  1.8262e-21  1.3912e-23  1.8321e-21  1.3912e-23  1.8425e-21  1.3913e-23  1.8610e-21  1.3914e-23  1.8940e-21  1.3915e-23  1.9525e-21  1.3918e-23  2.0565e-21  1.3924e-23  2.2413e-21  1.3933e-23  2.5700e-21  1.3950e-23  3.1556e-21  1.3979e-23  4.1999e-21  1.4032e-23  6.0699e-21  1.4126e-23  9.4389e-21  1.4294e-23  1.5571e-20  1.4593e-23  2.6911e-20  1.5127e-23  4.8493e-20  1.6164e-23  9.1313e-20  1.8192e-23
      1.80  1.8054e-21  1.5597e-23  1.8071e-21  1.5597e-23  1.8103e-21  1.5597e-23  1.8158e-21  1.5598e-23  1.8257e-21  1.5598e-23  1.8433e-21  1.5599e-23  1.8747e-21  1.5601e-23  1.9303e-21  1.5604e-23  2.0292e-21  1.5611e-23  2.2051e-21  1.5621e-23  2.5176e-21  1.5639e-23  3.0746e-21  1.5673e-23  4.0681e-21  1.5732e-23  5.8467e-21  1.5837e-23  9.0519e-21  1.6023e-23  1.4885e-20  1.6357e-23  2.5677e-20  1.6952e-23  4.6205e-20  1.8070e-23  8.7001e-20  2.0350e-23
      1.85  1.7907e-21  1.7487e-23  1.7923e-21  1.7487e-23  1.7953e-21  1.7488e-23  1.8006e-21  1.7488e-23  1.8100e-21  1.7489e-23  1.8268e-21  1.7490e-23  1.8565e-21  1.7492e-23  1.9094e-21  1.7496e-23  2.0035e-21  1.7502e-23  2.1706e-21  1.7514e-23  2.4678e-21  1.7535e-23  2.9973e-21  1.7572e-23  3.9421e-21  1.7637e-23  5.6336e-21  1.7754e-23  8.6811e-21  1.7963e-23  1.4228e-20  1.8334e-23  2.4494e-20  1.8998e-23  4.4007e-20  2.0197e-23  8.2855e-20  2.2756e-23
      1.90  1.7769e-21  1.9608e-23  1.7785e-21  1.9608e-23  1.7813e-21  1.9608e-23  1.7863e-21  1.9608e-23  1.7953e-21  1.9609e-23  1.8112e-21  1.9611e-23  1.8395e-21  1.9613e-23  1.8898e-21  1.9617e-23  1.9791e-21  1.9624e-23  2.1380e-21  1.9637e-23  2.4205e-21  1.9660e-23  2.9237e-21  1.9702e-23  3.8217e-21  1.9775e-23  5.4298e-21  1.9906e-23  8.3263e-21  2.0138e-23  1.3599e-20  2.0553e-23  2.3360e-20  2.1293e-23  4.1916e-20  2.2619e-23  7.8872e-20  2.5452e-23
      1.95  1.7640e-21  2.1986e-23  1.7655e-21  2.1986e-23  1.7682e-21  2.1986e-23  1.7730e-21  2.1987e-23  1.7815e-21  2.1988e-23  1.7966e-21  2.1989e-23  1.8235e-21  2.1992e-23  1.8712e-21  2.1996e-23  1.9562e-21  2.2005e-23  2.1071e-21  2.2019e-23  2.3755e-21  2.2045e-23  2.8536e-21  2.2091e-23  3.7068e-21  2.2173e-23  5.2350e-21  2.2319e-23  7.9873e-21  2.2578e-23  1.2998e-20  2.3040e-23  2.2275e-20  2.3866e-23  3.9916e-20  2.5344e-23  7.5052e-20  2.8464e-23
      2.00  1.7520e-21  2.4654e-23  1.7534e-21  2.4654e-23  1.7560e-21  2.4654e-23  1.7605e-21  2.4655e-23  1.7686e-21  2.4656e-23  1.7829e-21  2.4657e-23  1.8085e-21  2.4660e-23  1.8538e-21  2.4666e-23  1.9345e-21  2.4675e-23  2.0779e-21  2.4691e-23  2.3329e-21  2.4720e-23  2.7868e-21  2.4771e-23  3.5974e-21  2.4862e-23  5.0492e-21  2.5025e-23  7.6643e-21  2.5314e-23  1.2424e-20  2.5830e-23  2.1239e-20  2.6751e-23  3.8003e-20  2.8399e-23  7.1393e-20  3.1832e-23
      2.05  1.7408e-21  2.7647e-23  1.7421e-21  2.7647e-23  1.7445e-21  2.7647e-23  1.7489e-21  2.7648e-23  1.7565e-21  2.7649e-23  1.7701e-21  2.7651e-23  1.7944e-21  2.7654e-23  1.8374e-21  2.7660e-23  1.9140e-21  2.7670e-23  2.0502e-21  2.7688e-23  2.2924e-21  2.7720e-23  2.7234e-21  2.7778e-23  3.4932e-21  2.7880e-23  4.8719e-21  2.8062e-23  7.3562e-21  2.8386e-23  1.1877e-20  2.8964e-23  2.0249e-20  2.9995e-23  3.6175e-20  3.1840e-23  6.7891e-20  3.5627e-23
      2.10  1.7302e-21  3.1004e-23  1.7315e-21  3.1004e-23  1.7338e-21  3.1005e-23  1.7379e-21  3.1005e-23  1.7452e-21  3.1006e-23  1.7581e-21  3.1008e-23  1.7811e-21  3.1012e-23  1.8220e-21  3.1018e-23  1.8947e-21  3.1030e-23  2.0240e-21  3.1050e-23  2.2540e-21  3.1086e-23  2.6634e-21  3.1150e-23  3.3941e-21  3.1265e-23  4.7032e-21  3.1468e-23  7.0625e-21  3.1830e-23  1.1355e-20  3.2474e-23  1.9305e-20  3.3625e-23  3.4431e-20  3.5683e-23  6.4543e-20  3.9842e-23
      2.15  1.7204e-21  3.4770e-23  1.7216e-21  3.4770e-23  1.7238e-21  3.4771e-23  1.7277e-21  3.4771e-23  1.7346e-21  3.4773e-23  1.7469e-21  3.4775e-23  1.7687e-21  3.4779e-23  1.8075e-21  3.4786e-23  1.8765e-21  3.4799e-23  1.9993e-21  3.4822e-23  2.2177e-21  3.4862e-23  2.6064e-21  3.4934e-23  3.3000e-21  3.5061e-23  4.5427e-21  3.5288e-23  6.7828e-21  3.5692e-23  1.0859e-20  3.6412e-23  1.8406e-20  3.7696e-23  3.2769e-20  3.9993e-23  6.1346e-20  4.4553e-23
      2.20  1.7112e-21  3.8995e-23  1.7124e-21  3.8995e-23  1.7145e-21  3.8996e-23  1.7182e-21  3.8996e-23  1.7247e-21  3.8998e-23  1.7364e-21  3.9000e-23  1.7571e-21  3.9005e-23  1.7939e-21  3.9013e-23  1.8594e-21  3.9027e-23  1.9759e-21  3.9052e-23  2.1832e-21  3.9098e-23  2.5523e-21  3.9178e-23  3.2106e-21  3.9320e-23  4.3902e-21  3.9574e-23  6.5166e-21  4.0025e-23  1.0386e-20  4.0829e-23  1.7549e-20  4.2263e-23  3.1185e-20  4.4827e-23  5.8298e-20  4.9821e-23
      2.25  1.7027e-21  4.3734e-23  1.7038e-21  4.3735e-23  1.7057e-21  4.3735e-23  1.7092e-21  4.3736e-23  1.7154e-21  4.3738e-23  1.7265e-21  4.3741e-23  1.7461e-21  4.3746e-23  1.7811e-21  4.3755e-23  1.8433e-21  4.3770e-23  1.9539e-21  4.3799e-23  2.1506e-21  4.3849e-23  2.5010e-21  4.3939e-23  3.1258e-21  4.4098e-23  4.2454e-21  4.4382e-23  6.2636e-21  4.4886e-23  9.9373e-21  4.5785e-23  1.6736e-20  4.7388e-23  2.9677e-20  5.0254e-23  5.5394e-20  5.5719e-23
      2.30  1.6946e-21  4.9051e-23  1.6957e-21  4.9052e-23  1.6975e-21  4.9052e-23  1.7009e-21  4.9053e-23  1.7068e-21  4.9055e-23  1.7173e-21  4.9058e-23  1.7359e-21  4.9064e-23  1.7691e-21  4.9074e-23  1.8281e-21  4.9092e-23  1.9330e-21  4.9123e-23  2.1198e-21  4.9180e-23  2.4524e-21  4.9280e-23  3.0455e-21  4.9458e-23  4.1079e-21  4.9775e-23  6.0232e-21  5.0339e-23  9.5102e-21  5.1343e-23  1.5963e-20  5.3135e-23  2.8242e-20  5.6335e-23  5.2627e-20  6.2299e-23
      2.35  1.6871e-21  5.5016e-23  1.6881e-21  5.5017e-23  1.6899e-21  5.5017e-23  1.6931e-21  5.5018e-23  1.6987e-21  5.5020e-23  1.7086e-21  5.5024e-23  1.7263e-21  5.5030e-23  1.7578e-21  5.5042e-23  1.8138e-21  5.5061e-23  1.9134e-21  5.5097e-23  2.0903e-21  5.5160e-23  2.4063e-21  5.5272e-23  2.9694e-21  5.5471e-23  3.9775e-21  5.5825e-23  5.7950e-21  5.6456e-23  9.1044e-21  5.7578e-23  1.5229e-20  5.9580e-23  2.6879e-20  6.3156e-23  4.9994e-20  6.9650e-23
      2.40  1.6801e-21  6.1708e-23  1.6811e-21  6.1709e-23  1.6828e-21  6.1709e-23  1.6858e-21  6.1711e-23  1.6911e-21  6.1713e-23  1.7005e-21  6.1717e-23  1.7173e-21  6.1724e-23  1.7472e-21  6.1736e-23  1.8003e-21  6.1759e-23  1.8948e-21  6.1798e-23  2.0631e-21  6.1869e-23  2.3627e-21  6.1994e-23  2.8973e-21  6.2217e-23  3.8539e-21  6.2613e-23  5.5785e-21  6.3318e-23  8.7192e-21  6.4574e-23  1.4532e-20  6.6812e-23  2.5583e-20  7.0809e-23  4.7501e-20  7.7972e-23
      2.45  1.6736e-21  6.9216e-23  1.6745e-21  6.9216e-23  1.6761e-21  6.9217e-23  1.6789e-21  6.9218e-23  1.6840e-21  6.9221e-23  1.6929e-21  6.9225e-23  1.7089e-21  6.9233e-23  1.7372e-21  6.9247e-23  1.7876e-21  6.9272e-23  1.8773e-21  6.9317e-23  2.0370e-21  6.9395e-23  2.3215e-21  6.9535e-23  2.8289e-21  6.9784e-23  3.7368e-21  7.0227e-23  5.3732e-21  7.1016e-23  8.3536e-21  7.2420e-23  1.3870e-20  7.4923e-23  2.4356e-20  7.9391e-23  4.5144e-20  8.7393e-23
      2.50  1.6675e-21  7.7638e-23  1.6684e-21  7.7638e-23  1.6699e-21  7.7639e-23  1.6726e-21  7.7641e-23  1.6773e-21  7.7644e-23  1.6858e-21  7.7649e-23  1.7010e-21  7.7657e-23  1.7279e-21  7.7673e-23  1.7757e-21  7.7701e-23  1.8609e-21  7.7751e-23  2.0124e-21  7.7839e-23  2.2824e-21  7.7995e-23  2.7641e-21  7.8274e-23  3.6261e-21  7.8771e-23  5.1788e-21  7.9653e-23  8.0069e-21  8.1224e-23  1.3241e-20  8.4024e-23  2.3191e-20  8.9021e-23  4.2906e-20  9.7967e-23
      2.55  1.6618e-21  8.7087e-23  1.6626e-21  8.7088e-23  1.6641e-21  8.7089e-23  1.6666e-21  8.7090e-23  1.6711e-21  8.7094e-23  1.6792e-21  8.7099e-23  1.6936e-21  8.7109e-23  1.7191e-21  8.7127e-23  1.7645e-21  8.7158e-23  1.8453e-21  8.7213e-23  1.9891e-21  8.7312e-23  2.2454e-21  8.7487e-23  2.7027e-21  8.7799e-23  3.5210e-21  8.8354e-23  4.9944e-21  8.9341e-23  7.6780e-21  9.1099e-23  1.2645e-20  9.4231e-23  2.2087e-20  9.9819e-23  4.0782e-20  1.0982e-22
      2.60  1.6565e-21  9.7688e-23  1.6573e-21  9.7689e-23  1.6586e-21  9.7690e-23  1.6610e-21  9.7692e-23  1.6653e-21  9.7695e-23  1.6730e-21  9.7702e-23  1.6866e-21  9.7713e-23  1.7109e-21  9.7732e-23  1.7539e-21  9.7767e-23  1.8306e-21  9.7829e-23  1.9672e-21  9.7940e-23  2.2104e-21  9.8136e-23  2.6445e-21  9.8485e-23  3.4214e-21  9.9106e-23  4.8197e-21  1.0021e-22  7.3662e-21  1.0218e-22  1.2080e-20  1.0568e-22  2.1038e-20  1.1193e-22  3.8769e-20  1.2311e-22
      2.65  1.6515e-21  1.0958e-22  1.6523e-21  1.0958e-22  1.6535e-21  1.0958e-22  1.6558e-21  1.0959e-22  1.6599e-21  1.0959e-22  1.6672e-21  1.0960e-22  1.6801e-21  1.0961e-22  1.7031e-21  1.0963e-22  1.7440e-21  1.0967e-22  1.8168e-21  1.0974e-22  1.9464e-21  1.0986e-22  2.1773e-21  1.1008e-22  2.5894e-21  1.1047e-22  3.3270e-21  1.1117e-22  4.6545e-21  1.1241e-22  7.0705e-21  1.1461e-22  1.1544e-20  1.1853e-22  2.0044e-20  1.2552e-22  3.6861e-20  1.3803e-22
      2.70  1.6469e-21  1.2293e-22  1.6476e-21  1.2293e-22  1.6488e-21  1.2293e-22  1.6510e-21  1.2293e-22  1.6549e-21  1.2293e-22  1.6618e-21  1.2294e-22  1.6740e-21  1.2296e-22  1.6959e-21  1.2298e-22  1.7347e-21  1.2302e-22  1.8038e-21  1.2310e-22  1.9268e-21  1.2324e-22  2.1459e-21  1.2349e-22  2.5371e-21  1.2392e-22  3.2374e-21  1.2470e-22  4.4979e-21  1.2609e-22  6.7904e-21  1.2855e-22  1.1035e-20  1.3294e-22  1.9101e-20  1.4077e-22  3.5054e-20  1.5475e-22
      2.75  1.6426e-21  1.3790e-22  1.6432e-21  1.3790e-22  1.6444e-21  1.3790e-22  1.6465e-21  1.3790e-22  1.6501e-21  1.3791e-22  1.6567e-21  1.3791e-22  1.6683e-21  1.3793e-22  1.6890e-21  1.3796e-22  1.7259e-21  1.3801e-22  1.7915e-21  1.3809e-22  1.9082e-21  1.3825e-22  2.1163e-21  1.3852e-22  2.4876e-21  1.3901e-22  3.1525e-21  1.3988e-22  4.3493e-21  1.4143e-22  6.5251e-21  1.4419e-22  1.0553e-20  1.4911e-22  1.8206e-20  1.5787e-22  3.3339e-20  1.7352e-22
      2.80  1.6385e-21  1.5469e-22  1.6392e-21  1.5469e-22  1.6403e-21  1.5469e-22  1.6422e-21  1.5470e-22  1.6457e-21  1.5470e-22  1.6519e-21  1.5471e-22  1.6630e-21  1.5473e-22  1.6826e-21  1.5476e-22  1.7176e-21  1.5482e-22  1.7799e-21  1.5491e-22  1.8907e-21  1.5509e-22  2.0882e-21  1.5539e-22  2.4407e-21  1.5594e-22  3.0719e-21  1.5692e-22  4.2082e-21  1.5865e-22  6.2736e-21  1.6174e-22  1.0095e-20  1.6724e-22  1.7357e-20  1.7705e-22  3.1713e-20  1.9456e-22
      2.85  1.6348e-21  1.7354e-22  1.6354e-21  1.7354e-22  1.6364e-21  1.7354e-22  1.6383e-21  1.7354e-22  1.6416e-21  1.7355e-22  1.6475e-21  1.7356e-22  1.6580e-21  1.7358e-22  1.6766e-21  1.7361e-22  1.7098e-21  1.7367e-22  1.7689e-21  1.7378e-22  1.8741e-21  1.7398e-22  2.0615e-21  1.7432e-22  2.3962e-21  1.7494e-22  2.9954e-21  1.7603e-22  4.0743e-21  1.7797e-22  6.0350e-21  1.8143e-22  9.6613e-21  1.8759e-22  1.6552e-20  1.9857e-22  3.0170e-20  2.1817e-22
      2.90  1.6313e-21  1.9468e-22  1.6318e-21  1.9468e-22  1.6328e-21  1.9468e-22  1.6346e-21  1.9468e-22  1.6377e-21  1.9469e-22  1.6433e-21  1.9470e-22  1.6533e-21  1.9473e-22  1.6710e-21  1.9476e-22  1.7025e-21  1.9483e-22  1.7586e-21  1.9496e-22  1.8584e-21  1.9517e-22  2.0363e-21  1.9556e-22  2.3540e-21  1.9625e-22  2.9229e-21  1.9747e-22  3.9471e-21  1.9965e-22  5.8087e-21  2.0352e-22  9.2495e-21  2.1042e-22  1.5788e-20  2.2271e-22  2.8707e-20  2.4465e-22
      2.95  1.6280e-21  2.1840e-22  1.6285e-21  2.1840e-22  1.6295e-21  2.1840e-22  1.6311e-21  2.1841e-22  1.6341e-21  2.1841e-22  1.6394e-21  2.1843e-22  1.6489e-21  2.1845e-22  1.6657e-21  2.1849e-22  1.6956e-21  2.1857e-22  1.7488e-21  2.1871e-22  1.8436e-21  2.1895e-22  2.0125e-21  2.1939e-22  2.3140e-21  2.2016e-22  2.8540e-21  2.2153e-22  3.8264e-21  2.2397e-22  5.5938e-21  2.2831e-22  8.8595e-21  2.3603e-22  1.5063e-20  2.4980e-22  2.7320e-20  2.7436e-22
      3.00  1.6249e-21  2.4501e-22  1.6254e-21  2.4501e-22  1.6263e-21  2.4501e-22  1.6279e-21  2.4502e-22  1.6308e-21  2.4503e-22  1.6358e-21  2.4504e-22  1.6448e-21  2.4507e-22  1.6607e-21  2.4512e-22  1.6891e-21  2.4521e-22  1.7396e-21  2.4536e-22  1.8296e-21  2.4563e-22  1.9899e-21  2.4612e-22  2.2761e-21  2.4698e-22  2.7886e-21  2.4852e-22  3.7117e-21  2.5125e-22  5.3896e-21  2.5611e-22  8.4896e-21  2.6476e-22  1.4376e-20  2.8018e-22  2.6004e-20  3.0769e-22
      3.05  1.6221e-21  2.7487e-22  1.6226e-21  2.7487e-22  1.6234e-21  2.7487e-22  1.6249e-21  2.7488e-22  1.6276e-21  2.7489e-22  1.6324e-21  2.7491e-22  1.6409e-21  2.7494e-22  1.6561e-21  2.7499e-22  1.6830e-21  2.7509e-22  1.7309e-21  2.7526e-22  1.8163e-21  2.7557e-22  1.9684e-21  2.7611e-22  2.2400e-21  2.7708e-22  2.7265e-21  2.7880e-22  3.6027e-21  2.8186e-22  5.1955e-21  2.8731e-22  8.1381e-21  2.9700e-22  1.3723e-20  3.1427e-22  2.4756e-20  3.4508e-22
      3.10  1.6194e-21  3.0837e-22  1.6199e-21  3.0837e-22  1.6207e-21  3.0837e-22  1.6221e-21  3.0838e-22  1.6247e-21  3.0839e-22  1.6292e-21  3.0841e-22  1.6373e-21  3.0845e-22  1.6517e-21  3.0851e-22  1.6772e-21  3.0861e-22  1.7227e-21  3.0881e-22  1.8037e-21  3.0915e-22  1.9481e-21  3.0976e-22  2.2058e-21  3.1084e-22  2.6675e-21  3.1277e-22  3.4990e-21  3.1620e-22  5.0109e-21  3.2231e-22  7.8039e-21  3.3317e-22  1.3102e-20  3.5252e-22  2.3571e-20  3.8702e-22
      3.15  1.6170e-21  3.4596e-22  1.6174e-21  3.4596e-22  1.6182e-21  3.4596e-22  1.6195e-21  3.4597e-22  1.6219e-21  3.4598e-22  1.6263e-21  3.4600e-22  1.6339e-21  3.4604e-22  1.6475e-21  3.4611e-22  1.6718e-21  3.4623e-22  1.7150e-21  3.4645e-22  1.7918e-21  3.4683e-22  1.9288e-21  3.4751e-22  2.1733e-21  3.4873e-22  2.6114e-21  3.5089e-22  3.4005e-21  3.5473e-22  4.8353e-21  3.6157e-22  7.4862e-21  3.7375e-22  1.2514e-20  3.9542e-22  2.2445e-20  4.3407e-22
      3.20  1.6147e-21  3.8813e-22  1.6151e-21  3.8813e-22  1.6158e-21  3.8813e-22  1.6171e-21  3.8814e-22  1.6194e-21  3.8816e-22  1.6235e-21  3.8818e-22  1.6307e-21  3.8822e-22  1.6437e-21  3.8830e-22  1.6667e-21  3.8844e-22  1.7076e-21  3.8868e-22  1.7805e-21  3.8911e-22  1.9104e-21  3.8987e-22  2.1425e-21  3.9124e-22  2.5581e-21  3.9366e-22  3.3067e-21  3.9797e-22  4.6681e-21  4.0563e-22  7.1837e-21  4.1927e-22  1.1955e-20  4.4356e-22  2.1374e-20  4.8686e-22
      3.25  1.6125e-21  4.3544e-22  1.6129e-21  4.3545e-22  1.6136e-21  4.3545e-22  1.6148e-21  4.3546e-22  1.6170e-21  4.3547e-22  1.6209e-21  4.3550e-22  1.6278e-21  4.3555e-22  1.6400e-21  4.3564e-22  1.6618e-21  4.3579e-22  1.7007e-21  4.3606e-22  1.7698e-21  4.3654e-22  1.8930e-21  4.3740e-22  2.1131e-21  4.3893e-22  2.5073e-21  4.4164e-22  3.2174e-21  4.4647e-22  4.5089e-21  4.5506e-22  6.8957e-21  4.7035e-22  1.1422e-20  4.9757e-22  2.0357e-20  5.4608e-22
      3.30  1.6105e-21  4.8853e-22  1.6109e-21  4.8853e-22  1.6115e-21  4.8854e-22  1.6127e-21  4.8855e-22  1.6148e-21  4.8856e-22  1.6184e-21  4.8860e-22  1.6250e-21  4.8865e-22  1.6366e-21  4.8875e-22  1.6573e-21  4.8892e-22  1.6941e-21  4.8922e-22  1.7597e-21  4.8976e-22  1.8765e-21  4.9072e-22  2.0852e-21  4.9243e-22  2.4590e-21  4.9548e-22  3.1325e-21  5.0089e-22  4.3574e-21  5.1052e-22  6.6215e-21  5.2765e-22  1.0916e-20  5.5816e-22  1.9390e-20  6.1252e-22
      3.35  1.6086e-21  5.4809e-22  1.6090e-21  5.4810e-22  1.6096e-21  5.4810e-22  1.6107e-21  5.4811e-22  1.6127e-21  5.4813e-22  1.6162e-21  5.4817e-22  1.6224e-21  5.4823e-22  1.6334e-21  5.4833e-22  1.6530e-21  5.4853e-22  1.6879e-21  5.4887e-22  1.7500e-21  5.4947e-22  1.8608e-21  5.5055e-22  2.0586e-21  5.5247e-22  2.4131e-21  5.5588e-22  3.0516e-21  5.6195e-22  4.2130e-21  5.7274e-22  6.3602e-21  5.9195e-22  1.0433e-20  6.2613e-22  1.8471e-20  6.8705e-22
      3.40  1.6069e-21  6.1492e-22  1.6072e-21  6.1492e-22  1.6078e-21  6.1493e-22  1.6089e-21  6.1494e-22  1.6107e-21  6.1496e-22  1.6140e-21  6.1500e-22  1.6199e-21  6.1507e-22  1.6304e-21  6.1519e-22  1.6489e-21  6.1541e-22  1.6820e-21  6.1579e-22  1.7409e-21  6.1647e-22  1.8459e-21  6.1768e-22  2.0334e-21  6.1983e-22  2.3693e-21  6.2365e-22  2.9745e-21  6.3045e-22  4.0755e-21  6.4255e-22  6.1113e-21  6.6408e-22  9.9741e-21  7.0240e-22  1.7596e-20  7.7067e-22
      3.45  1.6053e-21  6.8990e-22  1.6056e-21  6.8990e-22  1.6062e-21  6.8991e-22  1.6072e-21  6.8993e-22  1.6089e-21  6.8995e-22  1.6120e-21  6.8999e-22  1.6176e-21  6.9007e-22  1.6275e-21  6.9020e-22  1.6451e-21  6.9044e-22  1.6765e-21  6.9087e-22  1.7323e-21  6.9164e-22  1.8317e-21  6.9299e-22  2.0094e-21  6.9540e-22  2.3277e-21  6.9969e-22  2.9012e-21  7.0731e-22  3.9446e-21  7.2088e-22  5.8741e-21  7.4501e-22  9.5364e-21  7.8797e-22  1.6764e-20  8.6449e-22
      3.50  1.6038e-21  7.7403e-22  1.6041e-21  7.7403e-22  1.6046e-21  7.7404e-22  1.6056e-21  7.7405e-22  1.6072e-21  7.7408e-22  1.6102e-21  7.7413e-22  1.6155e-21  7.7422e-22  1.6248e-21  7.7437e-22  1.6415e-21  7.7464e-22  1.6712e-21  7.7512e-22  1.7241e-21  7.7597e-22  1.8183e-21  7.7749e-22  1.9865e-21  7.8020e-22  2.2880e-21  7.8500e-22  2.8313e-21  7.9355e-22  3.8198e-21  8.0876e-22  5.6482e-21  8.3581e-22  9.1193e-21  8.8397e-22  1.5971e-20  9.6974e-22
      3.55  1.6024e-21  8.6842e-22  1.6027e-21  8.6842e-22  1.6032e-21  8.6843e-22  1.6041e-21  8.6845e-22  1.6056e-21  8.6848e-22  1.6085e-21  8.6853e-22  1.6134e-21  8.6863e-22  1.6223e-21  8.6880e-22  1.6381e-21  8.6910e-22  1.6662e-21  8.6964e-22  1.7163e-21  8.7060e-22  1.8055e-21  8.7230e-22  1.9648e-21  8.7533e-22  2.2503e-21  8.8072e-22  2.7647e-21  8.9031e-22  3.7010e-21  9.0736e-22  5.4329e-21  9.3769e-22  8.7218e-21  9.9168e-22  1.5217e-20  1.0878e-21
      3.60  1.6011e-21  9.7432e-22  1.6014e-21  9.7433e-22  1.6018e-21  9.7434e-22  1.6027e-21  9.7436e-22  1.6042e-21  9.7439e-22  1.6068e-21  9.7445e-22  1.6115e-21  9.7456e-22  1.6200e-21  9.7475e-22  1.6349e-21  9.7509e-22  1.6615e-21  9.7569e-22  1.7089e-21  9.7677e-22  1.7933e-21  9.7868e-22  1.9441e-21  9.8208e-22  2.2144e-21  9.8812e-22  2.7014e-21  9.9887e-22  3.5878e-21  1.0180e-21  5.2278e-21  1.0520e-21  8.3431e-21  1.1125e-21  1.4497e-20  1.2203e-21
      3.65  1.5999e-21  1.0931e-21  1.6001e-21  1.0932e-21  1.6006e-21  1.0932e-21  1.6014e-21  1.0932e-21  1.6028e-21  1.0932e-21  1.6053e-21  1.0933e-21  1.6098e-21  1.0934e-21  1.6177e-21  1.0936e-21  1.6319e-21  1.0940e-21  1.6570e-21  1.0947e-21  1.7019e-21  1.0959e-21  1.7818e-21  1.0980e-21  1.9245e-21  1.1018e-21  2.1802e-21  1.1086e-21  2.6411e-21  1.1207e-21  3.4800e-21  1.1421e-21  5.0324e-21  1.1802e-21  7.9823e-21  1.2481e-21  1.3812e-20  1.3689e-21
      3.70  1.5988e-21  1.2265e-21  1.5990e-21  1.2265e-21  1.5994e-21  1.2265e-21  1.6002e-21  1.2265e-21  1.6015e-21  1.2266e-21  1.6039e-21  1.2266e-21  1.6081e-21  1.2268e-21  1.6156e-21  1.2270e-21  1.6290e-21  1.2274e-21  1.6528e-21  1.2282e-21  1.6952e-21  1.2295e-21  1.7708e-21  1.2319e-21  1.9058e-21  1.2362e-21  2.1477e-21  1.2438e-21  2.5837e-21  1.2573e-21  3.3774e-21  1.2814e-21  4.8464e-21  1.3241e-21  7.6386e-21  1.4002e-21  1.3160e-20  1.5357e-21
      3.75  1.5977e-21  1.3760e-21  1.5979e-21  1.3761e-21  1.5983e-21  1.3761e-21  1.5991e-21  1.3761e-21  1.6003e-21  1.3761e-21  1.6026e-21  1.3762e-21  1.6066e-21  1.3764e-21  1.6137e-21  1.3767e-21  1.6263e-21  1.3771e-21  1.6488e-21  1.3780e-21  1.6889e-21  1.3795e-21  1.7604e-21  1.3822e-21  1.8880e-21  1.3870e-21  2.1168e-21  1.3955e-21  2.5291e-21  1.4107e-21  3.2797e-21  1.4376e-21  4.6693e-21  1.4856e-21  7.3114e-21  1.5709e-21  1.2538e-20  1.7228e-21
      3.80  1.5967e-21  1.5439e-21  1.5970e-21  1.5439e-21  1.5973e-21  1.5439e-21  1.5980e-21  1.5439e-21  1.5992e-21  1.5440e-21  1.6013e-21  1.5441e-21  1.6051e-21  1.5443e-21  1.6118e-21  1.5446e-21  1.6238e-21  1.5451e-21  1.6451e-21  1.5461e-21  1.6830e-21  1.5478e-21  1.7505e-21  1.5508e-21  1.8712e-21  1.5561e-21  2.0874e-21  1.5657e-21  2.4772e-21  1.5827e-21  3.1869e-21  1.6129e-21  4.5009e-21  1.6667e-21  6.9999e-21  1.7624e-21  1.1946e-20  1.9327e-21
      3.85  1.5958e-21  1.7322e-21  1.5960e-21  1.7322e-21  1.5964e-21  1.7322e-21  1.5970e-21  1.7323e-21  1.5982e-21  1.7323e-21  1.6002e-21  1.7324e-21  1.6037e-21  1.7326e-21  1.6101e-21  1.7330e-21  1.6214e-21  1.7336e-21  1.6415e-21  1.7346e-21  1.6773e-21  1.7365e-21  1.7411e-21  1.7399e-21  1.8551e-21  1.7460e-21  2.0595e-21  1.7567e-21  2.4278e-21  1.7757e-21  3.0986e-21  1.8096e-21  4.3407e-21  1.8699e-21  6.7037e-21  1.9772e-21  1.1383e-20  2.1682e-21
      3.90  1.5950e-21  1.9435e-21  1.5952e-21  1.9435e-21  1.5955e-21  1.9435e-21  1.5961e-21  1.9435e-21  1.5972e-21  1.9436e-21  1.5991e-21  1.9437e-21  1.6025e-21  1.9440e-21  1.6085e-21  1.9443e-21  1.6191e-21  1.9450e-21  1.6381e-21  1.9462e-21  1.6719e-21  1.9483e-21  1.7322e-21  1.9521e-21  1.8399e-21  1.9589e-21  2.0330e-21  1.9709e-21  2.3809e-21  1.9923e-21  3.0147e-21  2.0303e-21  4.1884e-21  2.0980e-21  6.4220e-21  2.2183e-21  1.0847e-20  2.4325e-21
      3.95  1.5942e-21  2.1805e-21  1.5944e-21  2.1806e-21  1.5947e-21  2.1806e-21  1.5953e-21  2.1806e-21  1.5963e-21  2.1807e-21  1.5981e-21  2.1808e-21  1.6013e-21  2.1811e-21  1.6069e-21  2.1815e-21  1.6170e-21  2.1823e-21  1.6349e-21  2.1836e-21  1.6669e-21  2.1860e-21  1.7238e-21  2.1903e-21  1.8255e-21  2.1978e-21  2.0078e-21  2.2113e-21  2.3364e-21  2.2353e-21  2.9350e-21  2.2779e-21  4.0438e-21  2.3538e-21  6.1543e-21  2.4887e-21  1.0337e-20  2.7289e-21
