# This was generated using Cloudy10 and the columns are ordered 
# as log10 of the fraction of the metallicity to the solar metallicity
# 'h_*_Z' and 'c_*_Z' stands for cooling and heating respectively 
# at * metalicity
#
# NOTE: This was generated separately from loop_coolingcurve_w_UV.py
#       using Output_metals_w_redshift.py.
#
# Redshift = 8.5
# hden = -8.5
#
#     temp   h_-3.00_Z   c_-3.00_Z   h_-2.75_Z   c_-2.75_Z   h_-2.50_Z   c_-2.50_Z   h_-2.25_Z   c_-2.25_Z   h_-2.00_Z   c_-2.00_Z   h_-1.75_Z   c_-1.75_Z   h_-1.50_Z   c_-1.50_Z   h_-1.25_Z   c_-1.25_Z   h_-1.00_Z   c_-1.00_Z   h_-0.75_Z   c_-0.75_Z   h_-0.50_Z   c_-0.50_Z   h_-0.25_Z   c_-0.25_Z    h_0.00_Z    c_0.00_Z    h_0.25_Z    c_0.25_Z    h_0.50_Z    c_0.50_Z    h_0.75_Z    c_0.75_Z    h_1.00_Z    c_1.00_Z    h_1.25_Z    c_1.25_Z    h_1.50_Z    c_1.50_Z 
      4.00  4.3951e-22  1.6394e-19  4.3952e-22  1.6394e-19  4.3955e-22  1.6394e-19  4.3960e-22  1.6394e-19  4.3968e-22  1.6395e-19  4.3982e-22  1.6396e-19  4.4007e-22  1.6397e-19  4.4053e-22  1.6400e-19  4.4133e-22  1.6405e-19  4.4276e-22  1.6414e-19  4.4530e-22  1.6431e-19  4.4982e-22  1.6460e-19  4.5970e-22  1.6581e-19  4.7724e-22  1.6790e-19  5.0501e-22  1.7020e-19  5.5323e-22  1.7348e-19  6.4082e-22  1.7884e-19  8.0550e-22  1.8810e-19  1.1284e-21  2.0436e-19
      4.05  4.3802e-22  1.8363e-19  4.3803e-22  1.8364e-19  4.3806e-22  1.8364e-19  4.3810e-22  1.8364e-19  4.3818e-22  1.8365e-19  4.3831e-22  1.8366e-19  4.3856e-22  1.8368e-19  4.3898e-22  1.8371e-19  4.3975e-22  1.8377e-19  4.4110e-22  1.8387e-19  4.4352e-22  1.8405e-19  4.4781e-22  1.8438e-19  4.5780e-22  1.8596e-19  4.7469e-22  1.8835e-19  5.0118e-22  1.9095e-19  5.4702e-22  1.9465e-19  6.3014e-22  2.0069e-19  7.8630e-22  2.1110e-19  1.0921e-21  2.2938e-19
      4.10  4.3653e-22  2.0567e-19  4.3654e-22  2.0567e-19  4.3656e-22  2.0568e-19  4.3661e-22  2.0568e-19  4.3668e-22  2.0569e-19  4.3681e-22  2.0570e-19  4.3704e-22  2.0572e-19  4.3744e-22  2.0575e-19  4.3817e-22  2.0582e-19  4.3946e-22  2.0594e-19  4.4175e-22  2.0614e-19  4.4582e-22  2.0651e-19  4.5599e-22  2.0855e-19  4.7227e-22  2.1128e-19  4.9756e-22  2.1423e-19  5.4114e-22  2.1840e-19  6.2004e-22  2.2519e-19  7.6811e-22  2.3691e-19  1.0578e-21  2.5747e-19
      4.15  4.3502e-22  2.3032e-19  4.3504e-22  2.3032e-19  4.3506e-22  2.3032e-19  4.3510e-22  2.3033e-19  4.3517e-22  2.3033e-19  4.3529e-22  2.3035e-19  4.3551e-22  2.3037e-19  4.3589e-22  2.3041e-19  4.3658e-22  2.3048e-19  4.3780e-22  2.3061e-19  4.3998e-22  2.3085e-19  4.4385e-22  2.3126e-19  4.5426e-22  2.3388e-19  4.6998e-22  2.3700e-19  4.9413e-22  2.4034e-19  5.3557e-22  2.4505e-19  6.1048e-22  2.5269e-19  7.5090e-22  2.6587e-19  1.0253e-21  2.8899e-19
      4.20  4.3350e-22  2.5787e-19  4.3351e-22  2.5788e-19  4.3353e-22  2.5788e-19  4.3357e-22  2.5788e-19  4.3363e-22  2.5789e-19  4.3375e-22  2.5791e-19  4.3396e-22  2.5793e-19  4.3432e-22  2.5798e-19  4.3498e-22  2.5806e-19  4.3614e-22  2.5821e-19  4.3820e-22  2.5847e-19  4.4187e-22  2.5893e-19  4.5261e-22  2.6229e-19  4.6781e-22  2.6584e-19  4.9090e-22  2.6964e-19  5.3032e-22  2.7494e-19  6.0145e-22  2.8355e-19  7.3462e-22  2.9837e-19  9.9454e-22  3.2437e-19
      4.25  4.3194e-22  2.8867e-19  4.3195e-22  2.8868e-19  4.3197e-22  2.8868e-19  4.3201e-22  2.8868e-19  4.3207e-22  2.8869e-19  4.3218e-22  2.8871e-19  4.3238e-22  2.8874e-19  4.3272e-22  2.8879e-19  4.3334e-22  2.8888e-19  4.3445e-22  2.8905e-19  4.3641e-22  2.8934e-19  4.3990e-22  2.8986e-19  4.5104e-22  2.9412e-19  4.6575e-22  2.9819e-19  4.8784e-22  3.0249e-19  5.2537e-22  3.0848e-19  5.9293e-22  3.1817e-19  7.1927e-22  3.3484e-19  9.6555e-22  3.6408e-19
      4.30  4.3035e-22  3.2309e-19  4.3036e-22  3.2309e-19  4.3038e-22  3.2309e-19  4.3041e-22  3.2310e-19  4.3047e-22  3.2311e-19  4.3057e-22  3.2313e-19  4.3076e-22  3.2316e-19  4.3109e-22  3.2322e-19  4.3168e-22  3.2332e-19  4.3273e-22  3.2351e-19  4.3459e-22  3.2384e-19  4.3790e-22  3.2442e-19  4.4953e-22  3.2981e-19  4.6380e-22  3.3447e-19  4.8495e-22  3.3935e-19  5.2069e-22  3.4611e-19  5.8488e-22  3.5702e-19  7.0476e-22  3.7577e-19  9.3817e-22  4.0865e-19
      4.35  4.2870e-22  3.6153e-19  4.2871e-22  3.6153e-19  4.2873e-22  3.6153e-19  4.2876e-22  3.6154e-19  4.2881e-22  3.6155e-19  4.2891e-22  3.6157e-19  4.2909e-22  3.6161e-19  4.2940e-22  3.6168e-19  4.2996e-22  3.6179e-19  4.3096e-22  3.6200e-19  4.3273e-22  3.6237e-19  4.3595e-22  3.6308e-19  4.4815e-22  3.6987e-19  4.6198e-22  3.7517e-19  4.8224e-22  3.8071e-19  5.1627e-22  3.8833e-19  5.7728e-22  4.0061e-19  6.9108e-22  4.2170e-19  9.1235e-22  4.5867e-19
      4.40  4.2699e-22  4.0444e-19  4.2700e-22  4.0445e-19  4.2702e-22  4.0445e-19  4.2705e-22  4.0446e-19  4.2710e-22  4.0447e-19  4.2719e-22  4.0449e-19  4.2736e-22  4.0454e-19  4.2766e-22  4.0461e-19  4.2819e-22  4.0474e-19  4.2914e-22  4.0497e-19  4.3082e-22  4.0539e-19  4.3483e-22  4.0710e-19  4.4688e-22  4.1484e-19  4.6030e-22  4.2087e-19  4.7970e-22  4.2712e-19  5.1214e-22  4.3571e-19  5.7014e-22  4.4953e-19  6.7818e-22  4.7324e-19  8.8799e-22  5.1481e-19
      4.45  4.2614e-22  4.5334e-19  4.2615e-22  4.5334e-19  4.2617e-22  4.5335e-19  4.2620e-22  4.5336e-19  4.2625e-22  4.5337e-19  4.2634e-22  4.5339e-19  4.2649e-22  4.5344e-19  4.2678e-22  4.5352e-19  4.2728e-22  4.5366e-19  4.2817e-22  4.5392e-19  4.2975e-22  4.5437e-19  4.3375e-22  4.5643e-19  4.4568e-22  4.6527e-19  4.5871e-22  4.7212e-19  4.7732e-22  4.7920e-19  5.0825e-22  4.8887e-19  5.6342e-22  5.0442e-19  6.6605e-22  5.3108e-19  8.6505e-22  5.7782e-19
      4.50  4.2575e-22  5.0866e-19  4.2576e-22  5.0866e-19  4.2577e-22  5.0866e-19  4.2580e-22  5.0867e-19  4.2585e-22  5.0869e-19  4.2593e-22  5.0872e-19  4.2608e-22  5.0877e-19  4.2635e-22  5.0886e-19  4.2683e-22  5.0902e-19  4.2767e-22  5.0930e-19  4.2918e-22  5.0981e-19  4.3272e-22  5.1173e-19  4.4454e-22  5.2182e-19  4.5721e-22  5.2960e-19  4.7508e-22  5.3761e-19  5.0459e-22  5.4852e-19  5.5710e-22  5.6601e-19  6.5464e-22  5.9599e-19  8.4347e-22  6.4854e-19
      4.55  4.2538e-22  5.7072e-19  4.2539e-22  5.7072e-19  4.2541e-22  5.7073e-19  4.2543e-22  5.7074e-19  4.2548e-22  5.7076e-19  4.2556e-22  5.7079e-19  4.2570e-22  5.7085e-19  4.2596e-22  5.7095e-19  4.2641e-22  5.7113e-19  4.2722e-22  5.7145e-19  4.2865e-22  5.7202e-19  4.3171e-22  5.7371e-19  4.4345e-22  5.8522e-19  4.5580e-22  5.9408e-19  4.7297e-22  6.0315e-19  5.0116e-22  6.1544e-19  5.5118e-22  6.3512e-19  6.4393e-22  6.6883e-19  8.2320e-22  7.2791e-19
      4.60  4.2505e-22  6.4036e-19  4.2505e-22  6.4036e-19  4.2507e-22  6.4037e-19  4.2509e-22  6.4038e-19  4.2514e-22  6.4040e-19  4.2521e-22  6.4044e-19  4.2535e-22  6.4050e-19  4.2559e-22  6.4062e-19  4.2602e-22  6.4082e-19  4.2679e-22  6.4118e-19  4.2816e-22  6.4182e-19  4.3074e-22  6.4317e-19  4.4242e-22  6.5633e-19  4.5447e-22  6.6641e-19  4.7099e-22  6.7666e-19  4.9794e-22  6.9052e-19  5.4562e-22  7.1266e-19  6.3388e-22  7.5057e-19  8.0419e-22  8.1699e-19
      4.65  4.2473e-22  7.1850e-19  4.2474e-22  7.1850e-19  4.2475e-22  7.1851e-19  4.2478e-22  7.1852e-19  4.2482e-22  7.1854e-19  4.2489e-22  7.1858e-19  4.2502e-22  7.1866e-19  4.2525e-22  7.1878e-19  4.2567e-22  7.1901e-19  4.2640e-22  7.1941e-19  4.2771e-22  7.2013e-19  4.3003e-22  7.2141e-19  4.4143e-22  7.3605e-19  4.5321e-22  7.4753e-19  4.6914e-22  7.5914e-19  4.9493e-22  7.7476e-19  5.4043e-22  7.9967e-19  6.2449e-22  8.4229e-19  7.8640e-22  9.1696e-19
      4.70  4.2444e-22  8.0617e-19  4.2445e-22  8.0617e-19  4.2446e-22  8.0618e-19  4.2449e-22  8.0619e-19  4.2453e-22  8.0622e-19  4.2460e-22  8.0626e-19  4.2472e-22  8.0635e-19  4.2494e-22  8.0649e-19  4.2534e-22  8.0674e-19  4.2604e-22  8.0720e-19  4.2728e-22  8.0800e-19  4.2950e-22  8.0944e-19  4.4049e-22  8.2544e-19  4.5203e-22  8.3851e-19  4.6741e-22  8.5165e-19  4.9213e-22  8.6927e-19  5.3558e-22  8.9730e-19  6.1573e-22  9.4521e-19  7.6979e-22  1.0291e-18
      4.75  4.2418e-22  9.0453e-19  4.2418e-22  9.0454e-19  4.2420e-22  9.0455e-19  4.2422e-22  9.0456e-19  4.2425e-22  9.0459e-19  4.2432e-22  9.0464e-19  4.2444e-22  9.0473e-19  4.2465e-22  9.0490e-19  4.2503e-22  9.0518e-19  4.2570e-22  9.0569e-19  4.2689e-22  9.0660e-19  4.2901e-22  9.0821e-19  4.3959e-22  9.2566e-19  4.5092e-22  9.4055e-19  4.6579e-22  9.5544e-19  4.8951e-22  9.7530e-19  5.3107e-22  1.0068e-18  6.0756e-22  1.0607e-18  7.5431e-22  1.1551e-18
      4.80  4.2393e-22  1.0149e-18  4.2394e-22  1.0149e-18  4.2395e-22  1.0149e-18  4.2397e-22  1.0149e-18  4.2400e-22  1.0150e-18  4.2407e-22  1.0150e-18  4.2418e-22  1.0151e-18  4.2439e-22  1.0153e-18  4.2475e-22  1.0156e-18  4.2539e-22  1.0162e-18  4.2653e-22  1.0172e-18  4.2856e-22  1.0190e-18  4.3873e-22  1.0380e-18  4.4987e-22  1.0550e-18  4.6427e-22  1.0719e-18  4.8707e-22  1.0943e-18  5.2687e-22  1.1297e-18  5.9997e-22  1.1903e-18  7.3991e-22  1.2964e-18
      4.85  4.2370e-22  1.1387e-18  4.2371e-22  1.1387e-18  4.2372e-22  1.1388e-18  4.2374e-22  1.1388e-18  4.2377e-22  1.1388e-18  4.2383e-22  1.1389e-18  4.2394e-22  1.1390e-18  4.2414e-22  1.1392e-18  4.2448e-22  1.1396e-18  4.2510e-22  1.1402e-18  4.2619e-22  1.1413e-18  4.2814e-22  1.1434e-18  4.3790e-22  1.1640e-18  4.4888e-22  1.1833e-18  4.6286e-22  1.2025e-18  4.8480e-22  1.2277e-18  5.2296e-22  1.2676e-18  5.9290e-22  1.3357e-18  7.2652e-22  1.4549e-18
      4.90  4.2349e-22  1.2777e-18  4.2350e-22  1.2777e-18  4.2351e-22  1.2777e-18  4.2353e-22  1.2777e-18  4.2356e-22  1.2778e-18  4.2362e-22  1.2778e-18  4.2372e-22  1.2780e-18  4.2391e-22  1.2782e-18  4.2424e-22  1.2786e-18  4.2483e-22  1.2793e-18  4.2588e-22  1.2806e-18  4.2775e-22  1.2829e-18  4.3710e-22  1.3052e-18  4.4794e-22  1.3273e-18  4.6153e-22  1.3490e-18  4.8268e-22  1.3774e-18  5.1933e-22  1.4224e-18  5.8633e-22  1.4989e-18  7.1406e-22  1.6329e-18
      4.95  4.2330e-22  1.4336e-18  4.2330e-22  1.4336e-18  4.2331e-22  1.4336e-18  4.2333e-22  1.4336e-18  4.2336e-22  1.4337e-18  4.2342e-22  1.4338e-18  4.2352e-22  1.4339e-18  4.2370e-22  1.4342e-18  4.2402e-22  1.4346e-18  4.2458e-22  1.4354e-18  4.2559e-22  1.4369e-18  4.2739e-22  1.4395e-18  4.3632e-22  1.4635e-18  4.4705e-22  1.4887e-18  4.6029e-22  1.5133e-18  4.8071e-22  1.5454e-18  5.1594e-22  1.5960e-18  5.8021e-22  1.6820e-18  7.0245e-22  1.8326e-18
      5.00  4.2312e-22  1.6085e-18  4.2312e-22  1.6085e-18  4.2313e-22  1.6085e-18  4.2315e-22  1.6086e-18  4.2318e-22  1.6086e-18  4.2324e-22  1.6087e-18  4.2333e-22  1.6089e-18  4.2350e-22  1.6092e-18  4.2381e-22  1.6097e-18  4.2436e-22  1.6106e-18  4.2533e-22  1.6122e-18  4.2705e-22  1.6151e-18  4.3556e-22  1.6410e-18  4.4621e-22  1.6697e-18  4.5912e-22  1.6976e-18  4.7886e-22  1.7339e-18  5.1278e-22  1.7908e-18  5.7450e-22  1.8875e-18  6.9161e-22  2.0567e-18
      5.05  4.2295e-22  1.8048e-18  4.2296e-22  1.8048e-18  4.2297e-22  1.8048e-18  4.2298e-22  1.8048e-18  4.2301e-22  1.8049e-18  4.2307e-22  1.8050e-18  4.2316e-22  1.8052e-18  4.2333e-22  1.8055e-18  4.2362e-22  1.8061e-18  4.2414e-22  1.8071e-18  4.2508e-22  1.8089e-18  4.2674e-22  1.8122e-18  4.3482e-22  1.8398e-18  4.4539e-22  1.8727e-18  4.5802e-22  1.9044e-18  4.7713e-22  1.9453e-18  5.0983e-22  2.0093e-18  5.6916e-22  2.1181e-18  6.8148e-22  2.3083e-18
      5.10  4.2280e-22  2.0250e-18  4.2281e-22  2.0250e-18  4.2281e-22  2.0250e-18  4.2283e-22  2.0251e-18  4.2286e-22  2.0251e-18  4.2291e-22  2.0252e-18  4.2300e-22  2.0255e-18  4.2316e-22  2.0258e-18  4.2344e-22  2.0265e-18  4.2395e-22  2.0276e-18  4.2485e-22  2.0297e-18  4.2645e-22  2.0333e-18  4.3408e-22  2.0627e-18  4.4461e-22  2.1003e-18  4.5698e-22  2.1363e-18  4.7551e-22  2.1825e-18  5.0706e-22  2.2545e-18  5.6417e-22  2.3768e-18  6.7200e-22  2.5905e-18
      5.15  4.2266e-22  2.2721e-18  4.2266e-22  2.2721e-18  4.2267e-22  2.2721e-18  4.2269e-22  2.2722e-18  4.2272e-22  2.2722e-18  4.2276e-22  2.2724e-18  4.2285e-22  2.2726e-18  4.2301e-22  2.2730e-18  4.2328e-22  2.2737e-18  4.2377e-22  2.2750e-18  4.2464e-22  2.2773e-18  4.2619e-22  2.2814e-18  4.3335e-22  2.3125e-18  4.4386e-22  2.3555e-18  4.5599e-22  2.3963e-18  4.7399e-22  2.4485e-18  5.0447e-22  2.5296e-18  5.5950e-22  2.6671e-18  6.6312e-22  2.9073e-18
      5.20  4.2253e-22  2.5493e-18  4.2253e-22  2.5493e-18  4.2254e-22  2.5494e-18  4.2256e-22  2.5494e-18  4.2258e-22  2.5495e-18  4.2263e-22  2.5496e-18  4.2272e-22  2.5499e-18  4.2286e-22  2.5504e-18  4.2313e-22  2.5512e-18  4.2360e-22  2.5526e-18  4.2444e-22  2.5552e-18  4.2594e-22  2.5598e-18  4.3262e-22  2.5923e-18  4.4313e-22  2.6416e-18  4.5506e-22  2.6881e-18  4.7255e-22  2.7470e-18  5.0205e-22  2.8383e-18  5.5512e-22  2.9928e-18  6.5480e-22  3.2628e-18
      5.25  4.2241e-22  2.8604e-18  4.2241e-22  2.8604e-18  4.2242e-22  2.8604e-18  4.2244e-22  2.8605e-18  4.2246e-22  2.8606e-18  4.2251e-22  2.8607e-18  4.2259e-22  2.8610e-18  4.2273e-22  2.8616e-18  4.2299e-22  2.8625e-18  4.2345e-22  2.8641e-18  4.2426e-22  2.8670e-18  4.2571e-22  2.8722e-18  4.3188e-22  2.9058e-18  4.4241e-22  2.9624e-18  4.5417e-22  3.0152e-18  4.7121e-22  3.0818e-18  4.9978e-22  3.1846e-18  5.5103e-22  3.3583e-18  6.4701e-22  3.6617e-18
      5.30  4.2230e-22  3.2094e-18  4.2230e-22  3.2094e-18  4.2231e-22  3.2095e-18  4.2233e-22  3.2095e-18  4.2235e-22  3.2096e-18  4.2239e-22  3.2098e-18  4.2247e-22  3.2101e-18  4.2261e-22  3.2107e-18  4.2286e-22  3.2117e-18  4.2330e-22  3.2136e-18  4.2409e-22  3.2168e-18  4.2549e-22  3.2227e-18  4.3115e-22  3.2570e-18  4.4172e-22  3.3219e-18  4.5332e-22  3.3821e-18  4.6995e-22  3.4574e-18  4.9766e-22  3.5731e-18  5.4722e-22  3.7684e-18  6.3974e-22  4.1093e-18
      5.35  4.2220e-22  3.6010e-18  4.2220e-22  3.6010e-18  4.2221e-22  3.6011e-18  4.2222e-22  3.6011e-18  4.2225e-22  3.6013e-18  4.2229e-22  3.6015e-18  4.2237e-22  3.6018e-18  4.2250e-22  3.6025e-18  4.2274e-22  3.6036e-18  4.2317e-22  3.6057e-18  4.2394e-22  3.6094e-18  4.2529e-22  3.6159e-18  4.3041e-22  3.6506e-18  4.4105e-22  3.7251e-18  4.5252e-22  3.7936e-18  4.6876e-22  3.8787e-18  4.9568e-22  4.0090e-18  5.4366e-22  4.2286e-18  6.3297e-22  4.6116e-18
      5.40  4.2210e-22  4.0404e-18  4.2211e-22  4.0404e-18  4.2211e-22  4.0405e-18  4.2213e-22  4.0405e-18  4.2215e-22  4.0407e-18  4.2219e-22  4.0409e-18  4.2227e-22  4.0413e-18  4.2240e-22  4.0421e-18  4.2263e-22  4.0434e-18  4.2305e-22  4.0457e-18  4.2379e-22  4.0498e-18  4.2511e-22  4.0571e-18  4.2968e-22  4.0914e-18  4.4039e-22  4.1770e-18  4.5175e-22  4.2551e-18  4.6765e-22  4.3513e-18  4.9384e-22  4.4980e-18  5.4036e-22  4.7449e-18  6.2667e-22  5.1753e-18
      5.45  4.2202e-22  4.5334e-18  4.2202e-22  4.5334e-18  4.2203e-22  4.5335e-18  4.2204e-22  4.5336e-18  4.2206e-22  4.5337e-18  4.2210e-22  4.5340e-18  4.2218e-22  4.5344e-18  4.2230e-22  4.5353e-18  4.2253e-22  4.5367e-18  4.2294e-22  4.5393e-18  4.2366e-22  4.5440e-18  4.2494e-22  4.5522e-18  4.2902e-22  4.5861e-18  4.3979e-22  4.6840e-18  4.5104e-22  4.7727e-18  4.6662e-22  4.8814e-18  4.9213e-22  5.0466e-18  5.3729e-22  5.3242e-18  6.2083e-22  5.8079e-18
      5.50  4.2194e-22  5.0866e-18  4.2194e-22  5.0866e-18  4.2195e-22  5.0867e-18  4.2196e-22  5.0868e-18  4.2198e-22  5.0869e-18  4.2202e-22  5.0872e-18  4.2209e-22  5.0877e-18  4.2222e-22  5.0887e-18  4.2244e-22  5.0903e-18  4.2283e-22  5.0932e-18  4.2354e-22  5.0984e-18  4.2479e-22  5.1077e-18  4.2847e-22  5.1417e-18  4.3927e-22  5.2533e-18  4.5041e-22  5.3539e-18  4.6568e-22  5.4765e-18  4.9055e-22  5.6623e-18  5.3445e-22  5.9742e-18  6.1542e-22  6.5177e-18
      5.55  4.2186e-22  5.7072e-18  4.2187e-22  5.7073e-18  4.2187e-22  5.7073e-18  4.2189e-22  5.7074e-18  4.2191e-22  5.7076e-18  4.2195e-22  5.7079e-18  4.2202e-22  5.7085e-18  4.2214e-22  5.7096e-18  4.2235e-22  5.7114e-18  4.2274e-22  5.7147e-18  4.2342e-22  5.7205e-18  4.2464e-22  5.7309e-18  4.2794e-22  5.7646e-18  4.3878e-22  5.8917e-18  4.4982e-22  6.0058e-18  4.6481e-22  6.1441e-18  4.8909e-22  6.3531e-18  5.3183e-22  6.7036e-18  6.1041e-22  7.3142e-18
      5.60  4.2180e-22  6.4036e-18  4.2180e-22  6.4037e-18  4.2181e-22  6.4037e-18  4.2182e-22  6.4038e-18  4.2184e-22  6.4040e-18  4.2188e-22  6.4044e-18  4.2194e-22  6.4051e-18  4.2206e-22  6.4062e-18  4.2228e-22  6.4083e-18  4.2265e-22  6.4120e-18  4.2332e-22  6.4186e-18  4.2451e-22  6.4302e-18  4.2740e-22  6.4627e-18  4.3830e-22  6.6076e-18  4.4926e-22  6.7370e-18  4.6400e-22  6.8930e-18  4.8774e-22  7.1282e-18  5.2940e-22  7.5221e-18  6.0577e-22  8.2080e-18
      5.65  4.2174e-22  7.1850e-18  4.2174e-22  7.1850e-18  4.2175e-22  7.1851e-18  4.2176e-22  7.1852e-18  4.2178e-22  7.1855e-18  4.2182e-22  7.1859e-18  4.2188e-22  7.1866e-18  4.2200e-22  7.1879e-18  4.2220e-22  7.1902e-18  4.2257e-22  7.1944e-18  4.2322e-22  7.2018e-18  4.2439e-22  7.2148e-18  4.2687e-22  7.2451e-18  4.3784e-22  7.4104e-18  4.4874e-22  7.5571e-18  4.6324e-22  7.7332e-18  4.8649e-22  7.9978e-18  5.2715e-22  8.4406e-18  6.0147e-22  9.2110e-18
      5.70  4.2168e-22  8.0617e-18  4.2168e-22  8.0617e-18  4.2169e-22  8.0618e-18  4.2170e-22  8.0620e-18  4.2172e-22  8.0622e-18  4.2176e-22  8.0627e-18  4.2182e-22  8.0635e-18  4.2194e-22  8.0650e-18  4.2214e-22  8.0676e-18  4.2250e-22  8.0722e-18  4.2314e-22  8.0805e-18  4.2428e-22  8.0952e-18  4.2634e-22  8.1220e-18  4.3738e-22  8.3105e-18  4.4823e-22  8.4770e-18  4.6253e-22  8.6758e-18  4.8532e-22  8.9735e-18  5.2506e-22  9.4711e-18  5.9750e-22  1.0337e-17
      5.75  4.2163e-22  9.0454e-18  4.2163e-22  9.0454e-18  4.2164e-22  9.0455e-18  4.2165e-22  9.0457e-18  4.2167e-22  9.0460e-18  4.2171e-22  9.0465e-18  4.2177e-22  9.0474e-18  4.2188e-22  9.0491e-18  4.2208e-22  9.0520e-18  4.2243e-22  9.0572e-18  4.2306e-22  9.0665e-18  4.2417e-22  9.0830e-18  4.2616e-22  9.1124e-18  4.3693e-22  9.3197e-18  4.4775e-22  9.5087e-18  4.6186e-22  9.7331e-18  4.8424e-22  1.0068e-17  5.2313e-22  1.0627e-17  5.9382e-22  1.1600e-17
      5.80  4.2158e-22  1.0149e-17  4.2159e-22  1.0149e-17  4.2159e-22  1.0149e-17  4.2161e-22  1.0149e-17  4.2162e-22  1.0150e-17  4.2166e-22  1.0150e-17  4.2172e-22  1.0151e-17  4.2183e-22  1.0153e-17  4.2202e-22  1.0157e-17  4.2237e-22  1.0162e-17  4.2299e-22  1.0173e-17  4.2408e-22  1.0191e-17  4.2603e-22  1.0224e-17  4.3650e-22  1.0451e-17  4.4729e-22  1.0666e-17  4.6124e-22  1.0919e-17  4.8323e-22  1.1296e-17  5.2134e-22  1.1925e-17  5.9044e-22  1.3017e-17
      5.85  4.2154e-22  1.1387e-17  4.2155e-22  1.1387e-17  4.2155e-22  1.1388e-17  4.2156e-22  1.1388e-17  4.2158e-22  1.1388e-17  4.2162e-22  1.1389e-17  4.2168e-22  1.1390e-17  4.2178e-22  1.1392e-17  4.2198e-22  1.1396e-17  4.2232e-22  1.1402e-17  4.2292e-22  1.1414e-17  4.2400e-22  1.1435e-17  4.2591e-22  1.1472e-17  4.3607e-22  1.1720e-17  4.4685e-22  1.1964e-17  4.6065e-22  1.2250e-17  4.8230e-22  1.2674e-17  5.1970e-22  1.3380e-17  5.8733e-22  1.4608e-17
      5.90  4.2151e-22  1.2777e-17  4.2151e-22  1.2777e-17  4.2152e-22  1.2777e-17  4.2153e-22  1.2777e-17  4.2155e-22  1.2778e-17  4.2158e-22  1.2779e-17  4.2164e-22  1.2780e-17  4.2174e-22  1.2782e-17  4.2193e-22  1.2786e-17  4.2227e-22  1.2794e-17  4.2286e-22  1.2807e-17  4.2392e-22  1.2830e-17  4.2580e-22  1.2872e-17  4.3563e-22  1.3142e-17  4.4643e-22  1.3419e-17  4.6011e-22  1.3742e-17  4.8144e-22  1.4220e-17  5.1819e-22  1.5014e-17  5.8449e-22  1.6392e-17
      5.95  4.2147e-22  1.4336e-17  4.2148e-22  1.4336e-17  4.2148e-22  1.4336e-17  4.2149e-22  1.4336e-17  4.2151e-22  1.4337e-17  4.2154e-22  1.4338e-17  4.2160e-22  1.4339e-17  4.2171e-22  1.4342e-17  4.2189e-22  1.4346e-17  4.2222e-22  1.4355e-17  4.2281e-22  1.4370e-17  4.2385e-22  1.4396e-17  4.2570e-22  1.4443e-17  4.3521e-22  1.4736e-17  4.4603e-22  1.5051e-17  4.5960e-22  1.5417e-17  4.8066e-22  1.5954e-17  5.1683e-22  1.6847e-17  5.8194e-22  1.8395e-17
      6.00  4.2144e-22  1.6085e-17  4.2145e-22  1.6085e-17  4.2145e-22  1.6085e-17  4.2146e-22  1.6086e-17  4.2148e-22  1.6086e-17  4.2151e-22  1.6087e-17  4.2157e-22  1.6089e-17  4.2167e-22  1.6092e-17  4.2186e-22  1.6097e-17  4.2218e-22  1.6106e-17  4.2276e-22  1.6123e-17  4.2379e-22  1.6152e-17  4.2561e-22  1.6205e-17  4.3478e-22  1.6524e-17  4.4564e-22  1.6882e-17  4.5914e-22  1.7295e-17  4.7995e-22  1.7900e-17  5.1560e-22  1.8903e-17  5.7966e-22  2.0642e-17
      6.05  4.2142e-22  1.8048e-17  4.2142e-22  1.8048e-17  4.2143e-22  1.8048e-17  4.2144e-22  1.8048e-17  4.2146e-22  1.8049e-17  4.2149e-22  1.8050e-17  4.2154e-22  1.8052e-17  4.2165e-22  1.8055e-17  4.2183e-22  1.8061e-17  4.2215e-22  1.8072e-17  4.2272e-22  1.8090e-17  4.2373e-22  1.8123e-17  4.2554e-22  1.8182e-17  4.3437e-22  1.8527e-17  4.4528e-22  1.8935e-17  4.5871e-22  1.9401e-17  4.7932e-22  2.0083e-17  5.1452e-22  2.1210e-17  5.7766e-22  2.3164e-17
      6.10  4.2139e-22  2.0250e-17  4.2140e-22  2.0250e-17  4.2140e-22  2.0250e-17  4.2141e-22  2.0251e-17  4.2143e-22  2.0251e-17  4.2146e-22  2.0253e-17  4.2152e-22  2.0255e-17  4.2162e-22  2.0258e-17  4.2180e-22  2.0265e-17  4.2212e-22  2.0277e-17  4.2268e-22  2.0298e-17  4.2368e-22  2.0335e-17  4.2547e-22  2.0401e-17  4.3397e-22  2.0774e-17  4.4494e-22  2.1238e-17  4.5833e-22  2.1765e-17  4.7877e-22  2.2532e-17  5.1359e-22  2.3799e-17  5.7596e-22  2.5993e-17
      6.15  4.2137e-22  2.2721e-17  4.2138e-22  2.2721e-17  4.2138e-22  2.2721e-17  4.2139e-22  2.2722e-17  4.2141e-22  2.2722e-17  4.2144e-22  2.2724e-17  4.2150e-22  2.2726e-17  4.2160e-22  2.2730e-17  4.2177e-22  2.2738e-17  4.2209e-22  2.2751e-17  4.2265e-22  2.2774e-17  4.2364e-22  2.2816e-17  4.2541e-22  2.2890e-17  4.3360e-22  2.3294e-17  4.4464e-22  2.3821e-17  4.5800e-22  2.4416e-17  4.7830e-22  2.5280e-17  5.1282e-22  2.6703e-17  5.7455e-22  2.9168e-17
      6.20  4.2136e-22  2.5493e-17  4.2136e-22  2.5493e-17  4.2136e-22  2.5494e-17  4.2137e-22  2.5494e-17  4.2139e-22  2.5495e-17  4.2142e-22  2.5496e-17  4.2148e-22  2.5499e-17  4.2158e-22  2.5504e-17  4.2175e-22  2.5512e-17  4.2206e-22  2.5527e-17  4.2262e-22  2.5553e-17  4.2361e-22  2.5600e-17  4.2536e-22  2.5684e-17  4.3325e-22  2.6120e-17  4.4437e-22  2.6718e-17  4.5772e-22  2.7391e-17  4.7791e-22  2.8362e-17  5.1219e-22  2.9962e-17  5.7344e-22  3.2730e-17
      6.25  4.2134e-22  2.8604e-17  4.2134e-22  2.8604e-17  4.2135e-22  2.8604e-17  4.2136e-22  2.8605e-17  4.2138e-22  2.8606e-17  4.2141e-22  2.8608e-17  4.2146e-22  2.8610e-17  4.2156e-22  2.8616e-17  4.2173e-22  2.8625e-17  4.2204e-22  2.8642e-17  4.2260e-22  2.8671e-17  4.2358e-22  2.8724e-17  4.2532e-22  2.8818e-17  4.3295e-22  2.9290e-17  4.4413e-22  2.9969e-17  4.5749e-22  3.0728e-17  4.7761e-22  3.1821e-17  5.1171e-22  3.3618e-17  5.7260e-22  3.6727e-17
      6.30  4.2132e-22  3.2094e-17  4.2133e-22  3.2094e-17  4.2133e-22  3.2095e-17  4.2134e-22  3.2095e-17  4.2136e-22  3.2096e-17  4.2139e-22  3.2098e-17  4.2145e-22  3.2101e-17  4.2154e-22  3.2107e-17  4.2172e-22  3.2118e-17  4.2203e-22  3.2137e-17  4.2258e-22  3.2170e-17  4.2355e-22  3.2229e-17  4.2529e-22  3.2334e-17  4.3268e-22  3.2848e-17  4.4393e-22  3.3616e-17  4.5730e-22  3.4472e-17  4.7737e-22  3.5702e-17  5.1135e-22  3.7721e-17  5.7200e-22  4.1211e-17
      6.35  4.2131e-22  3.6010e-17  4.2132e-22  3.6010e-17  4.2132e-22  3.6011e-17  4.2133e-22  3.6011e-17  4.2135e-22  3.6013e-17  4.2138e-22  3.6015e-17  4.2143e-22  3.6018e-17  4.2153e-22  3.6025e-17  4.2170e-22  3.6037e-17  4.2201e-22  3.6058e-17  4.2256e-22  3.6095e-17  4.2353e-22  3.6162e-17  4.2527e-22  3.6279e-17  4.3244e-22  3.6839e-17  4.4376e-22  3.7708e-17  4.5714e-22  3.8674e-17  4.7719e-22  4.0056e-17  5.1108e-22  4.2324e-17  5.7157e-22  4.6243e-17
      6.40  4.2130e-22  4.0404e-17  4.2130e-22  4.0404e-17  4.2131e-22  4.0405e-17  4.2132e-22  4.0406e-17  4.2134e-22  4.0407e-17  4.2137e-22  4.0409e-17  4.2142e-22  4.0413e-17  4.2152e-22  4.0421e-17  4.2169e-22  4.0434e-17  4.2200e-22  4.0458e-17  4.2254e-22  4.0500e-17  4.2352e-22  4.0574e-17  4.2524e-22  4.0706e-17  4.3224e-22  4.1317e-17  4.4361e-22  4.2299e-17  4.5701e-22  4.3387e-17  4.7703e-22  4.4942e-17  5.1086e-22  4.7489e-17  5.7122e-22  5.1890e-17
      6.45  4.2129e-22  4.5334e-17  4.2129e-22  4.5334e-17  4.2130e-22  4.5335e-17  4.2131e-22  4.5336e-17  4.2133e-22  4.5337e-17  4.2136e-22  4.5340e-17  4.2141e-22  4.5345e-17  4.2151e-22  4.5353e-17  4.2168e-22  4.5368e-17  4.2199e-22  4.5394e-17  4.2253e-22  4.5441e-17  4.2350e-22  4.5525e-17  4.2522e-22  4.5673e-17  4.3203e-22  4.6340e-17  4.4346e-22  4.7450e-17  4.5687e-22  4.8675e-17  4.7687e-22  5.0423e-17  5.1063e-22  5.3284e-17  5.7083e-22  5.8225e-17
      6.50  4.2128e-22  5.0866e-17  4.2129e-22  5.0866e-17  4.2129e-22  5.0867e-17  4.2130e-22  5.0868e-17  4.2132e-22  5.0869e-17  4.2135e-22  5.0872e-17  4.2140e-22  5.0877e-17  4.2150e-22  5.0887e-17  4.2167e-22  5.0904e-17  4.2198e-22  5.0933e-17  4.2252e-22  5.0986e-17  4.2348e-22  5.1080e-17  4.2520e-22  5.1247e-17  4.3181e-22  5.1971e-17  4.4330e-22  5.3227e-17  4.5671e-22  5.4607e-17  4.7667e-22  5.6572e-17  5.1032e-22  5.9786e-17  5.7029e-22  6.5335e-17
      6.55  4.2127e-22  5.7072e-17  4.2128e-22  5.7073e-17  4.2128e-22  5.7073e-17  4.2129e-22  5.7074e-17  4.2131e-22  5.7076e-17  4.2134e-22  5.7080e-17  4.2139e-22  5.7085e-17  4.2149e-22  5.7096e-17  4.2166e-22  5.7115e-17  4.2196e-22  5.7148e-17  4.2250e-22  5.7207e-17  4.2346e-22  5.7313e-17  4.2517e-22  5.7500e-17  4.3154e-22  5.8283e-17  4.4309e-22  5.9705e-17  4.5651e-22  6.1262e-17  4.7640e-22  6.3471e-17  5.0987e-22  6.7081e-17  5.6947e-22  7.3314e-17
      6.60  4.2127e-22  6.4036e-17  4.2127e-22  6.4037e-17  4.2128e-22  6.4037e-17  4.2129e-22  6.4038e-17  4.2130e-22  6.4041e-17  4.2133e-22  6.4044e-17  4.2139e-22  6.4051e-17  4.2148e-22  6.4063e-17  4.2165e-22  6.4084e-17  4.2195e-22  6.4121e-17  4.2249e-22  6.4188e-17  4.2344e-22  6.4306e-17  4.2514e-22  6.4516e-17  4.3120e-22  6.5353e-17  4.4283e-22  6.6967e-17  4.5624e-22  6.8725e-17  4.7603e-22  7.1211e-17  5.0924e-22  7.5268e-17  5.6827e-22  8.2268e-17
      6.65  4.2126e-22  7.1850e-17  4.2127e-22  7.1850e-17  4.2127e-22  7.1851e-17  4.2128e-22  7.1852e-17  4.2130e-22  7.1855e-17  4.2133e-22  7.1859e-17  4.2138e-22  7.1866e-17  4.2147e-22  7.1880e-17  4.2164e-22  7.1903e-17  4.2194e-22  7.1945e-17  4.2247e-22  7.2020e-17  4.2341e-22  7.2153e-17  4.2509e-22  7.2389e-17  4.3076e-22  7.3266e-17  4.4249e-22  7.5103e-17  4.5589e-22  7.7092e-17  4.7553e-22  7.9894e-17  5.0839e-22  8.4454e-17  5.6666e-22  9.2318e-17
      6.70  4.2126e-22  8.0617e-17  4.2126e-22  8.0617e-17  4.2127e-22  8.0618e-17  4.2127e-22  8.0620e-17  4.2129e-22  8.0622e-17  4.2132e-22  8.0627e-17  4.2137e-22  8.0635e-17  4.2147e-22  8.0650e-17  4.2163e-22  8.0677e-17  4.2193e-22  8.0724e-17  4.2245e-22  8.0808e-17  4.2338e-22  8.0957e-17  4.2504e-22  8.1223e-17  4.3016e-22  8.2109e-17  4.4203e-22  8.4213e-17  4.5543e-22  8.6471e-17  4.7490e-22  8.9631e-17  5.0733e-22  9.4761e-17  5.6465e-22  1.0360e-16
      6.75  4.2125e-22  9.0454e-17  4.2126e-22  9.0454e-17  4.2126e-22  9.0455e-17  4.2127e-22  9.0457e-17  4.2129e-22  9.0460e-17  4.2131e-22  9.0465e-17  4.2137e-22  9.0474e-17  4.2146e-22  9.0491e-17  4.2162e-22  9.0521e-17  4.2191e-22  9.0574e-17  4.2243e-22  9.0668e-17  4.2334e-22  9.0836e-17  4.2498e-22  9.1134e-17  4.2930e-22  9.1969e-17  4.4141e-22  9.4399e-17  4.5484e-22  9.6974e-17  4.7413e-22  1.0055e-16  5.0607e-22  1.0632e-16  5.6228e-22  1.1626e-16
      6.80  4.2125e-22  1.0149e-16  4.2125e-22  1.0149e-16  4.2126e-22  1.0149e-16  4.2127e-22  1.0149e-16  4.2128e-22  1.0150e-16  4.2131e-22  1.0150e-16  4.2136e-22  1.0151e-16  4.2145e-22  1.0153e-16  4.2161e-22  1.0157e-16  4.2190e-22  1.0163e-16  4.2240e-22  1.0173e-16  4.2330e-22  1.0192e-16  4.2491e-22  1.0226e-16  4.2803e-22  1.0291e-16  4.4053e-22  1.0576e-16  4.5408e-22  1.0872e-16  4.7323e-22  1.1278e-16  5.0465e-22  1.1929e-16  5.5967e-22  1.3048e-16
      6.85  4.2124e-22  1.1387e-16  4.2125e-22  1.1387e-16  4.2125e-22  1.1388e-16  4.2126e-22  1.1388e-16  4.2128e-22  1.1388e-16  4.2131e-22  1.1389e-16  4.2135e-22  1.1390e-16  4.2144e-22  1.1392e-16  4.2160e-22  1.1396e-16  4.2188e-22  1.1403e-16  4.2238e-22  1.1415e-16  4.2326e-22  1.1436e-16  4.2484e-22  1.1473e-16  4.2764e-22  1.1540e-16  4.3924e-22  1.1838e-16  4.5307e-22  1.2183e-16  4.7217e-22  1.2646e-16  5.0313e-22  1.3383e-16  5.5696e-22  1.4643e-16
      6.90  4.2124e-22  1.2777e-16  4.2124e-22  1.2777e-16  4.2125e-22  1.2777e-16  4.2126e-22  1.2777e-16  4.2127e-22  1.2778e-16  4.2130e-22  1.2779e-16  4.2135e-22  1.2780e-16  4.2144e-22  1.2782e-16  4.2159e-22  1.2786e-16  4.2187e-22  1.2794e-16  4.2236e-22  1.2807e-16  4.2323e-22  1.2831e-16  4.2477e-22  1.2874e-16  4.2753e-22  1.2949e-16  4.3780e-22  1.3246e-16  4.5198e-22  1.3649e-16  4.7106e-22  1.4178e-16  5.0159e-22  1.5012e-16  5.5432e-22  1.6433e-16
      6.95  4.2124e-22  1.4336e-16  4.2124e-22  1.4336e-16  4.2125e-22  1.4336e-16  4.2125e-22  1.4336e-16  4.2127e-22  1.4337e-16  4.2130e-22  1.4338e-16  4.2135e-22  1.4339e-16  4.2143e-22  1.4342e-16  4.2158e-22  1.4347e-16  4.2185e-22  1.4355e-16  4.2233e-22  1.4370e-16  4.2319e-22  1.4397e-16  4.2471e-22  1.4445e-16  4.2742e-22  1.4530e-16  4.3575e-22  1.4800e-16  4.5055e-22  1.5279e-16  4.6981e-22  1.5890e-16  5.0007e-22  1.6837e-16  5.5187e-22  1.8440e-16
      7.00  4.2124e-22  1.6085e-16  4.2124e-22  1.6085e-16  4.2124e-22  1.6085e-16  4.2125e-22  1.6086e-16  4.2127e-22  1.6086e-16  4.2129e-22  1.6087e-16  4.2134e-22  1.6089e-16  4.2143e-22  1.6092e-16  4.2158e-22  1.6097e-16  4.2184e-22  1.6107e-16  4.2232e-22  1.6124e-16  4.2316e-22  1.6154e-16  4.2466e-22  1.6208e-16  4.2733e-22  1.6303e-16  4.3308e-22  1.6511e-16  4.4880e-22  1.7090e-16  4.6842e-22  1.7800e-16  4.9858e-22  1.8879e-16  5.4969e-22  2.0692e-16
      7.05  4.2123e-22  1.8048e-16  4.2124e-22  1.8048e-16  4.2124e-22  1.8048e-16  4.2125e-22  1.8049e-16  4.2126e-22  1.8049e-16  4.2129e-22  1.8050e-16  4.2134e-22  1.8052e-16  4.2142e-22  1.8055e-16  4.2157e-22  1.8062e-16  4.2183e-22  1.8072e-16  4.2230e-22  1.8091e-16  4.2314e-22  1.8125e-16  4.2462e-22  1.8186e-16  4.2726e-22  1.8293e-16  4.3195e-22  1.8484e-16  4.4641e-22  1.9085e-16  4.6673e-22  1.9922e-16  4.9705e-22  2.1158e-16  5.4775e-22  2.3212e-16
      7.10  4.2123e-22  2.0250e-16  4.2124e-22  2.0250e-16  4.2124e-22  2.0250e-16  4.2125e-22  2.0251e-16  4.2126e-22  2.0251e-16  4.2129e-22  2.0253e-16  4.2134e-22  2.0255e-16  4.2142e-22  2.0259e-16  4.2157e-22  2.0265e-16  4.2183e-22  2.0278e-16  4.2229e-22  2.0299e-16  4.2312e-22  2.0337e-16  4.2459e-22  2.0405e-16  4.2720e-22  2.0526e-16  4.3186e-22  2.0742e-16  4.4327e-22  2.1274e-16  4.6466e-22  2.2274e-16  4.9543e-22  2.3701e-16  5.4603e-22  2.6033e-16
      7.15  4.2123e-22  2.2721e-16  4.2123e-22  2.2721e-16  4.2124e-22  2.2721e-16  4.2125e-22  2.2722e-16  4.2126e-22  2.2722e-16  4.2129e-22  2.2724e-16  4.2133e-22  2.2726e-16  4.2142e-22  2.2731e-16  4.2156e-22  2.2738e-16  4.2182e-22  2.2752e-16  4.2228e-22  2.2776e-16  4.2311e-22  2.2819e-16  4.2457e-22  2.2896e-16  4.2717e-22  2.3032e-16  4.3179e-22  2.3274e-16  4.4002e-22  2.3705e-16  4.6159e-22  2.4845e-16  4.9330e-22  2.6511e-16  5.4420e-22  2.9173e-16
      7.20  4.2123e-22  2.5493e-16  4.2123e-22  2.5493e-16  4.2124e-22  2.5494e-16  4.2124e-22  2.5494e-16  4.2126e-22  2.5495e-16  4.2129e-22  2.5497e-16  4.2133e-22  2.5499e-16  4.2141e-22  2.5504e-16  4.2156e-22  2.5513e-16  4.2182e-22  2.5528e-16  4.2228e-22  2.5555e-16  4.2310e-22  2.5604e-16  4.2455e-22  2.5690e-16  4.2714e-22  2.5844e-16  4.3175e-22  2.6117e-16  4.3995e-22  2.6602e-16  4.5819e-22  2.7686e-16  4.9108e-22  2.9639e-16  5.4252e-22  3.2682e-16
      7.25  4.2123e-22  2.8604e-16  4.2123e-22  2.8604e-16  4.2124e-22  2.8604e-16  4.2124e-22  2.8605e-16  4.2126e-22  2.8606e-16  4.2128e-22  2.8608e-16  4.2133e-22  2.8611e-16  4.2141e-22  2.8616e-16  4.2156e-22  2.8626e-16  4.2182e-22  2.8643e-16  4.2228e-22  2.8674e-16  4.2309e-22  2.8728e-16  4.2455e-22  2.8826e-16  4.2713e-22  2.8998e-16  4.3173e-22  2.9305e-16  4.3991e-22  2.9851e-16  4.5445e-22  3.0823e-16  4.8819e-22  3.3082e-16  5.4053e-22  3.6576e-16
      7.30  4.2123e-22  3.2094e-16  4.2123e-22  3.2094e-16  4.2123e-22  3.2095e-16  4.2124e-22  3.2095e-16  4.2126e-22  3.2096e-16  4.2128e-22  3.2098e-16  4.2133e-22  3.2102e-16  4.2141e-22  3.2108e-16  4.2156e-22  3.2119e-16  4.2181e-22  3.2138e-16  4.2227e-22  3.2173e-16  4.2309e-22  3.2234e-16  4.2454e-22  3.2344e-16  4.2712e-22  3.2538e-16  4.3171e-22  3.2883e-16  4.3988e-22  3.3497e-16  4.5441e-22  3.4590e-16  4.8489e-22  3.6885e-16  5.3834e-22  4.0905e-16
      7.35  4.2123e-22  3.6010e-16  4.2123e-22  3.6010e-16  4.2123e-22  3.6011e-16  4.2124e-22  3.6012e-16  4.2126e-22  3.6013e-16  4.2128e-22  3.6015e-16  4.2133e-22  3.6019e-16  4.2141e-22  3.6026e-16  4.2155e-22  3.6038e-16  4.2181e-22  3.6060e-16  4.2227e-22  3.6099e-16  4.2309e-22  3.6168e-16  4.2454e-22  3.6291e-16  4.2712e-22  3.6509e-16  4.3171e-22  3.6897e-16  4.3987e-22  3.7588e-16  4.5439e-22  3.8816e-16  4.8101e-22  4.1067e-16  5.3582e-22  4.5707e-16
      7.40  4.2123e-22  4.0404e-16  4.2123e-22  4.0404e-16  4.2123e-22  4.0405e-16  4.2124e-22  4.0406e-16  4.2126e-22  4.0407e-16  4.2128e-22  4.0409e-16  4.2133e-22  4.0414e-16  4.2141e-22  4.0422e-16  4.2155e-22  4.0435e-16  4.2181e-22  4.0460e-16  4.2227e-22  4.0504e-16  4.2309e-22  4.0581e-16  4.2454e-22  4.0719e-16  4.2712e-22  4.0965e-16  4.3170e-22  4.1401e-16  4.3986e-22  4.2177e-16  4.5438e-22  4.3557e-16  4.8020e-22  4.6012e-16  5.3483e-22  5.1209e-16
      7.45  4.2122e-22  4.5334e-16  4.2123e-22  4.5334e-16  4.2123e-22  4.5335e-16  4.2124e-22  4.5336e-16  4.2125e-22  4.5337e-16  4.2128e-22  4.5340e-16  4.2133e-22  4.5345e-16  4.2141e-22  4.5354e-16  4.2155e-22  4.5369e-16  4.2181e-22  4.5397e-16  4.2227e-22  4.5446e-16  4.2308e-22  4.5533e-16  4.2453e-22  4.5688e-16  4.2711e-22  4.5964e-16  4.3170e-22  4.6454e-16  4.3986e-22  4.7326e-16  4.5437e-22  4.8877e-16  4.8018e-22  5.1634e-16  5.3450e-22  5.7440e-16
      7.50  4.2122e-22  5.0866e-16  4.2123e-22  5.0866e-16  4.2123e-22  5.0867e-16  4.2124e-22  5.0868e-16  4.2125e-22  5.0869e-16  4.2128e-22  5.0872e-16  4.2133e-22  5.0878e-16  4.2141e-22  5.0888e-16  4.2155e-22  5.0905e-16  4.2181e-22  5.0936e-16  4.2227e-22  5.0991e-16  4.2308e-22  5.1089e-16  4.2453e-22  5.1263e-16  4.2711e-22  5.1573e-16  4.3170e-22  5.2124e-16  4.3985e-22  5.3103e-16  4.5436e-22  5.4844e-16  4.8017e-22  5.7941e-16  5.3416e-22  6.4423e-16
      7.55  4.2122e-22  5.7072e-16  4.2123e-22  5.7073e-16  4.2123e-22  5.7073e-16  4.2124e-22  5.7074e-16  4.2125e-22  5.7076e-16  4.2128e-22  5.7080e-16  4.2133e-22  5.7086e-16  4.2141e-22  5.7097e-16  4.2155e-22  5.7117e-16  4.2181e-22  5.7151e-16  4.2227e-22  5.7213e-16  4.2308e-22  5.7323e-16  4.2453e-22  5.7519e-16  4.2711e-22  5.7866e-16  4.3170e-22  5.8485e-16  4.3985e-22  5.9584e-16  4.5436e-22  6.1540e-16  4.8016e-22  6.5017e-16  5.3380e-22  7.2249e-16
      7.60  4.2122e-22  6.4036e-16  4.2123e-22  6.4037e-16  4.2123e-22  6.4037e-16  4.2124e-22  6.4039e-16  4.2125e-22  6.4041e-16  4.2128e-22  6.4045e-16  4.2132e-22  6.4052e-16  4.2141e-22  6.4064e-16  4.2155e-22  6.4086e-16  4.2181e-22  6.4125e-16  4.2227e-22  6.4194e-16  4.2308e-22  6.4318e-16  4.2453e-22  6.4537e-16  4.2711e-22  6.4928e-16  4.3170e-22  6.5622e-16  4.3985e-22  6.6857e-16  4.5435e-22  6.9052e-16  4.8015e-22  7.2956e-16  5.3338e-22  8.1014e-16
      7.65  4.2122e-22  7.1850e-16  4.2123e-22  7.1850e-16  4.2123e-22  7.1851e-16  4.2124e-22  7.1852e-16  4.2125e-22  7.1855e-16  4.2128e-22  7.1859e-16  4.2132e-22  7.1867e-16  4.2141e-22  7.1881e-16  4.2155e-22  7.1906e-16  4.2181e-22  7.1949e-16  4.2227e-22  7.2027e-16  4.2308e-22  7.2166e-16  4.2453e-22  7.2412e-16  4.2711e-22  7.2851e-16  4.3170e-22  7.3630e-16  4.3985e-22  7.5016e-16  4.5435e-22  7.7481e-16  4.8015e-22  8.1864e-16  5.3287e-22  9.0823e-16
      7.70  4.2122e-22  8.0617e-16  4.2123e-22  8.0617e-16  4.2123e-22  8.0618e-16  4.2124e-22  8.0620e-16  4.2125e-22  8.0623e-16  4.2128e-22  8.0627e-16  4.2132e-22  8.0636e-16  4.2141e-22  8.0652e-16  4.2155e-22  8.0679e-16  4.2181e-22  8.0729e-16  4.2227e-22  8.0816e-16  4.2308e-22  8.0972e-16  4.2453e-22  8.1248e-16  4.2711e-22  8.1740e-16  4.3170e-22  8.2615e-16  4.3985e-22  8.4171e-16  4.5435e-22  8.6938e-16  4.8015e-22  9.1859e-16  5.3222e-22  1.0179e-15
      7.75  4.2122e-22  9.0454e-16  4.2123e-22  9.0454e-16  4.2123e-22  9.0455e-16  4.2124e-22  9.0457e-16  4.2125e-22  9.0460e-16  4.2128e-22  9.0466e-16  4.2132e-22  9.0475e-16  4.2141e-22  9.0493e-16  4.2155e-22  9.0524e-16  4.2181e-22  9.0579e-16  4.2227e-22  9.0677e-16  4.2308e-22  9.0852e-16  4.2453e-22  9.1163e-16  4.2711e-22  9.1715e-16  4.3170e-22  9.2697e-16  4.3985e-22  9.4444e-16  4.5435e-22  9.7550e-16  4.8015e-22  1.0307e-15  5.3137e-22  1.1404e-15
      7.80  4.2122e-22  1.0149e-15  4.2122e-22  1.0149e-15  4.2123e-22  1.0149e-15  4.2124e-22  1.0149e-15  4.2125e-22  1.0150e-15  4.2128e-22  1.0150e-15  4.2132e-22  1.0152e-15  4.2141e-22  1.0153e-15  4.2155e-22  1.0157e-15  4.2181e-22  1.0163e-15  4.2227e-22  1.0174e-15  4.2308e-22  1.0194e-15  4.2453e-22  1.0229e-15  4.2711e-22  1.0291e-15  4.3170e-22  1.0401e-15  4.3985e-22  1.0597e-15  4.5436e-22  1.0946e-15  4.8015e-22  1.1566e-15  5.3024e-22  1.2770e-15
      7.85  4.2122e-22  1.1387e-15  4.2122e-22  1.1388e-15  4.2123e-22  1.1388e-15  4.2124e-22  1.1388e-15  4.2125e-22  1.1388e-15  4.2128e-22  1.1389e-15  4.2132e-22  1.1390e-15  4.2141e-22  1.1392e-15  4.2155e-22  1.1396e-15  4.2181e-22  1.1403e-15  4.2227e-22  1.1416e-15  4.2308e-22  1.1438e-15  4.2453e-22  1.1477e-15  4.2711e-22  1.1546e-15  4.3170e-22  1.1670e-15  4.3986e-22  1.1890e-15  4.5436e-22  1.2282e-15  4.8016e-22  1.2978e-15  5.2880e-22  1.4290e-15
      7.90  4.2122e-22  1.2777e-15  4.2122e-22  1.2777e-15  4.2123e-22  1.2777e-15  4.2124e-22  1.2777e-15  4.2125e-22  1.2778e-15  4.2128e-22  1.2779e-15  4.2132e-22  1.2780e-15  4.2140e-22  1.2782e-15  4.2155e-22  1.2787e-15  4.2181e-22  1.2795e-15  4.2227e-22  1.2809e-15  4.2308e-22  1.2833e-15  4.2453e-22  1.2877e-15  4.2711e-22  1.2955e-15  4.3170e-22  1.3094e-15  4.3986e-22  1.3341e-15  4.5437e-22  1.3781e-15  4.8017e-22  1.4562e-15  5.2777e-22  1.6003e-15
      7.95  4.2122e-22  1.4336e-15  4.2122e-22  1.4336e-15  4.2123e-22  1.4336e-15  4.2124e-22  1.4336e-15  4.2125e-22  1.4337e-15  4.2128e-22  1.4338e-15  4.2132e-22  1.4339e-15  4.2140e-22  1.4342e-15  4.2155e-22  1.4347e-15  4.2181e-22  1.4356e-15  4.2227e-22  1.4371e-15  4.2308e-22  1.4399e-15  4.2453e-22  1.4449e-15  4.2711e-22  1.4536e-15  4.3170e-22  1.4692e-15  4.3986e-22  1.4970e-15  4.5438e-22  1.5463e-15  4.8019e-22  1.6340e-15  5.2646e-22  1.7912e-15
      8.00  4.2122e-22  1.6085e-15  4.2122e-22  1.6085e-15  4.2123e-22  1.6085e-15  4.2124e-22  1.6086e-15  4.2125e-22  1.6086e-15  4.2128e-22  1.6087e-15  4.2132e-22  1.6089e-15  4.2140e-22  1.6092e-15  4.2155e-22  1.6098e-15  4.2181e-22  1.6108e-15  4.2227e-22  1.6125e-15  4.2308e-22  1.6156e-15  4.2454e-22  1.6212e-15  4.2712e-22  1.6310e-15  4.3171e-22  1.6485e-15  4.3987e-22  1.6796e-15  4.5439e-22  1.7350e-15  4.8021e-22  1.8335e-15  5.2613e-22  2.0086e-15
      8.05  4.2122e-22  1.8048e-15  4.2122e-22  1.8048e-15  4.2123e-22  1.8048e-15  4.2124e-22  1.8049e-15  4.2125e-22  1.8049e-15  4.2128e-22  1.8050e-15  4.2132e-22  1.8052e-15  4.2140e-22  1.8056e-15  4.2155e-22  1.8062e-15  4.2181e-22  1.8073e-15  4.2227e-22  1.8093e-15  4.2308e-22  1.8128e-15  4.2454e-22  1.8190e-15  4.2712e-22  1.8300e-15  4.3171e-22  1.8497e-15  4.3988e-22  1.8846e-15  4.5440e-22  1.9468e-15  4.8023e-22  2.0573e-15  5.2616e-22  2.2539e-15
      8.10  4.2122e-22  2.0250e-15  4.2122e-22  2.0250e-15  4.2123e-22  2.0250e-15  4.2124e-22  2.0251e-15  4.2125e-22  2.0251e-15  4.2128e-22  2.0253e-15  4.2132e-22  2.0255e-15  4.2140e-22  2.0259e-15  4.2155e-22  2.0266e-15  4.2181e-22  2.0278e-15  4.2227e-22  2.0300e-15  4.2308e-22  2.0340e-15  4.2454e-22  2.0409e-15  4.2712e-22  2.0533e-15  4.3171e-22  2.0754e-15  4.3988e-22  2.1146e-15  4.5441e-22  2.1844e-15  4.8025e-22  2.3085e-15  5.2620e-22  2.5292e-15
      8.15  4.2122e-22  2.2721e-15  4.2122e-22  2.2721e-15  4.2123e-22  2.2721e-15  4.2124e-22  2.2722e-15  4.2125e-22  2.2723e-15  4.2128e-22  2.2724e-15  4.2132e-22  2.2726e-15  4.2140e-22  2.2731e-15  4.2155e-22  2.2739e-15  4.2181e-22  2.2753e-15  4.2227e-22  2.2777e-15  4.2309e-22  2.2821e-15  4.2454e-22  2.2900e-15  4.2712e-22  2.3039e-15  4.3172e-22  2.3287e-15  4.3989e-22  2.3727e-15  4.5442e-22  2.4510e-15  4.8027e-22  2.5903e-15  5.2623e-22  2.8380e-15
      8.20  4.2122e-22  2.5493e-15  4.2122e-22  2.5493e-15  4.2123e-22  2.5494e-15  4.2124e-22  2.5494e-15  4.2125e-22  2.5495e-15  4.2128e-22  2.5497e-15  4.2132e-22  2.5499e-15  4.2140e-22  2.5504e-15  4.2155e-22  2.5513e-15  4.2181e-22  2.5529e-15  4.2227e-22  2.5557e-15  4.2309e-22  2.5606e-15  4.2454e-22  2.5694e-15  4.2712e-22  2.5850e-15  4.3172e-22  2.6128e-15  4.3990e-22  2.6623e-15  4.5444e-22  2.7502e-15  4.8029e-22  2.9066e-15  5.2627e-22  3.1846e-15
      8.25  4.2122e-22  2.8604e-15  4.2122e-22  2.8604e-15  4.2123e-22  2.8604e-15  4.2124e-22  2.8605e-15  4.2125e-22  2.8606e-15  4.2128e-22  2.8608e-15  4.2132e-22  2.8611e-15  4.2140e-22  2.8616e-15  4.2155e-22  2.8626e-15  4.2181e-22  2.8644e-15  4.2227e-22  2.8675e-15  4.2309e-22  2.8731e-15  4.2454e-22  2.8829e-15  4.2713e-22  2.9005e-15  4.3173e-22  2.9317e-15  4.3990e-22  2.9872e-15  4.5445e-22  3.0859e-15  4.8031e-22  3.2614e-15  5.2630e-22  3.5735e-15
      8.30  4.2122e-22  3.2094e-15  4.2122e-22  3.2094e-15  4.2123e-22  3.2095e-15  4.2124e-22  3.2095e-15  4.2125e-22  3.2096e-15  4.2128e-22  3.2098e-15  4.2132e-22  3.2102e-15  4.2140e-22  3.2108e-15  4.2155e-22  3.2119e-15  4.2181e-22  3.2139e-15  4.2227e-22  3.2174e-15  4.2309e-22  3.2236e-15  4.2454e-22  3.2347e-15  4.2713e-22  3.2544e-15  4.3173e-22  3.2894e-15  4.3991e-22  3.3517e-15  4.5446e-22  3.4625e-15  4.8032e-22  3.6595e-15  5.2633e-22  4.0098e-15
      8.35  4.2122e-22  3.6010e-15  4.2122e-22  3.6010e-15  4.2123e-22  3.6011e-15  4.2124e-22  3.6012e-15  4.2125e-22  3.6013e-15  4.2128e-22  3.6015e-15  4.2132e-22  3.6019e-15  4.2140e-22  3.6026e-15  4.2155e-22  3.6038e-15  4.2181e-22  3.6060e-15  4.2227e-22  3.6100e-15  4.2309e-22  3.6170e-15  4.2454e-22  3.6294e-15  4.2713e-22  3.6515e-15  4.3173e-22  3.6908e-15  4.3991e-22  3.7608e-15  4.5446e-22  3.8851e-15  4.8034e-22  4.1062e-15  5.2635e-22  4.4994e-15
      8.40  4.2122e-22  4.0404e-15  4.2122e-22  4.0404e-15  4.2123e-22  4.0405e-15  4.2124e-22  4.0406e-15  4.2125e-22  4.0407e-15  4.2128e-22  4.0409e-15  4.2132e-22  4.0414e-15  4.2140e-22  4.0422e-15  4.2155e-22  4.0436e-15  4.2181e-22  4.0461e-15  4.2227e-22  4.0505e-15  4.2309e-22  4.0583e-15  4.2454e-22  4.0723e-15  4.2713e-22  4.0971e-15  4.3173e-22  4.1412e-15  4.3992e-22  4.2197e-15  4.5447e-22  4.3592e-15  4.8035e-22  4.6074e-15  5.2638e-22  5.0487e-15
      8.45  4.2122e-22  4.5334e-15  4.2122e-22  4.5334e-15  4.2123e-22  4.5335e-15  4.2124e-22  4.5336e-15  4.2125e-22  4.5337e-15  4.2128e-22  4.5340e-15  4.2132e-22  4.5345e-15  4.2140e-22  4.5354e-15  4.2155e-22  4.5370e-15  4.2181e-22  4.5397e-15  4.2227e-22  4.5447e-15  4.2309e-22  4.5535e-15  4.2454e-22  4.5692e-15  4.2713e-22  4.5970e-15  4.3174e-22  4.6465e-15  4.3992e-22  4.7346e-15  4.5448e-22  4.8912e-15  4.8036e-22  5.1697e-15  5.2640e-22  5.6650e-15
      8.50  4.2122e-22  5.0866e-15  4.2122e-22  5.0866e-15  4.2123e-22  5.0867e-15  4.2124e-22  5.0868e-15  4.2125e-22  5.0869e-15  4.2128e-22  5.0873e-15  4.2132e-22  5.0878e-15  4.2140e-22  5.0888e-15  4.2155e-22  5.0906e-15  4.2181e-22  5.0937e-15  4.2227e-22  5.0992e-15  4.2309e-22  5.1091e-15  4.2454e-22  5.1267e-15  4.2713e-22  5.1580e-15  4.3174e-22  5.2135e-15  4.3992e-22  5.3124e-15  4.5448e-22  5.4881e-15  4.8037e-22  5.8007e-15  5.2641e-22  6.3565e-15
