# This was generated using Cloudy10 and the columns are ordered 
# as log10 of the fraction of the metallicity to the solar metallicity
# 'h_*_Z' and 'c_*_Z' stands for cooling and heating respectively 
# at * metalicity
#
# Redshift = 3.5
# hden = 4.5
#     temp   h_-3.00_Z   c_-3.00_Z   h_-2.75_Z   c_-2.75_Z   h_-2.50_Z   c_-2.50_Z   h_-2.25_Z   c_-2.25_Z   h_-2.00_Z   c_-2.00_Z   h_-1.75_Z   c_-1.75_Z   h_-1.50_Z   c_-1.50_Z   h_-1.25_Z   c_-1.25_Z   h_-1.00_Z   c_-1.00_Z   h_-0.75_Z   c_-0.75_Z   h_-0.50_Z   c_-0.50_Z   h_-0.25_Z   c_-0.25_Z    h_0.00_Z    c_0.00_Z    h_0.25_Z    c_0.25_Z    h_0.50_Z    c_0.50_Z    h_0.75_Z    c_0.75_Z    h_1.00_Z    c_1.00_Z    h_1.25_Z    c_1.25_Z    h_1.50_Z    c_1.50_Z 
      1.00  2.4235e-28  4.7178e-32  2.4236e-28  4.7626e-32  2.4236e-28  4.8423e-32  2.4237e-28  4.9841e-32  2.4238e-28  5.2362e-32  2.4241e-28  5.6846e-32  2.4245e-28  6.482e-32  2.4253e-28  7.9006e-32  2.4267e-28  1.0424e-31  2.4291e-28  1.4916e-31  2.4337e-28  2.2914e-31  2.4421e-28  3.7169e-31  2.4588e-28  6.2599e-31  2.4935e-28  1.0801e-30  2.5651e-28  1.8912e-30  2.7039e-28  3.3379e-30  2.964e-28  5.9153e-30  3.447e-28  1.0505e-29  4.3583e-28  1.8678e-29
      1.05  2.4237e-28  5.2959e-32  2.4237e-28  5.3545e-32  2.4237e-28  5.4587e-32  2.4238e-28  5.644e-32  2.424e-28  5.9736e-32  2.4242e-28  6.5596e-32  2.4246e-28  7.602e-32  2.4254e-28  9.4562e-32  2.4268e-28  1.2755e-31  2.4292e-28  1.8627e-31  2.4337e-28  2.9086e-31  2.442e-28  4.773e-31  2.4583e-28  8.1017e-31  2.4925e-28  1.4054e-30  2.5635e-28  2.4702e-30  2.7019e-28  4.3714e-30  2.9613e-28  7.7613e-30  3.4418e-28   1.38e-29  4.3482e-28  2.456e-29
      1.10  2.4238e-28  5.995e-32  2.4239e-28  6.0703e-32  2.4239e-28  6.2041e-32  2.424e-28  6.4421e-32  2.4241e-28  6.8653e-32  2.4244e-28  7.6181e-32  2.4248e-28  8.9569e-32  2.4255e-28  1.1339e-31  2.4269e-28  1.5576e-31  2.4293e-28  2.312e-31  2.4337e-28  3.656e-31  2.4419e-28  6.0483e-31  2.4579e-28  1.0335e-30  2.4917e-28  1.8024e-30  2.5623e-28  3.1822e-30  2.7003e-28  5.6516e-30  2.9589e-28  1.0062e-29  3.437e-28  1.7926e-29  4.3383e-28  3.1955e-29
      1.15  2.424e-28  6.9566e-32  2.4241e-28  7.0519e-32  2.4241e-28  7.2214e-32  2.4242e-28  7.5229e-32  2.4243e-28  8.0589e-32  2.4245e-28  9.0123e-32  2.425e-28  1.0708e-31  2.4257e-28  1.3725e-31  2.427e-28  1.9093e-31  2.4294e-28  2.8651e-31  2.4337e-28  4.5688e-31  2.4418e-28  7.6115e-31  2.4575e-28  1.3067e-30  2.4908e-28  2.2909e-30  2.5611e-28  4.0655e-30  2.6984e-28  7.2606e-30  2.956e-28  1.2983e-29  3.4319e-28  2.321e-29  4.3271e-28  4.1487e-29
      1.20  2.4242e-28  8.0277e-32  2.4243e-28  8.147e-32  2.4243e-28  8.3591e-32  2.4244e-28  8.7364e-32  2.4245e-28  9.4073e-32  2.4247e-28  1.0601e-31  2.4251e-28  1.2723e-31  2.4259e-28   1.65e-31  2.4272e-28  2.3221e-31  2.4295e-28  3.5193e-31  2.4338e-28  5.6549e-31  2.4416e-28  9.4762e-31  2.4571e-28  1.6361e-30  2.4899e-28  2.8902e-30  2.5596e-28  5.1801e-30  2.6963e-28  9.3214e-30  2.9529e-28  1.6785e-29  3.4263e-28  3.0166e-29  4.3147e-28  5.4147e-29
      1.25  2.4245e-28  9.222e-32  2.4245e-28  9.3697e-32  2.4245e-28  9.6325e-32  2.4246e-28   1.01e-31  2.4247e-28  1.0931e-31  2.4249e-28  1.2409e-31  2.4253e-28  1.5039e-31  2.4261e-28  1.9718e-31  2.4274e-28  2.8049e-31  2.4297e-28  4.2894e-31  2.4338e-28  6.9405e-31  2.4415e-28  1.1698e-30  2.4566e-28  2.0331e-30  2.489e-28  3.6296e-30  2.5581e-28  6.5944e-30  2.6941e-28  1.2014e-29  2.9494e-28  2.185e-29  3.4202e-28  3.9569e-29  4.301e-28  7.1438e-29
      1.30  2.4247e-28  1.0556e-31  2.4247e-28  1.0738e-31  2.4247e-28  1.106e-31  2.4248e-28  1.1634e-31  2.4249e-28  1.2654e-31  2.4252e-28  1.4469e-31  2.4256e-28  1.7698e-31  2.4263e-28  2.3444e-31  2.4275e-28  3.3677e-31  2.4298e-28  5.1924e-31  2.4339e-28  8.4561e-31  2.4414e-28  1.4335e-30  2.4562e-28  2.5112e-30  2.488e-28  4.5462e-30  2.5566e-28  8.4141e-30  2.6917e-28  1.5587e-29  2.9457e-28  2.872e-29  3.4139e-28  5.2513e-29  4.2864e-28  9.5475e-29
      1.35  2.4249e-28  1.2048e-31  2.425e-28  1.2269e-31  2.425e-28  1.2662e-31  2.4251e-28  1.3361e-31  2.4252e-28  1.4605e-31  2.4254e-28  1.6817e-31  2.4258e-28  2.0752e-31  2.4265e-28  2.7756e-31  2.4277e-28  4.0234e-31  2.4299e-28  6.2501e-31  2.4339e-28  1.024e-30  2.4413e-28  1.7463e-30  2.4557e-28  3.087e-30  2.487e-28  5.6869e-30  2.555e-28  1.0772e-29  2.6893e-28  2.0364e-29  2.942e-28  3.8105e-29  3.4074e-28  7.0429e-29  4.2711e-28  1.2902e-28
      1.40  2.4252e-28  1.3718e-31  2.4252e-28  1.3986e-31  2.4253e-28  1.4462e-31  2.4253e-28  1.531e-31  2.4254e-28  1.6818e-31  2.4257e-28  1.9501e-31  2.426e-28  2.4274e-31  2.4267e-28  3.2772e-31  2.4279e-28  4.7915e-31  2.4301e-28  7.4961e-31  2.434e-28  1.2353e-30  2.4412e-28  2.1191e-30  2.4553e-28  3.7835e-30  2.486e-28  7.1122e-30  2.5533e-28  1.3836e-29  2.6868e-28  2.6745e-29  2.9381e-28  5.0864e-29  3.4007e-28  9.5064e-29  4.2556e-28  1.7541e-28
      1.45  2.4255e-28  1.559e-31  2.4255e-28  1.5915e-31  2.4255e-28  1.6493e-31  2.4256e-28  1.7521e-31  2.4257e-28  1.9349e-31  2.4259e-28  2.2602e-31  2.4263e-28  2.839e-31  2.427e-28  3.8694e-31  2.4282e-28  5.7063e-31  2.4303e-28  8.9897e-31  2.4341e-28  1.4897e-30  2.4411e-28  2.5707e-30  2.4549e-28  4.6372e-30  2.485e-28  8.9059e-30  2.5516e-28  1.7817e-29  2.6842e-28  3.5219e-29  2.9342e-28  6.8029e-29  3.3939e-28  1.2847e-28  4.2403e-28  2.3854e-28
      1.50  2.4258e-28  1.7695e-31  2.4258e-28  1.8092e-31  2.4258e-28  1.8798e-31  2.4259e-28  2.0054e-31  2.426e-28  2.2288e-31  2.4262e-28  2.6263e-31  2.4266e-28  3.3335e-31  2.4272e-28  4.5927e-31  2.4284e-28  6.8377e-31  2.4305e-28  1.0853e-30  2.4342e-28  1.8088e-30  2.441e-28  3.1392e-30  2.4544e-28  5.7173e-30  2.4838e-28  1.1207e-29  2.5498e-28  2.302e-29  2.6816e-28  4.6429e-29  2.9302e-28  9.0884e-29  3.3872e-28  1.7312e-28  4.2256e-28  3.2303e-28
      1.55  2.4261e-28  2.0081e-31  2.4261e-28  2.0578e-31  2.4261e-28  2.1462e-31  2.4262e-28  2.3034e-31  2.4263e-28  2.5831e-31  2.4265e-28  3.0805e-31  2.4269e-28  3.9656e-31  2.4275e-28  5.5415e-31  2.4286e-28  8.351e-31  2.4307e-28  1.3376e-30  2.4343e-28  2.2437e-30  2.441e-28  3.9143e-30  2.454e-28  7.1814e-30  2.4829e-28  1.4297e-29  2.5482e-28  2.9975e-29  2.6792e-28  6.1368e-29  2.9265e-28  1.2127e-28  3.3809e-28  2.3238e-28  4.2125e-28  4.3497e-28
      1.60  2.4264e-28  2.2804e-31  2.4264e-28  2.3451e-31  2.4264e-28  2.4602e-31  2.4265e-28  2.6649e-31  2.4266e-28  3.0289e-31  2.4268e-28  3.6764e-31  2.4272e-28  4.8285e-31  2.4278e-28  6.8791e-31  2.4289e-28  1.0534e-30  2.4309e-28  1.7067e-30  2.4345e-28  2.8841e-30  2.441e-28  5.0542e-30  2.4537e-28  9.3067e-30  2.482e-28  1.8664e-29  2.5467e-28  3.9525e-29  2.6769e-28  8.1588e-29  2.923e-28  1.6194e-28  3.3751e-28  3.1114e-28  4.2007e-28  5.8306e-28
      1.65  2.4267e-28  2.5954e-31  2.4267e-28  2.6845e-31  2.4268e-28  2.8429e-31  2.4268e-28  3.1247e-31  2.427e-28  3.6258e-31  2.4272e-28  4.5171e-31  2.4275e-28  6.1025e-31  2.4281e-28  8.9237e-31  2.4292e-28  1.3949e-30  2.4312e-28  2.2922e-30  2.4347e-28  3.9061e-30  2.4411e-28  6.8691e-30  2.4534e-28  1.2634e-29  2.4811e-28  2.5233e-29  2.5453e-28  5.3289e-29  2.6748e-28  1.0977e-28  2.9197e-28  2.1748e-28  3.3697e-28  4.1729e-28  4.1899e-28  7.8092e-28
      1.70  2.4271e-28  2.967e-31  2.4271e-28  3.0977e-31  2.4271e-28   3.33e-31  2.4272e-28  3.7431e-31  2.4273e-28  4.4777e-31  2.4275e-28  5.7841e-31  2.4278e-28  8.1075e-31  2.4284e-28  1.224e-30  2.4295e-28  1.9596e-30  2.4315e-28  3.2713e-30  2.4349e-28  5.6232e-30  2.4411e-28  9.9116e-30  2.4532e-28  1.8127e-29  2.4803e-28  3.5638e-29  2.5439e-28  7.3946e-29  2.6727e-28  1.5035e-28  2.9166e-28  2.9527e-28  3.3647e-28  5.6321e-28  4.1802e-28  1.0497e-27
      1.75  2.4275e-28  3.4163e-31  2.4275e-28  3.6185e-31  2.4275e-28  3.9782e-31  2.4276e-28  4.6177e-31  2.4277e-28  5.7548e-31  2.4279e-28  7.7769e-31  2.4282e-28  1.1372e-30  2.4288e-28  1.7766e-30  2.4299e-28  2.9137e-30  2.4317e-28  4.9383e-30  2.4351e-28  8.5564e-30  2.4412e-28   1.51e-29  2.4529e-28  2.7384e-29  2.4795e-28  5.2571e-29  2.5426e-28  1.0585e-28  2.6708e-28  2.1034e-28  2.9137e-28  4.0667e-28   3.36e-28  7.6761e-28  4.1714e-28  1.4207e-27
      1.80  2.4278e-28  3.975e-31  2.4279e-28  4.2988e-31  2.4279e-28  4.8746e-31  2.428e-28  5.8985e-31  2.4281e-28  7.719e-31  2.4282e-28  1.0956e-30  2.4286e-28  1.6711e-30  2.4292e-28  2.6941e-30  2.4302e-28  4.5126e-30  2.4321e-28  7.7464e-30  2.4354e-28  1.3508e-29  2.4414e-28  2.3849e-29  2.4528e-28  4.2867e-29  2.4788e-28  8.0113e-29  2.5413e-28  1.5557e-28  2.669e-28  3.0008e-28  2.9111e-28  5.6813e-28  3.3558e-28  1.0572e-27  4.1634e-28  1.9383e-27
      1.85  2.4282e-28  4.6842e-31  2.4283e-28  5.2078e-31  2.4283e-28  6.1389e-31  2.4284e-28  7.7946e-31  2.4285e-28  1.0738e-30  2.4286e-28  1.5972e-30  2.429e-28  2.5277e-30  2.4296e-28  4.1814e-30  2.4306e-28  7.1198e-30  2.4324e-28  1.234e-29  2.4357e-28  2.162e-29  2.4415e-28  3.8172e-29  2.4527e-28  6.8085e-29  2.4781e-28  1.242e-28  2.5402e-28  2.3232e-28  2.6673e-28  4.3385e-28  2.9086e-28  8.0205e-28  3.3518e-28  1.4676e-27  4.1561e-28  2.6608e-27
      1.90  2.4287e-28  5.5977e-31  2.4287e-28  6.4365e-31  2.4287e-28  7.9279e-31  2.4288e-28  1.058e-30  2.4289e-28  1.5295e-30  2.4291e-28  2.3679e-30  2.4294e-28  3.8581e-30   2.43e-28  6.5065e-30  2.431e-28  1.1211e-29  2.4328e-28  1.9565e-29  2.4359e-28  3.439e-29  2.4417e-28  6.0718e-29  2.4525e-28  1.0761e-28  2.4776e-28  1.9255e-28  2.5393e-28  3.4817e-28  2.666e-28  6.3006e-28  2.9065e-28  1.1368e-27  3.3485e-28  2.0434e-27  4.1499e-28  3.6599e-27
      1.95  2.4291e-28  6.778e-31  2.4291e-28  8.0901e-31  2.4292e-28  1.0423e-30  2.4292e-28  1.4572e-30  2.4293e-28  2.1948e-30  2.4295e-28  3.5063e-30  2.4298e-28  5.8374e-30  2.4303e-28  9.9802e-30  2.4313e-28  1.7339e-29  2.433e-28  3.0399e-29  2.4361e-28  5.3554e-29  2.4417e-28  9.4537e-29  2.4524e-28  1.6679e-28  2.4776e-28  2.9374e-28  2.5396e-28  5.1631e-28  2.6661e-28  9.0874e-28  2.9062e-28  1.6026e-27  3.3469e-28  2.8306e-27  4.146e-28  5.0047e-27
      2.00  2.4296e-28  8.2991e-31  2.4296e-28  1.0294e-30  2.4296e-28  1.3841e-30  2.4297e-28  2.0149e-30  2.4298e-28  3.1364e-30  2.4299e-28  5.1302e-30  2.4302e-28  8.6743e-30  2.4308e-28  1.4972e-29  2.4317e-28  2.6157e-29  2.4334e-28  4.6003e-29  2.4365e-28  8.1156e-29  2.4419e-28  1.4314e-28  2.4523e-28  2.518e-28  2.4771e-28  4.3795e-28  2.5387e-28  7.5268e-28  2.6649e-28  1.2951e-27  2.9044e-28  2.2405e-27  3.3442e-28  3.8977e-27  4.1408e-28  6.8158e-27
      2.05   2.43e-28  1.0238e-30  2.4301e-28  1.3176e-30  2.4301e-28  1.8399e-30  2.4301e-28  2.7687e-30  2.4302e-28  4.4201e-30  2.4304e-28  7.3561e-30  2.4307e-28  1.2575e-29  2.4312e-28  2.1848e-29  2.4322e-28  3.8317e-29  2.4339e-28  6.7534e-29  2.4368e-28  1.1926e-28  2.4422e-28  2.1038e-28  2.4523e-28  3.6926e-28  2.4765e-28  6.3666e-28  2.5376e-28  1.0752e-27  2.6634e-28  1.816e-27  2.9025e-28  3.0911e-27  3.3413e-28  5.3084e-27  4.1357e-28  9.1961e-27
      2.10  2.4305e-28  1.2661e-30  2.4306e-28  1.6846e-30  2.4306e-28  2.4287e-30  2.4306e-28  3.7518e-30  2.4307e-28  6.1045e-30  2.4309e-28  1.0287e-29  2.4312e-28  1.7722e-29  2.4317e-28  3.0933e-29  2.4327e-28  5.4396e-29  2.4343e-28  9.602e-29  2.4373e-28  1.6971e-28  2.4425e-28  2.9942e-28  2.4523e-28  5.2495e-28  2.4759e-28  8.9984e-28  2.5366e-28  1.4995e-27  2.6621e-28  2.4957e-27  2.9006e-28  4.1931e-27  3.3387e-28  7.1247e-27  4.1314e-28  1.2248e-26
      2.15  2.4311e-28  1.5624e-30  2.4311e-28  2.1396e-30  2.4311e-28  3.1659e-30  2.4312e-28  4.9908e-30  2.4312e-28  8.2357e-30  2.4314e-28  1.4005e-29  2.4317e-28  2.426e-29  2.4322e-28  4.2483e-29  2.4332e-28  7.4848e-29  2.4348e-28  1.3227e-28  2.4377e-28  2.3381e-28  2.4428e-28  4.1288e-28  2.4524e-28  7.2353e-28  2.4753e-28  1.2358e-27  2.5356e-28  2.0391e-27  2.6608e-28  3.356e-27  2.8989e-28  5.5815e-27  3.3363e-28  9.4061e-27  4.1278e-28  1.6075e-26
      2.20  2.4316e-28  1.9169e-30  2.4316e-28  2.6889e-30  2.4316e-28  4.0617e-30  2.4317e-28  6.5027e-30  2.4318e-28  1.0843e-29  2.4319e-28  1.856e-29  2.4322e-28  3.2277e-29  2.4328e-28  5.6655e-29  2.4337e-28  9.9954e-29  2.4353e-28  1.7679e-28  2.4382e-28  3.1269e-28  2.4432e-28  5.5238e-28  2.4525e-28  9.6809e-28  2.4749e-28  1.6503e-27  2.5346e-28  2.7041e-27  2.6596e-28  4.4137e-27  2.8973e-28  7.2858e-27  3.3342e-28  1.2204e-26  4.1245e-28  2.077e-26
      2.25  2.4321e-28  2.332e-30  2.4322e-28  3.3356e-30  2.4322e-28  5.1202e-30  2.4322e-28  8.2935e-30  2.4323e-28  1.3936e-29  2.4325e-28  2.3968e-29  2.4328e-28  4.1802e-29  2.4333e-28  7.3496e-29  2.4342e-28  1.298e-28  2.4358e-28  2.2972e-28  2.4386e-28  4.0654e-28  2.4436e-28  7.1849e-28  2.4527e-28  1.2597e-27  2.4744e-28  2.1459e-27  2.5338e-28  3.4998e-27  2.6585e-28  5.6793e-27  2.8959e-28  9.3264e-27  3.3322e-28  1.5558e-26  4.1216e-28  2.6407e-26
      2.30  2.4327e-28  2.8091e-30  2.4327e-28  4.0801e-30  2.4328e-28  6.3403e-30  2.4328e-28  1.0359e-29  2.4329e-28  1.7506e-29  2.4331e-28  3.0212e-29  2.4334e-28   5.28e-29  2.4339e-28  9.2948e-29  2.4348e-28  1.6428e-28  2.4364e-28  2.9089e-28  2.4392e-28  5.1504e-28  2.444e-28  9.1068e-28  2.4529e-28  1.5978e-27  2.474e-28  2.7225e-27  2.5329e-28  4.4273e-27  2.6574e-28  7.1575e-27  2.8945e-28  1.1715e-26  3.3304e-28  1.9495e-26  4.1191e-28  3.3045e-26
      2.35  2.4333e-28  3.3469e-30  2.4333e-28  4.9193e-30  2.4334e-28  7.7154e-30  2.4334e-28  1.2687e-29  2.4335e-28  2.1528e-29  2.4337e-28  3.7248e-29  2.4339e-28  6.5194e-29  2.4345e-28  1.1487e-28  2.4353e-28  2.0313e-28  2.4369e-28  3.5985e-28  2.4397e-28  6.3741e-28  2.4445e-28  1.1277e-27  2.4531e-28  1.9802e-27  2.4736e-28  3.3771e-27  2.5321e-28  5.4841e-27  2.6564e-28  8.8474e-27  2.8933e-28  1.4457e-26  3.3288e-28  2.403e-26  4.1168e-28  4.0719e-26
      2.40  2.4339e-28  3.9404e-30  2.4339e-28  5.8422e-30  2.434e-28  9.2241e-30  2.434e-28  1.5238e-29  2.4341e-28  2.5931e-29  2.4343e-28  4.4945e-29  2.4346e-28  7.8751e-29  2.4351e-28  1.3884e-28  2.4359e-28  2.4563e-28  2.4375e-28  4.3503e-28  2.4402e-28  7.7134e-28  2.445e-28  1.3653e-27  2.4534e-28  2.3998e-27  2.4733e-28  4.0983e-27  2.5313e-28  6.6528e-27  2.6555e-28  1.0723e-26  2.8921e-28  1.751e-26  3.3273e-28  2.9101e-26  4.1148e-28  4.9333e-26
      2.45  2.4346e-28  4.581e-30  2.4346e-28  6.8318e-30  2.4346e-28  1.0834e-29  2.4347e-28  1.7952e-29  2.4347e-28  3.0608e-29  2.4349e-28  5.3112e-29  2.4352e-28  9.3124e-29  2.4357e-28  1.6426e-28  2.4366e-28  2.9068e-28  2.4381e-28  5.1496e-28  2.4408e-28  9.1338e-28  2.4455e-28  1.6176e-27  2.4537e-28  2.846e-27  2.473e-28  4.8682e-27  2.5306e-28  7.9044e-27  2.6547e-28  1.2737e-26  2.891e-28  2.0801e-26  3.326e-28  3.4583e-26  4.113e-28  5.8676e-26
      2.50  2.4352e-28  5.2726e-30  2.4352e-28  7.8926e-30  2.4353e-28  1.2551e-29  2.4353e-28  2.0836e-29  2.4354e-28  3.5568e-29  2.4356e-28  6.1764e-29  2.4358e-28  1.0834e-28  2.4363e-28  1.9116e-28  2.4372e-28  3.3836e-28  2.4388e-28  5.9957e-28  2.4414e-28  1.0638e-27  2.446e-28  1.885e-27  2.4541e-28  3.3199e-27  2.4727e-28  5.6896e-27  2.5299e-28  9.247e-27  2.6538e-28  1.491e-26  2.8899e-28  2.4369e-26  3.3247e-28  4.0557e-26  4.1114e-28  6.8903e-26
      2.55  2.4359e-28  6.0149e-30  2.4359e-28  9.0199e-30  2.4359e-28  1.4364e-29  2.436e-28  2.3866e-29  2.4361e-28  4.0764e-29  2.4362e-28  7.0811e-29  2.4365e-28  1.2424e-28  2.437e-28  2.1924e-28  2.4379e-28  3.8814e-28  2.4394e-28  6.879e-28  2.4421e-28  1.2209e-27  2.4466e-28  2.1646e-27  2.4544e-28  3.8161e-27  2.4725e-28  6.5537e-27  2.5292e-28  1.0667e-26  2.653e-28  1.7221e-26  2.8889e-28  2.8187e-26  3.3235e-28  4.6982e-26   4.11e-28  7.9948e-26
      2.60  2.4366e-28  6.8042e-30  2.4366e-28  1.0205e-29  2.4367e-28  1.6254e-29  2.4367e-28  2.7009e-29  2.4368e-28  4.6135e-29  2.4369e-28  8.0147e-29  2.4372e-28  1.4063e-28  2.4377e-28  2.4818e-28  2.4386e-28  4.3941e-28  2.4401e-28  7.7888e-28  2.4427e-28  1.3828e-27  2.4472e-28  2.4529e-27  2.4549e-28  4.3288e-27  2.4723e-28  7.4504e-27  2.5285e-28  1.2151e-26  2.6523e-28  1.9649e-26  2.8879e-28  3.2218e-26  3.3224e-28  5.3796e-26  4.1086e-28  9.1707e-26
      2.65  2.4373e-28  7.6419e-30  2.4374e-28  1.1448e-29  2.4374e-28  1.8217e-29  2.4374e-28  3.0255e-29  2.4375e-28  5.166e-29  2.4377e-28  8.9727e-29  2.4379e-28  1.5742e-28  2.4384e-28  2.7781e-28  2.4393e-28  4.9189e-28  2.4408e-28  8.7258e-28  2.4434e-28  1.5486e-27  2.4478e-28  2.7484e-27  2.4553e-28  4.8552e-27  2.4721e-28  8.3755e-27  2.5279e-28  1.3691e-26  2.6515e-28  2.2185e-26  2.8872e-28  3.6452e-26  3.3212e-28  6.0987e-26  4.1073e-28  1.0416e-25
      2.70  2.4381e-28  8.5302e-30  2.4381e-28  1.2749e-29  2.4381e-28  2.0251e-29  2.4382e-28  3.3591e-29  2.4383e-28  5.7315e-29  2.4384e-28  9.9504e-29  2.4387e-28  1.7453e-28  2.4392e-28  3.0797e-28   2.44e-28  5.4531e-28  2.4415e-28  9.6744e-28  2.4441e-28  1.7173e-27  2.4485e-28  3.0493e-27  2.4558e-28  5.3921e-27  2.472e-28  9.3225e-27  2.5273e-28  1.5278e-26  2.6509e-28  2.4817e-26  2.8865e-28  4.0872e-26  3.3206e-28  6.8528e-26  4.1068e-28  1.1726e-25
      2.75  2.4389e-28  9.4685e-30  2.4389e-28  1.4101e-29  2.4389e-28  2.2339e-29  2.4389e-28  3.6989e-29  2.439e-28  6.3042e-29  2.4392e-28  1.0937e-28  2.4394e-28  1.9178e-28  2.4399e-28  3.3833e-28  2.4407e-28  5.9903e-28  2.4422e-28  1.0628e-27  2.4447e-28  1.8868e-27  2.4489e-28  3.3511e-27  2.4559e-28  5.9279e-27  2.4719e-28  1.0254e-26  2.5273e-28  1.6846e-26  2.6509e-28  2.7475e-26  2.8865e-28  4.5413e-26  3.3208e-28  7.6359e-26  4.1072e-28  1.3095e-25
      2.80  2.4397e-28  1.0471e-29  2.4397e-28  1.5522e-29  2.4397e-28  2.4504e-29  2.4397e-28  4.0478e-29  2.4398e-28  6.8885e-29   2.44e-28  1.1941e-28  2.4402e-28  2.0926e-28  2.4407e-28  3.6907e-28  2.4415e-28  6.5337e-28  2.4428e-28  1.1592e-27  2.4452e-28  2.0581e-27  2.4492e-28  3.6562e-27  2.4559e-28  6.4695e-27  2.4718e-28  1.1194e-26  2.5275e-28  1.8442e-26  2.6511e-28  3.0208e-26  2.8867e-28  5.012e-26  3.3211e-28  8.4519e-26  4.1079e-28  1.4526e-25
      2.85  2.4405e-28  1.1541e-29  2.4405e-28  1.7016e-29  2.4405e-28  2.6752e-29  2.4406e-28  4.4065e-29  2.4406e-28  7.4855e-29  2.4408e-28  1.2961e-28  2.441e-28   2.27e-28  2.4414e-28  4.0024e-28  2.4422e-28  7.0844e-28  2.4435e-28  1.2568e-27  2.4458e-28  2.2316e-27  2.4496e-28  3.9651e-27  2.4559e-28  7.018e-27  2.4717e-28  1.2148e-26  2.5277e-28  2.0074e-26  2.6513e-28  3.3028e-26  2.8869e-28  5.5008e-26  3.3216e-28  9.3025e-26  4.1091e-28  1.602e-25
      2.90  2.4413e-28  1.269e-29  2.4413e-28  1.8595e-29  2.4414e-28  2.9095e-29  2.4414e-28  4.7769e-29  2.4415e-28  8.0977e-29  2.4416e-28  1.4004e-28  2.4418e-28  2.4508e-28  2.4422e-28  4.3194e-28  2.4429e-28  7.6438e-28  2.4442e-28  1.356e-27  2.4463e-28  2.4076e-27  2.4499e-28  4.2786e-27  2.456e-28  7.575e-27  2.4717e-28  1.312e-26  2.5279e-28  2.1754e-26  2.6515e-28  3.5953e-26  2.8871e-28  6.0101e-26  3.3222e-28  1.019e-25  4.1108e-28  1.7579e-25
      2.95  2.4422e-28  1.3929e-29  2.4422e-28  2.0271e-29  2.4422e-28  3.1549e-29  2.4423e-28  5.1606e-29  2.4423e-28  8.7275e-29  2.4424e-28  1.5071e-28  2.4427e-28  2.6354e-28  2.443e-28  4.6425e-28  2.4437e-28  8.2136e-28  2.4449e-28  1.4569e-27  2.4469e-28  2.5867e-27  2.4504e-28  4.5975e-27  2.4562e-28  8.1423e-27  2.4717e-28  1.4118e-26  2.528e-28  2.3496e-26  2.6515e-28  3.9004e-26  2.8871e-28  6.543e-26  3.3227e-28  1.112e-25  4.113e-28  1.9208e-25
      3.00  2.4431e-28  1.527e-29  2.4431e-28  2.2058e-29  2.4431e-28  3.4129e-29  2.4431e-28  5.5596e-29  2.4432e-28  9.3773e-29  2.4433e-28  1.6167e-28  2.4435e-28  2.8243e-28  2.4439e-28  4.9726e-28  2.4445e-28  8.795e-28  2.4457e-28  1.5598e-27  2.4476e-28  2.7692e-27  2.4509e-28  4.9224e-27  2.4565e-28  8.7214e-27  2.4718e-28  1.5147e-26  2.5279e-28  2.5313e-26  2.6512e-28  4.2203e-26  2.8868e-28  7.103e-26  3.3231e-28  1.2095e-25  4.1154e-28  2.0913e-25
      3.05  2.444e-28  1.6733e-29  2.444e-28  2.3972e-29  2.444e-28  3.6845e-29  2.4441e-28  5.9738e-29  2.4441e-28  1.0045e-28  2.4442e-28  1.7286e-28  2.4444e-28  3.0164e-28  2.4448e-28  5.3074e-28  2.4454e-28  9.3837e-28  2.4465e-28  1.6639e-27  2.4483e-28  2.9536e-27  2.4515e-28  5.2507e-27  2.457e-28  9.3078e-27  2.4721e-28  1.6202e-26  2.5277e-28  2.7199e-26  2.6505e-28  4.5543e-26  2.8859e-28  7.6889e-26  3.3229e-28  1.3113e-25  4.118e-28  2.2681e-25
      3.10  2.4449e-28  1.8327e-29  2.4449e-28  2.6027e-29  2.445e-28  3.9721e-29  2.445e-28  6.4074e-29  2.445e-28  1.0738e-28  2.4452e-28  1.8441e-28  2.4453e-28  3.214e-28  2.4457e-28  5.651e-28  2.4463e-28  9.987e-28  2.4473e-28  1.7704e-27  2.4491e-28  3.1443e-27  2.4523e-28  5.5861e-27  2.4577e-28  9.9081e-27  2.4724e-28  1.7295e-26  2.5271e-28  2.9185e-26  2.6491e-28  4.9083e-26  2.8838e-28  8.3117e-26  3.3214e-28  1.4194e-25  4.1198e-28  2.4546e-25
      3.15  2.4459e-28  2.0081e-29  2.4459e-28  2.8257e-29  2.4459e-28  4.2796e-29  2.4459e-28  6.8652e-29  2.446e-28  1.1463e-28  2.4461e-28  1.9641e-28  2.4463e-28  3.4186e-28  2.4466e-28  6.0058e-28  2.4472e-28  1.0609e-27  2.4482e-28  1.8801e-27   2.45e-28  3.3385e-27  2.4531e-28  5.9306e-27  2.4586e-28  1.0525e-26  2.4729e-28  1.8432e-26  2.5261e-28  3.1282e-26  2.6469e-28  5.2853e-26  2.8803e-28  8.9792e-26  3.3178e-28  1.5352e-25  4.1198e-28  2.6529e-25
      3.20  2.4469e-28  2.202e-29  2.4469e-28  3.069e-29  2.4469e-28  4.6109e-29  2.4469e-28  7.3529e-29  2.447e-28  1.2229e-28  2.4471e-28  2.0901e-28  2.4473e-28  3.6325e-28  2.4476e-28  6.376e-28  2.4482e-28  1.1257e-27  2.4492e-28  1.9943e-27  2.451e-28  3.5403e-27  2.4541e-28  6.2882e-27  2.4598e-28  1.1165e-26  2.4736e-28  1.9618e-26  2.5248e-28  3.3504e-26  2.6435e-28  5.689e-26  2.8746e-28  9.7006e-26  3.3109e-28  1.6608e-25  4.1161e-28  2.867e-25
      3.25  2.4479e-28  2.4175e-29  2.4479e-28  3.3369e-29  2.4479e-28  4.9718e-29  2.4479e-28  7.8793e-29  2.448e-28  1.305e-28  2.4481e-28  2.2245e-28  2.4483e-28  3.8599e-28  2.4486e-28  6.7687e-28  2.4491e-28  1.1943e-27  2.4502e-28  2.115e-27  2.452e-28  3.7537e-27  2.4552e-28  6.6658e-27  2.461e-28  1.184e-26  2.4745e-28  2.0866e-26  2.523e-28  3.5872e-26  2.6389e-28  6.1236e-26  2.8663e-28  1.0487e-25  3.2994e-28  1.7993e-25  4.1065e-28  3.1028e-25
      3.30  2.4489e-28  2.6613e-29  2.4489e-28  3.6374e-29  2.4489e-28  5.3731e-29  2.4489e-28  8.4598e-29  2.449e-28  1.3949e-28  2.4491e-28  2.3711e-28  2.4493e-28  4.1072e-28  2.4496e-28  7.1949e-28  2.4502e-28  1.2687e-27  2.4512e-28  2.2459e-27  2.453e-28  3.9847e-27  2.4563e-28  7.0742e-27  2.4622e-28  1.2568e-26  2.4755e-28  2.2204e-26  2.521e-28  3.8422e-26  2.6333e-28  6.595e-26  2.8555e-28  1.1352e-25  3.2827e-28  1.9539e-25  4.0888e-28  3.3681e-25
      3.35  2.4499e-28  2.939e-29  2.4499e-28  3.9796e-29  2.4499e-28  5.8301e-29  2.4499e-28  9.1208e-29   2.45e-28  1.4973e-28  2.4501e-28  2.538e-28  2.4503e-28  4.3887e-28  2.4506e-28  7.6804e-28  2.4512e-28  1.3535e-27  2.4522e-28  2.395e-27  2.454e-28  4.248e-27  2.4574e-28  7.5396e-27  2.4635e-28  1.3396e-26  2.4765e-28  2.371e-26  2.5188e-28  4.1268e-26  2.627e-28  7.1204e-26  2.8427e-28  1.2322e-25  3.2607e-28  2.1302e-25  4.0612e-28  3.6747e-25
      3.40  2.4509e-28  3.2554e-29  2.4509e-28  4.3695e-29  2.4509e-28  6.3508e-29  2.451e-28  9.874e-29  2.451e-28  1.614e-28  2.4511e-28  2.7282e-28  2.4513e-28  4.7097e-28  2.4516e-28  8.2337e-28  2.4522e-28  1.4502e-27  2.4532e-28  2.5651e-27  2.4551e-28  4.5485e-27  2.4585e-28  8.0768e-27  2.4647e-28  1.4341e-26  2.4776e-28  2.5415e-26  2.5168e-28  4.4459e-26  2.6204e-28  7.7084e-26  2.8287e-28  1.3411e-25  3.2344e-28  2.3314e-25  4.0233e-28  4.0324e-25
      3.45  2.4519e-28  3.6182e-29  2.4519e-28  4.818e-29  2.4519e-28  6.9516e-29  2.452e-28  1.0746e-28  2.452e-28  1.7493e-28  2.4521e-28  2.9492e-28  2.4523e-28  5.083e-28  2.4526e-28  8.878e-28  2.4532e-28  1.5627e-27  2.4543e-28  2.7633e-27  2.4561e-28  4.8989e-27  2.4595e-28  8.6977e-27  2.4659e-28  1.5444e-26  2.4787e-28  2.7395e-26  2.515e-28  4.8124e-26  2.6139e-28  8.3803e-26  2.8144e-28  1.4652e-25  3.2058e-28  2.5625e-25  3.9763e-28  4.4529e-25
      3.50  2.4529e-28  4.0362e-29  2.4529e-28  5.3371e-29  2.4529e-28  7.6506e-29  2.453e-28  1.1765e-28  2.453e-28  1.9081e-28  2.4531e-28  3.2091e-28  2.4533e-28  5.5227e-28  2.4537e-28  9.6374e-28  2.4542e-28  1.6955e-27  2.4553e-28  2.9972e-27  2.4572e-28  5.3126e-27  2.4606e-28  9.4314e-27  2.467e-28  1.6747e-26  2.4798e-28  2.9729e-26  2.5136e-28  5.2399e-26  2.6078e-28  9.1604e-26  2.8007e-28  1.6081e-25  3.1769e-28  2.8285e-25  3.9232e-28  4.9448e-25
      3.55  2.4539e-28  4.5261e-29  2.4539e-28  5.9482e-29  2.4539e-28  8.4771e-29  2.454e-28  1.2974e-28  2.454e-28  2.0971e-28  2.4541e-28  3.5193e-28  2.4543e-28  6.0484e-28  2.4547e-28  1.0546e-27  2.4553e-28  1.8546e-27  2.4563e-28  3.2774e-27  2.4583e-28  5.8084e-27  2.4618e-28  1.0311e-26  2.4682e-28  1.8309e-26  2.4809e-28  3.2522e-26  2.5127e-28  5.7478e-26  2.6023e-28  1.0084e-25  2.7882e-28  1.7762e-25  3.1498e-28  3.139e-25  3.8685e-28  5.5215e-25
      3.60  2.4548e-28  5.0964e-29  2.4549e-28  6.6653e-29  2.4549e-28  9.4552e-29  2.4549e-28  1.4417e-28  2.455e-28  2.3239e-28  2.4551e-28  3.8929e-28  2.4553e-28  6.6831e-28  2.4556e-28  1.1645e-27  2.4562e-28  2.047e-27  2.4573e-28  3.6167e-27  2.4593e-28  6.409e-27  2.4629e-28  1.1377e-26  2.4695e-28  2.0203e-26  2.4822e-28  3.5903e-26  2.5125e-28  6.3589e-26  2.5978e-28  1.1193e-25  2.7779e-28  1.9772e-25  3.1267e-28  3.5069e-25  3.8186e-28  6.2005e-25
      3.65  2.4558e-28  5.7641e-29  2.4558e-28  7.5123e-29  2.4558e-28  1.0621e-28  2.4558e-28  1.6149e-28  2.4559e-28  2.598e-28  2.456e-28  4.3463e-28  2.4562e-28  7.4554e-28  2.4566e-28  1.2985e-27  2.4572e-28  2.2818e-27  2.4584e-28  4.0309e-27  2.4605e-28  7.1422e-27  2.4642e-28  1.2678e-26  2.471e-28  2.2514e-26  2.484e-28  4.0025e-26  2.5134e-28  7.0999e-26  2.5953e-28  1.2531e-25  2.7714e-28  2.2185e-25  3.1115e-28  3.9435e-25  3.7829e-28  6.9902e-25
      3.70  2.4569e-28  6.5754e-29  2.4569e-28  8.5451e-29  2.457e-28  1.2048e-28  2.457e-28  1.8277e-28  2.4571e-28  2.9353e-28  2.4572e-28  4.9051e-28  2.4574e-28  8.408e-28  2.4578e-28  1.4638e-27  2.4585e-28  2.5717e-27  2.4598e-28  4.5423e-27  2.462e-28  8.0476e-27  2.466e-28  1.4284e-26  2.4733e-28  2.5366e-26  2.487e-28   4.51e-26  2.5165e-28  8.0072e-26  2.5968e-28  1.4157e-25  2.7723e-28  2.5085e-25  3.1107e-28  4.4568e-25  3.7761e-28  7.8812e-25
      3.75  2.4581e-28  7.8405e-29  2.4581e-28  1.0094e-28  2.4582e-28  1.4101e-28  2.4582e-28  2.1227e-28  2.4583e-28  3.3899e-28  2.4584e-28  5.6433e-28  2.4587e-28  9.6507e-28  2.4591e-28  1.6777e-27  2.4599e-28  2.9452e-27  2.4614e-28  5.1993e-27  2.4639e-28  9.2088e-27  2.4685e-28  1.6341e-26  2.4768e-28  2.9012e-26  2.4921e-28  5.1569e-26  2.5236e-28  9.1548e-26  2.6055e-28  1.6188e-25  2.7864e-28  2.8629e-25  3.1346e-28  5.0591e-25  3.8169e-28  8.8438e-25
      3.80  2.5722e-28  1.2162e-28  2.5722e-28  1.4796e-28  2.5722e-28  1.9481e-28  2.5722e-28  2.7812e-28  2.5722e-28  4.2626e-28  2.5722e-28  6.8971e-28  2.5722e-28  1.1582e-27  2.5722e-28  1.9913e-27  2.5722e-28  3.4727e-27  2.5723e-28  6.1072e-27  2.5723e-28  1.0792e-26  2.5725e-28  1.9121e-26  2.5731e-28  3.3904e-26  2.5755e-28  6.0179e-26  2.5875e-28  1.0664e-25  2.6497e-28  1.882e-25  2.8303e-28  3.3075e-25  3.1975e-28  5.7632e-25  3.9209e-28  9.8077e-25
      3.85  2.5821e-28  3.7615e-28  2.5821e-28  4.0791e-28  2.5821e-28  4.6441e-28  2.5821e-28  5.6486e-28  2.5821e-28  7.435e-28  2.5822e-28  1.0612e-27  2.5823e-28  1.626e-27  2.5825e-28  2.6304e-27  2.5829e-28  4.4162e-27  2.5835e-28  7.5908e-27  2.5847e-28  1.3233e-26  2.5868e-28  2.3254e-26  2.5907e-28  4.1006e-26  2.5986e-28  7.2446e-26  2.6192e-28  1.2768e-25  2.6926e-28  2.2347e-25  2.8941e-28  3.8683e-25  3.2969e-28  6.5551e-25  4.0783e-28  1.063e-24
      3.90  2.5921e-28  1.8535e-27  2.5921e-28  1.893e-27  2.5921e-28  1.9634e-27  2.5921e-28  2.0885e-27  2.5922e-28  2.3109e-27  2.5924e-28  2.7063e-27  2.5927e-28  3.4094e-27  2.5932e-28  4.6594e-27  2.5941e-28  6.8811e-27  2.5958e-28  1.0828e-26  2.5987e-28  1.7834e-26  2.604e-28  3.0253e-26  2.6133e-28  5.217e-26  2.6305e-28  9.0712e-26  2.6656e-28  1.5756e-25  2.7578e-28  2.7088e-25  2.9853e-28  4.5605e-25  3.4207e-28  7.3862e-25  4.2459e-28  1.1251e-24
      3.95  2.6015e-28  9.2573e-27  2.6015e-28  9.3079e-27  2.6016e-28  9.3978e-27  2.6017e-28  9.5578e-27  2.6019e-28  9.8422e-27  2.6022e-28  1.0348e-26  2.6028e-28  1.1247e-26  2.6038e-28  1.2844e-26  2.6055e-28  1.5682e-26  2.6087e-28  2.0718e-26  2.6143e-28  2.9639e-26  2.6241e-28  4.5396e-26  2.6415e-28  7.3029e-26  2.6723e-28  1.2107e-25  2.7289e-28  2.0271e-25  2.8461e-28  3.3619e-25  3.093e-28  5.4113e-25  3.5334e-28  8.265e-25  4.3496e-28  1.2134e-24
