# This was generated using Cloudy10 and the columns are ordered 
# as log10 of the fraction of the metallicity to the solar metallicity
# 'h_*_Z' and 'c_*_Z' stands for cooling and heating respectively 
# at * metalicity
#
# NOTE: This was generated separately from loop_coolingcurve_w_UV.py
#       using Output_metals_w_redshift.py.
#
# Redshift = 0.0
# hden = 0.5
#
#     temp   h_-3.00_Z   c_-3.00_Z   h_-2.75_Z   c_-2.75_Z   h_-2.50_Z   c_-2.50_Z   h_-2.25_Z   c_-2.25_Z   h_-2.00_Z   c_-2.00_Z   h_-1.75_Z   c_-1.75_Z   h_-1.50_Z   c_-1.50_Z   h_-1.25_Z   c_-1.25_Z   h_-1.00_Z   c_-1.00_Z   h_-0.75_Z   c_-0.75_Z   h_-0.50_Z   c_-0.50_Z   h_-0.25_Z   c_-0.25_Z    h_0.00_Z    c_0.00_Z    h_0.25_Z    c_0.25_Z    h_0.50_Z    c_0.50_Z    h_0.75_Z    c_0.75_Z    h_1.00_Z    c_1.00_Z    h_1.25_Z    c_1.25_Z    h_1.50_Z    c_1.50_Z 
      1.00  1.6097e-25  4.5586e-29  1.6097e-25  4.5615e-29  1.6097e-25  4.5666e-29  1.6097e-25  4.5757e-29  1.6098e-25  4.5919e-29  1.6099e-25  4.6208e-29  1.6100e-25  4.6721e-29  1.6103e-25  4.7633e-29  1.6107e-25  4.9255e-29  1.6116e-25  5.2140e-29  1.6131e-25  5.7272e-29  1.6158e-25  6.6405e-29  1.6205e-25  8.2664e-29  1.6290e-25  1.1163e-28  1.6441e-25  1.6330e-28  1.6709e-25  2.5560e-28  1.7189e-25  4.2086e-28  1.8045e-25  7.1748e-28  1.9580e-25  1.2516e-27
      1.05  1.6081e-25  5.1183e-29  1.6081e-25  5.1223e-29  1.6081e-25  5.1294e-29  1.6081e-25  5.1420e-29  1.6082e-25  5.1646e-29  1.6083e-25  5.2046e-29  1.6084e-25  5.2757e-29  1.6087e-25  5.4023e-29  1.6092e-25  5.6274e-29  1.6100e-25  6.0278e-29  1.6115e-25  6.7399e-29  1.6142e-25  8.0069e-29  1.6189e-25  1.0262e-28  1.6273e-25  1.4278e-28  1.6424e-25  2.1435e-28  1.6691e-25  3.4208e-28  1.7168e-25  5.7043e-28  1.8021e-25  9.7950e-28  1.9548e-25  1.7144e-27
      1.10  1.6065e-25  5.7444e-29  1.6065e-25  5.7500e-29  1.6065e-25  5.7599e-29  1.6065e-25  5.7776e-29  1.6066e-25  5.8090e-29  1.6066e-25  5.8648e-29  1.6068e-25  5.9640e-29  1.6070e-25  6.1405e-29  1.6075e-25  6.4544e-29  1.6084e-25  7.0127e-29  1.6099e-25  8.0055e-29  1.6125e-25  9.7714e-29  1.6172e-25  1.2913e-28  1.6256e-25  1.8504e-28  1.6406e-25  2.8458e-28  1.6672e-25  4.6193e-28  1.7148e-25  7.7827e-28  1.7997e-25  1.3434e-27  1.9518e-25  2.3551e-27
      1.15  1.6048e-25  6.4451e-29  1.6048e-25  6.4530e-29  1.6048e-25  6.4670e-29  1.6048e-25  6.4919e-29  1.6049e-25  6.5362e-29  1.6049e-25  6.6150e-29  1.6051e-25  6.7550e-29  1.6054e-25  7.0041e-29  1.6058e-25  7.4470e-29  1.6067e-25  8.2346e-29  1.6081e-25  9.6350e-29  1.6108e-25  1.2125e-28  1.6155e-25  1.6553e-28  1.6239e-25  2.4425e-28  1.6388e-25  3.8419e-28  1.6653e-25  6.3297e-28  1.7127e-25  1.0754e-27  1.7972e-25  1.8627e-27  1.9487e-25  3.2662e-27
      1.20  1.6030e-25  7.2295e-29  1.6030e-25  7.2408e-29  1.6030e-25  7.2608e-29  1.6031e-25  7.2964e-29  1.6031e-25  7.3598e-29  1.6032e-25  7.4726e-29  1.6033e-25  7.6730e-29  1.6036e-25  8.0294e-29  1.6041e-25  8.6632e-29  1.6049e-25  9.7900e-29  1.6064e-25  1.1793e-28  1.6090e-25  1.5354e-28  1.6137e-25  2.1679e-28  1.6220e-25  3.2913e-28  1.6369e-25  5.2847e-28  1.6633e-25  8.8189e-28  1.7105e-25  1.5081e-27  1.7947e-25  2.6178e-27  1.9455e-25  4.5853e-27
      1.25  1.6012e-25  8.1079e-29  1.6012e-25  8.1242e-29  1.6012e-25  8.1532e-29  1.6012e-25  8.2047e-29  1.6013e-25  8.2964e-29  1.6014e-25  8.4594e-29  1.6015e-25  8.7494e-29  1.6018e-25  9.2648e-29  1.6022e-25  1.0181e-28  1.6031e-25  1.1811e-28  1.6045e-25  1.4706e-28  1.6072e-25  1.9851e-28  1.6118e-25  2.8984e-28  1.6201e-25  4.5181e-28  1.6349e-25  7.3865e-28  1.6612e-25  1.2457e-27  1.7082e-25  2.1408e-27  1.7920e-25  3.7194e-27  1.9422e-25  6.5032e-27
      1.30  1.5993e-25  9.0932e-29  1.5993e-25  9.1169e-29  1.5993e-25  9.1590e-29  1.5993e-25  9.2338e-29  1.5994e-25  9.3669e-29  1.5995e-25  9.6035e-29  1.5996e-25  1.0024e-28  1.5999e-25  1.0772e-28  1.6003e-25  1.2102e-28  1.6012e-25  1.4466e-28  1.6026e-25  1.8666e-28  1.6052e-25  2.6125e-28  1.6099e-25  3.9355e-28  1.6182e-25  6.2789e-28  1.6329e-25  1.0420e-27  1.6591e-25  1.7721e-27  1.7058e-25  3.0560e-27  1.7893e-25  5.3102e-27  1.9387e-25  9.2649e-27
      1.35  1.5973e-25  1.0197e-28  1.5973e-25  1.0232e-28  1.5974e-25  1.0292e-28  1.5974e-25  1.0401e-28  1.5974e-25  1.0593e-28  1.5975e-25  1.0934e-28  1.5977e-25  1.1542e-28  1.5979e-25  1.2623e-28  1.5984e-25  1.4543e-28  1.5992e-25  1.7956e-28  1.6007e-25  2.4019e-28  1.6033e-25  3.4780e-28  1.6079e-25  5.3855e-28  1.6161e-25  8.7600e-28  1.6308e-25  1.4713e-27  1.6569e-25  2.5179e-27  1.7034e-25  4.3523e-27  1.7865e-25  7.5606e-27  1.9352e-25  1.3164e-26
      1.40  1.5953e-25  1.1435e-28  1.5953e-25  1.1484e-28  1.5953e-25  1.1571e-28  1.5954e-25  1.1725e-28  1.5954e-25  1.1999e-28  1.5955e-25  1.2487e-28  1.5956e-25  1.3354e-28  1.5959e-25  1.4895e-28  1.5964e-25  1.7635e-28  1.5972e-25  2.2503e-28  1.5986e-25  3.1149e-28  1.6012e-25  4.6489e-28  1.6058e-25  7.3661e-28  1.6140e-25  1.2168e-27  1.6286e-25  2.0624e-27  1.6546e-25  3.5459e-27  1.7009e-25  6.1387e-27  1.7836e-25  1.0659e-26  1.9316e-25  1.8526e-26
      1.45  1.5932e-25  1.2822e-28  1.5932e-25  1.2890e-28  1.5932e-25  1.3012e-28  1.5933e-25  1.3227e-28  1.5933e-25  1.3611e-28  1.5934e-25  1.4294e-28  1.5935e-25  1.5507e-28  1.5938e-25  1.7664e-28  1.5942e-25  2.1497e-28  1.5951e-25  2.8308e-28  1.5965e-25  4.0400e-28  1.5991e-25  6.1847e-28  1.6037e-25  9.9814e-28  1.6118e-25  1.6684e-27  1.6263e-25  2.8472e-27  1.6522e-25  4.9111e-27  1.6983e-25  8.5103e-27  1.7806e-25  1.4770e-26  1.9279e-25  2.5634e-26
      1.50  1.5910e-25  1.4377e-28  1.5910e-25  1.4470e-28  1.5911e-25  1.4637e-28  1.5911e-25  1.4934e-28  1.5911e-25  1.5461e-28  1.5912e-25  1.6399e-28  1.5914e-25  1.8067e-28  1.5916e-25  2.1032e-28  1.5921e-25  2.6301e-28  1.5929e-25  3.5662e-28  1.5943e-25  5.2278e-28  1.5969e-25  8.1739e-28  1.6014e-25  1.3387e-27  1.6096e-25  2.2581e-27  1.6240e-25  3.8733e-27  1.6498e-25  6.6970e-27  1.6956e-25  1.1613e-26  1.7776e-25  2.0148e-26  1.9242e-25  3.4935e-26
      1.55  1.5888e-25  1.6121e-28  1.5888e-25  1.6248e-28  1.5888e-25  1.6473e-28  1.5888e-25  1.6873e-28  1.5889e-25  1.7584e-28  1.5890e-25  1.8848e-28  1.5891e-25  2.1096e-28  1.5894e-25  2.5093e-28  1.5898e-25  3.2195e-28  1.5906e-25  4.4811e-28  1.5920e-25  6.7203e-28  1.5946e-25  1.0689e-27  1.5991e-25  1.7708e-27  1.6072e-25  3.0081e-27  1.6216e-25  5.1795e-27  1.6472e-25  8.9713e-27  1.6929e-25  1.5565e-26  1.7744e-25  2.7000e-26  1.9203e-25  4.6792e-26
      1.60  1.5864e-25  1.8076e-28  1.5865e-25  1.8243e-28  1.5865e-25  1.8541e-28  1.5865e-25  1.9070e-28  1.5865e-25  2.0010e-28  1.5866e-25  2.1683e-28  1.5868e-25  2.4656e-28  1.5870e-25  2.9942e-28  1.5875e-25  3.9334e-28  1.5883e-25  5.6018e-28  1.5897e-25  8.5625e-28  1.5922e-25  1.3809e-27  1.5968e-25  2.3084e-27  1.6048e-25  3.9425e-27  1.6191e-25  6.8080e-27  1.6446e-25  1.1808e-26  1.6900e-25  2.0497e-26  1.7712e-25  3.5558e-26  1.9163e-25  6.1619e-26
      1.65  1.5840e-25  2.0265e-28  1.5840e-25  2.0483e-28  1.5841e-25  2.0870e-28  1.5841e-25  2.1558e-28  1.5841e-25  2.2781e-28  1.5842e-25  2.4957e-28  1.5843e-25  2.8824e-28  1.5846e-25  3.5700e-28  1.5850e-25  4.7917e-28  1.5858e-25  6.9616e-28  1.5873e-25  1.0812e-27  1.5898e-25  1.7633e-27  1.5943e-25  2.9689e-27  1.6023e-25  5.0920e-27  1.6165e-25  8.8132e-27  1.6419e-25  1.5303e-26  1.6871e-25  2.6579e-26  1.7678e-25  4.6127e-26  1.9122e-25  7.9966e-26
      1.70  1.5815e-25  2.2717e-28  1.5815e-25  2.2996e-28  1.5815e-25  2.3493e-28  1.5816e-25  2.4377e-28  1.5816e-25  2.5948e-28  1.5817e-25  2.8742e-28  1.5818e-25  3.3709e-28  1.5821e-25  4.2538e-28  1.5825e-25  5.8226e-28  1.5833e-25  8.6088e-28  1.5847e-25  1.3552e-27  1.5873e-25  2.2309e-27  1.5917e-25  3.7783e-27  1.5997e-25  6.5024e-27  1.6138e-25  1.1276e-26  1.6391e-25  1.9600e-26  1.6841e-25  3.4067e-26  1.7643e-25  5.9167e-26  1.9079e-25  1.0267e-25
      1.75  1.5789e-25  2.5464e-28  1.5789e-25  2.5820e-28  1.5789e-25  2.6453e-28  1.5790e-25  2.7579e-28  1.5790e-25  2.9580e-28  1.5791e-25  3.3139e-28  1.5792e-25  3.9466e-28  1.5795e-25  5.0712e-28  1.5799e-25  7.0695e-28  1.5807e-25  1.0618e-27  1.5821e-25  1.6915e-27  1.5846e-25  2.8067e-27  1.5891e-25  4.7771e-27  1.5970e-25  8.2457e-27  1.6111e-25  1.4324e-26  1.6362e-25  2.4927e-26  1.6809e-25  4.3370e-26  1.7607e-25  7.5415e-26  1.9035e-25  1.3108e-25
      1.80  1.5762e-25  2.8552e-28  1.5762e-25  2.9004e-28  1.5763e-25  2.9808e-28  1.5763e-25  3.1237e-28  1.5763e-25  3.3779e-28  1.5764e-25  3.8298e-28  1.5765e-25  4.6331e-28  1.5768e-25  6.0611e-28  1.5772e-25  8.5986e-28  1.5780e-25  1.3105e-27  1.5794e-25  2.1099e-27  1.5819e-25  3.5260e-27  1.5863e-25  6.0279e-27  1.5942e-25  1.0433e-26  1.6082e-25  1.8154e-26  1.6331e-25  3.1635e-26  1.6776e-25  5.5117e-26  1.7570e-25  9.6009e-26  1.8989e-25  1.6727e-25
      1.85  1.5734e-25  3.2020e-28  1.5734e-25  3.2595e-28  1.5735e-25  3.3616e-28  1.5735e-25  3.5433e-28  1.5735e-25  3.8663e-28  1.5736e-25  4.4406e-28  1.5737e-25  5.4617e-28  1.5740e-25  7.2766e-28  1.5744e-25  1.0502e-27  1.5752e-25  1.6229e-27  1.5766e-25  2.6391e-27  1.5791e-25  4.4391e-27  1.5835e-25  7.6201e-27  1.5913e-25  1.3222e-26  1.6052e-25  2.3050e-26  1.6300e-25  4.0230e-26  1.6742e-25  7.0215e-26  1.7531e-25  1.2259e-25  1.8942e-25  2.1423e-25
      1.90  1.5705e-25  3.5919e-28  1.5706e-25  3.6651e-28  1.5706e-25  3.7952e-28  1.5706e-25  4.0266e-28  1.5706e-25  4.4381e-28  1.5707e-25  5.1698e-28  1.5709e-25  6.4705e-28  1.5711e-25  8.7827e-28  1.5715e-25  1.2891e-27  1.5723e-25  2.0188e-27  1.5737e-25  3.3136e-27  1.5761e-25  5.6075e-27  1.5805e-25  9.6624e-27  1.5883e-25  1.6808e-26  1.6021e-25  2.9355e-26  1.6268e-25  5.1325e-26  1.6707e-25  8.9763e-26  1.7491e-25  1.5713e-25  1.8893e-25  2.7555e-25
      1.95  1.5675e-25  4.0298e-28  1.5676e-25  4.1227e-28  1.5676e-25  4.2878e-28  1.5676e-25  4.5813e-28  1.5676e-25  5.1033e-28  1.5677e-25  6.0314e-28  1.5679e-25  7.6814e-28  1.5681e-25  1.0614e-27  1.5685e-25  1.5827e-27  1.5693e-25  2.5084e-27  1.5707e-25  4.1512e-27  1.5731e-25  7.0624e-27  1.5775e-25  1.2210e-26  1.5852e-25  2.1287e-26  1.5990e-25  3.7241e-26  1.6236e-25  6.5215e-26  1.6673e-25  1.1425e-25  1.7455e-25  2.0042e-25  1.8853e-25  3.5249e-25
      2.00  1.5644e-25  4.5242e-28  1.5644e-25  4.6430e-28  1.5645e-25  4.8544e-28  1.5645e-25  5.2304e-28  1.5645e-25  5.8988e-28  1.5646e-25  7.0874e-28  1.5647e-25  9.2005e-28  1.5650e-25  1.2957e-27  1.5654e-25  1.9632e-27  1.5662e-25  3.1490e-27  1.5675e-25  5.2536e-27  1.5700e-25  8.9841e-27  1.5743e-25  1.5584e-26  1.5820e-25  2.7231e-26  1.5957e-25  4.7730e-26  1.6201e-25  8.3749e-26  1.6636e-25  1.4707e-25  1.7412e-25  2.5877e-25  1.8800e-25  4.5691e-25
      2.05  1.5612e-25  5.0830e-28  1.5612e-25  5.2351e-28  1.5612e-25  5.5056e-28  1.5613e-25  5.9866e-28  1.5613e-25  6.8420e-28  1.5614e-25  8.3628e-28  1.5615e-25  1.1067e-27  1.5618e-25  1.5873e-27  1.5622e-25  2.4416e-27  1.5629e-25  3.9591e-27  1.5643e-25  6.6530e-27  1.5667e-25  1.1430e-26  1.5710e-25  1.9885e-26  1.5786e-25  3.4818e-26  1.5922e-25  6.1141e-26  1.6164e-25  1.0749e-25  1.6596e-25  1.8922e-25  1.7366e-25  3.3392e-25  1.8744e-25  5.9192e-25
      2.10  1.5579e-25  5.7126e-28  1.5579e-25  5.9060e-28  1.5579e-25  6.2499e-28  1.5579e-25  6.8614e-28  1.5580e-25  7.9488e-28  1.5580e-25  9.8824e-28  1.5582e-25  1.3320e-27  1.5584e-25  1.9432e-27  1.5588e-25  3.0293e-27  1.5596e-25  4.9591e-27  1.5609e-25  8.3853e-27  1.5633e-25  1.4462e-26  1.5676e-25  2.5224e-26  1.5752e-25  4.4250e-26  1.5886e-25  7.7831e-26  1.6126e-25  1.3708e-25  1.6554e-25  2.4184e-25  1.7318e-25  4.2793e-25  1.8685e-25  7.6123e-25
      2.15  1.5544e-25  6.4210e-28  1.5544e-25  6.6644e-28  1.5544e-25  7.0973e-28  1.5545e-25  7.8671e-28  1.5545e-25  9.2359e-28  1.5546e-25  1.1670e-27  1.5547e-25  1.5997e-27  1.5549e-25  2.3691e-27  1.5554e-25  3.7365e-27  1.5561e-25  6.1661e-27  1.5575e-25  1.0480e-26  1.5598e-25  1.8135e-26  1.5640e-25  3.1697e-26  1.5715e-25  5.5692e-26  1.5849e-25  9.8098e-26  1.6087e-25  1.7306e-25  1.6512e-25  3.0589e-25  1.7269e-25  5.4257e-25  1.8625e-25  9.6806e-25
      2.20  1.5508e-25  7.2167e-28  1.5508e-25  7.5193e-28  1.5508e-25  8.0575e-28  1.5509e-25  9.0144e-28  1.5509e-25  1.0716e-27  1.5510e-25  1.3742e-27  1.5511e-25  1.9122e-27  1.5514e-25  2.8686e-27  1.5518e-25  4.5686e-27  1.5525e-25  7.5895e-27  1.5538e-25  1.2955e-26  1.5562e-25  2.2475e-26  1.5604e-25  3.9352e-26  1.5678e-25  6.9233e-26  1.5811e-25  1.2210e-25  1.6047e-25  2.1570e-25  1.6467e-25  3.8190e-25  1.7218e-25  6.7876e-25  1.8562e-25  1.2142e-24
      2.25  1.5471e-25  8.1089e-28  1.5471e-25  8.4799e-28  1.5471e-25  9.1395e-28  1.5472e-25  1.0312e-27  1.5472e-25  1.2398e-27  1.5473e-25  1.6107e-27  1.5474e-25  2.2701e-27  1.5476e-25  3.4425e-27  1.5480e-25  5.5265e-27  1.5488e-25  9.2298e-27  1.5501e-25  1.5808e-26  1.5524e-25  2.7484e-26  1.5566e-25  4.8189e-26  1.5639e-25  8.4872e-26  1.5771e-25  1.4984e-25  1.6005e-25  2.6501e-25  1.6422e-25  4.6986e-25  1.7166e-25  8.3653e-25  1.8498e-25  1.4997e-24
      2.30  1.5432e-25  9.1108e-28  1.5433e-25  9.5586e-28  1.5433e-25  1.0355e-27  1.5433e-25  1.1771e-27  1.5433e-25  1.4289e-27  1.5434e-25  1.8766e-27  1.5435e-25  2.6726e-27  1.5438e-25  4.0879e-27  1.5442e-25  6.6038e-27  1.5449e-25  1.1075e-26  1.5462e-25  1.9018e-26  1.5485e-25  3.3119e-26  1.5526e-25  5.8134e-26  1.5599e-25  1.0248e-25  1.5729e-25  1.8107e-25  1.5961e-25  3.2057e-25  1.6374e-25  5.6905e-25  1.7111e-25  1.0146e-24  1.8431e-25  1.8221e-24
      2.35  1.5392e-25  1.0230e-27  1.5393e-25  1.0762e-27  1.5393e-25  1.1709e-27  1.5393e-25  1.3392e-27  1.5393e-25  1.6385e-27  1.5394e-25  2.1708e-27  1.5395e-25  3.1171e-27  1.5398e-25  4.7997e-27  1.5402e-25  7.7907e-27  1.5409e-25  1.3107e-26  1.5422e-25  2.2551e-26  1.5445e-25  3.9321e-26  1.5485e-25  6.9078e-26  1.5558e-25  1.2185e-25  1.5687e-25  2.1546e-25  1.5916e-25  3.8177e-25  1.6326e-25  6.7836e-25  1.7057e-25  1.2109e-24  1.8365e-25  2.1780e-24
      2.40  1.5351e-25  1.1479e-27  1.5351e-25  1.2102e-27  1.5351e-25  1.3211e-27  1.5351e-25  1.5181e-27  1.5352e-25  1.8686e-27  1.5353e-25  2.4918e-27  1.5354e-25  3.5999e-27  1.5356e-25  5.5700e-27  1.5360e-25  9.0724e-27  1.5367e-25  1.5297e-26  1.5380e-25  2.6358e-26  1.5403e-25  4.6000e-26  1.5443e-25  8.0863e-26  1.5515e-25  1.4272e-25  1.5643e-25  2.5250e-25  1.5870e-25  4.4771e-25  1.6276e-25  7.9618e-25  1.7000e-25  1.4226e-24  1.8297e-25  2.5620e-24
      2.45  1.5308e-25  1.2871e-27  1.5308e-25  1.3590e-27  1.5308e-25  1.4869e-27  1.5308e-25  1.7144e-27  1.5309e-25  2.1188e-27  1.5310e-25  2.8380e-27  1.5311e-25  4.1167e-27  1.5313e-25  6.3904e-27  1.5317e-25  1.0432e-26  1.5324e-25  1.7617e-26  1.5337e-25  3.0383e-26  1.5359e-25  5.3057e-26  1.5399e-25  9.3311e-26  1.5470e-25  1.6476e-25  1.5597e-25  2.9163e-25  1.5823e-25  5.1737e-25  1.6225e-25  9.2069e-25  1.6943e-25  1.6464e-24  1.8228e-25  2.9681e-24
      2.50  1.5263e-25  1.4423e-27  1.5264e-25  1.5242e-27  1.5264e-25  1.6698e-27  1.5264e-25  1.9287e-27  1.5264e-25  2.3892e-27  1.5265e-25  3.2080e-27  1.5266e-25  4.6638e-27  1.5268e-25  7.2524e-27  1.5272e-25  1.1854e-26  1.5279e-25  2.0035e-26  1.5292e-25  3.4571e-26  1.5314e-25  6.0392e-26  1.5354e-25  1.0624e-25  1.5424e-25  1.8765e-25  1.5550e-25  3.3227e-25  1.5773e-25  5.8976e-25  1.6172e-25  1.0501e-24  1.6883e-25  1.8791e-24  1.8157e-25  3.3905e-24
      2.55  1.5217e-25  1.6161e-27  1.5217e-25  1.7082e-27  1.5217e-25  1.8719e-27  1.5218e-25  2.1631e-27  1.5218e-25  2.6808e-27  1.5219e-25  3.6014e-27  1.5220e-25  5.2384e-27  1.5222e-25  8.1491e-27  1.5226e-25  1.3324e-26  1.5233e-25  2.2522e-26  1.5245e-25  3.8869e-26  1.5268e-25  6.7909e-26  1.5307e-25  1.1948e-25  1.5377e-25  2.1108e-25  1.5501e-25  3.7387e-25  1.5723e-25  6.6385e-25  1.6118e-25  1.1826e-24  1.6823e-25  2.1174e-24  1.8085e-25  3.8232e-24
      2.60  1.5169e-25  1.8103e-27  1.5169e-25  1.9127e-27  1.5170e-25  2.0947e-27  1.5170e-25  2.4183e-27  1.5170e-25  2.9938e-27  1.5171e-25  4.0173e-27  1.5172e-25  5.8370e-27  1.5174e-25  9.0727e-27  1.5178e-25  1.4825e-26  1.5185e-25  2.5051e-26  1.5197e-25  4.3225e-26  1.5219e-25  7.5514e-26  1.5258e-25  1.3287e-25  1.5327e-25  2.3475e-25  1.5451e-25  4.1589e-25  1.5670e-25  7.3869e-25  1.6062e-25  1.3164e-24  1.6760e-25  2.3582e-24  1.8011e-25  4.2604e-24
      2.65  1.5120e-25  2.0276e-27  1.5120e-25  2.1402e-27  1.5120e-25  2.3405e-27  1.5120e-25  2.6966e-27  1.5120e-25  3.3299e-27  1.5121e-25  4.4560e-27  1.5122e-25  6.4583e-27  1.5125e-25  1.0019e-26  1.5128e-25  1.6348e-26  1.5135e-25  2.7601e-26  1.5147e-25  4.7600e-26  1.5169e-25  8.3136e-26  1.5208e-25  1.4627e-25  1.5276e-25  2.5843e-25  1.5398e-25  4.5792e-25  1.5616e-25  8.1354e-25  1.6004e-25  1.4503e-24  1.6696e-25  2.5990e-24  1.7936e-25  4.6977e-24
      2.70  1.5068e-25  2.2715e-27  1.5068e-25  2.3943e-27  1.5068e-25  2.6126e-27  1.5069e-25  3.0009e-27  1.5069e-25  3.6914e-27  1.5070e-25  4.9192e-27  1.5071e-25  7.1025e-27  1.5073e-25  1.0985e-26  1.5077e-25  1.7887e-26  1.5084e-25  3.0156e-26  1.5096e-25  5.1965e-26  1.5117e-25  9.0719e-26  1.5155e-25  1.5958e-25  1.5223e-25  2.8194e-25  1.5344e-25  4.9963e-25  1.5560e-25  8.8781e-25  1.5944e-25  1.5831e-24  1.6630e-25  2.8379e-24  1.7859e-25  5.1315e-24
      2.75  1.5015e-25  2.5458e-27  1.5015e-25  2.6786e-27  1.5015e-25  2.9146e-27  1.5015e-25  3.3344e-27  1.5016e-25  4.0808e-27  1.5016e-25  5.4082e-27  1.5017e-25  7.7684e-27  1.5020e-25  1.1965e-26  1.5023e-25  1.9427e-26  1.5030e-25  3.2692e-26  1.5042e-25  5.6270e-26  1.5063e-25  9.8172e-26  1.5101e-25  1.7263e-25  1.5169e-25  3.0497e-25  1.5289e-25  5.4045e-25  1.5503e-25  9.6044e-25  1.5884e-25  1.7128e-24  1.6564e-25  3.0707e-24  1.7784e-25  5.5527e-24
      2.80  1.4959e-25  2.8575e-27  1.4960e-25  3.0000e-27  1.4960e-25  3.2535e-27  1.4960e-25  3.7042e-27  1.4960e-25  4.5056e-27  1.4961e-25  5.9308e-27  1.4962e-25  8.4650e-27  1.4964e-25  1.2971e-26  1.4968e-25  2.0983e-26  1.4975e-25  3.5226e-26  1.4987e-25  6.0545e-26  1.5008e-25  1.0554e-25  1.5045e-25  1.8551e-25  1.5112e-25  3.2767e-25  1.5231e-25  5.8067e-25  1.5443e-25  1.0319e-24  1.5821e-25  1.8404e-24  1.6497e-25  3.2995e-24  1.7708e-25  5.9660e-24
      2.85  1.4902e-25  3.2111e-27  1.4902e-25  3.3633e-27  1.4902e-25  3.6338e-27  1.4903e-25  4.1150e-27  1.4903e-25  4.9706e-27  1.4904e-25  6.4921e-27  1.4905e-25  9.1977e-27  1.4907e-25  1.4008e-26  1.4911e-25  2.2562e-26  1.4917e-25  3.7770e-26  1.4929e-25  6.4803e-26  1.4950e-25  1.1285e-25  1.4987e-25  1.9825e-25  1.5054e-25  3.5009e-25  1.5172e-25  6.2035e-25  1.5382e-25  1.1024e-24  1.5757e-25  1.9661e-24  1.6428e-25  3.5248e-24  1.7630e-25  6.3724e-24
      2.90  1.4843e-25  3.6137e-27  1.4843e-25  3.7754e-27  1.4843e-25  4.0629e-27  1.4843e-25  4.5742e-27  1.4843e-25  5.4834e-27  1.4844e-25  7.1001e-27  1.4845e-25  9.9750e-27  1.4847e-25  1.5087e-26  1.4851e-25  2.4176e-26  1.4858e-25  4.0337e-26  1.4869e-25  6.9066e-26  1.4890e-25  1.2013e-25  1.4927e-25  2.1091e-25  1.4993e-25  3.7232e-25  1.5110e-25  6.5966e-25  1.5319e-25  1.1723e-24  1.5691e-25  2.0906e-24  1.6356e-25  3.7476e-24  1.7550e-25  6.7736e-24
      2.95  1.4781e-25  4.0772e-27  1.4781e-25  4.2483e-27  1.4781e-25  4.5526e-27  1.4781e-25  5.0938e-27  1.4782e-25  6.0561e-27  1.4782e-25  7.7673e-27  1.4784e-25  1.0810e-26  1.4786e-25  1.6221e-26  1.4789e-25  2.5842e-26  1.4796e-25  4.2948e-26  1.4807e-25  7.3361e-26  1.4828e-25  1.2743e-25  1.4865e-25  2.2354e-25  1.4930e-25  3.9447e-25  1.5046e-25  6.9878e-25  1.5253e-25  1.2417e-24  1.5623e-25  2.2143e-24  1.6283e-25  3.9690e-24  1.7468e-25  7.1722e-24
      3.00  1.4717e-25  4.6093e-27  1.4717e-25  4.7898e-27  1.4717e-25  5.1109e-27  1.4718e-25  5.6817e-27  1.4718e-25  6.6969e-27  1.4719e-25  8.5022e-27  1.4720e-25  1.1712e-26  1.4722e-25  1.7421e-26  1.4725e-25  2.7572e-26  1.4732e-25  4.5621e-26  1.4743e-25  7.7712e-26  1.4764e-25  1.3477e-25  1.4800e-25  2.3621e-25  1.4865e-25  4.1665e-25  1.4980e-25  7.3791e-25  1.5186e-25  1.3111e-24  1.5552e-25  2.3379e-24  1.6207e-25  4.1901e-24  1.7384e-25  7.5689e-24
      3.05  1.4651e-25  5.2238e-27  1.4651e-25  5.4136e-27  1.4651e-25  5.7511e-27  1.4651e-25  6.3513e-27  1.4652e-25  7.4186e-27  1.4652e-25  9.3165e-27  1.4654e-25  1.2692e-26  1.4656e-25  1.8693e-26  1.4659e-25  2.9366e-26  1.4666e-25  4.8344e-26  1.4677e-25  8.2090e-26  1.4697e-25  1.4210e-25  1.4733e-25  2.4880e-25  1.4798e-25  4.3864e-25  1.4912e-25  7.7664e-25  1.5116e-25  1.3797e-24  1.5479e-25  2.4601e-24  1.6129e-25  4.4085e-24  1.7298e-25  7.9618e-24
      3.10  1.4582e-25  5.9161e-27  1.4582e-25  6.1152e-27  1.4583e-25  6.4693e-27  1.4583e-25  7.0989e-27  1.4583e-25  8.2186e-27  1.4584e-25  1.0210e-26  1.4585e-25  1.3750e-26  1.4587e-25  2.0047e-26  1.4591e-25  3.1244e-26  1.4597e-25  5.1157e-26  1.4608e-25  8.6568e-26  1.4628e-25  1.4955e-25  1.4664e-25  2.6155e-25  1.4728e-25  4.6085e-25  1.4841e-25  8.1574e-25  1.5043e-25  1.4490e-24  1.5404e-25  2.5833e-24  1.6048e-25  4.6287e-24  1.7208e-25  8.3570e-24
      3.15  1.4511e-25  6.6802e-27  1.4511e-25  6.8888e-27  1.4511e-25  7.2598e-27  1.4512e-25  7.9194e-27  1.4512e-25  9.0923e-27  1.4513e-25  1.1178e-26  1.4514e-25  1.4888e-26  1.4516e-25  2.1484e-26  1.4519e-25  3.3216e-26  1.4526e-25  5.4080e-26  1.4537e-25  9.1188e-26  1.4557e-25  1.5719e-25  1.4592e-25  2.7460e-25  1.4656e-25  4.8353e-25  1.4768e-25  8.5562e-25  1.4968e-25  1.5196e-24  1.5326e-25  2.7089e-24  1.5965e-25  4.8532e-24  1.7115e-25  8.7599e-24
      3.20  1.4437e-25  7.4907e-27  1.4438e-25  7.7091e-27  1.4438e-25  8.0976e-27  1.4438e-25  8.7883e-27  1.4438e-25  1.0017e-26  1.4439e-25  1.2201e-26  1.4440e-25  1.6086e-26  1.4442e-25  2.2994e-26  1.4446e-25  3.5281e-26  1.4452e-25  5.7133e-26  1.4463e-25  9.6001e-26  1.4483e-25  1.6514e-25  1.4518e-25  2.8815e-25  1.4581e-25  5.0707e-25  1.4692e-25  8.9698e-25  1.4891e-25  1.5928e-24  1.5245e-25  2.8391e-24  1.5879e-25  5.0856e-24  1.7020e-25  9.1773e-24
      3.25  1.4361e-25  8.2950e-27  1.4361e-25  8.5240e-27  1.4361e-25  8.9312e-27  1.4362e-25  9.6554e-27  1.4362e-25  1.0943e-26  1.4362e-25  1.3233e-26  1.4364e-25  1.7306e-26  1.4366e-25  2.4549e-26  1.4369e-25  3.7430e-26  1.4375e-25  6.0340e-26  1.4387e-25  1.0109e-25  1.4406e-25  1.7358e-25  1.4441e-25  3.0255e-25  1.4503e-25  5.3209e-25  1.4614e-25  9.4095e-25  1.4811e-25  1.6706e-24  1.5162e-25  2.9775e-24  1.5790e-25  5.3334e-24  1.6922e-25  9.6212e-24
      3.30  1.4282e-25  9.0850e-27  1.4282e-25  9.3257e-27  1.4282e-25  9.7538e-27  1.4282e-25  1.0515e-26  1.4283e-25  1.1869e-26  1.4283e-25  1.4276e-26  1.4285e-25  1.8557e-26  1.4287e-25  2.6169e-26  1.4290e-25  3.9708e-26  1.4296e-25  6.3786e-26  1.4307e-25  1.0661e-25  1.4327e-25  1.8279e-25  1.4361e-25  3.1834e-25  1.4423e-25  5.5957e-25  1.4533e-25  9.8927e-25  1.4728e-25  1.7561e-24  1.5076e-25  3.1296e-24  1.5699e-25  5.6050e-24  1.6822e-25  1.0109e-23
      3.35  1.4200e-25  9.9113e-27  1.4200e-25  1.0165e-26  1.4200e-25  1.0617e-26  1.4201e-25  1.1421e-26  1.4201e-25  1.2850e-26  1.4202e-25  1.5392e-26  1.4203e-25  1.9911e-26  1.4205e-25  2.7948e-26  1.4208e-25  4.2241e-26  1.4214e-25  6.7661e-26  1.4225e-25  1.1287e-25  1.4245e-25  1.9329e-25  1.4279e-25  3.3638e-25  1.4340e-25  5.9104e-25  1.4449e-25  1.0447e-24  1.4642e-25  1.8543e-24  1.4988e-25  3.3044e-24  1.5606e-25  5.9181e-24  1.6718e-25  1.0671e-23
      3.40  1.4115e-25  1.0851e-26  1.4115e-25  1.1121e-26  1.4116e-25  1.1601e-26  1.4116e-25  1.2455e-26  1.4116e-25  1.3972e-26  1.4117e-25  1.6671e-26  1.4118e-25  2.1471e-26  1.4120e-25  3.0006e-26  1.4123e-25  4.5185e-26  1.4129e-25  7.2181e-26  1.4140e-25  1.2020e-25  1.4159e-25  2.0561e-25  1.4193e-25  3.5757e-25  1.4254e-25  6.2805e-25  1.4362e-25  1.1099e-24  1.4554e-25  1.9699e-24  1.4897e-25  3.5104e-24  1.5509e-25  6.2863e-24  1.6613e-25  1.1333e-23
      3.45  1.4027e-25  1.1951e-26  1.4028e-25  1.2240e-26  1.4028e-25  1.2753e-26  1.4028e-25  1.3667e-26  1.4028e-25  1.5291e-26  1.4029e-25  1.8180e-26  1.4030e-25  2.3317e-26  1.4032e-25  3.2453e-26  1.4035e-25  4.8700e-26  1.4041e-25  7.7596e-26  1.4052e-25  1.2899e-25  1.4071e-25  2.2042e-25  1.4105e-25  3.8311e-25  1.4165e-25  6.7269e-25  1.4272e-25  1.1887e-24  1.4463e-25  2.1097e-24  1.4803e-25  3.7595e-24  1.5411e-25  6.7324e-24  1.6506e-25  1.2135e-23
      3.50  1.3936e-25  1.3227e-26  1.3936e-25  1.3539e-26  1.3937e-25  1.4094e-26  1.3937e-25  1.5081e-26  1.3937e-25  1.6837e-26  1.3938e-25  1.9959e-26  1.3939e-25  2.5511e-26  1.3941e-25  3.5386e-26  1.3944e-25  5.2946e-26  1.3950e-25  8.4178e-26  1.3961e-25  1.3973e-25  1.3980e-25  2.3856e-25  1.4013e-25  4.1443e-25  1.4073e-25  7.2754e-25  1.4180e-25  1.2855e-24  1.4369e-25  2.2817e-24  1.4706e-25  4.0666e-24  1.5310e-25  7.2823e-24  1.6397e-25  1.3125e-23
      3.55  1.3842e-25  1.4708e-26  1.3842e-25  1.5049e-26  1.3842e-25  1.5656e-26  1.3843e-25  1.6736e-26  1.3843e-25  1.8655e-26  1.3844e-25  2.2068e-26  1.3845e-25  2.8137e-26  1.3847e-25  3.8932e-26  1.3850e-25  5.8128e-26  1.3856e-25  9.2272e-26  1.3867e-25  1.5301e-25  1.3885e-25  2.6106e-25  1.3919e-25  4.5336e-25  1.3978e-25  7.9577e-25  1.4084e-25  1.4061e-24  1.4272e-25  2.4960e-24  1.4607e-25  4.4494e-24  1.5207e-25  7.9686e-24  1.6287e-25  1.4362e-23
      3.60  1.3744e-25  1.6390e-26  1.3745e-25  1.6768e-26  1.3745e-25  1.7439e-26  1.3745e-25  1.8632e-26  1.3745e-25  2.0755e-26  1.3746e-25  2.4530e-26  1.3747e-25  3.1243e-26  1.3749e-25  4.3181e-26  1.3752e-25  6.4413e-26  1.3758e-25  1.0218e-25  1.3769e-25  1.6935e-25  1.3787e-25  2.8888e-25  1.3821e-25  5.0161e-25  1.3880e-25  8.8046e-25  1.3985e-25  1.5559e-24  1.4172e-25  2.7625e-24  1.4505e-25  4.9252e-24  1.5102e-25  8.8225e-24  1.6175e-25  1.5901e-23
      3.65  1.3643e-25  1.8305e-26  1.3643e-25  1.8727e-26  1.3643e-25  1.9479e-26  1.3643e-25  2.0817e-26  1.3644e-25  2.3194e-26  1.3644e-25  2.7423e-26  1.3645e-25  3.4943e-26  1.3647e-25  4.8316e-26  1.3651e-25  7.2101e-26  1.3657e-25  1.1441e-25  1.3667e-25  1.8966e-25  1.3686e-25  3.2358e-25  1.3719e-25  5.6193e-25  1.3777e-25  9.8649e-25  1.3882e-25  1.7436e-24  1.4068e-25  3.0965e-24  1.4400e-25  5.5221e-24  1.4994e-25  9.8937e-24  1.6063e-25  1.7833e-23
      3.70  1.3538e-25  2.0460e-26  1.3538e-25  2.0941e-26  1.3538e-25  2.1795e-26  1.3538e-25  2.3314e-26  1.3538e-25  2.6015e-26  1.3539e-25  3.0820e-26  1.3540e-25  3.9363e-26  1.3542e-25  5.4557e-26  1.3545e-25  8.1579e-26  1.3551e-25  1.2965e-25  1.3562e-25  2.1515e-25  1.3580e-25  3.6732e-25  1.3613e-25  6.3819e-25  1.3672e-25  1.1207e-24  1.3776e-25  1.9814e-24  1.3962e-25  3.5199e-24  1.4293e-25  6.2792e-24  1.4887e-25  1.1252e-23  1.5953e-25  2.0280e-23
      3.75  1.3428e-25  2.2949e-26  1.3428e-25  2.3504e-26  1.3429e-25  2.4490e-26  1.3429e-25  2.6245e-26  1.3429e-25  2.9365e-26  1.3430e-25  3.4913e-26  1.3431e-25  4.4780e-26  1.3433e-25  6.2328e-26  1.3436e-25  9.3538e-26  1.3442e-25  1.4905e-25  1.3453e-25  2.4782e-25  1.3471e-25  4.2358e-25  1.3504e-25  7.3649e-25  1.3563e-25  1.2940e-24  1.3668e-25  2.2887e-24  1.3854e-25  4.0671e-24  1.4187e-25  7.2571e-24  1.4782e-25  1.3005e-23  1.5851e-25  2.3438e-23
      3.80  1.3353e-25  2.6376e-26  1.3353e-25  2.7029e-26  1.3353e-25  2.8191e-26  1.3353e-25  3.0258e-26  1.3354e-25  3.3933e-26  1.3354e-25  4.0469e-26  1.3355e-25  5.2092e-26  1.3357e-25  7.2763e-26  1.3361e-25  1.0953e-25  1.3367e-25  1.7493e-25  1.3377e-25  2.9128e-25  1.3396e-25  4.9835e-25  1.3429e-25  8.6702e-25  1.3488e-25  1.5240e-24  1.3594e-25  2.6962e-24  1.3781e-25  4.7924e-24  1.4116e-25  8.5525e-24  1.4715e-25  1.5325e-23  1.5791e-25  2.7606e-23
      3.85  1.3242e-25  3.4522e-26  1.3242e-25  3.5312e-26  1.3242e-25  3.6717e-26  1.3242e-25  3.9215e-26  1.3243e-25  4.3658e-26  1.3243e-25  5.1559e-26  1.3244e-25  6.5609e-26  1.3246e-25  9.0597e-26  1.3250e-25  1.3504e-25  1.3256e-25  2.1410e-25  1.3267e-25  3.5476e-25  1.3286e-25  6.0509e-25  1.3320e-25  1.0508e-24  1.3381e-25  1.8450e-24  1.3489e-25  3.2623e-24  1.3681e-25  5.7964e-24  1.4025e-25  1.0340e-23  1.4640e-25  1.8515e-23  1.5743e-25  3.3312e-23
      3.90  1.3128e-25  6.8166e-26  1.3128e-25  6.9155e-26  1.3128e-25  7.0912e-26  1.3128e-25  7.4037e-26  1.3128e-25  7.9594e-26  1.3129e-25  8.9477e-26  1.3130e-25  1.0705e-25  1.3132e-25  1.3831e-25  1.3136e-25  1.9390e-25  1.3142e-25  2.9279e-25  1.3154e-25  4.6873e-25  1.3174e-25  7.8183e-25  1.3209e-25  1.3393e-24  1.3273e-25  2.3325e-24  1.3386e-25  4.1043e-24  1.3587e-25  7.2706e-24  1.3947e-25  1.2941e-23  1.4589e-25  2.3121e-23  1.5741e-25  4.1477e-23
      3.95  1.3010e-25  2.2020e-25  1.3010e-25  2.2147e-25  1.3010e-25  2.2373e-25  1.3010e-25  2.2774e-25  1.3010e-25  2.3488e-25  1.3011e-25  2.4757e-25  1.3012e-25  2.7014e-25  1.3015e-25  3.1027e-25  1.3019e-25  3.8165e-25  1.3025e-25  5.0862e-25  1.3037e-25  7.3449e-25  1.3059e-25  1.1364e-24  1.3097e-25  1.8518e-24  1.3165e-25  3.1260e-24  1.3285e-25  5.3977e-24  1.3500e-25  9.4522e-24  1.3884e-25  1.6697e-23  1.4569e-25  2.9651e-23  1.5793e-25  5.2853e-23
