# This was generated using Cloudy10 and the columns are ordered 
# as log10 of the fraction of the metallicity to the solar metallicity
# 'h_*_Z' and 'c_*_Z' stands for cooling and heating respectively 
# at * metalicity
#
# NOTE: This was generated separately from loop_coolingcurve_w_UV.py
#       using Output_metals_w_redshift.py.
#
# Redshift = 5.0
# hden = -10.0
#
#     temp   h_-3.00_Z   c_-3.00_Z   h_-2.75_Z   c_-2.75_Z   h_-2.50_Z   c_-2.50_Z   h_-2.25_Z   c_-2.25_Z   h_-2.00_Z   c_-2.00_Z   h_-1.75_Z   c_-1.75_Z   h_-1.50_Z   c_-1.50_Z   h_-1.25_Z   c_-1.25_Z   h_-1.00_Z   c_-1.00_Z   h_-0.75_Z   c_-0.75_Z   h_-0.50_Z   c_-0.50_Z   h_-0.25_Z   c_-0.25_Z    h_0.00_Z    c_0.00_Z    h_0.25_Z    c_0.25_Z    h_0.50_Z    c_0.50_Z    h_0.75_Z    c_0.75_Z    h_1.00_Z    c_1.00_Z    h_1.25_Z    c_1.25_Z    h_1.50_Z    c_1.50_Z 
      4.00  1.6943e-21  8.0950e-19  1.6944e-21  8.0950e-19  1.6946e-21  8.0951e-19  1.6949e-21  8.0953e-19  1.6954e-21  8.0955e-19  1.6963e-21  8.0960e-19  1.6980e-21  8.0969e-19  1.7010e-21  8.0985e-19  1.7064e-21  8.1012e-19  1.7159e-21  8.1062e-19  1.7329e-21  8.1149e-19  1.7631e-21  8.1305e-19  1.8172e-21  8.1582e-19  1.9140e-21  8.2075e-19  2.0884e-21  8.2951e-19  2.4060e-21  8.4509e-19  2.9942e-21  8.7279e-19  4.1155e-21  9.2202e-19  6.3534e-21  1.0095e-18
      4.05  1.6935e-21  9.0827e-19  1.6936e-21  9.0828e-19  1.6938e-21  9.0829e-19  1.6941e-21  9.0830e-19  1.6946e-21  9.0833e-19  1.6955e-21  9.0839e-19  1.6971e-21  9.0849e-19  1.7000e-21  9.0866e-19  1.7050e-21  9.0897e-19  1.7141e-21  9.0953e-19  1.7302e-21  9.1051e-19  1.7589e-21  9.1226e-19  1.8102e-21  9.1537e-19  1.9021e-21  9.2090e-19  2.0676e-21  9.3074e-19  2.3688e-21  9.4822e-19  2.9262e-21  9.7931e-19  3.9871e-21  1.0346e-18  6.0989e-21  1.1327e-18
      4.10  1.6928e-21  1.0191e-18  1.6929e-21  1.0191e-18  1.6931e-21  1.0191e-18  1.6934e-21  1.0191e-18  1.6938e-21  1.0192e-18  1.6947e-21  1.0192e-18  1.6962e-21  1.0193e-18  1.6989e-21  1.0195e-18  1.7038e-21  1.0199e-18  1.7124e-21  1.0205e-18  1.7277e-21  1.0216e-18  1.7550e-21  1.0236e-18  1.8038e-21  1.0271e-18  1.8911e-21  1.0333e-18  2.0485e-21  1.0443e-18  2.3347e-21  1.0639e-18  2.8639e-21  1.0988e-18  3.8698e-21  1.1609e-18  5.8672e-21  1.2711e-18
      4.15  1.6922e-21  1.1434e-18  1.6923e-21  1.1435e-18  1.6924e-21  1.1435e-18  1.6927e-21  1.1435e-18  1.6931e-21  1.1435e-18  1.6940e-21  1.1436e-18  1.6954e-21  1.1437e-18  1.6980e-21  1.1439e-18  1.7026e-21  1.1443e-18  1.7108e-21  1.1450e-18  1.7254e-21  1.1463e-18  1.7514e-21  1.1485e-18  1.7979e-21  1.1524e-18  1.8811e-21  1.1594e-18  2.0309e-21  1.1717e-18  2.3033e-21  1.1938e-18  2.8067e-21  1.2329e-18  3.7623e-21  1.3026e-18  5.6560e-21  1.4263e-18
      4.20  1.6916e-21  1.2830e-18  1.6917e-21  1.2830e-18  1.6918e-21  1.2830e-18  1.6921e-21  1.2830e-18  1.6925e-21  1.2831e-18  1.6933e-21  1.2831e-18  1.6947e-21  1.2833e-18  1.6971e-21  1.2835e-18  1.7015e-21  1.2840e-18  1.7093e-21  1.2847e-18  1.7233e-21  1.2861e-18  1.7481e-21  1.2886e-18  1.7924e-21  1.2930e-18  1.8717e-21  1.3008e-18  2.0146e-21  1.3147e-18  2.2743e-21  1.3395e-18  2.7538e-21  1.3834e-18  3.6633e-21  1.4616e-18  5.4623e-21  1.6004e-18
      4.25  1.6910e-21  1.4395e-18  1.6911e-21  1.4395e-18  1.6912e-21  1.4395e-18  1.6915e-21  1.4396e-18  1.6919e-21  1.4396e-18  1.6926e-21  1.4397e-18  1.6940e-21  1.4399e-18  1.6963e-21  1.4401e-18  1.7005e-21  1.4406e-18  1.7080e-21  1.4415e-18  1.7213e-21  1.4431e-18  1.7450e-21  1.4458e-18  1.7873e-21  1.4508e-18  1.8630e-21  1.4596e-18  1.9994e-21  1.4752e-18  2.2472e-21  1.5029e-18  2.7046e-21  1.5523e-18  3.5712e-21  1.6400e-18  5.2831e-21  1.7958e-18
      4.30  1.6905e-21  1.6152e-18  1.6906e-21  1.6152e-18  1.6907e-21  1.6152e-18  1.6909e-21  1.6152e-18  1.6913e-21  1.6153e-18  1.6921e-21  1.6154e-18  1.6933e-21  1.6155e-18  1.6956e-21  1.6159e-18  1.6996e-21  1.6164e-18  1.7067e-21  1.6174e-18  1.7194e-21  1.6191e-18  1.7421e-21  1.6223e-18  1.7825e-21  1.6278e-18  1.8548e-21  1.6377e-18  1.9851e-21  1.6552e-18  2.2217e-21  1.6863e-18  2.6583e-21  1.7417e-18  3.4849e-21  1.8401e-18  5.1154e-21  2.0150e-18
      4.35  1.6900e-21  1.8122e-18  1.6901e-21  1.8122e-18  1.6902e-21  1.8123e-18  1.6904e-21  1.8123e-18  1.6908e-21  1.8124e-18  1.6915e-21  1.8125e-18  1.6927e-21  1.8127e-18  1.6949e-21  1.8130e-18  1.6987e-21  1.8136e-18  1.7055e-21  1.8147e-18  1.7177e-21  1.8167e-18  1.7393e-21  1.8202e-18  1.7779e-21  1.8264e-18  1.8470e-21  1.8375e-18  1.9715e-21  1.8571e-18  2.1975e-21  1.8921e-18  2.6143e-21  1.9543e-18  3.4030e-21  2.0647e-18  4.9569e-21  2.2611e-18
      4.40  1.6896e-21  2.0334e-18  1.6897e-21  2.0334e-18  1.6898e-21  2.0334e-18  1.6900e-21  2.0334e-18  1.6903e-21  2.0335e-18  1.6910e-21  2.0336e-18  1.6922e-21  2.0339e-18  1.6942e-21  2.0342e-18  1.6979e-21  2.0349e-18  1.7044e-21  2.0362e-18  1.7160e-21  2.0384e-18  1.7367e-21  2.0423e-18  1.7736e-21  2.0493e-18  1.8396e-21  2.0617e-18  1.9585e-21  2.0838e-18  2.1744e-21  2.1230e-18  2.5724e-21  2.1928e-18  3.3250e-21  2.3167e-18  4.8060e-21  2.5371e-18
      4.45  1.6892e-21  2.2815e-18  1.6892e-21  2.2815e-18  1.6894e-21  2.2815e-18  1.6896e-21  2.2816e-18  1.6899e-21  2.2816e-18  1.6905e-21  2.2818e-18  1.6916e-21  2.2820e-18  1.6936e-21  2.2825e-18  1.6971e-21  2.2832e-18  1.7033e-21  2.2846e-18  1.7144e-21  2.2871e-18  1.7342e-21  2.2915e-18  1.7694e-21  2.2993e-18  1.8325e-21  2.3133e-18  1.9461e-21  2.3380e-18  2.1523e-21  2.3821e-18  2.5323e-21  2.4604e-18  3.2502e-21  2.5995e-18  4.6615e-21  2.8468e-18
      4.50  1.6888e-21  2.5599e-18  1.6889e-21  2.5599e-18  1.6890e-21  2.5599e-18  1.6892e-21  2.5599e-18  1.6895e-21  2.5600e-18  1.6901e-21  2.5602e-18  1.6911e-21  2.5605e-18  1.6930e-21  2.5610e-18  1.6964e-21  2.5618e-18  1.7023e-21  2.5634e-18  1.7129e-21  2.5662e-18  1.7318e-21  2.5711e-18  1.7655e-21  2.5799e-18  1.8257e-21  2.5955e-18  1.9342e-21  2.6233e-18  2.1311e-21  2.6728e-18  2.4937e-21  2.7606e-18  3.1785e-21  2.9168e-18  4.5227e-21  3.1944e-18
      4.55  1.6885e-21  2.8722e-18  1.6885e-21  2.8722e-18  1.6886e-21  2.8723e-18  1.6888e-21  2.8723e-18  1.6891e-21  2.8724e-18  1.6897e-21  2.8726e-18  1.6907e-21  2.8729e-18  1.6925e-21  2.8734e-18  1.6957e-21  2.8744e-18  1.7014e-21  2.8762e-18  1.7115e-21  2.8793e-18  1.7295e-21  2.8849e-18  1.7617e-21  2.8947e-18  1.8192e-21  2.9123e-18  1.9228e-21  2.9435e-18  2.1108e-21  2.9989e-18  2.4568e-21  3.0975e-18  3.1096e-21  3.2728e-18  4.3896e-21  3.5844e-18
      4.60  1.6881e-21  3.2227e-18  1.6882e-21  3.2227e-18  1.6883e-21  3.2227e-18  1.6884e-21  3.2228e-18  1.6888e-21  3.2229e-18  1.6893e-21  3.2231e-18  1.6903e-21  3.2234e-18  1.6920e-21  3.2241e-18  1.6950e-21  3.2252e-18  1.7004e-21  3.2271e-18  1.7101e-21  3.2306e-18  1.7273e-21  3.2369e-18  1.7580e-21  3.2479e-18  1.8130e-21  3.2676e-18  1.9119e-21  3.3026e-18  2.0913e-21  3.3649e-18  2.4214e-21  3.4756e-18  3.0437e-21  3.6723e-18  4.2620e-21  4.0220e-18
      4.65  1.6878e-21  3.6159e-18  1.6879e-21  3.6159e-18  1.6880e-21  3.6160e-18  1.6881e-21  3.6160e-18  1.6884e-21  3.6161e-18  1.6889e-21  3.6164e-18  1.6899e-21  3.6168e-18  1.6915e-21  3.6175e-18  1.6944e-21  3.6187e-18  1.6996e-21  3.6209e-18  1.7088e-21  3.6248e-18  1.7253e-21  3.6318e-18  1.7546e-21  3.6443e-18  1.8071e-21  3.6663e-18  1.9015e-21  3.7056e-18  2.0727e-21  3.7755e-18  2.3876e-21  3.8997e-18  2.9807e-21  4.1205e-18  4.1401e-21  4.5130e-18
      4.70  1.6875e-21  4.0571e-18  1.6876e-21  4.0571e-18  1.6877e-21  4.0572e-18  1.6878e-21  4.0572e-18  1.6881e-21  4.0574e-18  1.6886e-21  4.0576e-18  1.6895e-21  4.0581e-18  1.6911e-21  4.0589e-18  1.6938e-21  4.0602e-18  1.6988e-21  4.0627e-18  1.7076e-21  4.0671e-18  1.7233e-21  4.0750e-18  1.7513e-21  4.0889e-18  1.8015e-21  4.1137e-18  1.8916e-21  4.1578e-18  2.0550e-21  4.2362e-18  2.3555e-21  4.3756e-18  2.9207e-21  4.6234e-18  4.0240e-21  5.0639e-18
      4.75  1.6873e-21  4.5521e-18  1.6873e-21  4.5522e-18  1.6874e-21  4.5522e-18  1.6876e-21  4.5523e-18  1.6878e-21  4.5525e-18  1.6883e-21  4.5527e-18  1.6891e-21  4.5532e-18  1.6906e-21  4.5541e-18  1.6933e-21  4.5557e-18  1.6980e-21  4.5585e-18  1.7064e-21  4.5634e-18  1.7214e-21  4.5722e-18  1.7482e-21  4.5879e-18  1.7961e-21  4.6157e-18  1.8822e-21  4.6652e-18  2.0382e-21  4.7532e-18  2.3249e-21  4.9096e-18  2.8637e-21  5.1878e-18  3.9137e-21  5.6821e-18
      4.80  1.6870e-21  5.1076e-18  1.6871e-21  5.1076e-18  1.6872e-21  5.1077e-18  1.6873e-21  5.1078e-18  1.6876e-21  5.1079e-18  1.6880e-21  5.1083e-18  1.6888e-21  5.1088e-18  1.6903e-21  5.1098e-18  1.6928e-21  5.1116e-18  1.6973e-21  5.1147e-18  1.7054e-21  5.1202e-18  1.7197e-21  5.1301e-18  1.7453e-21  5.1477e-18  1.7910e-21  5.1789e-18  1.8733e-21  5.2344e-18  2.0223e-21  5.3332e-18  2.2959e-21  5.5088e-18  2.8096e-21  5.8209e-18  3.8092e-21  6.3757e-18
      4.85  1.6868e-21  5.7308e-18  1.6869e-21  5.7308e-18  1.6869e-21  5.7309e-18  1.6871e-21  5.7310e-18  1.6873e-21  5.7312e-18  1.6878e-21  5.7316e-18  1.6885e-21  5.7322e-18  1.6899e-21  5.7333e-18  1.6923e-21  5.7353e-18  1.6966e-21  5.7388e-18  1.7043e-21  5.7450e-18  1.7180e-21  5.7561e-18  1.7425e-21  5.7758e-18  1.7863e-21  5.8108e-18  1.8649e-21  5.8732e-18  2.0072e-21  5.9840e-18  2.2685e-21  6.1811e-18  2.7585e-21  6.5314e-18  3.7104e-21  7.1541e-18
      4.90  1.6866e-21  6.4301e-18  1.6867e-21  6.4301e-18  1.6867e-21  6.4302e-18  1.6869e-21  6.4303e-18  1.6871e-21  6.4305e-18  1.6875e-21  6.4309e-18  1.6882e-21  6.4316e-18  1.6896e-21  6.4329e-18  1.6919e-21  6.4351e-18  1.6960e-21  6.4390e-18  1.7034e-21  6.4460e-18  1.7165e-21  6.4584e-18  1.7399e-21  6.4806e-18  1.7817e-21  6.5199e-18  1.8569e-21  6.5898e-18  1.9930e-21  6.7142e-18  2.2425e-21  6.9354e-18  2.7102e-21  7.3286e-18  3.6171e-21  8.0274e-18
      4.95  1.6864e-21  7.2146e-18  1.6865e-21  7.2147e-18  1.6865e-21  7.2148e-18  1.6867e-21  7.2149e-18  1.6869e-21  7.2152e-18  1.6873e-21  7.2156e-18  1.6880e-21  7.2164e-18  1.6892e-21  7.2178e-18  1.6915e-21  7.2203e-18  1.6954e-21  7.2247e-18  1.7025e-21  7.2325e-18  1.7150e-21  7.2465e-18  1.7374e-21  7.2713e-18  1.7774e-21  7.3155e-18  1.8493e-21  7.3940e-18  1.9795e-21  7.5336e-18  2.2180e-21  7.7818e-18  2.6646e-21  8.2230e-18  3.5291e-21  9.0073e-18
      5.00  1.6863e-21  8.0950e-18  1.6863e-21  8.0950e-18  1.6864e-21  8.0951e-18  1.6865e-21  8.0953e-18  1.6867e-21  8.0955e-18  1.6871e-21  8.0960e-18  1.6877e-21  8.0969e-18  1.6889e-21  8.0985e-18  1.6911e-21  8.1013e-18  1.6949e-21  8.1062e-18  1.7016e-21  8.1150e-18  1.7136e-21  8.1307e-18  1.7351e-21  8.1586e-18  1.7734e-21  8.2081e-18  1.8422e-21  8.2962e-18  1.9668e-21  8.4529e-18  2.1949e-21  8.7314e-18  2.6216e-21  9.2266e-18  3.4461e-21  1.0107e-17
      5.05  1.6861e-21  9.0827e-18  1.6861e-21  9.0828e-18  1.6862e-21  9.0829e-18  1.6863e-21  9.0830e-18  1.6865e-21  9.0833e-18  1.6869e-21  9.0839e-18  1.6875e-21  9.0849e-18  1.6887e-21  9.0866e-18  1.6907e-21  9.0898e-18  1.6943e-21  9.0953e-18  1.7008e-21  9.1052e-18  1.7123e-21  9.1228e-18  1.7329e-21  9.1541e-18  1.7696e-21  9.2097e-18  1.8355e-21  9.3086e-18  1.9547e-21  9.4844e-18  2.1731e-21  9.7970e-18  2.5805e-21  1.0353e-17  3.3680e-21  1.1341e-17
      5.10  1.6860e-21  1.0191e-17  1.6860e-21  1.0191e-17  1.6860e-21  1.0191e-17  1.6862e-21  1.0191e-17  1.6864e-21  1.0192e-17  1.6867e-21  1.0192e-17  1.6873e-21  1.0193e-17  1.6884e-21  1.0195e-17  1.6904e-21  1.0199e-17  1.6939e-21  1.0205e-17  1.7001e-21  1.0216e-17  1.7111e-21  1.0236e-17  1.7308e-21  1.0271e-17  1.7660e-21  1.0333e-17  1.8292e-21  1.0444e-17  1.9434e-21  1.0642e-17  2.1524e-21  1.0993e-17  2.5427e-21  1.1616e-17  3.2944e-21  1.2725e-17
      5.15  1.6858e-21  1.1434e-17  1.6859e-21  1.1435e-17  1.6859e-21  1.1435e-17  1.6860e-21  1.1435e-17  1.6862e-21  1.1435e-17  1.6865e-21  1.1436e-17  1.6871e-21  1.1437e-17  1.6882e-21  1.1439e-17  1.6901e-21  1.1443e-17  1.6934e-21  1.1450e-17  1.6993e-21  1.1463e-17  1.7099e-21  1.1485e-17  1.7288e-21  1.1524e-17  1.7626e-21  1.1594e-17  1.8232e-21  1.1719e-17  1.9327e-21  1.1940e-17  2.1330e-21  1.2334e-17  2.5065e-21  1.3034e-17  3.2251e-21  1.4278e-17
      5.20  1.6857e-21  1.2830e-17  1.6857e-21  1.2830e-17  1.6858e-21  1.2830e-17  1.6859e-21  1.2830e-17  1.6861e-21  1.2831e-17  1.6864e-21  1.2831e-17  1.6870e-21  1.2833e-17  1.6880e-21  1.2835e-17  1.6898e-21  1.2840e-17  1.6930e-21  1.2848e-17  1.6987e-21  1.2861e-17  1.7088e-21  1.2886e-17  1.7270e-21  1.2931e-17  1.7594e-21  1.3009e-17  1.8175e-21  1.3149e-17  1.9225e-21  1.3397e-17  2.1146e-21  1.3839e-17  2.4724e-21  1.4625e-17  3.1598e-21  1.6021e-17
      5.25  1.6856e-21  1.4395e-17  1.6856e-21  1.4395e-17  1.6857e-21  1.4395e-17  1.6858e-21  1.4396e-17  1.6859e-21  1.4396e-17  1.6862e-21  1.4397e-17  1.6868e-21  1.4399e-17  1.6878e-21  1.4401e-17  1.6895e-21  1.4406e-17  1.6926e-21  1.4415e-17  1.6980e-21  1.4431e-17  1.7078e-21  1.4459e-17  1.7252e-21  1.4508e-17  1.7563e-21  1.4597e-17  1.8121e-21  1.4753e-17  1.9129e-21  1.5032e-17  2.0972e-21  1.5528e-17  2.4402e-21  1.6410e-17  3.0981e-21  1.7977e-17
      5.30  1.6855e-21  1.6152e-17  1.6855e-21  1.6152e-17  1.6856e-21  1.6152e-17  1.6856e-21  1.6152e-17  1.6858e-21  1.6153e-17  1.6861e-21  1.6154e-17  1.6866e-21  1.6155e-17  1.6876e-21  1.6159e-17  1.6892e-21  1.6164e-17  1.6922e-21  1.6174e-17  1.6975e-21  1.6192e-17  1.7068e-21  1.6223e-17  1.7236e-21  1.6279e-17  1.7534e-21  1.6378e-17  1.8070e-21  1.6554e-17  1.9039e-21  1.6867e-17  2.0807e-21  1.7423e-17  2.4097e-21  1.8413e-17  3.0399e-21  2.0171e-17
      5.35  1.6854e-21  1.8122e-17  1.6854e-21  1.8122e-17  1.6855e-21  1.8123e-17  1.6855e-21  1.8123e-17  1.6857e-21  1.8124e-17  1.6860e-21  1.8125e-17  1.6865e-21  1.8127e-17  1.6874e-21  1.8130e-17  1.6890e-21  1.8136e-17  1.6918e-21  1.8148e-17  1.6969e-21  1.8167e-17  1.7059e-21  1.8202e-17  1.7220e-21  1.8265e-17  1.7507e-21  1.8376e-17  1.8022e-21  1.8574e-17  1.8953e-21  1.8925e-17  2.0651e-21  1.9549e-17  2.3808e-21  2.0660e-17  2.9848e-21  2.2633e-17
      5.40  1.6853e-21  2.0334e-17  1.6853e-21  2.0334e-17  1.6854e-21  2.0334e-17  1.6854e-21  2.0334e-17  1.6856e-21  2.0335e-17  1.6859e-21  2.0336e-17  1.6864e-21  2.0339e-17  1.6872e-21  2.0342e-17  1.6888e-21  2.0349e-17  1.6915e-21  2.0362e-17  1.6964e-21  2.0384e-17  1.7050e-21  2.0424e-17  1.7205e-21  2.0494e-17  1.7481e-21  2.0618e-17  1.7977e-21  2.0840e-17  1.8871e-21  2.1234e-17  2.0503e-21  2.1935e-17  2.3535e-21  2.3181e-17  2.9328e-21  2.5396e-17
      5.45  1.6852e-21  2.2815e-17  1.6852e-21  2.2815e-17  1.6853e-21  2.2815e-17  1.6854e-21  2.2816e-17  1.6855e-21  2.2816e-17  1.6858e-21  2.2818e-17  1.6862e-21  2.2820e-17  1.6871e-21  2.2825e-17  1.6886e-21  2.2833e-17  1.6912e-21  2.2846e-17  1.6959e-21  2.2871e-17  1.7042e-21  2.2916e-17  1.7191e-21  2.2994e-17  1.7457e-21  2.3134e-17  1.7934e-21  2.3383e-17  1.8794e-21  2.3825e-17  2.0363e-21  2.4612e-17  2.3276e-21  2.6010e-17  2.8835e-21  2.8496e-17
      5.50  1.6851e-21  2.5599e-17  1.6852e-21  2.5599e-17  1.6852e-21  2.5599e-17  1.6853e-21  2.5599e-17  1.6854e-21  2.5600e-17  1.6857e-21  2.5602e-17  1.6861e-21  2.5605e-17  1.6869e-21  2.5610e-17  1.6884e-21  2.5618e-17  1.6909e-21  2.5634e-17  1.6954e-21  2.5662e-17  1.7034e-21  2.5712e-17  1.7178e-21  2.5800e-17  1.7434e-21  2.5957e-17  1.7893e-21  2.6236e-17  1.8721e-21  2.6733e-17  2.0231e-21  2.7615e-17  2.3031e-21  2.9185e-17  2.8368e-21  3.1974e-17
      5.55  1.6851e-21  2.8722e-17  1.6851e-21  2.8722e-17  1.6851e-21  2.8723e-17  1.6852e-21  2.8723e-17  1.6853e-21  2.8724e-17  1.6856e-21  2.8726e-17  1.6860e-21  2.8729e-17  1.6868e-21  2.8735e-17  1.6882e-21  2.8744e-17  1.6906e-21  2.8762e-17  1.6950e-21  2.8793e-17  1.7027e-21  2.8849e-17  1.7165e-21  2.8948e-17  1.7412e-21  2.9124e-17  1.7854e-21  2.9438e-17  1.8652e-21  2.9995e-17  2.0105e-21  3.0985e-17  2.2799e-21  3.2746e-17  2.7926e-21  3.5877e-17
      5.60  1.6850e-21  3.2227e-17  1.6850e-21  3.2227e-17  1.6851e-21  3.2227e-17  1.6851e-21  3.2228e-17  1.6853e-21  3.2229e-17  1.6855e-21  3.2231e-17  1.6859e-21  3.2234e-17  1.6867e-21  3.2241e-17  1.6880e-21  3.2252e-17  1.6904e-21  3.2272e-17  1.6945e-21  3.2307e-17  1.7020e-21  3.2369e-17  1.7153e-21  3.2480e-17  1.7391e-21  3.2678e-17  1.7818e-21  3.3030e-17  1.8586e-21  3.3655e-17  1.9986e-21  3.4767e-17  2.2579e-21  3.6743e-17  2.7507e-21  4.0256e-17
      5.65  1.6849e-21  3.6159e-17  1.6850e-21  3.6159e-17  1.6850e-21  3.6159e-17  1.6851e-21  3.6160e-17  1.6852e-21  3.6161e-17  1.6854e-21  3.6164e-17  1.6858e-21  3.6168e-17  1.6866e-21  3.6175e-17  1.6878e-21  3.6187e-17  1.6901e-21  3.6209e-17  1.6942e-21  3.6249e-17  1.7014e-21  3.6319e-17  1.7142e-21  3.6444e-17  1.7372e-21  3.6666e-17  1.7783e-21  3.7060e-17  1.8524e-21  3.7762e-17  1.9873e-21  3.9009e-17  2.2370e-21  4.1227e-17  2.7111e-21  4.5170e-17
      5.70  1.6849e-21  4.0571e-17  1.6849e-21  4.0571e-17  1.6850e-21  4.0572e-17  1.6850e-21  4.0572e-17  1.6851e-21  4.0574e-17  1.6854e-21  4.0576e-17  1.6858e-21  4.0581e-17  1.6864e-21  4.0589e-17  1.6877e-21  4.0603e-17  1.6899e-21  4.0627e-17  1.6938e-21  4.0672e-17  1.7007e-21  4.0751e-17  1.7132e-21  4.0891e-17  1.7353e-21  4.1140e-17  1.7750e-21  4.1582e-17  1.8465e-21  4.2370e-17  1.9767e-21  4.3769e-17  2.2173e-21  4.6258e-17  2.6735e-21  5.0683e-17
      5.75  1.6848e-21  4.5521e-17  1.6849e-21  4.5522e-17  1.6849e-21  4.5522e-17  1.6850e-21  4.5523e-17  1.6851e-21  4.5525e-17  1.6853e-21  4.5527e-17  1.6857e-21  4.5532e-17  1.6863e-21  4.5541e-17  1.6875e-21  4.5557e-17  1.6897e-21  4.5585e-17  1.6934e-21  4.5635e-17  1.7002e-21  4.5723e-17  1.7121e-21  4.5880e-17  1.7336e-21  4.6159e-17  1.7719e-21  4.6656e-17  1.8410e-21  4.7540e-17  1.9666e-21  4.9111e-17  2.1986e-21  5.1904e-17  2.6379e-21  5.6869e-17
      5.80  1.6848e-21  5.1076e-17  1.6848e-21  5.1076e-17  1.6849e-21  5.1077e-17  1.6849e-21  5.1078e-17  1.6850e-21  5.1079e-17  1.6852e-21  5.1083e-17  1.6856e-21  5.1088e-17  1.6863e-21  5.1098e-17  1.6874e-21  5.1116e-17  1.6895e-21  5.1147e-17  1.6931e-21  5.1203e-17  1.6996e-21  5.1302e-17  1.7112e-21  5.1478e-17  1.7319e-21  5.1792e-17  1.7690e-21  5.2349e-17  1.8357e-21  5.3341e-17  1.9570e-21  5.5104e-17  2.1809e-21  5.8238e-17  2.6043e-21  6.3810e-17
      5.85  1.6848e-21  5.7308e-17  1.6848e-21  5.7308e-17  1.6848e-21  5.7309e-17  1.6849e-21  5.7310e-17  1.6850e-21  5.7312e-17  1.6852e-21  5.7316e-17  1.6855e-21  5.7322e-17  1.6862e-21  5.7333e-17  1.6873e-21  5.7353e-17  1.6893e-21  5.7388e-17  1.6928e-21  5.7450e-17  1.6991e-21  5.7562e-17  1.7103e-21  5.7760e-17  1.7303e-21  5.8111e-17  1.7662e-21  5.8737e-17  1.8307e-21  5.9850e-17  1.9480e-21  6.1828e-17  2.1642e-21  6.5345e-17  2.5724e-21  7.1599e-17
      5.90  1.6847e-21  6.4301e-17  1.6847e-21  6.4301e-17  1.6848e-21  6.4302e-17  1.6848e-21  6.4303e-17  1.6849e-21  6.4305e-17  1.6851e-21  6.4309e-17  1.6855e-21  6.4316e-17  1.6861e-21  6.4329e-17  1.6872e-21  6.4351e-17  1.6891e-21  6.4390e-17  1.6925e-21  6.4461e-17  1.6986e-21  6.4585e-17  1.7095e-21  6.4807e-17  1.7289e-21  6.5202e-17  1.7636e-21  6.5904e-17  1.8260e-21  6.7153e-17  1.9394e-21  6.9373e-17  2.1483e-21  7.3320e-17  2.5423e-21  8.0338e-17
      5.95  1.6847e-21  7.2146e-17  1.6847e-21  7.2147e-17  1.6847e-21  7.2148e-17  1.6848e-21  7.2149e-17  1.6849e-21  7.2152e-17  1.6851e-21  7.2156e-17  1.6854e-21  7.2164e-17  1.6860e-21  7.2178e-17  1.6871e-21  7.2203e-17  1.6889e-21  7.2247e-17  1.6922e-21  7.2326e-17  1.6982e-21  7.2466e-17  1.7087e-21  7.2715e-17  1.7275e-21  7.3158e-17  1.7611e-21  7.3946e-17  1.8216e-21  7.5347e-17  1.9314e-21  7.7838e-17  2.1334e-21  8.2268e-17  2.5138e-21  9.0143e-17
      6.00  1.6847e-21  8.0950e-17  1.6847e-21  8.0950e-17  1.6847e-21  8.0951e-17  1.6848e-21  8.0953e-17  1.6849e-21  8.0955e-17  1.6851e-21  8.0960e-17  1.6854e-21  8.0969e-17  1.6859e-21  8.0985e-17  1.6870e-21  8.1013e-17  1.6888e-21  8.1063e-17  1.6920e-21  8.1151e-17  1.6977e-21  8.1308e-17  1.7079e-21  8.1588e-17  1.7262e-21  8.2085e-17  1.7588e-21  8.2969e-17  1.8174e-21  8.4541e-17  1.9238e-21  8.7337e-17  2.1193e-21  9.2308e-17  2.4869e-21  1.0114e-16
      6.05  1.6846e-21  9.0827e-17  1.6847e-21  9.0828e-17  1.6847e-21  9.0829e-17  1.6847e-21  9.0830e-17  1.6848e-21  9.0833e-17  1.6850e-21  9.0839e-17  1.6853e-21  9.0849e-17  1.6859e-21  9.0867e-17  1.6869e-21  9.0898e-17  1.6886e-21  9.0954e-17  1.6918e-21  9.1053e-17  1.6973e-21  9.1229e-17  1.7072e-21  9.1543e-17  1.7249e-21  9.2101e-17  1.7566e-21  9.3093e-17  1.8135e-21  9.4857e-17  1.9166e-21  9.7995e-17  2.1060e-21  1.0357e-16  2.4615e-21  1.1349e-16
      6.10  1.6846e-21  1.0191e-16  1.6846e-21  1.0191e-16  1.6847e-21  1.0191e-16  1.6847e-21  1.0191e-16  1.6848e-21  1.0192e-16  1.6850e-21  1.0192e-16  1.6853e-21  1.0193e-16  1.6858e-21  1.0195e-16  1.6868e-21  1.0199e-16  1.6885e-21  1.0205e-16  1.6915e-21  1.0216e-16  1.6969e-21  1.0236e-16  1.7066e-21  1.0271e-16  1.7238e-21  1.0334e-16  1.7545e-21  1.0445e-16  1.8098e-21  1.0643e-16  1.9098e-21  1.0995e-16  2.0935e-21  1.1621e-16  2.4376e-21  1.2734e-16
      6.15  1.6846e-21  1.1434e-16  1.6846e-21  1.1435e-16  1.6846e-21  1.1435e-16  1.6847e-21  1.1435e-16  1.6848e-21  1.1435e-16  1.6850e-21  1.1436e-16  1.6852e-21  1.1437e-16  1.6858e-21  1.1439e-16  1.6867e-21  1.1443e-16  1.6884e-21  1.1450e-16  1.6913e-21  1.1463e-16  1.6966e-21  1.1485e-16  1.7059e-21  1.1525e-16  1.7227e-21  1.1595e-16  1.7526e-21  1.1720e-16  1.8063e-21  1.1942e-16  1.9035e-21  1.2337e-16  2.0816e-21  1.3039e-16  2.4150e-21  1.4288e-16
      6.20  1.6846e-21  1.2830e-16  1.6846e-21  1.2830e-16  1.6846e-21  1.2830e-16  1.6847e-21  1.2830e-16  1.6848e-21  1.2831e-16  1.6849e-21  1.2831e-16  1.6852e-21  1.2833e-16  1.6857e-21  1.2835e-16  1.6866e-21  1.2840e-16  1.6882e-21  1.2848e-16  1.6911e-21  1.2862e-16  1.6962e-21  1.2887e-16  1.7054e-21  1.2931e-16  1.7216e-21  1.3010e-16  1.7507e-21  1.3150e-16  1.8030e-21  1.3399e-16  1.8975e-21  1.3842e-16  2.0705e-21  1.4631e-16  2.3937e-21  1.6032e-16
      6.25  1.6846e-21  1.4395e-16  1.6846e-21  1.4395e-16  1.6846e-21  1.4395e-16  1.6846e-21  1.4396e-16  1.6847e-21  1.4396e-16  1.6849e-21  1.4397e-16  1.6852e-21  1.4399e-16  1.6857e-21  1.4401e-16  1.6866e-21  1.4406e-16  1.6881e-21  1.4415e-16  1.6909e-21  1.4431e-16  1.6959e-21  1.4459e-16  1.7048e-21  1.4509e-16  1.7207e-21  1.4597e-16  1.7490e-21  1.4754e-16  1.7999e-21  1.5034e-16  1.8919e-21  1.5532e-16  2.0601e-21  1.6416e-16  2.3737e-21  1.7988e-16
      6.30  1.6845e-21  1.6152e-16  1.6846e-21  1.6152e-16  1.6846e-21  1.6152e-16  1.6846e-21  1.6152e-16  1.6847e-21  1.6153e-16  1.6849e-21  1.6154e-16  1.6851e-21  1.6155e-16  1.6856e-21  1.6159e-16  1.6865e-21  1.6164e-16  1.6880e-21  1.6174e-16  1.6908e-21  1.6192e-16  1.6956e-21  1.6223e-16  1.7043e-21  1.6279e-16  1.7198e-21  1.6378e-16  1.7474e-21  1.6555e-16  1.7970e-21  1.6869e-16  1.8866e-21  1.7427e-16  2.0503e-21  1.8419e-16  2.3549e-21  2.0184e-16
      6.35  1.6845e-21  1.8122e-16  1.6845e-21  1.8122e-16  1.6846e-21  1.8123e-16  1.6846e-21  1.8123e-16  1.6847e-21  1.8124e-16  1.6849e-21  1.8125e-16  1.6851e-21  1.8127e-16  1.6856e-21  1.8130e-16  1.6864e-21  1.8137e-16  1.6879e-21  1.8148e-16  1.6906e-21  1.8167e-16  1.6954e-21  1.8203e-16  1.7038e-21  1.8265e-16  1.7189e-21  1.8377e-16  1.7459e-21  1.8575e-16  1.7943e-21  1.8927e-16  1.8817e-21  1.9553e-16  2.0411e-21  2.0667e-16  2.3372e-21  2.2647e-16
      6.40  1.6845e-21  2.0334e-16  1.6845e-21  2.0334e-16  1.6846e-21  2.0334e-16  1.6846e-21  2.0334e-16  1.6847e-21  2.0335e-16  1.6848e-21  2.0336e-16  1.6851e-21  2.0339e-16  1.6856e-21  2.0342e-16  1.6864e-21  2.0350e-16  1.6878e-21  2.0362e-16  1.6905e-21  2.0384e-16  1.6951e-21  2.0424e-16  1.7034e-21  2.0494e-16  1.7181e-21  2.0619e-16  1.7445e-21  2.0841e-16  1.7918e-21  2.1237e-16  1.8770e-21  2.1939e-16  2.0324e-21  2.3189e-16  2.3206e-21  2.5411e-16
      6.45  1.6845e-21  2.2815e-16  1.6845e-21  2.2815e-16  1.6845e-21  2.2815e-16  1.6846e-21  2.2816e-16  1.6847e-21  2.2816e-16  1.6848e-21  2.2818e-16  1.6851e-21  2.2820e-16  1.6855e-21  2.2825e-16  1.6863e-21  2.2833e-16  1.6878e-21  2.2847e-16  1.6903e-21  2.2872e-16  1.6949e-21  2.2916e-16  1.7030e-21  2.2995e-16  1.7174e-21  2.3135e-16  1.7432e-21  2.3384e-16  1.7894e-21  2.3828e-16  1.8727e-21  2.4616e-16  2.0243e-21  2.6019e-16  2.3051e-21  2.8512e-16
      6.50  1.6845e-21  2.5599e-16  1.6845e-21  2.5599e-16  1.6845e-21  2.5599e-16  1.6846e-21  2.5599e-16  1.6847e-21  2.5600e-16  1.6848e-21  2.5602e-16  1.6850e-21  2.5605e-16  1.6855e-21  2.5610e-16  1.6863e-21  2.5619e-16  1.6877e-21  2.5634e-16  1.6902e-21  2.5662e-16  1.6946e-21  2.5712e-16  1.7026e-21  2.5801e-16  1.7167e-21  2.5958e-16  1.7419e-21  2.6238e-16  1.7872e-21  2.6735e-16  1.8686e-21  2.7620e-16  2.0168e-21  2.9194e-16  2.2905e-21  3.1991e-16
      6.55  1.6845e-21  2.8722e-16  1.6845e-21  2.8722e-16  1.6845e-21  2.8723e-16  1.6846e-21  2.8723e-16  1.6846e-21  2.8724e-16  1.6848e-21  2.8726e-16  1.6850e-21  2.8729e-16  1.6855e-21  2.8735e-16  1.6862e-21  2.8744e-16  1.6876e-21  2.8762e-16  1.6901e-21  2.8794e-16  1.6944e-21  2.8849e-16  1.7022e-21  2.8949e-16  1.7161e-21  2.9125e-16  1.7408e-21  2.9439e-16  1.7851e-21  2.9998e-16  1.8648e-21  3.0991e-16  2.0097e-21  3.2756e-16  2.2768e-21  3.5896e-16
      6.60  1.6845e-21  3.2227e-16  1.6845e-21  3.2227e-16  1.6845e-21  3.2227e-16  1.6846e-21  3.2228e-16  1.6846e-21  3.2229e-16  1.6848e-21  3.2231e-16  1.6850e-21  3.2234e-16  1.6854e-21  3.2241e-16  1.6862e-21  3.2252e-16  1.6875e-21  3.2272e-16  1.6900e-21  3.2307e-16  1.6942e-21  3.2370e-16  1.7019e-21  3.2481e-16  1.7155e-21  3.2679e-16  1.7397e-21  3.3031e-16  1.7831e-21  3.3658e-16  1.8613e-21  3.4772e-16  2.0030e-21  3.6753e-16  2.2641e-21  4.0276e-16
      6.65  1.6845e-21  3.6159e-16  1.6845e-21  3.6159e-16  1.6845e-21  3.6159e-16  1.6845e-21  3.6160e-16  1.6846e-21  3.6161e-16  1.6848e-21  3.6164e-16  1.6850e-21  3.6168e-16  1.6854e-21  3.6175e-16  1.6862e-21  3.6187e-16  1.6875e-21  3.6209e-16  1.6899e-21  3.6249e-16  1.6941e-21  3.6319e-16  1.7015e-21  3.6444e-16  1.7149e-21  3.6667e-16  1.7387e-21  3.7062e-16  1.7813e-21  3.7765e-16  1.8580e-21  3.9015e-16  1.9969e-21  4.1238e-16  2.2522e-21  4.5191e-16
      6.70  1.6845e-21  4.0571e-16  1.6845e-21  4.0571e-16  1.6845e-21  4.0572e-16  1.6845e-21  4.0572e-16  1.6846e-21  4.0574e-16  1.6847e-21  4.0576e-16  1.6850e-21  4.0581e-16  1.6854e-21  4.0589e-16  1.6861e-21  4.0603e-16  1.6874e-21  4.0628e-16  1.6898e-21  4.0672e-16  1.6939e-21  4.0751e-16  1.7013e-21  4.0891e-16  1.7144e-21  4.1141e-16  1.7378e-21  4.1584e-16  1.7796e-21  4.2373e-16  1.8549e-21  4.3776e-16  1.9911e-21  4.6270e-16  2.2410e-21  5.0706e-16
      6.75  1.6845e-21  4.5521e-16  1.6845e-21  4.5522e-16  1.6845e-21  4.5522e-16  1.6845e-21  4.5523e-16  1.6846e-21  4.5525e-16  1.6847e-21  4.5527e-16  1.6850e-21  4.5532e-16  1.6854e-21  4.5541e-16  1.6861e-21  4.5557e-16  1.6874e-21  4.5585e-16  1.6897e-21  4.5635e-16  1.6937e-21  4.5723e-16  1.7010e-21  4.5881e-16  1.7139e-21  4.6161e-16  1.7369e-21  4.6658e-16  1.7781e-21  4.7544e-16  1.8520e-21  4.9118e-16  1.9857e-21  5.1917e-16  2.2306e-21  5.6894e-16
      6.80  1.6845e-21  5.1076e-16  1.6845e-21  5.1076e-16  1.6845e-21  5.1077e-16  1.6845e-21  5.1078e-16  1.6846e-21  5.1079e-16  1.6847e-21  5.1083e-16  1.6849e-21  5.1088e-16  1.6854e-21  5.1098e-16  1.6861e-21  5.1116e-16  1.6873e-21  5.1147e-16  1.6896e-21  5.1203e-16  1.6936e-21  5.1302e-16  1.7007e-21  5.1479e-16  1.7134e-21  5.1793e-16  1.7361e-21  5.2352e-16  1.7766e-21  5.3345e-16  1.8493e-21  5.5111e-16  1.9807e-21  5.8252e-16  2.2210e-21  6.3836e-16
      6.85  1.6844e-21  5.7308e-16  1.6845e-21  5.7308e-16  1.6845e-21  5.7309e-16  1.6845e-21  5.7310e-16  1.6846e-21  5.7312e-16  1.6847e-21  5.7316e-16  1.6849e-21  5.7322e-16  1.6853e-21  5.7333e-16  1.6860e-21  5.7353e-16  1.6873e-21  5.7388e-16  1.6895e-21  5.7451e-16  1.6935e-21  5.7562e-16  1.7005e-21  5.7760e-16  1.7130e-21  5.8113e-16  1.7353e-21  5.8740e-16  1.7752e-21  5.9854e-16  1.8468e-21  6.1836e-16  1.9761e-21  6.5360e-16  2.2119e-21  7.1626e-16
      6.90  1.6844e-21  6.4301e-16  1.6845e-21  6.4301e-16  1.6845e-21  6.4302e-16  1.6845e-21  6.4303e-16  1.6846e-21  6.4305e-16  1.6847e-21  6.4309e-16  1.6849e-21  6.4316e-16  1.6853e-21  6.4329e-16  1.6860e-21  6.4351e-16  1.6872e-21  6.4390e-16  1.6894e-21  6.4461e-16  1.6933e-21  6.4586e-16  1.7003e-21  6.4808e-16  1.7126e-21  6.5204e-16  1.7346e-21  6.5907e-16  1.7740e-21  6.7157e-16  1.8445e-21  6.9381e-16  1.9717e-21  7.3336e-16  2.2036e-21  8.0367e-16
      6.95  1.6844e-21  7.2146e-16  1.6845e-21  7.2147e-16  1.6845e-21  7.2148e-16  1.6845e-21  7.2149e-16  1.6846e-21  7.2152e-16  1.6847e-21  7.2156e-16  1.6849e-21  7.2164e-16  1.6853e-21  7.2178e-16  1.6860e-21  7.2203e-16  1.6872e-21  7.2247e-16  1.6894e-21  7.2326e-16  1.6932e-21  7.2466e-16  1.7001e-21  7.2716e-16  1.7123e-21  7.3160e-16  1.7340e-21  7.3949e-16  1.7728e-21  7.5352e-16  1.8424e-21  7.7847e-16  1.9677e-21  8.2284e-16  2.1958e-21  9.0174e-16
      7.00  1.6844e-21  8.0950e-16  1.6844e-21  8.0950e-16  1.6845e-21  8.0951e-16  1.6845e-21  8.0953e-16  1.6846e-21  8.0955e-16  1.6847e-21  8.0960e-16  1.6849e-21  8.0969e-16  1.6853e-21  8.0985e-16  1.6860e-21  8.1013e-16  1.6872e-21  8.1063e-16  1.6893e-21  8.1151e-16  1.6931e-21  8.1309e-16  1.6999e-21  8.1589e-16  1.7119e-21  8.2087e-16  1.7334e-21  8.2972e-16  1.7717e-21  8.4546e-16  1.8404e-21  8.7346e-16  1.9639e-21  9.2325e-16  2.1885e-21  1.0118e-15
      7.05  1.6844e-21  9.0827e-16  1.6844e-21  9.0828e-16  1.6845e-21  9.0829e-16  1.6845e-21  9.0830e-16  1.6846e-21  9.0833e-16  1.6847e-21  9.0839e-16  1.6849e-21  9.0849e-16  1.6853e-21  9.0867e-16  1.6859e-21  9.0898e-16  1.6871e-21  9.0954e-16  1.6892e-21  9.1053e-16  1.6930e-21  9.1230e-16  1.6997e-21  9.1544e-16  1.7116e-21  9.2103e-16  1.7328e-21  9.3096e-16  1.7707e-21  9.4863e-16  1.8385e-21  9.8004e-16  1.9605e-21  1.0359e-15  2.1818e-21  1.1352e-15
      7.10  1.6844e-21  1.0191e-15  1.6844e-21  1.0191e-15  1.6845e-21  1.0191e-15  1.6845e-21  1.0191e-15  1.6846e-21  1.0192e-15  1.6847e-21  1.0192e-15  1.6849e-21  1.0193e-15  1.6853e-21  1.0195e-15  1.6859e-21  1.0199e-15  1.6871e-21  1.0205e-15  1.6892e-21  1.0216e-15  1.6929e-21  1.0236e-15  1.6995e-21  1.0271e-15  1.7113e-21  1.0334e-15  1.7323e-21  1.0446e-15  1.7698e-21  1.0644e-15  1.8368e-21  1.0996e-15  1.9573e-21  1.1623e-15  2.1756e-21  1.2738e-15
      7.15  1.6844e-21  1.1434e-15  1.6844e-21  1.1435e-15  1.6845e-21  1.1435e-15  1.6845e-21  1.1435e-15  1.6846e-21  1.1435e-15  1.6847e-21  1.1436e-15  1.6849e-21  1.1437e-15  1.6853e-21  1.1439e-15  1.6859e-21  1.1443e-15  1.6871e-21  1.1450e-15  1.6891e-21  1.1463e-15  1.6928e-21  1.1485e-15  1.6994e-21  1.1525e-15  1.7110e-21  1.1595e-15  1.7318e-21  1.1720e-15  1.7689e-21  1.1943e-15  1.8352e-21  1.2338e-15  1.9543e-21  1.3041e-15  2.1698e-21  1.4292e-15
      7.20  1.6844e-21  1.2830e-15  1.6844e-21  1.2830e-15  1.6845e-21  1.2830e-15  1.6845e-21  1.2830e-15  1.6846e-21  1.2831e-15  1.6847e-21  1.2831e-15  1.6849e-21  1.2833e-15  1.6852e-21  1.2835e-15  1.6859e-21  1.2840e-15  1.6870e-21  1.2848e-15  1.6891e-21  1.2862e-15  1.6927e-21  1.2887e-15  1.6992e-21  1.2931e-15  1.7108e-21  1.3010e-15  1.7314e-21  1.3150e-15  1.7681e-21  1.3400e-15  1.8337e-21  1.3844e-15  1.9515e-21  1.4633e-15  2.1645e-21  1.6036e-15
      7.25  1.6844e-21  1.4395e-15  1.6844e-21  1.4395e-15  1.6845e-21  1.4395e-15  1.6845e-21  1.4396e-15  1.6846e-21  1.4396e-15  1.6847e-21  1.4397e-15  1.6849e-21  1.4399e-15  1.6852e-21  1.4401e-15  1.6859e-21  1.4406e-15  1.6870e-21  1.4415e-15  1.6891e-21  1.4431e-15  1.6927e-21  1.4459e-15  1.6991e-21  1.4509e-15  1.7106e-21  1.4597e-15  1.7310e-21  1.4755e-15  1.7674e-21  1.5035e-15  1.8324e-21  1.5533e-15  1.9490e-21  1.6418e-15  2.1595e-21  1.7993e-15
      7.30  1.6844e-21  1.6152e-15  1.6844e-21  1.6152e-15  1.6845e-21  1.6152e-15  1.6845e-21  1.6152e-15  1.6846e-21  1.6153e-15  1.6847e-21  1.6154e-15  1.6849e-21  1.6155e-15  1.6852e-21  1.6159e-15  1.6859e-21  1.6164e-15  1.6870e-21  1.6174e-15  1.6890e-21  1.6192e-15  1.6926e-21  1.6223e-15  1.6990e-21  1.6279e-15  1.7104e-21  1.6378e-15  1.7306e-21  1.6555e-15  1.7667e-21  1.6869e-15  1.8311e-21  1.7428e-15  1.9466e-21  1.8422e-15  2.1549e-21  2.0188e-15
      7.35  1.6844e-21  1.8122e-15  1.6844e-21  1.8122e-15  1.6845e-21  1.8123e-15  1.6845e-21  1.8123e-15  1.6846e-21  1.8124e-15  1.6847e-21  1.8125e-15  1.6849e-21  1.8127e-15  1.6852e-21  1.8130e-15  1.6859e-21  1.8137e-15  1.6870e-21  1.8148e-15  1.6890e-21  1.8168e-15  1.6925e-21  1.8203e-15  1.6989e-21  1.8265e-15  1.7102e-21  1.8377e-15  1.7302e-21  1.8575e-15  1.7660e-21  1.8928e-15  1.8299e-21  1.9555e-15  1.9444e-21  2.0669e-15  2.1507e-21  2.2652e-15
      7.40  1.6844e-21  2.0334e-15  1.6844e-21  2.0334e-15  1.6845e-21  2.0334e-15  1.6845e-21  2.0334e-15  1.6846e-21  2.0335e-15  1.6847e-21  2.0336e-15  1.6849e-21  2.0339e-15  1.6852e-21  2.0343e-15  1.6858e-21  2.0350e-15  1.6870e-21  2.0362e-15  1.6890e-21  2.0384e-15  1.6925e-21  2.0424e-15  1.6988e-21  2.0494e-15  1.7100e-21  2.0619e-15  1.7299e-21  2.0842e-15  1.7654e-21  2.1237e-15  1.8289e-21  2.1941e-15  1.9424e-21  2.3192e-15  2.1468e-21  2.5416e-15
      7.45  1.6844e-21  2.2815e-15  1.6844e-21  2.2815e-15  1.6845e-21  2.2815e-15  1.6845e-21  2.2816e-15  1.6846e-21  2.2816e-15  1.6847e-21  2.2818e-15  1.6849e-21  2.2820e-15  1.6852e-21  2.2825e-15  1.6858e-21  2.2833e-15  1.6869e-21  2.2847e-15  1.6889e-21  2.2872e-15  1.6924e-21  2.2916e-15  1.6987e-21  2.2995e-15  1.7098e-21  2.3135e-15  1.7296e-21  2.3385e-15  1.7649e-21  2.3829e-15  1.8279e-21  2.4618e-15  1.9406e-21  2.6021e-15  2.1432e-21  2.8517e-15
      7.50  1.6844e-21  2.5599e-15  1.6844e-21  2.5599e-15  1.6845e-21  2.5599e-15  1.6845e-21  2.5599e-15  1.6845e-21  2.5600e-15  1.6847e-21  2.5602e-15  1.6849e-21  2.5605e-15  1.6852e-21  2.5610e-15  1.6858e-21  2.5619e-15  1.6869e-21  2.5634e-15  1.6889e-21  2.5662e-15  1.6924e-21  2.5712e-15  1.6986e-21  2.5801e-15  1.7097e-21  2.5958e-15  1.7293e-21  2.6238e-15  1.7644e-21  2.6736e-15  1.8270e-21  2.7622e-15  1.9388e-21  2.9197e-15  2.1398e-21  3.1997e-15
      7.55  1.6844e-21  2.8722e-15  1.6844e-21  2.8722e-15  1.6845e-21  2.8723e-15  1.6845e-21  2.8723e-15  1.6845e-21  2.8724e-15  1.6847e-21  2.8726e-15  1.6849e-21  2.8729e-15  1.6852e-21  2.8735e-15  1.6858e-21  2.8744e-15  1.6869e-21  2.8762e-15  1.6889e-21  2.8794e-15  1.6923e-21  2.8849e-15  1.6985e-21  2.8949e-15  1.7095e-21  2.9126e-15  1.7291e-21  2.9440e-15  1.7639e-21  2.9999e-15  1.8261e-21  3.0992e-15  1.9373e-21  3.2759e-15  2.1368e-21  3.5901e-15
      7.60  1.6844e-21  3.2227e-15  1.6844e-21  3.2227e-15  1.6845e-21  3.2227e-15  1.6845e-21  3.2228e-15  1.6845e-21  3.2229e-15  1.6847e-21  3.2231e-15  1.6849e-21  3.2234e-15  1.6852e-21  3.2241e-15  1.6858e-21  3.2252e-15  1.6869e-21  3.2272e-15  1.6888e-21  3.2307e-15  1.6923e-21  3.2370e-15  1.6984e-21  3.2481e-15  1.7094e-21  3.2679e-15  1.7289e-21  3.3032e-15  1.7635e-21  3.3659e-15  1.8253e-21  3.4774e-15  1.9358e-21  3.6757e-15  2.1339e-21  4.0282e-15
      7.65  1.6844e-21  3.6159e-15  1.6844e-21  3.6159e-15  1.6845e-21  3.6159e-15  1.6845e-21  3.6160e-15  1.6845e-21  3.6161e-15  1.6847e-21  3.6164e-15  1.6848e-21  3.6168e-15  1.6852e-21  3.6175e-15  1.6858e-21  3.6187e-15  1.6869e-21  3.6209e-15  1.6888e-21  3.6249e-15  1.6923e-21  3.6319e-15  1.6984e-21  3.6444e-15  1.7093e-21  3.6667e-15  1.7286e-21  3.7063e-15  1.7631e-21  3.7766e-15  1.8246e-21  3.9017e-15  1.9345e-21  4.1242e-15  2.1313e-21  4.5197e-15
      7.70  1.6844e-21  4.0571e-15  1.6844e-21  4.0571e-15  1.6844e-21  4.0572e-15  1.6845e-21  4.0572e-15  1.6845e-21  4.0574e-15  1.6847e-21  4.0576e-15  1.6848e-21  4.0581e-15  1.6852e-21  4.0589e-15  1.6858e-21  4.0603e-15  1.6869e-21  4.0628e-15  1.6888e-21  4.0672e-15  1.6922e-21  4.0751e-15  1.6983e-21  4.0891e-15  1.7092e-21  4.1141e-15  1.7284e-21  4.1585e-15  1.7628e-21  4.2374e-15  1.8240e-21  4.3778e-15  1.9332e-21  4.6274e-15  2.1289e-21  5.0713e-15
      7.75  1.6844e-21  4.5521e-15  1.6844e-21  4.5522e-15  1.6844e-21  4.5522e-15  1.6845e-21  4.5523e-15  1.6845e-21  4.5525e-15  1.6847e-21  4.5527e-15  1.6848e-21  4.5532e-15  1.6852e-21  4.5541e-15  1.6858e-21  4.5557e-15  1.6869e-21  4.5585e-15  1.6888e-21  4.5635e-15  1.6922e-21  4.5723e-15  1.6983e-21  4.5881e-15  1.7091e-21  4.6161e-15  1.7283e-21  4.6659e-15  1.7624e-21  4.7545e-15  1.8234e-21  4.9120e-15  1.9321e-21  5.1920e-15  2.1267e-21  5.6901e-15
      7.80  1.6844e-21  5.1076e-15  1.6844e-21  5.1076e-15  1.6844e-21  5.1077e-15  1.6845e-21  5.1078e-15  1.6845e-21  5.1079e-15  1.6847e-21  5.1083e-15  1.6848e-21  5.1088e-15  1.6852e-21  5.1098e-15  1.6858e-21  5.1116e-15  1.6869e-21  5.1147e-15  1.6888e-21  5.1203e-15  1.6922e-21  5.1302e-15  1.6982e-21  5.1479e-15  1.7090e-21  5.1793e-15  1.7281e-21  5.2352e-15  1.7621e-21  5.3346e-15  1.8228e-21  5.5113e-15  1.9311e-21  5.8256e-15  2.1247e-21  6.3844e-15
      7.85  1.6844e-21  5.7308e-15  1.6844e-21  5.7308e-15  1.6844e-21  5.7309e-15  1.6845e-21  5.7310e-15  1.6845e-21  5.7312e-15  1.6846e-21  5.7316e-15  1.6848e-21  5.7322e-15  1.6852e-21  5.7333e-15  1.6858e-21  5.7353e-15  1.6869e-21  5.7388e-15  1.6888e-21  5.7451e-15  1.6921e-21  5.7562e-15  1.6982e-21  5.7761e-15  1.7089e-21  5.8113e-15  1.7279e-21  5.8740e-15  1.7619e-21  5.9855e-15  1.8223e-21  6.1838e-15  1.9301e-21  6.5364e-15  2.1228e-21  7.1634e-15
      7.90  1.6844e-21  6.4301e-15  1.6844e-21  6.4301e-15  1.6844e-21  6.4302e-15  1.6845e-21  6.4303e-15  1.6845e-21  6.4305e-15  1.6846e-21  6.4309e-15  1.6848e-21  6.4316e-15  1.6852e-21  6.4329e-15  1.6858e-21  6.4351e-15  1.6868e-21  6.4390e-15  1.6887e-21  6.4461e-15  1.6921e-21  6.4586e-15  1.6981e-21  6.4808e-15  1.7088e-21  6.5204e-15  1.7278e-21  6.5908e-15  1.7616e-21  6.7159e-15  1.8218e-21  6.9383e-15  1.9292e-21  7.3340e-15  2.1211e-21  8.0375e-15
      7.95  1.6844e-21  7.2146e-15  1.6844e-21  7.2147e-15  1.6844e-21  7.2148e-15  1.6845e-21  7.2149e-15  1.6845e-21  7.2152e-15  1.6846e-21  7.2156e-15  1.6848e-21  7.2164e-15  1.6852e-21  7.2178e-15  1.6858e-21  7.2203e-15  1.6868e-21  7.2247e-15  1.6887e-21  7.2326e-15  1.6921e-21  7.2467e-15  1.6981e-21  7.2716e-15  1.7087e-21  7.3160e-15  1.7277e-21  7.3950e-15  1.7614e-21  7.5353e-15  1.8214e-21  7.7849e-15  1.9284e-21  8.2288e-15  2.1196e-21  9.0182e-15
      8.00  1.6844e-21  8.0950e-15  1.6844e-21  8.0950e-15  1.6844e-21  8.0951e-15  1.6845e-21  8.0953e-15  1.6845e-21  8.0955e-15  1.6846e-21  8.0960e-15  1.6848e-21  8.0969e-15  1.6852e-21  8.0985e-15  1.6858e-21  8.1013e-15  1.6868e-21  8.1063e-15  1.6887e-21  8.1151e-15  1.6921e-21  8.1309e-15  1.6980e-21  8.1589e-15  1.7087e-21  8.2087e-15  1.7276e-21  8.2973e-15  1.7612e-21  8.4548e-15  1.8210e-21  8.7349e-15  1.9277e-21  9.2329e-15  2.1182e-21  1.0119e-14
      8.05  1.6844e-21  9.0827e-15  1.6844e-21  9.0828e-15  1.6844e-21  9.0829e-15  1.6845e-21  9.0830e-15  1.6845e-21  9.0833e-15  1.6846e-21  9.0839e-15  1.6848e-21  9.0849e-15  1.6852e-21  9.0867e-15  1.6858e-21  9.0898e-15  1.6868e-21  9.0954e-15  1.6887e-21  9.1053e-15  1.6921e-21  9.1230e-15  1.6980e-21  9.1544e-15  1.7086e-21  9.2103e-15  1.7275e-21  9.3097e-15  1.7610e-21  9.4864e-15  1.8207e-21  9.8007e-15  1.9271e-21  1.0360e-14  2.1169e-21  1.1353e-14
      8.10  1.6844e-21  1.0191e-14  1.6844e-21  1.0191e-14  1.6844e-21  1.0191e-14  1.6845e-21  1.0191e-14  1.6845e-21  1.0192e-14  1.6846e-21  1.0192e-14  1.6848e-21  1.0193e-14  1.6852e-21  1.0195e-14  1.6858e-21  1.0199e-14  1.6868e-21  1.0205e-14  1.6887e-21  1.0216e-14  1.6920e-21  1.0236e-14  1.6980e-21  1.0271e-14  1.7086e-21  1.0334e-14  1.7274e-21  1.0446e-14  1.7608e-21  1.0644e-14  1.8204e-21  1.0997e-14  1.9265e-21  1.1624e-14  2.1157e-21  1.2739e-14
      8.15  1.6844e-21  1.1434e-14  1.6844e-21  1.1435e-14  1.6844e-21  1.1435e-14  1.6845e-21  1.1435e-14  1.6845e-21  1.1435e-14  1.6846e-21  1.1436e-14  1.6848e-21  1.1437e-14  1.6852e-21  1.1439e-14  1.6858e-21  1.1443e-14  1.6868e-21  1.1450e-14  1.6887e-21  1.1463e-14  1.6920e-21  1.1485e-14  1.6980e-21  1.1525e-14  1.7085e-21  1.1595e-14  1.7273e-21  1.1720e-14  1.7607e-21  1.1943e-14  1.8201e-21  1.2338e-14  1.9259e-21  1.3042e-14  2.1147e-21  1.4293e-14
      8.20  1.6844e-21  1.2830e-14  1.6844e-21  1.2830e-14  1.6844e-21  1.2830e-14  1.6845e-21  1.2830e-14  1.6845e-21  1.2831e-14  1.6846e-21  1.2831e-14  1.6848e-21  1.2833e-14  1.6852e-21  1.2835e-14  1.6858e-21  1.2840e-14  1.6868e-21  1.2848e-14  1.6887e-21  1.2862e-14  1.6920e-21  1.2887e-14  1.6979e-21  1.2931e-14  1.7085e-21  1.3010e-14  1.7272e-21  1.3150e-14  1.7605e-21  1.3400e-14  1.8198e-21  1.3844e-14  1.9254e-21  1.4633e-14  2.1137e-21  1.6037e-14
      8.25  1.6844e-21  1.4395e-14  1.6844e-21  1.4395e-14  1.6844e-21  1.4395e-14  1.6845e-21  1.4396e-14  1.6845e-21  1.4396e-14  1.6846e-21  1.4397e-14  1.6848e-21  1.4399e-14  1.6852e-21  1.4401e-14  1.6858e-21  1.4406e-14  1.6868e-21  1.4415e-14  1.6887e-21  1.4431e-14  1.6920e-21  1.4459e-14  1.6979e-21  1.4509e-14  1.7084e-21  1.4597e-14  1.7271e-21  1.4755e-14  1.7604e-21  1.5035e-14  1.8196e-21  1.5533e-14  1.9250e-21  1.6419e-14  2.1128e-21  1.7994e-14
      8.30  1.6844e-21  1.6152e-14  1.6844e-21  1.6152e-14  1.6844e-21  1.6152e-14  1.6845e-21  1.6152e-14  1.6845e-21  1.6153e-14  1.6846e-21  1.6154e-14  1.6848e-21  1.6155e-14  1.6852e-21  1.6159e-14  1.6858e-21  1.6164e-14  1.6868e-21  1.6174e-14  1.6887e-21  1.6192e-14  1.6920e-21  1.6223e-14  1.6979e-21  1.6279e-14  1.7084e-21  1.6379e-14  1.7271e-21  1.6555e-14  1.7603e-21  1.6870e-14  1.8194e-21  1.7428e-14  1.9246e-21  1.8422e-14  2.1120e-21  2.0189e-14
      8.35  1.6844e-21  1.8122e-14  1.6844e-21  1.8122e-14  1.6844e-21  1.8123e-14  1.6845e-21  1.8123e-14  1.6845e-21  1.8124e-14  1.6846e-21  1.8125e-14  1.6848e-21  1.8127e-14  1.6852e-21  1.8130e-14  1.6858e-21  1.8137e-14  1.6868e-21  1.8148e-14  1.6887e-21  1.8168e-14  1.6920e-21  1.8203e-14  1.6979e-21  1.8265e-14  1.7084e-21  1.8377e-14  1.7270e-21  1.8575e-14  1.7602e-21  1.8928e-14  1.8192e-21  1.9555e-14  1.9242e-21  2.0670e-14  2.1113e-21  2.2653e-14
      8.40  1.6844e-21  2.0334e-14  1.6844e-21  2.0334e-14  1.6844e-21  2.0334e-14  1.6845e-21  2.0334e-14  1.6845e-21  2.0335e-14  1.6846e-21  2.0336e-14  1.6848e-21  2.0339e-14  1.6852e-21  2.0343e-14  1.6857e-21  2.0350e-14  1.6868e-21  2.0362e-14  1.6887e-21  2.0384e-14  1.6920e-21  2.0424e-14  1.6979e-21  2.0494e-14  1.7083e-21  2.0619e-14  1.7269e-21  2.0842e-14  1.7601e-21  2.1237e-14  1.8190e-21  2.1941e-14  1.9239e-21  2.3192e-14  2.1107e-21  2.5417e-14
      8.45  1.6844e-21  2.2815e-14  1.6844e-21  2.2815e-14  1.6844e-21  2.2815e-14  1.6845e-21  2.2816e-14  1.6845e-21  2.2816e-14  1.6846e-21  2.2818e-14  1.6848e-21  2.2820e-14  1.6852e-21  2.2825e-14  1.6857e-21  2.2833e-14  1.6868e-21  2.2847e-14  1.6887e-21  2.2872e-14  1.6920e-21  2.2916e-14  1.6978e-21  2.2995e-14  1.7083e-21  2.3135e-14  1.7269e-21  2.3385e-14  1.7600e-21  2.3829e-14  1.8188e-21  2.4618e-14  1.9236e-21  2.6022e-14  2.1101e-21  2.8518e-14
      8.50  1.6844e-21  2.5599e-14  1.6844e-21  2.5599e-14  1.6844e-21  2.5599e-14  1.6845e-21  2.5599e-14  1.6845e-21  2.5600e-14  1.6846e-21  2.5602e-14  1.6848e-21  2.5605e-14  1.6852e-21  2.5610e-14  1.6857e-21  2.5619e-14  1.6868e-21  2.5634e-14  1.6886e-21  2.5662e-14  1.6920e-21  2.5712e-14  1.6978e-21  2.5801e-14  1.7083e-21  2.5958e-14  1.7269e-21  2.6238e-14  1.7599e-21  2.6736e-14  1.8187e-21  2.7622e-14  1.9233e-21  2.9197e-14  2.1096e-21  3.1998e-14
