# This was generated using Cloudy10 and the columns are ordered 
# as log10 of the fraction of the metallicity to the solar metallicity
# 'h_*_Z' and 'c_*_Z' stands for cooling and heating respectively 
# at * metalicity
#
# NOTE: This was generated separately from loop_coolingcurve_w_UV.py
#       using Output_metals_w_redshift.py.
#
# Redshift = 3.5
# hden = -8.5
#
#     temp   h_-3.00_Z   c_-3.00_Z   h_-2.75_Z   c_-2.75_Z   h_-2.50_Z   c_-2.50_Z   h_-2.25_Z   c_-2.25_Z   h_-2.00_Z   c_-2.00_Z   h_-1.75_Z   c_-1.75_Z   h_-1.50_Z   c_-1.50_Z   h_-1.25_Z   c_-1.25_Z   h_-1.00_Z   c_-1.00_Z   h_-0.75_Z   c_-0.75_Z   h_-0.50_Z   c_-0.50_Z   h_-0.25_Z   c_-0.25_Z    h_0.00_Z    c_0.00_Z    h_0.25_Z    c_0.25_Z    h_0.50_Z    c_0.50_Z    h_0.75_Z    c_0.75_Z    h_1.00_Z    c_1.00_Z    h_1.25_Z    c_1.25_Z    h_1.50_Z    c_1.50_Z 
      4.00  4.1962e-22  8.1029e-21  4.1975e-22  8.1030e-21  4.1998e-22  8.1031e-21  4.2039e-22  8.1032e-21  4.2112e-22  8.1035e-21  4.2242e-22  8.1040e-21  4.2473e-22  8.1049e-21  4.2883e-22  8.1064e-21  4.3614e-22  8.1092e-21  4.4913e-22  8.1142e-21  4.7228e-22  8.1230e-21  5.1353e-22  8.1386e-21  5.8720e-22  8.1665e-21  7.1918e-22  8.2160e-21  9.5702e-22  8.3041e-21  1.3900e-21  8.4607e-21  2.1923e-21  8.7391e-21  3.7247e-21  9.2340e-21  6.7991e-21  1.0243e-20
      4.05  4.1893e-22  9.0915e-21  4.1905e-22  9.0916e-21  4.1927e-22  9.0917e-21  4.1966e-22  9.0919e-21  4.2035e-22  9.0922e-21  4.2158e-22  9.0927e-21  4.2376e-22  9.0937e-21  4.2764e-22  9.0955e-21  4.3455e-22  9.0986e-21  4.4684e-22  9.1042e-21  4.6872e-22  9.1141e-21  5.0773e-22  9.1316e-21  5.7738e-22  9.1629e-21  7.0219e-22  9.2185e-21  9.2708e-22  9.3173e-21  1.3364e-21  9.4930e-21  2.0945e-21  9.8055e-21  3.5411e-21  1.0361e-20  6.4382e-21  1.1471e-20
      4.10  4.1829e-22  1.0201e-20  4.1841e-22  1.0201e-20  4.1861e-22  1.0201e-20  4.1898e-22  1.0201e-20  4.1963e-22  1.0202e-20  4.2079e-22  1.0202e-20  4.2286e-22  1.0203e-20  4.2653e-22  1.0205e-20  4.3306e-22  1.0209e-20  4.4469e-22  1.0215e-20  4.6540e-22  1.0226e-20  5.0231e-22  1.0246e-20  5.6822e-22  1.0281e-20  6.8631e-22  1.0343e-20  8.9910e-22  1.0454e-20  1.2864e-21  1.0651e-20  2.0034e-21  1.1002e-20  3.3704e-21  1.1625e-20  6.1037e-21  1.2844e-20
      4.15  4.1769e-22  1.1445e-20  4.1780e-22  1.1445e-20  4.1800e-22  1.1446e-20  4.1835e-22  1.1446e-20  4.1897e-22  1.1446e-20  4.2006e-22  1.1447e-20  4.2202e-22  1.1448e-20  4.2550e-22  1.1450e-20  4.3168e-22  1.1454e-20  4.4269e-22  1.1461e-20  4.6229e-22  1.1474e-20  4.9723e-22  1.1496e-20  5.5963e-22  1.1535e-20  6.7143e-22  1.1605e-20  8.7289e-22  1.1730e-20  1.2395e-21  1.1951e-20  1.9182e-21  1.2345e-20  3.2112e-21  1.3044e-20  5.7924e-21  1.4378e-20
      4.20  4.1714e-22  1.2842e-20  4.1725e-22  1.2842e-20  4.1743e-22  1.2842e-20  4.1776e-22  1.2842e-20  4.1835e-22  1.2843e-20  4.1939e-22  1.2844e-20  4.2124e-22  1.2845e-20  4.2453e-22  1.2847e-20  4.3039e-22  1.2852e-20  4.4081e-22  1.2860e-20  4.5937e-22  1.2874e-20  4.9246e-22  1.2899e-20  5.5155e-22  1.2943e-20  6.5742e-22  1.3021e-20  8.4822e-22  1.3161e-20  1.1955e-21  1.3409e-20  1.8382e-21  1.3851e-20  3.0618e-21  1.4636e-20  5.5012e-21  1.6093e-20
      4.25  4.1663e-22  1.4409e-20  4.1673e-22  1.4409e-20  4.1690e-22  1.4409e-20  4.1722e-22  1.4409e-20  4.1777e-22  1.4410e-20  4.1876e-22  1.4411e-20  4.2051e-22  1.4412e-20  4.2363e-22  1.4415e-20  4.2917e-22  1.4420e-20  4.3904e-22  1.4429e-20  4.5662e-22  1.4444e-20  4.8796e-22  1.4472e-20  5.4392e-22  1.4522e-20  6.4418e-22  1.4610e-20  8.2489e-22  1.4767e-20  1.1538e-21  1.5046e-20  1.7626e-21  1.5541e-20  2.9212e-21  1.6422e-20  5.2273e-21  1.8012e-20
      4.30  4.1616e-22  1.6167e-20  4.1625e-22  1.6167e-20  4.1642e-22  1.6167e-20  4.1671e-22  1.6167e-20  4.1723e-22  1.6168e-20  4.1817e-22  1.6169e-20  4.1983e-22  1.6171e-20  4.2278e-22  1.6174e-20  4.2803e-22  1.6179e-20  4.3738e-22  1.6189e-20  4.5402e-22  1.6207e-20  4.8369e-22  1.6238e-20  5.3667e-22  1.6294e-20  6.3162e-22  1.6393e-20  8.0273e-22  1.6569e-20  1.1142e-21  1.6881e-20  1.6908e-21  1.7438e-20  2.7881e-21  1.8427e-20  4.9697e-21  2.0189e-20
      4.35  4.1572e-22  1.8139e-20  4.1580e-22  1.8139e-20  4.1596e-22  1.8140e-20  4.1624e-22  1.8140e-20  4.1674e-22  1.8141e-20  4.1762e-22  1.8142e-20  4.1919e-22  1.8144e-20  4.2198e-22  1.8147e-20  4.2696e-22  1.8153e-20  4.3580e-22  1.8164e-20  4.5155e-22  1.8184e-20  4.7963e-22  1.8219e-20  5.2978e-22  1.8282e-20  6.1965e-22  1.8393e-20  7.8162e-22  1.8590e-20  1.0765e-21  1.8941e-20  1.6224e-21  1.9566e-20  2.6613e-21  2.0675e-20  4.7256e-21  2.2648e-20
      4.40  4.1531e-22  2.0352e-20  4.1539e-22  2.0353e-20  4.1554e-22  2.0353e-20  4.1580e-22  2.0353e-20  4.1627e-22  2.0354e-20  4.1711e-22  2.0355e-20  4.1860e-22  2.0357e-20  4.2124e-22  2.0361e-20  4.2594e-22  2.0368e-20  4.3431e-22  2.0381e-20  4.4921e-22  2.0403e-20  4.7577e-22  2.0442e-20  5.2321e-22  2.0512e-20  6.0822e-22  2.0637e-20  7.6146e-22  2.0859e-20  1.0405e-21  2.1253e-20  1.5571e-21  2.1953e-20  2.5402e-21  2.3199e-20  4.4929e-21  2.5412e-20
      4.45  4.1493e-22  2.2836e-20  4.1501e-22  2.2836e-20  4.1515e-22  2.2836e-20  4.1540e-22  2.2837e-20  4.1584e-22  2.2837e-20  4.1663e-22  2.2839e-20  4.1804e-22  2.2841e-20  4.2054e-22  2.2846e-20  4.2498e-22  2.2853e-20  4.3289e-22  2.2867e-20  4.4698e-22  2.2892e-20  4.7209e-22  2.2937e-20  5.1694e-22  2.3015e-20  5.9732e-22  2.3155e-20  7.4220e-22  2.3404e-20  1.0060e-21  2.3846e-20  1.4945e-21  2.4632e-20  2.4243e-21  2.6030e-20  4.2706e-21  2.8514e-20
      4.50  4.1458e-22  2.5622e-20  4.1465e-22  2.5622e-20  4.1479e-22  2.5622e-20  4.1502e-22  2.5623e-20  4.1544e-22  2.5624e-20  4.1619e-22  2.5625e-20  4.1752e-22  2.5628e-20  4.1988e-22  2.5633e-20  4.2408e-22  2.5642e-20  4.3155e-22  2.5658e-20  4.4486e-22  2.5686e-20  4.6858e-22  2.5735e-20  5.1096e-22  2.5823e-20  5.8690e-22  2.5980e-20  7.2380e-22  2.6259e-20  9.7309e-22  2.6756e-20  1.4348e-21  2.7638e-20  2.3136e-21  2.9207e-20  4.0581e-21  3.1995e-20
      4.55  4.1426e-22  2.8748e-20  4.1433e-22  2.8748e-20  4.1445e-22  2.8749e-20  4.1467e-22  2.8749e-20  4.1507e-22  2.8750e-20  4.1578e-22  2.8752e-20  4.1703e-22  2.8755e-20  4.1926e-22  2.8761e-20  4.2322e-22  2.8771e-20  4.3028e-22  2.8788e-20  4.4285e-22  2.8820e-20  4.6525e-22  2.8875e-20  5.0526e-22  2.8974e-20  5.7698e-22  2.9150e-20  7.0625e-22  2.9464e-20  9.4167e-22  3.0021e-20  1.3777e-21  3.1011e-20  2.2077e-21  3.2771e-20  3.8551e-21  3.5900e-20
      4.60  4.1396e-22  3.2256e-20  4.1402e-22  3.2256e-20  4.1414e-22  3.2256e-20  4.1435e-22  3.2257e-20  4.1472e-22  3.2258e-20  4.1539e-22  3.2260e-20  4.1657e-22  3.2264e-20  4.1868e-22  3.2270e-20  4.2242e-22  3.2281e-20  4.2908e-22  3.2301e-20  4.4094e-22  3.2336e-20  4.6208e-22  3.2398e-20  4.9985e-22  3.2510e-20  5.6752e-22  3.2707e-20  6.8953e-22  3.3059e-20  9.1172e-22  3.3684e-20  1.3233e-21  3.4795e-20  2.1067e-21  3.6771e-20  3.6616e-21  4.0282e-20
      4.65  4.1368e-22  3.6192e-20  4.1374e-22  3.6192e-20  4.1385e-22  3.6192e-20  4.1405e-22  3.6193e-20  4.1440e-22  3.6194e-20  4.1503e-22  3.6196e-20  4.1615e-22  3.6200e-20  4.1813e-22  3.6207e-20  4.2166e-22  3.6220e-20  4.2794e-22  3.6242e-20  4.3913e-22  3.6281e-20  4.5908e-22  3.6352e-20  4.9470e-22  3.6476e-20  5.5854e-22  3.6698e-20  6.7364e-22  3.7093e-20  8.8324e-22  3.7794e-20  1.2715e-21  3.9041e-20  2.0106e-21  4.1258e-20  3.4773e-21  4.5199e-20
      4.70  4.1342e-22  4.0607e-20  4.1348e-22  4.0608e-20  4.1359e-22  4.0608e-20  4.1377e-22  4.0609e-20  4.1411e-22  4.0610e-20  4.1470e-22  4.0613e-20  4.1575e-22  4.0617e-20  4.1762e-22  4.0625e-20  4.2095e-22  4.0639e-20  4.2687e-22  4.0664e-20  4.3742e-22  4.0708e-20  4.5623e-22  4.0787e-20  4.8982e-22  4.0927e-20  5.5001e-22  4.1176e-20  6.5854e-22  4.1619e-20  8.5618e-22  4.2406e-20  1.2223e-21  4.3805e-20  1.9192e-21  4.6293e-20  3.3022e-21  5.0716e-20
      4.75  4.1318e-22  4.5562e-20  4.1324e-22  4.5562e-20  4.1334e-22  4.5563e-20  4.1352e-22  4.5564e-20  4.1383e-22  4.5565e-20  4.1439e-22  4.5568e-20  4.1538e-22  4.5573e-20  4.1714e-22  4.5582e-20  4.2028e-22  4.5598e-20  4.2586e-22  4.5626e-20  4.3581e-22  4.5675e-20  4.5353e-22  4.5764e-20  4.8519e-22  4.5921e-20  5.4193e-22  4.6200e-20  6.4423e-22  4.6697e-20  8.3052e-22  4.7580e-20  1.1756e-21  4.9151e-20  1.8326e-21  5.1943e-20  3.1360e-21  5.6906e-20
      4.80  4.1296e-22  5.1121e-20  4.1302e-22  5.1122e-20  4.1311e-22  5.1122e-20  4.1328e-22  5.1123e-20  4.1357e-22  5.1125e-20  4.1410e-22  5.1128e-20  4.1503e-22  5.1134e-20  4.1669e-22  5.1144e-20  4.1965e-22  5.1161e-20  4.2491e-22  5.1193e-20  4.3428e-22  5.1248e-20  4.5098e-22  5.1348e-20  4.8082e-22  5.1524e-20  5.3428e-22  5.1837e-20  6.3067e-22  5.2395e-20  8.0622e-22  5.3386e-20  1.1314e-21  5.5149e-20  1.7504e-21  5.8282e-20  2.9786e-21  6.3852e-20
      4.85  4.1276e-22  5.7359e-20  4.1281e-22  5.7359e-20  4.1290e-22  5.7360e-20  4.1306e-22  5.7361e-20  4.1333e-22  5.7363e-20  4.1383e-22  5.7367e-20  4.1471e-22  5.7373e-20  4.1627e-22  5.7384e-20  4.1906e-22  5.7404e-20  4.2402e-22  5.7439e-20  4.3284e-22  5.7502e-20  4.4858e-22  5.7613e-20  4.7668e-22  5.7811e-20  5.2705e-22  5.8162e-20  6.1785e-22  5.8788e-20  7.8322e-22  5.9900e-20  1.0895e-21  6.1878e-20  1.6727e-21  6.5395e-20  2.8295e-21  7.1646e-20
      4.90  4.1258e-22  6.4358e-20  4.1262e-22  6.4358e-20  4.1270e-22  6.4359e-20  4.1285e-22  6.4360e-20  4.1311e-22  6.4362e-20  4.1358e-22  6.4366e-20  4.1441e-22  6.4373e-20  4.1588e-22  6.4386e-20  4.1851e-22  6.4408e-20  4.2317e-22  6.4447e-20  4.3148e-22  6.4518e-20  4.4630e-22  6.4642e-20  4.7277e-22  6.4864e-20  5.2020e-22  6.5259e-20  6.0572e-22  6.5961e-20  7.6146e-22  6.7210e-20  1.0500e-21  6.9429e-20  1.5992e-21  7.3376e-20  2.6886e-21  8.0391e-20
      4.95  4.1240e-22  7.2210e-20  4.1245e-22  7.2211e-20  4.1252e-22  7.2212e-20  4.1266e-22  7.2213e-20  4.1291e-22  7.2215e-20  4.1335e-22  7.2220e-20  4.1413e-22  7.2228e-20  4.1552e-22  7.2242e-20  4.1799e-22  7.2267e-20  4.2238e-22  7.2311e-20  4.3021e-22  7.2390e-20  4.4416e-22  7.2530e-20  4.6908e-22  7.2779e-20  5.1374e-22  7.3222e-20  5.9426e-22  7.4010e-20  7.4090e-22  7.5411e-20  1.0125e-21  7.7902e-20  1.5297e-21  8.2330e-20  2.5554e-21  9.0203e-20
      5.00  4.1224e-22  8.1021e-20  4.1228e-22  8.1022e-20  4.1236e-22  8.1023e-20  4.1249e-22  8.1024e-20  4.1272e-22  8.1027e-20  4.1313e-22  8.1032e-20  4.1387e-22  8.1041e-20  4.1517e-22  8.1056e-20  4.1750e-22  8.1084e-20  4.2164e-22  8.1134e-20  4.2900e-22  8.1223e-20  4.4214e-22  8.1380e-20  4.6560e-22  8.1659e-20  5.0764e-22  8.2157e-20  5.8343e-22  8.3041e-20  7.2148e-22  8.4613e-20  9.7720e-22  8.7408e-20  1.4640e-21  9.2378e-20  2.4296e-21  1.0121e-19
      5.05  4.1210e-22  9.0907e-20  4.1214e-22  9.0908e-20  4.1220e-22  9.0909e-20  4.1233e-22  9.0910e-20  4.1255e-22  9.0914e-20  4.1293e-22  9.0919e-20  4.1363e-22  9.0929e-20  4.1486e-22  9.0947e-20  4.1704e-22  9.0978e-20  4.2094e-22  9.1034e-20  4.2787e-22  9.1133e-20  4.4023e-22  9.1309e-20  4.6231e-22  9.1623e-20  5.0188e-22  9.2181e-20  5.7322e-22  9.3173e-20  7.0314e-22  9.4937e-20  9.4382e-22  9.8074e-20  1.4020e-21  1.0365e-19  2.3108e-21  1.1357e-19
      5.10  4.1196e-22  1.0200e-19  4.1200e-22  1.0200e-19  4.1206e-22  1.0200e-19  4.1218e-22  1.0200e-19  4.1238e-22  1.0201e-19  4.1275e-22  1.0201e-19  4.1340e-22  1.0202e-19  4.1456e-22  1.0204e-19  4.1662e-22  1.0208e-19  4.2028e-22  1.0214e-19  4.2680e-22  1.0225e-19  4.3844e-22  1.0245e-19  4.5921e-22  1.0280e-19  4.9645e-22  1.0343e-19  5.6357e-22  1.0454e-19  6.8583e-22  1.0652e-19  9.1231e-22  1.1004e-19  1.3435e-21  1.1630e-19  2.1986e-21  1.2743e-19
      5.15  4.1184e-22  1.1444e-19  4.1187e-22  1.1445e-19  4.1193e-22  1.1445e-19  4.1204e-22  1.1445e-19  4.1223e-22  1.1445e-19  4.1258e-22  1.1446e-19  4.1319e-22  1.1447e-19  4.1428e-22  1.1449e-19  4.1622e-22  1.1453e-19  4.1966e-22  1.1460e-19  4.2580e-22  1.1473e-19  4.3674e-22  1.1495e-19  4.5629e-22  1.1535e-19  4.9132e-22  1.1605e-19  5.5448e-22  1.1730e-19  6.6950e-22  1.1952e-19  8.8258e-22  1.2347e-19  1.2882e-21  1.3049e-19  2.0928e-21  1.4298e-19
      5.20  4.1172e-22  1.2841e-19  4.1175e-22  1.2841e-19  4.1181e-22  1.2841e-19  4.1191e-22  1.2841e-19  4.1210e-22  1.2842e-19  4.1242e-22  1.2843e-19  4.1300e-22  1.2844e-19  4.1402e-22  1.2846e-19  4.1584e-22  1.2851e-19  4.1908e-22  1.2859e-19  4.2486e-22  1.2873e-19  4.3515e-22  1.2898e-19  4.5354e-22  1.2942e-19  4.8649e-22  1.3021e-19  5.4590e-22  1.3161e-19  6.5409e-22  1.3410e-19  8.5453e-22  1.3854e-19  1.2361e-21  1.4642e-19  1.9929e-21  1.6043e-19
      5.25  4.1162e-22  1.4408e-19  4.1165e-22  1.4408e-19  4.1170e-22  1.4408e-19  4.1180e-22  1.4408e-19  4.1197e-22  1.4409e-19  4.1227e-22  1.4410e-19  4.1281e-22  1.4411e-19  4.1378e-22  1.4414e-19  4.1549e-22  1.4419e-19  4.1854e-22  1.4428e-19  4.2397e-22  1.4444e-19  4.3365e-22  1.4472e-19  4.5095e-22  1.4521e-19  4.8194e-22  1.4610e-19  5.3781e-22  1.4767e-19  6.3957e-22  1.5047e-19  8.2808e-22  1.5544e-19  1.1870e-21  1.6429e-19  1.8988e-21  1.8001e-19
      5.30  4.1152e-22  1.6166e-19  4.1155e-22  1.6166e-19  4.1160e-22  1.6166e-19  4.1169e-22  1.6166e-19  4.1185e-22  1.6167e-19  4.1214e-22  1.6168e-19  4.1265e-22  1.6170e-19  4.1355e-22  1.6173e-19  4.1516e-22  1.6178e-19  4.1803e-22  1.6188e-19  4.2314e-22  1.6206e-19  4.3224e-22  1.6237e-19  4.4851e-22  1.6293e-19  4.7765e-22  1.6392e-19  5.3019e-22  1.6569e-19  6.2588e-22  1.6883e-19  8.0315e-22  1.7441e-19  1.1406e-21  1.8434e-19  1.8099e-21  2.0198e-19
      5.35  4.1143e-22  1.8138e-19  4.1146e-22  1.8138e-19  4.1151e-22  1.8138e-19  4.1159e-22  1.8139e-19  4.1174e-22  1.8139e-19  4.1201e-22  1.8141e-19  4.1249e-22  1.8143e-19  4.1334e-22  1.8146e-19  4.1486e-22  1.8152e-19  4.1755e-22  1.8163e-19  4.2236e-22  1.8183e-19  4.3092e-22  1.8219e-19  4.4623e-22  1.8281e-19  4.7361e-22  1.8393e-19  5.2302e-22  1.8591e-19  6.1299e-22  1.8943e-19  7.7965e-22  1.9569e-19  1.0969e-21  2.0683e-19  1.7262e-21  2.2663e-19
      5.40  4.1135e-22  2.0351e-19  4.1138e-22  2.0351e-19  4.1142e-22  2.0352e-19  4.1150e-22  2.0352e-19  4.1164e-22  2.0353e-19  4.1190e-22  2.0354e-19  4.1235e-22  2.0356e-19  4.1315e-22  2.0360e-19  4.1457e-22  2.0367e-19  4.1711e-22  2.0380e-19  4.2162e-22  2.0402e-19  4.2967e-22  2.0442e-19  4.4405e-22  2.0512e-19  4.6981e-22  2.0637e-19  5.1626e-22  2.0859e-19  6.0085e-22  2.1254e-19  7.5753e-22  2.1957e-19  1.0558e-21  2.3207e-19  1.6473e-21  2.5429e-19
      5.45  4.1128e-22  2.2835e-19  4.1130e-22  2.2835e-19  4.1134e-22  2.2835e-19  4.1142e-22  2.2835e-19  4.1155e-22  2.2836e-19  4.1179e-22  2.2838e-19  4.1221e-22  2.2840e-19  4.1296e-22  2.2845e-19  4.1430e-22  2.2852e-19  4.1669e-22  2.2866e-19  4.2093e-22  2.2891e-19  4.2850e-22  2.2936e-19  4.4202e-22  2.3015e-19  4.6624e-22  2.3155e-19  5.0990e-22  2.3404e-19  5.8942e-22  2.3848e-19  7.3670e-22  2.4637e-19  1.0170e-21  2.6039e-19  1.5729e-21  2.8533e-19
      5.50  4.1121e-22  2.5621e-19  4.1123e-22  2.5621e-19  4.1127e-22  2.5621e-19  4.1134e-22  2.5622e-19  4.1147e-22  2.5623e-19  4.1169e-22  2.5624e-19  4.1209e-22  2.5627e-19  4.1280e-22  2.5632e-19  4.1405e-22  2.5641e-19  4.1630e-22  2.5657e-19  4.2029e-22  2.5685e-19  4.2740e-22  2.5734e-19  4.4011e-22  2.5823e-19  4.6288e-22  2.5980e-19  5.0393e-22  2.6260e-19  5.7867e-22  2.6758e-19  7.1710e-22  2.7643e-19  9.8054e-22  2.9217e-19  1.5029e-21  3.2015e-19
      5.55  4.1114e-22  2.8747e-19  4.1117e-22  2.8747e-19  4.1120e-22  2.8747e-19  4.1127e-22  2.8748e-19  4.1139e-22  2.8749e-19  4.1160e-22  2.8751e-19  4.1197e-22  2.8754e-19  4.1264e-22  2.8759e-19  4.1382e-22  2.8769e-19  4.1593e-22  2.8787e-19  4.1968e-22  2.8819e-19  4.2637e-22  2.8874e-19  4.3831e-22  2.8974e-19  4.5972e-22  2.9150e-19  4.9831e-22  2.9464e-19  5.6857e-22  3.0023e-19  6.9867e-22  3.1016e-19  9.4623e-22  3.2782e-19  1.4370e-21  3.5922e-19
      5.60  4.1109e-22  3.2255e-19  4.1111e-22  3.2255e-19  4.1114e-22  3.2255e-19  4.1120e-22  3.2256e-19  4.1132e-22  3.2257e-19  4.1151e-22  3.2259e-19  4.1187e-22  3.2262e-19  4.1249e-22  3.2269e-19  4.1360e-22  3.2280e-19  4.1559e-22  3.2300e-19  4.1911e-22  3.2335e-19  4.2540e-22  3.2398e-19  4.3663e-22  3.2509e-19  4.5676e-22  3.2707e-19  4.9303e-22  3.3060e-19  5.5908e-22  3.3686e-19  6.8136e-22  3.4801e-19  9.1397e-22  3.6783e-19  1.3750e-21  4.0306e-19
      5.65  4.1103e-22  3.6190e-19  4.1105e-22  3.6190e-19  4.1109e-22  3.6191e-19  4.1115e-22  3.6192e-19  4.1125e-22  3.6193e-19  4.1144e-22  3.6195e-19  4.1177e-22  3.6199e-19  4.1235e-22  3.6206e-19  4.1340e-22  3.6219e-19  4.1526e-22  3.6241e-19  4.1858e-22  3.6280e-19  4.2449e-22  3.6351e-19  4.3505e-22  3.6476e-19  4.5398e-22  3.6698e-19  4.8808e-22  3.7094e-19  5.5017e-22  3.7797e-19  6.6510e-22  3.9048e-19  8.8367e-22  4.1271e-19  1.3167e-21  4.5225e-19
      5.70  4.1099e-22  4.0606e-19  4.1100e-22  4.0606e-19  4.1104e-22  4.0607e-19  4.1109e-22  4.0608e-19  4.1119e-22  4.0609e-19  4.1136e-22  4.0611e-19  4.1168e-22  4.0616e-19  4.1223e-22  4.0624e-19  4.1321e-22  4.0638e-19  4.1496e-22  4.0663e-19  4.1808e-22  4.0707e-19  4.2364e-22  4.0786e-19  4.3357e-22  4.0926e-19  4.5137e-22  4.1176e-19  4.8344e-22  4.1620e-19  5.4181e-22  4.2409e-19  6.4983e-22  4.3812e-19  8.5522e-22  4.6308e-19  1.2620e-21  5.0744e-19
      5.75  4.1094e-22  4.5561e-19  4.1096e-22  4.5561e-19  4.1099e-22  4.5562e-19  4.1104e-22  4.5562e-19  4.1113e-22  4.5564e-19  4.1130e-22  4.5567e-19  4.1159e-22  4.5572e-19  4.1211e-22  4.5581e-19  4.1304e-22  4.5596e-19  4.1469e-22  4.5624e-19  4.1762e-22  4.5674e-19  4.2285e-22  4.5763e-19  4.3219e-22  4.5920e-19  4.4892e-22  4.6200e-19  4.7908e-22  4.6698e-19  5.3396e-22  4.7584e-19  6.3551e-22  4.9158e-19  8.2852e-22  5.1958e-19  1.2106e-21  5.6937e-19
      5.80  4.1090e-22  5.1120e-19  4.1092e-22  5.1120e-19  4.1095e-22  5.1121e-19  4.1100e-22  5.1122e-19  4.1108e-22  5.1124e-19  4.1124e-22  5.1127e-19  4.1151e-22  5.1132e-19  4.1200e-22  5.1142e-19  4.1287e-22  5.1160e-19  4.1442e-22  5.1191e-19  4.1718e-22  5.1247e-19  4.2210e-22  5.1347e-19  4.3089e-22  5.1523e-19  4.4663e-22  5.1838e-19  4.7500e-22  5.2396e-19  5.2662e-22  5.3390e-19  6.2209e-22  5.5157e-19  8.0348e-22  5.8299e-19  1.1623e-21  6.3885e-19
      5.85  4.1087e-22  5.7358e-19  4.1088e-22  5.7358e-19  4.1091e-22  5.7358e-19  4.1096e-22  5.7360e-19  4.1104e-22  5.7362e-19  4.1118e-22  5.7365e-19  4.1144e-22  5.7371e-19  4.1190e-22  5.7383e-19  4.1272e-22  5.7402e-19  4.1418e-22  5.7438e-19  4.1678e-22  5.7500e-19  4.2141e-22  5.7612e-19  4.2968e-22  5.7810e-19  4.4449e-22  5.8163e-19  4.7118e-22  5.8790e-19  5.1973e-22  5.9905e-19  6.0952e-22  6.1887e-19  7.8002e-22  6.5413e-19  1.1171e-21  7.1681e-19
      5.90  4.1084e-22  6.4356e-19  4.1085e-22  6.4357e-19  4.1087e-22  6.4357e-19  4.1092e-22  6.4358e-19  4.1099e-22  6.4361e-19  4.1113e-22  6.4365e-19  4.1138e-22  6.4372e-19  4.1181e-22  6.4384e-19  4.1258e-22  6.4406e-19  4.1395e-22  6.4446e-19  4.1640e-22  6.4516e-19  4.2076e-22  6.4642e-19  4.2854e-22  6.4864e-19  4.4249e-22  6.5260e-19  4.6760e-22  6.5963e-19  5.1329e-22  6.7214e-19  5.9775e-22  6.9439e-19  7.5804e-22  7.3395e-19  1.0747e-21  8.0429e-19
      5.95  4.1081e-22  7.2209e-19  4.1082e-22  7.2209e-19  4.1084e-22  7.2210e-19  4.1088e-22  7.2211e-19  4.1096e-22  7.2214e-19  4.1109e-22  7.2218e-19  4.1131e-22  7.2226e-19  4.1172e-22  7.2240e-19  4.1245e-22  7.2265e-19  4.1374e-22  7.2310e-19  4.1605e-22  7.2389e-19  4.2015e-22  7.2529e-19  4.2748e-22  7.2779e-19  4.4061e-22  7.3223e-19  4.6426e-22  7.4012e-19  5.0726e-22  7.5416e-19  5.8673e-22  7.7912e-19  7.3747e-22  8.2351e-19  1.0350e-21  9.0244e-19
      6.00  4.1078e-22  8.1020e-19  4.1079e-22  8.1020e-19  4.1081e-22  8.1021e-19  4.1085e-22  8.1022e-19  4.1092e-22  8.1025e-19  4.1104e-22  8.1030e-19  4.1126e-22  8.1039e-19  4.1164e-22  8.1055e-19  4.1233e-22  8.1083e-19  4.1355e-22  8.1133e-19  4.1572e-22  8.1221e-19  4.1958e-22  8.1379e-19  4.2649e-22  8.1659e-19  4.3886e-22  8.2157e-19  4.6113e-22  8.3043e-19  5.0163e-22  8.4618e-19  5.7643e-22  8.7419e-19  7.1822e-22  9.2400e-19  9.9788e-22  1.0126e-18
      6.05  4.1076e-22  9.0905e-19  4.1077e-22  9.0906e-19  4.1079e-22  9.0907e-19  4.1082e-22  9.0909e-19  4.1089e-22  9.0912e-19  4.1100e-22  9.0917e-19  4.1121e-22  9.0927e-19  4.1157e-22  9.0945e-19  4.1222e-22  9.0976e-19  4.1336e-22  9.1032e-19  4.1541e-22  9.1132e-19  4.1906e-22  9.1309e-19  4.2556e-22  9.1623e-19  4.3722e-22  9.2182e-19  4.5823e-22  9.3176e-19  4.9636e-22  9.4943e-19  5.6680e-22  9.8087e-19  7.0023e-22  1.0368e-18  9.6312e-22  1.1361e-18
      6.10  4.1073e-22  1.0200e-18  4.1074e-22  1.0200e-18  4.1076e-22  1.0200e-18  4.1080e-22  1.0200e-18  4.1086e-22  1.0200e-18  4.1097e-22  1.0201e-18  4.1116e-22  1.0202e-18  4.1150e-22  1.0204e-18  4.1211e-22  1.0208e-18  4.1319e-22  1.0214e-18  4.1512e-22  1.0225e-18  4.1856e-22  1.0245e-18  4.2470e-22  1.0280e-18  4.3569e-22  1.0343e-18  4.5549e-22  1.0455e-18  4.9145e-22  1.0653e-18  5.5780e-22  1.1006e-18  6.8341e-22  1.1633e-18  9.3062e-22  1.2748e-18
      6.15  4.1071e-22  1.1444e-18  4.1072e-22  1.1444e-18  4.1074e-22  1.1444e-18  4.1078e-22  1.1445e-18  4.1083e-22  1.1445e-18  4.1093e-22  1.1446e-18  4.1112e-22  1.1447e-18  4.1144e-22  1.1449e-18  4.1201e-22  1.1453e-18  4.1304e-22  1.1460e-18  4.1486e-22  1.1473e-18  4.1810e-22  1.1495e-18  4.2390e-22  1.1535e-18  4.3427e-22  1.1605e-18  4.5294e-22  1.1730e-18  4.8686e-22  1.1953e-18  5.4941e-22  1.2348e-18  6.6771e-22  1.3052e-18  9.0026e-22  1.4303e-18
      6.20  4.1070e-22  1.2841e-18  4.1071e-22  1.2841e-18  4.1072e-22  1.2841e-18  4.1075e-22  1.2841e-18  4.1081e-22  1.2842e-18  4.1090e-22  1.2842e-18  4.1108e-22  1.2844e-18  4.1138e-22  1.2846e-18  4.1192e-22  1.2851e-18  4.1289e-22  1.2859e-18  4.1461e-22  1.2873e-18  4.1767e-22  1.2898e-18  4.2315e-22  1.2942e-18  4.3294e-22  1.3021e-18  4.5057e-22  1.3161e-18  4.8257e-22  1.3411e-18  5.4157e-22  1.3855e-18  6.5305e-22  1.4645e-18  8.7190e-22  1.6049e-18
      6.25  4.1068e-22  1.4408e-18  4.1069e-22  1.4408e-18  4.1071e-22  1.4408e-18  4.1074e-22  1.4408e-18  4.1079e-22  1.4409e-18  4.1088e-22  1.4409e-18  4.1104e-22  1.4411e-18  4.1133e-22  1.4414e-18  4.1184e-22  1.4419e-18  4.1275e-22  1.4428e-18  4.1438e-22  1.4443e-18  4.1728e-22  1.4471e-18  4.2245e-22  1.4521e-18  4.3170e-22  1.4610e-18  4.4835e-22  1.4767e-18  4.7858e-22  1.5048e-18  5.3426e-22  1.5546e-18  6.3937e-22  1.6432e-18  8.4544e-22  1.8007e-18
      6.30  4.1067e-22  1.6165e-18  4.1068e-22  1.6166e-18  4.1069e-22  1.6166e-18  4.1072e-22  1.6166e-18  4.1077e-22  1.6167e-18  4.1085e-22  1.6168e-18  4.1101e-22  1.6169e-18  4.1128e-22  1.6173e-18  4.1176e-22  1.6178e-18  4.1263e-22  1.6188e-18  4.1417e-22  1.6206e-18  4.1691e-22  1.6237e-18  4.2180e-22  1.6293e-18  4.3055e-22  1.6393e-18  4.4629e-22  1.6569e-18  4.7486e-22  1.6884e-18  5.2745e-22  1.7443e-18  6.2663e-22  1.8437e-18  8.2076e-22  2.0205e-18
      6.35  4.1065e-22  1.8138e-18  4.1066e-22  1.8138e-18  4.1068e-22  1.8138e-18  4.1070e-22  1.8139e-18  4.1075e-22  1.8139e-18  4.1083e-22  1.8140e-18  4.1098e-22  1.8142e-18  4.1123e-22  1.8146e-18  4.1169e-22  1.8152e-18  4.1251e-22  1.8163e-18  4.1397e-22  1.8183e-18  4.1656e-22  1.8218e-18  4.2119e-22  1.8281e-18  4.2947e-22  1.8393e-18  4.4437e-22  1.8591e-18  4.7139e-22  1.8944e-18  5.2111e-22  1.9571e-18  6.1475e-22  2.0687e-18  7.9775e-22  2.2670e-18
      6.40  4.1064e-22  2.0351e-18  4.1065e-22  2.0351e-18  4.1066e-22  2.0351e-18  4.1069e-22  2.0352e-18  4.1073e-22  2.0353e-18  4.1081e-22  2.0354e-18  4.1095e-22  2.0356e-18  4.1119e-22  2.0360e-18  4.1163e-22  2.0367e-18  4.1240e-22  2.0380e-18  4.1378e-22  2.0402e-18  4.1624e-22  2.0441e-18  4.2063e-22  2.0512e-18  4.2847e-22  2.0637e-18  4.4259e-22  2.0860e-18  4.6817e-22  2.1255e-18  5.1520e-22  2.1959e-18  6.0369e-22  2.3211e-18  7.7631e-22  2.5437e-18
      6.45  4.1063e-22  2.2834e-18  4.1064e-22  2.2834e-18  4.1065e-22  2.2835e-18  4.1068e-22  2.2835e-18  4.1072e-22  2.2836e-18  4.1079e-22  2.2837e-18  4.1092e-22  2.2840e-18  4.1115e-22  2.2844e-18  4.1157e-22  2.2852e-18  4.1230e-22  2.2866e-18  4.1361e-22  2.2891e-18  4.1594e-22  2.2936e-18  4.2010e-22  2.3015e-18  4.2754e-22  2.3155e-18  4.4092e-22  2.3405e-18  4.6517e-22  2.3849e-18  5.0970e-22  2.4639e-18  5.9339e-22  2.6043e-18  7.5634e-22  2.8540e-18
      6.50  4.1062e-22  2.5621e-18  4.1063e-22  2.5621e-18  4.1064e-22  2.5621e-18  4.1066e-22  2.5621e-18  4.1070e-22  2.5622e-18  4.1077e-22  2.5624e-18  4.1090e-22  2.5627e-18  4.1112e-22  2.5632e-18  4.1151e-22  2.5641e-18  4.1221e-22  2.5656e-18  4.1345e-22  2.5684e-18  4.1566e-22  2.5734e-18  4.1961e-22  2.5823e-18  4.2668e-22  2.5980e-18  4.3938e-22  2.6261e-18  4.6237e-22  2.6759e-18  5.0459e-22  2.7645e-18  5.8380e-22  2.9221e-18  7.3776e-22  3.2023e-18
      6.55  4.1061e-22  2.8747e-18  4.1062e-22  2.8747e-18  4.1063e-22  2.8747e-18  4.1065e-22  2.8748e-18  4.1069e-22  2.8749e-18  4.1076e-22  2.8751e-18  4.1088e-22  2.8754e-18  4.1109e-22  2.8759e-18  4.1146e-22  2.8769e-18  4.1212e-22  2.8787e-18  4.1330e-22  2.8818e-18  4.1541e-22  2.8874e-18  4.1916e-22  2.8974e-18  4.2588e-22  2.9151e-18  4.3794e-22  2.9465e-18  4.5978e-22  3.0024e-18  4.9983e-22  3.1018e-18  5.7489e-22  3.2787e-18  7.2048e-22  3.5931e-18
      6.60  4.1061e-22  3.2254e-18  4.1061e-22  3.2255e-18  4.1063e-22  3.2255e-18  4.1065e-22  3.2256e-18  4.1068e-22  3.2257e-18  4.1074e-22  3.2259e-18  4.1086e-22  3.2262e-18  4.1106e-22  3.2268e-18  4.1141e-22  3.2280e-18  4.1204e-22  3.2299e-18  4.1317e-22  3.2335e-18  4.1517e-22  3.2397e-18  4.1874e-22  3.2509e-18  4.2513e-22  3.2707e-18  4.3661e-22  3.3060e-18  4.5737e-22  3.3688e-18  4.9541e-22  3.4803e-18  5.6661e-22  3.6787e-18  7.0441e-22  4.0315e-18
      6.65  4.1060e-22  3.6190e-18  4.1061e-22  3.6190e-18  4.1062e-22  3.6191e-18  4.1064e-22  3.6191e-18  4.1067e-22  3.6193e-18  4.1073e-22  3.6195e-18  4.1084e-22  3.6199e-18  4.1103e-22  3.6206e-18  4.1137e-22  3.6218e-18  4.1197e-22  3.6241e-18  4.1304e-22  3.6280e-18  4.1495e-22  3.6351e-18  4.1835e-22  3.6476e-18  4.2444e-22  3.6698e-18  4.3537e-22  3.7094e-18  4.5513e-22  3.7798e-18  4.9131e-22  3.9050e-18  5.5892e-22  4.1276e-18  6.8948e-22  4.5235e-18
      6.70  4.1060e-22  4.0606e-18  4.1060e-22  4.0606e-18  4.1061e-22  4.0607e-18  4.1063e-22  4.0607e-18  4.1066e-22  4.0609e-18  4.1072e-22  4.0611e-18  4.1082e-22  4.0616e-18  4.1100e-22  4.0624e-18  4.1133e-22  4.0638e-18  4.1190e-22  4.0663e-18  4.1292e-22  4.0707e-18  4.1474e-22  4.0786e-18  4.1799e-22  4.0926e-18  4.2380e-22  4.1176e-18  4.3422e-22  4.1620e-18  4.5305e-22  4.2410e-18  4.8750e-22  4.3815e-18  5.5178e-22  4.6313e-18  6.7561e-22  5.0754e-18
      6.75  4.1059e-22  4.5560e-18  4.1060e-22  4.5561e-18  4.1061e-22  4.5561e-18  4.1062e-22  4.5562e-18  4.1065e-22  4.5564e-18  4.1071e-22  4.5567e-18  4.1081e-22  4.5572e-18  4.1098e-22  4.5580e-18  4.1129e-22  4.5596e-18  4.1184e-22  4.5624e-18  4.1281e-22  4.5674e-18  4.1455e-22  4.5763e-18  4.1766e-22  4.5920e-18  4.2320e-22  4.6201e-18  4.3315e-22  4.6699e-18  4.5112e-22  4.7585e-18  4.8396e-22  4.9161e-18  5.4515e-22  5.1964e-18  6.6273e-22  5.6948e-18
      6.80  4.1059e-22  5.1120e-18  4.1059e-22  5.1120e-18  4.1060e-22  5.1121e-18  4.1062e-22  5.1122e-18  4.1065e-22  5.1123e-18  4.1070e-22  5.1126e-18  4.1079e-22  5.1132e-18  4.1096e-22  5.1142e-18  4.1125e-22  5.1160e-18  4.1178e-22  5.1191e-18  4.1271e-22  5.1247e-18  4.1438e-22  5.1347e-18  4.1735e-22  5.1523e-18  4.2265e-22  5.1838e-18  4.3216e-22  5.2397e-18  4.4933e-22  5.3392e-18  4.8069e-22  5.5160e-18  5.3900e-22  5.8305e-18  6.5079e-22  6.3897e-18
      6.85  4.1058e-22  5.7357e-18  4.1059e-22  5.7358e-18  4.1060e-22  5.7358e-18  4.1061e-22  5.7359e-18  4.1064e-22  5.7361e-18  4.1069e-22  5.7365e-18  4.1078e-22  5.7371e-18  4.1094e-22  5.7382e-18  4.1122e-22  5.7402e-18  4.1172e-22  5.7437e-18  4.1262e-22  5.7500e-18  4.1421e-22  5.7612e-18  4.1706e-22  5.7810e-18  4.2214e-22  5.8163e-18  4.3124e-22  5.8791e-18  4.4768e-22  5.9906e-18  4.7765e-22  6.1891e-18  5.3330e-22  6.5419e-18  6.3972e-22  7.1694e-18
      6.90  4.1058e-22  6.4356e-18  4.1058e-22  6.4356e-18  4.1059e-22  6.4357e-18  4.1061e-22  6.4358e-18  4.1063e-22  6.4360e-18  4.1068e-22  6.4364e-18  4.1077e-22  6.4371e-18  4.1092e-22  6.4384e-18  4.1119e-22  6.4406e-18  4.1167e-22  6.4446e-18  4.1253e-22  6.4516e-18  4.1406e-22  6.4641e-18  4.1679e-22  6.4864e-18  4.2166e-22  6.5260e-18  4.3040e-22  6.5964e-18  4.4614e-22  6.7216e-18  4.7483e-22  6.9442e-18  5.2802e-22  7.3402e-18  6.2946e-22  8.0442e-18
      6.95  4.1058e-22  7.2208e-18  4.1058e-22  7.2209e-18  4.1059e-22  7.2210e-18  4.1060e-22  7.2211e-18  4.1063e-22  7.2214e-18  4.1068e-22  7.2218e-18  4.1076e-22  7.2226e-18  4.1090e-22  7.2240e-18  4.1117e-22  7.2265e-18  4.1163e-22  7.2309e-18  4.1245e-22  7.2388e-18  4.1392e-22  7.2529e-18  4.1654e-22  7.2779e-18  4.2122e-22  7.3223e-18  4.2961e-22  7.4013e-18  4.4472e-22  7.5418e-18  4.7223e-22  7.7916e-18  5.2313e-22  8.2358e-18  6.1996e-22  9.0257e-18
      7.00  4.1057e-22  8.1019e-18  4.1058e-22  8.1020e-18  4.1059e-22  8.1021e-18  4.1060e-22  8.1022e-18  4.1062e-22  8.1025e-18  4.1067e-22  8.1030e-18  4.1075e-22  8.1039e-18  4.1089e-22  8.1055e-18  4.1114e-22  8.1083e-18  4.1159e-22  8.1132e-18  4.1238e-22  8.1221e-18  4.1380e-22  8.1379e-18  4.1632e-22  8.1659e-18  4.2082e-22  8.2157e-18  4.2888e-22  8.3044e-18  4.4341e-22  8.4620e-18  4.6982e-22  8.7423e-18  5.1861e-22  9.2407e-18  6.1116e-22  1.0127e-17
      7.05  4.1057e-22  9.0905e-18  4.1057e-22  9.0906e-18  4.1058e-22  9.0907e-18  4.1060e-22  9.0908e-18  4.1062e-22  9.0912e-18  4.1066e-22  9.0917e-18  4.1074e-22  9.0927e-18  4.1088e-22  9.0945e-18  4.1112e-22  9.0976e-18  4.1155e-22  9.1032e-18  4.1231e-22  9.1132e-18  4.1368e-22  9.1308e-18  4.1611e-22  9.1623e-18  4.2044e-22  9.2182e-18  4.2821e-22  9.3177e-18  4.4219e-22  9.4945e-18  4.6759e-22  9.8090e-18  5.1442e-22  1.0368e-17  6.0303e-22  1.1363e-17
      7.10  4.1057e-22  1.0200e-17  4.1057e-22  1.0200e-17  4.1058e-22  1.0200e-17  4.1059e-22  1.0200e-17  4.1062e-22  1.0200e-17  4.1066e-22  1.0201e-17  4.1073e-22  1.0202e-17  4.1086e-22  1.0204e-17  4.1110e-22  1.0208e-17  4.1151e-22  1.0214e-17  4.1225e-22  1.0225e-17  4.1357e-22  1.0245e-17  4.1591e-22  1.0280e-17  4.2010e-22  1.0343e-17  4.2759e-22  1.0455e-17  4.4107e-22  1.0653e-17  4.6552e-22  1.1006e-17  5.1056e-22  1.1633e-17  5.9551e-22  1.2749e-17
      7.15  4.1057e-22  1.1444e-17  4.1057e-22  1.1444e-17  4.1058e-22  1.1444e-17  4.1059e-22  1.1445e-17  4.1061e-22  1.1445e-17  4.1065e-22  1.1446e-17  4.1072e-22  1.1447e-17  4.1085e-22  1.1449e-17  4.1108e-22  1.1453e-17  4.1148e-22  1.1460e-17  4.1219e-22  1.1473e-17  4.1347e-22  1.1495e-17  4.1573e-22  1.1535e-17  4.1978e-22  1.1605e-17  4.2702e-22  1.1730e-17  4.4003e-22  1.1953e-17  4.6362e-22  1.2349e-17  5.0698e-22  1.3053e-17  5.8856e-22  1.4305e-17
      7.20  4.1056e-22  1.2841e-17  4.1057e-22  1.2841e-17  4.1058e-22  1.2841e-17  4.1059e-22  1.2841e-17  4.1061e-22  1.2842e-17  4.1065e-22  1.2842e-17  4.1072e-22  1.2844e-17  4.1084e-22  1.2846e-17  4.1106e-22  1.2851e-17  4.1145e-22  1.2859e-17  4.1214e-22  1.2873e-17  4.1337e-22  1.2898e-17  4.1557e-22  1.2942e-17  4.1948e-22  1.3021e-17  4.2649e-22  1.3162e-17  4.3907e-22  1.3411e-17  4.6186e-22  1.3856e-17  5.0369e-22  1.4646e-17  5.8214e-22  1.6051e-17
      7.25  4.1056e-22  1.4407e-17  4.1057e-22  1.4408e-17  4.1057e-22  1.4408e-17  4.1059e-22  1.4408e-17  4.1061e-22  1.4409e-17  4.1064e-22  1.4409e-17  4.1071e-22  1.4411e-17  4.1083e-22  1.4414e-17  4.1104e-22  1.4419e-17  4.1142e-22  1.4428e-17  4.1209e-22  1.4443e-17  4.1329e-22  1.4471e-17  4.1541e-22  1.4521e-17  4.1921e-22  1.4610e-17  4.2600e-22  1.4768e-17  4.3819e-22  1.5048e-17  4.6024e-22  1.5546e-17  5.0064e-22  1.6433e-17  5.7622e-22  1.8009e-17
      7.30  4.1056e-22  1.6165e-17  4.1057e-22  1.6166e-17  4.1057e-22  1.6166e-17  4.1058e-22  1.6166e-17  4.1060e-22  1.6167e-17  4.1064e-22  1.6168e-17  4.1071e-22  1.6169e-17  4.1082e-22  1.6173e-17  4.1103e-22  1.6178e-17  4.1139e-22  1.6188e-17  4.1205e-22  1.6206e-17  4.1321e-22  1.6237e-17  4.1527e-22  1.6293e-17  4.1896e-22  1.6393e-17  4.2555e-22  1.6569e-17  4.3737e-22  1.6884e-17  4.5875e-22  1.7443e-17  4.9784e-22  1.8438e-17  5.7076e-22  2.0207e-17
      7.35  4.1056e-22  1.8138e-17  4.1056e-22  1.8138e-17  4.1057e-22  1.8138e-17  4.1058e-22  1.8139e-17  4.1060e-22  1.8139e-17  4.1064e-22  1.8140e-17  4.1070e-22  1.8142e-17  4.1081e-22  1.8146e-17  4.1101e-22  1.8152e-17  4.1137e-22  1.8163e-17  4.1200e-22  1.8183e-17  4.1313e-22  1.8218e-17  4.1514e-22  1.8281e-17  4.1873e-22  1.8393e-17  4.2513e-22  1.8591e-17  4.3662e-22  1.8944e-17  4.5737e-22  1.9572e-17  4.9525e-22  2.0688e-17  5.6572e-22  2.2672e-17
      7.40  4.1056e-22  2.0351e-17  4.1056e-22  2.0351e-17  4.1057e-22  2.0351e-17  4.1058e-22  2.0352e-17  4.1060e-22  2.0353e-17  4.1064e-22  2.0354e-17  4.1070e-22  2.0356e-17  4.1081e-22  2.0360e-17  4.1100e-22  2.0367e-17  4.1135e-22  2.0380e-17  4.1197e-22  2.0402e-17  4.1307e-22  2.0441e-17  4.1502e-22  2.0512e-17  4.1852e-22  2.0637e-17  4.2475e-22  2.0860e-17  4.3593e-22  2.1256e-17  4.5610e-22  2.1960e-17  4.9286e-22  2.3212e-17  5.6108e-22  2.5439e-17
      7.45  4.1056e-22  2.2834e-17  4.1056e-22  2.2834e-17  4.1057e-22  2.2835e-17  4.1058e-22  2.2835e-17  4.1060e-22  2.2836e-17  4.1063e-22  2.2837e-17  4.1069e-22  2.2840e-17  4.1080e-22  2.2844e-17  4.1099e-22  2.2852e-17  4.1133e-22  2.2866e-17  4.1193e-22  2.2891e-17  4.1300e-22  2.2936e-17  4.1491e-22  2.3015e-17  4.1832e-22  2.3155e-17  4.2440e-22  2.3405e-17  4.3530e-22  2.3849e-17  4.5493e-22  2.4639e-17  4.9067e-22  2.6044e-17  5.5681e-22  2.8543e-17
      7.50  4.1056e-22  2.5621e-17  4.1056e-22  2.5621e-17  4.1057e-22  2.5621e-17  4.1058e-22  2.5621e-17  4.1060e-22  2.5622e-17  4.1063e-22  2.5624e-17  4.1069e-22  2.5627e-17  4.1079e-22  2.5632e-17  4.1098e-22  2.5641e-17  4.1131e-22  2.5656e-17  4.1190e-22  2.5684e-17  4.1295e-22  2.5734e-17  4.1481e-22  2.5823e-17  4.1814e-22  2.5980e-17  4.2408e-22  2.6261e-17  4.3471e-22  2.6759e-17  4.5385e-22  2.7646e-17  4.8865e-22  2.9222e-17  5.5288e-22  3.2025e-17
      7.55  4.1056e-22  2.8747e-17  4.1056e-22  2.8747e-17  4.1057e-22  2.8747e-17  4.1058e-22  2.8748e-17  4.1060e-22  2.8749e-17  4.1063e-22  2.8751e-17  4.1069e-22  2.8754e-17  4.1079e-22  2.8759e-17  4.1097e-22  2.8769e-17  4.1129e-22  2.8787e-17  4.1187e-22  2.8818e-17  4.1290e-22  2.8874e-17  4.1472e-22  2.8974e-17  4.1797e-22  2.9151e-17  4.2378e-22  2.9465e-17  4.3417e-22  3.0024e-17  4.5287e-22  3.1019e-17  4.8679e-22  3.2788e-17  5.4927e-22  3.5933e-17
      7.60  4.1056e-22  3.2254e-17  4.1056e-22  3.2255e-17  4.1057e-22  3.2255e-17  4.1058e-22  3.2255e-17  4.1059e-22  3.2257e-17  4.1063e-22  3.2259e-17  4.1068e-22  3.2262e-17  4.1078e-22  3.2268e-17  4.1096e-22  3.2280e-17  4.1128e-22  3.2299e-17  4.1184e-22  3.2335e-17  4.1285e-22  3.2397e-17  4.1464e-22  3.2509e-17  4.1782e-22  3.2708e-17  4.2351e-22  3.3060e-17  4.3368e-22  3.3688e-17  4.5196e-22  3.4804e-17  4.8509e-22  3.6789e-17  5.4594e-22  4.0318e-17
      7.65  4.1056e-22  3.6190e-17  4.1056e-22  3.6190e-17  4.1057e-22  3.6191e-17  4.1058e-22  3.6191e-17  4.1059e-22  3.6193e-17  4.1062e-22  3.6195e-17  4.1068e-22  3.6199e-17  4.1078e-22  3.6206e-17  4.1095e-22  3.6218e-17  4.1126e-22  3.6241e-17  4.1182e-22  3.6280e-17  4.1280e-22  3.6351e-17  4.1456e-22  3.6476e-17  4.1768e-22  3.6698e-17  4.2326e-22  3.7094e-17  4.3322e-22  3.7799e-17  4.5113e-22  3.9051e-17  4.8352e-22  4.1277e-17  5.4290e-22  4.5237e-17
      7.70  4.1056e-22  4.0606e-17  4.1056e-22  4.0606e-17  4.1057e-22  4.0606e-17  4.1057e-22  4.0607e-17  4.1059e-22  4.0609e-17  4.1062e-22  4.0611e-17  4.1068e-22  4.0616e-17  4.1077e-22  4.0624e-17  4.1095e-22  4.0638e-17  4.1125e-22  4.0663e-17  4.1180e-22  4.0707e-17  4.1276e-22  4.0786e-17  4.1449e-22  4.0926e-17  4.1755e-22  4.1176e-17  4.2303e-22  4.1621e-17  4.3281e-22  4.2411e-17  4.5036e-22  4.3816e-17  4.8209e-22  4.6314e-17  5.4010e-22  5.0757e-17
      7.75  4.1056e-22  4.5560e-17  4.1056e-22  4.5561e-17  4.1056e-22  4.5561e-17  4.1057e-22  4.5562e-17  4.1059e-22  4.5564e-17  4.1062e-22  4.5566e-17  4.1067e-22  4.5571e-17  4.1077e-22  4.5580e-17  4.1094e-22  4.5596e-17  4.1124e-22  4.5624e-17  4.1177e-22  4.5674e-17  4.1273e-22  4.5763e-17  4.1442e-22  4.5920e-17  4.1744e-22  4.6201e-17  4.2282e-22  4.6699e-17  4.3243e-22  4.7586e-17  4.4966e-22  4.9162e-17  4.8077e-22  5.1965e-17  5.3754e-22  5.6950e-17
      7.80  4.1056e-22  5.1120e-17  4.1056e-22  5.1120e-17  4.1056e-22  5.1121e-17  4.1057e-22  5.1122e-17  4.1059e-22  5.1123e-17  4.1062e-22  5.1126e-17  4.1067e-22  5.1132e-17  4.1077e-22  5.1142e-17  4.1093e-22  5.1160e-17  4.1123e-22  5.1191e-17  4.1176e-22  5.1247e-17  4.1269e-22  5.1347e-17  4.1436e-22  5.1523e-17  4.1733e-22  5.1838e-17  4.2262e-22  5.2397e-17  4.3208e-22  5.3392e-17  4.4902e-22  5.5161e-17  4.7957e-22  5.8306e-17  5.3520e-22  6.3899e-17
      7.85  4.1056e-22  5.7357e-17  4.1056e-22  5.7358e-17  4.1056e-22  5.7358e-17  4.1057e-22  5.7359e-17  4.1059e-22  5.7361e-17  4.1062e-22  5.7365e-17  4.1067e-22  5.7371e-17  4.1076e-22  5.7382e-17  4.1093e-22  5.7402e-17  4.1122e-22  5.7437e-17  4.1174e-22  5.7500e-17  4.1266e-22  5.7612e-17  4.1430e-22  5.7810e-17  4.1723e-22  5.8163e-17  4.2245e-22  5.8791e-17  4.3176e-22  5.9907e-17  4.4844e-22  6.1891e-17  4.7847e-22  6.5421e-17  5.3306e-22  7.1696e-17
      7.90  4.1056e-22  6.4356e-17  4.1056e-22  6.4356e-17  4.1056e-22  6.4357e-17  4.1057e-22  6.4358e-17  4.1059e-22  6.4360e-17  4.1062e-22  6.4364e-17  4.1067e-22  6.4371e-17  4.1076e-22  6.4384e-17  4.1092e-22  6.4406e-17  4.1121e-22  6.4446e-17  4.1172e-22  6.4516e-17  4.1263e-22  6.4641e-17  4.1425e-22  6.4864e-17  4.1714e-22  6.5260e-17  4.2229e-22  6.5964e-17  4.3147e-22  6.7216e-17  4.4790e-22  6.9443e-17  4.7747e-22  7.3403e-17  5.3110e-22  8.0445e-17
      7.95  4.1056e-22  7.2208e-17  4.1056e-22  7.2209e-17  4.1056e-22  7.2210e-17  4.1057e-22  7.2211e-17  4.1059e-22  7.2214e-17  4.1062e-22  7.2218e-17  4.1067e-22  7.2226e-17  4.1076e-22  7.2240e-17  4.1092e-22  7.2265e-17  4.1120e-22  7.2309e-17  4.1171e-22  7.2388e-17  4.1261e-22  7.2529e-17  4.1421e-22  7.2779e-17  4.1706e-22  7.3223e-17  4.2214e-22  7.4013e-17  4.3120e-22  7.5418e-17  4.4742e-22  7.7917e-17  4.7655e-22  8.2360e-17  5.2932e-22  9.0261e-17
      8.00  4.1056e-22  8.1019e-17  4.1056e-22  8.1020e-17  4.1056e-22  8.1021e-17  4.1057e-22  8.1022e-17  4.1059e-22  8.1025e-17  4.1062e-22  8.1030e-17  4.1067e-22  8.1039e-17  4.1075e-22  8.1055e-17  4.1091e-22  8.1083e-17  4.1119e-22  8.1132e-17  4.1169e-22  8.1221e-17  4.1258e-22  8.1379e-17  4.1417e-22  8.1659e-17  4.1699e-22  8.2158e-17  4.2201e-22  8.3044e-17  4.3096e-22  8.4621e-17  4.4697e-22  8.7424e-17  4.7572e-22  9.2409e-17  5.2770e-22  1.0127e-16
      8.05  4.1055e-22  9.0905e-17  4.1056e-22  9.0906e-17  4.1056e-22  9.0907e-17  4.1057e-22  9.0908e-17  4.1059e-22  9.0911e-17  4.1061e-22  9.0917e-17  4.1066e-22  9.0927e-17  4.1075e-22  9.0945e-17  4.1091e-22  9.0976e-17  4.1119e-22  9.1032e-17  4.1168e-22  9.1132e-17  4.1256e-22  9.1308e-17  4.1413e-22  9.1623e-17  4.1692e-22  9.2182e-17  4.2188e-22  9.3177e-17  4.3074e-22  9.4946e-17  4.4657e-22  9.8091e-17  4.7496e-22  1.0368e-16  5.2622e-22  1.1363e-16
      8.10  4.1055e-22  1.0200e-16  4.1056e-22  1.0200e-16  4.1056e-22  1.0200e-16  4.1057e-22  1.0200e-16  4.1059e-22  1.0200e-16  4.1061e-22  1.0201e-16  4.1066e-22  1.0202e-16  4.1075e-22  1.0204e-16  4.1091e-22  1.0208e-16  4.1118e-22  1.0214e-16  4.1167e-22  1.0225e-16  4.1254e-22  1.0245e-16  4.1410e-22  1.0280e-16  4.1686e-22  1.0343e-16  4.2177e-22  1.0455e-16  4.3054e-22  1.0653e-16  4.4620e-22  1.1006e-16  4.7427e-22  1.1634e-16  5.2488e-22  1.2750e-16
      8.15  4.1055e-22  1.1444e-16  4.1056e-22  1.1444e-16  4.1056e-22  1.1444e-16  4.1057e-22  1.1445e-16  4.1059e-22  1.1445e-16  4.1061e-22  1.1446e-16  4.1066e-22  1.1447e-16  4.1075e-22  1.1449e-16  4.1090e-22  1.1453e-16  4.1118e-22  1.1460e-16  4.1166e-22  1.1473e-16  4.1253e-22  1.1495e-16  4.1406e-22  1.1535e-16  4.1680e-22  1.1605e-16  4.2167e-22  1.1730e-16  4.3036e-22  1.1953e-16  4.4587e-22  1.2349e-16  4.7364e-22  1.3053e-16  5.2366e-22  1.4305e-16
      8.20  4.1055e-22  1.2841e-16  4.1056e-22  1.2841e-16  4.1056e-22  1.2841e-16  4.1057e-22  1.2841e-16  4.1059e-22  1.2842e-16  4.1061e-22  1.2842e-16  4.1066e-22  1.2844e-16  4.1075e-22  1.2846e-16  4.1090e-22  1.2851e-16  4.1117e-22  1.2859e-16  4.1165e-22  1.2873e-16  4.1251e-22  1.2898e-16  4.1404e-22  1.2942e-16  4.1675e-22  1.3021e-16  4.2158e-22  1.3162e-16  4.3020e-22  1.3411e-16  4.4557e-22  1.3856e-16  4.7308e-22  1.4646e-16  5.2256e-22  1.6051e-16
      8.25  4.1055e-22  1.4407e-16  4.1056e-22  1.4408e-16  4.1056e-22  1.4408e-16  4.1057e-22  1.4408e-16  4.1059e-22  1.4408e-16  4.1061e-22  1.4409e-16  4.1066e-22  1.4411e-16  4.1075e-22  1.4414e-16  4.1090e-22  1.4419e-16  4.1117e-22  1.4428e-16  4.1164e-22  1.4443e-16  4.1250e-22  1.4471e-16  4.1401e-22  1.4521e-16  4.1671e-22  1.4610e-16  4.2150e-22  1.4768e-16  4.3005e-22  1.5048e-16  4.4530e-22  1.5546e-16  4.7257e-22  1.6433e-16  5.2156e-22  1.8009e-16
      8.30  4.1055e-22  1.6165e-16  4.1056e-22  1.6166e-16  4.1056e-22  1.6166e-16  4.1057e-22  1.6166e-16  4.1059e-22  1.6167e-16  4.1061e-22  1.6168e-16  4.1066e-22  1.6169e-16  4.1074e-22  1.6173e-16  4.1089e-22  1.6178e-16  4.1116e-22  1.6188e-16  4.1164e-22  1.6206e-16  4.1248e-22  1.6237e-16  4.1399e-22  1.6293e-16  4.1666e-22  1.6393e-16  4.2143e-22  1.6569e-16  4.2991e-22  1.6884e-16  4.4505e-22  1.7443e-16  4.7210e-22  1.8438e-16  5.2066e-22  2.0207e-16
      8.35  4.1055e-22  1.8138e-16  4.1056e-22  1.8138e-16  4.1056e-22  1.8138e-16  4.1057e-22  1.8139e-16  4.1058e-22  1.8139e-16  4.1061e-22  1.8140e-16  4.1066e-22  1.8142e-16  4.1074e-22  1.8146e-16  4.1089e-22  1.8152e-16  4.1116e-22  1.8163e-16  4.1163e-22  1.8183e-16  4.1247e-22  1.8218e-16  4.1397e-22  1.8281e-16  4.1663e-22  1.8393e-16  4.2136e-22  1.8591e-16  4.2979e-22  1.8944e-16  4.4483e-22  1.9572e-16  4.7168e-22  2.0688e-16  5.1984e-22  2.2673e-16
      8.40  4.1055e-22  2.0351e-16  4.1056e-22  2.0351e-16  4.1056e-22  2.0351e-16  4.1057e-22  2.0352e-16  4.1058e-22  2.0353e-16  4.1061e-22  2.0354e-16  4.1066e-22  2.0356e-16  4.1074e-22  2.0360e-16  4.1089e-22  2.0367e-16  4.1115e-22  2.0380e-16  4.1162e-22  2.0402e-16  4.1246e-22  2.0441e-16  4.1395e-22  2.0512e-16  4.1659e-22  2.0637e-16  4.2130e-22  2.0860e-16  4.2968e-22  2.1256e-16  4.4463e-22  2.1960e-16  4.7131e-22  2.3212e-16  5.1911e-22  2.5439e-16
      8.45  4.1055e-22  2.2834e-16  4.1056e-22  2.2834e-16  4.1056e-22  2.2835e-16  4.1057e-22  2.2835e-16  4.1058e-22  2.2836e-16  4.1061e-22  2.2837e-16  4.1066e-22  2.2840e-16  4.1074e-22  2.2844e-16  4.1089e-22  2.2852e-16  4.1115e-22  2.2866e-16  4.1162e-22  2.2891e-16  4.1245e-22  2.2936e-16  4.1393e-22  2.3015e-16  4.1656e-22  2.3155e-16  4.2125e-22  2.3405e-16  4.2959e-22  2.3849e-16  4.4445e-22  2.4639e-16  4.7097e-22  2.6044e-16  5.1845e-22  2.8543e-16
      8.50  4.1055e-22  2.5621e-16  4.1056e-22  2.5621e-16  4.1056e-22  2.5621e-16  4.1057e-22  2.5621e-16  4.1058e-22  2.5622e-16  4.1061e-22  2.5624e-16  4.1066e-22  2.5627e-16  4.1074e-22  2.5632e-16  4.1089e-22  2.5641e-16  4.1115e-22  2.5656e-16  4.1161e-22  2.5684e-16  4.1244e-22  2.5734e-16  4.1392e-22  2.5823e-16  4.1654e-22  2.5981e-16  4.2120e-22  2.6261e-16  4.2950e-22  2.6759e-16  4.4428e-22  2.7646e-16  4.7066e-22  2.9222e-16  5.1786e-22  3.2026e-16
