# This was generated using Cloudy10 and the columns are ordered 
# as log10 of the fraction of the metallicity to the solar metallicity
# 'h_*_Z' and 'c_*_Z' stands for cooling and heating respectively 
# at * metalicity
#
# NOTE: This was generated separately from loop_coolingcurve_w_UV.py
#       using Output_metals_w_redshift.py.
#
# Redshift = 3.5
# hden = -9.0
#
#     temp   h_-3.00_Z   c_-3.00_Z   h_-2.75_Z   c_-2.75_Z   h_-2.50_Z   c_-2.50_Z   h_-2.25_Z   c_-2.25_Z   h_-2.00_Z   c_-2.00_Z   h_-1.75_Z   c_-1.75_Z   h_-1.50_Z   c_-1.50_Z   h_-1.25_Z   c_-1.25_Z   h_-1.00_Z   c_-1.00_Z   h_-0.75_Z   c_-0.75_Z   h_-0.50_Z   c_-0.50_Z   h_-0.25_Z   c_-0.25_Z    h_0.00_Z    c_0.00_Z    h_0.25_Z    c_0.25_Z    h_0.50_Z    c_0.50_Z    h_0.75_Z    c_0.75_Z    h_1.00_Z    c_1.00_Z    h_1.25_Z    c_1.25_Z    h_1.50_Z    c_1.50_Z 
      4.00  1.3074e-21  2.5622e-20  1.3075e-21  2.5622e-20  1.3078e-21  2.5622e-20  1.3083e-21  2.5622e-20  1.3093e-21  2.5623e-20  1.3109e-21  2.5625e-20  1.3138e-21  2.5628e-20  1.3189e-21  2.5633e-20  1.3280e-21  2.5641e-20  1.3442e-21  2.5657e-20  1.3731e-21  2.5685e-20  1.4246e-21  2.5735e-20  1.5166e-21  2.5823e-20  1.6814e-21  2.5980e-20  1.9784e-21  2.6260e-20  2.5189e-21  2.6757e-20  3.5192e-21  2.7640e-20  5.4195e-21  2.9211e-20  9.1746e-21  3.2003e-20
      4.05  1.3067e-21  2.8748e-20  1.3068e-21  2.8748e-20  1.3071e-21  2.8748e-20  1.3076e-21  2.8749e-20  1.3085e-21  2.8750e-20  1.3100e-21  2.8752e-20  1.3127e-21  2.8755e-20  1.3176e-21  2.8760e-20  1.3262e-21  2.8770e-20  1.3415e-21  2.8788e-20  1.3688e-21  2.8819e-20  1.4175e-21  2.8875e-20  1.5045e-21  2.8974e-20  1.6603e-21  2.9150e-20  1.9411e-21  2.9464e-20  2.4523e-21  3.0022e-20  3.3984e-21  3.1013e-20  5.1962e-21  3.2776e-20  8.7507e-21  3.5909e-20
      4.10  1.3061e-21  3.2255e-20  1.3062e-21  3.2256e-20  1.3065e-21  3.2256e-20  1.3069e-21  3.2257e-20  1.3077e-21  3.2258e-20  1.3092e-21  3.2260e-20  1.3117e-21  3.2263e-20  1.3163e-21  3.2269e-20  1.3245e-21  3.2281e-20  1.3390e-21  3.2300e-20  1.3648e-21  3.2336e-20  1.4108e-21  3.2398e-20  1.4930e-21  3.2509e-20  1.6403e-21  3.2707e-20  1.9057e-21  3.3059e-20  2.3890e-21  3.3685e-20  3.2835e-21  3.4797e-20  4.9839e-21  3.6775e-20  8.3474e-21  4.0292e-20
      4.15  1.3055e-21  3.6191e-20  1.3056e-21  3.6191e-20  1.3058e-21  3.6192e-20  1.3063e-21  3.6192e-20  1.3070e-21  3.6194e-20  1.3084e-21  3.6196e-20  1.3108e-21  3.6200e-20  1.3152e-21  3.6207e-20  1.3229e-21  3.6219e-20  1.3366e-21  3.6242e-20  1.3609e-21  3.6281e-20  1.4044e-21  3.6351e-20  1.4821e-21  3.6476e-20  1.6212e-21  3.6698e-20  1.8721e-21  3.7093e-20  2.3288e-21  3.7795e-20  3.1743e-21  3.9044e-20  4.7821e-21  4.1263e-20  7.9638e-21  4.5209e-20
      4.20  1.3049e-21  4.0607e-20  1.3050e-21  4.0607e-20  1.3053e-21  4.0608e-20  1.3057e-21  4.0608e-20  1.3064e-21  4.0610e-20  1.3077e-21  4.0612e-20  1.3100e-21  4.0617e-20  1.3141e-21  4.0625e-20  1.3213e-21  4.0639e-20  1.3343e-21  4.0664e-20  1.3573e-21  4.0708e-20  1.3984e-21  4.0787e-20  1.4717e-21  4.0927e-20  1.6032e-21  4.1176e-20  1.8401e-21  4.1619e-20  2.2716e-21  4.2407e-20  3.0705e-21  4.3808e-20  4.5901e-21  4.6299e-20  7.5988e-21  5.0727e-20
      4.25  1.3044e-21  4.5562e-20  1.3045e-21  4.5562e-20  1.3047e-21  4.5562e-20  1.3051e-21  4.5563e-20  1.3058e-21  4.5565e-20  1.3070e-21  4.5568e-20  1.3092e-21  4.5573e-20  1.3130e-21  4.5581e-20  1.3199e-21  4.5597e-20  1.3321e-21  4.5625e-20  1.3539e-21  4.5675e-20  1.3927e-21  4.5763e-20  1.4619e-21  4.5921e-20  1.5860e-21  4.6200e-20  1.8100e-21  4.6697e-20  2.2173e-21  4.7582e-20  2.9719e-21  4.9154e-20  4.4076e-21  5.1949e-20  7.2515e-21  5.6919e-20
      4.30  1.3039e-21  5.1121e-20  1.3040e-21  5.1121e-20  1.3042e-21  5.1122e-20  1.3046e-21  5.1123e-20  1.3052e-21  5.1125e-20  1.3064e-21  5.1128e-20  1.3084e-21  5.1133e-20  1.3121e-21  5.1143e-20  1.3186e-21  5.1161e-20  1.3301e-21  5.1192e-20  1.3506e-21  5.1248e-20  1.3872e-21  5.1347e-20  1.4526e-21  5.1524e-20  1.5698e-21  5.1837e-20  1.7810e-21  5.2396e-20  2.1657e-21  5.3388e-20  2.8782e-21  5.5152e-20  4.2342e-21  5.8289e-20  6.9212e-21  6.3866e-20
      4.35  1.3035e-21  5.7358e-20  1.3036e-21  5.7359e-20  1.3038e-21  5.7359e-20  1.3041e-21  5.7361e-20  1.3047e-21  5.7363e-20  1.3058e-21  5.7366e-20  1.3077e-21  5.7372e-20  1.3112e-21  5.7383e-20  1.3173e-21  5.7403e-20  1.3282e-21  5.7438e-20  1.3475e-21  5.7501e-20  1.3821e-21  5.7612e-20  1.4438e-21  5.7810e-20  1.5544e-21  5.8163e-20  1.7537e-21  5.8789e-20  2.1168e-21  5.9902e-20  2.7893e-21  6.1882e-20  4.0695e-21  6.5402e-20  6.6072e-21  7.1660e-20
      4.40  1.3031e-21  6.4357e-20  1.3032e-21  6.4358e-20  1.3033e-21  6.4358e-20  1.3037e-21  6.4359e-20  1.3042e-21  6.4362e-20  1.3053e-21  6.4366e-20  1.3071e-21  6.4373e-20  1.3103e-21  6.4385e-20  1.3161e-21  6.4407e-20  1.3264e-21  6.4447e-20  1.3446e-21  6.4517e-20  1.3772e-21  6.4642e-20  1.4354e-21  6.4864e-20  1.5398e-21  6.5260e-20  1.7279e-21  6.5962e-20  2.0704e-21  6.7212e-20  2.7050e-21  6.9433e-20  3.9131e-21  7.3384e-20  6.3089e-21  8.0406e-20
      4.45  1.3027e-21  7.2210e-20  1.3028e-21  7.2210e-20  1.3029e-21  7.2211e-20  1.3033e-21  7.2212e-20  1.3038e-21  7.2215e-20  1.3048e-21  7.2219e-20  1.3065e-21  7.2227e-20  1.3095e-21  7.2241e-20  1.3150e-21  7.2266e-20  1.3247e-21  7.2311e-20  1.3419e-21  7.2389e-20  1.3726e-21  7.2530e-20  1.4275e-21  7.2779e-20  1.5259e-21  7.3222e-20  1.7034e-21  7.4011e-20  2.0265e-21  7.5413e-20  2.6251e-21  7.7906e-20  3.7649e-21  8.2339e-20  6.0256e-21  9.0220e-20
      4.50  1.3023e-21  8.1021e-20  1.3024e-21  8.1021e-20  1.3026e-21  8.1022e-20  1.3029e-21  8.1024e-20  1.3034e-21  8.1026e-20  1.3043e-21  8.1031e-20  1.3059e-21  8.1040e-20  1.3088e-21  8.1056e-20  1.3139e-21  8.1084e-20  1.3231e-21  8.1134e-20  1.3393e-21  8.1222e-20  1.3683e-21  8.1379e-20  1.4201e-21  8.1659e-20  1.5129e-21  8.2157e-20  1.6802e-21  8.3042e-20  1.9849e-21  8.4615e-20  2.5494e-21  8.7413e-20  3.6244e-21  9.2387e-20  5.7570e-21  1.0123e-19
      4.55  1.3020e-21  9.0906e-20  1.3021e-21  9.0907e-20  1.3022e-21  9.0908e-20  1.3025e-21  9.0910e-20  1.3030e-21  9.0913e-20  1.3039e-21  9.0919e-20  1.3054e-21  9.0928e-20  1.3081e-21  9.0946e-20  1.3129e-21  9.0977e-20  1.3215e-21  9.1033e-20  1.3369e-21  9.1133e-20  1.3642e-21  9.1309e-20  1.4130e-21  9.1623e-20  1.5005e-21  9.2182e-20  1.6584e-21  9.3174e-20  1.9455e-21  9.4940e-20  2.4778e-21  9.8079e-20  3.4914e-21  1.0366e-19  5.5025e-21  1.1359e-19
      4.60  1.3017e-21  1.0200e-19  1.3018e-21  1.0200e-19  1.3019e-21  1.0200e-19  1.3022e-21  1.0200e-19  1.3026e-21  1.0201e-19  1.3034e-21  1.0201e-19  1.3049e-21  1.0202e-19  1.3075e-21  1.0204e-19  1.3120e-21  1.0208e-19  1.3201e-21  1.0214e-19  1.3346e-21  1.0225e-19  1.3603e-21  1.0245e-19  1.4064e-21  1.0280e-19  1.4888e-21  1.0343e-19  1.6375e-21  1.0454e-19  1.9084e-21  1.0652e-19  2.4101e-21  1.1005e-19  3.3656e-21  1.1631e-19  5.2616e-21  1.2745e-19
      4.65  1.3014e-21  1.1444e-19  1.3015e-21  1.1444e-19  1.3016e-21  1.1445e-19  1.3019e-21  1.1445e-19  1.3023e-21  1.1445e-19  1.3031e-21  1.1446e-19  1.3044e-21  1.1447e-19  1.3068e-21  1.1449e-19  1.3111e-21  1.1453e-19  1.3188e-21  1.1460e-19  1.3324e-21  1.1473e-19  1.3567e-21  1.1495e-19  1.4001e-21  1.1535e-19  1.4778e-21  1.1605e-19  1.6180e-21  1.1730e-19  1.8733e-21  1.1952e-19  2.3462e-21  1.2348e-19  3.2468e-21  1.3051e-19  5.0338e-21  1.4300e-19
      4.70  1.3012e-21  1.2841e-19  1.3012e-21  1.2841e-19  1.3014e-21  1.2841e-19  1.3016e-21  1.2841e-19  1.3020e-21  1.2842e-19  1.3027e-21  1.2843e-19  1.3040e-21  1.2844e-19  1.3063e-21  1.2846e-19  1.3103e-21  1.2851e-19  1.3175e-21  1.2859e-19  1.3304e-21  1.2873e-19  1.3533e-21  1.2898e-19  1.3942e-21  1.2942e-19  1.4675e-21  1.3021e-19  1.5996e-21  1.3161e-19  1.8402e-21  1.3411e-19  2.2859e-21  1.3854e-19  3.1346e-21  1.4643e-19  4.8185e-21  1.6045e-19
      4.75  1.3009e-21  1.4408e-19  1.3010e-21  1.4408e-19  1.3011e-21  1.4408e-19  1.3013e-21  1.4408e-19  1.3017e-21  1.4409e-19  1.3024e-21  1.4410e-19  1.3036e-21  1.4411e-19  1.3057e-21  1.4414e-19  1.3096e-21  1.4419e-19  1.3164e-21  1.4428e-19  1.3285e-21  1.4443e-19  1.3500e-21  1.4471e-19  1.3886e-21  1.4521e-19  1.4577e-21  1.4610e-19  1.5822e-21  1.4767e-19  1.8090e-21  1.5047e-19  2.2291e-21  1.5545e-19  3.0288e-21  1.6430e-19  4.6153e-21  1.8004e-19
      4.80  1.3007e-21  1.6166e-19  1.3008e-21  1.6166e-19  1.3009e-21  1.6166e-19  1.3011e-21  1.6166e-19  1.3014e-21  1.6167e-19  1.3021e-21  1.6168e-19  1.3032e-21  1.6170e-19  1.3052e-21  1.6173e-19  1.3088e-21  1.6178e-19  1.3153e-21  1.6188e-19  1.3267e-21  1.6206e-19  1.3470e-21  1.6237e-19  1.3834e-21  1.6293e-19  1.4485e-21  1.6392e-19  1.5659e-21  1.6569e-19  1.7796e-21  1.6883e-19  2.1755e-21  1.7442e-19  2.9290e-21  1.8435e-19  4.4237e-21  2.0201e-19
      4.85  1.3005e-21  1.8138e-19  1.3006e-21  1.8138e-19  1.3007e-21  1.8138e-19  1.3009e-21  1.8139e-19  1.3012e-21  1.8139e-19  1.3018e-21  1.8141e-19  1.3029e-21  1.8142e-19  1.3048e-21  1.8146e-19  1.3082e-21  1.8152e-19  1.3142e-21  1.8163e-19  1.3250e-21  1.8183e-19  1.3442e-21  1.8219e-19  1.3784e-21  1.8281e-19  1.4398e-21  1.8393e-19  1.5505e-21  1.8591e-19  1.7520e-21  1.8943e-19  2.1251e-21  1.9570e-19  2.8351e-21  2.0685e-19  4.2430e-21  2.2666e-19
      4.90  1.3003e-21  2.0351e-19  1.3004e-21  2.0351e-19  1.3005e-21  2.0352e-19  1.3007e-21  2.0352e-19  1.3010e-21  2.0353e-19  1.3015e-21  2.0354e-19  1.3026e-21  2.0356e-19  1.3044e-21  2.0360e-19  1.3076e-21  2.0367e-19  1.3133e-21  2.0380e-19  1.3234e-21  2.0402e-19  1.3415e-21  2.0441e-19  1.3738e-21  2.0512e-19  1.4317e-21  2.0637e-19  1.5360e-21  2.0859e-19  1.7260e-21  2.1255e-19  2.0776e-21  2.1958e-19  2.7467e-21  2.3209e-19  4.0729e-21  2.5432e-19
      4.95  1.3001e-21  2.2834e-19  1.3002e-21  2.2835e-19  1.3003e-21  2.2835e-19  1.3005e-21  2.2835e-19  1.3008e-21  2.2836e-19  1.3013e-21  2.2838e-19  1.3023e-21  2.2840e-19  1.3039e-21  2.2844e-19  1.3070e-21  2.2852e-19  1.3123e-21  2.2866e-19  1.3219e-21  2.2891e-19  1.3390e-21  2.2936e-19  1.3694e-21  2.3015e-19  1.4240e-21  2.3155e-19  1.5224e-21  2.3405e-19  1.7015e-21  2.3848e-19  2.0330e-21  2.4638e-19  2.6635e-21  2.6041e-19  3.9127e-21  2.8536e-19
      5.00  1.3000e-21  2.5621e-19  1.3000e-21  2.5621e-19  1.3001e-21  2.5621e-19  1.3003e-21  2.5622e-19  1.3006e-21  2.5623e-19  1.3011e-21  2.5624e-19  1.3020e-21  2.5627e-19  1.3036e-21  2.5632e-19  1.3064e-21  2.5641e-19  1.3115e-21  2.5656e-19  1.3205e-21  2.5684e-19  1.3366e-21  2.5734e-19  1.3654e-21  2.5823e-19  1.4168e-21  2.5980e-19  1.5096e-21  2.6260e-19  1.6785e-21  2.6758e-19  1.9911e-21  2.7644e-19  2.5853e-21  2.9219e-19  3.7620e-21  3.2018e-19
      5.05  1.2998e-21  2.8747e-19  1.2999e-21  2.8747e-19  1.3000e-21  2.8747e-19  1.3001e-21  2.8748e-19  1.3004e-21  2.8749e-19  1.3009e-21  2.8751e-19  1.3017e-21  2.8754e-19  1.3032e-21  2.8759e-19  1.3059e-21  2.8769e-19  1.3107e-21  2.8787e-19  1.3192e-21  2.8818e-19  1.3344e-21  2.8874e-19  1.3615e-21  2.8974e-19  1.4101e-21  2.9150e-19  1.4977e-21  2.9465e-19  1.6570e-21  3.0023e-19  1.9517e-21  3.1017e-19  2.5118e-21  3.2784e-19  3.6204e-21  3.5926e-19
      5.10  1.2997e-21  3.2255e-19  1.2997e-21  3.2255e-19  1.2998e-21  3.2255e-19  1.3000e-21  3.2256e-19  1.3002e-21  3.2257e-19  1.3007e-21  3.2259e-19  1.3015e-21  3.2262e-19  1.3029e-21  3.2269e-19  1.3054e-21  3.2280e-19  1.3100e-21  3.2300e-19  1.3180e-21  3.2335e-19  1.3323e-21  3.2398e-19  1.3579e-21  3.2509e-19  1.4038e-21  3.2707e-19  1.4864e-21  3.3060e-19  1.6367e-21  3.3687e-19  1.9147e-21  3.4802e-19  2.4428e-21  3.6785e-19  3.4873e-21  4.0310e-19
      5.15  1.2996e-21  3.6190e-19  1.2996e-21  3.6190e-19  1.2997e-21  3.6191e-19  1.2998e-21  3.6191e-19  1.3001e-21  3.6193e-19  1.3005e-21  3.6195e-19  1.3012e-21  3.6199e-19  1.3026e-21  3.6206e-19  1.3050e-21  3.6218e-19  1.3093e-21  3.6241e-19  1.3168e-21  3.6280e-19  1.3304e-21  3.6351e-19  1.3546e-21  3.6476e-19  1.3979e-21  3.6698e-19  1.4759e-21  3.7094e-19  1.6177e-21  3.7797e-19  1.8801e-21  3.9049e-19  2.3780e-21  4.1273e-19  3.3623e-21  4.5229e-19
      5.20  1.2995e-21  4.0606e-19  1.2995e-21  4.0606e-19  1.2996e-21  4.0607e-19  1.2997e-21  4.0607e-19  1.2999e-21  4.0609e-19  1.3003e-21  4.0611e-19  1.3010e-21  4.0616e-19  1.3023e-21  4.0624e-19  1.3046e-21  4.0638e-19  1.3086e-21  4.0663e-19  1.3158e-21  4.0707e-19  1.3286e-21  4.0786e-19  1.3514e-21  4.0926e-19  1.3923e-21  4.1176e-19  1.4660e-21  4.1620e-19  1.5999e-21  4.2410e-19  1.8475e-21  4.3813e-19  2.3173e-21  4.6310e-19  3.2450e-21  5.0748e-19
      5.25  1.2994e-21  4.5561e-19  1.2994e-21  4.5561e-19  1.2995e-21  4.5561e-19  1.2996e-21  4.5562e-19  1.2998e-21  4.5564e-19  1.3002e-21  4.5567e-19  1.3008e-21  4.5572e-19  1.3021e-21  4.5581e-19  1.3042e-21  4.5596e-19  1.3080e-21  4.5624e-19  1.3148e-21  4.5674e-19  1.3269e-21  4.5763e-19  1.3484e-21  4.5920e-19  1.3871e-21  4.6200e-19  1.4567e-21  4.6699e-19  1.5833e-21  4.7584e-19  1.8171e-21  4.9160e-19  2.2604e-21  5.1961e-19  3.1350e-21  5.6941e-19
      5.30  1.2993e-21  5.1120e-19  1.2993e-21  5.1120e-19  1.2994e-21  5.1121e-19  1.2995e-21  5.1122e-19  1.2997e-21  5.1123e-19  1.3000e-21  5.1127e-19  1.3007e-21  5.1132e-19  1.3018e-21  5.1142e-19  1.3038e-21  5.1160e-19  1.3074e-21  5.1191e-19  1.3138e-21  5.1247e-19  1.3253e-21  5.1347e-19  1.3457e-21  5.1523e-19  1.3822e-21  5.1838e-19  1.4480e-21  5.2397e-19  1.5676e-21  5.3391e-19  1.7885e-21  5.5158e-19  2.2070e-21  5.8301e-19  3.0319e-21  6.3890e-19
      5.35  1.2992e-21  5.7357e-19  1.2992e-21  5.7358e-19  1.2993e-21  5.7358e-19  1.2994e-21  5.7360e-19  1.2996e-21  5.7361e-19  1.2999e-21  5.7365e-19  1.3005e-21  5.7371e-19  1.3016e-21  5.7382e-19  1.3035e-21  5.7402e-19  1.3069e-21  5.7438e-19  1.3130e-21  5.7500e-19  1.3238e-21  5.7612e-19  1.3431e-21  5.7810e-19  1.3777e-21  5.8163e-19  1.4399e-21  5.8790e-19  1.5530e-21  5.9905e-19  1.7618e-21  6.1889e-19  2.1570e-21  6.5415e-19  2.9353e-21  7.1686e-19
      5.40  1.2991e-21  6.4356e-19  1.2991e-21  6.4356e-19  1.2992e-21  6.4357e-19  1.2993e-21  6.4358e-19  1.2995e-21  6.4361e-19  1.2998e-21  6.4365e-19  1.3004e-21  6.4372e-19  1.3014e-21  6.4384e-19  1.3032e-21  6.4406e-19  1.3064e-21  6.4446e-19  1.3122e-21  6.4516e-19  1.3224e-21  6.4641e-19  1.3407e-21  6.4864e-19  1.3734e-21  6.5260e-19  1.4323e-21  6.5964e-19  1.5393e-21  6.7215e-19  1.7368e-21  6.9440e-19  2.1102e-21  7.3398e-19  2.8447e-21  8.0434e-19
      5.45  1.2990e-21  7.2209e-19  1.2990e-21  7.2209e-19  1.2991e-21  7.2210e-19  1.2992e-21  7.2211e-19  1.2994e-21  7.2214e-19  1.2997e-21  7.2218e-19  1.3002e-21  7.2226e-19  1.3012e-21  7.2240e-19  1.3029e-21  7.2265e-19  1.3060e-21  7.2310e-19  1.3114e-21  7.2389e-19  1.3211e-21  7.2529e-19  1.3384e-21  7.2779e-19  1.3694e-21  7.3223e-19  1.4252e-21  7.4012e-19  1.5265e-21  7.5417e-19  1.7134e-21  7.7914e-19  2.0664e-21  8.2354e-19  2.7600e-21  9.0249e-19
      5.50  1.2989e-21  8.1019e-19  1.2990e-21  8.1020e-19  1.2990e-21  8.1021e-19  1.2991e-21  8.1022e-19  1.2993e-21  8.1025e-19  1.2996e-21  8.1030e-19  1.3001e-21  8.1039e-19  1.3010e-21  8.1055e-19  1.3026e-21  8.1083e-19  1.3055e-21  8.1133e-19  1.3107e-21  8.1221e-19  1.3199e-21  8.1379e-19  1.3363e-21  8.1659e-19  1.3657e-21  8.2157e-19  1.4186e-21  8.3043e-19  1.5146e-21  8.4619e-19  1.6915e-21  8.7421e-19  2.0255e-21  9.2403e-19  2.6807e-21  1.0126e-18
      5.55  1.2989e-21  9.0905e-19  1.2989e-21  9.0906e-19  1.2990e-21  9.0907e-19  1.2990e-21  9.0909e-19  1.2992e-21  9.0912e-19  1.2995e-21  9.0917e-19  1.3000e-21  9.0927e-19  1.3008e-21  9.0945e-19  1.3024e-21  9.0976e-19  1.3051e-21  9.1032e-19  1.3100e-21  9.1132e-19  1.3187e-21  9.1308e-19  1.3343e-21  9.1623e-19  1.3622e-21  9.2182e-19  1.4124e-21  9.3176e-19  1.5034e-21  9.4944e-19  1.6710e-21  9.8088e-19  1.9872e-21  1.0368e-18  2.6066e-21  1.1362e-18
      5.60  1.2988e-21  1.0200e-18  1.2988e-21  1.0200e-18  1.2989e-21  1.0200e-18  1.2990e-21  1.0200e-18  1.2991e-21  1.0200e-18  1.2994e-21  1.0201e-18  1.2998e-21  1.0202e-18  1.3007e-21  1.0204e-18  1.3021e-21  1.0208e-18  1.3048e-21  1.0214e-18  1.3094e-21  1.0225e-18  1.3177e-21  1.0245e-18  1.3325e-21  1.0280e-18  1.3590e-21  1.0343e-18  1.4066e-21  1.0455e-18  1.4930e-21  1.0653e-18  1.6519e-21  1.1006e-18  1.9514e-21  1.1633e-18  2.5372e-21  1.2748e-18
      5.65  1.2988e-21  1.1444e-18  1.2988e-21  1.1444e-18  1.2988e-21  1.1444e-18  1.2989e-21  1.1445e-18  1.2991e-21  1.1445e-18  1.2993e-21  1.1446e-18  1.2997e-21  1.1447e-18  1.3005e-21  1.1449e-18  1.3019e-21  1.1453e-18  1.3044e-21  1.1460e-18  1.3088e-21  1.1473e-18  1.3167e-21  1.1495e-18  1.3308e-21  1.1535e-18  1.3559e-21  1.1605e-18  1.4012e-21  1.1730e-18  1.4832e-21  1.1953e-18  1.6341e-21  1.2349e-18  1.9180e-21  1.3052e-18  2.4725e-21  1.4304e-18
      5.70  1.2987e-21  1.2841e-18  1.2987e-21  1.2841e-18  1.2988e-21  1.2841e-18  1.2989e-21  1.2841e-18  1.2990e-21  1.2842e-18  1.2992e-21  1.2842e-18  1.2996e-21  1.2844e-18  1.3004e-21  1.2846e-18  1.3017e-21  1.2851e-18  1.3041e-21  1.2859e-18  1.3083e-21  1.2873e-18  1.3158e-21  1.2898e-18  1.3292e-21  1.2942e-18  1.3531e-21  1.3021e-18  1.3961e-21  1.3162e-18  1.4741e-21  1.3411e-18  1.6174e-21  1.3855e-18  1.8868e-21  1.4645e-18  2.4120e-21  1.6049e-18
      5.75  1.2987e-21  1.4407e-18  1.2987e-21  1.4408e-18  1.2987e-21  1.4408e-18  1.2988e-21  1.4408e-18  1.2989e-21  1.4409e-18  1.2992e-21  1.4409e-18  1.2996e-21  1.4411e-18  1.3003e-21  1.4414e-18  1.3015e-21  1.4419e-18  1.3038e-21  1.4428e-18  1.3078e-21  1.4443e-18  1.3149e-21  1.4471e-18  1.3277e-21  1.4521e-18  1.3505e-21  1.4610e-18  1.3914e-21  1.4767e-18  1.4656e-21  1.5048e-18  1.6018e-21  1.5546e-18  1.8577e-21  1.6432e-18  2.3555e-21  1.8008e-18
      5.80  1.2986e-21  1.6165e-18  1.2987e-21  1.6166e-18  1.2987e-21  1.6166e-18  1.2988e-21  1.6166e-18  1.2989e-21  1.6167e-18  1.2991e-21  1.6168e-18  1.2995e-21  1.6169e-18  1.3002e-21  1.6173e-18  1.3014e-21  1.6178e-18  1.3035e-21  1.6188e-18  1.3073e-21  1.6206e-18  1.3141e-21  1.6237e-18  1.3263e-21  1.6293e-18  1.3480e-21  1.6393e-18  1.3870e-21  1.6569e-18  1.4577e-21  1.6884e-18  1.5873e-21  1.7443e-18  1.8305e-21  1.8437e-18  2.3028e-21  2.0205e-18
      5.85  1.2986e-21  1.8138e-18  1.2986e-21  1.8138e-18  1.2987e-21  1.8138e-18  1.2987e-21  1.8139e-18  1.2988e-21  1.8139e-18  1.2990e-21  1.8140e-18  1.2994e-21  1.8142e-18  1.3001e-21  1.8146e-18  1.3012e-21  1.8152e-18  1.3033e-21  1.8163e-18  1.3069e-21  1.8183e-18  1.3134e-21  1.8218e-18  1.3250e-21  1.8281e-18  1.3457e-21  1.8393e-18  1.3829e-21  1.8591e-18  1.4503e-21  1.8944e-18  1.5738e-21  1.9571e-18  1.8052e-21  2.0687e-18  2.2536e-21  2.2671e-18
      5.90  1.2986e-21  2.0351e-18  1.2986e-21  2.0351e-18  1.2986e-21  2.0351e-18  1.2987e-21  2.0352e-18  1.2988e-21  2.0353e-18  1.2990e-21  2.0354e-18  1.2993e-21  2.0356e-18  1.3000e-21  2.0360e-18  1.3011e-21  2.0367e-18  1.3030e-21  2.0380e-18  1.3065e-21  2.0402e-18  1.3127e-21  2.0441e-18  1.3238e-21  2.0512e-18  1.3436e-21  2.0637e-18  1.3791e-21  2.0860e-18  1.4434e-21  2.1256e-18  1.5612e-21  2.1959e-18  1.7816e-21  2.3211e-18  2.2078e-21  2.5437e-18
      5.95  1.2985e-21  2.2834e-18  1.2986e-21  2.2834e-18  1.2986e-21  2.2835e-18  1.2986e-21  2.2835e-18  1.2988e-21  2.2836e-18  1.2989e-21  2.2837e-18  1.2993e-21  2.2840e-18  1.2999e-21  2.2844e-18  1.3009e-21  2.2852e-18  1.3028e-21  2.2866e-18  1.3061e-21  2.2891e-18  1.3121e-21  2.2936e-18  1.3226e-21  2.3015e-18  1.3416e-21  2.3155e-18  1.3756e-21  2.3405e-18  1.4370e-21  2.3849e-18  1.5495e-21  2.4639e-18  1.7596e-21  2.6044e-18  2.1650e-21  2.8541e-18
      6.00  1.2985e-21  2.5621e-18  1.2985e-21  2.5621e-18  1.2986e-21  2.5621e-18  1.2986e-21  2.5621e-18  1.2987e-21  2.5622e-18  1.2989e-21  2.5624e-18  1.2992e-21  2.5627e-18  1.2998e-21  2.5632e-18  1.3008e-21  2.5641e-18  1.3026e-21  2.5656e-18  1.3058e-21  2.5684e-18  1.3115e-21  2.5734e-18  1.3216e-21  2.5823e-18  1.3397e-21  2.5980e-18  1.3723e-21  2.6261e-18  1.4310e-21  2.6759e-18  1.5385e-21  2.7645e-18  1.7391e-21  2.9221e-18  2.1252e-21  3.2024e-18
      6.05  1.2985e-21  2.8747e-18  1.2985e-21  2.8747e-18  1.2985e-21  2.8747e-18  1.2986e-21  2.8748e-18  1.2987e-21  2.8749e-18  1.2989e-21  2.8751e-18  1.2992e-21  2.8754e-18  1.2997e-21  2.8759e-18  1.3007e-21  2.8769e-18  1.3024e-21  2.8787e-18  1.3055e-21  2.8818e-18  1.3109e-21  2.8874e-18  1.3206e-21  2.8974e-18  1.3380e-21  2.9151e-18  1.3692e-21  2.9465e-18  1.4255e-21  3.0024e-18  1.5283e-21  3.1019e-18  1.7200e-21  3.2787e-18  2.0881e-21  3.5932e-18
      6.10  1.2985e-21  3.2254e-18  1.2985e-21  3.2255e-18  1.2985e-21  3.2255e-18  1.2986e-21  3.2256e-18  1.2987e-21  3.2257e-18  1.2988e-21  3.2259e-18  1.2991e-21  3.2262e-18  1.2996e-21  3.2268e-18  1.3006e-21  3.2280e-18  1.3022e-21  3.2299e-18  1.3052e-21  3.2335e-18  1.3104e-21  3.2397e-18  1.3197e-21  3.2509e-18  1.3364e-21  3.2707e-18  1.3663e-21  3.3060e-18  1.4203e-21  3.3688e-18  1.5189e-21  3.4804e-18  1.7022e-21  3.6788e-18  2.0536e-21  4.0316e-18
      6.15  1.2984e-21  3.6190e-18  1.2985e-21  3.6190e-18  1.2985e-21  3.6191e-18  1.2985e-21  3.6191e-18  1.2986e-21  3.6193e-18  1.2988e-21  3.6195e-18  1.2991e-21  3.6199e-18  1.2996e-21  3.6206e-18  1.3005e-21  3.6218e-18  1.3021e-21  3.6241e-18  1.3049e-21  3.6280e-18  1.3099e-21  3.6351e-18  1.3189e-21  3.6476e-18  1.3349e-21  3.6698e-18  1.3636e-21  3.7094e-18  1.4155e-21  3.7798e-18  1.5101e-21  3.9050e-18  1.6857e-21  4.1277e-18  2.0215e-21  4.5236e-18
      6.20  1.2984e-21  4.0606e-18  1.2984e-21  4.0606e-18  1.2985e-21  4.0606e-18  1.2985e-21  4.0607e-18  1.2986e-21  4.0609e-18  1.2988e-21  4.0611e-18  1.2990e-21  4.0616e-18  1.2995e-21  4.0624e-18  1.3004e-21  4.0638e-18  1.3019e-21  4.0663e-18  1.3046e-21  4.0707e-18  1.3095e-21  4.0786e-18  1.3181e-21  4.0926e-18  1.3335e-21  4.1176e-18  1.3612e-21  4.1621e-18  1.4110e-21  4.2410e-18  1.5018e-21  4.3815e-18  1.6703e-21  4.6313e-18  1.9916e-21  5.0755e-18
      6.25  1.2984e-21  4.5560e-18  1.2984e-21  4.5561e-18  1.2985e-21  4.5561e-18  1.2985e-21  4.5562e-18  1.2986e-21  4.5564e-18  1.2987e-21  4.5566e-18  1.2990e-21  4.5571e-18  1.2995e-21  4.5580e-18  1.3003e-21  4.5596e-18  1.3018e-21  4.5624e-18  1.3044e-21  4.5674e-18  1.3090e-21  4.5763e-18  1.3174e-21  4.5920e-18  1.3322e-21  4.6201e-18  1.3589e-21  4.6699e-18  1.4069e-21  4.7585e-18  1.4942e-21  4.9162e-18  1.6560e-21  5.1964e-18  1.9638e-21  5.6949e-18
      6.30  1.2984e-21  5.1120e-18  1.2984e-21  5.1120e-18  1.2984e-21  5.1121e-18  1.2985e-21  5.1122e-18  1.2986e-21  5.1123e-18  1.2987e-21  5.1126e-18  1.2990e-21  5.1132e-18  1.2994e-21  5.1142e-18  1.3002e-21  5.1160e-18  1.3016e-21  5.1191e-18  1.3042e-21  5.1247e-18  1.3087e-21  5.1347e-18  1.3167e-21  5.1523e-18  1.3310e-21  5.1838e-18  1.3567e-21  5.2397e-18  1.4030e-21  5.3392e-18  1.4871e-21  5.5160e-18  1.6427e-21  5.8305e-18  1.9379e-21  6.3898e-18
      6.35  1.2984e-21  5.7357e-18  1.2984e-21  5.7358e-18  1.2984e-21  5.7358e-18  1.2985e-21  5.7359e-18  1.2985e-21  5.7361e-18  1.2987e-21  5.7365e-18  1.2989e-21  5.7371e-18  1.2994e-21  5.7382e-18  1.3001e-21  5.7402e-18  1.3015e-21  5.7437e-18  1.3040e-21  5.7500e-18  1.3083e-21  5.7612e-18  1.3161e-21  5.7810e-18  1.3299e-21  5.8163e-18  1.3547e-21  5.8791e-18  1.3994e-21  5.9906e-18  1.4805e-21  6.1891e-18  1.6303e-21  6.5420e-18  1.9139e-21  7.1694e-18
      6.40  1.2984e-21  6.4356e-18  1.2984e-21  6.4356e-18  1.2984e-21  6.4357e-18  1.2985e-21  6.4358e-18  1.2985e-21  6.4360e-18  1.2987e-21  6.4364e-18  1.2989e-21  6.4371e-18  1.2993e-21  6.4384e-18  1.3001e-21  6.4406e-18  1.3014e-21  6.4446e-18  1.3038e-21  6.4516e-18  1.3080e-21  6.4641e-18  1.3155e-21  6.4864e-18  1.3289e-21  6.5260e-18  1.3529e-21  6.5964e-18  1.3961e-21  6.7216e-18  1.4744e-21  6.9443e-18  1.6188e-21  7.3402e-18  1.8916e-21  8.0443e-18
      6.45  1.2984e-21  7.2208e-18  1.2984e-21  7.2209e-18  1.2984e-21  7.2210e-18  1.2984e-21  7.2211e-18  1.2985e-21  7.2214e-18  1.2986e-21  7.2218e-18  1.2989e-21  7.2226e-18  1.2993e-21  7.2240e-18  1.3000e-21  7.2265e-18  1.3013e-21  7.2309e-18  1.3036e-21  7.2388e-18  1.3077e-21  7.2529e-18  1.3149e-21  7.2779e-18  1.3279e-21  7.3223e-18  1.3512e-21  7.4013e-18  1.3930e-21  7.5418e-18  1.4687e-21  7.7916e-18  1.6082e-21  8.2359e-18  1.8708e-21  9.0258e-18
      6.50  1.2984e-21  8.1019e-18  1.2984e-21  8.1020e-18  1.2984e-21  8.1021e-18  1.2984e-21  8.1022e-18  1.2985e-21  8.1025e-18  1.2986e-21  8.1030e-18  1.2988e-21  8.1039e-18  1.2992e-21  8.1055e-18  1.2999e-21  8.1083e-18  1.3012e-21  8.1132e-18  1.3034e-21  8.1221e-18  1.3074e-21  8.1379e-18  1.3144e-21  8.1659e-18  1.3270e-21  8.2158e-18  1.3496e-21  8.3044e-18  1.3901e-21  8.4620e-18  1.4635e-21  8.7423e-18  1.5983e-21  9.2408e-18  1.8516e-21  1.0127e-17
      6.55  1.2983e-21  9.0905e-18  1.2984e-21  9.0906e-18  1.2984e-21  9.0907e-18  1.2984e-21  9.0908e-18  1.2985e-21  9.0911e-18  1.2986e-21  9.0917e-18  1.2988e-21  9.0927e-18  1.2992e-21  9.0945e-18  1.2999e-21  9.0976e-18  1.3011e-21  9.1032e-18  1.3033e-21  9.1132e-18  1.3071e-21  9.1308e-18  1.3140e-21  9.1623e-18  1.3262e-21  9.2182e-18  1.3481e-21  9.3177e-18  1.3874e-21  9.4945e-18  1.4586e-21  9.8091e-18  1.5891e-21  1.0368e-17  1.8337e-21  1.1363e-17
      6.60  1.2983e-21  1.0200e-17  1.2984e-21  1.0200e-17  1.2984e-21  1.0200e-17  1.2984e-21  1.0200e-17  1.2985e-21  1.0200e-17  1.2986e-21  1.0201e-17  1.2988e-21  1.0202e-17  1.2992e-21  1.0204e-17  1.2998e-21  1.0208e-17  1.3010e-21  1.0214e-17  1.3031e-21  1.0225e-17  1.3069e-21  1.0245e-17  1.3135e-21  1.0280e-17  1.3255e-21  1.0343e-17  1.3467e-21  1.0455e-17  1.3849e-21  1.0653e-17  1.4541e-21  1.1006e-17  1.5806e-21  1.1633e-17  1.8172e-21  1.2749e-17
      6.65  1.2983e-21  1.1444e-17  1.2983e-21  1.1444e-17  1.2984e-21  1.1444e-17  1.2984e-21  1.1445e-17  1.2985e-21  1.1445e-17  1.2986e-21  1.1446e-17  1.2988e-21  1.1447e-17  1.2992e-21  1.1449e-17  1.2998e-21  1.1453e-17  1.3010e-21  1.1460e-17  1.3030e-21  1.1473e-17  1.3067e-21  1.1495e-17  1.3132e-21  1.1535e-17  1.3247e-21  1.1605e-17  1.3455e-21  1.1730e-17  1.3827e-21  1.1953e-17  1.4498e-21  1.2349e-17  1.5727e-21  1.3053e-17  1.8018e-21  1.4305e-17
      6.70  1.2983e-21  1.2841e-17  1.2983e-21  1.2841e-17  1.2984e-21  1.2841e-17  1.2984e-21  1.2841e-17  1.2985e-21  1.2842e-17  1.2986e-21  1.2842e-17  1.2988e-21  1.2844e-17  1.2991e-21  1.2846e-17  1.2998e-21  1.2851e-17  1.3009e-21  1.2859e-17  1.3029e-21  1.2873e-17  1.3064e-21  1.2898e-17  1.3128e-21  1.2942e-17  1.3241e-21  1.3021e-17  1.3443e-21  1.3162e-17  1.3805e-21  1.3411e-17  1.4459e-21  1.3856e-17  1.5654e-21  1.4646e-17  1.7876e-21  1.6051e-17
      6.75  1.2983e-21  1.4407e-17  1.2983e-21  1.4408e-17  1.2984e-21  1.4408e-17  1.2984e-21  1.4408e-17  1.2984e-21  1.4408e-17  1.2986e-21  1.4409e-17  1.2988e-21  1.4411e-17  1.2991e-21  1.4414e-17  1.2997e-21  1.4419e-17  1.3008e-21  1.4428e-17  1.3028e-21  1.4443e-17  1.3062e-21  1.4471e-17  1.3124e-21  1.4521e-17  1.3235e-21  1.4610e-17  1.3432e-21  1.4768e-17  1.3786e-21  1.5048e-17  1.4423e-21  1.5546e-17  1.5586e-21  1.6433e-17  1.7744e-21  1.8009e-17
      6.80  1.2983e-21  1.6165e-17  1.2983e-21  1.6166e-17  1.2983e-21  1.6166e-17  1.2984e-21  1.6166e-17  1.2984e-21  1.6167e-17  1.2985e-21  1.6168e-17  1.2987e-21  1.6169e-17  1.2991e-21  1.6173e-17  1.2997e-21  1.6178e-17  1.3008e-21  1.6188e-17  1.3027e-21  1.6206e-17  1.3061e-21  1.6237e-17  1.3121e-21  1.6293e-17  1.3229e-21  1.6393e-17  1.3422e-21  1.6569e-17  1.3767e-21  1.6884e-17  1.4390e-21  1.7443e-17  1.5523e-21  1.8438e-17  1.7622e-21  2.0207e-17
      6.85  1.2983e-21  1.8138e-17  1.2983e-21  1.8138e-17  1.2983e-21  1.8138e-17  1.2984e-21  1.8139e-17  1.2984e-21  1.8139e-17  1.2985e-21  1.8140e-17  1.2987e-21  1.8142e-17  1.2991e-21  1.8146e-17  1.2997e-21  1.8152e-17  1.3007e-21  1.8163e-17  1.3026e-21  1.8183e-17  1.3059e-21  1.8218e-17  1.3118e-21  1.8281e-17  1.3224e-21  1.8393e-17  1.3413e-21  1.8591e-17  1.3751e-21  1.8944e-17  1.4359e-21  1.9572e-17  1.5465e-21  2.0688e-17  1.7508e-21  2.2672e-17
      6.90  1.2983e-21  2.0351e-17  1.2983e-21  2.0351e-17  1.2983e-21  2.0351e-17  1.2984e-21  2.0352e-17  1.2984e-21  2.0353e-17  1.2985e-21  2.0354e-17  1.2987e-21  2.0356e-17  1.2990e-21  2.0360e-17  1.2996e-21  2.0367e-17  1.3007e-21  2.0380e-17  1.3025e-21  2.0402e-17  1.3057e-21  2.0441e-17  1.3116e-21  2.0512e-17  1.3219e-21  2.0637e-17  1.3404e-21  2.0860e-17  1.3735e-21  2.1256e-17  1.4330e-21  2.1960e-17  1.5411e-21  2.3212e-17  1.7404e-21  2.5439e-17
      6.95  1.2983e-21  2.2834e-17  1.2983e-21  2.2834e-17  1.2983e-21  2.2835e-17  1.2984e-21  2.2835e-17  1.2984e-21  2.2836e-17  1.2985e-21  2.2837e-17  1.2987e-21  2.2840e-17  1.2990e-21  2.2844e-17  1.2996e-21  2.2852e-17  1.3006e-21  2.2866e-17  1.3024e-21  2.2891e-17  1.3056e-21  2.2936e-17  1.3113e-21  2.3015e-17  1.3215e-21  2.3155e-17  1.3396e-21  2.3405e-17  1.3720e-21  2.3849e-17  1.4304e-21  2.4639e-17  1.5362e-21  2.6044e-17  1.7307e-21  2.8543e-17
      7.00  1.2983e-21  2.5621e-17  1.2983e-21  2.5621e-17  1.2983e-21  2.5621e-17  1.2984e-21  2.5621e-17  1.2984e-21  2.5622e-17  1.2985e-21  2.5624e-17  1.2987e-21  2.5627e-17  1.2990e-21  2.5632e-17  1.2996e-21  2.5641e-17  1.3006e-21  2.5656e-17  1.3023e-21  2.5684e-17  1.3055e-21  2.5734e-17  1.3111e-21  2.5823e-17  1.3211e-21  2.5980e-17  1.3389e-21  2.6261e-17  1.3707e-21  2.6759e-17  1.4279e-21  2.7646e-17  1.5316e-21  2.9222e-17  1.7217e-21  3.2025e-17
      7.05  1.2983e-21  2.8747e-17  1.2983e-21  2.8747e-17  1.2983e-21  2.8747e-17  1.2984e-21  2.8748e-17  1.2984e-21  2.8749e-17  1.2985e-21  2.8750e-17  1.2987e-21  2.8754e-17  1.2990e-21  2.8759e-17  1.2995e-21  2.8769e-17  1.3005e-21  2.8787e-17  1.3023e-21  2.8818e-17  1.3054e-21  2.8874e-17  1.3109e-21  2.8974e-17  1.3207e-21  2.9151e-17  1.3382e-21  2.9465e-17  1.3695e-21  3.0024e-17  1.4257e-21  3.1019e-17  1.5273e-21  3.2788e-17  1.7135e-21  3.5933e-17
      7.10  1.2983e-21  3.2254e-17  1.2983e-21  3.2255e-17  1.2983e-21  3.2255e-17  1.2984e-21  3.2255e-17  1.2984e-21  3.2257e-17  1.2985e-21  3.2259e-17  1.2987e-21  3.2262e-17  1.2990e-21  3.2268e-17  1.2995e-21  3.2280e-17  1.3005e-21  3.2299e-17  1.3022e-21  3.2335e-17  1.3052e-21  3.2397e-17  1.3107e-21  3.2509e-17  1.3203e-21  3.2708e-17  1.3376e-21  3.3060e-17  1.3683e-21  3.3688e-17  1.4236e-21  3.4804e-17  1.5234e-21  3.6789e-17  1.7058e-21  4.0318e-17
      7.15  1.2983e-21  3.6190e-17  1.2983e-21  3.6190e-17  1.2983e-21  3.6191e-17  1.2984e-21  3.6191e-17  1.2984e-21  3.6192e-17  1.2985e-21  3.6195e-17  1.2987e-21  3.6199e-17  1.2990e-21  3.6206e-17  1.2995e-21  3.6218e-17  1.3005e-21  3.6241e-17  1.3021e-21  3.6280e-17  1.3051e-21  3.6351e-17  1.3105e-21  3.6476e-17  1.3200e-21  3.6698e-17  1.3370e-21  3.7094e-17  1.3673e-21  3.7799e-17  1.4217e-21  3.9051e-17  1.5198e-21  4.1278e-17  1.6988e-21  4.5237e-17
      7.20  1.2983e-21  4.0606e-17  1.2983e-21  4.0606e-17  1.2983e-21  4.0606e-17  1.2984e-21  4.0607e-17  1.2984e-21  4.0609e-17  1.2985e-21  4.0611e-17  1.2987e-21  4.0616e-17  1.2990e-21  4.0623e-17  1.2995e-21  4.0638e-17  1.3004e-21  4.0663e-17  1.3021e-21  4.0707e-17  1.3050e-21  4.0786e-17  1.3103e-21  4.0926e-17  1.3197e-21  4.1176e-17  1.3364e-21  4.1621e-17  1.3663e-21  4.2411e-17  1.4199e-21  4.3816e-17  1.5164e-21  4.6314e-17  1.6923e-21  5.0757e-17
      7.25  1.2983e-21  4.5560e-17  1.2983e-21  4.5561e-17  1.2983e-21  4.5561e-17  1.2983e-21  4.5562e-17  1.2984e-21  4.5564e-17  1.2985e-21  4.5566e-17  1.2987e-21  4.5571e-17  1.2990e-21  4.5580e-17  1.2995e-21  4.5596e-17  1.3004e-21  4.5624e-17  1.3020e-21  4.5674e-17  1.3050e-21  4.5763e-17  1.3102e-21  4.5920e-17  1.3194e-21  4.6201e-17  1.3359e-21  4.6699e-17  1.3654e-21  4.7586e-17  1.4182e-21  4.9162e-17  1.5134e-21  5.1965e-17  1.6863e-21  5.6950e-17
      7.30  1.2983e-21  5.1120e-17  1.2983e-21  5.1120e-17  1.2983e-21  5.1121e-17  1.2983e-21  5.1121e-17  1.2984e-21  5.1123e-17  1.2985e-21  5.1126e-17  1.2987e-21  5.1132e-17  1.2989e-21  5.1142e-17  1.2995e-21  5.1160e-17  1.3004e-21  5.1191e-17  1.3020e-21  5.1247e-17  1.3049e-21  5.1346e-17  1.3100e-21  5.1523e-17  1.3192e-21  5.1838e-17  1.3355e-21  5.2397e-17  1.3646e-21  5.3392e-17  1.4167e-21  5.5161e-17  1.5105e-21  5.8306e-17  1.6808e-21  6.3900e-17
      7.35  1.2983e-21  5.7357e-17  1.2983e-21  5.7358e-17  1.2983e-21  5.7358e-17  1.2983e-21  5.7359e-17  1.2984e-21  5.7361e-17  1.2985e-21  5.7365e-17  1.2986e-21  5.7371e-17  1.2989e-21  5.7382e-17  1.2994e-21  5.7402e-17  1.3003e-21  5.7437e-17  1.3020e-21  5.7500e-17  1.3048e-21  5.7612e-17  1.3099e-21  5.7810e-17  1.3189e-21  5.8163e-17  1.3351e-21  5.8791e-17  1.3639e-21  5.9907e-17  1.4153e-21  6.1891e-17  1.5079e-21  6.5421e-17  1.6757e-21  7.1696e-17
      7.40  1.2983e-21  6.4356e-17  1.2983e-21  6.4356e-17  1.2983e-21  6.4357e-17  1.2983e-21  6.4358e-17  1.2984e-21  6.4360e-17  1.2985e-21  6.4364e-17  1.2986e-21  6.4371e-17  1.2989e-21  6.4384e-17  1.2994e-21  6.4406e-17  1.3003e-21  6.4446e-17  1.3019e-21  6.4516e-17  1.3047e-21  6.4641e-17  1.3098e-21  6.4864e-17  1.3187e-21  6.5260e-17  1.3347e-21  6.5964e-17  1.3632e-21  6.7216e-17  1.4141e-21  6.9443e-17  1.5055e-21  7.3403e-17  1.6710e-21  8.0445e-17
      7.45  1.2983e-21  7.2208e-17  1.2983e-21  7.2209e-17  1.2983e-21  7.2210e-17  1.2983e-21  7.2211e-17  1.2984e-21  7.2214e-17  1.2985e-21  7.2218e-17  1.2986e-21  7.2226e-17  1.2989e-21  7.2240e-17  1.2994e-21  7.2265e-17  1.3003e-21  7.2309e-17  1.3019e-21  7.2388e-17  1.3047e-21  7.2529e-17  1.3097e-21  7.2779e-17  1.3185e-21  7.3223e-17  1.3343e-21  7.4013e-17  1.3625e-21  7.5418e-17  1.4129e-21  7.7917e-17  1.5033e-21  8.2360e-17  1.6667e-21  9.0261e-17
      7.50  1.2983e-21  8.1019e-17  1.2983e-21  8.1020e-17  1.2983e-21  8.1021e-17  1.2983e-21  8.1022e-17  1.2984e-21  8.1025e-17  1.2985e-21  8.1030e-17  1.2986e-21  8.1039e-17  1.2989e-21  8.1055e-17  1.2994e-21  8.1083e-17  1.3003e-21  8.1132e-17  1.3018e-21  8.1221e-17  1.3046e-21  8.1379e-17  1.3096e-21  8.1659e-17  1.3184e-21  8.2158e-17  1.3340e-21  8.3044e-17  1.3619e-21  8.4621e-17  1.4118e-21  8.7424e-17  1.5013e-21  9.2409e-17  1.6627e-21  1.0127e-16
      7.55  1.2983e-21  9.0905e-17  1.2983e-21  9.0906e-17  1.2983e-21  9.0907e-17  1.2983e-21  9.0908e-17  1.2984e-21  9.0911e-17  1.2985e-21  9.0917e-17  1.2986e-21  9.0927e-17  1.2989e-21  9.0945e-17  1.2994e-21  9.0976e-17  1.3003e-21  9.1032e-17  1.3018e-21  9.1132e-17  1.3046e-21  9.1308e-17  1.3095e-21  9.1623e-17  1.3182e-21  9.2182e-17  1.3337e-21  9.3177e-17  1.3614e-21  9.4946e-17  1.4108e-21  9.8091e-17  1.4994e-21  1.0368e-16  1.6591e-21  1.1363e-16
      7.60  1.2983e-21  1.0200e-16  1.2983e-21  1.0200e-16  1.2983e-21  1.0200e-16  1.2983e-21  1.0200e-16  1.2984e-21  1.0200e-16  1.2985e-21  1.0201e-16  1.2986e-21  1.0202e-16  1.2989e-21  1.0204e-16  1.2994e-21  1.0208e-16  1.3003e-21  1.0214e-16  1.3018e-21  1.0225e-16  1.3045e-21  1.0245e-16  1.3094e-21  1.0280e-16  1.3180e-21  1.0343e-16  1.3334e-21  1.0455e-16  1.3609e-21  1.0653e-16  1.4099e-21  1.1006e-16  1.4977e-21  1.1634e-16  1.6557e-21  1.2750e-16
      7.65  1.2983e-21  1.1444e-16  1.2983e-21  1.1444e-16  1.2983e-21  1.1444e-16  1.2983e-21  1.1445e-16  1.2984e-21  1.1445e-16  1.2985e-21  1.1446e-16  1.2986e-21  1.1447e-16  1.2989e-21  1.1449e-16  1.2994e-21  1.1453e-16  1.3002e-21  1.1460e-16  1.3018e-21  1.1473e-16  1.3045e-21  1.1495e-16  1.3093e-21  1.1535e-16  1.3179e-21  1.1605e-16  1.3332e-21  1.1730e-16  1.3604e-21  1.1953e-16  1.4091e-21  1.2349e-16  1.4961e-21  1.3053e-16  1.6527e-21  1.4305e-16
      7.70  1.2983e-21  1.2841e-16  1.2983e-21  1.2841e-16  1.2983e-21  1.2841e-16  1.2983e-21  1.2841e-16  1.2984e-21  1.2842e-16  1.2985e-21  1.2842e-16  1.2986e-21  1.2844e-16  1.2989e-21  1.2846e-16  1.2994e-21  1.2851e-16  1.3002e-21  1.2859e-16  1.3017e-21  1.2873e-16  1.3044e-21  1.2898e-16  1.3092e-21  1.2942e-16  1.3178e-21  1.3021e-16  1.3330e-21  1.3162e-16  1.3600e-21  1.3411e-16  1.4083e-21  1.3856e-16  1.4947e-21  1.4646e-16  1.6499e-21  1.6051e-16
      7.75  1.2983e-21  1.4407e-16  1.2983e-21  1.4408e-16  1.2983e-21  1.4408e-16  1.2983e-21  1.4408e-16  1.2984e-21  1.4408e-16  1.2985e-21  1.4409e-16  1.2986e-21  1.4411e-16  1.2989e-21  1.4414e-16  1.2994e-21  1.4419e-16  1.3002e-21  1.4428e-16  1.3017e-21  1.4443e-16  1.3044e-21  1.4471e-16  1.3092e-21  1.4521e-16  1.3176e-21  1.4610e-16  1.3327e-21  1.4768e-16  1.3596e-21  1.5048e-16  1.4076e-21  1.5546e-16  1.4933e-21  1.6433e-16  1.6473e-21  1.8009e-16
      7.80  1.2983e-21  1.6165e-16  1.2983e-21  1.6166e-16  1.2983e-21  1.6166e-16  1.2983e-21  1.6166e-16  1.2984e-21  1.6167e-16  1.2985e-21  1.6168e-16  1.2986e-21  1.6169e-16  1.2989e-21  1.6173e-16  1.2994e-21  1.6178e-16  1.3002e-21  1.6188e-16  1.3017e-21  1.6206e-16  1.3044e-21  1.6237e-16  1.3091e-21  1.6293e-16  1.3175e-21  1.6393e-16  1.3325e-21  1.6569e-16  1.3593e-21  1.6884e-16  1.4070e-21  1.7443e-16  1.4921e-21  1.8438e-16  1.6449e-21  2.0207e-16
      7.85  1.2983e-21  1.8138e-16  1.2983e-21  1.8138e-16  1.2983e-21  1.8138e-16  1.2983e-21  1.8139e-16  1.2984e-21  1.8139e-16  1.2985e-21  1.8140e-16  1.2986e-21  1.8142e-16  1.2989e-21  1.8146e-16  1.2994e-21  1.8152e-16  1.3002e-21  1.8163e-16  1.3017e-21  1.8183e-16  1.3043e-21  1.8218e-16  1.3090e-21  1.8281e-16  1.3174e-21  1.8393e-16  1.3324e-21  1.8591e-16  1.3590e-21  1.8944e-16  1.4064e-21  1.9572e-16  1.4910e-21  2.0688e-16  1.6428e-21  2.2673e-16
      7.90  1.2983e-21  2.0351e-16  1.2983e-21  2.0351e-16  1.2983e-21  2.0351e-16  1.2983e-21  2.0352e-16  1.2984e-21  2.0353e-16  1.2985e-21  2.0354e-16  1.2986e-21  2.0356e-16  1.2989e-21  2.0360e-16  1.2993e-21  2.0367e-16  1.3002e-21  2.0380e-16  1.3017e-21  2.0402e-16  1.3043e-21  2.0441e-16  1.3090e-21  2.0512e-16  1.3173e-21  2.0637e-16  1.3322e-21  2.0860e-16  1.3587e-21  2.1256e-16  1.4058e-21  2.1960e-16  1.4900e-21  2.3212e-16  1.6408e-21  2.5439e-16
      7.95  1.2983e-21  2.2834e-16  1.2983e-21  2.2834e-16  1.2983e-21  2.2835e-16  1.2983e-21  2.2835e-16  1.2984e-21  2.2836e-16  1.2985e-21  2.2837e-16  1.2986e-21  2.2840e-16  1.2989e-21  2.2844e-16  1.2993e-21  2.2852e-16  1.3002e-21  2.2866e-16  1.3017e-21  2.2891e-16  1.3043e-21  2.2936e-16  1.3090e-21  2.3015e-16  1.3173e-21  2.3155e-16  1.3321e-21  2.3405e-16  1.3584e-21  2.3849e-16  1.4053e-21  2.4639e-16  1.4891e-21  2.6044e-16  1.6391e-21  2.8543e-16
      8.00  1.2983e-21  2.5621e-16  1.2983e-21  2.5621e-16  1.2983e-21  2.5621e-16  1.2983e-21  2.5621e-16  1.2984e-21  2.5622e-16  1.2985e-21  2.5624e-16  1.2986e-21  2.5627e-16  1.2989e-21  2.5632e-16  1.2993e-21  2.5641e-16  1.3002e-21  2.5656e-16  1.3016e-21  2.5684e-16  1.3043e-21  2.5734e-16  1.3089e-21  2.5823e-16  1.3172e-21  2.5981e-16  1.3319e-21  2.6261e-16  1.3582e-21  2.6759e-16  1.4049e-21  2.7646e-16  1.4883e-21  2.9222e-16  1.6374e-21  3.2026e-16
      8.05  1.2983e-21  2.8747e-16  1.2983e-21  2.8747e-16  1.2983e-21  2.8747e-16  1.2983e-21  2.8748e-16  1.2984e-21  2.8749e-16  1.2985e-21  2.8750e-16  1.2986e-21  2.8754e-16  1.2989e-21  2.8759e-16  1.2993e-21  2.8769e-16  1.3002e-21  2.8787e-16  1.3016e-21  2.8818e-16  1.3042e-21  2.8874e-16  1.3089e-21  2.8974e-16  1.3171e-21  2.9151e-16  1.3318e-21  2.9465e-16  1.3579e-21  3.0025e-16  1.4045e-21  3.1019e-16  1.4875e-21  3.2788e-16  1.6359e-21  3.5934e-16
      8.10  1.2983e-21  3.2254e-16  1.2983e-21  3.2254e-16  1.2983e-21  3.2255e-16  1.2983e-21  3.2255e-16  1.2984e-21  3.2257e-16  1.2985e-21  3.2259e-16  1.2986e-21  3.2262e-16  1.2989e-21  3.2268e-16  1.2993e-21  3.2280e-16  1.3002e-21  3.2299e-16  1.3016e-21  3.2335e-16  1.3042e-21  3.2397e-16  1.3088e-21  3.2509e-16  1.3171e-21  3.2708e-16  1.3317e-21  3.3060e-16  1.3577e-21  3.3688e-16  1.4041e-21  3.4804e-16  1.4868e-21  3.6789e-16  1.6346e-21  4.0318e-16
      8.15  1.2983e-21  3.6190e-16  1.2983e-21  3.6190e-16  1.2983e-21  3.6191e-16  1.2983e-21  3.6191e-16  1.2984e-21  3.6192e-16  1.2985e-21  3.6195e-16  1.2986e-21  3.6199e-16  1.2989e-21  3.6206e-16  1.2993e-21  3.6218e-16  1.3001e-21  3.6241e-16  1.3016e-21  3.6280e-16  1.3042e-21  3.6351e-16  1.3088e-21  3.6476e-16  1.3170e-21  3.6698e-16  1.3316e-21  3.7094e-16  1.3576e-21  3.7799e-16  1.4038e-21  3.9051e-16  1.4862e-21  4.1278e-16  1.6334e-21  4.5238e-16
      8.20  1.2983e-21  4.0606e-16  1.2983e-21  4.0606e-16  1.2983e-21  4.0606e-16  1.2983e-21  4.0607e-16  1.2984e-21  4.0609e-16  1.2985e-21  4.0611e-16  1.2986e-21  4.0616e-16  1.2989e-21  4.0623e-16  1.2993e-21  4.0638e-16  1.3001e-21  4.0663e-16  1.3016e-21  4.0707e-16  1.3042e-21  4.0786e-16  1.3088e-21  4.0926e-16  1.3170e-21  4.1176e-16  1.3315e-21  4.1621e-16  1.3574e-21  4.2411e-16  1.4035e-21  4.3816e-16  1.4856e-21  4.6314e-16  1.6323e-21  5.0757e-16
      8.25  1.2983e-21  4.5560e-16  1.2983e-21  4.5561e-16  1.2983e-21  4.5561e-16  1.2983e-21  4.5562e-16  1.2984e-21  4.5564e-16  1.2985e-21  4.5566e-16  1.2986e-21  4.5571e-16  1.2989e-21  4.5580e-16  1.2993e-21  4.5596e-16  1.3001e-21  4.5624e-16  1.3016e-21  4.5674e-16  1.3042e-21  4.5763e-16  1.3088e-21  4.5920e-16  1.3169e-21  4.6201e-16  1.3314e-21  4.6699e-16  1.3572e-21  4.7586e-16  1.4032e-21  4.9162e-16  1.4851e-21  5.1966e-16  1.6313e-21  5.6951e-16
      8.30  1.2983e-21  5.1120e-16  1.2983e-21  5.1120e-16  1.2983e-21  5.1120e-16  1.2983e-21  5.1121e-16  1.2984e-21  5.1123e-16  1.2985e-21  5.1126e-16  1.2986e-21  5.1132e-16  1.2989e-21  5.1142e-16  1.2993e-21  5.1160e-16  1.3001e-21  5.1191e-16  1.3016e-21  5.1247e-16  1.3042e-21  5.1346e-16  1.3087e-21  5.1523e-16  1.3169e-21  5.1838e-16  1.3313e-21  5.2397e-16  1.3571e-21  5.3392e-16  1.4030e-21  5.5161e-16  1.4847e-21  5.8306e-16  1.6304e-21  6.3900e-16
      8.35  1.2983e-21  5.7357e-16  1.2983e-21  5.7358e-16  1.2983e-21  5.7358e-16  1.2983e-21  5.7359e-16  1.2984e-21  5.7361e-16  1.2985e-21  5.7365e-16  1.2986e-21  5.7371e-16  1.2989e-21  5.7382e-16  1.2993e-21  5.7402e-16  1.3001e-21  5.7437e-16  1.3016e-21  5.7500e-16  1.3041e-21  5.7612e-16  1.3087e-21  5.7810e-16  1.3168e-21  5.8163e-16  1.3313e-21  5.8791e-16  1.3570e-21  5.9907e-16  1.4027e-21  6.1891e-16  1.4842e-21  6.5421e-16  1.6295e-21  7.1697e-16
      8.40  1.2983e-21  6.4356e-16  1.2983e-21  6.4356e-16  1.2983e-21  6.4357e-16  1.2983e-21  6.4358e-16  1.2984e-21  6.4360e-16  1.2985e-21  6.4364e-16  1.2986e-21  6.4371e-16  1.2989e-21  6.4384e-16  1.2993e-21  6.4406e-16  1.3001e-21  6.4446e-16  1.3016e-21  6.4516e-16  1.3041e-21  6.4641e-16  1.3087e-21  6.4864e-16  1.3168e-21  6.5260e-16  1.3312e-21  6.5964e-16  1.3569e-21  6.7217e-16  1.4025e-21  6.9443e-16  1.4839e-21  7.3403e-16  1.6288e-21  8.0445e-16
      8.45  1.2983e-21  7.2208e-16  1.2983e-21  7.2209e-16  1.2983e-21  7.2210e-16  1.2983e-21  7.2211e-16  1.2984e-21  7.2214e-16  1.2985e-21  7.2218e-16  1.2986e-21  7.2226e-16  1.2989e-21  7.2240e-16  1.2993e-21  7.2265e-16  1.3001e-21  7.2309e-16  1.3016e-21  7.2388e-16  1.3041e-21  7.2529e-16  1.3087e-21  7.2779e-16  1.3168e-21  7.3223e-16  1.3312e-21  7.4013e-16  1.3568e-21  7.5418e-16  1.4024e-21  7.7917e-16  1.4835e-21  8.2360e-16  1.6281e-21  9.0261e-16
      8.50  1.2983e-21  8.1019e-16  1.2983e-21  8.1020e-16  1.2983e-21  8.1021e-16  1.2983e-21  8.1022e-16  1.2984e-21  8.1025e-16  1.2985e-21  8.1030e-16  1.2986e-21  8.1039e-16  1.2989e-21  8.1055e-16  1.2993e-21  8.1083e-16  1.3001e-21  8.1132e-16  1.3016e-21  8.1221e-16  1.3041e-21  8.1379e-16  1.3087e-21  8.1659e-16  1.3167e-21  8.2158e-16  1.3311e-21  8.3044e-16  1.3567e-21  8.4621e-16  1.4022e-21  8.7424e-16  1.4832e-21  9.2409e-16  1.6276e-21  1.0127e-15
