# This was generated using Cloudy10 and the columns are ordered 
# as log10 of the fraction of the metallicity to the solar metallicity
# 'h_*_Z' and 'c_*_Z' stands for cooling and heating respectively 
# at * metalicity
#
# NOTE: This was generated separately from loop_coolingcurve_w_UV.py
#       using Output_metals_w_redshift.py.
#
# Redshift = 4.5
# hden = -1.5
#
#     temp   h_-3.00_Z   c_-3.00_Z   h_-2.75_Z   c_-2.75_Z   h_-2.50_Z   c_-2.50_Z   h_-2.25_Z   c_-2.25_Z   h_-2.00_Z   c_-2.00_Z   h_-1.75_Z   c_-1.75_Z   h_-1.50_Z   c_-1.50_Z   h_-1.25_Z   c_-1.25_Z   h_-1.00_Z   c_-1.00_Z   h_-0.75_Z   c_-0.75_Z   h_-0.50_Z   c_-0.50_Z   h_-0.25_Z   c_-0.25_Z    h_0.00_Z    c_0.00_Z    h_0.25_Z    c_0.25_Z    h_0.50_Z    c_0.50_Z    h_0.75_Z    c_0.75_Z    h_1.00_Z    c_1.00_Z    h_1.25_Z    c_1.25_Z    h_1.50_Z    c_1.50_Z 
      1.00  7.9352e-23  1.5275e-26  7.9352e-23  1.5276e-26  7.9353e-23  1.5276e-26  7.9355e-23  1.5277e-26  7.9358e-23  1.5279e-26  7.9363e-23  1.5282e-26  7.9372e-23  1.5288e-26  7.9389e-23  1.5299e-26  7.9418e-23  1.5318e-26  7.9471e-23  1.5352e-26  7.9564e-23  1.5412e-26  7.9730e-23  1.5519e-26  8.0026e-23  1.5709e-26  8.0551e-23  1.6047e-26  8.1485e-23  1.6650e-26  8.3146e-23  1.7727e-26  8.6103e-23  1.9653e-26  9.1367e-23  2.3117e-26  1.0075e-22  2.9396e-26
      1.05  7.7414e-23  1.6692e-26  7.7415e-23  1.6693e-26  7.7416e-23  1.6694e-26  7.7417e-23  1.6697e-26  7.7420e-23  1.6701e-26  7.7425e-23  1.6708e-26  7.7435e-23  1.6721e-26  7.7451e-23  1.6744e-26  7.7480e-23  1.6786e-26  7.7532e-23  1.6859e-26  7.7624e-23  1.6990e-26  7.7789e-23  1.7223e-26  7.8081e-23  1.7638e-26  7.8600e-23  1.8376e-26  7.9523e-23  1.9692e-26  8.1166e-23  2.2040e-26  8.4090e-23  2.6246e-26  8.9295e-23  3.3817e-26  9.8569e-23  4.7564e-26
      1.10  7.5464e-23  1.8224e-26  7.5465e-23  1.8226e-26  7.5466e-23  1.8229e-26  7.5467e-23  1.8233e-26  7.5470e-23  1.8242e-26  7.5475e-23  1.8257e-26  7.5485e-23  1.8284e-26  7.5501e-23  1.8333e-26  7.5530e-23  1.8419e-26  7.5581e-23  1.8571e-26  7.5672e-23  1.8843e-26  7.5834e-23  1.9326e-26  7.6123e-23  2.0186e-26  7.6636e-23  2.1717e-26  7.7549e-23  2.4446e-26  7.9173e-23  2.9320e-26  8.2062e-23  3.8053e-26  8.7205e-23  5.3783e-26  9.6369e-23  8.2386e-26
      1.15  7.3504e-23  1.9879e-26  7.3505e-23  1.9882e-26  7.3506e-23  1.9887e-26  7.3507e-23  1.9897e-26  7.3510e-23  1.9914e-26  7.3515e-23  1.9943e-26  7.3524e-23  1.9996e-26  7.3540e-23  2.0091e-26  7.3569e-23  2.0258e-26  7.3619e-23  2.0556e-26  7.3709e-23  2.1086e-26  7.3870e-23  2.2029e-26  7.4154e-23  2.3707e-26  7.4661e-23  2.6694e-26  7.5562e-23  3.2021e-26  7.7165e-23  4.1536e-26  8.0018e-23  5.8589e-26  8.5095e-23  8.9330e-26  9.4139e-23  1.4529e-25
      1.20  7.1536e-23  2.1860e-26  7.1536e-23  2.1866e-26  7.1537e-23  2.1875e-26  7.1539e-23  2.1892e-26  7.1542e-23  2.1923e-26  7.1547e-23  2.1978e-26  7.1556e-23  2.2075e-26  7.1571e-23  2.2247e-26  7.1600e-23  2.2554e-26  7.1650e-23  2.3100e-26  7.1738e-23  2.4071e-26  7.1896e-23  2.5799e-26  7.2177e-23  2.8874e-26  7.2677e-23  3.4350e-26  7.3566e-23  4.4114e-26  7.5147e-23  6.1557e-26  7.7960e-23  9.2831e-26  8.2968e-23  1.4924e-25  9.1885e-23  2.5204e-25
      1.25  6.9562e-23  2.4196e-26  6.9562e-23  2.4205e-26  6.9563e-23  2.4222e-26  6.9565e-23  2.4252e-26  6.9568e-23  2.4305e-26  6.9572e-23  2.4399e-26  6.9581e-23  2.4566e-26  6.9597e-23  2.4864e-26  6.9625e-23  2.5393e-26  6.9674e-23  2.6335e-26  6.9761e-23  2.8010e-26  6.9917e-23  3.0990e-26  7.0194e-23  3.6294e-26  7.0687e-23  4.5741e-26  7.1563e-23  6.2586e-26  7.3121e-23  9.2685e-26  7.5893e-23  1.4667e-25  8.0827e-23  2.4409e-25  8.9613e-23  4.2178e-25
      1.30  6.7584e-23  2.6691e-26  6.7585e-23  2.6706e-26  6.7586e-23  2.6733e-26  6.7587e-23  2.6782e-26  6.7590e-23  2.6868e-26  6.7595e-23  2.7022e-26  6.7603e-23  2.7295e-26  6.7619e-23  2.7780e-26  6.7646e-23  2.8643e-26  6.7695e-23  3.0178e-26  6.7781e-23  3.2908e-26  6.7934e-23  3.7765e-26  6.8207e-23  4.6411e-26  6.8692e-23  6.1810e-26  6.9555e-23  8.9271e-26  7.1090e-23  1.3835e-25  7.3820e-23  2.2639e-25  7.8678e-23  3.8536e-25  8.7327e-23  6.7555e-25
      1.35  6.5605e-23  2.9354e-26  6.5606e-23  2.9378e-26  6.5606e-23  2.9420e-26  6.5608e-23  2.9495e-26  6.5611e-23  2.9629e-26  6.5615e-23  2.9866e-26  6.5624e-23  3.0288e-26  6.5639e-23  3.1039e-26  6.5666e-23  3.2374e-26  6.5714e-23  3.4749e-26  6.5798e-23  3.8973e-26  6.5949e-23  4.6489e-26  6.6218e-23  5.9867e-26  6.6696e-23  8.3695e-26  6.7545e-23  1.2619e-25  6.9055e-23  2.0215e-25  7.1742e-23  3.3845e-25  7.6523e-23  5.8466e-25  8.5033e-23  1.0344e-24
      1.40  6.3627e-23  3.2196e-26  6.3627e-23  3.2231e-26  6.3628e-23  3.2294e-26  6.3629e-23  3.2404e-26  6.3632e-23  3.2602e-26  6.3637e-23  3.2952e-26  6.3645e-23  3.3575e-26  6.3660e-23  3.4683e-26  6.3686e-23  3.6653e-26  6.3733e-23  4.0158e-26  6.3817e-23  4.6391e-26  6.3965e-23  5.7482e-26  6.4230e-23  7.7224e-26  6.4700e-23  1.1239e-25  6.5535e-23  1.7511e-25  6.7021e-23  2.8724e-25  6.9664e-23  4.8848e-25  7.4366e-23  8.5215e-25  8.2733e-23  1.5170e-24
      1.45  6.1651e-23  3.5227e-26  6.1652e-23  3.5277e-26  6.1653e-23  3.5365e-26  6.1654e-23  3.5521e-26  6.1657e-23  3.5800e-26  6.1661e-23  3.6295e-26  6.1670e-23  3.7176e-26  6.1684e-23  3.8743e-26  6.1710e-23  4.1529e-26  6.1756e-23  4.6484e-26  6.1839e-23  5.5299e-26  6.1985e-23  7.0982e-26  6.2244e-23  9.8898e-26  6.2706e-23  1.4863e-25  6.3528e-23  2.3733e-25  6.4989e-23  3.9592e-25  6.7588e-23  6.8061e-25  7.2210e-23  1.1953e-24  8.0433e-23  2.1368e-24
      1.50  5.9682e-23  3.8457e-26  5.9682e-23  3.8524e-26  5.9683e-23  3.8644e-26  5.9684e-23  3.8857e-26  5.9687e-23  3.9236e-26  5.9692e-23  3.9910e-26  5.9700e-23  4.1109e-26  5.9714e-23  4.3241e-26  5.9740e-23  4.7032e-26  5.9785e-23  5.3775e-26  5.9866e-23  6.5770e-26  6.0009e-23  8.7112e-26  6.0265e-23  1.2510e-25  6.0719e-23  1.9278e-25  6.1526e-23  3.1350e-25  6.2962e-23  5.2937e-25  6.5516e-23  9.1697e-25  7.0057e-23  1.6179e-24  7.8132e-23  2.9009e-24
      1.55  5.7721e-23  4.1901e-26  5.7721e-23  4.1990e-26  5.7722e-23  4.2147e-26  5.7723e-23  4.2428e-26  5.7726e-23  4.2926e-26  5.7730e-23  4.3813e-26  5.7738e-23  4.5390e-26  5.7752e-23  4.8193e-26  5.7777e-23  5.3180e-26  5.7822e-23  6.2050e-26  5.7901e-23  7.7827e-26  5.8042e-23  1.0590e-25  5.8293e-23  1.5587e-25  5.8739e-23  2.4490e-25  5.9532e-23  4.0371e-25  6.0942e-23  6.8772e-25  6.3450e-23  1.1978e-24  6.7908e-23  2.1205e-24  7.5833e-23  3.8103e-24
      1.60  5.5770e-23  4.5565e-26  5.5770e-23  4.5678e-26  5.5771e-23  4.5879e-26  5.5772e-23  4.6237e-26  5.5775e-23  4.6874e-26  5.5779e-23  4.8005e-26  5.5787e-23  5.0018e-26  5.5801e-23  5.3597e-26  5.5825e-23  5.9961e-26  5.5869e-23  7.1282e-26  5.5947e-23  9.1420e-26  5.6085e-23  1.2725e-25  5.6332e-23  1.9104e-25  5.6769e-23  3.0467e-25  5.7547e-23  5.0740e-25  5.8931e-23  8.6998e-25  6.1391e-23  1.5212e-24  6.5763e-23  2.6998e-24  7.3533e-23  4.8592e-24
      1.65  5.3832e-23  4.9459e-26  5.3833e-23  4.9600e-26  5.3834e-23  4.9850e-26  5.3835e-23  5.0295e-26  5.3837e-23  5.1086e-26  5.3842e-23  5.2493e-26  5.3849e-23  5.4995e-26  5.3863e-23  5.9444e-26  5.3887e-23  6.7357e-26  5.3930e-23  8.1432e-26  5.4006e-23  1.0647e-25  5.4142e-23  1.5102e-25  5.4383e-23  2.3032e-25  5.4812e-23  3.7161e-25  5.5574e-23  6.2369e-25  5.6930e-23  1.0746e-24  5.9339e-23  1.8846e-24  6.3622e-23  3.3507e-24  7.1227e-23  6.0385e-24
      1.70  5.1910e-23  5.3593e-26  5.1911e-23  5.3764e-26  5.1912e-23  5.4068e-26  5.1913e-23  5.4609e-26  5.1915e-23  5.5570e-26  5.1919e-23  5.7281e-26  5.1927e-23  6.0322e-26  5.1940e-23  6.5732e-26  5.1964e-23  7.5352e-26  5.2006e-23  9.2462e-26  5.2080e-23  1.2290e-25  5.2213e-23  1.7706e-25  5.2449e-23  2.7347e-25  5.2868e-23  4.4525e-25  5.3614e-23  7.5173e-25  5.4939e-23  1.3000e-24  5.7295e-23  2.2850e-24  6.1480e-23  4.0685e-24  6.8910e-23  7.3392e-24
      1.75  5.0007e-23  5.7976e-26  5.0007e-23  5.8180e-26  5.0008e-23  5.8543e-26  5.0009e-23  5.9189e-26  5.0012e-23  6.0337e-26  5.0016e-23  6.2378e-26  5.0023e-23  6.6008e-26  5.0036e-23  7.2463e-26  5.0059e-23  8.3944e-26  5.0100e-23  1.0436e-25  5.0173e-23  1.4069e-25  5.0302e-23  2.0532e-25  5.0532e-23  3.2039e-25  5.0941e-23  5.2539e-25  5.1668e-23  8.9118e-25  5.2961e-23  1.5456e-24  5.5257e-23  2.7214e-24  5.9337e-23  4.8509e-24  6.6574e-23  8.7576e-24
      1.80  4.8124e-23  6.2635e-26  4.8124e-23  6.2875e-26  4.8125e-23  6.3302e-26  4.8126e-23  6.4061e-26  4.8129e-23  6.5411e-26  4.8133e-23  6.7812e-26  4.8140e-23  7.2081e-26  4.8152e-23  7.9673e-26  4.8175e-23  9.3177e-26  4.8214e-23  1.1719e-25  4.8285e-23  1.5992e-25  4.8411e-23  2.3594e-25  4.8634e-23  3.7127e-25  4.9032e-23  6.1240e-25  4.9739e-23  1.0426e-24  5.0995e-23  1.8124e-24  5.3226e-23  3.1957e-24  5.7188e-23  5.7013e-24  6.4214e-23  1.0299e-23
      1.85  4.6264e-23  6.7567e-26  4.6265e-23  6.7846e-26  4.6265e-23  6.8343e-26  4.6267e-23  6.9226e-26  4.6269e-23  7.0797e-26  4.6273e-23  7.3591e-26  4.6280e-23  7.8559e-26  4.6292e-23  8.7394e-26  4.6313e-23  1.0311e-25  4.6352e-23  1.3105e-25  4.6420e-23  1.8077e-25  4.6542e-23  2.6923e-25  4.6759e-23  4.2672e-25  4.7143e-23  7.0731e-25  4.7828e-23  1.2080e-24  4.9043e-23  2.1038e-24  5.1203e-23  3.7138e-24  5.5036e-23  6.6302e-24  6.1828e-23  1.1983e-23
      1.90  4.4430e-23  7.2783e-26  4.4431e-23  7.3106e-26  4.4431e-23  7.3680e-26  4.4433e-23  7.4700e-26  4.4435e-23  7.6515e-26  4.4438e-23  7.9743e-26  4.4445e-23  8.5483e-26  4.4457e-23  9.5691e-26  4.4478e-23  1.1385e-25  4.4515e-23  1.4614e-25  4.4581e-23  2.0358e-25  4.4698e-23  3.0579e-25  4.4907e-23  4.8774e-25  4.5278e-23  8.1195e-25  4.5937e-23  1.3905e-24  4.7109e-23  2.4255e-24  4.9190e-23  4.2858e-24  5.2883e-23  7.6558e-24  5.9423e-23  1.3842e-23
      1.95  4.2624e-23  7.8295e-26  4.2625e-23  7.8666e-26  4.2625e-23  7.9327e-26  4.2626e-23  8.0500e-26  4.2628e-23  8.2588e-26  4.2632e-23  8.6300e-26  4.2638e-23  9.2902e-26  4.2650e-23  1.0464e-25  4.2670e-23  1.2552e-25  4.2705e-23  1.6266e-25  4.2769e-23  2.2872e-25  4.2882e-23  3.4627e-25  4.3082e-23  5.5554e-25  4.3439e-23  9.2840e-25  4.4073e-23  1.5937e-24  4.5200e-23  2.7840e-24  4.7200e-23  4.9234e-24  5.0749e-23  8.7988e-24  5.7032e-23  1.5912e-23
      2.00  4.0848e-23  8.4116e-26  4.0849e-23  8.4543e-26  4.0849e-23  8.5300e-26  4.0850e-23  8.6648e-26  4.0852e-23  8.9045e-26  4.0856e-23  9.3307e-26  4.0862e-23  1.0089e-25  4.0873e-23  1.1437e-25  4.0892e-23  1.3834e-25  4.0926e-23  1.8097e-25  4.0987e-23  2.5682e-25  4.1095e-23  3.9178e-25  4.1286e-23  6.3204e-25  4.1628e-23  1.0601e-24  4.2234e-23  1.8239e-24  4.3311e-23  3.1905e-24  4.5224e-23  5.6464e-24  4.8616e-23  1.0095e-23  5.4619e-23  1.8258e-23
      2.05  3.9105e-23  9.0285e-26  3.9105e-23  9.0774e-26  3.9106e-23  9.1643e-26  3.9107e-23  9.3188e-26  3.9109e-23  9.5936e-26  3.9112e-23  1.0082e-25  3.9118e-23  1.0951e-25  3.9128e-23  1.2497e-25  3.9146e-23  1.5246e-25  3.9179e-23  2.0135e-25  3.9237e-23  2.8832e-25  3.9340e-23  4.4308e-25  3.9523e-23  7.1857e-25  3.9848e-23  1.2094e-24  4.0426e-23  2.0852e-24  4.1452e-23  3.6520e-24  4.3275e-23  6.4677e-24  4.6507e-23  1.1567e-23  5.2225e-23  2.0923e-23
      2.10  3.7396e-23  9.6788e-26  3.7396e-23  9.7347e-26  3.7397e-23  9.8343e-26  3.7398e-23  1.0011e-25  3.7400e-23  1.0326e-25  3.7403e-23  1.0886e-25  3.7408e-23  1.1881e-25  3.7418e-23  1.3650e-25  3.7435e-23  1.6798e-25  3.7466e-23  2.2396e-25  3.7521e-23  3.2355e-25  3.7619e-23  5.0075e-25  3.7793e-23  8.1619e-25  3.8103e-23  1.3782e-24  3.8652e-23  2.3810e-24  3.9629e-23  4.1747e-24  4.1362e-23  7.3979e-24  4.4436e-23  1.3234e-23  4.9874e-23  2.3939e-23
      2.15  3.5724e-23  1.0364e-25  3.5724e-23  1.0428e-25  3.5724e-23  1.0541e-25  3.5725e-23  1.0743e-25  3.5727e-23  1.1103e-25  3.5730e-23  1.1742e-25  3.5735e-23  1.2879e-25  3.5744e-23  1.4901e-25  3.5761e-23  1.8496e-25  3.5790e-23  2.4891e-25  3.5843e-23  3.6267e-25  3.5936e-23  5.6509e-25  3.6101e-23  9.2543e-25  3.6395e-23  1.5674e-24  3.6917e-23  2.7128e-24  3.7845e-23  4.7616e-24  3.9493e-23  8.4425e-24  4.2413e-23  1.5106e-23  4.7580e-23  2.7324e-23
      2.20  3.4089e-23  1.1084e-25  3.4090e-23  1.1157e-25  3.4090e-23  1.1286e-25  3.4091e-23  1.1516e-25  3.4093e-23  1.1925e-25  3.4095e-23  1.2653e-25  3.4100e-23  1.3947e-25  3.4109e-23  1.6248e-25  3.4125e-23  2.0340e-25  3.4153e-23  2.7619e-25  3.4203e-23  4.0567e-25  3.4291e-23  6.3605e-25  3.4448e-23  1.0462e-24  3.4727e-23  1.7768e-24  3.5224e-23  3.0803e-24  3.6106e-23  5.4118e-24  3.7671e-23  9.6000e-24  4.0447e-23  1.7180e-23  4.5357e-23  3.1074e-23
      2.25  3.2495e-23  1.1841e-25  3.2495e-23  1.1924e-25  3.2496e-23  1.2070e-25  3.2497e-23  1.2331e-25  3.2498e-23  1.2794e-25  3.2501e-23  1.3618e-25  3.2506e-23  1.5083e-25  3.2514e-23  1.7689e-25  3.2529e-23  2.2323e-25  3.2556e-23  3.0566e-25  3.2603e-23  4.5229e-25  3.2687e-23  7.1318e-25  3.2836e-23  1.1776e-24  3.3102e-23  2.0050e-24  3.3574e-23  3.4810e-24  3.4413e-23  6.1208e-24  3.5902e-23  1.0862e-23  3.8542e-23  1.9442e-23  4.3213e-23  3.5162e-23
      2.30  3.0942e-23  1.2641e-25  3.0943e-23  1.2734e-25  3.0943e-23  1.2899e-25  3.0944e-23  1.3192e-25  3.0945e-23  1.3714e-25  3.0948e-23  1.4641e-25  3.0952e-23  1.6291e-25  3.0960e-23  1.9225e-25  3.0974e-23  2.4443e-25  3.0999e-23  3.3724e-25  3.1044e-23  5.0233e-25  3.1124e-23  7.9606e-25  3.1265e-23  1.3189e-24  3.1516e-23  2.2504e-24  3.1962e-23  3.9121e-24  3.2755e-23  6.8837e-24  3.4162e-23  1.2220e-23  3.6658e-23  2.1874e-23  4.1076e-23  3.9554e-23
      2.35  2.9432e-23  1.3479e-25  2.9433e-23  1.3583e-25  2.9433e-23  1.3767e-25  2.9434e-23  1.4095e-25  2.9435e-23  1.4677e-25  2.9438e-23  1.5713e-25  2.9442e-23  1.7554e-25  2.9450e-23  2.0830e-25  2.9463e-23  2.6654e-25  2.9487e-23  3.7015e-25  2.9530e-23  5.5444e-25  2.9606e-23  8.8235e-25  2.9742e-23  1.4660e-24  2.9983e-23  2.5059e-24  3.0411e-23  4.3608e-24  3.1172e-23  7.6777e-24  3.2523e-23  1.3634e-23  3.4919e-23  2.4408e-23  3.9158e-23  4.4136e-23
      2.40  2.7966e-23  1.4357e-25  2.7967e-23  1.4472e-25  2.7967e-23  1.4676e-25  2.7968e-23  1.5038e-25  2.7969e-23  1.5683e-25  2.7971e-23  1.6830e-25  2.7976e-23  1.8869e-25  2.7983e-23  2.2495e-25  2.7996e-23  2.8944e-25  2.8019e-23  4.0415e-25  2.8060e-23  6.0819e-25  2.8134e-23  9.7124e-25  2.8264e-23  1.6175e-24  2.8495e-23  2.7687e-24  2.8907e-23  4.8224e-24  2.9638e-23  8.4945e-24  3.0936e-23  1.5088e-23  3.3237e-23  2.7014e-23  3.7308e-23  4.8848e-23
      2.45  2.6546e-23  1.5275e-25  2.6546e-23  1.5401e-25  2.6546e-23  1.5625e-25  2.6547e-23  1.6023e-25  2.6548e-23  1.6732e-25  2.6550e-23  1.7991e-25  2.6554e-23  2.0230e-25  2.6561e-23  2.4213e-25  2.6574e-23  3.1296e-25  2.6596e-23  4.3894e-25  2.6636e-23  6.6304e-25  2.6706e-23  1.0618e-24  2.6831e-23  1.7715e-24  2.7054e-23  3.0359e-24  2.7450e-23  5.2912e-24  2.8152e-23  9.3240e-24  2.9399e-23  1.6565e-23  3.1610e-23  2.9661e-23  3.5524e-23  5.3631e-23
      2.50  2.5171e-23  1.6234e-25  2.5171e-23  1.6372e-25  2.5171e-23  1.6616e-25  2.5172e-23  1.7050e-25  2.5173e-23  1.7821e-25  2.5175e-23  1.9193e-25  2.5179e-23  2.1633e-25  2.5186e-23  2.5973e-25  2.5198e-23  3.3690e-25  2.5219e-23  4.7417e-25  2.5257e-23  7.1834e-25  2.5325e-23  1.1528e-24  2.5445e-23  1.9261e-24  2.5659e-23  3.3037e-24  2.6040e-23  5.7610e-24  2.6715e-23  1.0155e-23  2.7914e-23  1.8044e-23  3.0039e-23  3.2310e-23  3.3799e-23  5.8421e-23
      2.55  2.3842e-23  1.7244e-25  2.3842e-23  1.7392e-25  2.3843e-23  1.7656e-25  2.3843e-23  1.8125e-25  2.3844e-23  1.8958e-25  2.3847e-23  2.0441e-25  2.3850e-23  2.3079e-25  2.3857e-23  2.7768e-25  2.3868e-23  3.6109e-25  2.3889e-23  5.0943e-25  2.3926e-23  7.7332e-25  2.3991e-23  1.2428e-24  2.4106e-23  2.0786e-24  2.4312e-23  3.5674e-24  2.4678e-23  6.2230e-24  2.5328e-23  1.0971e-23  2.6481e-23  1.9497e-23  2.8526e-23  3.4913e-23  3.2140e-23  6.3126e-23
      2.60  2.2561e-23  1.8295e-25  2.2561e-23  1.8454e-25  2.2561e-23  1.8737e-25  2.2562e-23  1.9240e-25  2.2563e-23  2.0134e-25  2.2565e-23  2.1723e-25  2.2568e-23  2.4550e-25  2.2575e-23  2.9578e-25  2.2586e-23  3.8519e-25  2.2606e-23  5.4422e-25  2.2641e-23  8.2711e-25  2.2704e-23  1.3304e-24  2.2815e-23  2.2264e-24  2.3013e-23  3.8224e-24  2.3365e-23  6.6693e-24  2.3991e-23  1.1760e-23  2.5101e-23  2.0899e-23  2.7069e-23  3.7424e-23  3.0545e-23  6.7666e-23
      2.65  2.1327e-23  1.9390e-25  2.1327e-23  1.9559e-25  2.1327e-23  1.9860e-25  2.1328e-23  2.0395e-25  2.1329e-23  2.1347e-25  2.1331e-23  2.3040e-25  2.1334e-23  2.6050e-25  2.1340e-23  3.1403e-25  2.1351e-23  4.0923e-25  2.1370e-23  5.7855e-25  2.1404e-23  8.7975e-25  2.1464e-23  1.4157e-24  2.1572e-23  2.3696e-24  2.1763e-23  4.0689e-24  2.2102e-23  7.1000e-24  2.2705e-23  1.2520e-23  2.3774e-23  2.2250e-23  2.5668e-23  3.9844e-23  2.9016e-23  7.2041e-23
      2.70  2.0140e-23  2.0528e-25  2.0140e-23  2.0707e-25  2.0141e-23  2.1025e-25  2.0141e-23  2.1592e-25  2.0142e-23  2.2599e-25  2.0144e-23  2.4390e-25  2.0147e-23  2.7575e-25  2.0153e-23  3.3240e-25  2.0163e-23  4.3313e-25  2.0182e-23  6.1231e-25  2.0215e-23  9.3102e-25  2.0273e-23  1.4981e-24  2.0377e-23  2.5075e-24  2.0561e-23  4.3057e-24  2.0888e-23  7.5131e-24  2.1469e-23  1.3248e-23  2.2500e-23  2.3544e-23  2.4325e-23  4.2162e-23  2.7551e-23  7.6232e-23
      2.75  1.9001e-23  2.1709e-25  1.9001e-23  2.1898e-25  1.9001e-23  2.2233e-25  1.9002e-23  2.2829e-25  1.9003e-23  2.3889e-25  1.9004e-23  2.5774e-25  1.9008e-23  2.9125e-25  1.9013e-23  3.5086e-25  1.9023e-23  4.5687e-25  1.9041e-23  6.4542e-25  1.9073e-23  9.8081e-25  1.9129e-23  1.5776e-24  1.9229e-23  2.6398e-24  1.9407e-23  4.5320e-24  1.9722e-23  7.9074e-24  2.0283e-23  1.3942e-23  2.1278e-23  2.4778e-23  2.3039e-23  4.4370e-23  2.6151e-23  8.0223e-23
      2.80  1.7908e-23  2.2949e-25  1.7909e-23  2.3146e-25  1.7909e-23  2.3497e-25  1.7909e-23  2.4121e-25  1.7910e-23  2.5231e-25  1.7912e-23  2.7204e-25  1.7915e-23  3.0713e-25  1.7921e-23  3.6954e-25  1.7930e-23  4.8053e-25  1.7947e-23  6.7794e-25  1.7978e-23  1.0291e-24  1.8032e-23  1.6539e-24  1.8129e-23  2.7660e-24  1.8301e-23  4.7472e-24  1.8606e-23  8.2811e-24  1.9148e-23  1.4600e-23  2.0109e-23  2.5944e-23  2.1810e-23  4.6458e-23  2.4814e-23  8.3999e-23
      2.85  1.6863e-23  2.4233e-25  1.6863e-23  2.4438e-25  1.6863e-23  2.4804e-25  1.6864e-23  2.5454e-25  1.6865e-23  2.6610e-25  1.6866e-23  2.8667e-25  1.6869e-23  3.2323e-25  1.6875e-23  3.8826e-25  1.6884e-23  5.0391e-25  1.6901e-23  7.0960e-25  1.6930e-23  1.0755e-24  1.6983e-23  1.7265e-24  1.7076e-23  2.8854e-24  1.7242e-23  4.9497e-24  1.7537e-23  8.6320e-24  1.8061e-23  1.5216e-23  1.8990e-23  2.7037e-23  2.0635e-23  4.8413e-23  2.3538e-23  8.7534e-23
      2.90  1.5864e-23  2.5562e-25  1.5864e-23  2.5776e-25  1.5864e-23  2.6155e-25  1.5865e-23  2.6829e-25  1.5865e-23  2.8028e-25  1.5867e-23  3.0161e-25  1.5870e-23  3.3954e-25  1.5875e-23  4.0698e-25  1.5884e-23  5.2694e-25  1.5900e-23  7.4028e-25  1.5929e-23  1.1198e-24  1.5980e-23  1.7950e-24  1.6070e-23  2.9970e-24  1.6231e-23  5.1381e-24  1.6516e-23  8.9575e-24  1.7024e-23  1.5787e-23  1.7923e-23  2.8048e-23  1.9514e-23  5.0221e-23  2.2321e-23  9.0803e-23
      2.95  1.4910e-23  2.6939e-25  1.4910e-23  2.7160e-25  1.4910e-23  2.7551e-25  1.4911e-23  2.8248e-25  1.4912e-23  2.9486e-25  1.4913e-23  3.1688e-25  1.4916e-23  3.5604e-25  1.4921e-23  4.2568e-25  1.4930e-23  5.4954e-25  1.4945e-23  7.6982e-25  1.4973e-23  1.1617e-24  1.5022e-23  1.8589e-24  1.5110e-23  3.1000e-24  1.5266e-23  5.3108e-24  1.5542e-23  9.2545e-24  1.6033e-23  1.6306e-23  1.6904e-23  2.8967e-23  1.8444e-23  5.1864e-23  2.1160e-23  9.3774e-23
      3.00  1.4001e-23  2.8368e-25  1.4001e-23  2.8594e-25  1.4001e-23  2.8997e-25  1.4002e-23  2.9712e-25  1.4003e-23  3.0985e-25  1.4004e-23  3.3249e-25  1.4007e-23  3.7274e-25  1.4012e-23  4.4433e-25  1.4020e-23  5.7165e-25  1.4035e-23  7.9810e-25  1.4062e-23  1.2009e-24  1.4110e-23  1.9176e-24  1.4195e-23  3.1934e-24  1.4346e-23  5.4661e-24  1.4613e-23  9.5202e-24  1.5089e-23  1.6769e-23  1.5932e-23  2.9786e-23  1.7424e-23  5.3326e-23  2.0053e-23  9.6417e-23
      3.05  1.3136e-23  2.9874e-25  1.3136e-23  3.0106e-25  1.3136e-23  3.0519e-25  1.3137e-23  3.1253e-25  1.3137e-23  3.2559e-25  1.3139e-23  3.4880e-25  1.3142e-23  3.9009e-25  1.3146e-23  4.6351e-25  1.3154e-23  5.9409e-25  1.3169e-23  8.2634e-25  1.3195e-23  1.2395e-24  1.3242e-23  1.9745e-24  1.3324e-23  3.2830e-24  1.3471e-23  5.6139e-24  1.3731e-23  9.7718e-24  1.4193e-23  1.7207e-23  1.5012e-23  3.0557e-23  1.6459e-23  5.4701e-23  1.9010e-23  9.8901e-23
      3.10  1.2314e-23  3.1418e-25  1.2314e-23  3.1655e-25  1.2314e-23  3.2076e-25  1.2314e-23  3.2826e-25  1.2315e-23  3.4160e-25  1.2317e-23  3.6532e-25  1.2319e-23  4.0749e-25  1.2324e-23  4.8249e-25  1.2332e-23  6.1588e-25  1.2346e-23  8.5313e-25  1.2371e-23  1.2751e-24  1.2416e-23  2.0260e-24  1.2497e-23  3.3627e-24  1.2639e-23  5.7438e-24  1.2892e-23  9.9913e-24  1.3340e-23  1.7586e-23  1.4136e-23  3.1225e-23  1.5541e-23  5.5892e-23  1.8015e-23  1.0105e-22
      3.15  1.1533e-23  3.3039e-25  1.1533e-23  3.3280e-25  1.1534e-23  3.3709e-25  1.1534e-23  3.4473e-25  1.1535e-23  3.5830e-25  1.1536e-23  3.8244e-25  1.1539e-23  4.2536e-25  1.1543e-23  5.0170e-25  1.1551e-23  6.3746e-25  1.1565e-23  8.7892e-25  1.1589e-23  1.3084e-24  1.1633e-23  2.0727e-24  1.1711e-23  3.4331e-24  1.1849e-23  5.8565e-24  1.2095e-23  1.0180e-23  1.2530e-23  1.7910e-23  1.3302e-23  3.1792e-23  1.4666e-23  5.6901e-23  1.7066e-23  1.0287e-22
      3.20  1.0793e-23  3.4728e-25  1.0793e-23  3.4973e-25  1.0794e-23  3.5409e-25  1.0794e-23  3.6183e-25  1.0795e-23  3.7559e-25  1.0796e-23  4.0007e-25  1.0799e-23  4.4360e-25  1.0803e-23  5.2101e-25  1.0810e-23  6.5868e-25  1.0824e-23  9.0355e-25  1.0848e-23  1.3391e-24  1.0890e-23  2.1142e-24  1.0966e-23  3.4937e-24  1.1100e-23  5.9514e-24  1.1339e-23  1.0336e-23  1.1762e-23  1.8175e-23  1.2512e-23  3.2254e-23  1.3835e-23  5.7720e-23  1.6163e-23  1.0435e-22
      3.25  1.0093e-23  3.6470e-25  1.0093e-23  3.6717e-25  1.0093e-23  3.7157e-25  1.0094e-23  3.7939e-25  1.0094e-23  3.9330e-25  1.0096e-23  4.1804e-25  1.0098e-23  4.6203e-25  1.0102e-23  5.4026e-25  1.0109e-23  6.7939e-25  1.0122e-23  9.2684e-25  1.0146e-23  1.3670e-24  1.0187e-23  2.1502e-24  1.0261e-23  3.5444e-24  1.0391e-23  6.0281e-24  1.0623e-23  1.0459e-23  1.1034e-23  1.8382e-23  1.1762e-23  3.2610e-23  1.3048e-23  5.8349e-23  1.5306e-23  1.0548e-22
      3.30  9.4303e-24  3.8299e-25  9.4305e-24  3.8548e-25  9.4307e-24  3.8992e-25  9.4311e-24  3.9780e-25  9.4318e-24  4.1182e-25  9.4331e-24  4.3676e-25  9.4353e-24  4.8110e-25  9.4394e-24  5.5996e-25  9.4465e-24  7.0021e-25  9.4592e-24  9.4965e-25  9.4818e-24  1.3934e-24  9.5220e-24  2.1829e-24  9.5935e-24  3.5882e-24  9.7204e-24  6.0918e-24  9.9457e-24  1.0558e-23  1.0345e-23  1.8545e-23  1.1053e-23  3.2888e-23  1.2301e-23  5.8836e-23  1.4492e-23  1.0636e-22
      3.35  8.8046e-24  4.0183e-25  8.8048e-24  4.0434e-25  8.8050e-24  4.0880e-25  8.8054e-24  4.1673e-25  8.8061e-24  4.3084e-25  8.8073e-24  4.5594e-25  8.8095e-24  5.0056e-25  8.8134e-24  5.7993e-25  8.8204e-24  7.2107e-25  8.8327e-24  9.7210e-25  8.8547e-24  1.4186e-24  8.8938e-24  2.2132e-24  8.9633e-24  3.6275e-24  9.0867e-24  6.1471e-24  9.3058e-24  1.0642e-23  9.6943e-24  1.8680e-23  1.0382e-23  3.3115e-23  1.1594e-23  5.9229e-23  1.3719e-23  1.0706e-22
      3.40  8.2143e-24  4.2121e-25  8.2144e-24  4.2374e-25  8.2146e-24  4.2822e-25  8.2150e-24  4.3620e-25  8.2157e-24  4.5040e-25  8.2169e-24  4.7564e-25  8.2190e-24  5.2052e-25  8.2228e-24  6.0034e-25  8.2296e-24  7.4229e-25  8.2416e-24  9.9477e-25  8.2630e-24  1.4439e-24  8.3010e-24  2.2430e-24  8.3686e-24  3.6655e-24  8.4886e-24  6.1996e-24  8.7016e-24  1.0720e-23  9.0793e-24  1.8804e-23  9.7473e-24  3.3322e-23  1.0924e-23  5.9584e-23  1.2986e-23  1.0768e-22
      3.45  7.6579e-24  4.4115e-25  7.6580e-24  4.4369e-25  7.6582e-24  4.4821e-25  7.6586e-24  4.5624e-25  7.6593e-24  4.7052e-25  7.6604e-24  4.9592e-25  7.6625e-24  5.4108e-25  7.6662e-24  6.2141e-25  7.6728e-24  7.6425e-25  7.6845e-24  1.0183e-24  7.7053e-24  1.4703e-24  7.7423e-24  2.2744e-24  7.8080e-24  3.7058e-24  7.9247e-24  6.2558e-24  8.1319e-24  1.0805e-23  8.4991e-24  1.8939e-23  9.1482e-24  3.3545e-23  1.0291e-23  5.9965e-23  1.2291e-23  1.0834e-22
      3.50  7.1341e-24  4.6166e-25  7.1342e-24  4.6422e-25  7.1344e-24  4.6877e-25  7.1348e-24  4.7686e-25  7.1354e-24  4.9126e-25  7.1365e-24  5.1687e-25  7.1386e-24  5.6240e-25  7.1422e-24  6.4337e-25  7.1486e-24  7.8737e-25  7.1600e-24  1.0435e-24  7.1802e-24  1.4991e-24  7.2162e-24  2.3097e-24  7.2801e-24  3.7527e-24  7.3936e-24  6.3232e-24  7.5951e-24  1.0908e-23  7.9521e-24  1.9107e-23  8.5828e-24  3.3827e-23  9.6923e-24  6.0446e-23  1.1631e-23  1.0917e-22
      3.55  6.6415e-24  4.8328e-25  6.6416e-24  4.8586e-25  6.6418e-24  4.9047e-25  6.6422e-24  4.9866e-25  6.6428e-24  5.1322e-25  6.6439e-24  5.3911e-25  6.6459e-24  5.8516e-25  6.6494e-24  6.6705e-25  6.6556e-24  8.1269e-25  6.6667e-24  1.0717e-24  6.6864e-24  1.5325e-24  6.7213e-24  2.3523e-24  6.7835e-24  3.8116e-24  6.8940e-24  6.4111e-24  7.0899e-24  1.1048e-23  7.4369e-24  1.9337e-23  8.0497e-24  3.4217e-23  9.1265e-24  6.1116e-23  1.1005e-23  1.1032e-22
      3.60  6.1787e-24  5.0550e-25  6.1788e-24  5.0813e-25  6.1790e-24  5.1281e-25  6.1794e-24  5.2113e-25  6.1800e-24  5.3592e-25  6.1810e-24  5.6223e-25  6.1830e-24  6.0902e-25  6.1864e-24  6.9222e-25  6.1924e-24  8.4020e-25  6.2032e-24  1.1034e-24  6.2223e-24  1.5715e-24  6.2563e-24  2.4045e-24  6.3168e-24  3.8871e-24  6.4242e-24  6.5279e-24  6.6147e-24  1.1238e-23  6.9519e-24  1.9657e-23  7.5471e-24  3.4765e-23  8.5917e-24  6.2065e-23  1.0411e-23  1.1197e-22
      3.65  5.7443e-24  5.2833e-25  5.7444e-24  5.3102e-25  5.7446e-24  5.3580e-25  5.7449e-24  5.4431e-25  5.7455e-24  5.5943e-25  5.7466e-24  5.8633e-25  5.7484e-24  6.3416e-25  5.7517e-24  7.1923e-25  5.7576e-24  8.7051e-25  5.7681e-24  1.1396e-24  5.7867e-24  1.6182e-24  5.8198e-24  2.4697e-24  5.8786e-24  3.9854e-24  5.9830e-24  6.6848e-24  6.1681e-24  1.1499e-23  6.4956e-24  2.0102e-23  7.0733e-24  3.5536e-23  8.0859e-24  6.3406e-23  9.8464e-24  1.1430e-22
      3.70  5.3369e-24  5.5181e-25  5.3370e-24  5.5460e-25  5.3372e-24  5.5955e-25  5.3375e-24  5.6837e-25  5.3381e-24  5.8405e-25  5.3391e-24  6.1193e-25  5.3409e-24  6.6150e-25  5.3441e-24  7.4967e-25  5.3499e-24  9.0647e-25  5.3600e-24  1.1853e-24  5.3781e-24  1.6814e-24  5.4103e-24  2.5639e-24  5.4674e-24  4.1346e-24  5.5687e-24  6.9320e-24  5.7485e-24  1.1920e-23  6.0664e-24  2.0832e-23  6.6266e-24  3.6813e-23  7.6074e-24  6.5653e-23  9.3087e-24  1.1827e-22
      3.75  4.9552e-24  5.7591e-25  4.9553e-24  5.7880e-25  4.9555e-24  5.8395e-25  4.9558e-24  5.9310e-25  4.9564e-24  6.0937e-25  4.9574e-24  6.3832e-25  4.9591e-24  6.8979e-25  4.9623e-24  7.8132e-25  4.9678e-24  9.4409e-25  4.9777e-24  1.2336e-24  4.9952e-24  1.7486e-24  5.0264e-24  2.6647e-24  5.0818e-24  4.2952e-24  5.1802e-24  7.1989e-24  5.3545e-24  1.2376e-23  5.6627e-24  2.1623e-23  6.2054e-24  3.8200e-23  7.1543e-24  6.8097e-23  8.7962e-24  1.2259e-22
      3.80  4.5982e-24  6.0158e-25  4.5983e-24  6.0463e-25  4.5985e-24  6.1007e-25  4.5988e-24  6.1973e-25  4.5994e-24  6.3691e-25  4.6003e-24  6.6747e-25  4.6020e-24  7.2181e-25  4.6050e-24  8.1845e-25  4.6104e-24  9.9031e-25  4.6200e-24  1.2960e-24  4.6370e-24  1.8397e-24  4.6672e-24  2.8069e-24  4.7210e-24  4.5283e-24  4.8163e-24  7.5937e-24  4.9852e-24  1.3058e-23  5.2836e-24  2.2818e-23  5.8086e-24  4.0310e-23  6.7255e-24  7.1846e-23  8.3084e-24  1.2931e-22
      3.85  4.2641e-24  6.2862e-25  4.2642e-24  6.3193e-25  4.2644e-24  6.3781e-25  4.2647e-24  6.4826e-25  4.2652e-24  6.6685e-25  4.2661e-24  6.9990e-25  4.2678e-24  7.5869e-25  4.2707e-24  8.6322e-25  4.2759e-24  1.0491e-24  4.2852e-24  1.3798e-24  4.3017e-24  1.9679e-24  4.3310e-24  3.0142e-24  4.3830e-24  4.8762e-24  4.4753e-24  8.1921e-24  4.6389e-24  1.4103e-23  4.9277e-24  2.4660e-23  5.4353e-24  4.3580e-23  6.3208e-24  7.7692e-23  7.8461e-24  1.3986e-22
      3.90  3.9519e-24  6.5968e-25  3.9520e-24  6.6338e-25  3.9522e-24  6.6994e-25  3.9525e-24  6.8162e-25  3.9530e-24  7.0239e-25  3.9539e-24  7.3932e-25  3.9555e-24  8.0500e-25  3.9583e-24  9.2180e-25  3.9633e-24  1.1295e-24  3.9723e-24  1.4989e-24  3.9883e-24  2.1561e-24  4.0167e-24  3.3251e-24  4.0671e-24  5.4057e-24  4.1565e-24  9.1107e-24  4.3149e-24  1.5716e-23  4.5945e-24  2.7514e-23  5.0856e-24  4.8662e-23  5.9409e-24  8.6810e-23  7.4116e-24  1.5640e-22
      3.95  3.6604e-24  7.0505e-25  3.6605e-24  7.0932e-25  3.6606e-24  7.1691e-25  3.6609e-24  7.3042e-25  3.6614e-24  7.5443e-25  3.6622e-24  7.9714e-25  3.6638e-24  8.7309e-25  3.6666e-24  1.0081e-24  3.6715e-24  1.2483e-24  3.6802e-24  1.6755e-24  3.6957e-24  2.4354e-24  3.7232e-24  3.7873e-24  3.7721e-24  6.1934e-24  3.8588e-24  1.0478e-23  4.0123e-24  1.8118e-23  4.2833e-24  3.1768e-23  4.7590e-24  5.6247e-23  5.5863e-24  1.0043e-22  7.0062e-24  1.8116e-22
