# This was generated using Cloudy10 and the columns are ordered 
# as log10 of the fraction of the metallicity to the solar metallicity
# 'h_*_Z' and 'c_*_Z' stands for cooling and heating respectively 
# at * metalicity
#
# NOTE: This was generated separately from loop_coolingcurve_w_UV.py
#       using Output_metals_w_redshift.py.
#
# Redshift = 1.5
# hden = -0.5
#
#     temp   h_-3.00_Z   c_-3.00_Z   h_-2.75_Z   c_-2.75_Z   h_-2.50_Z   c_-2.50_Z   h_-2.25_Z   c_-2.25_Z   h_-2.00_Z   c_-2.00_Z   h_-1.75_Z   c_-1.75_Z   h_-1.50_Z   c_-1.50_Z   h_-1.25_Z   c_-1.25_Z   h_-1.00_Z   c_-1.00_Z   h_-0.75_Z   c_-0.75_Z   h_-0.50_Z   c_-0.50_Z   h_-0.25_Z   c_-0.25_Z    h_0.00_Z    c_0.00_Z    h_0.25_Z    c_0.25_Z    h_0.50_Z    c_0.50_Z    h_0.75_Z    c_0.75_Z    h_1.00_Z    c_1.00_Z    h_1.25_Z    c_1.25_Z    h_1.50_Z    c_1.50_Z 
      1.00  2.2452e-23  4.7121e-27  2.2452e-23  4.7122e-27  2.2452e-23  4.7124e-27  2.2453e-23  4.7128e-27  2.2454e-23  4.7135e-27  2.2455e-23  4.7147e-27  2.2458e-23  4.7168e-27  2.2462e-23  4.7206e-27  2.2470e-23  4.7274e-27  2.2484e-23  4.7394e-27  2.2509e-23  4.7608e-27  2.2554e-23  4.7989e-27  2.2633e-23  4.8667e-27  2.2774e-23  4.9874e-27  2.3024e-23  5.2025e-27  2.3470e-23  5.5864e-27  2.4263e-23  6.2726e-27  2.5678e-23  7.5025e-27  2.8201e-23  9.7213e-27
      1.05  2.2195e-23  5.2678e-27  2.2195e-23  5.2680e-27  2.2195e-23  5.2685e-27  2.2196e-23  5.2693e-27  2.2197e-23  5.2709e-27  2.2198e-23  5.2735e-27  2.2201e-23  5.2783e-27  2.2205e-23  5.2868e-27  2.2213e-23  5.3019e-27  2.2227e-23  5.3287e-27  2.2252e-23  5.3763e-27  2.2296e-23  5.4612e-27  2.2375e-23  5.6121e-27  2.2515e-23  5.8810e-27  2.2765e-23  6.3600e-27  2.3209e-23  7.2147e-27  2.3999e-23  8.7432e-27  2.5408e-23  1.1484e-26  2.7921e-23  1.6435e-26
      1.10  2.1932e-23  5.8779e-27  2.1932e-23  5.8785e-27  2.1932e-23  5.8795e-27  2.1933e-23  5.8813e-27  2.1934e-23  5.8845e-27  2.1935e-23  5.8902e-27  2.1938e-23  5.9004e-27  2.1942e-23  5.9185e-27  2.1950e-23  5.9507e-27  2.1964e-23  6.0079e-27  2.1989e-23  6.1097e-27  2.2033e-23  6.2907e-27  2.2111e-23  6.6129e-27  2.2251e-23  7.1864e-27  2.2499e-23  8.2085e-27  2.2941e-23  1.0032e-26  2.3728e-23  1.3293e-26  2.5131e-23  1.9147e-26  2.7633e-23  2.9729e-26
      1.15  2.1663e-23  6.5478e-27  2.1663e-23  6.5490e-27  2.1663e-23  6.5510e-27  2.1664e-23  6.5547e-27  2.1665e-23  6.5612e-27  2.1666e-23  6.5727e-27  2.1668e-23  6.5932e-27  2.1673e-23  6.6296e-27  2.1681e-23  6.6944e-27  2.1694e-23  6.8096e-27  2.1719e-23  7.0146e-27  2.1763e-23  7.3792e-27  2.1841e-23  8.0281e-27  2.1980e-23  9.1832e-27  2.2227e-23  1.1241e-26  2.2667e-23  1.4914e-26  2.3450e-23  2.1483e-26  2.4845e-23  3.3282e-26  2.7335e-23  5.4628e-26
      1.20  2.1388e-23  7.2834e-27  2.1388e-23  7.2856e-27  2.1388e-23  7.2895e-27  2.1389e-23  7.2964e-27  2.1389e-23  7.3086e-27  2.1391e-23  7.3304e-27  2.1393e-23  7.3692e-27  2.1397e-23  7.4382e-27  2.1405e-23  7.5609e-27  2.1419e-23  7.7790e-27  2.1444e-23  8.1671e-27  2.1487e-23  8.8574e-27  2.1565e-23  1.0086e-26  2.1703e-23  1.2272e-26  2.1949e-23  1.6169e-26  2.2386e-23  2.3122e-26  2.3165e-23  3.5563e-26  2.4552e-23  5.7919e-26  2.7027e-23  9.8399e-26
      1.25  2.1106e-23  8.0910e-27  2.1106e-23  8.0949e-27  2.1107e-23  8.1018e-27  2.1107e-23  8.1141e-27  2.1108e-23  8.1359e-27  2.1109e-23  8.1748e-27  2.1112e-23  8.2439e-27  2.1116e-23  8.3668e-27  2.1124e-23  8.5853e-27  2.1138e-23  8.9740e-27  2.1162e-23  9.6654e-27  2.1205e-23  1.0895e-26  2.1282e-23  1.3084e-26  2.1420e-23  1.6980e-26  2.1664e-23  2.3923e-26  2.2098e-23  3.6314e-26  2.2872e-23  5.8489e-26  2.4251e-23  9.8356e-26  2.6710e-23  1.7060e-25
      1.30  2.0819e-23  8.9785e-27  2.0819e-23  8.9850e-27  2.0819e-23  8.9966e-27  2.0820e-23  9.0173e-27  2.0821e-23  9.0541e-27  2.0822e-23  9.1195e-27  2.0824e-23  9.2357e-27  2.0829e-23  9.4425e-27  2.0836e-23  9.8102e-27  2.0850e-23  1.0464e-26  2.0874e-23  1.1627e-26  2.0917e-23  1.3696e-26  2.0994e-23  1.7378e-26  2.1130e-23  2.3934e-26  2.1373e-23  3.5616e-26  2.1804e-23  5.6469e-26  2.2573e-23  9.3794e-26  2.3942e-23  1.6093e-25  2.6386e-23  2.8266e-25
      1.35  2.0525e-23  9.9525e-27  2.0526e-23  9.9629e-27  2.0526e-23  9.9815e-27  2.0526e-23  1.0014e-26  2.0527e-23  1.0073e-26  2.0528e-23  1.0177e-26  2.0531e-23  1.0363e-26  2.0535e-23  1.0693e-26  2.0543e-23  1.1279e-26  2.0556e-23  1.2323e-26  2.0580e-23  1.4179e-26  2.0623e-23  1.7480e-26  2.0699e-23  2.3355e-26  2.0835e-23  3.3815e-26  2.1075e-23  5.2457e-26  2.1504e-23  8.5734e-26  2.2267e-23  1.4531e-25  2.3627e-23  2.5251e-25  2.6053e-23  4.4704e-25
      1.40  2.0226e-23  1.1021e-26  2.0226e-23  1.1037e-26  2.0226e-23  1.1065e-26  2.0227e-23  1.1115e-26  2.0228e-23  1.1204e-26  2.0229e-23  1.1363e-26  2.0231e-23  1.1645e-26  2.0235e-23  1.2146e-26  2.0243e-23  1.3038e-26  2.0256e-23  1.4624e-26  2.0280e-23  1.7444e-26  2.0323e-23  2.2462e-26  2.0398e-23  3.1392e-26  2.0533e-23  4.7292e-26  2.0772e-23  7.5630e-26  2.1197e-23  1.2622e-25  2.1955e-23  2.1682e-25  2.3305e-23  3.7990e-25  2.5713e-23  6.7599e-25
      1.45  1.9920e-23  1.2192e-26  1.9921e-23  1.2215e-26  1.9921e-23  1.2256e-26  1.9921e-23  1.2329e-26  1.9922e-23  1.2459e-26  1.9923e-23  1.2689e-26  1.9926e-23  1.3100e-26  1.9930e-23  1.3829e-26  1.9937e-23  1.5126e-26  1.9951e-23  1.7432e-26  1.9974e-23  2.1535e-26  2.0017e-23  2.8834e-26  2.0092e-23  4.1823e-26  2.0225e-23  6.4950e-26  2.0462e-23  1.0617e-25  2.0885e-23  1.7978e-25  2.1636e-23  3.1161e-25  2.2976e-23  5.4898e-25  2.5366e-23  9.8023e-25
      1.50  1.9609e-23  1.3475e-26  1.9609e-23  1.3508e-26  1.9609e-23  1.3565e-26  1.9610e-23  1.3667e-26  1.9610e-23  1.3848e-26  1.9612e-23  1.4171e-26  1.9614e-23  1.4744e-26  1.9618e-23  1.5764e-26  1.9626e-23  1.7578e-26  1.9639e-23  2.0803e-26  1.9663e-23  2.6541e-26  1.9704e-23  3.6748e-26  1.9779e-23  5.4912e-26  1.9911e-23  8.7257e-26  2.0147e-23  1.4491e-25  2.0565e-23  2.4787e-25  2.1311e-23  4.3230e-25  2.2640e-23  7.6450e-25  2.5012e-23  1.3684e-24
      1.55  1.9292e-23  1.4882e-26  1.9292e-23  1.4926e-26  1.9292e-23  1.5003e-26  1.9292e-23  1.5141e-26  1.9293e-23  1.5386e-26  1.9294e-23  1.5821e-26  1.9297e-23  1.6595e-26  1.9301e-23  1.7972e-26  1.9308e-23  2.0421e-26  1.9321e-23  2.4776e-26  1.9345e-23  3.2522e-26  1.9386e-23  4.6303e-26  1.9460e-23  7.0828e-26  1.9591e-23  1.1450e-25  1.9825e-23  1.9235e-25  2.0240e-23  3.3138e-25  2.0980e-23  5.8049e-25  2.2298e-23  1.0293e-24  2.4649e-23  1.8456e-24
      1.60  1.8968e-23  1.6421e-26  1.8969e-23  1.6478e-26  1.8969e-23  1.6579e-26  1.8969e-23  1.6760e-26  1.8970e-23  1.7080e-26  1.8971e-23  1.7650e-26  1.8974e-23  1.8663e-26  1.8978e-23  2.0465e-26  1.8985e-23  2.3670e-26  1.8998e-23  2.9369e-26  1.9021e-23  3.9507e-26  1.9062e-23  5.7544e-26  1.9135e-23  8.9642e-26  1.9266e-23  1.4680e-25  1.9497e-23  2.4870e-25  1.9909e-23  4.3070e-25  2.0642e-23  7.5685e-25  2.1948e-23  1.3446e-24  2.4279e-23  2.4142e-24
      1.65  1.8640e-23  1.8102e-26  1.8640e-23  1.8175e-26  1.8640e-23  1.8304e-26  1.8640e-23  1.8533e-26  1.8641e-23  1.8941e-26  1.8642e-23  1.9667e-26  1.8645e-23  2.0958e-26  1.8649e-23  2.3253e-26  1.8656e-23  2.7334e-26  1.8669e-23  3.4594e-26  1.8692e-23  4.7506e-26  1.8733e-23  7.0479e-26  1.8805e-23  1.1136e-25  1.8934e-23  1.8417e-25  1.9163e-23  3.1397e-25  1.9571e-23  5.4582e-25  2.0297e-23  9.6136e-25  2.1591e-23  1.7105e-24  2.3899e-23  3.0742e-24
      1.70  1.8305e-23  1.9937e-26  1.8305e-23  2.0027e-26  1.8306e-23  2.0188e-26  1.8306e-23  2.0473e-26  1.8307e-23  2.0981e-26  1.8308e-23  2.1884e-26  1.8310e-23  2.3490e-26  1.8314e-23  2.6346e-26  1.8321e-23  3.1425e-26  1.8334e-23  4.0458e-26  1.8357e-23  5.6526e-26  1.8397e-23  8.5112e-26  1.8469e-23  1.3599e-25  1.8596e-23  2.2659e-25  1.8823e-23  3.8812e-25  1.9227e-23  6.7668e-25  1.9945e-23  1.1939e-24  2.1225e-23  2.1267e-24  2.3508e-23  3.8255e-24
      1.75  1.7965e-23  2.1937e-26  1.7965e-23  2.2048e-26  1.7966e-23  2.2243e-26  1.7966e-23  2.2592e-26  1.7967e-23  2.3212e-26  1.7968e-23  2.4314e-26  1.7970e-23  2.6274e-26  1.7974e-23  2.9760e-26  1.7981e-23  3.5959e-26  1.7994e-23  4.6984e-26  1.8016e-23  6.6596e-26  1.8056e-23  1.0149e-25  1.8127e-23  1.6358e-25  1.8253e-23  2.7417e-25  1.8477e-23  4.7135e-25  1.8875e-23  8.2361e-25  1.9585e-23  1.4552e-24  2.0849e-23  2.5943e-24  2.3103e-23  4.6698e-24
      1.80  1.7620e-23  2.4122e-26  1.7620e-23  2.4255e-26  1.7621e-23  2.4490e-26  1.7621e-23  2.4909e-26  1.7622e-23  2.5654e-26  1.7623e-23  2.6979e-26  1.7625e-23  2.9335e-26  1.7629e-23  3.3524e-26  1.7636e-23  4.0974e-26  1.7648e-23  5.4225e-26  1.7670e-23  7.7796e-26  1.7710e-23  1.1973e-25  1.7780e-23  1.9436e-25  1.7904e-23  3.2729e-25  1.8124e-23  5.6429e-25  1.8517e-23  9.8774e-25  1.9217e-23  1.7470e-24  2.0462e-23  3.1168e-24  2.2684e-23  5.6138e-24
      1.85  1.7270e-23  2.6501e-26  1.7270e-23  2.6658e-26  1.7270e-23  2.6938e-26  1.7271e-23  2.7436e-26  1.7271e-23  2.8321e-26  1.7273e-23  2.9894e-26  1.7275e-23  3.2693e-26  1.7279e-23  3.7670e-26  1.7286e-23  4.6520e-26  1.7298e-23  6.2262e-26  1.7319e-23  9.0263e-26  1.7358e-23  1.4008e-25  1.7427e-23  2.2875e-25  1.7549e-23  3.8666e-25  1.7766e-23  6.6823e-25  1.8152e-23  1.1714e-24  1.8840e-23  2.0736e-24  2.0065e-23  3.7018e-24  2.2249e-23  6.6709e-24
      1.90  1.6915e-23  2.9088e-26  1.6915e-23  2.9273e-26  1.6915e-23  2.9603e-26  1.6916e-23  3.0189e-26  1.6916e-23  3.1232e-26  1.6917e-23  3.3085e-26  1.6920e-23  3.6382e-26  1.6923e-23  4.2244e-26  1.6930e-23  5.2669e-26  1.6942e-23  7.1211e-26  1.6963e-23  1.0419e-25  1.7001e-23  1.6287e-25  1.7069e-23  2.6732e-25  1.7188e-23  4.5333e-25  1.7401e-23  7.8503e-25  1.7780e-23  1.3778e-24  1.8455e-23  2.4408e-24  1.9656e-23  4.3596e-24  2.1798e-23  7.8600e-24
      1.95  1.6555e-23  3.1899e-26  1.6555e-23  3.2116e-26  1.6555e-23  3.2501e-26  1.6556e-23  3.3187e-26  1.6556e-23  3.4405e-26  1.6558e-23  3.6573e-26  1.6560e-23  4.0427e-26  1.6563e-23  4.7280e-26  1.6570e-23  5.9469e-26  1.6582e-23  8.1148e-26  1.6603e-23  1.1971e-25  1.6640e-23  1.8832e-25  1.6706e-23  3.1043e-25  1.6823e-23  5.2792e-25  1.7032e-23  9.1574e-25  1.7403e-23  1.6088e-24  1.8064e-23  2.8519e-24  1.9241e-23  5.0959e-24  2.1338e-23  9.1902e-24
      2.00  1.6191e-23  3.4953e-26  1.6191e-23  3.5206e-26  1.6191e-23  3.5656e-26  1.6191e-23  3.6455e-26  1.6192e-23  3.7878e-26  1.6193e-23  4.0407e-26  1.6195e-23  4.4905e-26  1.6199e-23  5.2903e-26  1.6205e-23  6.7129e-26  1.6217e-23  9.2429e-26  1.6237e-23  1.3743e-25  1.6273e-23  2.1750e-25  1.6338e-23  3.6002e-25  1.6452e-23  6.1385e-25  1.6656e-23  1.0665e-24  1.7018e-23  1.8754e-24  1.7662e-23  3.3265e-24  1.8809e-23  5.9467e-24  2.0853e-23  1.0729e-23
      2.05  1.5822e-23  3.8278e-26  1.5822e-23  3.8573e-26  1.5823e-23  3.9096e-26  1.5823e-23  4.0027e-26  1.5824e-23  4.1682e-26  1.5825e-23  4.4626e-26  1.5827e-23  4.9861e-26  1.5830e-23  5.9170e-26  1.5836e-23  7.5727e-26  1.5848e-23  1.0517e-25  1.5867e-23  1.5755e-25  1.5903e-23  2.5075e-25  1.5965e-23  4.1662e-25  1.6076e-23  7.1206e-25  1.6274e-23  1.2389e-24  1.6626e-23  2.1806e-24  1.7253e-23  3.8699e-24  1.8368e-23  6.9205e-24  2.0355e-23  1.2490e-23
      2.10  1.5450e-23  4.1883e-26  1.5450e-23  4.2225e-26  1.5450e-23  4.2832e-26  1.5451e-23  4.3912e-26  1.5451e-23  4.5832e-26  1.5452e-23  4.9247e-26  1.5454e-23  5.5319e-26  1.5458e-23  6.6118e-26  1.5464e-23  8.5324e-26  1.5474e-23  1.1948e-25  1.5494e-23  1.8024e-25  1.5528e-23  2.8835e-25  1.5589e-23  4.8077e-25  1.5697e-23  8.2350e-25  1.5889e-23  1.4347e-24  1.6230e-23  2.5271e-24  1.6838e-23  4.4871e-24  1.7920e-23  8.0270e-24  1.9847e-23  1.4492e-23
      2.15  1.5074e-23  4.5787e-26  1.5074e-23  4.6182e-26  1.5074e-23  4.6883e-26  1.5075e-23  4.8131e-26  1.5075e-23  5.0349e-26  1.5076e-23  5.4294e-26  1.5078e-23  6.1309e-26  1.5081e-23  7.3785e-26  1.5087e-23  9.5973e-26  1.5098e-23  1.3544e-25  1.5116e-23  2.0563e-25  1.5149e-23  3.3052e-25  1.5208e-23  5.5282e-25  1.5313e-23  9.4877e-25  1.5499e-23  1.6549e-24  1.5830e-23  2.9171e-24  1.6419e-23  5.1817e-24  1.7466e-23  9.2722e-24  1.9331e-23  1.6744e-23
      2.20  1.4695e-23  5.0010e-26  1.4695e-23  5.0464e-26  1.4695e-23  5.1270e-26  1.4695e-23  5.2703e-26  1.4696e-23  5.5253e-26  1.4697e-23  5.9786e-26  1.4699e-23  6.7848e-26  1.4702e-23  8.2185e-26  1.4708e-23  1.0768e-25  1.4718e-23  1.5303e-25  1.4736e-23  2.3370e-25  1.4768e-23  3.7723e-25  1.4825e-23  6.3269e-25  1.4926e-23  1.0877e-24  1.5106e-23  1.8992e-24  1.5426e-23  3.3498e-24  1.5995e-23  5.9525e-24  1.7009e-23  1.0654e-23  1.8812e-23  1.9243e-23
      2.25  1.4313e-23  5.4573e-26  1.4313e-23  5.5090e-26  1.4313e-23  5.6011e-26  1.4313e-23  5.7647e-26  1.4314e-23  6.0558e-26  1.4315e-23  6.5734e-26  1.4317e-23  7.4939e-26  1.4320e-23  9.1308e-26  1.4325e-23  1.2042e-25  1.4335e-23  1.7220e-25  1.4352e-23  2.6430e-25  1.4383e-23  4.2817e-25  1.4438e-23  7.1985e-25  1.4536e-23  1.2394e-24  1.4710e-23  2.1659e-24  1.5020e-23  3.8221e-24  1.5570e-23  6.7940e-24  1.6550e-23  1.2163e-23  1.8293e-23  2.1972e-23
      2.30  1.3928e-23  5.9519e-26  1.3928e-23  6.0105e-26  1.3929e-23  6.1148e-26  1.3929e-23  6.3003e-26  1.3929e-23  6.6302e-26  1.3930e-23  7.2168e-26  1.3932e-23  8.2599e-26  1.3935e-23  1.0115e-25  1.3940e-23  1.3414e-25  1.3950e-23  1.9282e-25  1.3966e-23  2.9720e-25  1.3996e-23  4.8290e-25  1.4049e-23  8.1345e-25  1.4143e-23  1.4022e-24  1.4310e-23  2.4522e-24  1.4607e-23  4.3291e-24  1.5136e-23  7.6969e-24  1.6077e-23  1.3781e-23  1.7750e-23  2.4896e-23
      2.35  1.3542e-23  6.4848e-26  1.3542e-23  6.5507e-26  1.3542e-23  6.6679e-26  1.3542e-23  6.8764e-26  1.3543e-23  7.2470e-26  1.3544e-23  7.9061e-26  1.3545e-23  9.0781e-26  1.3548e-23  1.1162e-25  1.3553e-23  1.4869e-25  1.3562e-23  2.1462e-25  1.3579e-23  3.3190e-25  1.3608e-23  5.4056e-25  1.3659e-23  9.1196e-25  1.3750e-23  1.5735e-24  1.3913e-23  2.7533e-24  1.4202e-23  4.8622e-24  1.4716e-23  8.6465e-24  1.5630e-23  1.5483e-23  1.7257e-23  2.7975e-23
      2.40  1.3153e-23  7.0583e-26  1.3154e-23  7.1317e-26  1.3154e-23  7.2622e-26  1.3154e-23  7.4943e-26  1.3154e-23  7.9070e-26  1.3155e-23  8.6409e-26  1.3157e-23  9.9461e-26  1.3160e-23  1.2267e-25  1.3165e-23  1.6395e-25  1.3174e-23  2.3737e-25  1.3189e-23  3.6796e-25  1.3218e-23  6.0032e-25  1.3267e-23  1.0139e-24  1.3356e-23  1.7506e-24  1.3514e-23  3.0644e-24  1.3795e-23  5.4128e-24  1.4295e-23  9.6271e-24  1.5184e-23  1.7241e-23  1.6765e-23  3.1154e-23
      2.45  1.2764e-23  7.6744e-26  1.2764e-23  7.7554e-26  1.2764e-23  7.8995e-26  1.2765e-23  8.1556e-26  1.2765e-23  8.6111e-26  1.2766e-23  9.4210e-26  1.2767e-23  1.0861e-25  1.2770e-23  1.3423e-25  1.2775e-23  1.7979e-25  1.2784e-23  2.6081e-25  1.2799e-23  4.0494e-25  1.2826e-23  6.6137e-25  1.2875e-23  1.1178e-24  1.2961e-23  1.9308e-24  1.3115e-23  3.3808e-24  1.3388e-23  5.9726e-24  1.3873e-23  1.0624e-23  1.4737e-23  1.9027e-23  1.6273e-23  3.4383e-23
      2.50  1.2374e-23  8.3355e-26  1.2374e-23  8.4241e-26  1.2374e-23  8.5817e-26  1.2374e-23  8.8619e-26  1.2375e-23  9.3602e-26  1.2376e-23  1.0246e-25  1.2377e-23  1.1822e-25  1.2380e-23  1.4624e-25  1.2385e-23  1.9608e-25  1.2393e-23  2.8471e-25  1.2408e-23  4.4238e-25  1.2434e-23  7.2290e-25  1.2482e-23  1.2222e-24  1.2566e-23  2.1116e-24  1.2715e-23  3.6978e-24  1.2980e-23  6.5331e-24  1.3452e-23  1.1621e-23  1.4291e-23  2.0814e-23  1.5783e-23  3.7613e-23
      2.55  1.1984e-23  9.0482e-26  1.1984e-23  9.1443e-26  1.1984e-23  9.3152e-26  1.1984e-23  9.6190e-26  1.1984e-23  1.0159e-25  1.1985e-23  1.1120e-25  1.1987e-23  1.2829e-25  1.1989e-23  1.5868e-25  1.1994e-23  2.1272e-25  1.2002e-23  3.0884e-25  1.2017e-23  4.7982e-25  1.2042e-23  7.8403e-25  1.2088e-23  1.3255e-24  1.2170e-23  2.2900e-24  1.2315e-23  4.0101e-24  1.2573e-23  7.0848e-24  1.3031e-23  1.2602e-23  1.3846e-23  2.2571e-23  1.5296e-23  4.0789e-23
      2.60  1.1594e-23  9.8106e-26  1.1594e-23  9.9140e-26  1.1594e-23  1.0098e-25  1.1594e-23  1.0424e-25  1.1594e-23  1.1005e-25  1.1595e-23  1.2039e-25  1.1597e-23  1.3876e-25  1.1599e-23  1.7144e-25  1.1604e-23  2.2956e-25  1.1612e-23  3.3292e-25  1.1626e-23  5.1678e-25  1.1651e-23  8.4392e-25  1.1695e-23  1.4262e-24  1.1774e-23  2.4633e-24  1.1915e-23  4.3131e-24  1.2166e-23  7.6194e-24  1.2611e-23  1.3553e-23  1.3403e-23  2.4272e-23  1.4811e-23  4.3861e-23
      2.65  1.1204e-23  1.0625e-25  1.1204e-23  1.0735e-25  1.1205e-23  1.0931e-25  1.1205e-23  1.1280e-25  1.1205e-23  1.1900e-25  1.1206e-23  1.3003e-25  1.1207e-23  1.4965e-25  1.1210e-23  1.8453e-25  1.1214e-23  2.4656e-25  1.1222e-23  3.5689e-25  1.1235e-23  5.5314e-25  1.1260e-23  9.0231e-25  1.1303e-23  1.5238e-24  1.1380e-23  2.6308e-24  1.1517e-23  4.6052e-24  1.1760e-23  8.1342e-24  1.2193e-23  1.4467e-23  1.2962e-23  2.5908e-23  1.4330e-23  4.6814e-23
      2.70  1.0816e-23  1.1493e-25  1.0817e-23  1.1610e-25  1.0817e-23  1.1818e-25  1.0817e-23  1.2188e-25  1.0817e-23  1.2846e-25  1.0818e-23  1.4015e-25  1.0819e-23  1.6095e-25  1.0822e-23  1.9793e-25  1.0826e-23  2.6370e-25  1.0833e-23  3.8068e-25  1.0847e-23  5.8876e-25  1.0870e-23  9.5898e-25  1.0913e-23  1.6179e-24  1.0987e-23  2.7917e-24  1.1120e-23  4.8850e-24  1.1357e-23  8.6266e-24  1.1777e-23  1.5340e-23  1.2525e-23  2.7469e-23  1.3853e-23  4.9631e-23
      2.75  1.0431e-23  1.2418e-25  1.0431e-23  1.2541e-25  1.0431e-23  1.2760e-25  1.0431e-23  1.3150e-25  1.0431e-23  1.3843e-25  1.0432e-23  1.5076e-25  1.0433e-23  1.7268e-25  1.0436e-23  2.1165e-25  1.0440e-23  2.8097e-25  1.0447e-23  4.0427e-25  1.0460e-23  6.2358e-25  1.0483e-23  1.0138e-24  1.0524e-23  1.7083e-24  1.0597e-23  2.9454e-24  1.0726e-23  5.1516e-24  1.0956e-23  9.0949e-24  1.1364e-23  1.6171e-23  1.2091e-23  2.8952e-23  1.3381e-23  5.2304e-23
      2.80  1.0047e-23  1.3409e-25  1.0047e-23  1.3538e-25  1.0047e-23  1.3768e-25  1.0048e-23  1.4177e-25  1.0048e-23  1.4903e-25  1.0049e-23  1.6196e-25  1.0050e-23  1.8494e-25  1.0052e-23  2.2581e-25  1.0056e-23  2.9849e-25  1.0063e-23  4.2776e-25  1.0076e-23  6.5770e-25  1.0098e-23  1.0668e-24  1.0138e-23  1.7950e-24  1.0209e-23  3.0920e-24  1.0334e-23  5.4051e-24  1.0558e-23  9.5395e-24  1.0955e-23  1.6957e-23  1.1661e-23  3.0356e-23  1.2915e-23  5.4833e-23
      2.85  9.6669e-24  1.4461e-25  9.6670e-24  1.4596e-25  9.6671e-24  1.4835e-25  9.6673e-24  1.5262e-25  9.6677e-24  1.6020e-25  9.6684e-24  1.7369e-25  9.6696e-24  1.9768e-25  9.6718e-24  2.4033e-25  9.6756e-24  3.1618e-25  9.6825e-24  4.5110e-25  9.6948e-24  6.9109e-25  9.7165e-24  1.1181e-24  9.7552e-24  1.8780e-24  9.8239e-24  3.2317e-24  9.9462e-24  5.6457e-24  1.0163e-23  9.9603e-24  1.0550e-23  1.7701e-23  1.1236e-23  3.1682e-23  1.2455e-23  5.7220e-23
      2.90  9.2902e-24  1.5576e-25  9.2903e-24  1.5716e-25  9.2904e-24  1.5965e-25  9.2906e-24  1.6408e-25  9.2910e-24  1.7197e-25  9.2916e-24  1.8599e-25  9.2928e-24  2.1092e-25  9.2949e-24  2.5525e-25  9.2987e-24  3.3409e-25  9.3054e-24  4.7432e-25  9.3173e-24  7.2376e-25  9.3384e-24  1.1676e-24  9.3760e-24  1.9575e-24  9.4429e-24  3.3644e-24  9.5618e-24  5.8734e-24  9.7732e-24  1.0358e-23  1.0149e-23  1.8402e-23  1.0816e-23  3.2931e-23  1.2001e-23  5.9464e-23
      2.95  8.9177e-24  1.6757e-25  8.9178e-24  1.6902e-25  8.9179e-24  1.7161e-25  8.9181e-24  1.7620e-25  8.9184e-24  1.8436e-25  8.9191e-24  1.9888e-25  8.9202e-24  2.2469e-25  8.9223e-24  2.7060e-25  8.9260e-24  3.5224e-25  8.9325e-24  4.9745e-25  8.9440e-24  7.5575e-25  8.9646e-24  1.2153e-24  9.0012e-24  2.0333e-24  9.0663e-24  3.4901e-24  9.1820e-24  6.0882e-24  9.3876e-24  1.0731e-23  9.7530e-24  1.9061e-23  1.0402e-23  3.4103e-23  1.1555e-23  6.1568e-23
      3.00  8.5499e-24  1.8009e-25  8.5500e-24  1.8159e-25  8.5501e-24  1.8425e-25  8.5503e-24  1.8899e-25  8.5507e-24  1.9741e-25  8.5513e-24  2.1239e-25  8.5524e-24  2.3903e-25  8.5544e-24  2.8641e-25  8.5580e-24  3.7067e-25  8.5643e-24  5.2053e-25  8.5756e-24  7.8710e-25  8.5956e-24  1.2614e-24  8.6312e-24  2.1055e-24  8.6945e-24  3.6090e-24  8.8071e-24  6.2901e-24  9.0072e-24  1.1082e-23  9.3627e-24  1.9677e-23  9.9943e-24  3.5197e-23  1.1115e-23  6.3531e-23
      3.05  8.1875e-24  1.9349e-25  8.1875e-24  1.9503e-25  8.1877e-24  1.9777e-25  8.1879e-24  2.0264e-25  8.1882e-24  2.1131e-25  8.1888e-24  2.2671e-25  8.1899e-24  2.5411e-25  8.1919e-24  3.0284e-25  8.1953e-24  3.8949e-25  8.2015e-24  5.4361e-25  8.2125e-24  8.1775e-25  8.2319e-24  1.3055e-24  8.2666e-24  2.1736e-24  8.3283e-24  3.7198e-24  8.4378e-24  6.4770e-24  8.6326e-24  1.1404e-23  8.9787e-24  2.0243e-23  9.5933e-24  3.6201e-23  1.0684e-23  6.5330e-23
      3.10  7.8309e-24  2.0753e-25  7.8309e-24  2.0911e-25  7.8310e-24  2.1192e-25  7.8312e-24  2.1692e-25  7.8315e-24  2.2580e-25  7.8322e-24  2.4161e-25  7.8332e-24  2.6970e-25  7.8351e-24  3.1967e-25  7.8385e-24  4.0854e-25  7.8445e-24  5.6660e-25  7.8552e-24  8.4776e-25  7.8742e-24  1.3480e-24  7.9079e-24  2.2383e-24  7.9679e-24  3.8240e-24  8.0746e-24  6.6516e-24  8.2643e-24  1.1705e-23  8.6012e-24  2.0768e-23  9.1995e-24  3.7131e-23  1.0261e-23  6.6996e-23
      3.15  7.4806e-24  2.2250e-25  7.4806e-24  2.2412e-25  7.4807e-24  2.2699e-25  7.4809e-24  2.3210e-25  7.4812e-24  2.4120e-25  7.4818e-24  2.5736e-25  7.4829e-24  2.8612e-25  7.4847e-24  3.3725e-25  7.4880e-24  4.2818e-25  7.4938e-24  5.8991e-25  7.5042e-24  8.7760e-25  7.5227e-24  1.3894e-24  7.5556e-24  2.3004e-24  7.6141e-24  3.9229e-24  7.7180e-24  6.8162e-24  7.9027e-24  1.1986e-23  8.2308e-24  2.1260e-23  8.8134e-24  3.7999e-23  9.8468e-24  6.8549e-23
      3.20  7.1371e-24  2.3835e-25  7.1372e-24  2.4000e-25  7.1373e-24  2.4294e-25  7.1374e-24  2.4816e-25  7.1378e-24  2.5745e-25  7.1383e-24  2.7397e-25  7.1393e-24  3.0334e-25  7.1411e-24  3.5557e-25  7.1444e-24  4.4846e-25  7.1501e-24  6.1368e-25  7.1602e-24  9.0757e-25  7.1782e-24  1.4304e-24  7.2102e-24  2.3610e-24  7.2672e-24  4.0185e-24  7.3684e-24  6.9740e-24  7.5483e-24  1.2255e-23  7.8680e-24  2.1728e-23  8.4354e-24  3.8826e-23  9.4417e-24  7.0025e-23
      3.25  6.8009e-24  2.5498e-25  6.8010e-24  2.5667e-25  6.8011e-24  2.5967e-25  6.8013e-24  2.6500e-25  6.8016e-24  2.7448e-25  6.8021e-24  2.9134e-25  6.8031e-24  3.2132e-25  6.8049e-24  3.7464e-25  6.8080e-24  4.6947e-25  6.8136e-24  6.3813e-25  6.8234e-24  9.3814e-25  6.8410e-24  1.4719e-24  6.8722e-24  2.4219e-24  6.9277e-24  4.1138e-24  7.0264e-24  7.1309e-24  7.2017e-24  1.2522e-23  7.5132e-24  2.2191e-23  8.0661e-24  3.9642e-23  9.0462e-24  7.1484e-23
      3.30  6.4726e-24  2.7266e-25  6.4726e-24  2.7438e-25  6.4727e-24  2.7744e-25  6.4729e-24  2.8289e-25  6.4732e-24  2.9257e-25  6.4737e-24  3.0979e-25  6.4747e-24  3.4042e-25  6.4764e-24  3.9489e-25  6.4794e-24  4.9175e-25  6.4849e-24  6.6403e-25  6.4945e-24  9.7047e-25  6.5116e-24  1.5157e-24  6.5421e-24  2.4860e-24  6.5962e-24  4.2143e-24  6.6923e-24  7.2959e-24  6.8633e-24  1.2802e-23  7.1669e-24  2.2678e-23  7.7057e-24  4.0502e-23  8.6608e-24  7.3020e-23
      3.35  6.1524e-24  2.9115e-25  6.1524e-24  2.9291e-25  6.1525e-24  2.9605e-25  6.1527e-24  3.0162e-25  6.1530e-24  3.1154e-25  6.1535e-24  3.2917e-25  6.1544e-24  3.6052e-25  6.1561e-24  4.1628e-25  6.1591e-24  5.1543e-25  6.1642e-24  6.9180e-25  6.1739e-24  1.0055e-24  6.1904e-24  1.5636e-24  6.2201e-24  2.5569e-24  6.2729e-24  4.3261e-24  6.3667e-24  7.4807e-24  6.5333e-24  1.3117e-23  6.8294e-24  2.3226e-23  7.3547e-24  4.1471e-23  8.2857e-24  7.4754e-23
      3.40  5.8407e-24  3.1047e-25  5.8407e-24  3.1229e-25  5.8408e-24  3.1551e-25  5.8410e-24  3.2124e-25  5.8413e-24  3.3143e-25  5.8418e-24  3.4954e-25  5.8427e-24  3.8176e-25  5.8443e-24  4.3906e-25  5.8472e-24  5.4096e-25  5.8524e-24  7.2219e-25  5.8615e-24  1.0446e-24  5.8778e-24  1.6181e-24  5.9067e-24  2.6389e-24  5.9582e-24  4.4570e-24  6.0497e-24  7.6987e-24  6.2123e-24  1.3491e-23  6.5010e-24  2.3879e-23  7.0133e-24  4.2627e-23  7.9210e-24  7.6826e-23
      3.45  5.5378e-24  3.3063e-25  5.5379e-24  3.3250e-25  5.5379e-24  3.3583e-25  5.5381e-24  3.4175e-25  5.5384e-24  3.5228e-25  5.5389e-24  3.7100e-25  5.5398e-24  4.0430e-25  5.5414e-24  4.6351e-25  5.5441e-24  5.6881e-25  5.5492e-24  7.5609e-25  5.5582e-24  1.0892e-24  5.5740e-24  1.6819e-24  5.6023e-24  2.7368e-24  5.6525e-24  4.6155e-24  5.7418e-24  7.9654e-24  5.9004e-24  1.3951e-23  6.1820e-24  2.4686e-23  6.6818e-24  4.4058e-23  7.5671e-24  7.9397e-23
      3.50  5.2441e-24  3.5163e-25  5.2442e-24  3.5358e-25  5.2442e-24  3.5704e-25  5.2444e-24  3.6320e-25  5.2447e-24  3.7416e-25  5.2452e-24  3.9365e-25  5.2460e-24  4.2830e-25  5.2476e-24  4.8992e-25  5.2503e-24  5.9951e-25  5.2553e-24  7.9442e-25  5.2640e-24  1.1411e-24  5.2795e-24  1.7579e-24  5.3070e-24  2.8558e-24  5.3561e-24  4.8110e-24  5.4432e-24  8.2974e-24  5.5979e-24  1.4527e-23  5.8728e-24  2.5699e-23  6.3604e-24  4.5860e-23  7.2240e-24  8.2638e-23
      3.55  4.9599e-24  3.7389e-25  4.9599e-24  3.7594e-25  4.9600e-24  3.7957e-25  4.9602e-24  3.8604e-25  4.9604e-24  3.9754e-25  4.9609e-24  4.1799e-25  4.9617e-24  4.5436e-25  4.9633e-24  5.1904e-25  4.9660e-24  6.3407e-25  4.9708e-24  8.3866e-25  4.9793e-24  1.2026e-24  4.9944e-24  1.8500e-24  5.0213e-24  3.0023e-24  5.0691e-24  5.0547e-24  5.1542e-24  8.7141e-24  5.3052e-24  1.5253e-23  5.5735e-24  2.6979e-23  6.0492e-24  4.8142e-23  6.8937e-24  8.6747e-23
      3.60  4.6852e-24  3.9703e-25  4.6853e-24  3.9919e-25  4.6854e-24  4.0305e-25  4.6855e-24  4.0990e-25  4.6858e-24  4.2208e-25  4.6863e-24  4.4374e-25  4.6871e-24  4.8227e-25  4.6886e-24  5.5078e-25  4.6912e-24  6.7263e-25  4.6959e-24  8.8934e-25  4.7042e-24  1.2748e-24  4.7190e-24  1.9607e-24  4.7452e-24  3.1813e-24  4.7919e-24  5.3553e-24  4.8749e-24  9.2317e-24  5.0224e-24  1.6158e-23  5.2843e-24  2.8580e-23  5.7486e-24  5.0998e-23  6.5725e-24  9.1894e-23
      3.65  4.4204e-24  4.2103e-25  4.4204e-24  4.2335e-25  4.4205e-24  4.2747e-25  4.4207e-24  4.3480e-25  4.4209e-24  4.4783e-25  4.4214e-24  4.7100e-25  4.4222e-24  5.1221e-25  4.4236e-24  5.8550e-25  4.4262e-24  7.1584e-25  4.4308e-24  9.4765e-25  4.4389e-24  1.3600e-24  4.4533e-24  2.0936e-24  4.4789e-24  3.3993e-24  4.5245e-24  5.7247e-24  4.6056e-24  9.8712e-24  4.7496e-24  1.7280e-23  5.0052e-24  3.0567e-23  5.4596e-24  5.4547e-23  6.2623e-24  9.8292e-23
      3.70  4.1654e-24  4.4593e-25  4.1655e-24  4.4844e-25  4.1656e-24  4.5290e-25  4.1657e-24  4.6084e-25  4.1659e-24  4.7496e-25  4.1664e-24  5.0006e-25  4.1672e-24  5.4471e-25  4.1686e-24  6.2410e-25  4.1711e-24  7.6529e-25  4.1756e-24  1.0164e-24  4.1835e-24  1.4631e-24  4.1976e-24  2.2578e-24  4.2226e-24  3.6723e-24  4.2671e-24  6.1914e-24  4.3463e-24  1.0683e-23  4.4869e-24  1.8709e-23  4.7372e-24  3.3102e-23  5.1799e-24  5.9075e-23  5.9632e-24  1.0645e-22
      3.75  3.9205e-24  4.7174e-25  3.9205e-24  4.7448e-25  3.9206e-24  4.7935e-25  3.9207e-24  4.8802e-25  3.9210e-24  5.0343e-25  3.9214e-24  5.3083e-25  3.9222e-24  5.7957e-25  3.9236e-24  6.6624e-25  3.9260e-24  8.2038e-25  3.9304e-24  1.0945e-24  3.9381e-24  1.5821e-24  3.9518e-24  2.4497e-24  3.9763e-24  3.9938e-24  4.0201e-24  6.7437e-24  4.0974e-24  1.1647e-23  4.2348e-24  2.0408e-23  4.4786e-24  3.6117e-23  4.9108e-24  6.4463e-23  5.6753e-24  1.1615e-22
      3.80  3.6866e-24  4.9948e-25  3.6866e-24  5.0252e-25  3.6867e-24  5.0792e-25  3.6869e-24  5.1751e-25  3.6871e-24  5.3458e-25  3.6875e-24  5.6494e-25  3.6883e-24  6.1892e-25  3.6896e-24  7.1492e-25  3.6919e-24  8.8565e-25  3.6963e-24  1.1893e-24  3.7038e-24  1.7294e-24  3.7173e-24  2.6903e-24  3.7412e-24  4.4005e-24  3.7836e-24  7.4463e-24  3.8592e-24  1.2877e-23  3.9933e-24  2.2579e-23  4.2313e-24  3.9974e-23  4.6532e-24  7.1353e-23  5.3995e-24  1.2855e-22
      3.85  3.4618e-24  5.3068e-25  3.4618e-24  5.3410e-25  3.4619e-24  5.4020e-25  3.4620e-24  5.5103e-25  3.4623e-24  5.7030e-25  3.4627e-24  6.0457e-25  3.4634e-24  6.6550e-25  3.4647e-24  7.7386e-25  3.4671e-24  9.6657e-25  3.4712e-24  1.3093e-24  3.4786e-24  1.9190e-24  3.4917e-24  3.0036e-24  3.5151e-24  4.9340e-24  3.5566e-24  8.3718e-24  3.6304e-24  1.4501e-23  3.7614e-24  2.5450e-23  3.9940e-24  4.5077e-23  4.4062e-24  8.0472e-23  5.1351e-24  1.4495e-22
      3.90  3.2469e-24  5.7589e-25  3.2470e-24  5.7986e-25  3.2470e-24  5.8692e-25  3.2472e-24  5.9947e-25  3.2474e-24  6.2179e-25  3.2478e-24  6.6149e-25  3.2485e-24  7.3209e-25  3.2498e-24  8.5763e-25  3.2521e-24  1.0809e-24  3.2562e-24  1.4780e-24  3.2634e-24  2.1843e-24  3.2762e-24  3.4409e-24  3.2991e-24  5.6773e-24  3.3397e-24  9.6600e-24  3.4119e-24  1.6760e-23  3.5400e-24  2.9443e-23  3.7676e-24  5.2173e-23  4.1709e-24  9.3154e-23  4.8841e-24  1.6778e-22
      3.95  3.0420e-24  6.7764e-25  3.0420e-24  6.8235e-25  3.0421e-24  6.9074e-25  3.0422e-24  7.0566e-25  3.0424e-24  7.3218e-25  3.0428e-24  7.7935e-25  3.0435e-24  8.6323e-25  3.0448e-24  1.0124e-24  3.0470e-24  1.2777e-24  3.0510e-24  1.7495e-24  3.0581e-24  2.5888e-24  3.0707e-24  4.0819e-24  3.0931e-24  6.7392e-24  3.1329e-24  1.1471e-23  3.2036e-24  1.9907e-23  3.3293e-24  3.4976e-23  3.5525e-24  6.1980e-23  3.9480e-24  1.1066e-22  4.6474e-24  1.9931e-22
