# This was generated using Cloudy10 and the columns are ordered 
# as log10 of the fraction of the metallicity to the solar metallicity
# 'h_*_Z' and 'c_*_Z' stands for cooling and heating respectively 
# at * metalicity
#
# Redshift = 5.5
# hden = 5.0
#     temp   h_-3.00_Z   c_-3.00_Z   h_-2.75_Z   c_-2.75_Z   h_-2.50_Z   c_-2.50_Z   h_-2.25_Z   c_-2.25_Z   h_-2.00_Z   c_-2.00_Z   h_-1.75_Z   c_-1.75_Z   h_-1.50_Z   c_-1.50_Z   h_-1.25_Z   c_-1.25_Z   h_-1.00_Z   c_-1.00_Z   h_-0.75_Z   c_-0.75_Z   h_-0.50_Z   c_-0.50_Z   h_-0.25_Z   c_-0.25_Z    h_0.00_Z    c_0.00_Z    h_0.25_Z    c_0.25_Z    h_0.50_Z    c_0.50_Z    h_0.75_Z    c_0.75_Z    h_1.00_Z    c_1.00_Z    h_1.25_Z    c_1.25_Z    h_1.50_Z    c_1.50_Z 
      4.00  4.1823e-29  1.2188e-26  4.1825e-29  1.2209e-26  4.1827e-29  1.2247e-26  4.183e-29  1.2314e-26  4.1836e-29  1.2432e-26  4.1847e-29  1.2641e-26  4.1867e-29  1.3013e-26  4.1901e-29  1.3676e-26  4.196e-29  1.4858e-26  4.2066e-29  1.6962e-26  4.2255e-29  2.0693e-26  4.261e-29  2.7251e-26  4.3317e-29  3.8639e-26  4.4783e-29  5.8089e-26  4.7664e-29  9.047e-26  5.288e-29  1.4383e-25  6.2676e-29  2.3744e-25  8.3194e-29  4.4113e-25  1.265e-28  9.7545e-25
      4.05  4.1168e-29  1.2979e-25  4.1174e-29  1.2985e-25  4.1185e-29  1.2996e-25  4.1205e-29  1.3014e-25  4.1239e-29  1.3047e-25  4.1302e-29  1.3108e-25  4.1412e-29  1.3214e-25  4.1607e-29  1.3403e-25  4.1953e-29  1.3738e-25  4.2562e-29  1.4331e-25  4.3629e-29  1.5376e-25  4.548e-29  1.7188e-25  4.8622e-29  2.0246e-25  5.3712e-29  2.5149e-25  6.1226e-29  3.2327e-25  7.0649e-29  4.1455e-25  8.1157e-29  5.3077e-25  9.726e-29  7.8308e-25  1.287e-28  1.5452e-24
      4.10  3.8051e-29  2.507e-24  3.8098e-29  2.5075e-24  3.8182e-29  2.5083e-24  3.8331e-29  2.5098e-24  3.8596e-29  2.5125e-24  3.9067e-29  2.5172e-24  3.9905e-29  2.5255e-24  4.1392e-29  2.5403e-24  4.4033e-29  2.5667e-24  4.8713e-29  2.6134e-24  5.6988e-29  2.6963e-24  7.1556e-29  2.8429e-24  9.6993e-29  3.1006e-24  1.4076e-28  3.5483e-24  2.1404e-28  4.3086e-24  3.3044e-28  5.5434e-24  4.9575e-28  7.3642e-24  6.7408e-28  9.4939e-24  7.1408e-28  1.0387e-23
      4.15  3.2458e-29  2.3422e-23  3.2636e-29  2.3424e-23  3.2953e-29  2.3428e-23  3.3517e-29  2.3436e-23  3.4519e-29  2.345e-23  3.6302e-29  2.3474e-23  3.9472e-29  2.3517e-23  4.5107e-29  2.3594e-23  5.5124e-29  2.373e-23  7.2924e-29  2.3973e-23  1.0453e-28  2.4403e-23  1.6061e-28  2.517e-23  2.5992e-28  2.6528e-23  4.3518e-28  2.8934e-23  7.4267e-28  3.3179e-23  1.2763e-27  4.062e-23  2.1841e-27  5.3505e-23  3.6722e-27  7.5317e-23  5.9445e-27  1.1074e-22
      4.20  3.0776e-29  8.6024e-23  3.1144e-29  8.6031e-23  3.1797e-29  8.6043e-23  3.2958e-29  8.6066e-23  3.5023e-29  8.6105e-23  3.8696e-29  8.6176e-23  4.5227e-29  8.6302e-23  5.684e-29  8.6526e-23  7.749e-29  8.6924e-23  1.1421e-28  8.7632e-23  1.7949e-28  8.889e-23  2.9555e-28  9.1129e-23  5.0185e-28  9.5109e-23  8.6841e-28  1.0219e-22  1.5191e-27  1.1478e-22  2.6734e-27  1.3717e-22  4.7169e-27  1.7701e-22  8.3192e-27  2.4787e-22  1.4625e-26  3.7386e-22
      4.25  5.8045e-29  1.2938e-22  5.8316e-29  1.2939e-22  5.8797e-29  1.2941e-22  5.9652e-29  1.2944e-22  6.1174e-29  1.295e-22  6.3879e-29  1.2961e-22  6.869e-29  1.2981e-22  7.7246e-29  1.3016e-22  9.2463e-29  1.3077e-22  1.1953e-28  1.3187e-22  1.6767e-28  1.3383e-22  2.5335e-28  1.373e-22  4.0586e-28  1.4349e-22  6.7757e-28  1.545e-22  1.1624e-27  1.7413e-22  2.0294e-27  2.0914e-22  3.5866e-27  2.7176e-22  6.4033e-27  3.8431e-22  1.156e-26  5.882e-22
      4.30  1.4535e-28  1.2045e-22  1.4518e-28  1.2046e-22  1.4489e-28  1.2049e-22  1.4437e-28  1.2053e-22  1.4344e-28  1.206e-22  1.418e-28  1.2072e-22  1.3887e-28  1.2095e-22  1.3367e-28  1.2135e-22  1.2442e-28  1.2206e-22   1.21e-28  1.2333e-22  2.0562e-28  1.2559e-22  3.5622e-28  1.296e-22  6.2439e-28  1.3674e-22  1.1024e-27  1.4946e-22  1.9557e-27  1.7212e-22  3.4829e-27  2.1257e-22  6.2265e-27  2.8499e-22  1.1184e-26  4.1533e-22  2.0222e-26  6.5203e-22
      4.35  3.0991e-28  9.6257e-23  3.0916e-28  9.6272e-23  3.0783e-28  9.6299e-23  3.0545e-28  9.6347e-23  3.0123e-28  9.6433e-23  2.9371e-28  9.6585e-23  2.8035e-28  9.6855e-23  2.566e-28  9.7335e-23  2.1436e-28  9.819e-23  1.7375e-28  9.971e-23  2.9651e-28  1.0241e-22  5.151e-28  1.0722e-22  9.0469e-28  1.1578e-22  1.6001e-27  1.3102e-22  2.8445e-27  1.5817e-22  5.0785e-27  2.0664e-22  9.1078e-27  2.9341e-22  1.642e-26  4.4958e-22  2.9727e-26  7.3323e-22
      4.40  4.6552e-28  7.582e-23  4.6423e-28  7.584e-23  4.6193e-28  7.5875e-23  4.5783e-28  7.5938e-23  4.5054e-28  7.6049e-23  4.3759e-28  7.6246e-23  4.1455e-28  7.6598e-23  3.7359e-28  7.7223e-23  3.0078e-28  7.8334e-23  2.3143e-28  8.0311e-23  3.9462e-28  8.3827e-23  6.8557e-28  9.0081e-23  1.2053e-27  1.0121e-22  2.1361e-27  1.2102e-22  3.8093e-27  1.5632e-22  6.8307e-27  2.1931e-22  1.2308e-26  3.3203e-22  2.2064e-26  5.3479e-22  3.9599e-26  9.0266e-22
      4.45  4.5281e-28  6.0111e-23  4.5106e-28  6.0138e-23  4.4794e-28  6.0185e-23  4.424e-28  6.0269e-23  4.3254e-28  6.0418e-23   4.15e-28  6.0683e-23  3.8384e-28  6.1156e-23  3.2845e-28  6.1995e-23  2.3004e-28  6.3488e-23  2.8688e-28  6.6144e-23  4.8891e-28  7.0867e-23  8.508e-28  7.9268e-23  1.5017e-27  9.4216e-23  2.6784e-27  1.2082e-22  4.8164e-27  1.6823e-22  8.659e-27  2.5281e-22  1.5428e-26  4.0418e-22  2.7438e-26  6.7635e-22  4.8967e-26  1.1699e-21
      4.50  3.3367e-28  4.7421e-23  3.3154e-28  4.7456e-23  3.2777e-28  4.752e-23  3.2105e-28  4.7633e-23  3.0912e-28  4.7833e-23  2.8789e-28  4.819e-23  2.5017e-28  4.8825e-23  1.8316e-28  4.9953e-23  1.9077e-28  5.196e-23  3.1972e-28  5.553e-23  5.5091e-28  6.1879e-23  9.6747e-28  7.3173e-23  1.7229e-27  9.3269e-23  3.1026e-27  1.2904e-22  5.5624e-27  1.9279e-22  9.8898e-27  3.0658e-22  1.759e-26  5.1026e-22  3.127e-26  8.7669e-22  5.607e-26  1.5418e-21
      4.55  2.2481e-28  3.7614e-23  2.2249e-28  3.7662e-23  2.1837e-28  3.7747e-23  2.1104e-28  3.7898e-23   1.98e-28  3.8168e-23  1.7482e-28  3.8647e-23  1.3364e-28  3.9498e-23  1.1447e-28  4.1013e-23  1.9014e-28  4.3707e-23  3.2569e-28  4.8498e-23  5.6972e-28  5.7019e-23  1.0123e-27  7.2177e-23  1.8226e-27  9.9149e-23  3.2649e-27  1.4717e-22  5.822e-27  2.3276e-22  1.0381e-26  3.8558e-22  1.842e-26  6.5923e-22  3.2835e-26  1.1519e-21  5.9072e-26  2.0473e-21
      4.60  1.5222e-28  3.0383e-23  1.4997e-28  3.0447e-23  1.4597e-28  3.0561e-23  1.3899e-28  3.1071e-23  1.2628e-28  3.1435e-23  1.037e-28  3.2082e-23  6.3889e-29  3.2905e-23  1.0423e-28  3.4933e-23  1.7735e-28  3.8538e-23  3.0879e-28  4.495e-23  5.4672e-28  5.6355e-23  9.8208e-28  7.6643e-23  1.7608e-27  1.1275e-22  3.1545e-27  1.7704e-22  5.6243e-27  2.9163e-22  1.0011e-26  4.9625e-22  1.7813e-26  8.628e-22  3.1827e-26  1.5232e-21  5.7381e-26  2.7249e-21
      4.65  1.0755e-28  2.586e-23  1.0565e-28  2.5946e-23  1.0226e-28  2.6098e-23  9.6238e-29  2.6368e-23  8.5533e-29  2.6848e-23  6.6516e-29  2.7703e-23  5.5305e-29  2.9222e-23  9.2705e-29  3.1924e-23  1.5978e-28  3.6728e-23  2.808e-28  4.5274e-23  5.013e-28  6.0473e-23  9.0109e-28  8.7514e-23  1.6189e-27  1.3564e-22  2.8962e-27  2.2134e-22  5.1904e-27  3.7411e-22  9.2586e-27  6.4701e-22  1.6483e-26  1.1361e-21  2.9484e-26  2.0182e-21  5.3259e-26  3.6259e-21
      4.70  8.0712e-29  2.487e-23  7.9351e-29  2.4983e-23  7.6931e-29  2.5185e-23  7.2631e-29  2.5542e-23  6.499e-29  2.6178e-23  5.1423e-29  2.7309e-23  5.1003e-29  2.9321e-23  8.5678e-29  3.2898e-23   1.48e-28  3.9259e-23  2.609e-28  5.0573e-23  4.6799e-28  7.0699e-23  8.4191e-28  1.0651e-22  1.5186e-27  1.7024e-22  2.7256e-27  2.8375e-22  4.8646e-27  4.8618e-22  8.6556e-27  8.4799e-22  1.5444e-26  1.4972e-21  2.7693e-26  2.6699e-21  5.0185e-26  4.8135e-21
      4.75  6.4196e-29  2.9675e-23  6.348e-29  2.9822e-23  6.2209e-29  3.0085e-23  5.995e-29  3.0551e-23  5.5945e-29  3.1381e-23  4.8848e-29  3.2856e-23  5.1714e-29  3.548e-23  8.614e-29  4.0146e-23  1.4825e-28  4.8445e-23  2.6137e-28  6.3205e-23  4.7057e-28  8.9461e-23  8.4687e-28  1.3618e-22  1.5171e-27  2.1934e-22  2.7082e-27  3.675e-22  4.8275e-27  6.3184e-22  8.6012e-27  1.1046e-21  1.5362e-26  1.954e-21  2.7605e-26  3.4918e-21  5.0246e-26  6.3129e-21
      4.80  5.2773e-29  4.3383e-23  5.2726e-29  4.3571e-23  5.2644e-29  4.3906e-23  5.2502e-29  4.4502e-23  5.2263e-29  4.5561e-23  5.1882e-29  4.7444e-23  5.6748e-29  5.0793e-23  9.3384e-29  5.6749e-23  1.5988e-28  6.7342e-23  2.8234e-28  8.6183e-23  5.0631e-28  1.197e-22  9.012e-28  1.7934e-22  1.6039e-27  2.8552e-22  2.8597e-27  4.7474e-22  5.0944e-27  8.1246e-22  9.0797e-27  1.4169e-21  1.6249e-26  2.5042e-21  2.928e-26  4.4768e-21   5.35e-26  8.1078e-21
      4.85  4.2305e-29  6.4732e-23  4.2914e-29  6.4966e-23  4.3999e-29  6.5383e-23  4.5937e-29  6.6123e-23  4.9408e-29  6.7441e-23  5.5658e-29  6.9783e-23  6.7015e-29  7.3949e-23  1.038e-28  8.1357e-23  1.7784e-28  9.4533e-23  3.1342e-28  1.1797e-22  5.5551e-28  1.5966e-22  9.8377e-28  2.3385e-22  1.7497e-27  3.6595e-22  3.1118e-27  6.0141e-22  5.5356e-27  1.0218e-21  9.8598e-27  1.7747e-21  1.7624e-26  3.1305e-21  3.1727e-26  5.5944e-21  5.7974e-26  1.0143e-20
      4.90  3.1572e-29  8.0595e-23  3.2777e-29  8.0877e-23  3.4923e-29  8.1377e-23  3.8757e-29  8.2267e-23  4.5625e-29  8.3849e-23  5.7998e-29  8.6662e-23  8.0501e-29  9.1665e-23  1.2206e-28  1.0056e-22  1.9953e-28  1.1639e-22  3.4277e-28  1.4454e-22  6.0411e-28  1.9461e-22  1.071e-27  2.8373e-22  1.9044e-27  4.4242e-22  3.3741e-27  7.2528e-22  5.9715e-27  1.2304e-21  1.0579e-26  2.1354e-21  1.8821e-26  3.766e-21  3.3711e-26  6.7326e-21  6.1415e-26  1.2219e-20
      4.95  2.2998e-29  7.9525e-23  2.455e-29  7.9849e-23  2.7324e-29  8.0426e-23  3.2293e-29  8.1453e-23  4.1249e-29  8.3277e-23  5.7546e-29  8.6523e-23  8.7629e-29  9.2294e-23  1.446e-28  1.0256e-22  2.4954e-28  1.2081e-22  4.3702e-28  1.5328e-22  7.7086e-28  2.1104e-22  1.3625e-27  3.1384e-22  2.3979e-27  4.969e-22  4.2061e-27  8.2323e-22  7.3669e-27  1.4061e-21  1.2914e-26  2.4505e-21  2.2728e-26  4.3332e-21  4.0426e-26  7.7611e-21  7.3165e-26  1.411e-20
      5.00  1.7798e-29  6.757e-23  1.9374e-29  6.7928e-23  2.2205e-29  6.8565e-23  2.7338e-29  6.9699e-23  3.677e-29  7.1714e-23  5.4429e-29  7.5298e-23  8.8661e-29  8.1671e-23  1.5489e-28  9.3006e-23  2.7743e-28  1.1316e-22  4.997e-28  1.4902e-22  8.7862e-28  2.1282e-22  1.5342e-27  3.2636e-22  2.6607e-27  5.2856e-22  4.5809e-27  8.8909e-22  7.8574e-27  1.5332e-21  1.3516e-26  2.6881e-21  2.3432e-26  4.7719e-21  4.1233e-26  8.5724e-21  7.3899e-26  1.5631e-20
      5.05  1.5201e-29  5.4053e-23  1.6624e-29  5.4421e-23  1.9242e-29  5.5076e-23  2.4176e-29  5.624e-23  3.3786e-29  5.8311e-23  5.3108e-29  6.1994e-23  9.0597e-29  6.8543e-23  1.6849e-28  8.0189e-23  3.2069e-28  1.009e-22  5.6281e-28  1.3775e-22  9.6859e-28  2.0331e-22  1.643e-27    3.2e-22  2.7525e-27  5.2784e-22  4.5538e-27  8.9851e-22  7.5334e-27  1.5611e-21  1.258e-26   2.75e-21  2.1396e-26  4.8981e-21  3.7171e-26  8.8251e-21  6.568e-26  1.6147e-20
      5.10  1.4043e-29  4.2669e-23  1.5322e-29  4.3028e-23  1.7855e-29  4.3664e-23  2.3154e-29  4.4796e-23  3.4806e-29  4.681e-23  5.6386e-29  5.039e-23  1.0373e-28  5.6758e-23  2.1023e-28  6.8082e-23  3.8324e-28  8.8223e-23  6.5523e-28  1.2405e-22  1.0827e-27  1.878e-22  1.7462e-27  3.0128e-22  2.7658e-27  5.0343e-22  4.3407e-27  8.6405e-22  6.8727e-27  1.509e-21  1.0997e-26  2.6672e-21  1.8025e-26  4.7629e-21  3.0653e-26  8.6037e-21  5.3779e-26  1.5794e-20
      5.15  1.3636e-29  3.3934e-23  1.4943e-29  3.429e-23  1.7912e-29  3.4922e-23  2.5199e-29  3.6046e-23  3.9405e-29  3.8045e-23  6.8924e-29  4.1601e-23  1.3884e-28  4.7923e-23  2.6963e-28  5.9167e-23  4.7301e-28  7.9166e-23  7.7697e-28  1.1474e-22  1.213e-27  1.7805e-22  1.8434e-27  2.9074e-22  2.7624e-27  4.9153e-22  4.1293e-27  8.498e-22  5.9858e-27  1.4908e-21  9.1707e-27  2.6427e-21  1.4781e-26  4.7296e-21  2.4889e-26  8.5623e-21  4.3423e-26  1.5762e-20
      5.20  1.3658e-29  2.7402e-23  1.5276e-29  2.7769e-23  1.9512e-29  2.842e-23  3.0421e-29  2.9579e-23  4.9999e-29  3.1639e-23  9.6116e-29  3.5302e-23  2.0259e-28  4.1817e-23  3.4909e-28  5.3405e-23  5.7285e-28  7.4014e-23  9.0345e-28  1.1068e-22  1.3465e-27  1.7592e-22  1.945e-27  2.9207e-22  2.7544e-27  4.9903e-22  3.6348e-27  8.6841e-22  5.1211e-27  1.5295e-21  7.7259e-27  2.7182e-21  1.2372e-26  4.8741e-21  2.077e-26  8.8405e-21  3.6205e-26  1.6313e-20
      5.25  1.396e-29  2.2507e-23  1.6303e-29  2.2884e-23  2.2959e-29  2.3555e-23  3.9511e-29  2.4748e-23  7.3771e-29  2.687e-23  1.3555e-28  3.0644e-23  2.5701e-28  3.7355e-23  4.2344e-28  4.9291e-23  6.5651e-28  7.0521e-23  9.9138e-28  1.0829e-22  1.439e-27  1.755e-22  2.023e-27  2.9515e-22  2.5114e-27  5.0841e-22  3.3138e-27  8.8907e-22  4.698e-27  1.5706e-21  7.123e-27  2.7969e-21  1.1416e-26  5.0234e-21  1.9169e-26  9.1272e-21  3.3483e-26  1.6882e-20
      5.30  1.4704e-29  1.8799e-23  1.8674e-29  1.9183e-23  3.0365e-29  1.9865e-23  6.0722e-29  2.1077e-23  9.8618e-29  2.3233e-23  1.6902e-28  2.7068e-23  2.9673e-28  3.3887e-23  4.6738e-28  4.6015e-23  7.1476e-28  6.7587e-23  1.0376e-27  1.0596e-22  1.5141e-27  1.7426e-22  1.9146e-27  2.9587e-22  2.4141e-27  5.1261e-22  3.1589e-27  8.9961e-22  4.3864e-27  1.5927e-21  6.5354e-27  2.8408e-21  1.0215e-26  5.1096e-21  1.6901e-26  9.2998e-21  2.9283e-26  1.7243e-20
      5.35  1.6183e-29  1.5971e-23  2.3321e-29  1.6361e-23  4.4153e-29  1.7055e-23  7.6198e-29  1.8288e-23  1.1899e-28  2.0481e-23  1.9067e-28  2.4382e-23  3.2039e-28  3.1318e-23  4.9166e-28  4.3655e-23  7.3405e-28   6.56e-23  1.1118e-27  1.0464e-22  1.5466e-27  1.7412e-22  1.836e-27  2.9784e-22  2.2761e-27  5.1839e-22  2.9697e-27  9.1226e-22  4.1271e-27  1.618e-21  6.0384e-27  2.8897e-21  9.4655e-27  5.2041e-21  1.5679e-26  9.4874e-21  2.7221e-26  1.7634e-20
      5.40  1.7418e-29  1.3762e-23  2.7334e-29  1.4142e-23  5.1311e-29  1.4817e-23  7.9451e-29  1.6018e-23  1.2505e-28  1.8153e-23  1.9179e-28  2.1951e-23  3.0969e-28  2.8705e-23  5.0725e-28  4.0717e-23  7.6935e-28  6.2084e-23  1.2043e-27  1.001e-22  1.4835e-27  1.6775e-22  1.7789e-27  2.8824e-22  2.2457e-27  5.0305e-22  2.9759e-27  8.8677e-22  4.1914e-27  1.5746e-21  6.1685e-27  2.8152e-21  9.6311e-27  5.0762e-21  1.5943e-26  9.2706e-21  2.7671e-26  1.7279e-20
      5.45  1.5943e-29  1.1968e-23  2.355e-29  1.2286e-23  4.5013e-29  1.2852e-23  6.9244e-29  1.3858e-23  1.0725e-28  1.5648e-23   1.74e-28  1.8831e-23  2.8294e-28  2.4491e-23  4.6442e-28  3.4558e-23  7.872e-28  5.2463e-23  1.2637e-27  8.4319e-23  1.4949e-27  1.4102e-22  1.8443e-27  2.4202e-22  2.3667e-27  4.2211e-22  3.0879e-27  7.4394e-22  4.2506e-27  1.3212e-21  6.1874e-27  2.3636e-21  9.5599e-27  4.2669e-21  1.5676e-26  7.8092e-21  2.712e-26  1.4607e-20
      5.50  1.3255e-29  1.0472e-23  1.6347e-29  1.0702e-23  2.5188e-29  1.111e-23  4.9937e-29  1.1835e-23  8.4531e-29  1.3125e-23  1.4313e-28  1.5419e-23    2.5e-28  1.9499e-23  4.3952e-28  2.6755e-23  7.594e-28  3.9661e-23  1.2118e-27  6.2623e-23  1.5704e-27  1.035e-22  1.969e-27  1.7631e-22  2.4097e-27  3.0617e-22  3.0624e-27  5.3833e-22  4.0118e-27  9.5503e-22  5.5992e-27  1.7083e-21  8.389e-27  3.0864e-21  1.3431e-26  5.6593e-21  2.2834e-26  1.0621e-20
      5.55  1.2005e-29  9.3066e-24  1.3502e-29  9.4791e-24  1.7731e-29  9.7858e-24  3.0032e-29  1.0331e-23  6.1436e-29  1.1301e-23  1.2495e-28  1.3026e-23  2.4064e-28  1.6093e-23  4.4743e-28  2.1548e-23  7.9123e-28  3.125e-23  1.2094e-27  4.8514e-23  1.6025e-27  7.9247e-23  1.9673e-27   1.34e-22  2.3457e-27  2.3166e-22  2.8258e-27  4.0631e-22  3.5851e-27  7.1991e-22  4.8154e-27  1.2872e-21  6.981e-27  2.3264e-21  1.0914e-26  4.2705e-21  1.8208e-26  8.0316e-21
      5.60  1.1499e-29  8.4103e-24  1.3063e-29  8.5599e-24  1.7554e-29  8.8261e-24  3.0629e-29  9.2995e-24  5.5536e-29  1.0141e-23  1.1476e-28  1.1638e-23  2.4892e-28   1.43e-23  4.702e-28  1.9034e-23  8.6839e-28  2.7455e-23  1.2029e-27  4.2439e-23  1.5699e-27  6.9115e-23  1.8147e-27  1.1664e-22  2.095e-27  2.0143e-22  2.4925e-27  3.5305e-22  3.1204e-27  6.254e-22  4.1353e-27  1.1183e-21  5.9137e-27  2.0218e-21  9.1369e-27  3.7142e-21  1.5109e-26  6.9945e-21
      5.65  1.112e-29  7.7109e-24  1.3138e-29  7.8537e-24  1.9018e-29  8.1078e-24  3.5249e-29  8.5597e-24  6.6963e-29  9.3631e-24  1.3087e-28  1.0792e-23  2.5958e-28  1.3333e-23  5.0306e-28  1.7852e-23  9.1989e-28  2.589e-23  1.2123e-27  4.0194e-23  1.5126e-27  6.5659e-23  1.6841e-27  1.1103e-22  1.9298e-27  1.9198e-22  2.275e-27  3.3675e-22  2.8491e-27  5.9684e-22  3.7762e-27  1.0677e-21  5.4081e-27  1.9313e-21  8.3669e-27  3.5502e-21  1.3869e-26  6.6924e-21
      5.70  1.0773e-29  7.1543e-24  1.3259e-29  7.2941e-24  2.0525e-29  7.5428e-24  4.1515e-29  7.985e-24  7.5831e-29  8.7714e-24  1.4825e-28  1.017e-23  2.9621e-28  1.2657e-23  5.7295e-28  1.7079e-23  9.1972e-28  2.5196e-23  1.1358e-27  3.8948e-23  1.3564e-27  6.3875e-23  1.5291e-27  1.0829e-22  1.748e-27  1.8752e-22  2.0683e-27  3.2926e-22  2.6113e-27  5.8392e-22  3.5256e-27  1.0451e-21  5.1325e-27  1.8913e-21  8.0547e-27  3.479e-21  1.3518e-26  6.5644e-21
      5.75  1.016e-29  6.6475e-24  1.2866e-29  6.7806e-24  2.068e-29  7.0174e-24  4.1376e-29  7.4385e-24  8.1495e-29  8.1873e-24  1.6252e-28  9.5187e-24  3.3121e-28  1.1886e-23  6.0419e-28  1.6098e-23  8.0058e-28  2.3591e-23  9.8145e-28  3.6924e-23  1.1254e-27  6.0662e-23  1.2965e-27  1.0295e-22  1.5061e-27  1.7842e-22  1.8325e-27  3.1342e-22  2.3708e-27  5.5603e-22  3.2886e-27  9.955e-22  4.9288e-27  1.8024e-21  7.9289e-27  3.3178e-21  1.3576e-26  6.2667e-21
      5.80  9.4985e-30  6.257e-24  1.2203e-29  6.3793e-24  1.9787e-29  6.5968e-24  4.0426e-29  6.9835e-24  8.4377e-29  7.6712e-24  1.8245e-28  8.8941e-24  3.4494e-28  1.1069e-23  5.4127e-28  1.4938e-23  6.8557e-28  2.1821e-23  8.3586e-28  3.4069e-23  9.4831e-28  5.5875e-23  1.131e-27  9.4727e-23  1.3526e-27  1.6406e-22  1.6859e-27  2.881e-22  2.2558e-27  5.1107e-22  3.2463e-27  9.1512e-22  5.0201e-27  1.6575e-21  8.2957e-27  3.0532e-21  1.4518e-26  5.7737e-21
      5.85  9.1078e-30  5.9598e-24  1.2173e-29  6.0752e-24  2.0481e-29  6.2803e-24  4.1964e-29  6.645e-24  9.3217e-29  7.2934e-24  2.0001e-28  8.4466e-24  3.1991e-28  1.0498e-23  4.7863e-28  1.4147e-23  6.0206e-28  2.0638e-23  7.5315e-28  3.2189e-23  8.8607e-28  5.2754e-23  1.0461e-27  8.9398e-23  1.2867e-27  1.5479e-22  1.662e-27  2.7181e-22  2.3139e-27  4.8219e-22  3.4578e-27  8.6358e-22  5.5282e-27  1.5648e-21  9.3658e-27  2.8844e-21  1.671e-26  5.4609e-21
      5.90  8.8523e-30  5.7434e-24  1.2566e-29  5.8586e-24  2.2428e-29  6.0634e-24   4.72e-29  6.4276e-24  1.0468e-28  7.0752e-24  2.0623e-28  8.2268e-24  3.2633e-28  1.0275e-23  4.3064e-28  1.392e-23  5.7483e-28  2.0402e-23  7.0331e-28  3.1939e-23  8.4215e-28  5.2478e-23  1.0085e-27  8.9076e-23  1.2834e-27  1.5439e-22  1.7445e-27  2.7128e-22  2.5369e-27  4.8149e-22  3.9495e-27  8.6269e-22  6.5212e-27  1.564e-21  1.1316e-26  2.885e-21  2.0555e-26  5.4681e-21
      5.95  8.4804e-30  5.5888e-24  1.2591e-29  5.7064e-24  2.3516e-29  5.9155e-24  5.094e-29  6.2873e-24  1.1396e-28  6.9485e-24  2.1495e-28  8.1243e-24  3.3321e-28  1.0216e-23  4.411e-28  1.3936e-23  5.5648e-28  2.0555e-23  6.7763e-28  3.2334e-23  8.3476e-28  5.3304e-23  1.0206e-27  9.0673e-23  1.3263e-27  1.5737e-22  1.8605e-27  2.7674e-22  2.8006e-27  4.9146e-22   4.48e-27  8.8098e-22  7.5524e-27  1.598e-21  1.3301e-26   2.95e-21  2.4438e-26  5.5977e-21
      6.00  7.8339e-30  5.4796e-24  1.1787e-29  5.5976e-24  2.243e-29  5.8075e-24  4.9722e-29  6.1806e-24  1.1541e-28  6.9125e-24  2.3025e-28  8.0238e-24  3.4272e-28  1.0122e-23  4.5374e-28  1.3856e-23  5.5971e-28  2.0498e-23  6.9517e-28  3.2317e-23  8.5684e-28  5.3361e-23  1.0921e-27  9.0862e-23  1.4737e-27  1.578e-22  2.1442e-27  2.7762e-22  3.3379e-27  4.9319e-22  5.4966e-27  8.8442e-22  9.4534e-27  1.6051e-21  1.6882e-26  2.9655e-21  3.1345e-26  5.6341e-21
      6.05  7.0231e-30  5.4228e-24  1.0348e-29  5.5375e-24  1.9508e-29  5.7414e-24  4.3769e-29  6.104e-24  1.0289e-28  6.7487e-24  2.3069e-28  7.895e-24  3.5415e-28  9.9343e-24  4.6564e-28  1.3562e-23  5.8029e-28  2.0016e-23  7.1097e-28  3.1502e-23  8.7648e-28  5.1952e-23  1.145e-27  8.8396e-23  1.6018e-27  1.5345e-22  2.408e-27  2.6993e-22  3.851e-27  4.7953e-22  6.4626e-27  8.601e-22  1.1261e-26  1.5617e-21  2.0294e-26  2.8877e-21  3.7948e-26  5.4939e-21
      6.10  6.3386e-30  5.3977e-24  9.0875e-30  5.5065e-24  1.6601e-29  5.6999e-24  3.6715e-29  6.0437e-24  8.7242e-29  6.6551e-24  2.0043e-28  7.7422e-24  3.3252e-28  9.6759e-24  4.653e-28  1.3247e-23  5.6273e-28  1.9236e-23  6.8246e-28  3.0128e-23  8.6934e-28  4.9521e-23  1.1705e-27  8.4084e-23  1.6965e-27  1.4579e-22  2.6338e-27  2.5628e-22  4.311e-27  4.5516e-22  7.3492e-27  8.1646e-22  1.2943e-26  1.483e-21  2.3497e-26  2.7446e-21  4.4192e-26  5.229e-21
      6.15  5.9957e-30    5.4e-24  8.516e-30  5.5009e-24  1.5075e-29  5.6803e-24  3.2082e-29  5.9992e-24  7.3115e-29  6.5664e-24  1.5252e-28  7.5748e-24  2.5034e-28  9.3684e-24  3.8343e-28  1.2559e-23  4.897e-28  1.8235e-23  6.1795e-28  2.8338e-23  8.1851e-28  4.6325e-23  1.1452e-27  7.8384e-23  1.7243e-27  1.3562e-22  2.7548e-27  2.3814e-22  4.6081e-27  4.2272e-22  7.9687e-27  7.5819e-22  1.4161e-26  1.3776e-21  2.5867e-26  2.5516e-21  4.8885e-26  4.868e-21
      6.20  5.7771e-30  5.4243e-24  8.2433e-30  5.5144e-24  1.4308e-29  5.6746e-24  2.8909e-29  5.9596e-24  5.8216e-29  6.4661e-24  1.1268e-28  7.3669e-24  1.8167e-28  8.969e-24  2.7209e-28  1.1819e-23  3.809e-28  1.6889e-23  5.1906e-28  2.5911e-23  7.214e-28  4.1977e-23  1.0667e-27  7.0612e-23  1.6673e-27  1.2174e-22  2.7418e-27  2.1333e-22  4.6732e-27  3.783e-22  8.1799e-27  6.7827e-22  1.4649e-26  1.2327e-21   2.69e-26  2.2847e-21  5.1052e-26  4.3651e-21
      6.25  5.274e-30  5.4662e-24  7.5108e-30  5.5421e-24  1.272e-29  5.6769e-24  2.3244e-29  5.9167e-24  4.4057e-29  6.343e-24  8.2023e-29  7.101e-24  1.2792e-28  8.4491e-24  1.9352e-28  1.0847e-23  2.816e-28  1.5112e-23  4.0836e-28  2.2703e-23  6.0653e-28  3.6221e-23  9.4557e-28  6.0315e-23  1.5387e-27  1.0334e-22  2.5945e-27  1.8043e-22  4.4902e-27  3.1932e-22  7.9354e-27  5.7202e-22  1.4299e-26  1.0395e-21  2.637e-26  1.928e-21  5.0226e-26  3.6888e-21
      6.30  4.6124e-30  5.5497e-24  6.3634e-30  5.6102e-24  9.9245e-30  5.7178e-24  1.7836e-29  5.9091e-24  3.1763e-29  6.2492e-24  5.7721e-29  6.854e-24  8.553e-29  7.9297e-24  1.3435e-28  9.8426e-24  2.0872e-28  1.3246e-23  3.1537e-28  1.9301e-23  4.9931e-28  3.0085e-23  8.1208e-28  4.9307e-23  1.3657e-27  8.3638e-23  2.3484e-27  1.4516e-22  4.1152e-27  2.5603e-22  7.3275e-27  4.5789e-22  1.3267e-26  8.3167e-22  2.4553e-26  1.5432e-21  4.6913e-26  2.9568e-21
      6.35  4.0124e-30  5.6562e-24  5.2422e-30  5.7041e-24  7.8175e-30  5.7892e-24  1.2902e-29  5.9406e-24  2.3416e-29  6.2098e-24  4.2867e-29  6.7553e-24  5.889e-29  7.5396e-24  9.0301e-29  9.0534e-24  1.4725e-28  1.1746e-23  2.473e-28  1.6538e-23  4.0899e-28  2.5071e-23  6.9485e-28  4.0283e-23  1.196e-27  6.7453e-23  2.0888e-27  1.1615e-22  3.6988e-27  2.0395e-22  6.6288e-27  3.6389e-22  1.2053e-26  6.6036e-22  2.2375e-26  1.2256e-21  4.2877e-26  2.3513e-21
      6.40  3.4725e-30  5.7851e-24  4.4654e-30  5.824e-24  6.4345e-30  5.8932e-24  1.0079e-29  6.0161e-24  1.6913e-29  6.2347e-24  3.1303e-29  6.6233e-24  4.4163e-29  7.3144e-24  6.6863e-29  8.5437e-24  1.1084e-28  1.073e-23  1.953e-28  1.4621e-23  3.4747e-28  2.155e-23  6.1568e-28  3.3902e-23  1.0891e-27  5.5968e-23  1.9356e-27  9.5523e-23  3.4652e-27  1.6687e-22  6.2515e-27  2.9691e-22  1.1416e-26  5.3819e-22  2.1264e-26  9.9898e-22  4.0878e-26  1.9187e-21
      6.45  2.9942e-30  5.9332e-24  3.9421e-30  5.9653e-24  5.4932e-30  6.0225e-24  8.3734e-30  6.1242e-24  1.3386e-29  6.305e-24  2.3477e-29  6.6264e-24  3.7413e-29  7.1981e-24  5.7608e-29  8.2148e-24  9.7384e-29  1.0023e-23  1.7436e-28  1.3241e-23  3.1903e-28  1.8972e-23  5.8116e-28  2.9188e-23  1.051e-27  4.744e-23  1.8981e-27  8.0165e-23  3.4255e-27  1.3921e-22  6.2126e-27  2.4688e-22  1.1387e-26  4.4685e-22  2.1271e-26  8.2931e-22  4.1008e-26  1.5943e-21
      6.50  2.4858e-30  6.0979e-24  3.3718e-30  6.1246e-24  4.5853e-30  6.1722e-24  6.8827e-30  6.2567e-24  1.0796e-29  6.407e-24  1.8419e-29  6.6742e-24  2.904e-29  7.1494e-24  4.6496e-29  7.9946e-24  7.986e-29  9.4979e-24  1.4502e-28  1.2173e-23  2.7046e-28  1.6936e-23  5.0582e-28  2.5429e-23  9.3449e-28  4.0601e-23  1.7097e-27  6.7809e-23  3.1145e-27  1.1691e-22  5.6822e-27  2.065e-22  1.0455e-26  3.7301e-22  1.9588e-26  6.9185e-22  3.7865e-26  1.3308e-21
      6.55  2.0413e-30  6.309e-24  2.8249e-30  6.3316e-24  3.7738e-30  6.3718e-24  5.5489e-30  6.4434e-24  8.9177e-30  6.5706e-24  1.5415e-29  6.7969e-24  2.4395e-29  7.1993e-24  3.9097e-29  7.9149e-24  6.8879e-29  9.1879e-24  1.2762e-28  1.1453e-23  2.4248e-28  1.5487e-23  4.6155e-28  2.2678e-23  8.6839e-28  3.5527e-23  1.6111e-27  5.8571e-23  2.9607e-27  1.0017e-22  5.4318e-27  1.7609e-22  1.0033e-26  3.1727e-22  1.8854e-26  5.8789e-22  3.6536e-26  1.1309e-21
      6.60  1.7146e-30  6.5378e-24  2.3266e-30  6.5576e-24  3.1324e-30  6.5929e-24  4.5524e-30  6.6557e-24  7.4409e-30  6.7673e-24  1.349e-29  7.0354e-24  2.1705e-29  7.3187e-24  3.5164e-29  7.9465e-24  6.3071e-29  9.0633e-24  1.1961e-28  1.1051e-23  2.3108e-28  1.4589e-23  4.4591e-28  2.0899e-23  8.4938e-28  3.2173e-23  1.5933e-27  5.2393e-23  2.9541e-27  8.8897e-23  5.4508e-27  1.5554e-22  1.0107e-26  2.7954e-22  1.9043e-26  5.1738e-22  3.6986e-26  9.9515e-22
      6.65  1.428e-30  6.7831e-24  1.8674e-30  6.8013e-24  2.5934e-30  6.8335e-24  3.7191e-30  6.8907e-24  6.0876e-30  6.9926e-24  1.146e-29  7.1737e-24  1.919e-29  7.4958e-24  3.1861e-29  8.0687e-24  5.8732e-29  9.0879e-24  1.1407e-28  1.0902e-23  2.2413e-28  1.4131e-23  4.3785e-28  1.989e-23  8.4284e-28  3.0181e-23  1.5963e-27  4.8638e-23  2.9826e-27  8.1965e-23  5.5342e-27  1.4282e-22   1.03e-26  2.561e-22  1.9458e-26  4.7349e-22  3.7869e-26  9.1055e-22
      6.70  1.1878e-30  7.044e-24  1.507e-30  7.0611e-24  2.0917e-30  7.0915e-24   3.13e-30  7.1457e-24  5.288e-30  7.2419e-24  1.0614e-29  7.413e-24  1.9497e-29  7.7173e-24  3.4194e-29  8.2587e-24  6.5786e-29  9.2216e-24  1.3048e-28  1.0935e-23  2.5827e-28  1.3987e-23  5.0538e-28  1.9429e-23  9.7387e-28  2.9153e-23  1.8464e-27  4.6596e-23  3.4561e-27  7.8094e-23  6.4254e-27  1.3562e-22  1.1978e-26  2.4274e-22  2.2657e-26  4.4841e-22  4.4153e-26  8.6222e-22
      6.75  9.8956e-31  7.3193e-24  1.2036e-30  7.3359e-24  1.7021e-30  7.3654e-24  2.6489e-30  7.4179e-24  4.8882e-30  7.5113e-24  1.0558e-29  7.6773e-24  2.0589e-29  7.9725e-24  3.8495e-29  8.4976e-24  7.6292e-29  9.4317e-24  1.5277e-28  1.1094e-23  3.0177e-28  1.4055e-23  5.8873e-28  1.9334e-23  1.1305e-27  2.8767e-23  2.1398e-27  4.5691e-23  4.0035e-27  7.6254e-23  7.447e-27  1.3209e-22  1.3894e-26  2.3606e-22  2.6305e-26  4.3581e-22  5.131e-26  8.3795e-22
      6.80  8.2836e-31  7.6481e-24  9.7135e-31  7.6646e-24  1.387e-30  7.6938e-24  2.2822e-30  7.7458e-24  4.4773e-30  7.8383e-24  1.0034e-29  8.0028e-24  2.1374e-29  8.2952e-24  4.0958e-29  8.8154e-24  8.237e-29  9.7407e-24  1.6477e-28  1.1388e-23  3.2432e-28  1.432e-23  6.3087e-28  1.955e-23   1.21e-27  2.8896e-23  2.2896e-27  4.5663e-23  4.2872e-27  7.5945e-23  7.9863e-27  1.3127e-22  1.4922e-26  2.3434e-22  2.829e-26  4.3241e-22  5.5246e-26  8.314e-22
      6.85  6.9805e-31  7.9947e-24  7.9694e-31  8.0113e-24  1.098e-30  8.0407e-24  1.9211e-30  8.0931e-24  3.9098e-30  8.1862e-24  9.5044e-30  8.3518e-24  2.253e-29  8.6462e-24  4.4659e-29  9.1699e-24  9.1893e-29  1.0102e-23  1.8384e-28  1.176e-23  3.6278e-28  1.4713e-23  7.0481e-28  1.9978e-23  1.3504e-27  2.9389e-23  2.5528e-27  4.6272e-23  4.7775e-27  7.6768e-23  8.9007e-27  1.3249e-22  1.664e-26  2.3632e-22  3.1569e-26  4.3593e-22  6.1703e-26  8.3822e-22
      6.90  5.9444e-31  8.3583e-24  6.7252e-31  8.3751e-24  9.075e-31  8.4049e-24  1.5987e-30  8.4579e-24  3.6396e-30  8.5522e-24  9.6174e-30  8.7199e-24  2.4349e-29  9.018e-24  5.0097e-29  9.5482e-24  1.0521e-28  1.0492e-23  2.1151e-28  1.217e-23  4.202e-28  1.516e-23  8.2181e-28  2.0492e-23  1.5772e-27  3.002e-23  2.9789e-27  4.7116e-23  5.5662e-27  7.7997e-23  1.0358e-26  1.3444e-22  1.9355e-26  2.3961e-22  3.6721e-26  4.4188e-22   7.18e-26  8.4974e-22
      6.95  5.115e-31  8.7383e-24  5.8444e-31  8.7552e-24  8.0069e-31  8.7851e-24  1.4743e-30  8.8384e-24  3.5456e-30  8.9332e-24  9.6065e-30  9.1016e-24  2.4886e-29  9.4012e-24  5.1624e-29  9.934e-24  1.067e-28  1.0882e-23  2.1371e-28  1.2569e-23  4.2918e-28  1.5573e-23  8.4553e-28  2.093e-23  1.6286e-27  3.0504e-23  3.082e-27  4.7682e-23  5.7662e-27  7.8715e-23  1.0739e-26  1.3544e-22  2.0083e-26  2.4117e-22  3.8133e-26  4.4456e-22  7.4626e-26  8.5487e-22
      7.00  4.4214e-31  9.134e-24  5.131e-31  9.1506e-24  7.3145e-31  9.1801e-24  1.376e-30  9.2326e-24  3.3293e-30  9.3259e-24  9.0568e-30  9.4919e-24  2.5162e-29  9.7869e-24  5.2199e-29  1.0312e-23  1.0477e-28  1.1245e-23  2.1272e-28  1.2907e-23  4.3157e-28  1.5865e-23  8.5628e-28  2.1141e-23  1.659e-27  3.0571e-23  3.1547e-27  4.749e-23  5.921e-27  7.8057e-23  1.1051e-26  1.3393e-22  2.0693e-26  2.3811e-22  3.9336e-26  4.3858e-22  7.7057e-26  8.4317e-22
      7.05  3.7088e-31  9.5954e-24  4.3843e-31  9.6113e-24  6.4018e-31  9.6394e-24  1.2299e-30  9.6896e-24  3.0163e-30  9.7787e-24  8.4509e-30  9.9372e-24  2.399e-29  1.0219e-23  5.1625e-29  1.072e-23  1.0473e-28  1.1612e-23  2.1386e-28  1.3199e-23  4.3722e-28  1.6024e-23  8.7668e-28  2.1062e-23  1.721e-27  3.0065e-23  3.3028e-27  4.6221e-23  6.2368e-27  7.541e-23  1.1683e-26  1.2877e-22  2.1928e-26  2.2828e-22  4.1746e-26  4.1983e-22  8.1875e-26  8.0659e-22
      7.10  3.0759e-31  1.0078e-23  3.6743e-31  1.0092e-23  5.4434e-31  1.0118e-23  1.0807e-30  1.0164e-23  2.6875e-30  1.0246e-23  7.6965e-30  1.0391e-23  2.2144e-29  1.065e-23  5.1114e-29  1.111e-23  1.0596e-28  1.1928e-23  2.1599e-28  1.3383e-23  4.4175e-28  1.5975e-23  9.0368e-28  2.0595e-23  1.8054e-27  2.8853e-23  3.5112e-27  4.3668e-23  6.6876e-27  7.0438e-23  1.2595e-26  1.1938e-22  2.3718e-26  2.1067e-22  4.5246e-26  3.8644e-22  8.8866e-26  7.4149e-22
      7.15  2.5467e-31  1.058e-23  3.0609e-31  1.0593e-23  4.6071e-31  1.0616e-23  9.2725e-31  1.0656e-23  2.3985e-30  1.0728e-23  6.6769e-30  1.0856e-23  1.8916e-29  1.1083e-23  4.614e-29  1.1487e-23  9.3148e-29  1.2205e-23  1.8654e-28  1.3482e-23  3.8667e-28  1.5757e-23  8.0511e-28  1.9811e-23  1.6419e-27  2.7056e-23  3.252e-27  4.0054e-23  6.2811e-27  6.354e-23  1.1945e-26  1.0649e-22  2.2639e-26  1.8659e-22  4.3367e-26  3.4087e-22  8.5408e-26  6.5263e-22
      7.20  2.096e-31  1.1104e-23  2.5266e-31  1.1115e-23  3.837e-31  1.1134e-23  7.8556e-31  1.1168e-23  1.9665e-30  1.1229e-23  5.3914e-30  1.1337e-23  1.5078e-29  1.1529e-23  3.7981e-29  1.187e-23  7.3517e-29  1.2478e-23  1.5042e-28  1.3558e-23  3.1729e-28  1.5481e-23  6.7469e-28  1.8908e-23  1.4123e-27  2.5031e-23  2.8675e-27  3.6015e-23  5.651e-27  5.586e-23  1.0906e-26  9.2149e-23  2.0879e-26  1.5985e-22  4.0261e-26  2.9025e-22  7.963e-26  5.5385e-22
      7.25  1.716e-31  1.1648e-23  2.0628e-31  1.1657e-23  3.114e-31  1.1673e-23  6.2274e-31  1.1702e-23  1.534e-30  1.1752e-23  4.1046e-30  1.1842e-23  1.1063e-29  1.2001e-23  2.765e-29  1.2285e-23  5.4908e-29  1.2789e-23  1.1236e-28  1.3687e-23  2.4003e-28  1.5284e-23  5.2487e-28  1.813e-23  1.1328e-27  2.3214e-23  2.3734e-27  3.2332e-23  4.8012e-27  4.8805e-23  9.4511e-27  7.8928e-23  1.8345e-26  1.3512e-22  3.5703e-26  2.4339e-22  7.1034e-26  4.6228e-22
      7.30  1.3982e-31  1.2278e-23  1.6685e-31  1.2285e-23  2.4677e-31  1.2298e-23  4.841e-31  1.2322e-23  1.1748e-30  1.2364e-23  3.0556e-30  1.2439e-23  8.069e-30  1.2572e-23  1.9767e-29  1.2809e-23  4.1472e-29  1.323e-23  8.4491e-29  1.398e-23  1.7873e-28  1.5314e-23  4.0056e-28  1.7691e-23  8.9867e-28  2.1936e-23  1.956e-27  2.955e-23  4.0907e-27  4.3302e-23  8.2616e-27  6.8447e-23  1.6333e-26  1.1536e-22  3.2181e-26  2.0574e-22  6.4538e-26  3.8847e-22
      7.35  1.1385e-31  1.2936e-23  1.3416e-31  1.2942e-23  1.9428e-31  1.2953e-23  3.7262e-31  1.2973e-23  8.9241e-31  1.3009e-23  2.2443e-30  1.3073e-23  5.8624e-30  1.3187e-23  1.4761e-29  1.3389e-23  3.2738e-29  1.3748e-23  6.5831e-29  1.4386e-23  1.3961e-28  1.5523e-23  3.1805e-28  1.755e-23  7.3904e-28  2.1169e-23  1.6688e-27  2.766e-23  3.5982e-27  3.9382e-23  7.4473e-27  6.0814e-23  1.4992e-26  1.0079e-22  2.9907e-26  1.7782e-22  6.0469e-26  3.3354e-22
      7.40  9.2748e-32  1.3622e-23  1.0826e-31  1.3628e-23  1.5419e-31  1.3637e-23  2.9068e-31  1.3655e-23  6.8948e-31  1.3687e-23  1.7212e-30  1.3742e-23  4.4821e-30  1.3842e-23  1.1761e-29  1.4018e-23  2.8113e-29  1.4332e-23  5.4866e-29  1.4891e-23  1.1596e-28  1.5885e-23  2.6689e-28  1.7658e-23  6.3079e-28  2.0825e-23  1.4618e-27  2.6503e-23  3.2397e-27  3.6758e-23  6.8598e-27  5.5506e-23  1.4046e-26  9.0476e-23  2.8359e-26  1.5784e-22  5.7795e-26  2.9403e-22
      7.45  7.5708e-32  1.4337e-23  8.8013e-32  1.4342e-23  1.244e-31  1.4351e-23  2.3062e-31  1.4366e-23  5.4549e-31  1.4395e-23  1.3653e-30  1.4445e-23  3.5647e-30  1.4534e-23  9.4579e-30  1.4692e-23  2.2176e-29  1.4974e-23  4.2771e-29  1.5476e-23  8.9197e-29  1.6369e-23  2.0656e-28  1.7962e-23  4.9738e-28  2.0807e-23  1.1849e-27  2.5909e-23  2.7082e-27  3.5124e-23  5.8958e-27  5.1968e-23  1.2339e-26  8.3385e-23  2.5304e-26  1.439e-22  5.2119e-26  2.6622e-22
      7.50  6.1982e-32  1.5079e-23  7.2158e-32  1.5084e-23  1.0258e-31  1.5092e-23  1.9036e-31  1.5106e-23  4.5239e-31  1.5132e-23  1.1257e-30  1.5178e-23  2.9833e-30  1.526e-23  7.9197e-30  1.5406e-23  1.8445e-29  1.5666e-23  3.5286e-29  1.6128e-23  7.2172e-29  1.695e-23  1.6755e-28  1.8416e-23  4.0769e-28  2.1036e-23  9.9214e-28  2.5735e-23  2.3306e-27  3.4222e-23  5.2123e-27  4.9735e-23  1.1154e-26  7.8667e-23  2.3251e-26  1.3439e-22  4.8424e-26   2.47e-22
      7.55  5.0918e-32  1.593e-23  5.9825e-32  1.5935e-23  8.6562e-32  1.5942e-23  1.6347e-31  1.5956e-23  3.9337e-31  1.598e-23  9.9229e-31  1.6024e-23  2.6253e-30  1.6101e-23  6.9872e-30  1.6239e-23  1.5724e-29  1.6483e-23  3.0568e-29  1.6918e-23  6.1902e-29  1.7693e-23  1.4142e-28  1.9076e-23  3.4439e-28  2.1545e-23  8.4957e-28  2.5975e-23  2.0424e-27  3.3976e-23  4.6903e-27  4.8601e-23  1.0281e-26  7.5873e-23  2.1841e-26  1.2839e-22  4.6097e-26  2.3451e-22
      7.60  4.2016e-32  1.6819e-23  5.0205e-32  1.6823e-23  7.4972e-32  1.6831e-23  1.4777e-31  1.6844e-23  3.5812e-31  1.6868e-23  9.3044e-31  1.6909e-23  2.4783e-30  1.6984e-23  6.566e-30  1.7116e-23  1.3685e-29  1.7351e-23  2.6932e-29  1.7769e-23  5.3174e-29  1.8515e-23  1.181e-28  1.9843e-23  2.8272e-28  2.2218e-23  6.9621e-28  2.6478e-23  1.6942e-27  3.4174e-23  3.9692e-27  4.8239e-23  8.8876e-27  7.4468e-23  1.9225e-26  1.2497e-22  4.1127e-26   2.27e-22
      7.65  3.4785e-32  1.7746e-23  4.251e-32  1.775e-23  6.6053e-32  1.7758e-23  1.3504e-31  1.7771e-23  3.3636e-31  1.7794e-23  8.844e-31  1.7834e-23  2.3454e-30  1.7907e-23  6.1953e-30  1.8036e-23  1.2153e-29  1.8266e-23  2.3967e-29  1.8675e-23  4.6629e-29  1.9403e-23  1.0052e-28  2.0702e-23  2.3504e-28  2.3024e-23  5.7309e-28  2.7189e-23  1.4018e-27  3.4713e-23  3.3366e-27  4.8467e-23  7.621e-27  7.4112e-23  1.6794e-26  1.2349e-22  3.6455e-26  2.2323e-22
      7.70  2.8766e-32  1.8711e-23  3.6104e-32  1.8715e-23  5.8642e-32  1.8722e-23  1.2435e-31  1.8735e-23  3.1513e-31  1.8758e-23  8.3585e-31  1.8798e-23  2.2632e-30  1.887e-23  6.0403e-30  1.8998e-23  1.0968e-29  1.9226e-23  2.1312e-29  1.9631e-23  4.1266e-29  2.0352e-23  8.649e-29  2.1639e-23  1.9693e-28  2.3938e-23  4.7293e-28  2.8063e-23  1.156e-27  3.5516e-23  2.7837e-27  4.9139e-23  6.475e-27  7.4541e-23  1.454e-26  1.2344e-22  3.2062e-26  2.2222e-22
      7.75  2.3937e-32  1.9713e-23  3.0938e-32  1.9717e-23  5.258e-32  1.9725e-23  1.1556e-31  1.9737e-23  2.9702e-31  1.976e-23  8.0575e-31  1.9801e-23  2.1725e-30  1.9872e-23  5.5064e-30      2e-23  1.0095e-29  2.0228e-23  1.9126e-29  2.0633e-23  3.6898e-29  2.1354e-23  7.5326e-29  2.2639e-23  1.6667e-28  2.4938e-23  3.9216e-28  2.9061e-23  9.5184e-28  3.6511e-23  2.3075e-27  5.013e-23  5.452e-27  7.5524e-23  1.2472e-26  1.2441e-22  2.7965e-26  2.2313e-22
      7.80  1.9951e-32  2.0857e-23  2.6573e-32  2.0861e-23  4.722e-32  2.0868e-23  1.0706e-31  2.0881e-23  2.7865e-31  2.0904e-23   7.65e-31  2.0944e-23  2.0707e-30  2.1017e-23  5.0657e-30  2.1145e-23  9.2268e-30  2.1374e-23  1.7289e-29  2.1782e-23  3.332e-29  2.2508e-23  6.6075e-29  2.3803e-23  1.4217e-28  2.6118e-23  3.2682e-28  3.0271e-23  7.8399e-28  3.7775e-23  1.9046e-27  5.1492e-23  4.559e-27  7.7069e-23  1.0619e-26  1.263e-22  2.4236e-26  2.2572e-22
      7.85  1.6604e-32  2.2051e-23  2.2756e-32  2.2055e-23  4.2074e-32  2.2062e-23  9.7885e-32  2.2075e-23  2.5491e-31  2.2099e-23  7.1728e-31  2.214e-23  1.9159e-30  2.2213e-23  4.6222e-30  2.2343e-23  8.3786e-30  2.2574e-23  1.5533e-29  2.2986e-23  2.9564e-29  2.3719e-23  5.7997e-29  2.5026e-23  1.2127e-28  2.7363e-23  2.7315e-28  3.1557e-23  6.4586e-28  3.9134e-23  1.5666e-27  5.2984e-23  3.7889e-27  7.881e-23  8.9803e-27  1.2852e-22  2.0885e-26  2.289e-22
      7.90  1.3789e-32  2.3297e-23  1.9251e-32  2.3301e-23  3.669e-32  2.3309e-23  8.7545e-32  2.3322e-23  2.3184e-31  2.3345e-23  6.3412e-31  2.3386e-23  1.7408e-30  2.346e-23  4.0096e-30  2.3591e-23  7.2428e-30  2.3825e-23  1.3334e-29  2.424e-23  2.5215e-29  2.498e-23  4.8828e-29   2.63e-23  1.0042e-28  2.8659e-23  2.2068e-28  3.2893e-23  5.1425e-28  4.0541e-23  1.2438e-27  5.4523e-23  3.0373e-27  8.0594e-23   7.33e-27  1.3077e-22  1.7404e-26  2.3208e-22
      7.95  1.1405e-32  2.4595e-23  1.6188e-32  2.4599e-23  3.1589e-32  2.4606e-23  7.6486e-32  2.4619e-23  2.0159e-31  2.4643e-23  5.5725e-31  2.4685e-23  1.5397e-30  2.4759e-23  3.3624e-30  2.4891e-23  6.1189e-30  2.5126e-23  1.1206e-29  2.5544e-23  2.0981e-29  2.6289e-23  4.0356e-29  2.7617e-23  8.1287e-29  2.999e-23  1.7489e-28  3.425e-23  4.0256e-28  4.1946e-23  9.6732e-28  5.6015e-23  2.3745e-27  8.2247e-23  5.8158e-27  1.3273e-22  1.4076e-26  2.3465e-22
      8.00  9.3839e-33  2.5944e-23  1.3438e-32  2.5948e-23  2.6617e-32  2.5955e-23  6.518e-32  2.5969e-23  1.7207e-31  2.5992e-23  4.7607e-31  2.6034e-23  1.3196e-30  2.6108e-23  2.7899e-30  2.6241e-23  5.0166e-30  2.6476e-23  9.2329e-30  2.6895e-23  1.7173e-29  2.7642e-23  3.2846e-29  2.8973e-23  6.5329e-29  3.1352e-23  1.3819e-28  3.5621e-23  3.1176e-28  4.3334e-23  7.4249e-28  5.7433e-23  1.8258e-27  8.3721e-23  4.5232e-27  1.3431e-22  1.1136e-26  2.3643e-22
      8.05  7.6765e-33  2.7478e-23  1.1002e-32  2.7482e-23  2.1935e-32  2.7489e-23  5.3973e-32  2.7502e-23  1.4685e-31  2.7802e-23  3.9882e-31  2.7568e-23  1.0959e-30  2.7642e-23  2.2651e-30  2.7775e-23  4.067e-30  2.801e-23  7.3932e-30  2.8429e-23  1.3806e-29  2.9176e-23  2.6249e-29  3.0508e-23  5.1703e-29  3.2888e-23  1.0779e-28  3.7159e-23  2.3981e-28  4.4875e-23  5.6628e-28  5.898e-23  1.3929e-27  8.5275e-23  3.4843e-27  1.3587e-22  8.714e-27  2.3799e-22
      8.10  6.2482e-33  2.9082e-23  8.8935e-33  2.9086e-23  1.7583e-32  2.9093e-23  4.3167e-32  2.9107e-23   1.16e-31  2.913e-23  3.2186e-31  2.9172e-23  8.9458e-31  2.9246e-23  1.8014e-30  2.9378e-23  3.2314e-30  2.9613e-23  5.8608e-30  3.0031e-23  1.0802e-29  3.0775e-23  2.0593e-29  3.2102e-23  4.0319e-29  3.4475e-23  8.3077e-29  3.8733e-23  1.8264e-28  4.6424e-23  4.278e-28  6.0484e-23  1.0516e-27  8.6694e-23  2.6508e-27  1.3712e-22  6.7233e-27  2.3887e-22
      8.15  5.0688e-33  3.0757e-23  7.1205e-33  3.0761e-23  1.3932e-32  3.0768e-23  3.3798e-32  3.0781e-23  9.1375e-32  3.0805e-23  2.5375e-31  3.0846e-23  7.0007e-31  3.092e-23  1.4196e-30  3.1051e-23  2.524e-30  3.1285e-23  4.6122e-30   3.17e-23  8.3908e-30  3.2441e-23  1.5907e-29  3.3761e-23  3.0885e-29  3.6121e-23  6.3096e-29  4.0355e-23  1.3709e-28  4.8005e-23  3.1819e-28  6.1987e-23  7.7999e-28  8.8049e-23  1.9767e-27  1.3819e-22  5.0751e-27  2.3933e-22
      8.20  4.1065e-33  3.2502e-23  5.6652e-33  3.2506e-23  1.089e-32  3.2514e-23  2.6182e-32  3.2527e-23  7.0228e-32  3.255e-23  1.9418e-31  3.2591e-23  5.4771e-31  3.2664e-23  1.0825e-30  3.2795e-23  1.9628e-30  3.3027e-23  3.514e-30  3.344e-23  6.4388e-30  3.4175e-23  1.2161e-29  3.5487e-23  2.3519e-29  3.7832e-23  4.7671e-29  4.2038e-23  1.0271e-28  4.9638e-23  2.3681e-28  6.3527e-23  5.7946e-28  8.9414e-23  1.4756e-27  1.392e-22  3.8082e-27  2.3962e-22
      8.25  3.2991e-33  3.4317e-23  4.4673e-33  3.4321e-23  8.1294e-33  3.4328e-23  2.0019e-32  3.4341e-23  5.3473e-32  3.4364e-23  1.494e-31  3.4405e-23  4.1856e-31  3.4478e-23  8.3358e-31  3.4607e-23  1.4811e-30  3.4838e-23  2.6775e-30  3.5248e-23  4.8984e-30  3.5979e-23  9.2285e-30  3.7283e-23  1.7751e-29  3.9612e-23  3.5623e-29  4.3792e-23  7.7867e-29  5.1858e-23  1.7656e-28  6.5143e-23  4.2934e-28  9.0861e-23  1.1047e-27  1.4032e-22  2.8959e-27  2.4003e-22
      8.30  2.6832e-33  3.6369e-23  3.5525e-33  3.6373e-23  6.2908e-33  3.638e-23  1.4975e-32  3.6393e-23  4.0422e-32  3.6416e-23  1.1229e-31  3.6457e-23  3.1708e-31  3.653e-23  6.322e-31  3.6659e-23  1.1336e-30  3.6889e-23  2.0485e-30  3.7299e-23  3.7436e-30  3.8029e-23  6.9762e-30  3.933e-23  1.3408e-29  4.1656e-23  2.6975e-29  4.5828e-23  5.7648e-29  5.3366e-23  1.3203e-28  6.7141e-23  3.2118e-28  9.2807e-23  8.3031e-28  1.4216e-22  2.1965e-27  2.4163e-22
      8.35  2.1868e-33  3.8506e-23  2.8199e-33  3.851e-23  4.8259e-33  3.8517e-23  1.1192e-32  3.853e-23  2.961e-32  3.8553e-23  8.2713e-32  3.8594e-23  2.3394e-31  3.8667e-23  4.6776e-31  3.8796e-23  8.3843e-31  3.9027e-23  1.5293e-30  3.9437e-23  2.769e-30  4.0167e-23  5.1598e-30  4.1469e-23  9.9175e-30  4.3796e-23  1.9957e-29  4.7972e-23  4.2693e-29  5.5515e-23  9.799e-29  6.9297e-23  2.4071e-28  9.4975e-23  6.2311e-28  1.4433e-22  1.6649e-27  2.438e-22
      8.40  1.7911e-33  4.0719e-23  2.2454e-33  4.0723e-23  3.6969e-33  4.0731e-23  8.4384e-33  4.1154e-23  2.1463e-32  4.0767e-23  5.9836e-32  4.0808e-23  1.6708e-31  4.0881e-23  3.3858e-31  4.1011e-23  6.0676e-31  4.1242e-23  1.0965e-30  4.1653e-23  2.006e-30  4.2386e-23  3.7432e-30  4.3693e-23  7.2098e-30  4.6028e-23  1.4555e-29  5.0218e-23  3.1278e-29  5.7786e-23  7.2234e-29  7.1613e-23  1.7878e-28  9.7372e-23   4.64e-28  1.4688e-22  1.2616e-27  2.4661e-22
      8.45  1.4801e-33  4.2996e-23  1.8094e-33    4.3e-23  2.8731e-33  4.3008e-23  5.9535e-33  4.3021e-23  1.5772e-32  4.3044e-23  4.3625e-32  4.3085e-23  1.2139e-31  4.3159e-23  2.4465e-31  4.3289e-23  4.4266e-31  4.3522e-23  8.0009e-31  4.3936e-23  1.4648e-30  4.4673e-23  2.7374e-30  4.5988e-23  5.2837e-30  4.8337e-23  1.0701e-29  5.2553e-23  2.3099e-29  6.0166e-23  5.3655e-29  7.4076e-23  1.3373e-28  9.9985e-23  3.4993e-28  1.4977e-22   9.61e-28  2.5003e-22
      8.50  1.2348e-33  4.5319e-23  1.477e-33  4.5323e-23  2.2696e-33  4.5331e-23  4.5287e-33  4.5344e-23  1.1636e-32  4.5367e-23  3.1963e-32  4.5409e-23  8.9307e-32  4.5483e-23  1.8011e-31  4.5615e-23  3.2584e-31  4.5849e-23  5.8907e-31  4.6267e-23  1.0792e-30  4.701e-23  2.0192e-30  4.8336e-23  3.9056e-30  5.0705e-23  7.9332e-30  5.4956e-23  1.7195e-29  6.2633e-23  4.0149e-29  7.6658e-23  1.007e-28  1.0278e-22  2.6724e-28  1.5296e-22  7.3527e-28  2.5399e-22
