# This was generated using Cloudy10 and the columns are ordered 
# as log10 of the fraction of the metallicity to the solar metallicity
# 'h_*_Z' and 'c_*_Z' stands for cooling and heating respectively 
# at * metalicity
#
# Redshift = 5.5
# hden = 2.5
#     temp   h_-3.00_Z   c_-3.00_Z   h_-2.75_Z   c_-2.75_Z   h_-2.50_Z   c_-2.50_Z   h_-2.25_Z   c_-2.25_Z   h_-2.00_Z   c_-2.00_Z   h_-1.75_Z   c_-1.75_Z   h_-1.50_Z   c_-1.50_Z   h_-1.25_Z   c_-1.25_Z   h_-1.00_Z   c_-1.00_Z   h_-0.75_Z   c_-0.75_Z   h_-0.50_Z   c_-0.50_Z   h_-0.25_Z   c_-0.25_Z    h_0.00_Z    c_0.00_Z    h_0.25_Z    c_0.25_Z    h_0.50_Z    c_0.50_Z    h_0.75_Z    c_0.75_Z    h_1.00_Z    c_1.00_Z    h_1.25_Z    c_1.25_Z    h_1.50_Z    c_1.50_Z 
      1.00  1.1894e-26  2.3375e-30  1.1894e-26  2.3422e-30  1.1894e-26  2.3505e-30  1.1895e-26  2.3653e-30  1.1896e-26  2.3916e-30  1.1897e-26  2.4383e-30   1.19e-26  2.5215e-30  1.1906e-26  2.6694e-30  1.1915e-26  2.9326e-30  1.1933e-26  3.4014e-30  1.1963e-26  4.2369e-30  1.2018e-26  5.7291e-30  1.2116e-26  8.4019e-30  1.2291e-26  1.3214e-29  1.2606e-26  2.1945e-29  1.3178e-26  3.7962e-29  1.4227e-26  6.7726e-29  1.6183e-26  1.2368e-28  1.9903e-26  2.2946e-28
      1.05  1.1891e-26  2.6227e-30  1.1891e-26  2.6315e-30  1.1891e-26  2.6472e-30  1.1892e-26  2.675e-30  1.1893e-26  2.7244e-30  1.1895e-26  2.8123e-30  1.1898e-26  2.9687e-30  1.1903e-26  3.2469e-30  1.1913e-26  3.7419e-30  1.193e-26  4.6233e-30  1.196e-26  6.1939e-30  1.2015e-26  8.9969e-30  1.2112e-26  1.4013e-29  1.2285e-26  2.3028e-29  1.2598e-26  3.9339e-29  1.3165e-26  6.9131e-29  1.4206e-26  1.2415e-28  1.6145e-26  2.2674e-28  1.9833e-26  4.1878e-28
      1.10  1.1888e-26  2.9434e-30  1.1889e-26  2.958e-30  1.1889e-26  2.984e-30  1.1889e-26  3.0302e-30  1.189e-26  3.1123e-30  1.1892e-26  3.2585e-30  1.1895e-26  3.5184e-30   1.19e-26  3.9808e-30  1.191e-26  4.8034e-30  1.1927e-26  6.2677e-30  1.1957e-26  8.8756e-30  1.2011e-26  1.3526e-29  1.2108e-26  2.1837e-29  1.228e-26  3.6736e-29  1.2591e-26  6.3589e-29  1.3155e-26  1.1234e-28  1.419e-26  2.016e-28  1.6117e-26  3.6621e-28  1.9783e-26  6.7059e-28
      1.15  1.1886e-26  3.3044e-30  1.1886e-26  3.3274e-30  1.1886e-26  3.3684e-30  1.1887e-26  3.4413e-30  1.1888e-26  3.5708e-30  1.1889e-26  3.8012e-30  1.1892e-26  4.211e-30  1.1898e-26  4.9398e-30  1.1907e-26  6.2362e-30  1.1924e-26  8.5428e-30  1.1954e-26  1.2649e-29  1.2008e-26  1.9963e-29  1.2104e-26  3.3009e-29  1.2275e-26  5.6327e-29  1.2584e-26  9.8138e-29  1.3145e-26  1.7345e-28  1.4174e-26  3.0978e-28  1.6091e-26  5.5761e-28  1.9736e-26  1.0086e-27
      1.20  1.1883e-26  3.7119e-30  1.1883e-26  3.7474e-30  1.1883e-26  3.8104e-30  1.1884e-26  3.9224e-30  1.1885e-26  4.1216e-30  1.1886e-26  4.4758e-30  1.1889e-26  5.1057e-30  1.1895e-26  6.226e-30  1.1904e-26  8.2183e-30  1.1921e-26  1.1762e-29  1.1951e-26  1.8065e-29  1.2004e-26  2.9279e-29   1.21e-26  4.9239e-29  1.227e-26  8.4786e-29  1.2578e-26  1.4814e-28  1.3135e-26  2.6118e-28  1.4158e-26  4.6301e-28  1.6065e-26  8.2336e-28  1.9691e-26  1.4659e-27
      1.25  1.188e-26  4.1732e-30  1.188e-26  4.2268e-30  1.188e-26  4.3222e-30  1.1881e-26  4.4918e-30  1.1882e-26  4.7934e-30  1.1884e-26  5.3298e-30  1.1887e-26  6.2836e-30  1.1892e-26  7.9794e-30  1.1901e-26  1.0995e-29  1.1918e-26  1.6356e-29  1.1948e-26  2.5884e-29  1.2001e-26  4.2816e-29  1.2095e-26  7.2883e-29  1.2265e-26  1.2622e-28  1.2571e-26  2.2067e-28  1.3125e-26  3.8744e-28  1.4143e-26  6.8066e-28  1.604e-26  1.1934e-27  1.9648e-26  2.0859e-27
      1.30  1.1877e-26  4.7973e-30  1.1877e-26  4.8774e-30  1.1877e-26  5.0198e-30  1.1878e-26  5.273e-30  1.1879e-26  5.7232e-30  1.1881e-26  6.5237e-30  1.1884e-26  7.9471e-30  1.1889e-26  1.0478e-29  1.1898e-26  1.4976e-29  1.1915e-26  2.2971e-29  1.1944e-26  3.7171e-29  1.1997e-26  6.237e-29  1.2091e-26  1.0695e-28  1.226e-26  1.8586e-28  1.2564e-26  3.2469e-28  1.3115e-26  5.6727e-28  1.4127e-26   9.87e-28  1.6015e-26  1.7049e-27  1.9606e-26  2.9214e-27
      1.35  1.1874e-26  5.4986e-30  1.1874e-26  5.6161e-30  1.1874e-26  5.8249e-30  1.1875e-26  6.1963e-30  1.1876e-26  6.8566e-30  1.1878e-26  8.0308e-30  1.188e-26  1.0119e-29  1.1886e-26  1.383e-29  1.1895e-26  2.0426e-29  1.1911e-26  3.2143e-29  1.1941e-26  5.2941e-29  1.1993e-26  8.9808e-29  1.2087e-26   1.55e-28  1.2254e-26  2.6972e-28  1.2556e-26  4.705e-28  1.3105e-26  8.1787e-28  1.4112e-26  1.4097e-27  1.5991e-26  2.3998e-27  1.9565e-26  4.0314e-27
      1.40  1.1871e-26  6.2916e-30  1.1871e-26  6.4603e-30  1.1871e-26  6.7602e-30  1.1872e-26  7.2935e-30  1.1873e-26  8.2418e-30  1.1874e-26  9.928e-30  1.1877e-26  1.2926e-29  1.1882e-26  1.8254e-29  1.1892e-26  2.7722e-29  1.1908e-26  4.4537e-29  1.1937e-26  7.4367e-29  1.1989e-26  1.2719e-28  1.2082e-26  2.2043e-28  1.2249e-26  3.8402e-28  1.2549e-26  6.6879e-28  1.3094e-26  1.1571e-27  1.4096e-26  1.9774e-27  1.5965e-26  3.3212e-27  1.9522e-26  5.4752e-27
      1.45  1.1868e-26  7.1885e-30  1.1868e-26  7.4249e-30  1.1868e-26  7.8453e-30  1.1869e-26  8.5927e-30  1.1869e-26  9.9218e-30  1.1871e-26  1.2285e-29  1.1874e-26  1.6486e-29  1.1879e-26  2.3952e-29  1.1888e-26  3.7218e-29  1.1905e-26  6.077e-29  1.1933e-26  1.0253e-28  1.1985e-26  1.7642e-28  1.2077e-26  3.0665e-28  1.2243e-26  5.3456e-28  1.2541e-26  9.2945e-28  1.3083e-26  1.6014e-27  1.4079e-26  2.7162e-27  1.5938e-26  4.5077e-27  1.9477e-26  7.3054e-27
      1.50  1.1864e-26  8.2023e-30  1.1864e-26  8.5252e-30  1.1865e-26  9.0994e-30  1.1865e-26  1.012e-29  1.1866e-26  1.1936e-29  1.1868e-26  1.5164e-29  1.1871e-26  2.0902e-29  1.1876e-26  3.1099e-29  1.1885e-26  4.9215e-29  1.1901e-26  8.137e-29  1.193e-26  1.3836e-28  1.1981e-26  2.3913e-28  1.2072e-26  4.1652e-28  1.2236e-26  7.2631e-28  1.2532e-26  1.261e-27  1.307e-26  2.1649e-27  1.406e-26  3.6485e-27  1.5908e-26  5.9928e-27  1.9427e-26  9.567e-27
      1.55  1.1861e-26  9.3474e-30  1.1861e-26  9.7775e-30  1.1861e-26  1.0542e-29  1.1862e-26  1.1902e-29  1.1862e-26  1.4321e-29  1.1864e-26  1.862e-29  1.1867e-26  2.6263e-29  1.1872e-26  3.9845e-29  1.1881e-26  6.3971e-29  1.1897e-26  1.0679e-28  1.1925e-26  1.8265e-28  1.1976e-26  3.1671e-28  1.2067e-26  5.5245e-28  1.223e-26  9.6346e-28  1.2524e-26  1.6706e-27  1.3058e-26  2.8598e-27  1.4041e-26  4.7939e-27  1.5878e-26  7.8064e-27  1.9379e-26  1.2304e-26
      1.60  1.1857e-26  1.0637e-29  1.1857e-26  1.1197e-29  1.1857e-26  1.2191e-29  1.1858e-26  1.396e-29  1.1859e-26  1.7104e-29  1.186e-26  2.2695e-29  1.1863e-26  3.2633e-29  1.1868e-26  5.0293e-29  1.1877e-26  8.166e-29  1.1893e-26  1.3732e-28  1.1921e-26  2.3591e-28  1.1972e-26  4.1005e-28  1.2062e-26  7.1604e-28  1.2223e-26  1.2488e-27  1.2514e-26  2.163e-27  1.3044e-26  3.694e-27  1.402e-26  6.1657e-27  1.5847e-26  9.9702e-27  1.9327e-26  1.5551e-26
      1.65  1.1853e-26  1.2088e-29  1.1853e-26  1.2799e-29  1.1854e-26  1.4066e-29  1.1854e-26  1.6317e-29  1.1855e-26  2.0319e-29  1.1857e-26  2.7436e-29  1.1859e-26  4.0085e-29  1.1864e-26  6.2563e-29  1.1873e-26  1.0248e-28  1.1889e-26  1.7331e-28  1.1917e-26  2.9876e-28  1.1967e-26  5.2025e-28  1.2056e-26  9.0921e-28  1.2216e-26  1.5857e-27  1.2505e-26  2.7444e-27  1.303e-26  4.6784e-27  1.3999e-26  7.7838e-27  1.5813e-26  1.2521e-26  1.9273e-26  1.9376e-26
      1.70  1.1849e-26  1.3717e-29  1.1849e-26  1.4608e-29  1.185e-26  1.6192e-29  1.185e-26  1.9008e-29  1.1851e-26  2.4016e-29  1.1853e-26  3.2919e-29  1.1855e-26  4.8744e-29  1.186e-26  7.6865e-29  1.1869e-26  1.2681e-28  1.1885e-26  2.1541e-28  1.1912e-26  3.7231e-28  1.1962e-26  6.4928e-28  1.205e-26  1.1355e-27  1.2208e-26  1.9805e-27  1.2494e-26  3.4262e-27  1.3015e-26  5.8342e-27  1.3976e-26  9.6871e-27  1.5778e-26  1.5532e-26  1.9216e-26  2.3922e-26
      1.75  1.1845e-26  1.5551e-29  1.1845e-26  1.6652e-29  1.1846e-26  1.861e-29  1.1846e-26  2.2091e-29  1.1847e-26  2.828e-29  1.1849e-26  3.9284e-29  1.1851e-26  5.8844e-29  1.1856e-26   9.36e-29  1.1865e-26  1.5532e-28  1.188e-26  2.6483e-28  1.1907e-26  4.5874e-28  1.1956e-26  8.0101e-28  1.2044e-26  1.4018e-27   1.22e-26  2.4457e-27  1.2483e-26  4.2309e-27  1.2999e-26  7.2024e-27  1.3952e-26  1.1952e-26  1.574e-26  1.9149e-26  1.9156e-26  2.9472e-26
      1.80  1.1841e-26  1.7624e-29  1.1841e-26  1.8976e-29  1.1841e-26  2.138e-29  1.1842e-26  2.5655e-29  1.1843e-26  3.3256e-29  1.1844e-26  4.677e-29  1.1847e-26  7.0791e-29  1.1852e-26  1.1347e-28  1.186e-26  1.8928e-28  1.1875e-26  3.2376e-28  1.1903e-26  5.6193e-28  1.1951e-26  9.8235e-28  1.2037e-26  1.7204e-27  1.2192e-26  3.0033e-27  1.2472e-26  5.1984e-27  1.2983e-26  8.8561e-27  1.3928e-26  1.4715e-26  1.5702e-26  2.3626e-26  1.9095e-26  3.6509e-26
      1.85  1.1837e-26  1.9975e-29  1.1837e-26  2.1634e-29  1.1837e-26  2.4583e-29  1.1838e-26  2.9828e-29  1.1838e-26  3.9154e-29  1.184e-26  5.5735e-29  1.1843e-26  8.5208e-29  1.1847e-26  1.3758e-28  1.1856e-26  2.306e-28  1.1871e-26  3.9564e-28  1.1897e-26  6.8795e-28  1.1945e-26  1.2041e-27  1.203e-26  2.1107e-27  1.2183e-26  3.688e-27  1.246e-26  6.3912e-27  1.2966e-26  1.0909e-26  1.3902e-26  1.8183e-26  1.5663e-26  2.9353e-26  1.9033e-26  4.5772e-26
      1.90  1.1832e-26  2.265e-29  1.1832e-26  2.4689e-29  1.1833e-26  2.8315e-29  1.1833e-26  3.4762e-29  1.1834e-26  4.6225e-29  1.1835e-26  6.6606e-29  1.1838e-26  1.0283e-28  1.1843e-26  1.6722e-28  1.1851e-26  2.8157e-28  1.1866e-26  4.8449e-28  1.1892e-26  8.4399e-28  1.1939e-26  1.4791e-27  1.2024e-26  2.595e-27  1.2175e-26  4.5404e-27  1.2449e-26  7.8822e-27  1.295e-26  1.3492e-26  1.3878e-26  2.2598e-26  1.5627e-26  3.6781e-26  1.8978e-26  5.8125e-26
      1.95  1.1827e-26  2.5683e-29  1.1828e-26  2.818e-29  1.1828e-26  3.2618e-29  1.1828e-26  4.0511e-29  1.1829e-26  5.4544e-29  1.1831e-26  7.9495e-29  1.1833e-26  1.2385e-28  1.1838e-26  2.0267e-28  1.1846e-26  3.4269e-28  1.1861e-26  5.9118e-28  1.1887e-26  1.0315e-27  1.1934e-26  1.8097e-27  1.2018e-26  3.1782e-27  1.2169e-26  5.5672e-27  1.2442e-26  9.6811e-27  1.2943e-26  1.662e-26  1.3871e-26  2.7981e-26  1.5622e-26  4.5959e-26  1.8982e-26  7.3736e-26
      2.00  1.1823e-26  2.9201e-29  1.1823e-26  3.2306e-29  1.1823e-26  3.7826e-29  1.1823e-26  4.7643e-29  1.1824e-26  6.5099e-29  1.1826e-26  9.6134e-29  1.1828e-26  1.5131e-28  1.1833e-26  2.4936e-28  1.1841e-26  4.2356e-28  1.1856e-26  7.328e-28  1.1882e-26  1.281e-27  1.1928e-26  2.2506e-27  1.2011e-26  3.9577e-27  1.216e-26  6.9446e-27  1.243e-26  1.2109e-26  1.2926e-26  2.088e-26  1.3846e-26  3.5411e-26  1.5585e-26  5.8844e-26  1.8926e-26  9.6066e-26
      2.05  1.1817e-26  3.3265e-29  1.1818e-26  3.7144e-29  1.1818e-26  4.4041e-29  1.1818e-26  5.6305e-29  1.1819e-26  7.8112e-29  1.1821e-26  1.1689e-28  1.1823e-26  1.8582e-28  1.1828e-26  3.0834e-28  1.1836e-26  5.2603e-28  1.185e-26  9.1257e-28  1.1876e-26  1.5981e-27  1.1921e-26  2.8116e-27  1.2003e-26  4.9513e-27  1.215e-26  8.7043e-27  1.2417e-26  1.5221e-26  1.2907e-26  2.6371e-26  1.3818e-26  4.5068e-26  1.5542e-26  7.5787e-26  1.8858e-26  1.2585e-25
      2.10  1.1812e-26  3.7934e-29  1.1812e-26  4.2772e-29  1.1813e-26  5.1375e-29  1.1813e-26  6.6672e-29  1.1814e-26  9.3873e-29  1.1815e-26  1.4224e-28  1.1818e-26  2.2823e-28  1.1822e-26  3.8108e-28  1.183e-26  6.5269e-28  1.1844e-26  1.1351e-27  1.1869e-26  1.9911e-27  1.1915e-26  3.5074e-27  1.1995e-26  6.1848e-27  1.214e-26  1.0892e-26  1.2404e-26   1.91e-26  1.2888e-26  3.3241e-26  1.379e-26  5.7224e-26  1.5499e-26  9.7292e-26  1.8791e-26  1.6404e-25
      2.15  1.1807e-26  4.3276e-29  1.1807e-26  4.9277e-29  1.1807e-26  5.9949e-29  1.1807e-26  7.8924e-29  1.1808e-26  1.1267e-28  1.181e-26  1.7266e-28  1.1812e-26  2.7934e-28  1.1817e-26  4.6897e-28  1.1824e-26   8.06e-28  1.1838e-26  1.4047e-27  1.1863e-26  2.4675e-27  1.1908e-26  4.3515e-27  1.1987e-26  7.6824e-27  1.213e-26  1.3551e-26  1.2391e-26  2.3824e-26  1.2869e-26  4.1632e-26  1.3762e-26  7.2135e-26  1.5456e-26  1.2383e-25  1.8725e-26  2.1153e-25
      2.20  1.1801e-26  4.9355e-29  1.1801e-26  5.6734e-29  1.1801e-26  6.9855e-29  1.1802e-26  9.3187e-29  1.1803e-26  1.3468e-28  1.1804e-26  2.0845e-28  1.1806e-26  3.3962e-28  1.1811e-26  5.7281e-28  1.1818e-26  9.8731e-28  1.1832e-26  1.7238e-27  1.1857e-26  3.0316e-27   1.19e-26  5.3514e-27  1.1979e-26  9.4575e-27  1.212e-26  1.6706e-26  1.2377e-26  2.9435e-26  1.285e-26  5.1623e-26  1.3734e-26  8.9948e-26  1.5415e-26  1.5568e-25  1.8661e-26  2.6884e-25
      2.25  1.1795e-26  5.6228e-29  1.1795e-26  6.5198e-29  1.1795e-26  8.115e-29  1.1796e-26  1.0952e-28  1.1797e-26  1.5996e-28  1.1798e-26  2.4965e-28   1.18e-26  4.0913e-28  1.1805e-26  6.9266e-28  1.1812e-26  1.1967e-27  1.1826e-26  2.0924e-27  1.185e-26  3.6835e-27  1.1893e-26  6.5073e-27  1.1971e-26  1.151e-26  1.211e-26  2.0357e-26  1.2364e-26  3.5935e-26  1.2832e-26  6.3214e-26  1.3709e-26  1.1066e-25  1.5378e-26  1.9285e-25  1.8606e-26  3.3597e-25
      2.30  1.1789e-26  6.3966e-29  1.1789e-26  7.4732e-29  1.1789e-26  9.3877e-29  1.179e-26  1.2792e-28  1.179e-26  1.8846e-28  1.1792e-26  2.9611e-28  1.1794e-26  4.8752e-28  1.1798e-26  8.2786e-28  1.1806e-26  1.4329e-27  1.1819e-26  2.5083e-27  1.1843e-26  4.419e-27  1.1886e-26  7.8117e-27  1.1962e-26  1.3827e-26   1.21e-26  2.4479e-26  1.2352e-26  4.3281e-26  1.2815e-26  7.633e-26  1.3685e-26  1.3415e-25  1.5344e-26  2.3509e-25  1.8558e-26  4.125e-25
      2.35  1.1783e-26   7.26e-29  1.1783e-26  8.5348e-29  1.1783e-26  1.0802e-28  1.1783e-26  1.4833e-28  1.1784e-26  2.2001e-28  1.1785e-26  3.4748e-28  1.1788e-26  5.7413e-28  1.1792e-26  9.7714e-28  1.1799e-26  1.6937e-27  1.1813e-26  2.9674e-27  1.1836e-26  5.2309e-27  1.1878e-26  9.2499e-27  1.1954e-26  1.6385e-26  1.209e-26  2.9032e-26  1.2339e-26  5.1397e-26  1.2799e-26  9.0831e-26  1.3662e-26  1.6015e-25  1.5312e-26  2.8192e-25  1.8513e-26  4.9746e-25
      2.40  1.1776e-26  8.2174e-29  1.1776e-26  9.7059e-29  1.1776e-26  1.2353e-28  1.1777e-26  1.706e-28  1.1777e-26  2.5431e-28  1.1779e-26  4.0315e-28  1.1781e-26  6.6783e-28  1.1785e-26  1.1385e-27  1.1792e-26  1.9753e-27  1.1806e-26  3.4629e-27  1.1829e-26  6.1071e-27  1.1871e-26  1.0804e-26  1.1945e-26  1.9146e-26  1.208e-26  3.3946e-26  1.2327e-26  6.0161e-26  1.2782e-26  1.065e-25  1.3639e-26  1.8826e-25  1.528e-26  3.3261e-25  1.8469e-26  5.8957e-25
      2.45  1.1769e-26  9.2731e-29  1.1769e-26  1.0987e-28  1.1769e-26  1.4036e-28  1.177e-26  1.9457e-28  1.177e-26  2.9098e-28  1.1772e-26  4.6241e-28  1.1774e-26  7.6726e-28  1.1778e-26  1.3093e-27  1.1785e-26  2.2732e-27  1.1798e-26  3.9868e-27  1.1821e-26  7.0332e-27  1.1863e-26  1.2445e-26  1.1937e-26  2.2064e-26  1.207e-26  3.914e-26  1.2314e-26  6.9425e-26  1.2765e-26  1.2307e-25  1.3616e-26  2.1801e-25  1.5248e-26  3.863e-25  1.8425e-26  6.8719e-25
      2.50  1.1762e-26  1.0434e-28  1.1762e-26  1.2384e-28  1.1762e-26  1.585e-28  1.1763e-26  2.2016e-28  1.1763e-26  3.2979e-28  1.1765e-26  5.2475e-28  1.1767e-26  8.7143e-28  1.1771e-26  1.4879e-27  1.1778e-26  2.5841e-27  1.1791e-26  4.5332e-27  1.1814e-26  7.9985e-27  1.1854e-26  1.4156e-26  1.1928e-26  2.5104e-26  1.206e-26  4.4551e-26  1.2301e-26  7.9078e-26  1.2749e-26  1.4034e-25  1.3594e-26  2.4902e-25  1.5217e-26  4.423e-25  1.8383e-26  7.8908e-25
      2.55  1.1754e-26  1.1712e-28  1.1755e-26  1.3903e-28  1.1755e-26  1.7799e-28  1.1755e-26  2.4728e-28  1.1756e-26  3.7049e-28  1.1757e-26  5.8959e-28  1.1759e-26  9.792e-28  1.1763e-26  1.672e-27  1.177e-26  2.904e-27  1.1783e-26  5.0947e-27  1.1806e-26   8.99e-27  1.1846e-26  1.5913e-26  1.1918e-26  2.8224e-26  1.2049e-26  5.0106e-26  1.2289e-26  8.8988e-26  1.2733e-26  1.5807e-25  1.3572e-26  2.8087e-25  1.5187e-26  4.9981e-25  1.8342e-26  8.9372e-25
      2.60  1.1747e-26  1.3113e-28  1.1747e-26  1.5548e-28  1.1747e-26  1.9879e-28  1.1747e-26  2.7581e-28  1.1748e-26  4.1277e-28  1.1749e-26  6.5633e-28  1.1752e-26  1.0894e-27  1.1755e-26  1.8596e-27  1.1763e-26  3.2292e-27  1.1775e-26  5.6647e-27  1.1797e-26  9.9955e-27  1.1837e-26  1.7696e-26  1.1909e-26  3.1387e-26  1.2039e-26  5.5735e-26  1.2276e-26  9.9029e-26  1.2716e-26  1.7603e-25  1.355e-26  3.1314e-25  1.5157e-26  5.5809e-25  1.8301e-26  9.9974e-25
      2.65  1.1739e-26  1.4647e-28  1.1739e-26  1.7328e-28  1.1739e-26  2.2096e-28  1.1739e-26  3.0575e-28  1.174e-26  4.5652e-28  1.1741e-26  7.2464e-28  1.1743e-26  1.2014e-27  1.1747e-26  2.0493e-27  1.1754e-26  3.5571e-27  1.1767e-26  6.2384e-27  1.1789e-26  1.1007e-26  1.1828e-26  1.9486e-26  1.1899e-26  3.4564e-26  1.2028e-26  6.1389e-26  1.2263e-26  1.0911e-25   1.27e-26  1.9408e-25  1.3528e-26  3.4555e-25  1.5127e-26  6.1661e-25  1.826e-26  1.1062e-24
      2.70  1.173e-26  1.6329e-28  1.173e-26  1.9255e-28  1.1731e-26  2.4459e-28  1.1731e-26  3.3712e-28  1.1732e-26  5.0168e-28  1.1733e-26  7.9431e-28  1.1735e-26  1.3147e-27  1.1739e-26  2.2401e-27  1.1746e-26  3.8857e-27  1.1758e-26  6.8123e-27  1.178e-26  1.2017e-26  1.1819e-26  2.1274e-26  1.1889e-26  3.7735e-26  1.2017e-26  6.7031e-26  1.225e-26  1.1918e-25  1.2684e-26  2.1207e-25  1.3506e-26  3.7787e-25  1.5098e-26  6.7495e-25  1.822e-26  1.2122e-24
      2.75  1.1722e-26  1.8174e-28  1.1722e-26  2.1343e-28  1.1722e-26  2.6978e-28  1.1722e-26  3.6998e-28  1.1723e-26  5.4817e-28  1.1724e-26  8.6505e-28  1.1726e-26  1.4286e-27  1.173e-26  2.4306e-27  1.1737e-26  4.2127e-27  1.1749e-26  7.3819e-27  1.1771e-26  1.3018e-26  1.181e-26  2.3044e-26  1.188e-26  4.0874e-26  1.2006e-26  7.2612e-26  1.2238e-26  1.2912e-25  1.2669e-26  2.2985e-25  1.3488e-26  4.0975e-25  1.5075e-26  7.3241e-25  1.8194e-26  1.3165e-24
      2.80  1.1712e-26  2.0215e-28  1.1713e-26  2.3624e-28  1.1713e-26  2.9688e-28  1.1713e-26  4.0469e-28  1.1714e-26  5.9643e-28  1.1715e-26  9.3739e-28  1.1717e-26  1.5437e-27  1.1721e-26  2.622e-27  1.1728e-26  4.5395e-27  1.174e-26  7.9497e-27  1.1762e-26  1.4015e-26   1.18e-26  2.4803e-26  1.187e-26  4.3992e-26  1.1995e-26  7.8154e-26  1.2226e-26   1.39e-25  1.2655e-26  2.4749e-25  1.347e-26  4.4137e-25  1.5053e-26  7.8935e-25  1.817e-26  1.4198e-24
      2.85  1.1703e-26  2.2466e-28  1.1703e-26  2.6115e-28  1.1703e-26  3.2604e-28  1.1704e-26  4.4144e-28  1.1704e-26  6.4666e-28  1.1706e-26  1.0116e-27  1.1708e-26  1.6606e-27  1.1712e-26  2.8146e-27  1.1718e-26  4.867e-27  1.173e-26  8.5171e-27  1.1752e-26  1.5009e-26  1.179e-26  2.6557e-26  1.1859e-26  4.7097e-26  1.1984e-26  8.3672e-26  1.2213e-26  1.4883e-25  1.264e-26  2.6504e-25  1.3453e-26  4.7281e-25  1.5031e-26  8.4595e-25  1.8145e-26  1.5224e-24
      2.90  1.1693e-26  2.4954e-28  1.1693e-26  2.8843e-28  1.1694e-26  3.5759e-28  1.1694e-26  4.8057e-28  1.1695e-26  6.9926e-28  1.1696e-26  1.0882e-27  1.1698e-26  1.7798e-27  1.1702e-26  3.0097e-27  1.1708e-26  5.1969e-27  1.172e-26  9.0869e-27  1.1742e-26  1.6006e-26  1.178e-26  2.8314e-26  1.1849e-26  5.0205e-26  1.1973e-26  8.9192e-26  1.2201e-26  1.5865e-25  1.2626e-26  2.8258e-25  1.3435e-26  5.0424e-25  1.5009e-26  9.025e-25  1.8118e-26  1.6249e-24
      2.95  1.1683e-26  2.7711e-28  1.1683e-26  3.1841e-28  1.1683e-26  3.9186e-28  1.1684e-26  5.2246e-28  1.1684e-26  7.5471e-28  1.1686e-26  1.1677e-27  1.1688e-26  1.9022e-27  1.1691e-26  3.2083e-27  1.1698e-26  5.5311e-27  1.171e-26  9.6622e-27  1.1731e-26  1.701e-26  1.1769e-26  3.0081e-26  1.1838e-26  5.3332e-26  1.1961e-26  9.4743e-26  1.2188e-26  1.6854e-25  1.2611e-26  3.0022e-25  1.3416e-26  5.3583e-25  1.4984e-26  9.5934e-25  1.8088e-26  1.7279e-24
      3.00  1.1672e-26  3.0775e-28  1.1672e-26  3.5149e-28  1.1673e-26  4.2926e-28  1.1673e-26  5.6757e-28  1.1674e-26  8.1351e-28  1.1675e-26  1.2509e-27  1.1677e-26  2.0286e-27  1.1681e-26  3.4118e-27  1.1687e-26  5.8716e-27  1.1699e-26  1.0246e-26  1.172e-26  1.8028e-26  1.1758e-26  3.1871e-26  1.1826e-26  5.6494e-26  1.1949e-26  1.0036e-25  1.2175e-26  1.7853e-25  1.2595e-26  3.1806e-25  1.3396e-26  5.6778e-25  1.4957e-26  1.0169e-24  1.8051e-26  1.8322e-24
      3.05  1.1661e-26  3.4209e-28  1.1661e-26  3.8827e-28  1.1662e-26  4.7038e-28  1.1662e-26  6.1639e-28  1.1663e-26  8.7605e-28  1.1664e-26  1.3378e-27  1.1666e-26  2.1589e-27  1.167e-26  3.6192e-27  1.1676e-26  6.2162e-27  1.1688e-26  1.0835e-26  1.1709e-26  1.9051e-26  1.1747e-26  3.3667e-26  1.1814e-26  5.9678e-26  1.1937e-26  1.0598e-25  1.2161e-26  1.8854e-25  1.2578e-26  3.3593e-25  1.3374e-26  5.9983e-25  1.4926e-26  1.0746e-24  1.8007e-26  1.9369e-24
      3.10  1.165e-26  3.8021e-28  1.165e-26  4.2888e-28  1.165e-26  5.1541e-28  1.165e-26  6.6931e-28  1.1651e-26  9.4297e-28  1.1652e-26  1.4296e-27  1.1654e-26  2.2951e-27  1.1658e-26  3.8341e-27  1.1665e-26  6.5712e-27  1.1676e-26  1.1439e-26  1.1697e-26  2.0098e-26  1.1735e-26  3.5504e-26  1.1802e-26  6.2921e-26  1.1924e-26  1.1173e-25  1.2146e-26  1.9878e-25  1.2561e-26  3.5422e-25  1.335e-26  6.3264e-25  1.4891e-26  1.1338e-24  1.7952e-26  2.0445e-24
      3.15  1.1638e-26  4.2303e-28  1.1638e-26  4.7427e-28  1.1638e-26  5.6538e-28  1.1638e-26  7.2739e-28  1.1639e-26  1.0155e-27  1.164e-26  1.5279e-27  1.1642e-26  2.439e-27  1.1646e-26  4.0593e-27  1.1652e-26  6.941e-27  1.1664e-26  1.2066e-26  1.1685e-26  2.1183e-26  1.1722e-26  3.7403e-26  1.1789e-26  6.6272e-26  1.191e-26  1.1767e-25  1.2131e-26  2.0935e-25  1.2542e-26  3.7313e-25  1.3324e-26  6.6661e-25  1.4849e-26  1.1952e-24  1.7884e-26  2.1564e-24
      3.20  1.1625e-26  4.711e-28  1.1625e-26  5.2502e-28  1.1625e-26  6.2092e-28  1.1626e-26  7.9146e-28  1.1626e-26  1.0947e-27  1.1628e-26  1.634e-27  1.163e-26  2.593e-27  1.1633e-26  4.2986e-27  1.164e-26  7.3318e-27  1.1651e-26  1.2727e-26  1.1672e-26  2.2323e-26  1.1709e-26  3.9398e-26  1.1776e-26  6.979e-26  1.1896e-26  1.2391e-25  1.2115e-26  2.2046e-25  1.2523e-26   3.93e-25  1.3295e-26  7.0238e-25  1.4802e-26  1.2601e-24  1.7801e-26  2.2751e-24
      3.25  1.1612e-26  5.2493e-28  1.1612e-26  5.8175e-28  1.1612e-26  6.8279e-28  1.1613e-26  8.6246e-28  1.1613e-26  1.182e-27  1.1614e-26  1.7502e-27  1.1617e-26  2.7606e-27  1.162e-26  4.5576e-27  1.1627e-26  7.7534e-27  1.1638e-26  1.3438e-26  1.1659e-26  2.3549e-26  1.1696e-26  4.1541e-26  1.1762e-26  7.3569e-26  1.1881e-26  1.306e-25  1.2099e-26  2.3239e-25  1.2502e-26  4.1438e-25  1.3264e-26  7.4095e-25  1.4747e-26  1.3303e-24   1.77e-26  2.4041e-24
      3.30  1.1598e-26  5.8591e-28  1.1598e-26  6.4592e-28  1.1599e-26  7.5264e-28  1.1599e-26  9.4241e-28   1.16e-26  1.2799e-27  1.1601e-26   1.88e-27  1.1603e-26  2.9473e-27  1.1607e-26  4.8453e-27  1.1613e-26  8.2209e-27  1.1625e-26  1.4225e-26  1.1645e-26  2.4906e-26  1.1682e-26  4.3911e-26  1.1748e-26  7.7748e-26  1.1866e-26  1.3801e-25  1.2082e-26  2.456e-25  1.248e-26  4.3807e-25  1.323e-26  7.8374e-25  1.4684e-26  1.4084e-24  1.7579e-26  2.5487e-24
      3.35  1.1584e-26  6.5461e-28  1.1584e-26  7.1834e-28  1.1584e-26  8.3166e-28  1.1585e-26  1.0332e-27  1.1585e-26  1.3915e-27  1.1587e-26  2.0288e-27  1.1589e-26  3.1621e-27  1.1592e-26  5.1776e-27  1.1599e-26  8.762e-27  1.161e-26  1.5138e-26  1.1631e-26  2.648e-26  1.1667e-26  4.6664e-26  1.1733e-26  8.2602e-26  1.1851e-26  1.4662e-25  1.2064e-26  2.6094e-25  1.2457e-26  4.6559e-25  1.3194e-26  8.3351e-25  1.4616e-26  1.4995e-24  1.7441e-26  2.718e-24
      3.40  1.1569e-26  7.321e-28  1.1569e-26  8.0018e-28  1.157e-26  9.2125e-28  1.157e-26  1.1365e-27  1.1571e-26  1.5194e-27  1.1572e-26  2.2003e-27  1.1574e-26  3.411e-27  1.1577e-26  5.5643e-27  1.1584e-26  9.394e-27  1.1595e-26  1.6206e-26  1.1616e-26  2.8325e-26  1.1652e-26  4.9891e-26  1.1718e-26  8.8295e-26  1.1835e-26  1.5675e-25  1.2047e-26  2.7895e-25  1.2434e-26  4.9788e-25  1.3158e-26  8.9193e-25  1.4545e-26  1.6067e-24  1.7289e-26  2.918e-24
      3.45  1.1554e-26  8.1963e-28  1.1554e-26  8.9294e-28  1.1554e-26  1.0233e-27  1.1554e-26  1.2551e-27  1.1555e-26  1.6674e-27  1.1556e-26  2.4005e-27  1.1558e-26  3.7042e-27  1.1562e-26  6.0228e-27  1.1568e-26  1.0146e-26  1.158e-26  1.7481e-26   1.16e-26  3.0531e-26  1.1637e-26  5.3756e-26  1.1702e-26  9.5116e-26  1.1818e-26  1.6885e-25  1.2029e-26  3.0052e-25  1.2412e-26  5.3655e-25  1.3123e-26  9.6186e-25  1.4474e-26  1.7349e-24  1.713e-26  3.1581e-24
      3.50  1.1538e-26  9.1867e-28  1.1538e-26  9.9834e-28  1.1538e-26   1.14e-27  1.1538e-26  1.3919e-27  1.1539e-26   1.84e-27  1.154e-26  2.6367e-27  1.1542e-26  4.0536e-27  1.1546e-26  6.5734e-27  1.1552e-26  1.1055e-26  1.1564e-26  1.9027e-26  1.1584e-26  3.321e-26  1.162e-26  5.8453e-26  1.1685e-26  1.0341e-25  1.1802e-26  1.8357e-25  1.2011e-26  3.2674e-25  1.239e-26  5.8354e-25  1.3089e-26  1.0467e-24  1.4407e-26  1.8902e-24  1.6975e-26  3.4489e-24
      3.55  1.1521e-26  1.0321e-27  1.1521e-26  1.1196e-27  1.1521e-26  1.2752e-27  1.1521e-26  1.552e-27  1.1522e-26  2.0441e-27  1.1523e-26  2.9192e-27  1.1525e-26  4.4754e-27  1.1529e-26  7.2432e-27  1.1535e-26  1.2166e-26  1.1547e-26  2.0922e-26  1.1567e-26  3.6501e-26  1.1604e-26  6.4229e-26  1.1669e-26  1.1361e-25  1.1785e-26  2.0168e-25  1.1993e-26  3.5899e-25  1.237e-26  6.4128e-25  1.3059e-26  1.1508e-24  1.4348e-26  2.0803e-24  1.6835e-26  3.8039e-24
      3.60  1.1503e-26  1.1608e-27  1.1503e-26  1.258e-27  1.1503e-26  1.4307e-27  1.1504e-26  1.7379e-27  1.1504e-26  2.2841e-27  1.1506e-26  3.2555e-27  1.1508e-26  4.9831e-27  1.1511e-26  8.0554e-27  1.1518e-26  1.352e-26  1.1529e-26  2.324e-26  1.155e-26  4.0533e-26  1.1586e-26  7.1314e-26  1.1651e-26  1.2614e-25  1.1767e-26  2.2391e-25  1.1976e-26  3.9858e-25  1.2351e-26  7.1208e-25  1.3034e-26  1.2783e-24  1.4301e-26  2.3123e-24  1.6719e-26  4.2351e-24
      3.65  1.1485e-26  1.3071e-27  1.1485e-26  1.4162e-27  1.1485e-26  1.6102e-27  1.1485e-26  1.9551e-27  1.1486e-26  2.5685e-27  1.1487e-26  3.6593e-27  1.1489e-26  5.5991e-27  1.1493e-26  9.049e-27  1.1499e-26  1.5185e-26  1.1511e-26  2.6099e-26  1.1531e-26  4.5518e-26  1.1568e-26  8.0081e-26  1.1633e-26  1.4164e-25  1.175e-26  2.5143e-25  1.1959e-26  4.4757e-25  1.2334e-26  7.9963e-25  1.3014e-26  1.4356e-24  1.4268e-26  2.5977e-24  1.6641e-26  4.7619e-24
      3.70  1.1465e-26  1.4755e-27  1.1466e-26  1.5996e-27  1.1466e-26  1.8201e-27  1.1466e-26  2.2124e-27  1.1467e-26   2.91e-27  1.1468e-26  4.1505e-27  1.147e-26  6.3566e-27  1.1474e-26  1.028e-26  1.148e-26  1.7258e-26  1.1492e-26  2.967e-26  1.1513e-26  5.1754e-26  1.155e-26  9.106e-26  1.1615e-26  1.6107e-25  1.1733e-26  2.8591e-25  1.1943e-26  5.0891e-25  1.232e-26  9.0914e-25  1.3003e-26  1.6319e-24  1.4257e-26  2.9523e-24  1.6616e-26  5.4107e-24
      3.75  1.1445e-26  1.6875e-27  1.1445e-26  1.8307e-27  1.1446e-26  2.0855e-27  1.1446e-26  2.5385e-27  1.1447e-26  3.344e-27  1.1448e-26  4.7766e-27  1.145e-26  7.3242e-27  1.1454e-26  1.1855e-26  1.146e-26  1.9913e-26  1.1472e-26  3.4247e-26  1.1493e-26  5.9747e-26  1.1531e-26  1.0513e-25  1.1598e-26  1.8596e-25  1.1717e-26  3.3008e-25  1.193e-26  5.8744e-25  1.2313e-26  1.0491e-24  1.3005e-26  1.8822e-24  1.4275e-26  3.4016e-24  1.666e-26  6.2231e-24
      3.80  1.1605e-26  2.1153e-27  1.1605e-26  2.2838e-27  1.1605e-26  2.5836e-27  1.1606e-26  3.1165e-27  1.1606e-26  4.0643e-27  1.1607e-26  5.7498e-27  1.161e-26  8.7471e-27  1.1613e-26  1.4078e-26  1.162e-26  2.3558e-26  1.1632e-26  4.0421e-26  1.1653e-26  7.042e-26  1.1691e-26  1.2381e-25  1.1758e-26  2.1887e-25  1.1878e-26  3.8831e-25  1.2093e-26  6.9074e-25  1.2479e-26  1.2327e-24  1.3179e-26  2.2089e-24  1.4465e-26  3.9836e-24  1.6893e-26  7.2589e-24
      3.85  1.1611e-26  3.9306e-27  1.1611e-26  4.1337e-27  1.1611e-26  4.4949e-27  1.1611e-26  5.1372e-27  1.1612e-26  6.2793e-27  1.1613e-26  8.3104e-27  1.1616e-26  1.1922e-26  1.162e-26  1.8346e-26  1.1627e-26  2.9769e-26  1.1639e-26  5.0087e-26  1.1661e-26  8.6229e-26   1.17e-26  1.5053e-25  1.1771e-26   2.65e-25  1.1896e-26  4.6889e-25  1.212e-26  8.324e-25  1.2523e-26  1.4825e-24  1.3253e-26  2.6493e-24  1.4599e-26  4.7564e-24  1.7142e-26  8.5984e-24
      3.90  1.162e-26  1.3669e-26  1.1621e-26  1.3922e-26  1.1621e-26  1.4372e-26  1.1621e-26  1.5171e-26  1.1622e-26  1.6593e-26  1.1623e-26  1.9121e-26  1.1626e-26  2.3618e-26  1.163e-26  3.1614e-26  1.1637e-26  4.5833e-26  1.1651e-26  7.1121e-26  1.1674e-26  1.1609e-25  1.1716e-26  1.9608e-25  1.1791e-26  3.3837e-25  1.1924e-26  5.9155e-25  1.2162e-26  1.042e-24  1.2591e-26  1.8447e-24  1.3367e-26  3.276e-24  1.4796e-26  5.831e-24  1.7493e-26  1.0393e-23
      3.95  1.1635e-26  6.1063e-26  1.1635e-26  6.1386e-26  1.1635e-26  6.1962e-26  1.1636e-26  6.2985e-26  1.1636e-26  6.4804e-26  1.1638e-26  6.804e-26  1.164e-26  7.3793e-26  1.1645e-26  8.4024e-26  1.1653e-26  1.0222e-25  1.1667e-26  1.3456e-25  1.1693e-26  1.9207e-25  1.1738e-26  2.9429e-25  1.1819e-26  4.7594e-25  1.1964e-26  7.9854e-25  1.2222e-26  1.3707e-24  1.2685e-26  2.3844e-24  1.3522e-26  4.1733e-24  1.5053e-26  7.3094e-24  1.7918e-26  1.2734e-23
