# This was generated using Cloudy10 and the columns are ordered 
# as log10 of the fraction of the metallicity to the solar metallicity
# 'h_*_Z' and 'c_*_Z' stands for cooling and heating respectively 
# at * metalicity
#
# NOTE: This was generated separately from loop_coolingcurve_w_UV.py
#       using Output_metals_w_redshift.py.
#
# Redshift = 2.0
# hden = -4.0
#
#     temp   h_-3.00_Z   c_-3.00_Z   h_-2.75_Z   c_-2.75_Z   h_-2.50_Z   c_-2.50_Z   h_-2.25_Z   c_-2.25_Z   h_-2.00_Z   c_-2.00_Z   h_-1.75_Z   c_-1.75_Z   h_-1.50_Z   c_-1.50_Z   h_-1.25_Z   c_-1.25_Z   h_-1.00_Z   c_-1.00_Z   h_-0.75_Z   c_-0.75_Z   h_-0.50_Z   c_-0.50_Z   h_-0.25_Z   c_-0.25_Z    h_0.00_Z    c_0.00_Z    h_0.25_Z    c_0.25_Z    h_0.50_Z    c_0.50_Z    h_0.75_Z    c_0.75_Z    h_1.00_Z    c_1.00_Z    h_1.25_Z    c_1.25_Z    h_1.50_Z    c_1.50_Z 
      4.00  8.4854e-24  1.0634e-24  8.4899e-24  1.0671e-24  8.4979e-24  1.0738e-24  8.5120e-24  1.0858e-24  8.5372e-24  1.1070e-24  8.5820e-24  1.1448e-24  8.6616e-24  1.2120e-24  8.8031e-24  1.3315e-24  9.0545e-24  1.5441e-24  9.5011e-24  1.9224e-24  1.0293e-23  2.5962e-24  1.1698e-23  3.7970e-24  1.4184e-23  5.9410e-24  1.8578e-23  9.7802e-24  2.6400e-23  1.6681e-23  4.0404e-23  2.9183e-23  6.5700e-23  5.2133e-23  1.1187e-22  9.5216e-23  1.9738e-22  1.7896e-22
      4.05  7.8451e-24  1.1097e-24  7.8494e-24  1.1134e-24  7.8572e-24  1.1199e-24  7.8709e-24  1.1316e-24  7.8954e-24  1.1523e-24  7.9390e-24  1.1891e-24  8.0164e-24  1.2545e-24  8.1540e-24  1.3709e-24  8.3985e-24  1.5780e-24  8.8328e-24  1.9465e-24  9.6035e-24  2.6028e-24  1.0969e-23  3.7726e-24  1.3387e-23  5.8614e-24  1.7660e-23  9.6023e-24  2.5271e-23  1.6329e-23  3.8899e-23  2.8522e-23  6.3535e-23  5.0923e-23  1.0850e-22  9.3036e-23  1.9182e-22  1.7508e-22
      4.10  7.2496e-24  1.1585e-24  7.2539e-24  1.1621e-24  7.2614e-24  1.1686e-24  7.2748e-24  1.1800e-24  7.2986e-24  1.2004e-24  7.3409e-24  1.2368e-24  7.4162e-24  1.3013e-24  7.5500e-24  1.4162e-24  7.7877e-24  1.6205e-24  8.2099e-24  1.9842e-24  8.9591e-24  2.6318e-24  1.0287e-23  3.7862e-24  1.2637e-23  5.8479e-24  1.6792e-23  9.5410e-24  2.4194e-23  1.6185e-23  3.7451e-23  2.8236e-23  6.1434e-23  5.0398e-23  1.0521e-22  9.2133e-23  1.8636e-22  1.7367e-22
      4.15  6.6956e-24  1.2104e-24  6.7003e-24  1.2141e-24  6.7076e-24  1.2206e-24  6.7207e-24  1.2322e-24  6.7438e-24  1.2527e-24  6.7850e-24  1.2893e-24  6.8581e-24  1.3543e-24  6.9881e-24  1.4699e-24  7.2192e-24  1.6756e-24  7.6296e-24  2.0417e-24  8.3577e-24  2.6938e-24  9.6485e-24  3.8562e-24  1.1933e-23  5.9327e-24  1.5971e-23  9.6533e-24  2.3168e-23  1.6350e-23  3.6062e-23  2.8510e-23  5.9402e-23  5.0897e-23  1.0201e-22  9.3145e-23  1.8104e-22  1.7597e-22
      4.20  6.1820e-24  1.2671e-24  6.1860e-24  1.2709e-24  6.1931e-24  1.2776e-24  6.2058e-24  1.2896e-24  6.2283e-24  1.3109e-24  6.2683e-24  1.3489e-24  6.3394e-24  1.4163e-24  6.4658e-24  1.5363e-24  6.6905e-24  1.7498e-24  7.0895e-24  2.1298e-24  7.7975e-24  2.8066e-24  9.0524e-24  4.0135e-24  1.1274e-23  6.1696e-24  1.5200e-23  1.0035e-23  2.2201e-23  1.6997e-23  3.4746e-23  2.9653e-23  5.7467e-23  5.2983e-23  9.8948e-23  9.7124e-23  1.7595e-22  1.8402e-22
      4.25  5.7044e-24  1.3306e-24  5.7083e-24  1.3347e-24  5.7152e-24  1.3420e-24  5.7271e-24  1.3550e-24  5.7494e-24  1.3781e-24  5.7884e-24  1.4191e-24  5.8572e-24  1.4921e-24  5.9807e-24  1.6220e-24  6.1994e-24  1.8530e-24  6.5878e-24  2.2643e-24  7.2771e-24  2.9969e-24  8.4989e-24  4.3034e-24  1.0661e-23  6.6384e-24  1.4484e-23  1.0826e-23  2.1303e-23  1.8376e-23  3.3524e-23  3.2119e-23  5.5671e-23  5.7486e-23  9.6113e-23  1.0562e-22  1.7124e-22  2.0080e-22
      4.30  5.2610e-24  1.4061e-24  5.2648e-24  1.4108e-24  5.2715e-24  1.4191e-24  5.2835e-24  1.4339e-24  5.3049e-24  1.4601e-24  5.3429e-24  1.5068e-24  5.4105e-24  1.5899e-24  5.5306e-24  1.7376e-24  5.7440e-24  2.0005e-24  6.1231e-24  2.4685e-24  6.7958e-24  3.3021e-24  7.9881e-24  4.7892e-24  1.0099e-23  7.4480e-24  1.3830e-23  1.2219e-23  2.0488e-23  2.0829e-23  3.2426e-23  3.6519e-23  5.4063e-23  6.5520e-23  9.3590e-23  1.2070e-22  1.6707e-22  2.3028e-22
      4.35  4.8492e-24  1.4953e-24  4.8529e-24  1.5009e-24  4.8595e-24  1.5108e-24  4.8713e-24  1.5285e-24  4.8922e-24  1.5599e-24  4.9291e-24  1.6158e-24  4.9956e-24  1.7151e-24  5.1132e-24  1.8919e-24  5.3223e-24  2.2064e-24  5.6935e-24  2.7663e-24  6.3522e-24  3.7639e-24  7.5198e-24  5.5438e-24  9.5867e-24  8.7273e-24  1.3241e-23  1.4444e-23  1.9766e-23  2.4767e-23  3.1470e-23  4.3596e-23  5.2683e-23  7.8442e-23  9.1453e-23  1.4490e-22  1.6358e-22  2.7734e-22
      4.40  4.4666e-24  1.6022e-24  4.4703e-24  1.6091e-24  4.4768e-24  1.6215e-24  4.4884e-24  1.6435e-24  4.5090e-24  1.6827e-24  4.5453e-24  1.7523e-24  4.6106e-24  1.8762e-24  4.7263e-24  2.0966e-24  4.9318e-24  2.4887e-24  5.2968e-24  3.1869e-24  5.9445e-24  4.4309e-24  7.0926e-24  6.6511e-24  9.1249e-24  1.0623e-23  1.2718e-23  1.7760e-23  1.9139e-23  3.0657e-23  3.0661e-23  5.4189e-23  5.1544e-23  9.7781e-23  8.9731e-23  1.8105e-22  1.6084e-22  3.4740e-22
      4.45  4.1110e-24  1.7305e-24  4.1146e-24  1.7395e-24  4.1210e-24  1.7553e-24  4.1325e-24  1.7835e-24  4.1528e-24  1.8336e-24  4.1889e-24  1.9227e-24  4.2532e-24  2.0813e-24  4.3674e-24  2.3633e-24  4.5703e-24  2.8652e-24  4.9306e-24  3.7588e-24  5.5700e-24  5.3513e-24  6.7033e-24  8.1938e-24  8.7094e-24  1.3281e-23  1.2257e-23  2.2424e-23  1.8602e-23  3.8959e-23  2.9992e-23  6.9124e-23  5.0636e-23  1.2505e-22  8.8406e-23  2.3199e-22  1.5879e-22  4.4594e-22
      4.50  3.7801e-24  1.8837e-24  3.7836e-24  1.8954e-24  3.7900e-24  1.9161e-24  3.8013e-24  1.9529e-24  3.8215e-24  2.0184e-24  3.8573e-24  2.1350e-24  3.9209e-24  2.3422e-24  4.0340e-24  2.7109e-24  4.2350e-24  3.3670e-24  4.5919e-24  4.5353e-24  5.2252e-24  6.6175e-24  6.3476e-24  1.0335e-23  8.3342e-24  1.6989e-23  1.1847e-23  2.8955e-23  1.8140e-23  5.0605e-23  2.9438e-23  9.0088e-23  4.9915e-23  1.6334e-22  8.7400e-23  3.0353e-22  1.5731e-22  5.8430e-22
      4.55  3.4717e-24  2.0663e-24  3.4752e-24  2.0814e-24  3.4816e-24  2.1082e-24  3.4928e-24  2.1560e-24  3.5128e-24  2.2409e-24  3.5483e-24  2.3920e-24  3.6115e-24  2.6606e-24  3.7238e-24  3.1386e-24  3.9234e-24  3.9892e-24  4.2778e-24  5.5038e-24  4.9065e-24  8.2035e-24  6.0207e-24  1.3024e-23  7.9928e-24  2.1654e-23  1.1483e-23  3.7177e-23  1.7736e-23  6.5280e-23  2.8972e-23  1.1650e-22  4.9333e-23  2.1159e-22  8.6627e-23  3.9367e-22  1.5623e-22  7.5863e-22
      4.60  3.1838e-24  2.2743e-24  3.1873e-24  2.2938e-24  3.1936e-24  2.3283e-24  3.2048e-24  2.3897e-24  3.2247e-24  2.4989e-24  3.2600e-24  2.6932e-24  3.3229e-24  3.0388e-24  3.4345e-24  3.6535e-24  3.6330e-24  4.7476e-24  3.9854e-24  6.6959e-24  4.6105e-24  1.0169e-23  5.7184e-24  1.6370e-23  7.6789e-24  2.7476e-23  1.1153e-23  4.7456e-23  1.7376e-23  8.3651e-23  2.8566e-23  1.4958e-22  4.8846e-23  2.7207e-22  8.6012e-23  5.0681e-22  1.5544e-22  9.7777e-22
      4.65  2.9145e-24  2.5097e-24  2.9181e-24  2.5345e-24  2.9243e-24  2.5786e-24  2.9354e-24  2.6570e-24  2.9552e-24  2.7964e-24  2.9904e-24  3.0444e-24  3.0530e-24  3.4855e-24  3.1641e-24  4.2702e-24  3.3616e-24  5.6668e-24  3.7123e-24  8.1538e-24  4.3345e-24  1.2587e-23  5.4369e-24  2.0506e-23  7.3880e-24  3.4689e-23  1.0849e-23  6.0212e-23  1.7048e-23  1.0647e-22  2.8202e-23  1.9071e-22  4.8420e-23  3.4733e-22  8.5498e-23  6.4773e-22  1.5484e-22  1.2512e-21
      4.70  2.6625e-24  2.7757e-24  2.6660e-24  2.8069e-24  2.6723e-24  2.8625e-24  2.6834e-24  2.9614e-24  2.7031e-24  3.1373e-24  2.7381e-24  3.4501e-24  2.8003e-24  4.0065e-24  2.9110e-24  4.9964e-24  3.1076e-24  6.7581e-24  3.4567e-24  9.8957e-24  4.0761e-24  1.5490e-23  5.1736e-24  2.5482e-23  7.1162e-24  4.3384e-23  1.0565e-23  7.5608e-23  1.6743e-23  1.3402e-22  2.7866e-23  2.4044e-22  4.8031e-23  4.3844e-22  8.5042e-23  8.1862e-22  1.5434e-22  1.5835e-21
      4.75  2.4266e-24  3.0811e-24  2.4301e-24  3.1200e-24  2.4363e-24  3.1892e-24  2.4473e-24  3.3123e-24  2.4669e-24  3.5311e-24  2.5018e-24  3.9203e-24  2.5637e-24  4.6127e-24  2.6738e-24  5.8446e-24  2.8695e-24  8.0371e-24  3.2169e-24  1.1942e-23  3.8334e-24  1.8905e-23  4.9258e-24  3.1345e-23  6.8598e-24  5.3639e-23  1.0295e-23  9.3778e-23  1.6452e-23  1.6655e-22  2.7542e-23  2.9916e-22  4.7654e-23  5.4613e-22  8.4602e-23  1.0209e-21  1.5389e-22  1.9780e-21
      4.80  2.2058e-24  3.4444e-24  2.2092e-24  3.4921e-24  2.2154e-24  3.5769e-24  2.2263e-24  3.7277e-24  2.2458e-24  3.9959e-24  2.2805e-24  4.4729e-24  2.3421e-24  5.3215e-24  2.4516e-24  6.8314e-24  2.6461e-24  9.5188e-24  2.9915e-24  1.4305e-23  3.6044e-24  2.2842e-23  4.6908e-24  3.8096e-23  6.6147e-24  6.5444e-23  1.0034e-23  1.1469e-22  1.6163e-23  2.0399e-22  2.7211e-23  3.6671e-22  4.7252e-23  6.7019e-22  8.4109e-23  1.2546e-21  1.5334e-22  2.4355e-21
      4.85  1.9989e-24  3.8925e-24  2.0024e-24  3.9500e-24  2.0085e-24  4.0522e-24  2.0194e-24  4.2339e-24  2.0387e-24  4.5571e-24  2.0731e-24  5.1321e-24  2.1342e-24  6.1547e-24  2.2428e-24  7.9744e-24  2.4358e-24  1.1213e-23  2.7786e-24  1.6983e-23  3.3868e-24  2.7274e-23  4.4653e-24  4.5668e-23  6.3759e-24  7.8654e-23  9.7720e-24  1.3808e-22  1.5865e-23  2.4575e-22  2.6847e-23  4.4221e-22  4.6782e-23  8.0904e-22  8.3482e-23  1.5168e-21  1.5254e-22  2.9508e-21
      4.90  1.8047e-24  4.4659e-24  1.8081e-24  4.5339e-24  1.8141e-24  4.6548e-24  1.8249e-24  4.8699e-24  1.8440e-24  5.2524e-24  1.8780e-24  5.9326e-24  1.9385e-24  7.1427e-24  2.0459e-24  9.2959e-24  2.2368e-24  1.3129e-23  2.5760e-24  1.9957e-23  3.1779e-24  3.2138e-23  4.2454e-24  5.3914e-23  6.1376e-24  9.2980e-23  9.5007e-24  1.6339e-22  1.5539e-23  2.9089e-22  2.6424e-23  5.2381e-22  4.6195e-23  9.5928e-22  8.2634e-23  1.8012e-21  1.5132e-22  3.5125e-21
      4.95  1.6208e-24  5.2049e-24  1.6241e-24  5.2838e-24  1.6301e-24  5.4241e-24  1.6407e-24  5.6736e-24  1.6595e-24  6.1174e-24  1.6930e-24  6.9068e-24  1.7526e-24  8.3109e-24  1.8584e-24  1.0809e-23  2.0466e-24  1.5257e-23  2.3808e-24  2.3182e-23  2.9741e-24  3.7320e-23  4.0267e-24  6.2603e-23  5.8932e-24  1.0797e-22  9.2105e-24  1.8979e-22  1.5171e-23  3.3786e-22  2.5916e-23  6.0870e-22  4.5445e-23  1.1158e-21  8.1477e-23  2.0983e-21  1.4951e-22  4.1022e-21
      5.00  1.4440e-24  6.1343e-24  1.4473e-24  6.2240e-24  1.4532e-24  6.3836e-24  1.4636e-24  6.6673e-24  1.4820e-24  7.1718e-24  1.5149e-24  8.0692e-24  1.5733e-24  9.6657e-24  1.6771e-24  1.2506e-23  1.8616e-24  1.7564e-23  2.1893e-24  2.6575e-23  2.7713e-24  4.2655e-23  3.8040e-24  7.1417e-23  5.6362e-24  1.2305e-22  8.8925e-24  2.1622e-22  1.4747e-23  3.8471e-22  2.5301e-23  6.9329e-22  4.4493e-23  1.2719e-21  7.9937e-23  2.3956e-21  1.4697e-22  4.6958e-21
      5.05  1.2711e-24  7.2453e-24  1.2743e-24  7.3452e-24  1.2800e-24  7.5228e-24  1.2901e-24  7.8387e-24  1.3082e-24  8.4006e-24  1.3402e-24  9.3998e-24  1.3971e-24  1.1177e-23  1.4983e-24  1.4341e-23  1.6782e-24  1.9972e-23  1.9978e-24  3.0008e-23  2.5655e-24  4.7919e-23  3.5730e-24  7.9965e-23  5.3611e-24  1.3751e-22  8.5394e-24  2.4143e-22  1.4257e-23  4.2919e-22  2.4563e-23  7.7349e-22  4.3312e-23  1.4200e-21  7.7962e-23  2.6787e-21  1.4357e-22  5.2648e-21
      5.10  1.0996e-24  8.4466e-24  1.1027e-24  8.5556e-24  1.1082e-24  8.7494e-24  1.1180e-24  9.0939e-24  1.1355e-24  9.7068e-24  1.1665e-24  1.0797e-23  1.2217e-24  1.2736e-23  1.3198e-24  1.6186e-23  1.4941e-24  2.2330e-23  1.8039e-24  3.3269e-23  2.3541e-24  5.2807e-23  3.3309e-24  8.7773e-23  5.0650e-24  1.5059e-22  8.1479e-24  2.6409e-22  1.3696e-23  4.6888e-22  2.3695e-23  8.4500e-22  4.1889e-23  1.5522e-21  7.5527e-23  2.9322e-21  1.3926e-22  5.7779e-21
      5.15  9.3007e-25  9.5984e-24  9.3306e-25  9.7149e-24  9.3837e-25  9.9217e-24  9.4782e-25  1.0290e-23  9.6463e-25  1.0945e-23  9.9451e-25  1.2109e-23  1.0476e-24  1.4181e-23  1.1421e-24  1.7868e-23  1.3100e-24  2.4433e-23  1.6083e-24  3.6130e-23  2.1382e-24  5.7018e-23  3.0790e-24  9.4350e-23  4.7493e-24  1.6152e-22  7.7223e-24  2.8273e-22  1.3068e-23  5.0155e-22  2.2702e-23  9.0378e-22  4.0232e-23  1.6609e-21  7.2639e-23  3.1411e-21  1.3404e-22  6.2036e-21
      5.20  7.6725e-25  1.0530e-23  7.7011e-25  1.0652e-23  7.7520e-25  1.0869e-23  7.8424e-25  1.1255e-23  8.0032e-25  1.1942e-23  8.2890e-25  1.3162e-23  8.7974e-25  1.5334e-23  9.7010e-25  1.9199e-23  1.1307e-24  2.6081e-23  1.4161e-24  3.8322e-23  1.9231e-24  6.0209e-23  2.8231e-24  9.9368e-23  4.4210e-24  1.6983e-22  7.2730e-24  2.9656e-22  1.2392e-23  5.2592e-22  2.1614e-23  9.4758e-22  3.8385e-23  1.7420e-21  6.9365e-23  3.2971e-21  1.2800e-22  6.5225e-21
      5.25  6.1835e-25  1.1112e-23  6.2107e-25  1.1238e-23  6.2590e-25  1.1461e-23  6.3449e-25  1.1858e-23  6.4978e-25  1.2564e-23  6.7695e-25  1.3820e-23  7.2527e-25  1.6054e-23  8.1117e-25  2.0030e-23  9.6385e-25  2.7112e-23  1.2351e-24  3.9737e-23  1.7169e-24  6.2289e-23  2.5723e-24  1.0258e-22  4.0903e-24  1.7519e-22  6.8078e-24  3.0526e-22  1.1676e-23  5.4095e-22  2.0441e-23  9.7443e-22  3.6368e-23  1.7911e-21  6.5744e-23  3.3938e-21  1.2122e-22  6.7172e-21
      5.30  4.8982e-25  1.1318e-23  4.9239e-25  1.1445e-23  4.9695e-25  1.1671e-23  5.0507e-25  1.2072e-23  5.1951e-25  1.2786e-23  5.4518e-25  1.4056e-23  5.9082e-25  1.6315e-23  6.7195e-25  2.0336e-23  8.1613e-25  2.7463e-23  1.0723e-24  4.0206e-23  1.5273e-24  6.2971e-23  2.3347e-24  1.0376e-22  3.7706e-24  1.7693e-22  6.3391e-24  3.0806e-22  1.0937e-23  5.4574e-22  1.9209e-23  9.8273e-22  3.4218e-23  1.8053e-21  6.1838e-23  3.4147e-21  1.1380e-22  6.7531e-21
      5.35  3.8467e-25  1.1212e-23  3.8708e-25  1.1338e-23  3.9136e-25  1.1563e-23  3.9898e-25  1.1962e-23  4.1253e-25  1.2671e-23  4.3662e-25  1.3934e-23  4.7946e-25  1.6179e-23  5.5561e-25  2.0176e-23  6.9094e-25  2.7295e-23  9.3136e-25  3.9989e-23  1.3583e-24  6.2665e-23  2.1157e-24  1.0327e-22  3.4659e-24  1.7584e-22  5.8771e-24  3.0611e-22  1.0191e-23  5.4208e-22  1.7944e-23  9.7547e-22  3.1986e-23  1.7901e-21  5.7746e-23  3.3805e-21  1.0596e-22  6.6659e-21
      5.40  3.0207e-25  1.0905e-23  3.0431e-25  1.1028e-23  3.0831e-25  1.1248e-23  3.1542e-25  1.1638e-23  3.2806e-25  1.2333e-23  3.5055e-25  1.3569e-23  3.9053e-25  1.5767e-23  4.6159e-25  1.9679e-23  5.8788e-25  2.6647e-23  8.1222e-25  3.9068e-23  1.2105e-24  6.1252e-23  1.9176e-24  1.0093e-22  3.1795e-24  1.7171e-22  5.4299e-24  2.9885e-22  9.4534e-24  5.2897e-22  1.6676e-23  9.5098e-22  2.9732e-23  1.7422e-21  5.3599e-23  3.2798e-21  9.8001e-23  6.4358e-21
      5.45  2.3882e-25  1.0509e-23  2.4091e-25  1.0628e-23  2.4462e-25  1.0841e-23  2.5122e-25  1.1220e-23  2.6297e-25  1.1893e-23  2.8386e-25  1.3091e-23  3.2100e-25  1.5221e-23  3.8702e-25  1.9013e-23  5.0435e-25  2.5764e-23  7.1276e-25  3.7795e-23  1.0827e-24  5.9271e-23  1.7408e-24  9.7566e-23  2.9135e-24  1.6598e-22  5.0041e-24  2.8880e-22  8.7397e-24  5.1087e-22  1.5438e-23  9.1739e-22  2.7523e-23  1.6771e-21  4.9538e-23  3.1459e-21  9.0247e-23  6.1345e-21
      5.50  1.9097e-25  1.0091e-23  1.9290e-25  1.0207e-23  1.9634e-25  1.0412e-23  2.0246e-25  1.0778e-23  2.1335e-25  1.1429e-23  2.3270e-25  1.2587e-23  2.6712e-25  1.4647e-23  3.2830e-25  1.8312e-23  4.3701e-25  2.4835e-23  6.3012e-25  3.6457e-23  9.7292e-25  5.7181e-23  1.5833e-24  9.4103e-23  2.6699e-24  1.6010e-22  4.6068e-24  2.7851e-22  8.0658e-24  4.9242e-22  1.4263e-23  8.8337e-22  2.5425e-23  1.6120e-21  4.5704e-23  3.0137e-21  8.3019e-23  5.8423e-21
      5.55  1.5483e-25  9.7298e-24  1.5662e-25  9.8423e-24  1.5980e-25  1.0042e-23  1.6546e-25  1.0398e-23  1.7553e-25  1.1031e-23  1.9344e-25  1.2156e-23  2.2528e-25  1.4157e-23  2.8190e-25  1.7718e-23  3.8249e-25  2.4054e-23  5.6113e-25  3.5340e-23  8.7849e-25  5.5443e-23  1.4432e-24  9.1283e-23  2.4484e-24  1.5533e-22  4.2399e-24  2.7022e-22  7.4382e-24  4.7765e-22  1.3165e-23  8.5644e-22  2.3470e-23  1.5612e-21  4.2157e-23  2.9131e-21  7.6438e-23  5.6280e-21
      5.60  1.2739e-25  9.4504e-24  1.2904e-25  9.5600e-24  1.3198e-25  9.7547e-24  1.3721e-25  1.0101e-23  1.4650e-25  1.0717e-23  1.6303e-25  1.1812e-23  1.9243e-25  1.3761e-23  2.4469e-25  1.7227e-23  3.3755e-25  2.3395e-23  5.0229e-25  3.4379e-23  7.9527e-25  5.3938e-23  1.3163e-24  8.8817e-23  2.2438e-24  1.5115e-22  3.8967e-24  2.6294e-22  6.8470e-24  4.6475e-22  1.2128e-23  8.3317e-22  2.1624e-23  1.5188e-21  3.8831e-23  2.8340e-21  7.0345e-23  5.4702e-21
      5.65  1.0637e-25  9.2642e-24  1.0789e-25  9.3706e-24  1.1059e-25  9.5597e-24  1.1539e-25  9.8961e-24  1.2394e-25  1.0494e-23  1.3914e-25  1.1558e-23  1.6617e-25  1.3450e-23  2.1421e-25  1.6816e-23  2.9948e-25  2.2807e-23  4.5080e-25  3.3474e-23  7.1993e-25  5.2467e-23  1.1986e-24  8.6338e-23  2.0506e-24  1.4686e-22  3.5688e-24  2.5542e-22  6.2783e-24  4.5139e-22  1.1127e-23  8.0911e-22  1.9842e-23  1.4749e-21  3.5619e-23  2.7515e-21  6.4483e-23  5.3134e-21
      5.70  9.0089e-26  9.1735e-24  9.1478e-26  9.2767e-24  9.3948e-26  9.4601e-24  9.8350e-26  9.7863e-24  1.0618e-25  1.0366e-23  1.2010e-25  1.1398e-23  1.4484e-25  1.3233e-23  1.8880e-25  1.6497e-23  2.6669e-25  2.2306e-23  4.0511e-25  3.2646e-23  6.5124e-25  5.1061e-23  1.0890e-24  8.3897e-23  1.8682e-24  1.4257e-22  3.2564e-24  2.4778e-22  5.7332e-24  4.3765e-22  1.0163e-23  7.8407e-22  1.8120e-23  1.4279e-21  3.2507e-23  2.6608e-21  5.8782e-23  5.1315e-21
      5.75  7.7336e-26  9.1285e-24  7.8608e-26  9.2290e-24  8.0871e-26  9.4078e-24  8.4900e-26  9.7257e-24  9.2068e-26  1.0291e-23  1.0482e-25  1.1296e-23  1.2747e-25  1.3084e-23  1.6760e-25  1.6265e-23  2.3875e-25  2.1926e-23  3.6534e-25  3.1999e-23  5.9035e-25  4.9941e-23  9.9059e-25  8.1928e-23  1.7028e-24  1.3907e-22  2.9715e-24  2.4150e-22  5.2342e-24  4.2624e-22  9.2786e-24  7.6294e-22  1.6535e-23  1.3876e-21  2.9631e-23  2.5803e-21  5.3479e-23  4.9621e-21
      5.80  6.7239e-26  9.2098e-24  6.8410e-26  9.3096e-24  7.0492e-26  9.4870e-24  7.4203e-26  9.8025e-24  8.0805e-26  1.0363e-23  9.2541e-26  1.1361e-23  1.1335e-25  1.3136e-23  1.5019e-25  1.6292e-23  2.1560e-25  2.1909e-23  3.3195e-25  3.1905e-23  5.3875e-25  4.9706e-23  9.0656e-25  8.1439e-23  1.5611e-24  1.3812e-22  2.7267e-24  2.3968e-22  4.8048e-24  4.2273e-22  8.5168e-24  7.5597e-22  1.5169e-23  1.3745e-21  2.7152e-23  2.5502e-21  4.8906e-23  4.8872e-21
      5.85  5.9165e-26  9.4013e-24  6.0250e-26  9.5027e-24  6.2184e-26  9.6830e-24  6.5624e-26  1.0004e-23  7.1747e-26  1.0574e-23  8.2633e-26  1.1587e-23  1.0187e-25  1.3391e-23  1.3595e-25  1.6599e-23  1.9659e-25  2.2306e-23  3.0433e-25  3.2464e-23  4.9583e-25  5.0554e-23  8.3641e-25  8.2799e-23  1.4425e-24  1.4038e-22  2.5216e-24  2.4355e-22  4.4450e-24  4.2944e-22  7.8792e-24  7.6766e-22  1.4029e-23  1.3933e-21  2.5091e-23  2.5821e-21  4.5127e-23  4.9387e-21
      5.90  5.2641e-26  9.6975e-24  5.3651e-26  9.8015e-24  5.5449e-26  9.9863e-24  5.8652e-26  1.0315e-23  6.4351e-26  1.0899e-23  7.4471e-26  1.1939e-23  9.2356e-26  1.3788e-23  1.2406e-25  1.7077e-23  1.8045e-25  2.2928e-23  2.8062e-25  3.3343e-23  4.5869e-25  5.1889e-23  7.7539e-25  8.4948e-23  1.3389e-24  1.4399e-22  2.3422e-24  2.4976e-22  4.1302e-24  4.4034e-22  7.3218e-24  7.8713e-22  1.3034e-23  1.4287e-21  2.3302e-23  2.6482e-21  4.1874e-23  5.0622e-21
      5.95  4.7312e-26  1.0094e-23  4.8249e-26  1.0199e-23  4.9917e-26  1.0387e-23  5.2889e-26  1.0721e-23  5.8178e-26  1.1315e-23  6.7572e-26  1.2370e-23  8.4176e-26  1.4248e-23  1.1364e-25  1.7588e-23  1.6595e-25  2.3530e-23  2.5890e-25  3.4107e-23  4.2415e-25  5.2941e-23  7.1802e-25  8.6515e-23  1.2409e-24  1.4648e-22  2.1718e-24  2.5391e-22  3.8307e-24  4.4752e-22  6.7912e-24  7.9990e-22  1.2088e-23  1.4551e-21  2.1605e-23  2.6992e-21  3.8804e-23  5.2008e-21
      6.00  4.2919e-26  1.0590e-23  4.3781e-26  1.0696e-23  4.5317e-26  1.0885e-23  4.8053e-26  1.1220e-23  5.2928e-26  1.1817e-23  6.1603e-26  1.2878e-23  7.6941e-26  1.4765e-23  1.0412e-25  1.8122e-23  1.5236e-25  2.4095e-23  2.3804e-25  3.4726e-23  3.9038e-25  5.3657e-23  6.6132e-25  8.7406e-23  1.1434e-24  1.4768e-22  2.0016e-24  2.5569e-22  3.5306e-24  4.5038e-22  6.2589e-24  8.0481e-22  1.1139e-23  1.4626e-21  1.9900e-23  2.7130e-21  3.5716e-23  5.2010e-21
      6.05  3.9267e-26  1.1202e-23  4.0054e-26  1.1305e-23  4.1457e-26  1.1488e-23  4.3957e-26  1.1814e-23  4.8414e-26  1.2393e-23  5.6352e-26  1.3424e-23  7.0437e-26  1.5256e-23  9.5325e-26  1.8517e-23  1.3947e-25  2.4318e-23  2.1789e-25  3.4643e-23  3.5731e-25  5.3030e-23  6.0528e-25  8.5808e-23  1.0465e-24  1.4435e-22  1.8318e-24  2.4928e-22  3.2310e-24  4.3843e-22  5.7269e-24  7.8289e-22  1.0189e-23  1.4211e-21  1.8195e-23  2.6371e-21  3.2631e-23  5.0823e-21
      6.10  3.6210e-26  1.1919e-23  3.6924e-26  1.2018e-23  3.8196e-26  1.2192e-23  4.0463e-26  1.2503e-23  4.4504e-26  1.3055e-23  5.1704e-26  1.4037e-23  6.4497e-26  1.5782e-23  8.7132e-26  1.8888e-23  1.2721e-25  2.4418e-23  1.9842e-25  3.4257e-23  3.2504e-25  5.1779e-23  5.5023e-25  8.3017e-23  9.5090e-25  1.3883e-22  1.6641e-24  2.3886e-22  2.9346e-24  4.1922e-22  5.2006e-24  7.5099e-22  9.2509e-24  1.3628e-21  1.6514e-23  2.5315e-21  2.9600e-23  4.8568e-21
      6.15  3.3633e-26  1.2747e-23  3.4274e-26  1.2837e-23  3.5415e-26  1.2998e-23  3.7448e-26  1.3283e-23  4.1067e-26  1.3790e-23  4.7517e-26  1.4692e-23  5.8967e-26  1.6295e-23  7.9270e-26  1.9148e-23  1.1526e-25  2.4223e-23  1.7919e-25  3.3256e-23  2.9284e-25  4.9344e-23  4.9498e-25  7.8027e-23  8.5463e-25  1.2927e-22  1.4948e-24  2.2114e-22  2.6352e-24  3.8694e-22  4.6693e-24  6.8919e-22  8.3050e-24  1.2502e-21  1.4825e-23  2.3220e-21  2.6569e-23  4.4621e-21
      6.20  3.1442e-26  1.3691e-23  3.2006e-26  1.3770e-23  3.3011e-26  1.3909e-23  3.4799e-26  1.4156e-23  3.7980e-26  1.4596e-23  4.3645e-26  1.5378e-23  5.3699e-26  1.6769e-23  7.1540e-26  1.9242e-23  1.0322e-25  2.3643e-23  1.5952e-25  3.1477e-23  2.5959e-25  4.5428e-23  4.3758e-25  7.0305e-23  7.5426e-25  1.1476e-22  1.3180e-24  1.9449e-22  2.3223e-24  3.3842e-22  4.1138e-24  6.0115e-22  7.3167e-24  1.0896e-21  1.3062e-23  2.0252e-21  2.3417e-23  3.9106e-21
      6.25  2.9565e-26  1.4763e-23  3.0050e-26  1.4827e-23  3.0913e-26  1.4941e-23  3.2446e-26  1.5143e-23  3.5172e-26  1.5502e-23  4.0023e-26  1.6142e-23  4.8632e-26  1.7279e-23  6.3932e-26  1.9300e-23  9.1106e-26  2.2897e-23  1.3941e-25  2.9299e-23  2.2530e-25  4.0701e-23  3.7807e-25  6.1034e-23  6.4989e-25  9.7374e-23  1.1338e-24  1.6257e-22  1.9959e-24  2.8032e-22  3.5340e-24  4.9543e-22  6.2846e-24  8.9626e-22  1.1220e-23  1.6660e-21  2.0121e-23  3.2176e-21
      6.30  2.7954e-26  1.6001e-23  2.8361e-26  1.6051e-23  2.9084e-26  1.6140e-23  3.0370e-26  1.6298e-23  3.2653e-26  1.6580e-23  3.6710e-26  1.7080e-23  4.3918e-26  1.7971e-23  5.6732e-26  1.9553e-23  7.9520e-26  2.2369e-23  1.2002e-25  2.7381e-23  1.9204e-25  3.6308e-23  3.2015e-25  5.2227e-23  5.4809e-25  8.0707e-23  9.5386e-25  1.3179e-22  1.6768e-24  2.2413e-22  2.9667e-24  3.9288e-22  5.2732e-24  7.0765e-22  9.4123e-24  1.3170e-21  1.6876e-23  2.5448e-21
      6.35  2.6572e-26  1.7401e-23  2.6909e-26  1.7441e-23  2.7507e-26  1.7511e-23  2.8571e-26  1.7637e-23  3.0460e-26  1.7861e-23  3.3808e-26  1.8258e-23  3.9762e-26  1.8966e-23  5.0354e-26  2.0223e-23  6.9190e-26  2.2460e-23  1.0269e-25  2.6440e-23  1.6227e-25  3.3530e-23  2.6824e-25  4.6174e-23  4.5678e-25  6.8775e-23  7.9240e-25  1.0933e-22  1.3903e-24  1.8261e-22  2.4568e-24  3.1660e-22  4.3633e-24  5.6658e-22  7.7826e-24  1.0477e-21  1.3943e-23  2.0201e-21
      6.40  2.5386e-26  1.8978e-23  2.5663e-26  1.9011e-23  2.6156e-26  1.9068e-23  2.7030e-26  1.9171e-23  2.8583e-26  1.9353e-23  3.1333e-26  1.9677e-23  3.6223e-26  2.0254e-23  4.4925e-26  2.1280e-23  6.0404e-26  2.3104e-23  8.7935e-26  2.6350e-23  1.3690e-25  3.2132e-23  2.2401e-25  4.2444e-23  3.7898e-25  6.0876e-23  6.5480e-25  9.3953e-23  1.1461e-24  1.5374e-22  2.0221e-24  2.6306e-22  3.5873e-24  4.6699e-22  6.3919e-24  8.5996e-22  1.1438e-23  1.6641e-21
      6.45  2.4366e-26  2.0748e-23  2.4594e-26  2.0775e-23  2.4999e-26  2.0823e-23  2.5717e-26  2.0908e-23  2.6991e-26  2.1059e-23  2.9248e-26  2.1328e-23  3.3255e-26  2.1806e-23  4.0394e-26  2.2656e-23  5.3091e-26  2.4167e-23  7.5676e-26  2.6857e-23  1.1585e-25  3.1649e-23  1.8731e-25  4.0193e-23  3.1445e-25  5.5466e-23  5.4071e-25  8.2875e-23  9.4363e-25  1.3241e-22  1.6619e-24  2.2515e-22  2.9443e-24  3.9601e-22  5.2399e-24  7.2798e-22  9.3636e-24  1.3967e-21
      6.50  2.3488e-26  2.2731e-23  2.3676e-26  2.2754e-23  2.4010e-26  2.2794e-23  2.4603e-26  2.2865e-23  2.5654e-26  2.2992e-23  2.7514e-26  2.3218e-23  3.0818e-26  2.3619e-23  3.6707e-26  2.4332e-23  4.7180e-26  2.5601e-23  6.5811e-26  2.7858e-23  9.8951e-26  3.1878e-23  1.5790e-25  3.9048e-23  2.6279e-25  5.1863e-23  4.4943e-25  7.4861e-23  7.8172e-25  1.1645e-22  1.3739e-24  1.9250e-22  2.4305e-24  3.3488e-22  4.3200e-24  6.0929e-22  7.7092e-24  1.1728e-21
      6.55  2.2731e-26  2.4980e-23  2.2889e-26  2.4999e-23  2.3168e-26  2.5033e-23  2.3664e-26  2.5092e-23  2.4543e-26  2.5198e-23  2.6099e-26  2.5387e-23  2.8861e-26  2.5723e-23  3.3787e-26  2.6320e-23  4.2549e-26  2.7381e-23  5.8134e-26  2.9269e-23  8.5861e-26  3.2633e-23  1.3519e-25  3.8630e-23  2.2294e-25  4.9349e-23  3.7909e-25  6.8586e-23  6.5706e-25  1.0335e-22  1.1522e-24  1.6699e-22  2.0354e-24  2.8583e-22  3.6134e-24  5.1698e-22  6.4402e-24  9.8487e-22
      6.60  2.2077e-26  2.7494e-23  2.2211e-26  2.7510e-23  2.2448e-26  2.7539e-23  2.2869e-26  2.7590e-23  2.3617e-26  2.7680e-23  2.4939e-26  2.7841e-23  2.7288e-26  2.8127e-23  3.1476e-26  2.8635e-23  3.8926e-26  2.9540e-23  5.2182e-26  3.1149e-23  7.5765e-26  3.4015e-23  1.1772e-25  3.9125e-23  1.9237e-25  4.8261e-23  3.2520e-25  6.4652e-23  5.6162e-25  9.4422e-23  9.8268e-25  1.4892e-22  1.7334e-24  2.5045e-22  3.0738e-24  4.4638e-22  5.4728e-24  8.4261e-22
      6.65  2.1509e-26  3.0302e-23  2.1624e-26  3.0316e-23  2.1828e-26  3.0341e-23  2.2190e-26  3.0386e-23  2.2833e-26  3.0465e-23  2.3971e-26  3.0605e-23  2.5994e-26  3.0855e-23  2.9600e-26  3.1299e-23  3.6017e-26  3.2089e-23  4.7435e-26  3.3495e-23  6.7752e-26  3.5999e-23  1.0390e-25  4.0463e-23  1.6822e-25  4.8442e-23  2.8267e-25  6.2759e-23  4.8638e-25  8.8629e-23  8.4912e-25  1.3597e-22  1.4956e-24  2.2434e-22  2.6496e-24  3.9473e-22  4.7134e-24  7.5893e-22
      6.70  2.1014e-26  3.3437e-23  2.1114e-26  3.3450e-23  2.1290e-26  3.3472e-23  2.1604e-26  3.3512e-23  2.2160e-26  3.3582e-23  2.3147e-26  3.3707e-23  2.4902e-26  3.3929e-23  2.8029e-26  3.4325e-23  3.3594e-26  3.5027e-23  4.3500e-26  3.6278e-23  6.1128e-26  3.8505e-23  9.2498e-26  4.2476e-23  1.4832e-25  4.9572e-23  2.4765e-25  6.2306e-23  4.2444e-25  8.5314e-23  7.3927e-25  1.3074e-22  1.3003e-24  2.1210e-22  2.3015e-24  3.6894e-22  4.0919e-24  7.0936e-22
      6.75  2.0582e-26  3.6938e-23  2.0668e-26  3.6949e-23  2.0821e-26  3.6970e-23  2.1094e-26  3.7008e-23  2.1578e-26  3.7074e-23  2.2437e-26  3.7192e-23  2.3964e-26  3.7402e-23  2.6685e-26  3.7776e-23  3.1531e-26  3.8439e-23  4.0156e-26  3.9620e-23  5.5507e-26  4.1723e-23  8.2833e-26  4.5835e-23  1.3146e-25  5.2820e-23  2.1799e-25  6.5353e-23  3.7201e-25  8.7996e-23  6.4625e-25  1.2939e-22  1.1349e-24  2.0659e-22  2.0067e-24  3.5516e-22  3.5650e-24  6.5529e-22
      6.80  2.0203e-26  4.0884e-23  2.0278e-26  4.0896e-23  2.0412e-26  4.0916e-23  2.0649e-26  4.0952e-23  2.1071e-26  4.1016e-23  2.1821e-26  4.1130e-23  2.3155e-26  4.1333e-23  2.5533e-26  4.1694e-23  2.9768e-26  4.2335e-23  3.7307e-26  4.3476e-23  5.0727e-26  4.5508e-23  7.4617e-26  4.9131e-23  1.1714e-25  5.5606e-23  1.9281e-25  6.7224e-23  3.2752e-25  8.8215e-23  5.6736e-25  1.2658e-22  9.9469e-25  1.9811e-22  1.7570e-24  3.3662e-22  3.1194e-24  6.1604e-22
      6.85  1.9871e-26  4.5289e-23  1.9937e-26  4.5300e-23  2.0053e-26  4.5319e-23  2.0261e-26  4.5353e-23  2.0630e-26  4.5413e-23  2.1288e-26  4.5520e-23  2.2459e-26  4.5711e-23  2.4546e-26  4.6051e-23  2.8264e-26  4.6655e-23  3.4886e-26  4.7729e-23  4.6680e-26  4.9641e-23  6.7680e-26  5.3051e-23  1.0507e-25  5.9146e-23  1.7161e-25  7.0080e-23  2.9008e-25  9.0007e-23  5.0104e-25  1.2627e-22  8.7699e-25  1.9384e-22  1.5478e-24  3.2418e-22  2.7470e-24  5.8892e-22
      6.90  1.9580e-26  5.0206e-23  1.9637e-26  5.0216e-23  1.9739e-26  5.0234e-23  1.9921e-26  5.0267e-23  2.0246e-26  5.0325e-23  2.0823e-26  5.0428e-23  2.1853e-26  5.0612e-23  2.3688e-26  5.0940e-23  2.6959e-26  5.1521e-23  3.2783e-26  5.2555e-23  4.3160e-26  5.4396e-23  6.1645e-26  5.7678e-23  9.4560e-26  6.3546e-23  1.5316e-25  7.4070e-23  2.5748e-25  9.3080e-23  4.4327e-25  1.2786e-22  7.7440e-25  1.9329e-22  1.3653e-24  3.1862e-22  2.4223e-24  5.7489e-22
      6.95  1.9324e-26  5.5694e-23  1.9374e-26  5.5705e-23  1.9464e-26  5.5722e-23  1.9624e-26  5.5754e-23  1.9908e-26  5.5811e-23  2.0416e-26  5.5912e-23  2.1323e-26  5.6092e-23  2.2938e-26  5.6412e-23  2.5816e-26  5.6980e-23  3.0943e-26  5.7991e-23  4.0085e-26  5.9791e-23  5.6377e-26  6.2999e-23  8.5393e-26  6.8732e-23  1.3706e-25  7.9017e-23  2.2905e-25  9.7595e-23  3.9291e-25  1.3155e-22  6.8498e-25  1.9524e-22  1.2063e-24  3.1876e-22  2.1392e-24  5.6726e-22
      7.00  1.9098e-26  6.1822e-23  1.9142e-26  6.1832e-23  1.9221e-26  6.1850e-23  1.9362e-26  6.1881e-23  1.9612e-26  6.1936e-23  2.0058e-26  6.2035e-23  2.0856e-26  6.2211e-23  2.2277e-26  6.2525e-23  2.4807e-26  6.3082e-23  2.9322e-26  6.4071e-23  3.7375e-26  6.5831e-23  5.1734e-26  6.8987e-23  7.7318e-26  7.4610e-23  1.2289e-25  8.4696e-23  2.0405e-25  1.0292e-22  3.4863e-25  1.3675e-22  6.0640e-25  1.9945e-22  1.0667e-24  3.2033e-22  1.8908e-24  5.6427e-22
      7.05  1.8899e-26  6.8716e-23  1.8938e-26  6.8725e-23  1.9007e-26  6.8743e-23  1.9130e-26  6.8773e-23  1.9349e-26  6.8828e-23  1.9740e-26  6.8925e-23  2.0440e-26  6.9099e-23  2.1687e-26  6.9409e-23  2.3909e-26  6.9958e-23  2.7874e-26  7.0934e-23  3.4956e-26  7.2670e-23  4.7596e-26  7.5765e-23  7.0140e-26  8.1294e-23  1.1032e-25  9.1221e-23  1.8190e-25  1.0915e-22  3.0946e-25  1.4190e-22  5.3697e-25  2.0292e-22  9.4346e-25  3.2045e-22  1.6720e-24  5.5925e-22
      7.10  1.8724e-26  7.6414e-23  1.8758e-26  7.6424e-23  1.8818e-26  7.6440e-23  1.8924e-26  7.6469e-23  1.9115e-26  7.6522e-23  1.9454e-26  7.6615e-23  2.0062e-26  7.6780e-23  2.1148e-26  7.7077e-23  2.3082e-26  7.7602e-23  2.6532e-26  7.8534e-23  3.2696e-26  8.0193e-23  4.3717e-26  8.3148e-23  6.3397e-26  8.8429e-23  9.8499e-26  9.7902e-23  1.6107e-25  1.1501e-22  2.7264e-25  1.4628e-22  4.7175e-25  2.0471e-22  8.2786e-25  3.1745e-22  1.4671e-24  5.4597e-22
      7.15  1.8569e-26  8.5014e-23  1.8598e-26  8.5023e-23  1.8649e-26  8.5038e-23  1.8740e-26  8.5065e-23  1.8903e-26  8.5114e-23  1.9193e-26  8.5200e-23  1.9712e-26  8.5354e-23  2.0641e-26  8.5629e-23  2.2292e-26  8.6118e-23  2.5237e-26  8.6984e-23  3.0504e-26  8.8525e-23  3.9932e-26  9.1269e-23  5.6788e-26  9.6171e-23  8.6886e-26  1.0499e-22  1.4058e-25  1.2089e-22  2.3638e-25  1.5000e-22  4.0745e-25  2.0442e-22  7.1361e-25  3.0930e-22  1.2638e-24  5.2230e-22
      7.20  1.8432e-26  9.4622e-23  1.8456e-26  9.4629e-23  1.8499e-26  9.4643e-23  1.8575e-26  9.4668e-23  1.8711e-26  9.4712e-23  1.8954e-26  9.4791e-23  1.9388e-26  9.4931e-23  2.0163e-26  9.5180e-23  2.1540e-26  9.5627e-23  2.3999e-26  9.6415e-23  2.8400e-26  9.7816e-23  3.6281e-26  1.0031e-22  5.0396e-26  1.0477e-22  7.5638e-26  1.1280e-22  1.2073e-25  1.2726e-22  2.0124e-25  1.5375e-22  3.4512e-25  2.0305e-22  6.0286e-25  2.9780e-22  1.0666e-24  4.8943e-22
      7.25  1.8311e-26  1.0536e-22  1.8331e-26  1.0536e-22  1.8366e-26  1.0538e-22  1.8428e-26  1.0540e-22  1.8540e-26  1.0544e-22  1.8739e-26  1.0551e-22  1.9095e-26  1.0564e-22  1.9729e-26  1.0586e-22  2.0858e-26  1.0626e-22  2.2873e-26  1.0697e-22  2.6477e-26  1.0823e-22  3.2941e-26  1.1048e-22  4.4531e-26  1.1448e-22  6.5297e-26  1.2167e-22  1.0245e-25  1.3463e-22  1.6887e-25  1.5830e-22  2.8769e-25  2.0234e-22  5.0071e-25  2.8713e-22  8.8449e-25  4.5770e-22
      7.30  1.8204e-26  1.1742e-22  1.8220e-26  1.1743e-22  1.8249e-26  1.1744e-22  1.8300e-26  1.1746e-22  1.8391e-26  1.1749e-22  1.8553e-26  1.1756e-22  1.8843e-26  1.1767e-22  1.9359e-26  1.1787e-22  2.0278e-26  1.1823e-22  2.1918e-26  1.1888e-22  2.4849e-26  1.2001e-22  3.0111e-26  1.2203e-22  3.9565e-26  1.2563e-22  5.6542e-26  1.3209e-22  8.6987e-26  1.4373e-22  1.4151e-25  1.6498e-22  2.3919e-25  2.0446e-22  4.1453e-25  2.8035e-22  7.3091e-25  4.3332e-22
      7.35  1.8111e-26  1.3091e-22  1.8124e-26  1.3091e-22  1.8147e-26  1.3092e-22  1.8189e-26  1.3094e-22  1.8264e-26  1.3097e-22  1.8397e-26  1.3103e-22  1.8634e-26  1.3114e-22  1.9056e-26  1.3132e-22  1.9809e-26  1.3165e-22  2.1151e-26  1.3224e-22  2.3551e-26  1.3328e-22  2.7862e-26  1.3512e-22  3.5625e-26  1.3841e-22  4.9606e-26  1.4430e-22  7.4741e-26  1.5492e-22  1.1987e-25  1.7428e-22  2.0085e-25  2.1023e-22  3.4647e-25  2.7922e-22  6.0976e-25  4.1764e-22
      7.40  1.8029e-26  1.4599e-22  1.8040e-26  1.4599e-22  1.8059e-26  1.4600e-22  1.8094e-26  1.4602e-22  1.8156e-26  1.4605e-22  1.8266e-26  1.4610e-22  1.8462e-26  1.4620e-22  1.8813e-26  1.4637e-22  1.9439e-26  1.4667e-22  2.0554e-26  1.4723e-22  2.2548e-26  1.4820e-22  2.6133e-26  1.4992e-22  3.2598e-26  1.5298e-22  4.4272e-26  1.5846e-22  6.5326e-26  1.6835e-22  1.0323e-25  1.8639e-22  1.7140e-25  2.1980e-22  2.9424e-25  2.8390e-22  5.1689e-25  4.1135e-22
      7.45  1.7957e-26  1.6285e-22  1.7966e-26  1.6285e-22  1.7982e-26  1.6286e-22  1.8012e-26  1.6288e-22  1.8064e-26  1.6291e-22  1.8157e-26  1.6296e-22  1.8323e-26  1.6305e-22  1.8620e-26  1.6321e-22  1.9149e-26  1.6351e-22  2.0091e-26  1.6404e-22  2.1773e-26  1.6496e-22  2.4797e-26  1.6660e-22  3.0253e-26  1.6952e-22  4.0119e-26  1.7475e-22  5.7960e-26  1.8416e-22  9.0167e-26  2.0128e-22  1.4823e-25  2.3299e-22  2.5306e-25  2.9370e-22  4.4339e-25  4.1393e-22
      7.50  1.7894e-26  1.8171e-22  1.7902e-26  1.8171e-22  1.7916e-26  1.8172e-22  1.7941e-26  1.8174e-22  1.7986e-26  1.8176e-22  1.8066e-26  1.8181e-22  1.8209e-26  1.8190e-22  1.8464e-26  1.8206e-22  1.8921e-26  1.8235e-22  1.9732e-26  1.8287e-22  2.1180e-26  1.8377e-22  2.3781e-26  1.8537e-22  2.8475e-26  1.8821e-22  3.6976e-26  1.9329e-22  5.2391e-26  2.0244e-22  8.0308e-26  2.1907e-22  1.3079e-25  2.4998e-22  2.2215e-25  3.0855e-22  3.8839e-25  4.2449e-22
      7.55  1.7838e-26  2.0288e-22  1.7845e-26  2.0289e-22  1.7857e-26  2.0290e-22  1.7880e-26  2.0291e-22  1.7919e-26  2.0294e-22  1.7989e-26  2.0299e-22  1.8114e-26  2.0308e-22  1.8338e-26  2.0323e-22  1.8739e-26  2.0353e-22  1.9450e-26  2.0405e-22  2.0718e-26  2.0495e-22  2.2993e-26  2.0653e-22  2.7099e-26  2.0935e-22  3.4540e-26  2.1440e-22  4.8060e-26  2.2348e-22  7.2625e-26  2.4006e-22  1.1720e-25  2.7058e-22  1.9811e-25  3.2845e-22  3.4578e-25  4.4265e-22
      7.60  1.7789e-26  2.2657e-22  1.7795e-26  2.2658e-22  1.7807e-26  2.2659e-22  1.7826e-26  2.2660e-22  1.7861e-26  2.2663e-22  1.7924e-26  2.2668e-22  1.8035e-26  2.2677e-22  1.8234e-26  2.2693e-22  1.8591e-26  2.2724e-22  1.9224e-26  2.2777e-22  2.0349e-26  2.2868e-22  2.2368e-26  2.3028e-22  2.6005e-26  2.3313e-22  3.2588e-26  2.3823e-22  4.4552e-26  2.4741e-22  6.6323e-26  2.6414e-22  1.0591e-25  2.9491e-22  1.7793e-25  3.5312e-22  3.0958e-25  4.6768e-22
      7.65  1.7746e-26  2.5308e-22  1.7752e-26  2.5309e-22  1.7762e-26  2.5310e-22  1.7779e-26  2.5311e-22  1.7811e-26  2.5314e-22  1.7867e-26  2.5319e-22  1.7967e-26  2.5328e-22  1.8146e-26  2.5345e-22  1.8468e-26  2.5378e-22  1.9038e-26  2.5432e-22  2.0050e-26  2.5526e-22  2.1861e-26  2.5690e-22  2.5119e-26  2.5983e-22  3.1009e-26  2.6506e-22  4.1706e-26  2.7447e-22  6.1184e-26  2.9159e-22  9.6666e-26  3.2308e-22  1.6134e-25  3.8252e-22  2.7974e-25  4.9915e-22
      7.70  1.7708e-26  2.8275e-22  1.7713e-26  2.8275e-22  1.7722e-26  2.8276e-22  1.7738e-26  2.8278e-22  1.7767e-26  2.8281e-22  1.7818e-26  2.8286e-22  1.7909e-26  2.8296e-22  1.8072e-26  2.8313e-22  1.8364e-26  2.8349e-22  1.8881e-26  2.8406e-22  1.9798e-26  2.8503e-22  2.1438e-26  2.8673e-22  2.4382e-26  2.8977e-22  2.9695e-26  2.9519e-22  3.9331e-26  3.0495e-22  5.6877e-26  3.2268e-22  8.8874e-26  3.5526e-22  1.4729e-25  4.1666e-22  2.5440e-25  5.3679e-22
      7.75  1.7675e-26  3.1594e-22  1.7680e-26  3.1595e-22  1.7688e-26  3.1596e-22  1.7702e-26  3.1598e-22  1.7728e-26  3.1601e-22  1.7775e-26  3.1606e-22  1.7858e-26  3.1616e-22  1.8007e-26  3.1636e-22  1.8274e-26  3.1674e-22  1.8745e-26  3.1734e-22  1.9581e-26  3.1836e-22  2.1073e-26  3.2014e-22  2.3748e-26  3.2332e-22  2.8566e-26  3.2899e-22  3.7290e-26  3.3918e-22  5.3160e-26  3.5765e-22  8.2116e-26  3.9168e-22  1.3505e-25  4.5561e-22  2.3224e-25  5.8038e-22
      7.80  1.7645e-26  3.5321e-22  1.7649e-26  3.5321e-22  1.7657e-26  3.5322e-22  1.7670e-26  3.5324e-22  1.7694e-26  3.5327e-22  1.7736e-26  3.5333e-22  1.7812e-26  3.5344e-22  1.7949e-26  3.5366e-22  1.8194e-26  3.5407e-22  1.8624e-26  3.5471e-22  1.9387e-26  3.5578e-22  2.0748e-26  3.5766e-22  2.3184e-26  3.6101e-22  2.7564e-26  3.6697e-22  3.5480e-26  3.7769e-22  4.9861e-26  3.9711e-22  7.6097e-26  4.3283e-22  1.2410e-25  4.9984e-22  2.1236e-25  6.3027e-22
      7.85  1.7619e-26  3.9492e-22  1.7623e-26  3.9493e-22  1.7630e-26  3.9494e-22  1.7642e-26  3.9496e-22  1.7663e-26  3.9499e-22  1.7702e-26  3.9505e-22  1.7771e-26  3.9516e-22  1.7897e-26  3.9541e-22  1.8121e-26  3.9586e-22  1.8514e-26  3.9654e-22  1.9210e-26  3.9768e-22  2.0451e-26  3.9967e-22  2.2668e-26  4.0320e-22  2.6648e-26  4.0950e-22  3.3827e-26  4.2080e-22  4.6850e-26  4.4127e-22  7.0594e-26  4.7881e-22  1.1407e-25  5.4930e-22  1.9410e-25  6.8604e-22
      7.90  1.7595e-26  4.4162e-22  1.7599e-26  4.4163e-22  1.7605e-26  4.4164e-22  1.7616e-26  4.4166e-22  1.7636e-26  4.4170e-22  1.7671e-26  4.4176e-22  1.7734e-26  4.4188e-22  1.7850e-26  4.4217e-22  1.8054e-26  4.4266e-22  1.8411e-26  4.4339e-22  1.9044e-26  4.4459e-22  2.0170e-26  4.4670e-22  2.2180e-26  4.5043e-22  2.5783e-26  4.5708e-22  3.2268e-26  4.6902e-22  4.4009e-26  4.9061e-22  6.5384e-26  5.3018e-22  1.0451e-25  6.0432e-22  1.7658e-25  7.4778e-22
      7.95  1.7574e-26  4.9390e-22  1.7578e-26  4.9391e-22  1.7583e-26  4.9392e-22  1.7593e-26  4.9395e-22  1.7611e-26  4.9398e-22  1.7643e-26  4.9405e-22  1.7699e-26  4.9418e-22  1.7806e-26  4.9453e-22  1.7991e-26  4.9506e-22  1.8314e-26  4.9584e-22  1.8886e-26  4.9712e-22  1.9902e-26  4.9934e-22  2.1716e-26  5.0328e-22  2.4960e-26  5.1031e-22  3.0789e-26  5.2291e-22  4.1315e-26  5.4568e-22  6.0439e-26  5.8736e-22  9.5395e-26  6.6522e-22  1.5974e-25  8.1563e-22
      8.00  1.7555e-26  5.5245e-22  1.7558e-26  5.5245e-22  1.7563e-26  5.5247e-22  1.7572e-26  5.5249e-22  1.7588e-26  5.5253e-22  1.7617e-26  5.5260e-22  1.7668e-26  5.5273e-22  1.7765e-26  5.5315e-22  1.7932e-26  5.5374e-22  1.8223e-26  5.5457e-22  1.8736e-26  5.5593e-22  1.9648e-26  5.5828e-22  2.1273e-26  5.6244e-22  2.4178e-26  5.6986e-22  2.9386e-26  5.8315e-22  3.8771e-26  6.0715e-22  5.5779e-26  6.5102e-22  8.6806e-26  7.3281e-22  1.4383e-25  8.9026e-22
      8.05  1.7538e-26  6.1813e-22  1.7541e-26  6.1814e-22  1.7545e-26  6.1815e-22  1.7553e-26  6.1818e-22  1.7567e-26  6.1822e-22  1.7593e-26  6.1830e-22  1.7638e-26  6.1844e-22  1.7727e-26  6.1894e-22  1.7877e-26  6.1959e-22  1.8137e-26  6.2049e-22  1.8594e-26  6.2193e-22  1.9407e-26  6.2443e-22  2.0854e-26  6.2882e-22  2.3438e-26  6.3666e-22  2.8064e-26  6.5069e-22  3.6383e-26  6.7602e-22  5.1426e-26  7.2225e-22  7.8807e-26  8.0825e-22  1.2905e-25  9.7321e-22
      8.10  1.7522e-26  6.9169e-22  1.7525e-26  6.9170e-22  1.7529e-26  6.9171e-22  1.7536e-26  6.9174e-22  1.7548e-26  6.9179e-22  1.7571e-26  6.9187e-22  1.7611e-26  6.9201e-22  1.7692e-26  6.9262e-22  1.7826e-26  6.9335e-22  1.8057e-26  6.9432e-22  1.8463e-26  6.9586e-22  1.9183e-26  6.9850e-22  2.0463e-26  7.0316e-22  2.2747e-26  7.1144e-22  2.6833e-26  7.2627e-22  3.4167e-26  7.5302e-22  4.7404e-26  8.0177e-22  7.1432e-26  8.9223e-22  1.1543e-25  1.0650e-21
      8.15  1.7508e-26  7.7407e-22  1.7510e-26  7.7408e-22  1.7513e-26  7.7409e-22  1.7520e-26  7.7412e-22  1.7531e-26  7.7417e-22  1.7550e-26  7.7425e-22  1.7586e-26  7.7441e-22  1.7660e-26  7.7514e-22  1.7780e-26  7.7597e-22  1.7984e-26  7.7702e-22  1.8342e-26  7.7867e-22  1.8976e-26  7.8148e-22  2.0104e-26  7.8642e-22  2.2113e-26  7.9520e-22  2.5704e-26  8.1090e-22  3.2139e-26  8.3919e-22  4.3725e-26  8.9067e-22  6.4715e-26  9.8598e-22  1.0304e-25  1.1674e-21
      8.20  1.7494e-26  8.6632e-22  1.7496e-26  8.6633e-22  1.7499e-26  8.6635e-22  1.7504e-26  8.6637e-22  1.7514e-26  8.6643e-22  1.7532e-26  8.6652e-22  1.7562e-26  8.6668e-22  1.7630e-26  8.6757e-22  1.7738e-26  8.6852e-22  1.7918e-26  8.6968e-22  1.8233e-26  8.7145e-22  1.8790e-26  8.7445e-22  1.9779e-26  8.7970e-22  2.1541e-26  8.8902e-22  2.4687e-26  9.0569e-22  3.0317e-26  9.3569e-22  4.0439e-26  9.9021e-22  5.8728e-26  1.0909e-21  9.2041e-26  1.2817e-21
      8.25  1.7481e-26  9.6963e-22  1.7483e-26  9.6964e-22  1.7485e-26  9.6966e-22  1.7490e-26  9.6969e-22  1.7499e-26  9.6975e-22  1.7514e-26  9.6985e-22  1.7541e-26  9.7002e-22  1.7604e-26  9.7110e-22  1.7700e-26  9.7220e-22  1.7860e-26  9.7348e-22  1.8136e-26  9.7541e-22  1.8624e-26  9.7862e-22  1.9490e-26  9.8422e-22  2.1032e-26  9.9416e-22  2.3783e-26  1.0119e-21  2.8703e-26  1.0438e-21  3.7531e-26  1.1018e-21  5.3457e-26  1.2085e-21  8.2395e-26  1.4100e-21
      8.30  1.7469e-26  1.0855e-21  1.7470e-26  1.0855e-21  1.7472e-26  1.0855e-21  1.7476e-26  1.0856e-21  1.7484e-26  1.0856e-21  1.7497e-26  1.0857e-21  1.7521e-26  1.0859e-21  1.7580e-26  1.0872e-21  1.7667e-26  1.0885e-21  1.7808e-26  1.0900e-21  1.8050e-26  1.0921e-21  1.8478e-26  1.0955e-21  1.9236e-26  1.1015e-21  2.0585e-26  1.1122e-21  2.2991e-26  1.1312e-21  2.7288e-26  1.1654e-21  3.4991e-26  1.2272e-21  4.8867e-26  1.3410e-21  7.4017e-26  1.5549e-21
      8.35  1.7456e-26  1.2153e-21  1.7457e-26  1.2153e-21  1.7459e-26  1.2153e-21  1.7463e-26  1.2153e-21  1.7470e-26  1.2154e-21  1.7481e-26  1.2155e-21  1.7502e-26  1.2157e-21  1.7558e-26  1.2173e-21  1.7637e-26  1.2189e-21  1.7762e-26  1.2205e-21  1.7976e-26  1.2228e-21  1.8351e-26  1.2266e-21  1.9015e-26  1.2330e-21  2.0196e-26  1.2445e-21  2.2301e-26  1.2649e-21  2.6060e-26  1.3016e-21  3.2789e-26  1.3680e-21  4.4891e-26  1.4897e-21  6.6794e-26  1.7179e-21
      8.40  1.7444e-26  1.3606e-21  1.7445e-26  1.3606e-21  1.7446e-26  1.3606e-21  1.7450e-26  1.3607e-21  1.7455e-26  1.3607e-21  1.7466e-26  1.3609e-21  1.7484e-26  1.3611e-21  1.7538e-26  1.3631e-21  1.7611e-26  1.3649e-21  1.7723e-26  1.3668e-21  1.7911e-26  1.3693e-21  1.8241e-26  1.3734e-21  1.8824e-26  1.3804e-21  1.9860e-26  1.3928e-21  2.1706e-26  1.4149e-21  2.5000e-26  1.4544e-21  3.0893e-26  1.5259e-21  4.1476e-26  1.6568e-21  6.0595e-26  1.9012e-21
      8.45  1.7431e-26  1.5233e-21  1.7432e-26  1.5233e-21  1.7433e-26  1.5234e-21  1.7436e-26  1.5234e-21  1.7441e-26  1.5235e-21  1.7450e-26  1.5236e-21  1.7466e-26  1.5239e-21  1.7519e-26  1.5263e-21  1.7588e-26  1.5286e-21  1.7688e-26  1.5307e-21  1.7855e-26  1.5335e-21  1.8146e-26  1.5380e-21  1.8660e-26  1.5456e-21  1.9572e-26  1.5591e-21  2.1196e-26  1.5830e-21  2.4091e-26  1.6258e-21  2.9268e-26  1.7031e-21  3.8554e-26  1.8443e-21  5.5298e-26  2.1072e-21
      8.50  1.7418e-26  1.7055e-21  1.7418e-26  1.7056e-21  1.7420e-26  1.7056e-21  1.7422e-26  1.7056e-21  1.7427e-26  1.7057e-21  1.7435e-26  1.7059e-21  1.7449e-26  1.7061e-21  1.7502e-26  1.7092e-21  1.7567e-26  1.7119e-21  1.7658e-26  1.7144e-21  1.7807e-26  1.7176e-21  1.8065e-26  1.7225e-21  1.8519e-26  1.7308e-21  1.9324e-26  1.7455e-21  2.0758e-26  1.7715e-21  2.3313e-26  1.8180e-21  2.7877e-26  1.9019e-21  3.6056e-26  2.0549e-21  5.0783e-26  2.3387e-21
