# This was generated using Cloudy10 and the columns are ordered 
# as log10 of the fraction of the metallicity to the solar metallicity
# 'h_*_Z' and 'c_*_Z' stands for cooling and heating respectively 
# at * metalicity
#
# NOTE: This was generated separately from loop_coolingcurve_w_UV.py
#       using Output_metals_w_redshift.py.
#
# Redshift = 8.5
# hden = -8.5
#
#     temp   h_-3.00_Z   c_-3.00_Z   h_-2.75_Z   c_-2.75_Z   h_-2.50_Z   c_-2.50_Z   h_-2.25_Z   c_-2.25_Z   h_-2.00_Z   c_-2.00_Z   h_-1.75_Z   c_-1.75_Z   h_-1.50_Z   c_-1.50_Z   h_-1.25_Z   c_-1.25_Z   h_-1.00_Z   c_-1.00_Z   h_-0.75_Z   c_-0.75_Z   h_-0.50_Z   c_-0.50_Z   h_-0.25_Z   c_-0.25_Z    h_0.00_Z    c_0.00_Z    h_0.25_Z    c_0.25_Z    h_0.50_Z    c_0.50_Z    h_0.75_Z    c_0.75_Z    h_1.00_Z    c_1.00_Z    h_1.25_Z    c_1.25_Z    h_1.50_Z    c_1.50_Z 
      1.00  1.1876e-21  1.6723e-22  1.1880e-21  1.6723e-22  1.1888e-21  1.6723e-22  1.1902e-21  1.6723e-22  1.1927e-21  1.6724e-22  1.1971e-21  1.6724e-22  1.2048e-21  1.6726e-22  1.2184e-21  1.6728e-22  1.2421e-21  1.6732e-22  1.2842e-21  1.6740e-22  1.3589e-21  1.6754e-22  1.4914e-21  1.6778e-22  1.7264e-21  1.6820e-22  2.1460e-21  1.6896e-22  2.8994e-21  1.7031e-22  4.2632e-21  1.7270e-22  6.7649e-21  1.7694e-22  1.1463e-20  1.8445e-22  2.0579e-20  1.9770e-22
      1.05  1.1398e-21  1.8763e-22  1.1402e-21  1.8763e-22  1.1410e-21  1.8764e-22  1.1423e-21  1.8764e-22  1.1447e-21  1.8764e-22  1.1488e-21  1.8765e-22  1.1562e-21  1.8767e-22  1.1691e-21  1.8769e-22  1.1916e-21  1.8774e-22  1.2315e-21  1.8783e-22  1.3024e-21  1.8798e-22  1.4281e-21  1.8825e-22  1.6511e-21  1.8873e-22  2.0494e-21  1.8959e-22  2.7644e-21  1.9110e-22  4.0590e-21  1.9380e-22  6.4348e-21  1.9858e-22  1.0899e-20  2.0705e-22  1.9567e-20  2.2198e-22
      1.10  1.0949e-21  2.1053e-22  1.0953e-21  2.1053e-22  1.0960e-21  2.1053e-22  1.0973e-21  2.1053e-22  1.0995e-21  2.1054e-22  1.1035e-21  2.1055e-22  1.1104e-21  2.1057e-22  1.1227e-21  2.1060e-22  1.1441e-21  2.1065e-22  1.1820e-21  2.1075e-22  1.2492e-21  2.1092e-22  1.3685e-21  2.1122e-22  1.5800e-21  2.1177e-22  1.9579e-21  2.1273e-22  2.6363e-21  2.1444e-22  3.8648e-21  2.1748e-22  6.1202e-21  2.2286e-22  1.0361e-20  2.3242e-22  1.8600e-20  2.4925e-22
      1.15  1.0528e-21  2.3622e-22  1.0532e-21  2.3622e-22  1.0538e-21  2.3622e-22  1.0550e-21  2.3622e-22  1.0572e-21  2.3623e-22  1.0609e-21  2.3624e-22  1.0675e-21  2.3626e-22  1.0791e-21  2.3629e-22  1.0995e-21  2.3636e-22  1.1353e-21  2.3646e-22  1.1990e-21  2.3666e-22  1.3122e-21  2.3700e-22  1.5129e-21  2.3761e-22  1.8713e-21  2.3870e-22  2.5146e-21  2.4062e-22  3.6801e-21  2.4405e-22  5.8204e-21  2.5011e-22  9.8477e-21  2.6089e-22  1.7677e-20  2.7986e-22
      1.20  1.0132e-21  2.6504e-22  1.0136e-21  2.6504e-22  1.0142e-21  2.6504e-22  1.0154e-21  2.6505e-22  1.0174e-21  2.6505e-22  1.0209e-21  2.6507e-22  1.0272e-21  2.6509e-22  1.0382e-21  2.6513e-22  1.0575e-21  2.6520e-22  1.0915e-21  2.6532e-22  1.1518e-21  2.6554e-22  1.2592e-21  2.6592e-22  1.4495e-21  2.6661e-22  1.7893e-21  2.6783e-22  2.3993e-21  2.7000e-22  3.5045e-21  2.7386e-22  5.5353e-21  2.8070e-22  9.3581e-21  2.9285e-22  1.6795e-20  3.1423e-22
      1.25  9.7611e-22  2.9738e-22  9.7645e-22  2.9738e-22  9.7705e-22  2.9738e-22  9.7812e-22  2.9739e-22  9.8002e-22  2.9739e-22  9.8338e-22  2.9741e-22  9.8931e-22  2.9743e-22  9.9977e-22  2.9748e-22  1.0181e-21  2.9755e-22  1.0503e-21  2.9769e-22  1.1074e-21  2.9794e-22  1.2092e-21  2.9837e-22  1.3896e-21  2.9915e-22  1.7116e-21  3.0052e-22  2.2898e-21  3.0297e-22  3.3376e-21  3.0732e-22  5.2638e-21  3.1503e-22  8.8910e-21  3.2872e-22  1.5952e-20  3.5282e-22
      1.30  9.4128e-22  3.3366e-22  9.4160e-22  3.3366e-22  9.4217e-22  3.3366e-22  9.4318e-22  3.3367e-22  9.4498e-22  3.3368e-22  9.4816e-22  3.3369e-22  9.5379e-22  3.3372e-22  9.6370e-22  3.3377e-22  9.8106e-22  3.3386e-22  1.0115e-21  3.3401e-22  1.0657e-21  3.3429e-22  1.1621e-21  3.3478e-22  1.3332e-21  3.3565e-22  1.6382e-21  3.3721e-22  2.1861e-21  3.3996e-22  3.1791e-21  3.4486e-22  5.0055e-21  3.5356e-22  8.4458e-21  3.6898e-22  1.5148e-20  3.9614e-22
      1.35  9.0861e-22  3.7437e-22  9.0892e-22  3.7437e-22  9.0945e-22  3.7437e-22  9.1041e-22  3.7438e-22  9.1211e-22  3.7439e-22  9.1513e-22  3.7441e-22  9.2045e-22  3.7444e-22  9.2984e-22  3.7449e-22  9.4631e-22  3.7459e-22  9.7514e-22  3.7477e-22  1.0264e-21  3.7508e-22  1.1177e-21  3.7563e-22  1.2798e-21  3.7661e-22  1.5688e-21  3.7836e-22  2.0878e-21  3.8147e-22  3.0285e-21  3.8698e-22  4.7599e-21  3.9679e-22  8.0221e-21  4.1417e-22  1.4381e-20  4.4478e-22
      1.40  8.7798e-22  4.2004e-22  8.7826e-22  4.2004e-22  8.7877e-22  4.2005e-22  8.7968e-22  4.2005e-22  8.8129e-22  4.2006e-22  8.8414e-22  4.2008e-22  8.8919e-22  4.2012e-22  8.9808e-22  4.2018e-22  9.1368e-22  4.2029e-22  9.4097e-22  4.2049e-22  9.8949e-22  4.2084e-22  1.0760e-21  4.2146e-22  1.2295e-21  4.2257e-22  1.5032e-21  4.2454e-22  1.9947e-21  4.2804e-22  2.8857e-21  4.3425e-22  4.5265e-21  4.4532e-22  7.6187e-21  4.6490e-22  1.3651e-20  4.9938e-22
      1.45  8.4926e-22  4.7129e-22  8.4953e-22  4.7129e-22  8.5001e-22  4.7129e-22  8.5087e-22  4.7130e-22  8.5239e-22  4.7131e-22  8.5509e-22  4.7134e-22  8.5986e-22  4.7137e-22  8.6828e-22  4.7145e-22  8.8306e-22  4.7157e-22  9.0887e-22  4.7179e-22  9.5481e-22  4.7219e-22  1.0366e-21  4.7289e-22  1.1820e-21  4.7414e-22  1.4411e-21  4.7636e-22  1.9063e-21  4.8030e-22  2.7497e-21  4.8730e-22  4.3038e-21  4.9977e-22  7.2335e-21  5.2184e-22  1.2952e-20  5.6069e-22
      1.50  8.2234e-22  5.2878e-22  8.2260e-22  5.2879e-22  8.2306e-22  5.2879e-22  8.2387e-22  5.2880e-22  8.2531e-22  5.2881e-22  8.2786e-22  5.2884e-22  8.3237e-22  5.2888e-22  8.4034e-22  5.2896e-22  8.5433e-22  5.2910e-22  8.7878e-22  5.2935e-22  9.2222e-22  5.2980e-22  9.9959e-22  5.3059e-22  1.1372e-21  5.3199e-22  1.3825e-21  5.3449e-22  1.8227e-21  5.3893e-22  2.6209e-21  5.4682e-22  4.0926e-21  5.6089e-22  6.8676e-21  5.8575e-22  1.2288e-20  6.2952e-22
      1.55  7.9713e-22  5.9329e-22  7.9737e-22  5.9329e-22  7.9780e-22  5.9330e-22  7.9857e-22  5.9331e-22  7.9993e-22  5.9332e-22  8.0234e-22  5.9335e-22  8.0661e-22  5.9340e-22  8.1415e-22  5.9349e-22  8.2739e-22  5.9365e-22  8.5055e-22  5.9393e-22  8.9161e-22  5.9443e-22  9.6477e-22  5.9532e-22  1.0950e-21  5.9691e-22  1.3271e-21  5.9972e-22  1.7437e-21  6.0472e-22  2.4991e-21  6.1360e-22  3.8922e-21  6.2947e-22  6.5202e-21  6.5748e-22  1.1656e-20  7.0680e-22
      1.60  7.7350e-22  6.6566e-22  7.7373e-22  6.6567e-22  7.7414e-22  6.6567e-22  7.7486e-22  6.6568e-22  7.7615e-22  6.6570e-22  7.7843e-22  6.6573e-22  7.8246e-22  6.6579e-22  7.8958e-22  6.6589e-22  8.0210e-22  6.6607e-22  8.2401e-22  6.6639e-22  8.6277e-22  6.6695e-22  9.3185e-22  6.6795e-22  1.0549e-21  6.6974e-22  1.2743e-21  6.7291e-22  1.6680e-21  6.7854e-22  2.3819e-21  6.8855e-22  3.6989e-21  7.0644e-22  6.1840e-21  7.3799e-22  1.1044e-20  7.9356e-22
      1.65  7.5138e-22  7.4686e-22  7.5159e-22  7.4687e-22  7.5198e-22  7.4687e-22  7.5266e-22  7.4688e-22  7.5387e-22  7.4691e-22  7.5602e-22  7.4694e-22  7.5983e-22  7.4700e-22  7.6655e-22  7.4712e-22  7.7838e-22  7.4732e-22  7.9911e-22  7.4768e-22  8.3569e-22  7.4831e-22  9.0089e-22  7.4944e-22  1.0171e-21  7.5145e-22  1.2244e-21  7.5502e-22  1.5965e-21  7.6137e-22  2.2708e-21  7.7263e-22  3.5158e-21  7.9282e-22  5.8652e-21  8.2836e-22  1.0462e-20  8.9096e-22
      1.70  7.3066e-22  8.3796e-22  7.3086e-22  8.3797e-22  7.3122e-22  8.3798e-22  7.3187e-22  8.3799e-22  7.3301e-22  8.3801e-22  7.3504e-22  8.3805e-22  7.3863e-22  8.3812e-22  7.4498e-22  8.3825e-22  7.5616e-22  8.3848e-22  7.7575e-22  8.3888e-22  8.1027e-22  8.3960e-22  8.7180e-22  8.4087e-22  9.8160e-22  8.4313e-22  1.1774e-21  8.4715e-22  1.5289e-21  8.5430e-22  2.1659e-21  8.6699e-22  3.3426e-21  8.8976e-22  5.5636e-21  9.2979e-22  9.9115e-21  1.0003e-21
      1.75  7.1125e-22  9.4017e-22  7.1145e-22  9.4018e-22  7.1179e-22  9.4018e-22  7.1239e-22  9.4020e-22  7.1347e-22  9.4022e-22  7.1539e-22  9.4027e-22  7.1878e-22  9.4035e-22  7.2477e-22  9.4049e-22  7.3533e-22  9.4075e-22  7.5384e-22  9.4120e-22  7.8641e-22  9.4201e-22  8.4446e-22  9.4344e-22  9.4814e-22  9.4599e-22  1.1331e-21  9.5052e-22  1.4651e-21  9.5857e-22  2.0666e-21  9.7286e-22  3.1785e-21  9.9854e-22  5.2776e-21  1.0436e-21  9.3892e-21  1.1231e-21
      1.80  6.9309e-22  1.0548e-21  6.9327e-22  1.0548e-21  6.9359e-22  1.0549e-21  6.9417e-22  1.0549e-21  6.9518e-22  1.0549e-21  6.9699e-22  1.0550e-21  7.0019e-22  1.0550e-21  7.0584e-22  1.0552e-21  7.1581e-22  1.0555e-21  7.3330e-22  1.0560e-21  7.6403e-22  1.0569e-21  8.1879e-22  1.0585e-21  9.1666e-22  1.0614e-21  1.0913e-21  1.0665e-21  1.4048e-21  1.0756e-21  1.9729e-21  1.0917e-21  3.0232e-21  1.1206e-21  5.0066e-21  1.1714e-21  8.8938e-21  1.2609e-21
      1.85  6.7609e-22  1.1835e-21  6.7626e-22  1.1835e-21  6.7657e-22  1.1835e-21  6.7711e-22  1.1835e-21  6.7806e-22  1.1836e-21  6.7977e-22  1.1836e-21  6.8278e-22  1.1837e-21  6.8812e-22  1.1839e-21  6.9752e-22  1.1842e-21  7.1404e-22  1.1848e-21  7.4301e-22  1.1858e-21  7.9469e-22  1.1876e-21  8.8699e-22  1.1909e-21  1.0518e-21  1.1966e-21  1.3477e-21  1.2068e-21  1.8842e-21  1.2250e-21  2.8759e-21  1.2576e-21  4.7491e-21  1.3148e-21  8.4222e-21  1.4156e-21
      1.90  6.6018e-22  1.3278e-21  6.6034e-22  1.3278e-21  6.6063e-22  1.3278e-21  6.6114e-22  1.3279e-21  6.6204e-22  1.3279e-21  6.6364e-22  1.3280e-21  6.6649e-22  1.3281e-21  6.7152e-22  1.3283e-21  6.8039e-22  1.3286e-21  6.9598e-22  1.3293e-21  7.2332e-22  1.3304e-21  7.7207e-22  1.3325e-21  8.5907e-22  1.3361e-21  1.0146e-21  1.3426e-21  1.2938e-21  1.3541e-21  1.8003e-21  1.3747e-21  2.7364e-21  1.4114e-21  4.5052e-21  1.4758e-21  7.9753e-21  1.5893e-21
      1.95  6.4529e-22  1.4898e-21  6.4545e-22  1.4898e-21  6.4571e-22  1.4898e-21  6.4619e-22  1.4898e-21  6.4704e-22  1.4898e-21  6.4856e-22  1.4899e-21  6.5124e-22  1.4900e-21  6.5598e-22  1.4903e-21  6.6434e-22  1.4907e-21  6.7905e-22  1.4914e-21  7.0488e-22  1.4927e-21  7.5081e-22  1.4950e-21  8.3281e-22  1.4991e-21  9.7946e-22  1.5064e-21  1.2429e-21  1.5193e-21  1.7210e-21  1.5426e-21  2.6045e-21  1.5839e-21  4.2742e-21  1.6565e-21  7.5514e-21  1.7843e-21
      2.00  6.3136e-22  1.6714e-21  6.3151e-22  1.6714e-21  6.3176e-22  1.6714e-21  6.3221e-22  1.6715e-21  6.3301e-22  1.6715e-21  6.3444e-22  1.6716e-21  6.3696e-22  1.6717e-21  6.4143e-22  1.6720e-21  6.4932e-22  1.6725e-21  6.6319e-22  1.6733e-21  6.8758e-22  1.6747e-21  7.3085e-22  1.6773e-21  8.0811e-22  1.6820e-21  9.4641e-22  1.6902e-21  1.1948e-21  1.7047e-21  1.6460e-21  1.7310e-21  2.4796e-21  1.7776e-21  4.0555e-21  1.8593e-21  7.1499e-21  2.0033e-21
      2.05  6.1833e-22  1.8752e-21  6.1847e-22  1.8752e-21  6.1871e-22  1.8752e-21  6.1913e-22  1.8753e-21  6.1989e-22  1.8753e-21  6.2123e-22  1.8754e-21  6.2360e-22  1.8756e-21  6.2781e-22  1.8759e-21  6.3525e-22  1.8764e-21  6.4833e-22  1.8773e-21  6.7135e-22  1.8790e-21  7.1211e-22  1.8819e-21  7.8490e-22  1.8871e-21  9.1528e-22  1.8963e-21  1.1495e-21  1.9127e-21  1.5751e-21  1.9424e-21  2.3614e-21  1.9949e-21  3.8482e-21  2.0869e-21  6.7693e-21  2.2491e-21
      2.10  6.0614e-22  2.1039e-21  6.0627e-22  2.1039e-21  6.0649e-22  2.1039e-21  6.0689e-22  2.1039e-21  6.0761e-22  2.1040e-21  6.0887e-22  2.1041e-21  6.1111e-22  2.1043e-21  6.1507e-22  2.1046e-21  6.2208e-22  2.1052e-21  6.3441e-22  2.1062e-21  6.5614e-22  2.1081e-21  6.9453e-22  2.1114e-21  7.6310e-22  2.1172e-21  8.8601e-22  2.1276e-21  1.1068e-21  2.1461e-21  1.5082e-21  2.1796e-21  2.2498e-21  2.2387e-21  3.6524e-21  2.3424e-21  6.4096e-21  2.5250e-21
      2.15  5.9474e-22  2.3604e-21  5.9486e-22  2.3604e-21  5.9507e-22  2.3604e-21  5.9545e-22  2.3604e-21  5.9612e-22  2.3605e-21  5.9731e-22  2.3606e-21  5.9941e-22  2.3608e-21  6.0315e-22  2.3612e-21  6.0975e-22  2.3619e-21  6.2138e-22  2.3630e-21  6.4188e-22  2.3651e-21  6.7804e-22  2.3688e-21  7.4264e-22  2.3754e-21  8.5851e-22  2.3871e-21  1.0667e-21  2.4079e-21  1.4453e-21  2.4458e-21  2.1447e-21  2.5124e-21  3.4680e-21  2.6291e-21  6.0706e-21  2.8347e-21
      2.20  5.8408e-22  2.6481e-21  5.8419e-22  2.6481e-21  5.8439e-22  2.6482e-21  5.8474e-22  2.6482e-21  5.8537e-22  2.6483e-21  5.8649e-22  2.6484e-21  5.8848e-22  2.6486e-21  5.9200e-22  2.6491e-21  5.9822e-22  2.6498e-21  6.0919e-22  2.6511e-21  6.2853e-22  2.6535e-21  6.6260e-22  2.6576e-21  7.2350e-22  2.6651e-21  8.3272e-22  2.6782e-21  1.0291e-21  2.7017e-21  1.3863e-21  2.7444e-21  2.0462e-21  2.8195e-21  3.2951e-21  2.9509e-21  5.7530e-21  3.1825e-21
      2.25  5.7410e-22  2.9709e-21  5.7421e-22  2.9710e-21  5.7440e-22  2.9710e-21  5.7473e-22  2.9710e-21  5.7532e-22  2.9711e-21  5.7638e-22  2.9713e-21  5.7825e-22  2.9715e-21  5.8157e-22  2.9720e-21  5.8743e-22  2.9728e-21  5.9778e-22  2.9743e-21  6.1604e-22  2.9770e-21  6.4817e-22  2.9817e-21  7.0564e-22  2.9900e-21  8.0861e-22  3.0048e-21  9.9390e-22  3.0312e-21  1.3311e-21  3.0796e-21  1.9540e-21  3.1641e-21  3.1337e-21  3.3121e-21  5.4572e-21  3.5729e-21
      2.30  5.6478e-22  3.3331e-21  5.6488e-22  3.3331e-21  5.6505e-22  3.3331e-21  5.6537e-22  3.3332e-21  5.6593e-22  3.3333e-21  5.6692e-22  3.3334e-21  5.6869e-22  3.3337e-21  5.7181e-22  3.3343e-21  5.7735e-22  3.3352e-21  5.8711e-22  3.3369e-21  6.0436e-22  3.3399e-21  6.3474e-22  3.3451e-21  6.8895e-22  3.3545e-21  7.8612e-22  3.3713e-21  9.6112e-22  3.4009e-21  1.2797e-21  3.4556e-21  1.8684e-21  3.5508e-21  2.9838e-21  3.7175e-21  5.1837e-21  4.0111e-21
      2.35  5.5606e-22  3.7393e-21  5.5615e-22  3.7394e-21  5.5632e-22  3.7394e-21  5.5661e-22  3.7395e-21  5.5714e-22  3.7396e-21  5.5808e-22  3.7397e-21  5.5974e-22  3.7401e-21  5.6269e-22  3.7407e-21  5.6792e-22  3.7417e-21  5.7715e-22  3.7436e-21  5.9345e-22  3.7470e-21  6.2220e-22  3.7529e-21  6.7340e-22  3.7635e-21  7.6520e-22  3.7823e-21  9.3069e-22  3.8157e-21  1.2321e-21  3.8776e-21  1.7891e-21  3.9848e-21  2.8457e-21  4.1725e-21  4.9333e-21  4.5030e-21
      2.40  5.4790e-22  4.1951e-21  5.4799e-22  4.1951e-21  5.4815e-22  4.1951e-21  5.4843e-22  4.1952e-21  5.4893e-22  4.1953e-21  5.4981e-22  4.1955e-21  5.5138e-22  4.1959e-21  5.5417e-22  4.1966e-21  5.5911e-22  4.1978e-21  5.6784e-22  4.1999e-21  5.8327e-22  4.2037e-21  6.1052e-22  4.2104e-21  6.5895e-22  4.2223e-21  7.4581e-22  4.2434e-21  9.0255e-22  4.2810e-21  1.1882e-21  4.3510e-21  1.7163e-21  4.4718e-21  2.7195e-21  4.6832e-21  4.7068e-21  5.0552e-21
      2.45  5.4028e-22  4.7063e-21  5.4036e-22  4.7063e-21  5.4051e-22  4.7064e-21  5.4077e-22  4.7064e-21  5.4124e-22  4.7066e-21  5.4208e-22  4.7068e-21  5.4357e-22  4.7072e-21  5.4620e-22  4.7080e-21  5.5088e-22  4.7093e-21  5.5915e-22  4.7117e-21  5.7378e-22  4.7160e-21  5.9964e-22  4.7235e-21  6.4554e-22  4.7369e-21  7.2788e-22  4.7607e-21  8.7664e-22  4.8031e-21  1.1479e-21  4.8823e-21  1.6498e-21  5.0183e-21  2.6051e-21  5.2563e-21  4.5046e-21  5.6751e-21
      2.50  5.3315e-22  5.2797e-21  5.3322e-22  5.2798e-21  5.3337e-22  5.2798e-21  5.3362e-22  5.2799e-21  5.3406e-22  5.2801e-21  5.3485e-22  5.2803e-21  5.3626e-22  5.2808e-21  5.3876e-22  5.2817e-21  5.4319e-22  5.2832e-21  5.5104e-22  5.2859e-21  5.6494e-22  5.2906e-21  5.8953e-22  5.2991e-21  6.3312e-22  5.3142e-21  7.1135e-22  5.3410e-21  8.5284e-22  5.3887e-21  1.1111e-21  5.4785e-21  1.5893e-21  5.6317e-21  2.5019e-21  5.8995e-21  4.3256e-21  6.3709e-21
      2.55  5.2648e-22  5.9230e-21  5.2655e-22  5.9230e-21  5.2669e-22  5.9231e-21  5.2692e-22  5.9232e-21  5.2735e-22  5.9234e-21  5.2810e-22  5.9237e-21  5.2943e-22  5.9242e-21  5.3180e-22  5.9252e-21  5.3600e-22  5.9269e-21  5.4346e-22  5.9299e-21  5.5669e-22  5.9353e-21  5.8011e-22  5.9448e-21  6.2159e-22  5.9618e-21  6.9612e-22  5.9920e-21  8.3097e-22  6.0464e-21  1.0772e-21  6.1476e-21  1.5341e-21  6.3200e-21  2.4086e-21  6.6215e-21  4.1670e-21  7.1520e-21
      2.60  5.2024e-22  6.6446e-21  5.2031e-22  6.6446e-21  5.2044e-22  6.6447e-21  5.2066e-22  6.6448e-21  5.2106e-22  6.6450e-21  5.2178e-22  6.6453e-21  5.2304e-22  6.6459e-21  5.2529e-22  6.6470e-21  5.2929e-22  6.6489e-21  5.3638e-22  6.6523e-21  5.4898e-22  6.6583e-21  5.7131e-22  6.6691e-21  6.1089e-22  6.6882e-21  6.8193e-22  6.7222e-21  8.1062e-22  6.7843e-21  1.0458e-21  6.8983e-21  1.4829e-21  7.0924e-21  2.3227e-21  7.4317e-21  4.0231e-21  8.0288e-21
      2.65  5.1441e-22  7.4539e-21  5.1448e-22  7.4540e-21  5.1460e-22  7.4540e-21  5.1481e-22  7.4541e-21  5.1519e-22  7.4544e-21  5.1587e-22  7.4547e-21  5.1707e-22  7.4554e-21  5.1920e-22  7.4566e-21  5.2300e-22  7.4588e-21  5.2975e-22  7.4626e-21  5.4175e-22  7.4694e-21  5.6304e-22  7.4815e-21  6.0082e-22  7.5030e-21  6.6855e-22  7.5413e-21  7.9136e-22  7.6122e-21  1.0160e-21  7.7407e-21  1.4343e-21  7.9592e-21  2.2411e-21  8.3412e-21  3.8868e-21  9.0131e-21
      2.70  5.0895e-22  8.3617e-21  5.0902e-22  8.3618e-21  5.0913e-22  8.3619e-21  5.0933e-22  8.3620e-21  5.0969e-22  8.3622e-21  5.1033e-22  8.3627e-21  5.1147e-22  8.3634e-21  5.1350e-22  8.3648e-21  5.1710e-22  8.3672e-21  5.2352e-22  8.3715e-21  5.3493e-22  8.3792e-21  5.5521e-22  8.3928e-21  5.9124e-22  8.4170e-21  6.5574e-22  8.4600e-21  7.7282e-22  8.5412e-21  9.8710e-22  8.6859e-21  1.3869e-21  8.9320e-21  2.1608e-21  9.3619e-21  3.7504e-21  1.0118e-20
      2.75  5.0385e-22  9.3800e-21  5.0391e-22  9.3800e-21  5.0402e-22  9.3801e-21  5.0421e-22  9.3802e-21  5.0455e-22  9.3805e-21  5.0516e-22  9.3810e-21  5.0623e-22  9.3819e-21  5.0815e-22  9.3834e-21  5.1157e-22  9.3861e-21  5.1765e-22  9.3910e-21  5.2849e-22  9.3996e-21  5.4776e-22  9.4149e-21  5.8203e-22  9.4422e-21  6.4333e-22  9.4906e-21  7.5480e-22  9.5834e-21  9.5879e-22  9.7465e-21  1.3399e-21  1.0024e-20  2.0797e-21  1.0507e-20  3.6086e-21  1.1359e-20
      2.80  4.9907e-22  1.0522e-20  4.9913e-22  1.0522e-20  4.9923e-22  1.0522e-20  4.9941e-22  1.0522e-20  4.9973e-22  1.0523e-20  5.0031e-22  1.0523e-20  5.0133e-22  1.0524e-20  5.0314e-22  1.0526e-20  5.0637e-22  1.0529e-20  5.1212e-22  1.0534e-20  5.2238e-22  1.0544e-20  5.4065e-22  1.0561e-20  5.7315e-22  1.0592e-20  6.3126e-22  1.0647e-20  7.3704e-22  1.0753e-20  9.3063e-22  1.0937e-20  1.2927e-21  1.1249e-20  1.9972e-21  1.1793e-20  3.4595e-21  1.2751e-20
      2.85  4.9460e-22  1.1803e-20  4.9465e-22  1.1803e-20  4.9475e-22  1.1803e-20  4.9492e-22  1.1803e-20  4.9522e-22  1.1804e-20  4.9576e-22  1.1804e-20  4.9673e-22  1.1805e-20  4.9844e-22  1.1807e-20  5.0149e-22  1.1811e-20  5.0691e-22  1.1817e-20  5.1660e-22  1.1828e-20  5.3387e-22  1.1847e-20  5.6460e-22  1.1882e-20  6.1954e-22  1.1943e-20  7.1963e-22  1.2065e-20  9.0272e-22  1.2272e-20  1.2454e-21  1.2623e-20  1.9131e-21  1.3236e-20  3.3037e-21  1.4315e-20
      2.90  4.9041e-22  1.3239e-20  4.9046e-22  1.3239e-20  4.9055e-22  1.3240e-20  4.9071e-22  1.3240e-20  4.9100e-22  1.3240e-20  4.9151e-22  1.3241e-20  4.9242e-22  1.3242e-20  4.9403e-22  1.3244e-20  4.9690e-22  1.3248e-20  5.0201e-22  1.3255e-20  5.1114e-22  1.3267e-20  5.2742e-22  1.3289e-20  5.5641e-22  1.3328e-20  6.0828e-22  1.3397e-20  7.0272e-22  1.3537e-20  8.7544e-22  1.3771e-20  1.1987e-21  1.4166e-20  1.8290e-21  1.4856e-20  3.1438e-21  1.6070e-20
      2.95  4.8649e-22  1.4850e-20  4.8654e-22  1.4850e-20  4.8662e-22  1.4851e-20  4.8677e-22  1.4851e-20  4.8704e-22  1.4851e-20  4.8752e-22  1.4852e-20  4.8837e-22  1.4853e-20  4.8989e-22  1.4856e-20  4.9259e-22  1.4860e-20  4.9740e-22  1.4868e-20  5.0599e-22  1.4882e-20  5.2132e-22  1.4906e-20  5.4862e-22  1.4950e-20  5.9750e-22  1.5028e-20  6.8660e-22  1.5189e-20  8.4927e-22  1.5452e-20  1.1535e-21  1.5897e-20  1.7465e-21  1.6674e-20  2.9841e-21  1.8040e-20
      3.00  4.8281e-22  1.6657e-20  4.8286e-22  1.6657e-20  4.8294e-22  1.6657e-20  4.8308e-22  1.6658e-20  4.8333e-22  1.6658e-20  4.8378e-22  1.6659e-20  4.8459e-22  1.6661e-20  4.8601e-22  1.6663e-20  4.8855e-22  1.6668e-20  4.9307e-22  1.6677e-20  5.0114e-22  1.6693e-20  5.1556e-22  1.6720e-20  5.4125e-22  1.6769e-20  5.8725e-22  1.6857e-20  6.7125e-22  1.7042e-20  8.2431e-22  1.7339e-20  1.1104e-21  1.7840e-20  1.6674e-21  1.8714e-20  2.8278e-21  2.0252e-20
      3.05  4.7936e-22  1.8683e-20  4.7941e-22  1.8683e-20  4.7948e-22  1.8683e-20  4.7962e-22  1.8684e-20  4.7985e-22  1.8684e-20  4.8028e-22  1.8685e-20  4.8103e-22  1.8687e-20  4.8237e-22  1.8690e-20  4.8476e-22  1.8696e-20  4.8901e-22  1.8705e-20  4.9659e-22  1.8723e-20  5.1013e-22  1.8754e-20  5.3429e-22  1.8809e-20  5.7755e-22  1.8908e-20  6.5669e-22  1.9121e-20  8.0054e-22  1.9455e-20  1.0692e-21  2.0020e-20  1.5916e-21  2.1004e-20  2.6775e-21  2.2735e-20
      3.10  4.7613e-22  2.0955e-20  4.7617e-22  2.0955e-20  4.7624e-22  2.0955e-20  4.7636e-22  2.0956e-20  4.7659e-22  2.0956e-20  4.7699e-22  2.0957e-20  4.7770e-22  2.0959e-20  4.7896e-22  2.0963e-20  4.8120e-22  2.0969e-20  4.8519e-22  2.0980e-20  4.9231e-22  2.1000e-20  5.0502e-22  2.1035e-20  5.2773e-22  2.1097e-20  5.6841e-22  2.1209e-20  6.4291e-22  2.1454e-20  7.7801e-22  2.1831e-20  1.0300e-21  2.2466e-20  1.5191e-21  2.3574e-20  2.5326e-21  2.5523e-20
      3.15  4.7309e-22  2.3502e-20  4.7313e-22  2.3502e-20  4.7319e-22  2.3503e-20  4.7331e-22  2.3503e-20  4.7352e-22  2.3504e-20  4.7390e-22  2.3505e-20  4.7456e-22  2.3507e-20  4.7575e-22  2.3511e-20  4.7785e-22  2.3518e-20  4.8161e-22  2.3531e-20  4.8829e-22  2.3553e-20  5.0022e-22  2.3592e-20  5.2154e-22  2.3662e-20  5.5984e-22  2.3794e-20  6.2986e-22  2.4071e-20  7.5663e-22  2.4496e-20  9.9276e-22  2.5211e-20  1.4501e-21  2.6458e-20  2.3940e-21  2.8651e-20
      3.20  4.7023e-22  2.6359e-20  4.7026e-22  2.6359e-20  4.7033e-22  2.6359e-20  4.7044e-22  2.6359e-20  4.7064e-22  2.6360e-20  4.7099e-22  2.6362e-20  4.7161e-22  2.6364e-20  4.7273e-22  2.6369e-20  4.7471e-22  2.6376e-20  4.7823e-22  2.6390e-20  4.8451e-22  2.6415e-20  4.9571e-22  2.6460e-20  5.1573e-22  2.6539e-20  5.5180e-22  2.6694e-20  6.1758e-22  2.7008e-20  7.3649e-22  2.7486e-20  9.5760e-22  2.8292e-20  1.3847e-21  2.9695e-20  2.2623e-21  3.2164e-20
      3.25  4.6754e-22  2.9561e-20  4.6757e-22  2.9561e-20  4.6763e-22  2.9561e-20  4.6774e-22  2.9562e-20  4.6792e-22  2.9563e-20  4.6825e-22  2.9564e-20  4.6884e-22  2.9567e-20  4.6989e-22  2.9572e-20  4.7175e-22  2.9581e-20  4.7506e-22  2.9597e-20  4.8095e-22  2.9625e-20  4.9147e-22  2.9675e-20  5.1026e-22  2.9763e-20  5.4427e-22  2.9948e-20  6.0611e-22  3.0302e-20  7.1766e-22  3.0842e-20  9.2472e-22  3.1749e-20  1.3236e-21  3.3328e-20  2.1388e-21  3.6106e-20
      3.30  4.6500e-22  3.3151e-20  4.6503e-22  3.3151e-20  4.6509e-22  3.3152e-20  4.6519e-22  3.3152e-20  4.6536e-22  3.3153e-20  4.6567e-22  3.3155e-20  4.6623e-22  3.3158e-20  4.6721e-22  3.3164e-20  4.6896e-22  3.3174e-20  4.7207e-22  3.3191e-20  4.7761e-22  3.3223e-20  4.8749e-22  3.3279e-20  5.0513e-22  3.3379e-20  5.3726e-22  3.3597e-20  5.9541e-22  3.3998e-20  7.0013e-22  3.4607e-20  8.9417e-22  3.5628e-20  1.2669e-21  3.7405e-20  2.0247e-21  4.0531e-20
      3.35  4.6261e-22  3.7176e-20  4.6264e-22  3.7176e-20  4.6269e-22  3.7176e-20  4.6278e-22  3.7177e-20  4.6295e-22  3.7178e-20  4.6324e-22  3.7180e-20  4.6376e-22  3.7184e-20  4.6469e-22  3.7190e-20  4.6633e-22  3.7201e-20  4.6926e-22  3.7221e-20  4.7447e-22  3.7257e-20  4.8375e-22  3.7320e-20  5.0033e-22  3.7432e-20  5.3072e-22  3.7691e-20  5.8548e-22  3.8145e-20  6.8387e-22  3.8831e-20  8.6588e-22  3.9981e-20  1.2146e-21  4.1981e-20  1.9201e-21  4.5499e-20
      3.40  4.6034e-22  4.1687e-20  4.6037e-22  4.1687e-20  4.6042e-22  4.1688e-20  4.6051e-22  4.1689e-20  4.6066e-22  4.1690e-20  4.6094e-22  4.1692e-20  4.6143e-22  4.1696e-20  4.6230e-22  4.1703e-20  4.6385e-22  4.1716e-20  4.6661e-22  4.1738e-20  4.7151e-22  4.1778e-20  4.8025e-22  4.1849e-20  4.9584e-22  4.1975e-20  5.2465e-22  4.2283e-20  5.7627e-22  4.2797e-20  6.6883e-22  4.3570e-20  8.3977e-22  4.4865e-20  1.1665e-21  4.7116e-20  1.8246e-21  5.1074e-20
      3.45  4.5820e-22  4.6744e-20  4.5822e-22  4.6744e-20  4.5827e-22  4.6745e-20  4.5835e-22  4.6745e-20  4.5850e-22  4.6747e-20  4.5876e-22  4.6749e-20  4.5922e-22  4.6754e-20  4.6004e-22  4.6762e-20  4.6150e-22  4.6776e-20  4.6410e-22  4.6801e-20  4.6872e-22  4.6846e-20  4.7695e-22  4.6926e-20  4.9164e-22  4.7068e-20  5.1901e-22  4.7433e-20  5.6772e-22  4.8016e-20  6.5489e-22  4.8888e-20  8.1563e-22  5.0346e-20  1.1223e-21  5.2879e-20  1.7375e-21  5.7333e-20
      3.50  4.5616e-22  5.2411e-20  4.5618e-22  5.2412e-20  4.5622e-22  5.2412e-20  4.5630e-22  5.2413e-20  4.5644e-22  5.2415e-20  4.5669e-22  5.2418e-20  4.5712e-22  5.2423e-20  4.5790e-22  5.2432e-20  4.5928e-22  5.2448e-20  4.6173e-22  5.2476e-20  4.6609e-22  5.2526e-20  4.7385e-22  5.2616e-20  4.8770e-22  5.2776e-20  5.1377e-22  5.3211e-20  5.5980e-22  5.3871e-20  6.4200e-22  5.4855e-20  7.9335e-22  5.6496e-20  1.0815e-21  5.9347e-20  1.6577e-21  6.4358e-20
      3.55  4.5421e-22  5.8763e-20  4.5424e-22  5.8763e-20  4.5428e-22  5.8764e-20  4.5435e-22  5.8765e-20  4.5448e-22  5.8766e-20  4.5471e-22  5.8770e-20  4.5513e-22  5.8775e-20  4.5586e-22  5.8785e-20  4.5716e-22  5.8803e-20  4.5948e-22  5.8835e-20  4.6359e-22  5.8892e-20  4.7092e-22  5.8993e-20  4.8400e-22  5.9173e-20  5.0890e-22  5.9691e-20  5.5247e-22  6.0439e-20  6.3009e-22  6.1549e-20  7.7280e-22  6.3397e-20  1.0440e-21  6.6605e-20  1.5846e-21  7.2242e-20
      3.60  4.5236e-22  6.5880e-20  4.5238e-22  6.5880e-20  4.5242e-22  6.5881e-20  4.5249e-22  6.5882e-20  4.5261e-22  6.5884e-20  4.5283e-22  6.5887e-20  4.5322e-22  6.5894e-20  4.5391e-22  6.5905e-20  4.5515e-22  6.5925e-20  4.5734e-22  6.5961e-20  4.6123e-22  6.6025e-20  4.6815e-22  6.6139e-20  4.8051e-22  6.6341e-20  5.0436e-22  6.6959e-20  5.4566e-22  6.7807e-20  6.1904e-22  6.9060e-20  7.5379e-22  7.1141e-20  1.0095e-21  7.4750e-20  1.5176e-21  8.1092e-20
      3.65  4.5058e-22  7.3854e-20  4.5060e-22  7.3854e-20  4.5064e-22  7.3855e-20  4.5070e-22  7.3856e-20  4.5082e-22  7.3858e-20  4.5103e-22  7.3862e-20  4.5139e-22  7.3869e-20  4.5205e-22  7.3882e-20  4.5322e-22  7.3905e-20  4.5529e-22  7.3945e-20  4.5897e-22  7.4017e-20  4.6552e-22  7.4145e-20  4.7721e-22  7.4372e-20  5.0013e-22  7.5111e-20  5.3932e-22  7.6073e-20  6.0878e-22  7.7487e-20  7.3615e-22  7.9830e-20  9.7747e-22  8.3890e-20  1.4559e-21  9.1026e-20
      3.70  4.4887e-22  8.2787e-20  4.4889e-22  8.2787e-20  4.4892e-22  8.2788e-20  4.4898e-22  8.2789e-20  4.4909e-22  8.2792e-20  4.4929e-22  8.2796e-20  4.4964e-22  8.2805e-20  4.5026e-22  8.2819e-20  4.5137e-22  8.2844e-20  4.5333e-22  8.2890e-20  4.5682e-22  8.2971e-20  4.6302e-22  8.3114e-20  4.7409e-22  8.3370e-20  4.9618e-22  8.4254e-20  5.3341e-22  8.5346e-20  5.9923e-22  8.6942e-20  7.1974e-22  8.9580e-20  9.4779e-22  9.4148e-20  1.3990e-21  1.0218e-19
      3.75  4.4721e-22  9.2793e-20  4.4723e-22  9.2794e-20  4.4727e-22  9.2795e-20  4.4732e-22  9.2796e-20  4.4743e-22  9.2799e-20  4.4761e-22  9.2804e-20  4.4795e-22  9.2813e-20  4.4853e-22  9.2829e-20  4.4958e-22  9.2858e-20  4.5144e-22  9.2909e-20  4.5475e-22  9.3000e-20  4.6063e-22  9.3162e-20  4.7111e-22  9.3449e-20  4.9247e-22  9.4508e-20  5.2788e-22  9.5748e-20  5.9030e-22  9.7549e-20  7.0443e-22  1.0052e-19  9.2013e-22  1.0566e-19  1.3461e-21  1.1469e-19
      3.80  4.4561e-22  1.0400e-19  4.4563e-22  1.0400e-19  4.4566e-22  1.0400e-19  4.4571e-22  1.0400e-19  4.4581e-22  1.0401e-19  4.4599e-22  1.0401e-19  4.4630e-22  1.0402e-19  4.4686e-22  1.0404e-19  4.4785e-22  1.0407e-19  4.4962e-22  1.0413e-19  4.5275e-22  1.0423e-19  4.5833e-22  1.0441e-19  4.6841e-22  1.0477e-19  4.8903e-22  1.0602e-19  5.2272e-22  1.0742e-19  5.8194e-22  1.0945e-19  6.9010e-22  1.1280e-19  8.9429e-22  1.1858e-19  1.2968e-21  1.2874e-19
      3.85  4.4405e-22  1.1655e-19  4.4406e-22  1.1655e-19  4.4409e-22  1.1655e-19  4.4415e-22  1.1655e-19  4.4424e-22  1.1656e-19  4.4441e-22  1.1656e-19  4.4470e-22  1.1658e-19  4.4523e-22  1.1660e-19  4.4618e-22  1.1663e-19  4.4785e-22  1.1670e-19  4.5082e-22  1.1681e-19  4.5611e-22  1.1702e-19  4.6604e-22  1.1752e-19  4.8582e-22  1.1893e-19  5.1789e-22  1.2052e-19  5.7411e-22  1.2281e-19  6.7666e-22  1.2657e-19  8.7005e-22  1.3308e-19  1.2508e-21  1.4450e-19
      3.90  4.4251e-22  1.3060e-19  4.4253e-22  1.3060e-19  4.4256e-22  1.3060e-19  4.4261e-22  1.3061e-19  4.4270e-22  1.3061e-19  4.4286e-22  1.3062e-19  4.4314e-22  1.3063e-19  4.4364e-22  1.3065e-19  4.4453e-22  1.3069e-19  4.4612e-22  1.3077e-19  4.4894e-22  1.3090e-19  4.5396e-22  1.3113e-19  4.6381e-22  1.3181e-19  4.8279e-22  1.3342e-19  5.1334e-22  1.3522e-19  5.6674e-22  1.3780e-19  6.6401e-22  1.4203e-19  8.4726e-22  1.4935e-19  1.2075e-21  1.6220e-19
      3.95  4.4100e-22  1.4633e-19  4.4102e-22  1.4633e-19  4.4105e-22  1.4633e-19  4.4109e-22  1.4634e-19  4.4118e-22  1.4634e-19  4.4133e-22  1.4635e-19  4.4160e-22  1.4636e-19  4.4207e-22  1.4639e-19  4.4292e-22  1.4644e-19  4.4443e-22  1.4652e-19  4.4711e-22  1.4666e-19  4.5187e-22  1.4692e-19  4.6170e-22  1.4783e-19  4.7994e-22  1.4967e-19  5.0906e-22  1.5171e-19  5.5979e-22  1.5461e-19  6.5209e-22  1.5938e-19  8.2579e-22  1.6761e-19  1.1668e-21  1.8206e-19
