# This was generated using Cloudy10 and the columns are ordered 
# as log10 of the fraction of the metallicity to the solar metallicity
# 'h_*_Z' and 'c_*_Z' stands for cooling and heating respectively 
# at * metalicity
#
# NOTE: This was generated separately from loop_coolingcurve_w_UV.py
#       using Output_metals_w_redshift.py.
#
# Redshift = 2.5
# hden = 1.0
#
#     temp   h_-3.00_Z   c_-3.00_Z   h_-2.75_Z   c_-2.75_Z   h_-2.50_Z   c_-2.50_Z   h_-2.25_Z   c_-2.25_Z   h_-2.00_Z   c_-2.00_Z   h_-1.75_Z   c_-1.75_Z   h_-1.50_Z   c_-1.50_Z   h_-1.25_Z   c_-1.25_Z   h_-1.00_Z   c_-1.00_Z   h_-0.75_Z   c_-0.75_Z   h_-0.50_Z   c_-0.50_Z   h_-0.25_Z   c_-0.25_Z    h_0.00_Z    c_0.00_Z    h_0.25_Z    c_0.25_Z    h_0.50_Z    c_0.50_Z    h_0.75_Z    c_0.75_Z    h_1.00_Z    c_1.00_Z    h_1.25_Z    c_1.25_Z    h_1.50_Z    c_1.50_Z 
      1.00  9.8885e-25  1.9425e-28  9.8885e-25  1.9427e-28  9.8886e-25  1.9431e-28  9.8888e-25  1.9438e-28  9.8892e-25  1.9451e-28  9.8898e-25  1.9473e-28  9.8909e-25  1.9513e-28  9.8928e-25  1.9583e-28  9.8963e-25  1.9708e-28  9.9024e-25  1.9931e-28  9.9133e-25  2.0328e-28  9.9327e-25  2.1033e-28  9.9672e-25  2.2289e-28  1.0029e-24  2.4526e-28  1.0138e-24  2.8516e-28  1.0332e-24  3.5646e-28  1.0679e-24  4.8432e-28  1.1298e-24  7.1470e-28  1.2404e-24  1.1327e-27
      1.05  9.8678e-25  2.2068e-28  9.8678e-25  2.2072e-28  9.8679e-25  2.2079e-28  9.8681e-25  2.2092e-28  9.8685e-25  2.2114e-28  9.8691e-25  2.2153e-28  9.8701e-25  2.2223e-28  9.8721e-25  2.2348e-28  9.8755e-25  2.2569e-28  9.8816e-25  2.2964e-28  9.8925e-25  2.3665e-28  9.9118e-25  2.4912e-28  9.9462e-25  2.7130e-28  1.0007e-24  3.1081e-28  1.0116e-24  3.8119e-28  1.0310e-24  5.0678e-28  1.0656e-24  7.3141e-28  1.1272e-24  1.1348e-27  1.2374e-24  1.8634e-27
      1.10  9.8463e-25  2.5007e-28  9.8464e-25  2.5014e-28  9.8465e-25  2.5027e-28  9.8467e-25  2.5050e-28  9.8470e-25  2.5090e-28  9.8476e-25  2.5163e-28  9.8487e-25  2.5291e-28  9.8506e-25  2.5520e-28  9.8540e-25  2.5926e-28  9.8601e-25  2.6648e-28  9.8710e-25  2.7933e-28  9.8903e-25  3.0218e-28  9.9246e-25  3.4283e-28  9.9856e-25  4.1516e-28  1.0094e-24  5.4391e-28  1.0287e-24  7.7330e-28  1.0632e-24  1.1827e-27  1.1246e-24  1.9156e-27  1.2344e-24  3.2344e-27
      1.15  9.8241e-25  2.8276e-28  9.8242e-25  2.8290e-28  9.8243e-25  2.8313e-28  9.8245e-25  2.8356e-28  9.8248e-25  2.8431e-28  9.8254e-25  2.8564e-28  9.8265e-25  2.8802e-28  9.8284e-25  2.9224e-28  9.8318e-25  2.9976e-28  9.8379e-25  3.1312e-28  9.8487e-25  3.3688e-28  9.8679e-25  3.7913e-28  9.9021e-25  4.5427e-28  9.9629e-25  5.8790e-28  1.0071e-24  8.2560e-28  1.0263e-24  1.2486e-27  1.0606e-24  2.0023e-27  1.1218e-24  3.3486e-27  1.2312e-24  5.7645e-27
      1.20  9.8012e-25  3.1917e-28  9.8012e-25  3.1941e-28  9.8013e-25  3.1984e-28  9.8015e-25  3.2061e-28  9.8019e-25  3.2198e-28  9.8025e-25  3.2441e-28  9.8035e-25  3.2873e-28  9.8055e-25  3.3642e-28  9.8089e-25  3.5008e-28  9.8149e-25  3.7439e-28  9.8257e-25  4.1760e-28  9.8448e-25  4.9445e-28  9.8788e-25  6.3108e-28  9.9393e-25  8.7400e-28  1.0047e-24  1.3059e-27  1.0239e-24  2.0738e-27  1.0580e-24  3.4406e-27  1.1189e-24  5.8786e-27  1.2279e-24  1.0246e-26
      1.25  9.7774e-25  3.5973e-28  9.7775e-25  3.6016e-28  9.7776e-25  3.6092e-28  9.7778e-25  3.6227e-28  9.7781e-25  3.6468e-28  9.7787e-25  3.6895e-28  9.7798e-25  3.7656e-28  9.7817e-25  3.9009e-28  9.7851e-25  4.1414e-28  9.7911e-25  4.5691e-28  9.8018e-25  5.3296e-28  9.8208e-25  6.6817e-28  9.8547e-25  9.0855e-28  9.9149e-25  1.3358e-27  1.0022e-24  2.0952e-27  1.0213e-24  3.4450e-27  1.0553e-24  5.8456e-27  1.1159e-24  1.0124e-26  1.2243e-24  1.7783e-26
      1.30  9.7529e-25  4.0501e-28  9.7529e-25  4.0573e-28  9.7530e-25  4.0701e-28  9.7532e-25  4.0930e-28  9.7536e-25  4.1336e-28  9.7542e-25  4.2058e-28  9.7552e-25  4.3342e-28  9.7571e-25  4.5625e-28  9.7605e-25  4.9686e-28  9.7665e-25  5.6906e-28  9.7771e-25  6.9743e-28  9.7961e-25  9.2567e-28  9.8298e-25  1.3314e-27  9.8897e-25  2.0525e-27  9.9963e-25  3.3339e-27  1.0186e-24  5.6107e-27  1.0524e-24  9.6587e-27  1.1128e-24  1.6871e-26  1.2207e-24  2.9778e-26
      1.35  9.7275e-25  4.5554e-28  9.7275e-25  4.5670e-28  9.7276e-25  4.5878e-28  9.7278e-25  4.6247e-28  9.7282e-25  4.6902e-28  9.7287e-25  4.8068e-28  9.7298e-25  5.0142e-28  9.7317e-25  5.3829e-28  9.7350e-25  6.0386e-28  9.7410e-25  7.2045e-28  9.7516e-25  9.2775e-28  9.7704e-25  1.2963e-27  9.8040e-25  1.9514e-27  9.8636e-25  3.1157e-27  9.9697e-25  5.1843e-27  1.0159e-24  8.8594e-27  1.0495e-24  1.5392e-26  1.1095e-24  2.7031e-26  1.2169e-24  4.7863e-26
      1.40  9.7012e-25  5.1195e-28  9.7012e-25  5.1376e-28  9.7013e-25  5.1696e-28  9.7015e-25  5.2266e-28  9.7019e-25  5.3279e-28  9.7025e-25  5.5081e-28  9.7035e-25  5.8285e-28  9.7054e-25  6.3983e-28  9.7087e-25  7.4116e-28  9.7146e-25  9.2132e-28  9.7252e-25  1.2416e-27  9.7439e-25  1.8111e-27  9.7773e-25  2.8234e-27  9.8366e-25  4.6224e-27  9.9421e-25  7.8185e-27  1.0130e-24  1.3496e-26  1.0465e-24  2.3590e-26  1.1062e-24  4.1573e-26  1.2129e-24  7.3769e-26
      1.45  9.6740e-25  5.7494e-28  9.6741e-25  5.7761e-28  9.6742e-25  5.8236e-28  9.6743e-25  5.9080e-28  9.6747e-25  6.0581e-28  9.6753e-25  6.3250e-28  9.6763e-25  6.7996e-28  9.6782e-25  7.6436e-28  9.6815e-25  9.1445e-28  9.6874e-25  1.1813e-27  9.6979e-25  1.6558e-27  9.7165e-25  2.4993e-27  9.7497e-25  3.9987e-27  9.8086e-25  6.6632e-27  9.9136e-25  1.1397e-26  1.0100e-24  1.9807e-26  1.0433e-24  3.4757e-26  1.1027e-24  6.1399e-26  1.2089e-24  1.0912e-25
      1.50  9.6459e-25  6.4527e-28  9.6459e-25  6.4907e-28  9.6460e-25  6.5584e-28  9.6462e-25  6.6788e-28  9.6465e-25  6.8928e-28  9.6471e-25  7.2734e-28  9.6482e-25  7.9501e-28  9.6500e-25  9.1535e-28  9.6533e-25  1.1293e-27  9.6592e-25  1.5098e-27  9.6696e-25  2.1864e-27  9.6881e-25  3.3891e-27  9.7211e-25  5.5270e-27  9.7797e-25  9.3261e-27  9.8841e-25  1.6076e-26  1.0070e-24  2.8067e-26  1.0401e-24  4.9388e-26  1.0991e-24  8.7394e-26  1.2047e-24  1.5550e-25
      1.55  9.6168e-25  7.2388e-28  9.6168e-25  7.2912e-28  9.6169e-25  7.3844e-28  9.6171e-25  7.5501e-28  9.6175e-25  7.8448e-28  9.6180e-25  8.3689e-28  9.6191e-25  9.3009e-28  9.6209e-25  1.0958e-27  9.6242e-25  1.3905e-27  9.6300e-25  1.9145e-27  9.6404e-25  2.8462e-27  9.6588e-25  4.5025e-27  9.6916e-25  7.4466e-27  9.7499e-25  1.2679e-26  9.8536e-25  2.1974e-26  1.0038e-24  3.8490e-26  1.0367e-24  6.7859e-26  1.0954e-24  1.2023e-25  1.2004e-24  2.1412e-25
      1.60  9.5867e-25  8.1157e-28  9.5868e-25  8.1857e-28  9.5869e-25  8.3101e-28  9.5870e-25  8.5314e-28  9.5874e-25  8.9248e-28  9.5879e-25  9.6244e-28  9.5890e-25  1.0869e-27  9.5908e-25  1.3081e-27  9.5941e-25  1.7015e-27  9.5999e-25  2.4010e-27  9.6102e-25  3.6447e-27  9.6285e-25  5.8559e-27  9.6611e-25  9.7862e-27  9.7190e-25  1.6771e-26  9.8222e-25  2.9181e-26  1.0006e-24  5.1232e-26  1.0333e-24  9.0453e-26  1.0916e-24  1.6042e-25  1.1960e-24  2.8593e-25
      1.65  9.5556e-25  9.0936e-28  9.5556e-25  9.1845e-28  9.5557e-25  9.3462e-28  9.5559e-25  9.6337e-28  9.5563e-25  1.0145e-27  9.5568e-25  1.1054e-27  9.5578e-25  1.2671e-27  9.5597e-25  1.5545e-27  9.5629e-25  2.0657e-27  9.5687e-25  2.9746e-27  9.5789e-25  4.5907e-27  9.5971e-25  7.4638e-27  9.6295e-25  1.2571e-26  9.6871e-25  2.1647e-26  9.7896e-25  3.7774e-26  9.9720e-25  6.6434e-26  1.0297e-24  1.1742e-25  1.0877e-24  2.0841e-25  1.1914e-24  3.7176e-25
      1.70  9.5234e-25  1.0184e-27  9.5235e-25  1.0299e-27  9.5236e-25  1.0504e-27  9.5237e-25  1.0870e-27  9.5241e-25  1.1519e-27  9.5246e-25  1.2674e-27  9.5256e-25  1.4728e-27  9.5274e-25  1.8380e-27  9.5307e-25  2.4873e-27  9.5364e-25  3.6420e-27  9.5466e-25  5.6951e-27  9.5646e-25  9.3451e-27  9.5968e-25  1.5833e-26  9.6540e-25  2.7365e-26  9.7559e-25  4.7856e-26  9.9372e-25  8.4277e-26  1.0260e-24  1.4909e-25  1.0836e-24  2.6481e-25  1.1866e-24  4.7271e-25
      1.75  9.4901e-25  1.1398e-27  9.4902e-25  1.1542e-27  9.4903e-25  1.1799e-27  9.4904e-25  1.2254e-27  9.4908e-25  1.3065e-27  9.4913e-25  1.4506e-27  9.4923e-25  1.7069e-27  9.4941e-25  2.1626e-27  9.4973e-25  2.9729e-27  9.5030e-25  4.4138e-27  9.5131e-25  6.9758e-27  9.5311e-25  1.1531e-26  9.5630e-25  1.9628e-26  9.6199e-25  3.4019e-26  9.7210e-25  5.9596e-26  9.9010e-25  1.0507e-25  1.0222e-24  1.8602e-25  1.0794e-24  3.3063e-25  1.1817e-24  5.9067e-25
      1.80  9.4557e-25  1.2755e-27  9.4557e-25  1.2932e-27  9.4558e-25  1.3248e-27  9.4560e-25  1.3809e-27  9.4563e-25  1.4808e-27  9.4569e-25  1.6583e-27  9.4579e-25  1.9739e-27  9.4597e-25  2.5352e-27  9.4628e-25  3.5333e-27  9.4685e-25  5.3081e-27  9.4785e-25  8.4638e-27  9.4963e-25  1.4074e-26  9.5281e-25  2.4049e-26  9.5845e-25  4.1778e-26  9.6849e-25  7.3292e-26  9.8636e-25  1.2933e-25  1.0182e-24  2.2915e-25  1.0750e-24  4.0759e-25  1.1766e-24  7.2883e-25
      1.85  9.4201e-25  1.4267e-27  9.4201e-25  1.4484e-27  9.4202e-25  1.4870e-27  9.4204e-25  1.5555e-27  9.4207e-25  1.6774e-27  9.4213e-25  1.8942e-27  9.4223e-25  2.2797e-27  9.4240e-25  2.9652e-27  9.4272e-25  4.1842e-27  9.4328e-25  6.3518e-27  9.4427e-25  1.0206e-26  9.4604e-25  1.7059e-26  9.4919e-25  2.9242e-26  9.5479e-25  5.0901e-26  9.6475e-25  8.9406e-26  9.8249e-25  1.5790e-25  1.0141e-24  2.7997e-25  1.0705e-24  4.9840e-25  1.1712e-24  8.9216e-25
      1.90  9.3832e-25  1.5954e-27  9.3833e-25  1.6217e-27  9.3834e-25  1.6685e-27  9.3836e-25  1.7518e-27  9.3839e-25  1.8998e-27  9.3844e-25  2.1631e-27  9.3854e-25  2.6313e-27  9.3872e-25  3.4638e-27  9.3903e-25  4.9442e-27  9.3959e-25  7.5767e-27  9.4057e-25  1.2258e-26  9.4233e-25  2.0581e-26  9.4545e-25  3.5379e-26  9.5101e-25  6.1690e-26  9.6089e-25  1.0848e-25  9.7849e-25  1.9174e-25  1.0098e-24  3.4022e-25  1.0658e-24  6.0616e-25  1.1657e-24  1.0863e-24
      1.95  9.3452e-25  1.7833e-27  9.3452e-25  1.8150e-27  9.3453e-25  1.8713e-27  9.3455e-25  1.9716e-27  9.3458e-25  2.1498e-27  9.3464e-25  2.4668e-27  9.3473e-25  3.0304e-27  9.3491e-25  4.0326e-27  9.3522e-25  5.8149e-27  9.3577e-25  8.9841e-27  9.3675e-25  1.4620e-26  9.3850e-25  2.4640e-26  9.4161e-25  4.2457e-26  9.4714e-25  7.4138e-26  9.5698e-25  1.3048e-25  9.7449e-25  2.3078e-25  1.0057e-24  4.0969e-25  1.0614e-24  7.3033e-25  1.1609e-24  1.3098e-24
      2.00  9.3058e-25  1.9933e-27  9.3058e-25  2.0317e-27  9.3059e-25  2.1000e-27  9.3061e-25  2.2215e-27  9.3064e-25  2.4374e-27  9.3070e-25  2.8215e-27  9.3079e-25  3.5045e-27  9.3097e-25  4.7190e-27  9.3128e-25  6.8788e-27  9.3182e-25  1.0719e-26  9.3280e-25  1.7549e-26  9.3453e-25  2.9693e-26  9.3761e-25  5.1289e-26  9.4309e-25  8.9696e-26  9.5284e-25  1.5802e-25  9.7020e-25  2.7971e-25  1.0011e-24  4.9696e-25  1.0563e-24  8.8680e-25  1.1549e-24  1.5926e-24
      2.05  9.2651e-25  2.2285e-27  9.2651e-25  2.2751e-27  9.2652e-25  2.3578e-27  9.2654e-25  2.5050e-27  9.2657e-25  2.7667e-27  9.2662e-25  3.2322e-27  9.2672e-25  4.0598e-27  9.2689e-25  5.5316e-27  9.2720e-25  8.1490e-27  9.2774e-25  1.2803e-26  9.2870e-25  2.1080e-26  9.3042e-25  3.5799e-26  9.3347e-25  6.1977e-26  9.3889e-25  1.0854e-25  9.4855e-25  1.9142e-25  9.6573e-25  3.3909e-25  9.9635e-25  6.0297e-25  1.0510e-24  1.0771e-24  1.1486e-24  1.9374e-24
      2.10  9.2230e-25  2.4910e-27  9.2230e-25  2.5473e-27  9.2231e-25  2.6473e-27  9.2233e-25  2.8251e-27  9.2236e-25  3.1413e-27  9.2241e-25  3.7037e-27  9.2251e-25  4.7037e-27  9.2268e-25  6.4821e-27  9.2298e-25  9.6446e-27  9.2351e-25  1.5269e-26  9.2447e-25  2.5270e-26  9.2616e-25  4.3058e-26  9.2918e-25  7.4697e-26  9.3455e-25  1.3099e-25  9.4411e-25  2.3120e-25  9.6111e-25  4.0988e-25  9.9141e-25  7.2944e-25  1.0455e-24  1.3044e-24  1.1420e-24  2.3497e-24
      2.15  9.1794e-25  2.7838e-27  9.1795e-25  2.8514e-27  9.1796e-25  2.9717e-27  9.1797e-25  3.1855e-27  9.1800e-25  3.5657e-27  9.1806e-25  4.2418e-27  9.1815e-25  5.4440e-27  9.1832e-25  7.5821e-27  9.1862e-25  1.1384e-26  9.1915e-25  1.8146e-26  9.2009e-25  3.0171e-26  9.2177e-25  5.1559e-26  9.2475e-25  8.9606e-26  9.3007e-25  1.5731e-25  9.3951e-25  2.7789e-25  9.5634e-25  4.9297e-25  9.8631e-25  8.7798e-25  1.0398e-24  1.5715e-24  1.1353e-24  2.8347e-24
      2.20  9.1344e-25  3.1102e-27  9.1345e-25  3.1909e-27  9.1345e-25  3.3344e-27  9.1347e-25  3.5896e-27  9.1350e-25  4.0435e-27  9.1355e-25  4.8506e-27  9.1365e-25  6.2858e-27  9.1381e-25  8.8382e-27  9.1411e-25  1.3377e-26  9.1463e-25  2.1449e-26  9.1557e-25  3.5806e-26  9.1723e-25  6.1341e-26  9.2018e-25  1.0677e-25  9.2543e-25  1.8763e-25  9.3477e-25  3.3167e-25  9.5141e-25  5.8874e-25  9.8104e-25  1.0492e-24  1.0339e-24  1.8796e-24  1.1283e-24  3.3945e-24
      2.25  9.0879e-25  3.4735e-27  9.0879e-25  3.5690e-27  9.0880e-25  3.7388e-27  9.0882e-25  4.0408e-27  9.0885e-25  4.5778e-27  9.0890e-25  5.5327e-27  9.0899e-25  7.2309e-27  9.0915e-25  1.0251e-26  9.0945e-25  1.5621e-26  9.0997e-25  2.5173e-26  9.1089e-25  4.2160e-26  9.1253e-25  7.2377e-26  9.1545e-25  1.2614e-25  9.2064e-25  2.2184e-25  9.2988e-25  3.9238e-25  9.4633e-25  6.9686e-25  9.7562e-25  1.2426e-24  1.0279e-24  2.2277e-24  1.1213e-24  4.0273e-24
      2.30  9.0398e-25  3.8791e-27  9.0398e-25  3.9909e-27  9.0399e-25  4.1898e-27  9.0401e-25  4.5435e-27  9.0404e-25  5.1724e-27  9.0409e-25  6.2908e-27  9.0418e-25  8.2797e-27  9.0434e-25  1.1817e-26  9.0463e-25  1.8106e-26  9.0514e-25  2.9293e-26  9.0605e-25  4.9189e-26  9.0767e-25  8.4582e-26  9.1056e-25  1.4756e-25  9.1568e-25  2.5968e-25  9.2481e-25  4.5952e-25  9.4104e-25  8.1643e-25  9.6997e-25  1.4565e-24  1.0216e-24  2.6128e-24  1.1138e-24  4.7275e-24
      2.35  8.9900e-25  4.3297e-27  8.9901e-25  4.4593e-27  8.9902e-25  4.6897e-27  8.9903e-25  5.0994e-27  8.9906e-25  5.8279e-27  8.9911e-25  7.1235e-27  8.9920e-25  9.4275e-27  8.9936e-25  1.3525e-26  8.9965e-25  2.0811e-26  9.0016e-25  3.3770e-26  9.0106e-25  5.6820e-26  9.0266e-25  9.7823e-26  9.0552e-25  1.7079e-25  9.1059e-25  3.0071e-25  9.1962e-25  5.3232e-25  9.3569e-25  9.4609e-25  9.6432e-25  1.6885e-24  1.0154e-24  3.0305e-24  1.1066e-24  5.4872e-24
      2.40  8.9386e-25  4.8299e-27  8.9387e-25  4.9783e-27  8.9388e-25  5.2421e-27  8.9389e-25  5.7114e-27  8.9392e-25  6.5458e-27  8.9397e-25  8.0297e-27  8.9406e-25  1.0669e-26  8.9422e-25  1.5361e-26  8.9450e-25  2.3707e-26  8.9500e-25  3.8549e-26  8.9590e-25  6.4950e-26  8.9749e-25  1.1192e-25  9.0031e-25  1.9550e-25  9.0533e-25  3.4434e-25  9.1427e-25  6.0971e-25  9.3018e-25  1.0839e-24  9.5851e-25  1.9351e-24  1.0090e-24  3.4745e-24  1.0993e-24  6.2948e-24
      2.45  8.8855e-25  5.3845e-27  8.8856e-25  5.5526e-27  8.8857e-25  5.8514e-27  8.8858e-25  6.3828e-27  8.8861e-25  7.3277e-27  8.8866e-25  9.0082e-27  8.8875e-25  1.1997e-26  8.8891e-25  1.7311e-26  8.8919e-25  2.6762e-26  8.8968e-25  4.3571e-26  8.9057e-25  7.3469e-26  8.9214e-25  1.2666e-25  8.9493e-25  2.2133e-25  8.9991e-25  3.8991e-25  9.0875e-25  6.9053e-25  9.2450e-25  1.2279e-24  9.5254e-25  2.1926e-24  1.0025e-24  3.9381e-24  1.0919e-24  7.1381e-24
      2.50  8.8307e-25  5.9992e-27  8.8307e-25  6.1874e-27  8.8308e-25  6.5222e-27  8.8309e-25  7.1174e-27  8.8312e-25  8.1759e-27  8.8317e-25  1.0058e-26  8.8326e-25  1.3406e-26  8.8341e-25  1.9359e-26  8.8369e-25  2.9946e-26  8.8418e-25  4.8775e-26  8.8506e-25  8.2268e-26  8.8661e-25  1.4186e-25  8.8938e-25  2.4791e-25  8.9430e-25  4.3679e-25  9.0306e-25  7.7363e-25  9.1865e-25  1.3758e-24  9.4640e-25  2.4572e-24  9.9589e-25  4.4146e-24  1.0843e-24  8.0047e-24
      2.55  8.7740e-25  6.6832e-27  8.7740e-25  6.8919e-27  8.7741e-25  7.2630e-27  8.7742e-25  7.9229e-27  8.7745e-25  9.0964e-27  8.7750e-25  1.1183e-26  8.7759e-25  1.4894e-26  8.7774e-25  2.1494e-26  8.7801e-25  3.3231e-26  8.7850e-25  5.4106e-26  8.7937e-25  9.1238e-26  8.8091e-25  1.5730e-25  8.8365e-25  2.7488e-25  8.8852e-25  4.8431e-25  8.9719e-25  8.5783e-25  9.1262e-25  1.5257e-24  9.4009e-25  2.7252e-24  9.8907e-25  4.8969e-24  1.0766e-24  8.8819e-24
      2.60  8.7154e-25  7.4406e-27  8.7154e-25  7.6698e-27  8.7155e-25  8.0772e-27  8.7157e-25  8.8017e-27  8.7159e-25  1.0090e-26  8.7164e-25  1.2381e-26  8.7173e-25  1.6456e-26  8.7188e-25  2.3702e-26  8.7215e-25  3.6589e-26  8.7263e-25  5.9509e-26  8.7349e-25  1.0028e-25  8.7502e-25  1.7281e-25  8.7773e-25  3.0192e-25  8.8256e-25  5.3189e-25  8.9114e-25  9.4207e-25  9.0640e-25  1.6755e-24  9.3360e-25  2.9932e-24  9.8208e-25  5.3792e-24  1.0687e-24  9.7586e-24
      2.65  8.6549e-25  8.2791e-27  8.6549e-25  8.5285e-27  8.6550e-25  8.9719e-27  8.6552e-25  9.7605e-27  8.6554e-25  1.1163e-26  8.6559e-25  1.3656e-26  8.6568e-25  1.8091e-26  8.6583e-25  2.5978e-26  8.6610e-25  4.0003e-26  8.6657e-25  6.4948e-26  8.6742e-25  1.0932e-25  8.6893e-25  1.8827e-25  8.7162e-25  3.2879e-25  8.7640e-25  5.7910e-25  8.8489e-25  1.0256e-24  9.0000e-25  1.8241e-24  9.2692e-25  3.2587e-24  9.7491e-25  5.8568e-24  1.0606e-24  1.0627e-23
      2.70  8.5924e-25  9.2072e-27  8.5925e-25  9.4764e-27  8.5925e-25  9.9553e-27  8.5927e-25  1.0807e-26  8.5929e-25  1.2321e-26  8.5934e-25  1.5014e-26  8.5943e-25  1.9803e-26  8.5958e-25  2.8319e-26  8.5984e-25  4.3465e-26  8.6031e-25  7.0403e-26  8.6116e-25  1.1832e-25  8.6265e-25  2.0358e-25  8.6531e-25  3.5533e-25  8.7004e-25  6.2565e-25  8.7845e-25  1.1079e-24  8.9341e-25  1.9703e-24  9.2006e-25  3.5199e-24  9.6756e-25  6.3266e-24  1.0524e-24  1.1480e-23
      2.75  8.5279e-25  1.0234e-26  8.5279e-25  1.0523e-26  8.5280e-25  1.1036e-26  8.5282e-25  1.1949e-26  8.5284e-25  1.3573e-26  8.5289e-25  1.6460e-26  8.5297e-25  2.1595e-26  8.5312e-25  3.0727e-26  8.5338e-25  4.6967e-26  8.5385e-25  7.5852e-26  8.5469e-25  1.2723e-25  8.5617e-25  2.1865e-25  8.5880e-25  3.8137e-25  8.6349e-25  6.7125e-25  8.7182e-25  1.1884e-24  8.8663e-25  2.1133e-24  9.1303e-25  3.7751e-24  9.6008e-25  6.7851e-24  1.0441e-24  1.2312e-23
      2.80  8.4613e-25  1.1377e-26  8.4613e-25  1.1685e-26  8.4614e-25  1.2232e-26  8.4616e-25  1.3205e-26  8.4618e-25  1.4936e-26  8.4623e-25  1.8014e-26  8.4631e-25  2.3487e-26  8.4646e-25  3.3221e-26  8.4672e-25  5.0532e-26  8.4718e-25  8.1321e-26  8.4801e-25  1.3609e-25  8.4948e-25  2.3354e-25  8.5209e-25  4.0699e-25  8.5673e-25  7.1599e-25  8.6498e-25  1.2672e-24  8.7966e-25  2.2532e-24  9.0580e-25  4.0247e-24  9.5241e-25  7.2334e-24  1.0356e-24  1.3124e-23
      2.85  8.3925e-25  1.2642e-26  8.3926e-25  1.2969e-26  8.3927e-25  1.3549e-26  8.3928e-25  1.4581e-26  8.3931e-25  1.6417e-26  8.3935e-25  1.9681e-26  8.3943e-25  2.5486e-26  8.3958e-25  3.5810e-26  8.3984e-25  5.4170e-26  8.4030e-25  8.6825e-26  8.4112e-25  1.4491e-25  8.4257e-25  2.4826e-25  8.4516e-25  4.3224e-25  8.4976e-25  7.5997e-25  8.5793e-25  1.3446e-24  8.7247e-25  2.3904e-24  8.9837e-25  4.2693e-24  9.4453e-25  7.6723e-24  1.0270e-24  1.3919e-23
      2.90  8.3216e-25  1.4042e-26  8.3216e-25  1.4387e-26  8.3217e-25  1.5000e-26  8.3219e-25  1.6090e-26  8.3221e-25  1.8029e-26  8.3226e-25  2.1477e-26  8.3234e-25  2.7608e-26  8.3248e-25  3.8511e-26  8.3274e-25  5.7902e-26  8.3320e-25  9.2391e-26  8.3401e-25  1.5374e-25  8.3545e-25  2.6290e-25  8.3801e-25  4.5720e-25  8.4257e-25  8.0335e-25  8.5066e-25  1.4209e-24  8.6507e-25  2.5254e-24  8.9072e-25  4.5098e-24  9.3645e-25  8.1036e-24  1.0181e-24  1.4700e-23
      2.95  8.2484e-25  1.5599e-26  8.2484e-25  1.5961e-26  8.2485e-25  1.6607e-26  8.2487e-25  1.7754e-26  8.2489e-25  1.9794e-26  8.2494e-25  2.3423e-26  8.2502e-25  2.9875e-26  8.2516e-25  4.1351e-26  8.2542e-25  6.1759e-26  8.2587e-25  9.8056e-26  8.2667e-25  1.6262e-25  8.2810e-25  2.7751e-25  8.3064e-25  4.8201e-25  8.3515e-25  8.4632e-25  8.4317e-25  1.4962e-24  8.5744e-25  2.6587e-24  8.8285e-25  4.7471e-24  9.2814e-25  8.5288e-24  1.0090e-24  1.5469e-23
      3.00  8.1729e-25  1.7324e-26  8.1730e-25  1.7705e-26  8.1730e-25  1.8382e-26  8.1732e-25  1.9586e-26  8.1734e-25  2.1727e-26  8.1739e-25  2.5535e-26  8.1747e-25  3.2306e-26  8.1761e-25  4.4347e-26  8.1786e-25  6.5762e-26  8.1831e-25  1.0385e-25  8.1910e-25  1.7160e-25  8.2052e-25  2.9216e-25  8.2304e-25  5.0675e-25  8.2750e-25  8.8904e-25  8.3545e-25  1.5710e-24  8.4958e-25  2.7908e-24  8.7475e-25  4.9821e-24  9.1961e-25  8.9498e-24  9.9970e-25  1.6229e-23
      3.05  8.0951e-25  1.9253e-26  8.0951e-25  1.9651e-26  8.0952e-25  2.0360e-26  8.0953e-25  2.1619e-26  8.0956e-25  2.3858e-26  8.0960e-25  2.7841e-26  8.0968e-25  3.4923e-26  8.0982e-25  4.7517e-26  8.1007e-25  6.9916e-26  8.1051e-25  1.0976e-25  8.1130e-25  1.8062e-25  8.1271e-25  3.0672e-25  8.1519e-25  5.3117e-25  8.1962e-25  9.3103e-25  8.2749e-25  1.6444e-24  8.4149e-25  2.9202e-24  8.6641e-25  5.2120e-24  9.1084e-25  9.3611e-24  9.9015e-25  1.6972e-23
      3.10  8.0148e-25  2.1377e-26  8.0148e-25  2.1792e-26  8.0149e-25  2.2532e-26  8.0151e-25  2.3846e-26  8.0153e-25  2.6184e-26  8.0157e-25  3.0341e-26  8.0165e-25  3.7733e-26  8.0179e-25  5.0880e-26  8.0204e-25  7.4260e-26  8.0248e-25  1.1585e-25  8.0326e-25  1.8982e-25  8.0465e-25  3.2144e-25  8.0711e-25  5.5573e-25  8.1150e-25  9.7312e-25  8.1929e-25  1.7178e-24  8.3315e-25  3.0494e-24  8.5783e-25  5.4414e-24  9.0182e-25  9.7715e-24  9.8035e-25  1.7712e-23
      3.15  7.9320e-25  2.3740e-26  7.9321e-25  2.4173e-26  7.9321e-25  2.4944e-26  7.9323e-25  2.6314e-26  7.9325e-25  2.8751e-26  7.9330e-25  3.3084e-26  7.9337e-25  4.0789e-26  7.9351e-25  5.4492e-26  7.9376e-25  7.8862e-26  7.9419e-25  1.2221e-25  7.9497e-25  1.9931e-25  7.9634e-25  3.3650e-25  7.9878e-25  5.8072e-25  8.0312e-25  1.0158e-24  8.1084e-25  1.7919e-24  8.2456e-25  3.1799e-24  8.4900e-25  5.6729e-24  8.9255e-25  1.0185e-23  9.7030e-25  1.8458e-23
      3.20  7.8467e-25  2.6362e-26  7.8468e-25  2.6814e-26  7.8468e-25  2.7616e-26  7.8470e-25  2.9044e-26  7.8472e-25  3.1582e-26  7.8477e-25  3.6095e-26  7.8484e-25  4.4122e-26  7.8498e-25  5.8396e-26  7.8522e-25  8.3782e-26  7.8565e-25  1.2893e-25  7.8642e-25  2.0925e-25  7.8778e-25  3.5216e-25  7.9020e-25  6.0656e-25  7.9450e-25  1.0597e-24  8.0213e-25  1.8682e-24  8.1572e-25  3.3140e-24  8.3991e-25  5.9106e-24  8.8303e-25  1.0610e-23  9.5998e-25  1.9223e-23
      3.25  7.7589e-25  2.9261e-26  7.7589e-25  2.9732e-26  7.7590e-25  3.0568e-26  7.7591e-25  3.2056e-26  7.7594e-25  3.4701e-26  7.7598e-25  3.9405e-26  7.7606e-25  4.7771e-26  7.7619e-25  6.2648e-26  7.7643e-25  8.9107e-26  7.7686e-25  1.3617e-25  7.7762e-25  2.1988e-25  7.7897e-25  3.6883e-25  7.8136e-25  6.3397e-25  7.8561e-25  1.1063e-24  7.9317e-25  1.9489e-24  8.0662e-25  3.4557e-24  8.3057e-25  6.1617e-24  8.7324e-25  1.1058e-23  9.4941e-25  2.0031e-23
      3.30  7.6684e-25  3.2498e-26  7.6685e-25  3.2990e-26  7.6685e-25  3.3863e-26  7.6687e-25  3.5417e-26  7.6689e-25  3.8180e-26  7.6693e-25  4.3093e-26  7.6701e-25  5.1830e-26  7.6714e-25  6.7368e-26  7.6738e-25  9.5002e-26  7.6780e-25  1.4415e-25  7.6855e-25  2.3158e-25  7.6989e-25  3.8715e-25  7.7226e-25  6.6407e-25  7.7647e-25  1.1574e-24  7.8395e-25  2.0374e-24  7.9726e-25  3.6111e-24  8.2096e-25  6.4371e-24  8.6318e-25  1.1550e-23  9.3858e-25  2.0915e-23
      3.35  7.5753e-25  3.6080e-26  7.5753e-25  3.6595e-26  7.5754e-25  3.7511e-26  7.5755e-25  3.9140e-26  7.5758e-25  4.2038e-26  7.5762e-25  4.7190e-26  7.5769e-25  5.6352e-26  7.5783e-25  7.2647e-26  7.5806e-25  1.0163e-25  7.5848e-25  1.5317e-25  7.5922e-25  2.4486e-25  7.6055e-25  4.0800e-25  7.6289e-25  6.9840e-25  7.6705e-25  1.2158e-24  7.7446e-25  2.1386e-24  7.8763e-25  3.7888e-24  8.1107e-25  6.7522e-24  8.5285e-25  1.2113e-23  9.2747e-25  2.1929e-23
      3.40  7.4795e-25  4.0039e-26  7.4795e-25  4.0583e-26  7.4796e-25  4.1549e-26  7.4797e-25  4.3268e-26  7.4799e-25  4.6324e-26  7.4804e-25  5.1759e-26  7.4811e-25  6.1425e-26  7.4824e-25  7.8614e-26  7.4847e-25  1.0918e-25  7.4889e-25  1.6356e-25  7.4963e-25  2.6028e-25  7.5093e-25  4.3238e-25  7.5325e-25  7.3873e-25  7.5737e-25  1.2845e-24  7.6469e-25  2.2581e-24  7.7772e-25  3.9989e-24  8.0092e-25  7.1248e-24  8.4225e-25  1.2780e-23  9.1607e-25  2.3131e-23
      3.45  7.3809e-25  4.4414e-26  7.3809e-25  4.4992e-26  7.3810e-25  4.6019e-26  7.3811e-25  4.7847e-26  7.3814e-25  5.1096e-26  7.3818e-25  5.6875e-26  7.3825e-25  6.7151e-26  7.3838e-25  8.5427e-26  7.3861e-25  1.1793e-25  7.3902e-25  1.7574e-25  7.3975e-25  2.7858e-25  7.4104e-25  4.6155e-25  7.4334e-25  7.8727e-25  7.4741e-25  1.3676e-24  7.5465e-25  2.4027e-24  7.6754e-25  4.2535e-24  7.9049e-25  7.5770e-24  8.3137e-25  1.3589e-23  9.0436e-25  2.4591e-23
      3.50  7.2795e-25  4.9246e-26  7.2795e-25  4.9867e-26  7.2796e-25  5.0970e-26  7.2798e-25  5.2931e-26  7.2800e-25  5.6419e-26  7.2804e-25  6.2622e-26  7.2811e-25  7.3654e-26  7.2824e-25  9.3271e-26  7.2847e-25  1.2816e-25  7.2887e-25  1.9022e-25  7.2960e-25  3.0060e-25  7.3087e-25  4.9702e-25  7.3314e-25  8.4667e-25  7.3717e-25  1.4696e-24  7.4433e-25  2.5807e-24  7.5708e-25  4.5676e-24  7.7977e-25  8.1352e-24  8.2020e-25  1.4588e-23  8.9257e-25  2.6387e-23
      3.55  7.1754e-25  5.4641e-26  7.1754e-25  5.5314e-26  7.1755e-25  5.6511e-26  7.1756e-25  5.8640e-26  7.1758e-25  6.2427e-26  7.1762e-25  6.9160e-26  7.1769e-25  8.1135e-26  7.1782e-25  1.0243e-25  7.1805e-25  1.4030e-25  7.1845e-25  2.0766e-25  7.1916e-25  3.2749e-25  7.2043e-25  5.4070e-25  7.2267e-25  9.2025e-25  7.2665e-25  1.5964e-24  7.3373e-25  2.8026e-24  7.4634e-25  4.9594e-24  7.6877e-25  8.8322e-24  8.0875e-25  1.5836e-23  8.8040e-25  2.8637e-23
      3.60  7.0683e-25  6.0591e-26  7.0683e-25  6.1331e-26  7.0684e-25  6.2645e-26  7.0685e-25  6.4984e-26  7.0687e-25  6.9142e-26  7.0691e-25  7.6536e-26  7.0698e-25  8.9686e-26  7.0711e-25  1.1307e-25  7.0733e-25  1.5466e-25  7.0773e-25  2.2864e-25  7.0844e-25  3.6023e-25  7.0969e-25  5.9438e-25  7.1190e-25  1.0112e-24  7.1584e-25  1.7538e-24  7.2284e-25  3.0784e-24  7.3530e-25  5.4471e-24  7.5748e-25  9.7003e-24  7.9702e-25  1.7392e-23  8.6783e-25  3.1447e-23
      3.65  6.9582e-25  6.7149e-26  6.9582e-25  6.7972e-26  6.9583e-25  6.9434e-26  6.9584e-25  7.2035e-26  6.9586e-25  7.6661e-26  6.9590e-25  8.4886e-26  6.9597e-25  9.9514e-26  6.9610e-25  1.2553e-25  6.9632e-25  1.7179e-25  6.9671e-25  2.5408e-25  6.9741e-25  4.0046e-25  6.9864e-25  6.6093e-25  7.0083e-25  1.1246e-24  7.0472e-25  1.9506e-24  7.1164e-25  3.4242e-24  7.2396e-25  6.0591e-24  7.4589e-25  1.0790e-23  7.8499e-25  1.9346e-23  8.5509e-25  3.4974e-23
      3.70  6.8451e-25  7.4390e-26  6.8452e-25  7.5318e-26  6.8453e-25  7.6969e-26  6.8454e-25  7.9905e-26  6.8456e-25  8.5126e-26  6.8460e-25  9.4411e-26  6.8467e-25  1.1092e-25  6.8479e-25  1.4029e-25  6.8501e-25  1.9251e-25  6.8540e-25  2.8539e-25  6.8609e-25  4.5062e-25  6.8731e-25  7.4463e-25  6.8947e-25  1.2680e-24  6.9332e-25  2.2004e-24  7.0016e-25  3.8637e-24  7.1234e-25  6.8379e-24  7.3403e-25  1.2179e-23  7.7272e-25  2.1834e-23  8.4217e-25  3.9463e-23
      3.75  6.7291e-25  8.2472e-26  6.7291e-25  8.3538e-26  6.7292e-25  8.5433e-26  6.7293e-25  8.8803e-26  6.7295e-25  9.4797e-26  6.7299e-25  1.0545e-25  6.7306e-25  1.2441e-25  6.7318e-25  1.5812e-25  6.7340e-25  2.1806e-25  6.7379e-25  3.2469e-25  6.7447e-25  5.1437e-25  6.7568e-25  8.5187e-25  6.7782e-25  1.4527e-24  6.8163e-25  2.5230e-24  6.8840e-25  4.4324e-24  7.0047e-25  7.8464e-24  7.2195e-25  1.3977e-23  7.6029e-25  2.5059e-23  8.2923e-25  4.5275e-23
      3.80  6.6235e-25  9.2392e-26  6.6236e-25  9.3641e-26  6.6236e-25  9.5862e-26  6.6237e-25  9.9811e-26  6.6240e-25  1.0683e-25  6.6243e-25  1.1932e-25  6.6250e-25  1.4154e-25  6.6262e-25  1.8104e-25  6.6284e-25  2.5129e-25  6.6322e-25  3.7624e-25  6.6390e-25  5.9851e-25  6.6510e-25  9.9401e-25  6.6722e-25  1.6981e-24  6.7100e-25  2.9523e-24  6.7773e-25  5.1895e-24  6.8971e-25  9.1896e-24  7.1104e-25  1.6371e-23  7.4918e-25  2.9346e-23  8.1773e-25  5.3002e-23
      3.85  6.5036e-25  1.0968e-25  6.5036e-25  1.1118e-25  6.5037e-25  1.1385e-25  6.5038e-25  1.1860e-25  6.5040e-25  1.2704e-25  6.5044e-25  1.4205e-25  6.5051e-25  1.6874e-25  6.5063e-25  2.1622e-25  6.5085e-25  3.0064e-25  6.5123e-25  4.5081e-25  6.5190e-25  7.1793e-25  6.5310e-25  1.1932e-24  6.5522e-25  2.0393e-24  6.5900e-25  3.5464e-24  6.6572e-25  6.2345e-24  6.7769e-25  1.1040e-23  6.9901e-25  1.9664e-23  7.3719e-25  3.5235e-23  8.0581e-25  6.3584e-23
      3.90  6.3811e-25  1.6440e-25  6.3811e-25  1.6626e-25  6.3812e-25  1.6957e-25  6.3813e-25  1.7546e-25  6.3815e-25  1.8593e-25  6.3819e-25  2.0455e-25  6.3826e-25  2.3767e-25  6.3838e-25  2.9656e-25  6.3860e-25  4.0131e-25  6.3898e-25  5.8760e-25  6.3966e-25  9.1899e-25  6.4087e-25  1.5086e-24  6.4300e-25  2.5581e-24  6.4680e-25  4.4274e-24  6.5358e-25  7.7608e-24  6.6564e-25  1.3718e-23  6.8713e-25  2.4401e-23  7.2560e-25  4.3669e-23  7.9499e-25  7.8667e-23
      3.95  6.2557e-25  3.8812e-25  6.2558e-25  3.9049e-25  6.2559e-25  3.9471e-25  6.2560e-25  4.0220e-25  6.2562e-25  4.1554e-25  6.2566e-25  4.3925e-25  6.2573e-25  4.8141e-25  6.2585e-25  5.5639e-25  6.2607e-25  6.8975e-25  6.2646e-25  9.2692e-25  6.2716e-25  1.3488e-24  6.2838e-25  2.0994e-24  6.3055e-25  3.4353e-24  6.3442e-25  5.8142e-24  6.4131e-25  1.0055e-23  6.5358e-25  1.7629e-23  6.7546e-25  3.1198e-23  7.1468e-25  5.5621e-23  7.8550e-25  9.9834e-23
