# This was generated using Cloudy10 and the columns are ordered 
# as log10 of the fraction of the metallicity to the solar metallicity
# 'h_*_Z' and 'c_*_Z' stands for cooling and heating respectively 
# at * metalicity
#
# NOTE: This was generated separately from loop_coolingcurve_w_UV.py
#       using Output_metals_w_redshift.py.
#
# Redshift = 7.5
# hden = -5.0
#
#     temp   h_-3.00_Z   c_-3.00_Z   h_-2.75_Z   c_-2.75_Z   h_-2.50_Z   c_-2.50_Z   h_-2.25_Z   c_-2.25_Z   h_-2.00_Z   c_-2.00_Z   h_-1.75_Z   c_-1.75_Z   h_-1.50_Z   c_-1.50_Z   h_-1.25_Z   c_-1.25_Z   h_-1.00_Z   c_-1.00_Z   h_-0.75_Z   c_-0.75_Z   h_-0.50_Z   c_-0.50_Z   h_-0.25_Z   c_-0.25_Z    h_0.00_Z    c_0.00_Z    h_0.25_Z    c_0.25_Z    h_0.50_Z    c_0.50_Z    h_0.75_Z    c_0.75_Z    h_1.00_Z    c_1.00_Z    h_1.25_Z    c_1.25_Z    h_1.50_Z    c_1.50_Z 
      1.00  2.9377e-22  8.6599e-26  2.9378e-22  8.6600e-26  2.9379e-22  8.6600e-26  2.9382e-22  8.6602e-26  2.9386e-22  8.6604e-26  2.9393e-22  8.6609e-26  2.9406e-22  8.6616e-26  2.9429e-22  8.6630e-26  2.9471e-22  8.6655e-26  2.9544e-22  8.6698e-26  2.9674e-22  8.6775e-26  2.9904e-22  8.6913e-26  3.0312e-22  8.7158e-26  3.1031e-22  8.7593e-26  3.2308e-22  8.8370e-26  3.4577e-22  8.9757e-26  3.8639e-22  9.2241e-26  4.5932e-22  9.6719e-26  5.9128e-22  1.0487e-25
      1.05  2.7581e-22  9.3112e-26  2.7582e-22  9.3112e-26  2.7583e-22  9.3113e-26  2.7585e-22  9.3115e-26  2.7589e-22  9.3117e-26  2.7597e-22  9.3122e-26  2.7609e-22  9.3131e-26  2.7632e-22  9.3146e-26  2.7672e-22  9.3172e-26  2.7743e-22  9.3220e-26  2.7870e-22  9.3304e-26  2.8094e-22  9.3454e-26  2.8490e-22  9.3721e-26  2.9190e-22  9.4197e-26  3.0430e-22  9.5044e-26  3.2632e-22  9.6558e-26  3.6574e-22  9.9272e-26  4.3653e-22  1.0417e-25  5.6458e-22  1.1310e-25
      1.10  2.5898e-22  1.0021e-25  2.5899e-22  1.0021e-25  2.5900e-22  1.0021e-25  2.5902e-22  1.0022e-25  2.5906e-22  1.0022e-25  2.5913e-22  1.0022e-25  2.5925e-22  1.0023e-25  2.5947e-22  1.0025e-25  2.5987e-22  1.0028e-25  2.6056e-22  1.0033e-25  2.6180e-22  1.0043e-25  2.6399e-22  1.0060e-25  2.6786e-22  1.0090e-25  2.7470e-22  1.0143e-25  2.8681e-22  1.0239e-25  3.0829e-22  1.0410e-25  3.4676e-22  1.0716e-25  4.1585e-22  1.1269e-25  5.4078e-22  1.2281e-25
      1.15  2.4321e-22  1.0796e-25  2.4321e-22  1.0796e-25  2.4322e-22  1.0796e-25  2.4325e-22  1.0797e-25  2.4329e-22  1.0797e-25  2.4335e-22  1.0798e-25  2.4348e-22  1.0799e-25  2.4369e-22  1.0801e-25  2.4408e-22  1.0804e-25  2.4476e-22  1.0811e-25  2.4597e-22  1.0822e-25  2.4812e-22  1.0843e-25  2.5192e-22  1.0879e-25  2.5863e-22  1.0944e-25  2.7050e-22  1.1060e-25  2.9155e-22  1.1268e-25  3.2924e-22  1.1640e-25  3.9694e-22  1.2315e-25  5.1935e-22  1.3553e-25
      1.20  2.2843e-22  1.1643e-25  2.2843e-22  1.1643e-25  2.2845e-22  1.1643e-25  2.2847e-22  1.1644e-25  2.2851e-22  1.1644e-25  2.2857e-22  1.1645e-25  2.2869e-22  1.1647e-25  2.2891e-22  1.1650e-25  2.2928e-22  1.1655e-25  2.2995e-22  1.1664e-25  2.3115e-22  1.1680e-25  2.3326e-22  1.1708e-25  2.3700e-22  1.1759e-25  2.4360e-22  1.1849e-25  2.5527e-22  1.2011e-25  2.7596e-22  1.2300e-25  3.1300e-22  1.2820e-25  3.7951e-22  1.3765e-25  4.9979e-22  1.5510e-25
      1.25  2.1458e-22  1.2570e-25  2.1459e-22  1.2570e-25  2.1460e-22  1.2570e-25  2.1462e-22  1.2571e-25  2.1466e-22  1.2572e-25  2.1473e-22  1.2573e-25  2.1485e-22  1.2576e-25  2.1505e-22  1.2580e-25  2.1543e-22  1.2589e-25  2.1609e-22  1.2604e-25  2.1726e-22  1.2630e-25  2.1934e-22  1.2677e-25  2.2302e-22  1.2761e-25  2.2952e-22  1.2911e-25  2.4101e-22  1.3178e-25  2.6136e-22  1.3656e-25  2.9779e-22  1.4519e-25  3.6320e-22  1.6091e-25  4.8153e-22  1.9005e-25
      1.30  2.0162e-22  1.3585e-25  2.0163e-22  1.3586e-25  2.0164e-22  1.3586e-25  2.0166e-22  1.3587e-25  2.0169e-22  1.3588e-25  2.0176e-22  1.3591e-25  2.0188e-22  1.3596e-25  2.0208e-22  1.3605e-25  2.0245e-22  1.3621e-25  2.0310e-22  1.3648e-25  2.0425e-22  1.3698e-25  2.0630e-22  1.3786e-25  2.0993e-22  1.3943e-25  2.1634e-22  1.4223e-25  2.2764e-22  1.4724e-25  2.4768e-22  1.5621e-25  2.8352e-22  1.7241e-25  3.4788e-22  2.0198e-25  4.6436e-22  2.5697e-25
      1.35  1.8948e-22  1.4699e-25  1.8948e-22  1.4699e-25  1.8949e-22  1.4700e-25  1.8951e-22  1.4702e-25  1.8955e-22  1.4705e-25  1.8961e-22  1.4711e-25  1.8973e-22  1.4720e-25  1.8993e-22  1.4737e-25  1.9029e-22  1.4768e-25  1.9093e-22  1.4822e-25  1.9207e-22  1.4919e-25  1.9409e-22  1.5091e-25  1.9766e-22  1.5398e-25  2.0397e-22  1.5946e-25  2.1511e-22  1.6924e-25  2.3483e-22  1.8680e-25  2.7008e-22  2.1852e-25  3.3339e-22  2.7646e-25  4.4801e-22  3.8437e-25
      1.40  1.7810e-22  1.6030e-25  1.7811e-22  1.6031e-25  1.7812e-22  1.6033e-25  1.7814e-22  1.6036e-25  1.7817e-22  1.6042e-25  1.7824e-22  1.6052e-25  1.7835e-22  1.6071e-25  1.7855e-22  1.6104e-25  1.7890e-22  1.6163e-25  1.7953e-22  1.6267e-25  1.8065e-22  1.6453e-25  1.8264e-22  1.6784e-25  1.8615e-22  1.7373e-25  1.9236e-22  1.8425e-25  2.0333e-22  2.0304e-25  2.2272e-22  2.3678e-25  2.5736e-22  2.9774e-25  3.1959e-22  4.0916e-25  4.3229e-22  6.1684e-25
      1.45  1.6745e-22  1.7522e-25  1.6746e-22  1.7524e-25  1.6747e-22  1.7527e-25  1.6749e-22  1.7533e-25  1.6752e-22  1.7544e-25  1.6758e-22  1.7563e-25  1.6769e-22  1.7597e-25  1.6789e-22  1.7658e-25  1.6824e-22  1.7765e-25  1.6886e-22  1.7956e-25  1.6996e-22  1.8297e-25  1.7191e-22  1.8902e-25  1.7536e-22  1.9981e-25  1.8147e-22  2.1906e-25  1.9225e-22  2.5348e-25  2.1130e-22  3.1528e-25  2.4529e-22  4.2696e-25  3.0638e-22  6.3117e-25  4.1704e-22  1.0120e-24
      1.50  1.5744e-22  1.9141e-25  1.5748e-22  1.9146e-25  1.5749e-22  1.9152e-25  1.5751e-22  1.9162e-25  1.5754e-22  1.9181e-25  1.5761e-22  1.9214e-25  1.5771e-22  1.9273e-25  1.5791e-22  1.9377e-25  1.5825e-22  1.9563e-25  1.5885e-22  1.9894e-25  1.5993e-22  2.0482e-25  1.6185e-22  2.1530e-25  1.6524e-22  2.3396e-25  1.7123e-22  2.6725e-25  1.8182e-22  3.2678e-25  2.0051e-22  4.3368e-25  2.3383e-22  6.2694e-25  2.9371e-22  9.8039e-25  4.0221e-22  1.6399e-24
      1.55  1.4813e-22  2.0909e-25  1.4814e-22  2.0915e-25  1.4815e-22  2.0924e-25  1.4817e-22  2.0941e-25  1.4820e-22  2.0972e-25  1.4826e-22  2.1026e-25  1.4837e-22  2.1122e-25  1.4855e-22  2.1292e-25  1.4889e-22  2.1596e-25  1.4948e-22  2.2136e-25  1.5054e-22  2.3097e-25  1.5242e-22  2.4808e-25  1.5574e-22  2.7855e-25  1.6162e-22  3.3293e-25  1.7200e-22  4.3017e-25  1.9031e-22  6.0479e-25  2.2295e-22  9.2056e-25  2.8158e-22  1.4982e-24  3.8780e-22  2.5765e-24
      1.60  1.3938e-22  2.2840e-25  1.3939e-22  2.2848e-25  1.3940e-22  2.2863e-25  1.3942e-22  2.2889e-25  1.3945e-22  2.2936e-25  1.3951e-22  2.3020e-25  1.3961e-22  2.3168e-25  1.3980e-22  2.3433e-25  1.4012e-22  2.3902e-25  1.4071e-22  2.4738e-25  1.4174e-22  2.6225e-25  1.4358e-22  2.8872e-25  1.4683e-22  3.3588e-25  1.5259e-22  4.2001e-25  1.6276e-22  5.7048e-25  1.8069e-22  8.4072e-25  2.1260e-22  1.3295e-24  2.6994e-22  2.2239e-24  3.7380e-22  3.8941e-24
      1.65  1.3118e-22  2.4955e-25  1.3119e-22  2.4967e-25  1.3120e-22  2.4989e-25  1.3122e-22  2.5028e-25  1.3125e-22  2.5097e-25  1.3131e-22  2.5220e-25  1.3141e-22  2.5438e-25  1.3159e-22  2.5827e-25  1.3191e-22  2.6519e-25  1.3248e-22  2.7750e-25  1.3349e-22  2.9939e-25  1.3529e-22  3.3837e-25  1.3848e-22  4.0781e-25  1.4411e-22  5.3170e-25  1.5406e-22  7.5328e-25  1.7161e-22  1.1513e-24  2.0278e-22  1.8713e-24  2.5879e-22  3.1891e-24  3.6023e-22  5.6511e-24
      1.70  1.2351e-22  2.7276e-25  1.2351e-22  2.7294e-25  1.2352e-22  2.7324e-25  1.2354e-22  2.7379e-25  1.2357e-22  2.7476e-25  1.2363e-22  2.7650e-25  1.2373e-22  2.7957e-25  1.2390e-22  2.8505e-25  1.2422e-22  2.9479e-25  1.2477e-22  3.1211e-25  1.2576e-22  3.4294e-25  1.2752e-22  3.9782e-25  1.3064e-22  4.9559e-25  1.3615e-22  6.7004e-25  1.4588e-22  9.8206e-25  1.6304e-22  1.5425e-24  1.9347e-22  2.5567e-24  2.4815e-22  4.4134e-24  3.4713e-22  7.8836e-24
      1.75  1.1631e-22  2.9830e-25  1.1632e-22  2.9853e-25  1.1633e-22  2.9895e-25  1.1635e-22  2.9969e-25  1.1638e-22  3.0100e-25  1.1643e-22  3.0335e-25  1.1653e-22  3.0751e-25  1.1670e-22  3.1492e-25  1.1701e-22  3.2809e-25  1.1755e-22  3.5153e-25  1.1852e-22  3.9322e-25  1.2024e-22  4.6746e-25  1.2324e-22  5.9967e-25  1.2867e-22  8.3570e-25  1.3818e-22  1.2578e-24  1.5495e-22  2.0161e-24  1.8467e-22  3.3883e-24  2.3800e-22  5.9016e-24  3.3453e-22  1.0601e-23
      1.80  1.0958e-22  3.2645e-25  1.0958e-22  3.2676e-25  1.0959e-22  3.2730e-25  1.0961e-22  3.2827e-25  1.0964e-22  3.2999e-25  1.0969e-22  3.3304e-25  1.0979e-22  3.3848e-25  1.0995e-22  3.4815e-25  1.1025e-22  3.6534e-25  1.1079e-22  3.9593e-25  1.1173e-22  4.5037e-25  1.1341e-22  5.4726e-25  1.1638e-22  7.1991e-25  1.2165e-22  1.0280e-24  1.3094e-22  1.5790e-24  1.4733e-22  2.5690e-24  1.7634e-22  4.3608e-24  2.2835e-22  7.6437e-24  3.2245e-22  1.3784e-23
      1.85  1.0326e-22  3.5752e-25  1.0327e-22  3.5790e-25  1.0328e-22  3.5859e-25  1.0329e-22  3.5981e-25  1.0332e-22  3.6199e-25  1.0337e-22  3.6586e-25  1.0347e-22  3.7273e-25  1.0363e-22  3.8496e-25  1.0392e-22  4.0672e-25  1.0444e-22  4.4541e-25  1.0537e-22  5.1427e-25  1.0701e-22  6.3684e-25  1.0991e-22  8.5524e-25  1.1506e-22  1.2449e-24  1.2414e-22  1.9420e-24  1.4016e-22  3.1946e-24  1.6849e-22  5.4621e-24  2.1920e-22  9.6179e-24  3.1094e-22  1.7395e-23
      1.90  9.7342e-23  3.9184e-25  9.7347e-23  3.9232e-25  9.7356e-23  3.9317e-25  9.7372e-23  3.9467e-25  9.7401e-23  3.9735e-25  9.7452e-23  4.0211e-25  9.7542e-23  4.1057e-25  9.7703e-23  4.2562e-25  9.7989e-23  4.5239e-25  9.8498e-23  5.0001e-25  9.9401e-23  5.8475e-25  1.0100e-22  7.3560e-25  1.0385e-22  1.0044e-24  1.0887e-22  1.4840e-24  1.1776e-22  2.3420e-24  1.3342e-22  3.8837e-24  1.6110e-22  6.6753e-24  2.1055e-22  1.1794e-23  3.0002e-22  2.1376e-23
      1.95  9.1793e-23  4.2982e-25  9.1799e-23  4.3039e-25  9.1807e-23  4.3141e-25  9.1823e-23  4.3321e-25  9.1851e-23  4.3643e-25  9.1901e-23  4.4215e-25  9.1989e-23  4.5232e-25  9.2147e-23  4.7040e-25  9.2426e-23  5.0256e-25  9.2923e-23  5.5978e-25  9.3807e-23  6.6160e-25  9.5374e-23  8.4285e-25  9.8153e-23  1.1658e-24  1.0307e-22  1.7421e-24  1.1176e-22  2.7731e-24  1.2708e-22  4.6260e-24  1.5414e-22  7.9816e-24  2.0240e-22  1.4136e-23  2.8970e-22  2.5665e-23
      2.00  8.6590e-23  4.7188e-25  8.6595e-23  4.7255e-25  8.6604e-23  4.7374e-25  8.6619e-23  4.7587e-25  8.6647e-23  4.7966e-25  8.6695e-23  4.8639e-25  8.6782e-23  4.9835e-25  8.6936e-23  5.1963e-25  8.7210e-23  5.5749e-25  8.7696e-23  6.2483e-25  8.8560e-23  7.4465e-25  9.0094e-23  9.5796e-25  9.2814e-23  1.3381e-24  9.7628e-23  2.0163e-24  1.0613e-22  3.2298e-24  1.2112e-22  5.4110e-24  1.4760e-22  9.3616e-24  1.9474e-22  1.6611e-23  2.7997e-22  3.0196e-23
      2.05  8.1710e-23  5.1855e-25  8.1715e-23  5.1933e-25  8.1723e-23  5.2071e-25  8.1739e-23  5.2317e-25  8.1765e-23  5.2754e-25  8.1813e-23  5.3532e-25  8.1898e-23  5.4916e-25  8.2049e-23  5.7376e-25  8.2317e-23  6.1752e-25  8.2793e-23  6.9536e-25  8.3639e-23  8.3387e-25  8.5142e-23  1.0805e-24  8.7805e-23  1.5199e-24  9.2520e-23  2.3040e-24  1.0085e-22  3.7069e-24  1.1554e-22  6.2288e-24  1.4146e-22  1.0797e-23  1.8756e-22  1.9183e-23  2.7082e-22  3.4907e-23
      2.10  7.7131e-23  5.7035e-25  7.7136e-23  5.7123e-25  7.7144e-23  5.7281e-25  7.7159e-23  5.7561e-25  7.7185e-23  5.8059e-25  7.7232e-23  5.8944e-25  7.7315e-23  6.0519e-25  7.7463e-23  6.3319e-25  7.7726e-23  6.8300e-25  7.8193e-23  7.7161e-25  7.9022e-23  9.2928e-25  8.0495e-23  1.2100e-24  8.3106e-23  1.7101e-24  8.7729e-23  2.6027e-24  9.5896e-23  4.1999e-24  1.1030e-22  7.0711e-24  1.3571e-22  1.2273e-23  1.8085e-22  2.1825e-23  2.6226e-22  3.9743e-23
      2.15  7.2834e-23  6.2788e-25  7.2838e-23  6.2887e-25  7.2846e-23  6.3064e-25  7.2861e-23  6.3379e-25  7.2887e-23  6.3938e-25  7.2932e-23  6.4933e-25  7.3014e-23  6.6701e-25  7.3159e-23  6.9847e-25  7.3417e-23  7.5442e-25  7.3875e-23  8.5395e-25  7.4689e-23  1.0311e-24  7.6134e-23  1.3464e-24  7.8697e-23  1.9082e-24  8.3234e-23  2.9108e-24  9.1250e-23  4.7050e-24  1.0539e-22  7.9305e-24  1.3032e-22  1.3775e-23  1.7459e-22  2.4510e-23  2.5425e-22  4.4655e-23
      2.20  6.8798e-23  6.9184e-25  6.8802e-23  6.9294e-25  6.8810e-23  6.9491e-25  6.8825e-23  6.9840e-25  6.8850e-23  7.0461e-25  6.8895e-23  7.1565e-25  6.8975e-23  7.3529e-25  6.9118e-23  7.7022e-25  6.9371e-23  8.3234e-25  6.9821e-23  9.4285e-25  7.0620e-23  1.1395e-24  7.2040e-23  1.4896e-24  7.4557e-23  2.1134e-24  7.9015e-23  3.2267e-24  8.6891e-23  5.2190e-24  1.0078e-22  8.8007e-24  1.2527e-22  1.5292e-23  1.6876e-22  2.7215e-23  2.4679e-22  4.9599e-23
      2.25  6.5007e-23  7.6299e-25  6.5011e-23  7.6421e-25  6.5019e-23  7.6637e-25  6.5033e-23  7.7021e-25  6.5058e-23  7.7703e-25  6.5102e-23  7.8917e-25  6.5181e-23  8.1076e-25  6.5321e-23  8.4915e-25  6.5570e-23  9.1744e-25  6.6013e-23  1.0389e-24  6.6799e-23  1.2551e-24  6.8194e-23  1.6399e-24  7.0669e-23  2.3256e-24  7.5053e-23  3.5494e-24  8.2800e-23  5.7394e-24  9.6463e-23  9.6767e-24  1.2054e-22  1.6813e-23  1.6330e-22  2.9922e-23  2.3984e-22  5.4539e-23
      2.30  6.1444e-23  8.4229e-25  6.1448e-23  8.4361e-25  6.1456e-23  8.4597e-25  6.1470e-23  8.5015e-25  6.1494e-23  8.5759e-25  6.1538e-23  8.7081e-25  6.1615e-23  8.9434e-25  6.1753e-23  9.3617e-25  6.1998e-23  1.0106e-24  6.2434e-23  1.1430e-24  6.3207e-23  1.3785e-24  6.4581e-23  1.7979e-24  6.7017e-23  2.5451e-24  7.1331e-23  3.8786e-24  7.8958e-23  6.2650e-24  9.2411e-23  1.0555e-23  1.1612e-22  1.8331e-23  1.5820e-22  3.2617e-23  2.3338e-22  5.9449e-23
      2.35  5.8094e-23  9.3063e-25  5.8098e-23  9.3206e-25  5.8106e-23  9.3460e-25  5.8119e-23  9.3913e-25  5.8143e-23  9.4717e-25  5.8186e-23  9.6148e-25  5.8263e-23  9.8692e-25  5.8398e-23  1.0322e-24  5.8639e-23  1.1127e-24  5.9068e-23  1.2558e-24  5.9830e-23  1.5106e-24  6.1183e-23  1.9642e-24  6.3582e-23  2.7724e-24  6.7833e-23  4.2147e-24  7.5347e-23  6.7958e-24  8.8604e-23  1.1436e-23  1.1197e-22  1.9846e-23  1.5342e-22  3.5297e-23  2.2739e-22  6.4318e-23
      2.40  5.4941e-23  1.0291e-24  5.4946e-23  1.0306e-24  5.4953e-23  1.0334e-24  5.4966e-23  1.0382e-24  5.4990e-23  1.0469e-24  5.5033e-23  1.0623e-24  5.5108e-23  1.0896e-24  5.5241e-23  1.1383e-24  5.5479e-23  1.2248e-24  5.5902e-23  1.3787e-24  5.6653e-23  1.6525e-24  5.7986e-23  2.1401e-24  6.0351e-23  3.0089e-24  6.4542e-23  4.5593e-24  7.1951e-23  7.3337e-24  8.5025e-23  1.2321e-23  1.0807e-22  2.1361e-23  1.4893e-22  3.7966e-23  2.2178e-22  6.9156e-23
      2.45  5.1974e-23  1.1389e-24  5.1978e-23  1.1406e-24  5.1985e-23  1.1435e-24  5.1998e-23  1.1487e-24  5.2022e-23  1.1579e-24  5.2064e-23  1.1744e-24  5.2138e-23  1.2036e-24  5.2270e-23  1.2557e-24  5.2504e-23  1.3482e-24  5.2921e-23  1.5128e-24  5.3661e-23  1.8058e-24  5.4977e-23  2.3273e-24  5.7310e-23  3.2565e-24  6.1444e-23  4.9148e-24  6.8755e-23  7.8821e-24  8.1657e-23  1.3216e-23  1.0440e-22  2.2883e-23  1.4471e-22  4.0639e-23  2.1653e-22  7.3987e-23
      2.50  4.9178e-23  1.2615e-24  4.9182e-23  1.2632e-24  4.9189e-23  1.2663e-24  4.9202e-23  1.2719e-24  4.9225e-23  1.2817e-24  4.9267e-23  1.2992e-24  4.9340e-23  1.3304e-24  4.9470e-23  1.3859e-24  4.9701e-23  1.4845e-24  5.0113e-23  1.6599e-24  5.0843e-23  1.9720e-24  5.2141e-23  2.5276e-24  5.4444e-23  3.5177e-24  5.8525e-23  5.2844e-24  6.5743e-23  8.4456e-24  7.8485e-23  1.4128e-23  1.0095e-22  2.4425e-23  1.4075e-22  4.3334e-23  2.1162e-22  7.8843e-23
      2.55  4.6542e-23  1.3984e-24  4.6546e-23  1.4002e-24  4.6554e-23  1.4036e-24  4.6566e-23  1.4094e-24  4.6589e-23  1.4199e-24  4.6630e-23  1.4385e-24  4.6702e-23  1.4717e-24  4.6831e-23  1.5306e-24  4.7059e-23  1.6353e-24  4.7465e-23  1.8217e-24  4.8187e-23  2.1533e-24  4.9469e-23  2.7437e-24  5.1744e-23  3.7955e-24  5.5775e-23  5.6726e-24  6.2906e-23  9.0309e-24  7.5498e-23  1.5067e-23  9.7704e-23  2.6003e-23  1.3702e-22  4.6084e-23  2.0705e-22  8.3781e-23
      2.60  4.4056e-23  1.5513e-24  4.4060e-23  1.5533e-24  4.4067e-23  1.5568e-24  4.4080e-23  1.5630e-24  4.4102e-23  1.5741e-24  4.4143e-23  1.5939e-24  4.4214e-23  1.6290e-24  4.4341e-23  1.6914e-24  4.4567e-23  1.8024e-24  4.4968e-23  2.0000e-24  4.5681e-23  2.3515e-24  4.6948e-23  2.9773e-24  4.9196e-23  4.0922e-24  5.3180e-23  6.0816e-24  6.0230e-23  9.6409e-24  7.2681e-23  1.6038e-23  9.4644e-23  2.7625e-23  1.3352e-22  4.8897e-23  2.0276e-22  8.8816e-23
      2.65  4.1709e-23  1.7221e-24  4.1713e-23  1.7242e-24  4.1720e-23  1.7279e-24  4.1732e-23  1.7345e-24  4.1755e-23  1.7463e-24  4.1794e-23  1.7672e-24  4.1865e-23  1.8043e-24  4.1991e-23  1.8703e-24  4.2214e-23  1.9878e-24  4.2611e-23  2.1968e-24  4.3316e-23  2.5686e-24  4.4568e-23  3.2305e-24  4.6791e-23  4.4097e-24  5.0732e-23  6.5140e-24  5.7707e-23  1.0278e-23  7.0027e-23  1.7043e-23  9.1765e-23  2.9294e-23  1.3022e-22  5.1778e-23  1.9876e-22  9.3956e-23
      2.70  3.9491e-23  1.9131e-24  3.9495e-23  1.9153e-24  3.9502e-23  1.9192e-24  3.9514e-23  1.9262e-24  3.9537e-23  1.9386e-24  3.9576e-23  1.9606e-24  3.9646e-23  1.9998e-24  3.9770e-23  2.0695e-24  3.9991e-23  2.1935e-24  4.0383e-23  2.4141e-24  4.1081e-23  2.8066e-24  4.2320e-23  3.5053e-24  4.4520e-23  4.7501e-24  4.8420e-23  6.9712e-24  5.5324e-23  1.0944e-23  6.7524e-23  1.8083e-23  8.9054e-23  3.1010e-23  1.2713e-22  5.4726e-23  1.9500e-22  9.9193e-23
      2.75  3.7394e-23  2.1265e-24  3.7398e-23  2.1288e-24  3.7405e-23  2.1330e-24  3.7417e-23  2.1403e-24  3.7439e-23  2.1534e-24  3.7478e-23  2.1766e-24  3.7547e-23  2.2179e-24  3.7670e-23  2.2913e-24  3.7889e-23  2.4219e-24  3.8277e-23  2.6543e-24  3.8968e-23  3.0677e-24  4.0195e-23  3.8037e-24  4.2373e-23  5.1149e-24  4.6236e-23  7.4542e-24  5.3074e-23  1.1639e-23  6.5161e-23  1.9156e-23  8.6499e-23  3.2765e-23  1.2422e-22  5.7726e-23  1.9149e-22  1.0450e-22
      2.80  3.5410e-23  2.3654e-24  3.5414e-23  2.3679e-24  3.5421e-23  2.3722e-24  3.5433e-23  2.3799e-24  3.5455e-23  2.3936e-24  3.5493e-23  2.4180e-24  3.5562e-23  2.4614e-24  3.5684e-23  2.5386e-24  3.5900e-23  2.6759e-24  3.6285e-23  2.9200e-24  3.6969e-23  3.3545e-24  3.8185e-23  4.1279e-24  4.0342e-23  5.5057e-24  4.4169e-23  7.9638e-24  5.0947e-23  1.2360e-23  6.2928e-23  2.0257e-23  8.4087e-23  3.4551e-23  1.2149e-22  6.0757e-23  1.8819e-22  1.0984e-22
      2.85  3.3531e-23  2.6327e-24  3.3535e-23  2.6352e-24  3.3542e-23  2.6398e-24  3.3554e-23  2.6479e-24  3.3575e-23  2.6622e-24  3.3614e-23  2.6878e-24  3.3681e-23  2.7333e-24  3.3802e-23  2.8142e-24  3.4017e-23  2.9581e-24  3.4398e-23  3.2140e-24  3.5076e-23  3.6693e-24  3.6280e-23  4.4799e-24  3.8419e-23  5.9239e-24  4.2212e-23  8.5000e-24  4.8931e-23  1.3107e-23  6.0814e-23  2.1381e-23  8.1804e-23  3.6354e-23  1.1892e-22  6.3795e-23  1.8508e-22  1.1516e-22
      2.90  3.1750e-23  2.9317e-24  3.1754e-23  2.9344e-24  3.1761e-23  2.9391e-24  3.1773e-23  2.9476e-24  3.1794e-23  2.9626e-24  3.1832e-23  2.9893e-24  3.1899e-23  3.0369e-24  3.2019e-23  3.1214e-24  3.2232e-23  3.2718e-24  3.2610e-23  3.5393e-24  3.3281e-23  4.0152e-24  3.4475e-23  4.8624e-24  3.6595e-23  6.3716e-24  4.0356e-23  9.0639e-24  4.7019e-23  1.3878e-23  5.8805e-23  2.2524e-23  7.9631e-23  3.8165e-23  1.1647e-22  6.6818e-23  1.8210e-22  1.2041e-22
      2.95  3.0061e-23  3.2664e-24  3.0065e-23  3.2692e-24  3.0072e-23  3.2741e-24  3.0084e-23  3.2829e-24  3.0105e-23  3.2986e-24  3.0142e-23  3.3265e-24  3.0209e-23  3.3760e-24  3.0327e-23  3.4641e-24  3.0538e-23  3.6209e-24  3.0913e-23  3.8997e-24  3.1579e-23  4.3957e-24  3.2762e-23  5.2787e-24  3.4864e-23  6.8516e-24  3.8592e-23  9.6574e-24  4.5199e-23  1.4674e-23  5.6889e-23  2.3682e-23  7.7554e-23  3.9975e-23  1.1411e-22  6.9809e-23  1.7923e-22  1.2558e-22
      3.00  2.8458e-23  3.6412e-24  2.8462e-23  3.6441e-24  2.8469e-23  3.6492e-24  2.8480e-23  3.6584e-24  2.8501e-23  3.6746e-24  2.8538e-23  3.7036e-24  2.8604e-23  3.7551e-24  2.8722e-23  3.8467e-24  2.8931e-23  4.0096e-24  2.9302e-23  4.2994e-24  2.9962e-23  4.8149e-24  3.1135e-23  5.7326e-24  3.3217e-23  7.3674e-24  3.6913e-23  1.0283e-23  4.3463e-23  1.5497e-23  5.5055e-23  2.4857e-23  7.5553e-23  4.1781e-23  1.1183e-22  7.2759e-23  1.7642e-22  1.3062e-22
      3.05  2.6936e-23  4.0612e-24  2.6939e-23  4.0642e-24  2.6946e-23  4.0695e-24  2.6958e-23  4.0790e-24  2.6978e-23  4.0959e-24  2.7015e-23  4.1259e-24  2.7080e-23  4.1793e-24  2.7197e-23  4.2742e-24  2.7404e-23  4.4431e-24  2.7771e-23  4.7435e-24  2.8425e-23  5.2779e-24  2.9587e-23  6.2292e-24  3.1650e-23  7.9237e-24  3.5311e-23  1.0946e-23  4.1802e-23  1.6349e-23  5.3291e-23  2.6049e-23  7.3613e-23  4.3582e-23  1.0959e-22  7.5662e-23  1.7363e-22  1.3555e-22
      3.10  2.5489e-23  4.5314e-24  2.5492e-23  4.5346e-24  2.5499e-23  4.5401e-24  2.5510e-23  4.5499e-24  2.5531e-23  4.5673e-24  2.5567e-23  4.5984e-24  2.5632e-23  4.6536e-24  2.5747e-23  4.7517e-24  2.5952e-23  4.9264e-24  2.6316e-23  5.2369e-24  2.6963e-23  5.7895e-24  2.8113e-23  6.7731e-24  3.0155e-23  8.5252e-24  3.3781e-23  1.1650e-23  4.0208e-23  1.7236e-23  5.1588e-23  2.7262e-23  7.1722e-23  4.5382e-23  1.0737e-22  7.8521e-23  1.7084e-22  1.4034e-22
      3.15  2.4112e-23  5.0586e-24  2.4116e-23  5.0618e-24  2.4122e-23  5.0675e-24  2.4134e-23  5.0776e-24  2.4154e-23  5.0956e-24  2.4190e-23  5.1276e-24  2.4254e-23  5.1845e-24  2.4368e-23  5.2858e-24  2.4571e-23  5.4659e-24  2.4931e-23  5.7863e-24  2.5571e-23  6.3563e-24  2.6708e-23  7.3709e-24  2.8729e-23  9.1781e-24  3.2316e-23  1.2401e-23  3.8676e-23  1.8162e-23  4.9939e-23  2.8501e-23  6.9870e-23  4.7183e-23  1.0517e-22  8.1337e-23  1.6801e-22  1.4500e-22
      3.20  2.2803e-23  5.6493e-24  2.2807e-23  5.6526e-24  2.2813e-23  5.6585e-24  2.2824e-23  5.6689e-24  2.2844e-23  5.6874e-24  2.2880e-23  5.7204e-24  2.2943e-23  5.7790e-24  2.3056e-23  5.8832e-24  2.3256e-23  6.0685e-24  2.3612e-23  6.3982e-24  2.4245e-23  6.9847e-24  2.5369e-23  8.0288e-24  2.7366e-23  9.8884e-24  3.0912e-23  1.3205e-23  3.7200e-23  1.9133e-23  4.8338e-23  2.9770e-23  6.8051e-23  4.8986e-23  1.0298e-22  8.4104e-23  1.6515e-22  1.4953e-22
      3.25  2.1557e-23  6.3112e-24  2.1560e-23  6.3146e-24  2.1566e-23  6.3206e-24  2.1578e-23  6.3313e-24  2.1597e-23  6.3503e-24  2.1632e-23  6.3842e-24  2.1695e-23  6.4443e-24  2.1806e-23  6.5513e-24  2.2004e-23  6.7415e-24  2.2355e-23  7.0799e-24  2.2980e-23  7.6820e-24  2.4091e-23  8.7537e-24  2.6064e-23  1.0662e-23  2.9566e-23  1.4067e-23  3.5778e-23  2.0151e-23  4.6782e-23  3.1067e-23  6.6264e-23  5.0784e-23  1.0079e-22  8.6807e-23  1.6226e-22  1.5388e-22
      3.30  2.0370e-23  7.0534e-24  2.0373e-23  7.0569e-24  2.0380e-23  7.0631e-24  2.0391e-23  7.0740e-24  2.0410e-23  7.0935e-24  2.0445e-23  7.1281e-24  2.0507e-23  7.1897e-24  2.0616e-23  7.2991e-24  2.0811e-23  7.4939e-24  2.1158e-23  7.8403e-24  2.1775e-23  8.4566e-24  2.2871e-23  9.5535e-24  2.4818e-23  1.1507e-23  2.8275e-23  1.4991e-23  3.4407e-23  2.1219e-23  4.5272e-23  3.2391e-23  6.4510e-23  5.2567e-23  9.8612e-23  8.9419e-23  1.5935e-22  1.5800e-22
      3.35  1.9240e-23  7.8853e-24  1.9243e-23  7.8888e-24  1.9249e-23  7.8951e-24  1.9260e-23  7.9063e-24  1.9279e-23  7.9261e-24  1.9313e-23  7.9614e-24  1.9374e-23  8.0243e-24  1.9483e-23  8.1360e-24  1.9675e-23  8.3347e-24  2.0017e-23  8.6881e-24  2.0625e-23  9.3169e-24  2.1707e-23  1.0436e-23  2.3627e-23  1.2430e-23  2.7038e-23  1.5984e-23  3.3087e-23  2.2338e-23  4.3807e-23  3.3735e-23  6.2792e-23  5.4317e-23  9.6453e-23  9.1902e-23  1.5642e-22  1.6182e-22
      3.40  1.8163e-23  8.8177e-24  1.8166e-23  8.8213e-24  1.8172e-23  8.8277e-24  1.8183e-23  8.8390e-24  1.8202e-23  8.8592e-24  1.8236e-23  8.8951e-24  1.8296e-23  8.9590e-24  1.8402e-23  9.0725e-24  1.8592e-23  9.2745e-24  1.8930e-23  9.6337e-24  1.9529e-23  1.0273e-23  2.0596e-23  1.1411e-23  2.2490e-23  1.3437e-23  2.5853e-23  1.7050e-23  3.1820e-23  2.3508e-23  4.2394e-23  3.5093e-23  6.1125e-23  5.6012e-23  9.4344e-23  9.4206e-23  1.5355e-22  1.6524e-22
      3.45  1.7137e-23  9.8629e-24  1.7140e-23  9.8666e-24  1.7146e-23  9.8730e-24  1.7157e-23  9.8845e-24  1.7175e-23  9.9050e-24  1.7209e-23  9.9413e-24  1.7268e-23  1.0006e-23  1.7373e-23  1.0121e-23  1.7560e-23  1.0325e-23  1.7893e-23  1.0689e-23  1.8484e-23  1.1336e-23  1.9535e-23  1.2488e-23  2.1403e-23  1.4540e-23  2.4719e-23  1.8198e-23  3.0603e-23  2.4736e-23  4.1032e-23  3.6465e-23  5.9509e-23  5.7643e-23  9.2285e-23  9.6306e-23  1.5072e-22  1.6819e-22
      3.50  1.6159e-23  1.1035e-23  1.6163e-23  1.1038e-23  1.6168e-23  1.1045e-23  1.6179e-23  1.1057e-23  1.6197e-23  1.1077e-23  1.6230e-23  1.1114e-23  1.6288e-23  1.1179e-23  1.6392e-23  1.1295e-23  1.6577e-23  1.1501e-23  1.6904e-23  1.1868e-23  1.7487e-23  1.2520e-23  1.8524e-23  1.3682e-23  2.0365e-23  1.5751e-23  2.3634e-23  1.9440e-23  2.9436e-23  2.6033e-23  3.9720e-23  3.7860e-23  5.7944e-23  5.9216e-23  9.0280e-23  9.8201e-23  1.4795e-22  1.7067e-22
      3.55  1.5228e-23  1.2349e-23  1.5231e-23  1.2353e-23  1.5237e-23  1.2360e-23  1.5247e-23  1.2371e-23  1.5266e-23  1.2392e-23  1.5298e-23  1.2429e-23  1.5355e-23  1.2494e-23  1.5458e-23  1.2611e-23  1.5639e-23  1.2818e-23  1.5963e-23  1.3186e-23  1.6537e-23  1.3842e-23  1.7559e-23  1.5009e-23  1.9374e-23  1.7088e-23  2.2597e-23  2.0794e-23  2.8317e-23  2.7419e-23  3.8458e-23  3.9303e-23  5.6432e-23  6.0761e-23  8.8335e-23  9.9933e-23  1.4526e-22  1.7274e-22
      3.60  1.4341e-23  1.3824e-23  1.4344e-23  1.3827e-23  1.4350e-23  1.3834e-23  1.4360e-23  1.3845e-23  1.4378e-23  1.3866e-23  1.4410e-23  1.3903e-23  1.4467e-23  1.3969e-23  1.4567e-23  1.4085e-23  1.4747e-23  1.4293e-23  1.5065e-23  1.4662e-23  1.5632e-23  1.5319e-23  1.6639e-23  1.6489e-23  1.8428e-23  1.8571e-23  2.1606e-23  2.2285e-23  2.7245e-23  2.8923e-23  3.7245e-23  4.0832e-23  5.4974e-23  6.2336e-23  8.6452e-23  1.0159e-22  1.4264e-22  1.7456e-22
      3.65  1.3497e-23  1.5477e-23  1.3500e-23  1.5480e-23  1.3505e-23  1.5487e-23  1.3515e-23  1.5499e-23  1.3533e-23  1.5519e-23  1.3564e-23  1.5556e-23  1.3620e-23  1.5622e-23  1.3720e-23  1.5739e-23  1.3896e-23  1.5947e-23  1.4210e-23  1.6316e-23  1.4769e-23  1.6974e-23  1.5761e-23  1.8144e-23  1.7525e-23  2.0228e-23  2.0658e-23  2.3945e-23  2.6218e-23  3.0589e-23  3.6079e-23  4.2508e-23  5.3566e-23  6.4033e-23  8.4626e-23  1.0334e-22  1.4010e-22  1.7639e-22
      3.70  1.2693e-23  1.7331e-23  1.2696e-23  1.7334e-23  1.2701e-23  1.7341e-23  1.2711e-23  1.7353e-23  1.2729e-23  1.7373e-23  1.2760e-23  1.7410e-23  1.2815e-23  1.7476e-23  1.2913e-23  1.7593e-23  1.3087e-23  1.7801e-23  1.3396e-23  1.8171e-23  1.3947e-23  1.8830e-23  1.4925e-23  2.0001e-23  1.6664e-23  2.2089e-23  1.9752e-23  2.5811e-23  2.5234e-23  3.2465e-23  3.4957e-23  4.4405e-23  5.2205e-23  6.5969e-23  8.2853e-23  1.0535e-22  1.3762e-22  1.7858e-22
      3.75  1.1928e-23  1.9410e-23  1.1931e-23  1.9414e-23  1.1936e-23  1.9420e-23  1.1946e-23  1.9432e-23  1.1963e-23  1.9453e-23  1.1994e-23  1.9490e-23  1.2048e-23  1.9556e-23  1.2145e-23  1.9674e-23  1.2316e-23  1.9883e-23  1.2621e-23  2.0254e-23  1.3164e-23  2.0915e-23  1.4128e-23  2.2092e-23  1.5842e-23  2.4188e-23  1.8886e-23  2.7926e-23  2.4290e-23  3.4609e-23  3.3877e-23  4.6601e-23  5.0888e-23  6.8267e-23  8.1128e-23  1.0785e-22  1.3519e-22  1.8150e-22
      3.80  1.1201e-23  2.1744e-23  1.1204e-23  2.1747e-23  1.1209e-23  2.1754e-23  1.1219e-23  2.1766e-23  1.1235e-23  2.1787e-23  1.1266e-23  2.1824e-23  1.1319e-23  2.1891e-23  1.1414e-23  2.2010e-23  1.1583e-23  2.2220e-23  1.1884e-23  2.2595e-23  1.2419e-23  2.3262e-23  1.3369e-23  2.4450e-23  1.5058e-23  2.6565e-23  1.8058e-23  3.0338e-23  2.3385e-23  3.7084e-23  3.2837e-23  4.9193e-23  4.9611e-23  7.1078e-23  7.9443e-23  1.1109e-22  1.3281e-22  1.8560e-22
      3.85  1.0510e-23  2.4361e-23  1.0513e-23  2.4365e-23  1.0518e-23  2.4372e-23  1.0527e-23  2.4384e-23  1.0544e-23  2.4405e-23  1.0573e-23  2.4443e-23  1.0626e-23  2.4511e-23  1.0720e-23  2.4631e-23  1.0887e-23  2.4845e-23  1.1183e-23  2.5226e-23  1.1710e-23  2.5904e-23  1.2646e-23  2.7111e-23  1.4310e-23  2.9261e-23  1.7267e-23  3.3096e-23  2.2516e-23  3.9955e-23  3.1833e-23  5.2269e-23  4.8371e-23  7.4538e-23  7.7794e-23  1.1529e-22  1.3046e-22  1.9129e-22
      3.90  9.8532e-24  2.7297e-23  9.8561e-24  2.7301e-23  9.8613e-24  2.7308e-23  9.8705e-24  2.7320e-23  9.8870e-24  2.7342e-23  9.9161e-24  2.7381e-23  9.9681e-24  2.7450e-23  1.0060e-23  2.7574e-23  1.0225e-23  2.7793e-23  1.0516e-23  2.8184e-23  1.1035e-23  2.8879e-23  1.1958e-23  3.0116e-23  1.3598e-23  3.2320e-23  1.6510e-23  3.6253e-23  2.1683e-23  4.3286e-23  3.0863e-23  5.5922e-23  4.7164e-23  7.8788e-23  7.6174e-23  1.2068e-22  1.2813e-22  1.9897e-22
      3.95  9.2302e-24  3.0590e-23  9.2331e-24  3.0594e-23  9.2382e-24  3.0601e-23  9.2473e-24  3.0614e-23  9.2635e-24  3.0637e-23  9.2923e-24  3.0677e-23  9.3434e-24  3.0749e-23  9.4343e-24  3.0877e-23  9.5960e-24  3.1104e-23  9.8835e-24  3.1509e-23  1.0395e-23  3.2228e-23  1.1303e-23  3.3509e-23  1.2918e-23  3.5792e-23  1.5787e-23  3.9865e-23  2.0882e-23  4.7152e-23  2.9926e-23  6.0251e-23  4.5987e-23  8.3978e-23  7.4581e-23  1.2752e-22  1.2581e-22  2.0909e-22
