# This was generated using Cloudy10 and the columns are ordered 
# as log10 of the fraction of the metallicity to the solar metallicity
# 'h_*_Z' and 'c_*_Z' stands for cooling and heating respectively 
# at * metalicity
#
# Redshift = 3.0
# hden = 5.5
#     temp   h_-3.00_Z   c_-3.00_Z   h_-2.75_Z   c_-2.75_Z   h_-2.50_Z   c_-2.50_Z   h_-2.25_Z   c_-2.25_Z   h_-2.00_Z   c_-2.00_Z   h_-1.75_Z   c_-1.75_Z   h_-1.50_Z   c_-1.50_Z   h_-1.25_Z   c_-1.25_Z   h_-1.00_Z   c_-1.00_Z   h_-0.75_Z   c_-0.75_Z   h_-0.50_Z   c_-0.50_Z   h_-0.25_Z   c_-0.25_Z    h_0.00_Z    c_0.00_Z    h_0.25_Z    c_0.25_Z    h_0.50_Z    c_0.50_Z    h_0.75_Z    c_0.75_Z    h_1.00_Z    c_1.00_Z    h_1.25_Z    c_1.25_Z    h_1.50_Z    c_1.50_Z 
      1.00  2.9175e-29  5.6128e-33  2.9174e-29  5.658e-33  2.9174e-29  5.7384e-33  2.9172e-29  5.8813e-33  2.917e-29  6.1354e-33  2.9166e-29  6.5873e-33  2.9159e-29  7.391e-33  2.9146e-29  8.8204e-33  2.9123e-29  1.1363e-32  2.9087e-29  1.5887e-32  2.9043e-29  2.3946e-32  2.9051e-29  3.8321e-32  2.9217e-29  6.3968e-32  2.9628e-29  1.0965e-31  3.0421e-29  1.9233e-31  3.1876e-29  3.3556e-31  3.4571e-29  5.9288e-31  3.9424e-29  1.0505e-30  4.8049e-29  1.864e-30
      1.05  2.9178e-29  6.4117e-33  2.9178e-29  6.4707e-33  2.9177e-29  6.5755e-33  2.9176e-29  6.762e-33  2.9173e-29  7.0936e-33  2.917e-29  7.6834e-33  2.9163e-29  8.7324e-33  2.915e-29  1.0599e-32  2.9129e-29  1.392e-32  2.9093e-29  1.9835e-32  2.9047e-29  3.0391e-32  2.9049e-29  4.9294e-32  2.9212e-29  8.3134e-32  2.9621e-29  1.4338e-31  3.0413e-29  2.5328e-31  3.1861e-29  4.4238e-31  3.4539e-29  7.819e-31  3.9379e-29  1.3865e-30  4.7976e-29  2.4613e-30
      1.10  2.9182e-29  7.6571e-33  2.9182e-29  7.7328e-33  2.9181e-29  7.8674e-33  2.918e-29  8.1069e-33  2.9178e-29  8.5326e-33  2.9174e-29   9.29e-33  2.9167e-29  1.0637e-32  2.9155e-29  1.3035e-32  2.9133e-29  1.7307e-32  2.9096e-29  2.4929e-32  2.9048e-29  3.8592e-32  2.9047e-29  6.3258e-32  2.9208e-29  1.0773e-31  2.9616e-29  1.8726e-31  3.0406e-29  3.3243e-31  3.1849e-29  5.8382e-31  3.451e-29  1.0287e-30  3.9335e-29  1.8261e-30  4.7906e-29  3.2435e-30
      1.15  2.9187e-29  9.0402e-33  2.9187e-29  9.1362e-33  2.9186e-29  9.3069e-33  2.9185e-29  9.6106e-33  2.9183e-29  1.0151e-32  2.9179e-29  1.1112e-32  2.9172e-29  1.2822e-32  2.916e-29  1.5868e-32  2.9138e-29  2.1303e-32  2.9101e-29  3.1035e-32  2.905e-29  4.8616e-32  2.9044e-29  8.084e-32  2.9203e-29  1.3973e-31  2.961e-29  2.4552e-31  3.0398e-29  4.3874e-31  3.1835e-29  7.7524e-31  3.4476e-29  1.3658e-30  3.9287e-29  2.4278e-30  4.7829e-29  4.3153e-30
      1.20  2.9192e-29  1.058e-32  2.9192e-29   1.07e-32  2.9191e-29  1.0915e-32  2.919e-29  1.1296e-32  2.9188e-29  1.1975e-32  2.9184e-29  1.3182e-32  2.9177e-29  1.5333e-32  2.9165e-29  1.9168e-32  2.9143e-29  2.6029e-32  2.9106e-29  3.8381e-32  2.9053e-29  6.0981e-32  2.9042e-29  1.0344e-31  2.9199e-29  1.8277e-31  2.9604e-29  3.2625e-31  3.039e-29  5.8794e-31  3.1821e-29  1.0461e-30  3.444e-29  1.8476e-30  3.9234e-29  3.2906e-30  4.7745e-29  5.8541e-30
      1.25  2.9198e-29  1.2297e-32  2.9198e-29  1.2448e-32  2.9197e-29  1.2715e-32  2.9196e-29  1.319e-32  2.9194e-29  1.4037e-32  2.919e-29  1.5543e-32  2.9183e-29  1.823e-32  2.9171e-29  2.3029e-32  2.9149e-29  3.1645e-32  2.9111e-29  4.7281e-32  2.9055e-29  7.6418e-32  2.904e-29  1.3315e-31  2.9194e-29  2.4245e-31  2.9597e-29  4.4197e-31  3.0381e-29  8.0523e-31  3.1806e-29  1.444e-30  3.4402e-29  2.5606e-30  3.9178e-29  4.5709e-30  4.7655e-29  8.1406e-30
      1.30  2.9205e-29  1.4222e-32  2.9204e-29  1.4408e-32  2.9204e-29  1.4741e-32  2.9202e-29  1.5332e-32   2.92e-29  1.6384e-32  2.9197e-29  1.826e-32  2.919e-29  2.1607e-32  2.9178e-29  2.7602e-32  2.9156e-29  3.8416e-32  2.9117e-29  5.8241e-32  2.9058e-29  9.6059e-32  2.9038e-29  1.7311e-31  2.9189e-29  3.2719e-31  2.959e-29  6.1144e-31  3.0372e-29  1.1279e-30  3.179e-29  2.0389e-30  3.4363e-29  3.6331e-30  3.9119e-29  6.5015e-30  4.756e-29  1.1592e-29
      1.35  2.9212e-29  1.6381e-32  2.9211e-29  1.6615e-32  2.9211e-29  1.7031e-32  2.9209e-29  1.7771e-32  2.9207e-29  1.9088e-32  2.9204e-29  2.1438e-32  2.9197e-29  2.5639e-32  2.9185e-29  3.3183e-32  2.9163e-29  4.6862e-32  2.9123e-29  7.2229e-32  2.9062e-29  1.219e-31  2.9036e-29  2.2829e-31  2.9184e-29  4.4962e-31  2.9584e-29  8.6209e-31  3.0362e-29  1.6098e-30  3.1775e-29  2.9318e-30  3.4324e-29  5.2496e-30  3.9057e-29  9.4153e-30  4.7463e-29  1.6806e-29
      1.40  2.9219e-29  1.8818e-32  2.9219e-29  1.9118e-32  2.9218e-29  1.9651e-32  2.9217e-29  2.0599e-32  2.9215e-29  2.229e-32  2.9211e-29  2.5306e-32  2.9205e-29  3.0706e-32  2.9193e-29  4.0427e-32  2.9171e-29  5.8143e-32  2.913e-29  9.1344e-32  2.9066e-29  1.5795e-31  2.9035e-29  3.0736e-31  2.9179e-29  6.2961e-31  2.9577e-29  1.2352e-30  3.0353e-29  2.3304e-30  3.1759e-29  4.2657e-30  3.4286e-29  7.6768e-30  3.8995e-29  1.3791e-29  4.7365e-29  2.4638e-29
      1.45  2.9227e-29  2.1591e-32  2.9227e-29  2.1995e-32  2.9226e-29  2.2713e-32  2.9225e-29  2.3993e-32  2.9223e-29  2.6272e-32  2.922e-29  3.0342e-32  2.9213e-29  3.7632e-32  2.9201e-29  5.0777e-32  2.9179e-29  7.4807e-32  2.9137e-29  1.2013e-31  2.9071e-29  2.1248e-31  2.9033e-29  4.2657e-31  2.9174e-29  9.0073e-31  2.957e-29  1.7966e-30  3.0343e-29  3.413e-30  3.1743e-29  6.2728e-30  3.4249e-29  1.132e-29  3.8932e-29  2.035e-29  4.7267e-29  3.6377e-29
      1.50  2.9236e-29  2.4793e-32  2.9236e-29  2.5381e-32  2.9235e-29  2.6427e-32  2.9234e-29  2.8289e-32  2.9232e-29  3.1607e-32  2.9228e-29  3.7531e-32  2.9222e-29  4.814e-32  2.921e-29  6.7267e-32  2.9187e-29  1.0222e-31  2.9145e-29  1.6812e-31  2.9075e-29  3.0253e-31  2.9031e-29  6.1726e-31  2.9169e-29  1.3229e-30  2.9562e-29  2.6583e-30  3.0333e-29  5.0622e-30  3.1728e-29  9.3184e-30  3.4214e-29  1.6839e-29  3.887e-29  3.0265e-29  4.7171e-29  5.4109e-29
      1.55  2.9245e-29  2.8584e-32  2.9245e-29  2.9518e-32  2.9244e-29  3.1179e-32  2.9243e-29  3.4137e-32  2.9241e-29  3.9406e-32  2.9238e-29  4.8808e-32  2.9231e-29  6.5629e-32  2.9219e-29  9.5895e-32  2.9196e-29  1.5099e-31  2.9154e-29  2.541e-31  2.9081e-29  4.6133e-31  2.9031e-29  9.3873e-31  2.9164e-29  2.0038e-30  2.9556e-29  4.015e-30  3.0325e-29  7.6266e-30  3.1713e-29  1.4024e-29  3.4188e-29  2.5347e-29  3.8809e-29  4.5491e-29  4.7079e-29  8.131e-29
      1.60  2.9255e-29  3.3189e-32  2.9255e-29  3.4774e-32  2.9254e-29  3.7594e-32  2.9253e-29  4.2611e-32  2.9251e-29  5.1547e-32  2.9248e-29  6.7477e-32  2.9241e-29  9.5937e-32  2.9229e-29   1.47e-31  2.9206e-29  2.3947e-31  2.9163e-29  4.1058e-31  2.9087e-29  7.4641e-31  2.903e-29  1.4927e-30  2.916e-29  3.125e-30  2.955e-29  6.1905e-30  3.0316e-29  1.1675e-29   3.17e-29  2.1415e-29  3.4164e-29  3.8658e-29  3.8749e-29  6.9247e-29  4.6991e-29  1.2369e-28
      1.65  2.9266e-29  3.8975e-32  2.9265e-29  4.1754e-32  2.9265e-29  4.6699e-32  2.9264e-29  5.5496e-32  2.9262e-29  7.1156e-32  2.9258e-29  9.9052e-32  2.9252e-29  1.4882e-31  2.924e-29  2.3789e-31  2.9217e-29  3.9832e-31  2.9172e-29  6.919e-31  2.9094e-29  1.2536e-30  2.903e-29  2.4468e-30  2.9156e-29  4.9794e-30  2.9545e-29  9.6985e-30  3.0309e-29  1.8126e-29  3.1687e-29  3.3093e-29  3.4141e-29  5.9611e-29  3.8691e-29  1.0656e-28  4.6907e-29  1.9015e-28
      1.70  2.9277e-29  4.6484e-32  2.9276e-29  5.1375e-32  2.9276e-29  6.0074e-32  2.9275e-29  7.5549e-32  2.9273e-29  1.0309e-31  2.9269e-29  1.5211e-31  2.9263e-29  2.3948e-31  2.9251e-29  3.9549e-31  2.9228e-29  6.7531e-31  2.9183e-29  1.1826e-30  2.9102e-29  2.1317e-30  2.903e-29  4.0586e-30  2.9153e-29  8.0076e-30  2.9539e-29  1.5289e-29  3.0301e-29  2.8304e-29  3.1676e-29  5.1397e-29  3.4121e-29  9.2343e-29  3.8634e-29  1.6473e-28  4.6828e-29  2.9361e-28
      1.75  2.9288e-29  5.6497e-32  2.9288e-29  6.4963e-32  2.9287e-29  8.002e-32  2.9286e-29  1.068e-31  2.9284e-29  1.5444e-31  2.9281e-29  2.3923e-31  2.9274e-29  3.9019e-31  2.9262e-29  6.5935e-31  2.9239e-29  1.1405e-30  2.9193e-29  2.0067e-30  2.911e-29  3.5984e-30  2.9031e-29  6.7004e-30  2.9149e-29  1.2832e-29  2.9535e-29  2.4035e-29  3.0295e-29  4.4025e-29  3.1665e-29  7.9505e-29  3.4103e-29  1.4245e-28  3.8579e-29  2.5367e-28  4.6753e-29  4.5154e-28
      1.80   2.93e-29  7.0105e-32   2.93e-29  8.437e-32  2.9299e-29  1.0974e-31  2.9298e-29  1.5486e-31  2.9296e-29  2.3511e-31  2.9293e-29  3.7788e-31  2.9287e-29  6.3194e-31  2.9274e-29  1.0844e-30  2.9251e-29  1.8913e-30  2.9205e-29  3.3361e-30  2.9118e-29  5.9545e-30  2.9032e-29  1.0881e-29  2.9146e-29  2.0264e-29  2.953e-29  3.7294e-29  3.0289e-29  6.7616e-29  3.1656e-29  1.2146e-28  3.4087e-29  2.1703e-28  3.8525e-29  3.8594e-28  4.6682e-29  6.8602e-28
      1.85  2.9313e-29  8.8658e-32  2.9313e-29  1.1194e-31  2.9312e-29  1.5335e-31  2.9311e-29  2.2698e-31  2.9309e-29  3.5793e-31  2.9306e-29  5.9084e-31  2.9299e-29  1.0051e-30  2.9287e-29  1.7422e-30  2.9264e-29  3.0547e-30  2.9217e-29  5.3953e-30  2.9127e-29  9.5926e-30  2.9033e-29  1.7259e-29  2.9143e-29  3.1371e-29  2.9526e-29  5.6743e-29  3.0283e-29  1.0189e-28  3.1647e-29  1.8208e-28  3.4072e-29  3.2451e-28  3.8473e-29  5.7649e-28  4.6615e-29  1.0234e-27
      1.90  2.9326e-29  1.1384e-31  2.9326e-29  1.5058e-31  2.9325e-29  2.1592e-31  2.9324e-29  3.321e-31  2.9322e-29  5.387e-31  2.9319e-29  9.061e-31  2.9312e-29  1.5594e-30   2.93e-29  2.7211e-30  2.9275e-29  4.7868e-30  2.9227e-29  8.4601e-30  2.9133e-29  1.4994e-29  2.9033e-29  2.6615e-29  2.914e-29  4.7375e-29  2.9522e-29  8.4323e-29  3.0279e-29  1.5003e-28  3.164e-29  2.6683e-28  3.4059e-29  4.7434e-28  3.8431e-29  8.4189e-28  4.6563e-29  1.4934e-27
      1.95  2.934e-29  1.4751e-31  2.9339e-29  2.0351e-31  2.9339e-29  3.0307e-31  2.9337e-29  4.8012e-31  2.9335e-29  7.9493e-31  2.933e-29  1.3547e-30  2.9322e-29  2.3497e-30  2.9307e-29  4.1181e-30  2.9278e-29  7.2591e-30  2.9223e-29  1.283e-29  2.912e-29  2.2669e-29  2.9024e-29  3.9789e-29  2.9139e-29  6.9523e-29  2.952e-29  1.2204e-28  3.0277e-29  2.1539e-28  3.1635e-29  3.8128e-28  3.405e-29  6.7588e-28  3.8435e-29  1.1973e-27  4.6567e-29  2.1261e-27
      2.00  2.9354e-29  1.9172e-31  2.9354e-29  2.7423e-31  2.9353e-29  4.2095e-31  2.9352e-29  6.8183e-31  2.9349e-29  1.1457e-30  2.9345e-29  1.9703e-30  2.9336e-29  3.4359e-30  2.9321e-29  6.0397e-30  2.9291e-29  1.0661e-29  2.9234e-29  1.8841e-29  2.9128e-29  3.318e-29  2.9024e-29  5.7745e-29  2.9136e-29  9.9286e-29  2.9517e-29  1.7217e-28  3.0273e-29  3.0165e-28  3.1629e-29  5.3184e-28  3.404e-29  9.4067e-28  3.8396e-29  1.665e-27  4.652e-29  2.959e-27
      2.05  2.9369e-29  2.4852e-31  2.9369e-29  3.6624e-31  2.9368e-29  5.7555e-31  2.9367e-29  9.4772e-31  2.9364e-29  1.6094e-30  2.936e-29  2.7857e-30  2.9352e-29  4.8762e-30  2.9336e-29  8.5891e-30  2.9307e-29  1.5175e-29  2.925e-29  2.6821e-29  2.9141e-29  4.7165e-29  2.9027e-29  8.1493e-29  2.9134e-29  1.3815e-28  2.9513e-29  2.3689e-28  3.0269e-29  4.1234e-28  3.1623e-29  7.2441e-28  3.403e-29  1.2789e-27  3.8351e-29  2.2622e-27  4.6464e-29  4.0266e-27
      2.10  2.9385e-29  3.1953e-31  2.9384e-29  4.8228e-31  2.9383e-29  7.7167e-31  2.9382e-29  1.2862e-30  2.938e-29  2.2011e-30  2.9375e-29  3.8273e-30  2.9368e-29  6.7173e-30  2.9353e-29  1.185e-29  2.9324e-29  2.0951e-29  2.9266e-29  3.7033e-29  2.9155e-29  6.5069e-29  2.903e-29  1.1184e-28  2.9131e-29  1.8732e-28  2.951e-29  3.1811e-28  3.0265e-29  5.5056e-28  3.1618e-29  9.6429e-28  3.4022e-29  1.6998e-27  3.831e-29  3.0053e-27  4.641e-29  5.3618e-27
      2.15  2.9401e-29  4.0593e-31   2.94e-29  6.2431e-31  2.9399e-29  1.0126e-30  2.9398e-29  1.7031e-30  2.9396e-29  2.9306e-30  2.9392e-29  5.1128e-30  2.9384e-29  8.9905e-30  2.9369e-29  1.5877e-29  2.9341e-29  2.8088e-29  2.9283e-29  4.9658e-29  2.9169e-29  8.7222e-29  2.9034e-29  1.4939e-28  2.9129e-29  2.4777e-28  2.9508e-29  4.1734e-28  3.0262e-29  7.1886e-28  3.1613e-29  1.256e-27  3.4015e-29  2.2113e-27  3.8291e-29  3.9085e-27  4.6357e-29  6.9939e-27
      2.20  2.9417e-29  5.0834e-31  2.9417e-29  7.9321e-31  2.9416e-29  1.2998e-30  2.9415e-29  2.2005e-30  2.9413e-29  3.8019e-30  2.9408e-29  6.6486e-30  2.9401e-29  1.1707e-29  2.9386e-29  2.0692e-29  2.9358e-29  3.6624e-29   2.93e-29  6.4719e-29  2.9184e-29  1.1377e-28  2.9038e-29  1.9445e-28  2.9127e-29  3.2006e-28  2.9505e-29  5.3555e-28  3.0258e-29  9.1901e-28  3.1609e-29  1.6026e-27  3.4009e-29  2.8195e-27  3.8279e-29  4.9833e-27  4.6304e-29  8.9456e-27
      2.25  2.9434e-29  6.267e-31  2.9434e-29  9.8868e-31  2.9433e-29  1.6323e-30  2.9432e-29  2.7769e-30  2.943e-29  4.8118e-30  2.9426e-29  8.4292e-30  2.9418e-29  1.4858e-29  2.9404e-29  2.6277e-29  2.9376e-29  4.653e-29  2.9318e-29  8.2257e-29  2.9199e-29  1.4464e-28  2.9043e-29  2.4701e-28  2.9125e-29  4.0427e-28  2.9503e-29  6.7309e-28  3.0256e-29  1.1518e-27  3.1606e-29  2.006e-27  3.4004e-29  3.5277e-27  3.8269e-29  6.2364e-27  4.6252e-29  1.1229e-26
      2.30  2.9452e-29  7.606e-31  2.9452e-29  1.2096e-30  2.9451e-29  2.0079e-30  2.945e-29  3.4275e-30  2.9448e-29  5.9515e-30  2.9444e-29  1.0439e-29  2.9436e-29  1.8414e-29  2.9422e-29  3.2582e-29  2.9394e-29  5.7716e-29  2.9336e-29  1.0208e-28  2.9215e-29  1.7959e-28  2.9048e-29  3.0674e-28  2.9123e-29  5.0007e-28  2.9501e-29  8.2963e-28  3.0253e-29  1.417e-27  3.1603e-29  2.466e-27  3.3999e-29  4.3363e-27  3.8261e-29  7.6693e-27   4.62e-29  1.3843e-26
      2.35  2.947e-29  9.0886e-31  2.947e-29  1.4536e-30  2.9469e-29  2.4222e-30  2.9468e-29  4.1447e-30  2.9466e-29  7.2073e-30  2.9462e-29  1.2652e-29  2.9455e-29  2.2331e-29  2.9441e-29  3.9528e-29  2.9413e-29  7.0046e-29  2.9355e-29  1.2394e-28  2.9231e-29  2.1822e-28  2.9053e-29  3.7303e-28  2.9122e-29  6.0674e-28  2.9499e-29  1.0043e-27  3.025e-29  1.7134e-27   3.16e-29  2.9809e-27  3.3995e-29  5.2427e-27  3.8254e-29  9.2784e-27  4.6146e-29  1.6771e-26
      2.40  2.9489e-29  1.0691e-30  2.9489e-29  1.7161e-30  2.9488e-29  2.8668e-30  2.9487e-29  4.9129e-30  2.9485e-29  8.5511e-30  2.9481e-29  1.502e-29  2.9474e-29  2.6521e-29  2.946e-29  4.6958e-29  2.9433e-29  8.324e-29  2.9374e-29  1.4736e-28  2.9248e-29  2.5965e-28  2.9059e-29  4.4448e-28  2.912e-29  7.2208e-28  2.9498e-29  1.1936e-27  3.0248e-29  2.0354e-27  3.1597e-29  3.5411e-27  3.3992e-29  6.2303e-27  3.8249e-29  1.1035e-26  4.609e-29  1.9946e-26
      2.45  2.9508e-29  1.2382e-30  2.9508e-29  1.9914e-30  2.9507e-29  3.3308e-30  2.9506e-29  5.7126e-30  2.9504e-29  9.9482e-30  2.9501e-29  1.748e-29  2.9494e-29  3.0871e-29  2.948e-29  5.4674e-29  2.9453e-29  9.6948e-29  2.9394e-29  1.7171e-28  2.9266e-29  3.0282e-28  2.9066e-29  5.1924e-28  2.9119e-29  8.4317e-28  2.9496e-29  1.3927e-27  3.0246e-29  2.3748e-27  3.1595e-29  4.1325e-27  3.3989e-29  7.2746e-27  3.8244e-29  1.2896e-26  4.603e-29  2.3275e-26
      2.50  2.9528e-29  1.417e-30  2.9528e-29  2.2804e-30  2.9527e-29  3.8157e-30  2.9526e-29  6.546e-30  2.9524e-29  1.1401e-29  2.9521e-29  2.0036e-29  2.9514e-29  3.5391e-29   2.95e-29  6.2692e-29  2.9473e-29  1.112e-28  2.9414e-29  1.9704e-28  2.9284e-29  3.4781e-28  2.9072e-29  5.9757e-28  2.9118e-29  9.7077e-28  2.9495e-29  1.6034e-27  3.0244e-29  2.7349e-27  3.1593e-29  4.7615e-27  3.3986e-29  8.3872e-27  3.824e-29  1.4883e-26  4.5967e-29  2.6786e-26
      2.55  2.9549e-29  1.6049e-30  2.9548e-29  2.581e-30  2.9548e-29  4.3169e-30  2.9547e-29  7.4039e-30  2.9545e-29  1.2894e-29  2.9541e-29  2.2658e-29  2.9535e-29  4.0025e-29  2.9521e-29  7.091e-29  2.9494e-29  1.2581e-28  2.9435e-29  2.2303e-28  2.9302e-29  3.9406e-28  2.908e-29  6.7847e-28  2.9116e-29  1.1034e-27  2.9494e-29  1.8234e-27  3.0242e-29  3.1121e-27  3.159e-29  5.4214e-27  3.3984e-29  9.5563e-27  3.8237e-29  1.6974e-26  4.5903e-29  3.047e-26
      2.60  2.957e-29  1.8004e-30  2.9569e-29  2.8906e-30  2.9569e-29  4.8292e-30  2.9568e-29  8.2769e-30  2.9566e-29  1.4409e-29  2.9562e-29  2.5316e-29  2.9556e-29  4.4717e-29  2.9543e-29  7.9233e-29  2.9516e-29  1.4061e-28  2.9456e-29  2.4939e-28  2.9321e-29  4.4103e-28  2.9088e-29  7.6104e-28  2.9116e-29  1.2395e-27  2.9494e-29  2.0502e-27  3.024e-29  3.5019e-27  3.1588e-29  6.1049e-27  3.3981e-29  1.0769e-26  3.8233e-29  1.9146e-26  4.5844e-29  3.4343e-26
      2.65  2.9591e-29  2.0034e-30  2.9591e-29  3.2079e-30  2.959e-29  5.3499e-30  2.9589e-29  9.1595e-30  2.9588e-29  1.5935e-29  2.9584e-29  2.7989e-29  2.9578e-29  4.9434e-29  2.9565e-29  8.7596e-29  2.9538e-29  1.5549e-28  2.9478e-29  2.759e-28  2.9341e-29  4.8836e-28  2.9097e-29  8.4464e-28  2.9115e-29  1.3783e-27  2.9494e-29  2.2822e-27  3.0237e-29  3.9018e-27  3.1586e-29  6.807e-27  3.3979e-29  1.2016e-26  3.823e-29  2.1383e-26  4.5802e-29  3.8376e-26
      2.70  2.9613e-29  2.2137e-30  2.9613e-29  3.532e-30  2.9613e-29  5.8765e-30  2.9611e-29  1.0046e-29  2.961e-29  1.7463e-29  2.9606e-29  3.0658e-29   2.96e-29  5.4139e-29  2.9587e-29  9.5936e-29  2.956e-29  1.7033e-28   2.95e-29  3.0235e-28  2.9361e-29  5.3564e-28  2.9106e-29  9.2846e-28  2.9115e-29  1.5183e-27  2.9494e-29  2.5175e-27  3.0235e-29  4.3084e-27  3.1584e-29  7.522e-27  3.3976e-29  1.3287e-26  3.8227e-29  2.3664e-26  4.5794e-29  4.2513e-26
      2.75  2.9636e-29  2.4306e-30  2.9636e-29  3.8607e-30  2.9635e-29  6.4041e-30  2.9634e-29  1.0928e-29  2.9632e-29  1.8975e-29  2.9628e-29  3.3292e-29  2.9621e-29  5.8773e-29  2.9606e-29  1.0414e-28  2.9577e-29  1.8492e-28  2.9513e-29  3.2832e-28  2.9366e-29  5.8188e-28  2.9104e-29  1.009e-27  2.9116e-29  1.6543e-27  2.9497e-29  2.7515e-27  3.0239e-29  4.7174e-27  3.1582e-29  8.2443e-27  3.3974e-29  1.4574e-26  3.8225e-29  2.5977e-26  4.5789e-29  4.6716e-26
      2.80  2.9659e-29  2.657e-30  2.9659e-29  4.1973e-30  2.9658e-29  6.9368e-30  2.9657e-29  1.1809e-29  2.9654e-29  2.0477e-29  2.965e-29  3.5901e-29  2.9642e-29  6.3355e-29  2.9626e-29  1.1225e-28  2.9594e-29  1.9934e-28  2.9524e-29  3.5427e-28  2.9369e-29  6.2753e-28   2.91e-29  1.0883e-27  2.9118e-29  1.7895e-27  2.9501e-29  2.9862e-27  3.0246e-29  5.129e-27  3.1585e-29  8.9722e-27  3.3971e-29  1.5871e-26  3.8222e-29  2.831e-26  4.5784e-29  5.0965e-26
      2.85  2.9682e-29  2.8936e-30  2.9682e-29  4.5426e-30  2.9681e-29  7.4754e-30  2.968e-29  1.2692e-29  2.9677e-29  2.1972e-29  2.9672e-29  3.8487e-29  2.9663e-29  6.7887e-29  2.9646e-29  1.2026e-28  2.961e-29  2.1356e-28  2.9536e-29  3.7963e-28  2.9372e-29  6.7259e-28  2.9098e-29  1.1667e-27  2.9121e-29  1.9242e-27  2.9507e-29  3.2214e-27  3.0256e-29  5.5425e-27  3.1603e-29  9.7041e-27  3.3994e-29  1.7176e-26  3.8229e-29  3.0657e-26  4.578e-29  5.524e-26
      2.90  2.9706e-29  3.1426e-30  2.9706e-29  4.8989e-30  2.9705e-29  8.0226e-30  2.9703e-29  1.3579e-29   2.97e-29  2.3464e-29  2.9695e-29  4.1056e-29  2.9685e-29  7.2378e-29  2.9666e-29  1.2818e-28  2.9627e-29  2.2763e-28  2.9547e-29  4.047e-28  2.9376e-29  7.1715e-28  2.9097e-29  1.2446e-27  2.9126e-29  2.0592e-27  2.9514e-29  3.4578e-27  3.027e-29  5.9583e-27  3.1628e-29  1.044e-26  3.4036e-29  1.8486e-26  3.8289e-29  3.301e-26  4.5802e-29  5.9525e-26
      2.95  2.9731e-29  3.4063e-30  2.973e-29  5.2688e-30  2.9729e-29  8.5815e-30  2.9728e-29  1.4474e-29  2.9724e-29  2.4957e-29  2.9718e-29  4.3615e-29  2.9707e-29  7.6838e-29  2.9686e-29  1.3603e-28  2.9645e-29  2.4156e-28  2.9561e-29  4.295e-28  2.9383e-29  7.6129e-28   2.91e-29  1.3224e-27  2.9131e-29  2.1953e-27  2.9524e-29  3.6961e-27  3.0289e-29  6.3769e-27  3.1662e-29  1.1179e-26  3.4093e-29  1.9801e-26  3.8372e-29  3.5369e-26  4.5878e-29  6.3813e-26
      3.00  2.9756e-29  3.6874e-30  2.9755e-29  5.6553e-30  2.9754e-29  9.1553e-30  2.9752e-29  1.5381e-29  2.9749e-29  2.6458e-29  2.9742e-29  4.6171e-29  2.973e-29  8.1276e-29  2.9708e-29  1.4383e-28  2.9665e-29  2.5536e-28  2.9577e-29  4.5407e-28  2.9394e-29  8.0509e-28  2.9108e-29  1.4007e-27  2.9139e-29  2.3334e-27  2.9537e-29  3.9375e-27  3.0313e-29  6.7996e-27  3.1706e-29  1.1924e-26  3.4168e-29  2.1122e-26  3.8484e-29  3.7735e-26  4.5994e-29  6.8106e-26
      3.05  2.9781e-29  3.9902e-30  2.9781e-29  6.0615e-30  2.978e-29  9.7454e-30  2.9777e-29  1.6298e-29  2.9774e-29  2.7957e-29  2.9767e-29  4.8707e-29  2.9754e-29  8.5656e-29  2.9731e-29  1.515e-28  2.9686e-29  2.6891e-28  2.9595e-29  4.7816e-28  2.9411e-29  8.481e-28  2.9122e-29  1.4788e-27  2.9148e-29  2.4728e-27  2.9552e-29  4.1804e-27  3.0343e-29  7.2231e-27  3.1761e-29  1.2666e-26  3.4263e-29  2.2435e-26  3.8631e-29  4.008e-26  4.6158e-29  7.2349e-26
      3.10  2.9807e-29  4.3175e-30  2.9806e-29  6.4922e-30  2.9805e-29  1.036e-29  2.9803e-29  1.724e-29  2.9799e-29  2.948e-29  2.9792e-29  5.1263e-29  2.9779e-29  9.0051e-29  2.9755e-29  1.5917e-28  2.9709e-29  2.8241e-28  2.9618e-29  5.0213e-28  2.9434e-29  8.9174e-28  2.9144e-29  1.558e-27  2.916e-29  2.6164e-27  2.9569e-29  4.4299e-27  3.0376e-29  7.6559e-27  3.1825e-29  1.3421e-26  3.4378e-29  2.3764e-26  3.8813e-29  4.2445e-26  4.6374e-29  7.6617e-26
      3.15  2.9833e-29  4.6756e-30  2.9833e-29  6.9547e-30  2.9831e-29  1.1008e-29  2.9829e-29  1.8218e-29  2.9825e-29  3.1044e-29  2.9818e-29  5.3869e-29  2.9804e-29  9.4508e-29  2.978e-29  1.6691e-28  2.9734e-29  2.9601e-28  2.9644e-29  5.2619e-28  2.9465e-29  9.3488e-28  2.9174e-29  1.6387e-27  2.9172e-29  2.7657e-27  2.9586e-29  4.6892e-27  3.041e-29  8.1039e-27  3.1893e-29  1.4199e-26  3.4506e-29  2.5124e-26  3.9025e-29  4.4856e-26  4.6641e-29  8.0957e-26
      3.20  2.986e-29  5.0713e-30  2.9859e-29  7.4577e-30  2.9858e-29  1.1702e-29  2.9856e-29  1.9251e-29  2.9851e-29  3.268e-29  2.9844e-29  5.6575e-29  2.9831e-29  9.9113e-29  2.9806e-29  1.7488e-28  2.976e-29  3.0995e-28  2.9672e-29  5.5078e-28   2.95e-29  9.7887e-28  2.9214e-29  1.7215e-27  2.9185e-29  2.9228e-27   2.96e-29  4.9632e-27  3.044e-29  8.5768e-27  3.1959e-29  1.5016e-26  3.4636e-29  2.6545e-26  3.9255e-29  4.7361e-26  4.6951e-29  8.5458e-26
      3.25  2.9886e-29  5.5132e-30  2.9886e-29  8.0133e-30  2.9884e-29  1.246e-29  2.9882e-29  2.0368e-29  2.9878e-29  3.4435e-29  2.9871e-29  5.9463e-29  2.9857e-29  1.0401e-28  2.9833e-29  1.8333e-28  2.9788e-29  3.2469e-28  2.9703e-29  5.7668e-28  2.954e-29  1.025e-27  2.9262e-29  1.8079e-27  2.9198e-29  3.0906e-27  2.9608e-29  5.2584e-27  3.046e-29  9.0885e-27  3.2012e-29  1.5899e-26  3.4755e-29  2.8074e-26  3.9487e-29  5.0042e-26  4.729e-29  9.0265e-26
      3.30  2.9913e-29   6.02e-30  2.9913e-29  8.6451e-30  2.9911e-29  1.3313e-29  2.9909e-29  2.1616e-29  2.9905e-29  3.6384e-29  2.9898e-29  6.2656e-29  2.9884e-29  1.0941e-28  2.9861e-29  1.9263e-28  2.9817e-29  3.4088e-28  2.9736e-29  6.0506e-28  2.9582e-29  1.0753e-27  2.9316e-29  1.9008e-27  2.9212e-29  3.2732e-27  2.961e-29  5.5838e-27  3.0468e-29  9.6578e-27  3.2043e-29  1.6886e-26  3.4848e-29  2.978e-26   3.97e-29  5.3017e-26  4.764e-29  9.5589e-26
      3.35  2.994e-29  6.603e-30  2.9939e-29  9.3718e-30  2.9938e-29  1.4296e-29  2.9936e-29  2.3052e-29  2.9932e-29  3.8627e-29  2.9924e-29  6.6331e-29  2.9912e-29  1.1562e-28  2.9888e-29  2.0334e-28  2.9846e-29  3.5953e-28  2.9768e-29  6.3774e-28  2.9624e-29  1.1329e-27  2.9372e-29  2.0055e-27  2.9229e-29  3.478e-27  2.9605e-29  5.9524e-27  3.046e-29  1.0309e-26  3.2049e-29  1.8026e-26  3.4901e-29  3.1753e-26  3.9873e-29  5.6445e-26  4.7981e-29  1.0171e-25
      3.40  2.9966e-29  7.2792e-30  2.9965e-29  1.0218e-29  2.9964e-29  1.5443e-29  2.9962e-29  2.4736e-29  2.9958e-29  4.1263e-29  2.9951e-29  7.0659e-29  2.9938e-29  1.2295e-28  2.9916e-29  2.1599e-28  2.9875e-29  3.816e-28  2.9801e-29  6.7642e-28  2.9665e-29  1.2011e-27  2.9428e-29  2.1297e-27  2.9249e-29  3.7129e-27  2.9595e-29  6.3785e-27  3.044e-29  1.107e-26  3.2027e-29  1.9373e-26  3.491e-29  3.4103e-26  3.999e-29  6.0517e-26  4.8296e-29  1.0896e-25
      3.45  2.9992e-29  8.0703e-30  2.9991e-29  1.1214e-29  2.999e-29  1.6804e-29  2.9988e-29  2.6746e-29  2.9984e-29  4.4426e-29  2.9977e-29  7.587e-29  2.9965e-29  1.318e-28  2.9943e-29  2.3129e-28  2.9904e-29  4.0833e-28  2.9833e-29  7.2337e-28  2.9705e-29  1.2838e-27  2.9483e-29  2.2772e-27  2.9275e-29  3.9897e-27  2.9582e-29  6.8821e-27  3.041e-29  1.1972e-26  3.1983e-29  2.0988e-26  3.4874e-29  3.6949e-26  4.0042e-29  6.5455e-26  4.8569e-29  1.177e-25
      3.50  3.0017e-29  8.997e-30  3.0016e-29  1.2389e-29  3.0015e-29  1.8422e-29  3.0013e-29  2.915e-29  3.0009e-29  4.8228e-29  3.0003e-29  8.2157e-29  2.9991e-29  1.425e-28  2.997e-29  2.4983e-28  2.9933e-29  4.4076e-28  2.9865e-29  7.8042e-28  2.9745e-29  1.3845e-27  2.9536e-29  2.456e-27  2.9308e-29  4.3187e-27  2.9569e-29  7.4804e-27  3.0375e-29  1.3043e-26  3.1924e-29  2.2913e-26   3.48e-29  4.0373e-26  4.0026e-29  7.1412e-26  4.8792e-29  1.2818e-25
      3.55  3.0041e-29  1.0104e-29  3.0041e-29  1.3801e-29  3.0039e-29  2.0376e-29  3.0037e-29  3.2069e-29  3.0034e-29  5.2861e-29  3.0028e-29  8.9839e-29  3.0016e-29  1.556e-28  2.9996e-29  2.7255e-28  2.9961e-29  4.8056e-28  2.9897e-29  8.5053e-28  2.9783e-29  1.5083e-27  2.9587e-29  2.6756e-27  2.9348e-29  4.717e-27  2.9558e-29  8.2033e-27  3.034e-29  1.4333e-26  3.1859e-29  2.5228e-26  3.4703e-29  4.4509e-26  3.9955e-29  7.8629e-26  4.8963e-29  1.4075e-25
      3.60  3.0064e-29  1.1418e-29  3.0064e-29  1.5497e-29  3.0063e-29  2.275e-29  3.0061e-29  3.5649e-29  3.0058e-29  5.8586e-29  3.0052e-29  9.9376e-29  3.0041e-29  1.7191e-28  3.0022e-29  3.0091e-28  2.9988e-29  5.3032e-28  2.9928e-29  9.3826e-28  2.9822e-29  1.6635e-27  2.9638e-29  2.9507e-27  2.9395e-29  5.2111e-27  2.9553e-29  9.0974e-27  3.0312e-29  1.5925e-26  3.1804e-29  2.8068e-26  3.461e-29  4.9567e-26  3.9867e-29  8.7438e-26  4.9107e-29  1.5588e-25
      3.65  3.0087e-29  1.2992e-29  3.0086e-29  1.755e-29  3.0085e-29  2.5657e-29  3.0084e-29  4.0073e-29  3.008e-29  6.5709e-29  3.0075e-29  1.113e-28  3.0065e-29  1.9237e-28  3.0047e-29  3.3652e-28  3.0016e-29  5.9287e-28  2.996e-29  1.0487e-27  2.9861e-29  1.8588e-27  2.969e-29  3.2969e-27  2.9452e-29  5.8292e-27  2.9564e-29  1.021e-26  3.0309e-29  1.7897e-26  3.1791e-29  3.1554e-26  3.4582e-29  5.5685e-26  3.9859e-29  9.7903e-26  4.9323e-29  1.7339e-25
      3.70  3.0116e-29  1.4983e-29  3.0115e-29  2.0158e-29  3.0114e-29  2.9361e-29  3.0113e-29  4.5726e-29  3.011e-29  7.4826e-29  3.0105e-29  1.2657e-28  3.0096e-29  2.1859e-28  3.008e-29  3.8222e-28  3.0051e-29  6.7316e-28  3.0001e-29  1.1904e-27  2.9911e-29  2.1095e-27  2.9756e-29  3.7409e-27  2.953e-29  6.6172e-27  2.961e-29  1.1618e-26  3.0365e-29  2.0373e-26  3.188e-29  3.5854e-26  3.473e-29  6.299e-26  4.0126e-29  1.0975e-25  4.9815e-29  1.922e-25
      3.75  3.0146e-29  1.8523e-29  3.0146e-29  2.4535e-29  3.0145e-29  3.5224e-29  3.0144e-29  5.4234e-29  3.0141e-29  8.8037e-29  3.0137e-29  1.4815e-28  3.013e-29  2.5503e-28  3.0116e-29  4.4507e-28  3.0092e-29  7.8291e-28  3.005e-29  1.3834e-27  2.9974e-29  2.4499e-27  2.9842e-29  4.3417e-27  2.9647e-29  7.6764e-27  2.9725e-29  1.3486e-26  3.0539e-29  2.3607e-26  3.2175e-29   4.13e-26  3.5223e-29  7.1685e-26  4.0927e-29  1.2233e-25  5.0682e-29  2.1095e-25
      3.80  3.1474e-29  3.3009e-29  3.1473e-29  4.0209e-29  3.1471e-29  5.3012e-29  3.1469e-29  7.5779e-29  3.1464e-29  1.1626e-28  3.1456e-29  1.8825e-28  3.1441e-29  3.1622e-28  3.1415e-29  5.4372e-28  3.1368e-29  9.4801e-28  3.1286e-29  1.666e-27  3.1142e-29  2.9398e-27  3.0899e-29  5.1942e-27  3.0543e-29  9.1393e-27  3.0393e-29  1.6063e-26  3.1095e-29  2.7983e-26  3.2878e-29  4.8301e-26  3.625e-29  8.1719e-26  4.2376e-29  1.3414e-25  5.151e-29  2.3144e-25
      3.85  3.1549e-29  1.2376e-28  3.1549e-29  1.3271e-28  3.1548e-29  1.4862e-28  3.1546e-29  1.7691e-28  3.1543e-29  2.2723e-28  3.1537e-29  3.1667e-28  3.1527e-29  4.7567e-28  3.1509e-29  7.582e-28  3.1477e-29   1.26e-27  3.142e-29  2.1501e-27  3.1321e-29  3.726e-27  3.1154e-29  6.5049e-27  3.0923e-29  1.1358e-26  3.0907e-29  1.973e-26  3.1806e-29  3.3858e-26  3.3931e-29  5.6895e-26  3.7713e-29  9.2004e-26  4.404e-29  1.4382e-25  5.1862e-29  2.6225e-25
      3.90  3.162e-29  6.5733e-28  3.162e-29  6.6882e-28  3.162e-29  6.8926e-28  3.1619e-29  7.256e-28  3.1618e-29  7.9019e-28  3.1617e-29  9.0502e-28  3.1614e-29  1.109e-27  3.1609e-29  1.4714e-27  3.1599e-29  2.1141e-27  3.1583e-29  3.2519e-27  3.1554e-29  5.2586e-27  3.151e-29  8.7735e-27  3.1476e-29  1.484e-26  3.1703e-29  2.5096e-26  3.2859e-29  4.175e-26  3.5297e-29  6.7056e-26  3.9237e-29  1.0188e-25  4.5061e-29  1.5792e-25  5.1675e-29  3.1914e-25
      3.95  3.1674e-29  3.4062e-27  3.1675e-29  3.4215e-27  3.1676e-29  3.4487e-27  3.1677e-29  3.4971e-27  3.168e-29  3.583e-27  3.1685e-29  3.7357e-27  3.1693e-29  4.007e-27  3.1708e-29  4.4881e-27  3.1735e-29  5.3399e-27  3.1782e-29  6.8427e-27  3.1864e-29  9.4775e-27  3.201e-29  1.4032e-26  3.2286e-29  2.1779e-26  3.2893e-29  3.4434e-26  3.4306e-29  5.3838e-26  3.6805e-29  8.0767e-26  4.0396e-29  1.1582e-25  4.5252e-29  1.9157e-25  5.104e-29  4.2414e-25
