# This was generated using Cloudy10 and the columns are ordered 
# as log10 of the fraction of the metallicity to the solar metallicity
# 'h_*_Z' and 'c_*_Z' stands for cooling and heating respectively 
# at * metalicity
#
# NOTE: This was generated separately from loop_coolingcurve_w_UV.py
#       using Output_metals_w_redshift.py.
#
# Redshift = 2.0
# hden = -9.5
#
#     temp   h_-3.00_Z   c_-3.00_Z   h_-2.75_Z   c_-2.75_Z   h_-2.50_Z   c_-2.50_Z   h_-2.25_Z   c_-2.25_Z   h_-2.00_Z   c_-2.00_Z   h_-1.75_Z   c_-1.75_Z   h_-1.50_Z   c_-1.50_Z   h_-1.25_Z   c_-1.25_Z   h_-1.00_Z   c_-1.00_Z   h_-0.75_Z   c_-0.75_Z   h_-0.50_Z   c_-0.50_Z   h_-0.25_Z   c_-0.25_Z    h_0.00_Z    c_0.00_Z    h_0.25_Z    c_0.25_Z    h_0.50_Z    c_0.50_Z    h_0.75_Z    c_0.75_Z    h_1.00_Z    c_1.00_Z    h_1.25_Z    c_1.25_Z    h_1.50_Z    c_1.50_Z 
      1.00  5.9570e-21  1.6096e-23  5.9617e-21  1.6097e-23  5.9701e-21  1.6097e-23  5.9850e-21  1.6097e-23  6.0115e-21  1.6098e-23  6.0586e-21  1.6099e-23  6.1424e-21  1.6100e-23  6.2915e-21  1.6104e-23  6.5564e-21  1.6109e-23  7.0277e-21  1.6119e-23  7.8656e-21  1.6138e-23  9.3571e-21  1.6170e-23  1.2021e-20  1.6227e-23  1.6791e-20  1.6328e-23  2.5386e-20  1.6509e-23  4.1031e-20  1.6830e-23  7.0012e-20  1.7403e-23  1.2515e-19  1.8424e-23  2.3436e-19  2.0250e-23
      1.05  5.9153e-21  1.8056e-23  5.9198e-21  1.8056e-23  5.9278e-21  1.8056e-23  5.9420e-21  1.8056e-23  5.9672e-21  1.8057e-23  6.0121e-21  1.8058e-23  6.0919e-21  1.8060e-23  6.2338e-21  1.8064e-23  6.4860e-21  1.8070e-23  6.9347e-21  1.8082e-23  7.7325e-21  1.8102e-23  9.1525e-21  1.8138e-23  1.1688e-20  1.8202e-23  1.6231e-20  1.8315e-23  2.4417e-20  1.8518e-23  3.9316e-20  1.8878e-23  6.6917e-20  1.9519e-23  1.1944e-19  2.0663e-23  2.2354e-19  2.2707e-23
      1.10  5.8762e-21  2.0254e-23  5.8805e-21  2.0254e-23  5.8881e-21  2.0254e-23  5.9016e-21  2.0255e-23  5.9256e-21  2.0255e-23  5.9683e-21  2.0257e-23  6.0443e-21  2.0259e-23  6.1793e-21  2.0263e-23  6.4195e-21  2.0270e-23  6.8466e-21  2.0283e-23  7.6064e-21  2.0305e-23  8.9587e-21  2.0346e-23  1.1373e-20  2.0417e-23  1.5697e-20  2.0545e-23  2.3492e-20  2.0771e-23  3.7676e-20  2.1175e-23  6.3960e-20  2.1893e-23  1.1398e-19  2.3174e-23  2.1316e-19  2.5462e-23
      1.15  5.8396e-21  2.2720e-23  5.8436e-21  2.2720e-23  5.8508e-21  2.2720e-23  5.8637e-21  2.2720e-23  5.8866e-21  2.2721e-23  5.9272e-21  2.2723e-23  5.9995e-21  2.2725e-23  6.1281e-21  2.2730e-23  6.3567e-21  2.2738e-23  6.7633e-21  2.2752e-23  7.4866e-21  2.2777e-23  8.7743e-21  2.2822e-23  1.1072e-20  2.2903e-23  1.5190e-20  2.3045e-23  2.2611e-20  2.3299e-23  3.6116e-20  2.3751e-23  6.1136e-20  2.4556e-23  1.0877e-19  2.5990e-23  2.0322e-19  2.8553e-23
      1.20  5.8052e-21  2.5486e-23  5.8090e-21  2.5486e-23  5.8159e-21  2.5486e-23  5.8281e-21  2.5487e-23  5.8499e-21  2.5488e-23  5.8886e-21  2.5489e-23  5.9574e-21  2.5492e-23  6.0798e-21  2.5497e-23  6.2974e-21  2.5506e-23  6.6844e-21  2.5522e-23  7.3731e-21  2.5550e-23  8.5990e-21  2.5601e-23  1.0786e-20  2.5691e-23  1.4706e-20  2.5851e-23  2.1771e-20  2.6135e-23  3.4631e-20  2.6641e-23  5.8444e-20  2.7543e-23  1.0380e-19  2.9149e-23  1.9374e-19  3.2018e-23
      1.25  5.7729e-21  2.8589e-23  5.7766e-21  2.8589e-23  5.7831e-21  2.8589e-23  5.7948e-21  2.8590e-23  5.8155e-21  2.8591e-23  5.8523e-21  2.8593e-23  5.9178e-21  2.8596e-23  6.0343e-21  2.8602e-23  6.2414e-21  2.8612e-23  6.6098e-21  2.8630e-23  7.2653e-21  2.8661e-23  8.4327e-21  2.8718e-23  1.0514e-20  2.8819e-23  1.4245e-20  2.8998e-23  2.0971e-20  2.9317e-23  3.3215e-20  2.9884e-23  5.5882e-20  3.0893e-23  9.9055e-20  3.2693e-23  1.8468e-19  3.5905e-23
      1.30  5.7427e-21  3.2070e-23  5.7462e-21  3.2071e-23  5.7524e-21  3.2071e-23  5.7635e-21  3.2072e-23  5.7832e-21  3.2073e-23  5.8183e-21  3.2075e-23  5.8806e-21  3.2078e-23  5.9914e-21  3.2085e-23  6.1886e-21  3.2096e-23  6.5392e-21  3.2116e-23  7.1633e-21  3.2152e-23  8.2747e-21  3.2215e-23  1.0257e-20  3.2328e-23  1.3808e-20  3.2529e-23  2.0209e-20  3.2886e-23  3.1865e-20  3.3521e-23  5.3443e-20  3.4652e-23  9.4533e-20  3.6668e-23  1.7604e-19  4.0265e-23
      1.35  5.7144e-21  3.5976e-23  5.7177e-21  3.5976e-23  5.7236e-21  3.5977e-23  5.7342e-21  3.5978e-23  5.7530e-21  3.5979e-23  5.7862e-21  3.5981e-23  5.8456e-21  3.5985e-23  5.9511e-21  3.5992e-23  6.1387e-21  3.6005e-23  6.4725e-21  3.6027e-23  7.0666e-21  3.6067e-23  8.1247e-21  3.6138e-23  1.0012e-20  3.6265e-23  1.3391e-20  3.6490e-23  1.9484e-20  3.6890e-23  3.0581e-20  3.7602e-23  5.1123e-20  3.8869e-23  9.0222e-20  4.1127e-23  1.6780e-19  4.5156e-23
      1.40  5.6879e-21  4.0358e-23  5.6910e-21  4.0358e-23  5.6967e-21  4.0359e-23  5.7067e-21  4.0360e-23  5.7246e-21  4.0361e-23  5.7563e-21  4.0363e-23  5.8128e-21  4.0368e-23  5.9132e-21  4.0376e-23  6.0918e-21  4.0390e-23  6.4095e-21  4.0415e-23  6.9750e-21  4.0460e-23  7.9823e-21  4.0540e-23  9.7794e-21  4.0681e-23  1.2996e-20  4.0933e-23  1.8795e-20  4.1382e-23  2.9358e-20  4.2179e-23  4.8913e-20  4.3599e-23  8.6120e-20  4.6128e-23  1.5995e-19  5.0641e-23
      1.45  5.6630e-21  4.5274e-23  5.6660e-21  4.5274e-23  5.6714e-21  4.5275e-23  5.6809e-21  4.5276e-23  5.6979e-21  4.5277e-23  5.7282e-21  4.5280e-23  5.7819e-21  4.5285e-23  5.8775e-21  4.5294e-23  6.0475e-21  4.5310e-23  6.3499e-21  4.5338e-23  6.8883e-21  4.5388e-23  7.8474e-21  4.5478e-23  9.5585e-21  4.5637e-23  1.2621e-20  4.5919e-23  1.8140e-20  4.6421e-23  2.8194e-20  4.7315e-23  4.6809e-20  4.8906e-23  8.2216e-20  5.1740e-23  1.5247e-19  5.6794e-23
      1.50  5.6397e-21  5.0790e-23  5.6426e-21  5.0790e-23  5.6477e-21  5.0790e-23  5.6568e-21  5.0791e-23  5.6730e-21  5.0793e-23  5.7017e-21  5.0796e-23  5.7529e-21  5.0802e-23  5.8439e-21  5.0812e-23  6.0057e-21  5.0830e-23  6.2936e-21  5.0861e-23  6.8062e-21  5.0918e-23  7.7193e-21  5.1018e-23  9.3487e-21  5.1196e-23  1.2265e-20  5.1512e-23  1.7518e-20  5.2075e-23  2.7089e-20  5.3077e-23  4.4809e-20  5.4859e-23  7.8509e-20  5.8034e-23  1.4535e-19  6.3697e-23
      1.55  5.6179e-21  5.6977e-23  5.6207e-21  5.6978e-23  5.6255e-21  5.6978e-23  5.6342e-21  5.6980e-23  5.6496e-21  5.6981e-23  5.6770e-21  5.6985e-23  5.7257e-21  5.6991e-23  5.8123e-21  5.7003e-23  5.9663e-21  5.7023e-23  6.2404e-21  5.7058e-23  6.7284e-21  5.7121e-23  7.5978e-21  5.7233e-23  9.1494e-21  5.7433e-23  1.1926e-20  5.7787e-23  1.6927e-20  5.8418e-23  2.6037e-20  5.9541e-23  4.2904e-20  6.1538e-23  7.4982e-20  6.5096e-23  1.3857e-19  7.1440e-23
      1.60  5.5975e-21  6.3920e-23  5.6001e-21  6.3920e-23  5.6048e-21  6.3921e-23  5.6130e-21  6.3922e-23  5.6277e-21  6.3924e-23  5.6537e-21  6.3928e-23  5.7001e-21  6.3936e-23  5.7825e-21  6.3948e-23  5.9292e-21  6.3970e-23  6.1902e-21  6.4010e-23  6.6548e-21  6.4081e-23  7.4827e-21  6.4206e-23  8.9601e-21  6.4430e-23  1.1605e-20  6.4828e-23  1.6366e-20  6.5535e-23  2.5037e-20  6.6793e-23  4.1093e-20  6.9032e-23  7.1626e-20  7.3019e-23  1.3211e-19  8.0126e-23
      1.65  5.5784e-21  7.1709e-23  5.5809e-21  7.1709e-23  5.5853e-21  7.1710e-23  5.5932e-21  7.1711e-23  5.6071e-21  7.1714e-23  5.6319e-21  7.1718e-23  5.6761e-21  7.1726e-23  5.7546e-21  7.1740e-23  5.8942e-21  7.1765e-23  6.1427e-21  7.1810e-23  6.5851e-21  7.1889e-23  7.3734e-21  7.2030e-23  8.7804e-21  7.2281e-23  1.1299e-20  7.2726e-23  1.5833e-20  7.3519e-23  2.4087e-20  7.4929e-23  3.9372e-20  7.7438e-23  6.8433e-20  8.1907e-23  1.2598e-19  8.9871e-23
      1.70  5.5606e-21  8.0448e-23  5.5629e-21  8.0448e-23  5.5671e-21  8.0449e-23  5.5746e-21  8.0451e-23  5.5879e-21  8.0453e-23  5.6115e-21  8.0458e-23  5.6534e-21  8.0467e-23  5.7283e-21  8.0483e-23  5.8613e-21  8.0511e-23  6.0979e-21  8.0561e-23  6.5191e-21  8.0650e-23  7.2698e-21  8.0808e-23  8.6098e-21  8.1089e-23  1.1009e-20  8.1588e-23  1.5327e-20  8.2477e-23  2.3184e-20  8.4057e-23  3.7735e-20  8.6870e-23  6.5397e-20  9.1878e-23  1.2016e-19  1.0080e-22
      1.75  5.5438e-21  9.0252e-23  5.5461e-21  9.0253e-23  5.5501e-21  9.0254e-23  5.5572e-21  9.0255e-23  5.5699e-21  9.0259e-23  5.5924e-21  9.0264e-23  5.6323e-21  9.0274e-23  5.7035e-21  9.0292e-23  5.8302e-21  9.0323e-23  6.0555e-21  9.0379e-23  6.4567e-21  9.0479e-23  7.1716e-21  9.0656e-23  8.4477e-21  9.0971e-23  1.0733e-20  9.1531e-23  1.4846e-20  9.2527e-23  2.2327e-20  9.4299e-23  3.6179e-20  9.7452e-23  6.2510e-20  1.0306e-22  1.1462e-19  1.1307e-22
      1.80  5.5282e-21  1.0125e-22  5.5303e-21  1.0125e-22  5.5341e-21  1.0125e-22  5.5409e-21  1.0126e-22  5.5530e-21  1.0126e-22  5.5744e-21  1.0127e-22  5.6125e-21  1.0128e-22  5.6803e-21  1.0130e-22  5.8009e-21  1.0133e-22  6.0154e-21  1.0139e-22  6.3975e-21  1.0151e-22  7.0783e-21  1.0171e-22  8.2938e-21  1.0206e-22  1.0470e-20  1.0269e-22  1.4388e-20  1.0380e-22  2.1512e-20  1.0579e-22  3.4698e-20  1.0933e-22  5.9763e-20  1.1562e-22  1.0935e-19  1.2683e-22
      1.85  5.5135e-21  1.1359e-22  5.5156e-21  1.1359e-22  5.5192e-21  1.1360e-22  5.5257e-21  1.1360e-22  5.5371e-21  1.1360e-22  5.5576e-21  1.1361e-22  5.5938e-21  1.1362e-22  5.6584e-21  1.1364e-22  5.7732e-21  1.1368e-22  5.9776e-21  1.1375e-22  6.3414e-21  1.1388e-22  6.9898e-21  1.1410e-22  8.1475e-21  1.1450e-22  1.0220e-20  1.1520e-22  1.3953e-20  1.1645e-22  2.0738e-20  1.1868e-22  3.3291e-20  1.2264e-22  5.7151e-20  1.2970e-22  1.0434e-19  1.4227e-22
      1.90  5.4999e-21  1.2744e-22  5.5018e-21  1.2744e-22  5.5053e-21  1.2744e-22  5.5114e-21  1.2745e-22  5.5223e-21  1.2745e-22  5.5418e-21  1.2746e-22  5.5763e-21  1.2747e-22  5.6378e-21  1.2750e-22  5.7472e-21  1.2754e-22  5.9414e-21  1.2762e-22  6.2883e-21  1.2776e-22  6.9059e-21  1.2801e-22  8.0084e-21  1.2845e-22  9.9830e-21  1.2924e-22  1.3538e-20  1.3065e-22  2.0001e-20  1.3315e-22  3.1951e-20  1.3759e-22  5.4666e-20  1.4550e-22  9.9579e-20  1.5959e-22
      1.95  5.4871e-21  1.4298e-22  5.4889e-21  1.4298e-22  5.4922e-21  1.4298e-22  5.4980e-21  1.4298e-22  5.5085e-21  1.4299e-22  5.5270e-21  1.4300e-22  5.5599e-21  1.4301e-22  5.6184e-21  1.4304e-22  5.7226e-21  1.4309e-22  5.9079e-21  1.4318e-22  6.2379e-21  1.4334e-22  6.8261e-21  1.4362e-22  7.8763e-21  1.4411e-22  9.7570e-21  1.4500e-22  1.3144e-20  1.4657e-22  1.9300e-20  1.4937e-22  3.0677e-20  1.5436e-22  5.2302e-20  1.6322e-22  9.5046e-20  1.7901e-22
      2.00  5.4751e-21  1.6041e-22  5.4768e-21  1.6041e-22  5.4800e-21  1.6041e-22  5.4856e-21  1.6041e-22  5.4955e-21  1.6042e-22  5.5131e-21  1.6043e-22  5.5444e-21  1.6045e-22  5.6002e-21  1.6048e-22  5.6994e-21  1.6053e-22  5.8759e-21  1.6063e-22  6.1902e-21  1.6081e-22  6.7504e-21  1.6112e-22  7.7506e-21  1.6168e-22  9.5419e-21  1.6268e-22  1.2768e-20  1.6444e-22  1.8632e-20  1.6758e-22  2.9468e-20  1.7317e-22  5.0052e-20  1.8311e-22  9.0734e-20  2.0081e-22
      2.05  5.4639e-21  1.7997e-22  5.4656e-21  1.7997e-22  5.4686e-21  1.7997e-22  5.4739e-21  1.7997e-22  5.4833e-21  1.7998e-22  5.5001e-21  1.7999e-22  5.5299e-21  1.8001e-22  5.5830e-21  1.8005e-22  5.6775e-21  1.8011e-22  5.8456e-21  1.8022e-22  6.1449e-21  1.8042e-22  6.6784e-21  1.8077e-22  7.6309e-21  1.8140e-22  9.3370e-21  1.8251e-22  1.2410e-20  1.8449e-22  1.7995e-20  1.8801e-22  2.8316e-20  1.9428e-22  4.7909e-20  2.0543e-22  8.6629e-20  2.2529e-22
      2.10  5.4534e-21  2.0191e-22  5.4550e-21  2.0191e-22  5.4579e-21  2.0191e-22  5.4629e-21  2.0192e-22  5.4719e-21  2.0192e-22  5.4879e-21  2.0194e-22  5.5163e-21  2.0196e-22  5.5669e-21  2.0200e-22  5.6568e-21  2.0207e-22  5.8166e-21  2.0219e-22  6.1019e-21  2.0241e-22  6.6100e-21  2.0281e-22  7.5171e-21  2.0351e-22  9.1418e-21  2.0476e-22  1.2068e-20  2.0698e-22  1.7388e-20  2.1093e-22  2.7217e-20  2.1796e-22  4.5868e-20  2.3046e-22  8.2722e-20  2.5273e-22
      2.15  5.4436e-21  2.2653e-22  5.4452e-21  2.2653e-22  5.4479e-21  2.2653e-22  5.4527e-21  2.2654e-22  5.4612e-21  2.2654e-22  5.4765e-21  2.2656e-22  5.5035e-21  2.2658e-22  5.5517e-21  2.2663e-22  5.6373e-21  2.2671e-22  5.7895e-21  2.2685e-22  6.0611e-21  2.2710e-22  6.5449e-21  2.2754e-22  7.4086e-21  2.2833e-22  8.9558e-21  2.2973e-22  1.1742e-20  2.3222e-22  1.6809e-20  2.3665e-22  2.6170e-20  2.4453e-22  4.3925e-20  2.5855e-22  7.9001e-20  2.8351e-22
      2.20  5.4345e-21  2.5415e-22  5.4359e-21  2.5415e-22  5.4385e-21  2.5416e-22  5.4431e-21  2.5416e-22  5.4513e-21  2.5417e-22  5.4657e-21  2.5419e-22  5.4915e-21  2.5421e-22  5.5373e-21  2.5426e-22  5.6189e-21  2.5435e-22  5.7640e-21  2.5451e-22  6.0224e-21  2.5479e-22  6.4830e-21  2.5528e-22  7.3054e-21  2.5617e-22  8.7785e-21  2.5774e-22  1.1432e-20  2.6053e-22  1.6257e-20  2.6550e-22  2.5171e-20  2.7434e-22  4.2075e-20  2.9006e-22  7.5457e-20  3.1805e-22
      2.25  5.4260e-21  2.8514e-22  5.4273e-21  2.8515e-22  5.4298e-21  2.8515e-22  5.4341e-21  2.8515e-22  5.4419e-21  2.8516e-22  5.4557e-21  2.8518e-22  5.4802e-21  2.8521e-22  5.5239e-21  2.8527e-22  5.6015e-21  2.8537e-22  5.7396e-21  2.8554e-22  5.9856e-21  2.8586e-22  6.4240e-21  2.8641e-22  7.2069e-21  2.8741e-22  8.6093e-21  2.8917e-22  1.1135e-20  2.9230e-22  1.5729e-20  2.9787e-22  2.4217e-20  3.0778e-22  4.0312e-20  3.2542e-22  7.2080e-20  3.5681e-22
      2.30  5.4180e-21  3.1992e-22  5.4193e-21  3.1992e-22  5.4216e-21  3.1992e-22  5.4258e-21  3.1993e-22  5.4332e-21  3.1994e-22  5.4463e-21  3.1996e-22  5.4696e-21  3.2000e-22  5.5112e-21  3.2006e-22  5.5850e-21  3.2017e-22  5.7165e-21  3.2037e-22  5.9506e-21  3.2072e-22  6.3679e-21  3.2134e-22  7.1131e-21  3.2245e-22  8.4479e-21  3.2443e-22  1.0852e-20  3.2794e-22  1.5225e-20  3.3419e-22  2.3306e-20  3.4531e-22  3.8627e-20  3.6508e-22  6.8858e-20  4.0029e-22
      2.35  5.4105e-21  3.5893e-22  5.4118e-21  3.5894e-22  5.4140e-21  3.5894e-22  5.4179e-21  3.5895e-22  5.4250e-21  3.5896e-22  5.4375e-21  3.5898e-22  5.4597e-21  3.5902e-22  5.4992e-21  3.5909e-22  5.5695e-21  3.5922e-22  5.6946e-21  3.5944e-22  5.9174e-21  3.5983e-22  6.3144e-21  3.6053e-22  7.0235e-21  3.6178e-22  8.2938e-21  3.6399e-22  1.0582e-20  3.6793e-22  1.4744e-20  3.7494e-22  2.2435e-20  3.8741e-22  3.7020e-20  4.0959e-22  6.5788e-20  4.4906e-22
      2.40  5.4035e-21  4.0271e-22  5.4047e-21  4.0271e-22  5.4068e-21  4.0272e-22  5.4106e-21  4.0272e-22  5.4173e-21  4.0274e-22  5.4292e-21  4.0276e-22  5.4503e-21  4.0281e-22  5.4879e-21  4.0288e-22  5.5548e-21  4.0302e-22  5.6738e-21  4.0327e-22  5.8857e-21  4.0372e-22  6.2635e-21  4.0450e-22  6.9381e-21  4.0590e-22  8.1467e-21  4.0838e-22  1.0324e-20  4.1280e-22  1.4284e-20  4.2067e-22  2.1603e-20  4.3465e-22  3.5484e-20  4.5953e-22  6.2858e-20  5.0380e-22
      2.45  5.3970e-21  4.5182e-22  5.3982e-21  4.5183e-22  5.4002e-21  4.5183e-22  5.4038e-21  4.5184e-22  5.4101e-21  4.5186e-22  5.4214e-21  4.5188e-22  5.4415e-21  4.5193e-22  5.4773e-21  4.5202e-22  5.5409e-21  4.5218e-22  5.6541e-21  4.5246e-22  5.8557e-21  4.5295e-22  6.2150e-21  4.5383e-22  6.8566e-21  4.5540e-22  8.0061e-21  4.5819e-22  1.0077e-20  4.6315e-22  1.3844e-20  4.7197e-22  2.0808e-20  4.8765e-22  3.4017e-20  5.1555e-22  6.0065e-20  5.6520e-22
      2.50  5.3910e-21  5.0693e-22  5.3920e-21  5.0694e-22  5.3939e-21  5.0694e-22  5.3973e-21  5.0695e-22  5.4034e-21  5.0697e-22  5.4141e-21  5.0700e-22  5.4332e-21  5.0706e-22  5.4672e-21  5.0715e-22  5.5277e-21  5.0733e-22  5.6354e-21  5.0764e-22  5.8270e-21  5.0820e-22  6.1687e-21  5.0919e-22  6.7788e-21  5.1095e-22  7.8718e-21  5.1407e-22  9.8412e-21  5.1963e-22  1.3424e-20  5.2953e-22  2.0047e-20  5.4712e-22  3.2613e-20  5.7841e-22  5.7396e-20  6.3410e-22
      2.55  5.3853e-21  5.6876e-22  5.3863e-21  5.6877e-22  5.3881e-21  5.6877e-22  5.3914e-21  5.6878e-22  5.3971e-21  5.6880e-22  5.4073e-21  5.6884e-22  5.4255e-21  5.6890e-22  5.4578e-21  5.6901e-22  5.5153e-21  5.6921e-22  5.6176e-21  5.6956e-22  5.7998e-21  5.7018e-22  6.1245e-21  5.7129e-22  6.7045e-21  5.7327e-22  7.7435e-21  5.7677e-22  9.6157e-21  5.8301e-22  1.3022e-20  5.9411e-22  1.9320e-20  6.1384e-22  3.1271e-20  6.4894e-22  5.4845e-20  7.1140e-22
      2.60  5.3800e-21  6.3814e-22  5.3810e-21  6.3814e-22  5.3827e-21  6.3815e-22  5.3858e-21  6.3816e-22  5.3912e-21  6.3818e-22  5.4009e-21  6.3822e-22  5.4182e-21  6.3829e-22  5.4489e-21  6.3842e-22  5.5035e-21  6.3864e-22  5.6007e-21  6.3903e-22  5.7738e-21  6.3973e-22  6.0824e-21  6.4098e-22  6.6335e-21  6.4319e-22  7.6209e-21  6.4712e-22  9.4001e-21  6.5412e-22  1.2637e-20  6.6657e-22  1.8624e-20  6.8870e-22  2.9987e-20  7.2807e-22  5.2408e-20  7.9813e-22
      2.65  5.3750e-21  7.1598e-22  5.3760e-21  7.1598e-22  5.3776e-21  7.1599e-22  5.3805e-21  7.1600e-22  5.3857e-21  7.1603e-22  5.3949e-21  7.1607e-22  5.4113e-21  7.1615e-22  5.4405e-21  7.1629e-22  5.4924e-21  7.1654e-22  5.5847e-21  7.1698e-22  5.7492e-21  7.1776e-22  6.0423e-21  7.1916e-22  6.5658e-21  7.2164e-22  7.5038e-21  7.2606e-22  9.1940e-21  7.3391e-22  1.2270e-20  7.4787e-22  1.7959e-20  7.7270e-22  2.8759e-20  8.1686e-22  5.0077e-20  8.9544e-22
      2.70  5.3704e-21  8.0331e-22  5.3713e-21  8.0332e-22  5.3729e-21  8.0332e-22  5.3756e-21  8.0334e-22  5.3805e-21  8.0337e-22  5.3893e-21  8.0342e-22  5.4049e-21  8.0351e-22  5.4326e-21  8.0366e-22  5.4818e-21  8.0394e-22  5.5695e-21  8.0444e-22  5.7257e-21  8.0532e-22  6.0040e-21  8.0688e-22  6.5011e-21  8.0967e-22  7.3918e-21  8.1462e-22  8.9969e-21  8.2342e-22  1.1918e-20  8.3908e-22  1.7322e-20  8.6694e-22  2.7584e-20  9.1648e-22  4.7848e-20  1.0046e-21
      2.75  5.3661e-21  9.0130e-22  5.3669e-21  9.0131e-22  5.3684e-21  9.0132e-22  5.3710e-21  9.0133e-22  5.3757e-21  9.0136e-22  5.3840e-21  9.0142e-22  5.3988e-21  9.0152e-22  5.4251e-21  9.0169e-22  5.4719e-21  9.0201e-22  5.5551e-21  9.0256e-22  5.7033e-21  9.0355e-22  5.9675e-21  9.0531e-22  6.4394e-21  9.0843e-22  7.2849e-21  9.1398e-22  8.8086e-21  9.2386e-22  1.1582e-20  9.4143e-22  1.6713e-20  9.7267e-22  2.6461e-20  1.0282e-21  4.5716e-20  1.1271e-21
      2.80  5.3621e-21  1.0112e-21  5.3629e-21  1.0113e-21  5.3643e-21  1.0113e-21  5.3668e-21  1.0113e-21  5.3712e-21  1.0113e-21  5.3791e-21  1.0114e-21  5.3931e-21  1.0115e-21  5.4181e-21  1.0117e-21  5.4624e-21  1.0120e-21  5.5414e-21  1.0127e-21  5.6820e-21  1.0138e-21  5.9327e-21  1.0157e-21  6.3804e-21  1.0192e-21  7.1827e-21  1.0255e-21  8.6286e-21  1.0366e-21  1.1261e-20  1.0563e-21  1.6131e-20  1.0913e-21  2.5386e-20  1.1537e-21  4.3676e-20  1.2646e-21
      2.85  5.3583e-21  1.1346e-21  5.3591e-21  1.1346e-21  5.3604e-21  1.1346e-21  5.3628e-21  1.1346e-21  5.3670e-21  1.1347e-21  5.3745e-21  1.1348e-21  5.3878e-21  1.1349e-21  5.4114e-21  1.1351e-21  5.4535e-21  1.1355e-21  5.5284e-21  1.1362e-21  5.6618e-21  1.1374e-21  5.8995e-21  1.1396e-21  6.3242e-21  1.1436e-21  7.0851e-21  1.1506e-21  8.4567e-21  1.1630e-21  1.0953e-20  1.1851e-21  1.5575e-20  1.2244e-21  2.4359e-20  1.2944e-21  4.1725e-20  1.4188e-21
      2.90  5.3548e-21  1.2730e-21  5.3555e-21  1.2730e-21  5.3568e-21  1.2730e-21  5.3591e-21  1.2731e-21  5.3630e-21  1.2731e-21  5.3701e-21  1.2732e-21  5.3827e-21  1.2733e-21  5.4052e-21  1.2736e-21  5.4451e-21  1.2740e-21  5.5161e-21  1.2748e-21  5.6425e-21  1.2762e-21  5.8679e-21  1.2787e-21  6.2705e-21  1.2831e-21  6.9920e-21  1.2909e-21  8.2925e-21  1.3049e-21  1.0660e-20  1.3297e-21  1.5043e-20  1.3738e-21  2.3377e-20  1.4522e-21  3.9861e-20  1.5918e-21
      2.95  5.3516e-21  1.4283e-21  5.3522e-21  1.4283e-21  5.3534e-21  1.4283e-21  5.3556e-21  1.4284e-21  5.3593e-21  1.4284e-21  5.3661e-21  1.4285e-21  5.3780e-21  1.4287e-21  5.3993e-21  1.4289e-21  5.4371e-21  1.4294e-21  5.5044e-21  1.4303e-21  5.6242e-21  1.4319e-21  5.8378e-21  1.4347e-21  6.2194e-21  1.4396e-21  6.9032e-21  1.4484e-21  8.1358e-21  1.4640e-21  1.0380e-20  1.4919e-21  1.4536e-20  1.5414e-21  2.2439e-20  1.6294e-21  3.8078e-20  1.7859e-21
      3.00  5.3485e-21  1.6026e-21  5.3492e-21  1.6026e-21  5.3503e-21  1.6026e-21  5.3523e-21  1.6026e-21  5.3559e-21  1.6027e-21  5.3623e-21  1.6028e-21  5.3736e-21  1.6029e-21  5.3937e-21  1.6033e-21  5.4295e-21  1.6038e-21  5.4933e-21  1.6048e-21  5.6068e-21  1.6066e-21  5.8092e-21  1.6097e-21  6.1706e-21  1.6152e-21  6.8185e-21  1.6251e-21  7.9863e-21  1.6426e-21  1.0113e-20  1.6739e-21  1.4051e-20  1.7294e-21  2.1543e-20  1.8281e-21  3.6376e-20  2.0037e-21
      3.05  5.3457e-21  1.7981e-21  5.3463e-21  1.7981e-21  5.3474e-21  1.7981e-21  5.3493e-21  1.7981e-21  5.3527e-21  1.7982e-21  5.3587e-21  1.7983e-21  5.3694e-21  1.7985e-21  5.3885e-21  1.7988e-21  5.4224e-21  1.7995e-21  5.4828e-21  1.8006e-21  5.5903e-21  1.8025e-21  5.7819e-21  1.8060e-21  6.1242e-21  1.8123e-21  6.7378e-21  1.8233e-21  7.8438e-21  1.8430e-21  9.8581e-21  1.8781e-21  1.3589e-20  1.9403e-21  2.0688e-20  2.0511e-21  3.4751e-20  2.2481e-21
      3.10  5.3430e-21  2.0174e-21  5.3436e-21  2.0174e-21  5.3446e-21  2.0175e-21  5.3464e-21  2.0175e-21  5.3496e-21  2.0176e-21  5.3554e-21  2.0177e-21  5.3655e-21  2.0179e-21  5.3835e-21  2.0183e-21  5.4157e-21  2.0190e-21  5.4728e-21  2.0202e-21  5.5746e-21  2.0225e-21  5.7560e-21  2.0264e-21  6.0801e-21  2.0334e-21  6.6609e-21  2.0458e-21  7.7081e-21  2.0679e-21  9.6153e-21  2.1072e-21  1.3148e-20  2.1770e-21  1.9873e-20  2.3013e-21  3.3199e-20  2.5223e-21
      3.15  5.3406e-21  2.2635e-21  5.3411e-21  2.2636e-21  5.3421e-21  2.2636e-21  5.3438e-21  2.2636e-21  5.3468e-21  2.2637e-21  5.3522e-21  2.2638e-21  5.3618e-21  2.2641e-21  5.3789e-21  2.2645e-21  5.4093e-21  2.2653e-21  5.4634e-21  2.2667e-21  5.5597e-21  2.2692e-21  5.7314e-21  2.2736e-21  6.0381e-21  2.2814e-21  6.5878e-21  2.2954e-21  7.5789e-21  2.3202e-21  9.3841e-21  2.3642e-21  1.2729e-20  2.4426e-21  1.9096e-20  2.5820e-21  3.1720e-20  2.8300e-21
      3.20  5.3383e-21  2.5397e-21  5.3388e-21  2.5397e-21  5.3397e-21  2.5397e-21  5.3413e-21  2.5398e-21  5.3442e-21  2.5399e-21  5.3493e-21  2.5400e-21  5.3584e-21  2.5403e-21  5.3745e-21  2.5408e-21  5.4033e-21  2.5417e-21  5.4545e-21  2.5432e-21  5.5456e-21  2.5460e-21  5.7080e-21  2.5510e-21  5.9985e-21  2.5598e-21  6.5182e-21  2.5754e-21  7.4559e-21  2.6032e-21  9.1640e-21  2.6527e-21  1.2329e-20  2.7406e-21  1.8356e-20  2.8970e-21  3.0309e-20  3.1752e-21
      3.25  5.3361e-21  2.8495e-21  5.3366e-21  2.8496e-21  5.3375e-21  2.8496e-21  5.3390e-21  2.8496e-21  5.3417e-21  2.8497e-21  5.3466e-21  2.8499e-21  5.3552e-21  2.8502e-21  5.3704e-21  2.8508e-21  5.3976e-21  2.8518e-21  5.4460e-21  2.8535e-21  5.5322e-21  2.8566e-21  5.6858e-21  2.8622e-21  5.9602e-21  2.8721e-21  6.4521e-21  2.8896e-21  7.3390e-21  2.9208e-21  8.9547e-21  2.9763e-21  1.1949e-20  3.0750e-21  1.7651e-20  3.2504e-21  2.8966e-20  3.5625e-21
      3.30  5.3341e-21  3.1972e-21  5.3346e-21  3.1972e-21  5.3354e-21  3.1972e-21  5.3369e-21  3.1973e-21  5.3394e-21  3.1974e-21  5.3440e-21  3.1976e-21  5.3521e-21  3.1980e-21  5.3666e-21  3.1986e-21  5.3923e-21  3.1997e-21  5.4380e-21  3.2017e-21  5.5195e-21  3.2052e-21  5.6648e-21  3.2114e-21  5.9243e-21  3.2225e-21  6.3893e-21  3.2421e-21  7.2280e-21  3.2771e-21  8.7558e-21  3.3394e-21  1.1587e-20  3.4501e-21  1.6982e-20  3.6470e-21  2.7688e-20  3.9971e-21
      3.35  5.3323e-21  3.5873e-21  5.3327e-21  3.5873e-21  5.3335e-21  3.5873e-21  5.3349e-21  3.5874e-21  5.3373e-21  3.5875e-21  5.3416e-21  3.5877e-21  5.3493e-21  3.5881e-21  5.3629e-21  3.5888e-21  5.3872e-21  3.5901e-21  5.4305e-21  3.5923e-21  5.5075e-21  3.5962e-21  5.6448e-21  3.6032e-21  5.8901e-21  3.6156e-21  6.3298e-21  3.6377e-21  7.1226e-21  3.6770e-21  8.5670e-21  3.7468e-21  1.1244e-20  3.8710e-21  1.6345e-20  4.0919e-21  2.6472e-20  4.4847e-21
      3.40  5.3306e-21  4.0249e-21  5.3310e-21  4.0249e-21  5.3317e-21  4.0250e-21  5.3330e-21  4.0251e-21  5.3353e-21  4.0252e-21  5.3394e-21  4.0255e-21  5.3466e-21  4.0259e-21  5.3595e-21  4.0267e-21  5.3825e-21  4.0281e-21  5.4234e-21  4.0306e-21  5.4962e-21  4.0350e-21  5.6260e-21  4.0428e-21  5.8578e-21  4.0567e-21  6.2733e-21  4.0815e-21  7.0226e-21  4.1256e-21  8.3878e-21  4.2039e-21  1.0918e-20  4.3433e-21  1.5740e-20  4.5911e-21  2.5316e-20  5.0318e-21
      3.45  5.3290e-21  4.5160e-21  5.3293e-21  4.5160e-21  5.3300e-21  4.5161e-21  5.3312e-21  4.5162e-21  5.3334e-21  4.5163e-21  5.3373e-21  4.5166e-21  5.3441e-21  4.5171e-21  5.3563e-21  4.5180e-21  5.3780e-21  4.5195e-21  5.4167e-21  4.5223e-21  5.4854e-21  4.5272e-21  5.6081e-21  4.5360e-21  5.8271e-21  4.5517e-21  6.2198e-21  4.5795e-21  6.9279e-21  4.6289e-21  8.2179e-21  4.7168e-21  1.0609e-20  4.8731e-21  1.5166e-20  5.1512e-21  2.4218e-20  5.6456e-21
      3.50  5.3275e-21  5.0670e-21  5.3278e-21  5.0670e-21  5.3285e-21  5.0671e-21  5.3296e-21  5.0672e-21  5.3317e-21  5.0673e-21  5.3353e-21  5.0676e-21  5.3418e-21  5.0682e-21  5.3533e-21  5.0692e-21  5.3738e-21  5.0709e-21  5.4103e-21  5.0741e-21  5.4753e-21  5.0796e-21  5.5912e-21  5.0895e-21  5.7982e-21  5.1070e-21  6.1691e-21  5.1382e-21  6.8381e-21  5.1937e-21  8.0570e-21  5.2923e-21  1.0316e-20  5.4677e-21  1.4622e-20  5.7796e-21  2.3177e-20  6.3344e-21
      3.55  5.3261e-21  5.6852e-21  5.3264e-21  5.6852e-21  5.3270e-21  5.6853e-21  5.3281e-21  5.6854e-21  5.3300e-21  5.6856e-21  5.3335e-21  5.6859e-21  5.3396e-21  5.6866e-21  5.3505e-21  5.6877e-21  5.3699e-21  5.6896e-21  5.4043e-21  5.6931e-21  5.4657e-21  5.6993e-21  5.5752e-21  5.7104e-21  5.7707e-21  5.7301e-21  6.1212e-21  5.7651e-21  6.7532e-21  5.8273e-21  7.9047e-21  5.9380e-21  1.0039e-20  6.1348e-21  1.4107e-20  6.4847e-21  2.2189e-20  7.1071e-21
      3.60  5.3248e-21  6.3788e-21  5.3251e-21  6.3789e-21  5.3257e-21  6.3789e-21  5.3267e-21  6.3790e-21  5.3285e-21  6.3793e-21  5.3318e-21  6.3797e-21  5.3376e-21  6.3804e-21  5.3478e-21  6.3816e-21  5.3661e-21  6.3838e-21  5.3987e-21  6.3877e-21  5.4567e-21  6.3947e-21  5.5601e-21  6.4071e-21  5.7448e-21  6.4292e-21  6.0759e-21  6.4685e-21  6.6729e-21  6.5383e-21  7.7606e-21  6.6624e-21  9.7768e-21  6.8832e-21  1.3619e-20  7.2759e-21  2.1254e-20  7.9742e-21
      3.65  5.3236e-21  7.1571e-21  5.3239e-21  7.1571e-21  5.3244e-21  7.1572e-21  5.3254e-21  7.1573e-21  5.3271e-21  7.1576e-21  5.3302e-21  7.1580e-21  5.3356e-21  7.1588e-21  5.3454e-21  7.1602e-21  5.3626e-21  7.1627e-21  5.3934e-21  7.1671e-21  5.4482e-21  7.1749e-21  5.5459e-21  7.1889e-21  5.7204e-21  7.2136e-21  6.0331e-21  7.2577e-21  6.5971e-21  7.3360e-21  7.6245e-21  7.4753e-21  9.5287e-21  7.7230e-21  1.3158e-20  8.1636e-21  2.0368e-20  8.9470e-21
      3.70  5.3224e-21  8.0303e-21  5.3227e-21  8.0304e-21  5.3232e-21  8.0305e-21  5.3242e-21  8.0306e-21  5.3258e-21  8.0309e-21  5.3287e-21  8.0314e-21  5.3338e-21  8.0323e-21  5.3430e-21  8.0338e-21  5.3594e-21  8.0366e-21  5.3884e-21  8.0415e-21  5.4402e-21  8.0503e-21  5.5325e-21  8.0660e-21  5.6973e-21  8.0938e-21  5.9927e-21  8.1432e-21  6.5254e-21  8.2311e-21  7.4958e-21  8.3874e-21  9.2943e-21  8.6653e-21  1.2721e-20  9.1596e-21  1.9530e-20  1.0039e-20
      3.75  5.3214e-21  9.0101e-21  5.3217e-21  9.0102e-21  5.3221e-21  9.0102e-21  5.3230e-21  9.0104e-21  5.3246e-21  9.0107e-21  5.3273e-21  9.0113e-21  5.3322e-21  9.0123e-21  5.3408e-21  9.0140e-21  5.3563e-21  9.0171e-21  5.3837e-21  9.0227e-21  5.4326e-21  9.0326e-21  5.5198e-21  9.0501e-21  5.6755e-21  9.0813e-21  5.9546e-21  9.1367e-21  6.4578e-21  9.2353e-21  7.3744e-21  9.4107e-21  9.0730e-21  9.7225e-21  1.2309e-20  1.0277e-20  1.8737e-20  1.1263e-20
      3.80  5.3204e-21  1.0109e-20  5.3207e-21  1.0109e-20  5.3211e-21  1.0110e-20  5.3220e-21  1.0110e-20  5.3234e-21  1.0110e-20  5.3260e-21  1.0111e-20  5.3306e-21  1.0112e-20  5.3388e-21  1.0114e-20  5.3534e-21  1.0117e-20  5.3793e-21  1.0124e-20  5.4255e-21  1.0135e-20  5.5079e-21  1.0154e-20  5.6550e-21  1.0189e-20  5.9187e-21  1.0252e-20  6.3940e-21  1.0362e-20  7.2599e-21  1.0559e-20  8.8642e-21  1.0909e-20  1.1920e-20  1.1531e-20  1.7989e-20  1.2638e-20
      3.85  5.3195e-21  1.1343e-20  5.3198e-21  1.1343e-20  5.3202e-21  1.1343e-20  5.3210e-21  1.1343e-20  5.3223e-21  1.1344e-20  5.3248e-21  1.1344e-20  5.3292e-21  1.1346e-20  5.3369e-21  1.1348e-20  5.3507e-21  1.1352e-20  5.3752e-21  1.1359e-20  5.4188e-21  1.1371e-20  5.4967e-21  1.1393e-20  5.6357e-21  1.1432e-20  5.8848e-21  1.1502e-20  6.3339e-21  1.1626e-20  7.1519e-21  1.1847e-20  8.6673e-21  1.2240e-20  1.1553e-20  1.2938e-20  1.7282e-20  1.4179e-20
      3.90  5.3187e-21  1.2727e-20  5.3189e-21  1.2727e-20  5.3193e-21  1.2727e-20  5.3201e-21  1.2727e-20  5.3214e-21  1.2728e-20  5.3237e-21  1.2729e-20  5.3278e-21  1.2730e-20  5.3351e-21  1.2732e-20  5.3481e-21  1.2737e-20  5.3713e-21  1.2745e-20  5.4125e-21  1.2759e-20  5.4861e-21  1.2783e-20  5.6175e-21  1.2827e-20  5.8529e-21  1.2906e-20  6.2773e-21  1.3045e-20  7.0502e-21  1.3293e-20  8.4817e-21  1.3733e-20  1.1207e-20  1.4516e-20  1.6616e-20  1.5909e-20
      3.95  5.3179e-21  1.4280e-20  5.3181e-21  1.4280e-20  5.3185e-21  1.4280e-20  5.3192e-21  1.4280e-20  5.3204e-21  1.4281e-20  5.3226e-21  1.4282e-20  5.3265e-21  1.4283e-20  5.3334e-21  1.4286e-20  5.3457e-21  1.4291e-20  5.3676e-21  1.4300e-20  5.4066e-21  1.4315e-20  5.4762e-21  1.4343e-20  5.6004e-21  1.4392e-20  5.8229e-21  1.4480e-20  6.2240e-21  1.4637e-20  6.9544e-21  1.4915e-20  8.3069e-21  1.5409e-20  1.0881e-20  1.6288e-20  1.5987e-20  1.7850e-20
