# This was generated using Cloudy10 and the columns are ordered 
# as log10 of the fraction of the metallicity to the solar metallicity
# 'h_*_Z' and 'c_*_Z' stands for cooling and heating respectively 
# at * metalicity
#
# NOTE: This was generated separately from loop_coolingcurve_w_UV.py
#       using Output_metals_w_redshift.py.
#
# Redshift = 5.0
# hden = -3.0
#
#     temp   h_-3.00_Z   c_-3.00_Z   h_-2.75_Z   c_-2.75_Z   h_-2.50_Z   c_-2.50_Z   h_-2.25_Z   c_-2.25_Z   h_-2.00_Z   c_-2.00_Z   h_-1.75_Z   c_-1.75_Z   h_-1.50_Z   c_-1.50_Z   h_-1.25_Z   c_-1.25_Z   h_-1.00_Z   c_-1.00_Z   h_-0.75_Z   c_-0.75_Z   h_-0.50_Z   c_-0.50_Z   h_-0.25_Z   c_-0.25_Z    h_0.00_Z    c_0.00_Z    h_0.25_Z    c_0.25_Z    h_0.50_Z    c_0.50_Z    h_0.75_Z    c_0.75_Z    h_1.00_Z    c_1.00_Z    h_1.25_Z    c_1.25_Z    h_1.50_Z    c_1.50_Z 
      1.00  2.5328e-22  4.8495e-26  2.5329e-22  4.8496e-26  2.5329e-22  4.8497e-26  2.5330e-22  4.8499e-26  2.5331e-22  4.8502e-26  2.5334e-22  4.8508e-26  2.5338e-22  4.8519e-26  2.5346e-22  4.8539e-26  2.5359e-22  4.8574e-26  2.5384e-22  4.8636e-26  2.5427e-22  4.8746e-26  2.5504e-22  4.8942e-26  2.5641e-22  4.9290e-26  2.5885e-22  4.9912e-26  2.6319e-22  5.1021e-26  2.7092e-22  5.3006e-26  2.8470e-22  5.6574e-26  3.0937e-22  6.3041e-26  3.5377e-22  7.4924e-26
      1.05  2.3842e-22  5.1133e-26  2.3843e-22  5.1135e-26  2.3843e-22  5.1136e-26  2.3844e-22  5.1140e-26  2.3845e-22  5.1146e-26  2.3847e-22  5.1158e-26  2.3851e-22  5.1178e-26  2.3859e-22  5.1213e-26  2.3872e-22  5.1277e-26  2.3895e-22  5.1389e-26  2.3936e-22  5.1590e-26  2.4008e-22  5.1946e-26  2.4138e-22  5.2581e-26  2.4368e-22  5.3713e-26  2.4778e-22  5.5733e-26  2.5509e-22  5.9352e-26  2.6812e-22  6.5868e-26  2.9145e-22  7.7712e-26  3.3346e-22  9.9582e-26
      1.10  2.2432e-22  5.3881e-26  2.2432e-22  5.3883e-26  2.2432e-22  5.3886e-26  2.2433e-22  5.3893e-26  2.2434e-22  5.3904e-26  2.2437e-22  5.3924e-26  2.2440e-22  5.3959e-26  2.2447e-22  5.4022e-26  2.2460e-22  5.4135e-26  2.2481e-22  5.4334e-26  2.2520e-22  5.4689e-26  2.2589e-22  5.5321e-26  2.2712e-22  5.6446e-26  2.2931e-22  5.8453e-26  2.3320e-22  6.2036e-26  2.4013e-22  6.8458e-26  2.5249e-22  8.0036e-26  2.7463e-22  1.0112e-25  3.1452e-22  1.4019e-25
      1.15  2.1094e-22  5.6741e-26  2.1095e-22  5.6744e-26  2.1095e-22  5.6750e-26  2.1096e-22  5.6761e-26  2.1097e-22  5.6780e-26  2.1099e-22  5.6814e-26  2.1103e-22  5.6874e-26  2.1109e-22  5.6982e-26  2.1121e-22  5.7173e-26  2.1142e-22  5.7513e-26  2.1179e-22  5.8117e-26  2.1244e-22  5.9193e-26  2.1361e-22  6.1110e-26  2.1569e-22  6.4527e-26  2.1940e-22  7.0631e-26  2.2600e-22  8.1577e-26  2.3777e-22  1.0133e-25  2.5886e-22  1.3735e-25  2.9687e-22  2.0425e-25
      1.20  1.9827e-22  5.9716e-26  1.9828e-22  5.9722e-26  1.9828e-22  5.9731e-26  1.9828e-22  5.9749e-26  1.9830e-22  5.9780e-26  1.9832e-22  5.9835e-26  1.9835e-22  5.9934e-26  1.9841e-22  6.0109e-26  1.9853e-22  6.0420e-26  1.9872e-22  6.0974e-26  1.9908e-22  6.1960e-26  1.9971e-22  6.3714e-26  2.0082e-22  6.6838e-26  2.0281e-22  7.2410e-26  2.0635e-22  8.2365e-26  2.1265e-22  1.0022e-25  2.2391e-22  1.3246e-25  2.4406e-22  1.9131e-25  2.8039e-22  3.0079e-25
      1.25  1.8628e-22  6.3656e-26  1.8628e-22  6.3665e-26  1.8628e-22  6.3680e-26  1.8629e-22  6.3708e-26  1.8630e-22  6.3756e-26  1.8632e-22  6.3843e-26  1.8635e-22  6.3997e-26  1.8641e-22  6.4272e-26  1.8652e-22  6.4759e-26  1.8671e-22  6.5627e-26  1.8705e-22  6.7170e-26  1.8765e-22  6.9916e-26  1.8872e-22  7.4808e-26  1.9063e-22  8.3533e-26  1.9402e-22  9.9124e-26  2.0006e-22  1.2709e-25  2.1085e-22  1.7760e-25  2.3017e-22  2.6986e-25  2.6499e-22  4.4167e-25
      1.30  1.7493e-22  6.7994e-26  1.7494e-22  6.8007e-26  1.7494e-22  6.8030e-26  1.7495e-22  6.8072e-26  1.7496e-22  6.8145e-26  1.7497e-22  6.8276e-26  1.7501e-22  6.8509e-26  1.7506e-22  6.8924e-26  1.7517e-22  6.9661e-26  1.7535e-22  7.0971e-26  1.7568e-22  7.3303e-26  1.7625e-22  7.7454e-26  1.7728e-22  8.4847e-26  1.7911e-22  9.8030e-26  1.8237e-22  1.2159e-25  1.8818e-22  1.6386e-25  1.9854e-22  2.4020e-25  2.1710e-22  3.7967e-25  2.5057e-22  6.3945e-25
      1.35  1.6421e-22  7.2415e-26  1.6421e-22  7.2434e-26  1.6422e-22  7.2469e-26  1.6422e-22  7.2529e-26  1.6423e-22  7.2637e-26  1.6425e-22  7.2830e-26  1.6428e-22  7.3171e-26  1.6434e-22  7.3779e-26  1.6444e-22  7.4860e-26  1.6461e-22  7.6783e-26  1.6493e-22  8.0203e-26  1.6548e-22  8.6292e-26  1.6647e-22  9.7136e-26  1.6823e-22  1.1647e-25  1.7137e-22  1.5103e-25  1.7695e-22  2.1303e-25  1.8693e-22  3.2497e-25  2.0479e-22  5.2945e-25  2.3701e-22  9.1017e-25
      1.40  1.5408e-22  7.6930e-26  1.5409e-22  7.6957e-26  1.5409e-22  7.7006e-26  1.5409e-22  7.7093e-26  1.5410e-22  7.7248e-26  1.5412e-22  7.7523e-26  1.5415e-22  7.8013e-26  1.5420e-22  7.8883e-26  1.5430e-22  8.0431e-26  1.5447e-22  8.3185e-26  1.5477e-22  8.8084e-26  1.5531e-22  9.6804e-26  1.5626e-22  1.1233e-25  1.5796e-22  1.4003e-25  1.6098e-22  1.8951e-25  1.6636e-22  2.7826e-25  1.7597e-22  4.3847e-25  1.9318e-22  7.3092e-25  2.2422e-22  1.2749e-24
      1.45  1.4452e-22  8.1548e-26  1.4453e-22  8.1587e-26  1.4453e-22  8.1656e-26  1.4453e-22  8.1778e-26  1.4454e-22  8.1995e-26  1.4456e-22  8.2382e-26  1.4459e-22  8.3070e-26  1.4464e-22  8.4293e-26  1.4473e-22  8.6469e-26  1.4490e-22  9.0338e-26  1.4519e-22  9.7222e-26  1.4570e-22  1.0948e-25  1.4662e-22  1.3130e-25  1.4826e-22  1.7020e-25  1.5117e-22  2.3971e-25  1.5635e-22  3.6434e-25  1.6561e-22  5.8920e-25  1.8219e-22  9.9929e-25  2.1211e-22  1.7610e-24
      1.50  1.3551e-22  8.6281e-26  1.3551e-22  8.6335e-26  1.3551e-22  8.6430e-26  1.3552e-22  8.6599e-26  1.3553e-22  8.6900e-26  1.3554e-22  8.7435e-26  1.3557e-22  8.8386e-26  1.3562e-22  9.0078e-26  1.3571e-22  9.3088e-26  1.3587e-22  9.8441e-26  1.3615e-22  1.0796e-25  1.3664e-22  1.2491e-25  1.3753e-22  1.5510e-25  1.3910e-22  2.0890e-25  1.4191e-22  3.0502e-25  1.4690e-22  4.7728e-25  1.5582e-22  7.8787e-25  1.7179e-22  1.3537e-24  2.0062e-22  2.4026e-24
      1.55  1.2701e-22  9.1152e-26  1.2701e-22  9.1225e-26  1.2701e-22  9.1354e-26  1.2702e-22  9.1585e-26  1.2703e-22  9.1996e-26  1.2704e-22  9.2726e-26  1.2707e-22  9.4024e-26  1.2712e-22  9.6334e-26  1.2720e-22  1.0044e-25  1.2735e-22  1.0775e-25  1.2762e-22  1.2074e-25  1.2810e-22  1.4387e-25  1.2895e-22  1.8506e-25  1.3047e-22  2.5847e-25  1.3316e-22  3.8957e-25  1.3797e-22  6.2445e-25  1.4655e-22  1.0476e-24  1.6193e-22  1.8175e-24  1.8968e-22  3.2418e-24
      1.60  1.1900e-22  9.6161e-26  1.1900e-22  9.6259e-26  1.1900e-22  9.6434e-26  1.1901e-22  9.6745e-26  1.1902e-22  9.7298e-26  1.1903e-22  9.8282e-26  1.1906e-22  1.0003e-25  1.1910e-22  1.0314e-25  1.1919e-22  1.0868e-25  1.1933e-22  1.1852e-25  1.1959e-22  1.3604e-25  1.2005e-22  1.6720e-25  1.2087e-22  2.2270e-25  1.2233e-22  3.2160e-25  1.2492e-22  4.9818e-25  1.2954e-22  8.1440e-25  1.3779e-22  1.3837e-24  1.5258e-22  2.4182e-24  1.7927e-22  4.3277e-24
      1.65  1.1146e-22  1.0132e-25  1.1146e-22  1.0145e-25  1.1146e-22  1.0168e-25  1.1147e-22  1.0210e-25  1.1148e-22  1.0283e-25  1.1149e-22  1.0414e-25  1.1152e-22  1.0647e-25  1.1156e-22  1.1061e-25  1.1164e-22  1.1798e-25  1.1178e-22  1.3108e-25  1.1203e-22  1.5439e-25  1.1247e-22  1.9587e-25  1.1326e-22  2.6972e-25  1.1465e-22  4.0132e-25  1.1714e-22  6.3623e-25  1.2158e-22  1.0567e-24  1.2950e-22  1.8133e-24  1.4370e-22  3.1863e-24  1.6934e-22  5.7156e-24
      1.70  1.0436e-22  1.0664e-25  1.0437e-22  1.0681e-25  1.0437e-22  1.0712e-25  1.0437e-22  1.0766e-25  1.0438e-22  1.0863e-25  1.0439e-22  1.1035e-25  1.0442e-22  1.1341e-25  1.0446e-22  1.1886e-25  1.0454e-22  1.2854e-25  1.0467e-22  1.4577e-25  1.0491e-22  1.7641e-25  1.0533e-22  2.3094e-25  1.0609e-22  3.2801e-25  1.0743e-22  5.0098e-25  1.0981e-22  8.0967e-25  1.1406e-22  1.3621e-24  1.2166e-22  2.3553e-24  1.3528e-22  4.1560e-24  1.5988e-22  7.4673e-24
      1.75  9.7691e-23  1.1213e-25  9.7692e-23  1.1236e-25  9.7694e-23  1.1276e-25  9.7699e-23  1.1346e-25  9.7706e-23  1.1472e-25  9.7719e-23  1.1696e-25  9.7741e-23  1.2093e-25  9.7782e-23  1.2801e-25  9.7854e-23  1.4058e-25  9.7983e-23  1.6296e-25  9.8211e-23  2.0275e-25  9.8617e-23  2.7357e-25  9.9339e-23  3.9963e-25  1.0062e-22  6.2425e-25  1.0291e-22  1.0250e-24  1.0698e-22  1.7420e-24  1.1425e-22  3.0306e-24  1.2730e-22  5.3650e-24  1.5085e-22  9.6511e-24
      1.80  9.1416e-23  1.1784e-25  9.1418e-23  1.1813e-25  9.1420e-23  1.1864e-25  9.1424e-23  1.1955e-25  9.1430e-23  1.2116e-25  9.1443e-23  1.2403e-25  9.1465e-23  1.2914e-25  9.1503e-23  1.3821e-25  9.1573e-23  1.5436e-25  9.1695e-23  1.8308e-25  9.1914e-23  2.3417e-25  9.2302e-23  3.2507e-25  9.2992e-23  4.8688e-25  9.4219e-23  7.7517e-25  9.6402e-23  1.2895e-24  1.0029e-22  2.2095e-24  1.0725e-22  3.8623e-24  1.1973e-22  6.8546e-24  1.4226e-22  1.2343e-23
      1.85  8.5520e-23  1.2375e-25  8.5521e-23  1.2411e-25  8.5523e-23  1.2476e-25  8.5527e-23  1.2591e-25  8.5534e-23  1.2796e-25  8.5545e-23  1.3161e-25  8.5566e-23  1.3809e-25  8.5603e-23  1.4961e-25  8.5669e-23  1.7010e-25  8.5786e-23  2.0655e-25  8.5995e-23  2.7140e-25  8.6366e-23  3.8677e-25  8.7025e-23  5.9215e-25  8.8197e-23  9.5803e-25  9.0282e-23  1.6108e-24  9.3997e-23  2.7782e-24  1.0064e-22  4.8750e-24  1.1256e-22  8.6695e-24  1.3409e-22  1.5624e-23
      1.90  7.9982e-23  1.2987e-25  7.9983e-23  1.3033e-25  7.9985e-23  1.3114e-25  7.9989e-23  1.3259e-25  7.9995e-23  1.3516e-25  8.0006e-23  1.3973e-25  8.0026e-23  1.4787e-25  8.0062e-23  1.6234e-25  8.0125e-23  1.8806e-25  8.0236e-23  2.3383e-25  8.0435e-23  3.1523e-25  8.0789e-23  4.6007e-25  8.1418e-23  7.1789e-25  8.2535e-23  1.1772e-24  8.4524e-23  1.9966e-24  8.8068e-23  3.4620e-24  9.4405e-23  6.0937e-24  1.0577e-22  1.0855e-23  1.2632e-22  1.9579e-23
      1.95  7.4784e-23  1.3622e-25  7.4785e-23  1.3679e-25  7.4787e-23  1.3780e-25  7.4790e-23  1.3959e-25  7.4796e-23  1.4279e-25  7.4807e-23  1.4847e-25  7.4826e-23  1.5857e-25  7.4859e-23  1.7653e-25  7.4919e-23  2.0848e-25  7.5026e-23  2.6529e-25  7.5216e-23  3.6637e-25  7.5553e-23  5.4620e-25  7.6152e-23  8.6633e-25  7.7218e-23  1.4366e-24  7.9114e-23  2.4540e-24  8.2492e-23  4.2735e-24  8.8533e-23  7.5411e-24  9.9375e-23  1.3453e-23  1.1897e-22  2.4284e-23
      2.00  6.9905e-23  1.4281e-25  6.9906e-23  1.4351e-25  6.9908e-23  1.4475e-25  6.9911e-23  1.4695e-25  6.9917e-23  1.5087e-25  6.9927e-23  1.5784e-25  6.9945e-23  1.7024e-25  6.9977e-23  1.9229e-25  7.0035e-23  2.3151e-25  7.0136e-23  3.0126e-25  7.0317e-23  4.2534e-25  7.0638e-23  6.4610e-25  7.1208e-23  1.0391e-24  7.2223e-23  1.7392e-24  7.4028e-23  2.9882e-24  7.7244e-23  5.2220e-24  8.2996e-23  9.2340e-24  9.3320e-23  1.6494e-23  1.1198e-22  2.9796e-23
      2.05  6.5330e-23  1.4970e-25  6.5331e-23  1.5054e-25  6.5333e-23  1.5205e-25  6.5336e-23  1.5472e-25  6.5341e-23  1.5948e-25  6.5351e-23  1.6793e-25  6.5368e-23  1.8297e-25  6.5398e-23  2.0972e-25  6.5453e-23  2.5728e-25  6.5549e-23  3.4188e-25  6.5721e-23  4.9236e-25  6.6026e-23  7.6013e-25  6.6569e-23  1.2368e-24  6.7535e-23  2.0860e-24  6.9252e-23  3.6010e-24  7.2311e-23  6.3108e-24  7.7784e-23  1.1178e-23  8.7606e-23  1.9989e-23  1.0537e-22  3.6139e-23
      2.10  6.1040e-23  1.5685e-25  6.1041e-23  1.5787e-25  6.1042e-23  1.5967e-25  6.1045e-23  1.6287e-25  6.1050e-23  1.6856e-25  6.1060e-23  1.7869e-25  6.1076e-23  1.9670e-25  6.1105e-23  2.2872e-25  6.1157e-23  2.8567e-25  6.1249e-23  3.8697e-25  6.1412e-23  5.6716e-25  6.1702e-23  8.8779e-25  6.2219e-23  1.4586e-24  6.3137e-23  2.4755e-24  6.4770e-23  4.2898e-24  6.7679e-23  7.5353e-24  7.2882e-23  1.3367e-23  8.2223e-23  2.3925e-23  9.9117e-23  4.3290e-23
      2.15  5.7019e-23  1.6429e-25  5.7020e-23  1.6549e-25  5.7022e-23  1.6761e-25  5.7024e-23  1.7139e-25  5.7029e-23  1.7812e-25  5.7038e-23  1.9008e-25  5.7053e-23  2.1135e-25  5.7081e-23  2.4918e-25  5.7130e-23  3.1646e-25  5.7218e-23  4.3612e-25  5.7373e-23  6.4898e-25  5.7649e-23  1.0277e-24  5.8140e-23  1.7020e-24  5.9013e-23  2.9034e-24  6.0565e-23  5.0470e-24  6.3330e-23  8.8820e-24  6.8275e-23  1.5774e-23  7.7155e-23  2.8258e-23  9.3217e-23  5.1172e-23
      2.20  5.3252e-23  1.7201e-25  5.3253e-23  1.7341e-25  5.3254e-23  1.7588e-25  5.3257e-23  1.8029e-25  5.3262e-23  1.8812e-25  5.3270e-23  2.0206e-25  5.3285e-23  2.2683e-25  5.3311e-23  2.7089e-25  5.3358e-23  3.4926e-25  5.3441e-23  4.8864e-25  5.3588e-23  7.3658e-25  5.3851e-23  1.1778e-24  5.4317e-23  1.9632e-24  5.5147e-23  3.3627e-24  5.6622e-23  5.8601e-24  5.9250e-23  1.0329e-23  6.3948e-23  1.8362e-23  7.2387e-23  3.2919e-23  8.7652e-23  5.9658e-23
      2.25  4.9724e-23  1.8004e-25  4.9725e-23  1.8164e-25  4.9727e-23  1.8448e-25  4.9729e-23  1.8954e-25  4.9733e-23  1.9854e-25  4.9741e-23  2.1454e-25  4.9755e-23  2.4298e-25  4.9780e-23  2.9358e-25  4.9825e-23  3.8356e-25  4.9904e-23  5.4361e-25  5.0044e-23  8.2832e-25  5.0293e-23  1.3349e-24  5.0736e-23  2.2369e-24  5.1525e-23  3.8441e-24  5.2927e-23  6.7123e-24  5.5423e-23  1.1845e-23  5.9886e-23  2.1075e-23  6.7903e-23  3.7810e-23  8.2407e-23  6.8576e-23
      2.30  4.6422e-23  1.8844e-25  4.6422e-23  1.9026e-25  4.6424e-23  1.9348e-25  4.6426e-23  1.9920e-25  4.6430e-23  2.0939e-25  4.6438e-23  2.2750e-25  4.6451e-23  2.5971e-25  4.6475e-23  3.1698e-25  4.6517e-23  4.1885e-25  4.6592e-23  6.0004e-25  4.6725e-23  9.2237e-25  4.6962e-23  1.4959e-24  4.7383e-23  2.5171e-24  4.8132e-23  4.3368e-24  4.9464e-23  7.5846e-24  5.1836e-23  1.3398e-23  5.6074e-23  2.3854e-23  6.3689e-23  4.2822e-23  7.7466e-23  7.7724e-23
      2.35  4.3331e-23  1.9717e-25  4.3331e-23  1.9919e-25  4.3333e-23  2.0279e-25  4.3335e-23  2.0918e-25  4.3339e-23  2.2055e-25  4.3346e-23  2.4077e-25  4.3359e-23  2.7673e-25  4.3381e-23  3.4068e-25  4.3421e-23  4.5441e-25  4.3493e-23  6.5669e-25  4.3619e-23  1.0166e-24  4.3844e-23  1.6569e-24  4.4244e-23  2.7970e-24  4.4956e-23  4.8288e-24  4.6221e-23  8.4556e-24  4.8475e-23  1.4948e-23  5.2500e-23  2.6630e-23  5.9733e-23  4.7832e-23  7.2820e-23  8.6879e-23
      2.40  4.0439e-23  2.0623e-25  4.0440e-23  2.0846e-25  4.0441e-23  2.1242e-25  4.0443e-23  2.1946e-25  4.0447e-23  2.3199e-25  4.0454e-23  2.5426e-25  4.0466e-23  2.9387e-25  4.0487e-23  3.6432e-25  4.0525e-23  4.8961e-25  4.0593e-23  7.1247e-25  4.0713e-23  1.1089e-24  4.0927e-23  1.8144e-24  4.1307e-23  3.0705e-24  4.1983e-23  5.3091e-24  4.3186e-23  9.3054e-24  4.5327e-23  1.6461e-23  4.9150e-23  2.9339e-23  5.6021e-23  5.2724e-23  6.8453e-23  9.5829e-23
      2.45  3.7735e-23  2.1563e-25  3.7735e-23  2.1805e-25  3.7736e-23  2.2236e-25  3.7738e-23  2.3002e-25  3.7742e-23  2.4365e-25  3.7748e-23  2.6789e-25  3.7760e-23  3.1099e-25  3.7780e-23  3.8763e-25  3.7816e-23  5.2395e-25  3.7881e-23  7.6642e-25  3.7995e-23  1.1978e-24  3.8198e-23  1.9654e-24  3.8560e-23  3.3321e-24  3.9202e-23  5.7680e-24  4.0345e-23  1.0117e-23  4.2380e-23  1.7905e-23  4.6012e-23  3.1926e-23  5.2541e-23  5.7399e-23  6.4351e-23  1.0439e-22
      2.50  3.5206e-23  2.2538e-25  3.5207e-23  2.2799e-25  3.5208e-23  2.3262e-25  3.5210e-23  2.4086e-25  3.5213e-23  2.5552e-25  3.5219e-23  2.8158e-25  3.5230e-23  3.2793e-25  3.5249e-23  4.1036e-25  3.5284e-23  5.5697e-25  3.5345e-23  8.1773e-25  3.5454e-23  1.2816e-24  3.5647e-23  2.1072e-24  3.5991e-23  3.5771e-24  3.6602e-23  6.1971e-24  3.7688e-23  1.0875e-23  3.9623e-23  1.9254e-23  4.3075e-23  3.4342e-23  4.9280e-23  6.1768e-23  6.0504e-23  1.1241e-22
      2.55  3.2843e-23  2.3561e-25  3.2843e-23  2.3839e-25  3.2844e-23  2.4332e-25  3.2846e-23  2.5210e-25  3.2849e-23  2.6770e-25  3.2855e-23  2.9545e-25  3.2865e-23  3.4479e-25  3.2884e-23  4.3254e-25  3.2917e-23  5.8862e-25  3.2975e-23  8.6622e-25  3.3078e-23  1.3601e-24  3.3263e-23  2.2390e-24  3.3590e-23  3.8039e-24  3.4172e-23  6.5934e-24  3.5207e-23  1.1574e-23  3.7049e-23  2.0497e-23  4.0335e-23  3.6569e-23  4.6240e-23  6.5797e-23  5.6923e-23  1.1980e-22
      2.60  3.0634e-23  2.4623e-25  3.0635e-23  2.4915e-25  3.0636e-23  2.5436e-25  3.0638e-23  2.6361e-25  3.0641e-23  2.8006e-25  3.0646e-23  3.0931e-25  3.0656e-23  3.6134e-25  3.0674e-23  4.5386e-25  3.0705e-23  6.1841e-25  3.0760e-23  9.1109e-25  3.0859e-23  1.4318e-24  3.1035e-23  2.3584e-24  3.1347e-23  4.0085e-24  3.1902e-23  6.9498e-24  3.2889e-23  1.2202e-23  3.4645e-23  2.1612e-23  3.7778e-23  3.8567e-23  4.3404e-23  6.9411e-23  5.3584e-23  1.2644e-22
      2.65  2.8571e-23  2.5724e-25  2.8572e-23  2.6030e-25  2.8573e-23  2.6573e-25  2.8575e-23  2.7540e-25  2.8578e-23  2.9259e-25  2.8583e-23  3.2317e-25  2.8592e-23  3.7754e-25  2.8609e-23  4.7423e-25  2.8639e-23  6.4621e-25  2.8692e-23  9.5210e-25  2.8786e-23  1.4963e-24  2.8954e-23  2.4648e-24  2.9252e-23  4.1894e-24  2.9782e-23  7.2636e-24  3.0724e-23  1.2754e-23  3.2402e-23  2.2591e-23  3.5393e-23  4.0319e-23  4.0762e-23  7.2582e-23  5.0478e-23  1.3227e-22
      2.70  2.6645e-23  2.6866e-25  2.6646e-23  2.7183e-25  2.6646e-23  2.7747e-25  2.6648e-23  2.8749e-25  2.6651e-23  3.0532e-25  2.6656e-23  3.3702e-25  2.6665e-23  3.9339e-25  2.6681e-23  4.9365e-25  2.6710e-23  6.7196e-25  2.6760e-23  9.8912e-25  2.6851e-23  1.5534e-24  2.7011e-23  2.5576e-24  2.7296e-23  4.3457e-24  2.7803e-23  7.5334e-24  2.8705e-23  1.3227e-23  3.0310e-23  2.3429e-23  3.3171e-23  4.1817e-23  3.8305e-23  7.5292e-23  4.7595e-23  1.3726e-22
      2.75  2.4847e-23  2.8050e-25  2.4847e-23  2.8377e-25  2.4848e-23  2.8957e-25  2.4849e-23  2.9989e-25  2.4852e-23  3.1824e-25  2.4857e-23  3.5087e-25  2.4866e-23  4.0891e-25  2.4881e-23  5.1212e-25  2.4908e-23  6.9568e-25  2.4957e-23  1.0222e-24  2.5044e-23  1.6031e-24  2.5198e-23  2.6368e-24  2.5471e-23  4.4778e-24  2.5958e-23  7.7595e-24  2.6822e-23  1.3621e-23  2.8361e-23  2.4126e-23  3.1105e-23  4.3062e-23  3.6025e-23  7.7543e-23  4.4928e-23  1.4140e-22
      2.80  2.3168e-23  2.9296e-25  2.3169e-23  2.9630e-25  2.3169e-23  3.0223e-25  2.3171e-23  3.1279e-25  2.3173e-23  3.3156e-25  2.3178e-23  3.6494e-25  2.3186e-23  4.2430e-25  2.3201e-23  5.2986e-25  2.3228e-23  7.1762e-25  2.3274e-23  1.0516e-24  2.3358e-23  1.6457e-24  2.3506e-23  2.7031e-24  2.3769e-23  4.5860e-24  2.4236e-23  7.9428e-24  2.5068e-23  1.3939e-23  2.6547e-23  2.4684e-23  2.9185e-23  4.4057e-23  3.3910e-23  7.9340e-23  4.2464e-23  1.4471e-22
      2.85  2.1602e-23  3.0589e-25  2.1602e-23  3.0928e-25  2.1603e-23  3.1531e-25  2.1604e-23  3.2605e-25  2.1607e-23  3.4513e-25  2.1612e-23  3.7908e-25  2.1620e-23  4.3944e-25  2.1634e-23  5.4679e-25  2.1659e-23  7.3771e-25  2.1704e-23  1.0773e-24  2.1785e-23  1.6815e-24  2.1927e-23  2.7567e-24  2.2181e-23  4.6715e-24  2.2631e-23  8.0851e-24  2.3433e-23  1.4182e-23  2.4859e-23  2.5111e-23  2.7400e-23  4.4814e-23  3.1952e-23  8.0704e-23  4.0190e-23  1.4721e-22
      2.90  2.0141e-23  3.1930e-25  2.0141e-23  3.2273e-25  2.0142e-23  3.2884e-25  2.0143e-23  3.3970e-25  2.0146e-23  3.5900e-25  2.0150e-23  3.9334e-25  2.0158e-23  4.5440e-25  2.0172e-23  5.6300e-25  2.0196e-23  7.5613e-25  2.0240e-23  1.0997e-24  2.0317e-23  1.7109e-24  2.0455e-23  2.7986e-24  2.0700e-23  4.7356e-24  2.1136e-23  8.1888e-24  2.1910e-23  1.4357e-23  2.3288e-23  2.5413e-23  2.5743e-23  4.5346e-23  3.0138e-23  8.1659e-23  3.8091e-23  1.4896e-22
      2.95  1.8778e-23  3.3325e-25  1.8778e-23  3.3671e-25  1.8779e-23  3.4285e-25  1.8781e-23  3.5379e-25  1.8783e-23  3.7323e-25  1.8787e-23  4.0780e-25  1.8795e-23  4.6928e-25  1.8808e-23  5.7862e-25  1.8832e-23  7.7309e-25  1.8874e-23  1.1190e-24  1.8949e-23  1.7344e-24  1.9082e-23  2.8296e-24  1.9320e-23  4.7799e-24  1.9741e-23  8.2569e-24  2.0491e-23  1.4468e-23  2.1825e-23  2.5599e-23  2.4203e-23  4.5671e-23  2.8457e-23  8.2236e-23  3.6150e-23  1.5001e-22
      3.00  1.7507e-23  3.4779e-25  1.7508e-23  3.5126e-25  1.7509e-23  3.5742e-25  1.7510e-23  3.6839e-25  1.7512e-23  3.8788e-25  1.7516e-23  4.2254e-25  1.7524e-23  4.8419e-25  1.7536e-23  5.9382e-25  1.7560e-23  7.8880e-25  1.7600e-23  1.1356e-24  1.7673e-23  1.7526e-24  1.7803e-23  2.8507e-24  1.8033e-23  4.8063e-24  1.8442e-23  8.2925e-24  1.9169e-23  1.4520e-23  2.0464e-23  2.5681e-23  2.2770e-23  4.5805e-23  2.6896e-23  8.2467e-23  3.4351e-23  1.5042e-22
      3.05  1.6323e-23  3.6328e-25  1.6323e-23  3.6674e-25  1.6324e-23  3.7290e-25  1.6325e-23  3.8384e-25  1.6328e-23  4.0331e-25  1.6332e-23  4.3793e-25  1.6339e-23  4.9950e-25  1.6351e-23  6.0900e-25  1.6374e-23  8.0374e-25  1.6413e-23  1.1501e-24  1.6484e-23  1.7664e-24  1.6610e-23  2.8632e-24  1.6834e-23  4.8163e-24  1.7231e-23  8.2982e-24  1.7938e-23  1.4518e-23  1.9196e-23  2.5665e-23  2.1437e-23  4.5764e-23  2.5446e-23  8.2377e-23  3.2683e-23  1.5024e-22
      3.10  1.5219e-23  3.7923e-25  1.5219e-23  3.8268e-25  1.5220e-23  3.8881e-25  1.5221e-23  3.9970e-25  1.5224e-23  4.1908e-25  1.5227e-23  4.5354e-25  1.5234e-23  5.1483e-25  1.5247e-23  6.2382e-25  1.5268e-23  8.1767e-25  1.5307e-23  1.1625e-24  1.5376e-23  1.7759e-24  1.5498e-23  2.8676e-24  1.5716e-23  4.8117e-24  1.6103e-23  8.2776e-24  1.6790e-23  1.4468e-23  1.8014e-23  2.5564e-23  2.0194e-23  4.5568e-23  2.4092e-23  8.2008e-23  3.1125e-23  1.4954e-22
      3.15  1.4190e-23  3.9616e-25  1.4191e-23  3.9958e-25  1.4191e-23  4.0566e-25  1.4193e-23  4.1648e-25  1.4195e-23  4.3571e-25  1.4198e-23  4.6991e-25  1.4205e-23  5.3073e-25  1.4217e-23  6.3890e-25  1.4238e-23  8.3128e-25  1.4276e-23  1.1735e-24  1.4343e-23  1.7822e-24  1.4462e-23  2.8657e-24  1.4674e-23  4.7950e-24  1.5050e-23  8.2345e-24  1.5720e-23  1.4378e-23  1.6911e-23  2.5388e-23  1.9032e-23  4.5239e-23  2.2826e-23  8.1395e-23  2.9664e-23  1.4839e-22
      3.20  1.3232e-23  4.1398e-25  1.3232e-23  4.1737e-25  1.3233e-23  4.2339e-25  1.3234e-23  4.3409e-25  1.3236e-23  4.5313e-25  1.3240e-23  4.8698e-25  1.3246e-23  5.4718e-25  1.3258e-23  6.5423e-25  1.3279e-23  8.4464e-25  1.3315e-23  1.1833e-24  1.3381e-23  1.7859e-24  1.3497e-23  2.8582e-24  1.3703e-23  4.7677e-24  1.4070e-23  8.1719e-24  1.4721e-23  1.4252e-23  1.5881e-23  2.5149e-23  1.7947e-23  4.4794e-23  2.1640e-23  8.0572e-23  2.8290e-23  1.4686e-22
      3.25  1.2339e-23  4.3253e-25  1.2340e-23  4.3588e-25  1.2340e-23  4.4182e-25  1.2341e-23  4.5239e-25  1.2343e-23  4.7118e-25  1.2347e-23  5.0461e-25  1.2353e-23  5.6405e-25  1.2365e-23  6.6977e-25  1.2385e-23  8.5778e-25  1.2420e-23  1.1922e-24  1.2484e-23  1.7872e-24  1.2597e-23  2.8460e-24  1.2798e-23  4.7316e-24  1.3155e-23  8.0929e-24  1.3790e-23  1.4097e-23  1.4919e-23  2.4856e-23  1.6931e-23  4.4251e-23  2.0527e-23  7.9571e-23  2.6998e-23  1.4500e-22
      3.30  1.1508e-23  4.5225e-25  1.1508e-23  4.5555e-25  1.1509e-23  4.6140e-25  1.1510e-23  4.7182e-25  1.1512e-23  4.9034e-25  1.1515e-23  5.2328e-25  1.1522e-23  5.8186e-25  1.1533e-23  6.8604e-25  1.1552e-23  8.7132e-25  1.1587e-23  1.2009e-24  1.1649e-23  1.7872e-24  1.1759e-23  2.8306e-24  1.1955e-23  4.6887e-24  1.2302e-23  8.0011e-24  1.2921e-23  1.3917e-23  1.4021e-23  2.4519e-23  1.5980e-23  4.3629e-23  1.9481e-23  7.8426e-23  2.5780e-23  1.4287e-22
      3.35  1.0734e-23  4.7280e-25  1.0734e-23  4.7604e-25  1.0735e-23  4.8180e-25  1.0736e-23  4.9204e-25  1.0738e-23  5.1027e-25  1.0741e-23  5.4267e-25  1.0747e-23  6.0030e-25  1.0758e-23  7.0279e-25  1.0777e-23  8.8506e-25  1.0811e-23  1.2093e-24  1.0871e-23  1.7861e-24  1.0978e-23  2.8126e-24  1.1169e-23  4.6405e-24  1.1508e-23  7.8990e-24  1.2110e-23  1.3719e-23  1.3181e-23  2.4148e-23  1.5089e-23  4.2946e-23  1.8499e-23  7.7170e-23  2.4629e-23  1.4054e-22
      3.40  1.0013e-23  4.9421e-25  1.0013e-23  4.9739e-25  1.0014e-23  5.0305e-25  1.0015e-23  5.1312e-25  1.0017e-23  5.3102e-25  1.0020e-23  5.6286e-25  1.0026e-23  6.1947e-25  1.0036e-23  7.2016e-25  1.0055e-23  8.9923e-25  1.0088e-23  1.2178e-24  1.0147e-23  1.7844e-24  1.0251e-23  2.7929e-24  1.0437e-23  4.5887e-24  1.0767e-23  7.7899e-24  1.1354e-23  1.3507e-23  1.2398e-23  2.3752e-23  1.4256e-23  4.2218e-23  1.7576e-23  7.5833e-23  2.3544e-23  1.3807e-22
      3.45  9.3420e-24  5.1653e-25  9.3423e-24  5.1966e-25  9.3429e-24  5.2521e-25  9.3439e-24  5.3510e-25  9.3457e-24  5.5267e-25  9.3489e-24  5.8392e-25  9.3546e-24  6.3949e-25  9.3648e-24  7.3832e-25  9.3829e-24  9.1408e-25  9.4151e-24  1.2267e-24  9.4723e-24  1.7829e-24  9.5741e-24  2.7728e-24  9.7550e-24  4.5354e-24  1.0077e-23  7.6775e-24  1.0649e-23  1.3289e-23  1.1666e-23  2.3345e-23  1.3476e-23  4.1467e-23  1.6710e-23  7.4455e-23  2.2521e-23  1.3552e-22
      3.50  8.7173e-24  5.3983e-25  8.7176e-24  5.4290e-25  8.7182e-24  5.4835e-25  8.7192e-24  5.5805e-25  8.7210e-24  5.7529e-25  8.7241e-24  6.0596e-25  8.7297e-24  6.6049e-25  8.7396e-24  7.5748e-25  8.7573e-24  9.2997e-25  8.7886e-24  1.2368e-24  8.8444e-24  1.7826e-24  8.9437e-24  2.7540e-24  9.1200e-24  4.4837e-24  9.4336e-24  7.5672e-24  9.9912e-24  1.3074e-23  1.0983e-23  2.2941e-23  1.2748e-23  4.0724e-23  1.5899e-23  7.3091e-23  2.1560e-23  1.3300e-22
      3.55  8.1360e-24  5.6477e-25  8.1363e-24  5.6779e-25  8.1369e-24  5.7314e-25  8.1378e-24  5.8267e-25  8.1395e-24  5.9961e-25  8.1426e-24  6.2973e-25  8.1480e-24  6.8330e-25  8.1577e-24  7.7857e-25  8.1750e-24  9.4802e-25  8.2056e-24  1.2494e-24  8.2600e-24  1.7856e-24  8.3568e-24  2.7398e-24  8.5288e-24  4.4390e-24  8.8348e-24  7.4680e-24  9.3787e-24  1.2877e-23  1.0346e-23  2.2570e-23  1.2068e-23  4.0038e-23  1.5141e-23  7.1831e-23  2.0658e-23  1.3067e-22
      3.60  7.5949e-24  5.9084e-25  7.5952e-24  5.9381e-25  7.5958e-24  5.9909e-25  7.5967e-24  6.0847e-25  7.5984e-24  6.2517e-25  7.6014e-24  6.5485e-25  7.6067e-24  7.0764e-25  7.6161e-24  8.0151e-25  7.6330e-24  9.6848e-25  7.6628e-24  1.2655e-24  7.7160e-24  1.7938e-24  7.8105e-24  2.7341e-24  7.9784e-24  4.4084e-24  8.2771e-24  7.3930e-24  8.8081e-24  1.2723e-23  9.7522e-24  2.2274e-23  1.1433e-23  3.9486e-23  1.4432e-23  7.0814e-23  1.9814e-23  1.2879e-22
      3.65  7.0913e-24  6.1813e-25  7.0916e-24  6.2107e-25  7.0921e-24  6.2630e-25  7.0931e-24  6.3561e-25  7.0947e-24  6.5216e-25  7.0976e-24  6.8159e-25  7.1028e-24  7.3393e-25  7.1121e-24  8.2702e-25  7.1285e-24  9.9257e-25  7.1577e-24  1.2870e-24  7.2096e-24  1.8109e-24  7.3019e-24  2.7432e-24  7.4660e-24  4.4034e-24  7.7579e-24  7.3628e-24  8.2767e-24  1.2648e-23  9.1992e-24  2.2119e-23  1.0841e-23  3.9186e-23  1.3771e-23  7.0252e-23  1.9025e-23  1.2775e-22
      3.70  6.6226e-24  6.4672e-25  6.6229e-24  6.4969e-25  6.6234e-24  6.5495e-25  6.6243e-24  6.6432e-25  6.6259e-24  6.8097e-25  6.6288e-24  7.1058e-25  6.6339e-24  7.6324e-25  6.6429e-24  8.5690e-25  6.6590e-24  1.0235e-24  6.6875e-24  1.3197e-24  6.7383e-24  1.8468e-24  6.8286e-24  2.7849e-24  6.9891e-24  4.4553e-24  7.2745e-24  7.4330e-24  7.7819e-24  1.2751e-23  8.6840e-24  2.2281e-23  1.0290e-23  3.9456e-23  1.3154e-23  7.0724e-23  1.8289e-23  1.2861e-22
      3.75  6.1864e-24  6.7671e-25  6.1866e-24  6.7972e-25  6.1871e-24  6.8506e-25  6.1880e-24  6.9456e-25  6.1896e-24  7.1146e-25  6.1924e-24  7.4150e-25  6.1974e-24  7.9493e-25  6.2062e-24  8.8995e-25  6.2219e-24  1.0589e-24  6.2499e-24  1.3595e-24  6.2996e-24  1.8943e-24  6.3880e-24  2.8461e-24  6.5451e-24  4.5409e-24  6.8245e-24  7.5621e-24  7.3212e-24  1.2958e-23  8.2044e-24  2.2628e-23  9.7761e-24  4.0057e-23  1.2580e-23  7.1790e-23  1.7604e-23  1.3055e-22
      3.80  5.7804e-24  7.0913e-25  5.7806e-24  7.1224e-25  5.7811e-24  7.1778e-25  5.7820e-24  7.2762e-25  5.7835e-24  7.4513e-25  5.7863e-24  7.7626e-25  5.7911e-24  8.3162e-25  5.7998e-24  9.3007e-25  5.8152e-24  1.1052e-24  5.8426e-24  1.4166e-24  5.8913e-24  1.9707e-24  5.9779e-24  2.9569e-24  6.1319e-24  4.7129e-24  6.4057e-24  7.8435e-24  6.8924e-24  1.3435e-23  7.7578e-24  2.3455e-23  9.2979e-24  4.1520e-23  1.2045e-23  7.4415e-23  1.6965e-23  1.3535e-22
      3.85  5.4024e-24  7.4327e-25  5.4027e-24  7.4657e-25  5.4031e-24  7.5245e-25  5.4040e-24  7.6291e-25  5.4055e-24  7.8150e-25  5.4082e-24  8.1456e-25  5.4130e-24  8.7335e-25  5.4215e-24  9.7792e-25  5.4366e-24  1.1639e-24  5.4634e-24  1.4947e-24  5.5112e-24  2.0832e-24  5.5961e-24  3.1305e-24  5.7471e-24  4.9957e-24  6.0157e-24  8.3207e-24  6.4930e-24  1.4260e-23  7.3419e-24  2.4905e-23  8.8525e-24  4.4097e-23  1.1546e-23  7.9057e-23  1.6370e-23  1.4385e-22
      3.90  5.0505e-24  7.7935e-25  5.0507e-24  7.8295e-25  5.0512e-24  7.8936e-25  5.0520e-24  8.0076e-25  5.0535e-24  8.2103e-25  5.0561e-24  8.5708e-25  5.0608e-24  9.2119e-25  5.0692e-24  1.0352e-24  5.0840e-24  1.2380e-24  5.1104e-24  1.5986e-24  5.1573e-24  2.2403e-24  5.2407e-24  3.3823e-24  5.3889e-24  5.4160e-24  5.6525e-24  9.0416e-24  6.1211e-24  1.5518e-23  6.9545e-24  2.7127e-23  8.4374e-24  4.8063e-23  1.1081e-23  8.6211e-23  1.5816e-23  1.5695e-22
      3.95  4.7227e-24  8.1796e-25  4.7230e-24  8.2199e-25  4.7234e-24  8.2917e-25  4.7242e-24  8.4192e-25  4.7257e-24  8.6460e-25  4.7283e-24  9.0492e-25  4.7329e-24  9.7664e-25  4.7411e-24  1.1042e-24  4.7557e-24  1.3310e-24  4.7816e-24  1.7345e-24  4.8277e-24  2.4524e-24  4.9096e-24  3.7300e-24  5.0552e-24  6.0053e-24  5.3142e-24  1.0062e-23  5.7747e-24  1.7309e-23  6.5936e-24  3.0300e-23  8.0508e-24  5.3733e-23  1.0649e-23  9.6449e-23  1.5300e-23  1.7571e-22
