# This was generated using Cloudy10 and the columns are ordered 
# as log10 of the fraction of the metallicity to the solar metallicity
# 'h_*_Z' and 'c_*_Z' stands for cooling and heating respectively 
# at * metalicity
#
# NOTE: This was generated separately from loop_coolingcurve_w_UV.py
#       using Output_metals_w_redshift.py.
#
# Redshift = 4.5
# hden = -3.0
#
#     temp   h_-3.00_Z   c_-3.00_Z   h_-2.75_Z   c_-2.75_Z   h_-2.50_Z   c_-2.50_Z   h_-2.25_Z   c_-2.25_Z   h_-2.00_Z   c_-2.00_Z   h_-1.75_Z   c_-1.75_Z   h_-1.50_Z   c_-1.50_Z   h_-1.25_Z   c_-1.25_Z   h_-1.00_Z   c_-1.00_Z   h_-0.75_Z   c_-0.75_Z   h_-0.50_Z   c_-0.50_Z   h_-0.25_Z   c_-0.25_Z    h_0.00_Z    c_0.00_Z    h_0.25_Z    c_0.25_Z    h_0.50_Z    c_0.50_Z    h_0.75_Z    c_0.75_Z    h_1.00_Z    c_1.00_Z    h_1.25_Z    c_1.25_Z    h_1.50_Z    c_1.50_Z 
      4.00  4.8536e-24  8.5853e-25  4.8540e-24  8.6312e-25  4.8547e-24  8.7127e-25  4.8559e-24  8.8577e-25  4.8580e-24  9.1155e-25  4.8619e-24  9.5740e-25  4.8687e-24  1.0389e-24  4.8808e-24  1.1839e-24  4.9024e-24  1.4418e-24  4.9407e-24  1.9006e-24  5.0088e-24  2.7167e-24  5.1300e-24  4.1693e-24  5.3454e-24  6.7564e-24  5.7285e-24  1.1369e-23  6.4094e-24  1.9612e-23  7.6200e-24  3.4394e-23  9.7734e-24  6.1074e-23  1.3609e-23  1.0976e-22  2.0465e-23  2.0026e-22
      4.05  4.5541e-24  9.0822e-25  4.5544e-24  9.1354e-25  4.5551e-24  9.2299e-25  4.5563e-24  9.3980e-25  4.5584e-24  9.6969e-25  4.5622e-24  1.0229e-24  4.5690e-24  1.1174e-24  4.5809e-24  1.2855e-24  4.6022e-24  1.5846e-24  4.6401e-24  2.1165e-24  4.7074e-24  3.0629e-24  4.8271e-24  4.7473e-24  5.0399e-24  7.7474e-24  5.4183e-24  1.3097e-23  6.0910e-24  2.2657e-23  7.2871e-24  3.9805e-23  9.4146e-24  7.0764e-23  1.3205e-23  1.2729e-22  1.9978e-23  2.3245e-22
      4.10  4.2734e-24  9.7227e-25  4.2738e-24  9.7858e-25  4.2745e-24  9.8979e-25  4.2757e-24  1.0097e-24  4.2778e-24  1.0452e-24  4.2815e-24  1.1082e-24  4.2882e-24  1.2203e-24  4.3000e-24  1.4197e-24  4.3211e-24  1.7743e-24  4.3585e-24  2.4051e-24  4.4251e-24  3.5274e-24  4.5436e-24  5.5249e-24  4.7541e-24  9.0827e-24  5.1284e-24  1.5427e-23  5.7940e-24  2.6766e-23  6.9773e-24  4.7107e-23  9.0825e-24  8.3841e-23  1.2833e-23  1.5094e-22  1.9535e-23  2.7586e-22
      4.15  4.0102e-24  1.0654e-24  4.0106e-24  1.0730e-24  4.0113e-24  1.0866e-24  4.0124e-24  1.1108e-24  4.0145e-24  1.1537e-24  4.0182e-24  1.2302e-24  4.0248e-24  1.3661e-24  4.0366e-24  1.6078e-24  4.0575e-24  2.0378e-24  4.0946e-24  2.8025e-24  4.1606e-24  4.1632e-24  4.2780e-24  6.5850e-24  4.4868e-24  1.0899e-23  4.8579e-24  1.8591e-23  5.5179e-24  3.2340e-23  6.6913e-24  5.7007e-23  8.7789e-24  1.0156e-22  1.2498e-23  1.8298e-22  1.9145e-23  3.3463e-22
      4.20  3.7628e-24  1.2132e-24  3.7631e-24  1.2227e-24  3.7638e-24  1.2395e-24  3.7650e-24  1.2694e-24  3.7670e-24  1.3227e-24  3.7707e-24  1.4173e-24  3.7773e-24  1.5856e-24  3.7890e-24  1.8849e-24  3.8097e-24  2.4173e-24  3.8467e-24  3.3643e-24  3.9123e-24  5.0491e-24  4.0291e-24  8.0479e-24  4.2367e-24  1.3389e-23  4.6059e-24  2.2915e-23  5.2623e-24  3.9940e-23  6.4294e-24  7.0488e-23  8.5059e-24  1.2567e-22  1.2206e-23  2.2652e-22  1.8818e-23  4.1442e-22
      4.25  3.5291e-24  1.4557e-24  3.5294e-24  1.4677e-24  3.5301e-24  1.4889e-24  3.5313e-24  1.5267e-24  3.5333e-24  1.5939e-24  3.5370e-24  1.7134e-24  3.5436e-24  1.9259e-24  3.5552e-24  2.3039e-24  3.5760e-24  2.9760e-24  3.6129e-24  4.1717e-24  3.6784e-24  6.2990e-24  3.7950e-24  1.0085e-23  4.0024e-24  1.6829e-23  4.3711e-24  2.8857e-23  5.0266e-24  5.0353e-23  6.1923e-24  8.8924e-23  8.2664e-24  1.5860e-22  1.1962e-23  2.8594e-22  1.8568e-23  5.2323e-22
      4.30  3.3064e-24  1.8491e-24  3.3068e-24  1.8644e-24  3.3074e-24  1.8916e-24  3.3086e-24  1.9399e-24  3.3107e-24  2.0258e-24  3.3144e-24  2.1787e-24  3.3210e-24  2.4504e-24  3.3327e-24  2.9337e-24  3.3534e-24  3.7933e-24  3.3904e-24  5.3224e-24  3.4561e-24  8.0429e-24  3.5730e-24  1.2885e-23  3.7808e-24  2.1510e-23  4.1503e-24  3.6890e-23  4.8073e-24  6.4380e-23  5.9757e-24  1.1370e-22  8.0548e-24  2.0280e-22  1.1760e-23  3.6563e-22  1.8384e-23  6.6901e-22
      4.35  3.0909e-24  2.4550e-24  3.0913e-24  2.4747e-24  3.0920e-24  2.5098e-24  3.0931e-24  2.5721e-24  3.0952e-24  2.6829e-24  3.0990e-24  2.8800e-24  3.1056e-24  3.2305e-24  3.1173e-24  3.8538e-24  3.1382e-24  4.9624e-24  3.1754e-24  6.9344e-24  3.2415e-24  1.0443e-23  3.3590e-24  1.6688e-23  3.5680e-24  2.7810e-23  3.9397e-24  4.7646e-23  4.6005e-24  8.3098e-23  5.7759e-24  1.4670e-22  7.8676e-24  2.6160e-22  1.1596e-23  4.7155e-22  1.8264e-23  8.6269e-22
      4.40  2.8775e-24  3.3315e-24  2.8779e-24  3.3570e-24  2.8786e-24  3.4025e-24  2.8797e-24  3.4833e-24  2.8819e-24  3.6270e-24  2.8856e-24  3.8825e-24  2.8923e-24  4.3370e-24  2.9041e-24  5.1452e-24  2.9253e-24  6.5826e-24  2.9628e-24  9.1395e-24  3.0295e-24  1.3689e-23  3.1482e-24  2.1786e-23  3.3592e-24  3.6208e-23  3.7344e-24  6.1926e-23  4.4016e-24  1.0789e-22  5.5886e-24  1.9036e-22  7.7013e-24  3.3933e-22  1.1469e-23  6.1152e-22  1.8211e-23  1.1186e-21
      4.45  2.6604e-24  4.5043e-24  2.6608e-24  4.5375e-24  2.6615e-24  4.5966e-24  2.6627e-24  4.7017e-24  2.6648e-24  4.8887e-24  2.6686e-24  5.2210e-24  2.6754e-24  5.8121e-24  2.6874e-24  6.8634e-24  2.7088e-24  8.7331e-24  2.7469e-24  1.2059e-23  2.8145e-24  1.7976e-23  2.9348e-24  2.8508e-23  3.1486e-24  4.7266e-23  3.5290e-24  8.0719e-23  4.2054e-24  1.4051e-22  5.4089e-24  2.4778e-22  7.5518e-24  4.4154e-22  1.1375e-23  7.9559e-22  1.8223e-23  1.4552e-21
      4.50  2.4352e-24  5.9344e-24  2.4356e-24  5.9776e-24  2.4363e-24  6.0544e-24  2.4375e-24  6.1910e-24  2.4397e-24  6.4340e-24  2.4435e-24  6.8661e-24  2.4504e-24  7.6345e-24  2.4626e-24  9.0010e-24  2.4844e-24  1.1431e-23  2.5231e-24  1.5755e-23  2.5919e-24  2.3446e-23  2.7142e-24  3.7137e-23  2.9318e-24  6.1521e-23  3.3187e-24  1.0501e-22  4.0070e-24  1.8273e-22  5.2318e-24  3.2217e-22  7.4135e-24  5.7405e-22  1.1309e-23  1.0343e-21  1.8292e-23  1.8918e-21
      4.55  2.2015e-24  7.5054e-24  2.2019e-24  7.5614e-24  2.2026e-24  7.6609e-24  2.2038e-24  7.8378e-24  2.2060e-24  8.1525e-24  2.2100e-24  8.7121e-24  2.2170e-24  9.7073e-24  2.2295e-24  1.1477e-23  2.2517e-24  1.4625e-23  2.2911e-24  2.0224e-23  2.3613e-24  3.0186e-23  2.4861e-24  4.7917e-23  2.7080e-24  7.9498e-23  3.1027e-24  1.3582e-22  3.8050e-24  2.3648e-22  5.0549e-24  4.1709e-22  7.2823e-24  7.4333e-22  1.1262e-23  1.3395e-21  1.8405e-23  2.4503e-21
      4.60  1.9654e-24  9.0655e-24  1.9654e-24  9.1372e-24  1.9665e-24  9.2656e-24  1.9678e-24  9.4933e-24  1.9701e-24  9.8982e-24  1.9741e-24  1.0618e-23  1.9813e-24  1.1899e-23  1.9940e-24  1.4176e-23  2.0167e-24  1.8226e-23  2.0570e-24  2.5431e-23  2.1286e-24  3.8249e-23  2.2560e-24  6.1064e-23  2.4826e-24  1.0170e-22  2.8857e-24  1.7417e-22  3.6029e-24  3.0369e-22  4.8798e-24  5.3608e-22  7.1561e-24  9.5587e-22  1.1225e-23  1.7230e-21  1.8537e-23  3.1522e-21
      4.65  1.7384e-24  1.0700e-23  1.7388e-24  1.0792e-23  1.7395e-24  1.0955e-23  1.7408e-24  1.1245e-23  1.7431e-24  1.1761e-23  1.7473e-24  1.2678e-23  1.7546e-24  1.4310e-23  1.7675e-24  1.7211e-23  1.7906e-24  2.2370e-23  1.8317e-24  3.1548e-23  1.9047e-24  4.7876e-23  2.0346e-24  7.6939e-23  2.2656e-24  1.2870e-22  2.6765e-24  2.2102e-22  3.4077e-24  3.8601e-22  4.7097e-24  6.8204e-22  7.0315e-24  1.2168e-21  1.1184e-23  2.1939e-21  1.8651e-23  4.0141e-21
      4.70  1.5312e-24  1.2955e-23  1.5316e-24  1.3071e-23  1.5323e-24  1.3276e-23  1.5337e-24  1.3641e-23  1.5360e-24  1.4290e-23  1.5402e-24  1.5444e-23  1.5476e-24  1.7497e-23  1.5607e-24  2.1147e-23  1.5842e-24  2.7639e-23  1.6258e-24  3.9188e-23  1.6998e-24  5.9734e-23  1.8316e-24  9.6304e-23  2.0658e-24  1.6144e-22  2.4825e-24  2.7760e-22  3.2240e-24  4.8521e-22  4.5445e-24  8.5769e-22  6.8997e-24  1.5305e-21  1.1113e-23  2.7598e-21  1.8691e-23  5.0496e-21
      4.75  1.3462e-24  1.7126e-23  1.3466e-24  1.7270e-23  1.3473e-24  1.7524e-23  1.3486e-24  1.7977e-23  1.3510e-24  1.8782e-23  1.3552e-24  2.0214e-23  1.3626e-24  2.2760e-23  1.3759e-24  2.7288e-23  1.3994e-24  3.5342e-23  1.4412e-24  4.9668e-23  1.5157e-24  7.5156e-23  1.6480e-24  1.2052e-22  1.8834e-24  2.0133e-22  2.3022e-24  3.4542e-22  3.0474e-24  6.0296e-22  4.3745e-24  1.0650e-21  6.7414e-24  1.8996e-21  1.0975e-23  3.4245e-21  1.8590e-23  6.2647e-21
      4.80  1.1700e-24  2.5153e-23  1.1704e-24  2.5328e-23  1.1712e-24  2.5639e-23  1.1725e-24  2.6192e-23  1.1748e-24  2.7177e-23  1.1790e-24  2.8927e-23  1.1864e-24  3.2040e-23  1.1995e-24  3.7577e-23  1.2229e-24  4.7424e-23  1.2645e-24  6.4939e-23  1.3384e-24  9.6101e-23  1.4699e-24  1.5157e-22  1.7038e-24  2.5036e-22  2.1199e-24  4.2654e-22  2.8601e-24  7.4142e-22  4.1783e-24  1.3064e-21  6.5290e-24  2.3268e-21  1.0733e-23  4.1914e-21  1.8289e-23  7.6645e-21
      4.85  9.7202e-25  3.8206e-23  9.7243e-25  3.8417e-23  9.7315e-25  3.8792e-23  9.7444e-25  3.9458e-23  9.7673e-25  4.0644e-23  9.8080e-25  4.2751e-23  9.8804e-25  4.6500e-23  1.0009e-24  5.3166e-23  1.0238e-24  6.5022e-23  1.0645e-24  8.6111e-23  1.1370e-24  1.2363e-22  1.2657e-24  1.9042e-22  1.4948e-24  3.0937e-22  1.9022e-24  5.2152e-22  2.6270e-24  9.0068e-22  3.9174e-24  1.5810e-21  6.2178e-24  2.8100e-21  1.0330e-23  5.0561e-21  1.7715e-23  9.2409e-21
      4.90  7.2860e-25  5.2817e-23  7.2899e-25  5.3067e-23  7.2938e-25  5.3470e-23  7.3092e-25  5.4298e-23  7.3312e-25  5.5700e-23  7.3703e-25  5.8193e-23  7.4399e-25  6.2627e-23  7.5637e-25  7.0511e-23  7.7838e-25  8.4535e-23  8.1752e-25  1.0948e-22  8.8713e-25  1.5386e-22  1.0109e-24  2.3286e-22  1.2310e-24  3.7357e-22  1.6225e-24  6.2453e-22  2.3188e-24  1.0731e-21  3.5581e-24  1.8781e-21  5.7667e-24  3.3328e-21  9.7123e-24  5.9924e-21  1.6791e-23  1.0951e-20
      4.95  4.7500e-25  6.0592e-23  4.7537e-25  6.0879e-23  4.7602e-25  6.1389e-23  4.7718e-25  6.2297e-23  4.7924e-25  6.3912e-23  4.8291e-25  6.6783e-23  4.8944e-25  7.1890e-23  5.0104e-25  8.0972e-23  5.2168e-25  9.7124e-23  5.5837e-25  1.2586e-22  6.2363e-25  1.7698e-22  7.3965e-25  2.6798e-22  9.4593e-25  4.3007e-22  1.3127e-24  7.1920e-22  1.9650e-24  1.2361e-21  3.1254e-24  2.1641e-21  5.1927e-24  3.8418e-21  8.8835e-24  6.9122e-21  1.5497e-23  1.2645e-20
      5.00  2.7965e-25  5.8134e-23  2.7998e-25  5.8451e-23  2.8057e-25  5.9015e-23  2.8163e-25  6.0017e-23  2.8351e-25  6.1799e-23  2.8685e-25  6.4969e-23  2.9279e-25  7.0605e-23  3.0335e-25  8.0629e-23  3.2215e-25  9.8457e-23  3.5556e-25  1.3017e-22  4.1497e-25  1.8660e-22  5.2057e-25  2.8705e-22  7.0828e-25  4.6601e-22  1.0419e-24  7.8529e-22  1.6350e-24  1.3563e-21  2.6898e-24  2.3819e-21  4.5681e-24  4.2378e-21  7.9191e-24  7.6391e-21  1.3915e-23  1.4006e-20
      5.05  1.6094e-25  5.0084e-23  1.6124e-25  5.0414e-23  1.6177e-25  5.1001e-23  1.6271e-25  5.2045e-23  1.6437e-25  5.3902e-23  1.6734e-25  5.7205e-23  1.7263e-25  6.3077e-23  1.8203e-25  7.3522e-23  1.9875e-25  9.2099e-23  2.2847e-25  1.2515e-22  2.8128e-25  1.8395e-22  3.7510e-25  2.8863e-22  5.4178e-25  4.7516e-22  8.3787e-25  8.0800e-22  1.3639e-24  1.4035e-21  2.2992e-24  2.4736e-21  3.9638e-24  4.4121e-21  6.9310e-24  7.9706e-21  1.2235e-23  1.4650e-20
      5.10  9.5926e-26  4.1256e-23  9.6189e-26  4.1587e-23  9.6657e-26  4.2176e-23  9.7490e-26  4.3223e-23  9.8973e-26  4.5085e-23  1.0161e-25  4.8397e-23  1.0631e-25  5.4286e-23  1.1468e-25  6.4761e-23  1.2955e-25  8.3390e-23  1.5595e-25  1.1653e-22  2.0282e-25  1.7551e-22  2.8603e-25  2.8050e-22  4.3370e-25  4.6759e-22  6.9578e-25  8.0148e-22  1.1611e-24  1.3990e-21  1.9884e-24  2.4733e-21  3.4618e-24  4.4207e-21  6.0871e-24  8.0006e-21  1.0772e-23  1.4736e-20
      5.15  6.0554e-26  3.3694e-23  6.0793e-26  3.4029e-23  6.1217e-26  3.4626e-23  6.1974e-26  3.5688e-23  6.3319e-26  3.7576e-23  6.5716e-26  4.0933e-23  6.9993e-26  4.6904e-23  7.7597e-26  5.7522e-23  9.1086e-26  7.6409e-23  1.1501e-25  1.1001e-22  1.5743e-25  1.6980e-22  2.3262e-25  2.7624e-22  3.6588e-25  4.6594e-22  6.0209e-25  8.0451e-22  1.0222e-24  1.4105e-21  1.7695e-24  2.5005e-21  3.0998e-24  4.4781e-21  5.4693e-24  8.1185e-21  9.6941e-24  1.4983e-20
      5.20  4.0522e-26  2.7752e-23  4.0741e-26  2.8101e-23  4.1133e-26  2.8721e-23  4.1832e-26  2.9824e-23  4.3076e-26  3.1785e-23  4.5299e-26  3.5274e-23  4.9264e-26  4.1476e-23  5.6277e-26  5.2509e-23  6.8712e-26  7.2131e-23  9.0732e-26  1.0704e-22  1.2970e-25  1.6916e-22  1.9862e-25  2.7977e-22  3.2059e-25  4.7689e-22  5.3748e-25  8.2877e-22  9.2320e-25  1.4588e-21  1.6094e-24  2.5925e-21  2.8306e-24  4.6512e-21  5.0053e-24  8.4466e-21  8.8818e-24  1.5620e-20
      5.25  2.8522e-26  2.3210e-23  2.8725e-26  2.3573e-23  2.9087e-26  2.4218e-23  2.9736e-26  2.5366e-23  3.0893e-26  2.7406e-23  3.2950e-26  3.1036e-23  3.6612e-26  3.7490e-23  4.3076e-26  4.8969e-23  5.4507e-26  6.9387e-23  7.4707e-26  1.0571e-22  1.1037e-25  1.7035e-22  1.7330e-25  2.8546e-22  2.8505e-25  4.9061e-22  4.8370e-25  8.5690e-22  8.3700e-25  1.5129e-21  1.4655e-24  2.6941e-21  2.5840e-24  4.8409e-21  4.5754e-24  8.8049e-21  8.1242e-24  1.6316e-20
      5.30  2.0919e-26  1.9760e-23  2.1106e-26  2.0134e-23  2.1442e-26  2.0798e-23  2.2047e-26  2.1980e-23  2.3108e-26  2.4080e-23  2.4996e-26  2.7816e-23  2.8350e-26  3.4460e-23  3.4252e-26  4.6277e-23  4.4665e-26  6.7296e-23  6.2997e-26  1.0469e-22  9.5274e-26  1.7124e-22  1.5236e-25  2.8975e-22  2.5382e-25  5.0099e-22  4.3412e-25  8.7821e-22  7.5472e-25  1.5540e-21  1.3250e-24  2.7716e-21  2.3395e-24  4.9868e-21  4.1455e-24  9.0839e-21  7.3629e-24  1.6868e-20
      5.35  1.5858e-26  1.7148e-23  1.6030e-26  1.7529e-23  1.6346e-26  1.8207e-23  1.6900e-26  1.9412e-23  1.7872e-26  2.1555e-23  1.9594e-26  2.5367e-23  2.2652e-26  3.2146e-23  2.8015e-26  4.4204e-23  3.7437e-26  6.5652e-23  5.3997e-26  1.0381e-22  8.3081e-26  1.7173e-22  1.3462e-25  2.9268e-22  2.2621e-25  5.0829e-22  3.8902e-25  8.9343e-22  6.7851e-25  1.5837e-21  1.1933e-24  2.8282e-21  2.1094e-24  5.0958e-21  3.7401e-24  9.2977e-21  6.6450e-24  1.7307e-20
      5.40  1.2339e-26  1.5140e-23  1.2495e-26  1.5508e-23  1.2779e-26  1.6164e-23  1.3270e-26  1.7329e-23  1.4138e-26  1.9402e-23  1.5665e-26  2.3087e-23  1.8370e-26  2.9643e-23  2.3143e-26  4.1302e-23  3.1477e-26  6.2045e-23  4.6088e-26  9.8956e-23  7.1730e-26  1.6465e-22  1.1722e-25  2.8165e-22  1.9806e-25  4.9026e-22  3.4174e-25  8.6299e-22  5.9722e-25  1.5314e-21  1.0515e-24  2.7377e-21  1.8599e-24  4.9386e-21  3.2991e-24  9.0289e-21  5.8637e-24  1.6860e-20
      5.45  9.7980e-27  1.3555e-23  9.9263e-27  1.3863e-23  1.0162e-26  1.4409e-23  1.0568e-26  1.5381e-23  1.1285e-26  1.7109e-23  1.2558e-26  2.0183e-23  1.4805e-26  2.5649e-23  1.8767e-26  3.5373e-23  2.5757e-26  5.2674e-23  3.7984e-26  8.3467e-23  5.9313e-26  1.3826e-22  9.7162e-26  2.3587e-22  1.6436e-25  4.0994e-22  2.8369e-25  7.2110e-22  4.9580e-25  1.2795e-21  8.7301e-25  2.2884e-21  1.5442e-24  4.1330e-21  2.7394e-24  7.5730e-21  4.8694e-24  1.4195e-20
      5.50  7.9151e-27  1.2290e-23  8.0143e-27  1.2513e-23  8.1935e-27  1.2911e-23  8.5207e-27  1.3617e-23  9.0949e-27  1.4873e-23  1.0111e-26  1.7106e-23  1.1919e-26  2.1079e-23  1.5124e-26  2.8145e-23  2.0776e-26  4.0717e-23  3.0704e-26  6.3088e-23  4.7969e-26  1.0290e-22  7.8428e-26  1.7383e-22  1.3232e-25  3.0036e-22  2.2802e-25  5.2659e-22  3.9804e-25  9.3281e-22  7.0038e-25  1.6675e-21  1.2383e-24  3.0131e-21  2.1961e-24  5.5293e-21  3.9026e-24  1.0394e-20
      5.55  6.4995e-27  1.1372e-23  6.5812e-27  1.1542e-23  6.7279e-27  1.1844e-23  6.9934e-27  1.2381e-23  7.4743e-27  1.3337e-23  8.3374e-27  1.5036e-23  9.8744e-27  1.8059e-23  1.2602e-26  2.3435e-23  1.7419e-26  3.2997e-23  2.5808e-26  5.0013e-23  4.0387e-26  8.0302e-23  6.5982e-26  1.3427e-22  1.1123e-25  2.3054e-22  1.9149e-25  4.0270e-22  3.3416e-25  7.1194e-22  5.8782e-25  1.2715e-21  1.0391e-24  2.2974e-21  1.8425e-24  4.2184e-21  3.2735e-24  7.9410e-21
      5.60  5.4169e-27  1.0744e-23  5.4895e-27  1.0893e-23  5.6204e-27  1.1157e-23  5.8583e-27  1.1627e-23  6.2826e-27  1.2462e-23  7.0531e-27  1.3948e-23  8.4459e-27  1.6590e-23  1.0912e-26  2.1289e-23  1.5281e-26  2.9648e-23  2.2716e-26  4.4522e-23  3.5698e-26  7.1001e-23  5.8367e-26  1.1818e-22  9.8531e-26  2.0235e-22  1.6986e-25  3.5289e-22  2.9664e-25  6.2332e-22  5.2206e-25  1.1129e-21  9.2310e-25  2.0107e-21  1.6369e-24  3.6937e-21  2.9082e-24  6.9591e-21
      5.65  4.5739e-27  1.0341e-23  4.6410e-27  1.0483e-23  4.7626e-27  1.0736e-23  4.9846e-27  1.1185e-23  5.3819e-27  1.1984e-23  6.0959e-27  1.3405e-23  7.3813e-27  1.5932e-23  9.6786e-27  2.0427e-23  1.3745e-26  2.8421e-23  2.0531e-26  4.2648e-23  3.2385e-26  6.7976e-23  5.3099e-26  1.1310e-22  8.9876e-26  1.9362e-22  1.5519e-25  3.3763e-22  2.7131e-25  5.9639e-22  4.7778e-25  1.0649e-21  8.4510e-25  1.9247e-21  1.4989e-24  3.5374e-21  2.6633e-24  6.6704e-21
      5.70  3.9073e-27  1.0114e-23  3.9698e-27  1.0253e-23  4.0838e-27  1.0500e-23  4.2944e-27  1.0940e-23  4.6658e-27  1.1722e-23  5.3375e-27  1.3113e-23  6.5498e-27  1.5587e-23  8.7168e-27  1.9986e-23  1.2436e-26  2.7811e-23  1.8665e-26  4.1738e-23  2.9539e-26  6.6532e-23  4.8652e-26  1.1071e-22  8.2549e-26  1.8953e-22  1.4276e-25  3.3054e-22  2.4983e-25  5.8393e-22  4.4023e-25  1.0429e-21  7.7896e-25  1.8855e-21  1.3819e-24  3.4675e-21  2.4560e-24  6.5449e-21
      5.75  3.3725e-27  9.9743e-24  3.4299e-27  1.0107e-23  3.5350e-27  1.0342e-23  3.7284e-27  1.0760e-23  4.0765e-27  1.1503e-23  4.7042e-27  1.2825e-23  5.8440e-27  1.5175e-23  7.8313e-27  1.9356e-23  1.1119e-26  2.6794e-23  1.6761e-26  4.0031e-23  2.6608e-26  6.3596e-23  4.4032e-26  1.0558e-22  7.4919e-26  1.8051e-22  1.2980e-25  3.1455e-22  2.2737e-25  5.5550e-22  4.0088e-25  9.9207e-22  7.0964e-25  1.7942e-21  1.2593e-24  3.3017e-21  2.2386e-24  6.2386e-21
      5.80  2.9389e-27  9.9951e-24  2.9907e-27  1.0117e-23  3.0857e-27  1.0333e-23  3.2612e-27  1.0717e-23  3.5815e-27  1.1400e-23  4.1679e-27  1.2615e-23  5.1983e-27  1.4775e-23  6.9536e-27  1.8618e-23  9.8524e-27  2.5455e-23  1.4899e-26  3.7621e-23  2.3720e-26  5.9281e-23  3.9367e-26  9.7876e-23  6.7097e-26  1.6675e-22  1.1635e-25  2.8999e-22  2.0393e-25  5.1155e-22  3.5969e-25  9.1316e-22  6.3685e-25  1.6514e-21  1.1303e-24  3.0404e-21  2.0097e-24  5.7507e-21
      5.85  2.5855e-27  1.0159e-23  2.6327e-27  1.0273e-23  2.7195e-27  1.0478e-23  2.8809e-27  1.0841e-23  3.1804e-27  1.1486e-23  3.7278e-27  1.2635e-23  4.6286e-27  1.4677e-23  6.1748e-27  1.8310e-23  8.7707e-27  2.4773e-23  1.3319e-26  3.6275e-23  2.1268e-26  5.6752e-23  3.5327e-26  9.3239e-23  6.0285e-26  1.5836e-22  1.0462e-25  2.7489e-22  1.8346e-25  4.8442e-22  3.2367e-25  8.6435e-22  5.7319e-25  1.5631e-21  1.0175e-24  2.8789e-21  1.8091e-24  5.4499e-21
      5.90  2.2955e-27  1.0458e-23  2.3394e-27  1.0573e-23  2.4205e-27  1.0777e-23  2.5725e-27  1.1140e-23  2.8545e-27  1.1785e-23  3.3554e-27  1.2933e-23  4.1831e-27  1.4975e-23  5.5559e-27  1.8608e-23  7.9422e-27  2.5070e-23  1.2070e-26  3.6570e-23  1.9303e-26  5.7044e-23  3.2096e-26  9.3527e-23  5.4826e-26  1.5864e-22  9.5220e-26  2.7517e-22  1.6703e-25  4.8475e-22  2.9478e-25  8.6488e-22  5.2211e-25  1.5644e-21  9.2689e-25  2.8826e-21  1.6483e-24  5.4617e-21
      5.95  2.0553e-27  1.0881e-23  2.0959e-27  1.0998e-23  2.1717e-27  1.1207e-23  2.3144e-27  1.1577e-23  2.5830e-27  1.2236e-23  3.0465e-27  1.3408e-23  3.8120e-27  1.5492e-23  5.0750e-27  1.9200e-23  7.2315e-27  2.5797e-23  1.0990e-26  3.7536e-23  1.7616e-26  5.8435e-23  2.9302e-26  9.5679e-23  5.0060e-26  1.6215e-22  8.6968e-26  2.8114e-22  1.5260e-25  4.9516e-22  2.6934e-25  8.8349e-22  4.7710e-25  1.5985e-21  8.4707e-25  2.9472e-21  1.5066e-24  5.5897e-21
      6.00  1.8544e-27  1.1420e-23  1.8913e-27  1.1537e-23  1.9604e-27  1.1746e-23  2.0917e-27  1.2118e-23  2.3397e-27  1.2779e-23  2.7851e-27  1.3955e-23  3.4862e-27  1.6046e-23  4.6332e-27  1.9767e-23  6.5926e-27  2.6386e-23  1.0007e-26  3.8164e-23  1.6010e-26  5.9135e-23  2.6632e-26  9.6507e-23  4.5485e-26  1.6321e-22  7.9005e-26  2.8263e-22  1.3862e-25  4.9749e-22  2.4469e-25  8.8749e-22  4.3350e-25  1.6060e-21  7.6985e-25  2.9629e-21  1.3698e-24  5.6258e-21
      6.05  1.6852e-27  1.2089e-23  1.7178e-27  1.2204e-23  1.7792e-27  1.2407e-23  1.8961e-27  1.2768e-23  2.1198e-27  1.3411e-23  2.5397e-27  1.4553e-23  3.1871e-27  1.6584e-23  4.2265e-27  2.0199e-23  5.9897e-27  2.6630e-23  9.0518e-27  3.8073e-23  1.4429e-26  5.8449e-23  2.3968e-26  9.4761e-23  4.0909e-26  1.5958e-22  7.1031e-26  2.7564e-22  1.2461e-25  4.8451e-22  2.1995e-25  8.6380e-22  3.8969e-25  1.5631e-21  6.9219e-25  2.8854e-21  1.2321e-24  5.4851e-21
      6.10  1.5423e-27  1.2879e-23  1.5710e-27  1.2988e-23  1.6248e-27  1.3180e-23  1.7271e-27  1.3523e-23  1.9235e-27  1.4132e-23  2.2976e-27  1.5215e-23  2.8918e-27  1.7142e-23  3.8392e-27  2.0569e-23  5.4076e-27  2.6667e-23  8.1269e-27  3.7519e-23  1.2937e-26  5.6840e-23  2.1459e-26  9.1277e-23  3.6604e-26  1.5276e-22  6.3540e-26  2.6284e-22  1.1145e-25  4.6103e-22  1.9673e-25  8.2107e-22  3.4859e-25  1.4855e-21  6.1935e-25  2.7432e-21  1.1031e-24  5.2208e-21
      6.15  1.4213e-27  1.3796e-23  1.4467e-27  1.3896e-23  1.4941e-27  1.4075e-23  1.5839e-27  1.4392e-23  1.7532e-27  1.4957e-23  2.0627e-27  1.5961e-23  2.5684e-27  1.7747e-23  3.4276e-27  2.0924e-23  4.8243e-27  2.6577e-23  7.2469e-27  3.6637e-23  1.1527e-26  5.4549e-23  1.9109e-26  8.6474e-23  3.2589e-26  1.4347e-22  5.6563e-26  2.4556e-22  9.9218e-26  4.2939e-22  1.7515e-25  7.6353e-22  3.1041e-25  1.3806e-21  5.5172e-25  2.5504e-21  9.8327e-25  4.8593e-21
      6.20  1.3179e-27  1.4845e-23  1.3405e-27  1.4935e-23  1.3820e-27  1.5094e-23  1.4595e-27  1.5378e-23  1.6008e-27  1.5882e-23  1.8554e-27  1.6778e-23  2.2793e-27  1.8372e-23  3.0010e-27  2.1206e-23  4.2331e-27  2.6249e-23  6.3679e-27  3.5224e-23  1.0121e-26  5.1205e-23  1.6780e-26  7.9691e-23  2.8608e-26  1.3055e-22  4.9649e-26  2.2172e-22  8.7088e-26  3.8588e-22  1.5375e-25  6.8443e-22  2.7254e-25  1.2363e-21  4.8460e-25  2.2838e-21  8.6426e-25  4.3559e-21
      6.25  1.2287e-27  1.6038e-23  1.2479e-27  1.6113e-23  1.2833e-27  1.6247e-23  1.3473e-27  1.6486e-23  1.4633e-27  1.6909e-23  1.6710e-27  1.7662e-23  2.0182e-27  1.9002e-23  2.6200e-27  2.1384e-23  3.6612e-27  2.5623e-23  5.4833e-27  3.3166e-23  8.6962e-27  4.6597e-23  1.4396e-26  7.0538e-23  2.4522e-26  1.1329e-22  4.2531e-26  1.8990e-22  7.4577e-26  3.2792e-22  1.3164e-25  5.7916e-22  2.3338e-25  1.0439e-21  4.1513e-25  1.9310e-21  7.4086e-25  3.6862e-21
      6.30  1.1514e-27  1.7412e-23  1.1672e-27  1.7473e-23  1.1958e-27  1.7580e-23  1.2481e-27  1.7770e-23  1.3403e-27  1.8109e-23  1.5062e-27  1.8711e-23  1.7827e-27  1.9781e-23  2.2737e-27  2.1686e-23  3.1351e-27  2.5073e-23  4.6407e-27  3.1101e-23  7.3127e-27  4.1836e-23  1.2050e-26  6.0970e-23  2.0471e-26  9.5146e-23  3.5445e-26  1.5639e-22  6.2094e-26  2.6678e-22  1.0956e-25  4.6777e-22  1.9421e-25  8.4001e-22  3.4551e-25  1.5489e-21  6.1698e-25  2.9577e-21
      6.35  1.0846e-27  1.8967e-23  1.0972e-27  1.9015e-23  1.1200e-27  1.9099e-23  1.1608e-27  1.9250e-23  1.2347e-27  1.9518e-23  1.3658e-27  1.9994e-23  1.5833e-27  2.0842e-23  1.9714e-27  2.2348e-23  2.6630e-27  2.5028e-23  3.8916e-27  2.9798e-23  6.0603e-27  3.8290e-23  9.9152e-27  5.3430e-23  1.6763e-26  8.0473e-23  2.8942e-26  1.2894e-22  5.0624e-26  2.1634e-22  8.9251e-26  3.7556e-22  1.5817e-25  6.7074e-22  2.8143e-25  1.2337e-21  5.0286e-25  2.3552e-21
      6.40  1.0269e-27  2.0721e-23  1.0370e-27  2.0759e-23  1.0551e-27  2.0828e-23  1.0873e-27  2.0950e-23  1.1449e-27  2.1167e-23  1.2487e-27  2.1554e-23  1.4218e-27  2.2240e-23  1.7294e-27  2.3462e-23  2.2799e-27  2.5635e-23  3.2652e-27  2.9502e-23  5.0195e-27  3.6387e-23  8.1367e-27  4.8663e-23  1.3677e-26  7.0592e-23  2.3533e-26  1.0990e-22  4.1085e-26  1.8081e-22  7.2366e-26  3.1006e-22  1.2821e-25  5.4990e-22  2.2820e-25  1.0080e-21  4.0817e-25  1.9229e-21
      6.45  9.7693e-28  2.2691e-23  9.8512e-28  2.2723e-23  9.9952e-28  2.2780e-23  1.0252e-27  2.2880e-23  1.0705e-27  2.3059e-23  1.1518e-27  2.3377e-23  1.2929e-27  2.3943e-23  1.5389e-27  2.4949e-23  1.9807e-27  2.6738e-23  2.7725e-27  2.9922e-23  4.1884e-27  3.5592e-23  6.7110e-27  4.5700e-23  1.1201e-26  6.3759e-23  1.9196e-26  9.6137e-23  3.3436e-26  1.5455e-22  5.8829e-26  2.6110e-22  1.0421e-25  4.5897e-22  1.8559e-25  8.3747e-22  3.3249e-25  1.5946e-21
      6.50  9.3354e-28  2.4901e-23  9.4024e-28  2.4927e-23  9.5177e-28  2.4974e-23  9.7233e-28  2.5057e-23  1.0086e-27  2.5204e-23  1.0731e-27  2.5466e-23  1.1852e-27  2.5932e-23  1.3836e-27  2.6760e-23  1.7387e-27  2.8233e-23  2.3760e-27  3.0854e-23  3.5188e-27  3.5521e-23  5.5632e-27  4.3842e-23  9.2087e-27  5.8709e-23  1.5704e-26  8.5368e-23  2.7281e-26  1.3348e-22  4.7936e-26  2.2126e-22  8.4871e-26  3.8440e-22  1.5119e-25  6.9687e-22  2.7112e-25  1.3229e-21
      6.55  8.9589e-28  2.7407e-23  9.0139e-28  2.7428e-23  9.1076e-28  2.7467e-23  9.2742e-28  2.7536e-23  9.5706e-28  2.7659e-23  1.0096e-27  2.7876e-23  1.1010e-27  2.8264e-23  1.2628e-27  2.8953e-23  1.5540e-27  3.0178e-23  2.0776e-27  3.2359e-23  3.0190e-27  3.6242e-23  4.7078e-27  4.3164e-23  7.7281e-27  5.5532e-23  1.3118e-26  7.7713e-23  2.2730e-26  1.1775e-22  3.9890e-26  1.9082e-22  7.0605e-26  3.2673e-22  1.2583e-25  5.8729e-22  2.2592e-25  1.1102e-21
      6.60  8.6310e-28  3.0210e-23  8.6766e-28  3.0228e-23  8.7545e-28  3.0262e-23  8.8921e-28  3.0320e-23  9.1382e-28  3.0425e-23  9.5771e-28  3.0611e-23  1.0339e-27  3.0943e-23  1.1687e-27  3.1532e-23  1.4124e-27  3.2579e-23  1.8526e-27  3.4444e-23  2.6463e-27  3.7764e-23  4.0740e-27  4.3683e-23  6.6341e-27  5.4258e-23  1.1212e-26  7.3225e-23  1.9389e-26  1.0746e-22  3.4001e-26  1.6998e-22  6.0182e-26  2.8626e-22  1.0733e-25  5.0922e-22  1.9339e-25  9.6655e-22
      6.65  8.3443e-28  3.3344e-23  8.3823e-28  3.3360e-23  8.4482e-28  3.3390e-23  8.5638e-28  3.3442e-23  8.7708e-28  3.3536e-23  9.1448e-28  3.3702e-23  9.7936e-28  3.3997e-23  1.0944e-27  3.4522e-23  1.3033e-27  3.5456e-23  1.6823e-27  3.7118e-23  2.3678e-27  4.0078e-23  3.6047e-27  4.5355e-23  5.8289e-27  5.4785e-23  9.8167e-27  7.1700e-23  1.6952e-26  1.0224e-22  2.9722e-26  1.5799e-22  5.2640e-26  2.6209e-22  9.4015e-26  4.6152e-22  1.6952e-25  8.6210e-22
      6.70  8.0927e-28  3.6845e-23  8.1242e-28  3.6860e-23  8.1800e-28  3.6887e-23  8.2786e-28  3.6935e-23  8.4554e-28  3.7020e-23  8.7792e-28  3.7171e-23  9.3510e-28  3.7440e-23  1.0367e-27  3.7917e-23  1.2225e-27  3.8767e-23  1.5614e-27  4.0279e-23  2.1768e-27  4.2973e-23  3.2908e-27  4.7774e-23  5.3007e-27  5.6359e-23  8.9134e-27  7.1771e-23  1.5394e-26  9.9577e-23  2.7017e-26  1.5035e-22  4.7938e-26  2.4506e-22  8.5880e-26  4.2693e-22  1.5569e-25  7.9591e-22
      6.75  7.8712e-28  4.0757e-23  7.8973e-28  4.0771e-23  7.9450e-28  4.0796e-23  8.0295e-28  4.0841e-23  8.1834e-28  4.0920e-23  8.4692e-28  4.1062e-23  8.9765e-28  4.1314e-23  9.8878e-28  4.1761e-23  1.1568e-27  4.2557e-23  1.4647e-27  4.3974e-23  2.0252e-27  4.6498e-23  3.0438e-27  5.0996e-23  4.8861e-27  5.9035e-23  8.2073e-27  7.3454e-23  1.4179e-26  9.9489e-23  2.4920e-26  1.4703e-22  4.4317e-26  2.3568e-22  7.9674e-26  4.0566e-22  1.4522e-25  7.4751e-22
      6.80  7.6759e-28  4.5165e-23  7.6979e-28  4.5179e-23  7.7384e-28  4.5203e-23  7.8112e-28  4.5245e-23  7.9447e-28  4.5321e-23  8.1939e-28  4.5455e-23  8.6489e-28  4.5694e-23  9.4633e-28  4.6119e-23  1.0977e-27  4.6875e-23  1.3756e-27  4.8221e-23  1.8828e-27  5.0616e-23  2.8073e-27  5.4888e-23  4.4850e-27  6.2522e-23  7.5169e-27  7.6214e-23  1.2983e-26  1.0094e-22  2.2840e-26  1.4609e-22  4.0694e-26  2.3021e-22  7.3377e-26  3.9162e-22  1.3466e-25  7.2862e-22
      6.85  7.5034e-28  5.0090e-23  7.5221e-28  5.0103e-23  7.5563e-28  5.0126e-23  7.6193e-28  5.0168e-23  7.7350e-28  5.0242e-23  7.9570e-28  5.0374e-23  8.3779e-28  5.0608e-23  9.1284e-28  5.1025e-23  1.0542e-27  5.1766e-23  1.3134e-27  5.3085e-23  1.7899e-27  5.5433e-23  2.6610e-27  5.9621e-23  4.2472e-27  6.7123e-23  7.1210e-27  8.0561e-23  1.2315e-26  1.0483e-22  2.1708e-26  1.4915e-22  3.8827e-26  2.3347e-22  7.0302e-26  3.9347e-22  1.2956e-25  7.1539e-22
      6.90  7.3509e-28  5.5590e-23  7.3670e-28  5.5603e-23  7.3962e-28  5.5627e-23  7.4504e-28  5.5668e-23  7.5532e-28  5.5742e-23  7.7555e-28  5.5873e-23  8.1502e-28  5.6107e-23  8.8608e-28  5.6522e-23  1.0217e-27  5.7261e-23  1.2711e-27  5.8576e-23  1.7344e-27  6.0918e-23  2.5884e-27  6.5093e-23  4.1481e-27  7.2554e-23  6.9791e-27  8.5943e-23  1.2105e-26  1.1012e-22  2.1401e-26  1.5427e-22  3.8377e-26  2.3647e-22  6.9835e-26  3.9435e-22  1.2968e-25  7.1454e-22
      6.95  7.2159e-28  6.1734e-23  7.2298e-28  6.1747e-23  7.2552e-28  6.1770e-23  7.3026e-28  6.1811e-23  7.3939e-28  6.1884e-23  7.5749e-28  6.2014e-23  7.9372e-28  6.2245e-23  8.5897e-28  6.2656e-23  9.8248e-28  6.3387e-23  1.2111e-27  6.4688e-23  1.6429e-27  6.7005e-23  2.4437e-27  7.1136e-23  3.9102e-27  7.8540e-23  6.5776e-27  9.1799e-23  1.1417e-26  1.1574e-22  2.0212e-26  1.5948e-22  3.6320e-26  2.4141e-22  6.6290e-26  3.9826e-22  1.2395e-25  7.2731e-22
      7.00  7.0962e-28  6.8597e-23  7.1083e-28  6.8609e-23  7.1306e-28  6.8632e-23  7.1723e-28  6.8673e-23  7.2526e-28  6.8745e-23  7.4141e-28  6.8873e-23  7.7516e-28  6.9101e-23  8.3513e-28  6.9507e-23  9.4622e-28  7.0228e-23  1.1582e-27  7.1512e-23  1.5619e-27  7.3798e-23  2.3153e-27  7.7873e-23  3.7023e-27  8.5156e-23  6.2357e-27  9.8220e-23  1.0844e-26  1.2181e-22  1.9238e-26  1.6491e-22  3.4656e-26  2.4576e-22  6.3608e-26  4.0779e-22  1.1958e-25  7.4742e-22
      7.05  6.9898e-28  7.6315e-23  7.0004e-28  7.6327e-23  7.0198e-28  7.6349e-23  7.0564e-28  7.6389e-23  7.1271e-28  7.6459e-23  7.2706e-28  7.6584e-23  7.5779e-28  7.6806e-23  8.1350e-28  7.7201e-23  9.1680e-28  7.7904e-23  1.1151e-27  7.9154e-23  1.4970e-27  8.1379e-23  2.2183e-27  8.5347e-23  3.5706e-27  9.2642e-23  6.0478e-27  1.0552e-22  1.0572e-26  1.2886e-22  1.8834e-26  1.7142e-22  3.4074e-26  2.5249e-22  6.2791e-26  4.1428e-22  1.1831e-25  7.3141e-22
      7.10  6.8951e-28  8.4939e-23  6.9043e-28  8.4952e-23  6.9212e-28  8.4973e-23  6.9530e-28  8.5011e-23  7.0151e-28  8.5080e-23  7.1426e-28  8.5201e-23  7.4193e-28  8.5416e-23  7.9469e-28  8.5799e-23  8.9261e-28  8.6481e-23  1.0791e-27  8.7693e-23  1.4407e-27  8.9851e-23  2.1440e-27  9.3699e-23  3.4745e-27  1.0057e-22  5.9419e-27  1.1290e-22  1.0469e-26  1.3517e-22  1.8770e-26  1.7590e-22  3.4153e-26  2.5436e-22  6.3124e-26  4.0224e-22  1.2029e-25  7.2320e-22
      7.15  6.8108e-28  9.4578e-23  6.8186e-28  9.4589e-23  6.8331e-28  9.4609e-23  6.8605e-28  9.4644e-23  6.9142e-28  9.4706e-23  7.0237e-28  9.4817e-23  7.2581e-28  9.5015e-23  7.7272e-28  9.5366e-23  8.5595e-28  9.5990e-23  1.0136e-27  9.7100e-23  1.3277e-27  9.9076e-23  1.9484e-27  1.0260e-22  3.1444e-27  1.0889e-22  5.3920e-27  1.2018e-22  9.5516e-27  1.4056e-22  1.7223e-26  1.7855e-22  3.1450e-26  2.4849e-22  5.8366e-26  3.8275e-22  1.1184e-25  6.7240e-22
      7.20  6.7357e-28  1.0535e-22  6.7423e-28  1.0536e-22  6.7544e-28  1.0538e-22  6.7775e-28  1.0541e-22  6.8224e-28  1.0547e-22  6.9134e-28  1.0556e-22  7.1048e-28  1.0574e-22  7.4973e-28  1.0605e-22  8.1563e-28  1.0661e-22  9.4633e-28  1.0759e-22  1.2085e-27  1.0934e-22  1.7348e-27  1.1247e-22  2.7722e-27  1.1805e-22  4.7600e-27  1.2817e-22  8.4872e-27  1.4632e-22  1.5412e-26  1.7946e-22  2.8329e-26  2.4113e-22  5.3286e-26  3.6633e-22  1.0198e-25  6.1340e-22
      7.25  6.6688e-28  1.1740e-22  6.6742e-28  1.1741e-22  6.6842e-28  1.1742e-22  6.7032e-28  1.1745e-22  6.7398e-28  1.1750e-22  6.8134e-28  1.1758e-22  6.9649e-28  1.1774e-22  7.2692e-28  1.1801e-22  7.7954e-28  1.1849e-22  8.8237e-28  1.1936e-22  1.0904e-27  1.2089e-22  1.5178e-27  1.2363e-22  2.3790e-27  1.2851e-22  4.0691e-27  1.3727e-22  7.2944e-27  1.5307e-22  1.3357e-26  1.8194e-22  2.4924e-26  2.3763e-22  4.6873e-26  3.4436e-22  9.0204e-26  5.5780e-22
      7.30  6.6093e-28  1.3093e-22  6.6137e-28  1.3094e-22  6.6218e-28  1.3095e-22  6.6371e-28  1.3098e-22  6.6668e-28  1.3102e-22  6.7253e-28  1.3109e-22  6.8441e-28  1.3123e-22  7.0784e-28  1.3147e-22  7.5048e-28  1.3189e-22  8.3131e-28  1.3265e-22  9.9269e-28  1.3400e-22  1.3336e-27  1.3640e-22  2.0431e-27  1.4068e-22  3.4754e-27  1.4837e-22  6.2756e-27  1.6222e-22  1.1721e-26  1.8856e-22  2.1959e-26  2.3639e-22  4.1662e-26  3.2969e-22  8.0781e-26  5.1471e-22
      7.35  6.5564e-28  1.4607e-22  6.5600e-28  1.4607e-22  6.5666e-28  1.4608e-22  6.5790e-28  1.4611e-22  6.6030e-28  1.4614e-22  6.6495e-28  1.4621e-22  6.7431e-28  1.4633e-22  6.9315e-28  1.4655e-22  7.2825e-28  1.4693e-22  7.9275e-28  1.4760e-22  9.2229e-28  1.4881e-22  1.1996e-27  1.5096e-22  1.7961e-27  1.5479e-22  3.0375e-27  1.6165e-22  5.5202e-27  1.7403e-22  1.0439e-26  1.9753e-22  1.9799e-26  2.4049e-22  3.7935e-26  3.2277e-22  7.4172e-26  4.8660e-22
      7.40  6.5095e-28  1.6300e-22  6.5125e-28  1.6300e-22  6.5179e-28  1.6301e-22  6.5281e-28  1.6303e-22  6.5476e-28  1.6307e-22  6.5853e-28  1.6313e-22  6.6607e-28  1.6324e-22  6.8164e-28  1.6344e-22  7.1210e-28  1.6378e-22  7.6529e-28  1.6441e-22  8.7302e-28  1.6551e-22  1.1068e-27  1.6748e-22  1.6180e-27  1.7099e-22  2.7105e-27  1.7728e-22  4.9948e-27  1.8903e-22  9.4731e-27  2.1001e-22  1.8189e-26  2.4930e-22  3.5206e-26  3.2381e-22  6.9431e-26  4.7225e-22
      7.45  6.4678e-28  1.8194e-22  6.5319e-28  1.8376e-22  6.4749e-28  1.8195e-22  6.4834e-28  1.8197e-22  6.4998e-28  1.8200e-22  6.5311e-28  1.8206e-22  6.5939e-28  1.8217e-22  6.7229e-28  1.8235e-22  6.9729e-28  1.8268e-22  7.4026e-28  1.8326e-22  8.2645e-28  1.8430e-22  1.0145e-27  1.8615e-22  1.4308e-27  1.8945e-22  2.3414e-27  1.9535e-22  4.2607e-27  2.0599e-22  8.2096e-27  2.2596e-22  1.5951e-26  2.6252e-22  3.1216e-26  3.3200e-22  6.2105e-26  4.6982e-22
      7.50  6.4308e-28  2.0313e-22  6.4330e-28  2.0314e-22  6.4369e-28  2.0315e-22  6.4442e-28  2.0316e-22  6.4582e-28  2.0319e-22  6.4849e-28  2.0325e-22  6.5384e-28  2.0335e-22  6.6489e-28  2.0353e-22  6.8617e-28  2.0384e-22  7.2247e-28  2.0440e-22  7.9428e-28  2.0540e-22  9.5079e-28  2.0718e-22  1.3002e-27  2.1035e-22  2.0787e-27  2.1603e-22  3.7620e-27  2.2626e-22  7.2929e-27  2.4533e-22  1.4353e-26  2.8028e-22  2.8434e-26  3.4651e-22  5.7124e-26  4.7751e-22
      7.55  6.4594e-28  2.2919e-22  6.3998e-28  2.2693e-22  6.4032e-28  2.2694e-22  6.4096e-28  2.2696e-22  6.4219e-28  2.2699e-22  6.4454e-28  2.2704e-22  6.4927e-28  2.2714e-22  6.5904e-28  2.2732e-22  6.7737e-28  2.2763e-22  7.0945e-28  2.2818e-22  7.7110e-28  2.2916e-22  9.0484e-28  2.3091e-22  1.2042e-27  2.3403e-22  1.8806e-27  2.3962e-22  3.3777e-27  2.4967e-22  6.5662e-27  2.6793e-22  1.3159e-26  3.0245e-22  2.6456e-26  3.6704e-22  5.3792e-26  4.9439e-22
      7.60  6.3687e-28  2.5356e-22  6.3704e-28  2.5356e-22  6.3734e-28  2.5357e-22  6.3791e-28  2.5359e-22  6.3901e-28  2.5362e-22  6.4114e-28  2.5368e-22  6.4542e-28  2.5378e-22  6.5430e-28  2.5395e-22  6.7011e-28  2.5426e-22  6.9856e-28  2.5482e-22  7.5205e-28  2.5580e-22  8.6541e-28  2.5756e-22  1.1161e-27  2.6068e-22  1.6825e-27  2.6628e-22  2.9522e-27  2.7635e-22  5.7096e-27  2.9462e-22  1.1509e-26  3.2893e-22  2.3386e-26  3.9314e-22  4.8015e-26  5.1941e-22
      7.65  6.3427e-28  2.8337e-22  6.3442e-28  2.8338e-22  6.3470e-28  2.8339e-22  6.3521e-28  2.8340e-22  6.3621e-28  2.8344e-22  6.3816e-28  2.8349e-22  6.4211e-28  2.8359e-22  6.5030e-28  2.8377e-22  6.6408e-28  2.8409e-22  6.8958e-28  2.8465e-22  7.3690e-28  2.8566e-22  8.3454e-28  2.8744e-22  1.0468e-27  2.9062e-22  1.5230e-27  2.9632e-22  2.5971e-27  3.0656e-22  4.9677e-27  3.2514e-22  1.0026e-26  3.5933e-22  2.0598e-26  4.2472e-22  4.2711e-26  5.5194e-22
      7.70  6.3196e-28  3.1674e-22  6.3209e-28  3.1675e-22  6.3235e-28  3.1676e-22  6.3282e-28  3.1678e-22  6.3373e-28  3.1681e-22  6.3553e-28  3.1687e-22  6.3919e-28  3.1697e-22  6.4683e-28  3.1716e-22  6.5901e-28  3.1749e-22  6.8182e-28  3.1807e-22  7.2421e-28  3.1910e-22  8.0925e-28  3.2094e-22  9.9046e-28  3.2422e-22  1.3922e-27  3.3009e-22  2.2988e-27  3.4063e-22  4.3234e-27  3.5975e-22  8.7195e-27  3.9490e-22  1.8049e-26  4.6172e-22  3.7799e-26  5.9160e-22
      7.75  6.2990e-28  3.5411e-22  6.3003e-28  3.5412e-22  6.3026e-28  3.5413e-22  6.3069e-28  3.5415e-22  6.3153e-28  3.5418e-22  6.3320e-28  3.5424e-22  6.3661e-28  3.5435e-22  6.4354e-28  3.5454e-22  6.5462e-28  3.5488e-22  6.7518e-28  3.5549e-22  7.1344e-28  3.5656e-22  7.8828e-28  3.5847e-22  9.4440e-28  3.6189e-22  1.2850e-27  3.6799e-22  2.0492e-27  3.7895e-22  3.7681e-27  3.9880e-22  7.5579e-27  4.3526e-22  1.5723e-26  5.0386e-22  3.3260e-26  6.3812e-22
      7.80  6.2808e-28  3.9605e-22  6.2819e-28  3.9606e-22  6.2840e-28  3.9607e-22  6.2880e-28  3.9609e-22  6.2957e-28  3.9613e-22  6.3112e-28  3.9619e-22  6.3430e-28  3.9630e-22  6.4060e-28  3.9650e-22  6.5072e-28  3.9687e-22  6.6931e-28  3.9750e-22  7.0389e-28  3.9863e-22  7.7030e-28  4.0063e-22  9.0574e-28  4.0420e-22  1.1959e-27  4.1058e-22  1.8405e-27  4.2204e-22  3.2945e-27  4.4285e-22  6.5407e-27  4.8096e-22  1.3651e-26  5.5243e-22  2.9140e-26  6.9191e-22
      7.85  6.2645e-28  4.4302e-22  6.2656e-28  4.4303e-22  6.2675e-28  4.4304e-22  6.2711e-28  4.4306e-22  6.2782e-28  4.4310e-22  6.2925e-28  4.4317e-22  6.3218e-28  4.4329e-22  6.3791e-28  4.4350e-22  6.4712e-28  4.4388e-22  6.6409e-28  4.4455e-22  6.9518e-28  4.4574e-22  7.5406e-28  4.4785e-22  8.7226e-28  4.5160e-22  1.1204e-27  4.5831e-22  1.6648e-27  4.7037e-22  2.8907e-27  4.9218e-22  5.6555e-27  5.3222e-22  1.1810e-26  6.0708e-22  2.5427e-26  7.5253e-22
      7.90  6.2501e-28  4.9563e-22  6.2510e-28  4.9564e-22  6.2528e-28  4.9565e-22  6.2561e-28  4.9567e-22  6.2625e-28  4.9571e-22  6.2755e-28  4.9578e-22  6.3022e-28  4.9591e-22  6.3526e-28  4.9614e-22  6.4348e-28  4.9654e-22  6.5853e-28  4.9725e-22  6.8600e-28  4.9850e-22  7.3754e-28  5.0072e-22  8.3846e-28  5.0468e-22  1.0473e-27  5.1176e-22  1.4978e-27  5.2447e-22  2.5062e-27  5.4743e-22  4.7952e-27  5.8947e-22  9.9685e-27  6.6813e-22  2.1605e-26  8.1991e-22
      7.95  6.2372e-28  5.5456e-22  6.2381e-28  5.5457e-22  6.2397e-28  5.5458e-22  6.2426e-28  5.5460e-22  6.2484e-28  5.5464e-22  6.2600e-28  5.5472e-22  6.2841e-28  5.5485e-22  6.3280e-28  5.5509e-22  6.4004e-28  5.5553e-22  6.5316e-28  5.5627e-22  6.7720e-28  5.5759e-22  7.2193e-28  5.5994e-22  8.0817e-28  5.6412e-22  9.8238e-28  5.7158e-22  1.3519e-27  5.8498e-22  2.1699e-27  6.0919e-22  4.0273e-27  6.5343e-22  8.2684e-27  7.3592e-22  1.7949e-26  8.9483e-22
      8.00  6.2258e-28  6.2056e-22  6.2265e-28  6.2057e-22  6.2280e-28  6.2059e-22  6.2306e-28  6.2061e-22  6.2358e-28  6.2066e-22  6.2461e-28  6.2073e-22  6.2674e-28  6.2087e-22  6.3052e-28  6.2114e-22  6.3691e-28  6.2159e-22  6.4836e-28  6.2239e-22  6.6907e-28  6.2378e-22  7.0762e-28  6.2626e-22  7.8077e-28  6.3067e-22  9.2545e-28  6.3855e-22  1.2280e-27  6.5269e-22  1.8873e-27  6.7821e-22  3.3767e-27  7.2479e-22  6.7961e-27  8.1145e-22  1.4691e-26  9.7777e-22
      8.05  6.2156e-28  6.9464e-22  6.2163e-28  6.9465e-22  6.2176e-28  6.9467e-22  6.2199e-28  6.9469e-22  6.2245e-28  6.9474e-22  6.2335e-28  6.9482e-22  6.2520e-28  6.9497e-22  6.2845e-28  6.9525e-22  6.3393e-28  6.9574e-22  6.4377e-28  6.9658e-22  6.6177e-28  6.9806e-22  6.9457e-28  7.0068e-22  7.5643e-28  7.0535e-22  8.7727e-28  7.1369e-22  1.1244e-27  7.2863e-22  1.6555e-27  7.5559e-22  2.8461e-27  8.0473e-22  5.5841e-27  8.9594e-22  1.1963e-26  1.0703e-21
      8.10  6.2066e-28  7.7764e-22  6.2072e-28  7.7765e-22  6.2083e-28  7.7767e-22  6.2104e-28  7.7769e-22  6.2143e-28  7.7774e-22  6.2221e-28  7.7783e-22  6.2380e-28  7.7799e-22  6.2657e-28  7.7830e-22  6.3128e-28  7.7882e-22  6.3971e-28  7.7971e-22  6.5495e-28  7.8128e-22  6.8286e-28  7.8406e-22  7.3498e-28  7.8900e-22  8.3510e-28  7.9783e-22  1.0366e-27  8.1365e-22  1.4646e-27  8.4217e-22  2.4122e-27  8.9408e-22  4.5870e-27  9.9019e-22  9.6828e-27  1.1731e-21
      8.15  6.1985e-28  8.7064e-22  6.1991e-28  8.7065e-22  6.2000e-28  8.7067e-22  6.2018e-28  8.7070e-22  6.2053e-28  8.7075e-22  6.2120e-28  8.7084e-22  6.2255e-28  8.7101e-22  6.2489e-28  8.7134e-22  6.2891e-28  8.7190e-22  6.3607e-28  8.7285e-22  6.4897e-28  8.7452e-22  6.7247e-28  8.7746e-22  7.1608e-28  8.8271e-22  7.9945e-28  8.9210e-22  9.6409e-28  9.0889e-22  1.3064e-27  9.3912e-22  2.0505e-27  9.9407e-22  3.7611e-27  1.0956e-21  7.7654e-27  1.2880e-21
      8.20  6.1914e-28  9.7485e-22  6.1918e-28  9.7486e-22  6.1927e-28  9.7488e-22  6.1943e-28  9.7491e-22  6.1972e-28  9.7496e-22  6.2029e-28  9.7506e-22  6.2144e-28  9.7524e-22  6.2344e-28  9.7561e-22  6.2688e-28  9.7621e-22  6.3295e-28  9.7723e-22  6.4389e-28  9.7901e-22  6.6384e-28  9.8215e-22  7.0032e-28  9.8774e-22  7.6920e-28  9.9771e-22  9.0374e-28  1.0156e-21  1.1800e-27  1.0477e-21  1.7761e-27  1.1061e-21  3.1130e-27  1.2136e-21  6.2753e-27  1.4166e-21
      8.25  6.1850e-28  1.0916e-21  6.1854e-28  1.0916e-21  6.1862e-28  1.0917e-21  6.1875e-28  1.0917e-21  6.1901e-28  1.0918e-21  6.1949e-28  1.0919e-21  6.2046e-28  1.0920e-21  6.2217e-28  1.0925e-21  6.2509e-28  1.0931e-21  6.3026e-28  1.0942e-21  6.3954e-28  1.0961e-21  6.5633e-28  1.0995e-21  6.8710e-28  1.1054e-21  7.4471e-28  1.1161e-21  8.5598e-28  1.1352e-21  1.0805e-27  1.1695e-21  1.5554e-27  1.2316e-21  2.6202e-27  1.3460e-21  5.1214e-27  1.5610e-21
      8.30  6.1793e-28  1.2227e-21  6.1797e-28  1.2227e-21  6.1803e-28  1.2227e-21  6.1815e-28  1.2227e-21  6.1837e-28  1.2228e-21  6.1879e-28  1.2229e-21  6.1961e-28  1.2231e-21  6.2107e-28  1.2236e-21  6.2357e-28  1.2243e-21  6.2798e-28  1.2255e-21  6.3587e-28  1.2275e-21  6.5011e-28  1.2311e-21  6.7610e-28  1.2376e-21  7.2443e-28  1.2490e-21  8.1693e-28  1.2695e-21  1.0013e-27  1.3063e-21  1.3877e-27  1.3729e-21  2.2426e-27  1.4950e-21  4.2281e-27  1.7240e-21
      8.35  6.1743e-28  1.3695e-21  6.1746e-28  1.3696e-21  6.1751e-28  1.3696e-21  6.1762e-28  1.3696e-21  6.1781e-28  1.3697e-21  6.1816e-28  1.3698e-21  6.1885e-28  1.3700e-21  6.2011e-28  1.3705e-21  6.2225e-28  1.3713e-21  6.2602e-28  1.3726e-21  6.3273e-28  1.3748e-21  6.4482e-28  1.3787e-21  6.6680e-28  1.3857e-21  7.0747e-28  1.3980e-21  7.8467e-28  1.4201e-21  9.3683e-28  1.4597e-21  1.2518e-27  1.5314e-21  1.9404e-27  1.6625e-21  3.5274e-27  1.9074e-21
      8.40  6.1697e-28  1.5342e-21  6.1700e-28  1.5342e-21  6.1705e-28  1.5342e-21  6.1714e-28  1.5342e-21  6.1730e-28  1.5343e-21  6.1761e-28  1.5345e-21  6.1819e-28  1.5347e-21  6.1928e-28  1.5353e-21  6.2112e-28  1.5361e-21  6.2435e-28  1.5375e-21  6.3008e-28  1.5400e-21  6.4038e-28  1.5442e-21  6.5906e-28  1.5517e-21  6.9344e-28  1.5651e-21  7.5825e-28  1.5890e-21  8.8471e-28  1.6318e-21  1.1433e-27  1.7092e-21  1.7020e-27  1.8506e-21  2.9773e-27  2.1136e-21
      8.45  6.1657e-28  1.7187e-21  6.1659e-28  1.7187e-21  6.1663e-28  1.7187e-21  6.1671e-28  1.7188e-21  6.1686e-28  1.7189e-21  6.1712e-28  1.7190e-21  6.1762e-28  1.7193e-21  6.1857e-28  1.7199e-21  6.2018e-28  1.7209e-21  6.2296e-28  1.7224e-21  6.2790e-28  1.7251e-21  6.3676e-28  1.7297e-21  6.5278e-28  1.7378e-21  6.8214e-28  1.7524e-21  7.3712e-28  1.7783e-21  8.4340e-28  1.8249e-21  1.0581e-27  1.9088e-21  1.5161e-27  2.0617e-21  2.5506e-27  2.3455e-21
      8.50  6.1620e-28  1.9255e-21  6.1622e-28  1.9255e-21  6.1626e-28  1.9256e-21  6.1633e-28  1.9256e-21  6.1645e-28  1.9257e-21  6.2283e-28  1.9451e-21  6.1712e-28  1.9261e-21  6.1796e-28  1.9269e-21  6.1937e-28  1.9280e-21  6.2180e-28  1.9297e-21  6.2610e-28  1.9326e-21  6.3378e-28  1.9376e-21  6.4765e-28  1.9465e-21  6.7296e-28  1.9623e-21  7.2008e-28  1.9906e-21  8.1034e-28  2.0413e-21  9.9059e-28  2.1326e-21  1.3700e-27  2.2987e-21  2.2165e-27  2.6060e-21
