# This was generated using Cloudy10 and the columns are ordered 
# as log10 of the fraction of the metallicity to the solar metallicity
# 'h_*_Z' and 'c_*_Z' stands for cooling and heating respectively 
# at * metalicity
#
# Redshift = 7.0
# hden = 4.5
#     temp   h_-3.00_Z   c_-3.00_Z   h_-2.75_Z   c_-2.75_Z   h_-2.50_Z   c_-2.50_Z   h_-2.25_Z   c_-2.25_Z   h_-2.00_Z   c_-2.00_Z   h_-1.75_Z   c_-1.75_Z   h_-1.50_Z   c_-1.50_Z   h_-1.25_Z   c_-1.25_Z   h_-1.00_Z   c_-1.00_Z   h_-0.75_Z   c_-0.75_Z   h_-0.50_Z   c_-0.50_Z   h_-0.25_Z   c_-0.25_Z    h_0.00_Z    c_0.00_Z    h_0.25_Z    c_0.25_Z    h_0.50_Z    c_0.50_Z    h_0.75_Z    c_0.75_Z    h_1.00_Z    c_1.00_Z    h_1.25_Z    c_1.25_Z    h_1.50_Z    c_1.50_Z 
      1.00  7.7112e-29  1.595e-32  7.7117e-29  1.6427e-32  7.7124e-29  1.7275e-32  7.7138e-29  1.8783e-32  7.7163e-29  2.1465e-32  7.7206e-29  2.6239e-32  7.7284e-29  3.4735e-32  7.7423e-29  4.9868e-32  7.7671e-29  7.6855e-32  7.812e-29  1.2506e-31  7.8939e-29  2.1138e-31  8.0472e-29  3.6637e-31  8.3438e-29  6.4526e-31  8.934e-29  1.1472e-30  1.0114e-28  2.0485e-30  1.2464e-28  3.6623e-30  1.7207e-28   6.55e-30  2.6841e-28  1.1701e-29  4.4533e-28  2.0841e-29
      1.05  7.7124e-29  1.8012e-32  7.7128e-29  1.8658e-32  7.7136e-29  1.9807e-32  7.715e-29  2.185e-32  7.7174e-29  2.5484e-32  7.7217e-29  3.1949e-32  7.7294e-29  4.3458e-32  7.7432e-29  6.3958e-32  7.7678e-29  1.0051e-31  7.8122e-29  1.658e-31  7.8933e-29  2.8271e-31  8.0448e-29  4.926e-31  8.3384e-29  8.7028e-31  8.9249e-29  1.5501e-30  1.0102e-28  2.7716e-30  1.245e-28  4.9597e-30  1.716e-28  8.876e-30  2.678e-28  1.5877e-29  4.4499e-28  2.8307e-29
      1.10  7.7136e-29  2.0338e-32  7.7141e-29  2.1187e-32  7.7148e-29  2.2697e-32  7.7162e-29  2.5383e-32  7.7186e-29  3.0161e-32  7.7229e-29  3.8661e-32  7.7305e-29  5.3791e-32  7.7442e-29  8.0736e-32  7.7686e-29  1.2877e-31  7.8127e-29  2.1456e-31  7.8931e-29  3.6809e-31  8.0435e-29  6.4364e-31  8.3353e-29  1.1394e-30  8.9196e-29  2.0321e-30  1.0095e-28  3.6375e-30  1.2441e-28  6.5177e-30  1.7126e-28  1.168e-29  2.6718e-28  2.0938e-29  4.4453e-28  3.7398e-29
      1.15  7.7149e-29  2.2962e-32  7.7153e-29  2.4055e-32  7.7161e-29    2.6e-32  7.7174e-29  2.9459e-32  7.7198e-29  3.5612e-32  7.7241e-29  4.6559e-32  7.7316e-29  6.6039e-32  7.7451e-29  1.0073e-31  7.7694e-29  1.6254e-31  7.813e-29  2.7288e-31  7.8927e-29  4.7022e-31  8.0416e-29  8.2416e-31  8.3309e-29  1.4609e-30  8.9118e-29  2.6087e-30  1.0083e-28  4.677e-30  1.2424e-28  8.3989e-30  1.7083e-28  1.5092e-29  2.6627e-28  2.7154e-29  4.4357e-28  4.866e-29
      1.20  7.7162e-29  2.5925e-32  7.7166e-29  2.7315e-32  7.7174e-29  2.9786e-32  7.7187e-29  3.4181e-32  7.7211e-29  4.1997e-32  7.7253e-29  5.5901e-32  7.7328e-29  8.064e-32  7.7461e-29  1.2467e-31   7.77e-29  2.0311e-31  7.8131e-29  3.4298e-31  7.8918e-29  5.9288e-31  8.0388e-29  1.0407e-30  8.3249e-29  1.8464e-30  8.9012e-29  3.3017e-30  1.0066e-28  5.9345e-30  1.2397e-28  1.0698e-29  1.7028e-28  1.9314e-29  2.6502e-28  3.4962e-29  4.4202e-28  6.2991e-29
      1.25  7.7176e-29  2.9278e-32  7.718e-29  3.1028e-32  7.7187e-29  3.414e-32   7.72e-29  3.9674e-32  7.7224e-29  4.9516e-32  7.7265e-29  6.702e-32  7.7339e-29  9.8154e-32  7.747e-29  1.5354e-31  7.7706e-29  2.5212e-31  7.813e-29  4.2769e-31  7.8904e-29  7.4087e-31  8.0352e-29  1.3014e-30  8.3173e-29  2.3105e-30  8.8875e-29  4.1401e-30  1.0043e-28  7.4714e-30  1.2361e-28  1.355e-29  1.6959e-28  2.4647e-29  2.6341e-28  4.5011e-29  4.3987e-28  8.1755e-29
      1.30  7.719e-29  3.3076e-32  7.7194e-29  3.5267e-32  7.7201e-29  3.9165e-32  7.7214e-29  4.6095e-32  7.7237e-29  5.8417e-32  7.7278e-29  8.0328e-32  7.735e-29  1.1928e-31  7.7479e-29  1.8853e-31  7.7711e-29  3.1164e-31  7.8127e-29  5.3052e-31  7.8887e-29  9.2014e-31  8.0307e-29  1.6164e-30  8.3081e-29  2.8716e-30  8.871e-29  5.1609e-30  1.0016e-28  9.3693e-30  1.2315e-28  1.7141e-29  1.6876e-28  3.1507e-29  2.6145e-28  5.8213e-29  4.3711e-28  1.0688e-28
      1.35  7.7205e-29  3.7859e-32  7.7209e-29  4.0594e-32  7.7216e-29  4.5458e-32  7.7229e-29  5.4105e-32  7.7251e-29  6.9478e-32  7.7291e-29  9.6804e-32  7.7362e-29  1.4536e-31  7.7489e-29  2.3161e-31  7.7715e-29  3.8469e-31  7.8123e-29  6.5581e-31  7.8866e-29  1.138e-30  8.0256e-29  1.9982e-30  8.2977e-29  3.5524e-30  8.8526e-29  6.411e-30  9.9839e-29  1.1734e-29  1.2261e-28  2.1716e-29  1.678e-28  4.0442e-29  2.5919e-28  7.575e-29  4.3382e-28  1.4088e-28
      1.40  7.7223e-29  4.4932e-32  7.7226e-29  4.8338e-32  7.7233e-29  5.4396e-32  7.7246e-29  6.5165e-32  7.7268e-29  8.4305e-32  7.7306e-29  1.1832e-31  7.7376e-29  1.7871e-31   7.75e-29  2.8587e-31  7.7721e-29  4.7574e-31  7.8119e-29  8.1174e-31  7.8844e-29  1.4065e-30  8.0201e-29  2.4656e-30  8.2863e-29  4.3825e-30  8.8317e-29  7.9512e-30  9.9479e-29   1.47e-29   1.22e-28  2.7579e-29  1.6673e-28  5.2136e-29  2.5667e-28  9.9069e-29  4.3005e-28  1.8682e-28
      1.45  7.7241e-29  5.2893e-32  7.7244e-29  5.7135e-32  7.7251e-29  6.4678e-32  7.7263e-29  7.8087e-32  7.7284e-29  1.0191e-31  7.7322e-29  1.4423e-31  7.739e-29  2.1933e-31  7.751e-29  3.5241e-31  7.7726e-29  5.8778e-31  7.8114e-29  1.0032e-30  7.882e-29  1.736e-30  8.0141e-29  3.0387e-30  8.2743e-29  5.4041e-30  8.809e-29  9.8661e-30  9.9087e-29  1.8448e-29  1.2134e-28  3.5123e-29  1.6556e-28  6.7439e-29  2.5396e-28  1.2989e-28  4.2589e-28  2.4826e-28
      1.50  7.7259e-29  6.1902e-32  7.7263e-29  6.7201e-32  7.7269e-29  7.662e-32  7.7281e-29  9.3361e-32  7.7302e-29  1.231e-31  7.7339e-29  1.7591e-31  7.7404e-29  2.6955e-31  7.7521e-29  4.3529e-31  7.7731e-29  7.2787e-31  7.8107e-29  1.2428e-30  7.8792e-29  2.1484e-30  8.0074e-29  3.7553e-30  8.2604e-29  6.6924e-30  8.784e-29  1.2285e-29  9.8656e-29  2.3239e-29  1.206e-28  4.4879e-29  1.6429e-28  8.7435e-29  2.5108e-28  1.7032e-28  4.2138e-28  3.2944e-28
      1.55  7.7279e-29  7.2231e-32  7.7282e-29  7.8927e-32  7.7289e-29  9.0831e-32   7.73e-29  1.1199e-31  7.732e-29  1.4956e-31  7.7356e-29  2.1625e-31  7.7419e-29  3.3444e-31  7.7533e-29  5.4341e-31  7.7736e-29  9.1168e-31  7.8101e-29  1.5582e-30  7.8766e-29  2.692e-30  8.001e-29  4.7009e-30  8.2472e-29  8.3868e-30  8.7597e-29  1.5485e-29  9.8234e-29  2.9579e-29  1.1988e-28  5.7788e-29  1.6303e-28  1.1386e-28  2.4824e-28  2.2355e-28  4.1672e-28  4.3611e-28
      1.60  7.7299e-29  8.4256e-32  7.7302e-29  9.2903e-32  7.7308e-29  1.0827e-31  7.7319e-29  1.3559e-31  7.7339e-29  1.8409e-31  7.7374e-29  2.7016e-31  7.7436e-29  4.2261e-31  7.7546e-29  6.9197e-31  7.7743e-29  1.1661e-30  7.8098e-29  1.997e-30  7.8743e-29  3.4509e-30  7.9951e-29  6.0234e-30  8.2347e-29  1.0754e-29  8.7364e-29  1.993e-29  9.7825e-29  3.8304e-29  1.1917e-28  7.5341e-29  1.6178e-28  1.4938e-28  2.4551e-28  2.9434e-28  4.1195e-28  5.7659e-28
      1.65  7.732e-29  9.8593e-32  7.7323e-29  1.1012e-31  7.7329e-29  1.3061e-31  7.734e-29  1.6702e-31  7.7359e-29  2.3167e-31  7.7392e-29  3.4637e-31  7.7453e-29  5.4951e-31  7.756e-29  9.0831e-31  7.7751e-29  1.5395e-30  7.8095e-29  2.6448e-30  7.8721e-29  4.577e-30  7.9893e-29  7.992e-30  8.2226e-29  1.4269e-29  8.7136e-29  2.646e-29  9.7424e-29  5.0884e-29  1.1847e-28  1.0011e-28  1.6054e-28  1.9849e-28  2.4293e-28  3.9052e-28  4.0715e-28  7.6408e-28
      1.70  7.7341e-29  1.1624e-31  7.7344e-29  1.3225e-31  7.735e-29  1.6069e-31  7.7361e-29  2.1123e-31  7.7379e-29  3.0098e-31  7.7412e-29  4.6022e-31  7.747e-29  7.4227e-31  7.7574e-29  1.2405e-30  7.7761e-29  2.1173e-30  7.8095e-29  3.6532e-30  7.8702e-29  6.3386e-30  7.984e-29  1.1081e-29  8.211e-29  1.9767e-29  8.6918e-29  3.6527e-29  9.7038e-29  6.9834e-29  1.1779e-28  1.3642e-28  1.5934e-28  2.6851e-28  2.4053e-28  5.2461e-28  4.0239e-28  1.0194e-27
      1.75  7.7363e-29  1.3877e-31  7.7367e-29  1.6192e-31  7.7372e-29  2.0307e-31  7.7382e-29  2.7619e-31   7.74e-29  4.0608e-31  7.7432e-29  6.3656e-31  7.7489e-29  1.0449e-30  7.759e-29  1.7668e-30  7.7771e-29  3.0382e-30  7.8096e-29  5.2682e-30  7.8685e-29  9.1718e-30  7.979e-29  1.606e-29    8.2e-29  2.8575e-29  8.6711e-29  5.2471e-29  9.6671e-29  9.916e-29  1.1714e-28  1.9103e-28  1.582e-28  3.7082e-28  2.3831e-28  7.1559e-28  3.9773e-28  1.3736e-27
      1.80  7.7387e-29  1.685e-31  7.739e-29  2.0311e-31  7.7395e-29  2.6463e-31  7.7405e-29  3.7396e-31  7.7422e-29  5.6818e-31  7.7454e-29  9.1293e-31  7.7509e-29  1.5241e-30  7.7607e-29  2.6052e-30  7.7783e-29  4.5118e-30  7.8099e-29  7.8618e-30  7.8672e-29  1.3736e-29  7.9746e-29  2.4094e-29   8.19e-29  4.277e-29  8.6518e-29  7.7801e-29  9.6327e-29  1.4482e-28  1.1654e-28  2.7393e-28  1.5712e-28  5.2191e-28  2.3626e-28  9.9058e-28  3.9323e-28  1.8709e-27
      1.85  7.741e-29  2.0857e-31  7.7413e-29  2.6123e-31  7.7419e-29  3.5484e-31  7.7428e-29  5.2123e-31  7.7445e-29  8.1685e-31  7.7476e-29  1.3418e-30  7.753e-29  2.2727e-30  7.7626e-29  3.921e-30  7.7797e-29  6.8316e-30  7.8104e-29  1.1955e-29  7.8662e-29  2.0954e-29  7.9707e-29  3.6811e-29  8.1808e-29  6.5178e-29  8.634e-29  1.174e-28  9.6011e-29  2.1504e-28  1.1598e-28  3.9879e-28  1.5612e-28  7.4415e-28  2.344e-28  1.3859e-27  3.8894e-28  2.5701e-27
      1.90  7.7435e-29  2.6297e-31  7.7438e-29  3.432e-31  7.7443e-29  4.8583e-31  7.7453e-29  7.3936e-31  7.7469e-29  1.1899e-30  7.7499e-29   1.99e-30  7.7552e-29  3.4099e-30  7.7645e-29  5.9257e-30  7.7813e-29  1.0374e-29  7.8113e-29  1.8217e-29  7.8657e-29  3.2016e-29  7.9677e-29  5.6286e-29  8.1735e-29  9.9492e-29  8.6201e-29  1.776e-28  9.576e-29  3.2045e-28  1.1553e-28  5.8307e-28  1.5529e-28  1.0657e-27  2.3282e-28  1.9466e-27  3.852e-28  3.5437e-27
      1.95  7.7461e-29  3.3613e-31  7.7464e-29  4.5666e-31  7.7469e-29  6.7096e-31  7.7478e-29  1.0519e-30  7.7494e-29  1.729e-30  7.7523e-29  2.9319e-30  7.7575e-29  5.0674e-30  7.7666e-29  8.8544e-30  7.783e-29  1.5558e-29  7.8125e-29   2.74e-29  7.866e-29  4.8268e-29  7.967e-29  8.4985e-29  8.1724e-29  1.4994e-28  8.6197e-29  2.6562e-28  9.574e-29  4.7297e-28  1.1542e-28  8.4576e-28  1.5494e-28  1.5157e-27  2.3189e-28  2.7154e-27  3.8337e-28  4.8596e-27
      2.00  7.7487e-29  4.3406e-31  7.749e-29  6.1206e-31  7.7495e-29  9.2856e-31  7.7504e-29  1.4912e-30  7.752e-29  2.4913e-30  7.7548e-29  4.2684e-30  7.7599e-29  7.424e-30  7.7689e-29  1.3022e-29  7.7849e-29  2.294e-29  7.8138e-29  4.0471e-29  7.8662e-29  7.1344e-29  7.9651e-29  1.2575e-28  8.1668e-29  2.2137e-28  8.6085e-29  3.8959e-28  9.5541e-29  6.8637e-28  1.1507e-28  1.2105e-27  1.5429e-28  2.1349e-27  2.3067e-28  3.7642e-27  3.8024e-28  6.6347e-27
      2.05  7.7514e-29  5.6214e-31  7.7517e-29  8.1858e-31  7.7522e-29  1.2745e-30  7.7531e-29  2.0852e-30  7.7547e-29  3.5262e-30  7.7574e-29  6.0869e-30  7.7624e-29  1.0635e-29  7.7712e-29  1.8706e-29  7.787e-29  3.3011e-29  7.8153e-29  5.8315e-29  7.8667e-29  1.0291e-28  7.9635e-29  1.8143e-28  8.1612e-29  3.1886e-28  8.5967e-29  5.5831e-28  9.5331e-29  9.7544e-28  1.1471e-28  1.7015e-27  1.5366e-28  2.9624e-27  2.2956e-28  5.1543e-27  3.7708e-28  8.9732e-27
      2.10  7.7542e-29  7.2515e-31  7.7545e-29  1.0845e-30  7.755e-29  1.7234e-30  7.7559e-29  2.8593e-30  7.7574e-29  4.8786e-30  7.7602e-29  8.4674e-30  7.7651e-29  1.4842e-29  7.7738e-29  2.6159e-29  7.7893e-29  4.6223e-29  7.8172e-29  8.1734e-29  7.8677e-29  1.4436e-28  7.9627e-29  2.5459e-28  8.1568e-29  4.4694e-28  8.587e-29  7.7961e-28  9.5159e-29  1.3534e-27  1.1441e-28  2.3407e-27  1.5315e-28  4.0338e-27  2.2865e-28  6.9439e-27  3.743e-28  1.1975e-26
      2.15  7.7571e-29  9.272e-31  7.7574e-29  1.4167e-30  7.7579e-29  2.287e-30  7.7588e-29  3.8345e-30  7.7603e-29  6.5854e-30  7.763e-29  1.1475e-29  7.7678e-29  2.0161e-29  7.7765e-29  3.5585e-29  7.7918e-29  6.2939e-29  7.8193e-29  1.1131e-28  7.8692e-29  1.9687e-28  7.9627e-29  3.473e-28  8.1538e-29  6.093e-28  8.5795e-29  1.0599e-27  9.5025e-29  1.8314e-27  1.1418e-28  3.1471e-27  1.5275e-28  5.3812e-27  2.2797e-28  9.1872e-27  3.7199e-28  1.5736e-26
      2.20  7.7601e-29  1.1712e-30  7.7604e-29  1.8199e-30  7.7609e-29  2.9734e-30  7.7617e-29  5.0244e-30  7.7632e-29  8.6706e-30  7.7659e-29  1.5152e-29  7.7707e-29  2.6667e-29  7.7793e-29  4.7117e-29  7.7945e-29  8.3399e-29  7.8218e-29  1.4759e-28  7.8712e-29  2.6118e-28  7.9635e-29  4.6095e-28  8.1521e-29  8.0849e-28  8.5742e-29  1.4039e-27  9.4929e-29  2.4175e-27  1.1401e-28  4.1351e-27  1.5248e-28  7.0303e-27  2.2749e-28  1.193e-26  3.7029e-28  2.0334e-26
      2.25  7.7632e-29  1.4586e-30  7.7635e-29  2.2963e-30  7.7639e-29  3.7859e-30  7.7648e-29  6.4345e-30  7.7663e-29  1.1143e-29  7.769e-29  1.9514e-29  7.7738e-29  3.4388e-29  7.7823e-29  6.0806e-29  7.7975e-29  1.0769e-28  7.8246e-29  1.9069e-28  7.8737e-29  3.376e-28  7.9652e-29  5.9611e-28  8.1517e-29  1.0456e-27  8.5713e-29  1.8136e-27  9.4875e-29  3.116e-27  1.1392e-28  5.313e-27  1.5233e-28  8.9972e-27  2.2725e-28  1.5202e-26  3.6929e-28  2.5827e-26
      2.30  7.7664e-29  1.7899e-30  7.7666e-29  2.8459e-30  7.7671e-29  4.7238e-30  7.768e-29  8.0627e-30  7.7695e-29  1.3999e-29  7.7722e-29  2.4552e-29  7.777e-29  4.3306e-29  7.7855e-29  7.6621e-29  7.8006e-29  1.3576e-28  7.8277e-29  2.405e-28  7.8766e-29   4.26e-28  7.9676e-29  7.5257e-28  8.1528e-29  1.3204e-27  8.5707e-29  2.2891e-27  9.4861e-29  3.9276e-27  1.139e-28  6.6837e-27  1.523e-28  1.129e-26  2.2723e-28  1.9025e-26  3.6894e-28  3.2257e-26
      2.35  7.7696e-29  2.1639e-30  7.7699e-29  3.4663e-30  7.7704e-29  5.7821e-30  7.7712e-29    9.9e-30  7.7728e-29  1.7221e-29  7.7755e-29  3.0237e-29  7.7803e-29  5.3369e-29  7.7888e-29  9.4468e-29  7.804e-29  1.6744e-28  7.8312e-29  2.9674e-28  7.8801e-29  5.2584e-28  7.9709e-29  9.2946e-28  8.1551e-29  1.6316e-27  8.5724e-29  2.8283e-27  9.4886e-29  4.8498e-27  1.1395e-28  8.2446e-27  1.524e-28  1.3908e-26  2.2743e-28  2.3403e-26  3.6913e-28  3.9644e-26
      2.40  7.773e-29  2.5754e-30  7.7733e-29  4.1472e-30  7.7738e-29  6.9422e-30  7.7746e-29  1.1912e-29  7.7761e-29  2.0749e-29  7.7789e-29  3.6458e-29  7.7837e-29  6.4381e-29  7.7923e-29   1.14e-28  7.8076e-29  2.0211e-28  7.8349e-29  3.583e-28  7.884e-29  6.3519e-28  7.9749e-29  1.1234e-27  8.1588e-29  1.9732e-27  8.5761e-29  3.4213e-27  9.4947e-29  5.866e-27  1.1406e-28  9.9691e-27  1.526e-28  1.6808e-26  2.2783e-28  2.8269e-26  3.6978e-28  4.7882e-26
      2.45  7.7765e-29  3.0156e-30  7.7767e-29  4.8724e-30  7.7772e-29  8.1743e-30  7.7781e-29  1.4045e-29  7.7796e-29  2.4485e-29  7.7824e-29  4.3044e-29  7.7873e-29  7.6036e-29  7.7959e-29  1.3466e-28  7.8114e-29  2.3863e-28  7.8389e-29  4.2346e-28  7.8884e-29   7.51e-28  7.9796e-29  1.3289e-27  8.1635e-29  2.3359e-27  8.5817e-29  4.0519e-27  9.5041e-29  6.9487e-27  1.1422e-28  1.181e-26  1.5291e-28  1.9912e-26  2.2842e-28  3.3492e-26  3.7084e-28  5.6751e-26
      2.50   7.78e-29  3.4878e-30  7.7803e-29  5.6469e-30  7.7808e-29  9.4861e-30  7.7817e-29  1.6313e-29  7.7832e-29  2.8452e-29  7.786e-29  5.0034e-29  7.791e-29  8.8399e-29  7.7997e-29  1.5659e-28  7.8154e-29  2.7753e-28  7.8433e-29  4.9261e-28  7.8933e-29  8.7394e-28  7.9851e-29  1.5474e-27  8.1695e-29  2.7219e-27  8.5893e-29  4.7248e-27  9.517e-29  8.1073e-27  1.1445e-28  1.3788e-26  1.5333e-28  2.326e-26  2.292e-28  3.9148e-26  3.7228e-28  6.6401e-26
      2.55  7.7837e-29  3.9902e-30  7.784e-29  6.4653e-30  7.7845e-29  1.0867e-29  7.7854e-29  1.8693e-29  7.7869e-29  3.2609e-29  7.7898e-29  5.7353e-29  7.7948e-29  1.0134e-28  7.8037e-29  1.7953e-28  7.8196e-29  3.1846e-28  7.8479e-29  5.6498e-28  7.8985e-29  1.0027e-27  7.9913e-29  1.7763e-27  8.1765e-29  3.1273e-27  8.5987e-29  5.4331e-27  9.5328e-29  9.3307e-27  1.1472e-28  1.5884e-26  1.5384e-28  2.6823e-26  2.3014e-28  4.5194e-26  3.7404e-28  7.6759e-26
      2.60  7.7874e-29  4.5183e-30  7.7877e-29  7.3195e-30  7.7882e-29  1.2301e-29  7.7891e-29  2.1158e-29  7.7908e-29  3.6908e-29  7.7936e-29  6.4912e-29  7.7987e-29  1.147e-28  7.8078e-29  2.0321e-28  7.8239e-29  3.605e-28  7.8526e-29  6.3967e-28  7.904e-29  1.1356e-27  7.9977e-29  2.013e-27  8.184e-29  3.547e-27  8.6085e-29  6.1683e-27  9.5495e-29  1.0605e-26  1.1501e-28  1.8074e-26  1.5436e-28  3.0563e-26  2.3113e-28  5.1567e-26  3.759e-28  8.7721e-26
      2.65  7.7913e-29  5.0722e-30  7.7916e-29  8.2078e-30  7.7921e-29  1.3784e-29  7.793e-29  2.3699e-29  7.7947e-29  4.1329e-29  7.7976e-29  7.2679e-29  7.8028e-29  1.2842e-28  7.812e-29  2.2751e-28  7.8284e-29  4.0365e-28  7.8576e-29  7.1634e-28  7.9098e-29  1.2721e-27  8.0046e-29  2.2562e-27  8.1921e-29  3.9791e-27  8.6195e-29  6.9274e-27  9.5678e-29  1.1924e-26  1.1533e-28  2.0352e-26  1.5494e-28  3.4469e-26  2.3221e-28  5.8251e-26  3.7795e-28  9.9264e-26
      2.70  7.7953e-29  5.6515e-30  7.7956e-29  9.128e-30  7.7961e-29  1.531e-29  7.797e-29  2.6303e-29  7.7987e-29  4.5852e-29  7.8017e-29  8.0611e-29  7.8069e-29  1.4242e-28  7.8163e-29  2.523e-28  7.8331e-29  4.4766e-28  7.8628e-29  7.9454e-28  7.9158e-29  1.4114e-27  8.012e-29  2.5045e-27  8.2011e-29  4.4209e-27  8.6317e-29  7.7054e-27  9.5882e-29  1.3282e-26  1.1568e-28  2.2706e-26  1.5556e-28  3.8522e-26  2.3338e-28  6.5217e-26  3.8017e-28  1.1134e-25
      2.75  7.7993e-29  6.2535e-30  7.7996e-29  1.0074e-29  7.8001e-29  1.6867e-29  7.8011e-29  2.8946e-29  7.8028e-29  5.0426e-29  7.8058e-29  8.8622e-29  7.8111e-29  1.5654e-28  7.8206e-29  2.773e-28  7.8375e-29  4.9201e-28  7.8676e-29  8.7328e-28  7.9213e-29  1.5516e-27  8.0188e-29  2.7538e-27  8.2111e-29  4.8628e-27  8.6494e-29  8.4833e-27  9.6181e-29  1.4647e-26  1.1617e-28  2.5095e-26  1.5634e-28  4.2674e-26  2.3474e-28  7.2409e-26  3.8264e-28  1.2388e-25
      2.80  7.8035e-29  6.885e-30  7.8038e-29  1.1053e-29  7.8043e-29  1.8464e-29  7.8053e-29  3.1643e-29  7.807e-29  5.5079e-29   7.81e-29  9.6753e-29  7.8154e-29  1.7086e-28  7.825e-29  3.0262e-28  7.8421e-29  5.3692e-28  7.8725e-29  9.5298e-28  7.9268e-29  1.6934e-27  8.0256e-29  3.0061e-27  8.2217e-29   5.31e-27  8.6685e-29  9.2718e-27   9.65e-29  1.6037e-26  1.1668e-28  2.754e-26  1.5716e-28  4.6948e-26  2.3614e-28  7.9849e-26  3.8524e-28  1.3689e-25
      2.85  7.8077e-29  7.5478e-30  7.808e-29  1.2068e-29  7.8086e-29  2.0105e-29  7.8096e-29  3.4398e-29  7.8113e-29  5.9814e-29  7.8143e-29  1.0501e-28  7.8198e-29  1.8538e-28  7.8294e-29  3.2829e-28  7.8467e-29  5.8242e-28  7.8774e-29  1.0337e-27  7.9323e-29  1.837e-27  8.0326e-29  3.2615e-27  8.2327e-29  5.7627e-27  8.6883e-29  1.0072e-26  9.6827e-29  1.7454e-26  1.172e-28  3.0046e-26  1.5801e-28  5.135e-26  2.376e-28  8.7541e-26  3.8791e-28  1.5038e-25
      2.90  7.8121e-29  8.2464e-30  7.8124e-29  1.3123e-29  7.813e-29  2.1796e-29  7.8139e-29  3.7219e-29  7.8157e-29  6.4644e-29  7.8187e-29  1.1341e-28  7.8242e-29  2.0014e-28  7.834e-29  3.5435e-28  7.8514e-29  6.2859e-28  7.8824e-29  1.1156e-27  7.938e-29  1.9826e-27  8.0399e-29  3.5205e-27  8.2441e-29  6.2222e-27  8.7082e-29  1.0886e-26  9.715e-29  1.8902e-26  1.1771e-28  3.2618e-26  1.5882e-28  5.5891e-26  2.3905e-28  9.5498e-26  3.9067e-28  1.6434e-25
      2.95  7.8166e-29  8.9859e-30  7.8169e-29  1.4226e-29  7.8174e-29  2.3544e-29  7.8184e-29  4.0114e-29  7.8202e-29  6.958e-29  7.8233e-29  1.2198e-28  7.8288e-29  2.1516e-28  7.8387e-29  3.8086e-28  7.8563e-29  6.7554e-28  7.8876e-29  1.1988e-27  7.9439e-29  2.1305e-27  8.0474e-29  3.7836e-27  8.2556e-29  6.6894e-27  8.7276e-29  1.1717e-26  9.7453e-29  2.0386e-26  1.1817e-28  3.5267e-26  1.5956e-28  6.0587e-26  2.404e-28  1.0375e-25  3.9339e-28  1.7881e-25
      3.00  7.8211e-29  9.7721e-30  7.8214e-29  1.5381e-29  7.822e-29  2.5356e-29  7.823e-29  4.3094e-29  7.8248e-29  7.4638e-29  7.8279e-29  1.3073e-28  7.8335e-29  2.3048e-28  7.8435e-29  4.0787e-28  7.8613e-29  7.2334e-28  7.8931e-29  1.2834e-27  7.9502e-29  2.2811e-27  8.0553e-29  4.0514e-27  8.2673e-29  7.1658e-27  8.746e-29  1.2566e-26  9.7724e-29  2.191e-26  1.1855e-28  3.8003e-26  1.6017e-28  6.546e-26  2.4159e-28  1.1232e-25  3.9597e-28  1.938e-25
      3.05  7.8258e-29  1.0613e-29  7.8261e-29  1.6596e-29  7.8267e-29  2.7235e-29  7.8277e-29  4.6155e-29  7.8295e-29   7.98e-29  7.8327e-29  1.3963e-28  7.8383e-29  2.4603e-28  7.8484e-29  4.3524e-28  7.8665e-29  7.7175e-28  7.8987e-29  1.3702e-27  7.9567e-29  2.4334e-27  8.0637e-29  4.3223e-27  8.2791e-29  7.6488e-27  8.7626e-29  1.3431e-26  9.7946e-29  2.3468e-26  1.1884e-28  4.0817e-26  1.6059e-28  7.0498e-26  2.4249e-28  1.2119e-25  3.9829e-28  2.0926e-25
      3.10  7.8306e-29  1.1514e-29  7.8309e-29  1.7878e-29  7.8314e-29  2.9196e-29  7.8325e-29  4.9323e-29  7.8343e-29  8.5113e-29  7.8375e-29  1.4876e-28  7.8433e-29  2.6194e-28  7.8535e-29  4.6322e-28  7.8719e-29  8.212e-28  7.9046e-29  1.4579e-27  7.9636e-29  2.5888e-27  8.0725e-29  4.5989e-27  8.2909e-29  8.1428e-27  8.7773e-29  1.4319e-26  9.8109e-29  2.5077e-26  1.1899e-28  4.3741e-26  1.6074e-28  7.5767e-26  2.4299e-28  1.3049e-25  4.0021e-28  2.2537e-25
      3.15  7.8354e-29  1.2488e-29  7.8357e-29  1.9243e-29  7.8363e-29  3.1256e-29  7.8373e-29  5.2619e-29  7.8392e-29  9.0608e-29  7.8425e-29  1.5817e-28  7.8483e-29  2.783e-28  7.8588e-29  4.9196e-28  7.8774e-29  8.7194e-28  7.9108e-29  1.5478e-27  7.9709e-29  2.748e-27  8.0819e-29  4.8823e-27  8.3028e-29  8.6499e-27  8.7897e-29  1.5234e-26  9.8203e-29  2.6741e-26  1.1897e-28  4.6789e-26  1.6056e-28  8.1311e-26  2.4295e-28  1.4031e-25  4.0153e-28  2.423e-25
      3.20  7.8403e-29  1.3546e-29  7.8407e-29  2.0705e-29  7.8413e-29  3.3436e-29  7.8423e-29  5.6076e-29  7.8442e-29  9.6336e-29  7.8476e-29  1.6793e-28  7.8535e-29  2.9525e-28  7.8642e-29  5.2168e-28  7.8832e-29  9.2438e-28  7.9172e-29  1.6406e-27  7.9786e-29  2.9125e-27  8.0917e-29  5.1749e-27  8.3148e-29  9.1739e-27  8.8002e-29  1.6182e-26  9.823e-29  2.8471e-26  1.1878e-28  4.998e-26  1.5998e-28  8.7181e-26  2.4221e-28  1.508e-25  4.0203e-28  2.603e-25
      3.25  7.8454e-29  1.4705e-29  7.8457e-29  2.2286e-29  7.8463e-29  3.5768e-29  7.8474e-29  5.9742e-29  7.8493e-29  1.0237e-28  7.8527e-29  1.7819e-28  7.8588e-29  3.1302e-28  7.8697e-29  5.5279e-28  7.8891e-29  9.7924e-28  7.9239e-29  1.7377e-27  7.9866e-29  3.0844e-27  8.1019e-29  5.4808e-27  8.327e-29  9.7218e-27  8.8092e-29  1.7174e-26  9.8201e-29  3.0283e-26  1.1844e-28  5.3341e-26  1.5901e-28  9.3441e-26  2.4065e-28  1.6213e-25  4.0147e-28  2.7975e-25
      3.30  7.8505e-29  1.5999e-29  7.8508e-29  2.4028e-29  7.8514e-29  3.8307e-29  7.8525e-29  6.3699e-29  7.8545e-29  1.0885e-28  7.858e-29  1.8915e-28  7.8642e-29  3.3196e-28  7.8753e-29  5.8593e-28  7.8952e-29  1.0376e-27  7.9307e-29  1.841e-27  7.9947e-29  3.2673e-27  8.1123e-29  5.8063e-27  8.3394e-29  1.0305e-26  8.8175e-29  1.8229e-26  9.8138e-29  3.2206e-26  1.1798e-28  5.6914e-26  1.5769e-28  1.0017e-25  2.3823e-28  1.7453e-25  3.996e-28  3.0116e-25
      3.35  7.8556e-29  1.747e-29  7.856e-29  2.6005e-29  7.8566e-29  4.1184e-29  7.8578e-29  6.8176e-29  7.8598e-29  1.1618e-28  7.8634e-29  2.0154e-28  7.8697e-29  3.5334e-28  7.8811e-29  6.2333e-28  7.9013e-29  1.1035e-27  7.9376e-29  1.9576e-27  8.003e-29  3.4766e-27  8.1228e-29  6.174e-27  8.352e-29  1.0963e-26  8.826e-29  1.9415e-26  9.8067e-29  3.4359e-26  1.1748e-28  6.0883e-26  1.5613e-28  1.0764e-25  2.3502e-28  1.8849e-25  3.9623e-28  3.2551e-25
      3.40  7.8609e-29  1.913e-29  7.8612e-29  2.8225e-29  7.8619e-29  4.4401e-29  7.863e-29  7.3165e-29  7.8651e-29  1.2432e-28  7.8688e-29  2.1528e-28  7.8753e-29  3.7706e-28  7.8869e-29  6.6478e-28  7.9076e-29  1.1765e-27  7.9446e-29  2.0868e-27  8.0114e-29  3.7061e-27  8.1334e-29  6.582e-27  8.3648e-29  1.1693e-26  8.8353e-29  2.0732e-26  9.8013e-29  3.6744e-26   1.17e-28  6.526e-26  1.5452e-28  1.1588e-25  2.3122e-28  2.0411e-25  3.9128e-28  3.5336e-25
      3.45  7.8661e-29  2.1019e-29  7.8665e-29  3.0747e-29  7.8672e-29  4.8047e-29  7.8684e-29  7.8812e-29  7.8705e-29  1.3352e-28  7.8742e-29  2.3081e-28  7.8809e-29  4.0384e-28  7.8927e-29  7.1159e-28  7.9139e-29  1.259e-27  7.9518e-29  2.2328e-27  8.0199e-29  3.9653e-27  8.1441e-29  7.0435e-27  8.3777e-29  1.252e-26  8.8458e-29  2.2224e-26  9.7992e-29  3.9446e-26  1.166e-28  7.0199e-26  1.5301e-28  1.2511e-25  2.2716e-28  2.2174e-25  3.8483e-28  3.8561e-25
      3.50  7.8714e-29  2.3185e-29  7.8718e-29  3.3639e-29  7.8725e-29  5.2228e-29  7.8737e-29  8.5287e-29  7.8759e-29  1.4408e-28  7.8797e-29  2.4863e-28  7.8865e-29  4.3456e-28  7.8986e-29  7.6527e-28  7.9203e-29  1.3535e-27  7.959e-29  2.4002e-27  8.0285e-29  4.2627e-27  8.1549e-29  7.573e-27  8.3911e-29  1.3469e-26  8.8576e-29  2.3938e-26  9.8009e-29  4.2555e-26  1.1632e-28  7.5875e-26  1.5174e-28  1.3564e-25  2.2323e-28  2.4175e-25  3.7723e-28  4.229e-25
      3.55  7.8767e-29  2.5715e-29  7.8771e-29  3.7015e-29  7.8778e-29  5.711e-29  7.8791e-29  9.2845e-29  7.8813e-29  1.5639e-28  7.8852e-29  2.6941e-28  7.8922e-29  4.7041e-28  7.9046e-29  8.2791e-28  7.9267e-29  1.4639e-27  7.9663e-29  2.5955e-27  8.0373e-29  4.6096e-27  8.166e-29  8.1906e-27  8.4049e-29  1.4577e-26  8.8711e-29  2.5939e-26  9.8069e-29  4.6192e-26  1.1616e-28  8.2528e-26  1.508e-28  1.4792e-25  2.198e-28  2.6487e-25  3.6912e-28  4.6625e-25
      3.60  7.882e-29  2.8656e-29  7.8824e-29  4.0956e-29  7.8831e-29  6.2829e-29  7.8844e-29  1.0173e-28  7.8866e-29  1.709e-28  7.8907e-29  2.9392e-28  7.8978e-29  5.1271e-28  7.9105e-29  9.0186e-28  7.9332e-29  1.5942e-27  7.9736e-29  2.8261e-27  8.0462e-29  5.0194e-27  8.1774e-29  8.9199e-27  8.4195e-29  1.5883e-26  8.8868e-29  2.8297e-26  9.8182e-29  5.0487e-26  1.1613e-28  9.0412e-26  1.5022e-28  1.625e-25  2.1719e-28  2.9203e-25  3.6158e-28  5.1674e-25
      3.65  7.8873e-29  3.2104e-29  7.8877e-29   4.56e-29  7.8884e-29   6.96e-29  7.8897e-29  1.1228e-28  7.892e-29  1.8818e-28  7.8962e-29  3.2316e-28  7.9035e-29  5.6323e-28  7.9165e-29  9.9026e-28  7.9398e-29   1.75e-27  7.9813e-29  3.1019e-27  8.0556e-29  5.5092e-27  8.1896e-29  9.7915e-27  8.4358e-29  1.7443e-26  8.9061e-29  3.1107e-26  9.8373e-29  5.5592e-26  1.1629e-28  9.9778e-26  1.5012e-28  1.7978e-25  2.1579e-28  3.2379e-25  3.5635e-28  5.7397e-25
      3.70  7.8929e-29  3.6309e-29  7.8934e-29  5.1255e-29  7.8941e-29  7.7833e-29  7.8955e-29  1.251e-28  7.8978e-29  2.0915e-28  7.9021e-29  3.5863e-28  7.9097e-29  6.245e-28  7.9231e-29  1.0974e-27  7.9471e-29  1.9388e-27  7.9898e-29  3.4361e-27  8.0663e-29  6.1026e-27  8.204e-29  1.0847e-26  8.4557e-29  1.9328e-26  8.9324e-29  3.4491e-26  9.8703e-29  6.1705e-26  1.1674e-28  1.1089e-25  1.5068e-28  1.9998e-25  2.1609e-28  3.5981e-25  3.5585e-28  6.343e-25
      3.75  7.8987e-29  4.3069e-29  7.8992e-29  5.9822e-29  7.8999e-29  8.9615e-29  7.9013e-29  1.426e-28  7.9038e-29  2.3682e-28  7.9083e-29  4.0438e-28  7.9161e-29  7.024e-28  7.9302e-29  1.2325e-27  7.9551e-29  2.1757e-27  7.9996e-29  3.8542e-27  8.0792e-29  6.8435e-27  8.2222e-29  1.2172e-26  8.4825e-29  2.1672e-26  8.9713e-29  3.8676e-26  9.9273e-29  6.9189e-26  1.1766e-28  1.2423e-25  1.5221e-28  2.2335e-25  2.1872e-28  3.9856e-25  3.6305e-28  6.8899e-25
      3.80  8.2409e-29  6.7545e-29  8.2414e-29  8.6616e-29  8.2421e-29  1.2053e-28  8.2434e-29  1.8084e-28  8.2457e-29  2.881e-28  8.2498e-29  4.7886e-28  8.2571e-29  8.1812e-28  8.2702e-29  1.4216e-27  8.2935e-29  2.4952e-27  8.335e-29  4.4061e-27  8.4096e-29  7.8088e-27  8.5445e-29  1.3874e-26  8.7924e-29  2.4687e-26  9.2621e-29  4.4036e-26  1.0187e-28  7.8669e-26  1.2018e-28  1.406e-25  1.5545e-28  2.501e-25  2.2428e-28  4.369e-25  3.8094e-28  7.2507e-25
      3.85  8.2646e-29  2.1556e-28  8.265e-29  2.3788e-28  8.2658e-29  2.7756e-28  8.2673e-29  3.4812e-28  8.2699e-29  4.7361e-28  8.2744e-29  6.9679e-28  8.2826e-29  1.0937e-27  8.2971e-29  1.7996e-27  8.3229e-29  3.0554e-27  8.3691e-29  5.2896e-27  8.4517e-29  9.2661e-27  8.6005e-29  1.6346e-26  8.872e-29  2.8941e-26  9.3794e-29  5.1378e-26  1.0361e-28  9.1156e-26  1.2283e-28  1.6092e-25  1.5969e-28  2.7984e-25  2.3236e-28  4.6984e-25  4.081e-28  7.4452e-25
      3.90  8.2875e-29  1.0799e-27  8.288e-29  1.1068e-27  8.289e-29  1.1548e-27  8.2906e-29   1.24e-27  8.2936e-29  1.3916e-27  8.2988e-29  1.6611e-27  8.3082e-29  2.1403e-27  8.3248e-29  2.9926e-27  8.3545e-29  4.5078e-27  8.4074e-29  7.2017e-27  8.5018e-29  1.1989e-26  8.6712e-29  2.0474e-26  8.9776e-29  3.5535e-26  9.541e-29  6.2072e-26  1.0604e-28  1.0823e-25  1.2636e-28  1.8636e-25  1.6477e-28  3.1172e-25  2.419e-28  4.965e-25  4.2877e-28  7.9354e-25
      3.95  8.3071e-29  5.4596e-27  8.3078e-29  5.4933e-27  8.3089e-29  5.5531e-27  8.3109e-29  5.6596e-27  8.3144e-29  5.8488e-27  8.3206e-29  6.1852e-27  8.3317e-29  6.7833e-27  8.3515e-29  7.8462e-27  8.3866e-29  9.7344e-27  8.4491e-29  1.3086e-26  8.5605e-29  1.9024e-26  8.7592e-29  2.9495e-26  9.1146e-29  4.7903e-26  9.7547e-29  7.9781e-26  1.0919e-28  1.3352e-25  1.3051e-28  2.1975e-25  1.696e-28  3.4819e-25  2.4931e-28  5.3618e-25  4.2973e-28  9.2527e-25
