# This was generated using Cloudy10 and the columns are ordered 
# as log10 of the fraction of the metallicity to the solar metallicity
# 'h_*_Z' and 'c_*_Z' stands for cooling and heating respectively 
# at * metalicity
#
# NOTE: This was generated separately from loop_coolingcurve_w_UV.py
#       using Output_metals_w_redshift.py.
#
# Redshift = 5.5
# hden = 1.5
#
#     temp   h_-3.00_Z   c_-3.00_Z   h_-2.75_Z   c_-2.75_Z   h_-2.50_Z   c_-2.50_Z   h_-2.25_Z   c_-2.25_Z   h_-2.00_Z   c_-2.00_Z   h_-1.75_Z   c_-1.75_Z   h_-1.50_Z   c_-1.50_Z   h_-1.25_Z   c_-1.25_Z   h_-1.00_Z   c_-1.00_Z   h_-0.75_Z   c_-0.75_Z   h_-0.50_Z   c_-0.50_Z   h_-0.25_Z   c_-0.25_Z    h_0.00_Z    c_0.00_Z    h_0.25_Z    c_0.25_Z    h_0.50_Z    c_0.50_Z    h_0.75_Z    c_0.75_Z    h_1.00_Z    c_1.00_Z    h_1.25_Z    c_1.25_Z    h_1.50_Z    c_1.50_Z 
      1.00  1.1720e-25  2.2990e-29  1.1720e-25  2.2996e-29  1.1721e-25  2.3005e-29  1.1721e-25  2.3021e-29  1.1722e-25  2.3050e-29  1.1723e-25  2.3102e-29  1.1725e-25  2.3194e-29  1.1728e-25  2.3357e-29  1.1734e-25  2.3648e-29  1.1744e-25  2.4165e-29  1.1763e-25  2.5085e-29  1.1796e-25  2.6723e-29  1.1855e-25  2.9643e-29  1.1960e-25  3.4860e-29  1.2148e-25  4.4206e-29  1.2483e-25  6.1049e-29  1.3085e-25  9.1682e-29  1.4174e-25  1.4824e-28  1.6172e-25  2.5502e-28
      1.05  1.1712e-25  2.5747e-29  1.1712e-25  2.5760e-29  1.1712e-25  2.5783e-29  1.1713e-25  2.5824e-29  1.1713e-25  2.5896e-29  1.1714e-25  2.6024e-29  1.1716e-25  2.6253e-29  1.1719e-25  2.6660e-29  1.1725e-25  2.7383e-29  1.1736e-25  2.8670e-29  1.1754e-25  3.0960e-29  1.1787e-25  3.5037e-29  1.1846e-25  4.2302e-29  1.1950e-25  5.5268e-29  1.2137e-25  7.8473e-29  1.2469e-25  1.2020e-28  1.3067e-25  1.9585e-28  1.4147e-25  3.3477e-28  1.6129e-25  5.9490e-28
      1.10  1.1703e-25  2.8836e-29  1.1703e-25  2.8864e-29  1.1704e-25  2.8912e-29  1.1704e-25  2.8999e-29  1.1705e-25  2.9153e-29  1.1706e-25  2.9427e-29  1.1707e-25  2.9914e-29  1.1711e-25  3.0779e-29  1.1717e-25  3.2319e-29  1.1727e-25  3.5059e-29  1.1745e-25  3.9932e-29  1.1778e-25  4.8607e-29  1.1836e-25  6.4058e-29  1.1940e-25  9.1614e-29  1.2125e-25  1.4087e-28  1.2456e-25  2.2929e-28  1.3050e-25  3.8915e-28  1.4123e-25  6.8157e-28  1.6091e-25  1.2259e-27
      1.15  1.1694e-25  3.2303e-29  1.1694e-25  3.2357e-29  1.1695e-25  3.2454e-29  1.1695e-25  3.2625e-29  1.1696e-25  3.2930e-29  1.1697e-25  3.3473e-29  1.1698e-25  3.4438e-29  1.1702e-25  3.6155e-29  1.1707e-25  3.9207e-29  1.1718e-25  4.4636e-29  1.1736e-25  5.4295e-29  1.1769e-25  7.1482e-29  1.1827e-25  1.0209e-28  1.1930e-25  1.5663e-28  1.2114e-25  2.5405e-28  1.2442e-25  4.2868e-28  1.3032e-25  7.4376e-28  1.4098e-25  1.3185e-27  1.6050e-25  2.3842e-27
      1.20  1.1685e-25  3.6199e-29  1.1685e-25  3.6301e-29  1.1685e-25  3.6483e-29  1.1686e-25  3.6805e-29  1.1686e-25  3.7379e-29  1.1687e-25  3.8399e-29  1.1689e-25  4.0213e-29  1.1692e-25  4.3439e-29  1.1698e-25  4.9177e-29  1.1708e-25  5.9381e-29  1.1726e-25  7.7534e-29  1.1759e-25  1.0983e-28  1.1816e-25  1.6732e-28  1.1919e-25  2.6975e-28  1.2101e-25  4.5257e-28  1.2428e-25  7.7997e-28  1.3013e-25  1.3699e-27  1.4071e-25  2.4442e-27  1.6008e-25  4.4310e-27
      1.25  1.1675e-25  4.0612e-29  1.1676e-25  4.0794e-29  1.1676e-25  4.1118e-29  1.1676e-25  4.1695e-29  1.1677e-25  4.2720e-29  1.1678e-25  4.4544e-29  1.1679e-25  4.7786e-29  1.1683e-25  5.3553e-29  1.1688e-25  6.3808e-29  1.1699e-25  8.2047e-29  1.1717e-25  1.1449e-28  1.1749e-25  1.7221e-28  1.1806e-25  2.7493e-28  1.1907e-25  4.5790e-28  1.2089e-25  7.8432e-28  1.2412e-25  1.3685e-27  1.2993e-25  2.4204e-27  1.4043e-25  4.3338e-27  1.5965e-25  7.8678e-27
      1.30  1.1666e-25  4.6433e-29  1.1666e-25  4.6743e-29  1.1666e-25  4.7295e-29  1.1666e-25  4.8275e-29  1.1667e-25  5.0019e-29  1.1668e-25  5.3119e-29  1.1670e-25  5.8633e-29  1.1673e-25  6.8438e-29  1.1678e-25  8.5875e-29  1.1688e-25  1.1689e-28  1.1706e-25  1.7204e-28  1.1738e-25  2.7017e-28  1.1795e-25  4.4478e-28  1.1896e-25  7.5575e-28  1.2076e-25  1.3104e-27  1.2397e-25  2.3027e-27  1.2973e-25  4.0886e-27  1.4015e-25  7.3354e-27  1.5920e-25  1.3328e-26
      1.35  1.1655e-25  5.2968e-29  1.1655e-25  5.3470e-29  1.1656e-25  5.4363e-29  1.1656e-25  5.5950e-29  1.1656e-25  5.8773e-29  1.1657e-25  6.3793e-29  1.1659e-25  7.2721e-29  1.1662e-25  8.8597e-29  1.1668e-25  1.1683e-28  1.1678e-25  1.6704e-28  1.1696e-25  2.5635e-28  1.1727e-25  4.1522e-28  1.1784e-25  6.9791e-28  1.1884e-25  1.2013e-27  1.2062e-25  2.0990e-27  1.2381e-25  3.7048e-27  1.2952e-25  6.5941e-27  1.3985e-25  1.1846e-26  1.5875e-25  2.1538e-26
      1.40  1.1645e-25  6.0314e-29  1.1645e-25  6.1090e-29  1.1645e-25  6.2470e-29  1.1645e-25  6.4923e-29  1.1646e-25  6.9286e-29  1.1647e-25  7.7045e-29  1.1649e-25  9.0842e-29  1.1652e-25  1.1538e-28  1.1657e-25  1.5901e-28  1.1667e-25  2.3661e-28  1.1685e-25  3.7462e-28  1.1716e-25  6.2013e-28  1.1772e-25  1.0570e-27  1.1871e-25  1.8348e-27  1.2048e-25  3.2218e-27  1.2364e-25  5.7026e-27  1.2931e-25  1.0166e-26  1.3956e-25  1.8279e-26  1.5828e-25  3.3251e-26
      1.45  1.1634e-25  6.8576e-29  1.1634e-25  6.9724e-29  1.1634e-25  7.1765e-29  1.1634e-25  7.5394e-29  1.1635e-25  8.1849e-29  1.1636e-25  9.3326e-29  1.1637e-25  1.1374e-28  1.1641e-25  1.5003e-28  1.1646e-25  2.1458e-28  1.1656e-25  3.2938e-28  1.1673e-25  5.3355e-28  1.1705e-25  8.9673e-28  1.1760e-25  1.5430e-27  1.1858e-25  2.6936e-27  1.2034e-25  4.7452e-27  1.2347e-25  8.4147e-27  1.2910e-25  1.5017e-26  1.3925e-25  2.7017e-26  1.5781e-25  4.9169e-26
      1.50  1.1622e-25  7.7863e-29  1.1622e-25  7.9495e-29  1.1622e-25  8.2396e-29  1.1623e-25  8.7555e-29  1.1623e-25  9.6729e-29  1.1624e-25  1.1304e-28  1.1626e-25  1.4205e-28  1.1629e-25  1.9365e-28  1.1635e-25  2.8540e-28  1.1644e-25  4.4857e-28  1.1662e-25  7.3877e-28  1.1692e-25  1.2550e-27  1.1747e-25  2.1735e-27  1.1845e-25  3.8089e-27  1.2019e-25  6.7249e-27  1.2330e-25  1.1940e-26  1.2887e-25  2.1325e-26  1.3893e-25  3.8383e-26  1.5732e-25  6.9882e-26
      1.55  1.1610e-25  8.8303e-29  1.1610e-25  9.0540e-29  1.1611e-25  9.4518e-29  1.1611e-25  1.0159e-28  1.1611e-25  1.1417e-28  1.1612e-25  1.3654e-28  1.1614e-25  1.7632e-28  1.1617e-25  2.4707e-28  1.1623e-25  3.7288e-28  1.1632e-25  5.9662e-28  1.1650e-25  9.9455e-28  1.1680e-25  1.7024e-27  1.1734e-25  2.9619e-27  1.1831e-25  5.2044e-27  1.2004e-25  9.2030e-27  1.2312e-25  1.6355e-26  1.2864e-25  2.9224e-26  1.3862e-25  5.2621e-26  1.5684e-25  9.5833e-26
      1.60  1.1598e-25  1.0001e-28  1.1598e-25  1.0298e-28  1.1598e-25  1.0826e-28  1.1599e-25  1.1765e-28  1.1599e-25  1.3436e-28  1.1600e-25  1.6406e-28  1.1602e-25  2.1688e-28  1.1605e-25  3.1081e-28  1.1610e-25  4.7785e-28  1.1620e-25  7.7492e-28  1.1637e-25  1.3033e-27  1.1667e-25  2.2431e-27  1.1721e-25  3.9153e-27  1.1817e-25  6.8928e-27  1.1988e-25  1.2202e-26  1.2294e-25  2.1699e-26  1.2841e-25  3.8788e-26  1.3830e-25  6.9861e-26  1.5635e-25  1.2727e-25
      1.65  1.1585e-25  1.1312e-28  1.1585e-25  1.1695e-28  1.1586e-25  1.2377e-28  1.1586e-25  1.3590e-28  1.1586e-25  1.5746e-28  1.1587e-25  1.9580e-28  1.1589e-25  2.6398e-28  1.1592e-25  3.8523e-28  1.1597e-25  6.0086e-28  1.1607e-25  9.8433e-28  1.1624e-25  1.6664e-27  1.1654e-25  2.8795e-27  1.1707e-25  5.0382e-27  1.1803e-25  8.8818e-27  1.1972e-25  1.5736e-26  1.2275e-25  2.7996e-26  1.2817e-25  5.0061e-26  1.3797e-25  9.0187e-26  1.5584e-25  1.6434e-25
      1.70  1.1572e-25  1.2778e-28  1.1572e-25  1.3261e-28  1.1572e-25  1.4121e-28  1.1573e-25  1.5649e-28  1.1573e-25  1.8367e-28  1.1574e-25  2.3199e-28  1.1576e-25  3.1794e-28  1.1579e-25  4.7077e-28  1.1584e-25  7.4256e-28  1.1594e-25  1.2259e-27  1.1610e-25  2.0856e-27  1.1640e-25  3.6148e-27  1.1693e-25  6.3359e-27  1.1787e-25  1.1181e-26  1.1955e-25  1.9821e-26  1.2255e-25  3.5279e-26  1.2793e-25  6.3101e-26  1.3763e-25  1.1371e-25  1.5533e-25  2.0727e-25
      1.75  1.1559e-25  1.4416e-28  1.1559e-25  1.5014e-28  1.1559e-25  1.6077e-28  1.1559e-25  1.7966e-28  1.1560e-25  2.1327e-28  1.1561e-25  2.7303e-28  1.1562e-25  3.7929e-28  1.1565e-25  5.6827e-28  1.1570e-25  9.0435e-28  1.1580e-25  1.5020e-27  1.1596e-25  2.5651e-27  1.1626e-25  4.4560e-27  1.1678e-25  7.8209e-27  1.1772e-25  1.3813e-26  1.1938e-25  2.4499e-26  1.2235e-25  4.3618e-26  1.2768e-25  7.8040e-26  1.3728e-25  1.4067e-25  1.5480e-25  2.5653e-25
      1.80  1.1544e-25  1.6252e-28  1.1544e-25  1.6980e-28  1.1545e-25  1.8275e-28  1.1545e-25  2.0578e-28  1.1545e-25  2.4674e-28  1.1546e-25  3.1957e-28  1.1548e-25  4.4909e-28  1.1551e-25  6.7941e-28  1.1556e-25  1.0890e-27  1.1565e-25  1.8175e-27  1.1582e-25  3.1131e-27  1.1611e-25  5.4179e-27  1.1663e-25  9.5193e-27  1.1756e-25  1.6823e-26  1.1920e-25  2.9851e-26  1.2215e-25  5.3165e-26  1.2742e-25  9.5152e-26  1.3693e-25  1.7159e-25  1.5427e-25  3.1310e-25
      1.85  1.1530e-25  1.8305e-28  1.1530e-25  1.9184e-28  1.1530e-25  2.0747e-28  1.1530e-25  2.3527e-28  1.1531e-25  2.8470e-28  1.1532e-25  3.7260e-28  1.1533e-25  5.2891e-28  1.1536e-25  8.0688e-28  1.1541e-25  1.3012e-27  1.1550e-25  2.1804e-27  1.1567e-25  3.7441e-27  1.1596e-25  6.5260e-27  1.1647e-25  1.1477e-26  1.1739e-25  2.0294e-26  1.1902e-25  3.6024e-26  1.2193e-25  6.4181e-26  1.2716e-25  1.1491e-25  1.3657e-25  2.0733e-25  1.5372e-25  3.7863e-25
      1.90  1.1514e-25  2.0606e-28  1.1515e-25  2.1661e-28  1.1515e-25  2.3535e-28  1.1515e-25  2.6868e-28  1.1515e-25  3.2796e-28  1.1516e-25  4.3337e-28  1.1518e-25  6.2082e-28  1.1521e-25  9.5418e-28  1.1526e-25  1.5470e-27  1.1535e-25  2.6014e-27  1.1551e-25  4.4767e-27  1.1580e-25  7.8131e-27  1.1631e-25  1.3751e-26  1.1722e-25  2.4328e-26  1.1883e-25  4.3201e-26  1.2172e-25  7.6995e-26  1.2689e-25  1.3791e-25  1.3621e-25  2.4898e-25  1.5319e-25  4.5512e-25
      1.95  1.1499e-25  2.3182e-28  1.1499e-25  2.4437e-28  1.1499e-25  2.6670e-28  1.1499e-25  3.0639e-28  1.1500e-25  3.7698e-28  1.1501e-25  5.0251e-28  1.1502e-25  7.2573e-28  1.1505e-25  1.1227e-27  1.1510e-25  1.8287e-27  1.1519e-25  3.0843e-27  1.1535e-25  5.3176e-27  1.1564e-25  9.2908e-27  1.1615e-25  1.6362e-26  1.1705e-25  2.8959e-26  1.1866e-25  5.1437e-26  1.2153e-25  9.1691e-26  1.2668e-25  1.6426e-25  1.3596e-25  2.9662e-25  1.5284e-25  5.4244e-25
      2.00  1.1482e-25  2.6085e-28  1.1482e-25  2.7586e-28  1.1483e-25  3.0254e-28  1.1483e-25  3.5000e-28  1.1483e-25  4.3439e-28  1.1484e-25  5.8446e-28  1.1486e-25  8.5134e-28  1.1489e-25  1.3259e-27  1.1494e-25  2.1700e-27  1.1503e-25  3.6712e-27  1.1518e-25  6.3414e-27  1.1547e-25  1.1092e-26  1.1597e-25  1.9549e-26  1.1687e-25  3.4615e-26  1.1846e-25  6.1509e-26  1.2131e-25  1.0969e-25  1.2641e-25  1.9663e-25  1.3559e-25  3.5536e-25  1.5230e-25  6.5077e-25
      2.05  1.1465e-25  2.9360e-28  1.1465e-25  3.1154e-28  1.1466e-25  3.4345e-28  1.1466e-25  4.0020e-28  1.1466e-25  5.0111e-28  1.1467e-25  6.8056e-28  1.1469e-25  9.9968e-28  1.1472e-25  1.5672e-27  1.1477e-25  2.5765e-27  1.1485e-25  4.3716e-27  1.1501e-25  7.5649e-27  1.1529e-25  1.3247e-26  1.1579e-25  2.3362e-26  1.1668e-25  4.1387e-26  1.1825e-25  7.3575e-26  1.2107e-25  1.3128e-25  1.2611e-25  2.3547e-25  1.3519e-25  4.2598e-25  1.5171e-25  7.8134e-25
      2.10  1.1448e-25  3.3043e-28  1.1448e-25  3.5185e-28  1.1448e-25  3.8994e-28  1.1448e-25  4.5767e-28  1.1449e-25  5.7812e-28  1.1450e-25  7.9233e-28  1.1451e-25  1.1733e-27  1.1454e-25  1.8507e-27  1.1459e-25  3.0555e-27  1.1468e-25  5.1984e-27  1.1483e-25  9.0104e-27  1.1511e-25  1.5794e-26  1.1560e-25  2.7871e-26  1.1648e-25  4.9399e-26  1.1804e-25  8.7854e-26  1.2083e-25  1.5683e-25  1.2582e-25  2.8148e-25  1.3480e-25  5.0970e-25  1.5113e-25  9.3634e-25
      2.15  1.1429e-25  3.7181e-28  1.1429e-25  3.9729e-28  1.1430e-25  4.4259e-28  1.1430e-25  5.2317e-28  1.1430e-25  6.6644e-28  1.1431e-25  9.2124e-28  1.1433e-25  1.3744e-27  1.1436e-25  2.1802e-27  1.1440e-25  3.6134e-27  1.1449e-25  6.1625e-27  1.1465e-25  1.0697e-26  1.1492e-25  1.8768e-26  1.1541e-25  3.3138e-26  1.1628e-25  5.8759e-26  1.1782e-25  1.0454e-25  1.2058e-25  1.8670e-25  1.2551e-25  3.3529e-25  1.3440e-25  6.0764e-25  1.5054e-25  1.1178e-24
      2.20  1.1410e-25  4.1822e-28  1.1411e-25  4.4836e-28  1.1411e-25  5.0196e-28  1.1411e-25  5.9729e-28  1.1411e-25  7.6680e-28  1.1412e-25  1.0683e-27  1.1414e-25  1.6043e-27  1.1417e-25  2.5577e-27  1.1421e-25  4.2534e-27  1.1430e-25  7.2694e-27  1.1445e-25  1.2635e-26  1.1472e-25  2.2184e-26  1.1521e-25  3.9191e-26  1.1607e-25  6.9516e-26  1.1760e-25  1.2372e-25  1.2033e-25  2.2103e-25  1.2521e-25  3.9715e-25  1.3400e-25  7.2030e-25  1.4997e-25  1.3266e-24
      2.25  1.1391e-25  4.7016e-28  1.1391e-25  5.0556e-28  1.1391e-25  5.6852e-28  1.1391e-25  6.8049e-28  1.1392e-25  8.7960e-28  1.1393e-25  1.2337e-27  1.1394e-25  1.8634e-27  1.1397e-25  2.9832e-27  1.1402e-25  4.9749e-27  1.1410e-25  8.5176e-27  1.1425e-25  1.4820e-26  1.1452e-25  2.6038e-26  1.1500e-25  4.6019e-26  1.1585e-25  8.1652e-26  1.1737e-25  1.4536e-25  1.2007e-25  2.5977e-25  1.2491e-25  4.6695e-25  1.3361e-25  8.4740e-25  1.4940e-25  1.5622e-24
      2.30  1.1370e-25  5.2834e-28  1.1371e-25  5.6957e-28  1.1371e-25  6.4288e-28  1.1371e-25  7.7326e-28  1.1371e-25  1.0051e-27  1.1372e-25  1.4174e-27  1.1374e-25  2.1506e-27  1.1376e-25  3.4545e-27  1.1381e-25  5.7737e-27  1.1390e-25  9.8990e-27  1.1405e-25  1.7239e-26  1.1431e-25  3.0302e-26  1.1479e-25  5.3572e-26  1.1563e-25  9.5077e-26  1.1713e-25  1.6929e-25  1.1981e-25  3.0263e-25  1.2460e-25  5.4417e-25  1.3321e-25  9.8797e-25  1.4884e-25  1.8227e-24
      2.35  1.1349e-25  5.9319e-28  1.1349e-25  6.4073e-28  1.1350e-25  7.2528e-28  1.1350e-25  8.7563e-28  1.1350e-25  1.1430e-27  1.1351e-25  1.6185e-27  1.1353e-25  2.4641e-27  1.1355e-25  3.9679e-27  1.1360e-25  6.6425e-27  1.1368e-25  1.1400e-26  1.1383e-25  1.9865e-26  1.1410e-25  3.4932e-26  1.1456e-25  6.1773e-26  1.1540e-25  1.0965e-25  1.1689e-25  1.9528e-25  1.1954e-25  3.4914e-25  1.2429e-25  6.2795e-25  1.3282e-25  1.1405e-24  1.4831e-25  2.1051e-24
      2.40  1.1327e-25  6.6529e-28  1.1327e-25  7.1957e-28  1.1328e-25  8.1608e-28  1.1328e-25  9.8771e-28  1.1328e-25  1.2929e-27  1.1329e-25  1.8357e-27  1.1331e-25  2.8009e-27  1.1333e-25  4.5175e-27  1.1338e-25  7.5706e-27  1.1346e-25  1.3002e-26  1.1361e-25  2.2665e-26  1.1387e-25  3.9865e-26  1.1434e-25  7.0507e-26  1.1517e-25  1.2517e-25  1.1664e-25  2.2294e-25  1.1927e-25  3.9866e-25  1.2398e-25  7.1711e-25  1.3244e-25  1.3027e-24  1.4778e-25  2.4053e-24
      2.45  1.1305e-25  7.4536e-28  1.1305e-25  8.0666e-28  1.1305e-25  9.1569e-28  1.1305e-25  1.1096e-27  1.1306e-25  1.4543e-27  1.1306e-25  2.0674e-27  1.1308e-25  3.1578e-27  1.1310e-25  5.0969e-27  1.1315e-25  8.5457e-27  1.1323e-25  1.4681e-26  1.1338e-25  2.5597e-26  1.1364e-25  4.5027e-26  1.1410e-25  7.9644e-26  1.1492e-25  1.4140e-25  1.1639e-25  2.5187e-25  1.1900e-25  4.5042e-25  1.2367e-25  8.1029e-25  1.3206e-25  1.4721e-24  1.4727e-25  2.7185e-24
      2.50  1.1281e-25  8.3418e-28  1.1281e-25  9.0273e-28  1.1281e-25  1.0246e-27  1.1281e-25  1.2414e-27  1.1282e-25  1.6269e-27  1.1283e-25  2.3125e-27  1.1284e-25  3.5317e-27  1.1287e-25  5.7000e-27  1.1291e-25  9.5566e-27  1.1300e-25  1.6417e-26  1.1314e-25  2.8623e-26  1.1340e-25  5.0351e-26  1.1386e-25  8.9062e-26  1.1467e-25  1.5813e-25  1.1613e-25  2.8167e-25  1.1872e-25  5.0373e-25  1.2335e-25  9.0622e-25  1.3167e-25  1.6464e-24  1.4676e-25  3.0404e-24
      2.55  1.1257e-25  9.3309e-28  1.1257e-25  1.0090e-27  1.1257e-25  1.1440e-27  1.1257e-25  1.3841e-27  1.1257e-25  1.8110e-27  1.1258e-25  2.5701e-27  1.1260e-25  3.9202e-27  1.1262e-25  6.3213e-27  1.1267e-25  1.0592e-26  1.1275e-25  1.8189e-26  1.1289e-25  3.1706e-26  1.1315e-25  5.5767e-26  1.1361e-25  9.8635e-26  1.1442e-25  1.7512e-25  1.1586e-25  3.1194e-25  1.1843e-25  5.5785e-25  1.2303e-25  1.0036e-24  1.3129e-25  1.8231e-24  1.4625e-25  3.3663e-24
      2.60  1.1231e-25  1.0428e-27  1.1231e-25  1.1261e-27  1.1231e-25  1.2742e-27  1.1232e-25  1.5376e-27  1.1232e-25  2.0060e-27  1.1233e-25  2.8390e-27  1.1234e-25  4.3205e-27  1.1237e-25  6.9551e-27  1.1241e-25  1.1641e-26  1.1249e-25  1.9977e-26  1.1264e-25  3.4808e-26  1.1289e-25  6.1211e-26  1.1334e-25  1.0825e-25  1.1415e-25  1.9217e-25  1.1558e-25  3.4230e-25  1.1814e-25  6.1213e-25  1.2270e-25  1.1011e-24  1.3090e-25  2.0001e-24  1.4575e-25  3.6922e-24
      2.65  1.1205e-25  1.1645e-27  1.1205e-25  1.2552e-27  1.1205e-25  1.4163e-27  1.1205e-25  1.7030e-27  1.1206e-25  2.2127e-27  1.1206e-25  3.1191e-27  1.1208e-25  4.7310e-27  1.1210e-25  7.5978e-27  1.1215e-25  1.2697e-26  1.1223e-25  2.1767e-26  1.1237e-25  3.7906e-26  1.1262e-25  6.6635e-26  1.1307e-25  1.1782e-25  1.1387e-25  2.0914e-25  1.1530e-25  3.7250e-25  1.1783e-25  6.6608e-25  1.2237e-25  1.1981e-24  1.3051e-25  2.1758e-24  1.4526e-25  4.0151e-24
      2.70  1.1177e-25  1.2997e-27  1.1177e-25  1.3976e-27  1.1178e-25  1.5717e-27  1.1178e-25  1.8812e-27  1.1178e-25  2.4317e-27  1.1179e-25  3.4106e-27  1.1181e-25  5.1516e-27  1.1183e-25  8.2477e-27  1.1188e-25  1.3755e-26  1.1195e-25  2.3551e-26  1.1210e-25  4.0981e-26  1.1235e-25  7.2008e-26  1.1279e-25  1.2729e-25  1.1359e-25  2.2591e-25  1.1500e-25  4.0233e-25  1.1752e-25  7.1934e-25  1.2203e-25  1.2937e-24  1.3012e-25  2.3489e-24  1.4477e-25  4.3328e-24
      2.75  1.1149e-25  1.4500e-27  1.1149e-25  1.5550e-27  1.1149e-25  1.7418e-27  1.1150e-25  2.0738e-27  1.1150e-25  2.6644e-27  1.1151e-25  3.7146e-27  1.1152e-25  5.5822e-27  1.1155e-25  8.9037e-27  1.1159e-25  1.4811e-26  1.1167e-25  2.5320e-26  1.1181e-25  4.4019e-26  1.1206e-25  7.7304e-26  1.1251e-25  1.3661e-25  1.1330e-25  2.4240e-25  1.1470e-25  4.3163e-25  1.1721e-25  7.7163e-25  1.2170e-25  1.3875e-24  1.2975e-25  2.5184e-24  1.4431e-25  4.6429e-24
      2.80  1.1120e-25  1.6183e-27  1.1120e-25  1.7303e-27  1.1120e-25  1.9295e-27  1.1120e-25  2.2837e-27  1.1121e-25  2.9137e-27  1.1121e-25  4.0339e-27  1.1123e-25  6.0261e-27  1.1125e-25  9.5692e-27  1.1130e-25  1.5871e-26  1.1138e-25  2.7081e-26  1.1152e-25  4.7027e-26  1.1176e-25  8.2534e-26  1.1221e-25  1.4579e-25  1.1299e-25  2.5864e-25  1.1440e-25  4.6046e-25  1.1689e-25  8.2303e-25  1.2136e-25  1.4796e-24  1.2937e-25  2.6846e-24  1.4387e-25  4.9459e-24
      2.85  1.1089e-25  1.8060e-27  1.1089e-25  1.9249e-27  1.1089e-25  2.1364e-27  1.1090e-25  2.5125e-27  1.1090e-25  3.1813e-27  1.1091e-25  4.3706e-27  1.1092e-25  6.4856e-27  1.1095e-25  1.0247e-26  1.1099e-25  1.6937e-26  1.1107e-25  2.8838e-26  1.1121e-25  5.0013e-26  1.1146e-25  8.7709e-26  1.1190e-25  1.5486e-25  1.1268e-25  2.7465e-25  1.1408e-25  4.8888e-25  1.1656e-25  8.7368e-25  1.2101e-25  1.5702e-24  1.2899e-25  2.8481e-24  1.4342e-25  5.2443e-24
      2.90  1.1057e-25  2.0158e-27  1.1058e-25  2.1415e-27  1.1058e-25  2.3652e-27  1.1058e-25  2.7628e-27  1.1058e-25  3.4700e-27  1.1059e-25  4.7277e-27  1.1061e-25  6.9642e-27  1.1063e-25  1.0942e-26  1.1067e-25  1.8017e-26  1.1075e-25  3.0601e-26  1.1089e-25  5.2993e-26  1.1114e-25  9.2854e-26  1.1158e-25  1.6386e-25  1.1236e-25  2.9053e-25  1.1375e-25  5.1702e-25  1.1623e-25  9.2378e-25  1.2065e-25  1.6599e-24  1.2860e-25  3.0094e-24  1.4298e-25  5.5360e-24
      2.95  1.1025e-25  2.2530e-27  1.1025e-25  2.3855e-27  1.1025e-25  2.6213e-27  1.1025e-25  3.0404e-27  1.1026e-25  3.7859e-27  1.1026e-25  5.1115e-27  1.1028e-25  7.4689e-27  1.1030e-25  1.1661e-26  1.1035e-25  1.9118e-26  1.1042e-25  3.2383e-26  1.1056e-25  5.5985e-26  1.1081e-25  9.7999e-26  1.1125e-25  1.7284e-25  1.1202e-25  3.0634e-25  1.1341e-25  5.4502e-25  1.1588e-25  9.7359e-25  1.2029e-25  1.7489e-24  1.2820e-25  3.1695e-24  1.4252e-25  5.8250e-24
      3.00  1.0991e-25  2.5194e-27  1.0991e-25  2.6588e-27  1.0991e-25  2.9066e-27  1.0991e-25  3.3472e-27  1.0991e-25  4.1308e-27  1.0992e-25  5.5244e-27  1.0994e-25  8.0026e-27  1.0996e-25  1.2410e-26  1.1000e-25  2.0249e-26  1.1008e-25  3.4193e-26  1.1022e-25  5.9004e-26  1.1047e-25  1.0317e-25  1.1090e-25  1.8184e-25  1.1168e-25  3.2216e-25  1.1305e-25  5.7303e-25  1.1551e-25  1.0234e-24  1.1991e-25  1.8378e-24  1.2779e-25  3.3291e-24  1.4204e-25  6.1136e-24
      3.05  1.0955e-25  2.8199e-27  1.0955e-25  2.9659e-27  1.0955e-25  3.2256e-27  1.0956e-25  3.6875e-27  1.0956e-25  4.5089e-27  1.0957e-25  5.9695e-27  1.0958e-25  8.5672e-27  1.0961e-25  1.3187e-26  1.0965e-25  2.1404e-26  1.0973e-25  3.6020e-26  1.0987e-25  6.2025e-26  1.1011e-25  1.0832e-25  1.1054e-25  1.9078e-25  1.1132e-25  3.3784e-25  1.1269e-25  6.0073e-25  1.1514e-25  1.0726e-24  1.1951e-25  1.9256e-24  1.2737e-25  3.4865e-24  1.4156e-25  6.3968e-24
      3.10  1.0919e-25  3.1506e-27  1.0919e-25  3.3034e-27  1.0919e-25  3.5752e-27  1.0919e-25  4.0585e-27  1.0919e-25  4.9180e-27  1.0920e-25  6.4464e-27  1.0922e-25  9.1645e-27  1.0924e-25  1.3999e-26  1.0928e-25  2.2596e-26  1.0936e-25  3.7890e-26  1.0950e-25  6.5102e-26  1.0974e-25  1.1354e-25  1.1017e-25  1.9982e-25  1.1094e-25  3.5369e-25  1.1231e-25  6.2872e-25  1.1475e-25  1.1223e-24  1.1911e-25  2.0142e-24  1.2693e-25  3.6452e-24  1.4106e-25  6.6817e-24
      3.15  1.0880e-25  3.5124e-27  1.0881e-25  3.6722e-27  1.0881e-25  3.9563e-27  1.0881e-25  4.4614e-27  1.0881e-25  5.3598e-27  1.0882e-25  6.9574e-27  1.0884e-25  9.7985e-27  1.0886e-25  1.4851e-26  1.0890e-25  2.3838e-26  1.0898e-25  3.9824e-26  1.0912e-25  6.8267e-26  1.0936e-25  1.1890e-25  1.0979e-25  2.0907e-25  1.1055e-25  3.6989e-25  1.1192e-25  6.5731e-25  1.1435e-25  1.1730e-24  1.1869e-25  2.1047e-24  1.2647e-25  3.8071e-24  1.4055e-25  6.9716e-24
      3.20  1.0841e-25  3.9100e-27  1.0841e-25  4.0770e-27  1.0841e-25  4.3738e-27  1.0841e-25  4.9017e-27  1.0842e-25  5.8404e-27  1.0843e-25  7.5099e-27  1.0844e-25  1.0479e-26  1.0846e-25  1.5759e-26  1.0851e-25  2.5150e-26  1.0858e-25  4.1854e-26  1.0872e-25  7.1576e-26  1.0896e-25  1.2448e-25  1.0939e-25  2.1871e-25  1.1015e-25  3.8674e-25  1.1151e-25  6.8702e-25  1.1393e-25  1.2257e-24  1.1825e-25  2.1986e-24  1.2601e-25  3.9749e-24  1.4002e-25  7.2723e-24
      3.25  1.0800e-25  4.3550e-27  1.0800e-25  4.5296e-27  1.0800e-25  4.8401e-27  1.0800e-25  5.3922e-27  1.0801e-25  6.3741e-27  1.0802e-25  8.1202e-27  1.0803e-25  1.1225e-26  1.0805e-25  1.6748e-26  1.0810e-25  2.6570e-26  1.0817e-25  4.4042e-26  1.0831e-25  7.5129e-26  1.0855e-25  1.3046e-25  1.0898e-25  2.2901e-25  1.0974e-25  4.0475e-25  1.1109e-25  7.1876e-25  1.1350e-25  1.2820e-24  1.1780e-25  2.2989e-24  1.2553e-25  4.1542e-24  1.3947e-25  7.5930e-24
      3.30  1.0758e-25  4.8625e-27  1.0758e-25  5.0456e-27  1.0758e-25  5.3711e-27  1.0758e-25  5.9501e-27  1.0758e-25  6.9796e-27  1.0759e-25  8.8104e-27  1.0761e-25  1.2066e-26  1.0763e-25  1.7857e-26  1.0767e-25  2.8155e-26  1.0775e-25  4.6475e-26  1.0788e-25  7.9070e-26  1.0812e-25  1.3709e-25  1.0855e-25  2.4041e-25  1.0930e-25  4.2465e-25  1.1065e-25  7.5384e-25  1.1305e-25  1.3442e-24  1.1734e-25  2.4097e-24  1.2503e-25  4.3523e-24  1.3892e-25  7.9477e-24
      3.35  1.0714e-25  5.4359e-27  1.0714e-25  5.6288e-27  1.0714e-25  5.9717e-27  1.0714e-25  6.5816e-27  1.0714e-25  7.6662e-27  1.0715e-25  9.5949e-27  1.0717e-25  1.3025e-26  1.0719e-25  1.9125e-26  1.0723e-25  2.9975e-26  1.0731e-25  4.9274e-26  1.0744e-25  8.3612e-26  1.0768e-25  1.4473e-25  1.0810e-25  2.5358e-25  1.0886e-25  4.4766e-25  1.1020e-25  7.9439e-25  1.1259e-25  1.4161e-24  1.1686e-25  2.5378e-24  1.2453e-25  4.5815e-24  1.3836e-25  8.3586e-24
      3.40  1.0668e-25  6.0818e-27  1.0668e-25  6.2862e-27  1.0668e-25  6.6498e-27  1.0668e-25  7.2963e-27  1.0669e-25  8.4459e-27  1.0670e-25  1.0490e-26  1.0671e-25  1.4126e-26  1.0673e-25  2.0592e-26  1.0678e-25  3.2093e-26  1.0685e-25  5.2551e-26  1.0699e-25  8.8949e-26  1.0722e-25  1.5374e-25  1.0765e-25  2.6911e-25  1.0840e-25  4.7482e-25  1.0973e-25  8.4229e-25  1.1212e-25  1.5011e-24  1.1637e-25  2.6893e-24  1.2401e-25  4.8527e-24  1.3779e-25  8.8459e-24
      3.45  1.0621e-25  6.8083e-27  1.0621e-25  7.0267e-27  1.0621e-25  7.4151e-27  1.0621e-25  8.1059e-27  1.0621e-25  9.3342e-27  1.0622e-25  1.1519e-26  1.0624e-25  1.5403e-26  1.0626e-25  2.2312e-26  1.0630e-25  3.4600e-26  1.0638e-25  5.6458e-26  1.0651e-25  9.5348e-26  1.0675e-25  1.6457e-25  1.0717e-25  2.8784e-25  1.0792e-25  5.0761e-25  1.0925e-25  9.0018e-25  1.1163e-25  1.6039e-24  1.1587e-25  2.8729e-24  1.2349e-25  5.1811e-24  1.3723e-25  9.4371e-24
      3.50  1.0571e-25  7.6256e-27  1.0571e-25  7.8612e-27  1.0572e-25  8.2802e-27  1.0572e-25  9.0253e-27  1.0572e-25  1.0350e-26  1.0573e-25  1.2707e-26  1.0574e-25  1.6897e-26  1.0577e-25  2.4350e-26  1.0581e-25  3.7605e-26  1.0589e-25  6.1183e-26  1.0602e-25  1.0314e-25  1.0626e-25  1.7780e-25  1.0668e-25  3.1077e-25  1.0742e-25  5.4781e-25  1.0875e-25  9.7123e-25  1.1112e-25  1.7301e-24  1.1536e-25  3.0982e-24  1.2296e-25  5.5849e-24  1.3666e-25  1.0165e-23
      3.55  1.0521e-25  8.5535e-27  1.0521e-25  8.8104e-27  1.0521e-25  9.2673e-27  1.0521e-25  1.0080e-26  1.0521e-25  1.1525e-26  1.0522e-25  1.4094e-26  1.0524e-25  1.8664e-26  1.0526e-25  2.6790e-26  1.0530e-25  4.1244e-26  1.0538e-25  6.6956e-26  1.0551e-25  1.1270e-25  1.0575e-25  1.9412e-25  1.0617e-25  3.3911e-25  1.0691e-25  5.9759e-25  1.0824e-25  1.0593e-24  1.1061e-25  1.8866e-24  1.1484e-25  3.3773e-24  1.2242e-25  6.0860e-24  1.3610e-25  1.1070e-23
      3.60  1.0468e-25  9.5958e-27  1.0468e-25  9.8790e-27  1.0468e-25  1.0383e-26  1.0468e-25  1.1279e-26  1.0469e-25  1.2872e-26  1.0469e-25  1.5704e-26  1.0471e-25  2.0742e-26  1.0473e-25  2.9702e-26  1.0477e-25  4.5638e-26  1.0485e-25  7.3986e-26  1.0498e-25  1.2442e-25  1.0522e-25  2.1419e-25  1.0564e-25  3.7404e-25  1.0638e-25  6.5900e-25  1.0771e-25  1.1679e-24  1.1007e-25  2.0799e-24  1.1430e-25  3.7227e-24  1.2188e-25  6.7056e-24  1.3554e-25  1.2189e-23
      3.65  1.0412e-25  1.0766e-26  1.0413e-25  1.1082e-26  1.0413e-25  1.1644e-26  1.0413e-25  1.2644e-26  1.0413e-25  1.4422e-26  1.0414e-25  1.7583e-26  1.0415e-25  2.3205e-26  1.0418e-25  3.3204e-26  1.0422e-25  5.0988e-26  1.0430e-25  8.2622e-26  1.0443e-25  1.3891e-25  1.0467e-25  2.3908e-25  1.0508e-25  4.1746e-25  1.0583e-25  7.3544e-25  1.0716e-25  1.3033e-24  1.0951e-25  2.3206e-24  1.1375e-25  4.1533e-24  1.2132e-25  7.4780e-24  1.3497e-25  1.3586e-23
      3.70  1.0355e-25  1.2088e-26  1.0355e-25  1.2445e-26  1.0355e-25  1.3081e-26  1.0356e-25  1.4212e-26  1.0356e-25  1.6223e-26  1.0357e-25  1.9799e-26  1.0358e-25  2.6158e-26  1.0361e-25  3.7468e-26  1.0365e-25  5.7584e-26  1.0372e-25  9.3368e-26  1.0386e-25  1.5704e-25  1.0409e-25  2.7034e-25  1.0451e-25  4.7211e-25  1.0526e-25  8.3177e-25  1.0659e-25  1.4741e-24  1.0896e-25  2.6247e-24  1.1319e-25  4.6960e-24  1.2078e-25  8.4519e-24  1.3444e-25  1.5346e-23
      3.75  1.0296e-25  1.3631e-26  1.0296e-25  1.4042e-26  1.0296e-25  1.4773e-26  1.0296e-25  1.6073e-26  1.0296e-25  1.8386e-26  1.0297e-25  2.2498e-26  1.0299e-25  2.9810e-26  1.0301e-25  4.2816e-26  1.0305e-25  6.5947e-26  1.0313e-25  1.0709e-25  1.0326e-25  1.8030e-25  1.0350e-25  3.1059e-25  1.0392e-25  5.4258e-25  1.0467e-25  9.5609e-25  1.0601e-25  1.6945e-24  1.0838e-25  3.0170e-24  1.1264e-25  5.3964e-24  1.2026e-25  9.7076e-24  1.3396e-25  1.7613e-23
      3.80  1.0293e-25  1.5875e-26  1.0293e-25  1.6357e-26  1.0293e-25  1.7215e-26  1.0293e-25  1.8740e-26  1.0294e-25  2.1453e-26  1.0295e-25  2.6277e-26  1.0296e-25  3.4856e-26  1.0298e-25  5.0114e-26  1.0303e-25  7.7252e-26  1.0310e-25  1.2553e-25  1.0324e-25  2.1141e-25  1.0348e-25  3.6425e-25  1.0390e-25  6.3639e-25  1.0466e-25  1.1214e-24  1.0600e-25  1.9873e-24  1.0839e-25  3.5376e-24  1.1267e-25  6.3247e-24  1.2034e-25  1.1369e-23  1.3411e-25  2.0606e-23
      3.85  1.0238e-25  2.1897e-26  1.0238e-25  2.2478e-26  1.0239e-25  2.3510e-26  1.0239e-25  2.5345e-26  1.0239e-25  2.8609e-26  1.0240e-25  3.4414e-26  1.0242e-25  4.4737e-26  1.0244e-25  6.3096e-26  1.0248e-25  9.5749e-26  1.0256e-25  1.5383e-25  1.0270e-25  2.5716e-25  1.0294e-25  4.4104e-25  1.0337e-25  7.6840e-25  1.0414e-25  1.3517e-24  1.0551e-25  2.3926e-24  1.0795e-25  4.2548e-24  1.1231e-25  7.5990e-24  1.2010e-25  1.3639e-23  1.3408e-25  2.4672e-23
      3.90  1.0183e-25  4.8690e-26  1.0183e-25  4.9412e-26  1.0184e-25  5.0695e-26  1.0184e-25  5.2977e-26  1.0184e-25  5.7035e-26  1.0185e-25  6.4252e-26  1.0187e-25  7.7087e-26  1.0189e-25  9.9912e-26  1.0194e-25  1.4051e-25  1.0202e-25  2.1272e-25  1.0216e-25  3.4117e-25  1.0241e-25  5.6971e-25  1.0285e-25  9.7650e-25  1.0365e-25  1.7011e-24  1.0506e-25  2.9932e-24  1.0757e-25  5.3018e-24  1.1206e-25  9.4390e-24  1.2007e-25  1.6887e-23  1.3439e-25  3.0427e-23
      3.95  1.0128e-25  1.7263e-25  1.0128e-25  1.7355e-25  1.0128e-25  1.7519e-25  1.0128e-25  1.7810e-25  1.0129e-25  1.8329e-25  1.0130e-25  1.9250e-25  1.0131e-25  2.0890e-25  1.0134e-25  2.3805e-25  1.0139e-25  2.8990e-25  1.0147e-25  3.8211e-25  1.0162e-25  5.4612e-25  1.0188e-25  8.3787e-25  1.0234e-25  1.3570e-24  1.0317e-25  2.2810e-24  1.0465e-25  3.9271e-24  1.0727e-25  6.8627e-24  1.1195e-25  1.2105e-23  1.2027e-25  2.1496e-23  1.3512e-25  3.8422e-23
