# This was generated using Cloudy10 and the columns are ordered 
# as log10 of the fraction of the metallicity to the solar metallicity
# 'h_*_Z' and 'c_*_Z' stands for cooling and heating respectively 
# at * metalicity
#
# NOTE: This was generated separately from loop_coolingcurve_w_UV.py
#       using Output_metals_w_redshift.py.
#
# Redshift = 6.0
# hden = 0.0
#
#     temp   h_-3.00_Z   c_-3.00_Z   h_-2.75_Z   c_-2.75_Z   h_-2.50_Z   c_-2.50_Z   h_-2.25_Z   c_-2.25_Z   h_-2.00_Z   c_-2.00_Z   h_-1.75_Z   c_-1.75_Z   h_-1.50_Z   c_-1.50_Z   h_-1.25_Z   c_-1.25_Z   h_-1.00_Z   c_-1.00_Z   h_-0.75_Z   c_-0.75_Z   h_-0.50_Z   c_-0.50_Z   h_-0.25_Z   c_-0.25_Z    h_0.00_Z    c_0.00_Z    h_0.25_Z    c_0.25_Z    h_0.50_Z    c_0.50_Z    h_0.75_Z    c_0.75_Z    h_1.00_Z    c_1.00_Z    h_1.25_Z    c_1.25_Z    h_1.50_Z    c_1.50_Z 
      1.00  2.9022e-24  5.7247e-28  2.9022e-24  5.7250e-28  2.9023e-24  5.7256e-28  2.9023e-24  5.7265e-28  2.9024e-24  5.7281e-28  2.9026e-24  5.7311e-28  2.9029e-24  5.7363e-28  2.9035e-24  5.7456e-28  2.9045e-24  5.7621e-28  2.9063e-24  5.7915e-28  2.9095e-24  5.8437e-28  2.9151e-24  5.9367e-28  2.9252e-24  6.1022e-28  2.9431e-24  6.3972e-28  2.9750e-24  6.9236e-28  3.0318e-24  7.8659e-28  3.1333e-24  9.5609e-28  3.3148e-24  1.2636e-27  3.6411e-24  1.8295e-27
      1.05  2.8914e-24  6.3899e-28  2.8914e-24  6.3906e-28  2.8914e-24  6.3919e-28  2.8915e-24  6.3942e-28  2.8916e-24  6.3983e-28  2.8918e-24  6.4056e-28  2.8921e-24  6.4185e-28  2.8927e-24  6.4416e-28  2.8937e-24  6.4825e-28  2.8954e-24  6.5553e-28  2.8986e-24  6.6849e-28  2.9042e-24  6.9154e-28  2.9143e-24  7.3259e-28  2.9321e-24  8.0573e-28  2.9639e-24  9.3629e-28  3.0204e-24  1.1700e-27  3.1214e-24  1.5906e-27  3.3020e-24  2.3539e-27  3.6265e-24  3.7600e-27
      1.10  2.8802e-24  7.1310e-28  2.8803e-24  7.1327e-28  2.8803e-24  7.1357e-28  2.8803e-24  7.1410e-28  2.8804e-24  7.1505e-28  2.8806e-24  7.1673e-28  2.8809e-24  7.1972e-28  2.8815e-24  7.2504e-28  2.8825e-24  7.3450e-28  2.8843e-24  7.5133e-28  2.8874e-24  7.8127e-28  2.8930e-24  8.3455e-28  2.9030e-24  9.2942e-28  2.9208e-24  1.0985e-27  2.9524e-24  1.4003e-27  3.0087e-24  1.9407e-27  3.1091e-24  2.9132e-27  3.2889e-24  4.6793e-27  3.6118e-24  7.9349e-27
      1.15  2.8687e-24  7.9568e-28  2.8687e-24  7.9604e-28  2.8688e-24  7.9667e-28  2.8688e-24  7.9781e-28  2.8689e-24  7.9982e-28  2.8691e-24  8.0340e-28  2.8694e-24  8.0976e-28  2.8700e-24  8.2108e-28  2.8710e-24  8.4121e-28  2.8727e-24  8.7702e-28  2.8759e-24  9.4072e-28  2.8814e-24  1.0541e-27  2.8914e-24  1.2559e-27  2.9090e-24  1.6156e-27  2.9405e-24  2.2578e-27  2.9965e-24  3.4076e-27  3.0964e-24  5.4773e-27  3.2752e-24  9.2367e-27  3.5963e-24  1.6169e-26
      1.20  2.8568e-24  8.8772e-28  2.8568e-24  8.8842e-28  2.8569e-24  8.8968e-28  2.8569e-24  8.9191e-28  2.8570e-24  8.9588e-28  2.8572e-24  9.0293e-28  2.8575e-24  9.1547e-28  2.8581e-24  9.3777e-28  2.8590e-24  9.7744e-28  2.8608e-24  1.0480e-27  2.8639e-24  1.1735e-27  2.8695e-24  1.3969e-27  2.8793e-24  1.7946e-27  2.8969e-24  2.5034e-27  2.9282e-24  3.7688e-27  2.9839e-24  6.0347e-27  3.0833e-24  1.0114e-26  3.2610e-24  1.7524e-26  3.5802e-24  3.1192e-26
      1.25  2.8445e-24  9.9033e-28  2.8445e-24  9.9162e-28  2.8446e-24  9.9393e-28  2.8446e-24  9.9802e-28  2.8447e-24  1.0053e-27  2.8449e-24  1.0183e-27  2.8452e-24  1.0413e-27  2.8458e-24  1.0823e-27  2.8467e-24  1.1551e-27  2.8485e-24  1.2847e-27  2.8516e-24  1.5153e-27  2.8571e-24  1.9255e-27  2.8669e-24  2.6560e-27  2.8844e-24  3.9579e-27  2.9155e-24  6.2821e-27  2.9709e-24  1.0444e-26  3.0697e-24  1.7937e-26  3.2463e-24  3.1549e-26  3.5635e-24  5.6661e-26
      1.30  2.8318e-24  1.1131e-27  2.8319e-24  1.1154e-27  2.8319e-24  1.1193e-27  2.8320e-24  1.1264e-27  2.8321e-24  1.1389e-27  2.8322e-24  1.1613e-27  2.8325e-24  1.2009e-27  2.8331e-24  1.2715e-27  2.8341e-24  1.3971e-27  2.8358e-24  1.6203e-27  2.8389e-24  2.0176e-27  2.8444e-24  2.7244e-27  2.8541e-24  3.9830e-27  2.8715e-24  6.2261e-27  2.9024e-24  1.0231e-26  2.9574e-24  1.7402e-26  3.0556e-24  3.0312e-26  3.2312e-24  5.3767e-26  3.5463e-24  9.7036e-26
      1.35  2.8188e-24  1.2634e-27  2.8188e-24  1.2670e-27  2.8188e-24  1.2735e-27  2.8189e-24  1.2849e-27  2.8190e-24  1.3054e-27  2.8192e-24  1.3417e-27  2.8195e-24  1.4062e-27  2.8200e-24  1.5210e-27  2.8210e-24  1.7251e-27  2.8227e-24  2.0882e-27  2.8258e-24  2.7342e-27  2.8312e-24  3.8837e-27  2.8409e-24  5.9304e-27  2.8582e-24  9.5781e-27  2.8889e-24  1.6091e-26  2.9436e-24  2.7752e-26  3.0412e-24  4.8747e-26  3.2157e-24  8.6886e-26  3.5288e-24  1.5724e-25
      1.40  2.8053e-24  1.4301e-27  2.8053e-24  1.4357e-27  2.8053e-24  1.4456e-27  2.8054e-24  1.4634e-27  2.8055e-24  1.4949e-27  2.8057e-24  1.5509e-27  2.8060e-24  1.6505e-27  2.8065e-24  1.8277e-27  2.8075e-24  2.1429e-27  2.8092e-24  2.7034e-27  2.8122e-24  3.7006e-27  2.8176e-24  5.4751e-27  2.8273e-24  8.6346e-27  2.8444e-24  1.4266e-26  2.8750e-24  2.4319e-26  2.9294e-24  4.2321e-26  3.0264e-24  7.4728e-26  3.1997e-24  1.3360e-25  3.5108e-24  2.4219e-25
      1.45  2.7914e-24  1.6150e-27  2.7914e-24  1.6233e-27  2.7914e-24  1.6380e-27  2.7915e-24  1.6641e-27  2.7916e-24  1.7105e-27  2.7917e-24  1.7930e-27  2.7920e-24  1.9398e-27  2.7926e-24  2.2009e-27  2.7935e-24  2.6652e-27  2.7952e-24  3.4910e-27  2.7983e-24  4.9602e-27  2.8037e-24  7.5746e-27  2.8132e-24  1.2229e-26  2.8303e-24  2.0526e-26  2.8606e-24  3.5336e-26  2.9147e-24  6.1858e-26  3.0111e-24  1.0960e-25  3.1833e-24  1.9632e-25  3.4924e-24  3.5625e-25
      1.50  2.7770e-24  1.8202e-27  2.7770e-24  1.8319e-27  2.7770e-24  1.8527e-27  2.7771e-24  1.8895e-27  2.7772e-24  1.9551e-27  2.7774e-24  2.0718e-27  2.7777e-24  2.2792e-27  2.7782e-24  2.6481e-27  2.7792e-24  3.3042e-27  2.7808e-24  4.4711e-27  2.7839e-24  6.5471e-27  2.7892e-24  1.0241e-26  2.7987e-24  1.6819e-26  2.8157e-24  2.8542e-26  2.8458e-24  4.9470e-26  2.8996e-24  8.6944e-26  2.9953e-24  1.5440e-25  3.1665e-24  2.7691e-25  3.4735e-24  5.0284e-25
      1.55  2.7622e-24  2.0481e-27  2.7622e-24  2.0640e-27  2.7622e-24  2.0922e-27  2.7623e-24  2.1425e-27  2.7624e-24  2.2318e-27  2.7625e-24  2.3906e-27  2.7628e-24  2.6731e-27  2.7634e-24  3.1755e-27  2.7643e-24  4.0691e-27  2.7660e-24  5.6583e-27  2.7690e-24  8.4856e-27  2.7743e-24  1.3517e-26  2.7838e-24  2.2475e-26  2.8006e-24  3.8440e-26  2.8306e-24  6.6941e-26  2.8840e-24  1.1797e-25  2.9791e-24  2.0983e-25  3.1492e-24  3.7664e-25  3.4542e-24  6.8418e-25
      1.60  2.7469e-24  2.3008e-27  2.7469e-24  2.3217e-27  2.7469e-24  2.3590e-27  2.7470e-24  2.4252e-27  2.7471e-24  2.5429e-27  2.7472e-24  2.7523e-27  2.7475e-24  3.1247e-27  2.7481e-24  3.7869e-27  2.7490e-24  4.9647e-27  2.7507e-24  7.0595e-27  2.7537e-24  1.0786e-26  2.7589e-24  1.7418e-26  2.7684e-24  2.9225e-26  2.7851e-24  5.0269e-26  2.8149e-24  8.7834e-26  2.8679e-24  1.5509e-25  2.9625e-24  2.7615e-25  3.1314e-24  4.9596e-25  3.4343e-24  9.0113e-25
      1.65  2.7311e-24  2.5808e-27  2.7311e-24  2.6077e-27  2.7312e-24  2.6554e-27  2.7312e-24  2.7402e-27  2.7313e-24  2.8910e-27  2.7315e-24  3.1593e-27  2.7318e-24  3.6363e-27  2.7323e-24  4.4847e-27  2.7332e-24  5.9935e-27  2.7349e-24  8.6771e-27  2.7378e-24  1.3451e-26  2.7431e-24  2.1947e-26  2.7524e-24  3.7073e-26  2.7691e-24  6.4030e-26  2.7987e-24  1.1215e-25  2.8514e-24  1.9831e-25  2.9453e-24  3.5336e-25  3.1131e-24  6.3486e-25  3.4140e-24  1.1536e-24
      1.70  2.7148e-24  2.8911e-27  2.7149e-24  2.9246e-27  2.7149e-24  2.9843e-27  2.7149e-24  3.0903e-27  2.7150e-24  3.2789e-27  2.7152e-24  3.6143e-27  2.7155e-24  4.2107e-27  2.7160e-24  5.2714e-27  2.7169e-24  7.1577e-27  2.7186e-24  1.0513e-26  2.7215e-24  1.6482e-26  2.7268e-24  2.7103e-26  2.7360e-24  4.6014e-26  2.7525e-24  7.9716e-26  2.7819e-24  1.3988e-25  2.8343e-24  2.4758e-25  2.9276e-24  4.4139e-25  3.0943e-24  7.9323e-25  3.3930e-24  1.4414e-24
      1.75  2.6981e-24  3.2347e-27  2.6981e-24  3.2758e-27  2.6981e-24  3.3489e-27  2.6982e-24  3.4788e-27  2.6983e-24  3.7099e-27  2.6984e-24  4.1208e-27  2.6987e-24  4.8516e-27  2.6992e-24  6.1512e-27  2.7002e-24  8.4626e-27  2.7018e-24  1.2574e-26  2.7047e-24  1.9887e-26  2.7099e-24  3.2902e-26  2.7191e-24  5.6073e-26  2.7355e-24  9.7366e-26  2.7647e-24  1.7107e-25  2.8167e-24  3.0303e-25  2.9093e-24  5.4046e-25  3.0748e-24  9.7142e-25  3.3713e-24  1.7652e-24
      1.80  2.6808e-24  3.6159e-27  2.6808e-24  3.6655e-27  2.6808e-24  3.7536e-27  2.6809e-24  3.9103e-27  2.6810e-24  4.1889e-27  2.6811e-24  4.6845e-27  2.6814e-24  5.5657e-27  2.6819e-24  7.1329e-27  2.6828e-24  9.9201e-27  2.6845e-24  1.4878e-26  2.6874e-24  2.3697e-26  2.6925e-24  3.9390e-26  2.7016e-24  6.7331e-26  2.7179e-24  1.1712e-25  2.7469e-24  2.0600e-25  2.7985e-24  3.6511e-25  2.8904e-24  6.5137e-25  3.0546e-24  1.1709e-24  3.3488e-24  2.1276e-24
      1.85  2.6629e-24  4.0381e-27  2.6630e-24  4.0971e-27  2.6630e-24  4.2021e-27  2.6630e-24  4.3889e-27  2.6631e-24  4.7209e-27  2.6633e-24  5.3114e-27  2.6636e-24  6.3615e-27  2.6641e-24  8.2289e-27  2.6650e-24  1.1550e-26  2.6666e-24  1.7458e-26  2.6695e-24  2.7967e-26  2.6746e-24  4.6667e-26  2.6837e-24  7.9961e-26  2.6998e-24  1.3929e-25  2.7285e-24  2.4520e-25  2.7797e-24  4.3477e-25  2.8709e-24  7.7582e-25  3.0337e-24  1.3947e-24  3.3254e-24  2.5341e-24
      1.90  2.6446e-24  4.5058e-27  2.6446e-24  4.5755e-27  2.6446e-24  4.6996e-27  2.6447e-24  4.9203e-27  2.6447e-24  5.3126e-27  2.6449e-24  6.0104e-27  2.6452e-24  7.2513e-27  2.6457e-24  9.4581e-27  2.6466e-24  1.3383e-26  2.6482e-24  2.0364e-26  2.6510e-24  3.2782e-26  2.6561e-24  5.4880e-26  2.6651e-24  9.4223e-26  2.6811e-24  1.6433e-25  2.7096e-24  2.8947e-25  2.7603e-24  5.1347e-25  2.8507e-24  9.1642e-25  3.0122e-24  1.6475e-24  3.3013e-24  2.9934e-24
      1.95  2.6256e-24  5.0238e-27  2.6256e-24  5.1057e-27  2.6257e-24  5.2514e-27  2.6257e-24  5.5105e-27  2.6258e-24  5.9713e-27  2.6260e-24  6.7907e-27  2.6262e-24  8.2478e-27  2.6267e-24  1.0839e-26  2.6276e-24  1.5448e-26  2.6292e-24  2.3646e-26  2.6320e-24  3.8228e-26  2.6371e-24  6.4178e-26  2.6460e-24  1.1038e-25  2.6619e-24  1.9270e-25  2.6902e-24  3.3964e-25  2.7405e-24  6.0265e-25  2.8302e-24  1.0757e-24  2.9905e-24  1.9339e-24  3.2774e-24  3.5132e-24
      2.00  2.6061e-24  5.5979e-27  2.6061e-24  5.6939e-27  2.6061e-24  5.8646e-27  2.6062e-24  6.1682e-27  2.6063e-24  6.7081e-27  2.6064e-24  7.6682e-27  2.6067e-24  9.3756e-27  2.6072e-24  1.2412e-26  2.6081e-24  1.7812e-26  2.6097e-24  2.7417e-26  2.6125e-24  4.4504e-26  2.6174e-24  7.4910e-26  2.6263e-24  1.2904e-25  2.6420e-24  2.2550e-25  2.6700e-24  3.9767e-25  2.7198e-24  7.0582e-25  2.8087e-24  1.2601e-24  2.9673e-24  2.2655e-24  3.2513e-24  4.1153e-24
      2.05  2.5860e-24  6.2359e-27  2.5860e-24  6.3482e-27  2.5860e-24  6.5478e-27  2.5861e-24  6.9027e-27  2.5862e-24  7.5340e-27  2.5863e-24  8.6565e-27  2.5866e-24  1.0653e-26  2.5871e-24  1.4203e-26  2.5879e-24  2.0517e-26  2.5895e-24  3.1747e-26  2.5923e-24  5.1725e-26  2.5972e-24  8.7275e-26  2.6059e-24  1.5057e-25  2.6215e-24  2.6335e-25  2.6492e-24  4.6464e-25  2.6985e-24  8.2491e-25  2.7863e-24  1.4729e-24  2.9432e-24  2.6482e-24  3.2241e-24  4.8106e-24
      2.10  2.5653e-24  6.9429e-27  2.5653e-24  7.0738e-27  2.5653e-24  7.3066e-27  2.5653e-24  7.7206e-27  2.5654e-24  8.4569e-27  2.5656e-24  9.7661e-27  2.5659e-24  1.2094e-26  2.5663e-24  1.6235e-26  2.5672e-24  2.3599e-26  2.5687e-24  3.6698e-26  2.5715e-24  5.9998e-26  2.5763e-24  1.0146e-25  2.5850e-24  1.7528e-25  2.6004e-24  3.0682e-25  2.6277e-24  5.4158e-25  2.6764e-24  9.6176e-25  2.7633e-24  1.7175e-24  2.9183e-24  3.0882e-24  3.1959e-24  5.6097e-24
      2.15  2.5439e-24  7.7260e-27  2.5439e-24  7.8782e-27  2.5440e-24  8.1488e-27  2.5440e-24  8.6301e-27  2.5441e-24  9.4859e-27  2.5442e-24  1.1008e-26  2.5445e-24  1.3715e-26  2.5450e-24  1.8528e-26  2.5458e-24  2.7089e-26  2.5474e-24  4.2315e-26  2.5501e-24  6.9401e-26  2.5549e-24  1.1760e-25  2.5634e-24  2.0341e-25  2.5786e-24  3.5632e-25  2.6056e-24  6.2922e-25  2.6538e-24  1.1177e-24  2.7395e-24  1.9961e-24  2.8927e-24  3.5893e-24  3.1668e-24  6.5200e-24
      2.20  2.5219e-24  8.5928e-27  2.5220e-24  8.7690e-27  2.5220e-24  9.0821e-27  2.5220e-24  9.6391e-27  2.5221e-24  1.0629e-26  2.5223e-24  1.2391e-26  2.5225e-24  1.5523e-26  2.5230e-24  2.1093e-26  2.5238e-24  3.0999e-26  2.5253e-24  4.8619e-26  2.5280e-24  7.9963e-26  2.5328e-24  1.3574e-25  2.5412e-24  2.3504e-25  2.5562e-24  4.1198e-25  2.5829e-24  7.2777e-25  2.6304e-24  1.2930e-24  2.7151e-24  2.3094e-24  2.8663e-24  4.1529e-24  3.1369e-24  7.5436e-24
      2.25  2.4993e-24  9.5518e-27  2.4993e-24  9.7544e-27  2.4994e-24  1.0115e-26  2.4994e-24  1.0755e-26  2.4995e-24  1.1895e-26  2.4996e-24  1.3921e-26  2.4999e-24  1.7524e-26  2.5004e-24  2.3931e-26  2.5012e-24  3.5327e-26  2.5027e-24  5.5597e-26  2.5053e-24  9.1655e-26  2.5100e-24  1.5582e-25  2.5183e-24  2.7005e-25  2.5331e-24  4.7360e-25  2.5595e-24  8.3688e-25  2.6064e-24  1.4870e-24  2.6900e-24  2.6563e-24  2.8392e-24  4.7768e-24  3.1063e-24  8.6766e-24
      2.30  2.4760e-24  1.0616e-26  2.4761e-24  1.0847e-26  2.4761e-24  1.1259e-26  2.4761e-24  1.1991e-26  2.4762e-24  1.3292e-26  2.4764e-24  1.5606e-26  2.4766e-24  1.9722e-26  2.4771e-24  2.7041e-26  2.4779e-24  4.0058e-26  2.4794e-24  6.3211e-26  2.4819e-24  1.0440e-25  2.4866e-24  1.7769e-25  2.4948e-24  3.0817e-25  2.5093e-24  5.4067e-25  2.5353e-24  9.5563e-25  2.5815e-24  1.6982e-24  2.6638e-24  3.0337e-24  2.8107e-24  5.4555e-24  3.0737e-24  9.9089e-24
      2.35  2.4521e-24  1.1791e-26  2.4521e-24  1.2053e-26  2.4521e-24  1.2520e-26  2.4522e-24  1.3349e-26  2.4523e-24  1.4824e-26  2.4524e-24  1.7446e-26  2.4527e-24  2.2110e-26  2.4531e-24  3.0405e-26  2.4539e-24  4.5156e-26  2.4554e-24  7.1393e-26  2.4579e-24  1.1807e-25  2.4625e-24  2.0112e-25  2.4706e-24  3.4898e-25  2.4850e-24  6.1246e-25  2.5107e-24  1.0827e-24  2.5563e-24  1.9242e-24  2.6377e-24  3.4375e-24  2.7829e-24  6.1815e-24  3.0428e-24  1.1227e-23
      2.40  2.4275e-24  1.3088e-26  2.4275e-24  1.3383e-26  2.4275e-24  1.3907e-26  2.4275e-24  1.4838e-26  2.4276e-24  1.6495e-26  2.4278e-24  1.9442e-26  2.4280e-24  2.4682e-26  2.4285e-24  3.4000e-26  2.4293e-24  5.0573e-26  2.4307e-24  8.0051e-26  2.4332e-24  1.3249e-25  2.4377e-24  2.2580e-25  2.4457e-24  3.9192e-25  2.4600e-24  6.8793e-25  2.4854e-24  1.2162e-24  2.5305e-24  2.1616e-24  2.6109e-24  3.8616e-24  2.7544e-24  6.9442e-24  3.0114e-24  1.2611e-23
      2.45  2.4021e-24  1.4518e-26  2.4021e-24  1.4847e-26  2.4022e-24  1.5430e-26  2.4022e-24  1.6468e-26  2.4023e-24  1.8313e-26  2.4024e-24  2.1594e-26  2.4027e-24  2.7429e-26  2.4031e-24  3.7807e-26  2.4039e-24  5.6263e-26  2.4053e-24  8.9089e-26  2.4078e-24  1.4748e-25  2.4123e-24  2.5140e-25  2.4202e-24  4.3639e-25  2.4343e-24  7.6602e-25  2.4593e-24  1.3543e-24  2.5040e-24  2.4071e-24  2.5834e-24  4.3001e-24  2.7253e-24  7.7323e-24  2.9792e-24  1.4042e-23
      2.50  2.3761e-24  1.6095e-26  2.3761e-24  1.6457e-26  2.3761e-24  1.7101e-26  2.3762e-24  1.8246e-26  2.3763e-24  2.0283e-26  2.3764e-24  2.3905e-26  2.3766e-24  3.0347e-26  2.3771e-24  4.1802e-26  2.3779e-24  6.2175e-26  2.3793e-24  9.8411e-26  2.3817e-24  1.6287e-25  2.3861e-24  2.7758e-25  2.3940e-24  4.8178e-25  2.4079e-24  8.4566e-25  2.4326e-24  1.4950e-24  2.4767e-24  2.6571e-24  2.5552e-24  4.7467e-24  2.6954e-24  8.5347e-24  2.9463e-24  1.5497e-23
      2.55  2.3493e-24  1.7839e-26  2.3493e-24  1.8236e-26  2.3494e-24  1.8941e-26  2.3494e-24  2.0194e-26  2.3495e-24  2.2423e-26  2.3496e-24  2.6388e-26  2.3499e-24  3.3437e-26  2.3503e-24  4.5974e-26  2.3511e-24  6.8271e-26  2.3525e-24  1.0793e-25  2.3549e-24  1.7848e-25  2.3593e-24  3.0401e-25  2.3670e-24  5.2750e-25  2.3807e-24  9.2573e-25  2.4052e-24  1.6364e-24  2.4487e-24  2.9081e-24  2.5263e-24  5.1948e-24  2.6648e-24  9.3397e-24  2.9126e-24  1.6957e-23
      2.60  2.3219e-24  1.9760e-26  2.3219e-24  2.0190e-26  2.3219e-24  2.0955e-26  2.3219e-24  2.2316e-26  2.3220e-24  2.4736e-26  2.3221e-24  2.9039e-26  2.3224e-24  3.6691e-26  2.3228e-24  5.0300e-26  2.3236e-24  7.4503e-26  2.3249e-24  1.1755e-25  2.3273e-24  1.9413e-25  2.3316e-24  3.3040e-25  2.3393e-24  5.7300e-25  2.3529e-24  1.0053e-24  2.3770e-24  1.7767e-24  2.4200e-24  3.1571e-24  2.4967e-24  5.6389e-24  2.6334e-24  1.0137e-23  2.8782e-24  1.8403e-23
      2.65  2.2936e-24  2.1872e-26  2.2936e-24  2.2336e-26  2.2937e-24  2.3160e-26  2.2937e-24  2.4626e-26  2.2938e-24  2.7233e-26  2.2939e-24  3.1869e-26  2.2942e-24  4.0114e-26  2.2946e-24  5.4776e-26  2.2953e-24  8.0853e-26  2.2967e-24  1.2723e-25  2.2991e-24  2.0974e-25  2.3033e-24  3.5655e-25  2.3108e-24  6.1792e-25  2.3243e-24  1.0836e-24  2.3481e-24  1.9147e-24  2.3906e-24  3.4018e-24  2.4662e-24  6.0755e-24  2.6013e-24  1.0921e-23  2.8430e-24  1.9823e-23
      2.70  2.2647e-24  2.4195e-26  2.2647e-24  2.4691e-26  2.2647e-24  2.5573e-26  2.2647e-24  2.7142e-26  2.2648e-24  2.9932e-26  2.2649e-24  3.4893e-26  2.2652e-24  4.3715e-26  2.2656e-24  5.9406e-26  2.2663e-24  8.7310e-26  2.2677e-24  1.3694e-25  2.2700e-24  2.2523e-25  2.2742e-24  3.8234e-25  2.2817e-24  6.6203e-25  2.2949e-24  1.1604e-24  2.3185e-24  2.0497e-24  2.3604e-24  3.6409e-24  2.4351e-24  6.5016e-24  2.5684e-24  1.1685e-23  2.8070e-24  2.1207e-23
      2.75  2.2349e-24  2.6747e-26  2.2349e-24  2.7274e-26  2.2350e-24  2.8213e-26  2.2350e-24  2.9881e-26  2.2351e-24  3.2849e-26  2.2352e-24  3.8126e-26  2.2354e-24  4.7510e-26  2.2359e-24  6.4199e-26  2.2366e-24  9.3879e-26  2.2379e-24  1.4667e-25  2.2402e-24  2.4058e-25  2.2444e-24  4.0768e-25  2.2517e-24  7.0517e-25  2.2648e-24  1.2352e-24  2.2881e-24  2.1811e-24  2.3295e-24  3.8735e-24  2.4032e-24  6.9158e-24  2.5349e-24  1.2428e-23  2.7705e-24  2.2551e-23
      2.80  2.2044e-24  2.9567e-26  2.2045e-24  3.0125e-26  2.2045e-24  3.1118e-26  2.2045e-24  3.2883e-26  2.2046e-24  3.6023e-26  2.2047e-24  4.1606e-26  2.2050e-24  5.1536e-26  2.2054e-24  6.9194e-26  2.2061e-24  1.0060e-25  2.2074e-24  1.5645e-25  2.2097e-24  2.5582e-25  2.2138e-24  4.3262e-25  2.2210e-24  7.4738e-25  2.2339e-24  1.3082e-24  2.2569e-24  2.3090e-24  2.2978e-24  4.0995e-24  2.3706e-24  7.3179e-24  2.5006e-24  1.3149e-23  2.7332e-24  2.3854e-23
      2.85  2.1732e-24  3.2662e-26  2.1732e-24  3.3250e-26  2.1732e-24  3.4296e-26  2.1733e-24  3.6156e-26  2.1733e-24  3.9463e-26  2.1735e-24  4.5344e-26  2.1737e-24  5.5802e-26  2.1741e-24  7.4401e-26  2.1748e-24  1.0748e-25  2.1761e-24  1.6631e-25  2.1784e-24  2.7097e-25  2.1824e-24  4.5719e-25  2.1896e-24  7.8871e-25  2.2023e-24  1.3794e-24  2.2250e-24  2.4334e-24  2.2653e-24  4.3192e-24  2.3372e-24  7.7085e-24  2.4655e-24  1.3848e-23  2.6952e-24  2.5118e-23
      2.90  2.1412e-24  3.6059e-26  2.1412e-24  3.6676e-26  2.1412e-24  3.7773e-26  2.1413e-24  3.9724e-26  2.1413e-24  4.3194e-26  2.1415e-24  4.9364e-26  2.1417e-24  6.0336e-26  2.1421e-24  7.9850e-26  2.1428e-24  1.1455e-25  2.1440e-24  1.7628e-25  2.1463e-24  2.8608e-25  2.1503e-24  4.8146e-25  2.1573e-24  8.2928e-25  2.1699e-24  1.4490e-24  2.1923e-24  2.5548e-24  2.2321e-24  4.5332e-24  2.3031e-24  8.0885e-24  2.4297e-24  1.4528e-23  2.6563e-24  2.6346e-23
      2.95  2.1084e-24  3.9794e-26  2.1084e-24  4.0439e-26  2.1084e-24  4.1586e-26  2.1085e-24  4.3626e-26  2.1085e-24  4.7254e-26  2.1087e-24  5.3706e-26  2.1089e-24  6.5179e-26  2.1093e-24  8.5583e-26  2.1100e-24  1.2187e-25  2.1112e-24  1.8641e-25  2.1134e-24  3.0123e-25  2.1174e-24  5.0553e-25  2.1243e-24  8.6922e-25  2.1368e-24  1.5172e-24  2.1588e-24  2.6734e-24  2.1981e-24  4.7419e-24  2.2681e-24  8.4588e-24  2.3930e-24  1.5190e-23  2.6166e-24  2.7541e-23
      3.00  2.0748e-24  4.3895e-26  2.0749e-24  4.4567e-26  2.0749e-24  4.5763e-26  2.0749e-24  4.7890e-26  2.0750e-24  5.1673e-26  2.0751e-24  5.8399e-26  2.0753e-24  7.0362e-26  2.0757e-24  9.1635e-26  2.0764e-24  1.2947e-25  2.0776e-24  1.9676e-25  2.0798e-24  3.1646e-25  2.0837e-24  5.2946e-25  2.0906e-24  9.0864e-25  2.1028e-24  1.5842e-24  2.1246e-24  2.7896e-24  2.1633e-24  4.9460e-24  2.2324e-24  8.8206e-24  2.3556e-24  1.5836e-23  2.5761e-24  2.8706e-23
      3.05  2.0405e-24  4.8436e-26  2.0405e-24  4.9135e-26  2.0406e-24  5.0378e-26  2.0406e-24  5.2589e-26  2.0407e-24  5.6520e-26  2.0408e-24  6.3510e-26  2.0410e-24  7.5942e-26  2.0414e-24  9.8050e-26  2.0421e-24  1.3737e-25  2.0433e-24  2.0730e-25  2.0454e-24  3.3170e-25  2.0492e-24  5.5306e-25  2.0560e-24  9.4711e-25  2.0681e-24  1.6492e-24  2.0896e-24  2.9018e-24  2.1278e-24  5.1426e-24  2.1958e-24  9.1685e-24  2.3173e-24  1.6457e-23  2.5348e-24  2.9825e-23
      3.10  2.0054e-24  5.3387e-26  2.0054e-24  5.4111e-26  2.0055e-24  5.5401e-26  2.0055e-24  5.7693e-26  2.0056e-24  6.1769e-26  2.0057e-24  6.9018e-26  2.0059e-24  8.1910e-26  2.0063e-24  1.0484e-25  2.0069e-24  1.4561e-25  2.0081e-24  2.1813e-25  2.0103e-24  3.4713e-25  2.0140e-24  5.7667e-25  2.0207e-24  9.8530e-25  2.0326e-24  1.7133e-24  2.0538e-24  3.0122e-24  2.0914e-24  5.3357e-24  2.1585e-24  9.5097e-24  2.2783e-24  1.7066e-23  2.4925e-24  3.0920e-23
      3.15  1.9696e-24  5.8853e-26  1.9696e-24  5.9603e-26  1.9696e-24  6.0938e-26  1.9696e-24  6.3311e-26  1.9697e-24  6.7531e-26  1.9698e-24  7.5036e-26  1.9700e-24  8.8383e-26  1.9704e-24  1.1212e-25  1.9711e-24  1.5433e-25  1.9722e-24  2.2941e-25  1.9743e-24  3.6296e-25  1.9780e-24  6.0061e-25  1.9846e-24  1.0236e-24  1.9964e-24  1.7773e-24  2.0172e-24  3.1220e-24  2.0543e-24  5.5272e-24  2.1204e-24  9.8478e-24  2.2384e-24  1.7668e-23  2.4495e-24  3.2003e-23
      3.20  1.9330e-24  6.4863e-26  1.9330e-24  6.5639e-26  1.9330e-24  6.7019e-26  1.9330e-24  6.9474e-26  1.9331e-24  7.3839e-26  1.9332e-24  8.1602e-26  1.9334e-24  9.5408e-26  1.9338e-24  1.1996e-25  1.9344e-24  1.6362e-25  1.9356e-24  2.4128e-25  1.9376e-24  3.7943e-25  1.9413e-24  6.2524e-25  1.9478e-24  1.0628e-24  1.9593e-24  1.8424e-24  1.9799e-24  3.2332e-24  2.0164e-24  5.7208e-24  2.0815e-24  1.0189e-23  2.1977e-24  1.8275e-23  2.4056e-24  3.3095e-23
      3.25  1.8956e-24  7.1429e-26  1.8956e-24  7.2232e-26  1.8956e-24  7.3660e-26  1.8957e-24  7.6200e-26  1.8957e-24  8.0716e-26  1.8958e-24  8.8748e-26  1.8960e-24  1.0303e-25  1.8964e-24  1.2843e-25  1.8970e-24  1.7360e-25  1.8982e-24  2.5395e-25  1.9002e-24  3.9687e-25  1.9038e-24  6.5118e-25  1.9102e-24  1.1039e-24  1.9216e-24  1.9104e-24  1.9418e-24  3.3493e-24  1.9778e-24  5.9227e-24  2.0419e-24  1.0545e-23  2.1563e-24  1.8908e-23  2.3610e-24  3.4232e-23
      3.30  1.8575e-24  7.8669e-26  1.8575e-24  7.9501e-26  1.8575e-24  8.0981e-26  1.8576e-24  8.3613e-26  1.8576e-24  8.8293e-26  1.8578e-24  9.6616e-26  1.8580e-24  1.1142e-25  1.8583e-24  1.3774e-25  1.8589e-24  1.8455e-25  1.8601e-24  2.6781e-25  1.8621e-24  4.1592e-25  1.8656e-24  6.7945e-25  1.8719e-24  1.1486e-24  1.8831e-24  1.9843e-24  1.9030e-24  3.4753e-24  1.9384e-24  6.1418e-24  2.0015e-24  1.0931e-23  2.1141e-24  1.9595e-23  2.3156e-24  3.5466e-23
      3.35  1.8187e-24  8.6569e-26  1.8187e-24  8.7435e-26  1.8187e-24  8.8973e-26  1.8188e-24  9.1710e-26  1.8188e-24  9.6577e-26  1.8190e-24  1.0523e-25  1.8192e-24  1.2062e-25  1.8195e-24  1.4799e-25  1.8201e-24  1.9667e-25  1.8212e-24  2.8325e-25  1.8232e-24  4.3725e-25  1.8267e-24  7.1128e-25  1.8329e-24  1.1991e-24  1.8439e-24  2.0681e-24  1.8634e-24  3.6185e-24  1.8983e-24  6.3909e-24  1.9604e-24  1.1370e-23  2.0712e-24  2.0376e-23  2.2694e-24  3.6871e-23
      3.40  1.7792e-24  9.5180e-26  1.7792e-24  9.6084e-26  1.7793e-24  9.7693e-26  1.7793e-24  1.0055e-25  1.7793e-24  1.0564e-25  1.7795e-24  1.1469e-25  1.7797e-24  1.3077e-25  1.7800e-24  1.5938e-25  1.7806e-24  2.1026e-25  1.7817e-24  3.0076e-25  1.7836e-24  4.6174e-25  1.7870e-24  7.4817e-25  1.7931e-24  1.2580e-24  1.8040e-24  2.1664e-24  1.8232e-24  3.7868e-24  1.8575e-24  6.6845e-24  1.9185e-24  1.1888e-23  2.0275e-24  2.1299e-23  2.2224e-24  3.8532e-23
      3.45  1.7391e-24  1.0456e-25  1.7391e-24  1.0551e-25  1.7391e-24  1.0720e-25  1.7391e-24  1.1021e-25  1.7392e-24  1.1557e-25  1.7393e-24  1.2509e-25  1.7395e-24  1.4202e-25  1.7398e-24  1.7213e-25  1.7404e-24  2.2569e-25  1.7415e-24  3.2094e-25  1.7434e-24  4.9037e-25  1.7467e-24  7.9185e-25  1.7527e-24  1.3285e-24  1.7634e-24  2.2846e-24  1.7823e-24  3.9901e-24  1.8160e-24  7.0398e-24  1.8760e-24  1.2516e-23  1.9832e-24  2.2419e-23  2.1748e-24  4.0550e-23
      3.50  1.6982e-24  1.1475e-25  1.6982e-24  1.1576e-25  1.6983e-24  1.1756e-25  1.6983e-24  1.2076e-25  1.6984e-24  1.2644e-25  1.6985e-24  1.3655e-25  1.6986e-24  1.5452e-25  1.6990e-24  1.8649e-25  1.6996e-24  2.4334e-25  1.7006e-24  3.4446e-25  1.7025e-24  5.2433e-25  1.7058e-24  8.4437e-25  1.7117e-24  1.4141e-24  1.7221e-24  2.4290e-24  1.7407e-24  4.2395e-24  1.7738e-24  7.4767e-24  1.8328e-24  1.3289e-23  1.9381e-24  2.3801e-23  2.1265e-24  4.3040e-23
      3.55  1.6568e-24  1.2597e-25  1.6568e-24  1.2705e-25  1.6568e-24  1.2898e-25  1.6569e-24  1.3241e-25  1.6569e-24  1.3850e-25  1.6570e-24  1.4934e-25  1.6572e-24  1.6862e-25  1.6575e-24  2.0289e-25  1.6581e-24  2.6385e-25  1.6591e-24  3.7227e-25  1.6610e-24  5.6514e-25  1.6642e-24  9.0831e-25  1.6700e-24  1.5192e-24  1.6803e-24  2.6074e-24  1.6985e-24  4.5487e-24  1.7311e-24  8.0196e-24  1.7890e-24  1.4251e-23  1.8925e-24  2.5520e-23  2.0774e-24  4.6145e-23
      3.60  1.6148e-24  1.3814e-25  1.6148e-24  1.3932e-25  1.6148e-24  1.4141e-25  1.6148e-24  1.4512e-25  1.6149e-24  1.5172e-25  1.6150e-24  1.6347e-25  1.6152e-24  1.8435e-25  1.6155e-24  2.2149e-25  1.6161e-24  2.8755e-25  1.6171e-24  4.0503e-25  1.6189e-24  6.1402e-25  1.6221e-24  9.8587e-25  1.6277e-24  1.6478e-24  1.6378e-24  2.8269e-24  1.6557e-24  4.9304e-24  1.6877e-24  8.6914e-24  1.7446e-24  1.5444e-23  1.8461e-24  2.7653e-23  2.0279e-24  4.9992e-23
      3.65  1.5721e-24  1.5133e-25  1.5722e-24  1.5262e-25  1.5722e-24  1.5491e-25  1.5722e-24  1.5898e-25  1.5723e-24  1.6622e-25  1.5724e-24  1.7910e-25  1.5725e-24  2.0199e-25  1.5729e-24  2.4271e-25  1.5734e-24  3.1513e-25  1.5744e-24  4.4393e-25  1.5762e-24  6.7305e-25  1.5793e-24  1.0807e-24  1.5849e-24  1.8064e-24  1.5948e-24  3.0991e-24  1.6123e-24  5.4051e-24  1.6437e-24  9.5282e-24  1.6995e-24  1.6930e-23  1.7992e-24  3.0314e-23  1.9778e-24  5.4797e-23
      3.70  1.5290e-24  1.6563e-25  1.5290e-24  1.6706e-25  1.5290e-24  1.6960e-25  1.5291e-24  1.7413e-25  1.5291e-24  1.8218e-25  1.5292e-24  1.9649e-25  1.5294e-24  2.2194e-25  1.5297e-24  2.6720e-25  1.5303e-24  3.4770e-25  1.5312e-24  4.9088e-25  1.5330e-24  7.4557e-25  1.5360e-24  1.1987e-24  1.5415e-24  2.0054e-24  1.5512e-24  3.4424e-24  1.5684e-24  6.0057e-24  1.5992e-24  1.0589e-23  1.6540e-24  1.8816e-23  1.7518e-24  3.3692e-23  1.9272e-24  6.0896e-23
      3.75  1.4854e-24  1.8119e-25  1.4854e-24  1.8281e-25  1.4854e-24  1.8568e-25  1.4854e-24  1.9079e-25  1.4855e-24  1.9988e-25  1.4856e-24  2.1604e-25  1.4858e-24  2.4478e-25  1.4861e-24  2.9589e-25  1.4866e-24  3.8679e-25  1.4876e-24  5.4847e-25  1.4893e-24  8.3606e-25  1.4923e-24  1.3478e-24  1.4976e-24  2.2586e-24  1.5071e-24  3.8813e-24  1.5241e-24  6.7757e-24  1.5543e-24  1.1951e-23  1.6081e-24  2.1241e-23  1.7042e-24  3.8036e-23  1.8762e-24  6.8754e-23
      3.80  1.4428e-24  1.9920e-25  1.4428e-24  2.0106e-25  1.4428e-24  2.0438e-25  1.4429e-24  2.1027e-25  1.4429e-24  2.2074e-25  1.4430e-24  2.3937e-25  1.4432e-24  2.7250e-25  1.4435e-24  3.3141e-25  1.4440e-24  4.3618e-25  1.4450e-24  6.2252e-25  1.4466e-24  9.5401e-25  1.4496e-24  1.5438e-24  1.4549e-24  2.5937e-24  1.4642e-24  4.4639e-24  1.4809e-24  7.7999e-24  1.5105e-24  1.3764e-23  1.5634e-24  2.4470e-23  1.6579e-24  4.3823e-23  1.8277e-24  7.9194e-23
      3.85  1.3986e-24  2.2516e-25  1.3986e-24  2.2736e-25  1.3986e-24  2.3128e-25  1.3987e-24  2.3824e-25  1.3987e-24  2.5063e-25  1.3988e-24  2.7266e-25  1.3990e-24  3.1183e-25  1.3993e-24  3.8149e-25  1.3998e-24  5.0538e-25  1.4007e-24  7.2574e-25  1.4023e-24  1.1177e-24  1.4053e-24  1.8151e-24  1.4105e-24  3.0566e-24  1.4197e-24  5.2680e-24  1.4361e-24  9.2124e-24  1.4654e-24  1.6264e-23  1.5175e-24  2.8920e-23  1.6107e-24  5.1792e-23  1.7785e-24  9.3566e-23
      3.90  1.3541e-24  2.8887e-25  1.3541e-24  2.9156e-25  1.3541e-24  2.9634e-25  1.3541e-24  3.0485e-25  1.3542e-24  3.1998e-25  1.3543e-24  3.4687e-25  1.3544e-24  3.9471e-25  1.3547e-24  4.7978e-25  1.3553e-24  6.3108e-25  1.3562e-24  9.0017e-25  1.3578e-24  1.3788e-24  1.3607e-24  2.2305e-24  1.3658e-24  3.7464e-24  1.3750e-24  6.4468e-24  1.3912e-24  1.1263e-23  1.4203e-24  1.9871e-23  1.4720e-24  3.5317e-23  1.5644e-24  6.3219e-23  1.7308e-24  1.1414e-22
      3.95  1.3093e-24  5.1762e-25  1.3093e-24  5.2099e-25  1.3093e-24  5.2699e-25  1.3094e-24  5.3766e-25  1.3094e-24  5.5664e-25  1.3095e-24  5.9038e-25  1.3097e-24  6.5038e-25  1.3099e-24  7.5709e-25  1.3105e-24  9.4686e-25  1.3114e-24  1.2844e-24  1.3130e-24  1.8848e-24  1.3159e-24  2.9530e-24  1.3210e-24  4.8543e-24  1.3301e-24  8.2408e-24  1.3464e-24  1.4280e-23  1.3754e-24  2.5071e-23  1.4271e-24  4.4426e-23  1.5195e-24  7.9361e-23  1.6861e-24  1.4302e-22
