# This was generated using Cloudy10 and the columns are ordered 
# as log10 of the fraction of the metallicity to the solar metallicity
# 'h_*_Z' and 'c_*_Z' stands for cooling and heating respectively 
# at * metalicity
#
# NOTE: This was generated separately from loop_coolingcurve_w_UV.py
#       using Output_metals_w_redshift.py.
#
# Redshift = 3.5
# hden = -9.5
#
#     temp   h_-3.00_Z   c_-3.00_Z   h_-2.75_Z   c_-2.75_Z   h_-2.50_Z   c_-2.50_Z   h_-2.25_Z   c_-2.25_Z   h_-2.00_Z   c_-2.00_Z   h_-1.75_Z   c_-1.75_Z   h_-1.50_Z   c_-1.50_Z   h_-1.25_Z   c_-1.25_Z   h_-1.00_Z   c_-1.00_Z   h_-0.75_Z   c_-0.75_Z   h_-0.50_Z   c_-0.50_Z   h_-0.25_Z   c_-0.25_Z    h_0.00_Z    c_0.00_Z    h_0.25_Z    c_0.25_Z    h_0.50_Z    c_0.50_Z    h_0.75_Z    c_0.75_Z    h_1.00_Z    c_1.00_Z    h_1.25_Z    c_1.25_Z    h_1.50_Z    c_1.50_Z 
      4.00  4.1147e-21  8.1020e-20  4.1149e-21  8.1021e-20  4.1152e-21  8.1022e-20  4.1158e-21  8.1023e-20  4.1170e-21  8.1026e-20  4.1189e-21  8.1031e-20  4.1225e-21  8.1040e-20  4.1287e-21  8.1055e-20  4.1399e-21  8.1083e-20  4.1597e-21  8.1133e-20  4.1951e-21  8.1222e-20  4.2581e-21  8.1379e-20  4.3707e-21  8.1659e-20  4.5725e-21  8.2157e-20  4.9362e-21  8.3043e-20  5.5985e-21  8.4617e-20  6.8252e-21  8.7417e-20  9.1602e-21  9.2394e-20  1.3792e-20  1.0124e-19
      4.05  4.1140e-21  9.0906e-20  4.1142e-21  9.0907e-20  4.1145e-21  9.0908e-20  4.1151e-21  9.0909e-20  4.1161e-21  9.0912e-20  4.1180e-21  9.0918e-20  4.1213e-21  9.0928e-20  4.1273e-21  9.0946e-20  4.1378e-21  9.0977e-20  4.1566e-21  9.1033e-20  4.1900e-21  9.1132e-20  4.2495e-21  9.1309e-20  4.3559e-21  9.1623e-20  4.5466e-21  9.2182e-20  4.8902e-21  9.3175e-20  5.5168e-21  9.4942e-20  6.6747e-21  9.8083e-20  8.8799e-21  1.0367e-19  1.3253e-20  1.1360e-19
      4.10  4.1133e-21  1.0200e-19  4.1135e-21  1.0200e-19  4.1138e-21  1.0200e-19  4.1144e-21  1.0200e-19  4.1154e-21  1.0201e-19  4.1171e-21  1.0201e-19  4.1203e-21  1.0202e-19  4.1259e-21  1.0204e-19  4.1359e-21  1.0208e-19  4.1536e-21  1.0214e-19  4.1852e-21  1.0225e-19  4.2415e-21  1.0245e-19  4.3420e-21  1.0280e-19  4.5222e-21  1.0343e-19  4.8469e-21  1.0454e-19  5.4381e-21  1.0653e-19  6.5328e-21  1.1005e-19  8.6155e-21  1.1632e-19  1.2745e-20  1.2746e-19
      4.15  4.1127e-21  1.1444e-19  4.1129e-21  1.1444e-19  4.1132e-21  1.1445e-19  4.1137e-21  1.1445e-19  4.1147e-21  1.1445e-19  4.1163e-21  1.1446e-19  4.1193e-21  1.1447e-19  4.1246e-21  1.1449e-19  4.1340e-21  1.1453e-19  4.1508e-21  1.1460e-19  4.1806e-21  1.1473e-19  4.2339e-21  1.1495e-19  4.3289e-21  1.1535e-19  4.4992e-21  1.1605e-19  4.8061e-21  1.1730e-19  5.3656e-21  1.1953e-19  6.3991e-21  1.2348e-19  8.3663e-21  1.3051e-19  1.2265e-20  1.4302e-19
      4.20  4.1122e-21  1.2841e-19  4.1123e-21  1.2841e-19  4.1126e-21  1.2841e-19  4.1131e-21  1.2841e-19  4.1140e-21  1.2842e-19  4.1156e-21  1.2842e-19  4.1184e-21  1.2844e-19  4.1234e-21  1.2846e-19  4.1323e-21  1.2851e-19  4.1482e-21  1.2859e-19  4.1764e-21  1.2873e-19  4.2267e-21  1.2898e-19  4.3166e-21  1.2942e-19  4.4776e-21  1.3021e-19  4.7677e-21  1.3161e-19  5.2958e-21  1.3411e-19  6.2732e-21  1.3855e-19  8.1315e-21  1.4644e-19  1.1813e-20  1.6047e-19
      4.25  4.1117e-21  1.4408e-19  4.1118e-21  1.4408e-19  4.1121e-21  1.4408e-19  4.1125e-21  1.4408e-19  4.1134e-21  1.4409e-19  4.1149e-21  1.4409e-19  4.1175e-21  1.4411e-19  4.1223e-21  1.4414e-19  4.1307e-21  1.4419e-19  4.1457e-21  1.4428e-19  4.1724e-21  1.4443e-19  4.2200e-21  1.4471e-19  4.3050e-21  1.4521e-19  4.4572e-21  1.4610e-19  4.7316e-21  1.4767e-19  5.2309e-21  1.5047e-19  6.1547e-21  1.5545e-19  7.9104e-21  1.6431e-19  1.1387e-20  1.8006e-19
      4.30  4.1112e-21  1.6166e-19  4.1113e-21  1.6166e-19  4.1116e-21  1.6166e-19  4.1120e-21  1.6166e-19  4.1128e-21  1.6167e-19  4.1142e-21  1.6168e-19  4.1167e-21  1.6169e-19  4.1212e-21  1.6173e-19  4.1292e-21  1.6178e-19  4.1434e-21  1.6188e-19  4.1686e-21  1.6206e-19  4.2137e-21  1.6237e-19  4.2941e-21  1.6293e-19  4.4381e-21  1.6393e-19  4.6976e-21  1.6569e-19  5.1699e-21  1.6884e-19  6.0433e-21  1.7442e-19  7.7025e-21  1.8436e-19  1.0985e-20  2.0203e-19
      4.35  4.1107e-21  1.8138e-19  4.1109e-21  1.8138e-19  4.1111e-21  1.8138e-19  4.1115e-21  1.8139e-19  4.1123e-21  1.8139e-19  4.1136e-21  1.8140e-19  4.1160e-21  1.8142e-19  4.1202e-21  1.8146e-19  4.1278e-21  1.8152e-19  4.1412e-21  1.8163e-19  4.1651e-21  1.8183e-19  4.2077e-21  1.8218e-19  4.2838e-21  1.8281e-19  4.4201e-21  1.8393e-19  4.6657e-21  1.8591e-19  5.1125e-21  1.8944e-19  5.9385e-21  1.9571e-19  7.5069e-21  2.0686e-19  1.0608e-20  2.2668e-19
      4.40  4.1103e-21  2.0351e-19  4.1104e-21  2.0351e-19  4.1107e-21  2.0352e-19  4.1111e-21  2.0352e-19  4.1118e-21  2.0353e-19  4.1131e-21  2.0354e-19  4.1153e-21  2.0356e-19  4.1193e-21  2.0360e-19  4.1265e-21  2.0367e-19  4.1392e-21  2.0380e-19  4.1618e-21  2.0402e-19  4.2022e-21  2.0441e-19  4.2742e-21  2.0512e-19  4.4033e-21  2.0637e-19  4.6358e-21  2.0859e-19  5.0586e-21  2.1255e-19  5.8401e-21  2.1959e-19  7.3230e-21  2.3210e-19  1.0253e-20  2.5434e-19
      4.45  4.1099e-21  2.2834e-19  4.1101e-21  2.2835e-19  4.1103e-21  2.2835e-19  4.1107e-21  2.2835e-19  4.1113e-21  2.2836e-19  4.1125e-21  2.2837e-19  4.1147e-21  2.2840e-19  4.1185e-21  2.2844e-19  4.1252e-21  2.2852e-19  4.1373e-21  2.2866e-19  4.1587e-21  2.2891e-19  4.1970e-21  2.2936e-19  4.2652e-21  2.3015e-19  4.3875e-21  2.3155e-19  4.6076e-21  2.3405e-19  5.0080e-21  2.3849e-19  5.7476e-21  2.4638e-19  7.1503e-21  2.6042e-19  9.9190e-21  2.8538e-19
      4.50  4.1096e-21  2.5621e-19  4.1097e-21  2.5621e-19  4.1099e-21  2.5621e-19  4.1103e-21  2.5622e-19  4.1109e-21  2.5622e-19  4.1120e-21  2.5624e-19  4.1141e-21  2.5627e-19  4.1177e-21  2.5632e-19  4.1241e-21  2.5641e-19  4.1355e-21  2.5656e-19  4.1558e-21  2.5684e-19  4.1921e-21  2.5734e-19  4.2567e-21  2.5823e-19  4.3726e-21  2.5980e-19  4.5812e-21  2.6261e-19  4.9604e-21  2.6759e-19  5.6608e-21  2.7645e-19  6.9881e-21  2.9220e-19  9.6055e-21  3.2021e-19
      4.55  4.1093e-21  2.8747e-19  4.1094e-21  2.8747e-19  4.1096e-21  2.8747e-19  4.1099e-21  2.8748e-19  4.1105e-21  2.8749e-19  4.1116e-21  2.8751e-19  4.1135e-21  2.8754e-19  4.1169e-21  2.8759e-19  4.1230e-21  2.8769e-19  4.1338e-21  2.8787e-19  4.1531e-21  2.8818e-19  4.1875e-21  2.8874e-19  4.2488e-21  2.8974e-19  4.3587e-21  2.9151e-19  4.5565e-21  2.9465e-19  4.9159e-21  3.0024e-19  5.5794e-21  3.1018e-19  6.8358e-21  3.2785e-19  9.3111e-21  3.5928e-19
      4.60  4.1090e-21  3.2254e-19  4.1091e-21  3.2255e-19  4.1092e-21  3.2255e-19  4.1096e-21  3.2256e-19  4.1101e-21  3.2257e-19  4.1112e-21  3.2259e-19  4.1130e-21  3.2262e-19  4.1162e-21  3.2269e-19  4.1220e-21  3.2280e-19  4.1323e-21  3.2300e-19  4.1506e-21  3.2335e-19  4.1832e-21  3.2398e-19  4.2414e-21  3.2509e-19  4.3456e-21  3.2707e-19  4.5332e-21  3.3060e-19  4.8741e-21  3.3687e-19  5.5030e-21  3.4803e-19  6.6930e-21  3.6786e-19  9.0347e-21  4.0313e-19
      4.65  4.1087e-21  3.6190e-19  4.1088e-21  3.6190e-19  4.1089e-21  3.6191e-19  4.1093e-21  3.6191e-19  4.1098e-21  3.6193e-19  4.1108e-21  3.6195e-19  4.1125e-21  3.6199e-19  4.1156e-21  3.6206e-19  4.1211e-21  3.6218e-19  4.1308e-21  3.6241e-19  4.1482e-21  3.6280e-19  4.1792e-21  3.6351e-19  4.2344e-21  3.6476e-19  4.3334e-21  3.6698e-19  4.5115e-21  3.7094e-19  4.8349e-21  3.7798e-19  5.4314e-21  3.9049e-19  6.5591e-21  4.1275e-19  8.7755e-21  4.5232e-19
      4.70  4.1084e-21  4.0606e-19  4.1085e-21  4.0606e-19  4.1087e-21  4.0607e-19  4.1090e-21  4.0607e-19  4.1095e-21  4.0609e-19  4.1104e-21  4.0611e-19  4.1121e-21  4.0616e-19  4.1150e-21  4.0624e-19  4.1202e-21  4.0638e-19  4.1295e-21  4.0663e-19  4.1460e-21  4.0707e-19  4.1754e-21  4.0786e-19  4.2279e-21  4.0926e-19  4.3219e-21  4.1176e-19  4.4911e-21  4.1620e-19  4.7982e-21  4.2410e-19  5.3643e-21  4.3814e-19  6.4336e-21  4.6311e-19  8.5324e-21  5.0751e-19
      4.75  4.1082e-21  4.5561e-19  4.1083e-21  4.5561e-19  4.1084e-21  4.5561e-19  4.1087e-21  4.5562e-19  4.1092e-21  4.5564e-19  4.1101e-21  4.5567e-19  4.1116e-21  4.5572e-19  4.1144e-21  4.5580e-19  4.1194e-21  4.5596e-19  4.1282e-21  4.5624e-19  4.1439e-21  4.5674e-19  4.1719e-21  4.5763e-19  4.2218e-21  4.5920e-19  4.3112e-21  4.6200e-19  4.4720e-21  4.6699e-19  4.7638e-21  4.7585e-19  5.3014e-21  4.9161e-19  6.3160e-21  5.1962e-19  8.3045e-21  5.6944e-19
      4.80  4.1080e-21  5.1120e-19  4.1080e-21  5.1120e-19  4.1082e-21  5.1121e-19  4.1085e-21  5.1122e-19  4.1089e-21  5.1123e-19  4.1098e-21  5.1127e-19  4.1113e-21  5.1132e-19  4.1139e-21  5.1142e-19  4.1186e-21  5.1160e-19  4.1270e-21  5.1191e-19  4.1420e-21  5.1247e-19  4.1686e-21  5.1347e-19  4.2161e-21  5.1523e-19  4.3011e-21  5.1838e-19  4.4541e-21  5.2397e-19  4.7317e-21  5.3391e-19  5.2425e-21  5.5159e-19  6.2058e-21  5.8303e-19  8.0910e-21  6.3893e-19
      4.85  4.1078e-21  5.7357e-19  4.1078e-21  5.7358e-19  4.1080e-21  5.7358e-19  4.1082e-21  5.7359e-19  4.1087e-21  5.7361e-19  4.1095e-21  5.7365e-19  4.1109e-21  5.7371e-19  4.1134e-21  5.7382e-19  4.1179e-21  5.7402e-19  4.1259e-21  5.7437e-19  4.1401e-21  5.7500e-19  4.1655e-21  5.7612e-19  4.2108e-21  5.7810e-19  4.2917e-21  5.8163e-19  4.4374e-21  5.8790e-19  4.7015e-21  5.9906e-19  5.1874e-21  6.1890e-19  6.1026e-21  6.5417e-19  7.8911e-21  7.1690e-19
      4.90  4.1076e-21  6.4356e-19  4.1076e-21  6.4356e-19  4.1078e-21  6.4357e-19  4.1080e-21  6.4358e-19  4.1084e-21  6.4361e-19  4.1092e-21  6.4365e-19  4.1106e-21  6.4372e-19  4.1130e-21  6.4384e-19  4.1173e-21  6.4406e-19  4.1249e-21  6.4446e-19  4.1384e-21  6.4516e-19  4.1626e-21  6.4641e-19  4.2058e-21  6.4864e-19  4.2830e-21  6.5260e-19  4.4217e-21  6.5964e-19  4.6733e-21  6.7216e-19  5.1359e-21  6.9441e-19  6.0061e-21  7.3400e-19  7.7039e-21  8.0438e-19
      4.95  4.1074e-21  7.2209e-19  4.1075e-21  7.2209e-19  4.1076e-21  7.2210e-19  4.1078e-21  7.2211e-19  4.1082e-21  7.2214e-19  4.1090e-21  7.2218e-19  4.1103e-21  7.2226e-19  4.1126e-21  7.2240e-19  4.1166e-21  7.2265e-19  4.1239e-21  7.2309e-19  4.1369e-21  7.2388e-19  4.1599e-21  7.2529e-19  4.2011e-21  7.2779e-19  4.2747e-21  7.3223e-19  4.4071e-21  7.4013e-19  4.6470e-21  7.5417e-19  5.0876e-21  7.7915e-19  5.9157e-21  8.2356e-19  7.5286e-21  9.0253e-19
      5.00  4.1072e-21  8.1019e-19  4.1073e-21  8.1020e-19  4.1074e-21  8.1021e-19  4.1076e-21  8.1022e-19  4.1080e-21  8.1025e-19  4.1087e-21  8.1030e-19  4.1100e-21  8.1039e-19  4.1122e-21  8.1055e-19  4.1161e-21  8.1083e-19  4.1230e-21  8.1133e-19  4.1354e-21  8.1221e-19  4.1574e-21  8.1379e-19  4.1967e-21  8.1659e-19  4.2670e-21  8.2157e-19  4.3934e-21  8.3044e-19  4.6223e-21  8.4620e-19  5.0425e-21  8.7422e-19  5.8312e-21  9.2405e-19  7.3647e-21  1.0127e-18
      5.05  4.1071e-21  9.0905e-19  4.1072e-21  9.0906e-19  4.1073e-21  9.0907e-19  4.1075e-21  9.0908e-19  4.1079e-21  9.0912e-19  4.1085e-21  9.0917e-19  4.1097e-21  9.0927e-19  4.1118e-21  9.0945e-19  4.1155e-21  9.0976e-19  4.1222e-21  9.1032e-19  4.1340e-21  9.1132e-19  4.1551e-21  9.1308e-19  4.1926e-21  9.1623e-19  4.2599e-21  9.2182e-19  4.3806e-21  9.3177e-19  4.5993e-21  9.4945e-19  5.0003e-21  9.8089e-19  5.7522e-21  1.0368e-18  7.2114e-21  1.1362e-18
      5.10  4.1070e-21  1.0200e-18  4.1070e-21  1.0200e-18  4.1071e-21  1.0200e-18  4.1073e-21  1.0200e-18  4.1077e-21  1.0200e-18  4.1083e-21  1.0201e-18  4.1094e-21  1.0202e-18  4.1115e-21  1.0204e-18  4.1150e-21  1.0208e-18  4.1214e-21  1.0214e-18  4.1327e-21  1.0225e-18  4.1529e-21  1.0245e-18  4.1888e-21  1.0280e-18  4.2532e-21  1.0343e-18  4.3687e-21  1.0455e-18  4.5777e-21  1.0653e-18  4.9609e-21  1.1006e-18  5.6784e-21  1.1633e-18  7.0680e-21  1.2749e-18
      5.15  4.1068e-21  1.1444e-18  4.1069e-21  1.1444e-18  4.1070e-21  1.1444e-18  4.1072e-21  1.1445e-18  4.1075e-21  1.1445e-18  4.1081e-21  1.1446e-18  4.1092e-21  1.1447e-18  4.1111e-21  1.1449e-18  4.1146e-21  1.1453e-18  4.1207e-21  1.1460e-18  4.1315e-21  1.1473e-18  4.1508e-21  1.1495e-18  4.1853e-21  1.1535e-18  4.2469e-21  1.1605e-18  4.3575e-21  1.1730e-18  4.5576e-21  1.1953e-18  4.9241e-21  1.2349e-18  5.6093e-21  1.3053e-18  6.9340e-21  1.4304e-18
      5.20  4.1067e-21  1.2841e-18  4.1068e-21  1.2841e-18  4.1069e-21  1.2841e-18  4.1071e-21  1.2841e-18  4.1074e-21  1.2842e-18  4.1080e-21  1.2842e-18  4.1090e-21  1.2844e-18  4.1109e-21  1.2846e-18  4.1141e-21  1.2851e-18  4.1200e-21  1.2859e-18  4.1304e-21  1.2873e-18  4.1489e-21  1.2898e-18  4.1820e-21  1.2942e-18  4.2410e-21  1.3021e-18  4.3471e-21  1.3162e-18  4.5388e-21  1.3411e-18  4.8896e-21  1.3856e-18  5.5449e-21  1.4645e-18  6.8088e-21  1.6050e-18
      5.25  4.1066e-21  1.4407e-18  4.1067e-21  1.4408e-18  4.1068e-21  1.4408e-18  4.1069e-21  1.4408e-18  4.1073e-21  1.4409e-18  4.1078e-21  1.4409e-18  4.1088e-21  1.4411e-18  4.1106e-21  1.4414e-18  4.1137e-21  1.4419e-18  4.1193e-21  1.4428e-18  4.1293e-21  1.4443e-18  4.1471e-21  1.4471e-18  4.1789e-21  1.4521e-18  4.2356e-21  1.4610e-18  4.3373e-21  1.4767e-18  4.5212e-21  1.5048e-18  4.8575e-21  1.5546e-18  5.4846e-21  1.6432e-18  6.6918e-21  1.8008e-18
      5.30  4.1065e-21  1.6165e-18  4.1066e-21  1.6166e-18  4.1067e-21  1.6166e-18  4.1068e-21  1.6166e-18  4.1071e-21  1.6167e-18  4.1077e-21  1.6168e-18  4.1086e-21  1.6169e-18  4.1103e-21  1.6173e-18  4.1134e-21  1.6178e-18  4.1188e-21  1.6188e-18  4.1284e-21  1.6206e-18  4.1455e-21  1.6237e-18  4.1760e-21  1.6293e-18  4.2305e-21  1.6393e-18  4.3283e-21  1.6569e-18  4.5049e-21  1.6884e-18  4.8275e-21  1.7443e-18  5.4284e-21  1.8438e-18  6.5825e-21  2.0206e-18
      5.35  4.1064e-21  1.8138e-18  4.1065e-21  1.8138e-18  4.1066e-21  1.8138e-18  4.1067e-21  1.8139e-18  4.1070e-21  1.8139e-18  4.1075e-21  1.8140e-18  4.1085e-21  1.8142e-18  4.1101e-21  1.8146e-18  4.1130e-21  1.8152e-18  4.1182e-21  1.8163e-18  4.1275e-21  1.8183e-18  4.1439e-21  1.8218e-18  4.1733e-21  1.8281e-18  4.2257e-21  1.8393e-18  4.3198e-21  1.8591e-18  4.4896e-21  1.8944e-18  4.7995e-21  1.9572e-18  5.3759e-21  2.0687e-18  6.4806e-21  2.2671e-18
      5.40  4.1063e-21  2.0351e-18  4.1064e-21  2.0351e-18  4.1065e-21  2.0351e-18  4.1066e-21  2.0352e-18  4.1069e-21  2.0353e-18  4.1074e-21  2.0354e-18  4.1083e-21  2.0356e-18  4.1099e-21  2.0360e-18  4.1127e-21  2.0367e-18  4.1177e-21  2.0380e-18  4.1266e-21  2.0402e-18  4.1425e-21  2.0441e-18  4.1707e-21  2.0512e-18  4.2213e-21  2.0637e-18  4.3119e-21  2.0860e-18  4.4753e-21  2.1256e-18  4.7734e-21  2.1960e-18  5.3269e-21  2.3212e-18  6.3854e-21  2.5438e-18
      5.45  4.1063e-21  2.2834e-18  4.1063e-21  2.2834e-18  4.1064e-21  2.2835e-18  4.1065e-21  2.2835e-18  4.1068e-21  2.2836e-18  4.1073e-21  2.2837e-18  4.1082e-21  2.2840e-18  4.1097e-21  2.2844e-18  4.1124e-21  2.2852e-18  4.1172e-21  2.2866e-18  4.1258e-21  2.2891e-18  4.1411e-21  2.2936e-18  4.1684e-21  2.3015e-18  4.2171e-21  2.3155e-18  4.3045e-21  2.3405e-18  4.4620e-21  2.3849e-18  4.7490e-21  2.4639e-18  5.2812e-21  2.6044e-18  6.2965e-21  2.8542e-18
      5.50  4.1062e-21  2.5621e-18  4.1062e-21  2.5621e-18  4.1063e-21  2.5621e-18  4.1065e-21  2.5621e-18  4.1067e-21  2.5622e-18  4.1072e-21  2.5624e-18  4.1080e-21  2.5627e-18  4.1095e-21  2.5632e-18  4.1121e-21  2.5641e-18  4.1168e-21  2.5656e-18  4.1251e-21  2.5684e-18  4.1399e-21  2.5734e-18  4.1662e-21  2.5823e-18  4.2133e-21  2.5980e-18  4.2976e-21  2.6261e-18  4.4496e-21  2.6759e-18  4.7263e-21  2.7646e-18  5.2386e-21  2.9222e-18  6.2137e-21  3.2025e-18
      5.55  4.1061e-21  2.8747e-18  4.1062e-21  2.8747e-18  4.1063e-21  2.8747e-18  4.1064e-21  2.8748e-18  4.1067e-21  2.8749e-18  4.1071e-21  2.8751e-18  4.1079e-21  2.8754e-18  4.1093e-21  2.8759e-18  4.1119e-21  2.8769e-18  4.1164e-21  2.8787e-18  4.1244e-21  2.8818e-18  4.1387e-21  2.8874e-18  4.1642e-21  2.8974e-18  4.2097e-21  2.9151e-18  4.2912e-21  2.9465e-18  4.4380e-21  3.0024e-18  4.7051e-21  3.1019e-18  5.1989e-21  3.2787e-18  6.1364e-21  3.5932e-18
      5.60  4.1061e-21  3.2254e-18  4.1061e-21  3.2255e-18  4.1062e-21  3.2255e-18  4.1063e-21  3.2256e-18  4.1066e-21  3.2257e-18  4.1070e-21  3.2259e-18  4.1078e-21  3.2262e-18  4.1092e-21  3.2268e-18  4.1116e-21  3.2280e-18  4.1160e-21  3.2299e-18  4.1238e-21  3.2335e-18  4.1376e-21  3.2397e-18  4.1623e-21  3.2509e-18  4.2063e-21  3.2707e-18  4.2852e-21  3.3060e-18  4.4272e-21  3.3688e-18  4.6853e-21  3.4804e-18  5.1618e-21  3.6788e-18  6.0644e-21  4.0317e-18
      5.65  4.1060e-21  3.6190e-18  4.1061e-21  3.6190e-18  4.1061e-21  3.6191e-18  4.1063e-21  3.6191e-18  4.1065e-21  3.6193e-18  4.1069e-21  3.6195e-18  4.1077e-21  3.6199e-18  4.1090e-21  3.6206e-18  4.1114e-21  3.6218e-18  4.1156e-21  3.6241e-18  4.1232e-21  3.6280e-18  4.1366e-21  3.6351e-18  4.1605e-21  3.6476e-18  4.2032e-21  3.6698e-18  4.2796e-21  3.7094e-18  4.4172e-21  3.7798e-18  4.6669e-21  3.9051e-18  5.1273e-21  4.1277e-18  5.9973e-21  4.5236e-18
      5.70  4.1060e-21  4.0606e-18  4.1060e-21  4.0606e-18  4.1061e-21  4.0606e-18  4.1062e-21  4.0607e-18  4.1064e-21  4.0609e-18  4.1069e-21  4.0611e-18  4.1076e-21  4.0616e-18  4.1089e-21  4.0624e-18  4.1112e-21  4.0638e-18  4.1153e-21  4.0663e-18  4.1226e-21  4.0707e-18  4.1357e-21  4.0786e-18  4.1589e-21  4.0926e-18  4.2003e-21  4.1176e-18  4.2745e-21  4.1621e-18  4.4078e-21  4.2411e-18  4.6498e-21  4.3815e-18  5.0951e-21  4.6314e-18  5.9347e-21  5.0756e-18
      5.75  4.1059e-21  4.5560e-18  4.1060e-21  4.5561e-18  4.1060e-21  4.5561e-18  4.1062e-21  4.5562e-18  4.1064e-21  4.5564e-18  4.1068e-21  4.5566e-18  4.1075e-21  4.5571e-18  4.1088e-21  4.5580e-18  4.1110e-21  4.5596e-18  4.1150e-21  4.5624e-18  4.1221e-21  4.5674e-18  4.1348e-21  4.5763e-18  4.1573e-21  4.5920e-18  4.1976e-21  4.6201e-18  4.2696e-21  4.6699e-18  4.3991e-21  4.7585e-18  4.6338e-21  4.9162e-18  5.0652e-21  5.1965e-18  5.8764e-21  5.6949e-18
      5.80  4.1059e-21  5.1120e-18  4.1059e-21  5.1120e-18  4.1060e-21  5.1121e-18  4.1061e-21  5.1122e-18  4.1063e-21  5.1123e-18  4.1067e-21  5.1126e-18  4.1074e-21  5.1132e-18  4.1086e-21  5.1142e-18  4.1108e-21  5.1160e-18  4.1147e-21  5.1191e-18  4.1216e-21  5.1247e-18  4.1340e-21  5.1347e-18  4.1559e-21  5.1523e-18  4.1951e-21  5.1838e-18  4.2651e-21  5.2397e-18  4.3910e-21  5.3392e-18  4.6189e-21  5.5160e-18  5.0373e-21  5.8306e-18  5.8222e-21  6.3898e-18
      5.85  4.1059e-21  5.7357e-18  4.1059e-21  5.7358e-18  4.1060e-21  5.7358e-18  4.1061e-21  5.7359e-18  4.1063e-21  5.7361e-18  4.1067e-21  5.7365e-18  4.1073e-21  5.7371e-18  4.1085e-21  5.7382e-18  4.1107e-21  5.7402e-18  4.1145e-21  5.7437e-18  4.1212e-21  5.7500e-18  4.1332e-21  5.7612e-18  4.1546e-21  5.7810e-18  4.1927e-21  5.8163e-18  4.2609e-21  5.8791e-18  4.3834e-21  5.9907e-18  4.6051e-21  6.1891e-18  5.0113e-21  6.5420e-18  5.7716e-21  7.1695e-18
      5.90  4.1058e-21  6.4356e-18  4.1059e-21  6.4356e-18  4.1059e-21  6.4357e-18  4.1060e-21  6.4358e-18  4.1062e-21  6.4360e-18  4.1066e-21  6.4364e-18  4.1073e-21  6.4371e-18  4.1084e-21  6.4384e-18  4.1105e-21  6.4406e-18  4.1142e-21  6.4446e-18  4.1208e-21  6.4516e-18  4.1325e-21  6.4641e-18  4.1534e-21  6.4864e-18  4.1906e-21  6.5260e-18  4.2570e-21  6.5964e-18  4.3764e-21  6.7216e-18  4.5922e-21  6.9443e-18  4.9871e-21  7.3402e-18  5.7246e-21  8.0444e-18
      5.95  4.1058e-21  7.2208e-18  4.1058e-21  7.2209e-18  4.1059e-21  7.2210e-18  4.1060e-21  7.2211e-18  4.1062e-21  7.2214e-18  4.1066e-21  7.2218e-18  4.1072e-21  7.2226e-18  4.1084e-21  7.2240e-18  4.1104e-21  7.2265e-18  4.1140e-21  7.2309e-18  4.1204e-21  7.2388e-18  4.1318e-21  7.2529e-18  4.1522e-21  7.2779e-18  4.1885e-21  7.3223e-18  4.2534e-21  7.4013e-18  4.3699e-21  7.5418e-18  4.5802e-21  7.7916e-18  4.9646e-21  8.2359e-18  5.6808e-21  9.0259e-18
      6.00  4.1058e-21  8.1019e-18  4.1058e-21  8.1020e-18  4.1059e-21  8.1021e-18  4.1060e-21  8.1022e-18  4.1062e-21  8.1025e-18  4.1065e-21  8.1030e-18  4.1072e-21  8.1039e-18  4.1083e-21  8.1055e-18  4.1103e-21  8.1083e-18  4.1138e-21  8.1132e-18  4.1201e-21  8.1221e-18  4.1312e-21  8.1379e-18  4.1511e-21  8.1659e-18  4.1866e-21  8.2158e-18  4.2501e-21  8.3044e-18  4.3638e-21  8.4620e-18  4.5691e-21  8.7424e-18  4.9437e-21  9.2408e-18  5.6401e-21  1.0127e-17
      6.05  4.1057e-21  9.0905e-18  4.1058e-21  9.0906e-18  4.1058e-21  9.0907e-18  4.1059e-21  9.0908e-18  4.1061e-21  9.0911e-18  4.1065e-21  9.0917e-18  4.1071e-21  9.0927e-18  4.1082e-21  9.0945e-18  4.1101e-21  9.0976e-18  4.1136e-21  9.1032e-18  4.1197e-21  9.1132e-18  4.1307e-21  9.1308e-18  4.1502e-21  9.1623e-18  4.1849e-21  9.2182e-18  4.2469e-21  9.3177e-18  4.3581e-21  9.4946e-18  4.5587e-21  9.8091e-18  4.9242e-21  1.0368e-17  5.6022e-21  1.1363e-17
      6.10  4.1057e-21  1.0200e-17  4.1058e-21  1.0200e-17  4.1058e-21  1.0200e-17  4.1059e-21  1.0200e-17  4.1061e-21  1.0200e-17  4.1064e-21  1.0201e-17  4.1071e-21  1.0202e-17  4.1081e-21  1.0204e-17  4.1100e-21  1.0208e-17  4.1134e-21  1.0214e-17  4.1194e-21  1.0225e-17  4.1301e-21  1.0245e-17  4.1492e-21  1.0280e-17  4.1833e-21  1.0343e-17  4.2440e-21  1.0455e-17  4.3529e-21  1.0653e-17  4.5491e-21  1.1006e-17  4.9061e-21  1.1634e-17  5.5670e-21  1.2750e-17
      6.15  4.1057e-21  1.1444e-17  4.1057e-21  1.1444e-17  4.1058e-21  1.1444e-17  4.1059e-21  1.1445e-17  4.1061e-21  1.1445e-17  4.1064e-21  1.1446e-17  4.1070e-21  1.1447e-17  4.1081e-21  1.1449e-17  4.1099e-21  1.1453e-17  4.1132e-21  1.1460e-17  4.1192e-21  1.1473e-17  4.1297e-21  1.1495e-17  4.1484e-21  1.1535e-17  4.1817e-21  1.1605e-17  4.2413e-21  1.1730e-17  4.3480e-21  1.1953e-17  4.5401e-21  1.2349e-17  4.8893e-21  1.3053e-17  5.5343e-21  1.4305e-17
      6.20  4.1057e-21  1.2841e-17  4.1057e-21  1.2841e-17  4.1058e-21  1.2841e-17  4.1059e-21  1.2841e-17  4.1061e-21  1.2842e-17  4.1064e-21  1.2842e-17  4.1070e-21  1.2844e-17  4.1080e-21  1.2846e-17  4.1098e-21  1.2851e-17  4.1131e-21  1.2859e-17  4.1189e-21  1.2873e-17  4.1292e-21  1.2898e-17  4.1476e-21  1.2942e-17  4.1803e-21  1.3021e-17  4.2388e-21  1.3162e-17  4.3435e-21  1.3411e-17  4.5318e-21  1.3856e-17  4.8737e-21  1.4646e-17  5.5039e-21  1.6051e-17
      6.25  4.1057e-21  1.4407e-17  4.1057e-21  1.4408e-17  4.1058e-21  1.4408e-17  4.1059e-21  1.4408e-17  4.1060e-21  1.4408e-17  4.1064e-21  1.4409e-17  4.1069e-21  1.4411e-17  4.1079e-21  1.4414e-17  4.1097e-21  1.4419e-17  4.1129e-21  1.4428e-17  4.1186e-21  1.4443e-17  4.1288e-21  1.4471e-17  4.1469e-21  1.4521e-17  4.1790e-21  1.4610e-17  4.2365e-21  1.4768e-17  4.3392e-21  1.5048e-17  4.5241e-21  1.5546e-17  4.8592e-21  1.6433e-17  5.4757e-21  1.8009e-17
      6.30  4.1057e-21  1.6165e-17  4.1057e-21  1.6166e-17  4.1057e-21  1.6166e-17  4.1058e-21  1.6166e-17  4.1060e-21  1.6167e-17  4.1063e-21  1.6168e-17  4.1069e-21  1.6169e-17  4.1079e-21  1.6173e-17  4.1097e-21  1.6178e-17  4.1128e-21  1.6188e-17  4.1184e-21  1.6206e-17  4.1284e-21  1.6237e-17  4.1462e-21  1.6293e-17  4.1778e-21  1.6393e-17  4.2343e-21  1.6569e-17  4.3353e-21  1.6884e-17  4.5169e-21  1.7443e-17  4.8457e-21  1.8438e-17  5.4494e-21  2.0207e-17
      6.35  4.1056e-21  1.8138e-17  4.1057e-21  1.8138e-17  4.1057e-21  1.8138e-17  4.1058e-21  1.8139e-17  4.1060e-21  1.8139e-17  4.1063e-21  1.8140e-17  4.1069e-21  1.8142e-17  4.1078e-21  1.8146e-17  4.1096e-21  1.8152e-17  4.1127e-21  1.8163e-17  4.1182e-21  1.8183e-17  4.1280e-21  1.8218e-17  4.1455e-21  1.8281e-17  4.1767e-21  1.8393e-17  4.2323e-21  1.8591e-17  4.3317e-21  1.8944e-17  4.5102e-21  1.9572e-17  4.8332e-21  2.0688e-17  5.4251e-21  2.2672e-17
      6.40  4.1056e-21  2.0351e-17  4.1057e-21  2.0351e-17  4.1057e-21  2.0351e-17  4.1058e-21  2.0352e-17  4.1060e-21  2.0353e-17  4.1063e-21  2.0354e-17  4.1068e-21  2.0356e-17  4.1078e-21  2.0360e-17  4.1095e-21  2.0367e-17  4.1126e-21  2.0380e-17  4.1180e-21  2.0402e-17  4.1277e-21  2.0441e-17  4.1449e-21  2.0512e-17  4.1757e-21  2.0637e-17  4.2304e-21  2.0860e-17  4.3283e-21  2.1256e-17  4.5040e-21  2.1960e-17  4.8216e-21  2.3212e-17  5.4025e-21  2.5439e-17
      6.45  4.1056e-21  2.2834e-17  4.1056e-21  2.2834e-17  4.1057e-21  2.2835e-17  4.1058e-21  2.2835e-17  4.1060e-21  2.2836e-17  4.1063e-21  2.2837e-17  4.1068e-21  2.2840e-17  4.1078e-21  2.2844e-17  4.1095e-21  2.2852e-17  4.1125e-21  2.2866e-17  4.1178e-21  2.2891e-17  4.1274e-21  2.2936e-17  4.1444e-21  2.3015e-17  4.1747e-21  2.3155e-17  4.2287e-21  2.3405e-17  4.3252e-21  2.3849e-17  4.4983e-21  2.4639e-17  4.8108e-21  2.6044e-17  5.3815e-21  2.8543e-17
      6.50  4.1056e-21  2.5621e-17  4.1056e-21  2.5621e-17  4.1057e-21  2.5621e-17  4.1058e-21  2.5621e-17  4.1060e-21  2.5622e-17  4.1063e-21  2.5624e-17  4.1068e-21  2.5627e-17  4.1077e-21  2.5632e-17  4.1094e-21  2.5641e-17  4.1124e-21  2.5656e-17  4.1177e-21  2.5684e-17  4.1271e-21  2.5734e-17  4.1439e-21  2.5823e-17  4.1738e-21  2.5981e-17  4.2271e-21  2.6261e-17  4.3223e-21  2.6759e-17  4.4930e-21  2.7646e-17  4.8008e-21  2.9222e-17  5.3620e-21  3.2026e-17
      6.55  4.1056e-21  2.8747e-17  4.1056e-21  2.8747e-17  4.1057e-21  2.8747e-17  4.1058e-21  2.8748e-17  4.1059e-21  2.8749e-17  4.1062e-21  2.8750e-17  4.1068e-21  2.8754e-17  4.1077e-21  2.8759e-17  4.1093e-21  2.8769e-17  4.1123e-21  2.8787e-17  4.1175e-21  2.8818e-17  4.1268e-21  2.8874e-17  4.1434e-21  2.8974e-17  4.1730e-21  2.9151e-17  4.2256e-21  2.9465e-17  4.3196e-21  3.0024e-17  4.4880e-21  3.1019e-17  4.7916e-21  3.2788e-17  5.3440e-21  3.5933e-17
      6.60  4.1056e-21  3.2254e-17  4.1056e-21  3.2255e-17  4.1057e-21  3.2255e-17  4.1058e-21  3.2255e-17  4.1059e-21  3.2257e-17  4.1062e-21  3.2259e-17  4.1067e-21  3.2262e-17  4.1077e-21  3.2268e-17  4.1093e-21  3.2280e-17  4.1122e-21  3.2299e-17  4.1174e-21  3.2335e-17  4.1266e-21  3.2397e-17  4.1430e-21  3.2509e-17  4.1722e-21  3.2708e-17  4.2242e-21  3.3060e-17  4.3171e-21  3.3688e-17  4.4835e-21  3.4804e-17  4.7830e-21  3.6789e-17  5.3273e-21  4.0318e-17
      6.65  4.1056e-21  3.6190e-17  4.1056e-21  3.6190e-17  4.1057e-21  3.6191e-17  4.1058e-21  3.6191e-17  4.1059e-21  3.6192e-17  4.1062e-21  3.6195e-17  4.1067e-21  3.6199e-17  4.1076e-21  3.6206e-17  4.1093e-21  3.6218e-17  4.1121e-21  3.6241e-17  4.1173e-21  3.6280e-17  4.1264e-21  3.6351e-17  4.1426e-21  3.6476e-17  4.1715e-21  3.6698e-17  4.2229e-21  3.7094e-17  4.3148e-21  3.7799e-17  4.4792e-21  3.9051e-17  4.7750e-21  4.1278e-17  5.3118e-21  4.5237e-17
      6.70  4.1056e-21  4.0606e-17  4.1056e-21  4.0606e-17  4.1057e-21  4.0606e-17  4.1057e-21  4.0607e-17  4.1059e-21  4.0609e-17  4.1062e-21  4.0611e-17  4.1067e-21  4.0616e-17  4.1076e-21  4.0623e-17  4.1092e-21  4.0638e-17  4.1121e-21  4.0663e-17  4.1171e-21  4.0707e-17  4.1262e-21  4.0786e-17  4.1422e-21  4.0926e-17  4.1708e-21  4.1176e-17  4.2218e-21  4.1621e-17  4.3127e-21  4.2411e-17  4.4753e-21  4.3816e-17  4.7676e-21  4.6314e-17  5.2974e-21  5.0757e-17
      6.75  4.1056e-21  4.5560e-17  4.1056e-21  4.5561e-17  4.1057e-21  4.5561e-17  4.1057e-21  4.5562e-17  4.1059e-21  4.5564e-17  4.1062e-21  4.5566e-17  4.1067e-21  4.5571e-17  4.1076e-21  4.5580e-17  4.1092e-21  4.5596e-17  4.1120e-21  4.5624e-17  4.1170e-21  4.5674e-17  4.1260e-21  4.5763e-17  4.1419e-21  4.5920e-17  4.1702e-21  4.6201e-17  4.2207e-21  4.6699e-17  4.3107e-21  4.7586e-17  4.4717e-21  4.9162e-17  4.7608e-21  5.1965e-17  5.2841e-21  5.6951e-17
      6.80  4.1056e-21  5.1120e-17  4.1056e-21  5.1120e-17  4.1056e-21  5.1120e-17  4.1057e-21  5.1121e-17  4.1059e-21  5.1123e-17  4.1062e-21  5.1126e-17  4.1067e-21  5.1132e-17  4.1076e-21  5.1142e-17  4.1091e-21  5.1160e-17  4.1119e-21  5.1191e-17  4.1169e-21  5.1247e-17  4.1258e-21  5.1346e-17  4.1416e-21  5.1523e-17  4.1696e-21  5.1838e-17  4.2196e-21  5.2397e-17  4.3088e-21  5.3392e-17  4.4683e-21  5.5161e-17  4.7545e-21  5.8306e-17  5.2718e-21  6.3900e-17
      6.85  4.1056e-21  5.7357e-17  4.1056e-21  5.7358e-17  4.1056e-21  5.7358e-17  4.1057e-21  5.7359e-17  4.1059e-21  5.7361e-17  4.1062e-21  5.7365e-17  4.1067e-21  5.7371e-17  4.1075e-21  5.7382e-17  4.1091e-21  5.7402e-17  4.1119e-21  5.7437e-17  4.1168e-21  5.7500e-17  4.1256e-21  5.7612e-17  4.1413e-21  5.7810e-17  4.1691e-21  5.8163e-17  4.2187e-21  5.8791e-17  4.3071e-21  5.9907e-17  4.4652e-21  6.1891e-17  4.7487e-21  6.5421e-17  5.2604e-21  7.1697e-17
      6.90  4.1056e-21  6.4356e-17  4.1056e-21  6.4356e-17  4.1056e-21  6.4357e-17  4.1057e-21  6.4358e-17  4.1059e-21  6.4360e-17  4.1062e-21  6.4364e-17  4.1066e-21  6.4371e-17  4.1075e-21  6.4384e-17  4.1091e-21  6.4406e-17  4.1118e-21  6.4446e-17  4.1167e-21  6.4516e-17  4.1255e-21  6.4641e-17  4.1410e-21  6.4864e-17  4.1686e-21  6.5260e-17  4.2178e-21  6.5964e-17  4.3056e-21  6.7216e-17  4.4623e-21  6.9443e-17  4.7432e-21  7.3403e-17  5.2499e-21  8.0445e-17
      6.95  4.1056e-21  7.2208e-17  4.1056e-21  7.2209e-17  4.1056e-21  7.2210e-17  4.1057e-21  7.2211e-17  4.1059e-21  7.2214e-17  4.1062e-21  7.2218e-17  4.1066e-21  7.2226e-17  4.1075e-21  7.2240e-17  4.1090e-21  7.2265e-17  4.1118e-21  7.2309e-17  4.1167e-21  7.2388e-17  4.1253e-21  7.2529e-17  4.1407e-21  7.2779e-17  4.1682e-21  7.3223e-17  4.2170e-21  7.4013e-17  4.3041e-21  7.5418e-17  4.4596e-21  7.7917e-17  4.7382e-21  8.2360e-17  5.2401e-21  9.0261e-17
      7.00  4.1056e-21  8.1019e-17  4.1056e-21  8.1020e-17  4.1056e-21  8.1021e-17  4.1057e-21  8.1022e-17  4.1059e-21  8.1025e-17  4.1061e-21  8.1030e-17  4.1066e-21  8.1039e-17  4.1075e-21  8.1055e-17  4.1090e-21  8.1083e-17  4.1117e-21  8.1132e-17  4.1166e-21  8.1221e-17  4.1252e-21  8.1379e-17  4.1405e-21  8.1659e-17  4.1678e-21  8.2158e-17  4.2163e-21  8.3044e-17  4.3028e-21  8.4621e-17  4.4572e-21  8.7424e-17  4.7336e-21  9.2409e-17  5.2311e-21  1.0127e-16
      7.05  4.1056e-21  9.0905e-17  4.1056e-21  9.0906e-17  4.1056e-21  9.0907e-17  4.1057e-21  9.0908e-17  4.1059e-21  9.0911e-17  4.1061e-21  9.0917e-17  4.1066e-21  9.0927e-17  4.1075e-21  9.0945e-17  4.1090e-21  9.0976e-17  4.1117e-21  9.1032e-17  4.1165e-21  9.1132e-17  4.1251e-21  9.1308e-17  4.1403e-21  9.1623e-17  4.1674e-21  9.2182e-17  4.2156e-21  9.3177e-17  4.3016e-21  9.4946e-17  4.4549e-21  9.8091e-17  4.7294e-21  1.0368e-16  5.2228e-21  1.1363e-16
      7.10  4.1056e-21  1.0200e-16  4.1056e-21  1.0200e-16  4.1056e-21  1.0200e-16  4.1057e-21  1.0200e-16  4.1059e-21  1.0200e-16  4.1061e-21  1.0201e-16  4.1066e-21  1.0202e-16  4.1075e-21  1.0204e-16  4.1090e-21  1.0208e-16  4.1117e-21  1.0214e-16  4.1165e-21  1.0225e-16  4.1250e-21  1.0245e-16  4.1401e-21  1.0280e-16  4.1670e-21  1.0343e-16  4.2150e-21  1.0455e-16  4.3004e-21  1.0653e-16  4.4528e-21  1.1006e-16  4.7254e-21  1.1634e-16  5.2151e-21  1.2750e-16
      7.15  4.1056e-21  1.1444e-16  4.1056e-21  1.1444e-16  4.1056e-21  1.1444e-16  4.1057e-21  1.1445e-16  4.1059e-21  1.1445e-16  4.1061e-21  1.1446e-16  4.1066e-21  1.1447e-16  4.1075e-21  1.1449e-16  4.1090e-21  1.1453e-16  4.1116e-21  1.1460e-16  4.1164e-21  1.1473e-16  4.1249e-21  1.1495e-16  4.1399e-21  1.1535e-16  4.1667e-21  1.1605e-16  4.2144e-21  1.1730e-16  4.2994e-21  1.1953e-16  4.4509e-21  1.2349e-16  4.7218e-21  1.3053e-16  5.2081e-21  1.4305e-16
      7.20  4.1055e-21  1.2841e-16  4.1056e-21  1.2841e-16  4.1056e-21  1.2841e-16  4.1057e-21  1.2841e-16  4.1059e-21  1.2842e-16  4.1061e-21  1.2842e-16  4.1066e-21  1.2844e-16  4.1074e-21  1.2846e-16  4.1089e-21  1.2851e-16  4.1116e-21  1.2859e-16  4.1163e-21  1.2873e-16  4.1248e-21  1.2898e-16  4.1397e-21  1.2942e-16  4.1664e-21  1.3021e-16  4.2139e-21  1.3162e-16  4.2984e-21  1.3411e-16  4.4491e-21  1.3856e-16  4.7184e-21  1.4646e-16  5.2015e-21  1.6051e-16
      7.25  4.1055e-21  1.4407e-16  4.1056e-21  1.4408e-16  4.1056e-21  1.4408e-16  4.1057e-21  1.4408e-16  4.1059e-21  1.4408e-16  4.1061e-21  1.4409e-16  4.1066e-21  1.4411e-16  4.1074e-21  1.4414e-16  4.1089e-21  1.4419e-16  4.1116e-21  1.4428e-16  4.1163e-21  1.4443e-16  4.1247e-21  1.4471e-16  4.1396e-21  1.4521e-16  4.1661e-21  1.4610e-16  4.2134e-21  1.4768e-16  4.2975e-21  1.5048e-16  4.4475e-21  1.5546e-16  4.7153e-21  1.6433e-16  5.1955e-21  1.8009e-16
      7.30  4.1055e-21  1.6165e-16  4.1056e-21  1.6166e-16  4.1056e-21  1.6166e-16  4.1057e-21  1.6166e-16  4.1059e-21  1.6167e-16  4.1061e-21  1.6168e-16  4.1066e-21  1.6169e-16  4.1074e-21  1.6173e-16  4.1089e-21  1.6178e-16  4.1115e-21  1.6188e-16  4.1162e-21  1.6206e-16  4.1246e-21  1.6237e-16  4.1395e-21  1.6293e-16  4.1659e-21  1.6393e-16  4.2129e-21  1.6569e-16  4.2967e-21  1.6884e-16  4.4459e-21  1.7443e-16  4.7125e-21  1.8438e-16  5.1900e-21  2.0207e-16
      7.35  4.1055e-21  1.8138e-16  4.1056e-21  1.8138e-16  4.1056e-21  1.8138e-16  4.1057e-21  1.8139e-16  4.1058e-21  1.8139e-16  4.1061e-21  1.8140e-16  4.1066e-21  1.8142e-16  4.1074e-21  1.8146e-16  4.1089e-21  1.8152e-16  4.1115e-21  1.8163e-16  4.1162e-21  1.8183e-16  4.1245e-21  1.8218e-16  4.1393e-21  1.8281e-16  4.1656e-21  1.8393e-16  4.2125e-21  1.8591e-16  4.2959e-21  1.8944e-16  4.4445e-21  1.9572e-16  4.7099e-21  2.0688e-16  5.1849e-21  2.2673e-16
      7.40  4.1055e-21  2.0351e-16  4.1056e-21  2.0351e-16  4.1056e-21  2.0351e-16  4.1057e-21  2.0352e-16  4.1058e-21  2.0353e-16  4.1061e-21  2.0354e-16  4.1066e-21  2.0356e-16  4.1074e-21  2.0360e-16  4.1089e-21  2.0367e-16  4.1115e-21  2.0380e-16  4.1162e-21  2.0402e-16  4.1245e-21  2.0441e-16  4.1392e-21  2.0512e-16  4.1654e-21  2.0637e-16  4.2121e-21  2.0860e-16  4.2952e-21  2.1256e-16  4.4433e-21  2.1960e-16  4.7075e-21  2.3212e-16  5.1802e-21  2.5439e-16
      7.45  4.1055e-21  2.2834e-16  4.1056e-21  2.2834e-16  4.1056e-21  2.2835e-16  4.1057e-21  2.2835e-16  4.1058e-21  2.2836e-16  4.1061e-21  2.2837e-16  4.1066e-21  2.2840e-16  4.1074e-21  2.2844e-16  4.1089e-21  2.2852e-16  4.1115e-21  2.2866e-16  4.1161e-21  2.2891e-16  4.1244e-21  2.2936e-16  4.1391e-21  2.3015e-16  4.1652e-21  2.3155e-16  4.2118e-21  2.3405e-16  4.2946e-21  2.3849e-16  4.4421e-21  2.4639e-16  4.7052e-21  2.6044e-16  5.1758e-21  2.8543e-16
      7.50  4.1055e-21  2.5620e-16  4.1056e-21  2.5621e-16  4.1056e-21  2.5621e-16  4.1057e-21  2.5621e-16  4.1058e-21  2.5622e-16  4.1061e-21  2.5624e-16  4.1066e-21  2.5627e-16  4.1074e-21  2.5632e-16  4.1089e-21  2.5641e-16  4.1115e-21  2.5656e-16  4.1161e-21  2.5684e-16  4.1243e-21  2.5734e-16  4.1390e-21  2.5823e-16  4.1651e-21  2.5981e-16  4.2114e-21  2.6261e-16  4.2940e-21  2.6759e-16  4.4410e-21  2.7646e-16  4.7032e-21  2.9222e-16  5.1719e-21  3.2026e-16
      7.55  4.1055e-21  2.8747e-16  4.1056e-21  2.8747e-16  4.1056e-21  2.8747e-16  4.1057e-21  2.8748e-16  4.1058e-21  2.8749e-16  4.1061e-21  2.8750e-16  4.1066e-21  2.8754e-16  4.1074e-21  2.8759e-16  4.1088e-21  2.8769e-16  4.1114e-21  2.8787e-16  4.1161e-21  2.8818e-16  4.1243e-21  2.8874e-16  4.1389e-21  2.8974e-16  4.1649e-21  2.9151e-16  4.2111e-21  2.9465e-16  4.2934e-21  3.0025e-16  4.4400e-21  3.1019e-16  4.7013e-21  3.2788e-16  5.1682e-21  3.5934e-16
      7.60  4.1055e-21  3.2254e-16  4.1056e-21  3.2254e-16  4.1056e-21  3.2255e-16  4.1057e-21  3.2255e-16  4.1058e-21  3.2257e-16  4.1061e-21  3.2259e-16  4.1066e-21  3.2262e-16  4.1074e-21  3.2268e-16  4.1088e-21  3.2280e-16  4.1114e-21  3.2299e-16  4.1160e-21  3.2335e-16  4.1242e-21  3.2397e-16  4.1388e-21  3.2509e-16  4.1647e-21  3.2708e-16  4.2109e-21  3.3060e-16  4.2929e-21  3.3688e-16  4.4391e-21  3.4804e-16  4.6996e-21  3.6789e-16  5.1649e-21  4.0318e-16
      7.65  4.1055e-21  3.6190e-16  4.1056e-21  3.6190e-16  4.1056e-21  3.6191e-16  4.1057e-21  3.6191e-16  4.1058e-21  3.6192e-16  4.1061e-21  3.6195e-16  4.1066e-21  3.6199e-16  4.1074e-21  3.6206e-16  4.1088e-21  3.6218e-16  4.1114e-21  3.6241e-16  4.1160e-21  3.6280e-16  4.1242e-21  3.6351e-16  4.1387e-21  3.6476e-16  4.1646e-21  3.6698e-16  4.2106e-21  3.7094e-16  4.2925e-21  3.7799e-16  4.4382e-21  3.9051e-16  4.6980e-21  4.1278e-16  5.1618e-21  4.5238e-16
      7.70  4.1055e-21  4.0606e-16  4.1056e-21  4.0606e-16  4.1056e-21  4.0606e-16  4.1057e-21  4.0607e-16  4.1058e-21  4.0609e-16  4.1061e-21  4.0611e-16  4.1066e-21  4.0616e-16  4.1074e-21  4.0623e-16  4.1088e-21  4.0638e-16  4.1114e-21  4.0663e-16  4.1160e-21  4.0707e-16  4.1241e-21  4.0786e-16  4.1387e-21  4.0926e-16  4.1645e-21  4.1176e-16  4.2104e-21  4.1621e-16  4.2921e-21  4.2411e-16  4.4375e-21  4.3816e-16  4.6966e-21  4.6314e-16  5.1590e-21  5.0757e-16
      7.75  4.1055e-21  4.5560e-16  4.1056e-21  4.5561e-16  4.1056e-21  4.5561e-16  4.1057e-21  4.5562e-16  4.1058e-21  4.5564e-16  4.1061e-21  4.5566e-16  4.1066e-21  4.5571e-16  4.1074e-21  4.5580e-16  4.1088e-21  4.5596e-16  4.1114e-21  4.5624e-16  4.1160e-21  4.5674e-16  4.1241e-21  4.5763e-16  4.1386e-21  4.5920e-16  4.1643e-21  4.6201e-16  4.2102e-21  4.6699e-16  4.2917e-21  4.7586e-16  4.4368e-21  4.9162e-16  4.6953e-21  5.1966e-16  5.1564e-21  5.6951e-16
      7.80  4.1055e-21  5.1120e-16  4.1056e-21  5.1120e-16  4.1056e-21  5.1120e-16  4.1057e-21  5.1121e-16  4.1058e-21  5.1123e-16  4.1061e-21  5.1126e-16  4.1066e-21  5.1132e-16  4.1074e-21  5.1142e-16  4.1088e-21  5.1160e-16  4.1114e-21  5.1191e-16  4.1159e-21  5.1247e-16  4.1241e-21  5.1346e-16  4.1385e-21  5.1523e-16  4.1642e-21  5.1838e-16  4.2100e-21  5.2397e-16  4.2913e-21  5.3392e-16  4.4361e-21  5.5161e-16  4.6941e-21  5.8306e-16  5.1541e-21  6.3900e-16
      7.85  4.1055e-21  5.7357e-16  4.1056e-21  5.7358e-16  4.1056e-21  5.7358e-16  4.1057e-21  5.7359e-16  4.1058e-21  5.7361e-16  4.1061e-21  5.7365e-16  4.1065e-21  5.7371e-16  4.1074e-21  5.7382e-16  4.1088e-21  5.7402e-16  4.1114e-21  5.7437e-16  4.1159e-21  5.7500e-16  4.1240e-21  5.7612e-16  4.1385e-21  5.7810e-16  4.1641e-21  5.8163e-16  4.2098e-21  5.8791e-16  4.2910e-21  5.9907e-16  4.4355e-21  6.1891e-16  4.6930e-21  6.5421e-16  5.1519e-21  7.1697e-16
      7.90  4.1055e-21  6.4356e-16  4.1056e-21  6.4356e-16  4.1056e-21  6.4357e-16  4.1057e-21  6.4358e-16  4.1058e-21  6.4360e-16  4.1061e-21  6.4364e-16  4.1065e-21  6.4371e-16  4.1074e-21  6.4384e-16  4.1088e-21  6.4406e-16  4.1114e-21  6.4446e-16  4.1159e-21  6.4516e-16  4.1240e-21  6.4641e-16  4.1384e-21  6.4864e-16  4.1640e-21  6.5260e-16  4.2096e-21  6.5964e-16  4.2907e-21  6.7217e-16  4.4350e-21  6.9443e-16  4.6920e-21  7.3403e-16  5.1500e-21  8.0445e-16
      7.95  4.1055e-21  7.2208e-16  4.1056e-21  7.2209e-16  4.1056e-21  7.2210e-16  4.1057e-21  7.2211e-16  4.1058e-21  7.2214e-16  4.1061e-21  7.2218e-16  4.1065e-21  7.2226e-16  4.1074e-21  7.2240e-16  4.1088e-21  7.2265e-16  4.1114e-21  7.2309e-16  4.1159e-21  7.2388e-16  4.1240e-21  7.2529e-16  4.1384e-21  7.2779e-16  4.1640e-21  7.3223e-16  4.2095e-21  7.4013e-16  4.2904e-21  7.5418e-16  4.4345e-21  7.7917e-16  4.6910e-21  8.2360e-16  5.1482e-21  9.0261e-16
      8.00  4.1055e-21  8.1019e-16  4.1056e-21  8.1020e-16  4.1056e-21  8.1021e-16  4.1057e-21  8.1022e-16  4.1058e-21  8.1025e-16  4.1061e-21  8.1030e-16  4.1065e-21  8.1039e-16  4.1074e-21  8.1055e-16  4.1088e-21  8.1083e-16  4.1113e-21  8.1132e-16  4.1159e-21  8.1221e-16  4.1240e-21  8.1379e-16  4.1383e-21  8.1659e-16  4.1639e-21  8.2158e-16  4.2093e-21  8.3044e-16  4.2902e-21  8.4621e-16  4.4341e-21  8.7424e-16  4.6902e-21  9.2409e-16  5.1465e-21  1.0127e-15
      8.05  4.1055e-21  9.0905e-16  4.1056e-21  9.0906e-16  4.1056e-21  9.0907e-16  4.1057e-21  9.0908e-16  4.1058e-21  9.0911e-16  4.1061e-21  9.0917e-16  4.1065e-21  9.0927e-16  4.1074e-21  9.0945e-16  4.1088e-21  9.0976e-16  4.1113e-21  9.1032e-16  4.1159e-21  9.1132e-16  4.1239e-21  9.1308e-16  4.1383e-21  9.1623e-16  4.1638e-21  9.2182e-16  4.2092e-21  9.3177e-16  4.2900e-21  9.4946e-16  4.4337e-21  9.8091e-16  4.6894e-21  1.0368e-15  5.1451e-21  1.1363e-15
      8.10  4.1055e-21  1.0200e-15  4.1056e-21  1.0200e-15  4.1056e-21  1.0200e-15  4.1057e-21  1.0200e-15  4.1058e-21  1.0200e-15  4.1061e-21  1.0201e-15  4.1065e-21  1.0202e-15  4.1073e-21  1.0204e-15  4.1088e-21  1.0208e-15  4.1113e-21  1.0214e-15  4.1159e-21  1.0225e-15  4.1239e-21  1.0245e-15  4.1383e-21  1.0280e-15  4.1638e-21  1.0343e-15  4.2091e-21  1.0455e-15  4.2898e-21  1.0653e-15  4.4333e-21  1.1006e-15  4.6887e-21  1.1634e-15  5.1437e-21  1.2750e-15
      8.15  4.1055e-21  1.1444e-15  4.1056e-21  1.1444e-15  4.1056e-21  1.1444e-15  4.1057e-21  1.1445e-15  4.1058e-21  1.1445e-15  4.1061e-21  1.1446e-15  4.1065e-21  1.1447e-15  4.1073e-21  1.1449e-15  4.1088e-21  1.1453e-15  4.1113e-21  1.1460e-15  4.1159e-21  1.1473e-15  4.1239e-21  1.1495e-15  4.1382e-21  1.1535e-15  4.1637e-21  1.1605e-15  4.2090e-21  1.1730e-15  4.2896e-21  1.1953e-15  4.4330e-21  1.2349e-15  4.6881e-21  1.3053e-15  5.1425e-21  1.4305e-15
      8.20  4.1055e-21  1.2841e-15  4.1056e-21  1.2841e-15  4.1056e-21  1.2841e-15  4.1057e-21  1.2841e-15  4.1058e-21  1.2842e-15  4.1061e-21  1.2842e-15  4.1065e-21  1.2844e-15  4.1073e-21  1.2846e-15  4.1088e-21  1.2851e-15  4.1113e-21  1.2859e-15  4.1158e-21  1.2873e-15  4.1239e-21  1.2898e-15  4.1382e-21  1.2942e-15  4.1637e-21  1.3021e-15  4.2089e-21  1.3162e-15  4.2894e-21  1.3411e-15  4.4327e-21  1.3856e-15  4.6876e-21  1.4646e-15  5.1414e-21  1.6051e-15
      8.25  4.1055e-21  1.4407e-15  4.1056e-21  1.4408e-15  4.1056e-21  1.4408e-15  4.1057e-21  1.4408e-15  4.1058e-21  1.4408e-15  4.1061e-21  1.4409e-15  4.1065e-21  1.4411e-15  4.1073e-21  1.4414e-15  4.1088e-21  1.4419e-15  4.1113e-21  1.4428e-15  4.1158e-21  1.4443e-15  4.1239e-21  1.4471e-15  4.1382e-21  1.4521e-15  4.1636e-21  1.4610e-15  4.2088e-21  1.4768e-15  4.2893e-21  1.5048e-15  4.4324e-21  1.5546e-15  4.6870e-21  1.6433e-15  5.1404e-21  1.8009e-15
      8.30  4.1055e-21  1.6165e-15  4.1056e-21  1.6166e-15  4.1056e-21  1.6166e-15  4.1057e-21  1.6166e-15  4.1058e-21  1.6167e-15  4.1061e-21  1.6168e-15  4.1065e-21  1.6169e-15  4.1073e-21  1.6173e-15  4.1088e-21  1.6178e-15  4.1113e-21  1.6188e-15  4.1158e-21  1.6206e-15  4.1239e-21  1.6237e-15  4.1382e-21  1.6293e-15  4.1636e-21  1.6393e-15  4.2088e-21  1.6569e-15  4.2892e-21  1.6884e-15  4.4321e-21  1.7443e-15  4.6866e-21  1.8438e-15  5.1395e-21  2.0207e-15
      8.35  4.1055e-21  1.8138e-15  4.1056e-21  1.8138e-15  4.1056e-21  1.8138e-15  4.1057e-21  1.8139e-15  4.1058e-21  1.8139e-15  4.1061e-21  1.8140e-15  4.1065e-21  1.8142e-15  4.1073e-21  1.8146e-15  4.1088e-21  1.8152e-15  4.1113e-21  1.8163e-15  4.1158e-21  1.8183e-15  4.1239e-21  1.8218e-15  4.1381e-21  1.8281e-15  4.1635e-21  1.8393e-15  4.2087e-21  1.8591e-15  4.2890e-21  1.8944e-15  4.4319e-21  1.9572e-15  4.6862e-21  2.0688e-15  5.1386e-21  2.2673e-15
      8.40  4.1055e-21  2.0351e-15  4.1056e-21  2.0351e-15  4.1056e-21  2.0351e-15  4.1057e-21  2.0352e-15  4.1058e-21  2.0353e-15  4.1061e-21  2.0354e-15  4.1065e-21  2.0356e-15  4.1073e-21  2.0360e-15  4.1088e-21  2.0367e-15  4.1113e-21  2.0380e-15  4.1158e-21  2.0402e-15  4.1238e-21  2.0441e-15  4.1381e-21  2.0512e-15  4.1635e-21  2.0637e-15  4.2086e-21  2.0860e-15  4.2889e-21  2.1256e-15  4.4317e-21  2.1960e-15  4.6858e-21  2.3212e-15  5.1379e-21  2.5439e-15
      8.45  4.1055e-21  2.2834e-15  4.1056e-21  2.2834e-15  4.1056e-21  2.2835e-15  4.1057e-21  2.2835e-15  4.1058e-21  2.2836e-15  4.1061e-21  2.2837e-15  4.1065e-21  2.2840e-15  4.1073e-21  2.2844e-15  4.1088e-21  2.2852e-15  4.1113e-21  2.2866e-15  4.1158e-21  2.2891e-15  4.1238e-21  2.2936e-15  4.1381e-21  2.3015e-15  4.1635e-21  2.3155e-15  4.2086e-21  2.3405e-15  4.2888e-21  2.3849e-15  4.4315e-21  2.4639e-15  4.6854e-21  2.6044e-15  5.1372e-21  2.8543e-15
      8.50  4.1055e-21  2.5621e-15  4.1056e-21  2.5621e-15  4.1056e-21  2.5621e-15  4.1057e-21  2.5621e-15  4.1058e-21  2.5622e-15  4.1061e-21  2.5624e-15  4.1065e-21  2.5627e-15  4.1073e-21  2.5632e-15  4.1088e-21  2.5641e-15  4.1113e-21  2.5656e-15  4.1158e-21  2.5684e-15  4.1238e-21  2.5734e-15  4.1381e-21  2.5823e-15  4.1634e-21  2.5981e-15  4.2085e-21  2.6261e-15  4.2887e-21  2.6759e-15  4.4314e-21  2.7646e-15  4.6851e-21  2.9222e-15  5.1366e-21  3.2026e-15
