# This was generated using Cloudy10 and the columns are ordered 
# as log10 of the fraction of the metallicity to the solar metallicity
# 'h_*_Z' and 'c_*_Z' stands for cooling and heating respectively 
# at * metalicity
#
# NOTE: This was generated separately from loop_coolingcurve_w_UV.py
#       using Output_metals_w_redshift.py.
#
# Redshift = 5.0
# hden = -5.5
#
#     temp   h_-3.00_Z   c_-3.00_Z   h_-2.75_Z   c_-2.75_Z   h_-2.50_Z   c_-2.50_Z   h_-2.25_Z   c_-2.25_Z   h_-2.00_Z   c_-2.00_Z   h_-1.75_Z   c_-1.75_Z   h_-1.50_Z   c_-1.50_Z   h_-1.25_Z   c_-1.25_Z   h_-1.00_Z   c_-1.00_Z   h_-0.75_Z   c_-0.75_Z   h_-0.50_Z   c_-0.50_Z   h_-0.25_Z   c_-0.25_Z    h_0.00_Z    c_0.00_Z    h_0.25_Z    c_0.25_Z    h_0.50_Z    c_0.50_Z    h_0.75_Z    c_0.75_Z    h_1.00_Z    c_1.00_Z    h_1.25_Z    c_1.25_Z    h_1.50_Z    c_1.50_Z 
      4.00  9.7240e-24  2.7612e-23  9.7338e-24  2.7615e-23  9.7514e-24  2.7620e-23  9.7827e-24  2.7629e-23  9.8383e-24  2.7644e-23  9.9372e-24  2.7672e-23  1.0113e-23  2.7721e-23  1.0425e-23  2.7808e-23  1.0981e-23  2.7964e-23  1.1967e-23  2.8241e-23  1.3718e-23  2.8735e-23  1.6824e-23  2.9616e-23  2.2323e-23  3.1191e-23  3.2046e-23  3.4020e-23  4.9325e-23  3.9137e-23  8.0268e-23  4.8500e-23  1.3642e-22  6.5962e-23  2.3987e-22  9.9530e-23  4.3505e-22  1.6711e-22
      4.05  8.9935e-24  3.0900e-23  9.0030e-24  3.0903e-23  9.0199e-24  3.0908e-23  9.0500e-24  3.0916e-23  9.1034e-24  3.0931e-23  9.1984e-24  3.0957e-23  9.3672e-24  3.1004e-23  9.6674e-24  3.1087e-23  1.0201e-23  3.1236e-23  1.1149e-23  3.1500e-23  1.2832e-23  3.1971e-23  1.5817e-23  3.2810e-23  2.1104e-23  3.4312e-23  3.0458e-23  3.7010e-23  4.7073e-23  4.1891e-23  7.6830e-23  5.0825e-23  1.3083e-22  6.7499e-23  2.3047e-22  9.9582e-23  4.1856e-22  1.6432e-22
      4.10  8.3144e-24  3.4585e-23  8.3236e-24  3.4588e-23  8.3398e-24  3.4593e-23  8.3687e-24  3.4601e-23  8.4200e-24  3.4615e-23  8.5112e-24  3.4640e-23  8.6733e-24  3.4685e-23  8.9615e-24  3.4766e-23  9.4738e-24  3.4908e-23  1.0384e-23  3.5163e-23  1.2000e-23  3.5615e-23  1.4868e-23  3.6423e-23  1.9950e-23  3.7868e-23  2.8942e-23  4.0463e-23  4.4910e-23  4.5158e-23  7.3510e-23  5.3756e-23  1.2541e-22  6.9810e-23  2.2136e-22  1.0072e-22  4.0254e-22  1.6322e-22
      4.15  7.6834e-24  3.8717e-23  7.6921e-24  3.8720e-23  7.7077e-24  3.8724e-23  7.7354e-24  3.8732e-23  7.7846e-24  3.8746e-23  7.8722e-24  3.8770e-23  8.0278e-24  3.8814e-23  8.3044e-24  3.8892e-23  8.7962e-24  3.9031e-23  9.6701e-24  3.9279e-23  1.1222e-23  3.9720e-23  1.3976e-23  4.0507e-23  1.8857e-23  4.1915e-23  2.7499e-23  4.4444e-23  4.2838e-23  4.9021e-23  7.0314e-23  5.7402e-23  1.2016e-22  7.3058e-23  2.1252e-22  1.0321e-22  3.8697e-22  1.6430e-22
      4.20  7.0970e-24  4.3349e-23  7.1055e-24  4.3351e-23  7.1204e-24  4.3356e-23  7.1470e-24  4.3363e-23  7.1943e-24  4.3377e-23  7.2783e-24  4.3402e-23  7.4277e-24  4.3445e-23  7.6932e-24  4.3523e-23  8.1653e-24  4.3661e-23  9.0041e-24  4.3907e-23  1.0494e-23  4.4345e-23  1.3139e-23  4.5127e-23  1.7828e-23  4.6527e-23  2.6132e-23  4.9041e-23  4.0866e-23  5.3593e-23  6.7259e-23  6.1928e-23  1.1514e-22  7.7502e-23  2.0401e-22  1.0751e-22  3.7196e-22  1.6842e-22
      4.25  6.5526e-24  4.8542e-23  6.5606e-24  4.8544e-23  6.5750e-24  4.8549e-23  6.6005e-24  4.8557e-23  6.6459e-24  4.8571e-23  6.7266e-24  4.8596e-23  6.8701e-24  4.8641e-23  7.1251e-24  4.8720e-23  7.5785e-24  4.8861e-23  8.3842e-24  4.9112e-23  9.8154e-24  4.9560e-23  1.2356e-23  5.0360e-23  1.6862e-23  5.1791e-23  2.4846e-23  5.4365e-23  3.9007e-23  5.9027e-23  6.4379e-23  6.7565e-23  1.1044e-22  8.3517e-23  1.9596e-22  1.1429e-22  3.5773e-22  1.7687e-22
      4.30  6.0472e-24  5.4367e-23  6.0550e-24  5.4370e-23  6.0688e-24  5.4375e-23  6.0934e-24  5.4383e-23  6.1370e-24  5.4398e-23  6.2146e-24  5.4425e-23  6.3525e-24  5.4472e-23  6.5977e-24  5.4556e-23  7.0336e-24  5.4706e-23  7.8084e-24  5.4973e-23  9.1848e-24  5.5448e-23  1.1629e-23  5.6298e-23  1.5964e-23  5.7819e-23  2.3649e-23  6.0557e-23  3.7275e-23  6.5526e-23  6.1696e-23  7.4624e-23  1.0606e-22  9.1625e-23  1.8847e-22  1.2447e-22  3.4451e-22  1.9144e-22
      4.35  5.5783e-24  6.0900e-23  5.5858e-24  6.0902e-23  5.5991e-24  6.0908e-23  5.6227e-24  6.0917e-23  5.6647e-24  6.0934e-23  5.7395e-24  6.0963e-23  5.8723e-24  6.1016e-23  6.1085e-24  6.1109e-23  6.5283e-24  6.1275e-23  7.2746e-24  6.1571e-23  8.6006e-24  6.2099e-23  1.0955e-23  6.3042e-23  1.5134e-23  6.4733e-23  2.2544e-23  6.7781e-23  3.5681e-23  7.3328e-23  5.9227e-23  8.3482e-23  1.0205e-22  1.0247e-22  1.8162e-22  1.3921e-22  3.3247e-22  2.1438e-22
      4.40  5.1433e-24  6.8225e-23  5.1505e-24  6.8229e-23  5.1633e-24  6.8235e-23  5.1861e-24  6.8246e-23  5.2267e-24  6.8264e-23  5.2988e-24  6.8299e-23  5.4270e-24  6.8360e-23  5.6550e-24  6.8468e-23  6.0602e-24  6.8661e-23  6.7806e-24  6.9004e-23  8.0608e-24  6.9616e-23  1.0335e-23  7.0710e-23  1.4371e-23  7.2675e-23  2.1531e-23  7.6225e-23  3.4231e-23  8.2701e-23  5.6976e-23  9.4568e-23  9.8413e-23  1.1677e-22  1.7544e-22  1.5983e-22  3.2166e-22  2.4826e-22
      4.45  4.7398e-24  7.6441e-23  4.7468e-24  7.6445e-23  4.7592e-24  7.6453e-23  4.7813e-24  7.6466e-23  4.8205e-24  7.6489e-23  4.8903e-24  7.6530e-23  5.0143e-24  7.6603e-23  5.2348e-24  7.6733e-23  5.6269e-24  7.6964e-23  6.3238e-24  7.7376e-23  7.5624e-24  7.8112e-23  9.7629e-24  7.9428e-23  1.3670e-23  8.1794e-23  2.0604e-23  8.6077e-23  3.2911e-23  9.3913e-23  5.4930e-23  1.0830e-22  9.5132e-23  1.3523e-22  1.6989e-22  1.8758e-22  3.1202e-22  2.9553e-22
      4.50  4.3657e-24  8.5656e-23  4.3725e-24  8.5661e-23  4.3845e-24  8.5670e-23  4.4059e-24  8.5686e-23  4.4440e-24  8.5715e-23  4.5116e-24  8.5766e-23  4.6318e-24  8.5855e-23  4.8456e-24  8.6016e-23  5.2256e-24  8.6302e-23  5.9013e-24  8.6810e-23  7.1022e-24  8.7719e-23  9.2360e-24  8.9346e-23  1.3026e-23  9.2274e-23  1.9755e-23  9.7584e-23  3.1703e-23  1.0733e-22  5.3064e-23  1.2526e-22  9.2185e-23  1.5882e-22  1.6492e-22  2.2427e-22  3.0345e-22  3.5987e-22
      4.55  4.0191e-24  9.5996e-23  4.0257e-24  9.6001e-23  4.0374e-24  9.6013e-23  4.0582e-24  9.6033e-23  4.0951e-24  9.6068e-23  4.1607e-24  9.6131e-23  4.2774e-24  9.6243e-23  4.4850e-24  9.6442e-23  4.8540e-24  9.6797e-23  5.5100e-24  9.7429e-23  6.6762e-24  9.8559e-23  8.7486e-24  1.0058e-22  1.2430e-23  1.0423e-22  1.8969e-23  1.1084e-22  3.0587e-23  1.2301e-22  5.1344e-23  1.4549e-22  8.9476e-23  1.8749e-22  1.6037e-22  2.6965e-22  2.9565e-22  4.4056e-22
      4.60  3.6979e-24  1.0759e-22  3.7043e-24  1.0760e-22  3.7156e-24  1.0761e-22  3.7358e-24  1.0764e-22  3.7717e-24  1.0768e-22  3.8355e-24  1.0776e-22  3.9490e-24  1.0790e-22  4.1507e-24  1.0815e-22  4.5093e-24  1.0859e-22  5.1470e-24  1.0937e-22  6.2806e-24  1.1077e-22  8.2953e-24  1.1328e-22  1.1875e-23  1.1780e-22  1.8236e-23  1.2601e-22  2.9542e-23  1.4114e-22  4.9736e-23  1.6922e-22  8.6954e-23  2.2156e-22  1.5612e-22  3.2431e-22  2.8837e-22  5.3885e-22
      4.65  3.4003e-24  1.2061e-22  3.4065e-24  1.2062e-22  3.4175e-24  1.2063e-22  3.4372e-24  1.2066e-22  3.4721e-24  1.2072e-22  3.5341e-24  1.2081e-22  3.6444e-24  1.2098e-22  3.8406e-24  1.2129e-22  4.1893e-24  1.2183e-22  4.8094e-24  1.2280e-22  5.9117e-24  1.2452e-22  7.8712e-24  1.2762e-22  1.1354e-23  1.3320e-22  1.7543e-23  1.4335e-22  2.8550e-23  1.6207e-22  4.8253e-23  1.9690e-22  8.4552e-23  2.6184e-22  1.5205e-22  3.8970e-22  2.8139e-22  6.5765e-22
      4.70  3.1246e-24  1.3521e-22  3.1306e-24  1.3522e-22  3.1414e-24  1.3524e-22  3.1605e-24  1.3528e-22  3.1944e-24  1.3535e-22  3.2547e-24  1.3546e-22  3.3619e-24  1.3567e-22  3.5526e-24  1.3604e-22  3.8917e-24  1.3670e-22  4.4946e-24  1.3788e-22  5.5665e-24  1.3998e-22  7.4719e-24  1.4375e-22  1.0859e-23  1.5054e-22  1.6880e-23  1.6290e-22  2.7594e-23  1.8573e-22  4.6821e-23  2.2830e-22  8.2219e-23  3.0775e-22  1.4812e-22  4.6461e-22  2.7454e-22  7.9485e-22
      4.75  2.8692e-24  1.5161e-22  2.8750e-24  1.5163e-22  2.8855e-24  1.5165e-22  2.9040e-24  1.5170e-22  2.9370e-24  1.5178e-22  2.9956e-24  1.5192e-22  3.0998e-24  1.5216e-22  3.2850e-24  1.5261e-22  3.6145e-24  1.5340e-22  4.2003e-24  1.5481e-22  5.2419e-24  1.5733e-22  7.0936e-24  1.6185e-22  1.0386e-23  1.7000e-22  1.6240e-23  1.8484e-22  2.6661e-23  2.1225e-22  4.5418e-23  2.6325e-22  7.9920e-23  3.5882e-22  1.4422e-22  5.4819e-22  2.6772e-22  9.4910e-22
      4.80  2.6324e-24  1.7005e-22  2.6381e-24  1.7007e-22  2.6482e-24  1.7010e-22  2.6662e-24  1.7015e-22  2.6982e-24  1.7024e-22  2.7551e-24  1.7041e-22  2.8562e-24  1.7071e-22  3.0360e-24  1.7123e-22  3.3558e-24  1.7216e-22  3.9244e-24  1.7383e-22  4.9354e-24  1.7681e-22  6.7330e-24  1.8214e-22  9.9293e-24  1.9177e-22  1.5615e-23  2.0929e-22  2.5741e-23  2.4169e-22  4.4015e-23  3.0175e-22  7.7603e-23  4.1479e-22  1.4027e-22  6.3937e-22  2.6085e-22  1.1169e-21
      4.85  2.4122e-24  1.9080e-22  2.4177e-24  1.9082e-22  2.4275e-24  1.9085e-22  2.4450e-24  1.9092e-22  2.4760e-24  1.9102e-22  2.5311e-24  1.9122e-22  2.6292e-24  1.9156e-22  2.8035e-24  1.9217e-22  3.1134e-24  1.9325e-22  3.6646e-24  1.9519e-22  4.6447e-24  1.9865e-22  6.3873e-24  2.0485e-22  9.4864e-24  2.1604e-22  1.5000e-23  2.3641e-22  2.4825e-23  2.7407e-22  4.2600e-23  3.4366e-22  7.5245e-23  4.7517e-22  1.3622e-22  7.3713e-22  2.5373e-22  1.2965e-21
      4.90  2.2063e-24  2.1416e-22  2.2116e-24  2.1418e-22  2.2211e-24  2.1422e-22  2.2380e-24  2.1429e-22  2.2680e-24  2.1442e-22  2.3214e-24  2.1464e-22  2.4162e-24  2.1503e-22  2.5849e-24  2.1573e-22  2.8849e-24  2.1697e-22  3.4184e-24  2.1919e-22  4.3670e-24  2.2315e-22  6.0539e-24  2.3024e-22  9.0540e-24  2.4304e-22  1.4393e-23  2.6634e-22  2.3910e-23  3.0941e-22  4.1166e-23  3.8877e-22  7.2837e-23  5.3928e-22  1.3204e-22  8.3980e-22  2.4632e-22  1.4838e-21
      4.95  2.0114e-24  2.4048e-22  2.0165e-24  2.4050e-22  2.0257e-24  2.4055e-22  2.0420e-24  2.4063e-22  2.0710e-24  2.4077e-22  2.1226e-24  2.4101e-22  2.2143e-24  2.4146e-22  2.3773e-24  2.4224e-22  2.6673e-24  2.4365e-22  3.1828e-24  2.4614e-22  4.0996e-24  2.5061e-22  5.7300e-24  2.5861e-22  8.6298e-24  2.7303e-22  1.3791e-23  2.9927e-22  2.2994e-23  3.4778e-22  3.9715e-23  4.3687e-22  7.0384e-23  6.0644e-22  1.2775e-22  9.4566e-22  2.3862e-22  1.6749e-21
      5.00  1.8236e-24  2.7012e-22  1.8286e-24  2.7015e-22  1.8375e-24  2.7020e-22  1.8532e-24  2.7028e-22  1.8812e-24  2.7044e-22  1.9310e-24  2.7071e-22  2.0195e-24  2.7121e-22  2.1768e-24  2.7208e-22  2.4567e-24  2.7364e-22  2.9543e-24  2.7642e-22  3.8391e-24  2.8138e-22  5.4126e-24  2.9026e-22  8.2113e-24  3.0628e-22  1.3193e-23  3.3541e-22  2.2078e-23  3.8924e-22  3.8254e-23  4.8781e-22  6.7897e-23  6.7602e-22  1.2338e-22  1.0530e-21  2.3069e-22  1.8654e-21
      5.05  1.6389e-24  3.0347e-22  1.6437e-24  3.0350e-22  1.6522e-24  3.0355e-22  1.6674e-24  3.0365e-22  1.6944e-24  3.0382e-22  1.7424e-24  3.0412e-22  1.8277e-24  3.0466e-22  1.9794e-24  3.0562e-22  2.2492e-24  3.0733e-22  2.7289e-24  3.1037e-22  3.5819e-24  3.1581e-22  5.0987e-24  3.2555e-22  7.7966e-24  3.4311e-22  1.2598e-23  3.7502e-22  2.1181e-23  4.3370e-22  3.6789e-23  5.4152e-22  6.5398e-23  7.4750e-22  1.1895e-22  1.1605e-21  2.2260e-22  2.0518e-21
      5.10  1.4540e-24  3.4090e-22  1.4586e-24  3.4093e-22  1.4668e-24  3.4099e-22  1.4815e-24  3.4109e-22  1.5075e-24  3.4127e-22  1.5537e-24  3.4160e-22  1.6359e-24  3.4219e-22  1.7820e-24  3.4323e-22  2.0419e-24  3.4508e-22  2.5040e-24  3.4837e-22  3.3256e-24  3.5426e-22  4.7864e-24  3.6481e-22  7.3843e-24  3.8380e-22  1.2008e-23  4.1832e-22  2.0290e-23  4.8149e-22  3.5334e-23  5.9791e-22  6.2909e-23  8.2040e-22  1.1453e-22  1.2667e-21  2.1444e-22  2.2306e-21
      5.15  1.2684e-24  3.8279e-22  1.2729e-24  3.8282e-22  1.2808e-24  3.8288e-22  1.2949e-24  3.8299e-22  1.3199e-24  3.8319e-22  1.3644e-24  3.8354e-22  1.4436e-24  3.8417e-22  1.5843e-24  3.8528e-22  1.8345e-24  3.8726e-22  2.2793e-24  3.9079e-22  3.0702e-24  3.9710e-22  4.4762e-24  4.0839e-22  6.9759e-24  4.2871e-22  1.1423e-23  4.6562e-22  1.9411e-23  5.3287e-22  3.3900e-23  6.5714e-22  6.0453e-23  8.9464e-22  1.1015e-22  1.3711e-21  2.0629e-22  2.4001e-21
      5.20  1.0859e-24  4.2954e-22  1.0902e-24  4.2958e-22  1.0978e-24  4.2964e-22  1.1114e-24  4.2976e-22  1.1355e-24  4.2997e-22  1.1783e-24  4.3034e-22  1.2545e-24  4.3100e-22  1.3899e-24  4.3218e-22  1.6307e-24  4.3427e-22  2.0588e-24  4.3801e-22  2.8198e-24  4.4467e-22  4.1723e-24  4.5661e-22  6.5761e-24  4.7808e-22  1.0851e-23  5.1706e-22  1.8554e-23  5.8778e-22  3.2500e-23  7.1880e-22  5.8049e-23  9.6925e-22  1.0584e-22  1.4714e-21  1.9822e-22  2.5553e-21
      5.25  9.1342e-25  4.8165e-22  9.1754e-25  4.8168e-22  9.2488e-25  4.8175e-22  9.3792e-25  4.8188e-22  9.6111e-25  4.8209e-22  1.0023e-24  4.8248e-22  1.0756e-24  4.8317e-22  1.2060e-24  4.8440e-22  1.4376e-24  4.8659e-22  1.8495e-24  4.9050e-22  2.5814e-24  4.9746e-22  3.8819e-24  5.0993e-22  6.1920e-24  5.3237e-22  1.0307e-23  5.7298e-22  1.7726e-23  6.4663e-22  3.1143e-23  7.8316e-22  5.5712e-23  1.0439e-21  1.0163e-22  1.5664e-21  1.9027e-22  2.6941e-21
      5.30  7.5855e-25  5.3973e-22  7.6252e-25  5.3977e-22  7.6958e-25  5.3984e-22  7.8212e-25  5.3997e-22  8.0443e-25  5.4019e-22  8.4409e-25  5.4060e-22  9.1460e-25  5.4131e-22  1.0400e-24  5.4258e-22  1.2628e-24  5.4485e-22  1.6589e-24  5.4888e-22  2.3626e-24  5.5608e-22  3.6123e-24  5.6896e-22  5.8307e-24  5.9214e-22  9.7975e-24  6.3393e-22  1.6934e-23  7.0986e-22  2.9837e-23  8.5056e-22  5.3447e-23  1.1191e-21  9.7526e-23  1.6646e-21  1.8245e-22  2.8287e-21
      5.35  6.2637e-25  6.0458e-22  6.3018e-25  6.0462e-22  6.3697e-25  6.0469e-22  6.4903e-25  6.0482e-22  6.7047e-25  6.0506e-22  7.0860e-25  6.0547e-22  7.7640e-25  6.0621e-22  8.9692e-25  6.0752e-22  1.1111e-24  6.0986e-22  1.4918e-24  6.1402e-22  2.1677e-24  6.2145e-22  3.3674e-24  6.3475e-22  5.4958e-24  6.5867e-22  9.3182e-24  7.0163e-22  1.6178e-23  7.7981e-22  2.8575e-23  9.2457e-22  5.1242e-23  1.2005e-21  9.3501e-23  1.7515e-21  1.7473e-22  2.9338e-21
      5.40  5.1803e-25  6.7711e-22  5.2170e-25  6.7716e-22  5.2821e-25  6.7723e-22  5.3979e-25  6.7736e-22  5.6039e-25  6.7760e-22  5.9700e-25  6.7802e-22  6.6210e-25  6.7877e-22  7.7782e-25  6.8010e-22  9.8345e-25  6.8247e-22  1.3487e-24  6.8670e-22  1.9970e-24  6.9423e-22  3.1467e-24  7.0772e-22  5.1947e-24  7.3191e-22  8.8648e-24  7.7541e-22  1.5450e-23  8.5453e-22  2.7342e-23  1.0009e-21  4.9067e-23  1.2796e-21  8.9503e-23  1.8351e-21  1.6700e-22  3.0227e-21
      5.45  4.3158e-25  7.5839e-22  4.3509e-25  7.5844e-22  4.4134e-25  7.5851e-22  4.5243e-25  7.5865e-22  4.7217e-25  7.5888e-22  5.0725e-25  7.5931e-22  5.6962e-25  7.6006e-22  6.8047e-25  7.6140e-22  8.7739e-25  7.6379e-22  1.2270e-24  7.6804e-22  1.8472e-24  7.7562e-22  2.9461e-24  7.8919e-22  4.9126e-24  8.1345e-22  8.4283e-24  8.5715e-22  1.4734e-23  9.3697e-22  2.6115e-23  1.0841e-21  4.6882e-23  1.3636e-21  8.5462e-23  1.9191e-21  1.5916e-22  3.1051e-21
      5.50  3.6348e-25  8.4957e-22  3.6683e-25  8.4962e-22  3.7279e-25  8.4969e-22  3.8340e-25  8.4983e-22  4.0225e-25  8.5007e-22  4.3576e-25  8.5050e-22  4.9532e-25  8.5126e-22  6.0116e-25  8.5261e-22  7.8911e-25  8.5501e-22  1.1226e-24  8.5930e-22  1.7137e-24  8.6695e-22  2.7641e-24  8.8061e-22  4.6428e-24  9.0505e-22  7.9991e-24  9.4905e-22  1.4016e-23  1.0290e-21  2.4870e-23  1.1765e-21  4.4651e-23  1.4564e-21  8.1320e-23  2.0115e-21  1.5111e-22  3.1877e-21
      5.55  3.0992e-25  9.5193e-22  3.1311e-25  9.5197e-22  3.1878e-25  9.5205e-22  3.2887e-25  9.5218e-22  3.4681e-25  9.5242e-22  3.7870e-25  9.5285e-22  4.3536e-25  9.5360e-22  5.3602e-25  9.5495e-22  7.1469e-25  9.5734e-22  1.0315e-24  9.6161e-22  1.5923e-24  9.6922e-22  2.5935e-24  9.8280e-22  4.3803e-24  1.0071e-21  7.5718e-24  1.0508e-21  1.3291e-23  1.1302e-21  2.3600e-23  1.2766e-21  4.2364e-23  1.5535e-21  7.7072e-23  2.1002e-21  1.4288e-22  3.2526e-21
      5.60  2.6757e-25  1.0669e-21  2.7059e-25  1.0669e-21  2.7597e-25  1.0670e-21  2.8554e-25  1.0671e-21  3.0254e-25  1.0673e-21  3.3277e-25  1.0678e-21  3.8647e-25  1.0685e-21  4.8182e-25  1.0699e-21  6.5094e-25  1.0722e-21  9.5051e-25  1.0764e-21  1.4816e-24  1.0839e-21  2.4311e-24  1.0973e-21  4.1237e-24  1.1212e-21  7.1462e-24  1.1643e-21  1.2561e-23  1.2438e-21  2.2313e-23  1.3885e-21  4.0041e-23  1.6615e-21  7.2762e-23  2.1975e-21  1.3457e-22  3.3180e-21
      5.65  2.3375e-25  1.1959e-21  2.3661e-25  1.1959e-21  2.4170e-25  1.1960e-21  2.5074e-25  1.1961e-21  2.6680e-25  1.1964e-21  2.9536e-25  1.1968e-21  3.4607e-25  1.1975e-21  4.3606e-25  1.1988e-21  5.9554e-25  1.2012e-21  8.7767e-25  1.2054e-21  1.3800e-24  1.2128e-21  2.2765e-24  1.2261e-21  3.8743e-24  1.2499e-21  6.7269e-24  1.2927e-21  1.1835e-23  1.3701e-21  2.1029e-23  1.5123e-21  3.7724e-23  1.7794e-21  6.8473e-23  2.3017e-21  1.2636e-22  3.3933e-21
      5.70  2.0644e-25  1.3407e-21  2.0913e-25  1.3408e-21  2.1393e-25  1.3408e-21  2.2245e-25  1.3410e-21  2.3759e-25  1.3412e-21  2.6449e-25  1.3416e-21  3.1224e-25  1.3424e-21  3.9693e-25  1.3437e-21  5.4685e-25  1.3460e-21  8.1171e-25  1.3501e-21  1.2859e-24  1.3575e-21  2.1301e-24  1.3706e-21  3.6345e-24  1.3941e-21  6.3199e-24  1.4362e-21  1.1127e-23  1.5134e-21  1.9774e-23  1.6541e-21  3.5458e-23  1.9173e-21  6.4294e-23  2.4279e-21  1.1841e-22  3.4783e-21
      5.75  1.8411e-25  1.5033e-21  1.8664e-25  1.5033e-21  1.9115e-25  1.5034e-21  1.9916e-25  1.5035e-21  2.1340e-25  1.5038e-21  2.3869e-25  1.5042e-21  2.8356e-25  1.5049e-21  3.6306e-25  1.5062e-21  5.0367e-25  1.5085e-21  7.5309e-25  1.5127e-21  1.1988e-24  1.5201e-21  1.9923e-24  1.5332e-21  3.4063e-24  1.5567e-21  5.9297e-24  1.5988e-21  1.0445e-23  1.6749e-21  1.8564e-23  1.8138e-21  3.3278e-23  2.0730e-21  6.0286e-23  2.6382e-21  1.1084e-22  3.7215e-21
      5.80  1.6564e-25  1.6858e-21  1.6802e-25  1.6858e-21  1.7225e-25  1.6859e-21  1.7977e-25  1.6860e-21  1.9312e-25  1.6863e-21  2.1683e-25  1.6867e-21  2.5888e-25  1.6875e-21  3.3336e-25  1.6889e-21  4.6495e-25  1.6913e-21  6.9952e-25  1.6956e-21  1.1177e-24  1.7033e-21  1.8623e-24  1.7176e-21  3.1888e-24  1.7427e-21  5.5559e-24  1.7876e-21  9.7910e-24  1.8684e-21  1.7403e-23  2.0157e-21  3.1187e-23  2.2895e-21  5.6458e-23  2.8139e-21  1.0366e-22  3.8704e-21
      5.85  1.5022e-25  1.8906e-21  1.5244e-25  1.8907e-21  1.5639e-25  1.8907e-21  1.6341e-25  1.8909e-21  1.7588e-25  1.8911e-21  1.9803e-25  1.8916e-21  2.3730e-25  1.8924e-21  3.0682e-25  1.8938e-21  4.2970e-25  1.8963e-21  6.4952e-25  1.9009e-21  1.0407e-24  1.9090e-21  1.7369e-24  1.9233e-21  2.9773e-24  1.9488e-21  5.1908e-24  1.9945e-21  9.1507e-24  2.0768e-21  1.6267e-23  2.2266e-21  2.9149e-23  2.5035e-21  5.2749e-23  3.0290e-21  9.6770e-23  4.2435e-21
      5.90  1.3722e-25  2.1205e-21  1.3928e-25  2.1206e-21  1.4294e-25  2.1206e-21  1.4945e-25  2.1208e-21  1.6102e-25  2.1211e-21  1.8155e-25  2.1215e-21  2.1798e-25  2.1224e-21  2.8248e-25  2.1238e-21  3.9696e-25  2.1265e-21  6.0124e-25  2.1313e-21  9.6470e-25  2.1397e-21  1.6117e-24  2.1547e-21  2.7645e-24  2.1814e-21  4.8217e-24  2.2291e-21  8.5023e-24  2.3148e-21  1.5117e-23  2.4703e-21  2.7094e-23  2.8273e-21  4.9035e-23  3.4333e-21  8.9926e-23  4.6171e-21
      5.95  1.2617e-25  2.3785e-21  1.2805e-25  2.3786e-21  1.3141e-25  2.3787e-21  1.3737e-25  2.3788e-21  1.4798e-25  2.3792e-21  1.6681e-25  2.3797e-21  2.0024e-25  2.3808e-21  2.5948e-25  2.3826e-21  3.6492e-25  2.3859e-21  5.5259e-25  2.3917e-21  8.8646e-25  2.4020e-21  1.4809e-24  2.4204e-21  2.5401e-24  2.4530e-21  4.4305e-24  2.5113e-21  7.8136e-24  2.6161e-21  1.3896e-23  2.8060e-21  2.4917e-23  3.1538e-21  4.5125e-23  3.8075e-21  8.2814e-23  5.0783e-21
      6.00  1.1670e-25  2.6680e-21  1.1840e-25  2.6681e-21  1.2142e-25  2.6682e-21  1.2679e-25  2.6684e-21  1.3634e-25  2.6687e-21  1.5332e-25  2.6693e-21  1.8346e-25  2.6705e-21  2.3694e-25  2.6725e-21  3.3218e-25  2.6762e-21  5.0150e-25  2.6826e-21  8.0280e-25  2.6938e-21  1.3392e-24  2.7139e-21  2.2953e-24  2.7497e-21  4.0020e-24  2.8136e-21  7.0578e-24  2.9285e-21  1.2556e-23  3.1368e-21  2.2530e-23  3.5203e-21  4.0850e-23  4.2414e-21  7.5089e-23  6.0248e-21
      6.05  1.0854e-25  2.9928e-21  1.1004e-25  2.9929e-21  1.1269e-25  2.9930e-21  1.1742e-25  2.9932e-21  1.2583e-25  2.9936e-21  1.4078e-25  2.9943e-21  1.6734e-25  2.9955e-21  2.1451e-25  2.9977e-21  2.9841e-25  3.0017e-21  4.4761e-25  3.0086e-21  7.1309e-25  3.0208e-21  1.1858e-24  3.0424e-21  2.0285e-24  3.0809e-21  3.5334e-24  3.1499e-21  6.2294e-24  3.2740e-21  1.1085e-23  3.4998e-21  1.9908e-23  3.9156e-21  3.6153e-23  4.7049e-21  6.6610e-23  6.5486e-21
      6.10  1.0148e-25  3.3573e-21  1.0276e-25  3.3574e-21  1.0504e-25  3.3575e-21  1.0909e-25  3.3577e-21  1.1630e-25  3.3581e-21  1.2911e-25  3.3588e-21  1.5187e-25  3.3601e-21  1.9233e-25  3.3625e-21  2.6426e-25  3.3666e-21  3.9216e-25  3.3737e-21  6.1976e-25  3.3863e-21  1.0251e-24  3.4086e-21  1.7478e-24  3.4484e-21  3.0388e-24  3.5197e-21  5.3532e-24  3.6483e-21  9.5263e-24  3.8823e-21  1.7122e-23  4.3158e-21  3.1144e-23  5.2318e-21  5.7535e-23  6.9646e-21
      6.15  9.5359e-26  3.7662e-21  9.6428e-26  3.7663e-21  9.8328e-26  3.7664e-21  1.0171e-25  3.7666e-21  1.0772e-25  3.7670e-21  1.1841e-25  3.7677e-21  1.3739e-25  3.7689e-21  1.7116e-25  3.7714e-21  2.3119e-25  3.7755e-21  3.3793e-25  3.7824e-21  5.2787e-25  3.7947e-21  8.6616e-25  3.8164e-21  1.4694e-24  3.8552e-21  2.5474e-24  3.9248e-21  4.4807e-24  4.0504e-21  7.9695e-24  4.2792e-21  1.4328e-23  4.7042e-21  2.6093e-23  5.5596e-21  4.8306e-23  7.2329e-21
      6.20  9.0051e-26  4.2250e-21  9.0924e-26  4.2251e-21  9.2476e-26  4.2252e-21  9.5236e-26  4.2254e-21  1.0014e-25  4.2258e-21  1.0887e-25  4.2264e-21  1.2436e-25  4.2276e-21  1.5193e-25  4.2301e-21  2.0095e-25  4.2340e-21  2.8812e-25  4.2405e-21  4.4325e-25  4.2520e-21  7.1951e-25  4.2724e-21  1.2122e-24  4.3088e-21  2.0925e-24  4.3739e-21  3.6714e-24  4.4913e-21  6.5210e-24  4.7054e-21  1.1716e-23  5.1031e-21  2.1332e-23  5.8783e-21  3.9510e-23  7.4155e-21
      6.25  8.5454e-26  4.7397e-21  8.6160e-26  4.7398e-21  8.7413e-26  4.7399e-21  8.9640e-26  4.7401e-21  9.3599e-26  4.7404e-21  1.0063e-25  4.7410e-21  1.1312e-25  4.7423e-21  1.3535e-25  4.7448e-21  1.7488e-25  4.7485e-21  2.4519e-25  4.7547e-21  3.7030e-25  4.7654e-21  5.9310e-25  4.7845e-21  9.9032e-25  4.8184e-21  1.6999e-24  4.8792e-21  2.9721e-24  4.9887e-21  5.2661e-24  5.1876e-21  9.4427e-24  5.5551e-21  1.7160e-23  6.2572e-21  3.1713e-23  7.6438e-21
      6.30  8.1476e-26  5.3172e-21  8.2044e-26  5.3173e-21  8.3054e-26  5.3174e-21  8.4847e-26  5.3176e-21  8.8031e-26  5.3179e-21  9.3678e-26  5.3185e-21  1.0371e-25  5.3199e-21  1.2157e-25  5.3224e-21  1.5334e-25  5.3261e-21  2.0986e-25  5.3321e-21  3.1041e-25  5.3425e-21  4.8945e-25  5.3608e-21  8.0856e-25  5.3935e-21  1.3784e-24  5.4518e-21  2.3990e-24  5.5567e-21  4.2368e-24  5.7466e-21  7.5748e-24  6.0953e-21  1.3719e-23  6.7517e-21  2.5242e-23  8.0317e-21
      6.35  7.8030e-26  5.9651e-21  7.8488e-26  5.9652e-21  7.9303e-26  5.9653e-21  8.0747e-26  5.9655e-21  8.3308e-26  5.9658e-21  8.7843e-26  5.9664e-21  9.5896e-26  5.9679e-21  1.1026e-25  5.9707e-21  1.3579e-25  5.9745e-21  1.8120e-25  5.9805e-21  2.6200e-25  5.9909e-21  4.0584e-25  6.0092e-21  6.6213e-25  6.0418e-21  1.1195e-24  6.0999e-21  1.9380e-24  6.2041e-21  3.4093e-24  6.3923e-21  6.0742e-24  6.7360e-21  1.0957e-23  7.3765e-21  2.0051e-23  8.6094e-21
      6.40  7.5041e-26  6.6919e-21  7.5410e-26  6.6920e-21  7.6066e-26  6.6921e-21  7.7228e-26  6.6923e-21  7.9287e-26  6.6926e-21  8.2925e-26  6.6932e-21  8.9375e-26  6.6949e-21  1.0090e-25  6.6980e-21  1.2138e-25  6.7021e-21  1.5781e-25  6.7083e-21  2.2263e-25  6.7190e-21  3.3800e-25  6.7378e-21  5.4351e-25  6.7711e-21  9.1006e-25  6.8305e-21  1.5654e-24  6.9368e-21  2.7415e-24  7.1284e-21  4.8657e-24  7.4769e-21  8.7406e-24  8.1216e-21  1.5906e-23  9.3484e-21
      6.45  7.2446e-26  7.5073e-21  7.2743e-26  7.5073e-21  7.3271e-26  7.5074e-21  7.4207e-26  7.5076e-21  7.5862e-26  7.5080e-21  7.8781e-26  7.5086e-21  8.3958e-26  7.5106e-21  9.3216e-26  7.5142e-21  1.0967e-25  7.5185e-21  1.3893e-25  7.5251e-21  1.9098e-25  7.5363e-21  2.8362e-25  7.5558e-21  4.4859e-25  7.5904e-21  7.4269e-25  7.6519e-21  1.2680e-24  7.7619e-21  2.2093e-24  7.9597e-21  3.9050e-24  8.3182e-21  6.9848e-24  8.9770e-21  1.2642e-23  1.0217e-20
      6.50  7.0192e-26  8.4219e-21  7.0432e-26  8.4220e-21  7.0859e-26  8.4221e-21  7.1615e-26  8.4223e-21  7.2951e-26  8.4226e-21  7.5304e-26  8.4233e-21  7.9479e-26  8.4258e-21  8.6951e-26  8.4299e-21  1.0023e-25  8.4346e-21  1.2383e-25  8.4417e-21  1.6582e-25  8.4535e-21  2.4053e-25  8.4739e-21  3.7355e-25  8.5102e-21  6.1060e-25  8.5746e-21  1.0337e-24  8.6897e-21  1.7908e-24  8.8962e-21  3.1517e-24  9.2690e-21  5.6142e-24  9.9507e-21  1.0112e-23  1.1221e-20
      6.55  6.8233e-26  9.4479e-21  6.8428e-26  9.4480e-21  6.8776e-26  9.4481e-21  6.9391e-26  9.4483e-21  7.0478e-26  9.4487e-21  7.2389e-26  9.4494e-21  7.5785e-26  9.4525e-21  8.1863e-26  9.4572e-21  9.2657e-26  9.4626e-21  1.1185e-25  9.4702e-21  1.4598e-25  9.4828e-21  2.0672e-25  9.5046e-21  3.1484e-25  9.5431e-21  5.0745e-25  9.6115e-21  8.5101e-25  9.7335e-21  1.4652e-24  9.9520e-21  2.5671e-24  1.0345e-20  4.5552e-24  1.1061e-20  8.1696e-24  1.2382e-20
      6.60  6.6528e-26  1.0599e-20  6.6688e-26  1.0599e-20  6.6973e-26  1.0599e-20  6.7476e-26  1.0599e-20  6.8365e-26  1.0600e-20  6.9927e-26  1.0600e-20  7.2710e-26  1.0604e-20  7.7688e-26  1.0610e-20  8.6522e-26  1.0616e-20  1.0223e-25  1.0624e-20  1.3016e-25  1.0638e-20  1.7986e-25  1.0662e-20  2.6833e-25  1.0703e-20  4.2589e-25  1.0776e-20  7.0680e-25  1.0908e-20  1.2086e-24  1.1142e-20  2.1076e-24  1.1563e-20  3.7260e-24  1.2325e-20  6.6581e-24  1.3722e-20
      6.65  6.5043e-26  1.1890e-20  6.5174e-26  1.1890e-20  6.5407e-26  1.1890e-20  6.5818e-26  1.1890e-20  6.6545e-26  1.1891e-20  6.7822e-26  1.1892e-20  7.0107e-26  1.1896e-20  7.4187e-26  1.1903e-20  8.1421e-26  1.1910e-20  9.4280e-26  1.1919e-20  1.1715e-25  1.1934e-20  1.5785e-25  1.1960e-20  2.3028e-25  1.2005e-20  3.5927e-25  1.2085e-20  5.8917e-25  1.2227e-20  9.9958e-25  1.2482e-20  1.7342e-24  1.2937e-20  3.0544e-24  1.3760e-20  5.4403e-24  1.5259e-20
      6.70  6.3748e-26  1.3338e-20  6.3854e-26  1.3338e-20  6.4043e-26  1.3338e-20  6.4376e-26  1.3338e-20  6.4966e-26  1.3339e-20  6.6004e-26  1.3340e-20  6.7868e-26  1.3346e-20  7.1191e-26  1.3354e-20  7.7076e-26  1.3362e-20  8.7535e-26  1.3373e-20  1.0614e-25  1.3389e-20  1.3924e-25  1.3417e-20  1.9816e-25  1.3467e-20  3.0307e-25  1.3554e-20  4.9003e-25  1.3710e-20  8.2364e-25  1.3989e-20  1.4203e-24  1.4487e-20  2.4915e-24  1.5383e-20  4.4240e-24  1.7012e-20
      6.75  6.2618e-26  1.4962e-20  6.2703e-26  1.4962e-20  6.2853e-26  1.4962e-20  6.3120e-26  1.4962e-20  6.3593e-26  1.4963e-20  6.4426e-26  1.4964e-20  6.5926e-26  1.4971e-20  6.8601e-26  1.4981e-20  7.3328e-26  1.4991e-20  8.1725e-26  1.5003e-20  9.6660e-26  1.5021e-20  1.2324e-25  1.5052e-20  1.7054e-25  1.5107e-20  2.5478e-25  1.5204e-20  4.0486e-25  1.5376e-20  6.7258e-25  1.5682e-20  1.1511e-24  1.6230e-20  2.0093e-24  1.7215e-20  3.5551e-24  1.8997e-20
      6.80  6.1631e-26  1.6783e-20  6.1698e-26  1.6783e-20  6.1817e-26  1.6784e-20  6.2027e-26  1.6784e-20  6.2399e-26  1.6785e-20  6.3059e-26  1.6786e-20  6.4249e-26  1.6793e-20  6.6375e-26  1.6807e-20  7.0121e-26  1.6818e-20  7.6768e-26  1.6832e-20  8.8589e-26  1.6853e-20  1.0963e-25  1.6887e-20  1.4708e-25  1.6948e-20  2.1378e-25  1.7055e-20  3.3260e-25  1.7246e-20  5.4449e-25  1.7585e-20  9.2306e-25  1.8192e-20  1.6013e-24  1.9279e-20  2.8216e-24  2.1242e-20
      6.85  6.0771e-26  1.8826e-20  6.0823e-26  1.8826e-20  6.0914e-26  1.8826e-20  6.1078e-26  1.8827e-20  6.1368e-26  1.8828e-20  6.1883e-26  1.8829e-20  6.2817e-26  1.8837e-20  6.4493e-26  1.8854e-20  6.7433e-26  1.8868e-20  7.2642e-26  1.8884e-20  8.1908e-26  1.8907e-20  9.8403e-26  1.8946e-20  1.2777e-25  1.9014e-20  1.8008e-25  1.9133e-20  2.7327e-25  1.9345e-20  4.3943e-25  1.9723e-20  7.3618e-25  2.0397e-20  1.2675e-24  2.1604e-20  2.2227e-24  2.3778e-20
      6.90  6.0020e-26  2.1117e-20  6.0060e-26  2.1117e-20  6.0131e-26  2.1117e-20  6.0257e-26  2.1118e-20  6.0481e-26  2.1119e-20  6.0881e-26  2.1120e-20  6.1612e-26  2.1129e-20  6.2930e-26  2.1151e-20  6.5227e-26  2.1168e-20  6.9288e-26  2.1186e-20  7.6511e-26  2.1213e-20  8.9377e-26  2.1257e-20  1.1230e-25  2.1332e-20  1.5312e-25  2.1466e-20  2.2586e-25  2.1702e-20  3.5556e-25  2.2124e-20  5.8717e-25  2.2875e-20  1.0018e-24  2.4220e-20  1.7473e-24  2.6638e-20
      6.95  5.9365e-26  2.3686e-20  5.9396e-26  2.3686e-20  5.9451e-26  2.3686e-20  5.9549e-26  2.3687e-20  5.9723e-26  2.3688e-20  6.0034e-26  2.3689e-20  6.0609e-26  2.3699e-20  6.1656e-26  2.3726e-20  6.3460e-26  2.3747e-20  6.6640e-26  2.3769e-20  7.2299e-26  2.3800e-20  8.2384e-26  2.3849e-20  1.0036e-25  2.3934e-20  1.3238e-25  2.4083e-20  1.8945e-25  2.4348e-20  2.9123e-25  2.4819e-20  4.7296e-25  2.5659e-20  7.9831e-25  2.7161e-20  1.3832e-24  2.9858e-20
      7.00  5.8793e-26  2.6566e-20  5.8817e-26  2.6566e-20  5.8860e-26  2.6567e-20  5.8938e-26  2.6567e-20  5.9075e-26  2.6568e-20  5.9321e-26  2.6570e-20  5.9773e-26  2.6577e-20  6.0626e-26  2.6613e-20  6.2069e-26  2.6640e-20  6.4605e-26  2.6666e-20  6.9115e-26  2.6702e-20  7.7158e-26  2.6757e-20  9.1500e-26  2.6853e-20  1.1707e-25  2.7020e-20  1.6266e-25  2.7316e-20  2.4398e-25  2.7844e-20  3.8924e-25  2.8783e-20  6.4938e-25  3.0463e-20  1.1174e-24  3.3475e-20
      7.05  5.8292e-26  2.9796e-20  5.8312e-26  2.9796e-20  5.8346e-26  2.9796e-20  5.8408e-26  2.9797e-20  5.8519e-26  2.9798e-20  5.8717e-26  2.9800e-20  5.9075e-26  2.9803e-20  5.9788e-26  2.9849e-20  6.0973e-26  2.9883e-20  6.3039e-26  2.9916e-20  6.6712e-26  2.9957e-20  7.3270e-26  3.0020e-20  8.4986e-26  3.0127e-20  1.0590e-25  3.0315e-20  1.4321e-25  3.0647e-20  2.0980e-25  3.1237e-20  3.2884e-25  3.2289e-20  5.4226e-25  3.4166e-20  9.2700e-25  3.7531e-20
      7.10  5.7853e-26  3.3416e-20  5.7868e-26  3.3416e-20  5.7897e-26  3.3416e-20  5.7947e-26  3.3417e-20  5.8037e-26  3.3418e-20  5.8199e-26  3.3420e-20  5.8491e-26  3.3424e-20  5.9082e-26  3.3471e-20  6.0075e-26  3.3518e-20  6.1783e-26  3.3559e-20  6.4811e-26  3.3608e-20  7.0231e-26  3.3680e-20  7.9937e-26  3.3801e-20  9.7293e-26  3.4011e-20  1.2830e-25  3.4383e-20  1.8369e-25  3.5044e-20  2.8284e-25  3.6220e-20  4.6095e-25  3.8319e-20  7.8306e-25  4.2076e-20
      7.15  5.7465e-26  3.7474e-20  5.7478e-26  3.7474e-20  5.7501e-26  3.7475e-20  5.7542e-26  3.7475e-20  5.7615e-26  3.7477e-20  5.7746e-26  3.7479e-20  5.7983e-26  3.7483e-20  5.8466e-26  3.7529e-20  5.9301e-26  3.7592e-20  6.0706e-26  3.7644e-20  6.3188e-26  3.7702e-20  6.7633e-26  3.7785e-20  7.5612e-26  3.7922e-20  8.9916e-26  3.8158e-20  1.1551e-25  3.8574e-20  1.6129e-25  3.9313e-20  2.4333e-25  4.0629e-20  3.9092e-25  4.2975e-20  6.5851e-25  4.7169e-20
      7.20  5.7122e-26  4.2022e-20  5.7132e-26  4.2023e-20  5.7151e-26  4.2023e-20  5.7184e-26  4.2024e-20  5.7243e-26  4.2025e-20  5.7349e-26  4.2028e-20  5.7540e-26  4.2033e-20  5.7911e-26  4.2062e-20  5.8620e-26  4.2151e-20  5.9775e-26  4.2221e-20  6.1791e-26  4.2292e-20  6.5395e-26  4.2389e-20  7.1883e-26  4.2544e-20  8.3548e-26  4.2809e-20  1.0448e-25  4.3276e-20  1.4200e-25  4.4103e-20  2.0934e-25  4.5575e-20  3.3073e-25  4.8197e-20  5.5138e-25  5.2879e-20
      7.25  5.6817e-26  4.7119e-20  5.6825e-26  4.7120e-20  5.6840e-26  4.7120e-20  5.6866e-26  4.7121e-20  5.6914e-26  4.7123e-20  5.6998e-26  4.7126e-20  5.7150e-26  4.7131e-20  5.7423e-26  4.7140e-20  5.8025e-26  4.7254e-20  5.8976e-26  4.7348e-20  6.0601e-26  4.7438e-20  6.3494e-26  4.7552e-20  6.8708e-26  4.7729e-20  7.8118e-26  4.8028e-20  9.5061e-26  4.8552e-20  1.2552e-25  4.9478e-20  1.8029e-25  5.1124e-20  2.7923e-25  5.4057e-20  4.5957e-25  5.9289e-20
      7.30  5.6543e-26  5.2830e-20  5.6550e-26  5.2831e-20  5.6562e-26  5.2831e-20  5.6583e-26  5.2832e-20  5.6621e-26  5.2834e-20  5.6688e-26  5.2837e-20  5.6810e-26  5.2843e-20  5.7027e-26  5.2853e-20  5.7509e-26  5.2962e-20  5.8310e-26  5.3092e-20  5.9627e-26  5.3207e-20  6.1952e-26  5.3343e-20  6.6146e-26  5.3545e-20  7.3748e-26  5.3883e-20  8.7504e-26  5.4471e-20  1.1233e-25  5.5509e-20  1.5713e-25  5.7353e-20  2.3827e-25  6.0634e-20  3.8667e-25  6.6486e-20
      7.35  5.6297e-26  5.9228e-20  5.6302e-26  5.9228e-20  5.6312e-26  5.9229e-20  5.6329e-26  5.9230e-20  5.6359e-26  5.9232e-20  5.6414e-26  5.9236e-20  5.6511e-26  5.9242e-20  5.6687e-26  5.9254e-20  5.7066e-26  5.9344e-20  5.7763e-26  5.9525e-20  5.8856e-26  5.9673e-20  6.0753e-26  5.9836e-20  6.4174e-26  6.0069e-20  7.0406e-26  6.0451e-20  8.1743e-26  6.1112e-20  1.0231e-25  6.2277e-20  1.3957e-25  6.4343e-20  2.0731e-25  6.8018e-20  3.3176e-25  7.4567e-20
      7.40  5.6072e-26  6.6393e-20  5.6076e-26  6.6394e-20  5.6084e-26  6.6394e-20  5.6098e-26  6.6396e-20  5.6123e-26  6.6398e-20  5.6167e-26  6.6402e-20  5.6248e-26  6.6409e-20  5.6392e-26  6.6422e-20  5.6678e-26  6.6479e-20  5.7317e-26  6.6731e-20  5.8253e-26  6.6924e-20  5.9838e-26  6.7121e-20  6.2683e-26  6.7390e-20  6.7884e-26  6.7822e-20  7.7408e-26  6.8565e-20  9.4786e-26  6.9871e-20  1.2643e-25  7.2187e-20  1.8421e-25  7.6306e-20  2.9090e-25  8.3640e-20
      7.45  5.5864e-26  7.4416e-20  5.5867e-26  7.4417e-20  5.5874e-26  7.4418e-20  5.5886e-26  7.4419e-20  5.5907e-26  7.4422e-20  5.5944e-26  7.4426e-20  5.6011e-26  7.4434e-20  5.6132e-26  7.4449e-20  5.6423e-26  7.4576e-20  5.6990e-26  7.4865e-20  5.7790e-26  7.5084e-20  5.9122e-26  7.5307e-20  6.1503e-26  7.5610e-20  6.5865e-26  7.6095e-20  7.3896e-26  7.6928e-20  8.8641e-26  7.8393e-20  1.1562e-25  8.0990e-20  1.6510e-25  8.5607e-20  2.5681e-25  9.3826e-20
      7.50  5.5669e-26  8.3398e-20  5.5672e-26  8.3398e-20  5.5678e-26  8.3399e-20  5.5688e-26  8.3401e-20  5.5705e-26  8.3404e-20  5.5737e-26  8.3409e-20  5.5795e-26  8.3418e-20  5.5898e-26  8.3434e-20  5.6212e-26  8.3658e-20  5.6727e-26  8.3990e-20  5.7427e-26  8.4240e-20  5.8573e-26  8.4492e-20  6.0609e-26  8.4833e-20  6.4345e-26  8.5378e-20  7.1264e-26  8.6312e-20  8.4053e-26  8.7956e-20  1.0760e-25  9.0868e-20  1.5101e-25  9.6045e-20  2.3181e-25  1.0526e-19
      7.55  5.5483e-26  9.3448e-20  5.5486e-26  9.3449e-20  5.5491e-26  9.3450e-20  5.5500e-26  9.3451e-20  5.5515e-26  9.3455e-20  5.5543e-26  9.3460e-20  5.5593e-26  9.3471e-20  5.5682e-26  9.3489e-20  5.6035e-26  9.3846e-20  5.6512e-26  9.4226e-20  5.7137e-26  9.4511e-20  5.8142e-26  9.4797e-20  5.9915e-26  9.5181e-20  6.3169e-26  9.5793e-20  6.9224e-26  9.6842e-20  8.0501e-26  9.8685e-20  1.0142e-25  1.0195e-19  1.4024e-25  1.0776e-19  2.1293e-25  1.1809e-19
      7.60  5.5303e-26  1.0469e-19  5.5306e-26  1.0469e-19  5.5310e-26  1.0469e-19  5.5318e-26  1.0469e-19  5.5331e-26  1.0470e-19  5.5356e-26  1.0470e-19  5.5400e-26  1.0472e-19  5.5480e-26  1.0474e-19  5.5883e-26  1.0527e-19  5.6333e-26  1.0571e-19  5.6900e-26  1.0603e-19  5.7792e-26  1.0636e-19  5.9351e-26  1.0679e-19  6.2200e-26  1.0748e-19  6.7502e-26  1.0866e-19  7.7414e-26  1.1072e-19  9.5899e-26  1.1439e-19  1.3035e-25  1.2090e-19  1.9511e-25  1.3249e-19
      7.65  5.5126e-26  1.1726e-19  5.5128e-26  1.1726e-19  5.5132e-26  1.1726e-19  5.5139e-26  1.1727e-19  5.5151e-26  1.1727e-19  5.5173e-26  1.1728e-19  5.5212e-26  1.1729e-19  5.5283e-26  1.1731e-19  5.5750e-26  1.1808e-19  5.6180e-26  1.1859e-19  5.6703e-26  1.1896e-19  5.7506e-26  1.1933e-19  5.8895e-26  1.1982e-19  6.1418e-26  1.2059e-19  6.6106e-26  1.2191e-19  7.4884e-26  1.2423e-19  9.1326e-26  1.2834e-19  1.2211e-25  1.3565e-19  1.8017e-25  1.4865e-19
      7.70  5.4947e-26  1.3131e-19  5.4949e-26  1.3131e-19  5.4952e-26  1.3131e-19  5.4958e-26  1.3132e-19  5.4969e-26  1.3132e-19  5.4989e-26  1.3133e-19  5.5025e-26  1.3134e-19  5.5141e-26  1.3149e-19  5.5629e-26  1.3243e-19  5.6047e-26  1.3303e-19  5.6535e-26  1.3346e-19  5.7267e-26  1.3388e-19  5.8518e-26  1.3443e-19  6.0773e-26  1.3530e-19  6.4949e-26  1.3678e-19  7.2770e-26  1.3939e-19  8.7461e-26  1.4400e-19  1.1508e-25  1.5220e-19  1.6734e-25  1.6678e-19
      7.75  5.4763e-26  1.4700e-19  5.4765e-26  1.4700e-19  5.4768e-26  1.4701e-19  5.4774e-26  1.4701e-19  5.4784e-26  1.4701e-19  5.4802e-26  1.4702e-19  5.4835e-26  1.4704e-19  5.5017e-26  1.4740e-19  5.5517e-26  1.4852e-19  5.5928e-26  1.4921e-19  5.6389e-26  1.4972e-19  5.7063e-26  1.5020e-19  5.8198e-26  1.5082e-19  6.0231e-26  1.5180e-19  6.3974e-26  1.5347e-19  7.0973e-26  1.5639e-19  8.4140e-26  1.6157e-19  1.0897e-25  1.7077e-19  1.5613e-25  1.8713e-19
      7.80  5.4572e-26  1.6452e-19  5.4574e-26  1.6452e-19  5.4577e-26  1.6452e-19  5.4582e-26  1.6453e-19  5.4591e-26  1.6453e-19  5.4607e-26  1.6454e-19  5.4637e-26  1.6456e-19  5.4888e-26  1.6519e-19  5.5406e-26  1.6653e-19  5.5817e-26  1.6736e-19  5.6259e-26  1.6795e-19  5.6885e-26  1.6851e-19  5.7922e-26  1.6922e-19  5.9764e-26  1.7032e-19  6.3136e-26  1.7219e-19  6.9423e-26  1.7548e-19  8.1251e-26  1.8129e-19  1.0361e-25  1.9160e-19  1.4621e-25  2.0996e-19
      7.85  5.4369e-26  1.8406e-19  5.4371e-26  1.8406e-19  5.4373e-26  1.8406e-19  5.4378e-26  1.8407e-19  5.4387e-26  1.8407e-19  5.4402e-26  1.8409e-19  5.4429e-26  1.8411e-19  5.4745e-26  1.8505e-19  5.5293e-26  1.8668e-19  5.5711e-26  1.8768e-19  5.6139e-26  1.8839e-19  5.6724e-26  1.8903e-19  5.7678e-26  1.8984e-19  5.9353e-26  1.9109e-19  6.2403e-26  1.9320e-19  6.8064e-26  1.9688e-19  7.8704e-26  2.0340e-19  9.8855e-26  2.1498e-19  1.3735e-25  2.3558e-19
      7.90  5.4152e-26  2.0584e-19  5.4153e-26  2.0584e-19  5.4155e-26  2.0584e-19  5.4160e-26  2.0585e-19  5.4167e-26  2.0585e-19  5.4181e-26  2.0587e-19  5.4206e-26  2.0589e-19  5.4635e-26  2.0739e-19  5.5202e-26  2.0932e-19  5.5622e-26  2.1050e-19  5.6034e-26  2.1133e-19  5.6581e-26  2.1207e-19  5.7456e-26  2.1299e-19  5.8980e-26  2.1440e-19  6.1735e-26  2.1677e-19  6.6821e-26  2.2090e-19  7.6348e-26  2.2822e-19  9.4386e-26  2.4122e-19  1.2890e-25  2.6433e-19
      7.95  5.3915e-26  2.3009e-19  5.3917e-26  2.3009e-19  5.3919e-26  2.3009e-19  5.3923e-26  2.3009e-19  5.3930e-26  2.3010e-19  5.3942e-26  2.3012e-19  5.3965e-26  2.3014e-19  5.4515e-26  2.3236e-19  5.5108e-26  2.3467e-19  5.5535e-26  2.3608e-19  5.5936e-26  2.3705e-19  5.6449e-26  2.3792e-19  5.7254e-26  2.3896e-19  5.8640e-26  2.4055e-19  6.1131e-26  2.4321e-19  6.5694e-26  2.4786e-19  7.4202e-26  2.5607e-19  9.0262e-26  2.7065e-19  1.2096e-25  2.9658e-19
      8.00  5.3656e-26  2.5705e-19  5.3657e-26  2.5706e-19  5.3659e-26  2.5706e-19  5.3663e-26  2.5706e-19  5.3669e-26  2.5707e-19  5.3681e-26  2.5709e-19  5.3701e-26  2.5712e-19  5.4379e-26  2.6024e-19  5.5008e-26  2.6303e-19  5.5448e-26  2.6473e-19  5.5843e-26  2.6589e-19  5.6327e-26  2.6690e-19  5.7068e-26  2.6809e-19  5.8331e-26  2.6988e-19  6.0581e-26  2.7288e-19  6.4686e-26  2.7809e-19  7.2287e-26  2.8732e-19  8.6550e-26  3.0368e-19  1.1374e-25  3.3278e-19
      8.05  5.3414e-26  2.8725e-19  5.3415e-26  2.8725e-19  5.3417e-26  2.8725e-19  5.3420e-26  2.8726e-19  5.3426e-26  2.8727e-19  5.3437e-26  2.8729e-19  5.3455e-26  2.8732e-19  5.4224e-26  2.9133e-19  5.4900e-26  2.9474e-19  5.5359e-26  2.9681e-19  5.5753e-26  2.9821e-19  5.6212e-26  2.9939e-19  5.6898e-26  3.0076e-19  5.8050e-26  3.0279e-19  6.0089e-26  3.0616e-19  6.3779e-26  3.1202e-19  7.0575e-26  3.2237e-19  8.3273e-26  3.4074e-19  1.0736e-25  3.7340e-19
      8.10  5.3393e-26  3.2230e-19  5.3394e-26  3.2230e-19  5.3396e-26  3.2230e-19  5.3399e-26  3.2231e-19  5.3404e-26  3.2232e-19  5.3413e-26  3.2234e-19  5.3430e-26  3.2237e-19  5.4044e-26  3.2596e-19  5.4779e-26  3.3018e-19  5.5267e-26  3.3273e-19  5.5664e-26  3.3443e-19  5.6105e-26  3.3583e-19  5.6742e-26  3.3741e-19  5.7795e-26  3.3970e-19  5.9645e-26  3.4350e-19  6.2975e-26  3.5009e-19  6.9070e-26  3.6171e-19  8.0389e-26  3.8233e-19  1.0174e-25  4.1897e-19
      8.15  5.3375e-26  3.6162e-19  5.3376e-26  3.6162e-19  5.3377e-26  3.6163e-19  5.3380e-26  3.6163e-19  5.3385e-26  3.6165e-19  5.3393e-26  3.6167e-19  5.3409e-26  3.6171e-19  5.3836e-26  3.6449e-19  5.4645e-26  3.6975e-19  5.5169e-26  3.7292e-19  5.5577e-26  3.7500e-19  5.6005e-26  3.7667e-19  5.6600e-26  3.7850e-19  5.7567e-26  3.8111e-19  5.9251e-26  3.8539e-19  6.2264e-26  3.9279e-19  6.7745e-26  4.0584e-19  7.7858e-26  4.2898e-19  9.6809e-26  4.7011e-19
      8.20  5.3359e-26  4.0574e-19  5.3360e-26  4.0574e-19  5.3361e-26  4.0575e-19  5.3364e-26  4.0576e-19  5.3368e-26  4.0577e-19  5.3376e-26  4.0580e-19  5.3390e-26  4.0584e-19  5.3595e-26  4.0728e-19  5.4493e-26  4.1390e-19  5.5064e-26  4.1787e-19  5.5489e-26  4.2044e-19  5.5910e-26  4.2246e-19  5.6471e-26  4.2459e-19  5.7364e-26  4.2756e-19  5.8904e-26  4.3238e-19  6.1644e-26  4.4070e-19  6.6603e-26  4.5536e-19  7.5697e-26  4.8133e-19  9.2626e-26  5.2749e-19
      8.25  5.3346e-26  4.5525e-19  5.3346e-26  4.5525e-19  5.3348e-26  4.5526e-19  5.3350e-26  4.5526e-19  5.3354e-26  4.5528e-19  5.3361e-26  4.5531e-19  5.3374e-26  4.5536e-19  5.3398e-26  4.5545e-19  5.4321e-26  4.6313e-19  5.4949e-26  4.6813e-19  5.5400e-26  4.7133e-19  5.5821e-26  4.7377e-19  5.6354e-26  4.7626e-19  5.7185e-26  4.7965e-19  5.8601e-26  4.8510e-19  6.1108e-26  4.9446e-19  6.5625e-26  5.1091e-19  7.3860e-26  5.4007e-19  8.9096e-26  5.9187e-19
      8.30  5.3334e-26  5.1079e-19  5.3335e-26  5.1080e-19  5.3336e-26  5.1080e-19  5.3338e-26  5.1081e-19  5.3342e-26  5.1083e-19  5.3349e-26  5.1086e-19  5.3361e-26  5.1092e-19  5.3382e-26  5.1102e-19  5.4126e-26  5.1795e-19  5.4824e-26  5.2428e-19  5.5307e-26  5.2829e-19  5.5734e-26  5.3126e-19  5.6249e-26  5.3420e-19  5.7027e-26  5.3808e-19  5.8339e-26  5.4423e-19  6.0648e-26  5.5476e-19  6.4787e-26  5.7324e-19  7.2303e-26  6.0596e-19  8.6135e-26  6.6410e-19
      8.35  5.3324e-26  5.7312e-19  5.3325e-26  5.7312e-19  5.3326e-26  5.7313e-19  5.3328e-26  5.7314e-19  5.3331e-26  5.7316e-19  5.3338e-26  5.7319e-19  5.3349e-26  5.7326e-19  5.3369e-26  5.7337e-19  5.3905e-26  5.7895e-19  5.4685e-26  5.8699e-19  5.5210e-26  5.9203e-19  5.5650e-26  5.9568e-19  5.6152e-26  5.9915e-19  5.6888e-26  6.0360e-19  5.8111e-26  6.1057e-19  6.0252e-26  6.2241e-19  6.4074e-26  6.4316e-19  7.0984e-26  6.7990e-19  8.3633e-26  7.4515e-19
      8.40  5.3316e-26  6.4305e-19  5.3316e-26  6.4305e-19  5.3317e-26  6.4306e-19  5.3319e-26  6.4307e-19  5.3323e-26  6.4309e-19  5.3328e-26  6.4313e-19  5.3339e-26  6.4320e-19  5.3358e-26  6.4333e-19  5.3657e-26  6.4676e-19  5.4532e-26  6.5699e-19  5.5107e-26  6.6334e-19  5.5567e-26  6.6783e-19  5.6063e-26  6.7195e-19  5.6765e-26  6.7708e-19  5.7915e-26  6.8497e-19  5.9912e-26  6.9830e-19  6.3466e-26  7.2162e-19  6.9868e-26  7.6285e-19  8.1525e-26  8.3608e-19
      8.45  5.3308e-26  7.2151e-19  5.3309e-26  7.2151e-19  5.3310e-26  7.2152e-19  5.3312e-26  7.2153e-19  5.3315e-26  7.2156e-19  5.3320e-26  7.2160e-19  5.3330e-26  7.2168e-19  5.3348e-26  7.2182e-19  5.3379e-26  7.2207e-19  5.4362e-26  7.3506e-19  5.4997e-26  7.4308e-19  5.5482e-26  7.4864e-19  5.5979e-26  7.5356e-19  5.6656e-26  7.5948e-19  5.7745e-26  7.6843e-19  5.9623e-26  7.8344e-19  6.2952e-26  8.0963e-19  6.8927e-26  8.5592e-19  7.9765e-26  9.3810e-19
      8.50  5.3302e-26  8.0954e-19  5.3303e-26  8.0955e-19  5.3304e-26  8.0956e-19  5.3305e-26  8.0957e-19  5.3308e-26  8.0960e-19  5.3314e-26  8.0965e-19  5.3323e-26  8.0974e-19  5.3339e-26  8.0990e-19  5.3369e-26  8.1018e-19  5.4173e-26  8.2208e-19  5.4877e-26  8.3222e-19  5.5396e-26  8.3912e-19  5.5900e-26  8.4501e-19  5.6558e-26  8.5187e-19  5.7597e-26  8.6203e-19  5.9375e-26  8.7894e-19  6.2514e-26  9.0837e-19  6.8132e-26  9.6034e-19  7.8281e-26  1.0526e-18
