# This was generated using Cloudy10 and the columns are ordered 
# as log10 of the fraction of the metallicity to the solar metallicity
# 'h_*_Z' and 'c_*_Z' stands for cooling and heating respectively 
# at * metalicity
#
# Redshift = 1.5
# hden = 5.5
#     temp   h_-3.00_Z   c_-3.00_Z   h_-2.75_Z   c_-2.75_Z   h_-2.50_Z   c_-2.50_Z   h_-2.25_Z   c_-2.25_Z   h_-2.00_Z   c_-2.00_Z   h_-1.75_Z   c_-1.75_Z   h_-1.50_Z   c_-1.50_Z   h_-1.25_Z   c_-1.25_Z   h_-1.00_Z   c_-1.00_Z   h_-0.75_Z   c_-0.75_Z   h_-0.50_Z   c_-0.50_Z   h_-0.25_Z   c_-0.25_Z    h_0.00_Z    c_0.00_Z    h_0.25_Z    c_0.25_Z    h_0.50_Z    c_0.50_Z    h_0.75_Z    c_0.75_Z    h_1.00_Z    c_1.00_Z    h_1.25_Z    c_1.25_Z    h_1.50_Z    c_1.50_Z 
      4.00  3.4827e-29  1.1238e-26  3.4828e-29  1.1254e-26  3.4828e-29  1.1283e-26  3.4829e-29  1.1333e-26  3.483e-29  1.1422e-26  3.4831e-29  1.158e-26  3.4835e-29  1.1859e-26  3.484e-29  1.2355e-26  3.4849e-29  1.3236e-26  3.4866e-29  1.4794e-26  3.4898e-29  1.7529e-26  3.4972e-29  2.2265e-26  3.5184e-29  3.029e-26  3.5839e-29  4.3492e-26  3.7529e-29  6.4628e-26  4.128e-29  9.877e-26  4.8877e-29  1.6028e-25  6.2009e-29  3.0601e-25  8.8002e-29  7.1939e-25
      4.05  3.4271e-29  1.2685e-25  3.4277e-29  1.269e-25  3.4286e-29  1.2699e-25  3.4303e-29  1.2715e-25  3.4333e-29  1.2744e-25  3.4387e-29  1.2795e-25  3.4482e-29  1.2886e-25  3.4651e-29  1.3048e-25  3.4949e-29  1.3334e-25  3.5475e-29  1.3839e-25  3.6394e-29  1.4725e-25  3.7982e-29  1.625e-25  4.0651e-29  1.8787e-25  4.4884e-29  2.2739e-25  5.0792e-29  2.8155e-25  5.7224e-29  3.4211e-25  6.2602e-29  4.1404e-25  6.9763e-29  6.1739e-25  8.2987e-29  1.2846e-24
      4.10  3.1689e-29  2.5084e-24  3.1735e-29  2.5089e-24  3.1818e-29  2.5096e-24  3.1964e-29  2.511e-24  3.2225e-29  2.5134e-24  3.2689e-29  2.5177e-24  3.3514e-29  2.5253e-24  3.4979e-29  2.5388e-24  3.7578e-29  2.5628e-24  4.2187e-29  2.6055e-24  5.0334e-29  2.6811e-24  6.4673e-29  2.8148e-24  8.9701e-29  3.0494e-24  1.3274e-28  3.4566e-24  2.0471e-28  4.1471e-24  3.1871e-28  5.2653e-24  4.7963e-28  6.9077e-24   6.48e-28  8.7889e-24  6.7609e-28  9.5626e-24
      4.15  2.7344e-29  2.3465e-23  2.7537e-29  2.3468e-23  2.7879e-29  2.3472e-23  2.8488e-29  2.3479e-23  2.9571e-29  2.3492e-23  3.1496e-29  2.3514e-23  3.4919e-29  2.3555e-23  4.1004e-29  2.3627e-23  5.1822e-29  2.3755e-23  7.1043e-29  2.3983e-23  1.0518e-28  2.4388e-23  1.6573e-28  2.5106e-23  2.7296e-28  2.6381e-23  4.6219e-28  2.8639e-23  7.9416e-28  3.2622e-23  1.3703e-27   3.96e-23  2.3511e-27  5.1675e-23  3.9615e-27  7.2099e-23   6.43e-27  1.0522e-22
      4.20  2.7801e-29  8.6003e-23  2.8189e-29  8.601e-23  2.8877e-29  8.6021e-23  3.0102e-29  8.6043e-23  3.228e-29  8.608e-23  3.6153e-29  8.6148e-23  4.3039e-29  8.6267e-23  5.5286e-29  8.6479e-23  7.7063e-29  8.6856e-23  1.1578e-28  8.7528e-23  1.8463e-28  8.8721e-23  3.0702e-28  9.0843e-23  5.2457e-28  9.4617e-23  9.1113e-28  1.0133e-22  1.5974e-27  1.1327e-22  2.8148e-27  1.345e-22  4.9701e-27  1.7228e-22  8.7704e-27  2.3948e-22  1.5425e-26  3.5903e-22
      4.25  5.7277e-29  1.2901e-22  5.7569e-29  1.2902e-22  5.8089e-29  1.2904e-22  5.9012e-29  1.2907e-22  6.0654e-29  1.2913e-22  6.3574e-29  1.2924e-22  6.8766e-29  1.2942e-22    7.8e-29  1.2975e-22  9.4423e-29  1.3034e-22  1.2363e-28  1.3138e-22  1.7559e-28  1.3323e-22  2.6804e-28  1.3652e-22  4.3262e-28  1.4238e-22  7.2579e-28  1.5281e-22  1.2487e-27  1.7139e-22  2.1837e-27  2.0455e-22  3.8616e-27  2.6386e-22  6.893e-27  3.7048e-22  1.2431e-26  5.6368e-22
      4.30  1.4664e-28    1.2e-22  1.4658e-28  1.2001e-22  1.4647e-28  1.2003e-22  1.4628e-28  1.2007e-22  1.4593e-28  1.2014e-22  1.4532e-28  1.2026e-22  1.4422e-28  1.2047e-22  1.4228e-28  1.2085e-22  1.3883e-28  1.2152e-22  1.4437e-28  1.2272e-22  2.4781e-28  1.2484e-22  4.3193e-28  1.2863e-22  7.5989e-28  1.3536e-22  1.3448e-27  1.4735e-22  2.3902e-27  1.6871e-22  4.2648e-27  2.0685e-22  7.645e-27  2.7515e-22  1.3794e-26  3.9809e-22  2.5142e-26  6.2142e-22
      4.35  3.1297e-28   9.59e-23  3.1238e-28  9.5914e-23  3.1133e-28  9.594e-23  3.0945e-28  9.5985e-23  3.0612e-28  9.6066e-23  3.002e-28  9.6209e-23  2.8966e-28  9.6464e-23  2.7093e-28  9.6917e-23  2.3763e-28  9.7723e-23  2.1038e-28  9.9157e-23  3.6197e-28  1.0171e-22  6.3188e-28  1.0625e-22  1.113e-27  1.1432e-22  1.9717e-27  1.287e-22  3.5086e-27  1.5432e-22  6.2694e-27  2.0005e-22  1.1256e-26  2.8195e-22  2.0336e-26  4.2936e-22  3.6995e-26  6.9718e-22
      4.40  4.6805e-28  7.5561e-23  4.669e-28  7.558e-23  4.6485e-28  7.5613e-23  4.6122e-28  7.5673e-23  4.5475e-28  7.5778e-23  4.4326e-28  7.5966e-23  4.2281e-28   7.63e-23  3.8647e-28  7.6893e-23  3.2187e-28  7.7949e-23  2.6524e-28  7.9826e-23  4.548e-28  8.3165e-23  7.9273e-28  8.9105e-23  1.3962e-27  9.9674e-23  2.4764e-27  1.1849e-22  4.4175e-27  1.5201e-22  7.921e-27  2.1184e-22  1.4274e-26  3.1891e-22  2.5646e-26  5.1152e-22  4.6247e-26  8.6107e-22
      4.45  4.5334e-28  5.9906e-23  4.5173e-28  5.9931e-23  4.4887e-28  5.9977e-23  4.4378e-28  6.0057e-23  4.3474e-28   6.02e-23  4.1866e-28  6.0454e-23  3.9007e-28  6.0906e-23  3.3927e-28  6.171e-23  2.4903e-28  6.314e-23  3.2057e-28  6.5683e-23  5.4869e-28  7.0207e-23  9.5703e-28  7.8252e-23  1.6908e-27  9.2568e-23  3.0152e-27  1.1805e-22  5.4174e-27  1.6345e-22  9.733e-27  2.4446e-22  1.7357e-26  3.8944e-22  3.0924e-26  6.5013e-22  5.5384e-26  1.1229e-21
      4.50  3.3339e-28  4.726e-23  3.3143e-28  4.7294e-23  3.2794e-28  4.7355e-23  3.2175e-28  4.7464e-23  3.1073e-28  4.7658e-23  2.9114e-28  4.8003e-23  2.5633e-28  4.8615e-23  1.9448e-28  4.9705e-23  2.1199e-28  5.1642e-23  3.5736e-28  5.5088e-23  6.1775e-28  6.1216e-23  1.0862e-27  7.2118e-23  1.934e-27  9.1515e-23  3.478e-27  1.2604e-22  6.2294e-27  1.8758e-22  1.1076e-26  2.9741e-22  1.9701e-26  4.9403e-22  3.5031e-26  8.4775e-22  6.2791e-26  1.4898e-21
      4.55  2.2459e-28  3.7492e-23  2.2245e-28  3.7539e-23  2.1865e-28  3.7622e-23  2.1188e-28  3.7769e-23  1.9985e-28  3.803e-23  1.7846e-28  3.8496e-23  1.4047e-28  3.9323e-23  1.2753e-28  4.0795e-23  2.1329e-28  4.3412e-23  3.6679e-28  4.8067e-23  6.4272e-28  5.6346e-23  1.142e-27  7.1074e-23  2.0531e-27  9.728e-23  3.6742e-27  1.4394e-22  6.5487e-27  2.271e-22  1.167e-26  3.7558e-22  2.0706e-26  6.4148e-22  3.6881e-26  1.1202e-21  6.621e-26  1.9904e-21
      4.60  1.5217e-28  3.0292e-23  1.5011e-28  3.0354e-23  1.4646e-28  3.0466e-23  1.3997e-28  3.0664e-23  1.2842e-28  3.1016e-23  1.0791e-28  3.1642e-23  7.1481e-29  3.2755e-23  1.1838e-28  3.4735e-23  2.0245e-28  3.8257e-23  3.5335e-28  4.452e-23  6.2589e-28  5.566e-23  1.1228e-27  7.5477e-23  2.0107e-27  1.1074e-22  3.5986e-27  1.7354e-22  6.413e-27  2.8547e-22  1.1411e-26  4.8534e-22  2.0297e-26  8.4341e-22  3.6226e-26  1.4886e-21  6.5151e-26  2.6626e-21
      4.65  1.0766e-28  2.579e-23  1.0598e-28  2.5874e-23  1.0298e-28  2.6023e-23  9.7661e-29  2.6288e-23  8.8202e-29  2.6759e-23   7.14e-29  2.7597e-23  6.442e-29  2.9088e-23  1.0885e-28  3.1738e-23  1.8842e-28  3.6452e-23  3.3167e-28  4.4835e-23  5.917e-28  5.9747e-23  1.0617e-27  8.6276e-23  1.9044e-27  1.3349e-22  3.4035e-27  2.1756e-22  6.092e-27  3.6745e-22  1.086e-26  6.3519e-22  1.9326e-26  1.1151e-21  3.4526e-26  1.9806e-21  6.2186e-26  3.5582e-21
      4.70  8.0971e-29  2.4814e-23  7.9873e-29  2.4926e-23  7.7921e-29  2.5124e-23  7.4452e-29  2.5476e-23  6.8289e-29  2.6102e-23  5.7352e-29  2.7217e-23  6.1834e-29  2.9198e-23  1.0486e-28  3.2721e-23  1.8204e-28  3.8986e-23  3.2135e-28  5.013e-23  5.7541e-28  6.9953e-23  1.0328e-27  1.0522e-22  1.8578e-27  1.6799e-22  3.3284e-27  2.798e-22  5.9362e-27  4.7918e-22  1.056e-26  8.3555e-22  1.8828e-26  1.475e-21  3.3702e-26  2.6301e-21  6.0844e-26  4.7416e-21
      4.75  6.4551e-29  2.9623e-23  6.4146e-29  2.9769e-23  6.3427e-29  3.0029e-23  6.2151e-29  3.049e-23  5.9891e-29  3.131e-23   5.59e-29  3.2769e-23  6.4461e-29  3.5363e-23  1.0875e-28  3.9976e-23  1.8836e-28  4.8181e-23  3.3265e-28  6.2774e-23  5.9727e-28  8.8732e-23  1.0721e-27  1.3492e-22  1.9174e-27  2.1714e-22  3.4198e-27  3.6362e-22  6.0927e-27  6.2495e-22  1.085e-26  1.0924e-21  1.936e-26  1.9321e-21  3.4711e-26  3.4523e-21  6.2869e-26  6.241e-21
      4.80  5.3137e-29  4.333e-23  5.3441e-29  4.3517e-23  5.3982e-29  4.3849e-23  5.4949e-29  4.444e-23  5.6683e-29  4.549e-23  5.9809e-29  4.7359e-23  7.1039e-29  5.0682e-23  1.188e-28  5.6591e-23  2.0507e-28   6.71e-23  3.6271e-28  8.5793e-23  6.4918e-28  1.1905e-22  1.1552e-27  1.7822e-22  2.0554e-27  2.8356e-22  3.6625e-27  4.7129e-22  6.5217e-27  8.0634e-22  1.1618e-26  1.406e-21  2.0762e-26  2.4847e-21  3.7301e-26  4.4415e-21  6.776e-26  8.043e-21
      4.85  4.2557e-29  6.4674e-23  4.3538e-29  6.4907e-23  4.5284e-29  6.5322e-23  4.8398e-29  6.6059e-23  5.3961e-29  6.737e-23  6.393e-29  6.9702e-23  8.1903e-29  7.3847e-23  1.3056e-28  8.1221e-23  2.2556e-28  9.4334e-23  3.9842e-28  1.1766e-22  7.0665e-28  1.5915e-22  1.2526e-27  2.3299e-22  2.2278e-27  3.6447e-22  3.9621e-27  5.988e-22  7.0475e-27  1.0172e-21  1.2548e-26  1.7665e-21  2.2403e-26  3.1157e-21  4.0225e-26  5.5675e-21  7.3082e-26  1.0093e-20
      4.90  3.1706e-29  8.0539e-23  3.3277e-29  8.082e-23  3.6076e-29  8.1319e-23  4.1069e-29  8.2207e-23      5e-29  8.3785e-23  6.6041e-29  8.6593e-23  9.5068e-29  9.1585e-23  1.4822e-28  1.0046e-22  2.4633e-28  1.1626e-22  4.2631e-28  1.4434e-22  7.5288e-28  1.9431e-22  1.3357e-27  2.8324e-22  2.375e-27  4.4159e-22  4.211e-27  7.2384e-22  7.4599e-27  1.2279e-21  1.3225e-26  2.1309e-21  2.3523e-26  3.7579e-21  4.207e-26  6.7177e-21  7.6273e-26  1.2191e-20
      4.95  2.3088e-29  7.9479e-23  2.4973e-29  7.9804e-23  2.8337e-29  8.0381e-23  3.4357e-29  8.1406e-23  4.5181e-29  8.3231e-23  6.4803e-29  8.6475e-23  1.008e-28  9.2244e-23  1.683e-28  1.025e-22  2.9179e-28  1.2075e-22  5.1235e-28  1.5321e-22  9.0507e-28  2.1096e-22  1.6011e-27  3.1372e-22  2.822e-27  4.9672e-22  4.9602e-27  8.2294e-22  8.7073e-27  1.4056e-21  1.5297e-26  2.4497e-21  2.6961e-26  4.3316e-21  4.7948e-26  7.7579e-21  8.6527e-26  1.4103e-20
      5.00  1.793e-29  6.7538e-23  1.9778e-29  6.7897e-23  2.3096e-29  6.8534e-23  2.9093e-29  6.9668e-23  4.0064e-29  7.1684e-23  6.0457e-29  7.5269e-23  9.9563e-29  8.1644e-23  1.7435e-28  9.2983e-23  3.1216e-28  1.1315e-22  5.6156e-28  1.4902e-22  9.8843e-28  2.1283e-22  1.7293e-27  3.2641e-22  3.0076e-27  5.2868e-22  5.1972e-27  8.8932e-22  8.9524e-27  1.5336e-21  1.5462e-26  2.6889e-21  2.689e-26  4.7732e-21  4.7377e-26  8.5745e-21  8.4809e-26  1.5634e-20
      5.05  1.5271e-29  5.4029e-23  1.6898e-29  5.4397e-23  1.9879e-29  5.5052e-23  2.5459e-29  5.6216e-23  3.6213e-29  5.8287e-23  5.7578e-29  6.1968e-23  9.8711e-29  6.8516e-23  1.8291e-28  8.0159e-23  3.4637e-28  1.0087e-22  6.0833e-28  1.3771e-22  1.0494e-27  2.0325e-22  1.7867e-27  3.1991e-22  3.0077e-27  5.277e-22  5.0074e-27  8.9827e-22  8.3401e-27  1.5606e-21  1.4015e-26  2.7492e-21  2.3947e-26  4.8967e-21  4.1704e-26  8.8223e-21  7.3875e-26  1.6141e-20
      5.10  1.4094e-29  4.2652e-23  1.5513e-29  4.301e-23  1.8293e-29  4.3646e-23  2.4033e-29  4.4776e-23  3.6458e-29  4.6787e-23  5.9431e-29  5.0362e-23  1.0925e-28  5.6721e-23  2.1995e-28  6.8029e-23  4.005e-28  8.8141e-23  6.8562e-28  1.2392e-22  1.1366e-27  1.8758e-22  1.842e-27  3.0089e-22  2.9358e-27  5.0276e-22  4.6434e-27  8.6287e-22  7.412e-27  1.5068e-21  1.1988e-26  2.6634e-21  1.9787e-26  4.756e-21  3.3782e-26  8.5909e-21  5.9333e-26  1.577e-20
      5.15  1.3689e-29  3.3921e-23  1.5083e-29  3.4276e-23  1.8207e-29  3.4907e-23  2.577e-29  3.6029e-23  4.0452e-29  3.8023e-23  7.0829e-29  4.1571e-23  1.4227e-28  4.7879e-23  2.7553e-28  5.9098e-23  4.834e-28  7.9053e-23  7.9521e-28  1.1455e-22  1.2452e-27  1.7771e-22  1.9008e-27  2.9016e-22  2.8646e-27  4.9049e-22  4.3113e-27  8.4796e-22  6.3316e-27  1.4875e-21  9.7857e-27  2.6368e-21  1.5873e-26  4.719e-21  2.6825e-26  8.5427e-21  4.6856e-26  1.5725e-20
      5.20  1.372e-29  2.7393e-23  1.5386e-29  2.7758e-23  1.9706e-29  2.8408e-23  3.0758e-29  2.9564e-23  5.0593e-29  3.1619e-23  9.717e-29  3.5274e-23  2.0436e-28  4.1773e-23  3.5208e-28  5.3332e-23  5.7815e-28  7.3892e-23  9.1268e-28  1.1047e-22  1.3626e-27  1.7555e-22  1.9738e-27  2.9142e-22  2.8129e-27  4.9788e-22  3.7398e-27  8.6636e-22  5.3078e-27  1.5258e-21  8.0567e-27  2.7117e-21  1.2958e-26  4.8622e-21  2.1804e-26  8.8186e-21  3.8028e-26  1.6272e-20
      5.25  1.4029e-29   2.25e-23  1.6393e-29  2.2876e-23  2.3085e-29  2.3546e-23  3.969e-29  2.4736e-23  7.4058e-29  2.6853e-23  1.3598e-28  3.0619e-23  2.5765e-28  3.7314e-23  4.245e-28  4.9223e-23  6.5823e-28  7.0404e-23  9.9431e-28  1.0809e-22  1.4441e-27  1.7514e-22  2.0358e-27  2.9453e-22  2.5354e-27  5.0729e-22  3.3565e-27  8.8709e-22  4.7731e-27  1.567e-21  7.2543e-27  2.7906e-21  1.1644e-26  5.0119e-21  1.9566e-26  9.1059e-21  3.4167e-26  1.6842e-20
      5.30  1.4782e-29  1.8794e-23  1.8757e-29  1.9177e-23  3.046e-29  1.9857e-23  6.0794e-29  2.1067e-23  9.8695e-29  2.3219e-23  1.6911e-28  2.7045e-23  2.9676e-28  3.385e-23  4.6738e-28  4.5953e-23  7.1448e-28  6.7481e-23  1.0374e-27  1.0578e-22  1.5138e-27  1.7393e-22  1.9174e-27  2.9529e-22  2.4194e-27  5.1159e-22  3.1686e-27  8.9779e-22  4.4022e-27  1.5895e-21  6.5682e-27  2.835e-21  1.0285e-26  5.099e-21  1.7024e-26  9.2801e-21  2.9494e-26  1.7206e-20
      5.35  1.626e-29  1.5967e-23  2.3398e-29  1.6356e-23  4.4233e-29  1.7048e-23  7.623e-29  1.828e-23  1.1899e-28  2.0469e-23  1.9064e-28  2.4362e-23  3.2031e-28  3.1285e-23  4.9131e-28   4.36e-23  7.3329e-28  6.5503e-23  1.1103e-27  1.0447e-22  1.546e-27  1.7382e-22  1.8354e-27  2.9731e-22  2.2756e-27  5.1745e-22  2.9688e-27  9.1058e-22  4.1295e-27  1.615e-21  6.0425e-27  2.8843e-21  9.4719e-27  5.1943e-21  1.5695e-26  9.4692e-21  2.7248e-26  1.7599e-20
      5.40  1.7493e-29  1.3758e-23  2.7409e-29  1.4138e-23  5.1359e-29  1.4812e-23  7.9485e-29  1.6011e-23  1.2505e-28  1.8143e-23  1.9176e-28  2.1934e-23  3.096e-28  2.8677e-23  5.0684e-28  4.067e-23  7.6864e-28  6.2001e-23  1.2032e-27  9.9952e-23  1.4825e-27  1.675e-22  1.7778e-27  2.8779e-22  2.2446e-27  5.0224e-22  2.9743e-27  8.8534e-22  4.1904e-27  1.5721e-21  6.1646e-27  2.8106e-21  9.6253e-27  5.0678e-21  1.5932e-26  9.255e-21  2.7647e-26  1.7249e-20
      5.45  1.6012e-29  1.1965e-23  2.3622e-29  1.2283e-23  4.5092e-29  1.2848e-23  6.9284e-29  1.3853e-23  1.0728e-28  1.564e-23  1.7402e-28  1.8819e-23  2.8282e-28  2.4472e-23  4.6419e-28  3.4525e-23  7.8682e-28  5.2407e-23  1.263e-27  8.4222e-23  1.4941e-27  1.4085e-22  1.8434e-27  2.4171e-22  2.3654e-27  4.2156e-22  3.0862e-27  7.4297e-22  4.2474e-27  1.3195e-21  6.1828e-27  2.3604e-21  9.552e-27  4.2612e-21  1.5662e-26  7.7985e-21  2.7092e-26  1.4586e-20
      5.50  1.3316e-29  1.0471e-23  1.6409e-29   1.07e-23  2.5255e-29  1.1107e-23  5.0017e-29  1.1832e-23  8.458e-29  1.3121e-23  1.4313e-28  1.5412e-23  2.4991e-28  1.9488e-23  4.3934e-28  2.6737e-23  7.5922e-28  3.963e-23  1.2113e-27  6.2568e-23  1.5698e-27  1.034e-22  1.9681e-27  1.7614e-22  2.4084e-27  3.0587e-22  3.0606e-27  5.3779e-22  4.0084e-27  9.5407e-22  5.5927e-27  1.7065e-21  8.3773e-27  3.0832e-21  1.341e-26  5.6533e-21  2.2793e-26  1.0609e-20
      5.55  1.2032e-29  9.3053e-24  1.3529e-29  9.4776e-24  1.7784e-29  9.784e-24  3.0089e-29  1.0329e-23  6.1477e-29  1.1298e-23  1.2494e-28  1.3021e-23  2.4057e-28  1.6086e-23  4.472e-28  2.1536e-23  7.9092e-28  3.1231e-23  1.2093e-27  4.8481e-23  1.6023e-27  7.9189e-23  1.9666e-27  1.339e-22  2.3445e-27  2.3148e-22  2.8239e-27  4.0599e-22  3.582e-27  7.1933e-22  4.8092e-27  1.2862e-21  6.9698e-27  2.3245e-21  1.0892e-26  4.267e-21  1.8167e-26  8.0248e-21
      5.60  1.152e-29  8.4092e-24  1.3108e-29  8.5588e-24  1.7598e-29  8.8248e-24  3.0672e-29  9.2978e-24  5.5518e-29  1.0139e-23  1.1586e-28  1.1635e-23  2.4888e-28  1.4295e-23  4.6999e-28  1.9026e-23  8.6817e-28  2.7441e-23  1.2028e-27  4.2416e-23  1.5697e-27  6.9073e-23  1.8144e-27  1.1657e-22  2.0942e-27  2.013e-22  2.4913e-27  3.5282e-22  3.1182e-27  6.2499e-22  4.1307e-27  1.1175e-21  5.905e-27  2.0205e-21  9.1199e-27  3.7117e-21  1.5076e-26  6.9897e-21
      5.65  1.1336e-29  7.7871e-24  1.3196e-29  7.8528e-24  1.9053e-29  8.1068e-24  3.5267e-29  8.5583e-24  6.6945e-29  9.3613e-24  1.3077e-28  1.0789e-23  2.6206e-28  1.3329e-23  5.1783e-28  1.8023e-23  9.198e-28  2.5878e-23  1.2123e-27  4.0174e-23  1.5126e-27  6.5625e-23  1.6839e-27  1.1097e-22  1.9292e-27  1.9187e-22  2.274e-27  3.3656e-22  2.8471e-27  5.9649e-22  3.7721e-27  1.067e-21  5.3998e-27  1.9301e-21  8.3511e-27  3.5481e-21  1.3838e-26  6.6883e-21
      5.70  1.0804e-29  7.1536e-24  1.3291e-29  7.2934e-24  2.0574e-29  7.5419e-24  4.1544e-29  7.9839e-24  7.5833e-29  8.7698e-24  1.4816e-28  1.0167e-23  2.9611e-28  1.2653e-23  5.8414e-28  1.7244e-23  9.0195e-28  2.4936e-23  1.1357e-27  3.893e-23  1.3562e-27  6.3843e-23  1.5287e-27  1.0823e-22  1.7473e-27  1.8742e-22  2.067e-27  3.2908e-22  2.6091e-27  5.836e-22  3.5213e-27  1.0445e-21  5.1245e-27  1.8903e-21  8.0393e-27  3.4771e-21  1.3489e-26  6.5607e-21
      5.75  1.0202e-29  6.6469e-24  1.2893e-29   6.78e-24  2.0707e-29  7.0167e-24  4.1393e-29  7.4376e-24  8.2287e-29  8.1859e-24  1.641e-28  9.5167e-24  3.3108e-28  1.1883e-23  6.0416e-28  1.6092e-23  8.0062e-28  2.3581e-23  9.8123e-28  3.6908e-23  1.1251e-27  6.0633e-23  1.2959e-27  1.029e-22  1.5052e-27  1.7833e-22  1.831e-27  3.1326e-22  2.3686e-27  5.5574e-22  3.2845e-27  9.9498e-22  4.9211e-27  1.8015e-21  7.9143e-27  3.316e-21  1.3549e-26  6.2634e-21
      5.80  9.5333e-30  6.2565e-24  1.2225e-29  6.3788e-24  1.981e-29  6.5962e-24  4.045e-29  6.9828e-24  8.5231e-29  7.6702e-24  1.8246e-28  8.8925e-24  3.449e-28  1.1066e-23  5.4117e-28  1.4933e-23  6.8538e-28  2.1813e-23  8.356e-28  3.4056e-23  9.479e-28  5.5852e-23  1.1305e-27  9.4687e-23  1.3516e-27  1.6398e-22  1.6843e-27  2.8797e-22  2.253e-27  5.1084e-22  3.2421e-27  9.1471e-22  5.0127e-27  1.6568e-21  8.2826e-27  3.0518e-21  1.4493e-26  5.7711e-21
      5.85  9.1259e-30  5.9595e-24  1.2202e-29  6.0748e-24  2.0499e-29  6.2798e-24  4.1983e-29  6.6444e-24  9.4169e-29  7.2927e-24  2.0001e-28  8.4455e-24  3.1992e-28  1.0496e-23  4.786e-28  1.4144e-23  6.0194e-28  2.0633e-23  7.5298e-28  3.2181e-23  8.8575e-28  5.274e-23  1.0456e-27  8.9373e-23  1.2859e-27  1.5475e-22  1.6607e-27  2.7172e-22  2.3118e-27  4.8204e-22  3.4549e-27  8.6332e-22  5.5231e-27  1.5643e-21  9.3566e-27  2.8835e-21  1.6693e-26  5.4592e-21
      5.90  8.8677e-30  5.7432e-24  1.2582e-29  5.8583e-24  2.2444e-29  6.0631e-24  4.7216e-29  6.4272e-24  1.047e-28  7.0747e-24  2.0624e-28  8.2262e-24  3.2314e-28  1.0274e-23  4.3489e-28  1.3918e-23  5.6921e-28   2.04e-23  7.0323e-28  3.1935e-23   8.42e-28  5.2471e-23  1.0082e-27  8.9064e-23  1.2829e-27  1.5437e-22  1.7436e-27  2.7125e-22  2.5354e-27  4.8142e-22  3.9469e-27  8.6256e-22  6.5167e-27  1.5637e-21  1.1307e-26  2.8846e-21  2.0539e-26  5.4673e-21
      5.95  8.4933e-30  5.5886e-24  1.2604e-29  5.7062e-24  2.353e-29  5.9153e-24  5.0955e-29  6.2872e-24  1.162e-28  7.0177e-24  2.1496e-28  8.124e-24  3.3324e-28  1.0216e-23  4.4549e-28  1.3936e-23  5.565e-28  2.0555e-23  6.7765e-28  3.2333e-23  8.348e-28  5.3303e-23  1.0206e-27  9.0672e-23  1.3263e-27  1.5737e-22  1.8597e-27  2.7674e-22  2.7988e-27  4.9145e-22  4.477e-27  8.8097e-22  7.5469e-27  1.598e-21  1.329e-26   2.95e-21  2.4418e-26  5.5977e-21
      6.00  7.845e-30  5.4795e-24  1.1792e-29  5.5975e-24  2.2443e-29  5.8074e-24  4.9738e-29  6.1806e-24  1.1321e-28  6.8441e-24  2.3028e-28  8.0239e-24  3.4616e-28  1.0123e-23  4.5382e-28  1.3857e-23  5.6534e-28  2.0499e-23  6.8873e-28  3.232e-23  8.5719e-28  5.3366e-23  1.0927e-27  9.0872e-23  1.4735e-27  1.5782e-22  2.1433e-27  2.7765e-22  3.3359e-27  4.9325e-22  5.493e-27  8.8453e-22  9.4466e-27  1.6053e-21  1.6869e-26  2.9659e-21  3.132e-26  5.6348e-21
      6.05  7.0331e-30  5.4227e-24  1.0359e-29  5.5374e-24  1.9529e-29  5.7414e-24  4.3789e-29  6.1041e-24  1.0292e-28  6.7489e-24  2.3075e-28  7.8955e-24  3.5425e-28  9.9353e-24  4.6581e-28  1.3564e-23  5.8055e-28  2.002e-23  7.1141e-28  3.1508e-23  8.7719e-28  5.1963e-23  1.145e-27  8.8416e-23  1.6014e-27  1.5349e-22  2.4069e-27  2.6999e-22  3.8486e-27  4.7964e-22  6.4576e-27  8.6031e-22  1.1251e-26  1.5621e-21  2.0276e-26  2.8884e-21  3.7915e-26  5.4952e-21
      6.10  6.3476e-30  5.3976e-24  9.0979e-30  5.5064e-24  1.6927e-29  5.7569e-24  3.6737e-29  6.0439e-24  8.8963e-29  6.7221e-24  2.0051e-28  7.7429e-24  3.327e-28  9.6772e-24  4.5663e-28  1.3118e-23  5.6302e-28  1.9241e-23  6.8293e-28  3.0136e-23  8.6945e-28  4.9535e-23  1.1703e-27  8.4109e-23  1.6959e-27  1.4583e-22  2.6321e-27  2.5636e-22  4.3075e-27  4.5531e-22  7.3426e-27  8.1672e-22  1.2931e-26  1.4835e-21  2.3474e-26  2.7455e-21  4.4146e-26  5.2307e-21
      6.15  6.0033e-30    5.4e-24  8.5245e-30  5.5009e-24  1.5086e-29  5.6803e-24  3.2098e-29  5.9994e-24  7.3142e-29  6.5667e-24  1.5258e-28  7.5754e-24  2.5042e-28  9.3695e-24  3.8354e-28  1.2561e-23  4.8985e-28  1.8239e-23  6.1816e-28  2.8344e-23  8.1835e-28  4.6337e-23  1.1448e-27  7.8406e-23  1.7231e-27  1.3566e-22  2.7523e-27  2.3821e-22  4.6033e-27  4.2284e-22  7.9599e-27  7.5842e-22  1.4144e-26  1.3781e-21  2.5836e-26  2.5523e-21  4.8825e-26  4.8695e-21
      6.20   5.78e-30  5.4242e-24  8.2494e-30  5.5143e-24  1.4314e-29  5.6746e-24  2.9463e-29  6.0192e-24  5.8221e-29  6.4663e-24  1.1268e-28  7.3672e-24  1.8165e-28  8.9695e-24  2.7204e-28  1.182e-23  3.8079e-28  1.689e-23  5.1888e-28  2.5914e-23  7.2105e-28  4.1982e-23  1.0658e-27  7.0622e-23  1.6656e-27  1.2176e-22  2.7387e-27  2.1336e-22  4.6673e-27  3.7835e-22  8.1692e-27  6.7837e-22  1.4629e-26  1.2328e-21  2.6863e-26  2.2851e-21  5.0979e-26  4.3657e-21
      6.25  5.2787e-30  5.4662e-24  7.5181e-30  5.542e-24  1.2723e-29  5.6769e-24  2.3683e-29  5.9758e-24  4.4045e-29  6.3429e-24  8.1988e-29  7.1008e-24  1.2784e-28  8.4488e-24  1.9335e-28  1.0846e-23  2.8127e-28  1.5111e-23  4.0773e-28  2.2702e-23  6.0592e-28  3.6217e-23  9.4437e-28  6.0309e-23  1.5366e-27  1.0333e-22  2.5908e-27  1.8041e-22  4.4833e-27  3.1928e-22  7.9227e-27  5.7196e-22  1.4276e-26  1.0394e-21  2.6326e-26  1.9277e-21  5.0139e-26  3.6883e-21
      6.30  4.6164e-30  5.5496e-24  6.4883e-30  5.6662e-24  9.9303e-30  5.7177e-24  1.7835e-29  5.9089e-24  3.1748e-29  6.249e-24  5.7678e-29  6.8536e-24  8.5443e-29  7.9289e-24  1.3418e-28  9.8412e-24  2.0839e-28  1.3243e-23  3.1475e-28  1.9297e-23  4.9861e-28  3.0077e-23  8.1094e-28  4.9293e-23  1.3637e-27  8.3613e-23  2.3447e-27  1.4511e-22  4.1086e-27  2.5595e-22  7.3156e-27  4.5774e-22  1.3245e-26  8.314e-22  2.4511e-26  1.5427e-21  4.6829e-26  2.9557e-21
      6.35  4.0159e-30  5.6562e-24  5.2454e-30  5.704e-24  7.8202e-30  5.7891e-24  1.2903e-29  5.9405e-24  2.342e-29  6.2095e-24  4.2845e-29  6.7549e-24  5.8847e-29  7.5389e-24  9.0214e-29  9.0522e-24  1.4708e-28  1.1744e-23  2.4696e-28  1.6534e-23  4.0833e-28  2.5065e-23  6.9391e-28  4.0271e-23  1.1944e-27  6.7432e-23  2.086e-27  1.1611e-22  3.6938e-27  2.0388e-22  6.6197e-27  3.6377e-22  1.2035e-26  6.6013e-22  2.2342e-26  1.2252e-21  4.2809e-26  2.3504e-21
      6.40  3.4768e-30  5.7851e-24  4.5117e-30  5.824e-24  6.4993e-30  5.8931e-24  9.986e-30  6.016e-24  1.6914e-29  6.2345e-24  3.1299e-29  6.6231e-24  4.4151e-29  7.3141e-24  6.6837e-29  8.543e-24  1.1079e-28  1.0729e-23  1.9518e-28  1.4619e-23  3.4723e-28  2.1547e-23  6.1512e-28  3.3896e-23  1.0882e-27  5.5957e-23  1.934e-27  9.5504e-23  3.4623e-27  1.6683e-22  6.2462e-27  2.9684e-22  1.1406e-26  5.3807e-22  2.1244e-26  9.9875e-22  4.0836e-26  1.9183e-21
      6.45  2.9973e-30  5.9331e-24  3.9451e-30  5.9653e-24  5.4958e-30  6.0225e-24  8.3757e-30  6.1241e-24  1.3388e-29  6.3049e-24  2.3502e-29  6.6263e-24  3.7411e-29  7.198e-24  5.7602e-29  8.2146e-24  9.7366e-29  1.0023e-23  1.7432e-28  1.3241e-23  3.1895e-28  1.8971e-23  5.8098e-28  2.9186e-23  1.0506e-27  4.7437e-23  1.8974e-27  8.0158e-23  3.4243e-27  1.3919e-22  6.2103e-27  2.4686e-22  1.1382e-26  4.4681e-22  2.1263e-26  8.2923e-22  4.0989e-26  1.5942e-21
      6.50  2.4886e-30  6.0979e-24  3.3743e-30  6.1246e-24  4.5878e-30  6.1722e-24  6.8851e-30  6.2567e-24  1.0799e-29  6.407e-24  1.8421e-29  6.6742e-24  2.9042e-29  7.1494e-24  4.6496e-29  7.9945e-24  7.986e-29  9.4979e-24  1.4501e-28  1.2173e-23  2.7045e-28  1.6936e-23  5.0579e-28  2.5428e-23  9.3442e-28  4.0601e-23  1.7096e-27  6.7808e-23  3.1143e-27  1.1691e-22  5.6817e-27  2.065e-22  1.0454e-26   3.73e-22  1.9586e-26  6.9184e-22  3.786e-26  1.3307e-21
      6.55  2.0637e-30  6.3089e-24  2.8273e-30  6.3316e-24  3.7762e-30  6.3718e-24  5.5514e-30  6.4434e-24  8.9204e-30  6.5706e-24  1.5151e-29  6.7969e-24  2.4397e-29  7.1993e-24  3.9099e-29  7.9149e-24  6.8881e-29  9.1879e-24  1.2762e-28  1.1453e-23  2.4248e-28  1.5487e-23  4.6156e-28  2.2678e-23  8.6839e-28  3.5527e-23  1.6111e-27  5.8571e-23  2.9608e-27  1.0017e-22  5.4318e-27  1.7609e-22  1.0033e-26  3.1727e-22  1.8854e-26  5.8789e-22  3.6536e-26  1.1309e-21
      6.60  1.7168e-30  6.5377e-24  2.3289e-30  6.5576e-24  3.1347e-30  6.5929e-24  4.5548e-30  6.6557e-24  7.4437e-30  6.7673e-24  1.326e-29  6.9657e-24  2.1708e-29  7.3187e-24  3.5167e-29  7.9465e-24  6.3074e-29  9.0633e-24  1.1962e-28  1.1051e-23  2.3108e-28  1.4589e-23  4.4593e-28  2.0899e-23  8.4941e-28  3.2173e-23  1.5934e-27  5.2393e-23  2.9542e-27  8.8898e-23  5.4509e-27  1.5555e-22  1.0107e-26  2.7954e-22  1.9043e-26  5.1738e-22  3.6987e-26  9.9515e-22
      6.65  1.4295e-30  6.7831e-24  1.8877e-30  6.8012e-24  2.5955e-30  6.8334e-24  3.7567e-30  6.8907e-24  6.1463e-30  6.9926e-24  1.1463e-29  7.1737e-24  1.9193e-29  7.4958e-24  3.1864e-29  8.0687e-24  5.8735e-29  9.0879e-24  1.1408e-28  1.0902e-23  2.2414e-28  1.4131e-23  4.3787e-28  1.989e-23  8.4286e-28  3.0181e-23  1.5963e-27  4.8638e-23  2.9827e-27  8.1965e-23  5.5344e-27  1.4282e-22   1.03e-26  2.561e-22  1.9458e-26  4.7349e-22  3.787e-26  9.1056e-22
      6.70  1.1895e-30  7.044e-24  1.5085e-30  7.0611e-24  2.0935e-30  7.0915e-24  3.1319e-30  7.1456e-24  5.2901e-30  7.2419e-24  1.0616e-29  7.413e-24  1.9356e-29  7.7173e-24  3.4196e-29  8.2586e-24  6.5789e-29  9.2216e-24  1.3048e-28  1.0935e-23  2.5828e-28  1.3987e-23  5.054e-28  1.9429e-23  9.739e-28  2.9153e-23  1.8464e-27  4.6596e-23  3.4562e-27  7.8094e-23  6.4256e-27  1.3563e-22  1.1978e-26  2.4274e-22  2.2658e-26  4.4841e-22  4.4155e-26  8.6222e-22
      6.75  9.9103e-31  7.3192e-24  1.2051e-30  7.3358e-24  1.7037e-30  7.3654e-24  2.6505e-30  7.4179e-24  4.8899e-30  7.5112e-24  1.0556e-29  7.6772e-24  2.059e-29  7.9724e-24  3.8497e-29  8.4975e-24  7.6295e-29  9.4317e-24  1.5277e-28  1.1094e-23  3.0177e-28  1.4055e-23  5.8875e-28  1.9334e-23  1.1305e-27  2.8767e-23  2.1399e-27  4.5691e-23  4.0036e-27  7.6254e-23  7.4473e-27  1.3209e-22  1.3894e-26  2.3607e-22  2.6306e-26  4.3581e-22  5.1312e-26  8.3795e-22
      6.80  8.2964e-31  7.6481e-24  9.7266e-31  7.6646e-24  1.3884e-30  7.6938e-24  2.2836e-30  7.7458e-24  4.478e-30  7.8383e-24  1.0106e-29  8.0027e-24  2.1376e-29  8.2952e-24  4.0959e-29  8.8153e-24  8.2373e-29  9.7407e-24  1.6477e-28  1.1387e-23  3.2433e-28  1.432e-23  6.3089e-28  1.955e-23   1.21e-27  2.8896e-23  2.2897e-27  4.5663e-23  4.2873e-27  7.5946e-23  7.9865e-27  1.3127e-22  1.4923e-26  2.3434e-22  2.8291e-26  4.3241e-22  5.5248e-26  8.3141e-22
      6.85  6.9918e-31  7.9947e-24  7.9783e-31  8.0112e-24  1.0992e-30  8.0407e-24  1.9225e-30  8.093e-24  3.9111e-30  8.1862e-24  9.6477e-30  8.4352e-24  2.2532e-29  8.6461e-24  4.4661e-29  9.1699e-24  9.1895e-29  1.0102e-23  1.8385e-28  1.176e-23  3.6279e-28  1.4713e-23  7.0483e-28  1.9978e-23  1.3505e-27  2.9389e-23  2.5529e-27  4.6272e-23  4.7777e-27  7.6768e-23  8.901e-27  1.3249e-22  1.664e-26  2.3632e-22  3.157e-26  4.3593e-22  6.1705e-26  8.3822e-22
      6.90  5.9543e-31  8.3583e-24  6.7352e-31  8.3751e-24  9.0852e-31  8.4049e-24  1.6018e-30  8.4579e-24  3.6407e-30  8.5522e-24  9.6159e-30  8.7198e-24  2.4343e-29  9.0179e-24  5.0099e-29  9.5482e-24  1.0522e-28  1.0492e-23  2.1151e-28  1.217e-23  4.2021e-28  1.516e-23  8.2183e-28  2.0492e-23  1.5772e-27  3.002e-23  2.979e-27  4.7116e-23  5.5663e-27  7.7997e-23  1.0358e-26  1.3444e-22  1.9355e-26  2.3961e-22  3.6722e-26  4.4188e-22  7.1803e-26  8.4974e-22
      6.95  5.1237e-31  8.7383e-24  5.8532e-31  8.7551e-24  8.0158e-31  8.7851e-24  1.4752e-30  8.8384e-24  3.5466e-30  8.9331e-24  9.6077e-30  9.1016e-24  2.4888e-29  9.4011e-24  5.1959e-29  9.9339e-24  1.0671e-28  1.0882e-23  2.1371e-28  1.2569e-23  4.2919e-28  1.5573e-23  8.4555e-28  2.093e-23  1.6287e-27  3.0504e-23  3.0821e-27  4.7682e-23  5.7663e-27  7.8715e-23  1.074e-26  1.3544e-22  2.0083e-26  2.4117e-22  3.8134e-26  4.4456e-22  7.4628e-26  8.5487e-22
      7.00  4.4291e-31  9.1339e-24  5.1387e-31  9.1505e-24  7.3224e-31  9.1801e-24  1.3883e-30  9.2325e-24  3.3302e-30  9.3259e-24  9.0579e-30  9.4918e-24  2.5163e-29  9.7869e-24  5.2201e-29  1.0312e-23  1.0477e-28  1.1245e-23  2.1272e-28  1.2907e-23  4.3158e-28  1.5865e-23  8.563e-28  2.1141e-23  1.6591e-27  3.0571e-23  3.1548e-27  4.749e-23  5.9212e-27  7.8057e-23  1.1051e-26  1.3393e-22  2.0694e-26  2.3811e-22  3.9337e-26  4.3858e-22  7.7059e-26  8.4318e-22
      7.05  3.7155e-31  9.5953e-24  4.3911e-31  9.6112e-24  6.4086e-31  9.6394e-24  1.2411e-30  9.6895e-24  3.017e-30  9.7787e-24  8.387e-30  9.9372e-24  2.3991e-29  1.0219e-23  5.1627e-29  1.072e-23  1.0474e-28  1.1612e-23  2.1387e-28  1.3199e-23  4.3723e-28  1.6024e-23  8.767e-28  2.1062e-23  1.721e-27  3.0065e-23  3.3029e-27  4.6221e-23  6.237e-27  7.541e-23  1.1684e-26  1.2877e-22  2.1929e-26  2.2828e-22  4.1747e-26  4.1983e-22  8.1877e-26  8.0659e-22
      7.10  3.0815e-31  1.0077e-23   3.68e-31  1.0092e-23  5.4532e-31  1.0118e-23  1.0813e-30  1.0164e-23  2.6881e-30  1.0246e-23  7.6375e-30  1.0391e-23  2.2146e-29  1.065e-23  5.147e-29  1.111e-23  1.0596e-28  1.1928e-23   2.16e-28  1.3383e-23  4.4176e-28  1.5975e-23  9.037e-28  2.0595e-23  1.8054e-27  2.8853e-23  3.5113e-27  4.3668e-23  6.6878e-27  7.0438e-23  1.2596e-26  1.1938e-22  2.3719e-26  2.1067e-22  4.5248e-26  3.8644e-22  8.8868e-26  7.4149e-22
      7.15  2.5514e-31  1.058e-23  3.0655e-31  1.0593e-23  4.6118e-31  1.0616e-23  9.3692e-31  1.0656e-23  2.399e-30  1.0728e-23  6.6775e-30  1.0856e-23  1.8917e-29  1.1083e-23  4.6142e-29  1.1487e-23  9.315e-29  1.2205e-23  1.8654e-28  1.3482e-23  3.8668e-28  1.5757e-23  8.0513e-28  1.9811e-23  1.642e-27  2.7056e-23  3.2521e-27  4.0054e-23  6.2813e-27  6.3541e-23  1.1946e-26  1.0649e-22  2.2639e-26  1.8659e-22  4.3368e-26  3.4087e-22  8.5411e-26  6.5264e-22
      7.20  2.0999e-31  1.1104e-23  2.5305e-31  1.1115e-23  3.8409e-31  1.1134e-23  7.8596e-31  1.1168e-23  1.9501e-30  1.1229e-23  5.3919e-30  1.1337e-23  1.4958e-29  1.1529e-23  3.7982e-29  1.187e-23  7.3518e-29  1.2478e-23  1.5043e-28  1.3558e-23  3.173e-28  1.5481e-23  6.7471e-28  1.8908e-23  1.4123e-27  2.5031e-23  2.8676e-27  3.6015e-23  5.6511e-27  5.586e-23  1.0907e-26  9.2149e-23  2.088e-26  1.5985e-22  4.0263e-26  2.9026e-22  7.9632e-26  5.5385e-22
      7.25  1.7193e-31  1.1648e-23  2.0661e-31  1.1657e-23  3.1173e-31  1.1673e-23  6.2307e-31  1.1701e-23  1.5344e-30  1.1752e-23  4.1049e-30  1.1842e-23  1.1063e-29  1.2001e-23  2.7863e-29  1.2285e-23  5.4909e-29  1.2789e-23  1.1238e-28  1.3687e-23  2.4003e-28  1.5284e-23  5.2488e-28  1.813e-23  1.1328e-27  2.3213e-23  2.3734e-27  3.2332e-23  4.8013e-27  4.8805e-23  9.4514e-27  7.8928e-23  1.8346e-26  1.3512e-22  3.5704e-26  2.4339e-22  7.1036e-26  4.6228e-22
      7.30  1.4009e-31  1.2277e-23  1.6712e-31  1.2285e-23  2.4705e-31  1.2298e-23  4.8438e-31  1.2322e-23  1.1751e-30  1.2364e-23  3.0559e-30  1.2439e-23  8.1377e-30  1.2572e-23  1.9767e-29  1.2809e-23  4.1473e-29  1.323e-23  8.4493e-29  1.398e-23  1.7874e-28  1.5314e-23  4.0057e-28  1.7691e-23  8.9869e-28  2.1936e-23  1.956e-27  2.9549e-23  4.0908e-27  4.3302e-23  8.2619e-27  6.8447e-23  1.6333e-26  1.1536e-22  3.2182e-26  2.0574e-22  6.454e-26  3.8847e-22
      7.35  1.1408e-31  1.2935e-23  1.3439e-31  1.2942e-23  1.9451e-31  1.2953e-23  3.7285e-31  1.2973e-23  8.8455e-31  1.3009e-23  2.2446e-30  1.3073e-23  5.8627e-30  1.3186e-23  1.4882e-29  1.3388e-23  3.2738e-29  1.3747e-23  6.5833e-29  1.4386e-23  1.3962e-28  1.5523e-23  3.1806e-28  1.755e-23  7.3906e-28  2.1169e-23  1.6688e-27  2.7659e-23  3.5983e-27  3.9382e-23  7.4475e-27  6.0813e-23  1.4992e-26  1.0079e-22  2.9908e-26  1.7782e-22  6.047e-26  3.3354e-22
      7.40  9.2941e-32  1.3622e-23  1.0846e-31  1.3627e-23  1.5438e-31  1.3637e-23  2.9088e-31  1.3655e-23  6.8968e-31  1.3686e-23  1.7059e-30  1.3742e-23  4.4823e-30  1.3841e-23  1.1665e-29  1.4018e-23  2.7913e-29  1.4332e-23  5.4868e-29  1.489e-23  1.1597e-28  1.5885e-23  2.669e-28  1.7658e-23  6.3081e-28  2.0824e-23  1.4618e-27  2.6503e-23  3.2398e-27  3.6758e-23   6.86e-27  5.5505e-23  1.4047e-26  9.0476e-23  2.836e-26  1.5784e-22  5.7797e-26  2.9403e-22
      7.45  7.5871e-32  1.4336e-23  8.8159e-32  1.4341e-23  1.2453e-31  1.435e-23  2.3303e-31  1.4366e-23  5.4566e-31  1.4394e-23  1.3655e-30  1.4444e-23  3.5649e-30  1.4533e-23  9.458e-30  1.4692e-23  2.2177e-29  1.4974e-23   4.33e-29  1.563e-23   8.92e-29  1.6369e-23  2.0657e-28  1.7961e-23  4.974e-28  2.0806e-23  1.1849e-27  2.5908e-23  2.7082e-27  3.5123e-23  5.896e-27  5.1967e-23  1.2339e-26  8.3384e-23  2.5305e-26  1.439e-22  5.212e-26  2.6622e-22
      7.50  6.2111e-32  1.5078e-23  7.2296e-32  1.5083e-23  1.0272e-31  1.5091e-23  1.9228e-31  1.5106e-23  4.5254e-31  1.5132e-23  1.1258e-30  1.5178e-23  2.9573e-30  1.526e-23   7.92e-30  1.5406e-23  1.8445e-29  1.5665e-23  3.5287e-29  1.6127e-23  7.2516e-29  1.6949e-23  1.6756e-28  1.8416e-23  4.0771e-28  2.1036e-23  9.9217e-28  2.5735e-23  2.3307e-27  3.4221e-23  5.2124e-27  4.9734e-23  1.1154e-26  7.8665e-23  2.3251e-26  1.3438e-22  4.8426e-26  2.4699e-22
      7.55  5.104e-32  1.5929e-23  5.9941e-32  1.5934e-23  8.6696e-32  1.5941e-23  1.6513e-31  1.5955e-23  3.935e-31  1.598e-23  9.9242e-31  1.6023e-23  2.6255e-30   1.61e-23  7.0471e-30  1.6238e-23  1.5723e-29  1.6482e-23  3.0569e-29  1.6918e-23  6.1904e-29  1.7693e-23  1.4143e-28  1.9075e-23  3.444e-28  2.1544e-23  8.496e-28  2.5974e-23  2.0424e-27  3.3975e-23  4.6904e-27  4.8599e-23  1.0282e-26  7.5872e-23  2.1841e-26  1.2839e-22  4.6098e-26  2.3451e-22
      7.60  4.2114e-32  1.6818e-23  5.0309e-32  1.6822e-23  7.507e-32  1.683e-23  1.4791e-31  1.6843e-23  3.616e-31  1.6867e-23  9.3055e-31  1.6908e-23  2.4563e-30  1.6983e-23  6.5093e-30  1.7115e-23  1.3707e-29  1.735e-23  2.693e-29  1.7768e-23  5.3173e-29  1.8513e-23  1.181e-28  1.9842e-23  2.8273e-28  2.2217e-23  6.9623e-28  2.6477e-23  1.6942e-27  3.4172e-23  3.9693e-27  4.8238e-23  8.8878e-27  7.4466e-23  1.9226e-26  1.2497e-22  4.1129e-26   2.27e-22
      7.65  3.4867e-32  1.7745e-23  4.2592e-32  1.7749e-23  6.6136e-32  1.7756e-23  1.3513e-31  1.7769e-23  3.3645e-31  1.7792e-23  8.7628e-31  1.7833e-23  2.3456e-30  1.7906e-23  6.1956e-30  1.8035e-23  1.2256e-29  1.8265e-23  2.4153e-29  1.8673e-23  4.663e-29  1.9402e-23  1.0053e-28  2.0701e-23  2.3504e-28  2.3022e-23  5.7311e-28  2.7188e-23  1.4019e-27  3.4711e-23  3.3367e-27  4.8464e-23  7.6212e-27  7.4109e-23  1.6795e-26  1.2348e-22  3.6456e-26  2.2322e-22
      7.70  2.8837e-32  1.8709e-23  3.6173e-32  1.8713e-23  5.8712e-32  1.8721e-23  1.2443e-31  1.8733e-23  3.1521e-31  1.8756e-23  8.4387e-31  1.8797e-23  2.2634e-30  1.8868e-23  5.9854e-30  1.8996e-23  1.1065e-29  1.9224e-23  2.1446e-29  1.9629e-23  4.1267e-29  2.035e-23  8.6494e-29  2.1637e-23  1.9693e-28  2.3936e-23  4.7295e-28  2.8061e-23  1.156e-27  3.5513e-23  2.7838e-27  4.9136e-23  6.4752e-27  7.4537e-23  1.454e-26  1.2344e-22  3.2063e-26  2.2221e-22
      7.75  2.3995e-32  1.9711e-23  3.0995e-32  1.9715e-23  5.2638e-32  1.9723e-23  1.1562e-31  1.9735e-23  2.9709e-31  1.9758e-23  8.1357e-31  1.9798e-23  2.1726e-30  1.987e-23  5.4557e-30  1.9998e-23  1.0095e-29  2.0226e-23  1.9154e-29  2.063e-23  3.7179e-29  2.1351e-23  7.5329e-29  2.2637e-23  1.6667e-28  2.4935e-23  3.9217e-28  2.9059e-23  9.5188e-28  3.6508e-23  2.3075e-27  5.0127e-23  5.4521e-27  7.5519e-23  1.2472e-26  1.244e-22  2.7966e-26  2.2312e-22
      7.80  1.9999e-32  2.0854e-23  2.6621e-32  2.0858e-23  4.727e-32  2.0865e-23  1.0711e-31  2.0878e-23  2.7875e-31  2.0901e-23  7.6508e-31  2.0942e-23  2.0708e-30  2.1014e-23  5.1141e-30  2.1143e-23  9.2273e-30  2.1372e-23  1.729e-29  2.178e-23  3.2797e-29  2.2506e-23  6.6079e-29  2.3801e-23  1.4218e-28  2.6115e-23  3.2682e-28  3.0268e-23  7.8402e-28  3.7771e-23  1.9047e-27  5.1488e-23  4.5591e-27  7.7063e-23  1.0619e-26  1.2629e-22  2.4237e-26  2.2571e-22
      7.85  1.6644e-32  2.2048e-23  2.2797e-32  2.2052e-23  4.2112e-32  2.2059e-23  9.7939e-32  2.2072e-23  2.5747e-31  2.2095e-23  7.0362e-31  2.2137e-23  1.9161e-30  2.221e-23  4.6667e-30  2.234e-23  8.3792e-30  2.2571e-23  1.552e-29  2.2982e-23  2.9565e-29  2.3716e-23  5.8001e-29  2.5023e-23  1.2128e-28  2.736e-23  2.7317e-28  3.1553e-23  6.4588e-28  3.913e-23  1.5666e-27  5.298e-23  3.789e-27  7.8804e-23  8.9806e-27  1.2851e-22  2.0885e-26  2.2888e-22
      7.90  1.3822e-32  2.3293e-23  1.9284e-32  2.3298e-23  3.6723e-32  2.3305e-23  8.7578e-32  2.3318e-23  2.3191e-31  2.3341e-23  6.3419e-31  2.3383e-23  1.7579e-30  2.3457e-23  3.9716e-30  2.3588e-23  7.2433e-30  2.3821e-23  1.3335e-29  2.4237e-23  2.5217e-29  2.4977e-23  4.873e-29  2.6297e-23  1.0043e-28  2.8656e-23  2.2068e-28  3.2889e-23  5.1427e-28  4.0536e-23  1.2439e-27  5.4518e-23  3.0374e-27  8.0586e-23  7.3302e-27  1.3076e-22  1.7404e-26  2.3206e-22
      7.95  1.1433e-32  2.4591e-23  1.6216e-32  2.4595e-23  3.1617e-32  2.4602e-23  7.6524e-32  2.4615e-23  2.0362e-31  2.4639e-23  5.5732e-31  2.468e-23  1.5398e-30  2.4755e-23  3.3627e-30  2.4887e-23  6.1194e-30  2.5122e-23   1.12e-29  2.554e-23  2.0982e-29  2.6284e-23  4.0359e-29  2.7612e-23  8.1514e-29  2.9986e-23  1.749e-28  3.4245e-23  4.0069e-28  4.1941e-23  9.6736e-28  5.6009e-23  2.3746e-27  8.2238e-23  5.816e-27  1.3272e-22  1.4076e-26  2.3463e-22
      8.00  9.4075e-33  2.5939e-23  1.3462e-32  2.5943e-23  2.6642e-32  2.5951e-23  6.5208e-32  2.5964e-23  1.738e-31  2.5988e-23  4.8081e-31  2.6029e-23  1.3198e-30  2.6104e-23  2.8175e-30  2.6236e-23  5.017e-30  2.6471e-23  9.2337e-30  2.689e-23  1.7174e-29  2.7637e-23  3.2849e-29  2.8968e-23  6.5334e-29  3.1347e-23  1.3821e-28  3.5615e-23  3.1179e-28  4.3328e-23  7.4253e-28  5.7426e-23  1.8258e-27  8.3711e-23  4.5234e-27  1.343e-22  1.1136e-26  2.364e-22
      8.05  7.6964e-33  2.7472e-23  1.1022e-32  2.7477e-23  2.1956e-32  2.7484e-23  5.3997e-32  2.7497e-23  1.4408e-31  2.7521e-23  3.9888e-31  2.7563e-23  1.1068e-30  2.7637e-23  2.2653e-30  2.7769e-23  4.0674e-30  2.8005e-23  7.4638e-30  2.8424e-23  1.3808e-29  2.9171e-23  2.6252e-29  3.0502e-23  5.1594e-29  3.2882e-23  1.078e-28  3.7153e-23  2.3983e-28  4.4868e-23  5.6631e-28  5.8971e-23  1.393e-27  8.5265e-23  3.4844e-27  1.3586e-22  8.7143e-27  2.3797e-22
      8.10  6.2649e-33  2.9076e-23  8.9105e-33  2.9081e-23   1.76e-32  2.9088e-23  4.3186e-32  2.9101e-23  1.1602e-31  2.9125e-23  3.2192e-31  2.9166e-23  8.8596e-31  2.924e-23  1.8016e-30  2.9372e-23  3.2318e-30  2.9607e-23  5.8615e-30  3.0025e-23  1.0803e-29  3.0769e-23  2.0596e-29  3.2097e-23  4.0323e-29  3.4469e-23  8.3084e-29  3.8726e-23  1.8266e-28  4.6417e-23  4.2783e-28  6.0476e-23  1.0516e-27  8.6683e-23  2.6509e-27  1.3711e-22  6.7236e-27  2.3885e-22
      8.15  5.083e-33  3.0752e-23  7.135e-33  3.0756e-23  1.3947e-32  3.0763e-23  3.3815e-32  3.0777e-23   9.14e-32   3.08e-23  2.538e-31  3.0841e-23  7.0709e-31  3.0915e-23   1.42e-30  3.1046e-23  2.5489e-30  3.128e-23  4.5691e-30  3.1695e-23  8.3919e-30  3.2436e-23  1.577e-29  3.3756e-23  3.1004e-29  3.6116e-23  6.3103e-29  4.035e-23  1.371e-28  4.7999e-23  3.1822e-28  6.198e-23  7.8004e-28  8.804e-23  1.9768e-27  1.3817e-22  5.0753e-27  2.3931e-22
      8.20  4.1187e-33   3.25e-23  5.6775e-33  3.2504e-23  1.0903e-32  3.2511e-23  2.6197e-32  3.2524e-23  7.1614e-32  3.2874e-23  1.9614e-31  3.2589e-23  5.478e-31  3.2662e-23  1.0826e-30  3.2792e-23  1.9631e-30  3.3024e-23  3.5145e-30  3.3437e-23  6.4397e-30  3.4173e-23  1.2055e-29  3.5484e-23  2.3522e-29  3.7829e-23  4.7551e-29  4.2036e-23  1.0272e-28  4.9635e-23  2.3683e-28  6.3524e-23  5.7951e-28  8.9411e-23  1.4757e-27  1.392e-22  3.8304e-27  2.3962e-22
      8.25  3.3094e-33  3.4321e-23  4.4779e-33  3.4325e-23  8.1406e-33  3.4332e-23  2.0032e-32  3.4345e-23  5.3492e-32  3.4368e-23  1.4944e-31  3.4409e-23  4.1454e-31  3.4482e-23  8.2559e-31  3.4611e-23  1.4814e-30  3.4842e-23  2.6779e-30  3.5252e-23  4.9451e-30  3.5983e-23   9.23e-30  3.7287e-23  1.7783e-29  3.9617e-23  3.5891e-29  4.3798e-23  7.6916e-29  5.135e-23  1.7658e-28  6.5152e-23  4.318e-28  9.0873e-23  1.1048e-27  1.4034e-22  2.8961e-27  2.4007e-22
      8.30  2.692e-33  3.6388e-23  3.5617e-33  3.6392e-23  6.3004e-33  3.6399e-23  1.4987e-32  3.6412e-23  4.0439e-32  3.6435e-23  1.1233e-31  3.6476e-23  3.1715e-31  3.6549e-23  6.3233e-31  3.6678e-23  1.1339e-30  3.6909e-23  2.0489e-30  3.7318e-23  3.7443e-30  3.8049e-23  6.9775e-30  3.935e-23  1.3411e-29  4.1677e-23  2.698e-29  4.5852e-23  5.7657e-29  5.3394e-23  1.3205e-28  6.7176e-23  3.2304e-28  9.2856e-23  8.3037e-28  1.4223e-22  2.1829e-27  2.4175e-22
      8.35  2.2305e-33  3.8944e-23  2.8279e-33  3.856e-23  4.8342e-33  3.8567e-23  1.1202e-32  3.858e-23  2.9623e-32  3.8603e-23  8.2739e-32  3.8644e-23  2.3402e-31  3.8717e-23  4.6787e-31  3.8847e-23  8.3863e-31  3.9077e-23  1.5151e-30  3.9488e-23  2.7696e-30  4.0219e-23  5.1609e-30  4.1523e-23  9.9195e-30  4.3853e-23  1.996e-29  4.8034e-23   4.27e-29  5.5586e-23  9.8003e-29  6.9386e-23  2.4074e-28  9.5096e-23  6.2317e-28  1.4452e-22  1.665e-27  2.4411e-22
      8.40  1.7981e-33  4.0827e-23  2.2523e-33  4.0831e-23  3.7042e-33  4.0838e-23  8.2943e-33  4.0851e-23  2.1476e-32  4.0875e-23  5.9859e-32  4.0916e-23  1.688e-31  4.0989e-23  3.3868e-31  4.1119e-23  6.0694e-31  4.1351e-23  1.0968e-30  4.1763e-23  2.0065e-30  4.2498e-23  3.7442e-30  4.3808e-23  7.2116e-30  4.6149e-23  1.4558e-29  5.035e-23  3.1284e-29  5.7937e-23  7.2245e-29   7.18e-23  1.788e-28  9.7625e-23  4.671e-28  1.4726e-22  1.2617e-27  2.4724e-22
      8.45  1.4863e-33  4.3204e-23  1.844e-33  4.3644e-23  2.8797e-33  4.3216e-23  5.9611e-33  4.3229e-23  1.5782e-32  4.3252e-23  4.3644e-32  4.3294e-23  1.2265e-31  4.3368e-23  2.4715e-31  4.3499e-23  4.4281e-31  4.3733e-23  8.0036e-31  4.4148e-23  1.4653e-30  4.4889e-23  2.7382e-30  4.621e-23  5.2852e-30  4.8571e-23  1.0703e-29  5.2806e-23  2.3104e-29  6.0456e-23  5.3664e-29  7.4432e-23  1.3375e-28  1.0046e-22  3.5234e-28  1.5048e-22  9.6109e-28  2.5122e-22
      8.50  1.2404e-33  4.5691e-23  1.4826e-33  4.5695e-23  2.3126e-33  4.6164e-23  4.5353e-33  4.5716e-23  1.1645e-32  4.574e-23  3.198e-32  4.5782e-23  9.0234e-32  4.5856e-23  1.8198e-31  4.5989e-23  3.2597e-31  4.6226e-23  5.893e-31  4.6646e-23  1.0796e-30  4.7396e-23  2.0199e-30  4.8733e-23  3.9069e-30  5.1121e-23  7.9356e-30  5.5407e-23  1.7199e-29  6.3146e-23  4.0157e-29  7.7286e-23  1.0072e-28  1.0362e-22  2.6727e-28  1.5421e-22  7.3534e-28  2.5606e-22
