# This was generated using Cloudy10 and the columns are ordered 
# as log10 of the fraction of the metallicity to the solar metallicity
# 'h_*_Z' and 'c_*_Z' stands for cooling and heating respectively 
# at * metalicity
#
# Redshift = 3.5
# hden = 3.0
#     temp   h_-3.00_Z   c_-3.00_Z   h_-2.75_Z   c_-2.75_Z   h_-2.50_Z   c_-2.50_Z   h_-2.25_Z   c_-2.25_Z   h_-2.00_Z   c_-2.00_Z   h_-1.75_Z   c_-1.75_Z   h_-1.50_Z   c_-1.50_Z   h_-1.25_Z   c_-1.25_Z   h_-1.00_Z   c_-1.00_Z   h_-0.75_Z   c_-0.75_Z   h_-0.50_Z   c_-0.50_Z   h_-0.25_Z   c_-0.25_Z    h_0.00_Z    c_0.00_Z    h_0.25_Z    c_0.25_Z    h_0.50_Z    c_0.50_Z    h_0.75_Z    c_0.75_Z    h_1.00_Z    c_1.00_Z    h_1.25_Z    c_1.25_Z    h_1.50_Z    c_1.50_Z 
      4.00  7.6046e-27  2.0166e-25  7.6046e-27   2.02e-25  7.6048e-27  2.026e-25  7.605e-27  2.0366e-25  7.6054e-27  2.0554e-25  7.6062e-27  2.089e-25  7.6075e-27  2.1486e-25  7.6098e-27  2.2545e-25  7.6139e-27  2.4427e-25  7.6211e-27  2.7776e-25  7.634e-27  3.3732e-25  7.6569e-27  4.433e-25  7.6974e-27  6.3182e-25  7.7689e-27  9.6662e-25  7.8946e-27  1.5591e-24  8.1143e-27  2.6006e-24  8.4954e-27  4.4169e-24  9.1582e-27  7.5586e-24  1.034e-26  1.3011e-23
      4.05  7.5847e-27  8.165e-25  7.5848e-27  8.1699e-25  7.585e-27  8.1785e-25  7.5853e-27  8.1938e-25  7.5858e-27  8.2211e-25  7.5866e-27  8.2696e-25  7.5881e-27  8.3555e-25  7.5908e-27  8.508e-25  7.5956e-27  8.7788e-25  7.6041e-27  9.2598e-25  7.6192e-27  1.0115e-24  7.646e-27  1.1633e-24  7.6933e-27  1.4329e-24  7.7769e-27  1.9096e-24  7.9237e-27  2.7476e-24  8.179e-27  4.2047e-24  8.6186e-27  6.6951e-24  9.3703e-27  1.0868e-23  1.0663e-26  1.7776e-23
      4.10  7.3329e-27  3.8467e-24  7.3331e-27  3.8476e-24  7.3333e-27  3.8493e-24  7.3336e-27  3.8523e-24  7.3343e-27  3.8576e-24  7.3355e-27  3.8669e-24  7.3376e-27  3.8836e-24  7.3413e-27  3.9131e-24  7.3479e-27  3.9656e-24  7.3597e-27  4.0588e-24  7.3805e-27  4.2242e-24  7.4176e-27  4.5177e-24  7.4832e-27  5.0376e-24  7.5991e-27  5.9545e-24  7.8025e-27  7.5588e-24  8.1557e-27  1.0326e-23  8.759e-27  1.4986e-23  9.7622e-27  2.253e-23  1.137e-26  3.416e-23
      4.15  6.2013e-27  2.4116e-23  6.2016e-27  2.4119e-23  6.202e-27  2.4124e-23  6.2027e-27  2.4134e-23  6.204e-27  2.4152e-23  6.2063e-27  2.4183e-23  6.2103e-27  2.4239e-23  6.2175e-27  2.4339e-23  6.2304e-27  2.4515e-23  6.2531e-27  2.4829e-23  6.2936e-27  2.5388e-23  6.3655e-27  2.6379e-23  6.493e-27  2.8139e-23  6.7189e-27  3.1258e-23  7.1173e-27  3.6768e-23  7.816e-27  4.6444e-23  9.0265e-27  6.3255e-23  1.108e-26  9.1891e-23  1.443e-26  1.3897e-22
      4.20  4.0079e-27  8.6058e-23  4.0082e-27  8.6067e-23  4.0087e-27  8.6083e-23  4.0097e-27  8.6111e-23  4.0114e-27  8.6162e-23  4.0145e-27  8.6251e-23   4.02e-27  8.6411e-23  4.0297e-27  8.6695e-23  4.0469e-27  8.7199e-23  4.0776e-27  8.8097e-23  4.1322e-27  8.9693e-23  4.2293e-27  9.2532e-23  4.4018e-27  9.7579e-23  4.7084e-27  1.0655e-22  5.2528e-27  1.2252e-22  6.2188e-27  1.509e-22  7.9305e-27  2.0137e-22  1.0953e-26  2.9107e-22  1.6258e-26  4.5031e-22
      4.25  2.1249e-27  1.296e-22  2.1249e-27  1.2961e-22  2.1249e-27  1.2964e-22  2.125e-27  1.2969e-22  2.1251e-27  1.2977e-22  2.1254e-27  1.2991e-22  2.1258e-27  1.3017e-22  2.1265e-27  1.3064e-22  2.1278e-27  1.3146e-22  2.1301e-27  1.3292e-22  2.1342e-27  1.3552e-22  2.1414e-27  1.4014e-22  2.1545e-27  1.4837e-22  2.1779e-27  1.6302e-22  2.2204e-27  1.891e-22  2.2982e-27  2.3564e-22  2.4438e-27  3.1887e-22  2.7245e-27  4.6834e-22  3.2911e-27  7.388e-22
      4.30  1.2461e-27  1.2063e-22  1.2455e-27  1.2065e-22  1.2444e-27  1.2068e-22  1.2424e-27  1.2074e-22  1.2389e-27  1.2084e-22  1.2327e-27  1.2101e-22  1.2217e-27  1.2133e-22  1.202e-27  1.2189e-22  1.1806e-27  1.2289e-22  1.1823e-27  1.2466e-22  1.1853e-27  1.2781e-22  1.1908e-27  1.3342e-22  1.2006e-27  1.434e-22  1.2186e-27  1.6118e-22  1.2522e-27  1.9285e-22  1.3159e-27  2.4938e-22  1.4387e-27  3.5057e-22  1.6779e-27  5.3263e-22  2.143e-27  8.6306e-22
      4.35  9.5283e-28  9.5887e-23  9.514e-28  9.5909e-23  9.4886e-28  9.5946e-23  9.4433e-28  9.6014e-23  9.3628e-28  9.6134e-23  9.2196e-28  9.6347e-23  8.9651e-28  9.6725e-23  8.5125e-28  9.7399e-23  8.0837e-28  9.8597e-23  8.0976e-28  1.0073e-22  8.1228e-28  1.0452e-22  8.1695e-28  1.1126e-22  8.2582e-28  1.2325e-22  8.4324e-28  1.4461e-22  8.7886e-28  1.8267e-22  9.5422e-28  2.5062e-22  1.1167e-27  3.7227e-22  1.4651e-27  5.9122e-22  2.1145e-27  9.889e-22
      4.40  8.3861e-28  7.5057e-23  8.364e-28  7.5083e-23  8.3245e-28  7.5131e-23  8.2544e-28  7.5215e-23  8.1297e-28  7.5365e-23  7.908e-28  7.5632e-23  7.5137e-28  7.6107e-23  6.8125e-28  7.6951e-23  5.7187e-28  7.8453e-23  5.732e-28  8.1123e-23  5.7574e-28  8.5873e-23  5.8078e-28  9.4322e-23  5.913e-28  1.0936e-22  6.1454e-28  1.3612e-22  6.6825e-28  1.8382e-22  7.9499e-28  2.6895e-22  1.0875e-27  4.2133e-22  1.5333e-27  6.9553e-22  2.1843e-27  1.1933e-21
      4.45  6.5991e-28  6.0161e-23  6.5701e-28  6.0195e-23  6.5185e-28  6.0256e-23  6.4266e-28  6.0365e-23  6.2634e-28  6.0558e-23  5.973e-28  6.0902e-23  5.4568e-28  6.1513e-23  4.5389e-28   6.26e-23  3.3026e-28  6.4532e-23  3.3187e-28  6.797e-23  3.3531e-28  7.4084e-23  3.431e-28  8.4959e-23  3.6187e-28  1.0431e-22  4.0866e-28  1.3876e-22  5.2583e-28  2.0013e-22  7.664e-28  3.0964e-22  1.1257e-27  5.0562e-22  1.6613e-27  8.5801e-22  2.4958e-27  1.4971e-21
      4.50  4.3758e-28  4.8231e-23  4.3415e-28  4.8276e-23  4.2804e-28  4.8355e-23  4.1719e-28  4.8495e-23  3.9788e-28  4.8745e-23  3.6356e-28  4.9189e-23  3.0254e-28  4.9979e-23  1.941e-28  5.1384e-23  1.5998e-28  5.3882e-23  1.6255e-28  5.8326e-23  1.6894e-28  6.6228e-23  1.8551e-28  8.0286e-23  2.2894e-28  1.053e-22  3.4048e-28  1.4982e-22  5.3995e-28  2.2916e-22    8.3e-28  3.7076e-22  1.2937e-27  6.2419e-22  1.9189e-27   1.08e-21  2.924e-27  1.907e-21
      4.55  2.742e-28  3.8521e-23  2.7051e-28  3.8579e-23  2.6395e-28  3.868e-23  2.5229e-28  3.8862e-23  2.3155e-28  3.9184e-23  1.9468e-28  3.9757e-23  1.2915e-28  4.0776e-23  7.6059e-29  4.2589e-23  7.7375e-29  4.5813e-23  8.0687e-29  5.1546e-23  8.9481e-29  6.1743e-23  1.1348e-28  7.9883e-23  1.7884e-28  1.1216e-22  2.9413e-28  1.6963e-22  4.8485e-28  2.7206e-22  8.1471e-28  4.5492e-22  1.2715e-27  7.8237e-22  1.9894e-27  1.3718e-21  3.1764e-27  2.443e-21
      4.60  1.7794e-28  3.1144e-23  1.7438e-28  3.1218e-23  1.6805e-28  3.1349e-23  1.5679e-28  3.1583e-23  1.3677e-28  3.1997e-23  1.0118e-28  3.2735e-23  4.0401e-29  3.4047e-23  4.1052e-29  3.6381e-23  4.2659e-29  4.0531e-23  4.6901e-29  4.7911e-23  5.8606e-29  6.1038e-23  9.1495e-29  8.4391e-23  1.5344e-28  1.2595e-22  2.7046e-28  1.9995e-22  4.6415e-28  3.3187e-22  7.8814e-28  5.6747e-22  1.2824e-27  9.8959e-22  2.0759e-27  1.7503e-21  3.4205e-27  3.1352e-21
      4.65  1.2343e-28  2.6457e-23  1.2034e-28  2.6552e-23  1.1485e-28  2.672e-23  1.0508e-28  2.7019e-23  8.772e-29  2.7552e-23  5.6867e-29  2.8499e-23  2.5906e-29  3.0182e-23  2.6706e-29  3.3176e-23  2.8689e-29  3.8501e-23  3.3948e-29  4.7971e-23  4.8555e-29  6.4816e-23  8.1779e-29  9.4785e-23  1.4691e-28  1.4812e-22  2.6319e-28  2.4311e-22  4.8586e-28  4.1247e-22  8.4414e-28  7.1504e-22  1.4033e-27  1.2575e-21  2.3193e-27  2.2364e-21  3.8913e-27  4.0219e-21
      4.70  9.2629e-29  2.5335e-23  9.0194e-29  2.5456e-23  8.5864e-29  2.5672e-23  7.8167e-29  2.6055e-23  6.4485e-29  2.6736e-23  4.0178e-29  2.7947e-23  2.1145e-29  3.0102e-23  2.2237e-29  3.3933e-23  2.4833e-29  4.0747e-23  3.149e-29  5.2866e-23  4.958e-29  7.4423e-23  8.6871e-29  1.1278e-22  1.649e-28  1.8104e-22  3.0743e-28  3.0264e-22  5.4236e-28  5.1951e-22  9.2277e-28  9.0718e-22  1.5682e-27  1.6029e-21  2.6487e-27  2.8603e-21  4.5191e-27  5.1601e-21
      4.75  7.4631e-29  3.0046e-23  7.2872e-29   3.02e-23  6.9751e-29  3.0474e-23  6.4115e-29  3.096e-23  5.4347e-29  3.1826e-23  3.6851e-29  3.3364e-23  2.138e-29  3.6101e-23  2.307e-29  4.0967e-23  2.6934e-29  4.9621e-23  3.648e-29  6.5014e-23  6.1334e-29  9.2395e-23  1.0953e-28  1.4111e-22  1.9719e-28  2.2784e-22  3.4789e-28  3.8236e-22  6.1223e-28  6.5805e-22  1.0554e-27  1.1512e-21  1.8051e-27  2.0372e-21  3.0773e-27  3.6417e-21  5.3197e-27  6.5862e-21
      4.80  6.2765e-29  4.3691e-23  6.1643e-29  4.3883e-23  5.9651e-29  4.4226e-23  5.6111e-29  4.4836e-23  4.9831e-29  4.592e-23  3.8708e-29  4.7849e-23  2.4551e-29  5.1278e-23  2.731e-29  5.7376e-23  3.354e-29  6.8221e-23  4.877e-29  8.7512e-23  8.1918e-29  1.2183e-22   1.37e-28  1.8289e-22  2.381e-28  2.9161e-22  4.1764e-28  4.8535e-22  7.2868e-28  8.3115e-22  1.2602e-27  1.4501e-21  2.1857e-27  2.5636e-21  3.7843e-27  4.5838e-21  6.641e-27  8.303e-21
      4.85  5.1697e-29  6.498e-23  5.117e-29  6.5217e-23  5.0236e-29  6.5639e-23  4.8581e-29  6.6389e-23  4.5664e-29  6.7722e-23  4.055e-29  7.0092e-23  3.1698e-29  7.4308e-23  3.2759e-29  8.1805e-23  4.3026e-29  9.5138e-23  6.518e-29  1.1885e-22  1.0582e-28  1.6105e-22  1.7621e-28  2.3613e-22  3.0455e-28  3.6982e-22  5.2897e-28  6.081e-22  9.1715e-28  1.0336e-21  1.5885e-27  1.7956e-21  2.7383e-27  3.1679e-21  4.7096e-27  5.6621e-21  8.2171e-27  1.0267e-20
      4.90  3.935e-29  8.0776e-23  3.9387e-29  8.1058e-23  3.9458e-29  8.1561e-23  3.9601e-29  8.2454e-23  3.9905e-29  8.4044e-23  4.0602e-29  8.687e-23  4.2331e-29  9.1895e-23  4.6939e-29  1.0083e-22  5.8623e-29  1.1673e-22  8.6119e-29   1.45e-22  1.4059e-28  1.953e-22  2.3947e-28  2.8482e-22  4.1719e-28  4.4421e-22  7.1805e-28  7.2835e-22  1.2229e-27  1.2358e-21  2.0699e-27  2.1449e-21  3.5022e-27  3.783e-21  5.8957e-27  6.7635e-21  1.0136e-26  1.2277e-20
      4.95  2.8693e-29  8.0435e-23  2.8806e-29  7.9963e-23  2.9609e-29  8.054e-23  3.1073e-29  8.1566e-23  3.3793e-29  8.339e-23  3.8992e-29  8.6634e-23  4.9349e-29  9.2404e-23  7.1118e-29  1.0266e-22  1.1416e-28  1.2091e-22  1.9111e-28  1.5337e-22  3.2814e-28  2.1111e-22  5.7083e-28  3.1388e-22  9.8318e-28  4.9687e-22  1.6802e-27  8.2309e-22  2.8516e-27  1.4057e-21  4.8225e-27  2.4498e-21  8.153e-27  4.3318e-21  1.3971e-26  7.7585e-21  2.4439e-26  1.4105e-20
      5.00  2.1235e-29  6.7636e-23  2.1866e-29  6.7993e-23  2.3019e-29  6.8629e-23  2.5163e-29  6.9759e-23  2.9273e-29  7.1769e-23  3.7481e-29  7.5344e-23  5.4803e-29  8.1702e-23  9.147e-29  9.3008e-23  1.6117e-28  1.1312e-22  2.8925e-28  1.4888e-22  5.0166e-28  2.1252e-22  8.6077e-28  3.2578e-22  1.4581e-27  5.2748e-22  2.4334e-27  8.871e-22  4.0188e-27  1.5296e-21  6.636e-27  2.6816e-21  1.1034e-26  4.7601e-21  1.8687e-26  8.5508e-21  3.2243e-26  1.5591e-20
      5.05  1.7449e-29  5.4092e-23  1.8152e-29  5.4459e-23  1.9491e-29  5.5112e-23  2.2144e-29  5.6274e-23  2.7712e-29  5.8339e-23  3.9801e-29  6.2012e-23  6.3902e-29  6.8543e-23  1.1989e-28  8.0159e-23  2.3195e-28  1.0082e-22  4.0323e-28  1.3757e-22  6.828e-28  2.0295e-22  1.1321e-27  3.1933e-22  1.8401e-27  5.2661e-22  2.9241e-27  8.9629e-22  4.6178e-27  1.5571e-21  7.3472e-27  2.7428e-21  1.1953e-26  4.8851e-21  1.9942e-26  8.8015e-21  3.3656e-26  1.6104e-20
      5.10  1.5573e-29  4.2694e-23  1.6357e-29  4.3051e-23  1.8008e-29  4.3686e-23  2.1734e-29  4.4816e-23  3.0606e-29  4.6826e-23  4.7186e-29  5.0399e-23  8.5537e-29  5.6754e-23  1.7687e-28  6.8055e-23  3.2225e-28  8.8155e-23  5.4623e-28  1.2391e-22  8.8729e-28  1.8753e-22  1.3964e-27  3.0078e-22  2.1412e-27  5.0252e-22  3.2239e-27  8.6242e-22  4.8725e-27  1.506e-21  7.386e-27  2.6619e-21  1.1496e-26  4.7534e-21  1.8717e-26  8.5867e-21  3.1541e-26  1.5763e-20
      5.15  1.4714e-29  3.3949e-23  1.5709e-29  3.4304e-23  1.8119e-29  3.4935e-23  2.4414e-29  3.6058e-23  3.6873e-29  3.8054e-23  6.3239e-29  4.1604e-23  1.2749e-28  4.7917e-23  2.4886e-28  5.9144e-23  4.3513e-28  7.9113e-23  7.0901e-28  1.1464e-22  1.0908e-27  1.7785e-22  1.6246e-27  2.9037e-22  2.3702e-27  4.9086e-22  3.4244e-27  8.4859e-22  4.715e-27  1.4886e-21  6.8837e-27  2.6389e-21  1.0642e-26  4.7228e-21  1.7307e-26  8.5501e-21  2.9254e-26  1.574e-20
      5.20  1.4435e-29  2.7412e-23  1.5877e-29  2.7778e-23  1.9796e-29  2.8428e-23  3.0155e-29  2.9585e-23  4.8752e-29  3.1643e-23  9.3112e-29  3.5302e-23  1.9651e-28  4.1809e-23  3.3786e-28  5.3381e-23  5.5206e-28  7.3965e-23  8.6577e-28  1.1058e-22  1.2794e-27  1.7574e-22  1.8241e-27  2.9174e-22  2.5331e-27  4.9845e-22  3.2364e-27  8.6737e-22  4.4049e-27  1.5276e-21  6.4368e-27  2.7149e-21  1.0037e-26  4.8683e-21  1.6489e-26  8.8301e-21  2.8186e-26  1.6295e-20
      5.25  1.4531e-29  2.2513e-23  1.6796e-29  2.289e-23  2.3312e-29  2.356e-23  3.963e-29  2.4752e-23  7.346e-29  2.6872e-23  1.3452e-28  3.0642e-23  2.547e-28  3.7345e-23  4.1886e-28  4.9268e-23  6.4806e-28  7.0476e-23  9.7637e-28  1.082e-22  1.4116e-27  1.7534e-22  1.9705e-27  2.9487e-22  2.4149e-27  5.079e-22  3.1396e-27  8.8816e-22  4.3844e-27  1.5689e-21  6.5585e-27  2.794e-21  1.0396e-26  5.0183e-21  1.7296e-26  9.1182e-21  2.9968e-26  1.6866e-20
      5.30  1.5113e-29  1.8804e-23  1.8904e-29  1.9187e-23  3.0708e-29  1.9868e-23  6.1019e-29  2.108e-23  9.8803e-29  2.3234e-23  1.6901e-28  2.7066e-23  2.9644e-28  3.3881e-23  4.6656e-28    4.6e-23  7.1376e-28  6.7558e-23  1.0348e-27  1.0591e-22  1.508e-27  1.7416e-22  1.9002e-27  2.9568e-22  2.3873e-27  5.1228e-22  3.1088e-27  8.9902e-22  4.296e-27  1.5917e-21  6.3661e-27  2.839e-21  9.9064e-27  5.1063e-21  1.6332e-26  9.2941e-21  2.821e-26  1.7234e-20
      5.35  1.6455e-29  1.5974e-23  2.3589e-29  1.6364e-23  4.4414e-29  1.7058e-23  7.648e-29  1.8291e-23  1.1925e-28  2.0484e-23  1.909e-28  2.4384e-23  3.2058e-28  3.132e-23  4.9221e-28  4.3656e-23  7.352e-28  6.5598e-23  1.1127e-27  1.0463e-22  1.5467e-27  1.7411e-22  1.835e-27  2.9782e-22  2.2724e-27  5.1835e-22  2.9619e-27  9.1219e-22  4.1101e-27  1.6178e-21  6.0063e-27  2.8895e-21  9.4066e-27  5.2038e-21  1.5566e-26  9.4871e-21  2.7005e-26  1.7634e-20
      5.40  1.7444e-29  1.3764e-23  2.7471e-29  1.4144e-23  5.1498e-29  1.482e-23  7.9643e-29  1.6021e-23  1.2524e-28  1.8158e-23  1.9195e-28  2.1957e-23  3.0994e-28  2.8714e-23  5.0807e-28  4.0731e-23  7.7086e-28  6.2107e-23  1.2064e-27  1.0014e-22  1.4843e-27  1.6782e-22  1.7807e-27  2.8836e-22  2.2463e-27  5.0326e-22  2.9758e-27  8.8716e-22  4.1894e-27  1.5753e-21  6.1728e-27  2.8165e-21  9.6368e-27  5.0786e-21  1.5953e-26  9.2751e-21  2.7692e-26  1.7288e-20
      5.45  1.5917e-29  1.197e-23  2.3446e-29  1.2288e-23  4.4685e-29  1.2854e-23  6.9353e-29  1.3861e-23  1.0631e-28  1.5653e-23  1.7403e-28  1.8838e-23  2.8336e-28  2.4502e-23  4.6498e-28  3.4576e-23  7.8786e-28  5.2495e-23  1.2651e-27  8.4375e-23  1.497e-27  1.4112e-22  1.8457e-27  2.4219e-22  2.3696e-27  4.2241e-22  3.0919e-27  7.4448e-22  4.258e-27  1.3222e-21  6.2006e-27  2.3653e-21  9.5864e-27  4.2702e-21  1.5724e-26  7.8153e-21  2.7211e-26  1.4618e-20
      5.50  1.3316e-29  1.0474e-23  1.6273e-29  1.0704e-23  2.5236e-29  1.1112e-23  4.9495e-29  1.1838e-23  8.3745e-29  1.3129e-23  1.4319e-28  1.5426e-23  2.5038e-28  1.9509e-23  4.3997e-28  2.6772e-23  7.5965e-28  3.9691e-23  1.2128e-27  6.2675e-23  1.5712e-27  1.0359e-22  1.9715e-27  1.7647e-22  2.4134e-27  3.0646e-22  3.0678e-27  5.3884e-22  4.023e-27  9.5596e-22  5.6227e-27  1.7099e-21  8.4332e-27  3.0894e-21  1.3515e-26  5.6649e-21  2.2991e-26  1.0632e-20
      5.55  1.2015e-29  9.3078e-24  1.3511e-29  9.4805e-24  1.7764e-29  9.7875e-24  3.0053e-29  1.0334e-23  6.0937e-29  1.1304e-23  1.2509e-28  1.3031e-23  2.4098e-28  1.6102e-23  4.4791e-28  2.1563e-23  7.9188e-28  3.1277e-23  1.2093e-27  4.8561e-23  1.6028e-27  7.9329e-23  1.969e-27  1.3414e-22  2.3494e-27  2.3192e-22  2.8318e-27  4.0677e-22  3.5965e-27  7.2074e-22  4.8375e-27  1.2887e-21  7.0251e-27  2.3291e-21  1.1001e-26  4.2755e-21  1.8373e-26  8.0412e-21
      5.60  1.1493e-29  8.4112e-24  1.3058e-29  8.5611e-24  1.7551e-29  8.8276e-24  3.0627e-29  9.3015e-24  5.5641e-29  1.0144e-23  1.1599e-28  1.1643e-23  2.4674e-28  1.4308e-23  4.755e-28  1.9048e-23  8.6893e-28  2.7479e-23  1.2028e-27  4.2482e-23   1.57e-27  6.9191e-23  1.8156e-27  1.1678e-22  2.0972e-27  2.0167e-22  2.4962e-27  3.5348e-22  3.1285e-27  6.2617e-22  4.1532e-27  1.1197e-21  5.9483e-27  2.0243e-21  9.2047e-27  3.7189e-21  1.5241e-26  7.0034e-21
      5.65  1.1128e-29  7.7116e-24  1.3147e-29  7.8547e-24  1.903e-29  8.1091e-24  3.4986e-29  8.5615e-24  6.6477e-29  9.366e-24  1.2991e-28  1.0797e-23  2.6238e-28  1.3341e-23  5.0839e-28  1.7866e-23  9.2003e-28  2.5914e-23  1.2119e-27  4.0237e-23  1.5123e-27  6.5736e-23  1.6842e-27  1.1117e-22  1.9313e-27  1.9222e-22  2.2782e-27  3.3718e-22  2.8563e-27  5.9761e-22  3.792e-27  1.0691e-21  5.4411e-27  1.9338e-21   8.43e-27  3.5549e-21  1.3991e-26  6.7013e-21
      5.70  1.0773e-29  7.1549e-24  1.326e-29  7.295e-24  2.0528e-29  7.544e-24  4.1521e-29  7.9868e-24  7.5969e-29  8.7743e-24  1.4861e-28  1.0175e-23  2.9653e-28  1.2665e-23  5.7309e-28  1.7093e-23  9.0199e-28  2.4972e-23  1.1358e-27  3.8993e-23  1.3562e-27  6.3954e-23   1.53e-27  1.0843e-22   1.75e-27  1.8777e-22  2.0723e-27  3.297e-22  2.6189e-27  5.8472e-22  3.5419e-27  1.0465e-21  5.1636e-27  1.8939e-21  8.1147e-27  3.4839e-21  1.3632e-26  6.5736e-21
      5.75  1.0156e-29  6.648e-24  1.2862e-29  6.7814e-24  2.0676e-29  7.0185e-24  4.1391e-29  7.4402e-24  8.236e-29   8.19e-24  1.6271e-28  9.5234e-24  3.3503e-28  1.1895e-23  6.0417e-28  1.6112e-23  8.0026e-28  2.3616e-23  9.8181e-28  3.6968e-23  1.1261e-27  6.074e-23  1.2979e-27  1.0309e-22  1.5087e-27  1.7867e-22  1.8374e-27  3.1386e-22  2.3787e-27  5.5682e-22  3.3033e-27  9.9693e-22  4.9567e-27  1.805e-21  7.982e-27  3.3226e-21  1.3678e-26  6.276e-21
      5.80  9.4113e-30  6.2574e-24  1.2184e-29  6.3799e-24  1.9586e-29  6.5977e-24  4.0015e-29  6.9849e-24  8.4385e-29  7.6736e-24  1.8247e-28  8.898e-24  3.4508e-28  1.1076e-23  5.414e-28  1.495e-23  6.8584e-28  2.1842e-23  8.3638e-28  3.4106e-23  9.4929e-28  5.5941e-23  1.1325e-27  9.4844e-23  1.3553e-27  1.6427e-22  1.691e-27  2.8847e-22  2.2642e-27  5.1174e-22  3.261e-27  9.1633e-22  5.0462e-27  1.6597e-21  8.3437e-27  3.0572e-21  1.4608e-26  5.7815e-21
      5.85  9.1014e-30  5.9601e-24  1.2167e-29  6.0756e-24  2.0284e-29  6.2809e-24  4.1541e-29  6.6459e-24  9.4119e-29  7.295e-24   2.02e-28  8.4491e-24  3.2309e-28  1.0502e-23  4.7867e-28  1.4154e-23  6.0235e-28  2.0652e-23  7.5354e-28  3.2213e-23  8.8684e-28  5.2797e-23  1.0474e-27  8.9474e-23  1.2888e-27  1.5493e-22  1.6658e-27  2.7205e-22  2.3205e-27  4.8262e-22  3.4677e-27  8.6436e-22  5.5453e-27  1.5662e-21  9.3976e-27  2.887e-21  1.677e-26  5.466e-21
      5.90  8.8452e-30  5.7436e-24  1.256e-29  5.8589e-24  2.221e-29  6.0638e-24  4.7192e-29  6.4281e-24  1.0365e-28  7.076e-24  2.0622e-28  8.2282e-24  3.2633e-28  1.0278e-23  4.3487e-28  1.3924e-23  5.7485e-28  2.041e-23  7.1031e-28  3.1952e-23  8.4258e-28  5.2501e-23  1.0092e-27  8.9118e-23  1.2849e-27  1.5447e-22  1.7471e-27  2.7142e-22  2.5414e-27  4.8173e-22  3.957e-27  8.6312e-22  6.5344e-27  1.5647e-21  1.134e-26  2.8865e-21  2.0601e-26  5.4709e-21
      5.95  8.4736e-30  5.589e-24  1.2584e-29  5.7066e-24  2.3948e-29  5.9749e-24  5.0437e-29  6.2876e-24  1.1283e-28  6.9489e-24  2.1495e-28  8.1249e-24  3.2992e-28  1.0217e-23  4.4543e-28  1.3938e-23  5.5649e-28  2.0559e-23  6.7767e-28  3.234e-23  8.349e-28  5.3315e-23  1.0209e-27  9.0691e-23  1.327e-27  1.574e-22  1.8629e-27  2.768e-22  2.805e-27  4.9156e-22  4.4879e-27  8.8117e-22  7.5663e-27  1.5983e-21  1.3327e-26  2.9507e-21  2.4487e-26  5.5989e-21
      6.00  7.8275e-30  5.4797e-24  1.1773e-29  5.5977e-24  2.2422e-29  5.8076e-24  4.9228e-29  6.1807e-24  1.154e-28  6.9126e-24  2.3023e-28  8.0239e-24  3.4604e-28  1.0123e-23  4.5362e-28  1.3856e-23  5.6504e-28  2.0498e-23  6.9497e-28  3.2317e-23  8.5663e-28  5.3361e-23  1.0918e-27  9.0862e-23  1.4745e-27  1.578e-22  2.1462e-27  2.7762e-22  3.3422e-27  4.9319e-22  5.5043e-27  8.8442e-22  9.4674e-27  1.6051e-21  1.6908e-26  2.9655e-21  3.1395e-26  5.634e-21
      6.05  7.012e-30  5.4228e-24  1.0239e-29  5.5375e-24  1.9314e-29  5.7414e-24  4.374e-29  6.104e-24  1.0287e-28  6.7486e-24  2.3063e-28  7.8947e-24  3.5405e-28  9.9336e-24  4.6547e-28  1.3561e-23  5.8005e-28  2.0014e-23  7.1056e-28  3.1498e-23  8.7584e-28  5.1944e-23  1.1451e-27  8.8383e-23  1.6026e-27  1.5343e-22   2.41e-27  2.6988e-22  3.855e-27  4.7945e-22  6.4707e-27  8.5996e-22  1.1275e-26  1.5614e-21  2.0322e-26  2.8872e-21  3.8004e-26  5.4928e-21
      6.10  6.3331e-30  5.3977e-24  9.0809e-30  5.5065e-24  1.6591e-29  5.6998e-24  3.6697e-29  6.0436e-24  8.7205e-29  6.6548e-24  2.0036e-28  7.7416e-24  3.324e-28  9.6748e-24  4.5626e-28  1.3114e-23  5.6243e-28  1.9233e-23  6.8197e-28  3.0122e-23  8.6928e-28  4.951e-23  1.1708e-27  8.4063e-23  1.6974e-27  1.4575e-22  2.6357e-27  2.5621e-22  4.3152e-27  4.5504e-22  7.3575e-27  8.1624e-22  1.2959e-26  1.4826e-21  2.3528e-26  2.7438e-21  4.4252e-26  5.2273e-21
      6.15  5.9913e-30    5.4e-24  8.5107e-30  5.5009e-24  1.4925e-29  5.6802e-24  3.2068e-29  5.9991e-24  7.3089e-29  6.5661e-24  1.5246e-28  7.5742e-24  2.5025e-28  9.3673e-24  3.8329e-28  1.2557e-23  4.8948e-28  1.8232e-23  6.176e-28  2.8331e-23  8.186e-28  4.6313e-23  1.1456e-27  7.8364e-23  1.7253e-27  1.3559e-22  2.757e-27  2.3807e-22  4.6124e-27  4.226e-22  7.9769e-27  7.5797e-22  1.4176e-26  1.3772e-21  2.5898e-26  2.5508e-21  4.8946e-26  4.8664e-21
      6.20  5.7709e-30  5.4243e-24  8.2396e-30  5.5144e-24  1.4167e-29  5.6746e-24  2.8903e-29  5.9595e-24  5.8201e-29  6.4659e-24  1.1265e-28  7.3665e-24  1.8162e-28  8.9682e-24  2.7203e-28  1.1817e-23  3.8081e-28  1.6886e-23  5.1907e-28  2.5907e-23  7.2153e-28  4.1968e-23  1.0671e-27  7.0597e-23  1.6683e-27  1.2172e-22  2.7438e-27  2.1328e-22  4.6769e-27  3.7821e-22  8.187e-27  6.7812e-22  1.4663e-26  1.2324e-21  2.6927e-26  2.2842e-21  5.1107e-26  4.364e-21
      6.25  5.2716e-30  5.4663e-24  7.5082e-30  5.5421e-24  1.2717e-29  5.6769e-24  2.3242e-29  5.9167e-24  4.4072e-29  6.3429e-24  8.2013e-29  7.1008e-24  1.2792e-28  8.4488e-24  1.9352e-28  1.0846e-23  2.8161e-28  1.5111e-23  4.084e-28  2.2701e-23  6.067e-28  3.6216e-23  9.4602e-28  6.0307e-23  1.5396e-27  1.0333e-22  2.5962e-27  1.804e-22  4.4935e-27  3.1927e-22  7.9414e-27  5.7194e-22  1.4311e-26  1.0393e-21  2.6393e-26  1.9277e-21  5.0274e-26  3.6883e-21
      6.30  4.6107e-30  5.5497e-24  6.3618e-30  5.6102e-24  9.9228e-30  5.7178e-24  1.7834e-29  5.9091e-24  3.1763e-29  6.2492e-24  5.7723e-29  6.854e-24  8.5538e-29  7.9295e-24  1.3436e-28  9.8424e-24  2.0876e-28  1.3245e-23  3.1544e-28  1.9301e-23  4.9944e-28  3.0083e-23  8.1237e-28  4.9304e-23  1.3663e-27  8.3633e-23  2.3495e-27  1.4515e-22  4.1172e-27  2.5602e-22  7.3314e-27  4.5786e-22  1.3275e-26  8.3162e-22  2.4568e-26  1.5431e-21  4.6946e-26  2.9566e-21
      6.35  4.0116e-30  5.6562e-24  5.2414e-30  5.7041e-24  7.8167e-30  5.7892e-24  1.2901e-29  5.9406e-24  2.3417e-29  6.2098e-24  4.2097e-29  6.6884e-24  5.8896e-29  7.5396e-24  9.0196e-29  9.0533e-24  1.4727e-28  1.1746e-23  2.4734e-28  1.6538e-23  4.0906e-28  2.5071e-23  6.9501e-28  4.0282e-23  1.1963e-27  6.7451e-23  2.0894e-27  1.1615e-22  3.6999e-27  2.0395e-22  6.6309e-27  3.6388e-22  1.2057e-26  6.6034e-22  2.2383e-26  1.2256e-21  4.2895e-26  2.3513e-21
      6.40  3.4721e-30  5.7852e-24  4.5084e-30  5.824e-24  6.4345e-30  5.8932e-24  1.0079e-29  6.0161e-24  1.6913e-29  6.2347e-24  3.133e-29  6.6233e-24  4.4168e-29  7.3144e-24  6.687e-29  8.5436e-24  1.1085e-28  1.073e-23  1.9532e-28  1.4621e-23  3.475e-28  2.155e-23  6.1574e-28  3.3902e-23  1.0892e-27  5.5967e-23  1.9358e-27  9.5521e-23  3.4656e-27  1.6686e-22  6.2523e-27  2.969e-22  1.1418e-26  5.3818e-22  2.1268e-26  9.9897e-22  4.0886e-26  1.9187e-21
      6.45  2.994e-30  5.9332e-24  3.9421e-30  5.9653e-24  5.4933e-30  6.0225e-24  8.3738e-30  6.1242e-24  1.3386e-29  6.305e-24  2.3477e-29  6.6264e-24  3.7414e-29  7.1981e-24  5.7613e-29  8.2148e-24  9.7392e-29  1.0023e-23  1.7437e-28  1.3241e-23  3.1904e-28  1.8972e-23  5.8119e-28  2.9188e-23  1.051e-27  4.7439e-23  1.8982e-27  8.0163e-23  3.4257e-27  1.392e-22  6.2129e-27  2.4688e-22  1.1387e-26  4.4685e-22  2.1273e-26  8.2929e-22  4.1011e-26  1.5943e-21
      6.50  2.4861e-30  6.0979e-24  3.3722e-30  6.1247e-24  4.5857e-30  6.1722e-24  6.883e-30  6.2567e-24  1.0797e-29  6.407e-24  1.8258e-29  6.6742e-24  2.9041e-29  7.1494e-24  4.6499e-29  7.9946e-24  7.9865e-29  9.4979e-24  1.4503e-28  1.2173e-23  2.7048e-28  1.6936e-23  5.0584e-28  2.5428e-23  9.3452e-28  4.0601e-23  1.7098e-27  6.7808e-23  3.1146e-27  1.1691e-22  5.6823e-27  2.065e-22  1.0455e-26   3.73e-22  1.9589e-26  6.9184e-22  3.7866e-26  1.3308e-21
      6.55  2.0618e-30  6.309e-24  2.8254e-30  6.3316e-24  3.7742e-30  6.3718e-24  5.5489e-30  6.4434e-24  8.9174e-30  6.5707e-24  1.5281e-29  6.7969e-24  2.4395e-29  7.1993e-24  3.9098e-29  7.9149e-24  6.8882e-29  9.1879e-24  1.2762e-28  1.1453e-23  2.4249e-28  1.5487e-23  4.6157e-28  2.2678e-23  8.6842e-28  3.5527e-23  1.6112e-27  5.857e-23  2.9608e-27  1.0016e-22  5.4319e-27  1.7608e-22  1.0034e-26  3.1727e-22  1.8854e-26  5.8788e-22  3.6537e-26  1.1309e-21
      6.60  1.7154e-30  6.5378e-24  2.3049e-30  6.5576e-24  3.1329e-30  6.5929e-24  4.5525e-30  6.6557e-24  7.4403e-30  6.7673e-24  1.3256e-29  6.9658e-24  2.1705e-29  7.3187e-24  3.5166e-29  7.9465e-24  6.3073e-29  9.0632e-24  1.1962e-28  1.105e-23  2.3108e-28  1.4589e-23  4.4593e-28  2.0899e-23  8.4941e-28  3.2172e-23  1.5934e-27  5.2392e-23  2.9542e-27  8.8896e-23  5.4509e-27  1.5554e-22  1.0107e-26  2.7954e-22  1.9044e-26  5.1738e-22  3.6987e-26  9.9513e-22
      6.65  1.4287e-30  6.7831e-24  1.8865e-30  6.8013e-24  2.5942e-30  6.8335e-24  3.7549e-30  6.8907e-24  6.1436e-30  6.9926e-24  1.1459e-29  7.1737e-24  1.919e-29  7.4958e-24  3.1862e-29  8.0687e-24  5.8734e-29  9.0879e-24  1.1408e-28  1.0902e-23  2.2414e-28  1.4131e-23  4.3787e-28  1.989e-23  8.4286e-28  3.018e-23  1.5963e-27  4.8638e-23  2.9827e-27  8.1964e-23  5.5344e-27  1.4282e-22   1.03e-26  2.5609e-22  1.9458e-26  4.7348e-22  3.787e-26  9.1054e-22
      6.70  1.1892e-30  7.044e-24  1.5078e-30  7.0611e-24  2.0928e-30  7.0915e-24  3.1309e-30  7.1457e-24  5.289e-30  7.2419e-24  1.0614e-29  7.413e-24  1.9354e-29  7.7173e-24  3.4195e-29  8.2586e-24  6.5789e-29  9.2216e-24  1.3048e-28  1.0935e-23  2.5828e-28  1.3987e-23  5.054e-28  1.9429e-23  9.739e-28  2.9153e-23  1.8464e-27  4.6595e-23  3.4562e-27  7.8093e-23  6.4256e-27  1.3562e-22  1.1978e-26  2.4274e-22  2.2658e-26  4.4841e-22  4.4154e-26  8.6221e-22
      6.75  9.9119e-31  7.3193e-24  1.2052e-30  7.3359e-24  1.7035e-30  7.3654e-24  2.6501e-30  7.4179e-24  4.8478e-30  7.5113e-24  1.0559e-29  7.6773e-24  2.059e-29  7.9725e-24  3.8498e-29  8.4976e-24  7.6296e-29  9.4317e-24  1.5277e-28  1.1094e-23  3.0178e-28  1.4055e-23  5.8875e-28  1.9334e-23  1.1305e-27  2.8767e-23  2.1399e-27  4.5691e-23  4.0036e-27  7.6253e-23  7.4473e-27  1.3209e-22  1.3894e-26  2.3606e-22  2.6306e-26  4.3581e-22  5.1312e-26  8.3794e-22
      6.80  8.3014e-31  7.6481e-24  9.7309e-31  7.6646e-24  1.3887e-30  7.6938e-24  2.2638e-30  7.7458e-24  4.4787e-30  7.8383e-24  1.0031e-29  8.0028e-24  2.1376e-29  8.2952e-24  4.096e-29  8.8153e-24  8.2374e-29  9.7407e-24  1.6478e-28  1.1387e-23  3.2433e-28  1.432e-23  6.3089e-28  1.955e-23   1.21e-27  2.8896e-23  2.2897e-27  4.5663e-23  4.2873e-27  7.5945e-23  7.9865e-27  1.3127e-22  1.4923e-26  2.3434e-22  2.8291e-26  4.3241e-22  5.5247e-26  8.314e-22
      6.85  6.9994e-31  7.9947e-24  7.9855e-31  8.0113e-24  1.0999e-30  8.0407e-24  1.9231e-30  8.0931e-24  3.9114e-30  8.1862e-24  9.6477e-30  8.4353e-24  2.2533e-29  8.6462e-24  4.4662e-29  9.1699e-24  9.1897e-29  1.0102e-23  1.8385e-28  1.176e-23  3.6279e-28  1.4713e-23  7.0484e-28  1.9978e-23  1.3505e-27  2.9389e-23  2.5529e-27  4.6272e-23  4.7777e-27  7.6768e-23  8.901e-27  1.3249e-22  1.664e-26  2.3632e-22  3.157e-26  4.3593e-22  6.1705e-26  8.3822e-22
      6.90  5.964e-31  8.3583e-24  6.7447e-31  8.3751e-24  9.0944e-31  8.4049e-24  1.6006e-30  8.4579e-24  3.6415e-30  8.5522e-24  9.6192e-30  8.7199e-24  2.4344e-29  9.018e-24  5.0101e-29  9.5482e-24  1.0522e-28  1.0492e-23  2.1151e-28  1.217e-23  4.2021e-28  1.516e-23  8.2183e-28  2.0492e-23  1.5772e-27  3.002e-23  2.979e-27  4.7116e-23  5.5663e-27  7.7997e-23  1.0358e-26  1.3444e-22  1.9355e-26  2.3961e-22  3.6722e-26  4.4188e-22  7.1802e-26  8.4974e-22
      6.95  5.1351e-31  8.7383e-24  5.8645e-31  8.7552e-24  8.0269e-31  8.7851e-24  1.4763e-30  8.8384e-24  3.5472e-30  8.9331e-24  9.5402e-30  9.1016e-24  2.4889e-29  9.4012e-24  5.1628e-29  9.934e-24  1.0671e-28  1.0882e-23  2.1372e-28  1.2569e-23  4.292e-28  1.5573e-23  8.4555e-28  2.093e-23  1.6287e-27  3.0504e-23  3.0821e-27  4.7682e-23  5.7663e-27  7.8715e-23  1.074e-26  1.3544e-22  2.0083e-26  2.4117e-22  3.8134e-26  4.4456e-22  7.4628e-26  8.5487e-22
      7.00  4.4419e-31  9.134e-24  5.1514e-31  9.1506e-24  7.3349e-31  9.1801e-24  1.3895e-30  9.2326e-24  3.3314e-30  9.3259e-24  9.059e-30  9.4918e-24  2.5164e-29  9.7869e-24  5.2203e-29  1.0312e-23  1.0477e-28  1.1245e-23  2.1273e-28  1.2907e-23  4.3158e-28  1.5865e-23  8.563e-28  2.1141e-23  1.6591e-27  3.0571e-23  3.1548e-27  4.749e-23  5.9212e-27  7.8057e-23  1.1051e-26  1.3393e-22  2.0694e-26  2.3811e-22  3.9337e-26  4.3858e-22  7.7059e-26  8.4317e-22
      7.05  3.7298e-31  9.5954e-24  4.4053e-31  9.6112e-24  6.4228e-31  9.6394e-24  1.2425e-30  9.6895e-24  3.043e-30  9.7787e-24  8.3883e-30  9.9372e-24  2.3992e-29  1.0219e-23  5.1629e-29  1.072e-23  1.0474e-28  1.1612e-23  2.1387e-28  1.3199e-23  4.3723e-28  1.6024e-23  8.767e-28  2.1062e-23  1.721e-27  3.0065e-23  3.3029e-27  4.6221e-23  6.237e-27  7.541e-23  1.1684e-26  1.2877e-22  2.1929e-26  2.2828e-22  4.1747e-26  4.1983e-22  8.1877e-26  8.0659e-22
      7.10  3.0975e-31  1.0078e-23  3.696e-31  1.0092e-23  5.465e-31  1.0118e-23  1.0829e-30  1.0164e-23  2.6897e-30  1.0246e-23  7.579e-30  1.0391e-23  2.2147e-29  1.065e-23  5.1117e-29  1.111e-23  1.0597e-28  1.1928e-23   2.16e-28  1.3383e-23  4.4176e-28  1.5975e-23  9.037e-28  2.0595e-23  1.8054e-27  2.8853e-23  3.5113e-27  4.3668e-23  6.6878e-27  7.0438e-23  1.2596e-26  1.1938e-22  2.3719e-26  2.1067e-22  4.5248e-26  3.8644e-22  8.8868e-26  7.4149e-22
      7.15  2.5687e-31  1.058e-23  3.0828e-31  1.0593e-23  4.6291e-31  1.0616e-23  9.376e-31  1.0656e-23  2.4007e-30  1.0728e-23  6.6791e-30  1.0856e-23  1.8918e-29  1.1083e-23  4.6143e-29  1.1487e-23  9.3152e-29  1.2205e-23  1.8655e-28  1.3482e-23  3.8668e-28  1.5757e-23  8.0513e-28  1.9811e-23  1.642e-27  2.7056e-23  3.2521e-27  4.0054e-23  6.2813e-27  6.354e-23  1.1946e-26  1.0649e-22  2.2639e-26  1.8659e-22  4.3368e-26  3.4087e-22  8.541e-26  6.5263e-22
      7.20  2.1181e-31  1.1104e-23  2.5486e-31  1.1115e-23  3.9294e-31  1.1245e-23  7.8777e-31  1.1168e-23  1.9687e-30  1.1229e-23  5.3936e-30  1.1337e-23  1.508e-29  1.1529e-23  3.7984e-29  1.187e-23  7.352e-29  1.2478e-23  1.5043e-28  1.3558e-23  3.173e-28  1.5481e-23  6.7471e-28  1.8908e-23  1.4123e-27  2.5031e-23  2.8675e-27  3.6015e-23  5.6511e-27  5.586e-23  1.0907e-26  9.2148e-23  2.088e-26  1.5985e-22  4.0262e-26  2.9025e-22  7.9632e-26  5.5385e-22
      7.25  1.7378e-31  1.1648e-23  2.0847e-31  1.1657e-23  3.1358e-31  1.1673e-23  6.2492e-31  1.1702e-23  1.5362e-30  1.1752e-23  4.1068e-30  1.1842e-23  1.1065e-29  1.2001e-23  2.7651e-29  1.2285e-23  5.4911e-29  1.2789e-23  1.1237e-28  1.3687e-23  2.4003e-28  1.5284e-23  5.2488e-28  1.813e-23  1.1328e-27  2.3213e-23  2.3734e-27  3.2332e-23  4.8013e-27  4.8805e-23  9.4513e-27  7.8927e-23  1.8346e-26  1.3512e-22  3.5703e-26  2.4339e-22  7.1036e-26  4.6227e-22
      7.30  1.4196e-31  1.2278e-23  1.6899e-31  1.2285e-23  2.4892e-31  1.2298e-23  4.8625e-31  1.2322e-23  1.1769e-30  1.2364e-23  3.0578e-30  1.2439e-23  8.0712e-30  1.2572e-23  1.9769e-29  1.2809e-23  4.1475e-29  1.323e-23  8.4501e-29  1.398e-23  1.7874e-28  1.5314e-23  4.0057e-28  1.7691e-23  8.9868e-28  2.1936e-23  1.956e-27  2.9549e-23  4.0908e-27  4.3302e-23  8.2618e-27  6.8447e-23  1.6333e-26  1.1536e-22  3.2182e-26  2.0574e-22  6.454e-26  3.8847e-22
      7.35  1.1592e-31  1.2935e-23  1.3624e-31  1.2942e-23  1.9636e-31  1.2953e-23  3.7469e-31  1.2973e-23  8.9449e-31  1.3009e-23  2.2665e-30  1.3073e-23  5.9663e-30  1.3187e-23  1.5004e-29  1.3388e-23  3.274e-29  1.3747e-23  6.5835e-29  1.4386e-23  1.3962e-28  1.5523e-23  3.1806e-28  1.755e-23  7.3906e-28  2.1169e-23  1.6688e-27  2.7659e-23  3.5983e-27  3.9382e-23  7.4474e-27  6.0813e-23  1.4992e-26  1.0079e-22  2.9908e-26  1.7782e-22  6.047e-26  3.3354e-22
      7.40  9.4736e-32  1.3622e-23  1.1025e-31  1.3627e-23  1.5618e-31  1.3637e-23  2.9267e-31  1.3655e-23  6.8517e-31  1.3686e-23  1.7232e-30  1.3742e-23  4.4452e-30  1.3841e-23  1.1763e-29  1.4018e-23  2.7915e-29  1.4332e-23  5.4869e-29  1.489e-23  1.1597e-28  1.5885e-23  2.669e-28  1.7658e-23  6.308e-28  2.0824e-23  1.4618e-27  2.6503e-23  3.2398e-27  3.6758e-23  6.8599e-27  5.5505e-23  1.4047e-26  9.0475e-23  2.8359e-26  1.5784e-22  5.7796e-26  2.9403e-22
      7.45  7.7594e-32  1.4336e-23  8.9883e-32  1.4341e-23  1.2626e-31  1.435e-23  2.3251e-31  1.4366e-23  5.4738e-31  1.4394e-23  1.3672e-30  1.4444e-23  3.5667e-30  1.4533e-23  9.4596e-30  1.4692e-23  2.2344e-29  1.4974e-23  4.2774e-29  1.5475e-23  8.9201e-29  1.6369e-23  2.0657e-28  1.7961e-23  4.9739e-28  2.0806e-23  1.1849e-27  2.5908e-23  2.7082e-27  3.5123e-23  5.8959e-27  5.1967e-23  1.2339e-26  8.3384e-23  2.5305e-26  1.439e-22  5.212e-26  2.6622e-22
      7.50  6.3752e-32  1.5078e-23  7.3937e-32  1.5083e-23  1.0338e-31  1.5091e-23  1.9393e-31  1.5106e-23  4.5418e-31  1.5132e-23  1.1275e-30  1.5178e-23  3.0374e-30  1.5413e-23  7.9216e-30  1.5406e-23  1.8447e-29  1.5665e-23  3.5289e-29  1.6127e-23  7.2517e-29  1.695e-23  1.6756e-28  1.8416e-23  4.077e-28  2.1036e-23  9.9216e-28  2.5735e-23  2.3306e-27  3.4221e-23  5.2124e-27  4.9734e-23  1.1154e-26  7.8665e-23  2.3251e-26  1.3438e-22  4.8425e-26  2.4699e-22
      7.55  5.2592e-32  1.5929e-23  6.1499e-32  1.5934e-23  8.7428e-32  1.5942e-23  1.6515e-31  1.5955e-23  3.9506e-31  1.598e-23  9.9399e-31  1.6023e-23  2.6271e-30   1.61e-23  7.0487e-30  1.6238e-23  1.5725e-29  1.6482e-23  3.0571e-29  1.6918e-23  6.1905e-29  1.7693e-23  1.4143e-28  1.9075e-23  3.444e-28  2.1544e-23  8.496e-28  2.5974e-23  2.0424e-27  3.3975e-23  4.6904e-27  4.8599e-23  1.0282e-26  7.5871e-23  2.1841e-26  1.2839e-22  4.6098e-26  2.3451e-22
      7.60  4.3643e-32  1.6818e-23  5.1832e-32  1.6822e-23   7.66e-32  1.683e-23  1.4941e-31  1.6843e-23  3.6313e-31  1.6867e-23  9.2353e-31  1.6908e-23  2.4579e-30  1.6983e-23  6.5108e-30  1.7115e-23  1.3709e-29  1.735e-23  2.6932e-29  1.7768e-23  5.3174e-29  1.8514e-23  1.181e-28  1.9842e-23  2.8273e-28  2.2217e-23  6.9623e-28  2.6477e-23  1.6942e-27  3.4172e-23  3.9693e-27  4.8238e-23  8.8878e-27  7.4466e-23  1.9226e-26  1.2497e-22  4.1128e-26   2.27e-22
      7.65  3.6323e-32  1.7745e-23  4.4049e-32  1.7749e-23  6.7593e-32  1.7756e-23  1.3532e-31  1.7769e-23  3.3476e-31  1.7792e-23  8.7775e-31  1.7833e-23  2.3471e-30  1.7906e-23  6.2528e-30  1.8035e-23  1.2155e-29  1.8265e-23  2.3969e-29  1.8674e-23  4.6937e-29  1.9402e-23  1.0053e-28  2.0701e-23  2.3504e-28  2.3023e-23  5.7311e-28  2.7188e-23  1.4018e-27  3.4712e-23  3.3367e-27  4.8464e-23  7.6212e-27  7.4109e-23  1.6795e-26  1.2348e-22  3.6456e-26  2.2322e-22
      7.70  3.0236e-32  1.871e-23  3.7574e-32  1.8714e-23  6.0114e-32  1.8721e-23  1.2466e-31  1.8734e-23  3.1661e-31  1.8756e-23  8.3736e-31  1.8797e-23  2.2648e-30  1.8869e-23  5.9868e-30  1.8996e-23  1.1163e-29  1.9224e-23  2.1314e-29  1.9629e-23  4.1269e-29  2.035e-23  8.6495e-29  2.1637e-23  1.9694e-28  2.3936e-23  4.7295e-28  2.8061e-23  1.156e-27  3.5514e-23  2.7838e-27  4.9136e-23  6.4751e-27  7.4538e-23  1.454e-26  1.2344e-22  3.2063e-26  2.2221e-22
      7.75  2.5358e-32  1.9711e-23  3.2359e-32  1.9716e-23  5.4003e-32  1.9723e-23  1.1699e-31  1.9735e-23  2.9845e-31  1.9758e-23  8.0721e-31  1.9799e-23  2.174e-30  1.987e-23  5.5081e-30  1.9998e-23  1.0097e-29  2.0226e-23  1.9155e-29  2.063e-23  3.6901e-29  2.1351e-23  7.533e-29  2.2637e-23  1.6668e-28  2.4935e-23  3.9217e-28  2.9059e-23  9.5188e-28  3.6509e-23  2.3075e-27  5.0127e-23  5.4521e-27  7.5519e-23  1.2472e-26  1.244e-22  2.7966e-26  2.2312e-22
      7.80  2.1338e-32  2.0854e-23  2.7961e-32  2.0858e-23  4.861e-32  2.0865e-23  1.0845e-31  2.0878e-23  2.8005e-31  2.0901e-23  7.6643e-31  2.0942e-23  2.0525e-30  2.1014e-23  5.1154e-30  2.1143e-23  9.2356e-30  2.1372e-23  1.7271e-29  2.178e-23  3.2799e-29  2.2506e-23  6.5893e-29  2.3801e-23  1.4219e-28  2.6115e-23  3.2682e-28  3.0268e-23  7.8402e-28  3.7772e-23  1.9047e-27  5.1488e-23  4.5591e-27  7.7063e-23  1.0619e-26  1.2629e-22  2.4237e-26  2.2571e-22
      7.85  1.7969e-32  2.2048e-23  2.4123e-32  2.2052e-23  4.3041e-32  2.206e-23  9.8323e-32  2.2073e-23  2.563e-31  2.2096e-23  7.0495e-31  2.2137e-23  1.9174e-30  2.221e-23  4.6681e-30  2.234e-23  8.3805e-30  2.2571e-23  1.5522e-29  2.2983e-23  2.9567e-29  2.3716e-23  5.7863e-29  2.5023e-23  1.217e-28  2.736e-23  2.7317e-28  3.1553e-23  6.4588e-28  3.913e-23  1.5666e-27  5.298e-23  3.789e-27  7.8804e-23  8.9806e-27  1.2851e-22  2.0885e-26  2.2888e-22
      7.90  1.5142e-32  2.3294e-23  2.0604e-32  2.3298e-23  3.8043e-32  2.3305e-23  8.8899e-32  2.3318e-23  2.3321e-31  2.3342e-23  6.3552e-31  2.3383e-23  1.7423e-30  2.3457e-23  4.0112e-30  2.3588e-23  7.2447e-30  2.3821e-23  1.3336e-29  2.4237e-23  2.5219e-29  2.4977e-23  4.8833e-29  2.6297e-23  1.0042e-28  2.8656e-23  2.2068e-28  3.2889e-23  5.1428e-28  4.0537e-23  1.2439e-27  5.4518e-23  3.0374e-27  8.0586e-23  7.3302e-27  1.3076e-22  1.7404e-26  2.3206e-22
      7.95  1.2751e-32  2.4591e-23  1.7534e-32  2.4595e-23  3.2935e-32  2.4602e-23  7.7839e-32  2.4615e-23  2.0492e-31  2.4639e-23  5.641e-31  2.4681e-23  1.5412e-30  2.4755e-23  3.364e-30  2.4887e-23  6.1208e-30  2.5122e-23   1.12e-29  2.554e-23  2.0984e-29  2.6284e-23  4.036e-29  2.7612e-23  8.1516e-29  2.9986e-23  1.7557e-28  3.4245e-23  4.0259e-28  4.1941e-23  9.6736e-28  5.6009e-23  2.3746e-27  8.2239e-23  5.816e-27  1.3272e-22  1.4076e-26  2.3463e-22
      8.00  1.0726e-32  2.5939e-23  1.4781e-32  2.5944e-23  2.7961e-32  2.5951e-23  6.6528e-32  2.5964e-23  1.7512e-31  2.5988e-23  4.8213e-31  2.603e-23  1.3341e-30  2.6104e-23  2.846e-30  2.6236e-23  5.0184e-30  2.6472e-23  9.2351e-30  2.6891e-23  1.7175e-29  2.7637e-23  3.2799e-29  2.8968e-23  6.5336e-29  3.1347e-23  1.382e-28  3.5615e-23  3.1178e-28  4.3328e-23  7.4255e-28  5.7426e-23  1.8258e-27  8.3712e-23  4.5234e-27  1.343e-22  1.1136e-26  2.364e-22
      8.05  9.018e-33  2.7473e-23  1.2344e-32  2.7477e-23  2.3278e-32  2.7484e-23  5.532e-32  2.7498e-23   1.44e-31  2.7521e-23  4.002e-31  2.7563e-23  1.0973e-30  2.7637e-23  2.2888e-30  2.777e-23  4.0688e-30  2.8005e-23  7.3953e-30  2.8424e-23  1.3809e-29  2.9171e-23  2.6255e-29  3.0502e-23  5.1709e-29  3.2882e-23  1.078e-28  3.7153e-23  2.3983e-28  4.4868e-23  5.6344e-28  5.8972e-23  1.393e-27  8.5265e-23  3.4844e-27  1.3586e-22  8.7143e-27  2.3797e-22
      8.10  7.5897e-33  2.9077e-23  1.0235e-32  2.9081e-23  1.8926e-32  2.9088e-23  4.4511e-32  2.9101e-23  1.1734e-31  2.9125e-23  3.2324e-31  2.9167e-23  8.9603e-31  2.9241e-23  1.8206e-30  2.9373e-23  3.2332e-30  2.9607e-23  5.8628e-30  3.0025e-23  1.0805e-29  3.077e-23  2.0597e-29  3.2097e-23  4.0325e-29  3.4469e-23  8.2838e-29  3.8727e-23  1.8266e-28  4.6418e-23  4.257e-28  6.0476e-23  1.0516e-27  8.6683e-23  2.6509e-27  1.3711e-22  6.7236e-27  2.3885e-22
      8.15  6.4111e-33  3.0752e-23  8.4631e-33  3.0756e-23  1.5275e-32  3.0764e-23  3.5144e-32  3.0777e-23  9.2729e-32   3.08e-23  2.5513e-31  3.0842e-23  7.0842e-31  3.0915e-23  1.4213e-30  3.1047e-23  2.5502e-30  3.128e-23  4.6142e-30  3.1696e-23  8.3933e-30  3.2436e-23  1.5911e-29  3.3756e-23  3.0947e-29  3.6116e-23  6.3104e-29  4.035e-23  1.371e-28  4.7999e-23  3.1822e-28  6.198e-23  7.8004e-28  8.804e-23  1.9768e-27  1.3817e-22  5.0753e-27  2.3931e-22
      8.20  5.4497e-33   3.25e-23  7.0087e-33  3.2504e-23  1.2235e-32  3.2512e-23  2.7529e-32  3.2525e-23  7.1582e-32  3.2548e-23  1.9747e-31  3.2589e-23  5.4914e-31  3.2662e-23  1.0946e-30  3.2793e-23  1.9644e-30  3.3025e-23  3.5497e-30  3.3438e-23  6.4411e-30  3.4173e-23  1.2164e-29  3.5485e-23  2.3523e-29  3.7829e-23  4.7678e-29  4.2036e-23  1.0272e-28  4.9635e-23  2.3684e-28  6.3524e-23  5.7951e-28  8.9411e-23  1.4757e-27  1.392e-22  3.8304e-27  2.3962e-22
      8.25  4.6433e-33  3.4321e-23  5.8119e-33  3.4325e-23  9.4747e-33  3.4332e-23  2.1367e-32  3.4345e-23  5.4826e-32  3.4368e-23  1.5077e-31  3.4409e-23  4.1587e-31  3.4482e-23  8.3508e-31  3.4612e-23  1.4828e-30  3.4842e-23  2.6793e-30  3.5253e-23  4.9465e-30  3.5984e-23  9.1496e-30  3.7287e-23  1.7785e-29  3.9618e-23  3.5892e-29  4.3798e-23  7.6917e-29  5.135e-23  1.7658e-28  6.5152e-23  4.318e-28  9.0874e-23  1.1048e-27  1.4034e-22  2.8961e-27  2.4007e-22
      8.30  4.0283e-33  3.6388e-23  4.898e-33  3.6392e-23  7.5801e-33   3.64e-23  1.6182e-32  3.6413e-23  4.1384e-32  3.6436e-23  1.1366e-31  3.6476e-23  3.1849e-31  3.6549e-23  6.3368e-31  3.6679e-23  1.1352e-30  3.6909e-23  2.0503e-30  3.7319e-23  3.7457e-30  3.8049e-23  6.9789e-30  3.9351e-23  1.3412e-29  4.1678e-23  2.6981e-29  4.5853e-23  5.7658e-29  5.3394e-23  1.3205e-28  6.7176e-23  3.2304e-28  9.2856e-23  8.3038e-28  1.4223e-22  2.1966e-27  2.4175e-22
      8.35  3.5329e-33  3.8556e-23  4.1661e-33  3.856e-23  6.1726e-33  3.8568e-23  1.2435e-32  3.8581e-23  3.0677e-32  3.8604e-23  8.4074e-32  3.8645e-23  2.3535e-31  3.8717e-23  4.6922e-31  3.8847e-23  8.3998e-31  3.9078e-23  1.5165e-30  3.9488e-23  2.771e-30  4.0219e-23  5.1623e-30  4.1523e-23  9.9209e-30  4.3853e-23  1.9962e-29  4.8034e-23  4.2702e-29  5.5586e-23  9.8005e-29  6.9386e-23  2.4074e-28  9.5096e-23  6.2317e-28  1.4452e-22  1.665e-27  2.4411e-22
      8.40  3.1379e-33  4.0827e-23  3.5923e-33  4.0832e-23  5.0443e-33  4.0839e-23  9.5579e-33  4.0852e-23  2.261e-32  4.0875e-23  6.0615e-32  4.0916e-23  1.6848e-31  4.0989e-23  3.4003e-31  4.112e-23  6.0829e-31  4.1351e-23  1.0981e-30  4.1764e-23  2.0079e-30  4.2498e-23  3.7456e-30  4.3808e-23  7.213e-30  4.615e-23  1.4559e-29  5.035e-23  3.1285e-29  5.7938e-23  7.2247e-29  7.1801e-23  1.788e-28  9.7626e-23  4.6711e-28  1.4726e-22  1.2617e-27  2.4724e-22
      8.45  2.8275e-33  4.3205e-23  3.1569e-33  4.3209e-23  4.221e-33  4.3216e-23  7.3026e-33  4.323e-23  1.7124e-32  4.3253e-23  4.4561e-32  4.3294e-23  1.2278e-31  4.3368e-23  2.4609e-31   4.35e-23  4.4416e-31  4.3733e-23  8.0172e-31  4.4149e-23  1.4666e-30  4.489e-23  2.7396e-30  4.6211e-23  5.2867e-30  4.8571e-23  1.0705e-29  5.2807e-23  2.3105e-29  6.0456e-23  5.3666e-29  7.4432e-23  1.3375e-28  1.0046e-22  3.5235e-28  1.5048e-22  9.6109e-28  2.5122e-22
      8.50  2.5826e-33  4.5692e-23  2.825e-33  4.5696e-23  3.5994e-33  4.5703e-23  5.8779e-33  4.5717e-23  1.2988e-32  4.574e-23  3.3012e-32  4.5782e-23  9.069e-32  4.5857e-23  1.8153e-31  4.599e-23  3.2733e-31  4.6226e-23  5.9066e-31  4.6647e-23  1.0809e-30  4.7397e-23  2.0213e-30  4.8733e-23  3.9083e-30  5.1122e-23  7.9371e-30  5.5407e-23  1.7201e-29  6.3147e-23  4.0159e-29  7.7286e-23  1.0072e-28  1.0362e-22  2.6728e-28  1.5421e-22  7.3535e-28  2.5607e-22
