# This was generated using Cloudy10 and the columns are ordered 
# as log10 of the fraction of the metallicity to the solar metallicity
# 'h_*_Z' and 'c_*_Z' stands for cooling and heating respectively 
# at * metalicity
#
# NOTE: This was generated separately from loop_coolingcurve_w_UV.py
#       using Output_metals_w_redshift.py.
#
# Redshift = 0.0
# hden = -8.0
#
#     temp   h_-3.00_Z   c_-3.00_Z   h_-2.75_Z   c_-2.75_Z   h_-2.50_Z   c_-2.50_Z   h_-2.25_Z   c_-2.25_Z   h_-2.00_Z   c_-2.00_Z   h_-1.75_Z   c_-1.75_Z   h_-1.50_Z   c_-1.50_Z   h_-1.25_Z   c_-1.25_Z   h_-1.00_Z   c_-1.00_Z   h_-0.75_Z   c_-0.75_Z   h_-0.50_Z   c_-0.50_Z   h_-0.25_Z   c_-0.25_Z    h_0.00_Z    c_0.00_Z    h_0.25_Z    c_0.25_Z    h_0.50_Z    c_0.50_Z    h_0.75_Z    c_0.75_Z    h_1.00_Z    c_1.00_Z    h_1.25_Z    c_1.25_Z    h_1.50_Z    c_1.50_Z 
      4.00  2.6869e-23  7.4804e-24  2.6955e-23  7.4805e-24  2.7107e-23  7.4807e-24  2.7379e-23  7.4811e-24  2.7862e-23  7.4819e-24  2.8720e-23  7.4832e-24  3.0246e-23  7.4855e-24  3.2961e-23  7.4896e-24  3.7788e-23  7.4969e-24  4.6370e-23  7.5099e-24  6.1631e-23  7.5330e-24  8.8768e-23  7.5743e-24  1.3704e-22  7.6478e-24  2.2382e-22  7.8095e-24  3.7973e-22  8.0721e-24  6.6109e-22  8.5146e-24  1.1745e-21  9.3067e-24  2.1280e-21  1.0779e-23  3.9484e-21  1.3629e-23
      4.05  2.6044e-23  8.3010e-24  2.6127e-23  8.3011e-24  2.6274e-23  8.3013e-24  2.6536e-23  8.3018e-24  2.7001e-23  8.3026e-24  2.7829e-23  8.3040e-24  2.9302e-23  8.3064e-24  3.1921e-23  8.3109e-24  3.6577e-23  8.3187e-24  4.4855e-23  8.3326e-24  5.9575e-23  8.3575e-24  8.5748e-23  8.4017e-24  1.3230e-22  8.4806e-24  2.1610e-22  8.6612e-24  3.6655e-22  8.9452e-24  6.3803e-22  9.4209e-24  1.1333e-21  1.0271e-23  2.0528e-21  1.1847e-23  3.8075e-21  1.4893e-23
      4.10  2.5275e-23  9.2160e-24  2.5355e-23  9.2162e-24  2.5497e-23  9.2165e-24  2.5749e-23  9.2169e-24  2.6199e-23  9.2178e-24  2.6998e-23  9.2193e-24  2.8418e-23  9.2219e-24  3.0944e-23  9.2267e-24  3.5436e-23  9.2351e-24  4.3423e-23  9.2500e-24  5.7622e-23  9.2767e-24  8.2866e-23  9.3242e-24  1.2776e-22  9.4089e-24  2.0869e-22  9.6116e-24  3.5390e-22  9.9192e-24  6.1588e-22  1.0431e-23  1.0937e-21  1.1343e-23  1.9806e-21  1.3032e-23  3.6720e-21  1.6289e-23
      4.15  2.4558e-23  1.0237e-23  2.4635e-23  1.0237e-23  2.4772e-23  1.0237e-23  2.5016e-23  1.0238e-23  2.5449e-23  1.0238e-23  2.6220e-23  1.0240e-23  2.7591e-23  1.0243e-23  3.0028e-23  1.0248e-23  3.4362e-23  1.0257e-23  4.2068e-23  1.0273e-23  5.5766e-23  1.0302e-23  8.0118e-23  1.0353e-23  1.2341e-22  1.0444e-23  2.0160e-22  1.0673e-23  3.4177e-22  1.1006e-23  5.9463e-22  1.1558e-23  1.0557e-21  1.2537e-23  1.9113e-21  1.4349e-23  3.5417e-21  1.7834e-23
      4.20  2.3889e-23  1.1375e-23  2.3963e-23  1.1375e-23  2.4095e-23  1.1375e-23  2.4331e-23  1.1376e-23  2.4749e-23  1.1377e-23  2.5493e-23  1.1379e-23  2.6816e-23  1.1382e-23  2.9168e-23  1.1391e-23  3.3350e-23  1.1397e-23  4.0785e-23  1.1414e-23  5.4002e-23  1.1445e-23  7.7494e-23  1.1500e-23  1.1926e-22  1.1598e-23  1.9481e-22  1.1858e-23  3.3014e-22  1.2220e-23  5.7423e-22  1.2816e-23  1.0193e-21  1.3870e-23  1.8447e-21  1.5815e-23  3.4167e-21  1.9549e-23
      4.25  2.3264e-23  1.2645e-23  2.3336e-23  1.2645e-23  2.3464e-23  1.2645e-23  2.3691e-23  1.2646e-23  2.4095e-23  1.2647e-23  2.4813e-23  1.2649e-23  2.6089e-23  1.2652e-23  2.8359e-23  1.2658e-23  3.2395e-23  1.2669e-23  3.9569e-23  1.2687e-23  5.2321e-23  1.2720e-23  7.4984e-23  1.2780e-23  1.1533e-22  1.2894e-23  1.8829e-22  1.3182e-23  3.1895e-22  1.3577e-23  5.5460e-22  1.4221e-23  9.8417e-22  1.5358e-23  1.7807e-21  1.7451e-23  3.2966e-21  2.1461e-23
      4.30  2.2681e-23  1.4063e-23  2.2751e-23  1.4064e-23  2.2874e-23  1.4064e-23  2.3093e-23  1.4065e-23  2.3483e-23  1.4066e-23  2.4175e-23  1.4072e-23  2.5407e-23  1.4071e-23  2.7597e-23  1.4078e-23  3.1491e-23  1.4089e-23  3.8413e-23  1.4113e-23  5.0716e-23  1.4145e-23  7.2577e-23  1.4209e-23  1.1155e-22  1.4344e-23  1.8200e-22  1.4664e-23  3.0816e-22  1.5097e-23  5.3567e-22  1.5796e-23  9.5033e-22  1.7025e-23  1.7190e-21  1.9285e-23  3.1811e-21  2.3605e-23
      4.35  2.2136e-23  1.5646e-23  2.2203e-23  1.5646e-23  2.2322e-23  1.5646e-23  2.2533e-23  1.5647e-23  2.2909e-23  1.5648e-23  2.3578e-23  1.5651e-23  2.4766e-23  1.5654e-23  2.6879e-23  1.5661e-23  3.0635e-23  1.5674e-23  3.7312e-23  1.5696e-23  4.9178e-23  1.5735e-23  7.0260e-23  1.5804e-23  1.0790e-22  1.5964e-23  1.7592e-22  1.6322e-23  2.9770e-22  1.6797e-23  5.1731e-22  1.7559e-23  9.1756e-22  1.8894e-23  1.6593e-21  2.1343e-23  3.0696e-21  2.6015e-23
      4.40  2.1626e-23  1.7411e-23  2.1691e-23  1.7411e-23  2.1805e-23  1.7411e-23  2.2009e-23  1.7412e-23  2.2372e-23  1.7413e-23  2.3016e-23  1.7416e-23  2.4162e-23  1.7420e-23  2.6199e-23  1.7428e-23  2.9821e-23  1.7441e-23  3.6258e-23  1.7465e-23  4.7697e-23  1.7508e-23  6.8019e-23  1.7583e-23  1.0435e-22  1.7774e-23  1.7000e-22  1.8175e-23  2.8751e-22  1.8700e-23  4.9943e-22  1.9534e-23  8.8566e-22  2.0991e-23  1.6014e-21  2.3657e-23  2.9617e-21  2.8733e-23
      4.45  2.1148e-23  1.9379e-23  2.1210e-23  1.9379e-23  2.1321e-23  1.9379e-23  2.1517e-23  1.9380e-23  2.1866e-23  1.9382e-23  2.2487e-23  1.9384e-23  2.3591e-23  1.9389e-23  2.5554e-23  1.9397e-23  2.9044e-23  1.9412e-23  3.5246e-23  1.9438e-23  4.6267e-23  1.9485e-23  6.5841e-23  1.9568e-23  1.0089e-22  1.9794e-23  1.6420e-22  2.0248e-23  2.7753e-22  2.0831e-23  4.8191e-22  2.1749e-23  8.5445e-22  2.3345e-23  1.5449e-21  2.6263e-23  2.8568e-21  3.1807e-23
      4.50  2.0700e-23  2.1573e-23  2.0759e-23  2.1573e-23  2.0866e-23  2.1574e-23  2.1055e-23  2.1575e-23  2.1391e-23  2.1577e-23  2.1989e-23  2.1579e-23  2.3052e-23  2.1585e-23  2.4941e-23  2.1594e-23  2.8301e-23  2.1610e-23  3.4271e-23  2.1639e-23  4.4877e-23  2.1690e-23  6.3714e-23  2.1781e-23  9.7494e-23  2.2049e-23  1.5850e-22  2.2566e-23  2.6769e-22  2.3217e-23  4.6464e-22  2.4233e-23  8.2374e-22  2.5992e-23  1.4895e-21  2.9201e-23  2.7546e-21  3.5291e-23
      4.55  2.0278e-23  2.4023e-23  2.0335e-23  2.4023e-23  2.0438e-23  2.4024e-23  2.0619e-23  2.4025e-23  2.0943e-23  2.4026e-23  2.1517e-23  2.4030e-23  2.2539e-23  2.4035e-23  2.4356e-23  2.4045e-23  2.7586e-23  2.4063e-23  3.3326e-23  2.4095e-23  4.3522e-23  2.4152e-23  6.1627e-23  2.4253e-23  9.4151e-23  2.4574e-23  1.5286e-22  2.5164e-23  2.5795e-22  2.5894e-23  4.4753e-22  2.7022e-23  7.9337e-22  2.8970e-23  1.4349e-21  3.2518e-23  2.6546e-21  3.9247e-23
      4.60  1.9881e-23  2.6753e-23  1.9936e-23  2.6753e-23  2.0034e-23  2.6754e-23  2.0208e-23  2.6755e-23  2.0519e-23  2.6757e-23  2.1071e-23  2.6760e-23  2.2052e-23  2.6767e-23  2.3796e-23  2.6778e-23  2.6897e-23  2.6798e-23  3.2406e-23  2.6833e-23  4.2193e-23  2.6896e-23  5.9570e-23  2.7008e-23  9.0846e-23  2.7396e-23  1.4727e-22  2.8071e-23  2.4826e-22  2.8893e-23  4.3054e-22  3.0152e-23  7.6323e-22  3.2316e-23  1.3809e-21  3.6255e-23  2.5562e-21  4.3724e-23
      4.65  1.9505e-23  2.9794e-23  1.9558e-23  2.9795e-23  1.9652e-23  2.9795e-23  1.9820e-23  2.9797e-23  2.0117e-23  2.9799e-23  2.0646e-23  2.9803e-23  2.1586e-23  2.9816e-23  2.3258e-23  2.9822e-23  2.6229e-23  2.9844e-23  3.1509e-23  2.9883e-23  4.0887e-23  2.9953e-23  5.7536e-23  3.0078e-23  8.7551e-23  3.0544e-23  1.4167e-22  3.1320e-23  2.3857e-22  3.2250e-23  4.1352e-22  3.3658e-23  7.3315e-22  3.6070e-23  1.3273e-21  4.0458e-23  2.4592e-21  4.8779e-23
      4.70  1.9196e-23  3.3274e-23  1.9247e-23  3.3274e-23  1.9337e-23  3.3275e-23  1.9497e-23  3.3276e-23  1.9782e-23  3.3279e-23  2.0288e-23  3.3283e-23  2.1188e-23  3.3297e-23  2.2788e-23  3.3304e-23  2.5632e-23  3.3328e-23  3.0686e-23  3.3371e-23  3.9662e-23  3.3448e-23  5.5596e-23  3.3584e-23  8.4257e-23  3.4049e-23  1.3607e-22  3.4949e-23  2.2883e-22  3.6003e-23  3.9645e-22  3.7581e-23  7.0301e-22  4.0274e-23  1.2738e-21  4.5170e-23  2.3633e-21  5.4464e-23
      4.75  1.8916e-23  3.7186e-23  1.8965e-23  3.7187e-23  1.9051e-23  3.7187e-23  1.9204e-23  3.7189e-23  1.9476e-23  3.7192e-23  1.9959e-23  3.7203e-23  2.0819e-23  3.7205e-23  2.2348e-23  3.7227e-23  2.5064e-23  3.7247e-23  2.9892e-23  3.7294e-23  3.8465e-23  3.7379e-23  5.3685e-23  3.7531e-23  8.0959e-23  3.7949e-23  1.3044e-22  3.8996e-23  2.1905e-22  4.0196e-23  3.7927e-22  4.1967e-23  6.7273e-22  4.4973e-23  1.2202e-21  5.0437e-23  2.2680e-21  6.0825e-23
      4.80  1.8657e-23  4.1574e-23  1.8704e-23  4.1574e-23  1.8785e-23  4.1575e-23  1.8931e-23  4.1577e-23  1.9190e-23  4.1580e-23  1.9651e-23  4.1585e-23  2.0470e-23  4.1595e-23  2.1927e-23  4.1611e-23  2.4515e-23  4.1641e-23  2.9115e-23  4.1694e-23  3.7284e-23  4.1788e-23  5.1787e-23  4.1956e-23  7.7657e-23  4.2284e-23  1.2480e-22  4.3511e-23  2.0921e-22  4.4880e-23  3.6199e-22  4.6867e-23  6.4228e-22  5.0220e-23  1.1665e-21  5.6309e-23  2.1729e-21  6.7915e-23
      4.85  1.8418e-23  4.6491e-23  1.8462e-23  4.6491e-23  1.8540e-23  4.6492e-23  1.8678e-23  4.6494e-23  1.8924e-23  4.6497e-23  1.9362e-23  4.6503e-23  2.0140e-23  4.6514e-23  2.1524e-23  4.6532e-23  2.3984e-23  4.6565e-23  2.8355e-23  4.6623e-23  3.6120e-23  4.6727e-23  4.9910e-23  4.6913e-23  7.4455e-23  4.7243e-23  1.1914e-22  4.8536e-23  1.9935e-22  5.0101e-23  3.4464e-22  5.2329e-23  6.1169e-22  5.6058e-23  1.1126e-21  6.2825e-23  2.0778e-21  7.5756e-23
      4.90  1.8197e-23  5.2001e-23  1.8238e-23  5.2002e-23  1.8312e-23  5.2003e-23  1.8443e-23  5.2005e-23  1.8676e-23  5.2008e-23  1.9091e-23  5.2015e-23  1.9828e-23  5.2026e-23  2.1139e-23  5.2046e-23  2.3469e-23  5.2083e-23  2.7611e-23  5.2147e-23  3.4970e-23  5.2261e-23  4.8043e-23  5.2465e-23  7.1287e-23  5.2828e-23  1.1350e-22  5.4127e-23  1.8948e-22  5.5916e-23  3.2726e-22  5.8409e-23  5.8100e-22  6.2542e-23  1.0585e-21  7.0032e-23  1.9825e-21  8.4382e-23
      4.95  1.7992e-23  5.8177e-23  1.8031e-23  5.8178e-23  1.8101e-23  5.8179e-23  1.8225e-23  5.8181e-23  1.8445e-23  5.8185e-23  1.8836e-23  5.8192e-23  1.9533e-23  5.8214e-23  2.0771e-23  5.8227e-23  2.2971e-23  5.8266e-23  2.6883e-23  5.8336e-23  3.3836e-23  5.8461e-23  4.6191e-23  5.8684e-23  6.8159e-23  5.9082e-23  1.0794e-22  6.0392e-23  1.7972e-22  6.2422e-23  3.0999e-22  6.5190e-23  5.5037e-22  6.9743e-23  1.0042e-21  7.7985e-23  1.8868e-21  9.3827e-23
      5.00  1.7803e-23  6.5100e-23  1.7840e-23  6.5101e-23  1.7905e-23  6.5102e-23  1.8022e-23  6.5105e-23  1.8229e-23  6.5109e-23  1.8598e-23  6.5126e-23  1.9253e-23  6.5130e-23  2.0418e-23  6.5154e-23  2.2490e-23  6.5197e-23  2.6173e-23  6.5274e-23  3.2719e-23  6.5410e-23  4.4359e-23  6.5652e-23  6.5064e-23  6.6086e-23  1.0243e-22  6.7362e-23  1.7001e-22  6.9669e-23  2.9281e-22  7.2740e-23  5.1987e-22  7.7736e-23  9.5004e-22  8.6758e-23  1.7908e-21  1.0414e-22
      5.05  1.7628e-23  7.2867e-23  1.7663e-23  7.2868e-23  1.7724e-23  7.2870e-23  1.7834e-23  7.2872e-23  1.8028e-23  7.2877e-23  1.8374e-23  7.2885e-23  1.8988e-23  7.2900e-23  2.0081e-23  7.2926e-23  2.2025e-23  7.2972e-23  2.5480e-23  7.3055e-23  3.1625e-23  7.3203e-23  4.2553e-23  7.3466e-23  6.2003e-23  7.3935e-23  9.6987e-23  7.5118e-23  1.6043e-22  7.7747e-23  2.7579e-22  8.1152e-23  4.8956e-22  8.6615e-23  8.9603e-22  9.6441e-23  1.6949e-21  1.1539e-22
      5.10  1.7467e-23  8.1575e-23  1.7499e-23  8.1576e-23  1.7557e-23  8.1577e-23  1.7659e-23  8.1580e-23  1.7841e-23  8.1585e-23  1.8164e-23  8.1594e-23  1.8739e-23  8.1610e-23  1.9760e-23  8.1638e-23  2.1578e-23  8.1688e-23  2.4809e-23  8.1778e-23  3.0556e-23  8.1937e-23  4.0782e-23  8.2221e-23  5.8993e-23  8.2728e-23  9.1646e-23  8.3731e-23  1.5100e-22  8.6741e-23  2.5903e-22  9.0518e-23  4.5961e-22  9.6475e-23  8.4238e-22  1.0713e-22  1.5990e-21  1.2766e-22
      5.15  1.7318e-23  9.1337e-23  1.7348e-23  9.1338e-23  1.7402e-23  9.1340e-23  1.7497e-23  9.1343e-23  1.7667e-23  9.1348e-23  1.7968e-23  9.1358e-23  1.8503e-23  9.1375e-23  1.9455e-23  9.1405e-23  2.1149e-23  9.1459e-23  2.4161e-23  9.1556e-23  2.9520e-23  9.1727e-23  3.9057e-23  9.2033e-23  5.6053e-23  9.2579e-23  8.6487e-23  9.3557e-23  1.4182e-22  9.6753e-23  2.4267e-22  1.0095e-22  4.3024e-22  1.0744e-22  7.8946e-22  1.1894e-22  1.5036e-21  1.4108e-22
      5.20  1.7181e-23  1.0228e-22  1.7209e-23  1.0228e-22  1.7259e-23  1.0229e-22  1.7347e-23  1.0229e-22  1.7504e-23  1.0229e-22  1.7784e-23  1.0230e-22  1.8282e-23  1.0232e-22  1.9167e-23  1.0237e-22  2.0741e-23  1.0241e-22  2.3541e-23  1.0252e-22  2.8522e-23  1.0270e-22  3.7392e-23  1.0303e-22  5.3207e-23  1.0362e-22  8.1510e-23  1.0467e-22  1.3295e-22  1.0790e-22  2.2682e-22  1.1258e-22  4.0171e-22  1.1965e-22  7.3769e-22  1.3205e-22  1.4095e-21  1.5580e-22
      5.25  1.7054e-23  1.1456e-22  1.7080e-23  1.1456e-22  1.7126e-23  1.1456e-22  1.7208e-23  1.1456e-22  1.7354e-23  1.1457e-22  1.7613e-23  1.1458e-22  1.8075e-23  1.1460e-22  1.8895e-23  1.1465e-22  2.0354e-23  1.1470e-22  2.2950e-23  1.1481e-22  2.7569e-23  1.1501e-22  3.5797e-23  1.1536e-22  5.0475e-23  1.1599e-22  7.6747e-23  1.1712e-22  1.2444e-22  1.2029e-22  2.1160e-22  1.2554e-22  3.7422e-22  1.3326e-22  6.8754e-22  1.4662e-22  1.3173e-21  1.7207e-22
      5.30  1.6937e-23  1.2832e-22  1.6961e-23  1.2832e-22  1.7004e-23  1.2833e-22  1.7080e-23  1.2833e-22  1.7215e-23  1.2834e-22  1.7455e-23  1.2835e-22  1.7881e-23  1.2837e-22  1.8640e-23  1.2841e-22  1.9990e-23  1.2848e-22  2.2391e-23  1.2860e-22  2.6665e-23  1.2881e-22  3.4281e-23  1.2919e-22  4.7872e-23  1.2987e-22  7.2212e-23  1.3109e-22  1.1634e-22  1.3408e-22  1.9710e-22  1.4001e-22  3.4795e-22  1.4847e-22  6.3934e-22  1.6287e-22  1.2278e-21  1.9007e-22
      5.35  1.6830e-23  1.4376e-22  1.6852e-23  1.4376e-22  1.6891e-23  1.4377e-22  1.6961e-23  1.4377e-22  1.7086e-23  1.4378e-22  1.7307e-23  1.4379e-22  1.7701e-23  1.4381e-22  1.8401e-23  1.4385e-22  1.9648e-23  1.4393e-22  2.1865e-23  1.4406e-22  2.5813e-23  1.4429e-22  3.2847e-23  1.4470e-22  4.5408e-23  1.4543e-22  6.7915e-23  1.4675e-22  1.0867e-22  1.4944e-22  1.8336e-22  1.5616e-22  3.2299e-22  1.6545e-22  5.9331e-22  1.8101e-22  1.1417e-21  2.1009e-22
      5.40  1.6730e-23  1.6107e-22  1.6751e-23  1.6108e-22  1.6787e-23  1.6108e-22  1.6852e-23  1.6108e-22  1.6966e-23  1.6109e-22  1.7171e-23  1.6110e-22  1.7534e-23  1.6113e-22  1.8179e-23  1.6117e-22  1.9328e-23  1.6125e-22  2.1372e-23  1.6139e-22  2.5011e-23  1.6164e-22  3.1498e-23  1.6209e-22  4.3085e-23  1.6288e-22  6.3858e-23  1.6430e-22  1.0144e-22  1.6685e-22  1.7040e-22  1.7419e-22  2.9939e-22  1.8445e-22  5.4958e-22  2.0130e-22  1.0591e-21  2.3242e-22
      5.45  1.6639e-23  1.8049e-22  1.6658e-23  1.8049e-22  1.6691e-23  1.8049e-22  1.6751e-23  1.8050e-22  1.6856e-23  1.8051e-22  1.7044e-23  1.8052e-22  1.7378e-23  1.8055e-22  1.7972e-23  1.8060e-22  1.9029e-23  1.8068e-22  2.0910e-23  1.8083e-22  2.4259e-23  1.8111e-22  3.0231e-23  1.8159e-22  4.0900e-23  1.8245e-22  6.0037e-23  1.8399e-22  9.4645e-23  1.8675e-22  1.5820e-22  1.9429e-22  2.7713e-22  2.0568e-22  5.0815e-22  2.2400e-22  9.8029e-22  2.5739e-22
      5.50  1.6555e-23  2.0226e-22  1.6573e-23  2.0226e-22  1.6603e-23  2.0226e-22  1.6658e-23  2.0227e-22  1.6755e-23  2.0228e-22  1.6927e-23  2.0229e-22  1.7234e-23  2.0232e-22  1.7780e-23  2.0238e-22  1.8751e-23  2.0247e-22  2.0478e-23  2.0264e-22  2.3556e-23  2.0293e-22  2.9043e-23  2.0346e-22  3.8849e-23  2.0439e-22  5.6446e-23  2.0607e-22  8.8264e-23  2.0907e-22  1.4672e-22  2.1668e-22  2.5616e-22  2.2940e-22  4.6898e-22  2.4941e-22  9.0516e-22  2.8536e-22
      5.55  1.6479e-23  2.2668e-22  1.6494e-23  2.2669e-22  1.6522e-23  2.2669e-22  1.6572e-23  2.2669e-22  1.6661e-23  2.2670e-22  1.6820e-23  2.2672e-22  1.7101e-23  2.2676e-22  1.7601e-23  2.2681e-22  1.8492e-23  2.2691e-22  2.0076e-23  2.2710e-22  2.2899e-23  2.2742e-22  2.7932e-23  2.2799e-22  3.6930e-23  2.2901e-22  5.3080e-23  2.3084e-22  8.2286e-23  2.3410e-22  1.3595e-22  2.4162e-22  2.3646e-22  2.5592e-22  4.3202e-22  2.7788e-22  8.3374e-22  3.1672e-22
      5.60  1.6408e-23  2.5408e-22  1.6423e-23  2.5408e-22  1.6448e-23  2.5408e-22  1.6494e-23  2.5409e-22  1.6576e-23  2.5410e-22  1.6720e-23  2.5412e-22  1.6978e-23  2.5416e-22  1.7436e-23  2.5422e-22  1.8251e-23  2.5433e-22  1.9702e-23  2.5453e-22  2.2287e-23  2.5488e-22  2.6897e-23  2.5551e-22  3.5139e-23  2.5663e-22  4.9936e-23  2.5862e-22  7.6703e-23  2.6219e-22  1.2586e-22  2.6934e-22  2.1800e-22  2.8552e-22  3.9727e-22  3.0973e-22  7.6609e-22  3.5187e-22
      5.65  1.6344e-23  2.8480e-22  1.6357e-23  2.8480e-22  1.6380e-23  2.8481e-22  1.6422e-23  2.8481e-22  1.6497e-23  2.8483e-22  1.6629e-23  2.8485e-22  1.6865e-23  2.8489e-22  1.7284e-23  2.8496e-22  1.8029e-23  2.8508e-22  1.9356e-23  2.8530e-22  2.1720e-23  2.8568e-22  2.5937e-23  2.8637e-22  3.3476e-23  2.8760e-22  4.7013e-23  2.8978e-22  7.1506e-23  2.9369e-22  1.1646e-22  3.0069e-22  2.0078e-22  3.1854e-22  3.6477e-22  3.4537e-22  7.0234e-22  3.9128e-22
      5.70  1.6285e-23  3.1926e-22  1.6297e-23  3.1927e-22  1.6319e-23  3.1927e-22  1.6357e-23  3.1928e-22  1.6425e-23  3.1929e-22  1.6546e-23  3.1931e-22  1.6761e-23  3.1936e-22  1.7144e-23  3.1943e-22  1.7825e-23  3.1957e-22  1.9038e-23  3.1981e-22  2.1198e-23  3.2023e-22  2.5051e-23  3.2099e-22  3.1941e-23  3.2234e-22  4.4313e-23  3.2474e-22  6.6699e-23  3.2902e-22  1.0775e-22  3.3671e-22  1.8482e-22  3.5534e-22  3.3457e-22  3.8523e-22  6.4270e-22  4.3548e-22
      5.75  1.6231e-23  3.5791e-22  1.6243e-23  3.5792e-22  1.6262e-23  3.5792e-22  1.6297e-23  3.5793e-22  1.6359e-23  3.5794e-22  1.6470e-23  3.5797e-22  1.6667e-23  3.5802e-22  1.7016e-23  3.5810e-22  1.7639e-23  3.5825e-22  1.8747e-23  3.5851e-22  2.0720e-23  3.5898e-22  2.4240e-23  3.5981e-22  3.0535e-23  3.6130e-22  4.1837e-23  3.6394e-22  6.2287e-23  3.6866e-22  9.9769e-23  3.7711e-22  1.7014e-22  3.9670e-22  3.0673e-22  4.2981e-22  5.8743e-22  4.8501e-22
      5.80  1.6183e-23  4.0128e-22  1.6193e-23  4.0129e-22  1.6211e-23  4.0129e-22  1.6243e-23  4.0130e-22  1.6300e-23  4.0132e-22  1.6401e-23  4.0135e-22  1.6581e-23  4.0140e-22  1.6900e-23  4.0149e-22  1.7469e-23  4.0165e-22  1.8482e-23  4.0194e-22  2.0285e-23  4.0246e-22  2.3502e-23  4.0338e-22  2.9255e-23  4.0502e-22  3.9583e-23  4.0794e-22  5.8266e-23  4.1314e-22  9.2497e-23  4.2245e-22  1.5673e-22  4.4306e-22  2.8126e-22  4.8001e-22  5.3665e-22  5.4058e-22
      5.85  1.6139e-23  4.4993e-22  1.6148e-23  4.4993e-22  1.6165e-23  4.4994e-22  1.6194e-23  4.4995e-22  1.6246e-23  4.4997e-22  1.6338e-23  4.5000e-22  1.6503e-23  4.5006e-22  1.6795e-23  4.5016e-22  1.7316e-23  4.5034e-22  1.8242e-23  4.5066e-22  1.9892e-23  4.5123e-22  2.2835e-23  4.5225e-22  2.8097e-23  4.5406e-22  3.7543e-23  4.5729e-22  5.4626e-23  4.6304e-22  8.5909e-23  4.7332e-22  1.4455e-22  4.9484e-22  2.5815e-22  5.3622e-22  4.9043e-22  6.0311e-22
      5.90  1.6099e-23  5.0450e-22  1.6108e-23  5.0451e-22  1.6123e-23  5.0451e-22  1.6149e-23  5.0453e-22  1.6197e-23  5.0455e-22  1.6282e-23  5.0458e-22  1.6432e-23  5.0464e-22  1.6700e-23  5.0476e-22  1.7177e-23  5.0496e-22  1.8026e-23  5.0531e-22  1.9538e-23  5.0595e-22  2.2234e-23  5.0707e-22  2.7055e-23  5.0908e-22  3.5707e-23  5.1265e-22  5.1349e-23  5.1902e-22  7.9975e-23  5.3040e-22  1.3355e-22  5.5265e-22  2.3729e-22  5.9913e-22  4.4869e-22  6.7324e-22
      5.95  1.6063e-23  5.6572e-22  1.6071e-23  5.6573e-22  1.6085e-23  5.6574e-22  1.6109e-23  5.6575e-22  1.6153e-23  5.6577e-22  1.6231e-23  5.6581e-22  1.6369e-23  5.6588e-22  1.6615e-23  5.6600e-22  1.7053e-23  5.6623e-22  1.7832e-23  5.6662e-22  1.9220e-23  5.6732e-22  2.1696e-23  5.6858e-22  2.6120e-23  5.7080e-22  3.4060e-23  5.7476e-22  4.8409e-23  5.8182e-22  7.4651e-23  5.9443e-22  1.2370e-22  6.1831e-22  2.1858e-22  6.6984e-22  4.1122e-22  7.5187e-22
      6.00  1.6031e-23  6.3440e-22  1.6038e-23  6.3441e-22  1.6051e-23  6.3441e-22  1.6073e-23  6.3443e-22  1.6114e-23  6.3445e-22  1.6185e-23  6.3450e-22  1.6312e-23  6.3457e-22  1.6539e-23  6.3471e-22  1.6942e-23  6.3496e-22  1.7659e-23  6.3540e-22  1.8936e-23  6.3618e-22  2.1213e-23  6.3757e-22  2.5283e-23  6.4004e-22  3.2585e-23  6.4444e-22  4.5776e-23  6.5228e-22  6.9884e-23  6.6626e-22  1.1487e-22  6.9192e-22  2.0184e-22  7.4951e-22  3.7774e-22  8.4024e-22
      6.05  1.6002e-23  7.1146e-22  1.6008e-23  7.1147e-22  1.6020e-23  7.1148e-22  1.6041e-23  7.1149e-22  1.6078e-23  7.1152e-22  1.6144e-23  7.1157e-22  1.6262e-23  7.1166e-22  1.6470e-23  7.1181e-22  1.6842e-23  7.1209e-22  1.7503e-23  7.1261e-22  1.8680e-23  7.1344e-22  2.0780e-23  7.1499e-22  2.4532e-23  7.1773e-22  3.1263e-23  7.2262e-22  4.3417e-23  7.3134e-22  6.5616e-23  7.4688e-22  1.0697e-22  7.7467e-22  1.8688e-22  8.3885e-22  3.4789e-22  9.3971e-22
      6.10  1.5976e-23  7.9792e-22  1.5982e-23  7.9792e-22  1.5993e-23  7.9793e-22  1.6012e-23  7.9795e-22  1.6046e-23  7.9798e-22  1.6107e-23  7.9804e-22  1.6216e-23  7.9813e-22  1.6409e-23  7.9830e-22  1.6752e-23  7.9861e-22  1.7363e-23  7.9919e-22  1.8451e-23  8.0012e-22  2.0391e-23  8.0184e-22  2.3858e-23  8.0489e-22  3.0076e-23  8.1034e-22  4.1300e-23  8.2003e-22  6.1787e-23  8.3732e-22  9.9902e-23  8.6822e-22  1.7349e-22  9.3896e-22  3.2126e-22  1.0513e-21
      6.15  1.5952e-23  8.9491e-22  1.5958e-23  8.9491e-22  1.5968e-23  8.9492e-22  1.5986e-23  8.9494e-22  1.6018e-23  8.9498e-22  1.6074e-23  8.9504e-22  1.6175e-23  8.9514e-22  1.6353e-23  8.9534e-22  1.6671e-23  8.9568e-22  1.7237e-23  8.9632e-22  1.8245e-23  8.9736e-22  2.0041e-23  8.9927e-22  2.3251e-23  9.0268e-22  2.9007e-23  9.0874e-22  3.9393e-23  9.1953e-22  5.8342e-23  9.3877e-22  9.3557e-23  9.7316e-22  1.6147e-22  1.0511e-21  2.9746e-22  1.1764e-21
      6.20  1.5932e-23  1.0037e-21  1.5937e-23  1.0037e-21  1.5946e-23  1.0037e-21  1.5963e-23  1.0038e-21  1.5992e-23  1.0038e-21  1.6045e-23  1.0039e-21  1.6138e-23  1.0040e-21  1.6304e-23  1.0042e-21  1.6598e-23  1.0046e-21  1.7123e-23  1.0052e-21  1.8058e-23  1.0064e-21  1.9725e-23  1.0086e-21  2.2702e-23  1.0124e-21  2.8040e-23  1.0191e-21  3.7670e-23  1.0312e-21  5.5229e-23  1.0526e-21  8.7833e-23  1.0909e-21  1.5065e-22  1.1768e-21  2.7611e-22  1.3166e-21
      6.25  1.5913e-23  1.1258e-21  1.5918e-23  1.1258e-21  1.5927e-23  1.1258e-21  1.5942e-23  1.1258e-21  1.5969e-23  1.1259e-21  1.6018e-23  1.1259e-21  1.6105e-23  1.1261e-21  1.6259e-23  1.1263e-21  1.6533e-23  1.1267e-21  1.7020e-23  1.1275e-21  1.7889e-23  1.1288e-21  1.9437e-23  1.1312e-21  2.2203e-23  1.1354e-21  2.7161e-23  1.1430e-21  3.6104e-23  1.1564e-21  5.2404e-23  1.1803e-21  8.2647e-23  1.2230e-21  1.4085e-22  1.3175e-21  2.5688e-22  1.4738e-21
      6.30  1.5896e-23  1.2628e-21  1.5901e-23  1.2628e-21  1.5909e-23  1.2628e-21  1.5923e-23  1.2628e-21  1.5949e-23  1.2629e-21  1.5994e-23  1.2629e-21  1.6075e-23  1.2631e-21  1.6218e-23  1.2634e-21  1.6473e-23  1.2638e-21  1.6927e-23  1.2647e-21  1.7734e-23  1.2662e-21  1.9175e-23  1.2688e-21  2.1748e-23  1.2735e-21  2.6359e-23  1.2819e-21  3.4675e-23  1.2969e-21  4.9828e-23  1.3236e-21  7.7925e-23  1.3711e-21  1.3194e-22  1.4752e-21  2.3948e-22  1.6500e-21
      6.35  1.5882e-23  1.4164e-21  1.5886e-23  1.4164e-21  1.5893e-23  1.4165e-21  1.5907e-23  1.4165e-21  1.5930e-23  1.4165e-21  1.5973e-23  1.4166e-21  1.6048e-23  1.4168e-21  1.6181e-23  1.4171e-21  1.6418e-23  1.4176e-21  1.6841e-23  1.4186e-21  1.7593e-23  1.4202e-21  1.8934e-23  1.4232e-21  2.1330e-23  1.4285e-21  2.5623e-23  1.4378e-21  3.3365e-23  1.4545e-21  4.7467e-23  1.4843e-21  7.3601e-23  1.5374e-21  1.2380e-22  1.6517e-21  2.2363e-22  1.8475e-21
      6.40  1.5869e-23  1.5888e-21  1.5873e-23  1.5889e-21  1.5880e-23  1.5889e-21  1.5892e-23  1.5889e-21  1.5914e-23  1.5890e-21  1.5953e-23  1.5891e-21  1.6023e-23  1.5893e-21  1.6148e-23  1.5896e-21  1.6369e-23  1.5902e-21  1.6762e-23  1.5912e-21  1.7463e-23  1.5931e-21  1.8713e-23  1.5964e-21  2.0945e-23  1.6023e-21  2.4945e-23  1.6127e-21  3.2157e-23  1.6314e-21  4.5291e-23  1.6646e-21  6.9624e-23  1.7239e-21  1.1631e-22  1.8494e-21  2.0913e-22  2.0688e-21
      6.45  1.5857e-23  1.7823e-21  1.5861e-23  1.7823e-21  1.5867e-23  1.7823e-21  1.5879e-23  1.7823e-21  1.5899e-23  1.7824e-21  1.5936e-23  1.7825e-21  1.6001e-23  1.7827e-21  1.6117e-23  1.7831e-21  1.6323e-23  1.7838e-21  1.6690e-23  1.7849e-21  1.7343e-23  1.7870e-21  1.8508e-23  1.7907e-21  2.0589e-23  1.7973e-21  2.4317e-23  1.8090e-21  3.1039e-23  1.8298e-21  4.3278e-23  1.8669e-21  6.5947e-23  1.9331e-21  1.0939e-22  2.0705e-21  1.9578e-22  2.3166e-21
      6.50  1.5847e-23  1.9993e-21  1.5850e-23  1.9993e-21  1.5856e-23  1.9993e-21  1.5867e-23  1.9994e-21  1.5886e-23  1.9994e-21  1.5920e-23  1.9996e-21  1.5981e-23  1.9998e-21  1.6089e-23  2.0002e-21  1.6281e-23  2.0009e-21  1.6623e-23  2.0022e-21  1.7232e-23  2.0046e-21  1.8318e-23  2.0087e-21  2.0258e-23  2.0160e-21  2.3734e-23  2.0291e-21  3.0000e-23  2.0524e-21  4.1408e-23  2.0938e-21  6.2534e-23  2.1677e-21  1.0298e-22  2.3180e-21  1.8344e-22  2.5942e-21
      6.55  1.5837e-23  2.2428e-21  1.5841e-23  2.2428e-21  1.5846e-23  2.2428e-21  1.5856e-23  2.2429e-21  1.5874e-23  2.2430e-21  1.5906e-23  2.2431e-21  1.5963e-23  2.2434e-21  1.6063e-23  2.2438e-21  1.6243e-23  2.2446e-21  1.6562e-23  2.2461e-21  1.7129e-23  2.2487e-21  1.8142e-23  2.2533e-21  1.9950e-23  2.2615e-21  2.3190e-23  2.2761e-21  2.9031e-23  2.3021e-21  3.9665e-23  2.3484e-21  5.9356e-23  2.4310e-21  9.7006e-23  2.5949e-21  1.7198e-22  2.9052e-21
      6.60  1.5829e-23  2.5160e-21  1.5832e-23  2.5160e-21  1.5838e-23  2.5160e-21  1.5847e-23  2.5161e-21  1.5864e-23  2.5162e-21  1.5893e-23  2.5163e-21  1.5946e-23  2.5166e-21  1.6040e-23  2.5171e-21  1.6207e-23  2.5181e-21  1.6504e-23  2.5197e-21  1.7034e-23  2.5226e-21  1.7977e-23  2.5277e-21  1.9662e-23  2.5369e-21  2.2682e-23  2.5532e-21  2.8126e-23  2.5823e-21  3.8037e-23  2.6340e-21  5.6387e-23  2.7263e-21  9.1426e-23  2.9046e-21  1.6129e-22  3.2534e-21
      6.65  1.5822e-23  2.8225e-21  1.5825e-23  2.8225e-21  1.5830e-23  2.8225e-21  1.5839e-23  2.8226e-21  1.5854e-23  2.8227e-21  1.5882e-23  2.8229e-21  1.5931e-23  2.8232e-21  1.6018e-23  2.8238e-21  1.6174e-23  2.8248e-21  1.6451e-23  2.8266e-21  1.6944e-23  2.8299e-21  1.7823e-23  2.8356e-21  1.9393e-23  2.8459e-21  2.2207e-23  2.8641e-21  2.7279e-23  2.8966e-21  3.6513e-23  2.9544e-21  5.3609e-23  3.0576e-21  8.6204e-23  3.2508e-21  1.5131e-22  3.6432e-21
      6.70  1.5816e-23  3.1664e-21  1.5818e-23  3.1664e-21  1.5823e-23  3.1664e-21  1.5831e-23  3.1665e-21  1.5846e-23  3.1666e-21  1.5871e-23  3.1668e-21  1.5917e-23  3.1672e-21  1.5999e-23  3.1678e-21  1.6143e-23  3.1690e-21  1.6401e-23  3.1710e-21  1.6861e-23  3.1746e-21  1.7679e-23  3.1811e-21  1.9141e-23  3.1925e-21  2.1762e-23  3.2129e-21  2.6485e-23  3.2492e-21  3.5084e-23  3.3139e-21  5.1006e-23  3.4292e-21  8.1307e-23  3.6379e-21  1.4197e-22  4.0795e-21
      6.75  1.5810e-23  3.5522e-21  1.5813e-23  3.5522e-21  1.5817e-23  3.5522e-21  1.5824e-23  3.5523e-21  1.5838e-23  3.5524e-21  1.5862e-23  3.5527e-21  1.5905e-23  3.5531e-21  1.5980e-23  3.5538e-21  1.6115e-23  3.5551e-21  1.6355e-23  3.5574e-21  1.6783e-23  3.5614e-21  1.7545e-23  3.5686e-21  1.8905e-23  3.5814e-21  2.1344e-23  3.6043e-21  2.5741e-23  3.6449e-21  3.3745e-23  3.7172e-21  4.8565e-23  3.8460e-21  7.6750e-23  4.0762e-21  1.3321e-22  4.5678e-21
      6.80  1.5805e-23  3.9851e-21  1.5807e-23  3.9851e-21  1.5811e-23  3.9852e-21  1.5818e-23  3.9852e-21  1.5831e-23  3.9854e-21  1.5853e-23  3.9856e-21  1.5893e-23  3.9861e-21  1.5963e-23  3.9869e-21  1.6089e-23  3.9883e-21  1.6312e-23  3.9909e-21  1.6710e-23  3.9954e-21  1.7419e-23  4.0035e-21  1.8684e-23  4.0178e-21  2.0953e-23  4.0433e-21  2.5043e-23  4.0888e-21  3.2489e-23  4.1696e-21  4.6276e-23  4.3137e-21  7.2498e-23  4.5710e-21  1.2500e-22  5.1145e-21
      6.85  1.5801e-23  4.4708e-21  1.5803e-23  4.4708e-21  1.5807e-23  4.4709e-21  1.5813e-23  4.4710e-21  1.5825e-23  4.4711e-21  1.5846e-23  4.4715e-21  1.5882e-23  4.4719e-21  1.5948e-23  4.4728e-21  1.6065e-23  4.4744e-21  1.6272e-23  4.4773e-21  1.6642e-23  4.4823e-21  1.7301e-23  4.4914e-21  1.8478e-23  4.5074e-21  2.0587e-23  4.5360e-21  2.4389e-23  4.5868e-21  3.1311e-23  4.6772e-21  4.4130e-23  4.8384e-21  6.8511e-23  5.1261e-21  1.1730e-22  5.7261e-21
      6.90  1.5797e-23  5.0157e-21  1.5799e-23  5.0158e-21  1.5802e-23  5.0158e-21  1.5808e-23  5.0159e-21  1.5819e-23  5.0161e-21  1.5839e-23  5.0164e-21  1.5873e-23  5.0170e-21  1.5934e-23  5.0180e-21  1.6042e-23  5.0198e-21  1.6235e-23  5.0230e-21  1.6578e-23  5.0287e-21  1.7190e-23  5.0388e-21  1.8284e-23  5.0567e-21  2.0243e-23  5.0887e-21  2.3776e-23  5.1455e-21  3.0208e-23  5.2467e-21  4.2119e-23  5.4270e-21  6.4776e-23  5.7487e-21  1.1009e-22  6.4102e-21
      6.95  1.5794e-23  5.6271e-21  1.5795e-23  5.6272e-21  1.5799e-23  5.6272e-21  1.5804e-23  5.6273e-21  1.5814e-23  5.6275e-21  1.5832e-23  5.6279e-21  1.5864e-23  5.6285e-21  1.5921e-23  5.6297e-21  1.6021e-23  5.6317e-21  1.6200e-23  5.6352e-21  1.6519e-23  5.6416e-21  1.7087e-23  5.6529e-21  1.8103e-23  5.6730e-21  1.9922e-23  5.7087e-21  2.3202e-23  5.7723e-21  2.9175e-23  5.8856e-21  4.0236e-23  6.0873e-21  6.1278e-23  6.4471e-21  1.0333e-22  7.1754e-21
      7.00  1.5791e-23  6.3131e-21  1.5792e-23  6.3131e-21  1.5795e-23  6.3132e-21  1.5801e-23  6.3133e-21  1.5810e-23  6.3136e-21  1.5826e-23  6.3140e-21  1.5856e-23  6.3147e-21  1.5908e-23  6.3159e-21  1.6002e-23  6.3182e-21  1.6168e-23  6.3222e-21  1.6464e-23  6.3293e-21  1.6991e-23  6.3419e-21  1.7934e-23  6.3644e-21  1.9622e-23  6.4044e-21  2.2666e-23  6.4756e-21  2.8209e-23  6.6023e-21  3.8475e-23  6.8280e-21  5.8007e-23  7.2305e-21  9.7002e-23  8.0311e-21
      7.05  1.5788e-23  7.0828e-21  1.5790e-23  7.0828e-21  1.5792e-23  7.0829e-21  1.5797e-23  7.0830e-21  1.5806e-23  7.0833e-21  1.5821e-23  7.0837e-21  1.5849e-23  7.0845e-21  1.5897e-23  7.0859e-21  1.5984e-23  7.0885e-21  1.6138e-23  7.0929e-21  1.6412e-23  7.1009e-21  1.6902e-23  7.1151e-21  1.7776e-23  7.1402e-21  1.9342e-23  7.1850e-21  2.2166e-23  7.2647e-21  2.7308e-23  7.4065e-21  3.6831e-23  7.6591e-21  5.4951e-23  8.1095e-21  9.1087e-23  8.9879e-21
      7.10  1.5786e-23  7.9463e-21  1.5787e-23  7.9464e-21  1.5790e-23  7.9465e-21  1.5794e-23  7.9466e-21  1.5802e-23  7.9469e-21  1.5817e-23  7.9474e-21  1.5842e-23  7.9483e-21  1.5887e-23  7.9499e-21  1.5967e-23  7.9527e-21  1.6110e-23  7.9577e-21  1.6365e-23  7.9666e-21  1.6818e-23  7.9825e-21  1.7629e-23  8.0107e-21  1.9081e-23  8.0608e-21  2.1699e-23  8.1500e-21  2.6466e-23  8.3088e-21  3.5297e-23  8.5915e-21  5.2099e-23  9.0956e-21  8.5562e-23  1.0057e-20
      7.15  1.5784e-23  8.9152e-21  1.5785e-23  8.9153e-21  1.5787e-23  8.9154e-21  1.5792e-23  8.9156e-21  1.5799e-23  8.9159e-21  1.5812e-23  8.9164e-21  1.5836e-23  8.9174e-21  1.5878e-23  8.9192e-21  1.5952e-23  8.9224e-21  1.6084e-23  8.9280e-21  1.6320e-23  8.9380e-21  1.6741e-23  8.9557e-21  1.7492e-23  8.9873e-21  1.8837e-23  9.0434e-21  2.1264e-23  9.1433e-21  2.5682e-23  9.3211e-21  3.3866e-23  9.6376e-21  4.9440e-23  1.0202e-20  8.0403e-23  1.1252e-20
      7.20  1.5782e-23  1.0002e-20  1.5783e-23  1.0002e-20  1.5785e-23  1.0002e-20  1.5789e-23  1.0003e-20  1.5796e-23  1.0003e-20  1.5808e-23  1.0004e-20  1.5830e-23  1.0005e-20  1.5869e-23  1.0007e-20  1.5938e-23  1.0010e-20  1.6061e-23  1.0017e-20  1.6279e-23  1.0028e-20  1.6668e-23  1.0048e-20  1.7364e-23  1.0083e-20  1.8611e-23  1.0146e-20  2.0858e-23  1.0258e-20  2.4952e-23  1.0457e-20  3.2533e-23  1.0811e-20  4.6961e-23  1.1443e-20  7.5588e-23  1.2587e-20
      7.25  1.5780e-23  1.1222e-20  1.5782e-23  1.1222e-20  1.5784e-23  1.1222e-20  1.5787e-23  1.1222e-20  1.5794e-23  1.1223e-20  1.5805e-23  1.1223e-20  1.5825e-23  1.1225e-20  1.5861e-23  1.1227e-20  1.5925e-23  1.1231e-20  1.6038e-23  1.1238e-20  1.6241e-23  1.1250e-20  1.6601e-23  1.1273e-20  1.7245e-23  1.1312e-20  1.8400e-23  1.1383e-20  2.0481e-23  1.1508e-20  2.4271e-23  1.1731e-20  3.1291e-23  1.2128e-20  4.4651e-23  1.2835e-20  7.1128e-23  1.4097e-20
      7.30  1.5779e-23  1.2590e-20  1.5780e-23  1.2591e-20  1.5782e-23  1.2591e-20  1.5785e-23  1.2591e-20  1.5791e-23  1.2591e-20  1.5802e-23  1.2592e-20  1.5820e-23  1.2594e-20  1.5854e-23  1.2596e-20  1.5913e-23  1.2600e-20  1.6018e-23  1.2608e-20  1.6205e-23  1.2622e-20  1.6539e-23  1.2647e-20  1.7135e-23  1.2692e-20  1.8203e-23  1.2771e-20  2.0130e-23  1.2911e-20  2.3637e-23  1.3161e-20  3.0134e-23  1.3605e-20  4.2498e-23  1.4397e-20  6.7003e-23  1.5810e-20
      7.35  1.5778e-23  1.4126e-20  1.5779e-23  1.4126e-20  1.5781e-23  1.4126e-20  1.5784e-23  1.4126e-20  1.5789e-23  1.4127e-20  1.5799e-23  1.4128e-20  1.5816e-23  1.4129e-20  1.5847e-23  1.4132e-20  1.5901e-23  1.4137e-20  1.5999e-23  1.4146e-20  1.6172e-23  1.4162e-20  1.6481e-23  1.4190e-20  1.7033e-23  1.4239e-20  1.8021e-23  1.4328e-20  1.9802e-23  1.4485e-20  2.3047e-23  1.4765e-20  2.9056e-23  1.5263e-20  4.0491e-23  1.6150e-20  6.3154e-23  1.7732e-20
      7.40  1.5777e-23  1.5849e-20  1.5778e-23  1.5849e-20  1.5779e-23  1.5849e-20  1.5782e-23  1.5849e-20  1.5787e-23  1.5850e-20  1.5796e-23  1.5851e-20  1.5812e-23  1.5853e-20  1.5841e-23  1.5856e-20  1.5891e-23  1.5861e-20  1.5981e-23  1.5871e-20  1.6141e-23  1.5889e-20  1.6427e-23  1.5920e-20  1.6937e-23  1.5976e-20  1.7850e-23  1.6075e-20  1.9498e-23  1.6251e-20  2.2497e-23  1.6564e-20  2.8052e-23  1.7122e-20  3.8620e-23  1.8116e-20  5.9562e-23  1.9888e-20
      7.45  1.5776e-23  1.7782e-20  1.5777e-23  1.7782e-20  1.5778e-23  1.7782e-20  1.5781e-23  1.7782e-20  1.5785e-23  1.7783e-20  1.5794e-23  1.7784e-20  1.5809e-23  1.7786e-20  1.5835e-23  1.7789e-20  1.5881e-23  1.7796e-20  1.5965e-23  1.7807e-20  1.6113e-23  1.7826e-20  1.6376e-23  1.7862e-20  1.6848e-23  1.7924e-20  1.7692e-23  1.8035e-20  1.9214e-23  1.8232e-20  2.1985e-23  1.8584e-20  2.7115e-23  1.9209e-20  3.6874e-23  2.0322e-20  5.6209e-23  2.2307e-20
      7.50  1.5775e-23  1.9950e-20  1.5776e-23  1.9950e-20  1.5777e-23  1.9951e-20  1.5780e-23  1.9951e-20  1.5784e-23  1.9952e-20  1.5792e-23  1.9953e-20  1.5805e-23  1.9955e-20  1.5829e-23  1.9959e-20  1.5873e-23  1.9966e-20  1.5949e-23  1.9978e-20  1.6086e-23  2.0001e-20  1.6330e-23  2.0040e-20  1.6765e-23  2.0110e-20  1.7544e-23  2.0234e-20  1.8949e-23  2.0455e-20  2.1507e-23  2.0849e-20  2.6242e-23  2.1550e-20  3.5247e-23  2.2797e-20  5.3079e-23  2.5021e-20
      7.55  1.5774e-23  2.2384e-20  1.5775e-23  2.2384e-20  1.5776e-23  2.2384e-20  1.5779e-23  2.2384e-20  1.5783e-23  2.2385e-20  1.5790e-23  2.2387e-20  1.5802e-23  2.2389e-20  1.5825e-23  2.2393e-20  1.5864e-23  2.2401e-20  1.5935e-23  2.2415e-20  1.6061e-23  2.2440e-20  1.6286e-23  2.2484e-20  1.6688e-23  2.2562e-20  1.7407e-23  2.2702e-20  1.8704e-23  2.2950e-20  2.1064e-23  2.3391e-20  2.5431e-23  2.4176e-20  3.3732e-23  2.5574e-20  5.0163e-23  2.8065e-20
      7.60  1.5774e-23  2.5114e-20  1.5774e-23  2.5114e-20  1.5776e-23  2.5114e-20  1.5778e-23  2.5115e-20  1.5781e-23  2.5115e-20  1.5788e-23  2.5117e-20  1.5799e-23  2.5120e-20  1.5820e-23  2.5125e-20  1.5857e-23  2.5134e-20  1.5922e-23  2.5149e-20  1.6038e-23  2.5177e-20  1.6246e-23  2.5226e-20  1.6616e-23  2.5314e-20  1.7280e-23  2.5471e-20  1.8475e-23  2.5749e-20  2.0651e-23  2.6243e-20  2.4676e-23  2.7123e-20  3.2323e-23  2.8690e-20  4.7447e-23  3.1481e-20
      7.65  1.5773e-23  2.8177e-20  1.5774e-23  2.8177e-20  1.5775e-23  2.8177e-20  1.5777e-23  2.8178e-20  1.5780e-23  2.8179e-20  1.5786e-23  2.8181e-20  1.5797e-23  2.8184e-20  1.5816e-23  2.8189e-20  1.5850e-23  2.8199e-20  1.5910e-23  2.8217e-20  1.6017e-23  2.8248e-20  1.6209e-23  2.8303e-20  1.6550e-23  2.8402e-20  1.7162e-23  2.8577e-20  1.8264e-23  2.8889e-20  2.0269e-23  2.9443e-20  2.3976e-23  3.0429e-20  3.1014e-23  3.2185e-20  4.4921e-23  3.5313e-20
      7.70  1.5773e-23  3.1614e-20  1.5773e-23  3.1614e-20  1.5774e-23  3.1614e-20  1.5776e-23  3.1615e-20  1.5779e-23  3.1616e-20  1.5785e-23  3.1618e-20  1.5795e-23  3.1621e-20  1.5812e-23  3.1628e-20  1.5843e-23  3.1639e-20  1.5899e-23  3.1658e-20  1.5998e-23  3.1693e-20  1.6174e-23  3.1755e-20  1.6489e-23  3.1866e-20  1.7052e-23  3.2062e-20  1.8068e-23  3.2412e-20  1.9914e-23  3.3033e-20  2.3327e-23  3.4139e-20  2.9801e-23  3.6107e-20  4.2578e-23  3.9613e-20
      7.75  1.5772e-23  3.5470e-20  1.5773e-23  3.5470e-20  1.5774e-23  3.5471e-20  1.5775e-23  3.5471e-20  1.5778e-23  3.5473e-20  1.5783e-23  3.5475e-20  1.5792e-23  3.5479e-20  1.5809e-23  3.5486e-20  1.5837e-23  3.5498e-20  1.5889e-23  3.5520e-20  1.5980e-23  3.5559e-20  1.6142e-23  3.5629e-20  1.6432e-23  3.5753e-20  1.6951e-23  3.5973e-20  1.7887e-23  3.6364e-20  1.9587e-23  3.7061e-20  2.2728e-23  3.8300e-20  2.8679e-23  4.0507e-20  4.0409e-23  4.4436e-20
      7.80  1.5772e-23  3.9797e-20  1.5773e-23  3.9797e-20  1.5773e-23  3.9797e-20  1.5775e-23  3.9798e-20  1.5777e-23  3.9800e-20  1.5782e-23  3.9802e-20  1.5791e-23  3.9806e-20  1.5805e-23  3.9814e-20  1.5832e-23  3.9828e-20  1.5879e-23  3.9853e-20  1.5963e-23  3.9897e-20  1.6113e-23  3.9975e-20  1.6380e-23  4.0114e-20  1.6858e-23  4.0360e-20  1.7720e-23  4.0800e-20  1.9285e-23  4.1581e-20  2.2175e-23  4.2970e-20  2.7645e-23  4.5443e-20  3.8407e-23  4.9848e-20
      7.85  1.5772e-23  4.4651e-20  1.5772e-23  4.4652e-20  1.5773e-23  4.4652e-20  1.5774e-23  4.4653e-20  1.5777e-23  4.4654e-20  1.5781e-23  4.4657e-20  1.5789e-23  4.4662e-20  1.5803e-23  4.4671e-20  1.5827e-23  4.4686e-20  1.5870e-23  4.4714e-20  1.5948e-23  4.4763e-20  1.6086e-23  4.4851e-20  1.6332e-23  4.5007e-20  1.6773e-23  4.5283e-20  1.7567e-23  4.5776e-20  1.9008e-23  4.6651e-20  2.1667e-23  4.8209e-20  2.6694e-23  5.0982e-20  3.6565e-23  5.5919e-20
      7.90  1.5771e-23  5.0098e-20  1.5772e-23  5.0098e-20  1.5773e-23  5.0099e-20  1.5774e-23  5.0100e-20  1.5776e-23  5.0102e-20  1.5780e-23  5.0105e-20  1.5787e-23  5.0110e-20  1.5800e-23  5.0120e-20  1.5822e-23  5.0138e-20  1.5863e-23  5.0169e-20  1.5934e-23  5.0224e-20  1.6061e-23  5.0322e-20  1.6288e-23  5.0497e-20  1.6695e-23  5.0807e-20  1.7426e-23  5.1359e-20  1.8754e-23  5.2341e-20  2.1202e-23  5.4088e-20  2.5822e-23  5.7196e-20  3.4876e-23  6.2731e-20
      7.95  1.5771e-23  5.6209e-20  1.5772e-23  5.6210e-20  1.5772e-23  5.6210e-20  1.5773e-23  5.6212e-20  1.5776e-23  5.6213e-20  1.5779e-23  5.6217e-20  1.5786e-23  5.6223e-20  1.5797e-23  5.6234e-20  1.5818e-23  5.6254e-20  1.5855e-23  5.6289e-20  1.5921e-23  5.6350e-20  1.6039e-23  5.6460e-20  1.6248e-23  5.6656e-20  1.6623e-23  5.7004e-20  1.7298e-23  5.7623e-20  1.8522e-23  5.8724e-20  2.0776e-23  6.0683e-20  2.5025e-23  6.4169e-20  3.3332e-23  7.0374e-20
      8.00  1.5771e-23  6.3066e-20  1.5771e-23  6.3067e-20  1.5772e-23  6.3067e-20  1.5773e-23  6.3069e-20  1.5775e-23  6.3071e-20  1.5778e-23  6.3075e-20  1.5784e-23  6.3082e-20  1.5795e-23  6.3094e-20  1.5814e-23  6.3116e-20  1.5849e-23  6.3155e-20  1.5910e-23  6.3224e-20  1.6018e-23  6.3348e-20  1.6212e-23  6.3567e-20  1.6558e-23  6.3958e-20  1.7181e-23  6.4652e-20  1.8311e-23  6.5887e-20  2.0389e-23  6.8083e-20  2.4298e-23  7.1991e-20  3.1923e-23  7.8949e-20
      8.05  1.5771e-23  7.0760e-20  1.5771e-23  7.0760e-20  1.5772e-23  7.0761e-20  1.5773e-23  7.0763e-20  1.5775e-23  7.0765e-20  1.5778e-23  7.0769e-20  1.5783e-23  7.0777e-20  1.5793e-23  7.0791e-20  1.5811e-23  7.0816e-20  1.5843e-23  7.0859e-20  1.5899e-23  7.0937e-20  1.5999e-23  7.1076e-20  1.6178e-23  7.1322e-20  1.6499e-23  7.1760e-20  1.7075e-23  7.2538e-20  1.8119e-23  7.3923e-20  2.0036e-23  7.6386e-20  2.3638e-23  8.0769e-20  3.0642e-23  8.8569e-20
      8.10  1.5771e-23  7.9392e-20  1.5771e-23  7.9393e-20  1.5772e-23  7.9394e-20  1.5772e-23  7.9395e-20  1.5774e-23  7.9398e-20  1.5777e-23  7.9403e-20  1.5782e-23  7.9412e-20  1.5791e-23  7.9427e-20  1.5808e-23  7.9455e-20  1.5837e-23  7.9504e-20  1.5889e-23  7.9591e-20  1.5982e-23  7.9746e-20  1.6148e-23  8.0022e-20  1.6445e-23  8.0513e-20  1.6979e-23  8.1387e-20  1.7944e-23  8.2940e-20  1.9716e-23  8.5702e-20  2.3038e-23  9.0616e-20  2.9481e-23  9.9364e-20
      8.15  1.5771e-23  8.9078e-20  1.5771e-23  8.9078e-20  1.5771e-23  8.9079e-20  1.5772e-23  8.9081e-20  1.5774e-23  8.9084e-20  1.5776e-23  8.9090e-20  1.5781e-23  8.9099e-20  1.5790e-23  8.9117e-20  1.5805e-23  8.9148e-20  1.5832e-23  8.9203e-20  1.5881e-23  8.9301e-20  1.5967e-23  8.9475e-20  1.6121e-23  8.9785e-20  1.6397e-23  9.0335e-20  1.6891e-23  9.1314e-20  1.7786e-23  9.3056e-20  1.9427e-23  9.6154e-20  2.2496e-23  1.0167e-19  2.8430e-23  1.1147e-19
      8.20  1.5770e-23  9.9945e-20  1.5771e-23  9.9945e-20  1.5771e-23  9.9947e-20  1.5772e-23  9.9949e-20  1.5773e-23  9.9952e-20  1.5776e-23  9.9958e-20  1.5780e-23  9.9969e-20  1.5788e-23  9.9989e-20  1.5803e-23  1.0002e-19  1.5828e-23  1.0009e-19  1.5873e-23  1.0020e-19  1.5953e-23  1.0039e-19  1.6097e-23  1.0074e-19  1.6353e-23  1.0136e-19  1.6813e-23  1.0245e-19  1.7644e-23  1.0441e-19  1.9166e-23  1.0788e-19  2.2007e-23  1.1406e-19  2.7482e-23  1.2506e-19
      8.25  1.5770e-23  1.1214e-19  1.5771e-23  1.1214e-19  1.5771e-23  1.1214e-19  1.5772e-23  1.1214e-19  1.5773e-23  1.1215e-19  1.5775e-23  1.1215e-19  1.5780e-23  1.1217e-19  1.5787e-23  1.1219e-19  1.5800e-23  1.1223e-19  1.5824e-23  1.1230e-19  1.5866e-23  1.1242e-19  1.5941e-23  1.1264e-19  1.6074e-23  1.1303e-19  1.6313e-23  1.1372e-19  1.6742e-23  1.1495e-19  1.7516e-23  1.1714e-19  1.8930e-23  1.2104e-19  2.1567e-23  1.2797e-19  2.6629e-23  1.4031e-19
      8.30  1.5770e-23  1.2582e-19  1.5771e-23  1.2582e-19  1.5771e-23  1.2582e-19  1.5772e-23  1.2582e-19  1.5773e-23  1.2583e-19  1.5775e-23  1.2584e-19  1.5779e-23  1.2585e-19  1.5786e-23  1.2587e-19  1.5798e-23  1.2592e-19  1.5820e-23  1.2600e-19  1.5860e-23  1.2613e-19  1.5930e-23  1.2638e-19  1.6055e-23  1.2682e-19  1.6278e-23  1.2759e-19  1.6678e-23  1.2897e-19  1.7400e-23  1.3143e-19  1.8719e-23  1.3580e-19  2.1170e-23  1.4358e-19  2.5861e-23  1.5741e-19
      8.35  1.5770e-23  1.4117e-19  1.5770e-23  1.4117e-19  1.5771e-23  1.4117e-19  1.5771e-23  1.4117e-19  1.5773e-23  1.4118e-19  1.5775e-23  1.4119e-19  1.5778e-23  1.4120e-19  1.5785e-23  1.4123e-19  1.5797e-23  1.4128e-19  1.5817e-23  1.4137e-19  1.5854e-23  1.4152e-19  1.5920e-23  1.4180e-19  1.6037e-23  1.4229e-19  1.6246e-23  1.4316e-19  1.6620e-23  1.4471e-19  1.7296e-23  1.4747e-19  1.8529e-23  1.5237e-19  2.0814e-23  1.6109e-19  2.5172e-23  1.7661e-19
      8.40  1.5770e-23  1.5839e-19  1.5770e-23  1.5839e-19  1.5771e-23  1.5839e-19  1.5771e-23  1.5840e-19  1.5772e-23  1.5840e-19  1.5774e-23  1.5841e-19  1.5778e-23  1.5843e-19  1.5784e-23  1.5846e-19  1.5795e-23  1.5852e-19  1.5814e-23  1.5861e-19  1.5849e-23  1.5879e-19  1.5911e-23  1.5910e-19  1.6021e-23  1.5965e-19  1.6217e-23  1.6062e-19  1.6569e-23  1.6236e-19  1.7203e-23  1.6545e-19  1.8358e-23  1.7095e-19  2.0495e-23  1.8074e-19  2.4555e-23  1.9814e-19
      8.45  1.5770e-23  1.7772e-19  1.5770e-23  1.7772e-19  1.5771e-23  1.7772e-19  1.5771e-23  1.7772e-19  1.5772e-23  1.7773e-19  1.5774e-23  1.7774e-19  1.5777e-23  1.7776e-19  1.5783e-23  1.7779e-19  1.5793e-23  1.7785e-19  1.5812e-23  1.7796e-19  1.5844e-23  1.7816e-19  1.5903e-23  1.7851e-19  1.6006e-23  1.7912e-19  1.6191e-23  1.8022e-19  1.6523e-23  1.8217e-19  1.7120e-23  1.8564e-19  1.8205e-23  1.9181e-19  2.0210e-23  2.0278e-19  2.4003e-23  2.2230e-19
      8.50  1.5770e-23  1.9940e-19  1.5770e-23  1.9940e-19  1.5771e-23  1.9940e-19  1.5771e-23  1.9940e-19  1.5772e-23  1.9941e-19  1.5774e-23  1.9942e-19  1.5777e-23  1.9945e-19  1.5782e-23  1.9948e-19  1.5792e-23  1.9955e-19  1.5809e-23  1.9968e-19  1.5840e-23  1.9990e-19  1.5895e-23  2.0028e-19  1.5993e-23  2.0098e-19  1.6168e-23  2.0221e-19  1.6482e-23  2.0439e-19  1.7046e-23  2.0828e-19  1.8069e-23  2.1520e-19  1.9954e-23  2.2751e-19  2.3510e-23  2.4941e-19
