# This was generated using Cloudy10 and the columns are ordered 
# as log10 of the fraction of the metallicity to the solar metallicity
# 'h_*_Z' and 'c_*_Z' stands for cooling and heating respectively 
# at * metalicity
#
# NOTE: This was generated separately from loop_coolingcurve_w_UV.py
#       using Output_metals_w_redshift.py.
#
# Redshift = 6.0
# hden = -3.5
#
#     temp   h_-3.00_Z   c_-3.00_Z   h_-2.75_Z   c_-2.75_Z   h_-2.50_Z   c_-2.50_Z   h_-2.25_Z   c_-2.25_Z   h_-2.00_Z   c_-2.00_Z   h_-1.75_Z   c_-1.75_Z   h_-1.50_Z   c_-1.50_Z   h_-1.25_Z   c_-1.25_Z   h_-1.00_Z   c_-1.00_Z   h_-0.75_Z   c_-0.75_Z   h_-0.50_Z   c_-0.50_Z   h_-0.25_Z   c_-0.25_Z    h_0.00_Z    c_0.00_Z    h_0.25_Z    c_0.25_Z    h_0.50_Z    c_0.50_Z    h_0.75_Z    c_0.75_Z    h_1.00_Z    c_1.00_Z    h_1.25_Z    c_1.25_Z    h_1.50_Z    c_1.50_Z 
      4.00  4.7630e-24  1.2597e-24  4.7634e-24  1.2642e-24  4.7640e-24  1.2721e-24  4.7652e-24  1.2864e-24  4.7672e-24  1.3117e-24  4.7708e-24  1.3566e-24  4.7772e-24  1.4366e-24  4.7887e-24  1.5788e-24  4.8090e-24  1.8317e-24  4.8451e-24  2.2816e-24  4.9093e-24  3.0821e-24  5.0235e-24  4.5068e-24  5.2265e-24  7.0443e-24  5.5875e-24  1.1569e-23  6.2293e-24  1.9656e-23  7.3705e-24  3.4163e-23  9.4010e-24  6.0358e-23  1.3020e-23  1.0820e-22  1.9495e-23  1.9724e-22
      4.05  4.4713e-24  1.3557e-24  4.4716e-24  1.3609e-24  4.4723e-24  1.3702e-24  4.4734e-24  1.3867e-24  4.4754e-24  1.4160e-24  4.4790e-24  1.4682e-24  4.4853e-24  1.5609e-24  4.4966e-24  1.7259e-24  4.5166e-24  2.0193e-24  4.5522e-24  2.5412e-24  4.6155e-24  3.4698e-24  4.7281e-24  5.1225e-24  4.9283e-24  8.0663e-24  5.2842e-24  1.3316e-23  5.9171e-24  2.2699e-23  7.0425e-24  3.9534e-23  9.0451e-24  6.9944e-23  1.2615e-23  1.2551e-22  1.9001e-23  2.2901e-22
      4.10  4.1983e-24  1.4664e-24  4.1986e-24  1.4726e-24  4.1992e-24  1.4836e-24  4.2004e-24  1.5032e-24  4.2023e-24  1.5380e-24  4.2059e-24  1.5999e-24  4.2121e-24  1.7100e-24  4.2232e-24  1.9058e-24  4.2430e-24  2.2541e-24  4.2782e-24  2.8737e-24  4.3407e-24  3.9760e-24  4.4519e-24  5.9379e-24  4.6496e-24  9.4326e-24  5.0012e-24  1.5665e-23  5.6264e-24  2.6805e-23  6.7382e-24  4.6797e-23  8.7167e-24  8.2917e-23  1.2244e-23  1.4895e-22  1.8555e-23  2.7203e-22
      4.15  3.9425e-24  1.6001e-24  3.9429e-24  1.6076e-24  3.9435e-24  1.6210e-24  3.9446e-24  1.6448e-24  3.9466e-24  1.6871e-24  3.9500e-24  1.7623e-24  3.9562e-24  1.8960e-24  3.9673e-24  2.1339e-24  3.9868e-24  2.5569e-24  4.0217e-24  3.3094e-24  4.0836e-24  4.6482e-24  4.1938e-24  7.0312e-24  4.3896e-24  1.1276e-23  4.7378e-24  1.8846e-23  5.3571e-24  3.2379e-23  6.4584e-24  5.6666e-23  8.4186e-24  1.0056e-22  1.1913e-23  1.8082e-22  1.8167e-23  3.3052e-22
      4.20  3.7026e-24  1.7710e-24  3.7030e-24  1.7804e-24  3.7036e-24  1.7970e-24  3.7047e-24  1.8265e-24  3.7066e-24  1.8789e-24  3.7101e-24  1.9723e-24  3.7162e-24  2.1383e-24  3.7272e-24  2.4334e-24  3.7467e-24  2.9584e-24  3.7813e-24  3.8923e-24  3.8429e-24  5.5539e-24  3.9524e-24  8.5115e-24  4.1470e-24  1.3780e-23  4.4933e-24  2.3176e-23  5.1089e-24  3.9972e-23  6.2040e-24  7.0119e-23  8.1532e-24  1.2461e-22  1.1629e-23  2.2426e-22  1.7850e-23  4.1020e-22
      4.25  3.4769e-24  2.0006e-24  3.4772e-24  2.0124e-24  3.4778e-24  2.0334e-24  3.4789e-24  2.0707e-24  3.4809e-24  2.1371e-24  3.4843e-24  2.2552e-24  3.4905e-24  2.4652e-24  3.5014e-24  2.8386e-24  3.5209e-24  3.5028e-24  3.5555e-24  4.6843e-24  3.6170e-24  6.7863e-24  3.7264e-24  1.0528e-23  3.9209e-24  1.7193e-23  4.2668e-24  2.9080e-23  4.8820e-24  5.0331e-23  5.9763e-24  8.8472e-23  7.9243e-24  1.5741e-22  1.1399e-23  2.8352e-22  1.7618e-23  5.1883e-22
      4.30  3.2635e-24  2.3199e-24  3.2638e-24  2.3350e-24  3.2644e-24  2.3619e-24  3.2655e-24  2.4098e-24  3.2675e-24  2.4948e-24  3.2709e-24  2.6460e-24  3.2771e-24  2.9149e-24  3.2881e-24  3.3932e-24  3.3076e-24  4.2438e-24  3.3423e-24  5.7569e-24  3.4040e-24  8.4489e-24  3.5138e-24  1.3241e-23  3.7090e-24  2.1776e-23  4.0561e-24  3.7000e-23  4.6733e-24  6.4215e-23  5.7715e-24  1.1306e-22  7.7266e-24  2.0135e-22  1.1214e-23  3.6286e-22  1.7460e-23  6.6423e-22
      4.35  3.0598e-24  2.7625e-24  3.0602e-24  2.7820e-24  3.0608e-24  2.8167e-24  3.0619e-24  2.8784e-24  3.0639e-24  2.9881e-24  3.0674e-24  3.1832e-24  3.0736e-24  3.5302e-24  3.0846e-24  4.1472e-24  3.1043e-24  5.2447e-24  3.1393e-24  7.1968e-24  3.2014e-24  1.0670e-23  3.3120e-24  1.6853e-23  3.5086e-24  2.7865e-23  3.8583e-24  4.7507e-23  4.4801e-24  8.2619e-23  5.5866e-24  1.4564e-22  7.5568e-24  2.5955e-22  1.1072e-23  4.6792e-22  1.7371e-23  8.5672e-22
      4.40  2.8628e-24  3.3645e-24  2.8632e-24  3.3897e-24  2.8638e-24  3.4347e-24  2.8649e-24  3.5146e-24  2.8669e-24  3.6568e-24  2.8704e-24  3.9095e-24  2.8767e-24  4.3590e-24  2.8879e-24  5.1585e-24  2.9078e-24  6.5803e-24  2.9432e-24  9.1095e-24  3.0060e-24  1.3610e-23  3.1179e-24  2.1619e-23  3.3167e-24  3.5887e-23  3.6704e-24  6.1335e-23  4.2994e-24  1.0683e-22  5.4188e-24  1.8848e-22  7.4124e-24  3.3606e-22  1.0971e-23  6.0602e-22  1.7352e-23  1.1098e-21
      4.45  2.6688e-24  4.1540e-24  2.6691e-24  4.1868e-24  2.6698e-24  4.2452e-24  2.6709e-24  4.3489e-24  2.6729e-24  4.5335e-24  2.6765e-24  4.8617e-24  2.6829e-24  5.4454e-24  2.6943e-24  6.4834e-24  2.7144e-24  8.3296e-24  2.7504e-24  1.1614e-23  2.8142e-24  1.7457e-23  2.9278e-24  2.7857e-23  3.1297e-24  4.6383e-23  3.4889e-24  7.9425e-23  4.1278e-24  1.3849e-22  5.2650e-24  2.4452e-22  7.2910e-24  4.3615e-22  1.0909e-23  7.8669e-22  1.7402e-23  1.4408e-21
      4.50  2.4740e-24  5.1421e-24  2.4744e-24  5.1847e-24  2.4750e-24  5.2604e-24  2.4762e-24  5.3950e-24  2.4783e-24  5.6344e-24  2.4819e-24  6.0601e-24  2.4884e-24  6.8171e-24  2.5000e-24  8.1635e-24  2.5206e-24  1.0558e-23  2.5572e-24  1.4818e-23  2.6223e-24  2.2396e-23  2.7381e-24  3.5886e-23  2.9440e-24  5.9915e-23  3.3102e-24  1.0277e-22  3.9618e-24  1.7939e-22  5.1217e-24  3.1690e-22  7.1890e-24  5.6546e-22  1.0883e-23  1.0201e-21  1.7519e-23  1.8686e-21
      4.55  2.2762e-24  6.3263e-24  2.2766e-24  6.3813e-24  2.2772e-24  6.4792e-24  2.2784e-24  6.6531e-24  2.2805e-24  6.9625e-24  2.2843e-24  7.5126e-24  2.2909e-24  8.4910e-24  2.3028e-24  1.0231e-23  2.3238e-24  1.3326e-23  2.3613e-24  1.8831e-23  2.4279e-24  2.8625e-23  2.5463e-24  4.6058e-23  2.7569e-24  7.7112e-23  3.1316e-24  1.3250e-22  3.7982e-24  2.3151e-22  4.9853e-24  4.0923e-22  7.1018e-24  7.3045e-22  1.0887e-23  1.3180e-21  1.7693e-23  2.4146e-21
      4.60  2.0756e-24  7.7170e-24  2.0760e-24  7.7877e-24  2.0766e-24  7.9134e-24  2.0778e-24  8.1368e-24  2.0800e-24  8.5343e-24  2.0838e-24  9.2410e-24  2.0907e-24  1.0498e-23  2.1028e-24  1.2733e-23  2.1244e-24  1.6709e-23  2.1628e-24  2.3781e-23  2.2310e-24  3.6363e-23  2.3524e-24  5.8759e-23  2.5682e-24  9.8652e-23  2.9523e-24  1.6980e-22  3.6357e-24  2.9700e-22  4.8528e-24  5.2529e-22  7.0240e-24  9.3791e-22  1.0909e-23  1.6927e-21  1.7903e-23  3.1010e-21
      4.65  1.8757e-24  9.5181e-24  1.8761e-24  9.6080e-24  1.8768e-24  9.7680e-24  1.8781e-24  1.0052e-23  1.8803e-24  1.0558e-23  1.8842e-24  1.1458e-23  1.8912e-24  1.3057e-23  1.9036e-24  1.5902e-23  1.9258e-24  2.0962e-23  1.9651e-24  2.9962e-23  2.0350e-24  4.5976e-23  2.1593e-24  7.4479e-23  2.3805e-24  1.2525e-22  2.7739e-24  2.1580e-22  3.4742e-24  3.7768e-22  4.7215e-24  6.6821e-22  6.9474e-24  1.1933e-21  1.0933e-23  2.1537e-21  1.8114e-23  3.9454e-21
      4.70  1.6821e-24  1.2336e-23  1.6825e-24  1.2450e-23  1.6832e-24  1.2651e-23  1.6845e-24  1.3008e-23  1.6867e-24  1.3645e-23  1.6907e-24  1.4776e-23  1.6979e-24  1.6788e-23  1.7106e-24  2.0366e-23  1.7331e-24  2.6729e-23  1.7732e-24  3.8049e-23  1.8446e-24  5.8189e-23  1.9715e-24  9.4036e-23  2.1972e-24  1.5789e-22  2.5988e-24  2.7177e-22  3.3137e-24  4.7535e-22  4.5873e-24  8.4072e-22  6.8604e-24  1.5010e-21  1.0932e-23  2.7086e-21  1.8272e-23  4.9611e-21
      4.75  1.4963e-24  1.7492e-23  1.4967e-24  1.7633e-23  1.4974e-24  1.7882e-23  1.4987e-24  1.8326e-23  1.5010e-24  1.9115e-23  1.5050e-24  2.0518e-23  1.5123e-24  2.3013e-23  1.5251e-24  2.7450e-23  1.5480e-24  3.5343e-23  1.5886e-24  4.9381e-23  1.6609e-24  7.4359e-23  1.7895e-24  1.1882e-22  2.0181e-24  1.9801e-22  2.4250e-24  3.3925e-22  3.1492e-24  5.9173e-22  4.4395e-24  1.0448e-21  6.7427e-24  1.8637e-21  1.0869e-23  3.3611e-21  1.8308e-23  6.1540e-21
      4.80  1.3075e-24  2.6959e-23  1.3079e-24  2.7131e-23  1.3086e-24  2.7436e-23  1.3099e-24  2.7978e-23  1.3122e-24  2.8942e-23  1.3163e-24  3.0657e-23  1.3235e-24  3.3707e-23  1.3364e-24  3.9130e-23  1.3593e-24  4.8776e-23  1.4000e-24  6.5934e-23  1.4725e-24  9.6463e-23  1.6013e-24  1.5080e-22  1.8304e-24  2.4759e-22  2.2381e-24  4.2022e-22  2.9637e-24  7.2880e-22  4.2566e-24  1.2826e-21  6.5641e-24  2.2834e-21  1.0698e-23  4.1137e-21  1.8148e-23  7.5273e-21
      4.85  1.0875e-24  4.1753e-23  1.0879e-24  4.1959e-23  1.0886e-24  4.2326e-23  1.0898e-24  4.2979e-23  1.0921e-24  4.4140e-23  1.0961e-24  4.6205e-23  1.1033e-24  4.9876e-23  1.1160e-24  5.6406e-23  1.1386e-24  6.8020e-23  1.1788e-24  8.8678e-23  1.2503e-24  1.2543e-22  1.3775e-24  1.9086e-22  1.6037e-24  3.0739e-22  2.0061e-24  5.1524e-22  2.7223e-24  8.8680e-22  3.9980e-24  1.5537e-21  6.2747e-24  2.7590e-21  1.0351e-23  4.9635e-21  1.7694e-23  9.0763e-21
      4.90  8.1667e-25  5.7677e-23  8.1706e-25  5.7921e-23  8.1775e-25  5.8355e-23  8.1898e-25  5.9128e-23  8.2117e-25  6.0502e-23  8.2505e-25  6.2945e-23  8.3197e-25  6.7290e-23  8.4426e-25  7.5018e-23  8.6613e-25  8.8762e-23  9.0501e-25  1.1321e-22  9.7416e-25  1.5671e-22  1.0971e-24  2.3414e-22  1.3158e-24  3.7206e-22  1.7049e-24  6.1807e-22  2.3971e-24  1.0579e-21  3.6299e-24  1.8474e-21  5.8291e-24  3.2747e-21  9.7648e-24  5.8865e-21  1.6847e-23  1.0763e-20
      4.95  5.3950e-25  6.5687e-23  5.3987e-25  6.5968e-23  5.4051e-25  6.6469e-23  5.4167e-25  6.7360e-23  5.4372e-25  6.8944e-23  5.4738e-25  7.1760e-23  5.5387e-25  7.6769e-23  5.6543e-25  8.5663e-23  5.8598e-25  1.0152e-22  6.2253e-25  1.2971e-22  6.8751e-25  1.7986e-22  8.0306e-25  2.6912e-22  1.0085e-24  4.2815e-22  1.3739e-24  7.1183e-22  2.0239e-24  1.2191e-21  3.1811e-24  2.1300e-21  5.2444e-24  3.7776e-21  8.9345e-24  6.7951e-21  1.5567e-23  1.2437e-20
      5.00  3.2887e-25  6.3015e-23  3.2920e-25  6.3326e-23  3.2979e-25  6.3879e-23  3.3083e-25  6.4864e-23  3.3270e-25  6.6615e-23  3.3601e-25  6.9728e-23  3.4191e-25  7.5265e-23  3.5239e-25  8.5111e-23  3.7104e-25  1.0262e-22  4.0420e-25  1.3378e-22  4.6315e-25  1.8921e-22  5.6795e-25  2.8790e-22  7.5425e-25  4.6371e-22  1.0854e-24  7.7740e-22  1.6743e-24  1.3385e-21  2.7221e-24  2.3466e-21  4.5895e-24  4.1715e-21  7.9263e-24  7.5183e-21  1.3914e-23  1.3789e-20
      5.05  1.9992e-25  5.5030e-23  2.0021e-25  5.5356e-23  2.0073e-25  5.5935e-23  2.0165e-25  5.6964e-23  2.0329e-25  5.8795e-23  2.0621e-25  6.2050e-23  2.1139e-25  6.7840e-23  2.2063e-25  7.8136e-23  2.3704e-25  9.6449e-23  2.6621e-25  1.2903e-22  3.1806e-25  1.8700e-22  4.1018e-25  2.9020e-22  5.7384e-25  4.7409e-22  8.6457e-25  8.0225e-22  1.3812e-24  1.3894e-21  2.2999e-24  2.4448e-21  3.9361e-24  4.3572e-21  6.8565e-24  7.8694e-21  1.2089e-23  1.4467e-20
      5.10  1.2700e-25  4.6614e-23  1.2726e-25  4.6942e-23  1.2771e-25  4.7526e-23  1.2852e-25  4.8563e-23  1.2995e-25  5.0409e-23  1.3250e-25  5.3690e-23  1.3705e-25  5.9526e-23  1.4513e-25  6.9904e-23  1.5950e-25  8.8364e-23  1.8502e-25  1.2120e-22  2.3032e-25  1.7964e-22  3.1074e-25  2.8368e-22  4.5344e-25  4.6907e-22  7.0667e-25  7.9994e-22  1.1562e-24  1.3921e-21  1.9558e-24  2.4568e-21  3.3806e-24  4.3872e-21  5.9217e-24  7.9371e-21  1.0463e-23  1.4619e-20
      5.15  8.5302e-26  3.9675e-23  8.5529e-26  4.0008e-23  8.5933e-26  4.0602e-23  8.6653e-26  4.1657e-23  8.7934e-26  4.3534e-23  9.0216e-26  4.6872e-23  9.4287e-26  5.2808e-23  1.0152e-25  6.3365e-23  1.1435e-25  8.2142e-23  1.3710e-25  1.1555e-22  1.7745e-25  1.7499e-22  2.4894e-25  2.8082e-22  3.7558e-25  4.6942e-22  5.9999e-25  8.0604e-22  9.9923e-25  1.4086e-21  1.7097e-24  2.4924e-21  2.9748e-24  4.4590e-21  5.2295e-24  8.0799e-21  9.2539e-24  1.4910e-20
      5.20  6.0246e-26  3.4487e-23  6.0452e-26  3.4835e-23  6.0821e-26  3.5453e-23  6.1477e-26  3.6552e-23  6.2646e-26  3.8506e-23  6.4734e-26  4.1981e-23  6.8454e-26  4.8161e-23  7.5034e-26  5.9152e-23  8.6700e-26  7.8702e-23  1.0735e-25  1.1348e-22  1.4388e-25  1.7537e-22  2.0847e-25  2.8557e-22  3.2265e-25  4.8196e-22  5.2587e-25  8.3254e-22  8.8727e-25  1.4602e-21  1.5303e-24  2.5899e-21  2.6749e-24  4.6412e-21  4.7143e-24  8.4234e-21  8.3520e-24  1.5574e-20
      5.25  4.4308e-26  3.0805e-23  4.4496e-26  3.1168e-23  4.4833e-26  3.1812e-23  4.5435e-26  3.2958e-23  4.6509e-26  3.4995e-23  4.8416e-26  3.8618e-23  5.1810e-26  4.5062e-23  5.7799e-26  5.6522e-23  6.8387e-26  7.6906e-23  8.7084e-26  1.1317e-22  1.2006e-25  1.7771e-22  1.7817e-25  2.9262e-22  2.8145e-25  4.9743e-22  4.6505e-25  8.6312e-22  7.9159e-25  1.5180e-21  1.3726e-24  2.6973e-21  2.4066e-24  4.8406e-21  4.2483e-24  8.7983e-21  7.5319e-24  1.6298e-20
      5.30  3.3632e-26  2.8321e-23  3.3803e-26  2.8694e-23  3.4112e-26  2.9359e-23  3.4666e-26  3.0541e-23  3.5639e-26  3.2644e-23  3.7370e-26  3.6382e-23  4.0440e-26  4.3031e-23  4.5840e-26  5.4856e-23  5.5361e-26  7.5889e-23  7.2086e-26  1.1331e-22  1.0148e-25  1.7991e-22  1.5347e-25  2.9850e-22  2.4591e-25  5.0988e-22  4.1019e-25  8.8737e-22  7.0229e-25  1.5636e-21  1.2219e-24  2.7820e-21  2.1464e-24  4.9986e-21  3.7924e-24  9.0982e-21  6.7257e-24  1.6887e-20
      5.35  2.6172e-26  2.6784e-23  2.6329e-26  2.7166e-23  2.6616e-26  2.7846e-23  2.7118e-26  2.9054e-23  2.8000e-26  3.1203e-23  2.9561e-26  3.5024e-23  3.2333e-26  4.1821e-23  3.7179e-26  5.3909e-23  4.5678e-26  7.5412e-23  6.0572e-26  1.1367e-22  8.6677e-26  1.8176e-22  1.3299e-25  3.0301e-22  2.1529e-25  5.1918e-22  3.6157e-25  9.0528e-22  6.2169e-25  1.5973e-21  1.0843e-24  2.8448e-21  1.9074e-24  5.1172e-21  3.3728e-24  9.3281e-21  5.9838e-24  1.7354e-20
      5.40  2.0774e-26  2.5977e-23  2.0915e-26  2.6347e-23  2.1170e-26  2.7004e-23  2.1611e-26  2.8173e-23  2.2389e-26  3.0251e-23  2.3758e-26  3.3948e-23  2.6181e-26  4.0522e-23  3.0440e-26  5.2216e-23  3.7857e-26  7.3020e-23  5.0805e-26  1.1004e-22  7.3523e-26  1.7593e-22  1.1384e-25  2.9327e-22  1.8548e-25  5.0250e-22  3.1281e-25  8.7633e-22  5.3922e-25  1.5467e-21  9.4180e-25  2.7564e-21  1.6582e-24  4.9634e-21  2.9338e-24  9.0645e-21  5.2073e-24  1.6914e-20
      5.45  1.6754e-26  2.5735e-23  1.6867e-26  2.6043e-23  1.7076e-26  2.6591e-23  1.7433e-26  2.7565e-23  1.8064e-26  2.9298e-23  1.9183e-26  3.2380e-23  2.1156e-26  3.7861e-23  2.4627e-26  4.7612e-23  3.0734e-26  6.4961e-23  4.1370e-26  9.5842e-23  5.9918e-26  1.5079e-22  9.2824e-26  2.4867e-22  1.5124e-25  4.2322e-22  2.5493e-25  7.3523e-22  4.3924e-25  1.2951e-21  7.6704e-25  2.3068e-21  1.3504e-24  4.1562e-21  2.3892e-24  7.6048e-21  4.2413e-24  1.4243e-20
      5.50  1.3698e-26  2.5972e-23  1.3782e-26  2.6195e-23  1.3935e-26  2.6593e-23  1.4215e-26  2.7300e-23  1.4703e-26  2.8559e-23  1.5568e-26  3.0796e-23  1.7109e-26  3.4776e-23  1.9832e-26  4.1854e-23  2.4625e-26  5.4449e-23  3.3025e-26  7.6861e-23  4.7589e-26  1.1675e-22  7.3249e-26  1.8781e-22  1.1861e-25  3.1459e-22  1.9914e-25  5.4125e-22  3.4218e-25  9.4822e-22  5.9654e-25  1.6843e-21  1.0492e-24  3.0322e-21  1.8553e-24  5.5530e-21  3.2924e-24  1.0425e-20
      5.55  1.1346e-26  2.6735e-23  1.1412e-26  2.6906e-23  1.1532e-26  2.7208e-23  1.1749e-26  2.7746e-23  1.2144e-26  2.8703e-23  1.2854e-26  3.0405e-23  1.4118e-26  3.3432e-23  1.6362e-26  3.8815e-23  2.0313e-26  4.8391e-23  2.7172e-26  6.5430e-23  3.9035e-26  9.5761e-23  5.9799e-26  1.4980e-22  9.6454e-26  2.4620e-22  1.6144e-25  4.1860e-22  2.7696e-25  7.2825e-22  4.8234e-25  1.2886e-21  8.4781e-25  2.3159e-21  1.4986e-24  4.2396e-21  2.6584e-24  7.9667e-21
      5.60  9.5109e-27  2.7993e-23  9.5680e-27  2.8142e-23  9.6712e-27  2.8406e-23  9.8596e-27  2.8876e-23  1.0196e-26  2.9713e-23  1.0810e-26  3.1201e-23  1.1924e-26  3.3846e-23  1.3894e-26  3.8551e-23  1.7382e-26  4.6920e-23  2.3258e-26  6.1813e-23  3.3467e-26  8.8325e-23  5.1206e-26  1.3556e-22  8.2602e-26  2.1983e-22  1.3834e-25  3.7056e-22  2.3740e-25  6.4133e-22  4.1352e-25  1.1315e-21  7.2691e-25  2.0305e-21  1.2849e-24  3.7155e-21  2.2792e-24  6.9846e-21
      5.65  8.0604e-27  2.9702e-23  8.1116e-27  2.9845e-23  8.2050e-27  3.0098e-23  8.3764e-27  3.0548e-23  8.6839e-27  3.1348e-23  9.2387e-27  3.2771e-23  1.0240e-26  3.5302e-23  1.2034e-26  3.9802e-23  1.5205e-26  4.7808e-23  2.0404e-26  6.2056e-23  2.9435e-26  8.7420e-23  4.5130e-26  1.3261e-22  7.2980e-26  2.1324e-22  1.2242e-25  3.5746e-22  2.1032e-25  6.1658e-22  3.6659e-25  1.0858e-21  6.4467e-25  1.9466e-21  1.1398e-24  3.5613e-21  2.0221e-24  6.6988e-21
      5.70  6.9000e-27  3.1843e-23  6.9466e-27  3.1982e-23  7.0321e-27  3.2230e-23  7.1923e-27  3.2670e-23  7.4728e-27  3.3452e-23  7.9843e-27  3.4843e-23  8.9111e-27  3.7317e-23  1.0572e-26  4.1716e-23  1.3397e-26  4.9543e-23  1.8030e-26  6.3472e-23  2.6065e-26  8.8269e-23  4.0129e-26  1.3245e-22  6.5050e-26  2.1128e-22  1.0930e-25  3.5230e-22  1.8798e-25  6.0571e-22  3.2789e-25  1.0647e-21  5.7686e-25  1.9073e-21  1.0202e-24  3.4891e-21  1.8104e-24  6.5657e-21
      5.75  5.9620e-27  3.4360e-23  6.0037e-27  3.4492e-23  6.0808e-27  3.4727e-23  6.2243e-27  3.5145e-23  6.4836e-27  3.5887e-23  6.9539e-27  3.7207e-23  7.8139e-27  3.9555e-23  9.3043e-27  4.3732e-23  1.1713e-26  5.1162e-23  1.5788e-26  6.4385e-23  2.2847e-26  8.7926e-23  3.5315e-26  1.2987e-22  5.7387e-26  2.0471e-22  9.6592e-26  3.3862e-22  1.6628e-25  5.7929e-22  2.9023e-25  1.0154e-21  5.1082e-25  1.8164e-21  9.0369e-25  3.3218e-21  1.6041e-24  6.2544e-21
      5.80  5.1969e-27  3.7360e-23  5.2336e-27  3.7481e-23  5.3016e-27  3.7697e-23  5.4294e-27  3.8080e-23  5.6644e-27  3.8761e-23  6.0995e-27  3.9973e-23  6.8607e-27  4.2128e-23  8.1412e-27  4.5962e-23  1.0191e-26  5.2782e-23  1.3730e-26  6.4918e-23  1.9864e-26  8.6526e-23  3.0750e-26  1.2503e-22  5.0003e-26  1.9373e-22  8.4177e-26  3.1666e-22  1.4494e-25  5.3767e-22  2.5302e-25  9.3826e-22  4.4540e-25  1.6746e-21  7.8815e-25  3.0623e-21  1.3999e-24  5.7846e-21
      5.85  4.5694e-27  4.0866e-23  4.6020e-27  4.0981e-23  4.6628e-27  4.1186e-23  4.7776e-27  4.1549e-23  4.9954e-27  4.2195e-23  5.3963e-27  4.3345e-23  6.0378e-27  4.5389e-23  7.1215e-27  4.9025e-23  8.8969e-27  5.5495e-23  1.1987e-26  6.7006e-23  1.7345e-26  8.7502e-23  2.6795e-26  1.2402e-22  4.3560e-26  1.8920e-22  7.3323e-26  3.0583e-22  1.2625e-25  5.1555e-22  2.2039e-25  8.9579e-22  3.8797e-25  1.5951e-21  6.8652e-25  2.9117e-21  1.2191e-24  5.4850e-21
      5.90  4.0513e-27  4.4915e-23  4.0807e-27  4.5030e-23  4.1363e-27  4.5235e-23  4.2424e-27  4.5598e-23  4.4449e-27  4.6244e-23  4.8011e-27  4.7394e-23  5.3739e-27  4.9438e-23  6.2916e-27  5.3075e-23  7.8705e-27  5.9545e-23  1.0564e-26  7.1059e-23  1.5245e-26  9.1557e-23  2.3504e-26  1.2808e-22  3.8169e-26  1.9327e-22  6.4222e-26  3.0994e-22  1.1054e-25  5.1983e-22  1.9293e-25  9.0043e-22  3.3961e-25  1.6009e-21  6.0096e-25  2.9207e-21  1.0673e-24  5.5025e-21
      5.95  3.6204e-27  4.9545e-23  3.6467e-27  4.9662e-23  3.6972e-27  4.9871e-23  3.7948e-27  5.0242e-23  3.9832e-27  5.0902e-23  4.3044e-27  5.2075e-23  4.8166e-27  5.4161e-23  5.6291e-27  5.7873e-23  6.9857e-27  6.4477e-23  9.3218e-27  7.6228e-23  1.3419e-26  9.7150e-23  2.0609e-26  1.3443e-22  3.3373e-26  2.0098e-22  5.6064e-26  3.2008e-22  9.6411e-26  5.3432e-22  1.6819e-25  9.2303e-22  2.9599e-25  1.6387e-21  5.2375e-25  2.9885e-21  9.3026e-25  5.6327e-21
      6.00  3.2594e-27  5.4803e-23  3.2822e-27  5.4921e-23  3.3264e-27  5.5130e-23  3.4134e-27  5.5502e-23  3.5826e-27  5.6164e-23  3.8878e-27  5.7340e-23  4.3390e-27  5.9433e-23  5.0427e-27  6.3156e-23  6.2144e-27  6.9780e-23  8.2279e-27  8.1567e-23  1.1740e-26  1.0255e-22  1.7935e-26  1.3995e-22  2.8914e-26  2.0671e-22  4.8431e-26  3.2622e-22  8.3146e-26  5.4123e-22  1.4493e-25  9.3148e-22  2.5497e-25  1.6505e-21  4.5118e-25  3.0079e-21  8.0177e-25  5.6715e-21
      6.05  2.9552e-27  6.0768e-23  2.9742e-27  6.0882e-23  3.0113e-27  6.1085e-23  3.0856e-27  6.1447e-23  3.2332e-27  6.2089e-23  3.5160e-27  6.3231e-23  3.9199e-27  6.5263e-23  4.5283e-27  6.8878e-23  5.5250e-27  7.5309e-23  7.2251e-27  8.6754e-23  1.0181e-26  1.0713e-22  1.5413e-26  1.4345e-22  2.4696e-26  2.0828e-22  4.1199e-26  3.2436e-22  7.0559e-26  5.3324e-22  1.2283e-25  9.1259e-22  2.1596e-25  1.6119e-21  3.8217e-25  2.9339e-21  6.7962e-25  5.5326e-21
      6.10  2.6981e-27  6.7498e-23  2.7137e-27  6.7607e-23  2.7441e-27  6.7799e-23  2.8047e-27  6.8142e-23  2.9271e-27  6.8750e-23  3.1687e-27  6.9832e-23  3.5282e-27  7.1757e-23  4.0632e-27  7.5181e-23  4.8863e-27  8.1273e-23  6.2890e-27  9.2115e-23  8.7577e-27  1.1142e-22  1.3116e-26  1.4582e-22  2.0858e-26  2.0724e-22  3.4628e-26  3.1722e-22  5.9128e-26  5.1520e-22  1.0276e-25  8.7485e-22  1.8055e-25  1.5384e-21  3.1963e-25  2.8001e-21  5.6897e-25  5.2789e-21
      6.15  2.4801e-27  7.5081e-23  2.4930e-27  7.5181e-23  2.5179e-27  7.5360e-23  2.5676e-27  7.5678e-23  2.6657e-27  7.6243e-23  2.8482e-27  7.7249e-23  3.1287e-27  7.9037e-23  3.5876e-27  8.2217e-23  4.2731e-27  8.7876e-23  5.4314e-27  9.7946e-23  7.4638e-27  1.1588e-22  1.1048e-26  1.4783e-22  1.7419e-26  2.0489e-22  2.8752e-26  3.0708e-22  4.8925e-26  4.9108e-22  8.4870e-26  8.2550e-22  1.4902e-25  1.4430e-21  2.6383e-25  2.6133e-21  4.7033e-25  4.9310e-21
      6.20  2.2941e-27  8.3609e-23  2.3046e-27  8.3699e-23  2.3250e-27  8.3859e-23  2.3647e-27  8.4144e-23  2.4389e-27  8.4650e-23  2.5738e-27  8.5549e-23  2.7854e-27  8.7148e-23  3.1295e-27  8.9993e-23  3.6906e-27  9.5055e-23  4.6325e-27  1.0406e-22  6.2643e-27  1.2010e-22  9.1516e-27  1.4869e-22  1.4273e-26  1.9974e-22  2.3387e-26  2.9119e-22  3.9615e-26  4.5592e-22  6.8549e-26  7.5545e-22  1.2024e-25  1.3090e-21  2.1295e-25  2.3596e-21  3.8024e-25  4.4368e-21
      6.25  2.1344e-27  9.3193e-23  2.1428e-27  9.3269e-23  2.1587e-27  9.3404e-23  2.1882e-27  9.3643e-23  2.2428e-27  9.4069e-23  2.3413e-27  9.4826e-23  2.4945e-27  9.6173e-23  2.7513e-27  9.8568e-23  3.1794e-27  1.0283e-22  3.9114e-27  1.1041e-22  5.1860e-27  1.2391e-22  7.4391e-27  1.4798e-22  1.1436e-26  1.9096e-22  1.8545e-26  2.6795e-22  3.1206e-26  4.0667e-22  5.3797e-26  6.5906e-22  9.4214e-26  1.1259e-21  1.6686e-25  2.0132e-21  2.9848e-25  3.7714e-21
      6.30  1.9970e-27  1.0398e-22  2.0032e-27  1.0404e-22  2.0146e-27  1.0415e-22  2.0364e-27  1.0434e-22  2.0751e-27  1.0468e-22  2.1446e-27  1.0529e-22  2.2513e-27  1.0636e-22  2.4381e-27  1.0827e-22  2.7601e-27  1.1167e-22  3.3067e-27  1.1773e-22  4.2732e-27  1.2850e-22  5.9777e-27  1.4771e-22  9.0063e-27  1.8202e-22  1.4390e-26  2.4350e-22  2.3984e-26  3.5433e-22  4.1117e-26  5.5611e-22  7.1816e-26  9.2963e-22  1.2714e-25  1.6407e-21  2.2785e-25  3.0529e-21
      6.35  1.8785e-27  1.1610e-22  1.8829e-27  1.1615e-22  1.8911e-27  1.1623e-22  1.9061e-27  1.1638e-22  1.9340e-27  1.1665e-22  1.9835e-27  1.1713e-22  2.0557e-27  1.1798e-22  2.1855e-27  1.1950e-22  2.4178e-27  1.2219e-22  2.8296e-27  1.2698e-22  3.5461e-27  1.3551e-22  4.8185e-27  1.5072e-22  7.0739e-27  1.7789e-22  1.1087e-26  2.2658e-22  1.8245e-26  3.1435e-22  3.1042e-26  4.7421e-22  5.4014e-26  7.7043e-22  9.5549e-26  1.3350e-21  1.7157e-25  2.4584e-21
      6.40  1.7761e-27  1.2971e-22  1.7794e-27  1.2975e-22  1.7853e-27  1.2981e-22  1.7959e-27  1.2994e-22  1.8152e-27  1.3016e-22  1.8510e-27  1.3054e-22  1.9032e-27  1.3123e-22  1.9950e-27  1.3246e-22  2.1623e-27  1.3464e-22  2.4661e-27  1.3852e-22  3.0086e-27  1.4544e-22  3.9708e-27  1.5776e-22  5.6784e-27  1.7978e-22  8.7199e-27  2.1924e-22  1.4153e-26  2.9040e-22  2.3880e-26  4.2007e-22  4.1389e-26  6.6052e-22  7.3191e-26  1.1203e-21  1.3184e-25  2.0358e-21
      6.45  1.6873e-27  1.4498e-22  1.6899e-27  1.4501e-22  1.6942e-27  1.4506e-22  1.7021e-27  1.4517e-22  1.7158e-27  1.4535e-22  1.7412e-27  1.4567e-22  1.7823e-27  1.4624e-22  1.8515e-27  1.4725e-22  1.9781e-27  1.4905e-22  2.2097e-27  1.5225e-22  2.6295e-27  1.5799e-22  3.3807e-27  1.6819e-22  4.7203e-27  1.8641e-22  7.1142e-27  2.1907e-22  1.1392e-26  2.7797e-22  1.9069e-26  3.8534e-22  3.2942e-26  5.8595e-22  5.8284e-26  9.6767e-22  1.0549e-25  1.7311e-21
      6.50  1.6099e-27  1.6211e-22  1.6120e-27  1.6213e-22  1.6153e-27  1.6218e-22  1.6211e-27  1.6227e-22  1.6314e-27  1.6242e-22  1.6498e-27  1.6268e-22  1.6799e-27  1.6316e-22  1.7325e-27  1.6400e-22  1.8280e-27  1.6550e-22  2.0041e-27  1.6817e-22  2.3265e-27  1.7292e-22  2.9123e-27  1.8138e-22  3.9641e-27  1.9651e-22  5.8472e-27  2.2362e-22  9.2215e-27  2.7254e-22  1.5290e-26  3.6172e-22  2.6281e-26  5.2729e-22  4.6459e-26  8.4569e-22  8.4308e-26  1.4797e-21
      6.55  1.5424e-27  1.8135e-22  1.5440e-27  1.8138e-22  1.5465e-27  1.8142e-22  1.5509e-27  1.8149e-22  1.5589e-27  1.8161e-22  1.5730e-27  1.8184e-22  1.5961e-27  1.8224e-22  1.6362e-27  1.8295e-22  1.7110e-27  1.8421e-22  1.8498e-27  1.8645e-22  2.1071e-27  1.9044e-22  2.5793e-27  1.9756e-22  3.4363e-27  2.1027e-22  4.9792e-27  2.3307e-22  7.7504e-27  2.7419e-22  1.2746e-26  3.4917e-22  2.1824e-26  4.8835e-22  3.8572e-26  7.5566e-22  7.0224e-26  1.2889e-21
      6.60  1.4833e-27  2.0294e-22  1.4846e-27  2.0296e-22  1.4865e-27  2.0300e-22  1.4899e-27  2.0306e-22  1.4961e-27  2.0317e-22  1.5073e-27  2.0336e-22  1.5255e-27  2.0370e-22  1.5571e-27  2.0431e-22  1.6171e-27  2.0540e-22  1.7305e-27  2.0734e-22  1.9433e-27  2.1078e-22  2.3383e-27  2.1692e-22  3.0619e-27  2.2788e-22  4.3742e-27  2.4754e-22  6.7438e-27  2.8300e-22  1.1028e-26  3.4765e-22  1.8841e-26  4.6768e-22  3.3327e-26  6.9707e-22  6.0931e-26  1.1574e-21
      6.65  1.4314e-27  2.2715e-22  1.4323e-27  2.2717e-22  1.4339e-27  2.2720e-22  1.4365e-27  2.2725e-22  1.4413e-27  2.2735e-22  1.4505e-27  2.2752e-22  1.4652e-27  2.2783e-22  1.4909e-27  2.2837e-22  1.5410e-27  2.2933e-22  1.6375e-27  2.3105e-22  1.8209e-27  2.3410e-22  2.1647e-27  2.3954e-22  2.8009e-27  2.4926e-22  3.9647e-27  2.6667e-22  6.0784e-27  2.9809e-22  9.9160e-27  3.5540e-22  1.6945e-26  4.6190e-22  3.0055e-26  6.6601e-22  5.5260e-26  1.0738e-21
      6.70  1.3857e-27  2.5430e-22  1.3864e-27  2.5432e-22  1.3876e-27  2.5435e-22  1.3897e-27  2.5439e-22  1.3936e-27  2.5448e-22  1.4013e-27  2.5464e-22  1.4147e-27  2.5492e-22  1.4385e-27  2.5541e-22  1.4859e-27  2.5629e-22  1.5787e-27  2.5785e-22  1.7564e-27  2.6063e-22  2.0922e-27  2.6558e-22  2.7250e-27  2.7443e-22  3.8693e-27  2.9029e-22  5.9720e-27  3.1889e-22  9.8095e-27  3.7102e-22  1.6878e-26  4.6796e-22  3.0172e-26  6.5380e-22  5.6042e-26  1.0232e-21
      6.75  1.3454e-27  2.8475e-22  1.3459e-27  2.8476e-22  1.3468e-27  2.8479e-22  1.3485e-27  2.8483e-22  1.3518e-27  2.8491e-22  1.3588e-27  2.8506e-22  1.3712e-27  2.8532e-22  1.3942e-27  2.8578e-22  1.4411e-27  2.8660e-22  1.5337e-27  2.8805e-22  1.7112e-27  2.9064e-22  2.0488e-27  2.9525e-22  2.6802e-27  3.0348e-22  3.8477e-27  3.1827e-22  5.9895e-27  3.4500e-22  9.9166e-27  3.9359e-22  1.7190e-26  4.8366e-22  3.0964e-26  6.5556e-22  5.8063e-26  9.9913e-22
      6.80  1.3098e-27  3.1893e-22  1.3102e-27  3.1894e-22  1.3109e-27  3.1896e-22  1.3122e-27  3.1901e-22  1.3149e-27  3.1909e-22  1.3209e-27  3.1922e-22  1.3325e-27  3.1947e-22  1.3541e-27  3.1991e-22  1.3989e-27  3.2069e-22  1.4872e-27  3.2207e-22  1.6572e-27  3.2453e-22  1.9822e-27  3.2891e-22  2.5936e-27  3.3675e-22  3.7293e-27  3.5080e-22  5.8238e-27  3.7625e-22  9.6818e-27  4.2252e-22  1.6860e-26  5.0822e-22  3.0532e-26  6.7139e-22  5.7634e-26  9.9706e-22
      6.85  1.2784e-27  3.5725e-22  1.2786e-27  3.5727e-22  1.2791e-27  3.5729e-22  1.2801e-27  3.5733e-22  1.2823e-27  3.5741e-22  1.2878e-27  3.5754e-22  1.2998e-27  3.5778e-22  1.3217e-27  3.5821e-22  1.3686e-27  3.5896e-22  1.4599e-27  3.6031e-22  1.6375e-27  3.6269e-22  1.9771e-27  3.6695e-22  2.6179e-27  3.7456e-22  3.8104e-27  3.8819e-22  6.0134e-27  4.1274e-22  1.0085e-26  4.5744e-22  1.7692e-26  5.4049e-22  3.2266e-26  6.9927e-22  6.1375e-26  1.0154e-21
      6.90  1.2505e-27  4.0023e-22  1.2507e-27  4.0025e-22  1.2510e-27  4.0027e-22  1.2518e-27  4.0031e-22  1.2538e-27  4.0039e-22  1.2591e-27  4.0052e-22  1.2720e-27  4.0076e-22  1.2961e-27  4.0118e-22  1.3482e-27  4.0193e-22  1.4491e-27  4.0326e-22  1.6482e-27  4.0563e-22  2.0326e-27  4.0985e-22  2.7568e-27  4.1739e-22  4.1020e-27  4.3092e-22  6.5845e-27  4.5526e-22  1.1180e-26  4.9972e-22  1.9785e-26  5.8180e-22  3.6328e-26  7.3794e-22  6.9571e-26  1.0532e-21
      6.95  1.2258e-27  4.4843e-22  1.2259e-27  4.4844e-22  1.2262e-27  4.4846e-22  1.2269e-27  4.4851e-22  1.2287e-27  4.4858e-22  1.2337e-27  4.4872e-22  1.2465e-27  4.4895e-22  1.2704e-27  4.4938e-22  1.3203e-27  4.5013e-22  1.4182e-27  4.5147e-22  1.6172e-27  4.5385e-22  2.0043e-27  4.5808e-22  2.7349e-27  4.6566e-22  4.0936e-27  4.7923e-22  6.6050e-27  5.0365e-22  1.1257e-26  5.4807e-22  1.9990e-26  6.3064e-22  3.6828e-26  7.8882e-22  7.0745e-26  1.1023e-21
      7.00  1.2039e-27  5.0247e-22  1.2040e-27  5.0249e-22  1.2042e-27  5.0251e-22  1.2048e-27  5.0255e-22  1.2064e-27  5.0263e-22  1.2111e-27  5.0276e-22  1.2243e-27  5.0300e-22  1.2478e-27  5.0344e-22  1.2943e-27  5.0420e-22  1.3912e-27  5.0555e-22  1.5904e-27  5.0795e-22  1.9799e-27  5.1224e-22  2.7198e-27  5.1988e-22  4.1022e-27  5.3357e-22  6.6634e-27  5.5829e-22  1.1415e-26  6.0326e-22  2.0344e-26  6.8643e-22  3.7593e-26  8.4573e-22  7.2511e-26  1.1688e-21
      7.05  1.1845e-27  5.6313e-22  1.1846e-27  5.6314e-22  1.1847e-27  5.6317e-22  1.1853e-27  5.6321e-22  1.1867e-27  5.6329e-22  1.1910e-27  5.6342e-22  1.2037e-27  5.6367e-22  1.2275e-27  5.6410e-22  1.2740e-27  5.6487e-22  1.3714e-27  5.6624e-22  1.5738e-27  5.6866e-22  1.9758e-27  5.7298e-22  2.7530e-27  5.8073e-22  4.2143e-27  5.9457e-22  6.9297e-27  6.1947e-22  1.1975e-26  6.6481e-22  2.1469e-26  7.4868e-22  3.9820e-26  9.0763e-22  7.7012e-26  1.2322e-21
      7.10  1.1672e-27  6.3115e-22  1.1672e-27  6.3117e-22  1.1674e-27  6.3119e-22  1.1678e-27  6.3123e-22  1.1692e-27  6.3131e-22  1.1731e-27  6.3144e-22  1.1849e-27  6.3168e-22  1.2094e-27  6.3212e-22  1.2574e-27  6.3288e-22  1.3552e-27  6.3423e-22  1.5589e-27  6.3664e-22  1.9815e-27  6.4092e-22  2.8126e-27  6.4855e-22  4.3916e-27  6.6222e-22  7.3383e-27  6.8681e-22  1.2825e-26  7.3148e-22  2.3156e-26  8.1380e-22  4.3165e-26  9.7246e-22  8.3713e-26  1.2879e-21
      7.15  1.1518e-27  7.0744e-22  1.1519e-27  7.0745e-22  1.1520e-27  7.0747e-22  1.1524e-27  7.0752e-22  1.1536e-27  7.0759e-22  1.1570e-27  7.0772e-22  1.1668e-27  7.0795e-22  1.1894e-27  7.0837e-22  1.2297e-27  7.0912e-22  1.3111e-27  7.1043e-22  1.4894e-27  7.1277e-22  1.8687e-27  7.1692e-22  2.6351e-27  7.2433e-22  4.1184e-27  7.3759e-22  6.9178e-27  7.6143e-22  1.2160e-26  8.0469e-22  2.2072e-26  8.8519e-22  4.1280e-26  1.0376e-21  8.0217e-26  1.3352e-21
      7.20  1.1381e-27  7.9299e-22  1.1382e-27  7.9300e-22  1.1383e-27  7.9302e-22  1.1386e-27  7.9306e-22  1.1396e-27  7.9314e-22  1.1425e-27  7.9326e-22  1.1502e-27  7.9349e-22  1.1689e-27  7.9389e-22  1.1987e-27  7.9461e-22  1.2653e-27  7.9588e-22  1.4133e-27  7.9813e-22  1.7365e-27  8.0213e-22  2.4128e-27  8.0927e-22  3.7578e-27  8.2208e-22  6.3407e-27  8.4508e-22  1.1228e-26  8.8670e-22  2.0511e-26  9.6358e-22  3.8555e-26  1.1075e-21  7.5250e-26  1.3920e-21
      7.25  1.1259e-27  8.8893e-22  1.1260e-27  8.8895e-22  1.1261e-27  8.8897e-22  1.1264e-27  8.8901e-22  1.1272e-27  8.8908e-22  1.1294e-27  8.8920e-22  1.1352e-27  8.8942e-22  1.1487e-27  8.8980e-22  1.1714e-27  8.9051e-22  1.2214e-27  8.9174e-22  1.3353e-27  8.9392e-22  1.5952e-27  8.9780e-22  2.1586e-27  9.0470e-22  3.3188e-27  9.1704e-22  5.6006e-27  9.3919e-22  9.9821e-27  9.7922e-22  1.8373e-26  1.0525e-21  3.4758e-26  1.1901e-21  6.8151e-26  1.4603e-21
      7.30  1.1151e-27  9.9660e-22  1.1151e-27  9.9662e-22  1.1152e-27  9.9664e-22  1.1155e-27  9.9668e-22  1.1161e-27  9.9674e-22  1.1177e-27  9.9686e-22  1.1220e-27  9.9708e-22  1.1316e-27  9.9745e-22  1.1495e-27  9.9814e-22  1.1869e-27  9.9936e-22  1.2710e-27  1.0015e-21  1.4744e-27  1.0053e-21  1.9391e-27  1.0121e-21  2.9359e-27  1.0242e-21  4.9604e-27  1.0458e-21  8.9316e-27  1.0851e-21  1.6624e-26  1.1566e-21  3.1773e-26  1.2909e-21  6.2660e-26  1.5486e-21
      7.35  1.1055e-27  1.1174e-21  1.1055e-27  1.1174e-21  1.1056e-27  1.1174e-21  1.1057e-27  1.1174e-21  1.1062e-27  1.1175e-21  1.1075e-27  1.1176e-21  1.1106e-27  1.1178e-21  1.1181e-27  1.1182e-21  1.1330e-27  1.1189e-21  1.1617e-27  1.1201e-21  1.2279e-27  1.1223e-21  1.3926e-27  1.1261e-21  1.7884e-27  1.1329e-21  2.6727e-27  1.1450e-21  4.5200e-27  1.1667e-21  8.2179e-27  1.2058e-21  1.5508e-26  1.2779e-21  2.9896e-26  1.4103e-21  5.9374e-26  1.6630e-21
      7.40  1.0969e-27  1.2528e-21  1.0969e-27  1.2528e-21  1.0970e-27  1.2528e-21  1.0971e-27  1.2529e-21  1.0975e-27  1.2529e-21  1.0984e-27  1.2531e-21  1.1008e-27  1.2533e-21  1.1070e-27  1.2537e-21  1.1205e-27  1.2544e-21  1.1442e-27  1.2556e-21  1.1992e-27  1.2578e-21  1.3395e-27  1.2618e-21  1.6845e-27  1.2687e-21  2.4816e-27  1.2811e-21  4.1982e-27  1.3033e-21  7.7056e-27  1.3432e-21  1.4714e-26  1.4164e-21  2.8640e-26  1.5505e-21  5.7278e-26  1.8038e-21
      7.45  1.0892e-27  1.4047e-21  1.0893e-27  1.4047e-21  1.0893e-27  1.4047e-21  1.0894e-27  1.4048e-21  1.0897e-27  1.4048e-21  1.0905e-27  1.4050e-21  1.0924e-27  1.4052e-21  1.0974e-27  1.4056e-21  1.1081e-27  1.4063e-21  1.1263e-27  1.4077e-21  1.1684e-27  1.4100e-21  1.2780e-27  1.4141e-21  1.5549e-27  1.4213e-21  2.2174e-27  1.4342e-21  3.6954e-27  1.4573e-21  6.8166e-27  1.4993e-21  1.3116e-26  1.5748e-21  2.5799e-26  1.7131e-21  5.2024e-26  1.9727e-21
      7.50  1.0824e-27  1.5751e-21  1.0825e-27  1.5751e-21  1.0825e-27  1.5751e-21  1.0826e-27  1.5752e-21  1.0829e-27  1.5752e-21  1.0835e-27  1.5754e-21  1.0851e-27  1.5756e-21  1.0894e-27  1.5760e-21  1.0985e-27  1.5768e-21  1.1136e-27  1.5782e-21  1.1477e-27  1.5807e-21  1.2371e-27  1.5850e-21  1.4672e-27  1.5927e-21  2.0380e-27  1.6065e-21  3.3471e-27  1.6311e-21  6.1746e-27  1.6751e-21  1.2013e-26  1.7546e-21  2.3905e-26  1.8999e-21  4.8646e-26  2.1707e-21
      7.55  1.0764e-27  1.7663e-21  1.0764e-27  1.7663e-21  1.0765e-27  1.7663e-21  1.0765e-27  1.7663e-21  1.0768e-27  1.7664e-21  1.0774e-27  1.7666e-21  1.0788e-27  1.7668e-21  1.0827e-27  1.7673e-21  1.0904e-27  1.7682e-21  1.1040e-27  1.7697e-21  1.1331e-27  1.7723e-21  1.2085e-27  1.7769e-21  1.4041e-27  1.7852e-21  1.8997e-27  1.8000e-21  3.0713e-27  1.8263e-21  5.6799e-27  1.8734e-21  1.1196e-26  1.9583e-21  2.2604e-26  2.1130e-21  4.6537e-26  2.3998e-21
      7.60  1.0710e-27  1.9807e-21  1.0710e-27  1.9807e-21  1.0711e-27  1.9807e-21  1.0712e-27  1.9808e-21  1.0714e-27  1.9809e-21  1.0719e-27  1.9810e-21  1.0734e-27  1.9813e-21  1.0770e-27  1.9818e-21  1.0835e-27  1.9828e-21  1.0958e-27  1.9844e-21  1.1205e-27  1.9873e-21  1.1825e-27  1.9923e-21  1.3418e-27  2.0012e-21  1.7486e-27  2.0172e-21  2.7314e-27  2.0456e-21  4.9782e-27  2.0965e-21  9.8419e-27  2.1881e-21  2.0068e-26  2.3546e-21  4.1728e-26  2.6620e-21
      7.65  1.0662e-27  2.2212e-21  1.0663e-27  2.2212e-21  1.0663e-27  2.2213e-21  1.0664e-27  2.2213e-21  1.0666e-27  2.2214e-21  1.0671e-27  2.2216e-21  1.0685e-27  2.2219e-21  1.0720e-27  2.2224e-21  1.0777e-27  2.2235e-21  1.0888e-27  2.2253e-21  1.1106e-27  2.2284e-21  1.1622e-27  2.2339e-21  1.2931e-27  2.2436e-21  1.6246e-27  2.2609e-21  2.4450e-27  2.2920e-21  4.3602e-27  2.3473e-21  8.6061e-27  2.4469e-21  1.7699e-26  2.6275e-21  3.7181e-26  2.9599e-21
      7.70  1.0620e-27  2.4910e-21  1.0620e-27  2.4910e-21  1.0620e-27  2.4910e-21  1.0621e-27  2.4911e-21  1.0623e-27  2.4912e-21  1.0629e-27  2.4914e-21  1.0642e-27  2.4917e-21  1.0676e-27  2.4923e-21  1.0726e-27  2.4936e-21  1.0824e-27  2.4955e-21  1.1017e-27  2.4990e-21  1.1461e-27  2.5050e-21  1.2538e-27  2.5156e-21  1.5257e-27  2.5346e-21  2.2010e-27  2.5684e-21  3.8191e-27  2.6291e-21  7.4852e-27  2.7380e-21  1.5496e-26  2.9351e-21  3.2891e-26  3.2967e-21
      7.75  1.0582e-27  2.7936e-21  1.0582e-27  2.7936e-21  1.0583e-27  2.7937e-21  1.0583e-27  2.7937e-21  1.0585e-27  2.7938e-21  1.0591e-27  2.7940e-21  1.0604e-27  2.7944e-21  1.0635e-27  2.7951e-21  1.0681e-27  2.7965e-21  1.0770e-27  2.7987e-21  1.0944e-27  2.8024e-21  1.1326e-27  2.8090e-21  1.2224e-27  2.8207e-21  1.4457e-27  2.8416e-21  2.0014e-27  2.8788e-21  3.3490e-27  2.9452e-21  6.4833e-27  3.0649e-21  1.3471e-26  3.2809e-21  2.8882e-26  3.6762e-21
      7.80  1.0548e-27  3.1331e-21  1.0549e-27  3.1332e-21  1.0549e-27  3.1332e-21  1.0550e-27  3.1333e-21  1.0552e-27  3.1334e-21  1.0557e-27  3.1336e-21  1.0570e-27  3.1340e-21  1.0599e-27  3.1348e-21  1.0641e-27  3.1364e-21  1.0722e-27  3.1388e-21  1.0881e-27  3.1429e-21  1.1208e-27  3.1502e-21  1.1968e-27  3.1632e-21  1.3810e-27  3.1862e-21  1.8372e-27  3.2271e-21  2.9554e-27  3.3004e-21  5.6035e-27  3.4317e-21  1.1654e-26  3.6696e-21  2.5228e-26  4.1033e-21
      7.85  1.0519e-27  3.5140e-21  1.0519e-27  3.5140e-21  1.0519e-27  3.5141e-21  1.0520e-27  3.5141e-21  1.0522e-27  3.5143e-21  1.0526e-27  3.5145e-21  1.0539e-27  3.5150e-21  1.0566e-27  3.5159e-21  1.0606e-27  3.5176e-21  1.0678e-27  3.5203e-21  1.0821e-27  3.5249e-21  1.1109e-27  3.5330e-21  1.1753e-27  3.5473e-21  1.3278e-27  3.5727e-21  1.7024e-27  3.6179e-21  2.6258e-27  3.6988e-21  4.8514e-27  3.8437e-21  1.0050e-26  4.1056e-21  2.1945e-26  4.5824e-21
      7.90  1.0492e-27  3.9412e-21  1.0492e-27  3.9412e-21  1.0492e-27  3.9413e-21  1.0493e-27  3.9414e-21  1.0495e-27  3.9415e-21  1.0499e-27  3.9418e-21  1.0511e-27  3.9423e-21  1.0534e-27  3.9434e-21  1.0569e-27  3.9453e-21  1.0634e-27  3.9483e-21  1.0758e-27  3.9534e-21  1.1004e-27  3.9623e-21  1.1536e-27  3.9781e-21  1.2759e-27  4.0062e-21  1.5755e-27  4.0563e-21  2.3137e-27  4.1456e-21  4.1216e-27  4.3057e-21  8.4364e-27  4.5941e-21  1.8546e-26  5.1194e-21
      7.95  1.0468e-27  4.4204e-21  1.0468e-27  4.4204e-21  1.0469e-27  4.4205e-21  1.0469e-27  4.4206e-21  1.0471e-27  4.4207e-21  1.0475e-27  4.4211e-21  1.0486e-27  4.4216e-21  1.0506e-27  4.4229e-21  1.0536e-27  4.4251e-21  1.0592e-27  4.4284e-21  1.0698e-27  4.4341e-21  1.0905e-27  4.4439e-21  1.1341e-27  4.4614e-21  1.2323e-27  4.4925e-21  1.4668e-27  4.5479e-21  2.0445e-27  4.6467e-21  3.4742e-27  4.8237e-21  6.9531e-27  5.1420e-21  1.5277e-26  5.7206e-21
      8.00  1.0447e-27  4.9579e-21  1.0447e-27  4.9579e-21  1.0448e-27  4.9580e-21  1.0448e-27  4.9581e-21  1.0450e-27  4.9583e-21  1.0453e-27  4.9586e-21  1.0463e-27  4.9593e-21  1.0480e-27  4.9608e-21  1.0506e-27  4.9633e-21  1.0553e-27  4.9670e-21  1.0643e-27  4.9733e-21  1.0816e-27  4.9842e-21  1.1174e-27  5.0036e-21  1.1949e-27  5.0380e-21  1.3762e-27  5.0993e-21  1.8243e-27  5.2087e-21  2.9355e-27  5.4043e-21  5.6814e-27  5.7561e-21  1.2378e-26  6.3939e-21
      8.05  1.0428e-27  5.5610e-21  1.0429e-27  5.5610e-21  1.0429e-27  5.5611e-21  1.0429e-27  5.5612e-21  1.0431e-27  5.5614e-21  1.0434e-27  5.5618e-21  1.0442e-27  5.5625e-21  1.0456e-27  5.5643e-21  1.0479e-27  5.5671e-21  1.0519e-27  5.5713e-21  1.0593e-27  5.5782e-21  1.0736e-27  5.5904e-21  1.1022e-27  5.6119e-21  1.1637e-27  5.6500e-21  1.3061e-27  5.7179e-21  1.6505e-27  5.8391e-21  2.5087e-27  6.0557e-21  4.6553e-27  6.4447e-21  9.9810e-27  7.1484e-21
      8.10  1.0412e-27  6.2374e-21  1.0412e-27  6.2375e-21  1.0412e-27  6.2376e-21  1.0412e-27  6.2377e-21  1.0414e-27  6.2379e-21  1.0416e-27  6.2383e-21  1.0423e-27  6.2391e-21  1.0436e-27  6.2413e-21  1.0455e-27  6.2445e-21  1.0488e-27  6.2492e-21  1.0548e-27  6.2569e-21  1.0665e-27  6.2704e-21  1.0897e-27  6.2942e-21  1.1390e-27  6.3365e-21  1.2488e-27  6.4119e-21  1.5108e-27  6.5462e-21  2.1705e-27  6.7862e-21  3.8292e-27  7.2167e-21  8.0062e-27  7.9943e-21
      8.15  1.0397e-27  6.9962e-21  1.0397e-27  6.9963e-21  1.0397e-27  6.9964e-21  1.0397e-27  6.9965e-21  1.0398e-27  6.9968e-21  1.0401e-27  6.9972e-21  1.0406e-27  6.9981e-21  1.0417e-27  7.0007e-21  1.0433e-27  7.0044e-21  1.0461e-27  7.0096e-21  1.0511e-27  7.0182e-21  1.0606e-27  7.0332e-21  1.0791e-27  7.0597e-21  1.1175e-27  7.1067e-21  1.2026e-27  7.1903e-21  1.4034e-27  7.3393e-21  1.9002e-27  7.6055e-21  3.1475e-27  8.0825e-21  6.3666e-27  8.9427e-21
      8.20  1.0383e-27  7.8474e-21  1.0383e-27  7.8474e-21  1.0384e-27  7.8475e-21  1.0384e-27  7.8477e-21  1.0385e-27  7.8480e-21  1.0387e-27  7.8485e-21  1.0391e-27  7.8494e-21  1.0401e-27  7.8526e-21  1.0415e-27  7.8568e-21  1.0438e-27  7.8627e-21  1.0479e-27  7.8723e-21  1.0556e-27  7.8890e-21  1.0706e-27  7.9185e-21  1.1011e-27  7.9707e-21  1.1674e-27  8.0636e-21  1.3215e-27  8.2291e-21  1.6998e-27  8.5245e-21  2.6592e-27  9.0537e-21  5.1258e-27  1.0006e-20
      8.25  1.0371e-27  8.8020e-21  1.0371e-27  8.8021e-21  1.0372e-27  8.8022e-21  1.0372e-27  8.8024e-21  1.0373e-27  8.8027e-21  1.0374e-27  8.8033e-21  1.0378e-27  8.8043e-21  1.0387e-27  8.8081e-21  1.0399e-27  8.8130e-21  1.0418e-27  8.8197e-21  1.0452e-27  8.8305e-21  1.0516e-27  8.8491e-21  1.0638e-27  8.8818e-21  1.0883e-27  8.9399e-21  1.1407e-27  9.0432e-21  1.2605e-27  9.2272e-21  1.5516e-27  9.5556e-21  2.2817e-27  1.0143e-20  4.1929e-27  1.1200e-20
      8.30  1.0361e-27  9.8730e-21  1.0361e-27  9.8731e-21  1.0361e-27  9.8732e-21  1.0361e-27  9.8734e-21  1.0362e-27  9.8738e-21  1.0363e-27  9.8744e-21  1.0366e-27  9.8756e-21  1.0374e-27  9.8801e-21  1.0385e-27  9.8858e-21  1.0402e-27  9.8934e-21  1.0431e-27  9.9055e-21  1.0484e-27  9.9263e-21  1.0584e-27  9.9628e-21  1.0784e-27  1.0027e-20  1.1205e-27  1.0143e-20  1.2152e-27  1.0347e-20  1.4422e-27  1.0713e-20  2.0136e-27  1.1366e-20  3.4936e-27  1.2540e-20
      8.35  1.0351e-27  1.1074e-20  1.0351e-27  1.1074e-20  1.0351e-27  1.1074e-20  1.0351e-27  1.1075e-20  1.0352e-27  1.1075e-20  1.0353e-27  1.1076e-20  1.0356e-27  1.1077e-20  1.0363e-27  1.1083e-20  1.0373e-27  1.1089e-20  1.0387e-27  1.1098e-20  1.0412e-27  1.1112e-20  1.0457e-27  1.1135e-20  1.0541e-27  1.1175e-20  1.0705e-27  1.1248e-20  1.1047e-27  1.1376e-20  1.1803e-27  1.1604e-20  1.3591e-27  1.2011e-20  1.8056e-27  1.2739e-20  2.9615e-27  1.4044e-20
      8.40  1.0342e-27  1.2422e-20  1.0342e-27  1.2422e-20  1.0342e-27  1.2422e-20  1.0342e-27  1.2422e-20  1.0343e-27  1.2423e-20  1.0344e-27  1.2423e-20  1.0346e-27  1.2425e-20  1.0353e-27  1.2431e-20  1.0362e-27  1.2439e-20  1.0375e-27  1.2449e-20  1.0397e-27  1.2465e-20  1.0435e-27  1.2490e-20  1.0506e-27  1.2536e-20  1.0643e-27  1.2616e-20  1.0925e-27  1.2759e-20  1.1537e-27  1.3014e-20  1.2963e-27  1.3468e-20  1.6488e-27  1.4278e-20  2.5574e-27  1.5732e-20
      8.45  1.0334e-27  1.3933e-20  1.0334e-27  1.3933e-20  1.0334e-27  1.3933e-20  1.0334e-27  1.3933e-20  1.0335e-27  1.3934e-20  1.0335e-27  1.3935e-20  1.0337e-27  1.3936e-20  1.0345e-27  1.3944e-20  1.0353e-27  1.3954e-20  1.0365e-27  1.3965e-20  1.0384e-27  1.3982e-20  1.0418e-27  1.4011e-20  1.0480e-27  1.4062e-20  1.0598e-27  1.4152e-20  1.0836e-27  1.4312e-20  1.1344e-27  1.4596e-20  1.2506e-27  1.5102e-20  1.5332e-27  1.6006e-20  2.2559e-27  1.7625e-20
      8.50  1.0326e-27  1.5627e-20  1.0326e-27  1.5628e-20  1.0326e-27  1.5628e-20  1.0326e-27  1.5628e-20  1.0327e-27  1.5629e-20  1.0328e-27  1.5630e-20  1.0329e-27  1.5631e-20  1.0337e-27  1.5641e-20  1.0346e-27  1.5652e-20  1.0357e-27  1.5665e-20  1.0374e-27  1.5685e-20  1.0404e-27  1.5718e-20  1.0460e-27  1.5774e-20  1.0564e-27  1.5875e-20  1.0771e-27  1.6053e-20  1.1203e-27  1.6371e-20  1.2168e-27  1.6936e-20  1.4474e-27  1.7945e-20  2.0293e-27  1.9750e-20
