# This was generated using Cloudy10 and the columns are ordered 
# as log10 of the fraction of the metallicity to the solar metallicity
# 'h_*_Z' and 'c_*_Z' stands for cooling and heating respectively 
# at * metalicity
#
# NOTE: This was generated separately from loop_coolingcurve_w_UV.py
#       using Output_metals_w_redshift.py.
#
# Redshift = 4.0
# hden = -7.5
#
#     temp   h_-3.00_Z   c_-3.00_Z   h_-2.75_Z   c_-2.75_Z   h_-2.50_Z   c_-2.50_Z   h_-2.25_Z   c_-2.25_Z   h_-2.00_Z   c_-2.00_Z   h_-1.75_Z   c_-1.75_Z   h_-1.50_Z   c_-1.50_Z   h_-1.25_Z   c_-1.25_Z   h_-1.00_Z   c_-1.00_Z   h_-0.75_Z   c_-0.75_Z   h_-0.50_Z   c_-0.50_Z   h_-0.25_Z   c_-0.25_Z    h_0.00_Z    c_0.00_Z    h_0.25_Z    c_0.25_Z    h_0.50_Z    c_0.50_Z    h_0.75_Z    c_0.75_Z    h_1.00_Z    c_1.00_Z    h_1.25_Z    c_1.25_Z    h_1.50_Z    c_1.50_Z 
      4.00  4.2197e-23  1.2776e-21  4.2285e-23  1.2776e-21  4.2441e-23  1.2776e-21  4.2718e-23  1.2776e-21  4.3211e-23  1.2777e-21  4.4088e-23  1.2778e-21  4.5647e-23  1.2779e-21  4.8419e-23  1.2781e-21  5.3348e-23  1.2786e-21  6.2108e-23  1.2793e-21  7.7678e-23  1.2807e-21  1.0535e-22  1.2831e-21  1.5461e-22  1.2881e-21  2.4307e-22  1.2988e-21  4.0158e-22  1.3142e-21  6.8748e-22  1.3393e-21  1.2086e-21  1.3826e-21  2.1746e-21  1.4589e-21  4.0127e-21  1.5941e-21
      4.05  4.1472e-23  1.4327e-21  4.1557e-23  1.4327e-21  4.1708e-23  1.4327e-21  4.1976e-23  1.4327e-21  4.2452e-23  1.4328e-21  4.3300e-23  1.4329e-21  4.4806e-23  1.4330e-21  4.7485e-23  1.4333e-21  5.2248e-23  1.4338e-21  6.0713e-23  1.4346e-21  7.5757e-23  1.4361e-21  1.0249e-22  1.4388e-21  1.5011e-22  1.4448e-21  2.3562e-22  1.4571e-21  3.8881e-22  1.4744e-21  6.6510e-22  1.5026e-21  1.1686e-21  1.5513e-21  2.1019e-21  1.6370e-21  3.8769e-21  1.7887e-21
      4.10  4.0797e-23  1.6065e-21  4.0879e-23  1.6065e-21  4.1024e-23  1.6066e-21  4.1283e-23  1.6066e-21  4.1744e-23  1.6066e-21  4.2563e-23  1.6067e-21  4.4019e-23  1.6069e-21  4.6608e-23  1.6072e-21  5.1211e-23  1.6078e-21  5.9392e-23  1.6087e-21  7.3929e-23  1.6104e-21  9.9753e-23  1.6135e-21  1.4581e-22  1.6207e-21  2.2846e-22  1.6346e-21  3.7654e-22  1.6541e-21  6.4358e-22  1.6858e-21  1.1302e-21  1.7405e-21  2.0319e-21  1.8367e-21  3.7461e-21  2.0071e-21
      4.15  4.0167e-23  1.8014e-21  4.0246e-23  1.8014e-21  4.0387e-23  1.8014e-21  4.0637e-23  1.8015e-21  4.1082e-23  1.8015e-21  4.1874e-23  1.8016e-21  4.3282e-23  1.8018e-21  4.5784e-23  1.8022e-21  5.0233e-23  1.8028e-21  5.8140e-23  1.8038e-21  7.2188e-23  1.8058e-21  9.7140e-23  1.8092e-21  1.4168e-22  1.8179e-21  2.2159e-22  1.8337e-21  3.6474e-22  1.8557e-21  6.2287e-22  1.8914e-21  1.0932e-21  1.9528e-21  1.9646e-21  2.0609e-21  3.6204e-21  2.2522e-21
      4.20  3.9579e-23  2.0198e-21  3.9656e-23  2.0198e-21  3.9792e-23  2.0198e-21  4.0034e-23  2.0199e-21  4.0464e-23  2.0199e-21  4.1230e-23  2.0201e-21  4.2590e-23  2.0203e-21  4.5009e-23  2.0207e-21  4.9309e-23  2.0213e-21  5.6951e-23  2.0226e-21  7.0528e-23  2.0247e-21  9.4638e-23  2.0285e-21  1.3772e-22  2.0391e-21  2.1498e-22  2.0571e-21  3.5337e-22  2.0819e-21  6.0292e-22  2.1220e-21  1.0576e-21  2.1911e-21  1.8998e-21  2.3124e-21  3.4995e-21  2.5272e-21
      4.25  3.9031e-23  2.2646e-21  3.9105e-23  2.2646e-21  3.9237e-23  2.2646e-21  3.9470e-23  2.2646e-21  3.9886e-23  2.2647e-21  4.0626e-23  2.2649e-21  4.1941e-23  2.2651e-21  4.4279e-23  2.2655e-21  4.8435e-23  2.2663e-21  5.5821e-23  2.2677e-21  6.8939e-23  2.2701e-21  9.2233e-23  2.2744e-21  1.3391e-22  2.2871e-21  2.0860e-22  2.3076e-21  3.4239e-22  2.3357e-21  5.8363e-22  2.3808e-21  1.0232e-21  2.4584e-21  1.8372e-21  2.5947e-21  3.3829e-21  2.8358e-21
      4.30  3.8519e-23  2.5389e-21  3.8591e-23  2.5389e-21  3.8718e-23  2.5389e-21  3.8944e-23  2.5389e-21  3.9346e-23  2.5390e-21  4.0060e-23  2.5392e-21  4.1331e-23  2.5395e-21  4.3590e-23  2.5399e-21  4.7606e-23  2.5408e-21  5.4741e-23  2.5423e-21  6.7414e-23  2.5450e-21  8.9912e-23  2.5499e-21  1.3022e-22  2.5653e-21  2.0241e-22  2.5886e-21  3.3171e-22  2.6203e-21  5.6489e-22  2.6711e-21  9.8975e-22  2.7583e-21  1.7766e-21  2.9114e-21  3.2701e-21  3.1822e-21
      4.35  3.8040e-23  2.8462e-21  3.8109e-23  2.8462e-21  3.8232e-23  2.8462e-21  3.8450e-23  2.8463e-21  3.8839e-23  2.8464e-21  3.9529e-23  2.8465e-21  4.0756e-23  2.8468e-21  4.2938e-23  2.8474e-21  4.6816e-23  2.8483e-21  5.3705e-23  2.8501e-21  6.5941e-23  2.8531e-21  8.7660e-23  2.8585e-21  1.2662e-22  2.8771e-21  1.9636e-22  2.9038e-21  3.2128e-22  2.9397e-21  5.4657e-22  2.9969e-21  9.5711e-22  3.0948e-21  1.7175e-21  3.2667e-21  3.1606e-21  3.5709e-21
      4.40  3.7592e-23  3.1905e-21  3.7659e-23  3.1905e-21  3.7777e-23  3.1905e-21  3.7988e-23  3.1906e-21  3.8363e-23  3.1907e-21  3.9029e-23  3.1909e-21  4.0213e-23  3.1912e-21  4.2318e-23  3.1918e-21  4.6060e-23  3.1929e-21  5.2707e-23  3.1948e-21  6.4512e-23  3.1982e-21  8.5462e-23  3.2043e-21  1.2309e-22  3.2267e-21  1.9041e-22  3.2573e-21  3.1101e-22  3.2979e-21  5.2854e-22  3.3623e-21  9.2502e-22  3.4724e-21  1.6596e-21  3.6655e-21  3.0538e-21  4.0071e-21
      4.45  3.7172e-23  3.5761e-21  3.7236e-23  3.5761e-21  3.7350e-23  3.5762e-21  3.7553e-23  3.5762e-21  3.7915e-23  3.5764e-21  3.8557e-23  3.5766e-21  3.9698e-23  3.5770e-21  4.1727e-23  3.5776e-21  4.5334e-23  3.5789e-21  5.1740e-23  3.5810e-21  6.3116e-23  3.5849e-21  8.3301e-23  3.5917e-21  1.1961e-22  3.6187e-21  1.8453e-22  3.6537e-21  3.0084e-22  3.6997e-21  5.1066e-22  3.7723e-21  8.9326e-22  3.8961e-21  1.6025e-21  4.1131e-21  2.9491e-21  4.4967e-21
      4.50  3.6777e-23  4.0080e-21  3.6839e-23  4.0081e-21  3.6949e-23  4.0081e-21  3.7145e-23  4.0082e-21  3.7492e-23  4.0083e-21  3.8110e-23  4.0086e-21  3.9209e-23  4.0090e-21  4.1162e-23  4.0098e-21  4.4633e-23  4.0111e-21  5.0798e-23  4.0136e-21  6.1744e-23  4.0179e-21  8.1165e-23  4.0255e-21  1.1615e-22  4.0583e-21  1.7868e-22  4.0984e-21  2.9069e-22  4.1505e-21  4.9285e-22  4.2323e-21  8.6167e-22  4.3715e-21  1.5458e-21  4.6152e-21  2.8459e-21  5.0462e-21
      4.55  3.6406e-23  4.4917e-21  3.6466e-23  4.4917e-21  3.6571e-23  4.4918e-21  3.6759e-23  4.4919e-21  3.7093e-23  4.4920e-21  3.7687e-23  4.4923e-21  3.8742e-23  4.4928e-21  4.0619e-23  4.4937e-21  4.3953e-23  4.4952e-21  4.9875e-23  4.4979e-21  6.0388e-23  4.5028e-21  7.9041e-23  4.5114e-21  1.1270e-22  4.5509e-21  1.7280e-22  4.5971e-21  2.8050e-22  4.6562e-21  4.7496e-22  4.7484e-21  8.3003e-22  4.9049e-21  1.4894e-21  5.1788e-21  2.7436e-21  5.6629e-21
      4.60  3.6057e-23  5.0332e-21  3.6113e-23  5.0333e-21  3.6215e-23  5.0333e-21  3.6395e-23  5.0334e-21  3.6715e-23  5.0336e-21  3.7284e-23  5.0339e-21  3.8296e-23  5.0344e-21  4.0094e-23  5.0354e-21  4.3290e-23  5.0371e-21  4.8966e-23  5.0402e-21  5.9043e-23  5.0456e-21  7.6919e-23  5.0553e-21  1.0922e-22  5.1027e-21  1.6687e-22  5.1560e-21  2.7020e-22  5.2233e-21  4.5690e-22  5.3273e-21  7.9815e-22  5.5034e-21  1.4328e-21  5.8112e-21  2.6419e-21  6.3551e-21
      4.65  3.5726e-23  5.6394e-21  3.5780e-23  5.6394e-21  3.5877e-23  5.6395e-21  3.6049e-23  5.6396e-21  3.6355e-23  5.6398e-21  3.6899e-23  5.6401e-21  3.7867e-23  5.6407e-21  3.9586e-23  5.6418e-21  4.2642e-23  5.6437e-21  4.8069e-23  5.6472e-21  5.7703e-23  5.6533e-21  7.4794e-23  5.6642e-21  1.0571e-22  5.7206e-21  1.6088e-22  5.7824e-21  2.5978e-22  5.8592e-21  4.3862e-22  5.9767e-21  7.6593e-22  6.1748e-21  1.3758e-21  6.5209e-21  2.5404e-21  7.1319e-21
      4.70  3.5412e-23  6.3177e-21  3.5464e-23  6.3177e-21  3.5556e-23  6.3178e-21  3.5720e-23  6.3179e-21  3.6012e-23  6.3181e-21  3.6531e-23  6.3185e-21  3.7453e-23  6.3192e-21  3.9093e-23  6.3204e-21  4.2007e-23  6.3226e-21  4.7182e-23  6.3265e-21  5.6367e-23  6.3333e-21  7.2665e-23  6.3455e-21  1.0217e-22  6.4121e-21  1.5482e-22  6.4843e-21  2.4923e-22  6.5721e-21  4.2009e-22  6.7050e-21  7.3331e-22  6.9281e-21  1.3183e-21  7.3172e-21  2.4386e-21  8.0038e-21
      4.75  3.5113e-23  7.0766e-21  3.5163e-23  7.0766e-21  3.5250e-23  7.0767e-21  3.5407e-23  7.0769e-21  3.5684e-23  7.0771e-21  3.6177e-23  7.0775e-21  3.7054e-23  7.0783e-21  3.8613e-23  7.0797e-21  4.1383e-23  7.0821e-21  4.6303e-23  7.0865e-21  5.5037e-23  7.0942e-21  7.0535e-23  7.1079e-21  9.8607e-23  7.1855e-21  1.4870e-22  7.2705e-21  2.3856e-22  7.3713e-21  4.0136e-22  7.5219e-21  7.0033e-22  7.7732e-21  1.2602e-21  8.2106e-21  2.3364e-21  8.9822e-21
      4.80  3.4828e-23  7.9254e-21  3.4875e-23  7.9255e-21  3.4958e-23  7.9256e-21  3.5106e-23  7.9257e-21  3.5369e-23  7.9260e-21  3.5837e-23  7.9265e-21  3.6668e-23  7.9274e-21  3.8146e-23  7.9289e-21  4.0772e-23  7.9316e-21  4.5436e-23  7.9365e-21  5.3716e-23  7.9452e-21  6.8411e-23  7.9606e-21  9.5032e-23  8.0500e-21  1.4256e-22  8.1508e-21  2.2784e-22  8.2670e-21  3.8251e-22  8.4378e-21  6.6709e-22  8.7212e-21  1.2017e-21  9.2131e-21  2.2335e-21  1.0080e-20
      4.85  3.4555e-23  8.8746e-21  3.4599e-23  8.8746e-21  3.4677e-23  8.8747e-21  3.4817e-23  8.8749e-21  3.5066e-23  8.8752e-21  3.5508e-23  8.8758e-21  3.6294e-23  8.8767e-21  3.7690e-23  8.8785e-21  4.0172e-23  8.8815e-21  4.4581e-23  8.8870e-21  5.2409e-23  8.8967e-21  6.6302e-23  8.9141e-21  9.1496e-23  9.0198e-21  1.3646e-22  9.1381e-21  2.1715e-22  9.2717e-21  3.6366e-22  9.4652e-21  6.3375e-22  9.7845e-21  1.1429e-21  1.0338e-20  2.1301e-21  1.1312e-20
      4.90  3.4291e-23  9.9355e-21  3.4333e-23  9.9355e-21  3.4407e-23  9.9356e-21  3.4538e-23  9.9358e-21  3.4773e-23  9.9362e-21  3.5189e-23  9.9368e-21  3.5930e-23  9.9379e-21  3.7246e-23  9.9398e-21  3.9585e-23  9.9433e-21  4.3740e-23  9.9494e-21  5.1119e-23  9.9604e-21  6.4219e-23  9.9798e-21  8.8004e-23  1.0106e-20  1.3042e-22  1.0245e-20  2.0656e-22  1.0399e-20  3.4495e-22  1.0618e-20  6.0062e-22  1.0978e-20  1.0841e-21  1.1600e-20  2.0263e-21  1.2695e-20
      4.95  3.4035e-23  1.1121e-20  3.4074e-23  1.1121e-20  3.4144e-23  1.1121e-20  3.4268e-23  1.1121e-20  3.4488e-23  1.1122e-20  3.4879e-23  1.1122e-20  3.5575e-23  1.1124e-20  3.6812e-23  1.1126e-20  3.9010e-23  1.1130e-20  4.2916e-23  1.1136e-20  4.9852e-23  1.1149e-20  6.2168e-23  1.1171e-20  8.4561e-23  1.1321e-20  1.2446e-22  1.1485e-20  1.9610e-22  1.1662e-20  3.2643e-22  1.1911e-20  5.6772e-22  1.2316e-20  1.0256e-21  1.3016e-20  1.9225e-21  1.4246e-20
      5.00  3.3786e-23  1.2445e-20  3.3822e-23  1.2445e-20  3.3888e-23  1.2445e-20  3.4004e-23  1.2445e-20  3.4210e-23  1.2446e-20  3.4577e-23  1.2446e-20  3.5229e-23  1.2448e-20  3.6388e-23  1.2450e-20  3.8448e-23  1.2455e-20  4.2109e-23  1.2462e-20  4.8610e-23  1.2476e-20  6.0159e-23  1.2501e-20  8.1186e-23  1.2678e-20  1.1863e-22  1.2872e-20  1.8583e-22  1.3077e-20  3.0821e-22  1.3360e-20  5.3521e-22  1.3817e-20  9.6750e-22  1.4604e-20  1.8191e-21  1.5987e-20
      5.05  3.3541e-23  1.3922e-20  3.3575e-23  1.3923e-20  3.3636e-23  1.3923e-20  3.3744e-23  1.3923e-20  3.3937e-23  1.3923e-20  3.4280e-23  1.3924e-20  3.4889e-23  1.3926e-20  3.5973e-23  1.3929e-20  3.7898e-23  1.3933e-20  4.1320e-23  1.3942e-20  4.7399e-23  1.3958e-20  5.8199e-23  1.3985e-20  7.7891e-23  1.4193e-20  1.1293e-22  1.4425e-20  1.7580e-22  1.4662e-20  2.9038e-22  1.4985e-20  5.0331e-22  1.5501e-20  9.1012e-22  1.6386e-20  1.7160e-21  1.7940e-20
      5.10  3.3299e-23  1.5571e-20  3.3331e-23  1.5571e-20  3.3387e-23  1.5571e-20  3.3488e-23  1.5572e-20  3.3668e-23  1.5572e-20  3.3988e-23  1.5573e-20  3.4556e-23  1.5575e-20  3.5566e-23  1.5578e-20  3.7361e-23  1.5584e-20  4.0551e-23  1.5593e-20  4.6220e-23  1.5611e-20  5.6295e-23  1.5642e-20  7.4691e-23  1.5883e-20  1.0741e-22  1.6161e-20  1.6607e-22  1.6438e-20  2.7304e-22  1.6806e-20  4.7218e-22  1.7390e-20  8.5383e-22  1.8386e-20  1.6140e-21  2.0131e-20
      5.15  3.3118e-23  1.7443e-20  3.3148e-23  1.7443e-20  3.3201e-23  1.7443e-20  3.3295e-23  1.7443e-20  3.3462e-23  1.7444e-20  3.3759e-23  1.7445e-20  3.4287e-23  1.7447e-20  3.5226e-23  1.7450e-20  3.6895e-23  1.7456e-20  3.9862e-23  1.7467e-20  4.5134e-23  1.7486e-20  5.4509e-23  1.7519e-20  7.1604e-23  1.7768e-20  1.0209e-22  1.8102e-20  1.5669e-22  1.8427e-20  2.5631e-22  1.8848e-20  4.4203e-22  1.9507e-20  7.9900e-22  2.0628e-20  1.5135e-21  2.2590e-20
      5.20  3.2999e-23  1.9571e-20  3.3027e-23  1.9571e-20  3.3076e-23  1.9571e-20  3.3163e-23  1.9572e-20  3.3318e-23  1.9572e-20  3.3594e-23  1.9573e-20  3.4084e-23  1.9576e-20  3.4955e-23  1.9579e-20  3.6504e-23  1.9586e-20  3.9257e-23  1.9598e-20  4.4151e-23  1.9619e-20  5.2856e-23  1.9656e-20  6.8643e-23  1.9867e-20  9.7005e-23  2.0271e-20  1.4774e-22  2.0653e-20  2.4030e-22  2.1136e-20  4.1308e-22  2.1882e-20  7.4602e-22  2.3144e-20  1.4156e-21  2.5349e-20
      5.25  3.2890e-23  2.1959e-20  3.2915e-23  2.1959e-20  3.2961e-23  2.1959e-20  3.3041e-23  2.1960e-20  3.3185e-23  2.1960e-20  3.3440e-23  2.1962e-20  3.3894e-23  2.1964e-20  3.4701e-23  2.1968e-20  3.6136e-23  2.1976e-20  3.8686e-23  2.1989e-20  4.3222e-23  2.2013e-20  5.1290e-23  2.2055e-20  6.5829e-23  2.2209e-20  9.2186e-23  2.2697e-20  1.3924e-22  2.3146e-20  2.2510e-22  2.3699e-20  3.8550e-22  2.4544e-20  6.9527e-22  2.5965e-20  1.3209e-21  2.8444e-20
      5.30  3.2789e-23  2.4638e-20  3.2813e-23  2.4638e-20  3.2855e-23  2.4638e-20  3.2929e-23  2.4639e-20  3.3062e-23  2.4640e-20  3.3298e-23  2.4641e-20  3.3718e-23  2.4644e-20  3.4464e-23  2.4648e-20  3.5792e-23  2.4657e-20  3.8152e-23  2.4672e-20  4.2349e-23  2.4698e-20  4.9819e-23  2.4746e-20  6.3177e-23  2.4830e-20  8.7638e-23  2.5408e-20  1.3124e-22  2.5936e-20  2.1076e-22  2.6573e-20  3.5942e-22  2.7529e-20  6.4702e-22  2.9130e-20  1.2301e-21  3.1916e-20
      5.35  3.2696e-23  2.7644e-20  3.2718e-23  2.7644e-20  3.2757e-23  2.7644e-20  3.2826e-23  2.7645e-20  3.2949e-23  2.7646e-20  3.3167e-23  2.7648e-20  3.3554e-23  2.7651e-20  3.4244e-23  2.7656e-20  3.5470e-23  2.7665e-20  3.7652e-23  2.7682e-20  4.1532e-23  2.7712e-20  4.8440e-23  2.7765e-20  6.0783e-23  2.7860e-20  8.3360e-23  2.8433e-20  1.2372e-22  2.9059e-20  1.9728e-22  2.9791e-20  3.3485e-22  3.0876e-20  6.0139e-22  3.2679e-20  1.1435e-21  3.5811e-20
      5.40  3.2611e-23  3.1017e-20  3.2631e-23  3.1017e-20  3.2667e-23  3.1017e-20  3.2731e-23  3.1018e-20  3.2844e-23  3.1019e-20  3.3045e-23  3.1021e-20  3.3403e-23  3.1024e-20  3.4039e-23  3.1030e-20  3.5171e-23  3.1041e-20  3.7185e-23  3.1060e-20  4.0768e-23  3.1093e-20  4.7148e-23  3.1153e-20  5.8542e-23  3.1259e-20  7.9341e-23  3.1808e-20  1.1667e-22  3.2550e-20  1.8464e-22  3.3396e-20  3.1178e-22  3.4628e-20  5.5837e-22  3.6660e-20  1.0612e-21  4.0182e-20
      5.45  3.2533e-23  3.4801e-20  3.2552e-23  3.4801e-20  3.2585e-23  3.4802e-20  3.2643e-23  3.4802e-20  3.2748e-23  3.4804e-20  3.2933e-23  3.4806e-20  3.3263e-23  3.4809e-20  3.3850e-23  3.4816e-20  3.4893e-23  3.4828e-20  3.6750e-23  3.4849e-20  4.0054e-23  3.4887e-20  4.5941e-23  3.4954e-20  5.6452e-23  3.5073e-20  7.5566e-23  3.5568e-20  1.1007e-22  3.6452e-20  1.7282e-22  3.7432e-20  2.9016e-22  3.8833e-20  5.1790e-22  4.1125e-20  9.8334e-22  4.5084e-20
      5.50  3.2462e-23  3.9047e-20  3.2479e-23  3.9048e-20  3.2509e-23  3.9048e-20  3.2563e-23  3.9049e-20  3.2659e-23  3.9050e-20  3.2830e-23  3.9052e-20  3.3134e-23  3.9057e-20  3.3674e-23  3.9064e-20  3.4635e-23  3.9078e-20  3.6345e-23  3.9101e-20  3.9389e-23  3.9144e-20  4.4814e-23  3.9219e-20  5.4498e-23  3.9352e-20  7.2020e-23  3.9753e-20  1.0390e-22  4.0811e-20  1.6176e-22  4.1950e-20  2.6992e-22  4.3544e-20  4.7989e-22  4.6130e-20  9.0969e-22  5.0583e-20
      5.55  3.2396e-23  4.3812e-20  3.2412e-23  4.3812e-20  3.2440e-23  4.3812e-20  3.2489e-23  4.3813e-20  3.2578e-23  4.3815e-20  3.2735e-23  4.3817e-20  3.3014e-23  4.3822e-20  3.3511e-23  4.3830e-20  3.4396e-23  4.3845e-20  3.5969e-23  4.3872e-20  3.8771e-23  4.3920e-20  4.3764e-23  4.4004e-20  5.2681e-23  4.4154e-20  6.8698e-23  4.4421e-20  9.8132e-23  4.5676e-20  1.5144e-22  4.7004e-20  2.5100e-22  4.8822e-20  4.4426e-22  5.1742e-20  8.4021e-22  5.6751e-20
      5.60  3.2336e-23  4.9157e-20  3.2350e-23  4.9157e-20  3.2376e-23  4.9158e-20  3.2422e-23  4.9159e-20  3.2503e-23  4.9161e-20  3.2648e-23  4.9164e-20  3.2904e-23  4.9169e-20  3.3361e-23  4.9178e-20  3.4174e-23  4.9195e-20  3.5621e-23  4.9225e-20  3.8197e-23  4.9278e-20  4.2789e-23  4.9373e-20  5.0990e-23  4.9542e-20  6.5711e-23  4.9841e-20  9.2749e-23  5.1101e-20  1.4183e-22  5.2655e-20  2.3337e-22  5.4734e-20  4.1095e-22  5.8033e-20  7.7486e-22  6.3669e-20
      5.65  3.2281e-23  5.5155e-20  3.2295e-23  5.5155e-20  3.2318e-23  5.5156e-20  3.2360e-23  5.5157e-20  3.2435e-23  5.5159e-20  3.2567e-23  5.5162e-20  3.2804e-23  5.5168e-20  3.3223e-23  5.5179e-20  3.3970e-23  5.5198e-20  3.5299e-23  5.5231e-20  3.7666e-23  5.5291e-20  4.1886e-23  5.5397e-20  4.9425e-23  5.5587e-20  6.2947e-23  5.5923e-20  8.7742e-23  5.7147e-20  1.3291e-22  5.8972e-20  2.1701e-22  6.1353e-20  3.7997e-22  6.5084e-20  7.1371e-22  7.1428e-20
      5.70  3.2231e-23  6.1885e-20  3.2244e-23  6.1885e-20  3.2265e-23  6.1886e-20  3.2304e-23  6.1887e-20  3.2372e-23  6.1889e-20  3.2494e-23  6.1893e-20  3.2711e-23  6.1899e-20  3.3097e-23  6.1911e-20  3.3783e-23  6.1933e-20  3.5004e-23  6.1970e-20  3.7179e-23  6.2037e-20  4.1056e-23  6.2157e-20  4.7983e-23  6.2369e-20  6.0408e-23  6.2746e-20  8.3100e-23  6.3877e-20  1.2467e-22  6.6028e-20  2.0190e-22  6.8761e-20  3.5131e-22  7.2986e-20  6.5686e-22  8.0128e-20
      5.75  3.2186e-23  6.9435e-20  3.2197e-23  6.9436e-20  3.2217e-23  6.9436e-20  3.2253e-23  6.9438e-20  3.2316e-23  6.9440e-20  3.2428e-23  6.9444e-20  3.2627e-23  6.9452e-20  3.2981e-23  6.9465e-20  3.3612e-23  6.9489e-20  3.4734e-23  6.9532e-20  3.6732e-23  6.9607e-20  4.0296e-23  6.9741e-20  4.6662e-23  6.9979e-20  5.8082e-23  7.0403e-20  7.8883e-23  7.1508e-20  1.1714e-22  7.3971e-20  1.8806e-22  7.7062e-20  3.2499e-22  8.1839e-20  6.0443e-22  8.9882e-20
      5.80  3.2145e-23  7.7907e-20  3.2155e-23  7.7908e-20  3.2174e-23  7.7909e-20  3.2206e-23  7.7910e-20  3.2264e-23  7.7913e-20  3.2367e-23  7.7918e-20  3.2550e-23  7.7926e-20  3.2876e-23  7.7941e-20  3.3456e-23  7.7968e-20  3.4488e-23  7.8015e-20  3.6326e-23  7.8100e-20  3.9604e-23  7.8250e-20  4.5460e-23  7.8518e-20  5.5963e-23  7.8993e-20  7.5072e-23  8.0152e-20  1.1030e-22  8.2951e-20  1.7547e-22  8.6441e-20  3.0101e-22  9.1788e-20  5.5646e-22  1.0082e-19
      5.85  3.2108e-23  8.7413e-20  3.2117e-23  8.7414e-20  3.2134e-23  8.7415e-20  3.2164e-23  8.7416e-20  3.2217e-23  8.7419e-20  3.2312e-23  8.7425e-20  3.2481e-23  8.7434e-20  3.2781e-23  8.7451e-20  3.3315e-23  8.7481e-20  3.4266e-23  8.7534e-20  3.5958e-23  8.7629e-20  3.8977e-23  8.7798e-20  4.4370e-23  8.8098e-20  5.4042e-23  8.8632e-20  7.1608e-23  8.9835e-20  1.0410e-22  9.3018e-20  1.6406e-22  9.6958e-20  2.7927e-22  1.0297e-19  5.1292e-22  1.1310e-19
      5.90  3.2074e-23  9.8079e-20  3.2083e-23  9.8079e-20  3.2098e-23  9.8081e-20  3.2126e-23  9.8082e-20  3.2175e-23  9.8086e-20  3.2263e-23  9.8092e-20  3.2418e-23  9.8102e-20  3.2695e-23  9.8121e-20  3.3188e-23  9.8155e-20  3.4065e-23  9.8215e-20  3.5626e-23  9.8322e-20  3.8411e-23  9.8511e-20  4.3385e-23  9.8848e-20  5.2306e-23  9.9447e-20  6.8471e-23  1.0068e-19  9.8492e-23  1.0430e-19  1.5374e-22  1.0875e-19  2.5963e-22  1.1552e-19  4.7362e-22  1.2690e-19
      5.95  3.2044e-23  1.1005e-19  3.2052e-23  1.1005e-19  3.2066e-23  1.1005e-19  3.2092e-23  1.1005e-19  3.2137e-23  1.1005e-19  3.2218e-23  1.1006e-19  3.2362e-23  1.1007e-19  3.2618e-23  1.1009e-19  3.3073e-23  1.1013e-19  3.3884e-23  1.1020e-19  3.5327e-23  1.1032e-19  3.7900e-23  1.1053e-19  4.2497e-23  1.1091e-19  5.0740e-23  1.1158e-19  6.5634e-23  1.1283e-19  9.3429e-23  1.1695e-19  1.4444e-22  1.2198e-19  2.4195e-22  1.2960e-19  4.3828e-22  1.4238e-19
      6.00  3.2016e-23  1.2347e-19  3.2024e-23  1.2347e-19  3.2037e-23  1.2348e-19  3.2061e-23  1.2348e-19  3.2103e-23  1.2348e-19  3.2178e-23  1.2349e-19  3.2311e-23  1.2350e-19  3.2548e-23  1.2353e-19  3.2970e-23  1.2357e-19  3.3720e-23  1.2364e-19  3.5057e-23  1.2378e-19  3.7440e-23  1.2402e-19  4.1697e-23  1.2444e-19  4.9329e-23  1.2520e-19  6.3101e-23  1.2654e-19  8.8860e-23  1.3112e-19  1.3606e-22  1.3681e-19  2.2606e-22  1.4538e-19  4.0658e-22  1.5974e-19
      6.05  3.1992e-23  1.3854e-19  3.1999e-23  1.3854e-19  3.2011e-23  1.3854e-19  3.2033e-23  1.3854e-19  3.2072e-23  1.3855e-19  3.2142e-23  1.3856e-19  3.2265e-23  1.3857e-19  3.2485e-23  1.3860e-19  3.2877e-23  1.3865e-19  3.3573e-23  1.3873e-19  3.4813e-23  1.3888e-19  3.7025e-23  1.3915e-19  4.0975e-23  1.3963e-19  4.8056e-23  1.4047e-19  6.0827e-23  1.4198e-19  8.4731e-23  1.4700e-19  1.2851e-22  1.5344e-19  2.1175e-22  1.6309e-19  3.7814e-22  1.7923e-19
      6.10  3.1969e-23  1.5544e-19  3.1976e-23  1.5544e-19  3.1987e-23  1.5545e-19  3.2008e-23  1.5545e-19  3.2044e-23  1.5545e-19  3.2109e-23  1.5546e-19  3.2224e-23  1.5548e-19  3.2428e-23  1.5551e-19  3.2792e-23  1.5556e-19  3.3440e-23  1.5566e-19  3.4593e-23  1.5583e-19  3.6649e-23  1.5613e-19  4.0321e-23  1.5666e-19  4.6903e-23  1.5761e-19  5.8770e-23  1.5931e-19  8.0989e-23  1.6480e-19  1.2167e-22  1.7208e-19  1.9885e-22  1.8295e-19  3.5261e-22  2.0108e-19
      6.15  3.1950e-23  1.7441e-19  3.1956e-23  1.7441e-19  3.1966e-23  1.7441e-19  3.1985e-23  1.7442e-19  3.2019e-23  1.7442e-19  3.2079e-23  1.7443e-19  3.2187e-23  1.7445e-19  3.2377e-23  1.7449e-19  3.2716e-23  1.7455e-19  3.3319e-23  1.7465e-19  3.4393e-23  1.7484e-19  3.6308e-23  1.7518e-19  3.9727e-23  1.7578e-19  4.5855e-23  1.7685e-19  5.6902e-23  1.7874e-19  7.7584e-23  1.8474e-19  1.1547e-22  1.9298e-19  1.8717e-22  2.0522e-19  3.2960e-22  2.2560e-19
      6.20  3.1932e-23  1.9569e-19  3.1937e-23  1.9569e-19  3.1947e-23  1.9569e-19  3.1965e-23  1.9570e-19  3.1997e-23  1.9570e-19  3.2053e-23  1.9572e-19  3.2153e-23  1.9574e-19  3.2331e-23  1.9578e-19  3.2647e-23  1.9584e-19  3.3209e-23  1.9596e-19  3.4211e-23  1.9618e-19  3.5996e-23  1.9655e-19  3.9185e-23  1.9723e-19  4.4900e-23  1.9843e-19  5.5199e-23  2.0056e-19  7.4472e-23  2.0707e-19  1.0981e-22  2.1642e-19  1.7656e-22  2.3021e-19  3.0879e-22  2.5310e-19
      6.25  3.1916e-23  2.1957e-19  3.1921e-23  2.1957e-19  3.1931e-23  2.1957e-19  3.1947e-23  2.1958e-19  3.1977e-23  2.1958e-19  3.2029e-23  2.1960e-19  3.2122e-23  2.1962e-19  3.2288e-23  2.1966e-19  3.2583e-23  2.1974e-19  3.3109e-23  2.1987e-19  3.4044e-23  2.2011e-19  3.5711e-23  2.2054e-19  3.8689e-23  2.2129e-19  4.4024e-23  2.2264e-19  5.3638e-23  2.2503e-19  7.1615e-23  2.3209e-19  1.0463e-22  2.4268e-19  1.6687e-22  2.5822e-19  2.8988e-22  2.8395e-19
      6.30  3.1902e-23  2.4636e-19  3.1907e-23  2.4636e-19  3.1915e-23  2.4636e-19  3.1931e-23  2.4637e-19  3.1959e-23  2.4638e-19  3.2008e-23  2.4639e-19  3.2095e-23  2.4642e-19  3.2250e-23  2.4647e-19  3.2526e-23  2.4655e-19  3.3017e-23  2.4670e-19  3.3891e-23  2.4697e-19  3.5449e-23  2.4745e-19  3.8232e-23  2.4830e-19  4.3218e-23  2.4980e-19  5.2201e-23  2.5249e-19  6.8978e-23  2.6010e-19  9.9858e-23  2.7212e-19  1.5797e-22  2.8964e-19  2.7261e-22  3.1856e-19
      6.35  3.1889e-23  2.7642e-19  3.1894e-23  2.7642e-19  3.1902e-23  2.7642e-19  3.1916e-23  2.7643e-19  3.1942e-23  2.7644e-19  3.1988e-23  2.7646e-19  3.2070e-23  2.7649e-19  3.2215e-23  2.7654e-19  3.2473e-23  2.7663e-19  3.2932e-23  2.7680e-19  3.3749e-23  2.7710e-19  3.5207e-23  2.7764e-19  3.7809e-23  2.7859e-19  4.2472e-23  2.8029e-19  5.0873e-23  2.8330e-19  6.6533e-23  2.9147e-19  9.5448e-23  3.0512e-19  1.4977e-22  3.2486e-19  2.5675e-22  3.5738e-19
      6.40  3.1878e-23  3.1015e-19  3.1882e-23  3.1015e-19  3.1890e-23  3.1015e-19  3.1903e-23  3.1016e-19  3.1928e-23  3.1017e-19  3.1971e-23  3.1019e-19  3.2047e-23  3.1022e-19  3.2183e-23  3.1028e-19  3.2424e-23  3.1039e-19  3.2854e-23  3.1058e-19  3.3619e-23  3.1092e-19  3.4982e-23  3.1152e-19  3.7417e-23  3.1259e-19  4.1780e-23  3.1449e-19  4.9639e-23  3.1787e-19  6.4256e-23  3.2658e-19  9.1351e-23  3.4209e-19  1.4217e-22  3.6437e-19  2.4211e-22  4.0092e-19
      6.45  3.1868e-23  3.4799e-19  3.1872e-23  3.4799e-19  3.1879e-23  3.4800e-19  3.1892e-23  3.4800e-19  3.1914e-23  3.4801e-19  3.1955e-23  3.4804e-19  3.2026e-23  3.4807e-19  3.2153e-23  3.4814e-19  3.2379e-23  3.4826e-19  3.2781e-23  3.4847e-19  3.3497e-23  3.4885e-19  3.4773e-23  3.4953e-19  3.7052e-23  3.5073e-19  4.1135e-23  3.5286e-19  4.8489e-23  3.5665e-19  6.2126e-23  3.6587e-19  8.7529e-23  3.8351e-19  1.3509e-22  4.0865e-19  2.2853e-22  4.4976e-19
      6.50  3.1859e-23  3.9045e-19  3.1863e-23  3.9045e-19  3.1870e-23  3.9046e-19  3.1881e-23  3.9046e-19  3.1903e-23  3.9048e-19  3.1940e-23  3.9050e-19  3.2007e-23  3.9054e-19  3.2126e-23  3.9062e-19  3.2337e-23  3.9075e-19  3.2714e-23  3.9099e-19  3.3384e-23  3.9142e-19  3.4578e-23  3.9218e-19  3.6711e-23  3.9352e-19  4.0531e-23  3.9592e-19  4.7414e-23  4.0017e-19  6.0127e-23  4.0984e-19  8.3953e-23  4.2993e-19  1.2848e-22  4.5831e-19  2.1589e-22  5.0454e-19
      6.55  3.1851e-23  4.3809e-19  3.1855e-23  4.3809e-19  3.1861e-23  4.3810e-19  3.1872e-23  4.3811e-19  3.1892e-23  4.3812e-19  3.1927e-23  4.3815e-19  3.1990e-23  4.3820e-19  3.2101e-23  4.3828e-19  3.2299e-23  4.3843e-19  3.2651e-23  4.3870e-19  3.3278e-23  4.3918e-19  3.4395e-23  4.4003e-19  3.6391e-23  4.4154e-19  3.9966e-23  4.4423e-19  4.6407e-23  4.4900e-19  5.8245e-23  4.5902e-19  8.0597e-23  4.8192e-19  1.2230e-22  5.1397e-19  2.0407e-22  5.6597e-19
      6.60  3.1844e-23  4.9155e-19  3.1848e-23  4.9155e-19  3.1853e-23  4.9155e-19  3.1864e-23  4.9156e-19  3.1882e-23  4.9158e-19  3.1915e-23  4.9161e-19  3.1974e-23  4.9167e-19  3.2078e-23  4.9176e-19  3.2263e-23  4.9193e-19  3.2592e-23  4.9223e-19  3.3179e-23  4.9277e-19  3.4224e-23  4.9372e-19  3.6091e-23  4.9542e-19  3.9436e-23  4.9843e-19  4.5461e-23  5.0379e-19  5.6469e-23  5.1402e-19  7.7441e-23  5.4014e-19  1.1648e-22  5.7637e-19  1.9299e-22  6.3487e-19
      6.65  3.1838e-23  5.5152e-19  3.1841e-23  5.5153e-19  3.1847e-23  5.5153e-19  3.1856e-23  5.5154e-19  3.1874e-23  5.5156e-19  3.1904e-23  5.5160e-19  3.1959e-23  5.5166e-19  3.2056e-23  5.5176e-19  3.2230e-23  5.5195e-19  3.2538e-23  5.5229e-19  3.3086e-23  5.5289e-19  3.4064e-23  5.5396e-19  3.5809e-23  5.5587e-19  3.8937e-23  5.5925e-19  4.4571e-23  5.6526e-19  5.4819e-23  5.7596e-19  7.4468e-23  6.0534e-19  1.1102e-22  6.4630e-19  1.8258e-22  7.1214e-19
      6.70  3.1833e-23  6.1882e-19  3.1836e-23  6.1882e-19  3.1841e-23  6.1883e-19  3.1850e-23  6.1884e-19  3.1866e-23  6.1886e-19  3.1895e-23  6.1890e-19  3.1946e-23  6.1897e-19  3.2037e-23  6.1909e-19  3.2199e-23  6.1930e-19  3.2486e-23  6.1968e-19  3.2999e-23  6.2036e-19  3.3913e-23  6.2156e-19  3.5545e-23  6.2369e-19  3.8468e-23  6.2749e-19  4.3734e-23  6.3424e-19  5.3313e-23  6.4624e-19  7.1664e-23  6.7834e-19  1.0587e-22  7.2468e-19  1.7280e-22  7.9878e-19
      6.75  3.1828e-23  6.9433e-19  3.1831e-23  6.9433e-19  3.1835e-23  6.9434e-19  3.1844e-23  6.9435e-19  3.1859e-23  6.9438e-19  3.1886e-23  6.9442e-19  3.1934e-23  6.9449e-19  3.2018e-23  6.9463e-19  3.2170e-23  6.9487e-19  3.2439e-23  6.9529e-19  3.2918e-23  6.9605e-19  3.3771e-23  6.9740e-19  3.5296e-23  6.9980e-19  3.8027e-23  7.0406e-19  4.2947e-23  7.1163e-19  5.1896e-23  7.2510e-19  6.9019e-23  7.6006e-19  1.0103e-22  8.1252e-19  1.6359e-22  8.9594e-19
      6.80  3.1824e-23  7.7905e-19  3.1826e-23  7.7905e-19  3.1831e-23  7.7906e-19  3.1838e-23  7.7907e-19  3.1853e-23  7.7910e-19  3.1878e-23  7.7915e-19  3.1922e-23  7.7923e-19  3.2002e-23  7.7939e-19  3.2143e-23  7.7965e-19  3.2394e-23  7.8013e-19  3.2841e-23  7.8098e-19  3.3638e-23  7.8249e-19  3.5062e-23  7.8518e-19  3.7612e-23  7.8996e-19  4.2206e-23  7.9847e-19  5.0563e-23  8.1359e-19  6.6524e-23  8.5150e-19  9.6463e-23  9.1093e-19  1.5492e-22  1.0049e-18
      6.85  3.1820e-23  8.7410e-19  3.1822e-23  8.7411e-19  3.1826e-23  8.7412e-19  3.1834e-23  8.7414e-19  3.1847e-23  8.7417e-19  3.1870e-23  8.7422e-19  3.1912e-23  8.7431e-19  3.1986e-23  8.7448e-19  3.2118e-23  8.7479e-19  3.2352e-23  8.7532e-19  3.2769e-23  8.7628e-19  3.3513e-23  8.7797e-19  3.4842e-23  8.8099e-19  3.7222e-23  8.8636e-19  4.1512e-23  8.9590e-19  4.9310e-23  9.1286e-19  6.4169e-23  9.5381e-19  9.2165e-23  1.0212e-18  1.4677e-22  1.1270e-18
      6.90  3.1817e-23  9.8076e-19  3.1819e-23  9.8077e-19  3.1823e-23  9.8078e-19  3.1829e-23  9.8080e-19  3.1842e-23  9.8083e-19  3.1864e-23  9.8089e-19  3.1902e-23  9.8100e-19  3.1971e-23  9.8119e-19  3.2094e-23  9.8153e-19  3.2313e-23  9.8213e-19  3.2702e-23  9.8320e-19  3.3396e-23  9.8510e-19  3.4636e-23  9.8849e-19  3.6856e-23  9.9451e-19  4.0856e-23  1.0052e-18  4.8132e-23  1.0243e-18  6.1948e-23  1.0683e-18  8.8121e-23  1.1447e-18  1.3909e-22  1.2639e-18
      6.95  3.1814e-23  1.1004e-18  3.1816e-23  1.1004e-18  3.1819e-23  1.1004e-18  3.1826e-23  1.1005e-18  3.1837e-23  1.1005e-18  3.1857e-23  1.1006e-18  3.1894e-23  1.1007e-18  3.1958e-23  1.1009e-18  3.2073e-23  1.1013e-18  3.2277e-23  1.1020e-18  3.2640e-23  1.1032e-18  3.3287e-23  1.1053e-18  3.4442e-23  1.1091e-18  3.6513e-23  1.1159e-18  4.0243e-23  1.1279e-18  4.7027e-23  1.1492e-18  5.9855e-23  1.1962e-18  8.4320e-23  1.2830e-18  1.3189e-22  1.4174e-18
      7.00  3.1811e-23  1.2347e-18  3.1813e-23  1.2347e-18  3.1816e-23  1.2347e-18  3.1822e-23  1.2347e-18  3.1833e-23  1.2348e-18  3.1852e-23  1.2349e-18  3.1886e-23  1.2350e-18  3.1946e-23  1.2352e-18  3.2052e-23  1.2357e-18  3.2243e-23  1.2364e-18  3.2581e-23  1.2378e-18  3.3184e-23  1.2402e-18  3.4261e-23  1.2444e-18  3.6191e-23  1.2520e-18  3.9668e-23  1.2655e-18  4.5992e-23  1.2895e-18  5.7882e-23  1.3393e-18  8.0750e-23  1.4379e-18  1.2513e-22  1.5895e-18
      7.05  3.1809e-23  1.3854e-18  3.1811e-23  1.3854e-18  3.1814e-23  1.3854e-18  3.1819e-23  1.3854e-18  3.1829e-23  1.3855e-18  3.1847e-23  1.3855e-18  3.1878e-23  1.3857e-18  3.1934e-23  1.3860e-18  3.2034e-23  1.3864e-18  3.2211e-23  1.3873e-18  3.2526e-23  1.3888e-18  3.3088e-23  1.3915e-18  3.4092e-23  1.3963e-18  3.5890e-23  1.4048e-18  3.9130e-23  1.4199e-18  4.5022e-23  1.4468e-18  5.6025e-23  1.4991e-18  7.7402e-23  1.6113e-18  1.1879e-22  1.7823e-18
      7.10  3.1807e-23  1.5544e-18  3.1808e-23  1.5544e-18  3.1811e-23  1.5544e-18  3.1817e-23  1.5545e-18  3.1826e-23  1.5545e-18  3.1842e-23  1.5546e-18  3.1872e-23  1.5548e-18  3.1924e-23  1.5551e-18  3.2016e-23  1.5556e-18  3.2181e-23  1.5566e-18  3.2475e-23  1.5583e-18  3.2999e-23  1.5613e-18  3.3934e-23  1.5667e-18  3.5609e-23  1.5762e-18  3.8627e-23  1.5932e-18  4.4116e-23  1.6234e-18  5.4277e-23  1.6777e-18  7.4264e-23  1.8054e-18  1.1286e-22  1.9984e-18
      7.15  3.1805e-23  1.7441e-18  3.1807e-23  1.7441e-18  3.1809e-23  1.7441e-18  3.1814e-23  1.7441e-18  3.1823e-23  1.7442e-18  3.1838e-23  1.7443e-18  3.1865e-23  1.7445e-18  3.1914e-23  1.7448e-18  3.2000e-23  1.7454e-18  3.2154e-23  1.7465e-18  3.2428e-23  1.7484e-18  3.2915e-23  1.7518e-18  3.3786e-23  1.7578e-18  3.5347e-23  1.7685e-18  3.8158e-23  1.7876e-18  4.3270e-23  1.8215e-18  5.2720e-23  1.8817e-18  7.1324e-23  2.0227e-18  1.0731e-22  2.2405e-18
      7.20  3.1804e-23  1.9569e-18  3.1805e-23  1.9569e-18  3.1807e-23  1.9569e-18  3.1812e-23  1.9569e-18  3.1820e-23  1.9570e-18  3.1834e-23  1.9571e-18  3.1860e-23  1.9573e-18  3.1905e-23  1.9577e-18  3.1985e-23  1.9584e-18  3.2129e-23  1.9596e-18  3.2384e-23  1.9617e-18  3.2838e-23  1.9655e-18  3.3649e-23  1.9723e-18  3.5102e-23  1.9843e-18  3.7720e-23  2.0057e-18  4.2481e-23  2.0437e-18  5.1279e-23  2.1113e-18  6.8571e-23  2.2657e-18  1.0212e-22  2.5118e-18
      7.25  3.1802e-23  2.1956e-18  3.1803e-23  2.1957e-18  3.1806e-23  2.1957e-18  3.1810e-23  2.1957e-18  3.1818e-23  2.1958e-18  3.1831e-23  2.1959e-18  3.1855e-23  2.1962e-18  3.1897e-23  2.1966e-18  3.1972e-23  2.1974e-18  3.2105e-23  2.1987e-18  3.2342e-23  2.2011e-18  3.2765e-23  2.2054e-18  3.3521e-23  2.2130e-18  3.4874e-23  2.2265e-18  3.7312e-23  2.2504e-18  4.1744e-23  2.2931e-18  4.9935e-23  2.3690e-18  6.5992e-23  2.5376e-18  9.7265e-23  2.8157e-18
      7.30  3.1801e-23  2.4635e-18  3.1802e-23  2.4636e-18  3.1804e-23  2.4636e-18  3.1808e-23  2.4636e-18  3.1815e-23  2.4637e-18  3.1828e-23  2.4639e-18  3.1850e-23  2.4641e-18  3.1889e-23  2.4646e-18  3.1959e-23  2.4655e-18  3.2083e-23  2.4670e-18  3.2304e-23  2.4697e-18  3.2698e-23  2.4745e-18  3.3401e-23  2.4830e-18  3.4661e-23  2.4981e-18  3.6931e-23  2.5250e-18  4.1058e-23  2.5729e-18  4.8681e-23  2.6581e-18  6.3575e-23  2.8416e-18  9.2728e-23  3.1561e-18
      7.35  3.1800e-23  2.7641e-18  3.1801e-23  2.7642e-18  3.1803e-23  2.7642e-18  3.1807e-23  2.7642e-18  3.1813e-23  2.7643e-18  3.1825e-23  2.7645e-18  3.1845e-23  2.7648e-18  3.1882e-23  2.7654e-18  3.1947e-23  2.7663e-18  3.2062e-23  2.7680e-18  3.2268e-23  2.7710e-18  3.2635e-23  2.7764e-18  3.3290e-23  2.7860e-18  3.4463e-23  2.8029e-18  3.6576e-23  2.8332e-18  4.0417e-23  2.8869e-18  4.7511e-23  2.9824e-18  6.1306e-23  3.1813e-18  8.8482e-23  3.5372e-18
      7.40  3.1799e-23  3.1014e-18  3.1800e-23  3.1014e-18  3.1802e-23  3.1015e-18  3.1805e-23  3.1015e-18  3.1811e-23  3.1016e-18  3.1822e-23  3.1018e-18  3.1841e-23  3.1022e-18  3.1875e-23  3.1028e-18  3.1936e-23  3.1038e-18  3.2043e-23  3.1058e-18  3.2235e-23  3.1091e-18  3.2576e-23  3.1152e-18  3.3186e-23  3.1259e-18  3.4278e-23  3.1450e-18  3.6245e-23  3.1789e-18  3.9819e-23  3.2391e-18  4.6418e-23  3.3463e-18  5.9175e-23  3.5609e-18  8.4507e-23  3.9639e-18
      7.45  3.1798e-23  3.4799e-18  3.1799e-23  3.4799e-18  3.1801e-23  3.4799e-18  3.1804e-23  3.4800e-18  3.1810e-23  3.4801e-18  3.1820e-23  3.4803e-18  3.1838e-23  3.4807e-18  3.1869e-23  3.4814e-18  3.1926e-23  3.4826e-18  3.2026e-23  3.4847e-18  3.2204e-23  3.4885e-18  3.2522e-23  3.4953e-18  3.3089e-23  3.5073e-18  3.4106e-23  3.5287e-18  3.5936e-23  3.5667e-18  3.9261e-23  3.6344e-18  4.5399e-23  3.7547e-18  5.7170e-23  3.9847e-18  8.0783e-23  4.4415e-18
      7.50  3.1798e-23  3.9045e-18  3.1799e-23  3.9045e-18  3.1800e-23  3.9045e-18  3.1803e-23  3.9046e-18  3.1808e-23  3.9047e-18  3.1818e-23  3.9050e-18  3.1834e-23  3.9054e-18  3.1864e-23  3.9062e-18  3.1916e-23  3.9075e-18  3.2009e-23  3.9099e-18  3.2175e-23  3.9142e-18  3.2471e-23  3.9218e-18  3.2999e-23  3.9353e-18  3.3945e-23  3.9593e-18  3.5648e-23  4.0020e-18  3.8741e-23  4.0779e-18  4.4448e-23  4.2128e-18  5.5283e-23  4.4575e-18  7.7294e-23  4.9758e-18
      7.55  3.1797e-23  4.3809e-18  3.1798e-23  4.3809e-18  3.1799e-23  4.3809e-18  3.1802e-23  4.3810e-18  3.1807e-23  4.3812e-18  3.1816e-23  4.3815e-18  3.1831e-23  4.3819e-18  3.1858e-23  4.3828e-18  3.1907e-23  4.3843e-18  3.1994e-23  4.3870e-18  3.2149e-23  4.3918e-18  3.2424e-23  4.4003e-18  3.2916e-23  4.4154e-18  3.3796e-23  4.4424e-18  3.5380e-23  4.4903e-18  3.8257e-23  4.5755e-18  4.3563e-23  4.7269e-18  5.3590e-23  4.9962e-18  7.4030e-23  5.5734e-18
      7.60  3.1796e-23  4.9154e-18  3.1797e-23  4.9154e-18  3.1799e-23  4.9155e-18  3.1801e-23  4.9156e-18  3.1806e-23  4.9158e-18  3.1814e-23  4.9161e-18  3.1828e-23  4.9166e-18  3.1854e-23  4.9176e-18  3.1899e-23  4.9193e-18  3.1980e-23  4.9223e-18  3.2124e-23  4.9277e-18  3.2380e-23  4.9372e-18  3.2838e-23  4.9542e-18  3.3658e-23  4.9844e-18  3.5131e-23  5.0382e-18  3.7807e-23  5.1338e-18  4.2739e-23  5.3037e-18  5.2051e-23  5.6059e-18  7.0974e-23  6.2415e-18
      7.65  3.1796e-23  5.5152e-18  3.1797e-23  5.5152e-18  3.1798e-23  5.5153e-18  3.1800e-23  5.5154e-18  3.1805e-23  5.5156e-18  3.1812e-23  5.5159e-18  3.1826e-23  5.5165e-18  3.1849e-23  5.5176e-18  3.1892e-23  5.5195e-18  3.1967e-23  5.5229e-18  3.2101e-23  5.5289e-18  3.2339e-23  5.5397e-18  3.2765e-23  5.5587e-18  3.3528e-23  5.5926e-18  3.4899e-23  5.6529e-18  3.7389e-23  5.7602e-18  4.1973e-23  5.9509e-18  5.0620e-23  6.2900e-18  6.8115e-23  6.9880e-18
      7.70  3.1796e-23  6.1881e-18  3.1796e-23  6.1882e-18  3.1798e-23  6.1882e-18  3.1800e-23  6.1884e-18  3.1804e-23  6.1886e-18  3.1811e-23  6.1890e-18  3.1823e-23  6.1896e-18  3.1845e-23  6.1908e-18  3.1885e-23  6.1930e-18  3.1955e-23  6.1968e-18  3.2079e-23  6.2036e-18  3.2302e-23  6.2156e-18  3.2698e-23  6.2370e-18  3.3408e-23  6.2750e-18  3.4686e-23  6.3427e-18  3.7001e-23  6.4630e-18  4.1263e-23  6.6770e-18  4.9292e-23  7.0575e-18  6.5444e-23  7.8218e-18
      7.75  3.1795e-23  6.9432e-18  3.1796e-23  6.9433e-18  3.1797e-23  6.9433e-18  3.1799e-23  6.9435e-18  3.1803e-23  6.9437e-18  3.1809e-23  6.9441e-18  3.1821e-23  6.9449e-18  3.1842e-23  6.9462e-18  3.1878e-23  6.9486e-18  3.1944e-23  6.9529e-18  3.2060e-23  6.9605e-18  3.2267e-23  6.9740e-18  3.2636e-23  6.9980e-18  3.3298e-23  7.0407e-18  3.4487e-23  7.1166e-18  3.6643e-23  7.2517e-18  4.0606e-23  7.4918e-18  4.8062e-23  7.9187e-18  6.2950e-23  8.7523e-18
      7.80  3.1795e-23  7.7904e-18  3.1796e-23  7.7905e-18  3.1797e-23  7.7905e-18  3.1799e-23  7.7907e-18  3.1802e-23  7.7910e-18  3.1808e-23  7.7914e-18  3.1819e-23  7.7923e-18  3.1838e-23  7.7938e-18  3.1872e-23  7.7965e-18  3.1933e-23  7.8013e-18  3.2042e-23  7.8098e-18  3.2235e-23  7.8250e-18  3.2579e-23  7.8519e-18  3.3196e-23  7.8998e-18  3.4304e-23  7.9850e-18  3.6312e-23  8.1365e-18  4.0000e-23  8.4059e-18  4.6928e-23  8.8850e-18  6.0625e-23  9.7902e-18
      7.85  3.1795e-23  8.7410e-18  3.1795e-23  8.7410e-18  3.1796e-23  8.7411e-18  3.1798e-23  8.7413e-18  3.1801e-23  8.7416e-18  3.1807e-23  8.7421e-18  3.1817e-23  8.7431e-18  3.1835e-23  8.7448e-18  3.1867e-23  8.7478e-18  3.1924e-23  8.7532e-18  3.2025e-23  8.7628e-18  3.2205e-23  8.7798e-18  3.2527e-23  8.8100e-18  3.3102e-23  8.8637e-18  3.4136e-23  8.9594e-18  3.6008e-23  9.1294e-18  3.9443e-23  9.4317e-18  4.5884e-23  9.9692e-18  5.8459e-23  1.0947e-17
      7.90  3.1794e-23  9.8075e-18  3.1795e-23  9.8076e-18  3.1796e-23  9.8077e-18  3.1798e-23  9.8079e-18  3.1801e-23  9.8082e-18  3.1806e-23  9.8088e-18  3.1815e-23  9.8099e-18  3.1832e-23  9.8118e-18  3.1862e-23  9.8152e-18  3.1915e-23  9.8212e-18  3.2010e-23  9.8320e-18  3.2178e-23  9.8510e-18  3.2479e-23  9.8850e-18  3.3017e-23  9.9453e-18  3.3982e-23  1.0053e-17  3.5730e-23  1.0243e-17  3.8932e-23  1.0583e-17  4.4927e-23  1.1186e-17  5.6521e-23  1.2258e-17
      7.95  3.1794e-23  1.1004e-17  3.1795e-23  1.1004e-17  3.1796e-23  1.1004e-17  3.1797e-23  1.1005e-17  3.1800e-23  1.1005e-17  3.1805e-23  1.1006e-17  3.1814e-23  1.1007e-17  3.1830e-23  1.1009e-17  3.1857e-23  1.1013e-17  3.1907e-23  1.1020e-17  3.1996e-23  1.1032e-17  3.2154e-23  1.1053e-17  3.2435e-23  1.1091e-17  3.2938e-23  1.1159e-17  3.3841e-23  1.1279e-17  3.5475e-23  1.1493e-17  3.8465e-23  1.1874e-17  4.4050e-23  1.2551e-17  5.4822e-23  1.3754e-17
      8.00  3.1794e-23  1.2347e-17  3.1795e-23  1.2347e-17  3.1795e-23  1.2347e-17  3.1797e-23  1.2347e-17  3.1799e-23  1.2348e-17  3.1804e-23  1.2349e-17  3.1812e-23  1.2350e-17  3.1827e-23  1.2352e-17  3.1853e-23  1.2357e-17  3.1900e-23  1.2364e-17  3.1983e-23  1.2378e-17  3.2131e-23  1.2402e-17  3.2395e-23  1.2444e-17  3.2866e-23  1.2520e-17  3.3713e-23  1.2655e-17  3.5242e-23  1.2896e-17  3.8038e-23  1.3323e-17  4.3251e-23  1.4082e-17  5.3271e-23  1.5433e-17
      8.05  3.1794e-23  1.3854e-17  3.1794e-23  1.3854e-17  3.1795e-23  1.3854e-17  3.1797e-23  1.3854e-17  3.1799e-23  1.3854e-17  3.1803e-23  1.3855e-17  3.1811e-23  1.3857e-17  3.1825e-23  1.3860e-17  3.1850e-23  1.3864e-17  3.1894e-23  1.3873e-17  3.1972e-23  1.3888e-17  3.2111e-23  1.3915e-17  3.2358e-23  1.3963e-17  3.2801e-23  1.4048e-17  3.3596e-23  1.4200e-17  3.5031e-23  1.4469e-17  3.7650e-23  1.4948e-17  4.2523e-23  1.5800e-17  5.1859e-23  1.7316e-17
      8.10  3.1794e-23  1.5544e-17  3.1794e-23  1.5544e-17  3.1795e-23  1.5544e-17  3.1796e-23  1.5544e-17  3.1799e-23  1.5545e-17  3.1803e-23  1.5546e-17  3.1810e-23  1.5548e-17  3.1823e-23  1.5551e-17  3.1846e-23  1.5556e-17  3.1888e-23  1.5566e-17  3.1961e-23  1.5583e-17  3.2092e-23  1.5613e-17  3.2325e-23  1.5667e-17  3.2742e-23  1.5762e-17  3.3490e-23  1.5932e-17  3.4839e-23  1.6235e-17  3.7298e-23  1.6772e-17  4.1863e-23  1.7729e-17  5.0578e-23  1.9429e-17
      8.15  3.1794e-23  1.7441e-17  3.1794e-23  1.7441e-17  3.1795e-23  1.7441e-17  3.1796e-23  1.7441e-17  3.1798e-23  1.7442e-17  3.1802e-23  1.7443e-17  3.1809e-23  1.7445e-17  3.1821e-23  1.7448e-17  3.1843e-23  1.7454e-17  3.1882e-23  1.7465e-17  3.1952e-23  1.7484e-17  3.2075e-23  1.7518e-17  3.2295e-23  1.7578e-17  3.2689e-23  1.7686e-17  3.3394e-23  1.7876e-17  3.4664e-23  1.8216e-17  3.6979e-23  1.8819e-17  4.1265e-23  1.9892e-17  4.9418e-23  2.1800e-17
      8.20  3.1794e-23  1.9569e-17  3.1794e-23  1.9569e-17  3.1795e-23  1.9569e-17  3.1796e-23  1.9569e-17  3.1798e-23  1.9570e-17  3.1802e-23  1.9571e-17  3.1808e-23  1.9573e-17  3.1820e-23  1.9577e-17  3.1840e-23  1.9584e-17  3.1877e-23  1.9596e-17  3.1943e-23  1.9617e-17  3.2060e-23  1.9655e-17  3.2268e-23  1.9723e-17  3.2640e-23  1.9844e-17  3.3307e-23  2.0058e-17  3.4507e-23  2.0438e-17  3.6691e-23  2.1115e-17  4.0725e-23  2.2319e-17  4.8371e-23  2.4460e-17
      8.25  3.1793e-23  2.1956e-17  3.1794e-23  2.1956e-17  3.1794e-23  2.1957e-17  3.1796e-23  2.1957e-17  3.1798e-23  2.1958e-17  3.1801e-23  2.1959e-17  3.1807e-23  2.1962e-17  3.1818e-23  2.1966e-17  3.1838e-23  2.1974e-17  3.1873e-23  2.1987e-17  3.1935e-23  2.2011e-17  3.2046e-23  2.2054e-17  3.2244e-23  2.2130e-17  3.2597e-23  2.2265e-17  3.3228e-23  2.2505e-17  3.4366e-23  2.2932e-17  3.6431e-23  2.3692e-17  4.0238e-23  2.5042e-17  4.7427e-23  2.7444e-17
      8.30  3.1793e-23  2.4635e-17  3.1794e-23  2.4636e-17  3.1794e-23  2.4636e-17  3.1795e-23  2.4636e-17  3.1797e-23  2.4637e-17  3.1801e-23  2.4639e-17  3.1807e-23  2.4641e-17  3.1817e-23  2.4646e-17  3.1836e-23  2.4655e-17  3.1869e-23  2.4670e-17  3.1928e-23  2.4697e-17  3.2034e-23  2.4745e-17  3.2222e-23  2.4830e-17  3.2557e-23  2.4982e-17  3.3158e-23  2.5251e-17  3.4238e-23  2.5730e-17  3.6197e-23  2.6583e-17  3.9799e-23  2.8098e-17  4.6578e-23  3.0793e-17
      8.35  3.1793e-23  2.7641e-17  3.1794e-23  2.7642e-17  3.1794e-23  2.7642e-17  3.1795e-23  2.7642e-17  3.1797e-23  2.7643e-17  3.1800e-23  2.7645e-17  3.1806e-23  2.7648e-17  3.1816e-23  2.7653e-17  3.1834e-23  2.7663e-17  3.1866e-23  2.7680e-17  3.1922e-23  2.7710e-17  3.2023e-23  2.7764e-17  3.2202e-23  2.7860e-17  3.2522e-23  2.8030e-17  3.3095e-23  2.8332e-17  3.4123e-23  2.8870e-17  3.5986e-23  2.9826e-17  3.9405e-23  3.1527e-17  4.5815e-23  3.4551e-17
      8.40  3.1793e-23  3.1014e-17  3.1794e-23  3.1014e-17  3.1794e-23  3.1015e-17  3.1795e-23  3.1015e-17  3.1797e-23  3.1016e-17  3.1800e-23  3.1018e-17  3.1805e-23  3.1022e-17  3.1815e-23  3.1028e-17  3.1832e-23  3.1038e-17  3.1862e-23  3.1057e-17  3.1916e-23  3.1091e-17  3.2013e-23  3.1152e-17  3.2184e-23  3.1259e-17  3.2490e-23  3.1450e-17  3.3038e-23  3.1789e-17  3.4020e-23  3.2393e-17  3.5798e-23  3.3466e-17  3.9052e-23  3.5374e-17  4.5131e-23  3.8767e-17
      8.45  3.1793e-23  3.4798e-17  3.1794e-23  3.4799e-17  3.1794e-23  3.4799e-17  3.1795e-23  3.4800e-17  3.1797e-23  3.4801e-17  3.1800e-23  3.4803e-17  3.1805e-23  3.4807e-17  3.1814e-23  3.4814e-17  3.1830e-23  3.4826e-17  3.1860e-23  3.4847e-17  3.1911e-23  3.4885e-17  3.2004e-23  3.4953e-17  3.2168e-23  3.5073e-17  3.2462e-23  3.5287e-17  3.2987e-23  3.5668e-17  3.3928e-23  3.6345e-17  3.5629e-23  3.7549e-17  3.8736e-23  3.9690e-17  4.4519e-23  4.3497e-17
      8.50  3.1793e-23  3.9044e-17  3.1793e-23  3.9045e-17  3.1794e-23  3.9045e-17  3.1795e-23  3.9046e-17  3.1796e-23  3.9047e-17  3.1799e-23  3.9050e-17  3.1804e-23  3.9054e-17  3.1813e-23  3.9062e-17  3.1829e-23  3.9075e-17  3.1857e-23  3.9099e-17  3.1907e-23  3.9142e-17  3.1996e-23  3.9218e-17  3.2154e-23  3.9353e-17  3.2437e-23  3.9593e-17  3.2941e-23  4.0020e-17  3.3846e-23  4.0780e-17  3.5477e-23  4.2131e-17  3.8453e-23  4.4533e-17  4.3971e-23  4.8805e-17
