# This was generated using Cloudy10 and the columns are ordered 
# as log10 of the fraction of the metallicity to the solar metallicity
# 'h_*_Z' and 'c_*_Z' stands for cooling and heating respectively 
# at * metalicity
#
# NOTE: This was generated separately from loop_coolingcurve_w_UV.py
#       using Output_metals_w_redshift.py.
#
# Redshift = 0.0
# hden = -3.5
#
#     temp   h_-3.00_Z   c_-3.00_Z   h_-2.75_Z   c_-2.75_Z   h_-2.50_Z   c_-2.50_Z   h_-2.25_Z   c_-2.25_Z   h_-2.00_Z   c_-2.00_Z   h_-1.75_Z   c_-1.75_Z   h_-1.50_Z   c_-1.50_Z   h_-1.25_Z   c_-1.25_Z   h_-1.00_Z   c_-1.00_Z   h_-0.75_Z   c_-0.75_Z   h_-0.50_Z   c_-0.50_Z   h_-0.25_Z   c_-0.25_Z    h_0.00_Z    c_0.00_Z    h_0.25_Z    c_0.25_Z    h_0.50_Z    c_0.50_Z    h_0.75_Z    c_0.75_Z    h_1.00_Z    c_1.00_Z    h_1.25_Z    c_1.25_Z    h_1.50_Z    c_1.50_Z 
      4.00  4.7282e-24  8.1543e-25  4.7287e-24  8.2014e-25  4.7294e-24  8.2852e-25  4.7307e-24  8.4342e-25  4.7331e-24  8.6991e-25  4.7373e-24  9.1702e-25  4.7447e-24  1.0008e-24  4.7580e-24  1.1498e-24  4.7816e-24  1.4148e-24  4.8235e-24  1.8862e-24  4.8981e-24  2.7248e-24  5.0307e-24  4.2172e-24  5.2664e-24  6.8748e-24  5.6854e-24  1.1612e-23  6.4302e-24  2.0074e-23  7.7540e-24  3.5236e-23  1.0107e-23  6.2566e-23  1.4293e-23  1.1232e-22  2.1755e-23  2.0445e-22
      4.05  4.4762e-24  8.6864e-25  4.4766e-24  8.7415e-25  4.4773e-24  8.8395e-25  4.4787e-24  9.0138e-25  4.4810e-24  9.3238e-25  4.4851e-24  9.8749e-25  4.4925e-24  1.0855e-24  4.5057e-24  1.2598e-24  4.5290e-24  1.5698e-24  4.5705e-24  2.1213e-24  4.6443e-24  3.1023e-24  4.7756e-24  4.8483e-24  5.0089e-24  7.9574e-24  5.4237e-24  1.3500e-23  6.1610e-24  2.3401e-23  7.4713e-24  4.1145e-23  9.8003e-24  7.3137e-23  1.3943e-23  1.3141e-22  2.1327e-23  2.3940e-22
      4.10  4.2375e-24  9.5158e-25  4.2379e-24  9.5815e-25  4.2386e-24  9.6984e-25  4.2399e-24  9.9062e-25  4.2422e-24  1.0276e-24  4.2463e-24  1.0933e-24  4.2537e-24  1.2102e-24  4.2667e-24  1.4181e-24  4.2898e-24  1.7878e-24  4.3309e-24  2.4454e-24  4.4040e-24  3.6154e-24  4.5341e-24  5.6976e-24  4.7652e-24  9.4056e-24  5.1762e-24  1.6016e-23  5.9066e-24  2.7825e-23  7.2048e-24  4.8991e-23  9.5121e-24  8.7162e-23  1.3616e-23  1.5672e-22  2.0928e-23  2.8571e-22
      4.15  4.0108e-24  1.0982e-24  4.0112e-24  1.1062e-24  4.0120e-24  1.1204e-24  4.0133e-24  1.1456e-24  4.0156e-24  1.1905e-24  4.0196e-24  1.2703e-24  4.0269e-24  1.4122e-24  4.0398e-24  1.6646e-24  4.0627e-24  2.1134e-24  4.1035e-24  2.9118e-24  4.1761e-24  4.3322e-24  4.3051e-24  6.8601e-24  4.5344e-24  1.1362e-23  4.9420e-24  1.9388e-23  5.6666e-24  3.3726e-23  6.9542e-24  5.9427e-23  9.2427e-24  1.0578e-22  1.3313e-23  1.9027e-22  2.0563e-23  3.4703e-22
      4.20  3.7948e-24  1.3685e-24  3.7952e-24  1.3783e-24  3.7959e-24  1.3958e-24  3.7972e-24  1.4270e-24  3.7994e-24  1.4824e-24  3.8035e-24  1.5809e-24  3.8107e-24  1.7560e-24  3.8235e-24  2.0675e-24  3.8463e-24  2.6215e-24  3.8868e-24  3.6069e-24  3.9589e-24  5.3601e-24  4.0870e-24  8.4802e-24  4.3149e-24  1.4037e-23  4.7198e-24  2.3943e-23  5.4396e-24  4.1639e-23  6.7188e-24  7.3363e-23  8.9920e-24  1.3058e-22  1.3034e-23  2.3488e-22  2.0235e-23  4.2844e-22
      4.25  3.5869e-24  1.8545e-24  3.5873e-24  1.8668e-24  3.5881e-24  1.8888e-24  3.5893e-24  1.9278e-24  3.5916e-24  1.9973e-24  3.5956e-24  2.1208e-24  3.6028e-24  2.3404e-24  3.6156e-24  2.7309e-24  3.6383e-24  3.4255e-24  3.6786e-24  4.6611e-24  3.7503e-24  6.8592e-24  3.8779e-24  1.0771e-23  4.1046e-24  1.7738e-23  4.5077e-24  3.0158e-23  5.2241e-24  5.2346e-23  6.4972e-24  9.2118e-23  8.7597e-24  1.6385e-22  1.2783e-23  2.9460e-22  1.9948e-23  5.3726e-22
      4.30  3.3838e-24  2.6803e-24  3.3842e-24  2.6960e-24  3.3849e-24  2.7238e-24  3.3862e-24  2.7733e-24  3.3885e-24  2.8614e-24  3.3925e-24  3.0180e-24  3.3996e-24  3.2964e-24  3.4124e-24  3.7916e-24  3.4350e-24  4.6723e-24  3.4752e-24  6.2389e-24  3.5467e-24  9.0259e-24  3.6738e-24  1.3986e-23  3.8999e-24  2.2819e-23  4.3017e-24  3.8566e-23  5.0159e-24  6.6695e-23  6.2851e-24  1.1712e-22  8.5406e-24  2.0805e-22  1.2552e-23  3.7377e-22  1.9695e-23  6.8128e-22
      4.35  3.1798e-24  3.9741e-24  3.1802e-24  3.9941e-24  3.1809e-24  4.0297e-24  3.1822e-24  4.0930e-24  3.1845e-24  4.2057e-24  3.1885e-24  4.4059e-24  3.1956e-24  4.7621e-24  3.2083e-24  5.3955e-24  3.2309e-24  6.5220e-24  3.2711e-24  8.5258e-24  3.3425e-24  1.2091e-23  3.4694e-24  1.8435e-23  3.6952e-24  2.9733e-23  4.0965e-24  4.9874e-23  4.8098e-24  8.5851e-23  6.0774e-24  1.5034e-22  8.3305e-24  2.6662e-22  1.2338e-23  4.7853e-22  1.9478e-23  8.7164e-22
      4.40  2.9680e-24  5.8148e-24  2.9684e-24  5.8406e-24  2.9691e-24  5.8865e-24  2.9703e-24  5.9681e-24  2.9726e-24  6.1132e-24  2.9766e-24  6.3712e-24  2.9838e-24  6.8301e-24  2.9965e-24  7.6461e-24  3.0191e-24  9.0974e-24  3.0593e-24  1.1679e-23  3.1307e-24  1.6272e-23  3.2578e-24  2.4445e-23  3.4837e-24  3.9000e-23  3.8853e-24  6.4949e-23  4.5992e-24  1.1130e-22  5.8681e-24  1.9437e-22  8.1240e-24  3.4417e-22  1.2138e-23  6.1714e-22  1.9294e-23  1.1235e-21
      4.45  2.7422e-24  8.1324e-24  2.7426e-24  8.1659e-24  2.7433e-24  8.2253e-24  2.7445e-24  8.3309e-24  2.7468e-24  8.5189e-24  2.7508e-24  8.8530e-24  2.7580e-24  9.4473e-24  2.7708e-24  1.0504e-23  2.7934e-24  1.2384e-23  2.8337e-24  1.5727e-23  2.9054e-24  2.1675e-23  3.0328e-24  3.2261e-23  3.2593e-24  5.1111e-23  3.6620e-24  8.4717e-23  4.3780e-24  1.4474e-22  5.6510e-24  2.5234e-22  7.9151e-24  4.4637e-22  1.1946e-23  7.9995e-22  1.9140e-23  1.4559e-21
      4.50  2.5021e-24  1.0622e-23  2.5025e-24  1.0665e-23  2.5032e-24  1.0742e-23  2.5045e-24  1.0879e-23  2.5068e-24  1.1123e-23  2.5108e-24  1.1556e-23  2.5180e-24  1.2326e-23  2.5308e-24  1.3697e-23  2.5536e-24  1.6133e-23  2.5940e-24  2.0467e-23  2.6659e-24  2.8178e-23  2.7938e-24  4.1901e-23  3.0212e-24  6.6338e-23  3.4256e-24  1.0990e-22  4.1445e-24  1.8773e-22  5.4232e-24  3.2723e-22  7.6986e-24  5.7883e-22  1.1753e-23  1.0374e-21  1.8997e-23  1.8883e-21
      4.55  2.2574e-24  1.2801e-23  2.2578e-24  1.2857e-23  2.2585e-24  1.2957e-23  2.2598e-24  1.3134e-23  2.2621e-24  1.3449e-23  2.2661e-24  1.4009e-23  2.2734e-24  1.5005e-23  2.2862e-24  1.6777e-23  2.3090e-24  1.9927e-23  2.3496e-24  2.5531e-23  2.4218e-24  3.5501e-23  2.5502e-24  5.3245e-23  2.7784e-24  8.4843e-23  3.1843e-24  1.4118e-22  3.9062e-24  2.4181e-22  5.1906e-24  4.2223e-22  7.4771e-24  7.4765e-22  1.1555e-23  1.3409e-21  1.8850e-23  2.4420e-21
      4.60  2.0246e-24  1.4267e-23  2.0250e-24  1.4339e-23  2.0257e-24  1.4467e-23  2.0270e-24  1.4695e-23  2.0293e-24  1.5100e-23  2.0333e-24  1.5820e-23  2.0406e-24  1.7101e-23  2.0534e-24  1.9379e-23  2.0763e-24  2.3430e-23  2.1170e-24  3.0636e-23  2.1893e-24  4.3456e-23  2.3180e-24  6.6272e-23  2.5468e-24  1.0690e-22  2.9536e-24  1.7935e-22  3.6774e-24  3.0877e-22  4.9653e-24  5.4081e-22  7.2591e-24  9.5941e-22  1.1353e-23  1.7227e-21  1.8683e-23  3.1396e-21
      4.65  1.8179e-24  1.5189e-23  1.8183e-24  1.5281e-23  1.8190e-24  1.5444e-23  1.8203e-24  1.5734e-23  1.8226e-24  1.6251e-23  1.8267e-24  1.7169e-23  1.8339e-24  1.8803e-23  1.8467e-24  2.1707e-23  1.8696e-24  2.6874e-23  1.9102e-24  3.6063e-23  1.9824e-24  5.2412e-23  2.1109e-24  8.1508e-23  2.3394e-24  1.3333e-22  2.7458e-24  2.2571e-22  3.4688e-24  3.9078e-22  4.7554e-24  6.8673e-22  7.0475e-24  1.2207e-21  1.1139e-23  2.1945e-21  1.8472e-23  4.0027e-21
      4.70  1.6413e-24  1.6344e-23  1.6417e-24  1.6460e-23  1.6424e-24  1.6666e-23  1.6437e-24  1.7033e-23  1.6459e-24  1.7685e-23  1.6500e-24  1.8845e-23  1.6572e-24  2.0907e-23  1.6699e-24  2.4574e-23  1.6926e-24  3.1097e-23  1.7330e-24  4.2700e-23  1.8047e-24  6.3342e-23  1.9323e-24  1.0008e-22  2.1593e-24  1.6551e-22  2.5630e-24  2.8216e-22  3.2811e-24  4.9059e-22  4.5590e-24  8.6431e-22  6.8359e-24  1.5387e-21  1.0901e-23  2.7686e-21  1.8185e-23  5.0528e-21
      4.75  1.4859e-24  1.9176e-23  1.4863e-24  1.9321e-23  1.4870e-24  1.9578e-23  1.4882e-24  2.0035e-23  1.4905e-24  2.0848e-23  1.4945e-24  2.2295e-23  1.5015e-24  2.4866e-23  1.5141e-24  2.9440e-23  1.5365e-24  3.7575e-23  1.5762e-24  5.2045e-23  1.6470e-24  7.7788e-23  1.7728e-24  1.2361e-22  1.9965e-24  2.0520e-22  2.3944e-24  3.5069e-22  3.1021e-24  6.1064e-22  4.3615e-24  1.0768e-21  6.6049e-24  1.9179e-21  1.0609e-23  3.4522e-21  1.7780e-23  6.3019e-21
      4.80  1.3283e-24  2.5588e-23  1.3286e-24  2.5766e-23  1.3293e-24  2.6082e-23  1.3306e-24  2.6645e-23  1.3327e-24  2.7645e-23  1.3366e-24  2.9425e-23  1.3435e-24  3.2590e-23  1.3558e-24  3.8218e-23  1.3777e-24  4.8227e-23  1.4166e-24  6.6032e-23  1.4857e-24  9.7708e-23  1.6086e-24  1.5409e-22  1.8272e-24  2.5449e-22  2.2160e-24  4.3352e-22  2.9074e-24  7.5339e-22  4.1375e-24  1.3270e-21  6.3279e-24  2.3621e-21  1.0235e-23  4.2504e-21  1.7226e-23  7.7580e-21
      4.85  1.1291e-24  3.6829e-23  1.1295e-24  3.7044e-23  1.1302e-24  3.7428e-23  1.1314e-24  3.8110e-23  1.1335e-24  3.9322e-23  1.1372e-24  4.1479e-23  1.1439e-24  4.5313e-23  1.1558e-24  5.2133e-23  1.1770e-24  6.4263e-23  1.2146e-24  8.5838e-23  1.2815e-24  1.2422e-22  1.4004e-24  1.9254e-22  1.6119e-24  3.1422e-22  1.9880e-24  5.3117e-22  2.6567e-24  9.1883e-22  3.8461e-24  1.6140e-21  5.9632e-24  2.8687e-21  9.7371e-24  5.1581e-21  1.6481e-23  9.4127e-21
      4.90  8.5902e-25  5.0170e-23  8.5936e-25  5.0421e-23  8.6002e-25  5.0882e-23  8.6116e-25  5.1693e-23  8.6318e-25  5.3134e-23  8.6678e-25  5.5697e-23  8.7318e-25  6.0256e-23  8.8456e-25  6.8363e-23  9.0481e-25  8.2781e-23  9.4081e-25  1.0843e-22  1.0048e-24  1.5406e-22  1.1187e-24  2.3527e-22  1.3210e-24  3.7992e-22  1.6809e-24  6.3786e-22  2.3205e-24  1.0988e-21  3.4581e-24  1.9256e-21  5.4822e-24  3.4183e-21  9.0884e-24  6.1435e-21  1.5527e-23  1.1213e-20
      4.95  5.5882e-25  5.8046e-23  5.5916e-25  5.8342e-23  5.5977e-25  5.8868e-23  5.6084e-25  5.9804e-23  5.6275e-25  6.1467e-23  5.6615e-25  6.4425e-23  5.7219e-25  6.9686e-23  5.8294e-25  7.9042e-23  6.0206e-25  9.5682e-23  6.3606e-25  1.2528e-22  6.9652e-25  1.7795e-22  8.0400e-25  2.7168e-22  9.9507e-25  4.3865e-22  1.3347e-24  7.3642e-22  1.9384e-24  1.2687e-21  3.0119e-24  2.2237e-21  4.9215e-24  3.9492e-21  8.3230e-24  7.1029e-21  1.4392e-23  1.2980e-20
      5.00  3.1855e-25  5.6427e-23  3.1886e-25  5.6753e-23  3.1942e-25  5.7332e-23  3.2042e-25  5.8362e-23  3.2219e-25  6.0194e-23  3.2535e-25  6.3452e-23  3.3095e-25  6.9244e-23  3.4093e-25  7.9548e-23  3.5868e-25  9.7872e-23  3.9025e-25  1.3047e-22  4.4635e-25  1.8847e-22  5.4609e-25  2.9171e-22  7.2335e-25  4.7562e-22  1.0384e-24  8.0369e-22  1.5982e-24  1.3903e-21  2.5935e-24  2.4436e-21  4.3643e-24  4.3486e-21  7.5182e-24  7.8366e-21  1.3144e-23  1.4356e-20
      5.05  1.7158e-25  4.8991e-23  1.7186e-25  4.9329e-23  1.7237e-25  4.9928e-23  1.7328e-25  5.0995e-23  1.7490e-25  5.2892e-23  1.7777e-25  5.6264e-23  1.8289e-25  6.2263e-23  1.9200e-25  7.2930e-23  2.0822e-25  9.1903e-23  2.3702e-25  1.2565e-22  2.8821e-25  1.8571e-22  3.7916e-25  2.9262e-22  5.4074e-25  4.8311e-22  8.2777e-25  8.2299e-22  1.3378e-24  1.4310e-21  2.2445e-24  2.5234e-21  3.8575e-24  4.5013e-21  6.7302e-24  8.1302e-21  1.1854e-23  1.4935e-20
      5.10  9.3214e-26  4.0406e-23  9.3475e-26  4.0742e-23  9.3939e-26  4.1340e-23  9.4764e-26  4.2403e-23  9.6234e-26  4.4294e-23  9.8849e-26  4.7656e-23  1.0351e-25  5.3635e-23  1.1181e-25  6.4268e-23  1.2656e-25  8.3181e-23  1.5275e-25  1.1683e-22  1.9925e-25  1.7669e-22  2.8181e-25  2.8328e-22  4.2837e-25  4.7320e-22  6.8860e-25  8.1212e-22  1.1508e-24  1.4186e-21  1.9725e-24  2.5088e-21  3.4353e-24  4.4846e-21  6.0404e-24  8.1154e-21  1.0685e-23  1.4942e-20
      5.15  5.2893e-26  3.2875e-23  5.3132e-26  3.3215e-23  5.3558e-26  3.3818e-23  5.4317e-26  3.4892e-23  5.5667e-26  3.6802e-23  5.8073e-26  4.0198e-23  6.2367e-26  4.6238e-23  7.0007e-26  5.6979e-23  8.3559e-26  7.6084e-23  1.0760e-25  1.1007e-22  1.5023e-25  1.7055e-22  2.2583e-25  2.7823e-22  3.5993e-25  4.7010e-22  5.9784e-25  8.1256e-22  1.0207e-24  1.4255e-21  1.7729e-24  2.5279e-21  3.1117e-24  4.5275e-21  5.4958e-24  8.2076e-21  9.7457e-24  1.5144e-20
      5.20  3.1756e-26  2.6868e-23  3.1976e-26  2.7220e-23  3.2370e-26  2.7846e-23  3.3074e-26  2.8958e-23  3.4325e-26  3.0938e-23  3.6561e-26  3.4457e-23  4.0555e-26  4.0715e-23  4.7618e-26  5.1847e-23  6.0142e-26  7.1646e-23  8.2330e-26  1.0687e-22  1.2162e-25  1.6955e-22  1.9118e-25  2.8114e-22  3.1443e-25  4.8003e-22  5.3336e-25  8.3505e-22  9.2270e-25  1.4707e-21  1.6153e-24  2.6144e-21  2.8480e-24  4.6910e-21  5.0430e-24  8.5187e-21  8.9554e-24  1.5751e-20
      5.25  2.0198e-26  2.2215e-23  2.0401e-26  2.2580e-23  2.0764e-26  2.3229e-23  2.1415e-26  2.4383e-23  2.2576e-26  2.6435e-23  2.4637e-26  3.0084e-23  2.8313e-26  3.6574e-23  3.4802e-26  4.8116e-23  4.6280e-26  6.8647e-23  6.6578e-26  1.0517e-22  1.0246e-25  1.7017e-22  1.6592e-25  2.8590e-22  2.7841e-25  4.9218e-22  4.7840e-25  8.6047e-22  8.3406e-25  1.5200e-21  1.4668e-24  2.7076e-21  2.5927e-24  4.8658e-21  4.5976e-24  8.8504e-21  8.1704e-24  1.6399e-20
      5.30  1.3558e-26  1.8630e-23  1.3743e-26  1.9005e-23  1.4077e-26  1.9670e-23  1.4680e-26  2.0854e-23  1.5737e-26  2.2959e-23  1.7617e-26  2.6702e-23  2.0962e-26  3.3360e-23  2.6848e-26  4.5200e-23  3.7247e-26  6.6261e-23  5.5582e-26  1.0373e-22  8.7961e-26  1.7041e-22  1.4518e-25  2.8915e-22  2.4677e-25  5.0081e-22  4.2731e-25  8.7878e-22  7.4835e-25  1.5559e-21  1.3194e-24  2.7759e-21  2.3354e-24  4.9953e-21  4.1442e-24  9.1002e-21  7.3669e-24  1.6899e-20
      5.35  9.5471e-27  1.5864e-23  9.7172e-27  1.6245e-23  1.0027e-26  1.6923e-23  1.0574e-26  1.8128e-23  1.1533e-26  2.0270e-23  1.3231e-26  2.4080e-23  1.6249e-26  3.0856e-23  2.1554e-26  4.2907e-23  3.0890e-26  6.4344e-23  4.7357e-26  1.0248e-22  7.6342e-26  1.7036e-22  1.2755e-25  2.9124e-22  2.1855e-25  5.0674e-22  3.8031e-25  8.9165e-22  6.6795e-25  1.5815e-21  1.1795e-24  2.8254e-21  2.0897e-24  5.0911e-21  3.7102e-24  9.2903e-21  6.5973e-24  1.7295e-20
      5.40  7.0047e-27  1.3686e-23  7.1569e-27  1.4053e-23  7.4343e-27  1.4707e-23  7.9131e-27  1.5869e-23  8.7604e-27  1.7936e-23  1.0251e-26  2.1611e-23  1.2897e-26  2.8148e-23  1.7577e-26  3.9774e-23  2.5773e-26  6.0456e-23  4.0214e-26  9.7256e-23  6.5497e-26  1.6275e-22  1.1029e-25  2.7940e-22  1.8989e-25  4.8740e-22  3.3136e-25  8.5904e-22  5.8292e-25  1.5255e-21  1.0302e-24  2.7283e-21  1.8262e-24  4.9230e-21  3.2435e-24  9.0021e-21  5.7692e-24  1.6813e-20
      5.45  5.3144e-27  1.1913e-23  5.4391e-27  1.2220e-23  5.6681e-27  1.2764e-23  6.0651e-27  1.3733e-23  6.7635e-27  1.5455e-23  8.0047e-27  1.8519e-23  1.0198e-26  2.3967e-23  1.4074e-26  3.3658e-23  2.0937e-26  5.0898e-23  3.2990e-26  8.1578e-23  5.3916e-26  1.3618e-22  9.1044e-26  2.3344e-22  1.5696e-25  4.0689e-22  2.7400e-25  7.1694e-22  4.8205e-25  1.2734e-21  8.5204e-25  2.2788e-21  1.5104e-24  4.1171e-21  2.6826e-24  7.5457e-21  4.7718e-24  1.4148e-20
      5.50  4.1513e-27  1.0439e-23  4.2487e-27  1.0662e-23  4.4251e-27  1.1058e-23  4.7471e-27  1.1763e-23  5.3136e-27  1.3017e-23  6.3155e-27  1.5246e-23  8.0992e-27  1.9211e-23  1.1266e-26  2.6264e-23  1.6858e-26  3.8810e-23  2.6698e-26  6.1134e-23  4.3769e-26  1.0087e-22  7.3874e-26  1.7165e-22  1.2713e-25  2.9792e-22  2.2172e-25  5.2370e-22  3.8974e-25  9.2909e-22  6.8850e-25  1.6623e-21  1.2201e-24  3.0052e-21  2.1663e-24  5.5167e-21  3.8520e-24  1.0372e-20
      5.55  3.3344e-27  9.2876e-24  3.4159e-27  9.4575e-24  3.5624e-27  9.7596e-24  3.8275e-27  1.0297e-23  4.3080e-27  1.1252e-23  5.1710e-27  1.2951e-23  6.7080e-27  1.5972e-23  9.4376e-27  2.1346e-23  1.4260e-26  3.0904e-23  2.2656e-26  4.7912e-23  3.7240e-26  7.8189e-23  6.2841e-26  1.3213e-22  1.0810e-25  2.2836e-22  1.8838e-25  4.0045e-22  3.3107e-25  7.0954e-22  5.8476e-25  1.2689e-21  1.0361e-24  2.2944e-21  1.8392e-24  4.2146e-21  3.2694e-24  7.9351e-21
      5.60  2.7459e-27  8.3998e-24  2.8192e-27  8.5483e-24  2.9512e-27  8.8125e-24  3.1909e-27  9.2821e-24  3.6189e-27  1.0117e-23  4.3957e-27  1.1602e-23  5.8002e-27  1.4244e-23  8.2885e-27  1.8941e-23  1.2698e-26  2.7296e-23  2.0198e-26  4.2165e-23  3.3294e-26  6.8634e-23  5.6168e-26  1.1579e-22  9.6695e-26  1.9993e-22  1.6867e-25  3.5041e-22  2.9659e-25  6.2073e-22  5.2401e-25  1.1101e-21  9.2854e-25  2.0076e-21  1.6484e-24  3.6898e-21  2.9299e-24  6.9535e-21
      5.65  2.3102e-27  7.7059e-24  2.3783e-27  7.8479e-24  2.5016e-27  8.1004e-24  2.7267e-27  8.5494e-24  3.1300e-27  9.3479e-24  3.8531e-27  1.0768e-23  5.1564e-27  1.3293e-23  7.4844e-27  1.7784e-23  1.1606e-26  2.5772e-23  1.8488e-26  3.9989e-23  3.0511e-26  6.5297e-23  5.1528e-26  1.1039e-22  8.8841e-26  1.9084e-22  1.5510e-25  3.3475e-22  2.7291e-25  5.9330e-22  4.8235e-25  1.0615e-21  8.5490e-25  1.9204e-21  1.5178e-24  3.5317e-21  2.6979e-24  6.6624e-21
      5.70  1.9797e-27  7.1531e-24  2.0433e-27  7.2918e-24  2.1593e-27  7.5386e-24  2.3735e-27  7.9773e-24  2.7518e-27  8.7576e-24  3.4351e-27  1.0145e-23  4.6683e-27  1.2612e-23  6.8718e-27  1.7001e-23  1.0642e-26  2.4807e-23  1.6981e-26  3.8700e-23  2.8054e-26  6.3434e-23  4.7524e-26  1.0750e-22  8.2058e-26  1.8613e-22  1.4340e-25  3.2679e-22  2.5247e-25  5.7955e-22  4.4642e-25  1.0374e-21  7.9139e-25  1.8778e-21  1.4053e-24  3.4556e-21  2.4981e-24  6.5246e-21
      5.75  1.7229e-27  6.6493e-24  1.7817e-27  6.7810e-24  1.8890e-27  7.0153e-24  2.0868e-27  7.4318e-24  2.4425e-27  8.1726e-24  3.0835e-27  9.4898e-24  4.2468e-27  1.1832e-23  6.2760e-27  1.5999e-23  9.6258e-27  2.3411e-23  1.5395e-26  3.6603e-23  2.5471e-26  6.0088e-23  4.3305e-26  1.0193e-22  7.4923e-26  1.7660e-22  1.3110e-25  3.1018e-22  2.3097e-25  5.5029e-22  4.0856e-25  9.8534e-22  7.2448e-25  1.7845e-21  1.2867e-24  3.2863e-21  2.2877e-24  6.2121e-21
      5.80  1.5202e-27  6.2619e-24  1.5736e-27  6.3829e-24  1.6712e-27  6.5980e-24  1.8517e-27  6.9805e-24  2.1809e-27  7.6606e-24  2.7828e-27  8.8701e-24  3.8412e-27  1.1021e-23  5.6377e-27  1.4847e-23  8.6215e-27  2.1655e-23  1.3820e-26  3.3769e-23  2.2907e-26  5.5337e-23  3.9046e-26  9.3765e-23  6.7642e-26  1.6234e-22  1.1843e-25  2.8505e-22  2.0874e-25  5.0565e-22  3.6933e-25  9.0550e-22  6.5502e-25  1.6405e-21  1.1635e-24  3.0257e-21  2.0695e-24  5.7435e-21
      5.85  1.3594e-27  5.9686e-24  1.4086e-27  6.0834e-24  1.4989e-27  6.2875e-24  1.6662e-27  6.6504e-24  1.9772e-27  7.2957e-24  2.5446e-27  8.4433e-24  3.4809e-27  1.0485e-23  5.0905e-27  1.4116e-23  7.7982e-27  2.0576e-23  1.2544e-26  3.2071e-23  2.0845e-26  5.2537e-23  3.5530e-26  8.9004e-23  6.1600e-26  1.5409e-22  1.0791e-25  2.7055e-22  1.9025e-25  4.7996e-22  3.3669e-25  8.5966e-22  5.9721e-25  1.5580e-21  1.0609e-24  2.8727e-21  1.8866e-24  5.4423e-21
      5.90  1.2308e-27  5.7551e-24  1.2772e-27  5.8699e-24  1.3630e-27  6.0740e-24  1.5226e-27  6.4370e-24  1.8196e-27  7.0823e-24  2.3464e-27  8.2300e-24  3.2203e-27  1.0272e-23  4.6752e-27  1.3903e-23  7.2070e-27  2.0364e-23  1.1594e-26  3.1861e-23  1.9285e-26  5.2330e-23  3.2896e-26  8.8804e-23  5.7077e-26  1.5390e-22  1.0005e-25  2.7040e-22  1.7645e-25  4.7999e-22  3.1233e-25  8.6005e-22  5.5409e-25  1.5595e-21  9.8442e-25  2.8775e-21  1.7509e-24  5.4560e-21
      5.95  1.1263e-27  5.6032e-24  1.1702e-27  5.7204e-24  1.2518e-27  5.9287e-24  1.4048e-27  6.2991e-24  1.6909e-27  6.9577e-24  2.1882e-27  8.1291e-24  3.0122e-27  1.0213e-23  4.3790e-27  1.3919e-23  6.7199e-27  2.0513e-23  1.0806e-26  3.2247e-23  1.8015e-26  5.3138e-23  3.0737e-26  9.0367e-23  5.3337e-26  1.5681e-22  9.3519e-26  2.7575e-22  1.6497e-25  4.8968e-22  2.9205e-25  8.7784e-22  5.1819e-25  1.5925e-21  9.2075e-25  2.9406e-21  1.6380e-24  5.5817e-21
      6.00  1.0399e-27  5.4968e-24  1.0807e-27  5.6143e-24  1.1569e-27  5.8232e-24  1.3006e-27  6.1948e-24  1.5710e-27  6.8553e-24  2.0560e-27  8.0300e-24  2.8277e-27  1.0120e-23  4.0999e-27  1.3837e-23  6.2818e-27  2.0450e-23  1.0092e-26  3.2219e-23  1.6798e-26  5.3172e-23  2.8672e-26  9.0512e-23  4.9749e-26  1.5716e-22  8.7223e-26  2.7649e-22  1.5387e-25  4.9118e-22  2.7244e-25  8.8085e-22  4.8346e-25  1.5988e-21  8.5926e-25  2.9545e-21  1.5292e-24  5.6149e-21
      6.05  9.6756e-28  5.4428e-24  1.0048e-27  5.5569e-24  1.0742e-27  5.7597e-24  1.2055e-27  6.1203e-24  1.4548e-27  6.7615e-24  1.9202e-27  7.9015e-24  2.6486e-27  9.9296e-24  3.8317e-27  1.3537e-23  5.8506e-27  1.9956e-23  9.3671e-27  3.1379e-23  1.5552e-26  5.1718e-23  2.6527e-26  8.7964e-23  4.6022e-26  1.5268e-22  8.0685e-26  2.6854e-22  1.4234e-25  4.7704e-22  2.5204e-25  8.5571e-22  4.4731e-25  1.5538e-21  7.9519e-25  2.8737e-21  1.4158e-24  5.4688e-21
      6.10  9.0706e-28  5.4207e-24  9.4086e-28  5.5287e-24  1.0036e-27  5.7207e-24  1.1217e-27  6.0622e-24  1.3465e-27  6.6692e-24  1.7711e-27  7.7485e-24  2.4552e-27  9.6683e-24  3.5617e-27  1.3084e-23  5.4129e-27  1.9160e-23  8.6352e-27  2.9975e-23  1.4340e-26  4.9229e-23  2.4452e-26  8.3546e-23  4.2425e-26  1.4481e-22  7.4389e-26  2.5452e-22  1.3124e-25  4.5201e-22  2.3242e-25  8.1081e-22  4.1256e-25  1.4729e-21  7.3367e-25  2.7319e-21  1.3069e-24  5.2062e-21
      6.15  8.5631e-28  5.4267e-24  8.8720e-28  5.5269e-24  9.4418e-28  5.7051e-24  1.0508e-27  6.0219e-24  1.2509e-27  6.5853e-24  1.6147e-27  7.5870e-24  2.2170e-27  9.3687e-24  3.2474e-27  1.2538e-23  4.9485e-27  1.8177e-23  7.9122e-27  2.8212e-23  1.3155e-26  4.6081e-23  2.2447e-26  7.7928e-23  3.8969e-26  1.3479e-22  6.8352e-26  2.3663e-22  1.2063e-25  4.2001e-22  2.1366e-25  7.5334e-22  3.7936e-25  1.3689e-21  6.7479e-25  2.5358e-21  1.2027e-24  4.8478e-21
      6.20  8.1301e-28  5.4548e-24  8.4107e-28  5.5444e-24  8.9261e-28  5.7036e-24  9.8796e-28  5.9866e-24  1.1608e-27  6.4899e-24  1.4716e-27  7.3848e-24  1.9953e-27  8.9763e-24  2.8945e-27  1.1807e-23  4.4418e-27  1.6844e-23  7.1371e-27  2.5807e-23  1.1886e-26  4.1767e-23  2.0317e-26  7.0222e-23  3.5297e-26  1.2103e-22  6.1941e-26  2.1203e-22  1.0935e-25  3.7599e-22  1.9373e-25  6.7414e-22  3.4405e-25  1.2252e-21  6.1218e-25  2.2716e-21  1.0916e-24  4.3414e-21
      6.25  7.7512e-28  5.5010e-24  7.9985e-28  5.5762e-24  8.4503e-28  5.7100e-24  9.2657e-28  5.9478e-24  1.0735e-27  6.3706e-24  1.3366e-27  7.1223e-24  1.7820e-27  8.4593e-24  2.5585e-27  1.0837e-23  3.9102e-27  1.5068e-23  6.2843e-27  2.2596e-23  1.0479e-26  3.6002e-23  1.7924e-26  5.9898e-23  3.1154e-26  1.0257e-22  5.4682e-26  1.7903e-22  9.6543e-26  3.1680e-22  1.7107e-25  5.6749e-22  3.0385e-25  1.0314e-21  5.4082e-25  1.9134e-21  9.6482e-25  3.6622e-21
      6.30  7.4176e-28  5.5891e-24  7.6269e-28  5.6489e-24  8.0035e-28  5.7553e-24  8.6882e-28  5.9446e-24  9.9026e-28  6.2810e-24  1.2077e-27  6.8792e-24  1.5759e-27  7.9432e-24  2.2300e-27  9.8353e-24  3.3812e-27  1.3201e-23  5.4022e-27  1.9191e-23  8.9905e-27  2.9857e-23  1.5357e-26  4.8871e-23  2.6676e-26  8.2830e-23  4.6803e-26  1.4368e-22  8.2616e-26  2.5341e-22  1.4638e-25  4.5323e-22  2.6002e-25  8.2326e-22  4.6290e-25  1.5282e-21  8.2615e-25  2.9295e-21
      6.35  7.1268e-28  5.7008e-24  7.2987e-28  5.7479e-24  7.6080e-28  5.8318e-24  8.1622e-28  5.9810e-24  9.1607e-28  6.2463e-24  1.0933e-27  6.7180e-24  1.3927e-27  7.5569e-24  1.9265e-27  9.0488e-24  2.8771e-27  1.1703e-23  4.5664e-27  1.6425e-23  7.5544e-27  2.4835e-23  1.2866e-26  3.9827e-23  2.2304e-26  6.6606e-23  3.9091e-26  1.1460e-22  6.8966e-26  2.0115e-22  1.2216e-25  3.5883e-22  2.1700e-25  6.5119e-22  3.8637e-25  1.2089e-21  6.8985e-25  2.3202e-21
      6.40  6.8754e-28  5.8353e-24  7.0165e-28  5.8733e-24  7.2685e-28  5.9410e-24  7.7167e-28  6.0612e-24  8.5161e-28  6.2751e-24  9.9551e-28  6.6554e-24  1.2397e-27  7.3316e-24  1.6737e-27  8.5343e-24  2.4492e-27  1.0674e-23  3.8345e-27  1.4481e-23  6.3001e-27  2.1260e-23  1.0682e-26  3.3346e-23  1.8471e-26  5.4937e-23  3.2327e-26  9.3642e-23  5.6992e-26  1.6346e-22  1.0092e-25  2.9073e-22  1.7927e-25  5.2693e-22  3.1929e-25  9.7915e-22  5.7049e-25  1.8813e-21
      6.45  6.6593e-28  5.9896e-24  6.7752e-28  6.0208e-24  6.9798e-28  6.0762e-24  7.3441e-28  6.1748e-24  7.9884e-28  6.3500e-24  9.1404e-28  6.6617e-24  1.1152e-27  7.2159e-24  1.4689e-27  8.2016e-24  2.1017e-27  9.9548e-24  3.2332e-27  1.3075e-23  5.2531e-27  1.8669e-23  8.8498e-27  2.8604e-23  1.5249e-26  4.6354e-23  2.6641e-26  7.8179e-23  4.6921e-26  1.3560e-22  8.3056e-26  2.4034e-22  1.4755e-25  4.3627e-22  2.6292e-25  8.0967e-22  4.7030e-25  1.5583e-21
      6.50  6.4731e-28  6.1616e-24  6.5689e-28  6.1873e-24  6.7354e-28  6.2330e-24  7.0321e-28  6.3144e-24  7.5559e-28  6.4591e-24  8.4886e-28  6.7164e-24  1.0119e-27  7.1739e-24  1.3012e-27  7.9876e-24  1.8179e-27  9.4349e-24  2.7425e-27  1.2010e-23  4.3962e-27  1.6596e-23  7.3489e-27  2.4772e-23  1.2610e-26  3.9380e-23  2.1978e-26  6.5575e-23  3.8663e-26  1.1285e-22  6.8403e-26  1.9912e-22  1.2150e-25  3.5952e-22  2.1656e-25  6.6873e-22  3.8763e-25  1.2864e-21
      6.55  6.3141e-28  6.3803e-24  6.3938e-28  6.4017e-24  6.5311e-28  6.4398e-24  6.7755e-28  6.5074e-24  7.2099e-28  6.6276e-24  7.9807e-28  6.8414e-24  9.3304e-28  7.2216e-24  1.1724e-27  7.8979e-24  1.6015e-27  9.1007e-24  2.3703e-27  1.1241e-23  3.7478e-27  1.5052e-23  6.2120e-27  2.1847e-23  1.0611e-26  3.3988e-23  1.8453e-26  5.5762e-23  3.2425e-26  9.5067e-23  5.7340e-26  1.6682e-22  1.0185e-25  3.0026e-22  1.8161e-25  5.5736e-22  3.2534e-25  1.0725e-21
      6.60  6.1780e-28  6.6176e-24  6.2448e-28  6.6358e-24  6.3606e-28  6.6682e-24  6.5655e-28  6.7256e-24  6.9313e-28  6.8279e-24  7.5826e-28  7.0096e-24  8.7222e-28  7.3329e-24  1.0743e-27  7.9079e-24  1.4375e-27  8.9306e-24  2.0903e-27  1.0751e-23  3.2620e-27  1.3991e-23  5.3619e-27  1.9770e-23  9.1172e-27  3.0094e-23  1.5821e-26  4.8613e-23  2.7778e-26  8.2045e-23  4.9112e-26  1.4309e-22  8.7248e-26  2.5672e-22  1.5566e-25  4.7471e-22  2.7919e-25  9.1479e-22
      6.65  6.0604e-28  6.8724e-24  6.1170e-28  6.8882e-24  6.2161e-28  6.9164e-24  6.3907e-28  6.9665e-24  6.7028e-28  7.0556e-24  7.2616e-28  7.2140e-24  8.2399e-28  7.4958e-24  9.9776e-28  7.9969e-24  1.3111e-27  8.8882e-24  1.8758e-27  1.0475e-23  2.8916e-27  1.3299e-23  4.7157e-27  1.8336e-23  7.9841e-27  2.7335e-23  1.3829e-26  4.3477e-23  2.4266e-26  7.2624e-23  4.2906e-26  1.2590e-22  7.6260e-26  2.2522e-22  1.3619e-25  4.1657e-22  2.4467e-25  8.0170e-22
      6.70  5.9582e-28  7.1437e-24  6.0062e-28  7.1579e-24  6.0914e-28  7.1830e-24  6.2421e-28  7.2278e-24  6.5112e-28  7.3074e-24  6.9984e-28  7.4489e-24  7.8608e-28  7.7006e-24  9.3948e-28  8.1483e-24  1.2175e-27  8.9447e-24  1.7204e-27  1.0362e-23  2.6275e-27  1.2886e-23  4.2602e-27  1.7386e-23  7.1923e-27  2.5427e-23  1.2445e-26  3.9851e-23  2.1840e-26  6.5897e-23  3.8647e-26  1.1350e-22  6.8781e-26  2.0239e-22  1.2309e-25  3.7390e-22  2.2192e-25  7.1785e-22
      6.75  5.8688e-28  7.4308e-24  5.9097e-28  7.4437e-24  5.9834e-28  7.4666e-24  6.1141e-28  7.5074e-24  6.3499e-28  7.5800e-24  6.7805e-28  7.7090e-24  7.5437e-28  7.9384e-24  8.9131e-28  8.3465e-24  1.1408e-27  9.0723e-24  1.5936e-27  1.0364e-23  2.4117e-27  1.2664e-23  3.8883e-27  1.6766e-23  6.5451e-27  2.4095e-23  1.1314e-26  3.7269e-23  1.9861e-26  6.1136e-23  3.5178e-26  1.0463e-22  6.2706e-26  1.8564e-22  1.1250e-25  3.4142e-22  2.0367e-25  6.5635e-22
      6.80  5.7905e-28  7.7729e-24  5.8256e-28  7.7849e-24  5.8895e-28  7.8063e-24  6.0035e-28  7.8442e-24  6.2103e-28  7.9116e-24  6.5876e-28  8.0315e-24  7.2705e-28  8.2447e-24  8.4927e-28  8.6240e-24  1.0732e-27  9.2986e-24  1.4801e-27  1.0499e-23  2.2167e-27  1.2637e-23  3.5492e-27  1.6449e-23  5.9522e-27  2.3262e-23  1.0274e-26  3.5507e-23  1.8033e-26  5.7734e-23  3.1966e-26  9.8272e-23  5.7060e-26  1.7377e-22  1.0259e-25  3.1883e-22  1.8636e-25  6.1227e-22
      6.85  5.7218e-28  8.1345e-24  5.7522e-28  8.1459e-24  5.8073e-28  8.1661e-24  5.9075e-28  8.2020e-24  6.0884e-28  8.2659e-24  6.4251e-28  8.3796e-24  7.0485e-28  8.5816e-24  8.1630e-28  8.9410e-24  1.0224e-27  9.5802e-24  1.3969e-27  1.0718e-23  2.0783e-27  1.2744e-23  3.3137e-27  1.6356e-23  5.5477e-27  2.2819e-23  9.5732e-27  3.4406e-23  1.6814e-26  5.5334e-23  2.9844e-26  9.3576e-23  5.3383e-26  1.6516e-22  9.6290e-26  3.0355e-22  1.7579e-25  5.8338e-22
      6.90  5.6614e-28  8.5154e-24  5.6880e-28  8.5264e-24  5.7360e-28  8.5459e-24  5.8234e-28  8.5807e-24  5.9848e-28  8.6425e-24  6.2903e-28  8.7525e-24  6.8651e-28  8.9480e-24  7.9013e-28  9.2957e-24  9.8366e-28  9.9143e-24  1.3360e-27  1.1015e-23  1.9823e-27  1.2976e-23  3.1619e-27  1.6471e-23  5.3003e-27  2.2718e-23  9.1602e-27  3.3947e-23  1.6114e-26  5.4209e-23  2.8662e-26  9.1404e-23  5.1409e-26  1.6057e-22  9.3099e-26  2.9375e-22  1.7107e-25  5.6817e-22
      6.95  5.6081e-28  8.9151e-24  5.6315e-28  8.9258e-24  5.6737e-28  8.9449e-24  5.7509e-28  8.9789e-24  5.8949e-28  9.0394e-24  6.1684e-28  9.1468e-24  6.6930e-28  9.3380e-24  7.6382e-28  9.6779e-24  9.3937e-28  1.0283e-23  1.2606e-27  1.1359e-23  1.8568e-27  1.3275e-23  2.9502e-27  1.6693e-23  4.9369e-27  2.2821e-23  8.5291e-27  3.3796e-23  1.5012e-26  5.3624e-23  2.6728e-26  8.9864e-23  4.8021e-26  1.5788e-22  8.7195e-26  2.9020e-22  1.6084e-25  5.5772e-22
      7.00  5.5609e-28  9.3334e-24  5.5814e-28  9.3440e-24  5.6188e-28  9.3628e-24  5.6872e-28  9.3962e-24  5.8146e-28  9.4556e-24  6.0589e-28  9.5613e-24  6.5413e-28  9.7492e-24  7.4025e-28  1.0083e-23  8.9783e-28  1.0678e-23  1.1925e-27  1.1736e-23  1.7432e-27  1.3621e-23  2.7580e-27  1.6981e-23  4.6097e-27  2.2986e-23  7.9694e-27  3.3761e-23  1.4047e-26  5.3298e-23  2.5050e-26  8.9053e-23  4.5099e-26  1.5583e-22  8.2120e-26  2.8599e-22  1.5220e-25  5.5718e-22
      7.05  5.5189e-28  9.8208e-24  5.5370e-28  9.8311e-24  5.5699e-28  9.8494e-24  5.6300e-28  9.8820e-24  5.7425e-28  9.9400e-24  5.9595e-28  1.0043e-23  6.3951e-28  1.0227e-23  7.1831e-28  1.0553e-23  8.6276e-28  1.1133e-23  1.1342e-27  1.2166e-23  1.6462e-27  1.4005e-23  2.5988e-27  1.7284e-23  4.3553e-27  2.3187e-23  7.5581e-27  3.3741e-23  1.3371e-26  5.2803e-23  2.3923e-26  8.7748e-23  4.3211e-26  1.5314e-22  7.8980e-26  2.7925e-22  1.4715e-25  5.4534e-22
      7.10  5.4815e-28  1.0332e-23  5.4973e-28  1.0342e-23  5.5259e-28  1.0359e-23  5.5783e-28  1.0390e-23  5.6767e-28  1.0445e-23  5.8679e-28  1.0543e-23  6.2548e-28  1.0717e-23  6.9791e-28  1.1026e-23  8.3113e-28  1.1576e-23  1.0803e-27  1.2554e-23  1.5533e-27  1.4296e-23  2.4547e-27  1.7405e-23  4.1372e-27  2.2957e-23  7.2301e-27  3.2921e-23  1.2869e-26  5.0922e-23  2.3143e-26  8.3887e-23  4.1989e-26  1.4538e-22  7.7138e-26  2.6701e-22  1.4461e-25  5.1654e-22
      7.15  5.4481e-28  1.0868e-23  5.4616e-28  1.0877e-23  5.4861e-28  1.0893e-23  5.5312e-28  1.0921e-23  5.6162e-28  1.0971e-23  5.7804e-28  1.1060e-23  6.1092e-28  1.1219e-23  6.7446e-28  1.1501e-23  7.8775e-28  1.2003e-23  9.9877e-28  1.2896e-23  1.4077e-27  1.4485e-23  2.1967e-27  1.7318e-23  3.6918e-27  2.2381e-23  6.4708e-27  3.1465e-23  1.1574e-26  4.7879e-23  2.0914e-26  7.7946e-23  3.8112e-26  1.3498e-22  7.0277e-26  2.4564e-22  1.3226e-25  4.6906e-22
      7.20  5.4182e-28  1.1429e-23  5.4295e-28  1.1437e-23  5.4501e-28  1.1451e-23  5.4881e-28  1.1476e-23  5.5592e-28  1.1520e-23  5.6961e-28  1.1599e-23  5.9670e-28  1.1740e-23  6.4961e-28  1.1990e-23  7.4052e-28  1.2435e-23  9.1555e-28  1.3227e-23  1.2563e-27  1.4637e-23  1.9221e-27  1.7150e-23  3.2073e-27  2.1640e-23  5.6350e-27  2.9748e-23  1.0143e-26  4.4393e-23  1.8454e-26  7.1140e-23  3.3826e-26  1.2158e-22  6.2698e-26  2.1854e-22  1.1865e-25  4.1938e-22
      7.25  5.3915e-28  1.2014e-23  5.4008e-28  1.2021e-23  5.4177e-28  1.2033e-23  5.4489e-28  1.2055e-23  5.5071e-28  1.2094e-23  5.6183e-28  1.2164e-23  5.8349e-28  1.2287e-23  6.2501e-28  1.2506e-23  6.9777e-28  1.2895e-23  8.3656e-28  1.3588e-23  1.1083e-27  1.4822e-23  1.6488e-27  1.7020e-23  2.7107e-27  2.0948e-23  4.7572e-27  2.7994e-23  8.6150e-27  4.0733e-23  1.5799e-26  6.4018e-23  2.9173e-26  1.0758e-22  5.4421e-26  1.9226e-22  1.0358e-25  3.6834e-22
      7.30  5.3678e-28  1.2689e-23  5.3754e-28  1.2695e-23  5.3891e-28  1.2706e-23  5.4143e-28  1.2725e-23  5.4613e-28  1.2759e-23  5.5502e-28  1.2819e-23  5.7214e-28  1.2926e-23  6.0451e-28  1.3117e-23  6.6289e-28  1.3455e-23  7.7235e-28  1.4058e-23  9.8452e-28  1.5131e-23  1.4155e-27  1.7044e-23  2.2845e-27  2.0461e-23  4.0000e-27  2.6589e-23  7.3022e-27  3.7660e-23  1.3545e-26  5.8131e-23  2.5278e-26  9.6127e-23  4.7611e-26  1.7091e-22  9.1276e-26  3.2266e-22
      7.35  5.3470e-28  1.3398e-23  5.3531e-28  1.3404e-23  5.3643e-28  1.3413e-23  5.3847e-28  1.3430e-23  5.4227e-28  1.3460e-23  5.4937e-28  1.3513e-23  5.6298e-28  1.3608e-23  5.8906e-28  1.3777e-23  6.3667e-28  1.4077e-23  7.2421e-28  1.4610e-23  8.9392e-28  1.5561e-23  1.2443e-27  1.7255e-23  1.9690e-27  2.0280e-23  3.4379e-27  2.5707e-23  6.3244e-27  3.5511e-23  1.1870e-26  5.3433e-23  2.2446e-26  8.7815e-23  4.2677e-26  1.5329e-22  8.2546e-26  2.8696e-22
      7.40  5.3286e-28  1.4141e-23  5.3337e-28  1.4146e-23  5.3428e-28  1.4155e-23  5.3596e-28  1.4170e-23  5.3906e-28  1.4197e-23  5.4484e-28  1.4245e-23  5.5584e-28  1.4330e-23  5.7730e-28  1.4481e-23  6.1777e-28  1.4750e-23  6.8943e-28  1.5229e-23  8.3060e-28  1.6082e-23  1.1234e-27  1.7602e-23  1.7393e-27  2.0318e-23  3.0178e-27  2.5188e-23  5.5903e-27  3.3985e-23  1.0619e-26  5.0066e-23  2.0333e-26  8.1018e-23  3.9072e-26  1.3982e-22  7.6267e-26  2.5931e-22
      7.45  5.3125e-28  1.4920e-23  5.3167e-28  1.4924e-23  5.3244e-28  1.4932e-23  5.3383e-28  1.4946e-23  5.3642e-28  1.4970e-23  5.4122e-28  1.5014e-23  5.5034e-28  1.5092e-23  5.6817e-28  1.5231e-23  6.0159e-28  1.5477e-23  6.6002e-28  1.5916e-23  7.7410e-28  1.6697e-23  1.0114e-27  1.8091e-23  1.5152e-27  2.0579e-23  2.5811e-27  2.5044e-23  4.7759e-27  3.3106e-23  9.1714e-27  4.8346e-23  1.7737e-26  7.6304e-23  3.4450e-26  1.3012e-22  6.7841e-26  2.3934e-22
      7.50  5.2982e-28  1.5734e-23  5.3018e-28  1.5738e-23  5.3084e-28  1.5745e-23  5.3203e-28  1.5758e-23  5.3424e-28  1.5781e-23  5.3832e-28  1.5822e-23  5.4610e-28  1.5895e-23  5.6126e-28  1.6025e-23  5.8978e-28  1.6255e-23  6.3936e-28  1.6666e-23  7.3476e-28  1.7397e-23  9.3317e-28  1.8701e-23  1.3570e-27  2.1031e-23  2.2721e-27  2.5354e-23  4.1933e-27  3.3017e-23  8.1093e-27  4.7023e-23  1.5883e-26  7.3175e-23  3.1218e-26  1.2352e-22  6.2082e-26  2.2551e-22
      7.55  5.2856e-28  1.6665e-23  5.2888e-28  1.6669e-23  5.2945e-28  1.6676e-23  5.3049e-28  1.6688e-23  5.3241e-28  1.6710e-23  5.3598e-28  1.6749e-23  5.4279e-28  1.6819e-23  5.5610e-28  1.6943e-23  5.8061e-28  1.7163e-23  6.2415e-28  1.7556e-23  7.0642e-28  1.8255e-23  8.7646e-28  1.9502e-23  1.2403e-27  2.1730e-23  2.0348e-27  2.5857e-23  3.7379e-27  3.3181e-23  7.2918e-27  4.6566e-23  1.4489e-26  7.1545e-23  2.8889e-26  1.1962e-22  5.8142e-26  2.1693e-22
      7.60  5.2745e-28  1.7643e-23  5.2773e-28  1.7647e-23  5.2823e-28  1.7654e-23  5.2915e-28  1.7666e-23  5.3086e-28  1.7687e-23  5.3405e-28  1.7726e-23  5.4016e-28  1.7794e-23  5.5213e-28  1.7914e-23  5.7346e-28  1.8129e-23  6.1207e-28  1.8512e-23  6.8362e-28  1.9193e-23  8.2894e-28  2.0408e-23  1.1364e-27  2.2579e-23  1.8064e-27  2.6589e-23  3.2570e-27  3.3717e-23  6.3352e-27  4.6745e-23  1.2677e-26  7.1037e-23  2.5532e-26  1.1782e-22  5.1866e-26  2.1242e-22
      7.65  5.2646e-28  1.8671e-23  5.2671e-28  1.8675e-23  5.2716e-28  1.8681e-23  5.2799e-28  1.8693e-23  5.2953e-28  1.8715e-23  5.3242e-28  1.8752e-23  5.3798e-28  1.8820e-23  5.4892e-28  1.8939e-23  5.6776e-28  1.9152e-23  6.0236e-28  1.9530e-23  6.6554e-28  2.0205e-23  7.9186e-28  2.1407e-23  1.0548e-27  2.3556e-23  1.6210e-27  2.7411e-23  2.8586e-27  3.4557e-23  5.5153e-27  4.7434e-23  1.1080e-26  7.1443e-23  2.2517e-26  1.1767e-22  4.6167e-26  2.1110e-22
      7.70  5.2558e-28  1.9748e-23  5.2581e-28  1.9752e-23  5.2622e-28  1.9759e-23  5.2697e-28  1.9771e-23  5.2836e-28  1.9792e-23  5.3101e-28  1.9830e-23  5.3612e-28  1.9897e-23  5.4622e-28  2.0017e-23  5.6300e-28  2.0230e-23  5.9397e-28  2.0610e-23  6.5073e-28  2.1285e-23  7.6163e-28  2.2490e-23  9.8856e-28  2.4643e-23  1.4715e-27  2.8507e-23  2.5221e-27  3.5487e-23  4.8073e-27  4.8525e-23  9.6594e-27  7.2545e-23  1.9779e-26  1.1879e-22  4.0924e-26  2.1220e-22
      7.75  5.2480e-28  2.0877e-23  5.2501e-28  2.0881e-23  5.2538e-28  2.0888e-23  5.2606e-28  2.0900e-23  5.2733e-28  2.0921e-23  5.2976e-28  2.0960e-23  5.3449e-28  2.1028e-23  5.4368e-28  2.1149e-23  5.5894e-28  2.1364e-23  5.8688e-28  2.1748e-23  6.3832e-28  2.2430e-23  7.3654e-28  2.3648e-23  9.3415e-28  2.5824e-23  1.3485e-27  2.9729e-23  2.2435e-27  3.6783e-23  4.1945e-27  4.9678e-23  8.4015e-27  7.4146e-23  1.7296e-26  1.2079e-22  3.6099e-26  2.1501e-22
      7.80  5.2410e-28  2.2162e-23  5.2429e-28  2.2166e-23  5.2463e-28  2.2173e-23  5.2525e-28  2.2185e-23  5.2642e-28  2.2207e-23  5.2866e-28  2.2246e-23  5.3302e-28  2.2315e-23  5.4140e-28  2.2439e-23  5.5532e-28  2.2658e-23  5.8065e-28  2.3048e-23  6.2722e-28  2.3743e-23  7.1490e-28  2.4982e-23  8.8814e-28  2.7196e-23  1.2454e-27  3.1169e-23  2.0093e-27  3.8347e-23  3.6745e-27  5.1469e-23  7.2949e-27  7.5933e-23  1.5074e-26  1.2367e-22  3.1722e-26  2.1934e-22
      7.85  5.2348e-28  2.3516e-23  5.2365e-28  2.3520e-23  5.2396e-28  2.3527e-23  5.2453e-28  2.3539e-23  5.2559e-28  2.3562e-23  5.2764e-28  2.3601e-23  5.3166e-28  2.3672e-23  5.3928e-28  2.3797e-23  5.5197e-28  2.4021e-23  5.7495e-28  2.4418e-23  6.1704e-28  2.5126e-23  6.9548e-28  2.6389e-23  8.4756e-28  2.8645e-23  1.1573e-27  3.2694e-23  1.8104e-27  4.0009e-23  3.2290e-27  5.3381e-23  6.3350e-27  7.8312e-23  1.3098e-26  1.2680e-22  2.7777e-26  2.2414e-22
      7.90  5.2292e-28  2.4940e-23  5.2307e-28  2.4944e-23  5.2335e-28  2.4952e-23  5.2387e-28  2.4964e-23  5.2484e-28  2.4987e-23  5.2670e-28  2.5027e-23  5.3036e-28  2.5099e-23  5.3716e-28  2.5227e-23  5.4856e-28  2.5454e-23  5.6912e-28  2.5859e-23  6.0666e-28  2.6579e-23  6.7596e-28  2.7863e-23  8.0841e-28  3.0159e-23  1.0723e-27  3.4281e-23  1.6207e-27  4.1726e-23  2.8083e-27  5.5334e-23  5.4106e-27  8.0703e-23  1.1138e-26  1.2952e-22  2.3760e-26  2.2884e-22
      7.95  5.2242e-28  2.6439e-23  5.2256e-28  2.6443e-23  5.2281e-28  2.6450e-23  5.2327e-28  2.6463e-23  5.2414e-28  2.6486e-23  5.2582e-28  2.6527e-23  5.2912e-28  2.6599e-23  5.3512e-28  2.6729e-23  5.4526e-28  2.6959e-23  5.6348e-28  2.7369e-23  5.9658e-28  2.8099e-23  6.5741e-28  2.9400e-23  7.7226e-28  3.1727e-23  9.9731e-28  3.5901e-23  1.4572e-27  4.3442e-23  2.4357e-27  5.7233e-23  4.5778e-27  8.2937e-23  9.3236e-27  1.3240e-22  1.9900e-26  2.3279e-22
      8.00  5.2197e-28  2.8013e-23  5.2209e-28  2.8017e-23  5.2232e-28  2.8024e-23  5.2273e-28  2.8037e-23  5.2351e-28  2.8060e-23  5.2499e-28  2.8102e-23  5.2793e-28  2.8175e-23  5.3318e-28  2.8306e-23  5.4212e-28  2.8538e-23  5.5812e-28  2.8951e-23  5.8707e-28  2.9687e-23  6.4008e-28  3.0999e-23  7.3893e-28  3.3344e-23  9.2932e-28  3.7552e-23  1.3131e-27  4.5154e-23  2.1167e-27  5.9050e-23  3.8624e-27  8.4954e-23  7.7363e-27  1.3481e-22  1.6439e-26  2.3582e-22
      8.05  5.2156e-28  2.9799e-23  5.2167e-28  2.9803e-23  5.2187e-28  2.9810e-23  5.2224e-28  2.9823e-23  5.2292e-28  2.9847e-23  5.2423e-28  2.9888e-23  5.2680e-28  2.9962e-23  5.3136e-28  3.0093e-23  5.3917e-28  3.0327e-23  5.5310e-28  3.0742e-23  5.7821e-28  3.1482e-23  6.2400e-28  3.2801e-23  7.0874e-28  3.5159e-23  8.7023e-28  3.9389e-23  1.1897e-27  4.7031e-23  1.8492e-27  6.1000e-23  3.2679e-27  8.7038e-23  6.4111e-27  1.3714e-22  1.3509e-26  2.3820e-22
      8.10  5.2120e-28  3.1687e-23  5.2129e-28  3.1691e-23  5.2147e-28  3.1698e-23  5.2179e-28  3.1711e-23  5.2239e-28  3.1735e-23  5.2352e-28  3.1776e-23  5.2574e-28  3.1850e-23  5.2969e-28  3.1981e-23  5.3646e-28  3.2215e-23  5.4849e-28  3.2631e-23  5.7011e-28  3.3371e-23  6.0937e-28  3.4691e-23  6.8156e-28  3.7051e-23  8.1784e-28  4.1285e-23  1.0835e-27  4.8933e-23  1.6240e-27  6.2911e-23  2.7728e-27  8.8965e-23  5.3051e-27  1.3908e-22  1.1035e-26  2.4017e-22
      8.15  5.2086e-28  3.3680e-23  5.2095e-28  3.3685e-23  5.2110e-28  3.3692e-23  5.2138e-28  3.3705e-23  5.2190e-28  3.3728e-23  5.2288e-28  3.3770e-23  5.2479e-28  3.3843e-23  5.2818e-28  3.3975e-23  5.3401e-28  3.4208e-23  5.4435e-28  3.4623e-23  5.6287e-28  3.5362e-23  5.9635e-28  3.6679e-23  6.5767e-28  3.9033e-23  7.7213e-28  4.3257e-23  9.9246e-28  5.0887e-23  1.4322e-27  6.4832e-23  2.3538e-27  9.0821e-23  4.3772e-27  1.4080e-22  8.9370e-27  2.4159e-22
      8.20  5.2056e-28  3.5785e-23  5.2063e-28  3.5789e-23  5.2077e-28  3.5797e-23  5.2101e-28  3.5810e-23  5.2146e-28  3.5833e-23  5.2230e-28  3.5874e-23  5.2392e-28  3.5948e-23  5.2685e-28  3.6079e-23  5.3186e-28  3.6311e-23  5.4071e-28  3.6725e-23  5.5652e-28  3.7460e-23  5.8501e-28  3.8772e-23  6.3696e-28  4.1117e-23  7.3314e-28  4.5325e-23  9.1623e-28  5.2924e-23  1.2789e-27  6.6813e-23  2.0239e-27  9.2692e-23  3.6445e-27  1.4245e-22  7.2812e-27  2.4276e-22
      8.25  5.2028e-28  3.8007e-23  5.2035e-28  3.8011e-23  5.2046e-28  3.8018e-23  5.2067e-28  3.8031e-23  5.2106e-28  3.8054e-23  5.2178e-28  3.8095e-23  5.2316e-28  3.8168e-23  5.2568e-28  3.8299e-23  5.2999e-28  3.8531e-23  5.3756e-28  3.8943e-23  5.5104e-28  3.9676e-23  5.7529e-28  4.0982e-23  6.1933e-28  4.3318e-23  7.0052e-28  4.7507e-23  8.5371e-28  5.5076e-23  1.1528e-27  6.8905e-23  1.7627e-27  9.4670e-23  3.0662e-27  1.4420e-22  5.9786e-27  2.4401e-22
      8.30  5.2002e-28  4.0524e-23  5.2008e-28  4.0528e-23  5.2018e-28  4.0535e-23  5.2036e-28  4.0548e-23  5.2070e-28  4.0571e-23  5.2131e-28  4.0612e-23  5.2249e-28  4.0685e-23  5.2467e-28  4.0816e-23  5.2838e-28  4.1048e-23  5.3486e-28  4.1460e-23  5.4639e-28  4.2193e-23  5.6706e-28  4.3501e-23  6.0447e-28  4.5837e-23  6.7312e-28  5.0028e-23  8.0173e-28  5.7598e-23  1.0503e-27  7.1430e-23  1.5491e-27  9.7197e-23  2.6038e-27  1.4672e-22  4.9542e-27  2.4647e-22
      8.35  5.1979e-28  4.3196e-23  5.1983e-28  4.3200e-23  5.1992e-28  4.3207e-23  5.2008e-28  4.3220e-23  5.2036e-28  4.3243e-23  5.2089e-28  4.3284e-23  5.2189e-28  4.3358e-23  5.2379e-28  4.3489e-23  5.2699e-28  4.3722e-23  5.3255e-28  4.4136e-23  5.4239e-28  4.4871e-23  5.6002e-28  4.6182e-23  5.9184e-28  4.8525e-23  6.4998e-28  5.2728e-23  7.5825e-28  6.0320e-23  9.6565e-28  7.4189e-23  1.3788e-27  1.0002e-22  2.2422e-27  1.4965e-22  4.1283e-27  2.4960e-22
      8.40  5.1956e-28  4.6032e-23  5.1960e-28  4.6036e-23  5.1968e-28  4.6044e-23  5.1981e-28  4.6057e-23  5.2006e-28  4.6080e-23  5.2052e-28  4.6122e-23  5.2136e-28  4.6195e-23  5.2303e-28  4.6328e-23  5.2581e-28  4.6563e-23  5.3058e-28  4.6979e-23  5.3902e-28  4.7719e-23  5.5408e-28  4.9038e-23  5.8122e-28  5.1395e-23  6.3063e-28  5.5624e-23  7.2217e-28  6.3260e-23  8.9614e-28  7.7211e-23  1.2392e-27  1.0319e-22  1.9481e-27  1.5309e-22  3.4907e-27  2.5355e-22
      8.45  5.1935e-28  4.9044e-23  5.1938e-28  4.9048e-23  5.1945e-28  4.9056e-23  5.1957e-28  4.9069e-23  5.1978e-28  4.9092e-23  5.2017e-28  4.9134e-23  5.2090e-28  4.9209e-23  5.2238e-28  4.9343e-23  5.2481e-28  4.9580e-23  5.2895e-28  5.0001e-23  5.3622e-28  5.0748e-23  5.4918e-28  5.2080e-23  5.7248e-28  5.4459e-23  6.1478e-28  5.8728e-23  6.9275e-28  6.6436e-23  8.3991e-28  8.0516e-23  1.1265e-27  1.0673e-22  1.7146e-27  1.5708e-22  2.9790e-27  2.5839e-22
      8.50  5.1914e-28  5.2242e-23  5.1917e-28  5.2246e-23  5.1923e-28  5.2254e-23  5.1933e-28  5.2267e-23  5.1952e-28  5.2291e-23  5.1986e-28  5.2334e-23  5.2048e-28  5.2409e-23  5.2182e-28  5.2546e-23  5.2397e-28  5.2787e-23  5.2758e-28  5.3213e-23  5.3389e-28  5.3970e-23  5.4511e-28  5.5319e-23  5.6525e-28  5.7729e-23  6.0170e-28  6.2053e-23  6.6861e-28  6.9861e-23  7.9407e-28  8.4122e-23  1.0369e-27  1.1067e-22  1.5276e-27  1.6164e-22  2.5720e-27  2.6417e-22
