# This was generated using Cloudy10 and the columns are ordered 
# as log10 of the fraction of the metallicity to the solar metallicity
# 'h_*_Z' and 'c_*_Z' stands for cooling and heating respectively 
# at * metalicity
#
# NOTE: This was generated separately from loop_coolingcurve_w_UV.py
#       using Output_metals_w_redshift.py.
#
# Redshift = 0.0
# hden = 0.0
#
#     temp   h_-3.00_Z   c_-3.00_Z   h_-2.75_Z   c_-2.75_Z   h_-2.50_Z   c_-2.50_Z   h_-2.25_Z   c_-2.25_Z   h_-2.00_Z   c_-2.00_Z   h_-1.75_Z   c_-1.75_Z   h_-1.50_Z   c_-1.50_Z   h_-1.25_Z   c_-1.25_Z   h_-1.00_Z   c_-1.00_Z   h_-0.75_Z   c_-0.75_Z   h_-0.50_Z   c_-0.50_Z   h_-0.25_Z   c_-0.25_Z    h_0.00_Z    c_0.00_Z    h_0.25_Z    c_0.25_Z    h_0.50_Z    c_0.50_Z    h_0.75_Z    c_0.75_Z    h_1.00_Z    c_1.00_Z    h_1.25_Z    c_1.25_Z    h_1.50_Z    c_1.50_Z 
      4.00  3.3307e-25  1.1461e-24  3.3307e-25  1.1487e-24  3.3307e-25  1.1535e-24  3.3308e-25  1.1620e-24  3.3309e-25  1.1771e-24  3.3311e-25  1.2040e-24  3.3314e-25  1.2518e-24  3.3320e-25  1.3368e-24  3.3330e-25  1.4880e-24  3.3348e-25  1.7569e-24  3.3380e-25  2.2351e-24  3.3436e-25  3.0857e-24  3.3535e-25  4.5991e-24  3.3712e-25  7.2926e-24  3.4028e-25  1.2089e-23  3.4591e-25  2.0640e-23  3.5596e-25  3.5905e-23  3.7400e-25  6.3198e-23  4.0648e-25  1.1208e-22
      4.05  3.2598e-25  3.9556e-24  3.2598e-25  3.9592e-24  3.2599e-25  3.9656e-24  3.2599e-25  3.9769e-24  3.2600e-25  3.9971e-24  3.2602e-25  4.0329e-24  3.2606e-25  4.0967e-24  3.2612e-25  4.2100e-24  3.2622e-25  4.4115e-24  3.2641e-25  4.7699e-24  3.2674e-25  5.4072e-24  3.2733e-25  6.5407e-24  3.2837e-25  8.5567e-24  3.3023e-25  1.2143e-23  3.3355e-25  1.8526e-23  3.3946e-25  2.9889e-23  3.5001e-25  5.0132e-23  3.6894e-25  8.6195e-23  4.0306e-25  1.5035e-22
      4.10  3.1418e-25  1.2436e-23  3.1418e-25  1.2441e-23  3.1418e-25  1.2450e-23  3.1419e-25  1.2465e-23  3.1420e-25  1.2492e-23  3.1422e-25  1.2541e-23  3.1425e-25  1.2628e-23  3.1431e-25  1.2782e-23  3.1442e-25  1.3056e-23  3.1461e-25  1.3543e-23  3.1495e-25  1.4409e-23  3.1555e-25  1.5948e-23  3.1662e-25  1.8686e-23  3.1853e-25  2.3555e-23  3.2192e-25  3.2214e-23  3.2798e-25  4.7615e-23  3.3880e-25  7.5002e-23  3.5822e-25  1.2363e-22  3.9316e-25  2.0975e-22
      4.15  2.8448e-25  3.5205e-23  2.8448e-25  3.5212e-23  2.8448e-25  3.5224e-23  2.8449e-25  3.5246e-23  2.8450e-25  3.5286e-23  2.8452e-25  3.5356e-23  2.8455e-25  3.5480e-23  2.8461e-25  3.5702e-23  2.8471e-25  3.6095e-23  2.8490e-25  3.6795e-23  2.8522e-25  3.8039e-23  2.8581e-25  4.0252e-23  2.8684e-25  4.4185e-23  2.8869e-25  5.1180e-23  2.9199e-25  6.3619e-23  2.9787e-25  8.5741e-23  3.0837e-25  1.2507e-22  3.2723e-25  1.9491e-22  3.6119e-25  3.1866e-22
      4.20  2.1082e-25  8.2639e-23  2.1082e-25  8.2650e-23  2.1083e-25  8.2669e-23  2.1083e-25  8.2704e-23  2.1084e-25  8.2766e-23  2.1086e-25  8.2876e-23  2.1088e-25  8.3072e-23  2.1093e-25  8.3420e-23  2.1102e-25  8.4039e-23  2.1117e-25  8.5139e-23  2.1144e-25  8.7096e-23  2.1192e-25  9.0576e-23  2.1278e-25  9.6768e-23  2.1430e-25  1.0778e-22  2.1702e-25  1.2740e-22  2.2186e-25  1.6233e-22  2.3051e-25  2.2464e-22  2.4601e-25  3.3601e-22  2.7398e-25  5.3561e-22
      4.25  1.1439e-25  1.2271e-22  1.1439e-25  1.2273e-22  1.1440e-25  1.2275e-22  1.1440e-25  1.2280e-22  1.1440e-25  1.2289e-22  1.1441e-25  1.2305e-22  1.1443e-25  1.2333e-22  1.1445e-25  1.2382e-22  1.1450e-25  1.2470e-22  1.1457e-25  1.2626e-22  1.1472e-25  1.2905e-22  1.1497e-25  1.3400e-22  1.1542e-25  1.4281e-22  1.1622e-25  1.5850e-22  1.1765e-25  1.8644e-22  1.2019e-25  2.3631e-22  1.2473e-25  3.2552e-22  1.3285e-25  4.8585e-22  1.4745e-25  7.7646e-22
      4.30  5.6420e-26  1.1803e-22  5.6420e-26  1.1804e-22  5.6420e-26  1.1808e-22  5.6419e-26  1.1814e-22  5.6419e-26  1.1824e-22  5.6418e-26  1.1843e-22  5.6416e-26  1.1876e-22  5.6414e-26  1.1936e-22  5.6409e-26  1.2041e-22  5.6400e-26  1.2229e-22  5.6384e-26  1.2562e-22  5.6356e-26  1.3156e-22  5.6644e-26  1.4212e-22  5.7158e-26  1.6092e-22  5.8073e-26  1.9443e-22  5.9706e-26  2.5425e-22  6.2623e-26  3.6135e-22  6.7841e-26  5.5411e-22  7.7227e-26  9.0423e-22
      4.35  3.2256e-26  9.5055e-23  3.2255e-26  9.5077e-23  3.2254e-26  9.5117e-23  3.2250e-26  9.5188e-23  3.2245e-26  9.5314e-23  3.2234e-26  9.5537e-23  3.2216e-26  9.5935e-23  3.2184e-26  9.6643e-23  3.2127e-26  9.7901e-23  3.2078e-26  1.0014e-22  3.2148e-26  1.0412e-22  3.2271e-26  1.1120e-22  3.2492e-26  1.2380e-22  3.2886e-26  1.4624e-22  3.3591e-26  1.8623e-22  3.4858e-26  2.5762e-22  3.7141e-26  3.8548e-22  4.1263e-26  6.1567e-22  4.8630e-26  1.0341e-21
      4.40  2.1569e-26  7.4297e-23  2.1567e-26  7.4325e-23  2.1564e-26  7.4374e-23  2.1558e-26  7.4461e-23  2.1547e-26  7.4617e-23  2.1528e-26  7.4894e-23  2.1495e-26  7.5386e-23  2.1436e-26  7.6261e-23  2.1374e-26  7.7818e-23  2.1407e-26  8.0587e-23  2.1467e-26  8.5511e-23  2.1574e-26  9.4272e-23  2.1765e-26  1.0986e-22  2.2110e-26  1.3762e-22  2.2735e-26  1.8708e-22  2.3877e-26  2.7539e-22  2.5971e-26  4.3351e-22  2.9623e-26  7.1821e-22  3.5980e-26  1.2356e-21
      4.45  1.3981e-26  5.9778e-23  1.3978e-26  5.9813e-23  1.3974e-26  5.9876e-23  1.3965e-26  5.9987e-23  1.3951e-26  6.0185e-23  1.3925e-26  6.0537e-23  1.3878e-26  6.1163e-23  1.3796e-26  6.2275e-23  1.3761e-26  6.4254e-23  1.3793e-26  6.7774e-23  1.3851e-26  7.4034e-23  1.3955e-26  8.5169e-23  1.4143e-26  1.0498e-22  1.4490e-26  1.4026e-22  1.5135e-26  2.0311e-22  1.6313e-26  3.1530e-22  1.8351e-26  5.1611e-22  2.1882e-26  8.7743e-22  2.8057e-26  1.5334e-21
      4.50  7.5949e-27  4.8955e-23  7.5918e-27  4.9000e-23  7.5861e-27  4.9081e-23  7.5761e-27  4.9224e-23  7.5584e-27  4.9479e-23  7.5267e-27  4.9933e-23  7.4705e-27  5.0739e-23  7.3722e-27  5.2173e-23  7.3901e-27  5.4723e-23  7.4224e-27  5.9258e-23  7.4812e-27  6.7324e-23  7.5900e-27  8.1672e-23  7.7953e-27  1.0720e-22  8.1908e-27  1.5265e-22  8.9008e-27  2.3362e-22  1.0116e-26  3.7815e-22  1.2243e-26  6.3680e-22  1.5846e-26  1.1020e-21  2.1904e-26  1.9464e-21
      4.55  3.8827e-27  3.9715e-23  3.8793e-27  3.9773e-23  3.8731e-27  3.9877e-23  3.8622e-27  4.0062e-23  3.8427e-27  4.0391e-23  3.8082e-27  4.0976e-23  3.7468e-27  4.2016e-23  3.7148e-27  4.3865e-23  3.7318e-27  4.7154e-23  3.7629e-27  5.3003e-23  3.8211e-27  6.3407e-23  3.9330e-27  8.1914e-23  4.1544e-27  1.1484e-22  4.5465e-27  1.7347e-22  5.2290e-27  2.7796e-22  6.4306e-27  4.6449e-22  8.4296e-27  7.9848e-22  1.1880e-26  1.3997e-21  1.7874e-26  2.4921e-21
      4.60  2.2522e-27  3.2250e-23  2.2489e-27  3.2325e-23  2.2429e-27  3.2459e-23  2.2323e-27  3.2697e-23  2.2134e-27  3.3119e-23  2.1798e-27  3.3870e-23  2.1275e-27  3.5206e-23  2.1360e-27  3.7582e-23  2.1517e-27  4.1807e-23  2.1810e-27  4.9321e-23  2.2372e-27  6.2687e-23  2.3493e-27  8.6464e-23  2.5515e-27  1.2878e-22  2.9179e-27  2.0412e-22  3.5543e-27  3.3844e-22  4.6660e-27  5.7830e-22  6.5742e-27  1.0081e-21  9.8369e-27  1.7827e-21  1.5540e-26  3.1929e-21
      4.65  1.5775e-27  2.7344e-23  1.5746e-27  2.7440e-23  1.5695e-27  2.7611e-23  1.5603e-27  2.7914e-23  1.5440e-27  2.8454e-23  1.5150e-27  2.9415e-23  1.4897e-27  3.1123e-23  1.4976e-27  3.4160e-23  1.5122e-27  3.9562e-23  1.5398e-27  4.9170e-23  1.5943e-27  6.6258e-23  1.6981e-27  9.6661e-23  1.8886e-27  1.5077e-22  2.2273e-27  2.4713e-22  2.8501e-27  4.1895e-22  3.9220e-27  7.2592e-22  5.7417e-27  1.2763e-21  8.8882e-27  2.2696e-21  1.4413e-26  4.0818e-21
      4.70  1.2819e-27  2.6025e-23  1.2796e-27  2.6147e-23  1.2756e-27  2.6365e-23  1.2685e-27  2.6752e-23  1.2558e-27  2.7440e-23  1.2333e-27  2.8664e-23  1.2185e-27  3.0840e-23  1.2259e-27  3.4711e-23  1.2397e-27  4.1594e-23  1.2663e-27  5.3837e-23  1.3198e-27  7.5614e-23  1.4197e-27  1.1436e-22  1.6087e-27  1.8333e-22  1.9524e-27  3.0617e-22  2.5477e-27  5.2526e-22  3.5616e-27  9.1689e-22  5.3317e-27  1.6198e-21  8.4112e-27  2.8901e-21  1.3834e-26  5.2140e-21
      4.75  1.1267e-27  3.0584e-23  1.1251e-27  3.0739e-23  1.1223e-27  3.1014e-23  1.1173e-27  3.1504e-23  1.1084e-27  3.2375e-23  1.0925e-27  3.3923e-23  1.0805e-27  3.6678e-23  1.0878e-27  4.1576e-23  1.1016e-27  5.0287e-23  1.1288e-27  6.5781e-23  1.1849e-27  9.3342e-23  1.2887e-27  1.4238e-22  1.4754e-27  2.2968e-22  1.8063e-27  3.8521e-22  2.3880e-27  6.6270e-22  3.4011e-27  1.1591e-21  5.1578e-27  2.0509e-21  8.2218e-27  3.6659e-21  1.3652e-26  6.6296e-21
      4.80  9.9059e-28  4.4112e-23  9.8962e-28  4.4306e-23  9.8790e-28  4.4650e-23  9.8484e-28  4.5262e-23  9.7941e-28  4.6351e-23  9.6980e-28  4.8287e-23  9.5864e-28  5.1730e-23  9.6638e-28  5.7853e-23  9.8147e-28  6.8743e-23  1.0124e-27  8.8112e-23  1.0735e-27  1.2257e-22  1.1781e-27  1.8388e-22  1.3684e-27  2.9305e-22  1.7113e-27  4.8757e-22  2.3078e-27  8.3479e-22  3.3480e-27  1.4563e-21  5.1779e-27  2.5743e-21  8.3849e-27  4.6028e-21  1.4105e-26  8.3372e-21
      4.85  7.8740e-28  6.5294e-23  7.8701e-28  6.5531e-23  7.8632e-28  6.5954e-23  7.8509e-28  6.6706e-23  7.8294e-28  6.8042e-23  7.7919e-28  7.0419e-23  7.7275e-28  7.4646e-23  7.7859e-28  8.2164e-23  7.9683e-28  9.5534e-23  8.3311e-28  1.1932e-22  8.9896e-28  1.6162e-22  1.0157e-27  2.3691e-22  1.2263e-27  3.7098e-22  1.5970e-27  6.0993e-22  2.2453e-27  1.0366e-21  3.3776e-27  1.8008e-21  5.3570e-27  3.1772e-21  8.7944e-27  5.6790e-21  1.4914e-26  1.0298e-20
      4.90  5.1681e-28  8.0984e-23  5.1697e-28  8.1267e-23  5.1727e-28  8.1770e-23  5.1780e-28  8.2666e-23  5.1880e-28  8.4258e-23  5.2073e-28  8.7090e-23  5.2466e-28  9.2125e-23  5.3314e-28  1.0108e-22  5.5178e-28  1.1701e-22  5.9253e-28  1.4534e-22  6.7125e-28  1.9573e-22  8.1199e-28  2.8543e-22  1.0651e-27  4.4514e-22  1.5002e-27  7.2984e-22  2.2427e-27  1.2383e-21  3.5098e-27  2.1493e-21  5.6877e-27  3.7910e-21  9.4046e-27  6.7787e-21  1.6009e-26  1.2306e-20
      4.95  2.8539e-28  7.9762e-23  2.8595e-28  8.0087e-23  2.8696e-28  8.0665e-23  2.8879e-28  8.1692e-23  2.9215e-28  8.3518e-23  2.9849e-28  8.6765e-23  3.1087e-28  9.2541e-23  3.3620e-28  1.0281e-22  3.8552e-28  1.2108e-22  4.7489e-28  1.5357e-22  6.3324e-28  2.1138e-22  9.1349e-28  3.1425e-22  1.3947e-27  4.9744e-22  2.2120e-27  8.2402e-22  3.5970e-27  1.4073e-21  5.9450e-27  2.4525e-21  9.9428e-27  4.3367e-21  1.6908e-26  7.7673e-21  2.9333e-26  1.4121e-20
      5.00  1.4897e-28  6.7705e-23  1.4970e-28  6.8062e-23  1.5104e-28  6.8698e-23  1.5351e-28  6.9829e-23  1.5820e-28  7.1841e-23  1.6744e-28  7.5417e-23  1.8655e-28  8.1778e-23  2.2621e-28  9.3089e-23  3.0255e-28  1.1321e-22  4.4155e-28  1.4899e-22  6.7397e-28  2.1265e-22  1.0687e-27  3.2596e-22  1.7290e-27  5.2775e-22  2.8147e-27  8.8754e-22  4.5949e-27  1.5303e-21  7.5538e-27  2.6829e-21  1.2553e-26  4.7623e-21  2.1259e-26  8.5547e-21  3.6643e-26  1.5598e-20
      5.05  8.1624e-29  5.4130e-23  8.2421e-29  5.4497e-23  8.3924e-29  5.5150e-23  8.6865e-29  5.6312e-23  9.2942e-29  5.8378e-23  1.0594e-28  6.2051e-23  1.3193e-28  6.8583e-23  1.9086e-28  8.0200e-23  3.0841e-28  1.0086e-22  4.8951e-28  1.3761e-22  7.8796e-28  2.0301e-22  1.2692e-27  3.1940e-22  2.0339e-27  5.2671e-22  3.2175e-27  8.9644e-22  5.0862e-27  1.5573e-21  8.1245e-27  2.7432e-21  1.3275e-26  4.8857e-21  2.2227e-26  8.8026e-21  3.7627e-26  1.6106e-20
      5.10  4.9471e-29  4.2715e-23  5.0496e-29  4.3072e-23  5.2294e-29  4.3707e-23  5.6283e-29  4.4837e-23  6.5632e-29  4.6847e-23  8.2997e-29  5.0420e-23  1.2261e-28  5.6774e-23  2.1702e-28  6.8075e-23  3.6721e-28  8.8175e-23  6.0107e-28  1.2393e-22  9.5845e-28  1.8755e-22  1.4962e-27  3.0079e-22  2.2918e-27  5.0253e-22  3.4635e-27  8.6243e-22  5.2680e-27  1.5060e-21  8.0569e-27  2.6619e-21  1.2652e-26  4.7534e-21  2.0735e-26  8.5864e-21  3.5085e-26  1.5763e-20
      5.15  3.4034e-29  3.3961e-23  3.5108e-29  3.4316e-23  3.7656e-29  3.4947e-23  4.4188e-29  3.6070e-23  5.7088e-29  3.8066e-23  8.4180e-29  4.1616e-23  1.4963e-28  4.7928e-23  2.7379e-28  5.9155e-23  4.6469e-28  7.9123e-23  7.4736e-28  1.1464e-22  1.1437e-27  1.7785e-22  1.7035e-27  2.9037e-22  2.4943e-27  4.9084e-22  3.6293e-27  8.4856e-22  5.0599e-27  1.4885e-21  7.4762e-27  2.6387e-21  1.1674e-26  4.7225e-21  1.9121e-26  8.5495e-21  3.2456e-26  1.5739e-20
      5.20  2.6132e-29  2.7419e-23  2.7652e-29  2.7785e-23  3.1705e-29  2.8435e-23  4.2291e-29  2.9592e-23  6.1311e-29  3.1650e-23  1.0638e-28  3.5309e-23  2.1101e-28  4.1815e-23  3.5492e-28  5.3387e-23  5.7351e-28  7.3970e-23  8.9486e-28  1.1059e-22  1.3223e-27  1.7574e-22  1.8915e-27  2.9174e-22  2.6437e-27  4.9844e-22  3.4209e-27  8.6734e-22  4.7201e-27  1.5275e-21  6.9847e-27  2.7148e-21  1.0999e-26  4.8680e-21  1.8186e-26  8.8296e-21  3.1193e-26  1.6294e-20
      5.25  2.2042e-29  2.2517e-23  2.4230e-29  2.2894e-23  3.1010e-29  2.3564e-23  4.7540e-29  2.4756e-23  8.1732e-29  2.6876e-23  1.4347e-28  3.0646e-23  2.6480e-28  3.7349e-23  4.3095e-28  4.9272e-23  6.6413e-28  7.0479e-23  1.0001e-27  1.0821e-22  1.4478e-27  1.7534e-22  2.0289e-27  2.9487e-22  2.5102e-27  5.0789e-22  3.3011e-27  8.8815e-22  4.6633e-27  1.5689e-21  7.0461e-27  2.7940e-21  1.1257e-26  5.0182e-21  1.8819e-26  9.1179e-21  3.2668e-26  1.6865e-20
      5.30  2.0187e-29  1.8806e-23  2.4193e-29  1.9189e-23  3.5949e-29  1.9871e-23  6.5876e-29  2.1083e-23  1.0456e-28  2.3237e-23  1.7535e-28  2.7069e-23  3.0383e-28  3.3884e-23  4.7573e-28  4.6005e-23  7.2668e-28  6.7563e-23  1.0545e-27  1.0592e-22  1.5389e-27  1.7417e-22  1.9500e-27  2.9570e-22  2.4709e-27  5.1231e-22  3.2512e-27  8.9907e-22  4.5437e-27  1.5918e-21  6.8016e-27  2.8391e-21  1.0676e-26  5.1066e-21  1.7695e-26  9.2945e-21  3.0628e-26  1.7234e-20
      5.35  2.0038e-29  1.5976e-23  2.7637e-29  1.6530e-23  4.7730e-29  1.7060e-23  8.0368e-29  1.8293e-23  1.2343e-28  2.0487e-23  1.9555e-28  2.4387e-23  3.2612e-28  3.1324e-23  4.9981e-28  4.3662e-23  7.4639e-28  6.5607e-23  1.1292e-27  1.0465e-22  1.5736e-27  1.7413e-22  1.8784e-27  2.9786e-22  2.3453e-27  5.1841e-22  3.0877e-27  9.1230e-22  4.3299e-27  1.6181e-21  6.3930e-27  2.8899e-21  1.0090e-26  5.2045e-21  1.6779e-26  9.4883e-21  2.9160e-26  1.7636e-20
      5.40  2.0070e-29  1.3765e-23  3.0179e-29  1.4145e-23  5.3774e-29  1.4821e-23  8.2537e-29  1.6023e-23  1.2837e-28  1.8159e-23  1.9554e-28  2.1959e-23  3.1435e-28  2.8717e-23  5.1424e-28  4.0737e-23  7.8016e-28  6.2116e-23  1.2212e-27  1.0015e-22  1.5067e-27  1.6785e-22  1.8183e-27  2.8841e-22  2.3092e-27  5.0334e-22  3.0847e-27  8.8730e-22  4.3802e-27  1.5756e-21  6.5130e-27  2.8169e-21  1.0239e-26  5.0794e-21  1.7022e-26  9.2766e-21  2.9597e-26  1.7290e-20
      5.45  1.7911e-29  1.1970e-23  2.5679e-29  1.2289e-23  4.7189e-29  1.2855e-23  7.0901e-29  1.3862e-23  1.0970e-28  1.5654e-23  1.7669e-28  1.8839e-23  2.8701e-28  2.4505e-23  4.6993e-28  3.4580e-23  7.9504e-28  5.2502e-23  1.2768e-27  8.4386e-23  1.5161e-27  1.4114e-22  1.8762e-27  2.4222e-22  2.4222e-27  4.2247e-22  3.1828e-27  7.4459e-22  4.4182e-27  1.3224e-21  6.4839e-27  2.3657e-21  1.0090e-26  4.2708e-21  1.6619e-26  7.8165e-21  2.8805e-26  1.4621e-20
      5.50  1.4872e-29  1.0474e-23  1.7856e-29  1.0704e-23  2.7303e-29  1.1224e-23  5.1649e-29  1.1839e-23  8.6350e-29  1.3130e-23  1.4532e-28  1.5427e-23  2.5329e-28  1.9511e-23  4.4387e-28  2.6775e-23  7.6539e-28  3.9696e-23  1.2221e-27  6.2684e-23  1.5859e-27  1.0360e-22  1.9966e-27  1.7650e-22  2.4561e-27  3.0651e-22  3.1417e-27  5.3893e-22  4.1535e-27  9.5612e-22  5.8546e-27  1.7102e-21  8.8445e-27  3.0900e-21  1.4247e-26  5.6659e-21  2.4298e-26  1.0634e-20
      5.55  1.3261e-29  9.3081e-24  1.4781e-29  9.4808e-24  1.8925e-29  9.7879e-24  3.1150e-29  1.0334e-23  6.3031e-29  1.1305e-23  1.2689e-28  1.3032e-23  2.4334e-28  1.6103e-23  4.5123e-28  2.1566e-23  7.9683e-28  3.1282e-23  1.2168e-27  4.8569e-23  1.6151e-27  7.9343e-23  1.9899e-27  1.3417e-22  2.3854e-27  2.3197e-22  2.8944e-27  4.0685e-22  3.7069e-27  7.2088e-22  5.0325e-27  1.2890e-21  7.3724e-27  2.3296e-21  1.1620e-26  4.2764e-21  1.9480e-26  8.0430e-21
      5.60  1.2510e-29  8.4114e-24  1.4095e-29  8.5613e-24  1.8619e-29  8.8279e-24  3.1466e-29  9.3019e-24  5.6923e-29  1.0145e-23  1.1749e-28  1.1644e-23  2.5114e-28  1.4309e-23  4.7849e-28  1.9050e-23  8.7330e-28  2.7483e-23  1.2094e-27  4.2489e-23  1.5808e-27  6.9202e-23  1.8339e-27  1.1680e-22  2.1287e-27  2.0170e-22  2.5513e-27  3.5355e-22  3.2257e-27  6.2629e-22  4.3259e-27  1.1199e-21  6.2549e-27  2.0247e-21  9.7508e-27  3.7196e-21  1.6216e-26  7.0048e-21
      5.65  1.1976e-29  7.7118e-24  1.4013e-29  7.8549e-24  1.9759e-29  8.1093e-24  3.6287e-29  8.5618e-24  6.8226e-29  9.3664e-24  1.3249e-28  1.0797e-23  2.6413e-28  1.3342e-23  5.1089e-28  1.7867e-23  9.2395e-28  2.5917e-23  1.2178e-27  4.0242e-23  1.5220e-27  6.5744e-23  1.7007e-27  1.1118e-22  1.9600e-27  1.9224e-22  2.3283e-27  3.3723e-22  2.9448e-27  5.9770e-22  3.9490e-27  1.0692e-21  5.7204e-27  1.9341e-21  8.9271e-27  3.5555e-21  1.4877e-26  6.7024e-21
      5.70  1.1491e-29  7.1550e-24  1.3995e-29  7.2951e-24  2.1105e-29  7.5441e-24  4.2314e-29  7.9870e-24  7.6931e-29  8.7745e-24  1.4977e-28  1.0175e-23  2.9805e-28  1.2665e-23  5.7529e-28  1.7094e-23  9.0537e-28  2.4974e-23  1.1412e-27  3.8996e-23  1.3781e-27  6.3959e-23  1.5451e-27  1.0844e-22  1.7762e-27  1.8779e-22  2.1183e-27  3.2973e-22  2.7001e-27  5.8478e-22  3.6858e-27  1.0466e-21  5.4195e-27  1.8941e-21  8.5702e-27  3.4843e-21  1.4444e-26  6.5744e-21
      5.75  1.0775e-29  6.6481e-24  1.3385e-29  6.7814e-24  2.1335e-29  7.0186e-24  4.2111e-29  7.4403e-24  8.3192e-29  8.1902e-24  1.6533e-28  9.5236e-24  3.3640e-28  1.1895e-23  6.0614e-28  1.6112e-23  8.0324e-28  2.3616e-23  9.8661e-28  3.6970e-23  1.1341e-27  6.0742e-23  1.3116e-27  1.0310e-22  1.5325e-27  1.7867e-22  1.8791e-27  3.1387e-22  2.4525e-27  5.5684e-22  3.4341e-27  9.9697e-22  5.1888e-27  1.8051e-21  8.3948e-27  3.3228e-21  1.4413e-26  6.2763e-21
      5.80  9.9526e-30  6.2574e-24  1.2633e-29  6.3799e-24  2.0349e-29  6.5977e-24  4.1023e-29  6.9850e-24  8.5933e-29  7.6736e-24  1.8334e-28  8.8981e-24  3.4628e-28  1.1076e-23  5.4314e-28  1.4950e-23  6.8848e-28  2.1842e-23  8.4066e-28  3.4106e-23  9.5645e-28  5.5941e-23  1.1448e-27  9.4844e-23  1.3767e-27  1.6427e-22  1.7284e-27  2.8847e-22  2.3303e-27  5.1174e-22  3.3782e-27  9.1633e-22  5.2543e-27  1.6597e-21  8.7134e-27  3.0573e-21  1.5266e-26  5.7816e-21
      5.85  9.5817e-30  5.9602e-24  1.2552e-29  6.0756e-24  2.0994e-29  6.2809e-24  4.2505e-29  6.6459e-24  9.4755e-29  7.2950e-24  2.0280e-28  8.4491e-24  3.2414e-28  1.0502e-23  4.8023e-28  1.4154e-23  6.0474e-28  2.0651e-23  7.5739e-28  3.2213e-23  8.9329e-28  5.2796e-23  1.0584e-27  8.9473e-23  1.3081e-27  1.5492e-22  1.6997e-27  2.7204e-22  2.3803e-27  4.8261e-22  3.5737e-27  8.6435e-22  5.7336e-27  1.5662e-21  9.7320e-27  2.8870e-21  1.7364e-26  5.4659e-21
      5.90  9.2757e-30  5.7436e-24  1.3003e-29  5.8589e-24  2.2889e-29  6.0638e-24  4.7700e-29  6.4282e-24  1.0526e-28  7.0760e-24  2.0695e-28  8.2282e-24  3.2730e-28  1.0278e-23  4.3628e-28  1.3924e-23  5.7702e-28  2.0410e-23  7.1384e-28  3.1952e-23  8.4850e-28  5.2500e-23  1.0194e-27  8.9117e-23  1.3026e-27  1.5446e-22  1.7783e-27  2.7141e-22  2.5966e-27  4.8172e-22  4.0548e-27  8.6310e-22  6.7080e-27  1.5647e-21  1.1648e-26  2.8864e-21  2.1149e-26  5.4708e-21
      5.95  8.8646e-30  5.5890e-24  1.2987e-29  5.7066e-24  2.3926e-29  5.9158e-24  5.1394e-29  6.2876e-24  1.1449e-28  6.9489e-24  2.1561e-28  8.1249e-24  3.3406e-28  1.0217e-23  4.4673e-28  1.3938e-23  5.5853e-28  2.0558e-23  6.8094e-28  3.2339e-23  8.4041e-28  5.3314e-23  1.0304e-27  9.0691e-23  1.3435e-27  1.5740e-22  1.8920e-27  2.7680e-22  2.8564e-27  4.9156e-22  4.5789e-27  8.8116e-22  7.7280e-27  1.5983e-21  1.3614e-26  2.9506e-21  2.4998e-26  5.5989e-21
      6.00  8.1860e-30  5.4797e-24  1.2143e-29  5.5978e-24  2.2812e-29  5.8076e-24  5.0135e-29  6.1807e-24  1.1368e-28  6.8441e-24  2.3084e-28  8.0239e-24  3.4687e-28  1.0123e-23  4.5481e-28  1.3856e-23  5.6690e-28  2.0498e-23  6.9799e-28  3.2317e-23  8.6173e-28  5.3361e-23  1.1006e-27  9.0861e-23  1.4899e-27  1.5780e-22  2.1732e-27  2.7762e-22  3.3899e-27  4.9319e-22  5.5889e-27  8.8442e-22  9.6175e-27  1.6051e-21  1.7175e-26  2.9654e-21  3.1869e-26  5.6340e-21
      6.05  7.3433e-30  5.4228e-24  1.0678e-29  5.5375e-24  1.9859e-29  5.7414e-24  4.4134e-29  6.1040e-24  1.0332e-28  6.7485e-24  2.3120e-28  7.8947e-24  3.5481e-28  9.9336e-24  4.6657e-28  1.3561e-23  5.8176e-28  2.0014e-23  7.1335e-28  3.1497e-23  8.8053e-28  5.1944e-23  1.1532e-27  8.8382e-23  1.6167e-27  1.5343e-22  2.4348e-27  2.6988e-22  3.8989e-27  4.7945e-22  6.5485e-27  8.5995e-22  1.1414e-26  1.5614e-21  2.0567e-26  2.8872e-21  3.8440e-26  5.4927e-21
      6.10  6.6413e-30  5.3977e-24  9.3144e-30  5.5065e-24  1.6926e-29  5.6998e-24  3.7063e-29  6.0436e-24  8.7625e-29  6.6548e-24  2.0088e-28  7.7416e-24  3.3310e-28  9.6748e-24  4.5727e-28  1.3114e-23  5.6400e-28  1.9233e-23  6.8452e-28  3.0121e-23  8.7357e-28  4.9509e-23  1.1782e-27  8.4063e-23  1.7104e-27  1.4575e-22  2.6585e-27  2.5621e-22  4.3554e-27  4.5504e-22  7.4287e-27  8.1623e-22  1.3085e-26  1.4826e-21  2.3752e-26  2.7438e-21  4.4651e-26  5.2273e-21
      6.15  6.2803e-30  5.4000e-24  8.8086e-30  5.5009e-24  1.5381e-29  5.6802e-24  3.2410e-29  5.9991e-24  7.3483e-29  6.5661e-24  1.5295e-28  7.5742e-24  2.5090e-28  9.3672e-24  3.8422e-28  1.2557e-23  4.9092e-28  1.8232e-23  6.1994e-28  2.8331e-23  8.2253e-28  4.6313e-23  1.1523e-27  7.8363e-23  1.7371e-27  1.3559e-22  2.7777e-27  2.3807e-22  4.6491e-27  4.2260e-22  8.0420e-27  7.5797e-22  1.4292e-26  1.3772e-21  2.6103e-26  2.5508e-21  4.9311e-26  4.8663e-21
      6.20  6.0434e-30  5.4243e-24  8.4423e-30  5.5144e-24  1.4462e-29  5.6746e-24  2.9225e-29  5.9595e-24  5.8568e-29  6.4659e-24  1.1310e-28  7.3665e-24  1.8222e-28  8.9682e-24  2.7289e-28  1.1817e-23  3.8212e-28  1.6886e-23  5.2119e-28  2.5906e-23  7.2509e-28  4.1968e-23  1.0733e-27  7.0597e-23  1.6790e-27  1.2172e-22  2.7625e-27  2.1328e-22  4.7101e-27  3.7821e-22  8.2458e-27  6.7811e-22  1.4767e-26  1.2324e-21  2.7112e-26  2.2842e-21  5.1436e-26  4.3640e-21
      6.25  5.5299e-30  5.4663e-24  7.7705e-30  5.5421e-24  1.2874e-29  5.6769e-24  2.3323e-29  5.9167e-24  4.4394e-29  6.3429e-24  8.2425e-29  7.1008e-24  1.2846e-28  8.4487e-24  1.9429e-28  1.0846e-23  2.8278e-28  1.5111e-23  4.1028e-28  2.2701e-23  6.0985e-28  3.6216e-23  9.5142e-28  6.0307e-23  1.5490e-27  1.0333e-22  2.6127e-27  1.8040e-22  4.5226e-27  3.1927e-22  7.9931e-27  5.7193e-22  1.4402e-26  1.0393e-21  2.6556e-26  1.9277e-21  5.0563e-26  3.6882e-21
      6.30  4.8565e-30  5.5497e-24  6.6136e-30  5.6102e-24  1.0091e-29  5.7178e-24  1.8116e-29  5.9091e-24  3.2079e-29  6.2492e-24  5.8100e-29  6.8540e-24  8.6023e-29  7.9295e-24  1.3504e-28  9.8423e-24  2.0978e-28  1.3245e-23  3.1707e-28  1.9300e-23  5.0215e-28  3.0083e-23  8.1700e-28  4.9304e-23  1.3743e-27  8.3632e-23  2.3636e-27  1.4514e-22  4.1421e-27  2.5601e-22  7.3754e-27  4.5786e-22  1.3353e-26  8.3161e-22  2.4707e-26  1.5431e-21  4.7192e-26  2.9566e-21
      6.35  4.2465e-30  5.6562e-24  5.4813e-30  5.7041e-24  8.0655e-30  5.7893e-24  1.3166e-29  5.9406e-24  2.3711e-29  6.2098e-24  4.2441e-29  6.6884e-24  5.9328e-29  7.5395e-24  9.0789e-29  9.0533e-24  1.4815e-28  1.1746e-23  2.4872e-28  1.6538e-23  4.1134e-28  2.5070e-23  6.9888e-28  4.0281e-23  1.2030e-27  6.7451e-23  2.1011e-27  1.1615e-22  3.7206e-27  2.0394e-22  6.6674e-27  3.6388e-22  1.2121e-26  6.6034e-22  2.2498e-26  1.2256e-21  4.3100e-26  2.3513e-21
      6.40  3.6976e-30  5.7852e-24  4.7379e-30  5.8241e-24  6.6714e-30  5.8932e-24  1.0234e-29  6.0161e-24  1.7186e-29  6.2347e-24  3.1620e-29  6.6233e-24  4.4554e-29  7.3144e-24  6.7387e-29  8.5436e-24  1.1160e-28  1.0730e-23  1.9648e-28  1.4621e-23  3.4940e-28  2.1549e-23  6.1894e-28  3.3901e-23  1.0947e-27  5.5966e-23  1.9455e-27  9.5520e-23  3.4825e-27  1.6686e-22  6.2822e-27  2.9690e-22  1.1471e-26  5.3817e-22  2.1362e-26  9.9896e-22  4.1053e-26  1.9187e-21
      6.45  3.2112e-30  5.9332e-24  4.1626e-30  5.9653e-24  5.7199e-30  6.0225e-24  8.5324e-30  6.1242e-24  1.3643e-29  6.3050e-24  2.3766e-29  6.6264e-24  3.7762e-29  7.1981e-24  5.8066e-29  8.2148e-24  9.8034e-29  1.0023e-23  1.7535e-28  1.3241e-23  3.2062e-28  1.8971e-23  5.8382e-28  2.9188e-23  1.0555e-27  4.7439e-23  1.9060e-27  8.0162e-23  3.4394e-27  1.3920e-22  6.2372e-27  2.4688e-22  1.1430e-26  4.4684e-22  2.1349e-26  8.2929e-22  4.1147e-26  1.5943e-21
      6.50  2.6963e-30  6.0979e-24  3.5852e-30  6.1247e-24  4.8035e-30  6.1722e-24  7.0450e-30  6.2567e-24  1.1039e-29  6.4070e-24  1.8527e-29  6.6742e-24  2.9357e-29  7.1494e-24  4.6901e-29  7.9946e-24  8.0421e-29  9.4979e-24  1.4585e-28  1.2173e-23  2.7179e-28  1.6936e-23  5.0802e-28  2.5428e-23  9.3823e-28  4.0600e-23  1.7162e-27  6.7807e-23  3.1259e-27  1.1691e-22  5.7022e-27  2.0650e-22  1.0490e-26  3.7300e-22  1.9651e-26  6.9183e-22  3.7977e-26  1.3307e-21
      6.55  2.2660e-30  6.3090e-24  3.0320e-30  6.3316e-24  3.9487e-30  6.3719e-24  5.7666e-30  6.4434e-24  9.0664e-30  6.5707e-24  1.5534e-29  6.7969e-24  2.4686e-29  7.1993e-24  3.9462e-29  7.9149e-24  6.9372e-29  9.1879e-24  1.2834e-28  1.1453e-23  2.4361e-28  1.5487e-23  4.6340e-28  2.2678e-23  8.7152e-28  3.5527e-23  1.6165e-27  5.8570e-23  2.9702e-27  1.0016e-22  5.4484e-27  1.7608e-22  1.0063e-26  3.1727e-22  1.8906e-26  5.8787e-22  3.6629e-26  1.1309e-21
      6.60  1.9146e-30  6.5378e-24  2.5283e-30  6.5576e-24  3.3373e-30  6.5929e-24  4.7201e-30  6.6557e-24  7.6616e-30  6.7673e-24  1.3496e-29  6.9658e-24  2.1977e-29  7.3187e-24  3.5497e-29  7.9465e-24  6.3513e-29  9.0632e-24  1.2025e-28  1.1050e-23  2.3206e-28  1.4589e-23  4.4750e-28  2.0899e-23  8.5206e-28  3.2172e-23  1.5979e-27  5.2392e-23  2.9621e-27  8.8896e-23  5.4649e-27  1.5554e-22  1.0132e-26  2.7954e-22  1.9087e-26  5.1737e-22  3.7065e-26  9.9513e-22
      6.65  1.6234e-30  6.7832e-24  2.0828e-30  6.8013e-24  2.7686e-30  6.8335e-24  3.9593e-30  6.8908e-24  6.3572e-30  6.9926e-24  1.1689e-29  7.1737e-24  1.9448e-29  7.4958e-24  3.2171e-29  8.0687e-24  5.9136e-29  9.0879e-24  1.1464e-28  1.0902e-23  2.2500e-28  1.4131e-23  4.3924e-28  1.9890e-23  8.4515e-28  3.0180e-23  1.6003e-27  4.8638e-23  2.9895e-27  8.1964e-23  5.5464e-27  1.4282e-22  1.0321e-26  2.5609e-22  1.9496e-26  4.7348e-22  3.7937e-26  9.1054e-22
      6.70  1.3801e-30  7.0440e-24  1.7001e-30  7.0611e-24  2.2876e-30  7.0915e-24  3.3302e-30  7.1457e-24  5.4957e-30  7.2419e-24  1.0750e-29  7.4130e-24  1.9599e-29  7.7174e-24  3.4485e-29  8.2587e-24  6.6159e-29  9.2216e-24  1.3099e-28  1.0935e-23  2.5904e-28  1.3987e-23  5.0661e-28  1.9429e-23  9.7590e-28  2.9153e-23  1.8498e-27  4.6595e-23  3.4621e-27  7.8093e-23  6.4360e-27  1.3562e-22  1.1996e-26  2.4273e-22  2.2690e-26  4.4841e-22  4.4212e-26  8.6221e-22
      6.75  1.1787e-30  7.3193e-24  1.3939e-30  7.3359e-24  1.8945e-30  7.3654e-24  2.8449e-30  7.4179e-24  5.0909e-30  7.5113e-24  1.0768e-29  7.6773e-24  2.0825e-29  7.9725e-24  3.8771e-29  8.4976e-24  7.6639e-29  9.4317e-24  1.5324e-28  1.1094e-23  3.0246e-28  1.4055e-23  5.8982e-28  1.9334e-23  1.1323e-27  2.8767e-23  2.1429e-27  4.5691e-23  4.0087e-27  7.6253e-23  7.4563e-27  1.3209e-22  1.3910e-26  2.3606e-22  2.6334e-26  4.3581e-22  5.1362e-26  8.3794e-22
      6.80  1.0147e-30  7.6482e-24  1.1588e-30  7.6646e-24  1.5762e-30  7.6939e-24  2.4747e-30  7.7459e-24  4.6770e-30  7.8383e-24  1.0239e-29  8.0028e-24  2.1602e-29  8.2952e-24  4.1220e-29  8.8154e-24  8.2694e-29  9.7407e-24  1.6520e-28  1.1387e-23  3.2495e-28  1.4320e-23  6.3185e-28  1.9550e-23  1.2116e-27  2.8896e-23  2.2923e-27  4.5663e-23  4.2918e-27  7.5945e-23  7.9944e-27  1.3127e-22  1.4937e-26  2.3434e-22  2.8315e-26  4.3241e-22  5.5291e-26  8.3140e-22
      6.85  8.8199e-31  7.9947e-24  9.8154e-31  8.0113e-24  1.2845e-30  8.0407e-24  2.1107e-30  8.0931e-24  4.1054e-30  8.1862e-24  9.7770e-30  8.3518e-24  2.2760e-29  8.6462e-24  4.4910e-29  9.1699e-24  9.2198e-29  1.0102e-23  1.8424e-28  1.1760e-23  3.6336e-28  1.4713e-23  7.0569e-28  1.9978e-23  1.3518e-27  2.9389e-23  2.5552e-27  4.6272e-23  4.7816e-27  7.6768e-23  8.9079e-27  1.3249e-22  1.6653e-26  2.3632e-22  3.1592e-26  4.3593e-22  6.1743e-26  8.3822e-22
      6.90  7.7622e-31  8.3583e-24  8.5511e-31  8.3751e-24  1.0915e-30  8.4049e-24  1.7853e-30  8.4580e-24  3.8308e-30  8.5522e-24  9.8803e-30  8.7199e-24  2.4555e-29  9.0180e-24  5.0338e-29  9.5483e-24  1.0550e-28  1.0492e-23  2.1188e-28  1.2170e-23  4.2072e-28  1.5160e-23  8.2260e-28  2.0492e-23  1.5784e-27  3.0020e-23  2.9810e-27  4.7116e-23  5.5698e-27  7.7997e-23  1.0364e-26  1.3444e-22  1.9366e-26  2.3961e-22  3.6741e-26  4.4188e-22  7.1836e-26  8.4973e-22
      6.95  6.9137e-31  8.7383e-24  7.6503e-31  8.7552e-24  9.8256e-31  8.7852e-24  1.6584e-30  8.8384e-24  3.7338e-30  8.9332e-24  9.8019e-30  9.1016e-24  2.5095e-29  9.4012e-24  5.1857e-29  9.9340e-24  1.0698e-28  1.0882e-23  2.1406e-28  1.2569e-23  4.2967e-28  1.5573e-23  8.4625e-28  2.0930e-23  1.6298e-27  3.0504e-23  3.0839e-27  4.7682e-23  5.7694e-27  7.8715e-23  1.0745e-26  1.3544e-22  2.0093e-26  2.4117e-22  3.8151e-26  4.4456e-22  7.4657e-26  8.5487e-22
      7.00  6.2033e-31  9.1340e-24  6.9191e-31  9.1506e-24  9.1139e-31  9.1801e-24  1.5694e-30  9.2326e-24  3.5148e-30  9.3259e-24  9.2487e-30  9.4919e-24  2.5365e-29  9.7869e-24  5.2424e-29  1.0312e-23  1.0503e-28  1.1245e-23  2.1305e-28  1.2907e-23  4.3202e-28  1.5865e-23  8.5694e-28  2.1141e-23  1.6601e-27  3.0571e-23  3.1564e-27  4.7490e-23  5.9239e-27  7.8057e-23  1.1056e-26  1.3393e-22  2.0702e-26  2.3811e-22  3.9352e-26  4.3858e-22  7.7085e-26  8.4317e-22
      7.05  5.4756e-31  9.5954e-24  6.1567e-31  9.6113e-24  8.1840e-31  9.6395e-24  1.4203e-30  9.6896e-24  3.2241e-30  9.7787e-24  8.6396e-30  9.9372e-24  2.4190e-29  1.0219e-23  5.1842e-29  1.0720e-23  1.0498e-28  1.1612e-23  2.1417e-28  1.3199e-23  4.3763e-28  1.6024e-23  8.7728e-28  2.1062e-23  1.7219e-27  3.0065e-23  3.3043e-27  4.6221e-23  6.2394e-27  7.5409e-23  1.1688e-26  1.2877e-22  2.1936e-26  2.2828e-22  4.1760e-26  4.1983e-22  8.1899e-26  8.0658e-22
      7.10  4.8296e-31  1.0078e-23  5.3984e-31  1.0092e-23  7.2105e-31  1.0118e-23  1.2497e-30  1.0164e-23  2.9372e-30  1.0348e-23  7.7626e-30  1.0391e-23  2.2339e-29  1.0650e-23  5.1324e-29  1.1110e-23  1.0620e-28  1.1928e-23  2.1628e-28  1.3383e-23  4.4213e-28  1.5975e-23  9.0422e-28  2.0595e-23  1.8062e-27  2.8852e-23  3.5125e-27  4.3668e-23  6.6899e-27  7.0437e-23  1.2599e-26  1.1938e-22  2.3725e-26  2.1067e-22  4.5259e-26  3.8643e-22  8.8888e-26  7.4147e-22
      7.15  4.2643e-31  1.0580e-23  4.8070e-31  1.0593e-23  6.3606e-31  1.0616e-23  1.1121e-30  1.0656e-23  2.5774e-30  1.0728e-23  6.8599e-30  1.0856e-23  1.9106e-29  1.1083e-23  4.6343e-29  1.1487e-23  9.3375e-29  1.2205e-23  1.8681e-28  1.3482e-23  3.8701e-28  1.5757e-23  8.0559e-28  1.9811e-23  1.6426e-27  2.7055e-23  3.2531e-27  4.0052e-23  6.2830e-27  6.3537e-23  1.1949e-26  1.0648e-22  2.2644e-26  1.8658e-22  4.3377e-26  3.4085e-22  8.5426e-26  6.5259e-22
      7.20  3.8276e-31  1.1104e-23  4.2616e-31  1.1115e-23  5.5780e-31  1.1134e-23  9.6070e-31  1.1168e-23  2.1434e-30  1.1229e-23  5.5711e-30  1.1337e-23  1.5142e-29  1.1529e-23  3.8172e-29  1.1870e-23  7.3721e-29  1.2477e-23  1.5065e-28  1.3557e-23  3.1756e-28  1.5480e-23  6.7504e-28  1.8906e-23  1.4128e-27  2.5027e-23  2.8682e-27  3.6009e-23  5.6521e-27  5.5849e-23  1.0908e-26  9.2129e-23  2.0883e-26  1.5981e-22  4.0267e-26  2.9019e-22  7.9640e-26  5.5372e-22
      7.25  3.4383e-31  1.1648e-23  3.7877e-31  1.1657e-23  4.8433e-31  1.1673e-23  7.9638e-31  1.1702e-23  1.7087e-30  1.1752e-23  4.2803e-30  1.1842e-23  1.1238e-29  1.2001e-23  2.8030e-29  1.2284e-23  5.5067e-29  1.2789e-23  1.1251e-28  1.3685e-23  2.4015e-28  1.5281e-23  5.2495e-28  1.8126e-23  1.1328e-27  2.3206e-23  2.3732e-27  3.2319e-23  4.8008e-27  4.8781e-23  9.4501e-27  7.8883e-23  1.8343e-26  1.3504e-22  3.5698e-26  2.4324e-22  7.1024e-26  4.6198e-22
      7.30  3.1122e-31  1.2278e-23  3.3849e-31  1.2285e-23  4.1882e-31  1.2298e-23  6.5689e-31  1.2322e-23  1.3489e-30  1.2364e-23  3.2320e-30  1.2439e-23  8.2495e-30  1.2572e-23  1.9954e-29  1.2809e-23  4.1673e-29  1.3230e-23  8.5215e-29  1.3980e-23  1.7900e-28  1.5314e-23  4.0090e-28  1.7691e-23  8.9915e-28  2.1936e-23  1.9567e-27  2.9549e-23  4.0919e-27  4.3302e-23  8.2636e-27  6.8447e-23  1.6336e-26  1.1536e-22  3.2187e-26  2.0574e-22  6.4549e-26  3.8847e-22
      7.35  2.8342e-31  1.2935e-23  3.0502e-31  1.2942e-23  3.6547e-31  1.2953e-23  5.4440e-31  1.2973e-23  1.0652e-30  1.3009e-23  2.4392e-30  1.3073e-23  6.0914e-30  1.3187e-23  1.4945e-29  1.3388e-23  3.2933e-29  1.3747e-23  6.6046e-29  1.4386e-23  1.3986e-28  1.5523e-23  3.1836e-28  1.7550e-23  7.3946e-28  2.1169e-23  1.6694e-27  2.7659e-23  3.5992e-27  3.9382e-23  7.4489e-27  6.0813e-23  1.4994e-26  1.0079e-22  2.9912e-26  1.7782e-22  6.0478e-26  3.3354e-22
      7.40  2.6275e-31  1.3622e-23  2.7842e-31  1.3627e-23  3.2462e-31  1.3637e-23  4.6161e-31  1.3655e-23  8.5498e-31  1.3686e-23  1.8945e-30  1.3742e-23  4.6582e-30  1.3841e-23  1.1942e-29  1.4018e-23  2.8104e-29  1.4332e-23  5.5072e-29  1.4890e-23  1.1620e-28  1.5885e-23  2.6718e-28  1.7658e-23  6.3117e-28  2.0824e-23  1.4623e-27  2.6503e-23  3.2406e-27  3.6758e-23  6.8612e-27  5.5505e-23  1.4049e-26  9.0475e-23  2.8363e-26  1.5784e-22  5.7803e-26  2.9403e-22
      7.45  2.4511e-31  1.4336e-23  2.5670e-31  1.4341e-23  2.9298e-31  1.4350e-23  4.0080e-31  1.4366e-23  7.1641e-31  1.4394e-23  1.5375e-30  1.4444e-23  3.7393e-30  1.4533e-23  9.6364e-30  1.4692e-23  2.2362e-29  1.4974e-23  4.2971e-29  1.5475e-23  8.9421e-29  1.6369e-23  2.0683e-28  1.7961e-23  4.9773e-28  2.0806e-23  1.1854e-27  2.5908e-23  2.7089e-27  3.5123e-23  5.8970e-27  5.1967e-23  1.2341e-26  8.3384e-23  2.5308e-26  1.4390e-22  5.2125e-26  2.6622e-22
      7.50  2.3084e-31  1.5079e-23  2.4114e-31  1.5083e-23  2.7174e-31  1.5091e-23  3.6168e-31  1.5106e-23  6.2256e-31  1.5132e-23  1.2970e-30  1.5178e-23  3.1566e-30  1.5260e-23  8.0966e-30  1.5406e-23  1.8628e-29  1.5665e-23  3.5709e-29  1.6127e-23  7.2730e-29  1.6950e-23  1.6780e-28  1.8416e-23  4.0801e-28  2.1036e-23  9.9258e-28  2.5735e-23  2.3313e-27  3.4222e-23  5.2134e-27  4.9734e-23  1.1155e-26  7.8665e-23  2.3254e-26  1.3438e-22  4.8430e-26  2.4699e-22
      7.55  2.1930e-31  1.5930e-23  2.3109e-31  1.6093e-23  2.5521e-31  1.5942e-23  3.3244e-31  1.5955e-23  5.6656e-31  1.5980e-23  1.1628e-30  1.6023e-23  2.7976e-30  1.6101e-23  7.1626e-30  1.6238e-23  1.5904e-29  1.6483e-23  3.0759e-29  1.6918e-23  6.2111e-29  1.7693e-23  1.4167e-28  1.9075e-23  3.4469e-28  2.1544e-23  8.4998e-28  2.5974e-23  2.0430e-27  3.3975e-23  4.6912e-27  4.8600e-23  1.0283e-26  7.5872e-23  2.1844e-26  1.2839e-22  4.6102e-26  2.3451e-22
      7.60  2.0996e-31  1.6819e-23  2.2084e-31  1.6991e-23  2.4245e-31  1.6830e-23  3.1623e-31  1.6843e-23  5.3043e-31  1.6867e-23  1.0917e-30  1.6909e-23  2.6275e-30  1.6983e-23  6.7402e-30  1.7115e-23  1.3775e-29  1.7350e-23  2.7118e-29  1.7768e-23  5.3375e-29  1.8514e-23  1.1833e-28  1.9843e-23  2.8300e-28  2.2217e-23  6.9659e-28  2.6477e-23  1.6947e-27  3.4172e-23  3.9701e-27  4.8238e-23  8.8890e-27  7.4466e-23  1.9228e-26  1.2497e-22  4.1132e-26  2.2700e-22
      7.65  2.0233e-31  1.7745e-23  2.1013e-31  1.7749e-23  2.3319e-31  1.7757e-23  3.0305e-31  1.7770e-23  5.0165e-31  1.7792e-23  1.0454e-30  1.7833e-23  2.5376e-30  1.7906e-23  6.3685e-30  1.8035e-23  1.2433e-29  1.8265e-23  2.4153e-29  1.8674e-23  4.6829e-29  1.9402e-23  1.0075e-28  2.0701e-23  2.3531e-28  2.3023e-23  5.7344e-28  2.7188e-23  1.4023e-27  3.4712e-23  3.3374e-27  4.8465e-23  7.6223e-27  7.4109e-23  1.6797e-26  1.2348e-22  3.6459e-26  2.2322e-22
      7.70  1.9595e-31  1.8710e-23  2.0336e-31  1.8714e-23  2.2602e-31  1.8721e-23  2.9195e-31  1.8734e-23  4.8312e-31  1.8757e-23  1.0125e-30  1.8797e-23  2.4332e-30  1.8869e-23  6.1029e-30  1.8997e-23  1.1145e-29  1.9224e-23  2.1495e-29  1.9629e-23  4.1755e-29  2.0351e-23  8.6710e-29  2.1637e-23  1.9719e-28  2.3936e-23  4.7327e-28  2.8062e-23  1.1565e-27  3.5514e-23  2.7844e-27  4.9137e-23  6.4762e-27  7.4538e-23  1.4542e-26  1.2344e-22  3.2066e-26  2.2221e-22
      7.75  1.9080e-31  1.9712e-23  1.9786e-31  1.9716e-23  2.1962e-31  1.9723e-23  2.8280e-31  1.9736e-23  4.6462e-31  1.9759e-23  9.7400e-31  1.9799e-23  2.3419e-30  1.9871e-23  5.6780e-30  1.9999e-23  1.0180e-29  2.0226e-23  1.9335e-29  2.0631e-23  3.7092e-29  2.1352e-23  7.5541e-29  2.2638e-23  1.6692e-28  2.4936e-23  3.9248e-28  2.9059e-23  9.5229e-28  3.6509e-23  2.3082e-27  5.0127e-23  5.4531e-27  7.5520e-23  1.2473e-26  1.2440e-22  2.7968e-26  2.2312e-22
      7.80  1.8652e-31  2.0855e-23  1.9320e-31  2.0859e-23  2.1395e-31  2.0866e-23  2.7397e-31  2.0879e-23  4.4589e-31  2.0902e-23  9.4911e-31  2.1152e-23  2.2199e-30  2.1015e-23  5.2846e-30  2.1143e-23  9.4081e-30  2.1372e-23  1.7470e-29  2.1780e-23  3.3248e-29  2.2506e-23  6.6291e-29  2.3801e-23  1.4186e-28  2.6116e-23  3.2711e-28  3.0269e-23  7.8441e-28  3.7772e-23  1.9052e-27  5.1488e-23  4.5600e-27  7.7064e-23  1.0621e-26  1.2629e-22  2.4240e-26  2.2571e-22
      7.85  1.8291e-31  2.2049e-23  1.8911e-31  2.2053e-23  2.0812e-31  2.2060e-23  2.6450e-31  2.2073e-23  4.2183e-31  2.2096e-23  8.7784e-31  2.2137e-23  2.0844e-30  2.2210e-23  4.7925e-30  2.2340e-23  8.5520e-30  2.2571e-23  1.5712e-29  2.2983e-23  2.9752e-29  2.3716e-23  5.8204e-29  2.5024e-23  1.2193e-28  2.7361e-23  2.7345e-28  3.1554e-23  6.4626e-28  3.9130e-23  1.5672e-27  5.2980e-23  3.7898e-27  7.8805e-23  8.9820e-27  1.2851e-22  2.0888e-26  2.2888e-22
      7.90  1.7985e-31  2.3294e-23  1.8536e-31  2.3298e-23  2.0288e-31  2.3306e-23  2.5305e-31  2.3319e-23  3.9622e-31  2.3342e-23  8.0742e-31  2.3384e-23  1.9258e-30  2.3457e-23  4.2179e-30  2.3588e-23  7.4153e-30  2.3822e-23  1.3501e-29  2.4237e-23  2.5402e-29  2.4977e-23  4.9031e-29  2.6297e-23  1.0065e-28  2.8656e-23  2.2095e-28  3.2889e-23  5.1463e-28  4.0537e-23  1.2444e-27  5.4518e-23  3.0382e-27  8.0587e-23  7.3315e-27  1.3076e-22  1.7406e-26  2.3206e-22
      7.95  1.7725e-31  2.4591e-23  1.8207e-31  2.4595e-23  1.9755e-31  2.4603e-23  2.4259e-31  2.4616e-23  3.6991e-31  2.4640e-23  7.2404e-31  2.4681e-23  1.7073e-30  2.4755e-23  3.5315e-30  2.4887e-23  6.2906e-30  2.5122e-23  1.1374e-29  2.5540e-23  2.1166e-29  2.6285e-23  4.0554e-29  2.7613e-23  8.1734e-29  2.9987e-23  1.7583e-28  3.4246e-23  4.0292e-28  4.1942e-23  9.6783e-28  5.6010e-23  2.3753e-27  8.2239e-23  5.8171e-27  1.3272e-22  1.4078e-26  2.3463e-22
      8.00  1.7503e-31  2.5940e-23  1.7912e-31  2.5944e-23  1.9237e-31  2.5952e-23  2.3105e-31  2.5965e-23  3.3985e-31  2.5988e-23  6.4724e-31  2.6030e-23  1.4998e-30  2.6105e-23  2.9584e-30  2.6237e-23  5.1874e-30  2.6472e-23  9.4077e-30  2.6891e-23  1.7354e-29  2.7638e-23  3.3041e-29  2.8969e-23  6.5551e-29  3.1347e-23  1.3845e-28  3.5616e-23  3.1210e-28  4.3328e-23  7.4297e-28  5.7427e-23  1.8265e-27  8.3713e-23  4.5245e-27  1.3430e-22  1.1138e-26  2.3640e-22
      8.05  1.7313e-31  2.7473e-23  1.7649e-31  2.7478e-23  1.8749e-31  2.7485e-23  2.1963e-31  2.7498e-23  3.0991e-31  2.7522e-23  5.6504e-31  2.7564e-23  1.2735e-30  2.7638e-23  2.4331e-30  2.7770e-23  4.2370e-30  2.8006e-23  7.6366e-30  2.8425e-23  1.3987e-29  2.9172e-23  2.6441e-29  3.0503e-23  5.1915e-29  3.2883e-23  1.0804e-28  3.7154e-23  2.4013e-28  4.4869e-23  5.6672e-28  5.8973e-23  1.3936e-27  8.5266e-23  3.4854e-27  1.3586e-22  8.7159e-27  2.3797e-22
      8.10  1.7153e-31  2.9077e-23  1.7421e-31  2.9082e-23  1.8295e-31  2.9089e-23  2.0863e-31  2.9102e-23  2.8163e-31  2.9126e-23  4.9098e-31  2.9167e-23  1.0524e-30  2.9242e-23  1.9866e-30  2.9374e-23  3.4007e-30  2.9608e-23  6.0333e-30  3.0026e-23  1.1080e-29  3.0770e-23  2.0809e-29  3.2098e-23  4.0210e-29  3.4470e-23  8.3317e-29  3.8727e-23  1.8294e-28  4.6419e-23  4.2821e-28  6.0477e-23  1.0522e-27  8.6684e-23  2.6517e-27  1.3711e-22  6.7250e-27  2.3885e-22
      8.15  1.7020e-31  3.0753e-23  1.7228e-31  3.0757e-23  1.7914e-31  3.0765e-23  1.9909e-31  3.0778e-23  2.5682e-31  3.0801e-23  4.1947e-31  3.0843e-23  8.7322e-31  3.0916e-23  1.5869e-30  3.1048e-23  2.7172e-30  3.1281e-23  4.7837e-30  3.1697e-23  8.5673e-30  3.2437e-23  1.5954e-29  3.3757e-23  3.1144e-29  3.6117e-23  6.3327e-29  4.0351e-23  1.3684e-28  4.8000e-23  3.1857e-28  6.1981e-23  7.7621e-28  8.8042e-23  1.9776e-27  1.3817e-22  5.0766e-27  2.3931e-22
      8.20  1.6909e-31  3.2501e-23  1.7242e-31  3.2831e-23  1.7594e-31  3.2513e-23  1.9345e-31  3.2852e-23  2.3549e-31  3.2549e-23  3.6160e-31  3.2590e-23  7.1367e-31  3.2663e-23  1.2599e-30  3.2794e-23  2.1309e-30  3.3026e-23  3.6845e-30  3.3439e-23  6.6739e-30  3.4174e-23  1.2344e-29  3.5486e-23  2.3716e-29  3.7830e-23  4.7768e-29  4.2037e-23  1.0298e-28  4.9636e-23  2.3717e-28  6.3526e-23  5.7997e-28  8.9413e-23  1.4764e-27  1.3920e-22  3.8315e-27  2.3962e-22
      8.25  1.6813e-31  3.4322e-23  1.6934e-31  3.4326e-23  1.7304e-31  3.4334e-23  1.8500e-31  3.4347e-23  2.1857e-31  3.4370e-23  3.1471e-31  3.4411e-23  5.8426e-31  3.4483e-23  9.9995e-31  3.4613e-23  1.6487e-30  3.4844e-23  2.8472e-30  3.5254e-23  5.0720e-30  3.5985e-23  9.4091e-30  3.7289e-23  1.7973e-29  3.9619e-23  3.6101e-29  4.3800e-23  7.7161e-29  5.1352e-23  1.7605e-28  6.5154e-23  4.3222e-28  9.0876e-23  1.1054e-27  1.4034e-22  2.8971e-27  2.4007e-22
      8.30  1.6911e-31  3.6755e-23  1.6828e-31  3.6394e-23  1.7103e-31  3.6401e-23  1.7968e-31  3.6414e-23  2.0498e-31  3.6437e-23  2.7743e-31  3.6478e-23  4.8257e-31  3.6551e-23  7.9827e-31  3.6680e-23  1.3007e-30  3.6910e-23  2.2175e-30  3.7320e-23  3.9159e-30  3.8050e-23  7.2169e-30  3.9352e-23  1.3598e-29  4.1679e-23  2.7184e-29  4.5854e-23  5.7892e-29  5.3396e-23  1.3234e-28  6.7178e-23  3.2160e-28  9.2858e-23  8.3094e-28  1.4223e-22  2.1975e-27  2.4176e-22
      8.35  1.6683e-31  3.8558e-23  1.6748e-31  3.8562e-23  1.6951e-31  3.8569e-23  1.7582e-31  3.8582e-23  1.9415e-31  3.8605e-23  2.4689e-31  3.8646e-23  3.9923e-31  3.8719e-23  6.3356e-31  3.8848e-23  1.0051e-30  3.9079e-23  1.6831e-30  3.9490e-23  2.9403e-30  4.0221e-23  5.3364e-30  4.1525e-23  1.0104e-29  4.3855e-23  2.0160e-29  4.8036e-23  4.2926e-29  5.5588e-23  9.8277e-29  6.9388e-23  2.4110e-28  9.5098e-23  6.2368e-28  1.4452e-22  1.6658e-27  2.4411e-22
      8.40  1.6635e-31  4.0829e-23  1.6682e-31  4.0833e-23  1.6829e-31  4.0840e-23  1.7293e-31  4.0853e-23  1.8597e-31  4.0877e-23  2.2411e-31  4.0918e-23  3.3221e-31  4.0991e-23  5.0415e-31  4.1121e-23  7.7313e-31  4.1353e-23  1.2643e-30  4.1765e-23  2.1764e-30  4.2500e-23  3.9182e-30  4.3810e-23  7.3931e-30  4.6151e-23  1.4753e-29  5.0352e-23  3.1502e-29  5.7940e-23  7.2506e-29  7.1803e-23  1.7913e-28  9.7628e-23  4.6757e-28  1.4726e-22  1.2625e-27  2.4725e-22
      8.45  1.6597e-31  4.3207e-23  1.6631e-31  4.3211e-23  1.6737e-31  4.3218e-23  1.7051e-31  4.3231e-23  1.8040e-31  4.3255e-23  2.0795e-31  4.3296e-23  2.8637e-31  4.3370e-23  4.1244e-31  4.3501e-23  6.0873e-31  4.3735e-23  9.6715e-31  4.4151e-23  1.6344e-30  4.4892e-23  2.9110e-30  4.6212e-23  5.4646e-30  4.8573e-23  1.0895e-29  5.2809e-23  2.3316e-29  6.0458e-23  5.3913e-29  7.4434e-23  1.3407e-28  1.0047e-22  3.5277e-28  1.5049e-22  9.6172e-28  2.5123e-22
      8.50  1.6566e-31  4.5694e-23  1.6591e-31  4.5698e-23  1.6672e-31  4.5705e-23  1.6902e-31  4.5719e-23  1.7607e-31  4.5742e-23  1.9631e-31  4.5784e-23  2.5416e-31  4.5859e-23  3.4531e-31  4.5992e-23  4.9167e-31  4.6228e-23  7.5601e-31  4.6649e-23  1.2481e-30  4.7399e-23  2.1917e-30  4.8735e-23  4.0844e-30  5.1124e-23  8.1234e-30  5.5409e-23  1.7405e-29  6.3149e-23  4.0396e-29  7.7288e-23  1.0101e-28  1.0362e-22  2.6767e-28  1.5421e-22  7.3592e-28  2.5607e-22
