# This was generated using Cloudy10 and the columns are ordered 
# as log10 of the fraction of the metallicity to the solar metallicity
# 'h_*_Z' and 'c_*_Z' stands for cooling and heating respectively 
# at * metalicity
#
# NOTE: This was generated separately from loop_coolingcurve_w_UV.py
#       using Output_metals_w_redshift.py.
#
# Redshift = 5.0
# hden = -9.0
#
#     temp   h_-3.00_Z   c_-3.00_Z   h_-2.75_Z   c_-2.75_Z   h_-2.50_Z   c_-2.50_Z   h_-2.25_Z   c_-2.25_Z   h_-2.00_Z   c_-2.00_Z   h_-1.75_Z   c_-1.75_Z   h_-1.50_Z   c_-1.50_Z   h_-1.25_Z   c_-1.25_Z   h_-1.00_Z   c_-1.00_Z   h_-0.75_Z   c_-0.75_Z   h_-0.50_Z   c_-0.50_Z   h_-0.25_Z   c_-0.25_Z    h_0.00_Z    c_0.00_Z    h_0.25_Z    c_0.25_Z    h_0.50_Z    c_0.50_Z    h_0.75_Z    c_0.75_Z    h_1.00_Z    c_1.00_Z    h_1.25_Z    c_1.25_Z    h_1.50_Z    c_1.50_Z 
      4.00  1.7829e-22  8.0951e-20  1.7836e-22  8.0951e-20  1.7847e-22  8.0952e-20  1.7868e-22  8.0953e-20  1.7905e-22  8.0956e-20  1.7971e-22  8.0961e-20  1.8087e-22  8.0969e-20  1.8294e-22  8.0985e-20  1.8663e-22  8.1011e-20  1.9319e-22  8.1059e-20  2.0486e-22  8.1144e-20  2.2562e-22  8.1296e-20  2.6258e-22  8.1565e-20  3.2847e-22  8.2043e-20  4.4621e-22  8.2894e-20  6.5797e-22  8.4406e-20  1.0537e-21  8.8445e-20  1.7852e-21  9.4327e-20  3.1702e-21  1.0367e-19
      4.05  1.7754e-22  9.0828e-20  1.7761e-22  9.0829e-20  1.7772e-22  9.0829e-20  1.7792e-22  9.0831e-20  1.7828e-22  9.0834e-20  1.7891e-22  9.0840e-20  1.8004e-22  9.0849e-20  1.8204e-22  9.0866e-20  1.8561e-22  9.0896e-20  1.9196e-22  9.0950e-20  2.0324e-22  9.1046e-20  2.2333e-22  9.1216e-20  2.5909e-22  9.1518e-20  3.2283e-22  9.2055e-20  4.3673e-22  9.3010e-20  6.4150e-22  9.4708e-20  1.0238e-21  9.9149e-20  1.7315e-21  1.0579e-19  3.0715e-21  1.1631e-19
      4.10  1.7685e-22  1.0191e-19  1.7691e-22  1.0191e-19  1.7702e-22  1.0191e-19  1.7721e-22  1.0191e-19  1.7756e-22  1.0192e-19  1.7817e-22  1.0192e-19  1.7926e-22  1.0193e-19  1.8120e-22  1.0195e-19  1.8465e-22  1.0199e-19  1.9079e-22  1.0205e-19  2.0171e-22  1.0216e-19  2.2115e-22  1.0235e-19  2.5574e-22  1.0269e-19  3.1742e-22  1.0329e-19  4.2763e-22  1.0436e-19  6.2570e-22  1.0627e-19  9.9526e-22  1.1117e-19  1.6800e-21  1.1865e-19  2.9768e-21  1.3048e-19
      4.15  1.7620e-22  1.1435e-19  1.7626e-22  1.1435e-19  1.7637e-22  1.1435e-19  1.7656e-22  1.1435e-19  1.7689e-22  1.1435e-19  1.7748e-22  1.1436e-19  1.7854e-22  1.1437e-19  1.8042e-22  1.1439e-19  1.8376e-22  1.1443e-19  1.8970e-22  1.1450e-19  2.0026e-22  1.1462e-19  2.1906e-22  1.1483e-19  2.5254e-22  1.1522e-19  3.1222e-22  1.1589e-19  4.1887e-22  1.1710e-19  6.1048e-22  1.1924e-19  9.6772e-22  1.2464e-19  1.6306e-21  1.3308e-19  2.8857e-21  1.4638e-19
      4.20  1.7560e-22  1.2830e-19  1.7566e-22  1.2830e-19  1.7576e-22  1.2830e-19  1.7595e-22  1.2830e-19  1.7627e-22  1.2831e-19  1.7684e-22  1.2831e-19  1.7786e-22  1.2833e-19  1.7968e-22  1.2835e-19  1.8291e-22  1.2839e-19  1.8866e-22  1.2847e-19  1.9888e-22  1.2861e-19  2.1707e-22  1.2885e-19  2.4946e-22  1.2927e-19  3.0720e-22  1.3004e-19  4.1039e-22  1.3139e-19  5.9574e-22  1.3379e-19  9.4102e-22  1.3974e-19  1.5827e-21  1.4927e-19  2.7978e-21  1.6423e-19
      4.25  1.7505e-22  1.4395e-19  1.7510e-22  1.4395e-19  1.7520e-22  1.4395e-19  1.7538e-22  1.4396e-19  1.7569e-22  1.4396e-19  1.7625e-22  1.4397e-19  1.7723e-22  1.4399e-19  1.7899e-22  1.4401e-19  1.8211e-22  1.4406e-19  1.8767e-22  1.4415e-19  1.9755e-22  1.4430e-19  2.1514e-22  1.4457e-19  2.4646e-22  1.4505e-19  3.0230e-22  1.4590e-19  4.0212e-22  1.4742e-19  5.8142e-22  1.5012e-19  9.1492e-22  1.5665e-19  1.5360e-21  1.6742e-19  2.7125e-21  1.8425e-19
      4.30  1.7453e-22  1.6152e-19  1.7459e-22  1.6152e-19  1.7468e-22  1.6152e-19  1.7485e-22  1.6152e-19  1.7515e-22  1.6153e-19  1.7569e-22  1.6154e-19  1.7665e-22  1.6155e-19  1.7834e-22  1.6159e-19  1.8136e-22  1.6164e-19  1.8673e-22  1.6174e-19  1.9628e-22  1.6191e-19  2.1327e-22  1.6221e-19  2.4354e-22  1.6275e-19  2.9751e-22  1.6371e-19  3.9398e-22  1.6541e-19  5.6734e-22  1.6845e-19  8.8920e-22  1.7558e-19  1.4901e-21  1.8776e-19  2.6288e-21  2.0671e-19
      4.35  1.7406e-22  1.8122e-19  1.7411e-22  1.8123e-19  1.7420e-22  1.8123e-19  1.7436e-22  1.8123e-19  1.7466e-22  1.8124e-19  1.7517e-22  1.8125e-19  1.7609e-22  1.8127e-19  1.7773e-22  1.8130e-19  1.8064e-22  1.8136e-19  1.8582e-22  1.8147e-19  1.9504e-22  1.8166e-19  2.1144e-22  1.8200e-19  2.4066e-22  1.8261e-19  2.9275e-22  1.8369e-19  3.8592e-22  1.8560e-19  5.5336e-22  1.8901e-19  8.6363e-22  1.9677e-19  1.4446e-21  2.1055e-19  2.5462e-21  2.3190e-19
      4.40  1.7361e-22  2.0334e-19  1.7366e-22  2.0334e-19  1.7375e-22  2.0334e-19  1.7391e-22  2.0334e-19  1.7419e-22  2.0335e-19  1.7469e-22  2.0336e-19  1.7558e-22  2.0339e-19  1.7715e-22  2.0342e-19  1.7996e-22  2.0349e-19  1.8495e-22  2.0361e-19  1.9383e-22  2.0383e-19  2.0964e-22  2.0421e-19  2.3780e-22  2.0489e-19  2.8802e-22  2.0610e-19  3.7785e-22  2.0825e-19  5.3937e-22  2.1208e-19  8.3798e-22  2.2047e-19  1.3990e-21  2.3609e-19  2.4639e-21  2.6014e-19
      4.45  1.7320e-22  2.2815e-19  1.7325e-22  2.2815e-19  1.7334e-22  2.2815e-19  1.7349e-22  2.2816e-19  1.7376e-22  2.2816e-19  1.7424e-22  2.2818e-19  1.7509e-22  2.2820e-19  1.7661e-22  2.2824e-19  1.7931e-22  2.2832e-19  1.8411e-22  2.2846e-19  1.9265e-22  2.2870e-19  2.0785e-22  2.2913e-19  2.3494e-22  2.2989e-19  2.8326e-22  2.3125e-19  3.6972e-22  2.3367e-19  5.2527e-22  2.3796e-19  8.1209e-22  2.4695e-19  1.3531e-21  2.6469e-19  2.3814e-21  2.9181e-19
      4.50  1.7282e-22  2.5599e-19  1.7287e-22  2.5599e-19  1.7295e-22  2.5599e-19  1.7310e-22  2.5600e-19  1.7336e-22  2.5600e-19  1.7382e-22  2.5602e-19  1.7464e-22  2.5605e-19  1.7609e-22  2.5609e-19  1.7868e-22  2.5618e-19  1.8329e-22  2.5633e-19  1.9148e-22  2.5660e-19  2.0607e-22  2.5709e-19  2.3207e-22  2.5795e-19  2.7846e-22  2.5947e-19  3.6150e-22  2.6219e-19  5.1101e-22  2.6701e-19  7.8582e-22  2.7652e-19  1.3067e-21  2.9671e-19  2.2984e-21  3.2731e-19
      4.55  1.7247e-22  2.8722e-19  1.7252e-22  2.8722e-19  1.7259e-22  2.8723e-19  1.7273e-22  2.8723e-19  1.7298e-22  2.8724e-19  1.7342e-22  2.8726e-19  1.7421e-22  2.8729e-19  1.7560e-22  2.8734e-19  1.7808e-22  2.8744e-19  1.8249e-22  2.8761e-19  1.9033e-22  2.8792e-19  2.0429e-22  2.8846e-19  2.2918e-22  2.8942e-19  2.7361e-22  2.9114e-19  3.5318e-22  2.9419e-19  4.9653e-22  2.9960e-19  7.5910e-22  3.0948e-19  1.2597e-21  3.3252e-19  2.2145e-21  3.6710e-19
      4.60  1.7215e-22  3.2227e-19  1.7219e-22  3.2227e-19  1.7226e-22  3.2227e-19  1.7240e-22  3.2228e-19  1.7263e-22  3.2229e-19  1.7305e-22  3.2231e-19  1.7380e-22  3.2234e-19  1.7513e-22  3.2240e-19  1.7749e-22  3.2251e-19  1.8170e-22  3.2271e-19  1.8919e-22  3.2305e-19  2.0252e-22  3.2366e-19  2.2628e-22  3.2474e-19  2.6871e-22  3.2667e-19  3.4474e-22  3.3009e-19  4.8185e-22  3.3617e-19  7.3275e-22  3.4699e-19  1.2119e-21  3.7255e-19  2.1296e-21  4.1167e-19
      4.65  1.7184e-22  3.6159e-19  1.7188e-22  3.6159e-19  1.7196e-22  3.6160e-19  1.7208e-22  3.6160e-19  1.7231e-22  3.6162e-19  1.7271e-22  3.6164e-19  1.7342e-22  3.6168e-19  1.7468e-22  3.6174e-19  1.7693e-22  3.6187e-19  1.8094e-22  3.6208e-19  1.8806e-22  3.6247e-19  2.0075e-22  3.6315e-19  2.2337e-22  3.6437e-19  2.6377e-22  3.6653e-19  3.3623e-22  3.7038e-19  4.6702e-22  3.7721e-19  7.0640e-22  3.8936e-19  1.1637e-21  4.1725e-19  2.0439e-21  4.6158e-19
      4.70  1.7156e-22  4.0571e-19  1.7160e-22  4.0571e-19  1.7167e-22  4.0572e-19  1.7179e-22  4.0573e-19  1.7200e-22  4.0574e-19  1.7238e-22  4.0576e-19  1.7306e-22  4.0581e-19  1.7426e-22  4.0588e-19  1.7639e-22  4.0602e-19  1.8019e-22  4.0626e-19  1.8695e-22  4.0670e-19  1.9899e-22  4.0746e-19  2.2047e-22  4.0883e-19  2.5884e-22  4.1126e-19  3.2770e-22  4.1558e-19  4.5213e-22  4.2326e-19  6.7997e-22  4.3690e-19  1.1153e-21  4.6734e-19  1.9577e-21  5.1745e-19
      4.75  1.7131e-22  4.5521e-19  1.7134e-22  4.5522e-19  1.7141e-22  4.5522e-19  1.7152e-22  4.5523e-19  1.7172e-22  4.5525e-19  1.7208e-22  4.5527e-19  1.7272e-22  4.5532e-19  1.7386e-22  4.5541e-19  1.7588e-22  4.5556e-19  1.7947e-22  4.5584e-19  1.8587e-22  4.5632e-19  1.9727e-22  4.5718e-19  2.1760e-22  4.5872e-19  2.5395e-22  4.6145e-19  3.1922e-22  4.6630e-19  4.3730e-22  4.7492e-19  6.5370e-22  4.9025e-19  1.0673e-21  5.2356e-19  1.8718e-21  5.8013e-19
      4.80  1.7107e-22  5.1076e-19  1.7110e-22  5.1076e-19  1.7116e-22  5.1077e-19  1.7127e-22  5.1078e-19  1.7146e-22  5.1079e-19  1.7180e-22  5.1083e-19  1.7240e-22  5.1088e-19  1.7347e-22  5.1098e-19  1.7538e-22  5.1115e-19  1.7878e-22  5.1146e-19  1.8482e-22  5.1200e-19  1.9559e-22  5.1297e-19  2.1479e-22  5.1469e-19  2.4915e-22  5.1776e-19  3.1087e-22  5.2321e-19  4.2266e-22  5.3290e-19  6.2788e-22  5.5011e-19  1.0198e-21  5.8638e-19  1.7867e-21  6.5045e-19
      4.85  1.7085e-22  5.7308e-19  1.7088e-22  5.7308e-19  1.7094e-22  5.7309e-19  1.7104e-22  5.7310e-19  1.7122e-22  5.7312e-19  1.7154e-22  5.7316e-19  1.7210e-22  5.7322e-19  1.7312e-22  5.7333e-19  1.7491e-22  5.7352e-19  1.7811e-22  5.7386e-19  1.8381e-22  5.7448e-19  1.9395e-22  5.7557e-19  2.1206e-22  5.7750e-19  2.4446e-22  5.8095e-19  3.0272e-22  5.8707e-19  4.0833e-22  5.9795e-19  6.0257e-22  6.1728e-19  9.7309e-22  6.5657e-19  1.7026e-21  7.2921e-19
      4.90  1.7064e-22  6.4301e-19  1.7067e-22  6.4301e-19  1.7073e-22  6.4302e-19  1.7082e-22  6.4303e-19  1.7099e-22  6.4305e-19  1.7129e-22  6.4309e-19  1.7183e-22  6.4316e-19  1.7278e-22  6.4328e-19  1.7447e-22  6.4350e-19  1.7748e-22  6.4389e-19  1.8284e-22  6.4457e-19  1.9238e-22  6.4580e-19  2.0942e-22  6.4797e-19  2.3992e-22  6.5184e-19  2.9480e-22  6.5872e-19  3.9440e-22  6.7094e-19  5.7788e-22  6.9266e-19  9.2754e-22  7.3491e-19  1.6201e-21  8.1737e-19
      4.95  1.7046e-22  7.2147e-19  1.7048e-22  7.2147e-19  1.7053e-22  7.2148e-19  1.7062e-22  7.2149e-19  1.7078e-22  7.2152e-19  1.7106e-22  7.2156e-19  1.7157e-22  7.2164e-19  1.7246e-22  7.2177e-19  1.7405e-22  7.2202e-19  1.7687e-22  7.2245e-19  1.8191e-22  7.2323e-19  1.9087e-22  7.2460e-19  2.0688e-22  7.2704e-19  2.3555e-22  7.3139e-19  2.8715e-22  7.3911e-19  3.8091e-22  7.5284e-19  5.5390e-22  7.7723e-19  8.8321e-22  8.2231e-19  1.5395e-21  9.1604e-19
      5.00  1.7028e-22  8.0950e-19  1.7031e-22  8.0950e-19  1.7036e-22  8.0951e-19  1.7044e-22  8.0953e-19  1.7059e-22  8.0955e-19  1.7085e-22  8.0960e-19  1.7132e-22  8.0969e-19  1.7216e-22  8.0984e-19  1.7365e-22  8.1012e-19  1.7630e-22  8.1061e-19  1.8102e-22  8.1147e-19  1.8943e-22  8.1302e-19  2.0444e-22  8.1576e-19  2.3134e-22  8.2064e-19  2.7979e-22  8.2932e-19  3.6789e-22  8.4473e-19  5.3069e-22  8.7213e-19  8.4049e-22  9.2080e-19  1.4609e-21  1.0264e-18
      5.05  1.7012e-22  9.0827e-19  1.7015e-22  9.0828e-19  1.7019e-22  9.0829e-19  1.7027e-22  9.0830e-19  1.7041e-22  9.0834e-19  1.7066e-22  9.0839e-19  1.7110e-22  9.0849e-19  1.7188e-22  9.0866e-19  1.7327e-22  9.0897e-19  1.7576e-22  9.0952e-19  1.8017e-22  9.1049e-19  1.8805e-22  9.1222e-19  2.0211e-22  9.1531e-19  2.2731e-22  9.2079e-19  2.7272e-22  9.3053e-19  3.5536e-22  9.4785e-19  5.0829e-22  9.7862e-19  7.9966e-22  1.0333e-18  1.3845e-21  1.1498e-18
      5.10  1.6997e-22  1.0191e-18  1.7000e-22  1.0191e-18  1.7004e-22  1.0191e-18  1.7011e-22  1.0191e-18  1.7024e-22  1.0192e-18  1.7047e-22  1.0192e-18  1.7089e-22  1.0193e-18  1.7162e-22  1.0195e-18  1.7292e-22  1.0199e-18  1.7524e-22  1.0205e-18  1.7937e-22  1.0216e-18  1.8673e-22  1.0235e-18  1.9988e-22  1.0270e-18  2.2345e-22  1.0332e-18  2.6594e-22  1.0441e-18  3.4334e-22  1.0635e-18  4.8676e-22  1.0981e-18  7.6028e-22  1.1595e-18  1.3104e-21  1.2876e-18
      5.15  1.6984e-22  1.1434e-18  1.6986e-22  1.1435e-18  1.6990e-22  1.1435e-18  1.6997e-22  1.1435e-18  1.7009e-22  1.1435e-18  1.7031e-22  1.1436e-18  1.7069e-22  1.1437e-18  1.7137e-22  1.1439e-18  1.7259e-22  1.1443e-18  1.7476e-22  1.1450e-18  1.7861e-22  1.1462e-18  1.8549e-22  1.1484e-18  1.9777e-22  1.1523e-18  2.1978e-22  1.1592e-18  2.5949e-22  1.1715e-18  3.3187e-22  1.1934e-18  4.6614e-22  1.2322e-18  7.2271e-22  1.3011e-18  1.2390e-21  1.4416e-18
      5.20  1.6971e-22  1.2830e-18  1.6973e-22  1.2830e-18  1.6977e-22  1.2830e-18  1.6983e-22  1.2830e-18  1.6995e-22  1.2831e-18  1.7015e-22  1.2831e-18  1.7051e-22  1.2833e-18  1.7115e-22  1.2835e-18  1.7228e-22  1.2840e-18  1.7430e-22  1.2847e-18  1.7790e-22  1.2861e-18  1.8431e-22  1.2886e-18  1.9576e-22  1.2929e-18  2.1630e-22  1.3007e-18  2.5335e-22  1.3145e-18  3.2095e-22  1.3390e-18  4.4649e-22  1.3826e-18  6.8676e-22  1.4601e-18  1.1704e-21  1.6134e-18
      5.25  1.6960e-22  1.4395e-18  1.6962e-22  1.4395e-18  1.6965e-22  1.4395e-18  1.6971e-22  1.4396e-18  1.6982e-22  1.4396e-18  1.7000e-22  1.4397e-18  1.7034e-22  1.4399e-18  1.7093e-22  1.4401e-18  1.7199e-22  1.4406e-18  1.7387e-22  1.4415e-18  1.7722e-22  1.4430e-18  1.8320e-22  1.4458e-18  1.9387e-22  1.4507e-18  2.1301e-22  1.4594e-18  2.4756e-22  1.4749e-18  3.1062e-22  1.5025e-18  4.2784e-22  1.5514e-18  6.5252e-22  1.6384e-18  1.1050e-21  1.8056e-18
      5.30  1.6949e-22  1.6152e-18  1.6951e-22  1.6152e-18  1.6954e-22  1.6152e-18  1.6960e-22  1.6152e-18  1.6970e-22  1.6153e-18  1.6987e-22  1.6154e-18  1.7018e-22  1.6155e-18  1.7073e-22  1.6159e-18  1.7172e-22  1.6164e-18  1.7347e-22  1.6174e-18  1.7659e-22  1.6191e-18  1.8215e-22  1.6222e-18  1.9209e-22  1.6277e-18  2.0992e-22  1.6375e-18  2.4210e-22  1.6549e-18  3.0087e-22  1.6858e-18  4.1022e-22  1.7408e-18  6.2002e-22  1.8385e-18  1.0427e-21  2.0200e-18
      5.35  1.6940e-22  1.8122e-18  1.6941e-22  1.8122e-18  1.6944e-22  1.8123e-18  1.6949e-22  1.8123e-18  1.6958e-22  1.8124e-18  1.6975e-22  1.8125e-18  1.7004e-22  1.8127e-18  1.7055e-22  1.8130e-18  1.7147e-22  1.8136e-18  1.7310e-22  1.8147e-18  1.7600e-22  1.8167e-18  1.8117e-22  1.8202e-18  1.9042e-22  1.8263e-18  2.0701e-22  1.8373e-18  2.3697e-22  1.8569e-18  2.9170e-22  1.8916e-18  3.9359e-22  1.9533e-18  5.8926e-22  2.0630e-18  9.8357e-22  2.2590e-18
      5.40  1.6931e-22  2.0334e-18  1.6932e-22  2.0334e-18  1.6935e-22  2.0334e-18  1.6940e-22  2.0334e-18  1.6948e-22  2.0335e-18  1.6963e-22  2.0336e-18  1.6990e-22  2.0339e-18  1.7038e-22  2.0342e-18  1.7123e-22  2.0349e-18  1.7275e-22  2.0362e-18  1.7545e-22  2.0384e-18  1.8026e-22  2.0423e-18  1.8886e-22  2.0492e-18  2.0428e-22  2.0615e-18  2.3215e-22  2.0835e-18  2.8306e-22  2.1225e-18  3.7792e-22  2.1918e-18  5.6018e-22  2.3150e-18  9.2793e-22  2.5337e-18
      5.45  1.6923e-22  2.2815e-18  1.6924e-22  2.2815e-18  1.6927e-22  2.2815e-18  1.6931e-22  2.2816e-18  1.6939e-22  2.2816e-18  1.6953e-22  2.2818e-18  1.6978e-22  2.2820e-18  1.7022e-22  2.2825e-18  1.7101e-22  2.2832e-18  1.7242e-22  2.2846e-18  1.7493e-22  2.2871e-18  1.7940e-22  2.2915e-18  1.8739e-22  2.2993e-18  2.0172e-22  2.3131e-18  2.2762e-22  2.3377e-18  2.7495e-22  2.3815e-18  3.6315e-22  2.4594e-18  5.3278e-22  2.5977e-18  8.7522e-22  2.8432e-18
      5.50  1.6915e-22  2.5599e-18  1.6916e-22  2.5599e-18  1.6919e-22  2.5599e-18  1.6923e-22  2.5599e-18  1.6930e-22  2.5600e-18  1.6943e-22  2.5602e-18  1.6966e-22  2.5605e-18  1.7008e-22  2.5610e-18  1.7081e-22  2.5618e-18  1.7212e-22  2.5634e-18  1.7445e-22  2.5662e-18  1.7860e-22  2.5711e-18  1.8601e-22  2.5798e-18  1.9932e-22  2.5954e-18  2.2336e-22  2.6230e-18  2.6731e-22  2.6722e-18  3.4923e-22  2.7596e-18  5.0686e-22  2.9149e-18  8.2529e-22  3.1906e-18
      5.55  1.6908e-22  2.8722e-18  1.6910e-22  2.8722e-18  1.6912e-22  2.8723e-18  1.6916e-22  2.8723e-18  1.6922e-22  2.8724e-18  1.6934e-22  2.8726e-18  1.6956e-22  2.8729e-18  1.6994e-22  2.8734e-18  1.7062e-22  2.8744e-18  1.7184e-22  2.8762e-18  1.7399e-22  2.8793e-18  1.7784e-22  2.8848e-18  1.8472e-22  2.8946e-18  1.9707e-22  2.9121e-18  2.1936e-22  2.9431e-18  2.6012e-22  2.9983e-18  3.3611e-22  3.0964e-18  4.8237e-22  3.2708e-18  7.7792e-22  3.5805e-18
      5.60  1.6902e-22  3.2227e-18  1.6903e-22  3.2227e-18  1.6905e-22  3.2227e-18  1.6909e-22  3.2228e-18  1.6915e-22  3.2229e-18  1.6926e-22  3.2231e-18  1.6946e-22  3.2234e-18  1.6982e-22  3.2241e-18  1.7045e-22  3.2252e-18  1.7157e-22  3.2271e-18  1.7357e-22  3.2306e-18  1.7714e-22  3.2368e-18  1.8352e-22  3.2478e-18  1.9496e-22  3.2674e-18  2.1562e-22  3.3023e-18  2.5339e-22  3.3643e-18  3.2379e-22  3.4744e-18  4.5928e-22  3.6702e-18  7.3298e-22  4.0179e-18
      5.65  1.6896e-22  3.6159e-18  1.6897e-22  3.6159e-18  1.6899e-22  3.6160e-18  1.6903e-22  3.6160e-18  1.6908e-22  3.6161e-18  1.6919e-22  3.6164e-18  1.6937e-22  3.6168e-18  1.6970e-22  3.6175e-18  1.7029e-22  3.6187e-18  1.7133e-22  3.6209e-18  1.7318e-22  3.6248e-18  1.7649e-22  3.6318e-18  1.8240e-22  3.6441e-18  1.9299e-22  3.6661e-18  2.1213e-22  3.7053e-18  2.4710e-22  3.7748e-18  3.1226e-22  3.8985e-18  4.3759e-22  4.1183e-18  6.9058e-22  4.5087e-18
      5.70  1.6891e-22  4.0571e-18  1.6892e-22  4.0571e-18  1.6894e-22  4.0572e-18  1.6897e-22  4.0572e-18  1.6902e-22  4.0574e-18  1.6912e-22  4.0576e-18  1.6929e-22  4.0581e-18  1.6960e-22  4.0588e-18  1.7014e-22  4.0602e-18  1.7110e-22  4.0627e-18  1.7282e-22  4.0671e-18  1.7588e-22  4.0749e-18  1.8136e-22  4.0888e-18  1.9117e-22  4.1135e-18  2.0889e-22  4.1574e-18  2.4126e-22  4.2355e-18  3.0152e-22  4.3744e-18  4.1734e-22  4.6211e-18  6.5090e-22  5.0595e-18
      5.75  1.6886e-22  4.5521e-18  1.6887e-22  4.5522e-18  1.6889e-22  4.5522e-18  1.6892e-22  4.5523e-18  1.6897e-22  4.5525e-18  1.6906e-22  4.5527e-18  1.6922e-22  4.5532e-18  1.6950e-22  4.5541e-18  1.7000e-22  4.5557e-18  1.7089e-22  4.5584e-18  1.7249e-22  4.5634e-18  1.7533e-22  4.5721e-18  1.8040e-22  4.5877e-18  1.8949e-22  4.6155e-18  2.0591e-22  4.6648e-18  2.3587e-22  4.7524e-18  2.9161e-22  4.9083e-18  3.9857e-22  5.1853e-18  6.1392e-22  5.6775e-18
      5.80  1.6882e-22  5.1076e-18  1.6883e-22  5.1076e-18  1.6884e-22  5.1077e-18  1.6887e-22  5.1078e-18  1.6892e-22  5.1079e-18  1.6900e-22  5.1083e-18  1.6915e-22  5.1088e-18  1.6941e-22  5.1098e-18  1.6988e-22  5.1115e-18  1.7070e-22  5.1147e-18  1.7218e-22  5.1202e-18  1.7482e-22  5.1300e-18  1.7952e-22  5.1475e-18  1.8796e-22  5.1787e-18  2.0317e-22  5.2340e-18  2.3093e-22  5.3324e-18  2.8251e-22  5.5074e-18  3.8130e-22  5.8184e-18  5.7975e-22  6.3709e-18
      5.85  1.6878e-22  5.7308e-18  1.6879e-22  5.7308e-18  1.6880e-22  5.7309e-18  1.6883e-22  5.7310e-18  1.6887e-22  5.7312e-18  1.6895e-22  5.7316e-18  1.6909e-22  5.7322e-18  1.6933e-22  5.7333e-18  1.6976e-22  5.7352e-18  1.7053e-22  5.7387e-18  1.7191e-22  5.7450e-18  1.7435e-22  5.7560e-18  1.7872e-22  5.7757e-18  1.8656e-22  5.8106e-18  2.0069e-22  5.8727e-18  2.2643e-22  5.9832e-18  2.7421e-22  6.1796e-18  3.6555e-22  6.5287e-18  5.4846e-22  7.1490e-18
      5.90  1.6875e-22  6.4301e-18  1.6875e-22  6.4301e-18  1.6877e-22  6.4302e-18  1.6879e-22  6.4303e-18  1.6883e-22  6.4305e-18  1.6890e-22  6.4309e-18  1.6903e-22  6.4316e-18  1.6926e-22  6.4328e-18  1.6966e-22  6.4351e-18  1.7038e-22  6.4390e-18  1.7165e-22  6.4459e-18  1.7393e-22  6.4584e-18  1.7800e-22  6.4804e-18  1.8529e-22  6.5196e-18  1.9843e-22  6.5894e-18  2.2236e-22  6.7134e-18  2.6670e-22  6.9338e-18  3.5126e-22  7.3257e-18  5.2002e-22  8.0221e-18
      5.95  1.6872e-22  7.2146e-18  1.6872e-22  7.2147e-18  1.6873e-22  7.2148e-18  1.6875e-22  7.2149e-18  1.6879e-22  7.2152e-18  1.6886e-22  7.2156e-18  1.6898e-22  7.2164e-18  1.6919e-22  7.2178e-18  1.6957e-22  7.2202e-18  1.7024e-22  7.2247e-18  1.7143e-22  7.2325e-18  1.7355e-22  7.2464e-18  1.7735e-22  7.2712e-18  1.8415e-22  7.3152e-18  1.9640e-22  7.3935e-18  2.1869e-22  7.5327e-18  2.5992e-22  7.7801e-18  3.3836e-22  8.2200e-18  4.9433e-22  9.0017e-18
      6.00  1.6869e-22  8.0950e-18  1.6869e-22  8.0950e-18  1.6870e-22  8.0951e-18  1.6872e-22  8.0953e-18  1.6876e-22  8.0955e-18  1.6882e-22  8.0960e-18  1.6893e-22  8.0969e-18  1.6913e-22  8.0985e-18  1.6948e-22  8.1013e-18  1.7011e-22  8.1062e-18  1.7122e-22  8.1150e-18  1.7321e-22  8.1306e-18  1.7676e-22  8.1584e-18  1.8312e-22  8.2078e-18  1.9457e-22  8.2957e-18  2.1538e-22  8.4519e-18  2.5383e-22  8.7297e-18  3.2677e-22  9.2234e-18  4.7123e-22  1.0101e-17
      6.05  1.6866e-22  9.0827e-18  1.6867e-22  9.0828e-18  1.6868e-22  9.0829e-18  1.6869e-22  9.0830e-18  1.6873e-22  9.0833e-18  1.6879e-22  9.0839e-18  1.6889e-22  9.0849e-18  1.6908e-22  9.0866e-18  1.6941e-22  9.0898e-18  1.6999e-22  9.0953e-18  1.7104e-22  9.1052e-18  1.7291e-22  9.1227e-18  1.7624e-22  9.1539e-18  1.8220e-22  9.2094e-18  1.9293e-22  9.3080e-18  2.1241e-22  9.4833e-18  2.4835e-22  9.7951e-18  3.1637e-22  1.0349e-17  4.5053e-22  1.1334e-17
      6.10  1.6864e-22  1.0191e-17  1.6864e-22  1.0191e-17  1.6865e-22  1.0191e-17  1.6867e-22  1.0191e-17  1.6870e-22  1.0192e-17  1.6876e-22  1.0192e-17  1.6885e-22  1.0193e-17  1.6903e-22  1.0195e-17  1.6934e-22  1.0199e-17  1.6989e-22  1.0205e-17  1.7088e-22  1.0216e-17  1.7263e-22  1.0236e-17  1.7576e-22  1.0271e-17  1.8136e-22  1.0333e-17  1.9145e-22  1.0444e-17  2.0973e-22  1.0641e-17  2.4342e-22  1.0991e-17  3.0703e-22  1.1613e-17  4.3199e-22  1.2718e-17
      6.15  1.6861e-22  1.1434e-17  1.6862e-22  1.1435e-17  1.6863e-22  1.1435e-17  1.6865e-22  1.1435e-17  1.6867e-22  1.1435e-17  1.6873e-22  1.1436e-17  1.6882e-22  1.1437e-17  1.6898e-22  1.1439e-17  1.6928e-22  1.1443e-17  1.6980e-22  1.1450e-17  1.7073e-22  1.1463e-17  1.7238e-22  1.1485e-17  1.7533e-22  1.1524e-17  1.8061e-22  1.1594e-17  1.9011e-22  1.1718e-17  2.0732e-22  1.1939e-17  2.3899e-22  1.2332e-17  2.9864e-22  1.3030e-17  4.1538e-22  1.4271e-17
      6.20  1.6860e-22  1.2830e-17  1.6860e-22  1.2830e-17  1.6861e-22  1.2830e-17  1.6862e-22  1.2830e-17  1.6865e-22  1.2831e-17  1.6870e-22  1.2831e-17  1.6879e-22  1.2833e-17  1.6894e-22  1.2835e-17  1.6922e-22  1.2840e-17  1.6971e-22  1.2847e-17  1.7059e-22  1.2861e-17  1.7215e-22  1.2886e-17  1.7494e-22  1.2930e-17  1.7993e-22  1.3009e-17  1.8890e-22  1.3148e-17  2.0514e-22  1.3396e-17  2.3498e-22  1.3837e-17  2.9108e-22  1.4621e-17  4.0046e-22  1.6013e-17
      6.25  1.6858e-22  1.4395e-17  1.6858e-22  1.4395e-17  1.6859e-22  1.4395e-17  1.6861e-22  1.4396e-17  1.6863e-22  1.4396e-17  1.6868e-22  1.4397e-17  1.6876e-22  1.4399e-17  1.6891e-22  1.4401e-17  1.6917e-22  1.4406e-17  1.6964e-22  1.4415e-17  1.7047e-22  1.4431e-17  1.7195e-22  1.4459e-17  1.7459e-22  1.4508e-17  1.7931e-22  1.4596e-17  1.8779e-22  1.4753e-17  2.0316e-22  1.5031e-17  2.3134e-22  1.5526e-17  2.8423e-22  1.6405e-17  3.8701e-22  1.7968e-17
      6.30  1.6856e-22  1.6152e-17  1.6857e-22  1.6152e-17  1.6858e-22  1.6152e-17  1.6859e-22  1.6152e-17  1.6861e-22  1.6153e-17  1.6866e-22  1.6154e-17  1.6874e-22  1.6155e-17  1.6888e-22  1.6159e-17  1.6913e-22  1.6164e-17  1.6957e-22  1.6174e-17  1.7036e-22  1.6192e-17  1.7176e-22  1.6223e-17  1.7426e-22  1.6278e-17  1.7874e-22  1.6377e-17  1.8679e-22  1.6553e-17  2.0135e-22  1.6865e-17  2.2803e-22  1.7420e-17  2.7801e-22  1.8407e-17  3.7485e-22  2.0162e-17
      6.35  1.6855e-22  1.8122e-17  1.6855e-22  1.8122e-17  1.6856e-22  1.8123e-17  1.6857e-22  1.8123e-17  1.6860e-22  1.8124e-17  1.6864e-22  1.8125e-17  1.6871e-22  1.8127e-17  1.6885e-22  1.8130e-17  1.6908e-22  1.8136e-17  1.6950e-22  1.8148e-17  1.7025e-22  1.8167e-17  1.7159e-22  1.8202e-17  1.7397e-22  1.8265e-17  1.7822e-22  1.8376e-17  1.8586e-22  1.8573e-17  1.9969e-22  1.8923e-17  2.2500e-22  1.9546e-17  2.7233e-22  2.0654e-17  3.6380e-22  2.2623e-17
      6.40  1.6854e-22  2.0334e-17  1.6854e-22  2.0334e-17  1.6855e-22  2.0334e-17  1.6856e-22  2.0334e-17  1.6858e-22  2.0335e-17  1.6862e-22  2.0336e-17  1.6869e-22  2.0339e-17  1.6882e-22  2.0342e-17  1.6905e-22  2.0349e-17  1.6945e-22  2.0362e-17  1.7016e-22  2.0384e-17  1.7143e-22  2.0423e-17  1.7369e-22  2.0493e-17  1.7774e-22  2.0618e-17  1.8501e-22  2.0839e-17  1.9816e-22  2.1232e-17  2.2221e-22  2.1932e-17  2.6712e-22  2.3175e-17  3.5369e-22  2.5385e-17
      6.45  1.6853e-22  2.2815e-17  1.6853e-22  2.2815e-17  1.6854e-22  2.2815e-17  1.6855e-22  2.2816e-17  1.6857e-22  2.2816e-17  1.6861e-22  2.2818e-17  1.6868e-22  2.2820e-17  1.6880e-22  2.2825e-17  1.6901e-22  2.2832e-17  1.6939e-22  2.2846e-17  1.7007e-22  2.2871e-17  1.7128e-22  2.2915e-17  1.7344e-22  2.2994e-17  1.7730e-22  2.3134e-17  1.8422e-22  2.3382e-17  1.9674e-22  2.3823e-17  2.1962e-22  2.4608e-17  2.6230e-22  2.6004e-17  3.4440e-22  2.8484e-17
      6.50  1.6852e-22  2.5599e-17  1.6852e-22  2.5599e-17  1.6853e-22  2.5599e-17  1.6854e-22  2.5599e-17  1.6856e-22  2.5600e-17  1.6859e-22  2.5602e-17  1.6866e-22  2.5605e-17  1.6877e-22  2.5610e-17  1.6898e-22  2.5618e-17  1.6934e-22  2.5634e-17  1.6999e-22  2.5662e-17  1.7115e-22  2.5712e-17  1.7320e-22  2.5800e-17  1.7688e-22  2.5956e-17  1.8349e-22  2.6235e-17  1.9542e-22  2.6730e-17  2.1722e-22  2.7611e-17  2.5784e-22  2.9178e-17  3.3581e-22  3.1962e-17
      6.55  1.6851e-22  2.8722e-17  1.6851e-22  2.8722e-17  1.6852e-22  2.8723e-17  1.6853e-22  2.8723e-17  1.6855e-22  2.8724e-17  1.6858e-22  2.8726e-17  1.6864e-22  2.8729e-17  1.6875e-22  2.8734e-17  1.6895e-22  2.8744e-17  1.6930e-22  2.8762e-17  1.6992e-22  2.8793e-17  1.7102e-22  2.8849e-17  1.7298e-22  2.8948e-17  1.7650e-22  2.9124e-17  1.8280e-22  2.9436e-17  1.9419e-22  2.9992e-17  2.1498e-22  3.0981e-17  2.5368e-22  3.2739e-17  3.2783e-22  3.5863e-17
      6.60  1.6850e-22  3.2227e-17  1.6850e-22  3.2227e-17  1.6851e-22  3.2227e-17  1.6852e-22  3.2228e-17  1.6854e-22  3.2229e-17  1.6857e-22  3.2231e-17  1.6863e-22  3.2234e-17  1.6873e-22  3.2241e-17  1.6892e-22  3.2252e-17  1.6925e-22  3.2271e-17  1.6985e-22  3.2307e-17  1.7090e-22  3.2369e-17  1.7278e-22  3.2480e-17  1.7613e-22  3.2677e-17  1.8216e-22  3.3028e-17  1.9303e-22  3.3652e-17  2.1288e-22  3.4762e-17  2.4978e-22  3.6735e-17  3.2039e-22  4.0241e-17
      6.65  1.6849e-22  3.6159e-17  1.6850e-22  3.6159e-17  1.6850e-22  3.6159e-17  1.6851e-22  3.6160e-17  1.6853e-22  3.6161e-17  1.6856e-22  3.6164e-17  1.6862e-22  3.6168e-17  1.6872e-22  3.6175e-17  1.6890e-22  3.6187e-17  1.6921e-22  3.6209e-17  1.6978e-22  3.6249e-17  1.7079e-22  3.6319e-17  1.7258e-22  3.6443e-17  1.7579e-22  3.6665e-17  1.8155e-22  3.7059e-17  1.9194e-22  3.7759e-17  2.1090e-22  3.9004e-17  2.4612e-22  4.1218e-17  3.1341e-22  4.5154e-17
      6.70  1.6849e-22  4.0571e-17  1.6849e-22  4.0571e-17  1.6849e-22  4.0572e-17  1.6850e-22  4.0572e-17  1.6852e-22  4.0574e-17  1.6855e-22  4.0576e-17  1.6861e-22  4.0581e-17  1.6870e-22  4.0589e-17  1.6887e-22  4.0603e-17  1.6918e-22  4.0627e-17  1.6972e-22  4.0672e-17  1.7068e-22  4.0750e-17  1.7240e-22  4.0890e-17  1.7547e-22  4.1139e-17  1.8098e-22  4.1581e-17  1.9092e-22  4.2367e-17  2.0904e-22  4.3764e-17  2.4268e-22  4.6249e-17  3.0686e-22  5.0666e-17
      6.75  1.6848e-22  4.5521e-17  1.6848e-22  4.5522e-17  1.6849e-22  4.5522e-17  1.6850e-22  4.5523e-17  1.6851e-22  4.5525e-17  1.6854e-22  4.5527e-17  1.6860e-22  4.5532e-17  1.6869e-22  4.5541e-17  1.6885e-22  4.5557e-17  1.6914e-22  4.5585e-17  1.6966e-22  4.5634e-17  1.7058e-22  4.5723e-17  1.7223e-22  4.5879e-17  1.7517e-22  4.6158e-17  1.8044e-22  4.6654e-17  1.8995e-22  4.7537e-17  2.0728e-22  4.9105e-17  2.3944e-22  5.1893e-17  3.0069e-22  5.6850e-17
      6.80  1.6848e-22  5.1076e-17  1.6848e-22  5.1076e-17  1.6848e-22  5.1077e-17  1.6849e-22  5.1078e-17  1.6851e-22  5.1079e-17  1.6854e-22  5.1083e-17  1.6859e-22  5.1088e-17  1.6867e-22  5.1098e-17  1.6883e-22  5.1116e-17  1.6911e-22  5.1147e-17  1.6961e-22  5.1203e-17  1.7049e-22  5.1302e-17  1.7207e-22  5.1478e-17  1.7488e-22  5.1791e-17  1.7993e-22  5.2347e-17  1.8903e-22  5.3337e-17  2.0562e-22  5.5098e-17  2.3637e-22  5.8227e-17  2.9487e-22  6.3790e-17
      6.85  1.6847e-22  5.7308e-17  1.6847e-22  5.7308e-17  1.6848e-22  5.7309e-17  1.6849e-22  5.7310e-17  1.6850e-22  5.7312e-17  1.6853e-22  5.7316e-17  1.6858e-22  5.7322e-17  1.6866e-22  5.7333e-17  1.6881e-22  5.7353e-17  1.6908e-22  5.7388e-17  1.6955e-22  5.7450e-17  1.7040e-22  5.7561e-17  1.7191e-22  5.7759e-17  1.7461e-22  5.8110e-17  1.7945e-22  5.8735e-17  1.8817e-22  5.9846e-17  2.0405e-22  6.1821e-17  2.3347e-22  6.5333e-17  2.8938e-22  7.1577e-17
      6.90  1.6847e-22  6.4301e-17  1.6847e-22  6.4301e-17  1.6848e-22  6.4302e-17  1.6848e-22  6.4303e-17  1.6850e-22  6.4305e-17  1.6852e-22  6.4309e-17  1.6857e-22  6.4316e-17  1.6865e-22  6.4329e-17  1.6879e-22  6.4351e-17  1.6905e-22  6.4390e-17  1.6951e-22  6.4460e-17  1.7032e-22  6.4585e-17  1.7177e-22  6.4807e-17  1.7435e-22  6.5201e-17  1.7899e-22  6.5902e-17  1.8735e-22  6.7149e-17  2.0257e-22  6.9366e-17  2.3073e-22  7.3307e-17  2.8419e-22  8.0314e-17
      6.95  1.6846e-22  7.2146e-17  1.6847e-22  7.2147e-17  1.6847e-22  7.2148e-17  1.6848e-22  7.2149e-17  1.6849e-22  7.2152e-17  1.6852e-22  7.2156e-17  1.6856e-22  7.2164e-17  1.6864e-22  7.2178e-17  1.6878e-22  7.2203e-17  1.6902e-22  7.2247e-17  1.6946e-22  7.2326e-17  1.7024e-22  7.2466e-17  1.7163e-22  7.2714e-17  1.7411e-22  7.3157e-17  1.7856e-22  7.3944e-17  1.8658e-22  7.5343e-17  2.0117e-22  7.7831e-17  2.2815e-22  8.2254e-17  2.7930e-22  9.0117e-17
      7.00  1.6846e-22  8.0950e-17  1.6846e-22  8.0950e-17  1.6847e-22  8.0951e-17  1.6848e-22  8.0953e-17  1.6849e-22  8.0955e-17  1.6851e-22  8.0960e-17  1.6855e-22  8.0969e-17  1.6863e-22  8.0985e-17  1.6876e-22  8.1013e-17  1.6900e-22  8.1062e-17  1.6942e-22  8.1151e-17  1.7017e-22  8.1308e-17  1.7150e-22  8.1587e-17  1.7389e-22  8.2084e-17  1.7816e-22  8.2967e-17  1.8585e-22  8.4537e-17  1.9985e-22  8.7329e-17  2.2571e-22  9.2293e-17  2.7468e-22  1.0112e-16
      7.05  1.6846e-22  9.0827e-17  1.6846e-22  9.0828e-17  1.6847e-22  9.0829e-17  1.6847e-22  9.0830e-17  1.6849e-22  9.0833e-17  1.6851e-22  9.0839e-17  1.6855e-22  9.0849e-17  1.6862e-22  9.0867e-17  1.6875e-22  9.0898e-17  1.6897e-22  9.0954e-17  1.6938e-22  9.1053e-17  1.7010e-22  9.1229e-17  1.7138e-22  9.1542e-17  1.7367e-22  9.2100e-17  1.7777e-22  9.3091e-17  1.8516e-22  9.4853e-17  1.9860e-22  9.7986e-17  2.2340e-22  1.0356e-16  2.7032e-22  1.1346e-16
      7.10  1.6846e-22  1.0191e-16  1.6846e-22  1.0191e-16  1.6846e-22  1.0191e-16  1.6847e-22  1.0191e-16  1.6848e-22  1.0192e-16  1.6850e-22  1.0192e-16  1.6854e-22  1.0193e-16  1.6861e-22  1.0195e-16  1.6873e-22  1.0199e-16  1.6895e-22  1.0205e-16  1.6934e-22  1.0216e-16  1.7003e-22  1.0236e-16  1.7127e-22  1.0271e-16  1.7347e-22  1.0334e-16  1.7741e-22  1.0445e-16  1.8451e-22  1.0643e-16  1.9742e-22  1.0994e-16  2.2123e-22  1.1620e-16  2.6621e-22  1.2731e-16
      7.15  1.6846e-22  1.1434e-16  1.6846e-22  1.1435e-16  1.6846e-22  1.1435e-16  1.6847e-22  1.1435e-16  1.6848e-22  1.1435e-16  1.6850e-22  1.1436e-16  1.6854e-22  1.1437e-16  1.6860e-22  1.1439e-16  1.6872e-22  1.1443e-16  1.6893e-22  1.1450e-16  1.6931e-22  1.1463e-16  1.6997e-22  1.1485e-16  1.7116e-22  1.1525e-16  1.7328e-22  1.1595e-16  1.7707e-22  1.1720e-16  1.8390e-22  1.1941e-16  1.9631e-22  1.2336e-16  2.1919e-22  1.3038e-16  2.6234e-22  1.4285e-16
      7.20  1.6845e-22  1.2830e-16  1.6846e-22  1.2830e-16  1.6846e-22  1.2830e-16  1.6847e-22  1.2830e-16  1.6848e-22  1.2831e-16  1.6850e-22  1.2831e-16  1.6853e-22  1.2833e-16  1.6860e-22  1.2835e-16  1.6871e-22  1.2840e-16  1.6891e-22  1.2848e-16  1.6927e-22  1.2862e-16  1.6992e-22  1.2886e-16  1.7106e-22  1.2931e-16  1.7310e-22  1.3010e-16  1.7675e-22  1.3150e-16  1.8333e-22  1.3399e-16  1.9527e-22  1.3841e-16  2.1726e-22  1.4629e-16  2.5870e-22  1.6028e-16
      7.25  1.6845e-22  1.4395e-16  1.6845e-22  1.4395e-16  1.6846e-22  1.4395e-16  1.6846e-22  1.4396e-16  1.6847e-22  1.4396e-16  1.6849e-22  1.4397e-16  1.6853e-22  1.4399e-16  1.6859e-22  1.4401e-16  1.6870e-22  1.4406e-16  1.6890e-22  1.4415e-16  1.6924e-22  1.4431e-16  1.6986e-22  1.4459e-16  1.7096e-22  1.4509e-16  1.7293e-22  1.4597e-16  1.7645e-22  1.4754e-16  1.8279e-22  1.5034e-16  1.9429e-22  1.5530e-16  2.1545e-22  1.6414e-16  2.5526e-22  1.7985e-16
      7.30  1.6845e-22  1.6152e-16  1.6845e-22  1.6152e-16  1.6846e-22  1.6152e-16  1.6846e-22  1.6152e-16  1.6847e-22  1.6153e-16  1.6849e-22  1.6154e-16  1.6852e-22  1.6155e-16  1.6858e-22  1.6159e-16  1.6869e-22  1.6164e-16  1.6888e-22  1.6174e-16  1.6921e-22  1.6192e-16  1.6981e-22  1.6223e-16  1.7087e-22  1.6279e-16  1.7277e-22  1.6378e-16  1.7617e-22  1.6554e-16  1.8228e-22  1.6868e-16  1.9336e-22  1.7426e-16  2.1374e-22  1.8417e-16  2.5202e-22  2.0180e-16
      7.35  1.6845e-22  1.8122e-16  1.6845e-22  1.8122e-16  1.6845e-22  1.8123e-16  1.6846e-22  1.8123e-16  1.6847e-22  1.8124e-16  1.6849e-22  1.8125e-16  1.6852e-22  1.8127e-16  1.6858e-22  1.8130e-16  1.6868e-22  1.8137e-16  1.6886e-22  1.8148e-16  1.6919e-22  1.8167e-16  1.6976e-22  1.8203e-16  1.7079e-22  1.8265e-16  1.7262e-22  1.8377e-16  1.7590e-22  1.8574e-16  1.8180e-22  1.8926e-16  1.9249e-22  1.9552e-16  2.1212e-22  2.0665e-16  2.4896e-22  2.2643e-16
      7.40  1.6845e-22  2.0334e-16  1.6845e-22  2.0334e-16  1.6845e-22  2.0334e-16  1.6846e-22  2.0334e-16  1.6847e-22  2.0335e-16  1.6849e-22  2.0336e-16  1.6852e-22  2.0339e-16  1.6857e-22  2.0342e-16  1.6867e-22  2.0350e-16  1.6885e-22  2.0362e-16  1.6916e-22  2.0384e-16  1.6972e-22  2.0424e-16  1.7071e-22  2.0494e-16  1.7248e-22  2.0619e-16  1.7565e-22  2.0841e-16  1.8135e-22  2.1236e-16  1.9167e-22  2.1938e-16  2.1060e-22  2.3187e-16  2.4606e-22  2.5407e-16
      7.45  1.6845e-22  2.2815e-16  1.6845e-22  2.2815e-16  1.6845e-22  2.2815e-16  1.6846e-22  2.2816e-16  1.6847e-22  2.2816e-16  1.6848e-22  2.2818e-16  1.6851e-22  2.2820e-16  1.6857e-22  2.2825e-16  1.6866e-22  2.2833e-16  1.6883e-22  2.2847e-16  1.6914e-22  2.2871e-16  1.6968e-22  2.2916e-16  1.7064e-22  2.2995e-16  1.7235e-22  2.3135e-16  1.7542e-22  2.3384e-16  1.8092e-22  2.3827e-16  1.9089e-22  2.4615e-16  2.0916e-22  2.6016e-16  2.4332e-22  2.8508e-16
      7.50  1.6845e-22  2.5599e-16  1.6845e-22  2.5599e-16  1.6845e-22  2.5599e-16  1.6846e-22  2.5599e-16  1.6847e-22  2.5600e-16  1.6848e-22  2.5602e-16  1.6851e-22  2.5605e-16  1.6856e-22  2.5610e-16  1.6866e-22  2.5619e-16  1.6882e-22  2.5634e-16  1.6911e-22  2.5662e-16  1.6964e-22  2.5712e-16  1.7057e-22  2.5800e-16  1.7223e-22  2.5958e-16  1.7519e-22  2.6237e-16  1.8052e-22  2.6735e-16  1.9015e-22  2.7619e-16  2.0779e-22  2.9191e-16  2.4072e-22  3.1987e-16
      7.55  1.6845e-22  2.8722e-16  1.6845e-22  2.8722e-16  1.6845e-22  2.8723e-16  1.6846e-22  2.8723e-16  1.6846e-22  2.8724e-16  1.6848e-22  2.8726e-16  1.6851e-22  2.8729e-16  1.6856e-22  2.8735e-16  1.6865e-22  2.8744e-16  1.6881e-22  2.8762e-16  1.6909e-22  2.8793e-16  1.6960e-22  2.8849e-16  1.7050e-22  2.8949e-16  1.7211e-22  2.9125e-16  1.7498e-22  2.9439e-16  1.8014e-22  2.9997e-16  1.8946e-22  3.0989e-16  2.0650e-22  3.2754e-16  2.3826e-22  3.5891e-16
      7.60  1.6845e-22  3.2227e-16  1.6845e-22  3.2227e-16  1.6845e-22  3.2227e-16  1.6845e-22  3.2228e-16  1.6846e-22  3.2229e-16  1.6848e-22  3.2231e-16  1.6851e-22  3.2234e-16  1.6856e-22  3.2241e-16  1.6864e-22  3.2252e-16  1.6880e-22  3.2272e-16  1.6907e-22  3.2307e-16  1.6956e-22  3.2369e-16  1.7044e-22  3.2481e-16  1.7200e-22  3.2679e-16  1.7478e-22  3.3031e-16  1.7978e-22  3.3657e-16  1.8881e-22  3.4771e-16  2.0529e-22  3.6751e-16  2.3593e-22  4.0271e-16
      7.65  1.6844e-22  3.6159e-16  1.6845e-22  3.6159e-16  1.6845e-22  3.6159e-16  1.6845e-22  3.6160e-16  1.6846e-22  3.6161e-16  1.6848e-22  3.6164e-16  1.6850e-22  3.6168e-16  1.6855e-22  3.6175e-16  1.6864e-22  3.6187e-16  1.6879e-22  3.6209e-16  1.6905e-22  3.6249e-16  1.6953e-22  3.6319e-16  1.7038e-22  3.6444e-16  1.7189e-22  3.6666e-16  1.7460e-22  3.7062e-16  1.7944e-22  3.7764e-16  1.8819e-22  3.9014e-16  2.0414e-22  4.1236e-16  2.3374e-22  4.5186e-16
      7.70  1.6844e-22  4.0571e-16  1.6845e-22  4.0571e-16  1.6845e-22  4.0572e-16  1.6845e-22  4.0572e-16  1.6846e-22  4.0574e-16  1.6848e-22  4.0576e-16  1.6850e-22  4.0581e-16  1.6855e-22  4.0589e-16  1.6863e-22  4.0603e-16  1.6878e-22  4.0628e-16  1.6904e-22  4.0672e-16  1.6950e-22  4.0751e-16  1.7032e-22  4.0891e-16  1.7179e-22  4.1140e-16  1.7442e-22  4.1584e-16  1.7913e-22  4.2372e-16  1.8761e-22  4.3775e-16  2.0306e-22  4.6268e-16  2.3167e-22  5.0701e-16
      7.75  1.6844e-22  4.5521e-16  1.6845e-22  4.5522e-16  1.6845e-22  4.5522e-16  1.6845e-22  4.5523e-16  1.6846e-22  4.5525e-16  1.6847e-22  4.5527e-16  1.6850e-22  4.5532e-16  1.6855e-22  4.5541e-16  1.6863e-22  4.5557e-16  1.6877e-22  4.5585e-16  1.6902e-22  4.5635e-16  1.6947e-22  4.5723e-16  1.7027e-22  4.5881e-16  1.7170e-22  4.6160e-16  1.7426e-22  4.6658e-16  1.7883e-22  4.7543e-16  1.8707e-22  4.9116e-16  2.0206e-22  5.1914e-16  2.2973e-22  5.6889e-16
      7.80  1.6844e-22  5.1076e-16  1.6845e-22  5.1076e-16  1.6845e-22  5.1077e-16  1.6845e-22  5.1078e-16  1.6846e-22  5.1079e-16  1.6847e-22  5.1083e-16  1.6850e-22  5.1088e-16  1.6854e-22  5.1098e-16  1.6862e-22  5.1116e-16  1.6876e-22  5.1147e-16  1.6901e-22  5.1203e-16  1.6944e-22  5.1302e-16  1.7023e-22  5.1479e-16  1.7162e-22  5.1793e-16  1.7410e-22  5.2351e-16  1.7856e-22  5.3344e-16  1.8657e-22  5.5110e-16  2.0112e-22  5.8249e-16  2.2791e-22  6.3831e-16
      7.85  1.6844e-22  5.7308e-16  1.6844e-22  5.7308e-16  1.6845e-22  5.7309e-16  1.6845e-22  5.7310e-16  1.6846e-22  5.7312e-16  1.6847e-22  5.7316e-16  1.6850e-22  5.7322e-16  1.6854e-22  5.7333e-16  1.6862e-22  5.7353e-16  1.6875e-22  5.7388e-16  1.6899e-22  5.7451e-16  1.6942e-22  5.7562e-16  1.7018e-22  5.7760e-16  1.7154e-22  5.8113e-16  1.7396e-22  5.8739e-16  1.7830e-22  5.9853e-16  1.8610e-22  6.1835e-16  2.0024e-22  6.5357e-16  2.2623e-22  7.1621e-16
      7.90  1.6844e-22  6.4301e-16  1.6844e-22  6.4301e-16  1.6845e-22  6.4302e-16  1.6845e-22  6.4303e-16  1.6846e-22  6.4305e-16  1.6847e-22  6.4309e-16  1.6850e-22  6.4316e-16  1.6854e-22  6.4329e-16  1.6861e-22  6.4351e-16  1.6874e-22  6.4390e-16  1.6898e-22  6.4461e-16  1.6940e-22  6.4586e-16  1.7014e-22  6.4808e-16  1.7147e-22  6.5203e-16  1.7383e-22  6.5907e-16  1.7807e-22  6.7157e-16  1.8567e-22  6.9380e-16  1.9944e-22  7.3333e-16  2.2467e-22  8.0362e-16
      7.95  1.6844e-22  7.2146e-16  1.6844e-22  7.2147e-16  1.6845e-22  7.2148e-16  1.6845e-22  7.2149e-16  1.6846e-22  7.2152e-16  1.6847e-22  7.2156e-16  1.6849e-22  7.2164e-16  1.6853e-22  7.2178e-16  1.6861e-22  7.2203e-16  1.6874e-22  7.2247e-16  1.6897e-22  7.2326e-16  1.6938e-22  7.2466e-16  1.7010e-22  7.2716e-16  1.7140e-22  7.3160e-16  1.7371e-22  7.3948e-16  1.7785e-22  7.5351e-16  1.8527e-22  7.7846e-16  1.9870e-22  8.2282e-16  2.2324e-22  9.0169e-16
      8.00  1.6844e-22  8.0950e-16  1.6844e-22  8.0950e-16  1.6845e-22  8.0951e-16  1.6845e-22  8.0953e-16  1.6846e-22  8.0955e-16  1.6847e-22  8.0960e-16  1.6849e-22  8.0969e-16  1.6853e-22  8.0985e-16  1.6860e-22  8.1013e-16  1.6873e-22  8.1063e-16  1.6896e-22  8.1151e-16  1.6936e-22  8.1309e-16  1.7007e-22  8.1589e-16  1.7134e-22  8.2086e-16  1.7360e-22  8.2972e-16  1.7765e-22  8.4546e-16  1.8491e-22  8.7345e-16  1.9802e-22  9.2323e-16  2.2192e-22  1.0117e-15
      8.05  1.6844e-22  9.0827e-16  1.6844e-22  9.0828e-16  1.6845e-22  9.0829e-16  1.6845e-22  9.0830e-16  1.6846e-22  9.0833e-16  1.6847e-22  9.0839e-16  1.6849e-22  9.0849e-16  1.6853e-22  9.0867e-16  1.6860e-22  9.0898e-16  1.6872e-22  9.0954e-16  1.6895e-22  9.1053e-16  1.6934e-22  9.1230e-16  1.7004e-22  9.1544e-16  1.7128e-22  9.2103e-16  1.7350e-22  9.3096e-16  1.7747e-22  9.4862e-16  1.8458e-22  9.8003e-16  1.9740e-22  1.0359e-15  2.2073e-22  1.1352e-15
      8.10  1.6844e-22  1.0191e-15  1.6844e-22  1.0191e-15  1.6845e-22  1.0191e-15  1.6845e-22  1.0191e-15  1.6846e-22  1.0192e-15  1.6847e-22  1.0192e-15  1.6849e-22  1.0193e-15  1.6853e-22  1.0195e-15  1.6860e-22  1.0199e-15  1.6872e-22  1.0205e-15  1.6894e-22  1.0216e-15  1.6932e-22  1.0236e-15  1.7001e-22  1.0271e-15  1.7123e-22  1.0334e-15  1.7341e-22  1.0446e-15  1.7731e-22  1.0644e-15  1.8428e-22  1.0996e-15  1.9683e-22  1.1623e-15  2.1964e-22  1.2737e-15
      8.15  1.6844e-22  1.1434e-15  1.6844e-22  1.1435e-15  1.6845e-22  1.1435e-15  1.6845e-22  1.1435e-15  1.6846e-22  1.1435e-15  1.6847e-22  1.1436e-15  1.6849e-22  1.1437e-15  1.6853e-22  1.1439e-15  1.6860e-22  1.1443e-15  1.6872e-22  1.1450e-15  1.6893e-22  1.1463e-15  1.6931e-22  1.1485e-15  1.6998e-22  1.1525e-15  1.7119e-22  1.1595e-15  1.7333e-22  1.1720e-15  1.7716e-22  1.1943e-15  1.8401e-22  1.2338e-15  1.9632e-22  1.3041e-15  2.1865e-22  1.4292e-15
      8.20  1.6844e-22  1.2830e-15  1.6844e-22  1.2830e-15  1.6845e-22  1.2830e-15  1.6845e-22  1.2830e-15  1.6846e-22  1.2831e-15  1.6847e-22  1.2831e-15  1.6849e-22  1.2833e-15  1.6853e-22  1.2835e-15  1.6859e-22  1.2840e-15  1.6871e-22  1.2848e-15  1.6892e-22  1.2862e-15  1.6930e-22  1.2887e-15  1.6996e-22  1.2931e-15  1.7115e-22  1.3010e-15  1.7326e-22  1.3150e-15  1.7702e-22  1.3400e-15  1.8376e-22  1.3843e-15  1.9586e-22  1.4633e-15  2.1776e-22  1.6036e-15
      8.25  1.6844e-22  1.4395e-15  1.6844e-22  1.4395e-15  1.6845e-22  1.4395e-15  1.6845e-22  1.4396e-15  1.6846e-22  1.4396e-15  1.6847e-22  1.4397e-15  1.6849e-22  1.4399e-15  1.6852e-22  1.4401e-15  1.6859e-22  1.4406e-15  1.6871e-22  1.4415e-15  1.6891e-22  1.4431e-15  1.6928e-22  1.4459e-15  1.6994e-22  1.4509e-15  1.7111e-22  1.4597e-15  1.7319e-22  1.4755e-15  1.7690e-22  1.5035e-15  1.8354e-22  1.5533e-15  1.9545e-22  1.6418e-15  2.1696e-22  1.7993e-15
      8.30  1.6844e-22  1.6152e-15  1.6844e-22  1.6152e-15  1.6845e-22  1.6152e-15  1.6845e-22  1.6152e-15  1.6846e-22  1.6153e-15  1.6847e-22  1.6154e-15  1.6849e-22  1.6155e-15  1.6852e-22  1.6159e-15  1.6859e-22  1.6164e-15  1.6870e-22  1.6174e-15  1.6891e-22  1.6192e-15  1.6927e-22  1.6223e-15  1.6992e-22  1.6279e-15  1.7108e-22  1.6378e-15  1.7313e-22  1.6555e-15  1.7679e-22  1.6869e-15  1.8334e-22  1.7428e-15  1.9508e-22  1.8422e-15  2.1624e-22  2.0188e-15
      8.35  1.6844e-22  1.8122e-15  1.6844e-22  1.8122e-15  1.6845e-22  1.8123e-15  1.6845e-22  1.8123e-15  1.6846e-22  1.8124e-15  1.6847e-22  1.8125e-15  1.6849e-22  1.8127e-15  1.6852e-22  1.8130e-15  1.6859e-22  1.8137e-15  1.6870e-22  1.8148e-15  1.6890e-22  1.8168e-15  1.6926e-22  1.8203e-15  1.6990e-22  1.8265e-15  1.7105e-22  1.8377e-15  1.7308e-22  1.8575e-15  1.7670e-22  1.8928e-15  1.8316e-22  1.9555e-15  1.9474e-22  2.0669e-15  2.1560e-22  2.2652e-15
      8.40  1.6844e-22  2.0334e-15  1.6844e-22  2.0334e-15  1.6845e-22  2.0334e-15  1.6845e-22  2.0334e-15  1.6846e-22  2.0335e-15  1.6847e-22  2.0336e-15  1.6849e-22  2.0339e-15  1.6852e-22  2.0343e-15  1.6859e-22  2.0350e-15  1.6870e-22  2.0362e-15  1.6890e-22  2.0384e-15  1.6926e-22  2.0424e-15  1.6989e-22  2.0494e-15  1.7102e-22  2.0619e-15  1.7303e-22  2.0842e-15  1.7661e-22  2.1237e-15  1.8300e-22  2.1941e-15  1.9444e-22  2.3192e-15  2.1502e-22  2.5416e-15
      8.45  1.6844e-22  2.2815e-15  1.6844e-22  2.2815e-15  1.6845e-22  2.2815e-15  1.6845e-22  2.2816e-15  1.6845e-22  2.2816e-15  1.6847e-22  2.2818e-15  1.6849e-22  2.2820e-15  1.6852e-22  2.2825e-15  1.6858e-22  2.2833e-15  1.6870e-22  2.2847e-15  1.6889e-22  2.2872e-15  1.6925e-22  2.2916e-15  1.6988e-22  2.2995e-15  1.7099e-22  2.3135e-15  1.7299e-22  2.3385e-15  1.7653e-22  2.3829e-15  1.8286e-22  2.4618e-15  1.9418e-22  2.6021e-15  2.1451e-22  2.8517e-15
      8.50  1.6844e-22  2.5599e-15  1.6844e-22  2.5599e-15  1.6845e-22  2.5599e-15  1.6845e-22  2.5599e-15  1.6845e-22  2.5600e-15  1.6847e-22  2.5602e-15  1.6849e-22  2.5605e-15  1.6852e-22  2.5610e-15  1.6858e-22  2.5619e-15  1.6869e-22  2.5634e-15  1.6889e-22  2.5662e-15  1.6924e-22  2.5712e-15  1.6986e-22  2.5801e-15  1.7097e-22  2.5958e-15  1.7295e-22  2.6238e-15  1.7646e-22  2.6736e-15  1.8273e-22  2.7622e-15  1.9394e-22  2.9197e-15  2.1405e-22  3.1997e-15
