# This was generated using Cloudy10 and the columns are ordered 
# as log10 of the fraction of the metallicity to the solar metallicity
# 'h_*_Z' and 'c_*_Z' stands for cooling and heating respectively 
# at * metalicity
#
# NOTE: This was generated separately from loop_coolingcurve_w_UV.py
#       using Output_metals_w_redshift.py.
#
# Redshift = 2.5
# hden = -10.0
#
#     temp   h_-3.00_Z   c_-3.00_Z   h_-2.75_Z   c_-2.75_Z   h_-2.50_Z   c_-2.50_Z   h_-2.25_Z   c_-2.25_Z   h_-2.00_Z   c_-2.00_Z   h_-1.75_Z   c_-1.75_Z   h_-1.50_Z   c_-1.50_Z   h_-1.25_Z   c_-1.25_Z   h_-1.00_Z   c_-1.00_Z   h_-0.75_Z   c_-0.75_Z   h_-0.50_Z   c_-0.50_Z   h_-0.25_Z   c_-0.25_Z    h_0.00_Z    c_0.00_Z    h_0.25_Z    c_0.25_Z    h_0.50_Z    c_0.50_Z    h_0.75_Z    c_0.75_Z    h_1.00_Z    c_1.00_Z    h_1.25_Z    c_1.25_Z    h_1.50_Z    c_1.50_Z 
      1.00  1.6813e-20  9.3882e-23  1.6819e-20  9.3883e-23  1.6829e-20  9.3884e-23  1.6847e-20  9.3885e-23  1.6879e-20  9.3889e-23  1.6935e-20  9.3894e-23  1.7036e-20  9.3905e-23  1.7215e-20  9.3923e-23  1.7534e-20  9.3955e-23  1.8101e-20  9.4013e-23  1.9111e-20  9.4116e-23  2.0910e-20  9.4298e-23  2.4124e-20  9.4622e-23  2.9879e-20  9.5199e-23  4.0243e-20  9.6225e-23  5.9087e-20  9.8048e-23  9.3922e-20  1.0129e-22  1.6016e-19  1.0706e-22  2.9122e-19  1.1732e-22
      1.05  1.6772e-20  1.0533e-22  1.6777e-20  1.0533e-22  1.6787e-20  1.0533e-22  1.6804e-20  1.0534e-22  1.6834e-20  1.0534e-22  1.6888e-20  1.0535e-22  1.6984e-20  1.0536e-22  1.7155e-20  1.0538e-22  1.7459e-20  1.0542e-22  1.8000e-20  1.0548e-22  1.8964e-20  1.0559e-22  2.0681e-20  1.0580e-22  2.3747e-20  1.0616e-22  2.9239e-20  1.0681e-22  3.9129e-20  1.0796e-22  5.7113e-20  1.1001e-22  9.0352e-20  1.1365e-22  1.5352e-19  1.2012e-22  2.7850e-19  1.3163e-22
      1.10  1.6733e-20  1.1818e-22  1.6738e-20  1.1818e-22  1.6747e-20  1.1818e-22  1.6763e-20  1.1818e-22  1.6792e-20  1.1819e-22  1.6844e-20  1.1820e-22  1.6935e-20  1.1821e-22  1.7099e-20  1.1823e-22  1.7389e-20  1.1827e-22  1.7905e-20  1.1835e-22  1.8824e-20  1.1847e-22  2.0463e-20  1.1870e-22  2.3389e-20  1.1911e-22  2.8629e-20  1.1984e-22  3.8068e-20  1.2113e-22  5.5232e-20  1.2343e-22  8.6954e-20  1.2751e-22  1.4721e-19  1.3477e-22  2.6640e-19  1.4769e-22
      1.15  1.6696e-20  1.3260e-22  1.6701e-20  1.3260e-22  1.6710e-20  1.3260e-22  1.6725e-20  1.3260e-22  1.6753e-20  1.3260e-22  1.6802e-20  1.3261e-22  1.6889e-20  1.3263e-22  1.7045e-20  1.3265e-22  1.7322e-20  1.3270e-22  1.7815e-20  1.3278e-22  1.8692e-20  1.3293e-22  2.0256e-20  1.3318e-22  2.3047e-20  1.3364e-22  2.8049e-20  1.3446e-22  3.7058e-20  1.3590e-22  5.3440e-20  1.3848e-22  8.3715e-20  1.4306e-22  1.4120e-19  1.5121e-22  2.5490e-19  1.6570e-22
      1.20  1.6662e-20  1.4877e-22  1.6666e-20  1.4877e-22  1.6675e-20  1.4877e-22  1.6689e-20  1.4877e-22  1.6716e-20  1.4878e-22  1.6763e-20  1.4879e-22  1.6846e-20  1.4880e-22  1.6995e-20  1.4883e-22  1.7259e-20  1.4889e-22  1.7729e-20  1.4898e-22  1.8566e-20  1.4914e-22  2.0059e-20  1.4943e-22  2.2722e-20  1.4994e-22  2.7497e-20  1.5086e-22  3.6095e-20  1.5248e-22  5.1732e-20  1.5537e-22  8.0619e-20  1.6051e-22  1.3547e-19  1.6965e-22  2.4394e-19  1.8591e-22
      1.25  1.6629e-20  1.6692e-22  1.6634e-20  1.6692e-22  1.6642e-20  1.6692e-22  1.6656e-20  1.6692e-22  1.6681e-20  1.6693e-22  1.6726e-20  1.6694e-22  1.6806e-20  1.6696e-22  1.6947e-20  1.6699e-22  1.7199e-20  1.6705e-22  1.7648e-20  1.6715e-22  1.8447e-20  1.6733e-22  1.9871e-20  1.6765e-22  2.2414e-20  1.6823e-22  2.6970e-20  1.6926e-22  3.5177e-20  1.7108e-22  5.0103e-20  1.7432e-22  7.7688e-20  1.8009e-22  1.3001e-19  1.9035e-22  2.3350e-19  2.0859e-22
      1.30  1.6599e-20  1.8728e-22  1.6603e-20  1.8728e-22  1.6611e-20  1.8728e-22  1.6625e-20  1.8728e-22  1.6649e-20  1.8729e-22  1.6691e-20  1.8730e-22  1.6767e-20  1.8732e-22  1.6903e-20  1.8736e-22  1.7143e-20  1.8742e-22  1.7571e-20  1.8754e-22  1.8334e-20  1.8774e-22  1.9693e-20  1.8810e-22  2.2120e-20  1.8875e-22  2.6468e-20  1.8990e-22  3.4301e-20  1.9195e-22  4.8547e-20  1.9559e-22  7.4880e-20  2.0206e-22  1.2482e-19  2.1356e-22  2.2355e-19  2.3403e-22
      1.35  1.6571e-20  2.1012e-22  1.6575e-20  2.1012e-22  1.6582e-20  2.1012e-22  1.6595e-20  2.1013e-22  1.6618e-20  2.1013e-22  1.6659e-20  2.1015e-22  1.6731e-20  2.1017e-22  1.6860e-20  2.1021e-22  1.7090e-20  2.1028e-22  1.7499e-20  2.1041e-22  1.8226e-20  2.1064e-22  1.9523e-20  2.1105e-22  2.1839e-20  2.1178e-22  2.5989e-20  2.1307e-22  3.3465e-20  2.1536e-22  4.7062e-20  2.1944e-22  7.2198e-20  2.2670e-22  1.1987e-19  2.3961e-22  2.1387e-19  2.6257e-22
      1.40  1.6544e-20  2.3575e-22  1.6548e-20  2.3575e-22  1.6555e-20  2.3575e-22  1.6567e-20  2.3576e-22  1.6589e-20  2.3577e-22  1.6628e-20  2.3578e-22  1.6697e-20  2.3581e-22  1.6821e-20  2.3585e-22  1.7040e-20  2.3593e-22  1.7430e-20  2.3608e-22  1.8124e-20  2.3634e-22  1.9362e-20  2.3679e-22  2.1572e-20  2.3761e-22  2.5532e-20  2.3906e-22  3.2666e-20  2.4163e-22  4.5644e-20  2.4621e-22  6.9635e-20  2.5436e-22  1.1514e-19  2.6884e-22  2.0499e-19  2.9460e-22
      1.45  1.6519e-20  2.6451e-22  1.6523e-20  2.6451e-22  1.6530e-20  2.6451e-22  1.6542e-20  2.6452e-22  1.6562e-20  2.6453e-22  1.6600e-20  2.6454e-22  1.6666e-20  2.6457e-22  1.6783e-20  2.6462e-22  1.6992e-20  2.6471e-22  1.7364e-20  2.6488e-22  1.8027e-20  2.6517e-22  1.9208e-20  2.6568e-22  2.1317e-20  2.6659e-22  2.5096e-20  2.6822e-22  3.1904e-20  2.7111e-22  4.4287e-20  2.7625e-22  6.7183e-20  2.8538e-22  1.1063e-19  3.0163e-22  1.9638e-19  3.3053e-22
      1.50  1.6496e-20  2.9677e-22  1.6500e-20  2.9677e-22  1.6506e-20  2.9678e-22  1.6517e-20  2.9678e-22  1.6537e-20  2.9679e-22  1.6573e-20  2.9681e-22  1.6636e-20  2.9684e-22  1.6748e-20  2.9690e-22  1.6947e-20  2.9700e-22  1.7302e-20  2.9719e-22  1.7934e-20  2.9751e-22  1.9061e-20  2.9809e-22  2.1073e-20  2.9911e-22  2.4679e-20  3.0094e-22  3.1175e-20  3.0418e-22  4.2993e-20  3.0994e-22  6.4842e-20  3.2020e-22  1.0631e-19  3.3843e-22  1.8815e-19  3.7085e-22
      1.55  1.6474e-20  3.3298e-22  1.6478e-20  3.3298e-22  1.6484e-20  3.3298e-22  1.6494e-20  3.3299e-22  1.6513e-20  3.3300e-22  1.6547e-20  3.3302e-22  1.6607e-20  3.3306e-22  1.6714e-20  3.3312e-22  1.6905e-20  3.3324e-22  1.7243e-20  3.3344e-22  1.7846e-20  3.3380e-22  1.8920e-20  3.3445e-22  2.0841e-20  3.3560e-22  2.4281e-20  3.3765e-22  3.0478e-20  3.4128e-22  4.1753e-20  3.4775e-22  6.2602e-20  3.5926e-22  1.0217e-19  3.7971e-22  1.8027e-19  4.1609e-22
      1.60  1.6454e-20  3.7359e-22  1.6457e-20  3.7360e-22  1.6463e-20  3.7360e-22  1.6473e-20  3.7361e-22  1.6491e-20  3.7362e-22  1.6524e-20  3.7364e-22  1.6581e-20  3.7369e-22  1.6683e-20  3.7376e-22  1.6864e-20  3.7389e-22  1.7187e-20  3.7412e-22  1.7763e-20  3.7452e-22  1.8788e-20  3.7525e-22  2.0619e-20  3.7654e-22  2.3900e-20  3.7884e-22  2.9811e-20  3.8292e-22  4.0567e-20  3.9018e-22  6.0457e-20  4.0308e-22  9.8215e-20  4.2603e-22  1.7274e-19  4.6685e-22
      1.65  1.6435e-20  4.1917e-22  1.6438e-20  4.1917e-22  1.6443e-20  4.1918e-22  1.6453e-20  4.1919e-22  1.6470e-20  4.1920e-22  1.6501e-20  4.1923e-22  1.6556e-20  4.1927e-22  1.6653e-20  4.1935e-22  1.6826e-20  4.1950e-22  1.7134e-20  4.1975e-22  1.7683e-20  4.2021e-22  1.8661e-20  4.2103e-22  2.0407e-20  4.2248e-22  2.3535e-20  4.2505e-22  2.9173e-20  4.2963e-22  3.9431e-20  4.3777e-22  5.8405e-20  4.5225e-22  9.4427e-20  4.7800e-22  1.6553e-19  5.2380e-22
      1.70  1.6417e-20  4.7031e-22  1.6420e-20  4.7031e-22  1.6425e-20  4.7031e-22  1.6434e-20  4.7032e-22  1.6451e-20  4.7034e-22  1.6480e-20  4.7037e-22  1.6532e-20  4.7042e-22  1.6625e-20  4.7051e-22  1.6790e-20  4.7067e-22  1.7084e-20  4.7096e-22  1.7607e-20  4.7148e-22  1.8539e-20  4.7239e-22  2.0204e-20  4.7401e-22  2.3187e-20  4.7690e-22  2.8562e-20  4.8204e-22  3.8344e-20  4.9118e-22  5.6439e-20  5.0743e-22  9.0801e-20  5.3632e-22  1.5865e-19  5.8769e-22
      1.75  1.6400e-20  5.2768e-22  1.6403e-20  5.2768e-22  1.6408e-20  5.2769e-22  1.6417e-20  5.2770e-22  1.6433e-20  5.2772e-22  1.6461e-20  5.2775e-22  1.6510e-20  5.2781e-22  1.6599e-20  5.2791e-22  1.6756e-20  5.2809e-22  1.7036e-20  5.2842e-22  1.7534e-20  5.2899e-22  1.8423e-20  5.3002e-22  2.0010e-20  5.3184e-22  2.2853e-20  5.3508e-22  2.7978e-20  5.4085e-22  3.7304e-20  5.5110e-22  5.4556e-20  5.6933e-22  8.7324e-20  6.0175e-22  1.5204e-19  6.5939e-22
      1.80  1.6385e-20  5.9205e-22  1.6387e-20  5.9206e-22  1.6392e-20  5.9206e-22  1.6400e-20  5.9208e-22  1.6415e-20  5.9210e-22  1.6442e-20  5.9213e-22  1.6489e-20  5.9220e-22  1.6574e-20  5.9231e-22  1.6724e-20  5.9252e-22  1.6990e-20  5.9288e-22  1.7465e-20  5.9353e-22  1.8312e-20  5.9468e-22  1.9824e-20  5.9672e-22  2.2534e-20  6.0036e-22  2.7418e-20  6.0683e-22  3.6306e-20  6.1833e-22  5.2752e-20  6.3879e-22  8.3993e-20  6.7516e-22  1.4571e-19  7.3984e-22
      1.85  1.6370e-20  6.6428e-22  1.6373e-20  6.6429e-22  1.6377e-20  6.6429e-22  1.6385e-20  6.6431e-22  1.6399e-20  6.6433e-22  1.6425e-20  6.6437e-22  1.6470e-20  6.6444e-22  1.6550e-20  6.6457e-22  1.6693e-20  6.6480e-22  1.6947e-20  6.6521e-22  1.7399e-20  6.6594e-22  1.8206e-20  6.6723e-22  1.9647e-20  6.6952e-22  2.2228e-20  6.7360e-22  2.6881e-20  6.8086e-22  3.5350e-20  6.9377e-22  5.1023e-20  7.1672e-22  8.0801e-20  7.5753e-22  1.3965e-19  8.3010e-22
      1.90  1.6356e-20  7.4532e-22  1.6359e-20  7.4533e-22  1.6363e-20  7.4534e-22  1.6371e-20  7.4535e-22  1.6384e-20  7.4538e-22  1.6408e-20  7.4542e-22  1.6451e-20  7.4550e-22  1.6528e-20  7.4565e-22  1.6664e-20  7.4591e-22  1.6906e-20  7.4637e-22  1.7337e-20  7.4718e-22  1.8105e-20  7.4863e-22  1.9477e-20  7.5120e-22  2.1936e-20  7.5578e-22  2.6368e-20  7.6393e-22  3.4435e-20  7.7841e-22  4.9366e-20  8.0416e-22  7.7741e-20  8.4995e-22  1.3384e-19  9.3137e-22
      1.95  1.6343e-20  8.3625e-22  1.6346e-20  8.3626e-22  1.6350e-20  8.3627e-22  1.6357e-20  8.3628e-22  1.6370e-20  8.3631e-22  1.6393e-20  8.3636e-22  1.6434e-20  8.3646e-22  1.6507e-20  8.3662e-22  1.6636e-20  8.3691e-22  1.6867e-20  8.3742e-22  1.7277e-20  8.3834e-22  1.8008e-20  8.3996e-22  1.9315e-20  8.4285e-22  2.1656e-20  8.4799e-22  2.5876e-20  8.5713e-22  3.3558e-20  8.7337e-22  4.7778e-20  9.0227e-22  7.4809e-20  9.5364e-22  1.2827e-19  1.0450e-21
      2.00  1.6331e-20  9.3828e-22  1.6334e-20  9.3828e-22  1.6338e-20  9.3829e-22  1.6344e-20  9.3831e-22  1.6357e-20  9.3834e-22  1.6379e-20  9.3840e-22  1.6418e-20  9.3850e-22  1.6487e-20  9.3869e-22  1.6610e-20  9.3901e-22  1.6829e-20  9.3959e-22  1.7220e-20  9.4061e-22  1.7916e-20  9.4244e-22  1.9160e-20  9.4568e-22  2.1388e-20  9.5144e-22  2.5406e-20  9.6170e-22  3.2719e-20  9.7993e-22  4.6256e-20  1.0123e-21  7.1998e-20  1.0700e-21  1.2292e-19  1.1725e-21
      2.05  1.6320e-20  1.0527e-21  1.6322e-20  1.0528e-21  1.6326e-20  1.0528e-21  1.6333e-20  1.0528e-21  1.6344e-20  1.0528e-21  1.6365e-20  1.0529e-21  1.6402e-20  1.0530e-21  1.6468e-20  1.0532e-21  1.6585e-20  1.0536e-21  1.6794e-20  1.0542e-21  1.7166e-20  1.0554e-21  1.7828e-20  1.0574e-21  1.9011e-20  1.0611e-21  2.1131e-20  1.0675e-21  2.4953e-20  1.0790e-21  3.1912e-20  1.0995e-21  4.4798e-20  1.1359e-21  6.9303e-20  1.2006e-21  1.1780e-19  1.3156e-21
      2.10  1.6310e-20  1.1812e-21  1.6312e-20  1.1812e-21  1.6315e-20  1.1812e-21  1.6322e-20  1.1812e-21  1.6333e-20  1.1813e-21  1.6353e-20  1.1813e-21  1.6388e-20  1.1815e-21  1.6450e-20  1.1817e-21  1.6562e-20  1.1821e-21  1.6760e-20  1.1828e-21  1.7114e-20  1.1841e-21  1.7744e-20  1.1864e-21  1.8869e-20  1.1905e-21  2.0886e-20  1.1978e-21  2.4521e-20  1.2107e-21  3.1141e-20  1.2336e-21  4.3400e-20  1.2744e-21  6.6721e-20  1.3470e-21  1.1289e-19  1.4761e-21
      2.15  1.6300e-20  1.3253e-21  1.6302e-20  1.3253e-21  1.6305e-20  1.3253e-21  1.6311e-20  1.3253e-21  1.6322e-20  1.3254e-21  1.6341e-20  1.3255e-21  1.6374e-20  1.3256e-21  1.6434e-20  1.3259e-21  1.6540e-20  1.3263e-21  1.6728e-20  1.3271e-21  1.7064e-20  1.3286e-21  1.7663e-20  1.3312e-21  1.8733e-20  1.3358e-21  2.0651e-20  1.3439e-21  2.4108e-20  1.3584e-21  3.0403e-20  1.3841e-21  4.2062e-20  1.4299e-21  6.4247e-20  1.5114e-21  1.0818e-19  1.6562e-21
      2.20  1.6291e-20  1.4870e-21  1.6293e-20  1.4870e-21  1.6296e-20  1.4870e-21  1.6301e-20  1.4870e-21  1.6312e-20  1.4871e-21  1.6329e-20  1.4872e-21  1.6361e-20  1.4874e-21  1.6418e-20  1.4876e-21  1.6519e-20  1.4882e-21  1.6698e-20  1.4891e-21  1.7017e-20  1.4907e-21  1.7587e-20  1.4936e-21  1.8604e-20  1.4987e-21  2.0426e-20  1.5079e-21  2.3712e-20  1.5241e-21  2.9696e-20  1.5530e-21  4.0781e-20  1.6044e-21  6.1877e-20  1.6958e-21  1.0368e-19  1.8583e-21
      2.25  1.6282e-20  1.6684e-21  1.6284e-20  1.6684e-21  1.6287e-20  1.6684e-21  1.6292e-20  1.6685e-21  1.6302e-20  1.6685e-21  1.6319e-20  1.6686e-21  1.6349e-20  1.6688e-21  1.6403e-20  1.6691e-21  1.6499e-20  1.6697e-21  1.6669e-20  1.6707e-21  1.6973e-20  1.6726e-21  1.7514e-20  1.6758e-21  1.8480e-20  1.6816e-21  2.0211e-20  1.6918e-21  2.3334e-20  1.7101e-21  2.9020e-20  1.7425e-21  3.9555e-20  1.8002e-21  5.9609e-20  1.9027e-21  9.9357e-20  2.0850e-21
      2.30  1.6274e-20  1.8720e-21  1.6276e-20  1.8720e-21  1.6279e-20  1.8720e-21  1.6284e-20  1.8720e-21  1.6293e-20  1.8721e-21  1.6309e-20  1.8722e-21  1.6338e-20  1.8724e-21  1.6389e-20  1.8728e-21  1.6480e-20  1.8734e-21  1.6642e-20  1.8746e-21  1.6930e-20  1.8766e-21  1.7444e-20  1.8803e-21  1.8361e-20  1.8867e-21  2.0006e-20  1.8982e-21  2.2972e-20  1.9187e-21  2.8373e-20  1.9551e-21  3.8381e-20  2.0198e-21  5.7437e-20  2.1348e-21  9.5219e-20  2.3394e-21
      2.35  1.6267e-20  2.1004e-21  1.6268e-20  2.1004e-21  1.6271e-20  2.1004e-21  1.6276e-20  2.1004e-21  1.6285e-20  2.1005e-21  1.6300e-20  2.1006e-21  1.6327e-20  2.1009e-21  1.6376e-20  2.1013e-21  1.6462e-20  2.1020e-21  1.6616e-20  2.1033e-21  1.6889e-20  2.1056e-21  1.7377e-20  2.1097e-21  1.8248e-20  2.1169e-21  1.9810e-20  2.1298e-21  2.2626e-20  2.1528e-21  2.7755e-20  2.1936e-21  3.7259e-20  2.2662e-21  5.5359e-20  2.3953e-21  9.1260e-20  2.6248e-21
      2.40  1.6260e-20  2.3566e-21  1.6261e-20  2.3566e-21  1.6264e-20  2.3567e-21  1.6269e-20  2.3567e-21  1.6277e-20  2.3568e-21  1.6291e-20  2.3569e-21  1.6317e-20  2.3572e-21  1.6363e-20  2.3577e-21  1.6445e-20  2.3585e-21  1.6591e-20  2.3599e-21  1.6851e-20  2.3625e-21  1.7314e-20  2.3671e-21  1.8141e-20  2.3752e-21  1.9623e-20  2.3897e-21  2.2296e-20  2.4155e-21  2.7164e-20  2.4613e-21  3.6187e-20  2.5427e-21  5.3373e-20  2.6876e-21  8.7472e-20  2.9451e-21
      2.45  1.6253e-20  2.6442e-21  1.6255e-20  2.6442e-21  1.6257e-20  2.6442e-21  1.6262e-20  2.6443e-21  1.6269e-20  2.6443e-21  1.6283e-20  2.6445e-21  1.6308e-20  2.6448e-21  1.6351e-20  2.6453e-21  1.6429e-20  2.6462e-21  1.6568e-20  2.6479e-21  1.6814e-20  2.6507e-21  1.7253e-20  2.6559e-21  1.8038e-20  2.6650e-21  1.9444e-20  2.6813e-21  2.1980e-20  2.7102e-21  2.6601e-20  2.7616e-21  3.5163e-20  2.8530e-21  5.1475e-20  3.0155e-21  8.3850e-20  3.3045e-21
      2.50  1.6247e-20  2.9668e-21  1.6249e-20  2.9668e-21  1.6251e-20  2.9668e-21  1.6255e-20  2.9669e-21  1.6262e-20  2.9670e-21  1.6276e-20  2.9672e-21  1.6299e-20  2.9675e-21  1.6340e-20  2.9681e-21  1.6414e-20  2.9691e-21  1.6545e-20  2.9709e-21  1.6779e-20  2.9742e-21  1.7196e-20  2.9799e-21  1.7940e-20  2.9902e-21  1.9274e-20  3.0084e-21  2.1680e-20  3.0409e-21  2.6063e-20  3.0985e-21  3.4186e-20  3.2011e-21  4.9663e-20  3.3834e-21  8.0390e-20  3.7077e-21
      2.55  1.6242e-20  3.3287e-21  1.6243e-20  3.3288e-21  1.6245e-20  3.3288e-21  1.6249e-20  3.3289e-21  1.6256e-20  3.3290e-21  1.6268e-20  3.3292e-21  1.6290e-20  3.3296e-21  1.6330e-20  3.3302e-21  1.6400e-20  3.3314e-21  1.6524e-20  3.3334e-21  1.6746e-20  3.3370e-21  1.7141e-20  3.3435e-21  1.7847e-20  3.3550e-21  1.9112e-20  3.3755e-21  2.1393e-20  3.4119e-21  2.5550e-20  3.4766e-21  3.3254e-20  3.5917e-21  4.7934e-20  3.7963e-21  7.7085e-20  4.1601e-21
      2.60  1.6236e-20  3.7349e-21  1.6237e-20  3.7349e-21  1.6240e-20  3.7350e-21  1.6243e-20  3.7350e-21  1.6250e-20  3.7352e-21  1.6262e-20  3.7354e-21  1.6283e-20  3.7358e-21  1.6320e-20  3.7365e-21  1.6386e-20  3.7378e-21  1.6504e-20  3.7401e-21  1.6714e-20  3.7442e-21  1.7089e-20  3.7515e-21  1.7758e-20  3.7644e-21  1.8958e-20  3.7873e-21  2.1120e-20  3.8282e-21  2.5061e-20  3.9008e-21  3.2365e-20  4.0299e-21  4.6285e-20  4.2595e-21  7.3931e-20  4.6677e-21
      2.65  1.6231e-20  4.1906e-21  1.6232e-20  4.1906e-21  1.6234e-20  4.1907e-21  1.6238e-20  4.1907e-21  1.6244e-20  4.1909e-21  1.6255e-20  4.1911e-21  1.6275e-20  4.1916e-21  1.6311e-20  4.1924e-21  1.6373e-20  4.1939e-21  1.6485e-20  4.1964e-21  1.6684e-20  4.2010e-21  1.7039e-20  4.2092e-21  1.7674e-20  4.2237e-21  1.8811e-20  4.2494e-21  2.0861e-20  4.2952e-21  2.4596e-20  4.3767e-21  3.1519e-20  4.5216e-21  4.4714e-20  4.7792e-21  7.0924e-20  5.2373e-21
      2.70  1.6227e-20  4.7019e-21  1.6228e-20  4.7019e-21  1.6230e-20  4.7020e-21  1.6233e-20  4.7021e-21  1.6239e-20  4.7022e-21  1.6249e-20  4.7025e-21  1.6268e-20  4.7030e-21  1.6302e-20  4.7039e-21  1.6361e-20  4.7056e-21  1.6467e-20  4.7085e-21  1.6656e-20  4.7136e-21  1.6993e-20  4.7227e-21  1.7594e-20  4.7390e-21  1.8671e-20  4.7679e-21  2.0614e-20  4.8193e-21  2.4153e-20  4.9107e-21  3.0714e-20  5.0733e-21  4.3218e-20  5.3624e-21  6.8060e-20  5.8763e-21
      2.75  1.6222e-20  5.2756e-21  1.6223e-20  5.2756e-21  1.6225e-20  5.2757e-21  1.6228e-20  5.2758e-21  1.6234e-20  5.2760e-21  1.6244e-20  5.2763e-21  1.6262e-20  5.2769e-21  1.6294e-20  5.2779e-21  1.6350e-20  5.2797e-21  1.6450e-20  5.2829e-21  1.6629e-20  5.2887e-21  1.6948e-20  5.2990e-21  1.7518e-20  5.3172e-21  1.8538e-20  5.3497e-21  2.0379e-20  5.4073e-21  2.3733e-20  5.5099e-21  2.9949e-20  5.6923e-21  4.1795e-20  6.0167e-21  6.5332e-20  6.5934e-21
      2.80  1.6218e-20  5.9193e-21  1.6219e-20  5.9193e-21  1.6221e-20  5.9194e-21  1.6224e-20  5.9195e-21  1.6229e-20  5.9197e-21  1.6239e-20  5.9201e-21  1.6256e-20  5.9207e-21  1.6286e-20  5.9219e-21  1.6339e-20  5.9239e-21  1.6434e-20  5.9275e-21  1.6604e-20  5.9340e-21  1.6906e-20  5.9455e-21  1.7445e-20  5.9660e-21  1.8412e-20  6.0024e-21  2.0156e-20  6.0671e-21  2.3333e-20  6.1822e-21  2.9230e-20  6.3869e-21  4.0443e-20  6.7508e-21  6.2737e-20  7.3979e-21
      2.85  1.6215e-20  6.6415e-21  1.6215e-20  6.6415e-21  1.6217e-20  6.6416e-21  1.6220e-20  6.6417e-21  1.6225e-20  6.6420e-21  1.6234e-20  6.6424e-21  1.6250e-20  6.6431e-21  1.6278e-20  6.6444e-21  1.6329e-20  6.6467e-21  1.6419e-20  6.6508e-21  1.6580e-20  6.6580e-21  1.6866e-20  6.6710e-21  1.7377e-20  6.6939e-21  1.8293e-20  6.7348e-21  1.9945e-20  6.8074e-21  2.2954e-20  6.9365e-21  2.8531e-20  7.1662e-21  3.9158e-20  7.5745e-21  6.0271e-20  8.3006e-21
      2.90  1.6211e-20  7.4518e-21  1.6212e-20  7.4519e-21  1.6213e-20  7.4520e-21  1.6216e-20  7.4521e-21  1.6221e-20  7.4524e-21  1.6229e-20  7.4528e-21  1.6245e-20  7.4537e-21  1.6272e-20  7.4551e-21  1.6320e-20  7.4577e-21  1.6405e-20  7.4623e-21  1.6557e-20  7.4704e-21  1.6828e-20  7.4849e-21  1.7312e-20  7.5107e-21  1.8180e-20  7.5565e-21  1.9744e-20  7.6380e-21  2.2594e-20  7.7829e-21  2.7876e-20  8.0406e-21  3.7939e-20  8.4988e-21  5.7928e-20  9.3135e-21
      2.95  1.6208e-20  8.3611e-21  1.6209e-20  8.3611e-21  1.6210e-20  8.3612e-21  1.6213e-20  8.3614e-21  1.6217e-20  8.3617e-21  1.6225e-20  8.3622e-21  1.6240e-20  8.3631e-21  1.6265e-20  8.3647e-21  1.6311e-20  8.3676e-21  1.6391e-20  8.3728e-21  1.6535e-20  8.3819e-21  1.6792e-20  8.3982e-21  1.7251e-20  8.4271e-21  1.8073e-20  8.4785e-21  1.9554e-20  8.5699e-21  2.2257e-20  8.7325e-21  2.7255e-20  9.0216e-21  3.6782e-20  9.5358e-21  5.5706e-20  1.0450e-20
      3.00  1.6205e-20  9.3812e-21  1.6206e-20  9.3813e-21  1.6207e-20  9.3814e-21  1.6209e-20  9.3816e-21  1.6214e-20  9.3819e-21  1.6221e-20  9.3825e-21  1.6235e-20  9.3835e-21  1.6259e-20  9.3853e-21  1.6302e-20  9.3886e-21  1.6379e-20  9.3944e-21  1.6515e-20  9.4046e-21  1.6758e-20  9.4229e-21  1.7193e-20  9.4553e-21  1.7971e-20  9.5130e-21  1.9375e-20  9.6156e-21  2.1931e-20  9.7980e-21  2.6667e-20  1.0122e-20  3.5687e-20  1.0699e-20  5.3598e-20  1.1725e-20
      3.05  1.6202e-20  1.0526e-20  1.6203e-20  1.0526e-20  1.6204e-20  1.0526e-20  1.6206e-20  1.0526e-20  1.6210e-20  1.0527e-20  1.6218e-20  1.0527e-20  1.6230e-20  1.0528e-20  1.6253e-20  1.0530e-20  1.6294e-20  1.0534e-20  1.6367e-20  1.0541e-20  1.6496e-20  1.0552e-20  1.6726e-20  1.0573e-20  1.7138e-20  1.0609e-20  1.7875e-20  1.0674e-20  1.9205e-20  1.0789e-20  2.1626e-20  1.0994e-20  2.6110e-20  1.1358e-20  3.4650e-20  1.2005e-20  5.1601e-20  1.3156e-20
      3.10  1.6199e-20  1.1810e-20  1.6200e-20  1.1810e-20  1.6201e-20  1.1810e-20  1.6203e-20  1.1811e-20  1.6207e-20  1.1811e-20  1.6214e-20  1.1812e-20  1.6226e-20  1.1813e-20  1.6248e-20  1.1815e-20  1.6287e-20  1.1819e-20  1.6355e-20  1.1827e-20  1.6478e-20  1.1840e-20  1.6696e-20  1.1863e-20  1.7086e-20  1.1903e-20  1.7785e-20  1.1976e-20  1.9044e-20  1.2105e-20  2.1337e-20  1.2335e-20  2.5584e-20  1.2743e-20  3.3668e-20  1.3470e-20  4.9711e-20  1.4761e-20
      3.15  1.6197e-20  1.3251e-20  1.6197e-20  1.3251e-20  1.6199e-20  1.3251e-20  1.6201e-20  1.3252e-20  1.6204e-20  1.3252e-20  1.6211e-20  1.3253e-20  1.6222e-20  1.3254e-20  1.6243e-20  1.3257e-20  1.6280e-20  1.3262e-20  1.6345e-20  1.3270e-20  1.6461e-20  1.3284e-20  1.6668e-20  1.3310e-20  1.7037e-20  1.3356e-20  1.7699e-20  1.3437e-20  1.8892e-20  1.3582e-20  2.1064e-20  1.3840e-20  2.5087e-20  1.4298e-20  3.2741e-20  1.5113e-20  4.7923e-20  1.6562e-20
      3.20  1.6195e-20  1.4868e-20  1.6195e-20  1.4868e-20  1.6196e-20  1.4868e-20  1.6198e-20  1.4869e-20  1.6202e-20  1.4869e-20  1.6208e-20  1.4870e-20  1.6219e-20  1.4872e-20  1.6238e-20  1.4875e-20  1.6273e-20  1.4880e-20  1.6335e-20  1.4889e-20  1.6445e-20  1.4905e-20  1.6641e-20  1.4934e-20  1.6991e-20  1.4985e-20  1.7618e-20  1.5077e-20  1.8749e-20  1.5240e-20  2.0807e-20  1.5529e-20  2.4617e-20  1.6043e-20  3.1864e-20  1.6957e-20  4.6232e-20  1.8583e-20
      3.25  1.6192e-20  1.6682e-20  1.6193e-20  1.6682e-20  1.6194e-20  1.6683e-20  1.6196e-20  1.6683e-20  1.6199e-20  1.6683e-20  1.6205e-20  1.6684e-20  1.6215e-20  1.6686e-20  1.6234e-20  1.6690e-20  1.6267e-20  1.6695e-20  1.6325e-20  1.6706e-20  1.6430e-20  1.6724e-20  1.6615e-20  1.6756e-20  1.6947e-20  1.6814e-20  1.7542e-20  1.6917e-20  1.8614e-20  1.7099e-20  2.0564e-20  1.7423e-20  2.4174e-20  1.8000e-20  3.1037e-20  1.9026e-20  4.4635e-20  2.0851e-20
      3.30  1.6190e-20  1.8718e-20  1.6191e-20  1.8718e-20  1.6192e-20  1.8718e-20  1.6194e-20  1.8718e-20  1.6197e-20  1.8719e-20  1.6202e-20  1.8720e-20  1.6212e-20  1.8722e-20  1.6230e-20  1.8726e-20  1.6261e-20  1.8732e-20  1.6316e-20  1.8744e-20  1.6415e-20  1.8764e-20  1.6592e-20  1.8801e-20  1.6906e-20  1.8866e-20  1.7470e-20  1.8981e-20  1.8486e-20  1.9185e-20  2.0335e-20  1.9549e-20  2.3756e-20  2.0197e-20  3.0256e-20  2.1348e-20  4.3128e-20  2.3395e-20
      3.35  1.6189e-20  2.1002e-20  1.6189e-20  2.1002e-20  1.6190e-20  2.1002e-20  1.6192e-20  2.1002e-20  1.6195e-20  2.1003e-20  1.6200e-20  2.1004e-20  1.6209e-20  2.1007e-20  1.6226e-20  2.1011e-20  1.6255e-20  2.1018e-20  1.6308e-20  2.1031e-20  1.6402e-20  2.1054e-20  1.6569e-20  2.1095e-20  1.6868e-20  2.1167e-20  1.7402e-20  2.1297e-20  1.8366e-20  2.1526e-20  2.0119e-20  2.1935e-20  2.3361e-20  2.2661e-20  2.9520e-20  2.3953e-20  4.1705e-20  2.6250e-20
      3.40  1.6187e-20  2.3564e-20  1.6187e-20  2.3564e-20  1.6188e-20  2.3565e-20  1.6190e-20  2.3565e-20  1.6193e-20  2.3566e-20  1.6198e-20  2.3567e-20  1.6206e-20  2.3570e-20  1.6222e-20  2.3574e-20  1.6250e-20  2.3583e-20  1.6300e-20  2.3597e-20  1.6389e-20  2.3623e-20  1.6548e-20  2.3669e-20  1.6831e-20  2.3750e-20  1.7339e-20  2.3895e-20  1.8253e-20  2.4153e-20  1.9916e-20  2.4611e-20  2.2990e-20  2.5426e-20  2.8826e-20  2.6876e-20  4.0364e-20  2.9453e-20
      3.45  1.6185e-20  2.6439e-20  1.6186e-20  2.6439e-20  1.6186e-20  2.6440e-20  1.6188e-20  2.6440e-20  1.6191e-20  2.6441e-20  1.6195e-20  2.6443e-20  1.6204e-20  2.6446e-20  1.6219e-20  2.6451e-20  1.6245e-20  2.6460e-20  1.6293e-20  2.6476e-20  1.6377e-20  2.6505e-20  1.6528e-20  2.6557e-20  1.6797e-20  2.6648e-20  1.7279e-20  2.6811e-20  1.8146e-20  2.7100e-20  1.9724e-20  2.7614e-20  2.2640e-20  2.8529e-20  2.8173e-20  3.0155e-20  3.9101e-20  3.3047e-20
      3.50  1.6184e-20  2.9665e-20  1.6184e-20  2.9666e-20  1.6185e-20  2.9666e-20  1.6186e-20  2.9666e-20  1.6189e-20  2.9667e-20  1.6193e-20  2.9669e-20  1.6201e-20  2.9673e-20  1.6216e-20  2.9678e-20  1.6241e-20  2.9689e-20  1.6286e-20  2.9707e-20  1.6366e-20  2.9739e-20  1.6509e-20  2.9797e-20  1.6765e-20  2.9900e-20  1.7222e-20  3.0082e-20  1.8046e-20  3.0407e-20  1.9544e-20  3.0984e-20  2.2311e-20  3.2010e-20  2.7558e-20  3.3834e-20  3.7911e-20  3.7079e-20
      3.55  1.6182e-20  3.3285e-20  1.6183e-20  3.3285e-20  1.6183e-20  3.3286e-20  1.6185e-20  3.3286e-20  1.6187e-20  3.3287e-20  1.6191e-20  3.3289e-20  1.6199e-20  3.3293e-20  1.6213e-20  3.3300e-20  1.6237e-20  3.3311e-20  1.6280e-20  3.3332e-20  1.6356e-20  3.3368e-20  1.6492e-20  3.3433e-20  1.6735e-20  3.3548e-20  1.7169e-20  3.3753e-20  1.7952e-20  3.4117e-20  1.9375e-20  3.4764e-20  2.2002e-20  3.5916e-20  2.6979e-20  3.7963e-20  3.6791e-20  4.1604e-20
      3.60  1.6181e-20  3.7346e-20  1.6181e-20  3.7347e-20  1.6182e-20  3.7347e-20  1.6183e-20  3.7348e-20  1.6186e-20  3.7349e-20  1.6190e-20  3.7351e-20  1.6197e-20  3.7355e-20  1.6210e-20  3.7363e-20  1.6233e-20  3.7376e-20  1.6273e-20  3.7399e-20  1.6346e-20  3.7439e-20  1.6475e-20  3.7512e-20  1.6706e-20  3.7641e-20  1.7119e-20  3.7871e-20  1.7864e-20  3.8280e-20  1.9216e-20  3.9006e-20  2.1711e-20  4.0298e-20  2.6435e-20  4.2595e-20  3.5737e-20  4.6680e-20
      3.65  1.6180e-20  4.1903e-20  1.6180e-20  4.1903e-20  1.6181e-20  4.1904e-20  1.6182e-20  4.1905e-20  1.6184e-20  4.1906e-20  1.6188e-20  4.1909e-20  1.6195e-20  4.1913e-20  1.6207e-20  4.1922e-20  1.6229e-20  4.1936e-20  1.6268e-20  4.1962e-20  1.6337e-20  4.2008e-20  1.6460e-20  4.2089e-20  1.6679e-20  4.2234e-20  1.7073e-20  4.2492e-20  1.7780e-20  4.2950e-20  1.9066e-20  4.3765e-20  2.1437e-20  4.5215e-20  2.5923e-20  4.7793e-20  3.4746e-20  5.2376e-20
      3.70  1.6179e-20  4.7016e-20  1.6179e-20  4.7016e-20  1.6180e-20  4.7017e-20  1.6181e-20  4.7018e-20  1.6183e-20  4.7019e-20  1.6187e-20  4.7022e-20  1.6193e-20  4.7028e-20  1.6205e-20  4.7037e-20  1.6226e-20  4.7053e-20  1.6262e-20  4.7082e-20  1.6328e-20  4.7133e-20  1.6445e-20  4.7225e-20  1.6654e-20  4.7387e-20  1.7029e-20  4.7677e-20  1.7702e-20  4.8191e-20  1.8926e-20  4.9106e-20  2.1181e-20  5.0732e-20  2.5443e-20  5.3624e-20  3.3815e-20  5.8767e-20
      3.75  1.6178e-20  5.2753e-20  1.6178e-20  5.2753e-20  1.6179e-20  5.2754e-20  1.6180e-20  5.2755e-20  1.6182e-20  5.2757e-20  1.6185e-20  5.2760e-20  1.6191e-20  5.2766e-20  1.6203e-20  5.2776e-20  1.6222e-20  5.2794e-20  1.6257e-20  5.2827e-20  1.6320e-20  5.2884e-20  1.6432e-20  5.2987e-20  1.6631e-20  5.3169e-20  1.6987e-20  5.3494e-20  1.7629e-20  5.4071e-20  1.8794e-20  5.5097e-20  2.0939e-20  5.6922e-20  2.4991e-20  6.0167e-20  3.2940e-20  6.5938e-20
      3.80  1.6177e-20  5.9190e-20  1.6177e-20  5.9190e-20  1.6178e-20  5.9191e-20  1.6179e-20  5.9192e-20  1.6181e-20  5.9194e-20  1.6184e-20  5.9198e-20  1.6190e-20  5.9204e-20  1.6200e-20  5.9215e-20  1.6219e-20  5.9236e-20  1.6253e-20  5.9272e-20  1.6312e-20  5.9337e-20  1.6419e-20  5.9452e-20  1.6609e-20  5.9657e-20  1.6949e-20  6.0021e-20  1.7560e-20  6.0669e-20  1.8670e-20  6.1820e-20  2.0713e-20  6.3868e-20  2.4567e-20  6.7509e-20  3.2118e-20  7.3984e-20
      3.85  1.6176e-20  6.6412e-20  1.6176e-20  6.6412e-20  1.6177e-20  6.6413e-20  1.6178e-20  6.6414e-20  1.6179e-20  6.6417e-20  1.6183e-20  6.6421e-20  1.6188e-20  6.6428e-20  1.6198e-20  6.6441e-20  1.6216e-20  6.6464e-20  1.6248e-20  6.6505e-20  1.6305e-20  6.6577e-20  1.6407e-20  6.6706e-20  1.6588e-20  6.6936e-20  1.6912e-20  6.7345e-20  1.7496e-20  6.8071e-20  1.8553e-20  6.9363e-20  2.0500e-20  7.1661e-20  2.4169e-20  7.5746e-20  3.1346e-20  8.3011e-20
      3.90  1.6175e-20  7.4515e-20  1.6175e-20  7.4516e-20  1.6176e-20  7.4516e-20  1.6177e-20  7.4518e-20  1.6178e-20  7.4521e-20  1.6181e-20  7.4525e-20  1.6187e-20  7.4533e-20  1.6197e-20  7.4548e-20  1.6214e-20  7.4574e-20  1.6244e-20  7.4619e-20  1.6299e-20  7.4701e-20  1.6396e-20  7.4846e-20  1.6569e-20  7.5104e-20  1.6878e-20  7.5562e-20  1.7435e-20  7.6377e-20  1.8444e-20  7.7827e-20  2.0301e-20  8.0405e-20  2.3796e-20  8.4989e-20  3.0622e-20  9.3140e-20
      3.95  1.6174e-20  8.3607e-20  1.6174e-20  8.3608e-20  1.6175e-20  8.3609e-20  1.6176e-20  8.3610e-20  1.6177e-20  8.3613e-20  1.6180e-20  8.3618e-20  1.6186e-20  8.3628e-20  1.6195e-20  8.3644e-20  1.6211e-20  8.3673e-20  1.6240e-20  8.3724e-20  1.6292e-20  8.3816e-20  1.6385e-20  8.3978e-20  1.6550e-20  8.4268e-20  1.6846e-20  8.4782e-20  1.7378e-20  8.5697e-20  1.8342e-20  8.7323e-20  2.0114e-20  9.0216e-20  2.3446e-20  9.5359e-20  2.9943e-20  1.0451e-19
