# This was generated using Cloudy10 and the columns are ordered 
# as log10 of the fraction of the metallicity to the solar metallicity
# 'h_*_Z' and 'c_*_Z' stands for cooling and heating respectively 
# at * metalicity
#
# Redshift = 2.0
# hden = 3.0
#     temp   h_-3.00_Z   c_-3.00_Z   h_-2.75_Z   c_-2.75_Z   h_-2.50_Z   c_-2.50_Z   h_-2.25_Z   c_-2.25_Z   h_-2.00_Z   c_-2.00_Z   h_-1.75_Z   c_-1.75_Z   h_-1.50_Z   c_-1.50_Z   h_-1.25_Z   c_-1.25_Z   h_-1.00_Z   c_-1.00_Z   h_-0.75_Z   c_-0.75_Z   h_-0.50_Z   c_-0.50_Z   h_-0.25_Z   c_-0.25_Z    h_0.00_Z    c_0.00_Z    h_0.25_Z    c_0.25_Z    h_0.50_Z    c_0.50_Z    h_0.75_Z    c_0.75_Z    h_1.00_Z    c_1.00_Z    h_1.25_Z    c_1.25_Z    h_1.50_Z    c_1.50_Z 
      1.00  1.1239e-26  2.2973e-30  1.1239e-26  2.3059e-30  1.1239e-26  2.3213e-30  1.1239e-26  2.3486e-30  1.124e-26  2.3972e-30  1.1241e-26  2.4837e-30  1.1242e-26  2.6374e-30  1.1245e-26  2.9108e-30  1.1249e-26  3.3971e-30  1.1258e-26  4.2621e-30  1.1273e-26  5.8014e-30   1.13e-26  8.5417e-30  1.1347e-26  1.3424e-29  1.1432e-26  2.2134e-29  1.1586e-26  3.7697e-29  1.1864e-26  6.5569e-29  1.2377e-26  1.1555e-28  1.3337e-26  2.0534e-28  1.5141e-26  3.6633e-28
      1.05  1.1237e-26  2.6119e-30  1.1237e-26  2.6233e-30  1.1237e-26  2.6436e-30  1.1237e-26  2.6797e-30  1.1238e-26  2.744e-30  1.1238e-26  2.8582e-30  1.124e-26  3.0613e-30  1.1242e-26  3.4225e-30  1.1247e-26  4.0649e-30  1.1256e-26  5.2078e-30  1.127e-26  7.2414e-30  1.1297e-26  1.0862e-29  1.1344e-26  1.7311e-29  1.1429e-26  2.8814e-29  1.1581e-26  4.9364e-29  1.1858e-26  8.6151e-29  1.2368e-26  1.5209e-28  1.3323e-26  2.7047e-28  1.5123e-26  4.826e-28
      1.10  1.1234e-26  2.9631e-30  1.1234e-26  2.9779e-30  1.1234e-26  3.0043e-30  1.1235e-26  3.0513e-30  1.1235e-26  3.1348e-30  1.1236e-26  3.2832e-30  1.1238e-26  3.5472e-30  1.124e-26  4.0166e-30  1.1245e-26  4.8516e-30  1.1253e-26  6.3369e-30  1.1268e-26  8.9796e-30  1.1294e-26  1.3683e-29  1.1341e-26  2.2061e-29  1.1426e-26  3.6997e-29  1.1577e-26  6.3664e-29  1.1853e-26  1.1136e-28  1.236e-26  1.9677e-28  1.3313e-26  3.4991e-28  1.5109e-26  6.2409e-28
      1.15  1.1232e-26  3.3554e-30  1.1232e-26  3.3744e-30  1.1232e-26  3.4083e-30  1.1232e-26  3.4686e-30  1.1233e-26  3.5757e-30  1.1234e-26  3.7662e-30  1.1235e-26  4.105e-30  1.1238e-26  4.7076e-30  1.1242e-26  5.7792e-30  1.1251e-26  7.6852e-30  1.1265e-26  1.1076e-29  1.1292e-26  1.711e-29  1.1338e-26  2.7852e-29  1.1422e-26  4.699e-29  1.1573e-26  8.1123e-29  1.1847e-26  1.4208e-28  1.2353e-26  2.5104e-28  1.3302e-26  4.4607e-28  1.5094e-26  7.9478e-28
      1.20  1.1229e-26  3.7938e-30  1.1229e-26  3.818e-30  1.123e-26  3.8611e-30  1.123e-26  3.9377e-30  1.123e-26  4.0739e-30  1.1231e-26  4.3161e-30  1.1233e-26  4.7468e-30  1.1235e-26  5.5128e-30  1.124e-26  6.8749e-30  1.1248e-26  9.2974e-30  1.1263e-26  1.3606e-29  1.1289e-26  2.127e-29  1.1335e-26  3.4904e-29  1.1419e-26  5.9168e-29  1.1569e-26  1.0237e-28  1.1842e-26  1.7934e-28  1.2345e-26  3.1656e-28  1.3291e-26  5.6154e-28  1.5078e-26  9.9876e-28
      1.25  1.1227e-26  4.284e-30  1.1227e-26  4.3145e-30  1.1227e-26  4.3689e-30  1.1227e-26  4.4655e-30  1.1228e-26  4.6374e-30  1.1229e-26  4.9429e-30  1.123e-26  5.4863e-30  1.1233e-26  6.4526e-30  1.1237e-26  8.1708e-30  1.1245e-26  1.1226e-29  1.126e-26  1.6658e-29  1.1286e-26  2.6313e-29  1.1332e-26  4.3475e-29  1.1415e-26  7.3965e-29  1.1565e-26  1.2812e-28  1.1836e-26  2.2427e-28  1.2337e-26  3.9502e-28  1.3279e-26  6.9885e-28  1.5062e-26  1.2399e-27
      1.30  1.1224e-26  4.8328e-30  1.1224e-26  4.8711e-30  1.1224e-26  4.9392e-30  1.1225e-26  5.0604e-30  1.1225e-26  5.2757e-30  1.1226e-26  5.6587e-30  1.1227e-26  6.3398e-30  1.123e-26  7.5507e-30  1.1234e-26  9.7036e-30  1.1243e-26  1.3531e-29  1.1257e-26  2.0331e-29  1.1283e-26  3.2411e-29  1.1329e-26  5.385e-29  1.1412e-26  9.1856e-29  1.156e-26  1.5912e-28  1.183e-26  2.7802e-28  1.2328e-26  4.8811e-28  1.3268e-26  8.6035e-28  1.5046e-26  1.5215e-27
      1.35  1.1221e-26  5.447e-30  1.1221e-26  5.4947e-30  1.1222e-26  5.5795e-30  1.1222e-26  5.7304e-30  1.1222e-26  5.9987e-30  1.1223e-26  6.4757e-30  1.1225e-26  7.3239e-30  1.1227e-26  8.8319e-30  1.1232e-26  1.1512e-29  1.124e-26  1.6276e-29  1.1254e-26  2.4735e-29  1.128e-26  3.9745e-29  1.1326e-26  6.6338e-29  1.1408e-26  1.1334e-28  1.1556e-26  1.9619e-28  1.1824e-26  3.4177e-28  1.232e-26  5.974e-28  1.3256e-26  1.0481e-27  1.5029e-26  1.8464e-27
      1.40  1.1219e-26  6.1344e-30  1.1219e-26  6.1934e-30  1.1219e-26  6.2984e-30  1.1219e-26  6.4851e-30  1.1219e-26  6.8171e-30  1.122e-26  7.4075e-30  1.1222e-26  8.457e-30  1.1224e-26  1.0323e-29  1.1229e-26  1.3638e-29  1.1237e-26  1.9528e-29  1.1251e-26  2.9979e-29  1.1277e-26  4.8501e-29  1.1322e-26  8.1245e-29  1.1404e-26  1.3893e-28  1.1551e-26  2.4006e-28  1.1818e-26  4.1657e-28  1.2312e-26  7.2423e-28  1.3244e-26  1.2637e-27  1.5013e-26  2.2171e-27
      1.45  1.1216e-26  6.9037e-30  1.1216e-26  6.9763e-30  1.1216e-26  7.1053e-30  1.1216e-26  7.3346e-30  1.1217e-26  7.7425e-30  1.1217e-26  8.4677e-30  1.1219e-26  9.7569e-30  1.1221e-26  1.2048e-29  1.1226e-26  1.6119e-29  1.1234e-26  2.3346e-29  1.1248e-26  3.6162e-29  1.1273e-26  5.8841e-29  1.1319e-26  9.8838e-29   1.14e-26  1.6902e-28  1.1546e-26  2.9135e-28  1.1812e-26  5.032e-28  1.2303e-26  8.6948e-28  1.3231e-26  1.5082e-27  1.4995e-26  2.6348e-27
      1.50  1.1213e-26  7.765e-30  1.1213e-26  7.8535e-30  1.1213e-26  8.0109e-30  1.1213e-26  8.2909e-30  1.1213e-26  8.7886e-30  1.1214e-26  9.6736e-30  1.1216e-26  1.1247e-29  1.1218e-26  1.4042e-29  1.1223e-26  1.9007e-29  1.1231e-26  2.7818e-29  1.1245e-26  4.3427e-29  1.127e-26  7.1007e-29  1.1315e-26  1.1952e-28  1.1396e-26  2.0429e-28  1.1541e-26  3.5112e-28  1.1805e-26  6.0328e-28  1.2294e-26  1.0355e-27  1.3219e-26  1.7851e-27  1.4978e-26  3.1058e-27
      1.55  1.1209e-26  8.7308e-30  1.1209e-26  8.8382e-30  1.121e-26  9.0293e-30  1.121e-26  9.3691e-30  1.121e-26  9.9733e-30  1.1211e-26  1.1047e-29  1.1212e-26  1.2957e-29  1.1215e-26  1.6349e-29  1.1219e-26  2.2371e-29  1.1227e-26  3.3053e-29  1.1241e-26  5.196e-29  1.1267e-26  8.5313e-29  1.1312e-26  1.4383e-28  1.1392e-26  2.4563e-28  1.1537e-26  4.2079e-28  1.1799e-26  7.1902e-28  1.2286e-26  1.2258e-27  1.3207e-26  2.1001e-27  1.4961e-26  3.6398e-27
      1.60  1.1206e-26  9.8127e-30  1.1206e-26  9.9429e-30  1.1206e-26  1.0174e-29  1.1207e-26  1.0586e-29  1.1207e-26  1.1317e-29  1.1208e-26  1.2618e-29  1.1209e-26  1.4929e-29  1.1212e-26  1.9034e-29  1.1216e-26  2.6322e-29  1.1224e-26  3.9241e-29  1.1238e-26  6.2087e-29  1.1263e-26  1.0232e-28  1.1308e-26  1.7273e-28  1.1388e-26  2.9471e-28  1.1532e-26  5.0326e-28  1.1793e-26  8.5535e-28  1.2277e-26  1.4485e-27  1.3195e-26  2.4672e-27  1.4945e-26  4.2609e-27
      1.65  1.1203e-26  1.1026e-29  1.1203e-26  1.1185e-29  1.1203e-26  1.1466e-29  1.1203e-26  1.1966e-29  1.1204e-26  1.2856e-29  1.1204e-26  1.4437e-29  1.1206e-26  1.7247e-29  1.1208e-26  2.2237e-29  1.1213e-26  3.1094e-29  1.122e-26  4.6787e-29  1.1234e-26  7.4515e-29  1.1259e-26  1.2329e-28  1.1304e-26  2.0843e-28  1.1383e-26  3.5538e-28  1.1527e-26  6.0522e-28  1.1787e-26  1.0239e-27  1.2269e-26  1.7238e-27  1.3183e-26  2.9199e-27  1.4929e-26  5.0244e-27
      1.70  1.1199e-26  1.2391e-29  1.1199e-26  1.2586e-29  1.1199e-26  1.2934e-29   1.12e-26  1.3551e-29   1.12e-26  1.4649e-29  1.1201e-26   1.66e-29  1.1202e-26  2.0067e-29  1.1205e-26  2.6225e-29  1.1209e-26  3.7151e-29  1.1217e-26  5.6503e-29  1.1231e-26  9.0679e-29  1.1256e-26  1.5073e-28   1.13e-26  2.5538e-28  1.1379e-26  4.3552e-28  1.1522e-26  7.4055e-28  1.1781e-26  1.2489e-27  1.226e-26  2.0933e-27  1.3172e-26  3.5283e-27  1.4913e-26  6.0441e-27
      1.75  1.1195e-26  1.3932e-29  1.1196e-26  1.4179e-29  1.1196e-26  1.462e-29  1.1196e-26  1.5403e-29  1.1196e-26  1.6796e-29  1.1197e-26  1.9271e-29  1.1199e-26  2.3669e-29  1.1201e-26  3.1479e-29  1.1205e-26  4.5337e-29  1.1213e-26  6.9877e-29  1.1227e-26  1.132e-28  1.1252e-26  1.893e-28  1.1296e-26  3.2183e-28  1.1374e-26  5.4971e-28  1.1516e-26  9.3498e-28  1.1774e-26  1.5756e-27  1.2252e-26  2.6352e-27  1.316e-26  4.4227e-27  1.4898e-26  7.5298e-27
      1.80  1.1192e-26  1.5685e-29  1.1192e-26  1.6011e-29  1.1192e-26  1.6591e-29  1.1192e-26  1.7622e-29  1.1193e-26  1.9456e-29  1.1193e-26  2.2715e-29  1.1195e-26  2.8506e-29  1.1197e-26  3.8791e-29  1.1201e-26  5.704e-29  1.1209e-26  8.9359e-29  1.1223e-26  1.4643e-28  1.1248e-26  2.467e-28  1.1291e-26  4.2141e-28  1.137e-26  7.221e-28  1.1511e-26  1.2312e-27  1.1768e-26  2.0786e-27  1.2243e-26  3.4792e-27  1.3149e-26  5.8193e-27  1.4882e-26  9.828e-27
      1.85  1.1188e-26  1.7688e-29  1.1188e-26  1.8135e-29  1.1188e-26  1.8929e-29  1.1188e-26  2.034e-29  1.1189e-26  2.285e-29  1.1189e-26  2.7312e-29  1.1191e-26  3.524e-29  1.1193e-26  4.9322e-29  1.1197e-26  7.4311e-29  1.1205e-26  1.1858e-28  1.1219e-26  1.968e-28  1.1243e-26  3.3435e-28  1.1287e-26  5.7441e-28  1.1365e-26  9.8867e-28  1.1506e-26  1.6929e-27  1.1761e-26  2.8708e-27  1.2235e-26  4.8195e-27  1.3137e-26  8.042e-27  1.4867e-26  1.3458e-26
      1.90  1.1184e-26  1.9992e-29  1.1184e-26  2.0621e-29  1.1184e-26  2.1739e-29  1.1184e-26  2.3728e-29  1.1185e-26  2.7264e-29  1.1185e-26  3.3549e-29  1.1187e-26  4.472e-29  1.1189e-26  6.4564e-29  1.1193e-26  9.9786e-29  1.1201e-26  1.6222e-28  1.1215e-26  2.726e-28  1.1239e-26  4.6699e-28  1.1282e-26  8.0704e-28  1.136e-26  1.3961e-27   1.15e-26  2.4031e-27  1.1755e-26  4.0987e-27  1.2227e-26  6.9119e-27  1.3128e-26  1.1518e-26  1.4855e-26  1.9103e-26
      1.95  1.1179e-26  2.2646e-29  1.1179e-26  2.3539e-29  1.118e-26  2.5125e-29  1.118e-26  2.7947e-29  1.118e-26  3.2963e-29  1.1181e-26  4.1882e-29  1.1182e-26  5.7733e-29  1.1185e-26  8.5897e-29  1.1189e-26  1.359e-28  1.1197e-26  2.2459e-28  1.121e-26  3.8156e-28  1.1235e-26  6.5846e-28  1.1278e-26  1.1442e-27  1.1356e-26  1.9895e-27  1.1496e-26  3.4434e-27  1.1752e-26  5.9095e-27  1.2225e-26  1.001e-26  1.3128e-26  1.6659e-26  1.4858e-26  2.7409e-26
      2.00  1.1175e-26  2.5736e-29  1.1175e-26  2.7015e-29  1.1175e-26  2.929e-29  1.1175e-26  3.3335e-29  1.1176e-26  4.0528e-29  1.1177e-26  5.3315e-29  1.1178e-26  7.6044e-29  1.118e-26  1.1643e-28  1.1185e-26  1.8816e-28  1.1192e-26  3.1543e-28  1.1206e-26  5.4085e-28  1.123e-26  9.3897e-28  1.1273e-26  1.6389e-27  1.1351e-26  2.8608e-27  1.1491e-26  4.9726e-27  1.1745e-26  8.5746e-27  1.2217e-26  1.4579e-26  1.3118e-26  2.4248e-26  1.4846e-26  3.9648e-26
      2.05  1.117e-26  2.9336e-29  1.117e-26  3.1151e-29  1.1171e-26  3.4378e-29  1.1171e-26  4.0117e-29  1.1171e-26  5.032e-29  1.1172e-26  6.8462e-29  1.1173e-26  1.0071e-28  1.1176e-26  1.5802e-28  1.118e-26  2.5983e-28  1.1188e-26  4.4051e-28  1.1201e-26  7.6072e-28  1.1225e-26  1.3268e-27  1.1268e-26  2.3238e-27  1.1346e-26  4.0684e-27  1.1485e-26  7.0974e-27  1.1738e-26  1.2287e-26  1.2208e-26  2.0965e-26  1.3105e-26  3.4877e-26  1.4829e-26  5.6791e-26
      2.10  1.1166e-26  3.3507e-29  1.1166e-26  3.603e-29  1.1166e-26  4.0516e-29  1.1166e-26  4.8494e-29  1.1167e-26  6.2679e-29  1.1167e-26   8.79e-29  1.1169e-26  1.3274e-28  1.1171e-26  2.1242e-28  1.1175e-26   3.54e-28  1.1183e-26  6.0533e-28  1.1196e-26  1.051e-27  1.122e-26  1.8395e-27  1.1263e-26   3.23e-27  1.134e-26  5.6689e-27  1.1479e-26  9.9169e-27  1.1731e-26  1.7225e-26  1.2198e-26  2.9483e-26  1.3093e-26  4.9082e-26  1.4813e-26  7.9721e-26
      2.15  1.1161e-26  3.8316e-29  1.1161e-26  4.1739e-29  1.1161e-26  4.7825e-29  1.1161e-26  5.8649e-29  1.1162e-26  7.7894e-29  1.1162e-26  1.1211e-28  1.1164e-26  1.7295e-28  1.1166e-26  2.8108e-28  1.117e-26  4.732e-28  1.1178e-26  8.1435e-28  1.1191e-26  1.4195e-27  1.1215e-26  2.4909e-27  1.1258e-26  4.3825e-27  1.1334e-26  7.7063e-27  1.1472e-26  1.3511e-26  1.1723e-26  2.3531e-26  1.2189e-26  4.0388e-26  1.308e-26  6.7311e-26  1.4797e-26  1.0919e-25
      2.20  1.1156e-26  4.3825e-29  1.1156e-26  4.8351e-29  1.1156e-26  5.6399e-29  1.1156e-26  7.0709e-29  1.1156e-26  9.6155e-29  1.1157e-26  1.414e-28  1.1159e-26  2.2184e-28  1.1161e-26  3.6482e-28  1.1165e-26  6.189e-28  1.1173e-26  1.0701e-27  1.1186e-26  1.8708e-27  1.121e-26  3.2892e-27  1.1252e-26  5.7946e-27  1.1328e-26  1.0206e-26  1.1466e-26  1.7925e-26  1.1716e-26  3.1289e-26  1.218e-26  5.3837e-26  1.3068e-26  8.9848e-26  1.4781e-26  1.457e-25
      2.25  1.115e-26  5.0091e-29  1.115e-26  5.5923e-29  1.115e-26  6.6295e-29  1.1151e-26  8.4738e-29  1.1151e-26  1.1753e-28  1.1152e-26  1.7584e-28  1.1153e-26  2.7951e-28  1.1156e-26  4.638e-28  1.116e-26  7.9131e-28  1.1167e-26  1.373e-27  1.118e-26  2.4055e-27  1.1204e-26  4.2353e-27  1.1246e-26  7.4698e-27  1.1322e-26  1.3172e-26  1.1459e-26  2.3166e-26  1.1708e-26  4.0513e-26  1.217e-26  6.9864e-26  1.3056e-26  1.1677e-25  1.4766e-26  1.8943e-25
      2.30  1.1145e-26  5.7183e-29  1.1145e-26  6.4518e-29  1.1145e-26  7.7562e-29  1.1145e-26  1.0076e-28  1.1146e-26   1.42e-28  1.1146e-26  2.1533e-28  1.1148e-26  3.4571e-28  1.115e-26  5.7749e-28  1.1154e-26  9.8942e-28  1.1161e-26  1.7212e-27  1.1175e-26  3.0202e-27  1.1198e-26  5.3232e-27  1.124e-26  9.3967e-27  1.1316e-26  1.6584e-26  1.1452e-26  2.9202e-26  1.1701e-26  5.115e-26  1.2161e-26  8.8387e-26  1.3043e-26  1.4798e-25  1.475e-26  2.4027e-25
      2.35  1.1139e-26  6.5133e-29  1.1139e-26  7.415e-29  1.1139e-26  9.0185e-29  1.1139e-26  1.187e-28  1.114e-26  1.694e-28  1.1141e-26  2.5956e-28  1.1142e-26  4.1985e-28  1.1144e-26  7.0481e-28  1.1148e-26  1.2113e-27  1.1156e-26  2.1111e-27  1.1169e-26  3.7086e-27  1.1192e-26  6.5416e-27  1.1234e-26  1.1555e-26  1.1309e-26  2.0408e-26  1.1445e-26  3.597e-26  1.1693e-26  6.3089e-26  1.2151e-26  1.0922e-25  1.3031e-26  1.8319e-25  1.4734e-26  2.9779e-25
      2.40  1.1133e-26  7.3983e-29  1.1133e-26  8.4835e-29  1.1133e-26  1.0413e-28  1.1133e-26  1.3845e-28  1.1134e-26  1.9947e-28  1.1135e-26  3.0798e-28  1.1136e-26  5.009e-28  1.1138e-26  8.4388e-28  1.1142e-26  1.4535e-27  1.115e-26  2.5366e-27  1.1163e-26  4.4598e-27  1.1186e-26  7.8713e-27  1.1228e-26  1.3911e-26  1.1303e-26  2.4583e-26  1.1438e-26  4.3361e-26  1.1685e-26  7.6143e-26  1.2142e-26  1.3204e-25  1.3018e-26  2.2187e-25  1.4719e-26  3.6121e-25
      2.45  1.1127e-26  8.3776e-29  1.1127e-26  9.6583e-29  1.1127e-26  1.1936e-28  1.1127e-26  1.5986e-28  1.1128e-26  2.3187e-28  1.1128e-26  3.5993e-28  1.113e-26  5.8761e-28  1.1132e-26  9.9239e-28  1.1136e-26  1.7119e-27  1.1143e-26  2.9903e-27  1.1156e-26  5.2605e-27  1.1179e-26  9.2882e-27  1.1221e-26  1.6421e-26  1.1296e-26  2.9032e-26  1.1431e-26  5.1243e-26  1.1677e-26  9.0076e-26  1.2132e-26  1.5646e-25  1.3006e-26  2.6337e-25  1.4703e-26  4.2949e-25
      2.50  1.112e-26  9.4579e-29  1.112e-26  1.0944e-28  1.112e-26  1.3586e-28  1.1121e-26  1.8284e-28  1.1121e-26  2.6639e-28  1.1122e-26  4.1496e-28  1.1123e-26  6.791e-28  1.1125e-26  1.1487e-27  1.1129e-26  1.9835e-27  1.1137e-26  3.4668e-27  1.115e-26  6.1011e-27  1.1173e-26  1.0775e-26  1.1214e-26  1.9056e-26  1.1288e-26  3.3703e-26  1.1423e-26  5.9521e-26  1.1668e-26  1.0472e-25  1.2122e-26  1.8217e-25  1.2993e-26  3.0723e-25  1.4687e-26  5.0195e-25
      2.55  1.1114e-26  1.0651e-28  1.1114e-26  1.2349e-28  1.1114e-26  1.5368e-28  1.1114e-26  2.0736e-28  1.1114e-26  3.0281e-28  1.1115e-26  4.7255e-28  1.1116e-26  7.7435e-28  1.1119e-26  1.3109e-27  1.1123e-26  2.2647e-27  1.113e-26  3.9595e-27  1.1143e-26  6.9698e-27  1.1166e-26  1.2312e-26  1.1207e-26  2.1778e-26  1.1281e-26  3.8528e-26  1.1415e-26  6.8075e-26  1.166e-26  1.1987e-25  1.2112e-26  2.0881e-25  1.298e-26  3.5285e-25  1.4671e-26  5.7765e-25
      2.60  1.1107e-26  1.1962e-28  1.1107e-26  1.3875e-28  1.1107e-26  1.7278e-28  1.1107e-26  2.3328e-28  1.1107e-26  3.4087e-28  1.1108e-26  5.3218e-28  1.1109e-26  8.7233e-28  1.1112e-26  1.4771e-27  1.1116e-26  2.5521e-27  1.1123e-26  4.4625e-27  1.1136e-26  7.8557e-27  1.1158e-26  1.3878e-26  1.1199e-26  2.4551e-26  1.1273e-26  4.3446e-26  1.1407e-26  7.6795e-26  1.1651e-26  1.3532e-25  1.2102e-26  2.3606e-25  1.2967e-26  3.9967e-25  1.4655e-26  6.5572e-25
      2.65  1.1099e-26  1.3401e-28  1.1099e-26  1.5533e-28   1.11e-26  1.9322e-28   1.11e-26  2.6061e-28   1.11e-26  3.8044e-28  1.1101e-26  5.9353e-28  1.1102e-26  9.724e-28  1.1104e-26  1.646e-27  1.1108e-26  2.8434e-27  1.1115e-26  4.9713e-27  1.1128e-26  8.7512e-27  1.1151e-26  1.5461e-26  1.1192e-26  2.7353e-26  1.1265e-26  4.8412e-26  1.1399e-26  8.5606e-26  1.1642e-26  1.5095e-25  1.2091e-26  2.6366e-25  1.2954e-26  4.4733e-25  1.4638e-26  7.356e-25
      2.70  1.1092e-26  1.4983e-28  1.1092e-26  1.7333e-28  1.1092e-26  2.151e-28  1.1092e-26  2.894e-28  1.1093e-26  4.215e-28  1.1093e-26  6.5641e-28  1.1095e-26  1.0741e-27  1.1097e-26  1.8167e-27  1.1101e-26  3.1368e-27  1.1108e-26  5.4828e-27  1.112e-26  9.6503e-27  1.1143e-26  1.7048e-26  1.1184e-26  3.0163e-26  1.1257e-26  5.3394e-26  1.139e-26  9.4443e-26  1.1633e-26  1.6663e-25  1.2081e-26  2.9142e-25  1.2941e-26  4.9542e-25  1.4621e-26  8.1671e-25
      2.75  1.1084e-26  1.672e-28  1.1084e-26  1.9285e-28  1.1084e-26  2.3847e-28  1.1084e-26  3.1958e-28  1.1085e-26  4.6381e-28  1.1085e-26  7.2028e-28  1.1087e-26  1.1763e-27  1.1089e-26  1.9871e-27  1.1093e-26  3.4283e-27   1.11e-26  5.9897e-27  1.1113e-26  1.054e-26  1.1135e-26  1.8617e-26  1.1176e-26  3.2937e-26  1.1249e-26  5.8306e-26  1.1382e-26  1.0314e-25  1.1624e-26  1.8201e-25  1.2071e-26  3.1839e-25  1.2932e-26  5.4171e-25  1.4611e-26  8.9553e-25
      2.80  1.1076e-26  1.8645e-28  1.1076e-26  2.1425e-28  1.1076e-26  2.6369e-28  1.1076e-26  3.516e-28  1.1077e-26  5.0792e-28  1.1077e-26  7.8588e-28  1.1078e-26  1.2801e-27  1.1081e-26  2.1589e-27  1.1085e-26  3.7209e-27  1.1092e-26  6.497e-27  1.1104e-26  1.1429e-26  1.1127e-26  2.0184e-26  1.1167e-26  3.5704e-26  1.124e-26  6.3205e-26  1.1373e-26  1.1181e-25  1.1615e-26  1.9734e-25  1.2062e-26  3.4524e-25  1.2923e-26  5.8785e-25  1.4602e-26  9.748e-25
      2.85  1.1067e-26  2.0771e-28  1.1067e-26  2.3766e-28  1.1067e-26  2.9093e-28  1.1068e-26  3.8564e-28  1.1068e-26  5.5406e-28  1.1069e-26  8.5353e-28  1.107e-26  1.386e-27  1.1072e-26  2.3328e-27  1.1076e-26  4.0157e-27  1.1083e-26  7.0067e-27  1.1096e-26  1.232e-26  1.1118e-26  2.1753e-26  1.1158e-26  3.8476e-26  1.1231e-26  6.8109e-26  1.1363e-26  1.2049e-25  1.1605e-26  2.1267e-25  1.2052e-26  3.721e-25  1.2914e-26  6.3421e-25  1.4592e-26  1.0552e-24
      2.90  1.1058e-26  2.3126e-28  1.1058e-26  2.6337e-28  1.1059e-26  3.2048e-28  1.1059e-26  4.2204e-28  1.1059e-26  6.0263e-28  1.106e-26  9.2374e-28  1.1061e-26  1.4947e-27  1.1063e-26  2.5099e-27  1.1067e-26  4.3145e-27  1.1074e-26  7.5217e-27  1.1087e-26  1.3219e-26  1.1109e-26  2.3335e-26  1.1149e-26  4.1268e-26  1.1222e-26  7.3049e-26  1.1354e-26  1.2924e-25  1.1595e-26  2.2812e-25  1.2042e-26  3.9922e-25  1.2904e-26  6.8128e-25  1.458e-26  1.1377e-24
      2.95  1.1049e-26  2.5738e-28  1.1049e-26  2.9169e-28  1.1049e-26  3.5269e-28  1.105e-26  4.6118e-28  1.105e-26  6.5408e-28  1.1051e-26  9.971e-28  1.1052e-26  1.607e-27  1.1054e-26  2.6914e-27  1.1058e-26  4.6191e-27  1.1065e-26  8.0452e-27  1.1077e-26  1.4132e-26  1.1099e-26  2.4938e-26  1.1139e-26  4.4107e-26  1.1212e-26  7.8055e-26  1.1344e-26  1.381e-25  1.1585e-26  2.438e-25  1.2031e-26  4.2683e-25  1.2893e-26  7.2965e-25  1.4566e-26  1.2234e-24
      3.00  1.1039e-26  2.8645e-28  1.104e-26  3.2298e-28  1.104e-26  3.8795e-28  1.104e-26  5.0348e-28  1.104e-26  7.0892e-28  1.1041e-26  1.0742e-27  1.1042e-26  1.7238e-27  1.1044e-26  2.8786e-27  1.1048e-26  4.9317e-27  1.1055e-26  8.5805e-27  1.1067e-26  1.5063e-26  1.109e-26  2.6574e-26  1.1129e-26  4.6993e-26  1.1202e-26  8.3162e-26  1.1333e-26  1.4715e-25  1.1574e-26  2.5983e-25  1.202e-26  4.552e-25  1.288e-26  7.7992e-25  1.4546e-26  1.3134e-24
      3.05  1.1029e-26  3.1906e-28  1.103e-26  3.5784e-28  1.103e-26  4.268e-28  1.103e-26  5.4943e-28  1.103e-26  7.6749e-28  1.1031e-26  1.1552e-27  1.1032e-26  1.8447e-27  1.1034e-26  3.0706e-27  1.1038e-26  5.2499e-27  1.1045e-26  9.1234e-27  1.1057e-26  1.6006e-26  1.1079e-26  2.8226e-26  1.1119e-26  4.991e-26  1.1191e-26  8.8323e-26  1.1322e-26  1.563e-25  1.1562e-26  2.7609e-25  1.2007e-26  4.8414e-25  1.2863e-26  8.3185e-25  1.4522e-26  1.4075e-24
      3.10  1.1019e-26  3.5529e-28  1.1019e-26  3.9638e-28  1.1019e-26  4.6944e-28  1.1019e-26  5.9937e-28  1.102e-26  8.3041e-28  1.102e-26  1.2413e-27  1.1022e-26  1.9718e-27  1.1024e-26  3.2707e-27  1.1028e-26  5.5798e-27  1.1035e-26  9.6843e-27  1.1047e-26  1.6978e-26  1.1069e-26  2.993e-26  1.1108e-26  5.2916e-26  1.118e-26  9.3648e-26  1.131e-26  1.6576e-25  1.1549e-26  2.9292e-25  1.1992e-26  5.1431e-25  1.2843e-26  8.8672e-25  1.449e-26  1.5081e-24
      3.15  1.1008e-26  3.9602e-28  1.1008e-26  4.3951e-28  1.1008e-26  5.1683e-28  1.1009e-26  6.5434e-28  1.1009e-26  8.9885e-28  1.101e-26  1.3336e-27  1.1011e-26  2.1068e-27  1.1013e-26  3.4815e-27  1.1017e-26  5.9255e-27  1.1024e-26  1.027e-26  1.1036e-26  1.799e-26  1.1058e-26  3.1704e-26  1.1097e-26  5.6048e-26  1.1168e-26  9.9198e-26  1.1298e-26  1.7563e-25  1.1536e-26  3.1054e-25  1.1976e-26  5.4608e-25  1.282e-26  9.452e-25  1.445e-26  1.6164e-24
      3.20  1.0997e-26  4.4177e-28  1.0997e-26  4.8778e-28  1.0997e-26  5.696e-28  1.0997e-26  7.1509e-28  1.0998e-26  9.7382e-28  1.0998e-26  1.4339e-27  1.0999e-26  2.252e-27  1.1002e-26  3.7066e-27  1.1005e-26  6.2929e-27  1.1012e-26  1.0891e-26  1.1024e-26  1.9062e-26  1.1046e-26  3.3581e-26  1.1085e-26  5.936e-26  1.1156e-26  1.0507e-25  1.1285e-26  1.861e-25  1.1521e-26  3.2927e-25  1.1958e-26  5.7999e-25  1.2792e-26  1.0082e-24  1.4401e-26  1.7343e-24
      3.25  1.0985e-26  4.9304e-28  1.0985e-26  5.4177e-28  1.0985e-26  6.2844e-28  1.0985e-26  7.8257e-28  1.0986e-26  1.0566e-27  1.0986e-26  1.544e-27  1.0988e-26  2.4106e-27  1.099e-26  3.9516e-27  1.0994e-26  6.6915e-27    1.1e-26  1.1563e-26  1.1012e-26  2.0222e-26  1.1034e-26  3.561e-26  1.1073e-26  6.2943e-26  1.1143e-26  1.1143e-25  1.1271e-26  1.9745e-25  1.1505e-26  3.4962e-25  1.1937e-26  6.1692e-25  1.2759e-26  1.0771e-24  1.4343e-26  1.8639e-24
      3.30  1.0973e-26  5.5114e-28  1.0973e-26  6.0291e-28  1.0973e-26  6.9498e-28  1.0973e-26  8.587e-28  1.0973e-26  1.1498e-27  1.0974e-26  1.6676e-27  1.0975e-26  2.5882e-27  1.0977e-26  4.2252e-27  1.0981e-26  7.1361e-27  1.0988e-26  1.2312e-26    1.1e-26  2.1513e-26  1.1021e-26  3.7868e-26  1.106e-26  6.6931e-26  1.113e-26  1.1855e-25  1.1256e-26  2.1011e-25  1.1488e-26  3.7235e-25  1.1915e-26  6.582e-25  1.2723e-26  1.1541e-24  1.4277e-26  2.009e-24
      3.35  1.096e-26  6.1663e-28  1.096e-26  6.7194e-28  1.096e-26  7.7029e-28  1.096e-26  9.452e-28  1.096e-26  1.2562e-27  1.0961e-26  1.8093e-27  1.0962e-26  2.7929e-27  1.0964e-26  4.5418e-27  1.0968e-26  7.6519e-27  1.0975e-26  1.3182e-26  1.0987e-26  2.3015e-26  1.1008e-26  4.0497e-26  1.1047e-26  7.1573e-26  1.1116e-26  1.268e-25  1.1241e-26  2.2485e-25  1.1469e-26  3.9884e-25  1.189e-26  7.0627e-25  1.2683e-26  1.2433e-24  1.4205e-26  2.1764e-24
      3.40  1.0946e-26  6.9053e-28  1.0946e-26  7.5002e-28  1.0946e-26  8.5582e-28  1.0947e-26  1.044e-27  1.0947e-26  1.3785e-27  1.0948e-26  1.9734e-27  1.0949e-26  3.0314e-27  1.0951e-26  4.9127e-27  1.0955e-26  8.2583e-27  1.0961e-26  1.4208e-26  1.0973e-26  2.4787e-26  1.0995e-26   4.36e-26  1.1033e-26  7.7054e-26  1.1101e-26  1.3654e-25  1.1225e-26  2.4225e-25  1.145e-26  4.3011e-25  1.1864e-26  7.6299e-25  1.2641e-26  1.3481e-24  1.4129e-26  2.3722e-24
      3.45  1.0932e-26  7.7408e-28  1.0932e-26  8.3863e-28  1.0932e-26  9.5342e-28  1.0932e-26  1.1575e-27  1.0933e-26  1.5205e-27  1.0934e-26  2.166e-27  1.0935e-26  3.3139e-27  1.0937e-26  5.3553e-27  1.0941e-26  8.9854e-27  1.0947e-26  1.5441e-26  1.0959e-26  2.6922e-26  1.098e-26  4.7343e-26  1.1018e-26  8.3665e-26  1.1086e-26  1.4828e-25  1.1208e-26  2.6321e-25  1.143e-26  4.6776e-25  1.1837e-26  8.312e-25  1.2597e-26  1.4736e-24  1.4051e-26  2.606e-24
      3.50  1.0917e-26  8.687e-28  1.0917e-26  9.3945e-28  1.0918e-26  1.0653e-27  1.0918e-26  1.289e-27  1.0918e-26  1.6869e-27  1.0919e-26  2.3945e-27  1.092e-26  3.6527e-27  1.0922e-26  5.8903e-27  1.0926e-26  9.8696e-27  1.0932e-26  1.6947e-26  1.0944e-26  2.9534e-26  1.0965e-26  5.1923e-26  1.1003e-26  9.1758e-26  1.107e-26  1.6266e-25  1.1192e-26  2.8884e-25  1.141e-26  5.1374e-25  1.181e-26  9.1434e-25  1.2554e-26  1.6261e-24  1.3973e-26  2.8892e-24
      3.55  1.0902e-26  9.7719e-28  1.0902e-26  1.0556e-27  1.0902e-26  1.1952e-27  1.0902e-26  1.4433e-27  1.0903e-26  1.8844e-27  1.0903e-26  2.669e-27  1.0905e-26  4.0642e-27  1.0907e-26  6.5454e-27  1.091e-26  1.0958e-26  1.0917e-26  1.8806e-26  1.0929e-26  3.2764e-26  1.095e-26  5.7595e-26  1.0987e-26  1.0178e-25  1.1054e-26  1.8045e-25  1.1174e-26  3.2055e-25  1.1391e-26  5.7051e-25  1.1785e-26  1.0167e-24  1.2514e-26  1.8131e-24  1.3898e-26  3.2357e-24
      3.60  1.0886e-26  1.1004e-27  1.0886e-26  1.1884e-27  1.0886e-26  1.3449e-27  1.0886e-26  1.6231e-27  1.0887e-26  2.1179e-27  1.0887e-26  2.9978e-27  1.0888e-26  4.5626e-27  1.089e-26  7.3454e-27  1.0894e-26  1.2294e-26  1.0901e-26  2.1096e-26  1.0913e-26  3.6752e-26  1.0934e-26  6.4606e-26  1.0971e-26  1.1418e-25  1.1038e-26  2.0245e-25  1.1157e-26  3.597e-25  1.1372e-26  6.4052e-25  1.1761e-26  1.1427e-24  1.2477e-26  2.0421e-24  1.3832e-26  3.6584e-24
      3.65  1.0869e-26  1.2406e-27  1.0869e-26  1.3405e-27  1.0869e-26  1.5181e-27  1.0869e-26  1.8339e-27  1.087e-26  2.3954e-27  1.087e-26  3.3941e-27  1.0871e-26   5.17e-27  1.0874e-26  8.3282e-27  1.0877e-26  1.3945e-26  1.0884e-26  2.3935e-26  1.0896e-26  4.1704e-26  1.0917e-26  7.3318e-26  1.0954e-26  1.2958e-25  1.1021e-26  2.2979e-25  1.114e-26  4.0835e-25  1.1354e-26  7.2736e-25  1.1741e-26  1.2984e-24  1.2448e-26  2.3238e-24  1.378e-26  4.1749e-24
      3.70  1.0851e-26  1.4023e-27  1.0851e-26  1.517e-27  1.0852e-26  1.7211e-27  1.0852e-26  2.084e-27  1.0852e-26  2.7293e-27  1.0853e-26  3.8768e-27  1.0854e-26  5.9175e-27  1.0856e-26  9.5466e-27  1.086e-26  1.6001e-26  1.0867e-26  2.748e-26  1.0878e-26  4.7898e-26   1.09e-26  8.4226e-26  1.0937e-26  1.4888e-25  1.1004e-26  2.6403e-25  1.1124e-26  4.6924e-25  1.1339e-26  8.3592e-25  1.1726e-26  1.4926e-24  1.2432e-26  2.673e-24  1.3754e-26  4.8083e-24
      3.75  1.0833e-26  1.6063e-27  1.0833e-26  1.7402e-27  1.0833e-26  1.9782e-27  1.0834e-26  2.4015e-27  1.0834e-26  3.1542e-27  1.0835e-26  4.4927e-27  1.0836e-26  6.8731e-27  1.0838e-26  1.1106e-26  1.0842e-26  1.8635e-26  1.0849e-26  3.2024e-26  1.0861e-26  5.5841e-26  1.0882e-26  9.8214e-26  1.092e-26  1.7363e-25  1.0989e-26  3.0792e-25  1.111e-26  5.4722e-25  1.1328e-26  9.7475e-25  1.1721e-26  1.7401e-24  1.2436e-26  3.1151e-24  1.3768e-26  5.5994e-24
      3.80  1.0995e-26  2.0214e-27  1.0995e-26  2.1807e-27  1.0996e-26  2.4641e-27  1.0996e-26  2.9679e-27  1.0996e-26  3.8639e-27  1.0997e-26  5.4573e-27  1.0998e-26  8.2909e-27    1.1e-26  1.333e-26  1.1004e-26  2.2291e-26  1.101e-26  3.823e-26  1.1022e-26  6.6578e-26  1.1043e-26  1.1701e-25  1.108e-26  2.0676e-25  1.1146e-26  3.6655e-25  1.1264e-26  6.5116e-25  1.1476e-26  1.1592e-24  1.1858e-26  2.0676e-24  1.2558e-26  3.6948e-24  1.3885e-26  6.6183e-24
      3.85  1.1003e-26  3.7932e-27  1.1003e-26  3.9884e-27  1.1004e-26  4.3356e-27  1.1004e-26  4.9529e-27  1.1004e-26  6.0506e-27  1.1005e-26  8.0026e-27  1.1006e-26  1.1474e-26  1.1008e-26  1.7647e-26  1.1012e-26  2.8625e-26  1.1019e-26  4.8149e-26  1.1032e-26  8.2872e-26  1.1054e-26  1.4463e-25  1.1093e-26  2.5451e-25  1.1163e-26  4.5004e-25  1.1288e-26  7.9798e-25  1.1512e-26  1.418e-24  1.1917e-26  2.5227e-24  1.2655e-26  4.4886e-24  1.4047e-26  7.9752e-24
      3.90  1.1015e-26  1.3307e-26  1.1015e-26  1.3555e-26  1.1015e-26  1.3995e-26  1.1016e-26  1.4777e-26  1.1016e-26  1.6167e-26  1.1017e-26  1.864e-26  1.1018e-26  2.3038e-26  1.1021e-26  3.0858e-26  1.1025e-26  4.4764e-26  1.1032e-26  6.9492e-26  1.1046e-26  1.1346e-25  1.107e-26  1.9165e-25  1.1113e-26  3.3066e-25  1.119e-26  5.7778e-25  1.1327e-26  1.0167e-24  1.1572e-26  1.796e-24  1.2013e-26  3.1754e-24  1.2813e-26  5.6002e-24  1.4304e-26  9.8023e-24
      3.95  1.1032e-26  5.9618e-26  1.1032e-26  5.9938e-26  1.1032e-26  6.0508e-26  1.1032e-26  6.1521e-26  1.1032e-26  6.3322e-26  1.1033e-26  6.6525e-26  1.1035e-26  7.2221e-26  1.1038e-26  8.2349e-26  1.1042e-26  1.0036e-25  1.1051e-26  1.3238e-25  1.1066e-26  1.8929e-25  1.1094e-26  2.9044e-25  1.1142e-26  4.7009e-25  1.1229e-26  7.8864e-25  1.1383e-26  1.3532e-24  1.1657e-26  2.3495e-24  1.2148e-26  4.0943e-24  1.3031e-26  7.1032e-24  1.4643e-26  1.2139e-23
