# This was generated using Cloudy10 and the columns are ordered 
# as log10 of the fraction of the metallicity to the solar metallicity
# 'h_*_Z' and 'c_*_Z' stands for cooling and heating respectively 
# at * metalicity
#
# NOTE: This was generated separately from loop_coolingcurve_w_UV.py
#       using Output_metals_w_redshift.py.
#
# Redshift = 3.5
# hden = -3.0
#
#     temp   h_-3.00_Z   c_-3.00_Z   h_-2.75_Z   c_-2.75_Z   h_-2.50_Z   c_-2.50_Z   h_-2.25_Z   c_-2.25_Z   h_-2.00_Z   c_-2.00_Z   h_-1.75_Z   c_-1.75_Z   h_-1.50_Z   c_-1.50_Z   h_-1.25_Z   c_-1.25_Z   h_-1.00_Z   c_-1.00_Z   h_-0.75_Z   c_-0.75_Z   h_-0.50_Z   c_-0.50_Z   h_-0.25_Z   c_-0.25_Z    h_0.00_Z    c_0.00_Z    h_0.25_Z    c_0.25_Z    h_0.50_Z    c_0.50_Z    h_0.75_Z    c_0.75_Z    h_1.00_Z    c_1.00_Z    h_1.25_Z    c_1.25_Z    h_1.50_Z    c_1.50_Z 
      1.00  2.7077e-22  5.0875e-26  2.7077e-22  5.0875e-26  2.7078e-22  5.0876e-26  2.7079e-22  5.0878e-26  2.7081e-22  5.0881e-26  2.7085e-22  5.0887e-26  2.7091e-22  5.0897e-26  2.7103e-22  5.0915e-26  2.7123e-22  5.0946e-26  2.7159e-22  5.1002e-26  2.7223e-22  5.1101e-26  2.7337e-22  5.1278e-26  2.7540e-22  5.1593e-26  2.7901e-22  5.2155e-26  2.8542e-22  5.3158e-26  2.9684e-22  5.4954e-26  3.1722e-22  5.8187e-26  3.5372e-22  6.4062e-26  4.1959e-22  7.4909e-26
      1.05  2.5445e-22  5.3513e-26  2.5446e-22  5.3514e-26  2.5446e-22  5.3516e-26  2.5447e-22  5.3519e-26  2.5449e-22  5.3524e-26  2.5453e-22  5.3534e-26  2.5459e-22  5.3550e-26  2.5469e-22  5.3580e-26  2.5489e-22  5.3633e-26  2.5523e-22  5.3728e-26  2.5583e-22  5.3895e-26  2.5690e-22  5.4194e-26  2.5881e-22  5.4726e-26  2.6220e-22  5.5674e-26  2.6824e-22  5.7368e-26  2.7898e-22  6.0405e-26  2.9816e-22  6.5886e-26  3.3251e-22  7.5883e-26  3.9454e-22  9.4456e-26
      1.10  2.3904e-22  5.6498e-26  2.3905e-22  5.6499e-26  2.3905e-22  5.6502e-26  2.3906e-22  5.6507e-26  2.3908e-22  5.6516e-26  2.3911e-22  5.6532e-26  2.3917e-22  5.6560e-26  2.3927e-22  5.6610e-26  2.3945e-22  5.6699e-26  2.3977e-22  5.6857e-26  2.4034e-22  5.7139e-26  2.4136e-22  5.7640e-26  2.4317e-22  5.8532e-26  2.4638e-22  6.0125e-26  2.5209e-22  6.2971e-26  2.6226e-22  6.8078e-26  2.8042e-22  7.7308e-26  3.1294e-22  9.4190e-26  3.7169e-22  1.2569e-25
      1.15  2.2450e-22  6.0372e-26  2.2450e-22  6.0375e-26  2.2451e-22  6.0379e-26  2.2452e-22  6.0387e-26  2.2453e-22  6.0402e-26  2.2456e-22  6.0428e-26  2.2462e-22  6.0474e-26  2.2471e-22  6.0556e-26  2.2489e-22  6.0702e-26  2.2519e-22  6.0962e-26  2.2574e-22  6.1424e-26  2.2670e-22  6.2247e-26  2.2842e-22  6.3712e-26  2.3148e-22  6.6326e-26  2.3692e-22  7.1001e-26  2.4661e-22  7.9394e-26  2.6390e-22  9.4579e-26  2.9489e-22  1.2240e-25  3.5085e-22  1.7447e-25
      1.20  2.1078e-22  6.4318e-26  2.1078e-22  6.4322e-26  2.1079e-22  6.4329e-26  2.1079e-22  6.4342e-26  2.1081e-22  6.4365e-26  2.1084e-22  6.4407e-26  2.1089e-22  6.4480e-26  2.1099e-22  6.4611e-26  2.1115e-22  6.4844e-26  2.1144e-22  6.5257e-26  2.1196e-22  6.5994e-26  2.1289e-22  6.7304e-26  2.1454e-22  6.9639e-26  2.1746e-22  7.3804e-26  2.2267e-22  8.1253e-26  2.3195e-22  9.4634e-26  2.4850e-22  1.1885e-25  2.7817e-22  1.6328e-25  3.3176e-22  2.4655e-25
      1.25  1.9784e-22  6.8344e-26  1.9785e-22  6.8351e-26  1.9785e-22  6.8362e-26  1.9786e-22  6.8382e-26  1.9788e-22  6.8418e-26  1.9790e-22  6.8483e-26  1.9795e-22  6.8597e-26  1.9804e-22  6.8799e-26  1.9820e-22  6.9160e-26  1.9848e-22  6.9802e-26  1.9898e-22  7.0943e-26  1.9988e-22  7.2975e-26  2.0146e-22  7.6596e-26  2.0427e-22  8.3055e-26  2.0928e-22  9.4608e-26  2.1820e-22  1.1536e-25  2.3412e-22  1.5294e-25  2.6266e-22  2.2187e-25  3.1418e-22  3.5118e-25
      1.30  1.8566e-22  7.2469e-26  1.8566e-22  7.2478e-26  1.8567e-22  7.2496e-26  1.8567e-22  7.2526e-26  1.8569e-22  7.2581e-26  1.8572e-22  7.2678e-26  1.8577e-22  7.2852e-26  1.8585e-22  7.3160e-26  1.8600e-22  7.3707e-26  1.8628e-22  7.4681e-26  1.8676e-22  7.6415e-26  1.8762e-22  7.9500e-26  1.8915e-22  8.4997e-26  1.9186e-22  9.4805e-26  1.9669e-22  1.1234e-25  2.0530e-22  1.4385e-25  2.2067e-22  2.0088e-25  2.4821e-22  3.0547e-25  2.9793e-22  5.0156e-25
      1.35  1.7419e-22  7.6696e-26  1.7419e-22  7.6711e-26  1.7419e-22  7.6737e-26  1.7420e-22  7.6783e-26  1.7422e-22  7.6865e-26  1.7424e-22  7.7010e-26  1.7429e-22  7.7269e-26  1.7437e-22  7.7729e-26  1.7452e-22  7.8548e-26  1.7478e-22  8.0005e-26  1.7525e-22  8.2597e-26  1.7608e-22  8.7211e-26  1.7756e-22  9.5430e-26  1.8019e-22  1.1009e-25  1.8486e-22  1.3631e-25  1.9318e-22  1.8339e-25  2.0805e-22  2.6857e-25  2.3469e-22  4.2463e-25  2.8278e-22  7.1679e-25
      1.40  1.6339e-22  8.1037e-26  1.6339e-22  8.1059e-26  1.6339e-22  8.1097e-26  1.6340e-22  8.1165e-26  1.6342e-22  8.1286e-26  1.6344e-22  8.1502e-26  1.6349e-22  8.1885e-26  1.6357e-22  8.2566e-26  1.6371e-22  8.3777e-26  1.6397e-22  8.5931e-26  1.6442e-22  8.9764e-26  1.6522e-22  9.6587e-26  1.6666e-22  1.0874e-25  1.6920e-22  1.3042e-25  1.7372e-22  1.6917e-25  1.8179e-22  2.3873e-25  1.9619e-22  3.6446e-25  2.2199e-22  5.9451e-25  2.6857e-22  1.0242e-24
      1.45  1.5323e-22  8.5503e-26  1.5323e-22  8.5535e-26  1.5323e-22  8.5591e-26  1.5324e-22  8.5690e-26  1.5325e-22  8.5868e-26  1.5328e-22  8.6183e-26  1.5332e-22  8.6744e-26  1.5340e-22  8.7742e-26  1.5354e-22  8.9516e-26  1.5379e-22  9.2672e-26  1.5423e-22  9.8287e-26  1.5501e-22  1.0828e-25  1.5639e-22  1.2608e-25  1.5886e-22  1.5782e-25  1.6324e-22  2.1456e-25  1.7106e-22  3.1632e-25  1.8501e-22  5.0010e-25  2.1002e-22  8.3581e-25  2.5516e-22  1.4610e-24
      1.50  1.4367e-22  9.0104e-26  1.4367e-22  9.0150e-26  1.4368e-22  9.0231e-26  1.4369e-22  9.0376e-26  1.4370e-22  9.0633e-26  1.4372e-22  9.1090e-26  1.4377e-22  9.1903e-26  1.4384e-22  9.3349e-26  1.4398e-22  9.5921e-26  1.4422e-22  1.0050e-25  1.4464e-22  1.0863e-25  1.4540e-22  1.2312e-25  1.4674e-22  1.4891e-25  1.4913e-22  1.9491e-25  1.5338e-22  2.7708e-25  1.6095e-22  4.2440e-25  1.7447e-22  6.9018e-25  1.9870e-22  1.1748e-24  2.4243e-22  2.0748e-24
      1.55  1.3469e-22  9.4866e-26  1.3470e-22  9.4932e-26  1.3470e-22  9.5048e-26  1.3471e-22  9.5255e-26  1.3472e-22  9.5623e-26  1.3474e-22  9.6277e-26  1.3478e-22  9.7440e-26  1.3486e-22  9.9509e-26  1.3499e-22  1.0319e-25  1.3522e-22  1.0973e-25  1.3563e-22  1.2138e-25  1.3636e-22  1.4210e-25  1.3767e-22  1.7900e-25  1.3998e-22  2.4477e-25  1.4409e-22  3.6226e-25  1.5142e-22  5.7278e-25  1.6451e-22  9.5221e-25  1.8797e-22  1.6430e-24  2.3030e-22  2.9221e-24
      1.60  1.2626e-22  9.9788e-26  1.2626e-22  9.9880e-26  1.2626e-22  1.0004e-25  1.2627e-22  1.0034e-25  1.2628e-22  1.0085e-25  1.2631e-22  1.0177e-25  1.2635e-22  1.0341e-25  1.2642e-22  1.0632e-25  1.2654e-22  1.1150e-25  1.2677e-22  1.2072e-25  1.2717e-22  1.3711e-25  1.2787e-22  1.6628e-25  1.2913e-22  2.1823e-25  1.3137e-22  3.1082e-25  1.3535e-22  4.7614e-25  1.4244e-22  7.7225e-25  1.5510e-22  1.3055e-24  1.7778e-22  2.2750e-24  2.1873e-22  4.0659e-24
      1.65  1.1834e-22  1.0488e-25  1.1834e-22  1.0501e-25  1.1834e-22  1.0523e-25  1.1835e-22  1.0564e-25  1.1836e-22  1.0635e-25  1.1838e-22  1.0763e-25  1.1842e-22  1.0989e-25  1.1849e-22  1.1392e-25  1.1861e-22  1.2108e-25  1.1883e-22  1.3382e-25  1.1921e-22  1.5648e-25  1.1990e-22  1.9681e-25  1.2111e-22  2.6861e-25  1.2327e-22  3.9658e-25  1.2712e-22  6.2503e-25  1.3397e-22  1.0341e-24  1.4620e-22  1.7702e-24  1.6811e-22  3.1071e-24  2.0767e-22  5.5720e-24
      1.70  1.1090e-22  1.1016e-25  1.1090e-22  1.1033e-25  1.1090e-22  1.1064e-25  1.1091e-22  1.1118e-25  1.1092e-22  1.1215e-25  1.1094e-22  1.1388e-25  1.1098e-22  1.1695e-25  1.1105e-22  1.2241e-25  1.1116e-22  1.3212e-25  1.1137e-22  1.4939e-25  1.1175e-22  1.8011e-25  1.1241e-22  2.3478e-25  1.1358e-22  3.3212e-25  1.1567e-22  5.0558e-25  1.1937e-22  8.1521e-25  1.2598e-22  1.3694e-24  1.3778e-22  2.3665e-24  1.5893e-22  4.1756e-24  1.9711e-22  7.5065e-24
      1.75  1.0392e-22  1.1563e-25  1.0392e-22  1.1586e-25  1.0393e-22  1.1626e-25  1.0393e-22  1.1699e-25  1.0394e-22  1.1828e-25  1.0396e-22  1.2058e-25  1.0400e-22  1.2466e-25  1.0406e-22  1.3191e-25  1.0418e-22  1.4482e-25  1.0438e-22  1.6778e-25  1.0474e-22  2.0862e-25  1.0537e-22  2.8129e-25  1.0650e-22  4.1068e-25  1.0851e-22  6.4124e-25  1.1209e-22  1.0527e-24  1.1846e-22  1.7892e-24  1.2984e-22  3.1137e-24  1.5022e-22  5.5159e-24  1.8702e-22  9.9345e-24
      1.80  9.7373e-23  1.2133e-25  9.7375e-23  1.2163e-25  9.7378e-23  1.2217e-25  9.7384e-23  1.2311e-25  9.7395e-23  1.2479e-25  9.7414e-23  1.2779e-25  9.7449e-23  1.3311e-25  9.7510e-23  1.4258e-25  9.7620e-23  1.5941e-25  9.7814e-23  1.8935e-25  9.8159e-23  2.4262e-25  9.8772e-23  3.3741e-25  9.9862e-23  5.0616e-25  1.0180e-22  8.0686e-25  1.0524e-22  1.3435e-24  1.1138e-22  2.3039e-24  1.2233e-22  4.0309e-24  1.4197e-22  7.1621e-24  1.7740e-22  1.2919e-23
      1.85  9.1232e-23  1.2726e-25  9.1234e-23  1.2764e-25  9.1238e-23  1.2833e-25  9.1243e-23  1.2954e-25  9.1254e-23  1.3170e-25  9.1273e-23  1.3553e-25  9.1306e-23  1.4235e-25  9.1365e-23  1.5447e-25  9.1470e-23  1.7604e-25  9.1657e-23  2.1440e-25  9.1989e-23  2.8264e-25  9.2580e-23  4.0407e-25  9.3629e-23  6.2025e-25  9.5493e-23  1.0055e-24  9.8807e-23  1.6930e-24  1.0471e-22  2.9233e-24  1.1526e-22  5.1356e-24  1.3415e-22  9.1466e-24  1.6825e-22  1.6520e-23
      1.90  8.5476e-23  1.3342e-25  8.5477e-23  1.3391e-25  8.5481e-23  1.3477e-25  8.5486e-23  1.3629e-25  8.5496e-23  1.3901e-25  8.5514e-23  1.4384e-25  8.5546e-23  1.5243e-25  8.5603e-23  1.6771e-25  8.5704e-23  1.9487e-25  8.5884e-23  2.4320e-25  8.6204e-23  3.2916e-25  8.6772e-23  4.8213e-25  8.7782e-23  7.5446e-25  8.9576e-23  1.2397e-24  9.2764e-23  2.1058e-24  9.8440e-23  3.6559e-24  1.0858e-22  6.4434e-24  1.2676e-22  1.1498e-23  1.5956e-22  2.0792e-23
      1.95  8.0080e-23  1.3983e-25  8.0082e-23  1.4043e-25  8.0085e-23  1.4150e-25  8.0090e-23  1.4339e-25  8.0100e-23  1.4676e-25  8.0117e-23  1.5275e-25  8.0148e-23  1.6340e-25  8.0203e-23  1.8234e-25  8.0300e-23  2.1602e-25  8.0473e-23  2.7593e-25  8.0781e-23  3.8251e-25  8.1327e-23  5.7217e-25  8.2299e-23  9.0983e-25  8.4025e-23  1.5115e-24  8.7092e-23  2.5855e-24  9.2551e-23  4.5077e-24  1.0231e-22  7.9651e-24  1.1979e-22  1.4236e-23  1.5134e-22  2.5773e-23
      2.00  7.5024e-23  1.4650e-25  7.5026e-23  1.4723e-25  7.5029e-23  1.4853e-25  7.5034e-23  1.5085e-25  7.5043e-23  1.5496e-25  7.5060e-23  1.6227e-25  7.5089e-23  1.7527e-25  7.5142e-23  1.9840e-25  7.5236e-23  2.3953e-25  7.5402e-23  3.1268e-25  7.5698e-23  4.4281e-25  7.6224e-23  6.7438e-25  7.7158e-23  1.0867e-24  7.8818e-23  1.8214e-24  8.1769e-23  3.1329e-24  8.7018e-23  5.4806e-24  9.6401e-23  9.7043e-24  1.1321e-22  1.7369e-23  1.4354e-22  3.1478e-23
      2.05  7.0288e-23  1.5349e-25  7.0289e-23  1.5437e-25  7.0292e-23  1.5593e-25  7.0297e-23  1.5872e-25  7.0306e-23  1.6366e-25  7.0322e-23  1.7245e-25  7.0351e-23  1.8809e-25  7.0401e-23  2.1590e-25  7.0491e-23  2.6537e-25  7.0652e-23  3.5335e-25  7.0936e-23  5.0986e-25  7.1442e-23  7.8837e-25  7.2341e-23  1.2843e-24  7.3938e-23  2.1680e-24  7.6776e-23  3.7456e-24  8.1823e-23  6.5703e-24  9.0846e-23  1.1653e-23  1.0701e-22  2.0882e-23  1.3617e-22  3.7885e-23
      2.10  6.5852e-23  1.6077e-25  6.5853e-23  1.6181e-25  6.5856e-23  1.6366e-25  6.5861e-23  1.6696e-25  6.5870e-23  1.7281e-25  6.5885e-23  1.8323e-25  6.5912e-23  2.0176e-25  6.5961e-23  2.3471e-25  6.6048e-23  2.9331e-25  6.6202e-23  3.9755e-25  6.6476e-23  5.8299e-25  6.6963e-23  9.1298e-25  6.7828e-23  1.5005e-24  6.9364e-23  2.5477e-24  7.2095e-23  4.4173e-24  7.6950e-23  7.7653e-24  8.5630e-23  1.3792e-23  1.0118e-22  2.4740e-23  1.2922e-22  4.4931e-23
      2.15  6.1698e-23  1.6834e-25  6.1700e-23  1.6956e-25  6.1702e-23  1.7172e-25  6.1707e-23  1.7556e-25  6.1715e-23  1.8240e-25  6.1730e-23  1.9456e-25  6.1756e-23  2.1619e-25  6.1803e-23  2.5464e-25  6.1887e-23  3.2304e-25  6.2035e-23  4.4470e-25  6.2299e-23  6.6114e-25  6.2768e-23  1.0463e-24  6.3601e-23  1.7321e-24  6.5080e-23  2.9545e-24  6.7709e-23  5.1371e-24  7.2383e-23  9.0464e-24  8.0734e-23  1.6086e-23  9.5695e-23  2.8882e-23  1.2267e-22  5.2504e-23
      2.20  5.7810e-23  1.7622e-25  5.7811e-23  1.7762e-25  5.7813e-23  1.8011e-25  5.7818e-23  1.8453e-25  5.7826e-23  1.9239e-25  5.7840e-23  2.0637e-25  5.7866e-23  2.3124e-25  5.7911e-23  2.7546e-25  5.7991e-23  3.5411e-25  5.8134e-23  4.9401e-25  5.8388e-23  7.4289e-25  5.8840e-23  1.1858e-24  5.9642e-23  1.9745e-24  6.1067e-23  3.3803e-24  6.3599e-23  5.8907e-24  6.8101e-23  1.0388e-23  7.6139e-23  1.8490e-23  9.0543e-23  3.3225e-23  1.1650e-22  6.0455e-23
      2.25  5.4170e-23  1.8443e-25  5.4171e-23  1.8601e-25  5.4174e-23  1.8883e-25  5.4178e-23  1.9384e-25  5.4186e-23  2.0275e-25  5.4200e-23  2.1860e-25  5.4224e-23  2.4677e-25  5.4268e-23  2.9689e-25  5.4345e-23  3.8601e-25  5.4483e-23  5.4455e-25  5.4728e-23  8.2658e-25  5.5163e-23  1.3285e-24  5.5936e-23  2.2223e-24  5.7310e-23  3.8156e-24  5.9750e-23  6.6611e-24  6.4088e-23  1.1760e-23  7.1830e-23  2.0948e-23  8.5705e-23  3.7671e-23  1.1071e-22  6.8606e-23
      2.30  5.0764e-23  1.9304e-25  5.0765e-23  1.9481e-25  5.0768e-23  1.9796e-25  5.0772e-23  2.0356e-25  5.0779e-23  2.1351e-25  5.0792e-23  2.3122e-25  5.0816e-23  2.6270e-25  5.0858e-23  3.1870e-25  5.0933e-23  4.1828e-25  5.1066e-23  5.9542e-25  5.1302e-23  9.1057e-25  5.1722e-23  1.4714e-24  5.2467e-23  2.4702e-24  5.3792e-23  4.2507e-24  5.6145e-23  7.4310e-24  6.0328e-23  1.3131e-23  6.7790e-23  2.3406e-23  8.1163e-23  4.2117e-23  1.0525e-22  7.6768e-23
      2.35  4.7577e-23  2.0200e-25  4.7578e-23  2.0395e-25  4.7580e-23  2.0743e-25  4.7585e-23  2.1360e-25  4.7592e-23  2.2457e-25  4.7605e-23  2.4409e-25  4.7627e-23  2.7881e-25  4.7668e-23  3.4054e-25  4.7740e-23  4.5034e-25  4.7868e-23  6.4565e-25  4.8096e-23  9.9311e-25  4.8501e-23  1.6115e-24  4.9221e-23  2.7127e-24  5.0499e-23  4.6761e-24  5.2771e-23  8.1834e-24  5.6807e-23  1.4470e-23  6.4003e-23  2.5808e-23  7.6902e-23  4.6465e-23  1.0013e-22  8.4759e-23
      2.40  4.4595e-23  2.1133e-25  4.4597e-23  2.1345e-25  4.4599e-23  2.1723e-25  4.4603e-23  2.2395e-25  4.4610e-23  2.3591e-25  4.4622e-23  2.5716e-25  4.4644e-23  2.9497e-25  4.4683e-23  3.6220e-25  4.4753e-23  4.8177e-25  4.4877e-23  6.9445e-25  4.5097e-23  1.0728e-24  4.5488e-23  1.7463e-24  4.6183e-23  2.9456e-24  4.7418e-23  5.0840e-24  4.9612e-23  8.9042e-24  5.3510e-23  1.5753e-23  6.0455e-23  2.8109e-23  7.2905e-23  5.0633e-23  9.5321e-23  9.2424e-23
      2.45  4.1806e-23  2.2103e-25  4.1807e-23  2.2332e-25  4.1809e-23  2.2739e-25  4.1813e-23  2.3463e-25  4.1820e-23  2.4750e-25  4.1832e-23  2.7039e-25  4.1853e-23  3.1110e-25  4.1891e-23  3.8350e-25  4.1958e-23  5.1226e-25  4.2078e-23  7.4130e-25  4.2291e-23  1.1488e-24  4.2669e-23  1.8740e-24  4.3341e-23  3.1657e-24  4.4535e-23  5.4687e-24  4.6655e-23  9.5834e-24  5.0423e-23  1.6962e-23  5.7132e-23  3.0275e-23  6.9159e-23  5.4558e-23  9.0807e-23  9.9650e-23
      2.50  3.9197e-23  2.3113e-25  3.9198e-23  2.3357e-25  3.9200e-23  2.3791e-25  3.9204e-23  2.4563e-25  3.9211e-23  2.5935e-25  3.9222e-23  2.8376e-25  3.9243e-23  3.2716e-25  3.9279e-23  4.0435e-25  3.9345e-23  5.4164e-25  3.9460e-23  7.8585e-25  3.9666e-23  1.2203e-24  4.0032e-23  1.9936e-24  4.0682e-23  3.3708e-24  4.1838e-23  5.8265e-24  4.3889e-23  1.0214e-23  4.7535e-23  1.8084e-23  5.4021e-23  3.2286e-23  6.5651e-23  5.8202e-23  8.6578e-23  1.0636e-22
      2.55  3.6757e-23  2.4176e-25  3.6758e-23  2.4434e-25  3.6760e-23  2.4894e-25  3.6764e-23  2.5710e-25  3.6770e-23  2.7162e-25  3.6781e-23  2.9745e-25  3.6801e-23  3.4337e-25  3.6837e-23  4.2504e-25  3.6900e-23  5.7030e-25  3.7012e-23  8.2869e-25  3.7212e-23  1.2884e-24  3.7566e-23  2.1066e-24  3.8197e-23  3.5638e-24  3.9316e-23  6.1623e-24  4.1304e-23  1.0806e-23  4.4837e-23  1.9134e-23  5.1121e-23  3.4167e-23  6.2381e-23  6.1607e-23  8.2641e-23  1.1263e-22
      2.60  3.4475e-23  2.5283e-25  3.4476e-23  2.5554e-25  3.4478e-23  2.6037e-25  3.4482e-23  2.6895e-25  3.4488e-23  2.8420e-25  3.4499e-23  3.1132e-25  3.4518e-23  3.5956e-25  3.4553e-23  4.4535e-25  3.4614e-23  5.9793e-25  3.4723e-23  8.6933e-25  3.4916e-23  1.3522e-24  3.5261e-23  2.2116e-24  3.5872e-23  3.7423e-24  3.6958e-23  6.4718e-24  3.8888e-23  1.1350e-23  4.2316e-23  2.0099e-23  4.8413e-23  3.5894e-23  5.9331e-23  6.4731e-23  7.8974e-23  1.1837e-22
      2.65  3.2341e-23  2.6436e-25  3.2342e-23  2.6719e-25  3.2344e-23  2.7222e-25  3.2347e-23  2.8118e-25  3.2353e-23  2.9710e-25  3.2364e-23  3.2541e-25  3.2383e-23  3.7576e-25  3.2416e-23  4.6530e-25  3.2476e-23  6.2456e-25  3.2582e-23  9.0784e-25  3.2770e-23  1.4119e-24  3.3104e-23  2.3089e-24  3.3699e-23  3.9066e-24  3.4755e-23  6.7557e-24  3.6631e-23  1.1847e-23  3.9962e-23  2.0980e-23  4.5888e-23  3.7469e-23  5.6491e-23  6.7578e-23  7.5567e-23  1.2359e-22
      2.70  3.0345e-23  2.7635e-25  3.0346e-23  2.7929e-25  3.0348e-23  2.8452e-25  3.0351e-23  2.9381e-25  3.0357e-23  3.1034e-25  3.0367e-23  3.3973e-25  3.0386e-23  3.9200e-25  3.0418e-23  4.8495e-25  3.0476e-23  6.5027e-25  3.0579e-23  9.4434e-25  3.0763e-23  1.4675e-24  3.1088e-23  2.3987e-24  3.1667e-23  4.0573e-24  3.2696e-23  7.0148e-24  3.4522e-23  1.2300e-23  3.7767e-23  2.1781e-23  4.3536e-23  3.8898e-23  5.3852e-23  7.0155e-23  7.2412e-23  1.2831e-22
      2.75  2.8478e-23  2.8884e-25  2.8479e-23  2.9188e-25  2.8481e-23  2.9728e-25  2.8484e-23  3.0688e-25  2.8490e-23  3.2396e-25  2.8500e-23  3.5432e-25  2.8518e-23  4.0832e-25  2.8550e-23  5.0435e-25  2.8606e-23  6.7514e-25  2.8707e-23  9.7895e-25  2.8886e-23  1.5195e-24  2.9203e-23  2.4815e-24  2.9768e-23  4.1950e-24  3.0772e-23  7.2504e-24  3.2554e-23  1.2711e-23  3.5719e-23  2.2505e-23  4.1348e-23  4.0188e-23  5.1405e-23  7.2476e-23  6.9497e-23  1.3255e-22
      2.80  2.6732e-23  3.0203e-25  2.6733e-23  3.0515e-25  2.6735e-23  3.1070e-25  2.6738e-23  3.2058e-25  2.6743e-23  3.3815e-25  2.6753e-23  3.6938e-25  2.6771e-23  4.2493e-25  2.6802e-23  5.2372e-25  2.6857e-23  6.9942e-25  2.6955e-23  1.0120e-24  2.7130e-23  1.5680e-24  2.7441e-23  2.5577e-24  2.7993e-23  4.3203e-24  2.8974e-23  7.4635e-24  3.0717e-23  1.3080e-23  3.3811e-23  2.3155e-23  3.9313e-23  4.1343e-23  4.9137e-23  7.4550e-23  6.6810e-23  1.3632e-22
      2.85  2.5099e-23  3.1575e-25  2.5100e-23  3.1895e-25  2.5101e-23  3.2464e-25  2.5104e-23  3.3476e-25  2.5110e-23  3.5276e-25  2.5119e-23  3.8477e-25  2.5136e-23  4.4170e-25  2.5167e-23  5.4294e-25  2.5221e-23  7.2300e-25  2.5317e-23  1.0433e-24  2.5489e-23  1.6131e-24  2.5793e-23  2.6273e-24  2.6334e-23  4.4336e-24  2.7295e-23  7.6546e-24  2.9002e-23  1.3410e-23  3.2033e-23  2.3733e-23  3.7422e-23  4.2368e-23  4.7038e-23  7.6384e-23  6.4336e-23  1.3964e-22
      2.90  2.3570e-23  3.3004e-25  2.3571e-23  3.3331e-25  2.3573e-23  3.3912e-25  2.3576e-23  3.4946e-25  2.3581e-23  3.6784e-25  2.3591e-23  4.0053e-25  2.3607e-23  4.5866e-25  2.3637e-23  5.6205e-25  2.3690e-23  7.4593e-25  2.3785e-23  1.0730e-24  2.3953e-23  1.6549e-24  2.4252e-23  2.6906e-24  2.4782e-23  4.5352e-24  2.5725e-23  7.8243e-24  2.7400e-23  1.3701e-23  3.0374e-23  2.4241e-23  3.5662e-23  4.3266e-23  4.5091e-23  7.7986e-23  6.2053e-23  1.4253e-22
      2.95  2.2140e-23  3.4494e-25  2.2141e-23  3.4827e-25  2.2143e-23  3.5419e-25  2.2146e-23  3.6471e-25  2.2151e-23  3.8342e-25  2.2160e-23  4.1669e-25  2.2177e-23  4.7587e-25  2.2206e-23  5.8111e-25  2.2258e-23  7.6828e-25  2.2351e-23  1.1012e-24  2.2516e-23  1.6935e-24  2.2810e-23  2.7478e-24  2.3331e-23  4.6253e-24  2.4258e-23  7.9731e-24  2.5904e-23  1.3955e-23  2.8827e-23  2.4682e-23  3.4022e-23  4.4041e-23  4.3282e-23  7.9363e-23  5.9940e-23  1.4500e-22
      3.00  2.0801e-23  3.6052e-25  2.0802e-23  3.6390e-25  2.0804e-23  3.6990e-25  2.0807e-23  3.8058e-25  2.0812e-23  3.9957e-25  2.0821e-23  4.3334e-25  2.0837e-23  4.9340e-25  2.0866e-23  6.0020e-25  2.0918e-23  7.9015e-25  2.1009e-23  1.1280e-24  2.1171e-23  1.7292e-24  2.1460e-23  2.7990e-24  2.1973e-23  4.7044e-24  2.2885e-23  8.1018e-24  2.4504e-23  1.4172e-23  2.7380e-23  2.5056e-23  3.2492e-23  4.4696e-23  4.1599e-23  8.0522e-23  5.7975e-23  1.4707e-22
      3.05  1.9548e-23  3.7713e-25  1.9549e-23  3.8055e-25  1.9551e-23  3.8663e-25  1.9553e-23  3.9743e-25  1.9559e-23  4.1664e-25  1.9568e-23  4.5081e-25  1.9584e-23  5.1158e-25  1.9612e-23  6.1965e-25  1.9663e-23  8.1185e-25  1.9753e-23  1.1537e-24  1.9913e-23  1.7620e-24  2.0197e-23  2.8445e-24  2.0702e-23  4.7724e-24  2.1600e-23  8.2098e-24  2.3195e-23  1.4351e-23  2.6027e-23  2.5362e-23  3.1061e-23  4.5228e-23  4.0030e-23  8.1457e-23  5.6145e-23  1.4872e-22
      3.10  1.8374e-23  3.9429e-25  1.8375e-23  3.9774e-25  1.8377e-23  4.0387e-25  1.8380e-23  4.1478e-25  1.8385e-23  4.3417e-25  1.8394e-23  4.6866e-25  1.8409e-23  5.2998e-25  1.8437e-23  6.3905e-25  1.8487e-23  8.3303e-25  1.8576e-23  1.1781e-24  1.8733e-23  1.7919e-24  1.9014e-23  2.8845e-24  1.9511e-23  4.8302e-24  2.0396e-23  8.2991e-24  2.1968e-23  1.4497e-23  2.4758e-23  2.5607e-23  2.9719e-23  4.5651e-23  3.8555e-23  8.2194e-23  5.4421e-23  1.5002e-22
      3.15  1.7275e-23  4.1252e-25  1.7276e-23  4.1599e-25  1.7277e-23  4.2216e-25  1.7280e-23  4.3314e-25  1.7285e-23  4.5267e-25  1.7294e-23  4.8739e-25  1.7309e-23  5.4915e-25  1.7337e-23  6.5897e-25  1.7386e-23  8.5429e-25  1.7473e-23  1.2017e-24  1.7629e-23  1.8198e-24  1.7905e-23  2.9199e-24  1.8395e-23  4.8790e-24  1.9267e-23  8.3717e-24  2.0816e-23  1.4611e-23  2.3567e-23  2.5797e-23  2.8455e-23  4.5972e-23  3.7163e-23  8.2747e-23  5.2788e-23  1.5097e-22
      3.20  1.6244e-23  4.3171e-25  1.6245e-23  4.3520e-25  1.6246e-23  4.4141e-25  1.6249e-23  4.5244e-25  1.6254e-23  4.7206e-25  1.6263e-23  5.0695e-25  1.6278e-23  5.6900e-25  1.6305e-23  6.7935e-25  1.6354e-23  8.7560e-25  1.6440e-23  1.2247e-24  1.6593e-23  1.8458e-24  1.6865e-23  2.9511e-24  1.7348e-23  4.9195e-24  1.8208e-23  8.4288e-24  1.9734e-23  1.4698e-23  2.2445e-23  2.5935e-23  2.7264e-23  4.6201e-23  3.5846e-23  8.3132e-23  5.1235e-23  1.5162e-22
      3.25  1.5278e-23  4.5172e-25  1.5278e-23  4.5521e-25  1.5280e-23  4.6144e-25  1.5283e-23  4.7250e-25  1.5287e-23  4.9218e-25  1.5296e-23  5.2717e-25  1.5311e-23  5.8939e-25  1.5338e-23  7.0006e-25  1.5385e-23  8.9687e-25  1.5470e-23  1.2470e-24  1.5621e-23  1.8698e-24  1.5889e-23  2.9782e-24  1.6366e-23  4.9522e-24  1.7213e-23  8.4714e-24  1.8717e-23  1.4758e-23  2.1389e-23  2.6025e-23  2.6138e-23  4.6343e-23  3.4596e-23  8.3361e-23  4.9751e-23  1.5198e-22
      3.30  1.4371e-23  4.7298e-25  1.4372e-23  4.7648e-25  1.4373e-23  4.8271e-25  1.4376e-23  4.9378e-25  1.4381e-23  5.1348e-25  1.4389e-23  5.4851e-25  1.4404e-23  6.1080e-25  1.4430e-23  7.2157e-25  1.4477e-23  9.1859e-25  1.4561e-23  1.2690e-24  1.4709e-23  1.8925e-24  1.4974e-23  3.0021e-24  1.5443e-23  4.9780e-24  1.6278e-23  8.5006e-24  1.7760e-23  1.4793e-23  2.0393e-23  2.6070e-23  2.5073e-23  4.6403e-23  3.3408e-23  8.3441e-23  4.8332e-23  1.5208e-22
      3.35  1.3520e-23  4.9513e-25  1.3521e-23  4.9863e-25  1.3522e-23  5.0485e-25  1.3525e-23  5.1592e-25  1.3529e-23  5.3560e-25  1.3538e-23  5.7060e-25  1.3552e-23  6.3283e-25  1.3578e-23  7.4352e-25  1.3625e-23  9.4038e-25  1.3707e-23  1.2905e-24  1.3853e-23  1.9135e-24  1.4114e-23  3.0222e-24  1.4576e-23  4.9964e-24  1.5399e-23  8.5160e-24  1.6859e-23  1.4803e-23  1.9454e-23  2.6069e-23  2.4066e-23  4.6382e-23  3.2279e-23  8.3375e-23  4.6973e-23  1.5191e-22
      3.40  1.2721e-23  5.1820e-25  1.2721e-23  5.2169e-25  1.2723e-23  5.2789e-25  1.2725e-23  5.3893e-25  1.2730e-23  5.5856e-25  1.2738e-23  5.9346e-25  1.2753e-23  6.5553e-25  1.2778e-23  7.6592e-25  1.2824e-23  9.6225e-25  1.2905e-23  1.3115e-24  1.3049e-23  1.9327e-24  1.3306e-23  3.0384e-24  1.3762e-23  5.0073e-24  1.4572e-23  8.5173e-24  1.6011e-23  1.4786e-23  1.8568e-23  2.6022e-23  2.3113e-23  4.6275e-23  3.1207e-23  8.3156e-23  4.5681e-23  1.5146e-22
      3.45  1.1970e-23  5.4223e-25  1.1970e-23  5.4570e-25  1.1972e-23  5.5188e-25  1.1974e-23  5.6286e-25  1.1979e-23  5.8240e-25  1.1987e-23  6.1714e-25  1.2001e-23  6.7892e-25  1.2026e-23  7.8880e-25  1.2071e-23  9.8421e-25  1.2151e-23  1.3318e-24  1.2293e-23  1.9502e-24  1.2546e-23  3.0507e-24  1.2996e-23  5.0105e-24  1.3794e-23  8.5041e-24  1.5213e-23  1.4744e-23  1.7733e-23  2.5926e-23  2.2212e-23  4.6083e-23  3.0190e-23  8.2782e-23  4.4455e-23  1.5074e-22
      3.50  1.1263e-23  5.6725e-25  1.1264e-23  5.7070e-25  1.1265e-23  5.7684e-25  1.1268e-23  5.8775e-25  1.1272e-23  6.0716e-25  1.1280e-23  6.4168e-25  1.1294e-23  7.0307e-25  1.1319e-23  8.1223e-25  1.1364e-23  1.0064e-24  1.1442e-23  1.3517e-24  1.1583e-23  1.9661e-24  1.1832e-23  3.0596e-24  1.2275e-23  5.0067e-24  1.3062e-23  8.4777e-24  1.4460e-23  1.4677e-23  1.6945e-23  2.5787e-23  2.1361e-23  4.5811e-23  2.9226e-23  8.2268e-23  4.3289e-23  1.4976e-22
      3.55  1.0599e-23  5.9395e-25  1.0600e-23  5.9737e-25  1.0601e-23  6.0346e-25  1.0603e-23  6.1429e-25  1.0608e-23  6.3355e-25  1.0616e-23  6.6780e-25  1.0629e-23  7.2872e-25  1.0654e-23  8.3704e-25  1.0698e-23  1.0297e-24  1.0775e-23  1.3724e-24  1.0914e-23  1.9821e-24  1.1159e-23  3.0671e-24  1.1596e-23  4.9992e-24  1.2372e-23  8.4435e-24  1.3751e-23  1.4595e-23  1.6202e-23  2.5619e-23  2.0558e-23  4.5489e-23  2.8314e-23  8.1662e-23  4.2183e-23  1.4862e-22
      3.60  9.9732e-24  6.2176e-25  9.9739e-24  6.2516e-25  9.9753e-24  6.3120e-25  9.9777e-24  6.4195e-25  9.9820e-24  6.6106e-25  9.9897e-24  6.9505e-25  1.0003e-23  7.5549e-25  1.0028e-23  8.6297e-25  1.0071e-23  1.0541e-24  1.0147e-23  1.3942e-24  1.0284e-23  1.9991e-24  1.0526e-23  3.0757e-24  1.0957e-23  4.9929e-24  1.1723e-23  8.4106e-24  1.3083e-23  1.4515e-23  1.5501e-23  2.5453e-23  1.9798e-23  4.5169e-23  2.7452e-23  8.1063e-23  4.1135e-23  1.4751e-22
      3.65  9.3837e-24  6.5075e-25  9.3845e-24  6.5413e-25  9.3858e-24  6.6014e-25  9.3882e-24  6.7083e-25  9.3924e-24  6.8983e-25  9.4000e-24  7.2362e-25  9.4135e-24  7.8372e-25  9.4374e-24  8.9060e-25  9.4799e-24  1.0807e-24  9.5556e-24  1.4188e-24  9.6901e-24  2.0203e-24  9.9293e-24  3.0908e-24  1.0354e-23  4.9972e-24  1.1110e-23  8.3955e-24  1.2453e-23  1.4465e-23  1.4839e-23  2.5343e-23  1.9081e-23  4.4949e-23  2.6635e-23  8.0647e-23  4.0141e-23  1.4674e-22
      3.70  8.8279e-24  6.8093e-25  8.8287e-24  6.8432e-25  8.8300e-24  6.9034e-25  8.8324e-24  7.0104e-25  8.8366e-24  7.2008e-25  8.8440e-24  7.5392e-25  8.8573e-24  8.1412e-25  8.8809e-24  9.2117e-25  8.9229e-24  1.1116e-24  8.9976e-24  1.4502e-24  9.1304e-24  2.0527e-24  9.3665e-24  3.1250e-24  9.7861e-24  5.0345e-24  1.0532e-23  8.4386e-24  1.1858e-23  1.4519e-23  1.4213e-23  2.5416e-23  1.8401e-23  4.5061e-23  2.5860e-23  8.0836e-23  3.9195e-23  1.4710e-22
      3.75  8.3036e-24  7.1242e-25  8.3044e-24  7.1583e-25  8.3057e-24  7.2189e-25  8.3080e-24  7.3266e-25  8.3122e-24  7.5182e-25  8.3195e-24  7.8590e-25  8.3326e-24  8.4649e-25  8.3560e-24  9.5425e-25  8.3974e-24  1.1459e-24  8.4711e-24  1.4868e-24  8.6022e-24  2.0933e-24  8.8353e-24  3.1727e-24  9.2496e-24  5.0949e-24  9.9859e-24  8.5217e-24  1.1295e-23  1.4643e-23  1.3621e-23  2.5614e-23  1.7756e-23  4.5396e-23  2.5122e-23  8.1431e-23  3.8293e-23  1.4820e-22
      3.80  7.8088e-24  7.4627e-25  7.8095e-24  7.4974e-25  7.8108e-24  7.5592e-25  7.8131e-24  7.6691e-25  7.8172e-24  7.8645e-25  7.8245e-24  8.2120e-25  7.8374e-24  8.8300e-25  7.8604e-24  9.9291e-25  7.9014e-24  1.1884e-24  7.9741e-24  1.5361e-24  8.1036e-24  2.1547e-24  8.3336e-24  3.2556e-24  8.7427e-24  5.2161e-24  9.4697e-24  8.7115e-24  1.0762e-23  1.4956e-23  1.3059e-23  2.6149e-23  1.7143e-23  4.6337e-23  2.4419e-23  8.3128e-23  3.7427e-23  1.5135e-22
      3.85  7.3413e-24  7.8158e-25  7.3421e-24  7.8519e-25  7.3433e-24  7.9159e-25  7.3456e-24  8.0299e-25  7.3496e-24  8.2325e-25  7.3568e-24  8.5929e-25  7.3696e-24  9.2338e-25  7.3923e-24  1.0373e-24  7.4327e-24  1.2401e-24  7.5046e-24  1.6006e-24  7.6324e-24  2.2421e-24  7.8595e-24  3.3838e-24  8.2633e-24  5.4170e-24  8.9811e-24  9.0423e-24  1.0257e-23  1.5519e-23  1.2525e-23  2.7132e-23  1.6558e-23  4.8085e-23  2.3744e-23  8.6292e-23  3.6593e-23  1.5721e-22
      3.90  6.8996e-24  8.1848e-25  6.9003e-24  8.2229e-25  6.9015e-24  8.2907e-25  6.9038e-24  8.4111e-25  6.9078e-24  8.6253e-25  6.9149e-24  9.0061e-25  6.9275e-24  9.6835e-25  6.9499e-24  1.0888e-24  6.9898e-24  1.3031e-24  7.0607e-24  1.6841e-24  7.1868e-24  2.3622e-24  7.4110e-24  3.5689e-24  7.8096e-24  5.7181e-24  8.5183e-24  9.5505e-24  9.7779e-24  1.6398e-23  1.2017e-23  2.8680e-23  1.6000e-23  5.0849e-23  2.3096e-23  9.1308e-23  3.5787e-23  1.6651e-22
      3.95  6.4818e-24  8.5731e-25  6.4825e-24  8.6141e-25  6.4838e-24  8.6872e-25  6.4860e-24  8.8171e-25  6.4899e-24  9.0481e-25  6.4969e-24  9.4590e-25  6.5094e-24  1.0190e-24  6.5315e-24  1.1489e-24  6.5709e-24  1.3800e-24  6.6409e-24  1.7911e-24  6.7654e-24  2.5225e-24  6.9866e-24  3.8243e-24  7.3800e-24  6.1430e-24  8.0795e-24  1.0278e-23  9.3228e-24  1.7668e-23  1.1533e-23  3.0926e-23  1.5465e-23  5.4871e-23  2.2472e-23  9.8611e-23  3.5005e-23  1.8004e-22
