# This was generated using Cloudy10 and the columns are ordered 
# as log10 of the fraction of the metallicity to the solar metallicity
# 'h_*_Z' and 'c_*_Z' stands for cooling and heating respectively 
# at * metalicity
#
# NOTE: This was generated separately from loop_coolingcurve_w_UV.py
#       using Output_metals_w_redshift.py.
#
# Redshift = 4.0
# hden = -8.0
#
#     temp   h_-3.00_Z   c_-3.00_Z   h_-2.75_Z   c_-2.75_Z   h_-2.50_Z   c_-2.50_Z   h_-2.25_Z   c_-2.25_Z   h_-2.00_Z   c_-2.00_Z   h_-1.75_Z   c_-1.75_Z   h_-1.50_Z   c_-1.50_Z   h_-1.25_Z   c_-1.25_Z   h_-1.00_Z   c_-1.00_Z   h_-0.75_Z   c_-0.75_Z   h_-0.50_Z   c_-0.50_Z   h_-0.25_Z   c_-0.25_Z    h_0.00_Z    c_0.00_Z    h_0.25_Z    c_0.25_Z    h_0.50_Z    c_0.50_Z    h_0.75_Z    c_0.75_Z    h_1.00_Z    c_1.00_Z    h_1.25_Z    c_1.25_Z    h_1.50_Z    c_1.50_Z 
      4.00  1.0992e-22  3.9054e-21  1.1006e-22  3.9055e-21  1.1030e-22  3.9055e-21  1.1073e-22  3.9056e-21  1.1149e-22  3.9057e-21  1.1284e-22  3.9060e-21  1.1524e-22  3.9064e-21  1.1950e-22  3.9071e-21  1.2708e-22  3.9084e-21  1.4054e-22  3.9108e-21  1.6443e-22  3.9150e-21  2.0694e-22  3.9224e-21  2.8281e-22  3.9356e-21  4.2052e-22  4.0060e-21  6.6830e-22  4.0987e-21  1.1189e-21  4.2040e-21  1.9544e-21  4.3571e-21  3.5441e-21  4.6097e-21  6.6669e-21  5.0469e-21
      4.05  1.0921e-22  4.3819e-21  1.0934e-22  4.3819e-21  1.0956e-22  4.3820e-21  1.0996e-22  4.3821e-21  1.1068e-22  4.3822e-21  1.1195e-22  4.3825e-21  1.1421e-22  4.3829e-21  1.1823e-22  4.3838e-21  1.2537e-22  4.3853e-21  1.3805e-22  4.3879e-21  1.6057e-22  4.3926e-21  2.0062e-22  4.4009e-21  2.7218e-22  4.4158e-21  4.0154e-22  4.4801e-21  6.3515e-22  4.5906e-21  1.0603e-21  4.7126e-21  1.8506e-21  4.8866e-21  3.3609e-21  5.1715e-21  6.3468e-21  5.6632e-21
      4.10  1.0854e-22  4.9165e-21  1.0866e-22  4.9165e-21  1.0888e-22  4.9166e-21  1.0925e-22  4.9167e-21  1.0993e-22  4.9168e-21  1.1112e-22  4.9171e-21  1.1324e-22  4.9177e-21  1.1702e-22  4.9186e-21  1.2372e-22  4.9203e-21  1.3564e-22  4.9232e-21  1.5682e-22  4.9285e-21  1.9445e-22  4.9379e-21  2.6177e-22  4.9545e-21  3.8302e-22  5.0070e-21  6.0278e-22  5.1396e-21  1.0030e-21  5.2816e-21  1.7485e-21  5.4800e-21  3.1793e-21  5.8015e-21  6.0273e-21  6.3547e-21
      4.15  1.0793e-22  5.5163e-21  1.0804e-22  5.5163e-21  1.0824e-22  5.5164e-21  1.0859e-22  5.5165e-21  1.0922e-22  5.5167e-21  1.1034e-22  5.5170e-21  1.1233e-22  5.5176e-21  1.1587e-22  5.5187e-21  1.2216e-22  5.5205e-21  1.3335e-22  5.5239e-21  1.5322e-22  5.5298e-21  1.8857e-22  5.5403e-21  2.5174e-22  5.5590e-21  3.6521e-22  5.5937e-21  5.7165e-22  5.7524e-21  9.4766e-22  5.9179e-21  1.6495e-21  6.1446e-21  3.0017e-21  6.5079e-21  5.7112e-21  7.1304e-21
      4.20  1.0736e-22  6.1893e-21  1.0746e-22  6.1893e-21  1.0765e-22  6.1894e-21  1.0798e-22  6.1895e-21  1.0857e-22  6.1897e-21  1.0962e-22  6.1901e-21  1.1148e-22  6.1908e-21  1.1480e-22  6.1919e-21  1.2069e-22  6.1940e-21  1.3117e-22  6.1978e-21  1.4981e-22  6.2044e-21  1.8298e-22  6.2163e-21  2.4218e-22  6.2373e-21  3.4857e-22  6.2746e-21  5.4207e-22  6.4402e-21  8.9498e-22  6.6321e-21  1.5547e-21  6.8897e-21  2.8299e-21  7.2998e-21  5.4010e-21  8.0006e-21
      4.25  1.0683e-22  6.9444e-21  1.0692e-22  6.9444e-21  1.0710e-22  6.9445e-21  1.0741e-22  6.9447e-21  1.0796e-22  6.9449e-21  1.0894e-22  6.9453e-21  1.1069e-22  6.9461e-21  1.1379e-22  6.9474e-21  1.1931e-22  6.9497e-21  1.2913e-22  6.9539e-21  1.4659e-22  6.9614e-21  1.7768e-22  6.9747e-21  2.3313e-22  6.9983e-21  3.3281e-22  7.0402e-21  5.1407e-22  7.2082e-21  8.4504e-22  7.4315e-21  1.4644e-21  7.7254e-21  2.6649e-21  8.1883e-21  5.0985e-21  8.9766e-21
      4.30  1.0633e-22  7.7916e-21  1.0643e-22  7.7917e-21  1.0659e-22  7.7918e-21  1.0688e-22  7.7919e-21  1.0740e-22  7.7922e-21  1.0831e-22  7.7927e-21  1.0995e-22  7.7935e-21  1.1285e-22  7.7950e-21  1.1802e-22  7.7976e-21  1.2720e-22  7.8024e-21  1.4356e-22  7.8107e-21  1.7267e-22  7.8256e-21  2.2463e-22  7.8522e-21  3.1795e-22  7.8993e-21  4.8761e-22  8.0654e-21  7.9779e-22  8.3259e-21  1.3786e-21  8.6616e-21  2.5067e-21  9.1848e-21  4.8044e-21  1.0072e-20
      4.35  1.0588e-22  8.7423e-21  1.0596e-22  8.7423e-21  1.0612e-22  8.7424e-21  1.0639e-22  8.7426e-21  1.0687e-22  8.7429e-21  1.0773e-22  8.7434e-21  1.0926e-22  8.7443e-21  1.1197e-22  8.7460e-21  1.1680e-22  8.7490e-21  1.2540e-22  8.7543e-21  1.4070e-22  8.7637e-21  1.6795e-22  8.7804e-21  2.1659e-22  8.8102e-21  3.0389e-22  8.8631e-21  4.6257e-22  9.0229e-21  7.5306e-22  9.3263e-21  1.2971e-21  9.7102e-21  2.3553e-21  1.0302e-20  4.5190e-21  1.1300e-20
      4.40  1.0545e-22  9.8089e-21  1.0553e-22  9.8089e-21  1.0568e-22  9.8090e-21  1.0593e-22  9.8092e-21  1.0638e-22  9.8096e-21  1.0718e-22  9.8102e-21  1.0861e-22  9.8112e-21  1.1115e-22  9.8131e-21  1.1567e-22  9.8164e-21  1.2370e-22  9.8224e-21  1.3800e-22  9.8329e-21  1.6348e-22  9.8517e-21  2.0898e-22  9.8852e-21  2.9058e-22  9.9446e-21  4.3883e-22  1.0093e-20  7.1065e-22  1.0447e-20  1.2196e-21  1.0885e-20  2.2104e-21  1.1554e-20  4.2421e-21  1.2679e-20
      4.45  1.0506e-22  1.1006e-20  1.0514e-22  1.1006e-20  1.0527e-22  1.1006e-20  1.0551e-22  1.1006e-20  1.0593e-22  1.1006e-20  1.0668e-22  1.1007e-20  1.0801e-22  1.1008e-20  1.1038e-22  1.1010e-20  1.1460e-22  1.1014e-20  1.2210e-22  1.1021e-20  1.3546e-22  1.1033e-20  1.5926e-22  1.1054e-20  2.0177e-22  1.1091e-20  2.7804e-22  1.1158e-20  4.1627e-22  1.1285e-20  6.7040e-22  1.1699e-20  1.1459e-21  1.2201e-20  2.0718e-21  1.2958e-20  3.9743e-21  1.4224e-20
      4.50  1.0470e-22  1.2348e-20  1.0477e-22  1.2348e-20  1.0489e-22  1.2349e-20  1.0512e-22  1.2349e-20  1.0551e-22  1.2349e-20  1.0621e-22  1.2350e-20  1.0745e-22  1.2351e-20  1.0966e-22  1.2354e-20  1.1360e-22  1.2358e-20  1.2060e-22  1.2365e-20  1.3306e-22  1.2379e-20  1.5527e-22  1.2402e-20  1.9494e-22  1.2445e-20  2.6615e-22  1.2520e-20  3.9500e-22  1.2653e-20  6.3223e-22  1.3099e-20  1.0759e-21  1.3675e-20  1.9397e-21  1.4532e-20  3.7164e-21  1.5957e-20
      4.55  1.0436e-22  1.3855e-20  1.0443e-22  1.3855e-20  1.0455e-22  1.3855e-20  1.0475e-22  1.3855e-20  1.0512e-22  1.3856e-20  1.0577e-22  1.3857e-20  1.0693e-22  1.3858e-20  1.0899e-22  1.3861e-20  1.1266e-22  1.3866e-20  1.1918e-22  1.3874e-20  1.3080e-22  1.3889e-20  1.5151e-22  1.3916e-20  1.8850e-22  1.3963e-20  2.5491e-22  1.4047e-20  3.7500e-22  1.4197e-20  5.9623e-22  1.4663e-20  1.0099e-21  1.5325e-20  1.8144e-21  1.6295e-20  3.4698e-21  1.7902e-20
      4.60  1.0405e-22  1.5545e-20  1.0411e-22  1.5546e-20  1.0422e-22  1.5546e-20  1.0441e-22  1.5546e-20  1.0476e-22  1.5547e-20  1.0536e-22  1.5547e-20  1.0644e-22  1.5549e-20  1.0836e-22  1.5552e-20  1.1178e-22  1.5557e-20  1.1786e-22  1.5567e-20  1.2868e-22  1.5584e-20  1.4798e-22  1.5614e-20  1.8244e-22  1.5667e-20  2.4432e-22  1.5761e-20  3.5621e-22  1.5929e-20  5.6227e-22  1.6408e-20  9.4766e-22  1.7170e-20  1.6965e-21  1.8271e-20  3.2362e-21  2.0082e-20
      4.65  1.0377e-22  1.7442e-20  1.0382e-22  1.7442e-20  1.0392e-22  1.7442e-20  1.0410e-22  1.7443e-20  1.0442e-22  1.7443e-20  1.0498e-22  1.7444e-20  1.0599e-22  1.7446e-20  1.0778e-22  1.7450e-20  1.1096e-22  1.7456e-20  1.1662e-22  1.7466e-20  1.2670e-22  1.7485e-20  1.4467e-22  1.7519e-20  1.7678e-22  1.7578e-20  2.3440e-22  1.7684e-20  3.3862e-22  1.7873e-20  5.3036e-22  1.8355e-20  8.8926e-22  1.9235e-20  1.5857e-21  2.0485e-20  3.0164e-21  2.2526e-20
      4.70  1.0350e-22  1.9570e-20  1.0355e-22  1.9570e-20  1.0365e-22  1.9571e-20  1.0381e-22  1.9571e-20  1.0411e-22  1.9572e-20  1.0463e-22  1.9573e-20  1.0557e-22  1.9575e-20  1.0724e-22  1.9579e-20  1.1020e-22  1.9585e-20  1.1547e-22  1.9597e-20  1.2486e-22  1.9618e-20  1.4159e-22  1.9656e-20  1.7149e-22  1.9723e-20  2.2514e-22  1.9842e-20  3.2218e-22  2.0054e-20  5.0049e-22  2.0526e-20  8.3468e-22  2.1543e-20  1.4822e-21  2.2964e-20  2.8106e-21  2.5266e-20
      4.75  1.0325e-22  2.1958e-20  1.0330e-22  2.1958e-20  1.0339e-22  2.1958e-20  1.0355e-22  2.1959e-20  1.0382e-22  2.1960e-20  1.0431e-22  2.1961e-20  1.0518e-22  2.1963e-20  1.0673e-22  2.1968e-20  1.0949e-22  2.1975e-20  1.1440e-22  2.1988e-20  1.2314e-22  2.2012e-20  1.3872e-22  2.2054e-20  1.6657e-22  2.2130e-20  2.1651e-22  2.2263e-20  3.0686e-22  2.2501e-20  4.7257e-22  2.2944e-20  7.8379e-22  2.4123e-20  1.3858e-21  2.5741e-20  2.6189e-21  2.8337e-20
      4.80  1.0303e-22  2.4637e-20  1.0307e-22  2.4637e-20  1.0315e-22  2.4638e-20  1.0330e-22  2.4638e-20  1.0355e-22  2.4639e-20  1.0401e-22  2.4640e-20  1.0482e-22  2.4643e-20  1.0627e-22  2.4648e-20  1.0884e-22  2.4656e-20  1.1341e-22  2.4671e-20  1.2155e-22  2.4698e-20  1.3606e-22  2.4745e-20  1.6199e-22  2.4830e-20  2.0849e-22  2.4980e-20  2.9261e-22  2.5247e-20  4.4674e-22  2.5721e-20  7.3642e-22  2.7006e-20  1.2961e-21  2.8849e-20  2.4408e-21  3.1780e-20
      4.85  1.0282e-22  2.7643e-20  1.0286e-22  2.7643e-20  1.0294e-22  2.7644e-20  1.0307e-22  2.7644e-20  1.0331e-22  2.7645e-20  1.0373e-22  2.7647e-20  1.0449e-22  2.7650e-20  1.0583e-22  2.7655e-20  1.0823e-22  2.7665e-20  1.1248e-22  2.7681e-20  1.2007e-22  2.7711e-20  1.3358e-22  2.7765e-20  1.5773e-22  2.7859e-20  2.0105e-22  2.8028e-20  2.7936e-22  2.8327e-20  4.2278e-22  2.8860e-20  6.9232e-22  3.0226e-20  1.2129e-21  3.2328e-20  2.2755e-21  3.5638e-20
      4.90  1.0262e-22  3.1016e-20  1.0266e-22  3.1016e-20  1.0273e-22  3.1017e-20  1.0286e-22  3.1017e-20  1.0308e-22  3.1018e-20  1.0348e-22  3.1020e-20  1.0418e-22  3.1023e-20  1.0543e-22  3.1029e-20  1.0766e-22  3.1040e-20  1.1163e-22  3.1059e-20  1.1869e-22  3.1093e-20  1.3128e-22  3.1152e-20  1.5378e-22  3.1259e-20  1.9413e-22  3.1448e-20  2.6705e-22  3.1784e-20  4.0055e-22  3.2382e-20  6.5126e-22  3.3819e-20  1.1355e-21  3.6221e-20  2.1220e-21  3.9961e-20
      4.95  1.0245e-22  3.4800e-20  1.0248e-22  3.4801e-20  1.0255e-22  3.4801e-20  1.0266e-22  3.4802e-20  1.0287e-22  3.4803e-20  1.0324e-22  3.4805e-20  1.0390e-22  3.4809e-20  1.0506e-22  3.4815e-20  1.0714e-22  3.4827e-20  1.1083e-22  3.4849e-20  1.1741e-22  3.4886e-20  1.2914e-22  3.4953e-20  1.5011e-22  3.5073e-20  1.8770e-22  3.5285e-20  2.5560e-22  3.5662e-20  3.7990e-22  3.6334e-20  6.1311e-22  3.7861e-20  1.0635e-21  4.0576e-20  1.9795e-21  4.4805e-20
      5.00  1.0228e-22  3.9046e-20  1.0232e-22  3.9047e-20  1.0238e-22  3.9047e-20  1.0248e-22  3.9048e-20  1.0268e-22  3.9049e-20  1.0302e-22  3.9052e-20  1.0363e-22  3.9056e-20  1.0472e-22  3.9063e-20  1.0665e-22  3.9077e-20  1.1010e-22  3.9101e-20  1.1623e-22  3.9143e-20  1.2716e-22  3.9218e-20  1.4669e-22  3.9352e-20  1.8173e-22  3.9591e-20  2.4500e-22  4.0014e-20  3.6073e-22  4.0767e-20  5.7763e-22  4.2379e-20  9.9675e-22  4.5469e-20  1.8473e-21  5.0230e-20
      5.05  1.0213e-22  4.3811e-20  1.0216e-22  4.3811e-20  1.0222e-22  4.3811e-20  1.0232e-22  4.3812e-20  1.0250e-22  4.3814e-20  1.0282e-22  4.3816e-20  1.0339e-22  4.3821e-20  1.0440e-22  4.3830e-20  1.0621e-22  4.3845e-20  1.0941e-22  4.3871e-20  1.1513e-22  4.3919e-20  1.2532e-22  4.4004e-20  1.4353e-22  4.4154e-20  1.7619e-22  4.4421e-20  2.3515e-22  4.4897e-20  3.4295e-22  4.5742e-20  5.4470e-22  4.7449e-20  9.3478e-22  5.0947e-20  1.7247e-21  5.6314e-20
      5.10  1.0199e-22  4.9156e-20  1.0202e-22  4.9157e-20  1.0207e-22  4.9157e-20  1.0217e-22  4.9158e-20  1.0233e-22  4.9160e-20  1.0263e-22  4.9163e-20  1.0316e-22  4.9168e-20  1.0411e-22  4.9178e-20  1.0579e-22  4.9194e-20  1.0878e-22  4.9224e-20  1.1411e-22  4.9278e-20  1.2361e-22  4.9373e-20  1.4059e-22  4.9542e-20  1.7105e-22  4.9842e-20  2.2603e-22  5.0375e-20  3.2646e-22  5.1324e-20  5.1429e-22  5.3188e-20  8.7743e-22  5.7116e-20  1.6113e-21  6.3139e-20
      5.15  1.0186e-22  5.5154e-20  1.0189e-22  5.5154e-20  1.0194e-22  5.5155e-20  1.0203e-22  5.5156e-20  1.0218e-22  5.5158e-20  1.0246e-22  5.5161e-20  1.0296e-22  5.5167e-20  1.0384e-22  5.5178e-20  1.0541e-22  5.5197e-20  1.0820e-22  5.5231e-20  1.1317e-22  5.5290e-20  1.2204e-22  5.5397e-20  1.3788e-22  5.5586e-20  1.6629e-22  5.5923e-20  2.1758e-22  5.6522e-20  3.1124e-22  5.7588e-20  4.8613e-22  5.9617e-20  8.2440e-22  6.4052e-20  1.5064e-21  7.0811e-20
      5.20  1.0174e-22  6.1884e-20  1.0177e-22  6.1884e-20  1.0181e-22  6.1885e-20  1.0190e-22  6.1886e-20  1.0204e-22  6.1888e-20  1.0230e-22  6.1892e-20  1.0277e-22  6.1898e-20  1.0359e-22  6.1910e-20  1.0505e-22  6.1932e-20  1.0766e-22  6.1969e-20  1.1230e-22  6.2037e-20  1.2058e-22  6.2156e-20  1.3537e-22  6.2369e-20  1.6189e-22  6.2747e-20  2.0976e-22  6.3420e-20  2.9715e-22  6.4615e-20  4.6005e-22  6.6817e-20  7.7536e-22  7.1827e-20  1.4096e-21  7.9433e-20
      5.25  1.0163e-22  6.9434e-20  1.0166e-22  6.9435e-20  1.0170e-22  6.9435e-20  1.0178e-22  6.9437e-20  1.0191e-22  6.9439e-20  1.0216e-22  6.9443e-20  1.0259e-22  6.9451e-20  1.0336e-22  6.9464e-20  1.0473e-22  6.9488e-20  1.0716e-22  6.9531e-20  1.1150e-22  6.9606e-20  1.1923e-22  6.9740e-20  1.3304e-22  6.9979e-20  1.5781e-22  7.0404e-20  2.0252e-22  7.1158e-20  2.8411e-22  7.2500e-20  4.3596e-22  7.4886e-20  7.3005e-22  8.0541e-20  1.3202e-21  8.9101e-20
      5.30  1.0153e-22  7.7906e-20  1.0156e-22  7.7907e-20  1.0160e-22  7.7908e-20  1.0167e-22  7.7909e-20  1.0180e-22  7.7912e-20  1.0202e-22  7.7917e-20  1.0243e-22  7.7925e-20  1.0315e-22  7.7940e-20  1.0442e-22  7.7967e-20  1.0670e-22  7.8015e-20  1.1075e-22  7.8099e-20  1.1798e-22  7.8250e-20  1.3089e-22  7.8518e-20  1.5404e-22  7.8994e-20  1.9581e-22  7.9841e-20  2.7203e-22  8.1347e-20  4.1378e-22  8.4025e-20  6.8816e-22  9.0309e-20  1.2377e-21  9.9943e-20
      5.35  1.0144e-22  8.7412e-20  1.0146e-22  8.7413e-20  1.0150e-22  8.7414e-20  1.0157e-22  8.7415e-20  1.0169e-22  8.7418e-20  1.0190e-22  8.7424e-20  1.0228e-22  8.7433e-20  1.0295e-22  8.7450e-20  1.0415e-22  8.7480e-20  1.0627e-22  8.7534e-20  1.1006e-22  8.7629e-20  1.1682e-22  8.7798e-20  1.2889e-22  8.8098e-20  1.5054e-22  8.8633e-20  1.8960e-22  8.9584e-20  2.6083e-22  9.1274e-20  3.9322e-22  9.4280e-20  6.4936e-22  1.0126e-19  1.1615e-21  1.1210e-19
      5.40  1.0136e-22  9.8078e-20  1.0138e-22  9.8078e-20  1.0141e-22  9.8079e-20  1.0148e-22  9.8081e-20  1.0159e-22  9.8085e-20  1.0179e-22  9.8091e-20  1.0214e-22  9.8101e-20  1.0277e-22  9.8120e-20  1.0389e-22  9.8154e-20  1.0588e-22  9.8214e-20  1.0942e-22  9.8321e-20  1.1575e-22  9.8511e-20  1.2704e-22  9.8848e-20  1.4729e-22  9.9448e-20  1.8382e-22  1.0052e-19  2.5043e-22  1.0241e-19  3.7415e-22  1.0579e-19  6.1335e-22  1.1352e-19  1.0909e-21  1.2573e-19
      5.45  1.0128e-22  1.1004e-19  1.0130e-22  1.1005e-19  1.0133e-22  1.1005e-19  1.0139e-22  1.1005e-19  1.0150e-22  1.1005e-19  1.0168e-22  1.1006e-19  1.0201e-22  1.1007e-19  1.0260e-22  1.1009e-19  1.0365e-22  1.1013e-19  1.0551e-22  1.1020e-19  1.0883e-22  1.1032e-19  1.1475e-22  1.1053e-19  1.2532e-22  1.1091e-19  1.4427e-22  1.1158e-19  1.7845e-22  1.1278e-19  2.4077e-22  1.1491e-19  3.5644e-22  1.1870e-19  5.7991e-22  1.2727e-19  1.0255e-21  1.4102e-19
      5.50  1.0121e-22  1.2347e-19  1.0123e-22  1.2347e-19  1.0126e-22  1.2347e-19  1.0131e-22  1.2348e-19  1.0141e-22  1.2348e-19  1.0159e-22  1.2349e-19  1.0190e-22  1.2350e-19  1.0245e-22  1.2353e-19  1.0343e-22  1.2357e-19  1.0517e-22  1.2364e-19  1.0828e-22  1.2378e-19  1.1382e-22  1.2402e-19  1.2372e-22  1.2444e-19  1.4146e-22  1.2520e-19  1.7346e-22  1.2654e-19  2.3177e-22  1.2893e-19  3.3997e-22  1.3318e-19  5.4881e-22  1.4266e-19  9.6481e-22  1.5816e-19
      5.55  1.0115e-22  1.3854e-19  1.0116e-22  1.3854e-19  1.0119e-22  1.3854e-19  1.0124e-22  1.3854e-19  1.0133e-22  1.3855e-19  1.0150e-22  1.3856e-19  1.0179e-22  1.3857e-19  1.0230e-22  1.3860e-19  1.0322e-22  1.3865e-19  1.0486e-22  1.3873e-19  1.0777e-22  1.3888e-19  1.1296e-22  1.3915e-19  1.2223e-22  1.3963e-19  1.3884e-22  1.4048e-19  1.6880e-22  1.4198e-19  2.2340e-22  1.4467e-19  3.2464e-22  1.4943e-19  5.1987e-22  1.5991e-19  9.0846e-22  1.7737e-19
      5.60  1.0109e-22  1.5544e-19  1.0110e-22  1.5544e-19  1.0113e-22  1.5544e-19  1.0118e-22  1.5545e-19  1.0126e-22  1.5545e-19  1.0142e-22  1.5546e-19  1.0169e-22  1.5548e-19  1.0217e-22  1.5551e-19  1.0303e-22  1.5556e-19  1.0456e-22  1.5566e-19  1.0729e-22  1.5583e-19  1.1215e-22  1.5613e-19  1.2084e-22  1.5666e-19  1.3640e-22  1.5762e-19  1.6447e-22  1.5931e-19  2.1560e-22  1.6232e-19  3.1036e-22  1.6767e-19  4.9292e-22  1.7923e-19  8.5610e-22  1.9891e-19
      5.65  1.0103e-22  1.7441e-19  1.0105e-22  1.7441e-19  1.0107e-22  1.7441e-19  1.0112e-22  1.7441e-19  1.0120e-22  1.7442e-19  1.0134e-22  1.7443e-19  1.0160e-22  1.7445e-19  1.0205e-22  1.7448e-19  1.0286e-22  1.7454e-19  1.0429e-22  1.7465e-19  1.0685e-22  1.7484e-19  1.1140e-22  1.7518e-19  1.1954e-22  1.7578e-19  1.3413e-22  1.7685e-19  1.6042e-22  1.7875e-19  2.0832e-22  1.8213e-19  2.9706e-22  1.8813e-19  4.6780e-22  2.0087e-19  8.0742e-22  2.2305e-19
      5.70  1.0098e-22  1.9569e-19  1.0100e-22  1.9569e-19  1.0102e-22  1.9569e-19  1.0106e-22  1.9570e-19  1.0114e-22  1.9570e-19  1.0127e-22  1.9571e-19  1.0151e-22  1.9574e-19  1.0194e-22  1.9577e-19  1.0269e-22  1.9584e-19  1.0404e-22  1.9596e-19  1.0643e-22  1.9617e-19  1.1070e-22  1.9655e-19  1.1833e-22  1.9723e-19  1.3200e-22  1.9843e-19  1.5665e-22  2.0056e-19  2.0153e-22  2.0435e-19  2.8466e-22  2.1109e-19  4.4437e-22  2.2509e-19  7.6215e-22  2.5012e-19
      5.75  1.0094e-22  2.1957e-19  1.0095e-22  2.1957e-19  1.0097e-22  2.1957e-19  1.0101e-22  2.1957e-19  1.0108e-22  2.1958e-19  1.0121e-22  2.1960e-19  1.0143e-22  2.1962e-19  1.0183e-22  2.1966e-19  1.0254e-22  2.1974e-19  1.0380e-22  2.1987e-19  1.0605e-22  2.2011e-19  1.1005e-22  2.2054e-19  1.1720e-22  2.2129e-19  1.3002e-22  2.2264e-19  1.5312e-22  2.2503e-19  1.9519e-22  2.2929e-19  2.7308e-22  2.3685e-19  4.2250e-22  2.5221e-19  7.2002e-22  2.8044e-19
      5.80  1.0090e-22  2.4636e-19  1.0091e-22  2.4636e-19  1.0093e-22  2.4636e-19  1.0097e-22  2.4637e-19  1.0103e-22  2.4637e-19  1.0115e-22  2.4639e-19  1.0136e-22  2.4642e-19  1.0174e-22  2.4646e-19  1.0240e-22  2.4655e-19  1.0358e-22  2.4670e-19  1.0569e-22  2.4697e-19  1.0944e-22  2.4745e-19  1.1615e-22  2.4830e-19  1.2817e-22  2.4981e-19  1.4983e-22  2.5249e-19  1.8926e-22  2.5727e-19  2.6227e-22  2.6576e-19  4.0207e-22  2.8256e-19  6.8077e-22  3.1443e-19
      5.85  1.0086e-22  2.7642e-19  1.0087e-22  2.7642e-19  1.0089e-22  2.7642e-19  1.0093e-22  2.7643e-19  1.0099e-22  2.7644e-19  1.0110e-22  2.7645e-19  1.0130e-22  2.7648e-19  1.0165e-22  2.7654e-19  1.0227e-22  2.7663e-19  1.0338e-22  2.7680e-19  1.0535e-22  2.7710e-19  1.0888e-22  2.7764e-19  1.1516e-22  2.7859e-19  1.2643e-22  2.8029e-19  1.4674e-22  2.8330e-19  1.8372e-22  2.8866e-19  2.5216e-22  2.9819e-19  3.8297e-22  3.1652e-19  6.4417e-22  3.5251e-19
      5.90  1.0083e-22  3.1014e-19  1.0084e-22  3.1015e-19  1.0086e-22  3.1015e-19  1.0089e-22  3.1016e-19  1.0095e-22  3.1017e-19  1.0105e-22  3.1019e-19  1.0124e-22  3.1022e-19  1.0156e-22  3.1028e-19  1.0215e-22  3.1039e-19  1.0319e-22  3.1058e-19  1.0504e-22  3.1092e-19  1.0834e-22  3.1152e-19  1.1424e-22  3.1259e-19  1.2481e-22  3.1449e-19  1.4386e-22  3.1787e-19  1.7853e-22  3.2388e-19  2.4270e-22  3.3458e-19  3.6507e-22  3.5452e-19  6.0999e-22  3.9518e-19
      5.95  1.0080e-22  3.4799e-19  1.0081e-22  3.4799e-19  1.0082e-22  3.4799e-19  1.0085e-22  3.4800e-19  1.0091e-22  3.4801e-19  1.0101e-22  3.4803e-19  1.0118e-22  3.4807e-19  1.0149e-22  3.4814e-19  1.0204e-22  3.4826e-19  1.0301e-22  3.4847e-19  1.0475e-22  3.4885e-19  1.0785e-22  3.4953e-19  1.1338e-22  3.5073e-19  1.2329e-22  3.5286e-19  1.4115e-22  3.5666e-19  1.7367e-22  3.6341e-19  2.3384e-22  3.7541e-19  3.4829e-22  3.9701e-19  5.7803e-22  4.4297e-19
      6.00  1.0077e-22  3.9045e-19  1.0078e-22  3.9045e-19  1.0079e-22  3.9045e-19  1.0082e-22  3.9046e-19  1.0087e-22  3.9048e-19  1.0097e-22  3.9050e-19  1.0113e-22  3.9054e-19  1.0142e-22  3.9062e-19  1.0193e-22  3.9075e-19  1.0285e-22  3.9099e-19  1.0448e-22  3.9142e-19  1.0738e-22  3.9218e-19  1.1257e-22  3.9352e-19  1.2186e-22  3.9592e-19  1.3862e-22  4.0018e-19  1.6911e-22  4.0775e-19  2.2553e-22  4.2122e-19  3.3274e-22  4.4516e-19  5.4810e-22  4.9650e-19
      6.05  1.0074e-22  4.3809e-19  1.0075e-22  4.3809e-19  1.0077e-22  4.3810e-19  1.0079e-22  4.3811e-19  1.0084e-22  4.3812e-19  1.0093e-22  4.3815e-19  1.0108e-22  4.3820e-19  1.0135e-22  4.3828e-19  1.0183e-22  4.3843e-19  1.0269e-22  4.3870e-19  1.0422e-22  4.3918e-19  1.0694e-22  4.4003e-19  1.1181e-22  4.4154e-19  1.2052e-22  4.4423e-19  1.3623e-22  4.4901e-19  1.6482e-22  4.5751e-19  2.1773e-22  4.7262e-19  3.1825e-22  4.9949e-19  5.2004e-22  5.5645e-19
      6.10  1.0072e-22  4.9154e-19  1.0073e-22  4.9155e-19  1.0074e-22  4.9155e-19  1.0077e-22  4.9156e-19  1.0081e-22  4.9158e-19  1.0089e-22  4.9161e-19  1.0104e-22  4.9166e-19  1.0129e-22  4.9176e-19  1.0174e-22  4.9193e-19  1.0255e-22  4.9223e-19  1.0398e-22  4.9277e-19  1.0653e-22  4.9372e-19  1.1110e-22  4.9542e-19  1.1927e-22  4.9843e-19  1.3400e-22  5.0380e-19  1.6080e-22  5.1334e-19  2.1040e-22  5.3030e-19  3.0465e-22  5.6045e-19  4.9369e-22  6.2357e-19
      6.15  1.0070e-22  5.5152e-19  1.0071e-22  5.5152e-19  1.0072e-22  5.5153e-19  1.0075e-22  5.5154e-19  1.0079e-22  5.5156e-19  1.0086e-22  5.5159e-19  1.0100e-22  5.5165e-19  1.0124e-22  5.5176e-19  1.0166e-22  5.5195e-19  1.0241e-22  5.5229e-19  1.0376e-22  5.5289e-19  1.0615e-22  5.5396e-19  1.1043e-22  5.5587e-19  1.1809e-22  5.5925e-19  1.3189e-22  5.6527e-19  1.5702e-22  5.7598e-19  2.0352e-22  5.9501e-19  2.9186e-22  6.2885e-19  4.6893e-22  6.9871e-19
      6.20  1.0068e-22  6.1882e-19  1.0069e-22  6.1882e-19  1.0070e-22  6.1883e-19  1.0073e-22  6.1884e-19  1.0077e-22  6.1886e-19  1.0084e-22  6.1890e-19  1.0096e-22  6.1897e-19  1.0118e-22  6.1909e-19  1.0158e-22  6.1930e-19  1.0229e-22  6.1968e-19  1.0355e-22  6.2036e-19  1.0579e-22  6.2156e-19  1.0980e-22  6.2369e-19  1.1698e-22  6.2749e-19  1.2992e-22  6.3425e-19  1.5347e-22  6.4626e-19  1.9705e-22  6.6762e-19  2.7985e-22  7.0560e-19  4.4564e-22  7.8282e-19
      6.25  1.0067e-22  6.9432e-19  1.0067e-22  6.9433e-19  1.0069e-22  6.9434e-19  1.0071e-22  6.9435e-19  1.0074e-22  6.9437e-19  1.0081e-22  6.9442e-19  1.0093e-22  6.9449e-19  1.0114e-22  6.9463e-19  1.0151e-22  6.9487e-19  1.0217e-22  6.9529e-19  1.0335e-22  6.9605e-19  1.0545e-22  6.9740e-19  1.0921e-22  6.9980e-19  1.1594e-22  7.0406e-19  1.2806e-22  7.1164e-19  1.5013e-22  7.2512e-19  1.9097e-22  7.4909e-19  2.6856e-22  7.9171e-19  4.2372e-22  8.7693e-19
      6.30  1.0065e-22  7.7904e-19  1.0066e-22  7.7905e-19  1.0067e-22  7.7906e-19  1.0069e-22  7.7907e-19  1.0072e-22  7.7910e-19  1.0079e-22  7.7915e-19  1.0090e-22  7.7923e-19  1.0109e-22  7.7938e-19  1.0144e-22  7.7965e-19  1.0206e-22  7.8013e-19  1.0317e-22  7.8098e-19  1.0514e-22  7.8249e-19  1.0865e-22  7.8518e-19  1.1496e-22  7.8997e-19  1.2632e-22  7.9848e-19  1.4700e-22  8.1360e-19  1.8525e-22  8.4050e-19  2.5794e-22  8.8833e-19  4.0309e-22  9.8221e-19
      6.35  1.0064e-22  8.7410e-19  1.0065e-22  8.7411e-19  1.0066e-22  8.7412e-19  1.0067e-22  8.7413e-19  1.0071e-22  8.7416e-19  1.0076e-22  8.7422e-19  1.0087e-22  8.7431e-19  1.0105e-22  8.7448e-19  1.0138e-22  8.7478e-19  1.0196e-22  8.7532e-19  1.0299e-22  8.7628e-19  1.0484e-22  8.7797e-19  1.0814e-22  8.8099e-19  1.1404e-22  8.8636e-19  1.2468e-22  8.9591e-19  1.4405e-22  9.1288e-19  1.7988e-22  9.4307e-19  2.4796e-22  9.9674e-19  3.8367e-22  1.1000e-18
      6.40  1.0063e-22  9.8076e-19  1.0063e-22  9.8076e-19  1.0064e-22  9.8077e-19  1.0066e-22  9.8079e-19  1.0069e-22  9.8083e-19  1.0075e-22  9.8089e-19  1.0084e-22  9.8099e-19  1.0101e-22  9.8118e-19  1.0132e-22  9.8152e-19  1.0186e-22  9.8213e-19  1.0283e-22  9.8320e-19  1.0456e-22  9.8510e-19  1.0765e-22  9.8849e-19  1.1318e-22  9.9451e-19  1.2314e-22  1.0052e-18  1.4128e-22  1.0243e-18  1.7484e-22  1.0581e-18  2.3858e-22  1.1184e-18  3.6538e-22  1.2316e-18
      6.45  1.0062e-22  1.1004e-18  1.0062e-22  1.1004e-18  1.0063e-22  1.1004e-18  1.0065e-22  1.1005e-18  1.0068e-22  1.1005e-18  1.0073e-22  1.1006e-18  1.0082e-22  1.1007e-18  1.0098e-22  1.1009e-18  1.0127e-22  1.1013e-18  1.0178e-22  1.1020e-18  1.0268e-22  1.1032e-18  1.0430e-22  1.1053e-18  1.0719e-22  1.1091e-18  1.1237e-22  1.1159e-18  1.2170e-22  1.1279e-18  1.3868e-22  1.1493e-18  1.7010e-22  1.1873e-18  2.2977e-22  1.2549e-18  3.4816e-22  1.3788e-18
      6.50  1.0061e-22  1.2347e-18  1.0061e-22  1.2347e-18  1.0062e-22  1.2347e-18  1.0064e-22  1.2347e-18  1.0066e-22  1.2348e-18  1.0071e-22  1.2349e-18  1.0080e-22  1.2350e-18  1.0095e-22  1.2352e-18  1.0121e-22  1.2357e-18  1.0169e-22  1.2364e-18  1.0254e-22  1.2378e-18  1.0406e-22  1.2402e-18  1.0676e-22  1.2444e-18  1.1161e-22  1.2520e-18  1.2035e-22  1.2655e-18  1.3625e-22  1.2895e-18  1.6565e-22  1.3322e-18  2.2151e-22  1.4080e-18  3.3194e-22  1.5433e-18
      6.55  1.0060e-22  1.3854e-18  1.0060e-22  1.3854e-18  1.0061e-22  1.3854e-18  1.0063e-22  1.3854e-18  1.0065e-22  1.3855e-18  1.0070e-22  1.3855e-18  1.0078e-22  1.3857e-18  1.0092e-22  1.3860e-18  1.0117e-22  1.3864e-18  1.0161e-22  1.3873e-18  1.0241e-22  1.3888e-18  1.0383e-22  1.3915e-18  1.0636e-22  1.3963e-18  1.1090e-22  1.4048e-18  1.1908e-22  1.4199e-18  1.3396e-22  1.4468e-18  1.6149e-22  1.4947e-18  2.1375e-22  1.5798e-18  3.1703e-22  1.7311e-18
      6.60  1.0059e-22  1.5544e-18  1.0060e-22  1.5544e-18  1.0060e-22  1.5544e-18  1.0062e-22  1.5544e-18  1.0064e-22  1.5545e-18  1.0068e-22  1.5546e-18  1.0076e-22  1.5548e-18  1.0089e-22  1.5551e-18  1.0112e-22  1.5556e-18  1.0154e-22  1.5566e-18  1.0229e-22  1.5583e-18  1.0362e-22  1.5613e-18  1.0599e-22  1.5667e-18  1.1024e-22  1.5762e-18  1.1790e-22  1.5932e-18  1.3183e-22  1.6234e-18  1.5758e-22  1.6771e-18  2.0648e-22  1.7726e-18  3.0308e-22  1.9424e-18
      6.65  1.0059e-22  1.7441e-18  1.0059e-22  1.7441e-18  1.0060e-22  1.7441e-18  1.0061e-22  1.7441e-18  1.0063e-22  1.7442e-18  1.0067e-22  1.7443e-18  1.0074e-22  1.7445e-18  1.0086e-22  1.7448e-18  1.0108e-22  1.7454e-18  1.0148e-22  1.7465e-18  1.0217e-22  1.7484e-18  1.0342e-22  1.7518e-18  1.0564e-22  1.7578e-18  1.0962e-22  1.7685e-18  1.1679e-22  1.7876e-18  1.2982e-22  1.8215e-18  1.5393e-22  1.8818e-18  1.9967e-22  1.9889e-18  2.9000e-22  2.1795e-18
      6.70  1.0058e-22  1.9569e-18  1.0058e-22  1.9569e-18  1.0059e-22  1.9569e-18  1.0060e-22  1.9569e-18  1.0062e-22  1.9570e-18  1.0066e-22  1.9571e-18  1.0072e-22  1.9573e-18  1.0084e-22  1.9577e-18  1.0105e-22  1.9584e-18  1.0141e-22  1.9596e-18  1.0207e-22  1.9617e-18  1.0323e-22  1.9655e-18  1.0531e-22  1.9723e-18  1.0904e-22  1.9843e-18  1.1575e-22  2.0057e-18  1.2795e-22  2.0437e-18  1.5051e-22  2.1114e-18  1.9330e-22  2.2316e-18  2.7775e-22  2.4454e-18
      6.75  1.0058e-22  2.1956e-18  1.0058e-22  2.1957e-18  1.0058e-22  2.1957e-18  1.0060e-22  2.1957e-18  1.0061e-22  2.1958e-18  1.0065e-22  2.1959e-18  1.0071e-22  2.1962e-18  1.0082e-22  2.1966e-18  1.0101e-22  2.1974e-18  1.0136e-22  2.1987e-18  1.0197e-22  2.2011e-18  1.0306e-22  2.2054e-18  1.0501e-22  2.2130e-18  1.0849e-22  2.2265e-18  1.1478e-22  2.2505e-18  1.2620e-22  2.2931e-18  1.4732e-22  2.3690e-18  1.8734e-22  2.5040e-18  2.6629e-22  2.7439e-18
      6.80  1.0057e-22  2.4635e-18  1.0057e-22  2.4636e-18  1.0058e-22  2.4636e-18  1.0059e-22  2.4636e-18  1.0061e-22  2.4637e-18  1.0064e-22  2.4639e-18  1.0070e-22  2.4641e-18  1.0080e-22  2.4646e-18  1.0098e-22  2.4655e-18  1.0130e-22  2.4670e-18  1.0188e-22  2.4697e-18  1.0290e-22  2.4745e-18  1.0472e-22  2.4830e-18  1.0799e-22  2.4981e-18  1.1387e-22  2.5251e-18  1.2457e-22  2.5729e-18  1.4433e-22  2.6581e-18  1.8178e-22  2.8095e-18  2.5558e-22  3.0787e-18
      6.85  1.0057e-22  2.7641e-18  1.0057e-22  2.7642e-18  1.0058e-22  2.7642e-18  1.0058e-22  2.7642e-18  1.0060e-22  2.7643e-18  1.0063e-22  2.7645e-18  1.0069e-22  2.7648e-18  1.0078e-22  2.7653e-18  1.0095e-22  2.7663e-18  1.0125e-22  2.7680e-18  1.0179e-22  2.7710e-18  1.0275e-22  2.7764e-18  1.0446e-22  2.7860e-18  1.0752e-22  2.8029e-18  1.1303e-22  2.8332e-18  1.2305e-22  2.8869e-18  1.4155e-22  2.9825e-18  1.7659e-22  3.1524e-18  2.4558e-22  3.4545e-18
      6.90  1.0056e-22  3.1014e-18  1.0057e-22  3.1014e-18  1.0057e-22  3.1015e-18  1.0058e-22  3.1015e-18  1.0060e-22  3.1016e-18  1.0062e-22  3.1018e-18  1.0067e-22  3.1022e-18  1.0076e-22  3.1028e-18  1.0092e-22  3.1038e-18  1.0121e-22  3.1057e-18  1.0171e-22  3.1091e-18  1.0261e-22  3.1152e-18  1.0421e-22  3.1259e-18  1.0708e-22  3.1450e-18  1.1225e-22  3.1789e-18  1.2164e-22  3.2392e-18  1.3896e-22  3.3464e-18  1.7175e-22  3.5370e-18  2.3625e-22  3.8760e-18
      6.95  1.0056e-22  3.4798e-18  1.0056e-22  3.4799e-18  1.0057e-22  3.4799e-18  1.0058e-22  3.4800e-18  1.0059e-22  3.4801e-18  1.0062e-22  3.4803e-18  1.0066e-22  3.4807e-18  1.0075e-22  3.4814e-18  1.0090e-22  3.4826e-18  1.0116e-22  3.4847e-18  1.0163e-22  3.4885e-18  1.0248e-22  3.4953e-18  1.0398e-22  3.5073e-18  1.0667e-22  3.5287e-18  1.1152e-22  3.5668e-18  1.2032e-22  3.6344e-18  1.3655e-22  3.7547e-18  1.6724e-22  3.9687e-18  2.2755e-22  4.3490e-18
      7.00  1.0056e-22  3.9045e-18  1.0056e-22  3.9045e-18  1.0056e-22  3.9045e-18  1.0057e-22  3.9046e-18  1.0059e-22  3.9047e-18  1.0061e-22  3.9050e-18  1.0066e-22  3.9054e-18  1.0073e-22  3.9062e-18  1.0087e-22  3.9075e-18  1.0112e-22  3.9099e-18  1.0157e-22  3.9142e-18  1.0236e-22  3.9218e-18  1.0377e-22  3.9353e-18  1.0629e-22  3.9593e-18  1.1084e-22  4.0020e-18  1.1909e-22  4.0779e-18  1.3430e-22  4.2129e-18  1.6305e-22  4.4529e-18  2.1946e-22  4.8798e-18
      7.05  1.0055e-22  4.3809e-18  1.0056e-22  4.3809e-18  1.0056e-22  4.3809e-18  1.0057e-22  4.3810e-18  1.0058e-22  4.3812e-18  1.0061e-22  4.3814e-18  1.0065e-22  4.3819e-18  1.0072e-22  4.3828e-18  1.0085e-22  4.3843e-18  1.0109e-22  4.3870e-18  1.0150e-22  4.3918e-18  1.0224e-22  4.4003e-18  1.0357e-22  4.4154e-18  1.0594e-22  4.4424e-18  1.1021e-22  4.4903e-18  1.1795e-22  4.5755e-18  1.3222e-22  4.7270e-18  1.5915e-22  4.9963e-18  2.1194e-22  5.4753e-18
      7.10  1.0055e-22  4.9154e-18  1.0055e-22  4.9154e-18  1.0056e-22  4.9155e-18  1.0057e-22  4.9156e-18  1.0058e-22  4.9158e-18  1.0060e-22  4.9161e-18  1.0064e-22  4.9166e-18  1.0071e-22  4.9176e-18  1.0083e-22  4.9193e-18  1.0105e-22  4.9223e-18  1.0144e-22  4.9277e-18  1.0214e-22  4.9372e-18  1.0339e-22  4.9542e-18  1.0561e-22  4.9844e-18  1.0962e-22  5.0382e-18  1.1690e-22  5.1338e-18  1.3029e-22  5.3038e-18  1.5553e-22  5.6060e-18  2.0495e-22  6.1434e-18
      7.15  1.0055e-22  5.5152e-18  1.0055e-22  5.5152e-18  1.0056e-22  5.5153e-18  1.0056e-22  5.5154e-18  1.0057e-22  5.5156e-18  1.0060e-22  5.5159e-18  1.0063e-22  5.5165e-18  1.0070e-22  5.5176e-18  1.0081e-22  5.5195e-18  1.0102e-22  5.5229e-18  1.0139e-22  5.5289e-18  1.0204e-22  5.5396e-18  1.0322e-22  5.5587e-18  1.0531e-22  5.5926e-18  1.0908e-22  5.6530e-18  1.1592e-22  5.7602e-18  1.2849e-22  5.9509e-18  1.5218e-22  6.2901e-18  1.9846e-22  6.8931e-18
      7.20  1.0055e-22  6.1881e-18  1.0055e-22  6.1882e-18  1.0055e-22  6.1882e-18  1.0056e-22  6.1884e-18  1.0057e-22  6.1886e-18  1.0059e-22  6.1890e-18  1.0063e-22  6.1896e-18  1.0069e-22  6.1908e-18  1.0080e-22  6.1930e-18  1.0099e-22  6.1968e-18  1.0134e-22  6.2036e-18  1.0196e-22  6.2156e-18  1.0306e-22  6.2370e-18  1.0503e-22  6.2750e-18  1.0858e-22  6.3427e-18  1.1501e-22  6.4631e-18  1.2683e-22  6.6771e-18  1.4907e-22  7.0576e-18  1.9244e-22  7.7343e-18
      7.25  1.0055e-22  6.9432e-18  1.0055e-22  6.9432e-18  1.0055e-22  6.9433e-18  1.0056e-22  6.9435e-18  1.0057e-22  6.9437e-18  1.0059e-22  6.9441e-18  1.0062e-22  6.9449e-18  1.0068e-22  6.9462e-18  1.0078e-22  6.9486e-18  1.0096e-22  6.9529e-18  1.0129e-22  6.9605e-18  1.0187e-22  6.9740e-18  1.0291e-22  6.9980e-18  1.0477e-22  7.0407e-18  1.0811e-22  7.1167e-18  1.1417e-22  7.2517e-18  1.2529e-22  7.4918e-18  1.4619e-22  7.9188e-18  1.8687e-22  8.6781e-18
      7.30  1.0055e-22  7.7904e-18  1.0055e-22  7.7904e-18  1.0055e-22  7.7905e-18  1.0056e-22  7.7907e-18  1.0057e-22  7.7910e-18  1.0058e-22  7.7914e-18  1.0061e-22  7.7923e-18  1.0067e-22  7.7938e-18  1.0077e-22  7.7965e-18  1.0094e-22  7.8013e-18  1.0125e-22  7.8098e-18  1.0180e-22  7.8250e-18  1.0278e-22  7.8519e-18  1.0453e-22  7.8998e-18  1.0768e-22  7.9850e-18  1.1339e-22  8.1365e-18  1.2386e-22  8.4060e-18  1.4352e-22  8.8851e-18  1.8170e-22  9.7371e-18
      7.35  1.0055e-22  8.7410e-18  1.0055e-22  8.7410e-18  1.0055e-22  8.7411e-18  1.0056e-22  8.7413e-18  1.0056e-22  8.7416e-18  1.0058e-22  8.7421e-18  1.0061e-22  8.7431e-18  1.0066e-22  8.7448e-18  1.0075e-22  8.7478e-18  1.0092e-22  8.7532e-18  1.0121e-22  8.7627e-18  1.0173e-22  8.7797e-18  1.0265e-22  8.8100e-18  1.0431e-22  8.8637e-18  1.0729e-22  8.9594e-18  1.1267e-22  9.1294e-18  1.2255e-22  9.4317e-18  1.4105e-22  9.9693e-18  1.7692e-22  1.0925e-17
      7.40  1.0054e-22  9.8075e-18  1.0055e-22  9.8076e-18  1.0055e-22  9.8077e-18  1.0055e-22  9.8079e-18  1.0056e-22  9.8082e-18  1.0058e-22  9.8088e-18  1.0061e-22  9.8099e-18  1.0065e-22  9.8118e-18  1.0074e-22  9.8152e-18  1.0090e-22  9.8212e-18  1.0117e-22  9.8320e-18  1.0166e-22  9.8510e-18  1.0254e-22  9.8850e-18  1.0410e-22  9.9453e-18  1.0692e-22  1.0053e-17  1.1200e-22  1.0243e-17  1.2133e-22  1.0583e-17  1.3877e-22  1.1186e-17  1.7249e-22  1.2258e-17
      7.45  1.0054e-22  1.1004e-17  1.0055e-22  1.1004e-17  1.0055e-22  1.1004e-17  1.0055e-22  1.1005e-17  1.0056e-22  1.1005e-17  1.0058e-22  1.1006e-17  1.0060e-22  1.1007e-17  1.0065e-22  1.1009e-17  1.0073e-22  1.1013e-17  1.0088e-22  1.1020e-17  1.0114e-22  1.1032e-17  1.0160e-22  1.1053e-17  1.0243e-22  1.1091e-17  1.0392e-22  1.1159e-17  1.0658e-22  1.1279e-17  1.1139e-22  1.1493e-17  1.2020e-22  1.1874e-17  1.3665e-22  1.2551e-17  1.6840e-22  1.3754e-17
      7.50  1.0054e-22  1.2347e-17  1.0054e-22  1.2347e-17  1.0055e-22  1.2347e-17  1.0055e-22  1.2347e-17  1.0056e-22  1.2348e-17  1.0057e-22  1.2349e-17  1.0060e-22  1.2350e-17  1.0064e-22  1.2352e-17  1.0072e-22  1.2357e-17  1.0086e-22  1.2364e-17  1.0111e-22  1.2378e-17  1.0155e-22  1.2402e-17  1.0233e-22  1.2444e-17  1.0374e-22  1.2520e-17  1.0626e-22  1.2655e-17  1.1082e-22  1.2896e-17  1.1916e-22  1.3323e-17  1.3470e-22  1.4082e-17  1.6461e-22  1.5433e-17
      7.55  1.0054e-22  1.3854e-17  1.0054e-22  1.3854e-17  1.0055e-22  1.3854e-17  1.0055e-22  1.3854e-17  1.0056e-22  1.3854e-17  1.0057e-22  1.3855e-17  1.0059e-22  1.3857e-17  1.0064e-22  1.3860e-17  1.0071e-22  1.3864e-17  1.0084e-22  1.3873e-17  1.0108e-22  1.3888e-17  1.0150e-22  1.3915e-17  1.0224e-22  1.3963e-17  1.0358e-22  1.4048e-17  1.0597e-22  1.4200e-17  1.1030e-22  1.4469e-17  1.1820e-22  1.4948e-17  1.3290e-22  1.5801e-17  1.6111e-22  1.7316e-17
      7.60  1.0054e-22  1.5544e-17  1.0054e-22  1.5544e-17  1.0055e-22  1.5544e-17  1.0055e-22  1.5544e-17  1.0056e-22  1.5545e-17  1.0057e-22  1.5546e-17  1.0059e-22  1.5548e-17  1.0063e-22  1.5551e-17  1.0070e-22  1.5556e-17  1.0083e-22  1.5566e-17  1.0105e-22  1.5583e-17  1.0145e-22  1.5613e-17  1.0216e-22  1.5667e-17  1.0343e-22  1.5762e-17  1.0571e-22  1.5932e-17  1.0981e-22  1.6235e-17  1.1731e-22  1.6772e-17  1.3124e-22  1.7729e-17  1.5788e-22  1.9429e-17
      7.65  1.0054e-22  1.7441e-17  1.0054e-22  1.7441e-17  1.0054e-22  1.7441e-17  1.0055e-22  1.7441e-17  1.0056e-22  1.7442e-17  1.0057e-22  1.7443e-17  1.0059e-22  1.7445e-17  1.0063e-22  1.7448e-17  1.0069e-22  1.7454e-17  1.0081e-22  1.7465e-17  1.0103e-22  1.7484e-17  1.0141e-22  1.7518e-17  1.0208e-22  1.7578e-17  1.0329e-22  1.7686e-17  1.0546e-22  1.7876e-17  1.0937e-22  1.8216e-17  1.1649e-22  1.8819e-17  1.2971e-22  1.9892e-17  1.5491e-22  2.1800e-17
      7.70  1.0054e-22  1.9569e-17  1.0054e-22  1.9569e-17  1.0054e-22  1.9569e-17  1.0055e-22  1.9569e-17  1.0055e-22  1.9570e-17  1.0057e-22  1.9571e-17  1.0059e-22  1.9573e-17  1.0062e-22  1.9577e-17  1.0069e-22  1.9584e-17  1.0080e-22  1.9596e-17  1.0100e-22  1.9617e-17  1.0137e-22  1.9655e-17  1.0201e-22  1.9723e-17  1.0317e-22  1.9844e-17  1.0523e-22  2.0058e-17  1.0896e-22  2.0438e-17  1.1574e-22  2.1115e-17  1.2830e-22  2.2319e-17  1.5217e-22  2.4460e-17
      7.75  1.0054e-22  2.1956e-17  1.0054e-22  2.1956e-17  1.0054e-22  2.1957e-17  1.0055e-22  2.1957e-17  1.0055e-22  2.1958e-17  1.0056e-22  2.1959e-17  1.0058e-22  2.1962e-17  1.0062e-22  2.1966e-17  1.0068e-22  2.1973e-17  1.0079e-22  2.1987e-17  1.0098e-22  2.2011e-17  1.0133e-22  2.2054e-17  1.0195e-22  2.2130e-17  1.0305e-22  2.2265e-17  1.0503e-22  2.2505e-17  1.0859e-22  2.2932e-17  1.1505e-22  2.3692e-17  1.2700e-22  2.5042e-17  1.4966e-22  2.7444e-17
      7.80  1.0054e-22  2.4635e-17  1.0054e-22  2.4636e-17  1.0054e-22  2.4636e-17  1.0055e-22  2.4636e-17  1.0055e-22  2.4637e-17  1.0056e-22  2.4639e-17  1.0058e-22  2.4641e-17  1.0061e-22  2.4646e-17  1.0067e-22  2.4655e-17  1.0078e-22  2.4670e-17  1.0096e-22  2.4697e-17  1.0130e-22  2.4745e-17  1.0189e-22  2.4830e-17  1.0295e-22  2.4981e-17  1.0484e-22  2.5251e-17  1.0824e-22  2.5730e-17  1.1442e-22  2.6583e-17  1.2582e-22  2.8098e-17  1.4735e-22  3.0793e-17
      7.85  1.0054e-22  2.7641e-17  1.0054e-22  2.7642e-17  1.0054e-22  2.7642e-17  1.0055e-22  2.7642e-17  1.0055e-22  2.7643e-17  1.0056e-22  2.7645e-17  1.0058e-22  2.7648e-17  1.0061e-22  2.7653e-17  1.0067e-22  2.7663e-17  1.0077e-22  2.7680e-17  1.0095e-22  2.7710e-17  1.0127e-22  2.7764e-17  1.0183e-22  2.7860e-17  1.0285e-22  2.8030e-17  1.0466e-22  2.8332e-17  1.0793e-22  2.8870e-17  1.1384e-22  2.9826e-17  1.2473e-22  3.1527e-17  1.4524e-22  3.4551e-17
      7.90  1.0054e-22  3.1014e-17  1.0054e-22  3.1014e-17  1.0054e-22  3.1015e-17  1.0055e-22  3.1015e-17  1.0055e-22  3.1016e-17  1.0056e-22  3.1018e-17  1.0058e-22  3.1022e-17  1.0061e-22  3.1028e-17  1.0066e-22  3.1038e-17  1.0076e-22  3.1057e-17  1.0093e-22  3.1091e-17  1.0124e-22  3.1152e-17  1.0178e-22  3.1259e-17  1.0276e-22  3.1450e-17  1.0450e-22  3.1789e-17  1.0764e-22  3.2393e-17  1.1332e-22  3.3466e-17  1.2374e-22  3.5374e-17  1.4330e-22  3.8767e-17
      7.95  1.0054e-22  3.4798e-17  1.0054e-22  3.4799e-17  1.0054e-22  3.4799e-17  1.0054e-22  3.4800e-17  1.0055e-22  3.4801e-17  1.0056e-22  3.4803e-17  1.0058e-22  3.4807e-17  1.0061e-22  3.4814e-17  1.0066e-22  3.4826e-17  1.0075e-22  3.4847e-17  1.0092e-22  3.4885e-17  1.0121e-22  3.4953e-17  1.0174e-22  3.5073e-17  1.0268e-22  3.5287e-17  1.0436e-22  3.5668e-17  1.0738e-22  3.6345e-17  1.1283e-22  3.7549e-17  1.2283e-22  3.9690e-17  1.4154e-22  4.3497e-17
      8.00  1.0054e-22  3.9044e-17  1.0054e-22  3.9045e-17  1.0054e-22  3.9045e-17  1.0054e-22  3.9046e-17  1.0055e-22  3.9047e-17  1.0056e-22  3.9050e-17  1.0057e-22  3.9054e-17  1.0060e-22  3.9062e-17  1.0065e-22  3.9075e-17  1.0074e-22  3.9099e-17  1.0090e-22  3.9142e-17  1.0119e-22  3.9218e-17  1.0170e-22  3.9353e-17  1.0261e-22  3.9593e-17  1.0423e-22  4.0020e-17  1.0714e-22  4.0780e-17  1.1239e-22  4.2131e-17  1.2201e-22  4.4533e-17  1.3993e-22  4.8805e-17
      8.05  1.0054e-22  4.3809e-17  1.0054e-22  4.3809e-17  1.0054e-22  4.3809e-17  1.0054e-22  4.3810e-17  1.0055e-22  4.3812e-17  1.0056e-22  4.3814e-17  1.0057e-22  4.3819e-17  1.0060e-22  4.3828e-17  1.0065e-22  4.3843e-17  1.0074e-22  4.3870e-17  1.0089e-22  4.3918e-17  1.0117e-22  4.4003e-17  1.0166e-22  4.4155e-17  1.0254e-22  4.4424e-17  1.0411e-22  4.4903e-17  1.0692e-22  4.5756e-17  1.1199e-22  4.7271e-17  1.2125e-22  4.9967e-17  1.3847e-22  5.4760e-17
      8.10  1.0054e-22  4.9154e-17  1.0054e-22  4.9154e-17  1.0054e-22  4.9155e-17  1.0054e-22  4.9156e-17  1.0055e-22  4.9158e-17  1.0056e-22  4.9161e-17  1.0057e-22  4.9166e-17  1.0060e-22  4.9176e-17  1.0065e-22  4.9193e-17  1.0073e-22  4.9223e-17  1.0088e-22  4.9277e-17  1.0115e-22  4.9372e-17  1.0163e-22  4.9542e-17  1.0248e-22  4.9845e-17  1.0400e-22  5.0382e-17  1.0672e-22  5.1339e-17  1.1163e-22  5.3040e-17  1.2057e-22  5.6064e-17  1.3714e-22  6.1442e-17
      8.15  1.0054e-22  5.5152e-17  1.0054e-22  5.5152e-17  1.0054e-22  5.5153e-17  1.0054e-22  5.5154e-17  1.0055e-22  5.5156e-17  1.0056e-22  5.5159e-17  1.0057e-22  5.5165e-17  1.0060e-22  5.5176e-17  1.0064e-22  5.5195e-17  1.0073e-22  5.5229e-17  1.0087e-22  5.5289e-17  1.0113e-22  5.5397e-17  1.0160e-22  5.5587e-17  1.0242e-22  5.5927e-17  1.0390e-22  5.6530e-17  1.0654e-22  5.7603e-17  1.1130e-22  5.9511e-17  1.1995e-22  6.2905e-17  1.3594e-22  6.8939e-17
      8.20  1.0054e-22  6.1881e-17  1.0054e-22  6.1882e-17  1.0054e-22  6.1882e-17  1.0054e-22  6.1884e-17  1.0055e-22  6.1886e-17  1.0056e-22  6.1889e-17  1.0057e-22  6.1896e-17  1.0060e-22  6.1908e-17  1.0064e-22  6.1930e-17  1.0072e-22  6.1968e-17  1.0086e-22  6.2035e-17  1.0112e-22  6.2156e-17  1.0157e-22  6.2370e-17  1.0237e-22  6.2751e-17  1.0381e-22  6.3428e-17  1.0638e-22  6.4632e-17  1.1100e-22  6.6773e-17  1.1939e-22  7.0580e-17  1.3485e-22  7.7351e-17
      8.25  1.0054e-22  6.9432e-17  1.0054e-22  6.9432e-17  1.0054e-22  6.9433e-17  1.0054e-22  6.9434e-17  1.0055e-22  6.9437e-17  1.0056e-22  6.9441e-17  1.0057e-22  6.9449e-17  1.0059e-22  6.9462e-17  1.0064e-22  6.9486e-17  1.0072e-22  6.9529e-17  1.0086e-22  6.9605e-17  1.0110e-22  6.9740e-17  1.0154e-22  6.9980e-17  1.0233e-22  7.0408e-17  1.0373e-22  7.1167e-17  1.0623e-22  7.2518e-17  1.1073e-22  7.4920e-17  1.1889e-22  7.9192e-17  1.3386e-22  8.6789e-17
      8.30  1.0054e-22  7.7904e-17  1.0054e-22  7.7904e-17  1.0054e-22  7.7905e-17  1.0054e-22  7.7907e-17  1.0055e-22  7.7909e-17  1.0056e-22  7.7914e-17  1.0057e-22  7.7923e-17  1.0059e-22  7.7938e-17  1.0064e-22  7.7965e-17  1.0071e-22  7.8013e-17  1.0085e-22  7.8098e-17  1.0109e-22  7.8250e-17  1.0152e-22  7.8519e-17  1.0229e-22  7.8999e-17  1.0365e-22  7.9851e-17  1.0610e-22  8.1367e-17  1.1049e-22  8.4062e-17  1.1843e-22  8.8855e-17  1.3297e-22  9.7379e-17
      8.35  1.0054e-22  8.7410e-17  1.0054e-22  8.7410e-17  1.0054e-22  8.7411e-17  1.0054e-22  8.7413e-17  1.0055e-22  8.7416e-17  1.0055e-22  8.7421e-17  1.0057e-22  8.7431e-17  1.0059e-22  8.7448e-17  1.0063e-22  8.7478e-17  1.0071e-22  8.7532e-17  1.0084e-22  8.7627e-17  1.0108e-22  8.7798e-17  1.0150e-22  8.8100e-17  1.0225e-22  8.8638e-17  1.0359e-22  8.9594e-17  1.0598e-22  9.1295e-17  1.1027e-22  9.4319e-17  1.1802e-22  9.9698e-17  1.3217e-22  1.0926e-16
      8.40  1.0054e-22  9.8075e-17  1.0054e-22  9.8076e-17  1.0054e-22  9.8077e-17  1.0054e-22  9.8079e-17  1.0055e-22  9.8082e-17  1.0055e-22  9.8088e-17  1.0057e-22  9.8099e-17  1.0059e-22  9.8118e-17  1.0063e-22  9.8152e-17  1.0071e-22  9.8212e-17  1.0084e-22  9.8320e-17  1.0107e-22  9.8510e-17  1.0148e-22  9.8850e-17  1.0222e-22  9.9453e-17  1.0353e-22  1.0053e-16  1.0587e-22  1.0243e-16  1.1007e-22  1.0583e-16  1.1765e-22  1.1186e-16  1.3145e-22  1.2259e-16
      8.45  1.0054e-22  1.1004e-16  1.0054e-22  1.1004e-16  1.0054e-22  1.1004e-16  1.0054e-22  1.1005e-16  1.0055e-22  1.1005e-16  1.0055e-22  1.1006e-16  1.0057e-22  1.1007e-16  1.0059e-22  1.1009e-16  1.0063e-22  1.1013e-16  1.0070e-22  1.1020e-16  1.0083e-22  1.1032e-16  1.0106e-22  1.1053e-16  1.0146e-22  1.1091e-16  1.0219e-22  1.1159e-16  1.0347e-22  1.1279e-16  1.0577e-22  1.1493e-16  1.0989e-22  1.1874e-16  1.1731e-22  1.2551e-16  1.3080e-22  1.3755e-16
      8.50  1.0054e-22  1.2347e-16  1.0054e-22  1.2347e-16  1.0054e-22  1.2347e-16  1.0054e-22  1.2347e-16  1.0055e-22  1.2348e-16  1.0055e-22  1.2349e-16  1.0057e-22  1.2350e-16  1.0059e-22  1.2352e-16  1.0063e-22  1.2357e-16  1.0070e-22  1.2364e-16  1.0083e-22  1.2378e-16  1.0105e-22  1.2402e-16  1.0145e-22  1.2444e-16  1.0216e-22  1.2520e-16  1.0343e-22  1.2656e-16  1.0569e-22  1.2896e-16  1.0973e-22  1.3323e-16  1.1701e-22  1.4083e-16  1.3022e-22  1.5434e-16
