# This was generated using Cloudy10 and the columns are ordered 
# as log10 of the fraction of the metallicity to the solar metallicity
# 'h_*_Z' and 'c_*_Z' stands for cooling and heating respectively 
# at * metalicity
#
# NOTE: This was generated separately from loop_coolingcurve_w_UV.py
#       using Output_metals_w_redshift.py.
#
# Redshift = 2.0
# hden = -2.5
#
#     temp   h_-3.00_Z   c_-3.00_Z   h_-2.75_Z   c_-2.75_Z   h_-2.50_Z   c_-2.50_Z   h_-2.25_Z   c_-2.25_Z   h_-2.00_Z   c_-2.00_Z   h_-1.75_Z   c_-1.75_Z   h_-1.50_Z   c_-1.50_Z   h_-1.25_Z   c_-1.25_Z   h_-1.00_Z   c_-1.00_Z   h_-0.75_Z   c_-0.75_Z   h_-0.50_Z   c_-0.50_Z   h_-0.25_Z   c_-0.25_Z    h_0.00_Z    c_0.00_Z    h_0.25_Z    c_0.25_Z    h_0.50_Z    c_0.50_Z    h_0.75_Z    c_0.75_Z    h_1.00_Z    c_1.00_Z    h_1.25_Z    c_1.25_Z    h_1.50_Z    c_1.50_Z 
      1.00  2.5032e-22  4.8876e-26  2.5032e-22  4.8876e-26  2.5032e-22  4.8878e-26  2.5033e-22  4.8880e-26  2.5035e-22  4.8884e-26  2.5038e-22  4.8891e-26  2.5044e-22  4.8903e-26  2.5054e-22  4.8925e-26  2.5071e-22  4.8965e-26  2.5102e-22  4.9035e-26  2.5157e-22  4.9160e-26  2.5255e-22  4.9383e-26  2.5429e-22  4.9779e-26  2.5739e-22  5.0484e-26  2.6291e-22  5.1743e-26  2.7272e-22  5.3993e-26  2.9020e-22  5.8034e-26  3.2138e-22  6.5344e-26  3.7729e-22  7.8733e-26
      1.05  2.3630e-22  5.2268e-26  2.3630e-22  5.2270e-26  2.3631e-22  5.2272e-26  2.3632e-22  5.2276e-26  2.3634e-22  5.2284e-26  2.3636e-22  5.2297e-26  2.3642e-22  5.2320e-26  2.3651e-22  5.2362e-26  2.3668e-22  5.2436e-26  2.3697e-22  5.2567e-26  2.3750e-22  5.2802e-26  2.3844e-22  5.3218e-26  2.4010e-22  5.3960e-26  2.4307e-22  5.5282e-26  2.4834e-22  5.7642e-26  2.5772e-22  6.1864e-26  2.7443e-22  6.9456e-26  3.0426e-22  8.3223e-26  3.5775e-22  1.0854e-25
      1.10  2.2296e-22  5.5756e-26  2.2297e-22  5.5759e-26  2.2297e-22  5.5763e-26  2.2298e-22  5.5770e-26  2.2300e-22  5.5784e-26  2.2303e-22  5.5807e-26  2.2308e-22  5.5850e-26  2.2317e-22  5.5924e-26  2.2333e-22  5.6058e-26  2.2361e-22  5.6295e-26  2.2411e-22  5.6716e-26  2.2501e-22  5.7467e-26  2.2661e-22  5.8803e-26  2.2944e-22  6.1184e-26  2.3449e-22  6.5435e-26  2.4348e-22  7.3048e-26  2.5948e-22  8.6752e-26  2.8807e-22  1.1165e-25  3.3934e-22  1.5757e-25
      1.15  2.1029e-22  5.9347e-26  2.1029e-22  5.9351e-26  2.1029e-22  5.9358e-26  2.1030e-22  5.9371e-26  2.1032e-22  5.9394e-26  2.1034e-22  5.9434e-26  2.1039e-22  5.9507e-26  2.1048e-22  5.9635e-26  2.1063e-22  5.9863e-26  2.1090e-22  6.0270e-26  2.1139e-22  6.0993e-26  2.1225e-22  6.2280e-26  2.1378e-22  6.4572e-26  2.1651e-22  6.8657e-26  2.2135e-22  7.5951e-26  2.2998e-22  8.9020e-26  2.4534e-22  1.1257e-25  2.7279e-22  1.5540e-25  3.2204e-22  2.3461e-25
      1.20  1.9824e-22  6.3047e-26  1.9825e-22  6.3054e-26  1.9825e-22  6.3065e-26  1.9826e-22  6.3086e-26  1.9827e-22  6.3124e-26  1.9830e-22  6.3190e-26  1.9835e-22  6.3308e-26  1.9843e-22  6.3517e-26  1.9858e-22  6.3890e-26  1.9884e-22  6.4553e-26  1.9931e-22  6.5732e-26  2.0013e-22  6.7831e-26  2.0161e-22  7.1569e-26  2.0423e-22  7.8233e-26  2.0889e-22  9.0136e-26  2.1719e-22  1.1147e-25  2.3198e-22  1.4993e-25  2.5839e-22  2.1997e-25  3.0579e-22  3.4975e-25
      1.25  1.8682e-22  6.6865e-26  1.8682e-22  6.6875e-26  1.8682e-22  6.6894e-26  1.8683e-22  6.6926e-26  1.8685e-22  6.6984e-26  1.8687e-22  6.7088e-26  1.8692e-22  6.7271e-26  1.8700e-22  6.7598e-26  1.8714e-22  6.8178e-26  1.8739e-22  6.9211e-26  1.8784e-22  7.1047e-26  1.8864e-22  7.4317e-26  1.9006e-22  8.0139e-26  1.9259e-22  9.0519e-26  1.9708e-22  1.0906e-25  2.0509e-22  1.4231e-25  2.1935e-22  2.0227e-25  2.4483e-22  3.1156e-25  2.9055e-22  5.1435e-25
      1.30  1.7599e-22  7.0817e-26  1.7599e-22  7.0833e-26  1.7599e-22  7.0860e-26  1.7600e-22  7.0909e-26  1.7601e-22  7.0996e-26  1.7604e-22  7.1150e-26  1.7608e-22  7.1425e-26  1.7616e-22  7.1913e-26  1.7630e-22  7.2781e-26  1.7654e-22  7.4325e-26  1.7698e-22  7.7073e-26  1.7775e-22  8.1963e-26  1.7912e-22  9.0672e-26  1.8156e-22  1.0620e-25  1.8591e-22  1.3394e-25  1.9364e-22  1.8369e-25  2.0742e-22  2.7344e-25  2.3204e-22  4.3712e-25  2.7623e-22  7.4107e-25
      1.35  1.6573e-22  7.4904e-26  1.6573e-22  7.4926e-26  1.6573e-22  7.4966e-26  1.6574e-22  7.5036e-26  1.6575e-22  7.5162e-26  1.6578e-22  7.5385e-26  1.6582e-22  7.5781e-26  1.6589e-22  7.6487e-26  1.6603e-22  7.7742e-26  1.6626e-22  7.9973e-26  1.6668e-22  8.3944e-26  1.6743e-22  9.1011e-26  1.6876e-22  1.0360e-25  1.7112e-22  1.2604e-25  1.7533e-22  1.6614e-25  1.8281e-22  2.3803e-25  1.9614e-22  3.6777e-25  2.1998e-22  6.0441e-25  2.6275e-22  1.0440e-24
      1.40  1.5601e-22  7.9133e-26  1.5601e-22  7.9164e-26  1.5602e-22  7.9220e-26  1.5603e-22  7.9319e-26  1.5604e-22  7.9495e-26  1.5606e-22  7.9808e-26  1.5610e-22  8.0366e-26  1.5618e-22  8.1357e-26  1.5630e-22  8.3119e-26  1.5653e-22  8.6255e-26  1.5694e-22  9.1833e-26  1.5766e-22  1.0176e-25  1.5895e-22  1.1944e-25  1.6124e-22  1.5096e-25  1.6531e-22  2.0729e-25  1.7256e-22  3.0828e-25  1.8548e-22  4.9049e-25  2.0858e-22  8.2281e-25  2.5003e-22  1.4401e-24
      1.45  1.4683e-22  8.3513e-26  1.4683e-22  8.3556e-26  1.4683e-22  8.3632e-26  1.4684e-22  8.3768e-26  1.4685e-22  8.4010e-26  1.4687e-22  8.4441e-26  1.4691e-22  8.5206e-26  1.4698e-22  8.6567e-26  1.4711e-22  8.8987e-26  1.4733e-22  9.3293e-26  1.4772e-22  1.0095e-25  1.4843e-22  1.1459e-25  1.4968e-22  1.3886e-25  1.5189e-22  1.8215e-25  1.5584e-22  2.5948e-25  1.6287e-22  3.9812e-25  1.7540e-22  6.4820e-25  1.9779e-22  1.1041e-24  2.3799e-22  1.9503e-24
      1.50  1.3814e-22  8.8053e-26  1.3815e-22  8.8111e-26  1.3815e-22  8.8214e-26  1.3816e-22  8.8397e-26  1.3817e-22  8.8724e-26  1.3819e-22  8.9304e-26  1.3823e-22  9.0336e-26  1.3830e-22  9.2171e-26  1.3842e-22  9.5435e-26  1.3863e-22  1.0124e-25  1.3901e-22  1.1157e-25  1.3970e-22  1.2995e-25  1.4091e-22  1.6269e-25  1.4306e-22  2.2105e-25  1.4689e-22  3.2531e-25  1.5370e-22  5.1217e-25  1.6585e-22  8.4908e-25  1.8757e-22  1.4629e-24  2.2656e-22  2.6008e-24
      1.55  1.2994e-22  9.2777e-26  1.2994e-22  9.2854e-26  1.2995e-22  9.2991e-26  1.2995e-22  9.3235e-26  1.2997e-22  9.3669e-26  1.2999e-22  9.4440e-26  1.3002e-22  9.5812e-26  1.3009e-22  9.8251e-26  1.3021e-22  1.0259e-25  1.3042e-22  1.1030e-25  1.3079e-22  1.2403e-25  1.3145e-22  1.4846e-25  1.3262e-22  1.9196e-25  1.3471e-22  2.6951e-25  1.3842e-22  4.0800e-25  1.4502e-22  6.5617e-25  1.5681e-22  1.1034e-24  1.7787e-22  1.9174e-24  2.1570e-22  3.4241e-24
      1.60  1.2220e-22  9.7680e-26  1.2220e-22  9.7782e-26  1.2221e-22  9.7962e-26  1.2221e-22  9.8282e-26  1.2223e-22  9.8851e-26  1.2225e-22  9.9864e-26  1.2228e-22  1.0166e-25  1.2235e-22  1.0487e-25  1.2246e-22  1.1056e-25  1.2266e-22  1.2069e-25  1.2302e-22  1.3871e-25  1.2366e-22  1.7079e-25  1.2480e-22  2.2789e-25  1.2682e-22  3.2968e-25  1.3042e-22  5.1144e-25  1.3682e-22  8.3701e-25  1.4824e-22  1.4234e-24  1.6866e-22  2.4895e-24  2.0534e-22  4.4596e-24
      1.65  1.1490e-22  1.0277e-25  1.1490e-22  1.0290e-25  1.1491e-22  1.0314e-25  1.1491e-22  1.0355e-25  1.1492e-22  1.0429e-25  1.1494e-22  1.0561e-25  1.1498e-22  1.0795e-25  1.1504e-22  1.1211e-25  1.1515e-22  1.1951e-25  1.1535e-22  1.3267e-25  1.1569e-22  1.5608e-25  1.1631e-22  1.9774e-25  1.1742e-22  2.7192e-25  1.1938e-22  4.0413e-25  1.2286e-22  6.4015e-25  1.2906e-22  1.0628e-24  1.4013e-22  1.8235e-24  1.5991e-22  3.2052e-24  1.9547e-22  5.7537e-24
      1.70  1.0802e-22  1.0806e-25  1.0802e-22  1.0823e-25  1.0802e-22  1.0853e-25  1.0803e-22  1.0907e-25  1.0804e-22  1.1002e-25  1.0806e-22  1.1171e-25  1.0809e-22  1.1472e-25  1.0815e-22  1.2008e-25  1.0826e-22  1.2960e-25  1.0845e-22  1.4653e-25  1.0878e-22  1.7666e-25  1.0938e-22  2.3027e-25  1.1045e-22  3.2572e-25  1.1235e-22  4.9581e-25  1.1572e-22  7.9941e-25  1.2173e-22  1.3429e-24  1.3244e-22  2.3205e-24  1.5161e-22  4.0944e-24  1.8605e-22  7.3608e-24
      1.75  1.0153e-22  1.1356e-25  1.0153e-22  1.1378e-25  1.0153e-22  1.1416e-25  1.0154e-22  1.1485e-25  1.0155e-22  1.1606e-25  1.0157e-22  1.1822e-25  1.0160e-22  1.2206e-25  1.0166e-22  1.2889e-25  1.0176e-22  1.4104e-25  1.0195e-22  1.6264e-25  1.0227e-22  2.0107e-25  1.0285e-22  2.6946e-25  1.0389e-22  3.9121e-25  1.0572e-22  6.0815e-25  1.0899e-22  9.9531e-25  1.1480e-22  1.6881e-24  1.2517e-22  2.9338e-24  1.4372e-22  5.1922e-24  1.7707e-22  9.3443e-24
      1.80  9.5419e-23  1.1932e-25  9.5421e-23  1.1959e-25  9.5424e-23  1.2008e-25  9.5430e-23  1.2094e-25  9.5440e-23  1.2248e-25  9.5458e-23  1.2521e-25  9.5489e-23  1.3007e-25  9.5545e-23  1.3871e-25  9.5645e-23  1.5408e-25  9.5823e-23  1.8141e-25  9.6139e-23  2.3004e-25  9.6701e-23  3.1657e-25  9.7700e-23  4.7060e-25  9.9476e-23  7.4505e-25  1.0263e-22  1.2348e-24  1.0825e-22  2.1110e-24  1.1828e-22  3.6857e-24  1.3623e-22  6.5385e-24  1.6849e-22  1.1777e-23
      1.85  8.9668e-23  1.2531e-25  8.9670e-23  1.2565e-25  8.9673e-23  1.2626e-25  8.9679e-23  1.2734e-25  8.9688e-23  1.2927e-25  8.9706e-23  1.3270e-25  8.9736e-23  1.3880e-25  8.9790e-23  1.4965e-25  8.9887e-23  1.6895e-25  9.0059e-23  2.0326e-25  9.0364e-23  2.6431e-25  9.0908e-23  3.7293e-25  9.1873e-23  5.6629e-25  9.3590e-23  9.1079e-25  9.6641e-23  1.5255e-24  1.0207e-22  2.6250e-24  1.1177e-22  4.6006e-24  1.2912e-22  8.1778e-24  1.6032e-22  1.4741e-23
      1.90  8.4258e-23  1.3154e-25  8.4259e-23  1.3197e-25  8.4262e-23  1.3273e-25  8.4267e-23  1.3408e-25  8.4277e-23  1.3648e-25  8.4293e-23  1.4076e-25  8.4323e-23  1.4835e-25  8.4375e-23  1.6187e-25  8.4469e-23  1.8590e-25  8.4635e-23  2.2863e-25  8.4930e-23  3.0466e-25  8.5455e-23  4.3994e-25  8.6388e-23  6.8076e-25  8.8046e-23  1.1098e-24  9.0995e-23  1.8753e-24  9.6241e-23  3.2444e-24  1.0561e-22  5.7040e-24  1.2238e-22  1.0156e-23  1.5254e-22  1.8320e-23
      1.95  7.9169e-23  1.3804e-25  7.9170e-23  1.3857e-25  7.9173e-23  1.3951e-25  7.9178e-23  1.4118e-25  7.9187e-23  1.4415e-25  7.9203e-23  1.4942e-25  7.9232e-23  1.5880e-25  7.9282e-23  1.7549e-25  7.9373e-23  2.0517e-25  7.9533e-23  2.5795e-25  7.9818e-23  3.5184e-25  8.0326e-23  5.1891e-25  8.1227e-23  8.1631e-25  8.2829e-23  1.3462e-24  8.5678e-23  2.2915e-24  9.0747e-23  3.9822e-24  9.9803e-23  7.0194e-24  1.1601e-22  1.2517e-23  1.4515e-22  2.2594e-23
      2.00  7.4384e-23  1.4482e-25  7.4385e-23  1.4547e-25  7.4388e-23  1.4662e-25  7.4393e-23  1.4866e-25  7.4402e-23  1.5229e-25  7.4417e-23  1.5874e-25  7.4445e-23  1.7022e-25  7.4494e-23  1.9064e-25  7.4581e-23  2.2695e-25  7.4736e-23  2.9153e-25  7.5011e-23  4.0641e-25  7.5501e-23  6.1082e-25  7.6371e-23  9.7471e-25  7.7919e-23  1.6230e-24  8.0669e-23  2.7796e-24  8.5563e-23  4.8485e-24  9.4308e-23  8.5649e-24  1.0996e-22  1.5292e-23  1.3811e-22  2.7626e-23
      2.05  6.9887e-23  1.5194e-25  6.9889e-23  1.5272e-25  6.9891e-23  1.5411e-25  6.9896e-23  1.5658e-25  6.9904e-23  1.6098e-25  6.9919e-23  1.6879e-25  6.9946e-23  1.8269e-25  6.9993e-23  2.0741e-25  7.0077e-23  2.5137e-25  7.0227e-23  3.2957e-25  7.0493e-23  4.6866e-25  7.0966e-23  7.1616e-25  7.1806e-23  1.1567e-24  7.3300e-23  1.9417e-24  7.5955e-23  3.3423e-24  8.0679e-23  5.8475e-24  8.9121e-23  1.0349e-23  1.0423e-22  1.8498e-23  1.3141e-22  3.3443e-23
      2.10  6.5663e-23  1.5936e-25  6.5664e-23  1.6029e-25  6.5667e-23  1.6196e-25  6.5671e-23  1.6492e-25  6.5679e-23  1.7018e-25  6.5694e-23  1.7953e-25  6.5720e-23  1.9616e-25  6.5765e-23  2.2575e-25  6.5846e-23  2.7836e-25  6.5991e-23  3.7193e-25  6.6248e-23  5.3839e-25  6.6704e-23  8.3458e-25  6.7515e-23  1.3619e-24  6.8958e-23  2.3013e-24  7.1521e-23  3.9776e-24  7.6082e-23  6.9765e-24  8.4230e-23  1.2366e-23  9.8817e-23  2.2126e-23  1.2506e-22  4.0035e-23
      2.15  6.1695e-23  1.6710e-25  6.1697e-23  1.6821e-25  6.1699e-23  1.7017e-25  6.1704e-23  1.7367e-25  6.1711e-23  1.7988e-25  6.1725e-23  1.9093e-25  6.1750e-23  2.1059e-25  6.1794e-23  2.4554e-25  6.1873e-23  3.0771e-25  6.2012e-23  4.1828e-25  6.2260e-23  6.1497e-25  6.2701e-23  9.6497e-25  6.3484e-23  1.5881e-24  6.4877e-23  2.6982e-24  6.7352e-23  4.6794e-24  7.1756e-23  8.2240e-24  7.9621e-23  1.4595e-23  9.3704e-23  2.6139e-23  1.1904e-22  4.7337e-23
      2.20  5.7970e-23  1.7517e-25  5.7972e-23  1.7646e-25  5.7974e-23  1.7875e-25  5.7978e-23  1.8283e-25  5.7986e-23  1.9007e-25  5.7999e-23  2.0296e-25  5.8023e-23  2.2587e-25  5.8066e-23  2.6663e-25  5.8142e-23  3.3910e-25  5.8276e-23  4.6802e-25  5.8516e-23  6.9734e-25  5.8941e-23  1.1054e-24  5.9698e-23  1.8319e-24  6.1043e-23  3.1263e-24  6.3433e-23  5.4365e-24  6.7686e-23  9.5706e-24  7.5279e-23  1.7004e-23  8.8877e-23  3.0477e-23  1.1335e-22  5.5239e-23
      2.25  5.4474e-23  1.8359e-25  5.4475e-23  1.8507e-25  5.4477e-23  1.8771e-25  5.4482e-23  1.9239e-25  5.4489e-23  2.0073e-25  5.4502e-23  2.1554e-25  5.4525e-23  2.4189e-25  5.4566e-23  2.8875e-25  5.4639e-23  3.7210e-25  5.4769e-23  5.2033e-25  5.5001e-23  7.8404e-25  5.5412e-23  1.2533e-24  5.6143e-23  2.0887e-24  5.7441e-23  3.5774e-24  5.9750e-23  6.2345e-24  6.3858e-23  1.0990e-23  7.1189e-23  1.9543e-23  8.4322e-23  3.5056e-23  1.0795e-22  6.3589e-23
      2.30  5.1192e-23  1.9244e-25  5.1194e-23  1.9412e-25  5.1196e-23  1.9711e-25  5.1200e-23  2.0243e-25  5.1207e-23  2.1188e-25  5.1220e-23  2.2868e-25  5.1242e-23  2.5857e-25  5.1282e-23  3.1172e-25  5.1352e-23  4.0625e-25  5.1478e-23  5.7438e-25  5.1701e-23  8.7348e-25  5.2099e-23  1.4057e-24  5.2805e-23  2.3534e-24  5.4060e-23  4.0421e-24  5.6290e-23  7.0565e-24  6.0258e-23  1.2453e-23  6.7339e-23  2.2161e-23  8.0024e-23  3.9778e-23  1.0285e-22  7.2212e-23
      2.35  4.8113e-23  2.0167e-25  4.8115e-23  2.0355e-25  4.8117e-23  2.0689e-25  4.8121e-23  2.1284e-25  4.8128e-23  2.2341e-25  4.8140e-23  2.4222e-25  4.8161e-23  2.7566e-25  4.8200e-23  3.3513e-25  4.8268e-23  4.4091e-25  4.8389e-23  6.2905e-25  4.8605e-23  9.6374e-25  4.8989e-23  1.5593e-24  4.9672e-23  2.6198e-24  5.0885e-23  4.5097e-24  5.3040e-23  7.8835e-24  5.6875e-23  1.3924e-23  6.3716e-23  2.4795e-23  7.5974e-23  4.4534e-23  9.8029e-23  8.0907e-23
      2.40  4.5225e-23  2.1127e-25  4.5226e-23  2.1335e-25  4.5228e-23  2.1705e-25  4.5232e-23  2.2361e-25  4.5238e-23  2.3530e-25  4.5250e-23  2.5607e-25  4.5271e-23  2.9301e-25  4.5308e-23  3.5871e-25  4.5374e-23  4.7556e-25  4.5492e-23  6.8339e-25  4.5701e-23  1.0531e-24  4.6072e-23  1.7111e-24  4.6732e-23  2.8826e-24  4.7904e-23  4.9706e-24  4.9989e-23  8.6984e-24  5.3697e-23  1.5374e-23  6.0308e-23  2.7392e-23  7.2156e-23  4.9225e-23  9.3475e-23  8.9493e-23
      2.45  4.2515e-23  2.2128e-25  4.2516e-23  2.2355e-25  4.2518e-23  2.2758e-25  4.2522e-23  2.3475e-25  4.2528e-23  2.4751e-25  4.2540e-23  2.7018e-25  4.2560e-23  3.1051e-25  4.2596e-23  3.8222e-25  4.2660e-23  5.0977e-25  4.2773e-23  7.3664e-25  4.2975e-23  1.1402e-24  4.3334e-23  1.8585e-24  4.3973e-23  3.1374e-24  4.5107e-23  5.4168e-24  4.7124e-23  9.4869e-24  5.0710e-23  1.6777e-23  5.7103e-23  2.9905e-23  6.8560e-23  5.3766e-23  8.9174e-23  9.7816e-23
      2.50  3.9973e-23  2.3171e-25  3.9975e-23  2.3416e-25  3.9976e-23  2.3851e-25  3.9980e-23  2.4625e-25  3.9986e-23  2.6002e-25  3.9997e-23  2.8450e-25  4.0017e-23  3.2804e-25  4.0052e-23  4.0547e-25  4.0113e-23  5.4318e-25  4.0223e-23  7.8812e-25  4.0419e-23  1.2239e-24  4.0766e-23  1.9994e-24  4.1384e-23  3.3802e-24  4.2482e-23  5.8416e-24  4.4434e-23  1.0237e-23  4.7905e-23  1.8110e-23  5.4090e-23  3.2293e-23  6.5176e-23  5.8086e-23  8.5119e-23  1.0574e-22
      2.55  3.7589e-23  2.4269e-25  3.7590e-23  2.4531e-25  3.7592e-23  2.4996e-25  3.7596e-23  2.5824e-25  3.7602e-23  2.7297e-25  3.7612e-23  2.9915e-25  3.7631e-23  3.4571e-25  3.7665e-23  4.2851e-25  3.7725e-23  5.7578e-25  3.7831e-23  8.3774e-25  3.8021e-23  1.3038e-24  3.8358e-23  2.1331e-24  3.8956e-23  3.6099e-24  4.0021e-23  6.2424e-24  4.1912e-23  1.0944e-23  4.5275e-23  1.9367e-23  5.1265e-23  3.4544e-23  6.2003e-23  6.2156e-23  8.1318e-23  1.1321e-22
      2.60  3.5353e-23  2.5412e-25  3.5354e-23  2.5690e-25  3.5356e-23  2.6183e-25  3.5359e-23  2.7061e-25  3.5365e-23  2.8621e-25  3.5375e-23  3.1396e-25  3.5394e-23  3.6331e-25  3.5427e-23  4.5107e-25  3.5485e-23  6.0716e-25  3.5588e-23  8.8480e-25  3.5772e-23  1.3787e-24  3.6098e-23  2.2578e-24  3.6679e-23  3.8231e-24  3.7711e-23  6.6135e-24  3.9546e-23  1.1597e-23  4.2808e-23  2.0527e-23  4.8617e-23  3.6621e-23  5.9026e-23  6.5914e-23  7.7751e-23  1.2012e-22
      2.65  3.3255e-23  2.6603e-25  3.3256e-23  2.6894e-25  3.3258e-23  2.7413e-25  3.3261e-23  2.8336e-25  3.3267e-23  2.9977e-25  3.3277e-23  3.2895e-25  3.3295e-23  3.8083e-25  3.3327e-23  4.7311e-25  3.3383e-23  6.3724e-25  3.3483e-23  9.2917e-25  3.3662e-23  1.4485e-24  3.3979e-23  2.3728e-24  3.4543e-23  4.0188e-24  3.5545e-23  6.9530e-24  3.7327e-23  1.2194e-23  4.0494e-23  2.1586e-23  4.6135e-23  3.8516e-23  5.6238e-23  6.9342e-23  7.4413e-23  1.2641e-22
      2.70  3.1287e-23  2.7842e-25  3.1288e-23  2.8147e-25  3.1290e-23  2.8688e-25  3.1293e-23  2.9652e-25  3.1299e-23  3.1365e-25  3.1308e-23  3.4411e-25  3.1326e-23  3.9828e-25  3.1357e-23  4.9462e-25  3.1412e-23  6.6597e-25  3.1509e-23  9.7076e-25  3.1683e-23  1.5130e-24  3.1991e-23  2.4780e-24  3.2540e-23  4.1965e-24  3.3514e-23  7.2601e-24  3.5246e-23  1.2732e-23  3.8326e-23  2.2540e-23  4.3811e-23  4.0222e-23  5.3629e-23  7.2425e-23  7.1292e-23  1.3208e-22
      2.75  2.9441e-23  2.9132e-25  2.9442e-23  2.9448e-25  2.9444e-23  3.0010e-25  2.9447e-23  3.1009e-25  2.9452e-23  3.2787e-25  2.9461e-23  3.5947e-25  2.9478e-23  4.1568e-25  2.9508e-23  5.1563e-25  2.9562e-23  6.9341e-25  2.9657e-23  1.0096e-24  2.9826e-23  1.5722e-24  3.0126e-23  2.5734e-24  3.0660e-23  4.3564e-24  3.1609e-23  7.5351e-24  3.3296e-23  1.3213e-23  3.6295e-23  2.3390e-23  4.1635e-23  4.1740e-23  5.1190e-23  7.5167e-23  6.8380e-23  1.3711e-22
      2.80  2.7708e-23  3.0493e-25  2.7709e-23  3.0819e-25  2.7711e-23  3.1398e-25  2.7714e-23  3.2430e-25  2.7719e-23  3.4263e-25  2.7728e-23  3.7524e-25  2.7745e-23  4.3323e-25  2.7774e-23  5.3636e-25  2.7826e-23  7.1977e-25  2.7919e-23  1.0460e-24  2.8083e-23  1.6265e-24  2.8376e-23  2.6595e-24  2.8897e-23  4.4990e-24  2.9823e-23  7.7787e-24  3.1468e-23  1.3637e-23  3.4392e-23  2.4138e-23  3.9599e-23  4.3074e-23  4.8911e-23  7.7572e-23  6.5667e-23  1.4151e-22
      2.85  2.6082e-23  3.1908e-25  2.6082e-23  3.2243e-25  2.6084e-23  3.2839e-25  2.6087e-23  3.3897e-25  2.6092e-23  3.5780e-25  2.6101e-23  3.9127e-25  2.6117e-23  4.5081e-25  2.6146e-23  5.5668e-25  2.6197e-23  7.4499e-25  2.6287e-23  1.0799e-24  2.6448e-23  1.6758e-24  2.6734e-23  2.7364e-24  2.7243e-23  4.6250e-24  2.8147e-23  7.9921e-24  2.9753e-23  1.4007e-23  3.2609e-23  2.4788e-23  3.7693e-23  4.4231e-23  4.6783e-23  7.9654e-23  6.3138e-23  1.4532e-22
      2.90  2.4554e-23  3.3383e-25  2.4555e-23  3.3725e-25  2.4557e-23  3.4333e-25  2.4559e-23  3.5415e-25  2.4564e-23  3.7340e-25  2.4573e-23  4.0762e-25  2.4589e-23  4.6847e-25  2.4617e-23  5.7670e-25  2.4667e-23  7.6919e-25  2.4755e-23  1.1116e-24  2.4913e-23  1.7207e-24  2.5193e-23  2.8048e-24  2.5690e-23  4.7354e-24  2.6574e-23  8.1772e-24  2.8145e-23  1.4326e-23  3.0938e-23  2.5346e-23  3.5909e-23  4.5221e-23  4.4793e-23  8.1432e-23  6.0780e-23  1.4856e-22
      2.95  2.3120e-23  3.4919e-25  2.3121e-23  3.5268e-25  2.3122e-23  3.5887e-25  2.3125e-23  3.6989e-25  2.3130e-23  3.8949e-25  2.3138e-23  4.2434e-25  2.3154e-23  4.8630e-25  2.3181e-23  5.9651e-25  2.3230e-23  7.9252e-25  2.3317e-23  1.1412e-24  2.3471e-23  1.7614e-24  2.3745e-23  2.8653e-24  2.4232e-23  4.8312e-24  2.5097e-23  8.3360e-24  2.6635e-23  1.4597e-23  2.9369e-23  2.5819e-23  3.4236e-23  4.6055e-23  4.2929e-23  8.2925e-23  5.8574e-23  1.5127e-22
      3.00  2.1772e-23  3.6525e-25  2.1773e-23  3.6879e-25  2.1774e-23  3.7507e-25  2.1777e-23  3.8626e-25  2.1782e-23  4.0614e-25  2.1790e-23  4.4151e-25  2.1805e-23  5.0439e-25  2.1832e-23  6.1624e-25  2.1880e-23  8.1515e-25  2.1965e-23  1.1690e-24  2.2116e-23  1.7984e-24  2.2384e-23  2.9187e-24  2.2861e-23  4.9138e-24  2.3710e-23  8.4705e-24  2.5217e-23  1.4824e-23  2.7896e-23  2.6212e-23  3.2665e-23  4.6746e-23  4.1179e-23  8.4156e-23  5.6503e-23  1.5349e-22
      3.05  2.0505e-23  3.8235e-25  2.0506e-23  3.8592e-25  2.0507e-23  3.9228e-25  2.0510e-23  4.0360e-25  2.0515e-23  4.2371e-25  2.0523e-23  4.5948e-25  2.0538e-23  5.2309e-25  2.0564e-23  6.3623e-25  2.0611e-23  8.3743e-25  2.0694e-23  1.1953e-24  2.0842e-23  1.8321e-24  2.1106e-23  2.9652e-24  2.1574e-23  4.9832e-24  2.2406e-23  8.5808e-24  2.3885e-23  1.5007e-23  2.6513e-23  2.6525e-23  3.1191e-23  4.7293e-23  3.9540e-23  8.5124e-23  5.4566e-23  1.5523e-22
      3.10  1.9314e-23  4.0000e-25  1.9315e-23  4.0361e-25  1.9316e-23  4.1002e-25  1.9319e-23  4.2143e-25  1.9323e-23  4.4173e-25  1.9331e-23  4.7781e-25  1.9346e-23  5.4198e-25  1.9372e-23  6.5611e-25  1.9418e-23  8.5908e-25  1.9499e-23  1.2201e-24  1.9645e-23  1.8624e-24  1.9903e-23  3.0056e-24  2.0363e-23  5.0412e-24  2.1179e-23  8.6703e-24  2.2630e-23  1.5153e-23  2.5210e-23  2.6771e-23  2.9801e-23  4.7718e-23  3.7994e-23  8.5870e-23  5.2731e-23  1.5656e-22
      3.15  1.8193e-23  4.1872e-25  1.8194e-23  4.2235e-25  1.8195e-23  4.2881e-25  1.8198e-23  4.4029e-25  1.8202e-23  4.6071e-25  1.8210e-23  4.9703e-25  1.8224e-23  5.6161e-25  1.8250e-23  6.7646e-25  1.8295e-23  8.8074e-25  1.8375e-23  1.2441e-24  1.8518e-23  1.8905e-24  1.8772e-23  3.0409e-24  1.9223e-23  5.0896e-24  2.0024e-23  8.7418e-24  2.1448e-23  1.5265e-23  2.3981e-23  2.6956e-23  2.8487e-23  4.8033e-23  3.6527e-23  8.6418e-23  5.0982e-23  1.5752e-22
      3.20  1.7138e-23  4.3840e-25  1.7138e-23  4.4205e-25  1.7140e-23  4.4854e-25  1.7142e-23  4.6007e-25  1.7147e-23  4.8058e-25  1.7155e-23  5.1705e-25  1.7169e-23  5.8191e-25  1.7194e-23  6.9726e-25  1.7238e-23  9.0241e-25  1.7317e-23  1.2673e-24  1.7457e-23  1.9165e-24  1.7706e-23  3.0719e-24  1.8148e-23  5.1293e-24  1.8935e-23  8.7970e-24  2.0333e-23  1.5348e-23  2.2819e-23  2.7088e-23  2.7242e-23  4.8252e-23  3.5132e-23  8.6790e-23  4.9312e-23  1.5816e-22
      3.25  1.6144e-23  4.5889e-25  1.6145e-23  4.6255e-25  1.6146e-23  4.6905e-25  1.6148e-23  4.8061e-25  1.6153e-23  5.0117e-25  1.6160e-23  5.3773e-25  1.6174e-23  6.0274e-25  1.6199e-23  7.1837e-25  1.6242e-23  9.2402e-25  1.6319e-23  1.2898e-24  1.6457e-23  1.9406e-24  1.6701e-23  3.0987e-24  1.7136e-23  5.1611e-24  1.7908e-23  8.8377e-24  1.9280e-23  1.5404e-23  2.1720e-23  2.7172e-23  2.6061e-23  4.8384e-23  3.3804e-23  8.7003e-23  4.7711e-23  1.5851e-22
      3.30  1.5207e-23  4.8062e-25  1.5208e-23  4.8428e-25  1.5209e-23  4.9079e-25  1.5212e-23  5.0236e-25  1.5216e-23  5.2293e-25  1.5224e-23  5.5952e-25  1.5237e-23  6.2459e-25  1.5261e-23  7.4030e-25  1.5304e-23  9.4611e-25  1.5380e-23  1.3122e-24  1.5515e-23  1.9634e-24  1.5755e-23  3.1224e-24  1.6181e-23  5.1864e-24  1.6939e-23  8.8656e-24  1.8286e-23  1.5437e-23  2.0680e-23  2.7212e-23  2.4939e-23  4.8437e-23  3.2537e-23  8.7076e-23  4.6176e-23  1.5860e-22
      3.35  1.4324e-23  5.0322e-25  1.4325e-23  5.0687e-25  1.4326e-23  5.1337e-25  1.4329e-23  5.2493e-25  1.4333e-23  5.4549e-25  1.4340e-23  5.8205e-25  1.4354e-23  6.4706e-25  1.4377e-23  7.6268e-25  1.4419e-23  9.6832e-25  1.4494e-23  1.3341e-24  1.4626e-23  1.9848e-24  1.4861e-23  3.1429e-24  1.5280e-23  5.2051e-24  1.6023e-23  8.8812e-24  1.7345e-23  1.5447e-23  1.9694e-23  2.7212e-23  2.3874e-23  4.8417e-23  3.1328e-23  8.7016e-23  4.4702e-23  1.5846e-22
      3.40  1.3491e-23  5.2669e-25  1.3492e-23  5.3034e-25  1.3493e-23  5.3683e-25  1.3496e-23  5.4836e-25  1.3500e-23  5.6887e-25  1.3507e-23  6.0534e-25  1.3520e-23  6.7020e-25  1.3543e-23  7.8555e-25  1.3584e-23  9.9070e-25  1.3657e-23  1.3556e-24  1.3787e-23  2.0048e-24  1.4018e-23  3.1601e-24  1.4429e-23  5.2174e-24  1.5159e-23  8.8849e-24  1.6456e-23  1.5435e-23  1.8761e-23  2.7172e-23  2.2863e-23  4.8325e-23  3.0177e-23  8.6827e-23  4.3292e-23  1.5808e-22
      3.45  1.2705e-23  5.5108e-25  1.2706e-23  5.5471e-25  1.2707e-23  5.6117e-25  1.2709e-23  5.7266e-25  1.2713e-23  5.9309e-25  1.2720e-23  6.2942e-25  1.2733e-23  6.9403e-25  1.2756e-23  8.0894e-25  1.2796e-23  1.0133e-24  1.2868e-23  1.3768e-24  1.2995e-23  2.0235e-24  1.3222e-23  3.1744e-24  1.3625e-23  5.2238e-24  1.4342e-23  8.8771e-24  1.5615e-23  1.5402e-23  1.7878e-23  2.7093e-23  2.1903e-23  4.8164e-23  2.9082e-23  8.6515e-23  4.1946e-23  1.5748e-22
      3.50  1.1962e-23  5.7639e-25  1.1963e-23  5.8001e-25  1.1964e-23  5.8643e-25  1.1966e-23  5.9786e-25  1.1970e-23  6.1819e-25  1.1977e-23  6.5433e-25  1.1990e-23  7.1861e-25  1.2012e-23  8.3293e-25  1.2052e-23  1.0362e-24  1.2122e-23  1.3979e-24  1.2247e-23  2.0413e-24  1.2470e-23  3.1862e-24  1.2866e-23  5.2252e-24  1.3569e-23  8.8597e-24  1.4819e-23  1.5351e-23  1.7041e-23  2.6983e-23  2.0994e-23  4.7945e-23  2.8042e-23  8.6097e-23  4.0664e-23  1.5669e-22
      3.55  1.1260e-23  6.0331e-25  1.1261e-23  6.0690e-25  1.1262e-23  6.1329e-25  1.1265e-23  6.2466e-25  1.1268e-23  6.4486e-25  1.1275e-23  6.8080e-25  1.1288e-23  7.4470e-25  1.1310e-23  8.5834e-25  1.1348e-23  1.0605e-24  1.1418e-23  1.4200e-24  1.1541e-23  2.0596e-24  1.1759e-23  3.1979e-24  1.2148e-23  5.2248e-24  1.2839e-23  8.8381e-24  1.4067e-23  1.5291e-23  1.6250e-23  2.6855e-23  2.0133e-23  4.7694e-23  2.7056e-23  8.5624e-23  3.9453e-23  1.5580e-22
      3.60  1.0597e-23  6.3125e-25  1.0598e-23  6.3482e-25  1.0599e-23  6.4117e-25  1.0601e-23  6.5248e-25  1.0605e-23  6.7257e-25  1.0612e-23  7.0831e-25  1.0624e-23  7.7186e-25  1.0645e-23  8.8488e-25  1.0683e-23  1.0859e-24  1.0751e-23  1.4434e-24  1.0872e-23  2.0795e-24  1.1087e-23  3.2115e-24  1.1469e-23  5.2273e-24  1.2149e-23  8.8207e-24  1.3356e-23  1.5239e-23  1.5501e-23  2.6739e-23  1.9318e-23  4.7465e-23  2.6122e-23  8.5189e-23  3.8304e-23  1.5499e-22
      3.65  9.9692e-24  6.6025e-25  9.9699e-24  6.6381e-25  9.9711e-24  6.7015e-25  9.9732e-24  6.8141e-25  9.9770e-24  7.0144e-25  9.9837e-24  7.3706e-25  9.9956e-24  8.0040e-25  1.0017e-23  9.1304e-25  1.0054e-23  1.1134e-24  1.0121e-23  1.4697e-24  1.0240e-23  2.1037e-24  1.0451e-23  3.2320e-24  1.0827e-23  5.2412e-24  1.1495e-23  8.8228e-24  1.2682e-23  1.5220e-23  1.4792e-23  2.6683e-23  1.8545e-23  4.7343e-23  2.5236e-23  8.4951e-23  3.7215e-23  1.5455e-22
      3.70  9.3753e-24  6.9029e-25  9.3759e-24  6.9387e-25  9.3771e-24  7.0024e-25  9.3792e-24  7.1155e-25  9.3829e-24  7.3168e-25  9.3895e-24  7.6747e-25  9.4012e-24  8.3111e-25  9.4220e-24  9.4430e-25  9.4590e-24  1.1456e-24  9.5247e-24  1.5037e-24  9.6417e-24  2.1407e-24  9.8496e-24  3.2744e-24  1.0219e-23  5.2933e-24  1.0876e-23  8.8923e-24  1.2044e-23  1.5321e-23  1.4120e-23  2.6841e-23  1.7812e-23  4.7606e-23  2.4395e-23  8.5414e-23  3.6178e-23  1.5541e-22
      3.75  8.8130e-24  7.2147e-25  8.8137e-24  7.2508e-25  8.8148e-24  7.3148e-25  8.8169e-24  7.4288e-25  8.8205e-24  7.6314e-25  8.8270e-24  7.9916e-25  8.8385e-24  8.6324e-25  8.8590e-24  9.7718e-25  8.8954e-24  1.1798e-24  8.9601e-24  1.5403e-24  9.0752e-24  2.1816e-24  9.2799e-24  3.3230e-24  9.6436e-24  5.3554e-24  1.0290e-23  8.9788e-24  1.1439e-23  1.5451e-23  1.3482e-23  2.7050e-23  1.7117e-23  4.7963e-23  2.3595e-23  8.6047e-23  3.5192e-23  1.5658e-22
      3.80  8.2807e-24  7.5484e-25  8.2813e-24  7.5851e-25  8.2825e-24  7.6504e-25  8.2845e-24  7.7664e-25  8.2881e-24  7.9727e-25  8.2944e-24  8.3396e-25  8.3058e-24  8.9921e-25  8.3259e-24  1.0153e-24  8.3618e-24  1.2216e-24  8.4255e-24  1.5888e-24  8.5388e-24  2.2419e-24  8.7402e-24  3.4042e-24  9.0983e-24  5.4742e-24  9.7347e-24  9.1646e-24  1.0866e-23  1.5757e-23  1.2877e-23  2.7573e-23  1.6454e-23  4.8882e-23  2.2832e-23  8.7703e-23  3.4247e-23  1.5965e-22
      3.85  7.7765e-24  7.8947e-25  7.7772e-24  7.9326e-25  7.7783e-24  8.0000e-25  7.7803e-24  8.1199e-25  7.7838e-24  8.3331e-25  7.7900e-24  8.7123e-25  7.8012e-24  9.3865e-25  7.8210e-24  1.0586e-24  7.8563e-24  1.2718e-24  7.9190e-24  1.6512e-24  8.0305e-24  2.3260e-24  8.2288e-24  3.5272e-24  8.5812e-24  5.6662e-24  9.2077e-24  9.4800e-24  1.0321e-23  1.6293e-23  1.2301e-23  2.8509e-23  1.5822e-23  5.0543e-23  2.2100e-23  9.0711e-23  3.3337e-23  1.6523e-22
      3.90  7.2989e-24  8.2550e-25  7.2996e-24  8.2949e-25  7.3006e-24  8.3657e-25  7.3026e-24  8.4917e-25  7.3061e-24  8.7157e-25  7.3122e-24  9.1141e-25  7.3232e-24  9.8226e-25  7.3427e-24  1.1083e-24  7.3774e-24  1.3324e-24  7.4392e-24  1.7310e-24  7.5489e-24  2.4402e-24  7.7440e-24  3.7024e-24  8.0909e-24  5.9504e-24  8.7074e-24  9.9588e-24  9.8033e-24  1.7121e-23  1.1752e-23  2.9964e-23  1.5218e-23  5.3141e-23  2.1397e-23  9.5422e-23  3.2457e-23  1.7396e-22
      3.95  6.8465e-24  8.6351e-25  6.8471e-24  8.6778e-25  6.8482e-24  8.7536e-25  6.8501e-24  8.8885e-25  6.8535e-24  9.1283e-25  6.8596e-24  9.5548e-25  6.8704e-24  1.0313e-24  6.8896e-24  1.1662e-24  6.9237e-24  1.4061e-24  6.9845e-24  1.8328e-24  7.0925e-24  2.5921e-24  7.2845e-24  3.9434e-24  7.6258e-24  6.3501e-24  8.2324e-24  1.0642e-23  9.3109e-24  1.8312e-23  1.1228e-23  3.2069e-23  1.4639e-23  5.6909e-23  2.0720e-23  1.0226e-22  3.1604e-23  1.8662e-22
