# This was generated using Cloudy10 and the columns are ordered 
# as log10 of the fraction of the metallicity to the solar metallicity
# 'h_*_Z' and 'c_*_Z' stands for cooling and heating respectively 
# at * metalicity
#
# NOTE: This was generated separately from loop_coolingcurve_w_UV.py
#       using Output_metals_w_redshift.py.
#
# Redshift = 5.0
# hden = -2.5
#
#     temp   h_-3.00_Z   c_-3.00_Z   h_-2.75_Z   c_-2.75_Z   h_-2.50_Z   c_-2.50_Z   h_-2.25_Z   c_-2.25_Z   h_-2.00_Z   c_-2.00_Z   h_-1.75_Z   c_-1.75_Z   h_-1.50_Z   c_-1.50_Z   h_-1.25_Z   c_-1.25_Z   h_-1.00_Z   c_-1.00_Z   h_-0.75_Z   c_-0.75_Z   h_-0.50_Z   c_-0.50_Z   h_-0.25_Z   c_-0.25_Z    h_0.00_Z    c_0.00_Z    h_0.25_Z    c_0.25_Z    h_0.50_Z    c_0.50_Z    h_0.75_Z    c_0.75_Z    h_1.00_Z    c_1.00_Z    h_1.25_Z    c_1.25_Z    h_1.50_Z    c_1.50_Z 
      1.00  2.0666e-22  3.9699e-26  2.0666e-22  3.9700e-26  2.0666e-22  3.9701e-26  2.0667e-22  3.9703e-26  2.0668e-22  3.9707e-26  2.0669e-22  3.9713e-26  2.0672e-22  3.9725e-26  2.0676e-22  3.9747e-26  2.0685e-22  3.9785e-26  2.0699e-22  3.9852e-26  2.0725e-22  3.9971e-26  2.0771e-22  4.0184e-26  2.0854e-22  4.0563e-26  2.1000e-22  4.1238e-26  2.1261e-22  4.2441e-26  2.1725e-22  4.4589e-26  2.2552e-22  4.8440e-26  2.4028e-22  5.5380e-26  2.6671e-22  6.8016e-26
      1.05  1.9643e-22  4.2266e-26  1.9643e-22  4.2268e-26  1.9643e-22  4.2270e-26  1.9644e-22  4.2275e-26  1.9645e-22  4.2282e-26  1.9646e-22  4.2296e-26  1.9648e-22  4.2320e-26  1.9653e-22  4.2363e-26  1.9661e-22  4.2440e-26  1.9675e-22  4.2576e-26  1.9700e-22  4.2818e-26  1.9745e-22  4.3248e-26  1.9824e-22  4.4015e-26  1.9965e-22  4.5380e-26  2.0216e-22  4.7814e-26  2.0663e-22  5.2163e-26  2.1460e-22  5.9964e-26  2.2882e-22  7.4044e-26  2.5429e-22  9.9736e-26
      1.10  1.8655e-22  4.4957e-26  1.8655e-22  4.4959e-26  1.8655e-22  4.4964e-26  1.8655e-22  4.4972e-26  1.8656e-22  4.4987e-26  1.8658e-22  4.5013e-26  1.8660e-22  4.5059e-26  1.8664e-22  4.5142e-26  1.8672e-22  4.5289e-26  1.8685e-22  4.5550e-26  1.8710e-22  4.6015e-26  1.8753e-22  4.6843e-26  1.8829e-22  4.8315e-26  1.8965e-22  5.0938e-26  1.9207e-22  5.5616e-26  1.9637e-22  6.3977e-26  2.0405e-22  7.8982e-26  2.1776e-22  1.0610e-25  2.4230e-22  1.5566e-25
      1.15  1.7701e-22  4.7773e-26  1.7701e-22  4.7777e-26  1.7702e-22  4.7786e-26  1.7702e-22  4.7801e-26  1.7703e-22  4.7827e-26  1.7704e-22  4.7875e-26  1.7706e-22  4.7959e-26  1.7710e-22  4.8109e-26  1.7718e-22  4.8375e-26  1.7731e-22  4.8848e-26  1.7754e-22  4.9691e-26  1.7795e-22  5.1190e-26  1.7869e-22  5.3857e-26  1.8000e-22  5.8610e-26  1.8233e-22  6.7087e-26  1.8648e-22  8.2245e-26  1.9388e-22  1.0946e-25  2.0708e-22  1.5868e-25  2.3072e-22  2.4879e-25
      1.20  1.6783e-22  5.0718e-26  1.6783e-22  5.0726e-26  1.6783e-22  5.0740e-26  1.6784e-22  5.0766e-26  1.6784e-22  5.0811e-26  1.6785e-22  5.0892e-26  1.6788e-22  5.1036e-26  1.6792e-22  5.1292e-26  1.6799e-22  5.1746e-26  1.6811e-22  5.2555e-26  1.6834e-22  5.3994e-26  1.6874e-22  5.6555e-26  1.6945e-22  6.1112e-26  1.7071e-22  6.9232e-26  1.7295e-22  8.3717e-26  1.7695e-22  1.0962e-25  1.8407e-22  1.5616e-25  1.9679e-22  2.4038e-25  2.1957e-22  3.9476e-25
      1.25  1.5899e-22  5.4521e-26  1.5899e-22  5.4534e-26  1.5899e-22  5.4557e-26  1.5900e-22  5.4598e-26  1.5901e-22  5.4672e-26  1.5902e-22  5.4802e-26  1.5904e-22  5.5035e-26  1.5908e-22  5.5448e-26  1.5915e-22  5.6184e-26  1.5927e-22  5.7491e-26  1.5948e-22  5.9818e-26  1.5987e-22  6.3957e-26  1.6055e-22  7.1326e-26  1.6176e-22  8.4455e-26  1.6393e-22  1.0788e-25  1.6778e-22  1.4978e-25  1.7464e-22  2.2508e-25  1.8689e-22  3.6144e-25  2.0885e-22  6.1167e-25
      1.30  1.5050e-22  5.8708e-26  1.5050e-22  5.8729e-26  1.5051e-22  5.8764e-26  1.5051e-22  5.8828e-26  1.5052e-22  5.8941e-26  1.5053e-22  5.9142e-26  1.5055e-22  5.9499e-26  1.5059e-22  6.0135e-26  1.5065e-22  6.1265e-26  1.5077e-22  6.3275e-26  1.5098e-22  6.6852e-26  1.5135e-22  7.3215e-26  1.5201e-22  8.4544e-26  1.5318e-22  1.0473e-25  1.5526e-22  1.4075e-25  1.5897e-22  2.0519e-25  1.6558e-22  3.2102e-25  1.7739e-22  5.3090e-25  1.9855e-22  9.1640e-25
      1.35  1.4236e-22  6.3012e-26  1.4236e-22  6.3042e-26  1.4236e-22  6.3094e-26  1.4237e-22  6.3188e-26  1.4237e-22  6.3354e-26  1.4238e-22  6.3649e-26  1.4240e-22  6.4174e-26  1.4244e-22  6.5108e-26  1.4250e-22  6.6769e-26  1.4261e-22  6.9722e-26  1.4282e-22  7.4976e-26  1.4317e-22  8.4326e-26  1.4381e-22  1.0097e-25  1.4493e-22  1.3063e-25  1.4694e-22  1.8355e-25  1.5052e-22  2.7826e-25  1.5689e-22  4.4853e-25  1.6827e-22  7.5718e-25  1.8867e-22  1.3245e-24
      1.40  1.3455e-22  6.7439e-26  1.3455e-22  6.7481e-26  1.3456e-22  6.7555e-26  1.3456e-22  6.7687e-26  1.3457e-22  6.7921e-26  1.3458e-22  6.8338e-26  1.3460e-22  6.9079e-26  1.3463e-22  7.0397e-26  1.3469e-22  7.2741e-26  1.3480e-22  7.6910e-26  1.3499e-22  8.4327e-26  1.3534e-22  9.7524e-26  1.3595e-22  1.2102e-25  1.3704e-22  1.6288e-25  1.3897e-22  2.3760e-25  1.4242e-22  3.7131e-25  1.4856e-22  6.1175e-25  1.5953e-22  1.0477e-24  1.7920e-22  1.8496e-24
      1.45  1.2708e-22  7.1996e-26  1.2708e-22  7.2053e-26  1.2709e-22  7.2154e-26  1.2709e-22  7.2333e-26  1.2709e-22  7.2653e-26  1.2711e-22  7.3221e-26  1.2712e-22  7.4231e-26  1.2716e-22  7.6028e-26  1.2722e-22  7.9223e-26  1.2732e-22  8.4907e-26  1.2751e-22  9.5017e-26  1.2784e-22  1.1301e-25  1.2843e-22  1.4504e-25  1.2947e-22  2.0211e-25  1.3134e-22  3.0397e-25  1.3466e-22  4.8628e-25  1.4058e-22  8.1413e-25  1.5116e-22  1.4088e-24  1.7012e-22  2.5027e-24
      1.50  1.1994e-22  7.6689e-26  1.1994e-22  7.6765e-26  1.1994e-22  7.6898e-26  1.1995e-22  7.7136e-26  1.1995e-22  7.7559e-26  1.1996e-22  7.8310e-26  1.1998e-22  7.9647e-26  1.2001e-22  8.2023e-26  1.2007e-22  8.6250e-26  1.2017e-22  9.3769e-26  1.2035e-22  1.0714e-25  1.2067e-22  1.3094e-25  1.2124e-22  1.7332e-25  1.2225e-22  2.4882e-25  1.2404e-22  3.8358e-25  1.2724e-22  6.2477e-25  1.3295e-22  1.0585e-24  1.4314e-22  1.8453e-24  1.6141e-22  3.2931e-24
      1.55  1.1312e-22  8.1538e-26  1.1312e-22  8.1635e-26  1.1312e-22  8.1807e-26  1.1313e-22  8.2114e-26  1.1313e-22  8.2659e-26  1.1314e-22  8.3628e-26  1.1316e-22  8.5353e-26  1.1319e-22  8.8419e-26  1.1325e-22  9.3871e-26  1.1334e-22  1.0357e-25  1.1352e-22  1.2082e-25  1.1382e-22  1.5153e-25  1.1437e-22  2.0619e-25  1.1534e-22  3.0358e-25  1.1707e-22  4.7742e-25  1.2016e-22  7.8853e-25  1.2565e-22  1.3481e-24  1.3547e-22  2.3629e-24  1.5307e-22  4.2302e-24
      1.60  1.0662e-22  8.6540e-26  1.0662e-22  8.6662e-26  1.0662e-22  8.6880e-26  1.0662e-22  8.7268e-26  1.0663e-22  8.7956e-26  1.0664e-22  8.9181e-26  1.0666e-22  9.1359e-26  1.0669e-22  9.5232e-26  1.0674e-22  1.0212e-25  1.0683e-22  1.1437e-25  1.0700e-22  1.3617e-25  1.0729e-22  1.7495e-25  1.0782e-22  2.4400e-25  1.0876e-22  3.6704e-25  1.1042e-22  5.8663e-25  1.1339e-22  9.7961e-25  1.1868e-22  1.6863e-24  1.2813e-22  2.9679e-24  1.4509e-22  5.3252e-24
      1.65  1.0042e-22  9.1703e-26  1.0042e-22  9.1855e-26  1.0043e-22  9.2126e-26  1.0043e-22  9.2607e-26  1.0043e-22  9.3462e-26  1.0044e-22  9.4984e-26  1.0046e-22  9.7689e-26  1.0049e-22  1.0250e-25  1.0054e-22  1.1106e-25  1.0063e-22  1.2628e-25  1.0079e-22  1.5336e-25  1.0107e-22  2.0154e-25  1.0158e-22  2.8731e-25  1.0248e-22  4.4015e-25  1.0408e-22  7.1290e-25  1.0694e-22  1.2010e-24  1.1203e-22  2.0785e-24  1.2112e-22  3.6695e-24  1.3744e-22  6.5948e-24
      1.70  9.4526e-23  9.7035e-26  9.4527e-23  9.7222e-26  9.4529e-23  9.7554e-26  9.4531e-23  9.8144e-26  9.4536e-23  9.9193e-26  9.4545e-23  1.0106e-25  9.4560e-23  1.0438e-25  9.4588e-23  1.1028e-25  9.4636e-23  1.2077e-25  9.4723e-23  1.3944e-25  9.4877e-23  1.7265e-25  9.5150e-23  2.3174e-25  9.5637e-23  3.3694e-25  9.6503e-23  5.2437e-25  9.8044e-23  8.5884e-25  1.0079e-22  1.4573e-24  1.0568e-22  2.5330e-24  1.1443e-22  4.4826e-24  1.3012e-22  8.0647e-24
      1.75  8.8920e-23  1.0255e-25  8.8921e-23  1.0277e-25  8.8923e-23  1.0318e-25  8.8925e-23  1.0389e-25  8.8930e-23  1.0517e-25  8.8938e-23  1.0744e-25  8.8953e-23  1.1147e-25  8.8979e-23  1.1864e-25  8.9026e-23  1.3140e-25  8.9109e-23  1.5409e-25  8.9257e-23  1.9445e-25  8.9520e-23  2.6627e-25  8.9987e-23  3.9413e-25  9.0819e-23  6.2193e-25  9.2300e-23  1.0284e-24  9.4936e-23  1.7555e-24  9.9636e-23  3.0623e-24  1.0804e-22  5.4293e-24  1.2311e-22  9.7751e-24
      1.80  8.3596e-23  1.0827e-25  8.3597e-23  1.0854e-25  8.3599e-23  1.0903e-25  8.3601e-23  1.0990e-25  8.3606e-23  1.1144e-25  8.3614e-23  1.1418e-25  8.3628e-23  1.1905e-25  8.3653e-23  1.2772e-25  8.3698e-23  1.4314e-25  8.3778e-23  1.7057e-25  8.3919e-23  2.1936e-25  8.4172e-23  3.0616e-25  8.4620e-23  4.6069e-25  8.5419e-23  7.3600e-25  8.6839e-23  1.2272e-24  8.9369e-23  2.1057e-24  9.3880e-23  3.6841e-24  1.0194e-22  6.5416e-24  1.1642e-22  1.1783e-23
      1.85  7.8545e-23  1.1419e-25  7.8546e-23  1.1452e-25  7.8547e-23  1.1511e-25  7.8550e-23  1.1615e-25  7.8554e-23  1.1801e-25  7.8562e-23  1.2132e-25  7.8575e-23  1.2719e-25  7.8599e-23  1.3764e-25  7.8642e-23  1.5623e-25  7.8719e-23  1.8928e-25  7.8855e-23  2.4808e-25  7.9097e-23  3.5271e-25  7.9527e-23  5.3895e-25  8.0292e-23  8.7073e-25  8.1654e-23  1.4626e-24  8.4080e-23  2.5211e-24  8.8405e-23  4.4221e-24  9.6136e-23  7.8619e-24  1.1002e-22  1.4166e-23
      1.90  7.3757e-23  1.2032e-25  7.3758e-23  1.2072e-25  7.3759e-23  1.2143e-25  7.3761e-23  1.2269e-25  7.3765e-23  1.2492e-25  7.3773e-23  1.2890e-25  7.3786e-23  1.3598e-25  7.3809e-23  1.4856e-25  7.3850e-23  1.7094e-25  7.3923e-23  2.1074e-25  7.4053e-23  2.8154e-25  7.4285e-23  4.0751e-25  7.4697e-23  6.3174e-25  7.5430e-23  1.0312e-24  7.6735e-23  1.7437e-24  7.9058e-23  3.0176e-24  8.3201e-23  5.3050e-24  9.0610e-23  9.4415e-24  1.0391e-22  1.7015e-23
      1.95  6.9222e-23  1.2668e-25  6.9223e-23  1.2716e-25  6.9224e-23  1.2801e-25  6.9226e-23  1.2952e-25  6.9230e-23  1.3222e-25  6.9237e-23  1.3700e-25  6.9250e-23  1.4552e-25  6.9272e-23  1.6066e-25  6.9311e-23  1.8759e-25  6.9382e-23  2.3548e-25  6.9506e-23  3.2068e-25  6.9728e-23  4.7226e-25  7.0123e-23  7.4207e-25  7.0826e-23  1.2227e-24  7.2076e-23  2.0799e-24  7.4302e-23  3.6124e-24  7.8272e-23  6.3631e-24  8.5372e-23  1.1335e-23  9.8124e-23  2.0431e-23
      2.00  6.4931e-23  1.3327e-25  6.4932e-23  1.3385e-25  6.4933e-23  1.3487e-25  6.4935e-23  1.3669e-25  6.4939e-23  1.3993e-25  6.4946e-23  1.4568e-25  6.4958e-23  1.5592e-25  6.4979e-23  1.7412e-25  6.5017e-23  2.0649e-25  6.5084e-23  2.6406e-25  6.5203e-23  3.6647e-25  6.5415e-23  5.4868e-25  6.5793e-23  8.7300e-25  6.6464e-23  1.4507e-24  6.7659e-23  2.4810e-24  6.9788e-23  4.3226e-24  7.3584e-23  7.6275e-24  8.0373e-23  1.3599e-23  9.2571e-23  2.4515e-23
      2.05  6.0875e-23  1.4016e-25  6.0875e-23  1.4085e-25  6.0877e-23  1.4207e-25  6.0879e-23  1.4425e-25  6.0882e-23  1.4813e-25  6.0889e-23  1.5503e-25  6.0900e-23  1.6730e-25  6.0920e-23  1.8912e-25  6.0956e-23  2.2793e-25  6.1020e-23  2.9694e-25  6.1134e-23  4.1971e-25  6.1337e-23  6.3813e-25  6.1698e-23  1.0269e-24  6.2339e-23  1.7194e-24  6.3480e-23  2.9543e-24  6.5513e-23  5.1616e-24  6.9139e-23  9.1219e-24  7.5624e-23  1.6275e-23  8.7279e-23  2.9345e-23
      2.10  5.7043e-23  1.4730e-25  5.7044e-23  1.4812e-25  5.7045e-23  1.4959e-25  5.7047e-23  1.5219e-25  5.7050e-23  1.5682e-25  5.7056e-23  1.6505e-25  5.7067e-23  1.7968e-25  5.7086e-23  2.0571e-25  5.7121e-23  2.5200e-25  5.7182e-23  3.3434e-25  5.7291e-23  4.8079e-25  5.7484e-23  7.4135e-25  5.7828e-23  1.2051e-24  5.8440e-23  2.0312e-24  5.9530e-23  3.5042e-24  6.1470e-23  6.1370e-24  6.4930e-23  1.0860e-23  7.1121e-23  1.9390e-23  8.2251e-23  3.4969e-23
      2.15  5.3426e-23  1.5472e-25  5.3427e-23  1.5569e-25  5.3428e-23  1.5743e-25  5.3430e-23  1.6051e-25  5.3433e-23  1.6599e-25  5.3439e-23  1.7574e-25  5.3449e-23  1.9308e-25  5.3468e-23  2.2391e-25  5.3501e-23  2.7874e-25  5.3559e-23  3.7626e-25  5.3663e-23  5.4973e-25  5.3847e-23  8.5836e-25  5.4175e-23  1.4077e-24  5.4759e-23  2.3861e-24  5.5798e-23  4.1309e-24  5.7649e-23  7.2491e-24  6.0949e-23  1.2843e-23  6.6856e-23  2.2945e-23  7.7478e-23  4.1391e-23
      2.20  5.0015e-23  1.6242e-25  5.0016e-23  1.6356e-25  5.0017e-23  1.6560e-25  5.0019e-23  1.6922e-25  5.0022e-23  1.7565e-25  5.0027e-23  1.8709e-25  5.0037e-23  2.0745e-25  5.0055e-23  2.4364e-25  5.0086e-23  3.0800e-25  5.0142e-23  4.2247e-25  5.0240e-23  6.2610e-25  5.0416e-23  9.8838e-25  5.0729e-23  1.6332e-24  5.1286e-23  2.7817e-24  5.2276e-23  4.8299e-24  5.4040e-23  8.4902e-24  5.7186e-23  1.5057e-23  6.2818e-23  2.6915e-23  7.2950e-23  4.8569e-23
      2.25  4.6801e-23  1.7041e-25  4.6801e-23  1.7174e-25  4.6802e-23  1.7410e-25  4.6804e-23  1.7831e-25  4.6807e-23  1.8578e-25  4.6812e-23  1.9908e-25  4.6821e-23  2.2272e-25  4.6838e-23  2.6476e-25  4.6868e-23  3.3952e-25  4.6921e-23  4.7249e-25  4.7015e-23  7.0903e-25  4.7183e-23  1.1299e-24  4.7481e-23  1.8789e-24  4.8011e-23  3.2131e-24  4.8954e-23  5.5923e-24  5.0635e-23  9.8445e-24  5.3632e-23  1.7473e-23  5.8998e-23  3.1250e-23  6.8657e-23  5.6413e-23
      2.30  4.3773e-23  1.7878e-25  4.3774e-23  1.8030e-25  4.3774e-23  1.8302e-25  4.3776e-23  1.8785e-25  4.3779e-23  1.9643e-25  4.3784e-23  2.1170e-25  4.3793e-23  2.3885e-25  4.3809e-23  2.8713e-25  4.3837e-23  3.7299e-25  4.3888e-23  5.2571e-25  4.3977e-23  7.9737e-25  4.4137e-23  1.2807e-24  4.4420e-23  2.1410e-24  4.4925e-23  3.6733e-24  4.5823e-23  6.4060e-24  4.7422e-23  1.1290e-23  5.0273e-23  2.0054e-23  5.5381e-23  3.5882e-23  6.4577e-23  6.4799e-23
      2.35  4.0924e-23  1.8745e-25  4.0924e-23  1.8918e-25  4.0925e-23  1.9226e-25  4.0927e-23  1.9774e-25  4.0929e-23  2.0748e-25  4.0934e-23  2.2480e-25  4.0943e-23  2.5560e-25  4.0958e-23  3.1037e-25  4.0985e-23  4.0779e-25  4.1033e-23  5.8104e-25  4.1118e-23  8.8923e-25  4.1270e-23  1.4376e-24  4.1540e-23  2.4135e-24  4.2020e-23  4.1520e-24  4.2875e-23  7.2524e-24  4.4398e-23  1.2794e-23  4.7113e-23  2.2739e-23  5.1977e-23  4.0705e-23  6.0738e-23  7.3537e-23
      2.40  3.8244e-23  1.9645e-25  3.8245e-23  1.9839e-25  3.8246e-23  2.0184e-25  3.8247e-23  2.0798e-25  3.8250e-23  2.1889e-25  3.8254e-23  2.3830e-25  3.8262e-23  2.7282e-25  3.8277e-23  3.3420e-25  3.8302e-23  4.4337e-25  3.8348e-23  6.3754e-25  3.8429e-23  9.8292e-25  3.8574e-23  1.5974e-24  3.8831e-23  2.6912e-24  3.9288e-23  4.6396e-24  4.0101e-23  8.1146e-24  4.1550e-23  1.4326e-23  4.4133e-23  2.5475e-23  4.8764e-23  4.5622e-23  5.7105e-23  8.2454e-23
      2.45  3.5726e-23  2.0577e-25  3.5726e-23  2.0792e-25  3.5727e-23  2.1174e-25  3.5728e-23  2.1854e-25  3.5731e-23  2.3063e-25  3.5735e-23  2.5213e-25  3.5743e-23  2.9036e-25  3.5757e-23  3.5835e-25  3.5781e-23  4.7927e-25  3.5824e-23  6.9434e-25  3.5902e-23  1.0769e-24  3.6039e-23  1.7576e-24  3.6283e-23  2.9692e-24  3.6718e-23  5.1274e-24  3.7492e-23  8.9769e-24  3.8869e-23  1.5859e-23  4.1326e-23  2.8212e-23  4.5730e-23  5.0543e-23  5.3667e-23  9.1388e-23
      2.50  3.3360e-23  2.1542e-25  3.3361e-23  2.1778e-25  3.3361e-23  2.2196e-25  3.3363e-23  2.2941e-25  3.3365e-23  2.4265e-25  3.3369e-23  2.6620e-25  3.3376e-23  3.0807e-25  3.3389e-23  3.8254e-25  3.3413e-23  5.1497e-25  3.3454e-23  7.5052e-25  3.3527e-23  1.1695e-24  3.3658e-23  1.9150e-24  3.3890e-23  3.2421e-24  3.4303e-23  5.6060e-24  3.5038e-23  9.8227e-24  3.6347e-23  1.7362e-23  3.8683e-23  3.0898e-23  4.2869e-23  5.5374e-23  5.0416e-23  1.0017e-22
      2.55  3.1140e-23  2.2553e-25  3.1140e-23  2.2808e-25  3.1141e-23  2.3261e-25  3.1142e-23  2.4068e-25  3.1144e-23  2.5503e-25  3.1148e-23  2.8054e-25  3.1155e-23  3.2591e-25  3.1167e-23  4.0659e-25  3.1190e-23  5.5009e-25  3.1229e-23  8.0530e-25  3.1299e-23  1.2593e-24  3.1423e-23  2.0671e-24  3.1644e-23  3.5049e-24  3.2036e-23  6.0664e-24  3.2735e-23  1.0636e-23  3.3980e-23  1.8807e-23  3.6202e-23  3.3479e-23  4.0183e-23  6.0019e-23  4.7364e-23  1.0862e-22
      2.60  2.9056e-23  2.3598e-25  2.9056e-23  2.3871e-25  2.9057e-23  2.4358e-25  2.9058e-23  2.5223e-25  2.9060e-23  2.6761e-25  2.9064e-23  2.9496e-25  2.9071e-23  3.4361e-25  2.9083e-23  4.3012e-25  2.9104e-23  5.8397e-25  2.9141e-23  8.5760e-25  2.9207e-23  1.3444e-24  2.9325e-23  2.2105e-24  2.9536e-23  3.7522e-24  2.9909e-23  6.4988e-24  3.0574e-23  1.1399e-23  3.1759e-23  2.0162e-23  3.3872e-23  3.5901e-23  3.7661e-23  6.4379e-23  4.4496e-23  1.1656e-22
      2.65  2.7102e-23  2.4679e-25  2.7103e-23  2.4969e-25  2.7103e-23  2.5486e-25  2.7104e-23  2.6404e-25  2.7106e-23  2.8038e-25  2.7110e-23  3.0943e-25  2.7116e-23  3.6109e-25  2.7127e-23  4.5296e-25  2.7147e-23  6.1635e-25  2.7183e-23  9.0696e-25  2.7246e-23  1.4239e-24  2.7359e-23  2.3437e-24  2.7559e-23  3.9812e-24  2.7915e-23  6.8983e-24  2.8548e-23  1.2103e-23  2.9675e-23  2.1412e-23  3.1688e-23  3.8134e-23  3.5295e-23  6.8404e-23  4.1804e-23  1.2390e-22
      2.70  2.5271e-23  2.5796e-25  2.5272e-23  2.6102e-25  2.5272e-23  2.6645e-25  2.5273e-23  2.7612e-25  2.5275e-23  2.9332e-25  2.5279e-23  3.2389e-25  2.5285e-23  3.7827e-25  2.5295e-23  4.7497e-25  2.5314e-23  6.4694e-25  2.5348e-23  9.5283e-25  2.5409e-23  1.4970e-24  2.5516e-23  2.4651e-24  2.5706e-23  4.1887e-24  2.6045e-23  7.2594e-24  2.6649e-23  1.2738e-23  2.7723e-23  2.2539e-23  2.9642e-23  4.0149e-23  3.3079e-23  7.2036e-23  3.9284e-23  1.3053e-22
      2.75  2.3556e-23  2.6950e-25  2.3557e-23  2.7269e-25  2.3557e-23  2.7836e-25  2.3558e-23  2.8846e-25  2.3560e-23  3.0640e-25  2.3563e-23  3.3832e-25  2.3569e-23  3.9508e-25  2.3579e-23  4.9601e-25  2.3597e-23  6.7553e-25  2.3630e-23  9.9482e-25  2.3687e-23  1.5628e-24  2.3790e-23  2.5735e-24  2.3972e-23  4.3726e-24  2.4295e-23  7.5782e-24  2.4871e-23  1.3298e-23  2.5897e-23  2.3531e-23  2.7727e-23  4.1921e-23  3.1008e-23  7.5234e-23  3.6931e-23  1.3638e-22
      2.80  2.1951e-23  2.8158e-25  2.1951e-23  2.8488e-25  2.1952e-23  2.9076e-25  2.1953e-23  3.0121e-25  2.1954e-23  3.1980e-25  2.1958e-23  3.5286e-25  2.1963e-23  4.1164e-25  2.1973e-23  5.1617e-25  2.1990e-23  7.0209e-25  2.2021e-23  1.0328e-24  2.2076e-23  1.6210e-24  2.2174e-23  2.6677e-24  2.2348e-23  4.5311e-24  2.2657e-23  7.8512e-24  2.3208e-23  1.3776e-23  2.4188e-23  2.4376e-23  2.5938e-23  4.3431e-23  2.9074e-23  7.7959e-23  3.4737e-23  1.4138e-22
      2.85  2.0449e-23  2.9405e-25  2.0449e-23  2.9745e-25  2.0449e-23  3.0349e-25  2.0450e-23  3.1423e-25  2.0452e-23  3.3334e-25  2.0455e-23  3.6732e-25  2.0460e-23  4.2775e-25  2.0470e-23  5.3521e-25  2.0486e-23  7.2633e-25  2.0516e-23  1.0663e-24  2.0569e-23  1.6710e-24  2.0662e-23  2.7470e-24  2.0829e-23  4.6626e-24  2.1125e-23  8.0759e-24  2.1652e-23  1.4167e-23  2.2591e-23  2.5067e-23  2.4267e-23  4.4664e-23  2.7270e-23  8.0186e-23  3.2693e-23  1.4547e-22
      2.90  1.9044e-23  3.0693e-25  1.9044e-23  3.1040e-25  1.9044e-23  3.1656e-25  1.9045e-23  3.2753e-25  1.9047e-23  3.4704e-25  1.9050e-23  3.8172e-25  1.9055e-23  4.4341e-25  1.9064e-23  5.5311e-25  1.9080e-23  7.4821e-25  1.9108e-23  1.0952e-24  1.9159e-23  1.7125e-24  1.9249e-23  2.8110e-24  1.9408e-23  4.7666e-24  1.9692e-23  8.2512e-24  2.0198e-23  1.4470e-23  2.1098e-23  2.5600e-23  2.2706e-23  4.5614e-23  2.5587e-23  8.1903e-23  3.0788e-23  1.4863e-22
      2.95  1.7730e-23  3.2024e-25  1.7730e-23  3.2376e-25  1.7731e-23  3.3001e-25  1.7732e-23  3.4114e-25  1.7733e-23  3.6092e-25  1.7736e-23  3.9609e-25  1.7741e-23  4.5865e-25  1.7750e-23  5.6990e-25  1.7765e-23  7.6776e-25  1.7792e-23  1.1197e-24  1.7841e-23  1.7457e-24  1.7927e-23  2.8597e-24  1.8080e-23  4.8431e-24  1.8353e-23  8.3773e-24  1.8839e-23  1.4685e-23  1.9704e-23  2.5975e-23  2.1248e-23  4.6280e-23  2.4015e-23  8.3109e-23  2.9011e-23  1.5087e-22
      3.00  1.6503e-23  3.3404e-25  1.6503e-23  3.3758e-25  1.6504e-23  3.4389e-25  1.6504e-23  3.5510e-25  1.6506e-23  3.7504e-25  1.6508e-23  4.1049e-25  1.6513e-23  4.7355e-25  1.6521e-23  5.8568e-25  1.6536e-23  7.8511e-25  1.6562e-23  1.1398e-24  1.6609e-23  1.7708e-24  1.6692e-23  2.8937e-24  1.6840e-23  4.8929e-24  1.7102e-23  8.4553e-24  1.7569e-23  1.4814e-23  1.8401e-23  2.6196e-23  1.9885e-23  4.6670e-23  2.2546e-23  8.3816e-23  2.7349e-23  1.5219e-22
      3.05  1.5357e-23  3.4864e-25  1.5357e-23  3.5220e-25  1.5357e-23  3.5852e-25  1.5358e-23  3.6976e-25  1.5359e-23  3.8974e-25  1.5362e-23  4.2528e-25  1.5366e-23  4.8849e-25  1.5374e-23  6.0089e-25  1.5389e-23  8.0080e-25  1.5414e-23  1.1564e-24  1.5459e-23  1.7889e-24  1.5539e-23  2.9145e-24  1.5681e-23  4.9185e-24  1.5934e-23  8.4898e-24  1.6384e-23  1.4864e-23  1.7185e-23  2.6276e-23  1.8616e-23  4.6806e-23  2.1179e-23  8.4065e-23  2.5806e-23  1.5268e-22
      3.10  1.4286e-23  3.6359e-25  1.4286e-23  3.6713e-25  1.4287e-23  3.7344e-25  1.4288e-23  3.8464e-25  1.4289e-23  4.0457e-25  1.4291e-23  4.4001e-25  1.4296e-23  5.0304e-25  1.4304e-23  6.1513e-25  1.4317e-23  8.1447e-25  1.4342e-23  1.1690e-24  1.4385e-23  1.7998e-24  1.4462e-23  2.9223e-24  1.4599e-23  4.9207e-24  1.4843e-23  8.4821e-24  1.5276e-23  1.4839e-23  1.6049e-23  2.6220e-23  1.7428e-23  4.6700e-23  1.9898e-23  8.3875e-23  2.4356e-23  1.5236e-22
      3.15  1.3287e-23  3.7936e-25  1.3288e-23  3.8288e-25  1.3288e-23  3.8913e-25  1.3289e-23  4.0025e-25  1.3290e-23  4.2003e-25  1.3292e-23  4.5521e-25  1.3297e-23  5.1776e-25  1.3304e-23  6.2900e-25  1.3317e-23  8.2684e-25  1.3341e-23  1.1787e-24  1.3382e-23  1.8048e-24  1.3457e-23  2.9187e-24  1.3589e-23  4.9022e-24  1.3824e-23  8.4369e-24  1.4242e-23  1.4747e-23  1.4986e-23  2.6044e-23  1.6315e-23  4.6374e-23  1.8696e-23  8.3288e-23  2.2992e-23  1.5132e-22
      3.20  1.2356e-23  3.9585e-25  1.2356e-23  3.9932e-25  1.2356e-23  4.0551e-25  1.2357e-23  4.1650e-25  1.2358e-23  4.3604e-25  1.2360e-23  4.7080e-25  1.2364e-23  5.3261e-25  1.2372e-23  6.4254e-25  1.2384e-23  8.3804e-25  1.2407e-23  1.1858e-24  1.2447e-23  1.8044e-24  1.2519e-23  2.9052e-24  1.2646e-23  4.8652e-24  1.2872e-23  8.3583e-24  1.3275e-23  1.4594e-23  1.3993e-23  2.5759e-23  1.5273e-23  4.5855e-23  1.7567e-23  8.2349e-23  2.1706e-23  1.4963e-22
      3.25  1.1485e-23  4.1285e-25  1.1487e-23  4.1631e-25  1.1487e-23  4.2239e-25  1.1488e-23  4.3321e-25  1.1488e-23  4.5241e-25  1.1491e-23  4.8666e-25  1.1495e-23  5.4751e-25  1.1502e-23  6.5571e-25  1.1514e-23  8.4815e-25  1.1536e-23  1.1904e-24  1.1575e-23  1.7994e-24  1.1644e-23  2.8830e-24  1.1766e-23  4.8123e-24  1.1985e-23  8.2508e-24  1.2373e-23  1.4389e-23  1.3064e-23  2.5381e-23  1.4298e-23  4.5166e-23  1.6508e-23  8.1104e-23  2.0494e-23  1.4738e-22
      3.30  1.0677e-23  4.3088e-25  1.0677e-23  4.3424e-25  1.0677e-23  4.4021e-25  1.0678e-23  4.5082e-25  1.0679e-23  4.6970e-25  1.0681e-23  5.0327e-25  1.0685e-23  5.6296e-25  1.0691e-23  6.6912e-25  1.0703e-23  8.5792e-25  1.0724e-23  1.1937e-24  1.0762e-23  1.7912e-24  1.0828e-23  2.8543e-24  1.0946e-23  4.7472e-24  1.1156e-23  8.1208e-24  1.1530e-23  1.4144e-23  1.2196e-23  2.4929e-23  1.3384e-23  4.4344e-23  1.5513e-23  7.9615e-23  1.9351e-23  1.4468e-22
      3.35  9.9217e-24  4.4948e-25  9.9219e-24  4.5277e-25  9.9223e-24  4.5861e-25  9.9229e-24  4.6899e-25  9.9240e-24  4.8746e-25  9.9261e-24  5.2030e-25  9.9296e-24  5.7871e-25  9.9360e-24  6.8258e-25  9.9474e-24  8.6731e-25  9.9676e-24  1.1959e-24  1.0004e-23  1.7804e-24  1.0068e-23  2.8207e-24  1.0181e-23  4.6728e-24  1.0384e-23  7.9738e-24  1.0744e-23  1.3867e-23  1.1385e-23  2.4421e-23  1.2529e-23  4.3421e-23  1.4578e-23  7.7943e-23  1.8271e-23  1.4165e-22
      3.40  9.2185e-24  4.6870e-25  9.2187e-24  4.7191e-25  9.2191e-24  4.7761e-25  9.2197e-24  4.8775e-25  9.2208e-24  5.0579e-25  9.2227e-24  5.3786e-25  9.2262e-24  5.9489e-25  9.2324e-24  6.9632e-25  9.2433e-24  8.7670e-25  9.2628e-24  1.1976e-24  9.2974e-24  1.7684e-24  9.3590e-24  2.7841e-24  9.4685e-24  4.5927e-24  9.6632e-24  7.8161e-24  1.0010e-23  1.3571e-23  1.0627e-23  2.3878e-23  1.1728e-23  4.2434e-23  1.3699e-23  7.6154e-23  1.7251e-23  1.3839e-22
      3.45  8.5629e-24  4.8853e-25  8.5631e-24  4.9166e-25  8.5643e-24  4.9726e-25  8.5640e-24  5.0711e-25  8.5659e-24  5.2474e-25  8.5678e-24  5.5602e-25  8.5703e-24  6.1160e-25  8.5770e-24  7.1057e-25  8.5876e-24  8.8652e-25  8.6063e-24  1.1995e-24  8.6396e-24  1.7562e-24  8.6989e-24  2.7469e-24  8.8043e-24  4.5110e-24  8.9917e-24  7.6551e-24  9.3251e-24  1.3269e-23  9.9189e-24  2.3322e-23  1.0978e-23  4.1424e-23  1.2874e-23  7.4321e-23  1.6289e-23  1.3505e-22
      3.50  7.9542e-24  5.0911e-25  7.9544e-24  5.1216e-25  7.9547e-24  5.1758e-25  7.9552e-24  5.2723e-25  7.9555e-24  5.4435e-25  7.9581e-24  5.7490e-25  7.9613e-24  6.2916e-25  7.9670e-24  7.2565e-25  7.9771e-24  8.9727e-25  7.9951e-24  1.2025e-24  8.0272e-24  1.7456e-24  8.0842e-24  2.7120e-24  8.1856e-24  4.4327e-24  8.3660e-24  7.4995e-24  8.6869e-24  1.2975e-23  9.2583e-24  2.2782e-23  1.0277e-23  4.0441e-23  1.2101e-23  7.2538e-23  1.5383e-23  1.3180e-22
      3.55  7.3870e-24  5.3093e-25  7.3872e-24  5.3391e-25  7.3875e-24  5.3922e-25  7.3880e-24  5.4864e-25  7.3890e-24  5.6541e-25  7.3907e-24  5.9523e-25  7.3938e-24  6.4825e-25  7.3993e-24  7.4254e-25  7.4091e-24  9.1024e-25  7.4264e-24  1.2085e-24  7.4573e-24  1.7392e-24  7.5122e-24  2.6835e-24  7.6098e-24  4.3650e-24  7.7834e-24  7.3619e-24  8.0923e-24  1.2713e-23  8.6421e-24  2.2297e-23  9.6226e-24  3.9555e-23  1.1376e-23  7.0926e-23  1.4532e-23  1.2886e-22
      3.60  6.8593e-24  5.5352e-25  6.8595e-24  5.5645e-25  6.8598e-24  5.6165e-25  6.8603e-24  5.7090e-25  6.8613e-24  5.8736e-25  6.8629e-24  6.1662e-25  6.8659e-24  6.6866e-25  6.8712e-24  7.6120e-25  6.8806e-24  9.2579e-25  6.8973e-24  1.2186e-24  6.9270e-24  1.7394e-24  6.9799e-24  2.6662e-24  7.0739e-24  4.3165e-24  7.2411e-24  7.2579e-24  7.5385e-24  1.2510e-23  8.0679e-24  2.1917e-23  9.0117e-24  3.8857e-23  1.0699e-23  6.9652e-23  1.3734e-23  1.2653e-22
      3.65  6.3686e-24  5.7690e-25  6.3688e-24  5.7980e-25  6.3691e-24  5.8495e-25  6.3696e-24  5.9410e-25  6.3705e-24  6.1038e-25  6.3721e-24  6.3933e-25  6.3750e-24  6.9081e-25  6.3800e-24  7.8237e-25  6.3891e-24  9.4521e-25  6.4052e-24  1.2348e-24  6.4339e-24  1.7501e-24  6.4848e-24  2.6671e-24  6.5754e-24  4.2998e-24  6.7365e-24  7.2099e-24  7.0230e-24  1.2406e-23  7.5330e-24  2.1713e-23  8.4421e-24  3.8474e-23  1.0067e-23  6.8948e-23  1.2987e-23  1.2524e-22
      3.70  5.9118e-24  6.0112e-25  5.9119e-24  6.0404e-25  5.9122e-24  6.0923e-25  5.9133e-24  6.1850e-25  5.9142e-24  6.3492e-25  5.9151e-24  6.6407e-25  5.9185e-24  7.1603e-25  5.9234e-24  8.0837e-25  5.9321e-24  9.7259e-25  5.9477e-24  1.2647e-24  5.9753e-24  1.7843e-24  6.0244e-24  2.7091e-24  6.1118e-24  4.3557e-24  6.2671e-24  7.2906e-24  6.5435e-24  1.2531e-23  7.0353e-24  2.1918e-23  7.9116e-24  3.8824e-23  9.4774e-24  6.9565e-23  1.2290e-23  1.2636e-22
      3.75  5.4877e-24  6.2622e-25  5.4885e-24  6.2923e-25  5.4881e-24  6.3446e-25  5.4892e-24  6.4387e-25  5.4901e-24  6.6054e-25  5.4916e-24  6.9018e-25  5.4936e-24  7.4284e-25  5.4990e-24  8.3662e-25  5.5074e-24  1.0033e-24  5.5224e-24  1.2999e-24  5.5491e-24  1.8274e-24  5.5965e-24  2.7662e-24  5.6809e-24  4.4379e-24  5.8308e-24  7.4174e-24  6.0976e-24  1.2738e-23  6.5723e-24  2.2268e-23  7.4181e-24  3.9434e-23  8.9285e-24  7.0649e-23  1.1640e-23  1.2833e-22
      3.80  5.0944e-24  6.5320e-25  5.0939e-24  6.5624e-25  5.0942e-24  6.6172e-25  5.0953e-24  6.7151e-25  5.0961e-24  6.8884e-25  5.0975e-24  7.1966e-25  5.1001e-24  7.7447e-25  5.1047e-24  8.7194e-25  5.1128e-24  1.0453e-24  5.1273e-24  1.3536e-24  5.1531e-24  1.9022e-24  5.1990e-24  2.8784e-24  5.2805e-24  4.6166e-24  5.4255e-24  7.7149e-24  5.6833e-24  1.3247e-23  6.1421e-24  2.3158e-23  6.9593e-24  4.1010e-23  8.4182e-24  7.3478e-23  1.1036e-23  1.3349e-22
      3.85  4.7285e-24  6.8128e-25  4.7280e-24  6.8453e-25  4.7282e-24  6.9039e-25  4.7293e-24  7.0086e-25  4.7301e-24  7.1939e-25  4.7315e-24  7.5235e-25  4.7340e-24  8.1096e-25  4.7384e-24  9.1519e-25  4.7463e-24  1.1006e-24  4.7603e-24  1.4303e-24  4.7853e-24  2.0169e-24  4.8297e-24  3.0608e-24  4.9086e-24  4.9196e-24  5.0489e-24  8.2330e-24  5.2984e-24  1.4150e-23  5.7424e-24  2.4749e-23  6.5331e-24  4.3843e-23  7.9443e-24  7.8576e-23  1.0474e-23  1.4280e-22
      3.90  4.3886e-24  7.1088e-25  4.3888e-24  7.1451e-25  4.3890e-24  7.2097e-25  4.3894e-24  7.3245e-25  4.3902e-24  7.5286e-25  4.3915e-24  7.8916e-25  4.3940e-24  8.5372e-25  4.3983e-24  9.6853e-25  4.4059e-24  1.1727e-24  4.4195e-24  1.5359e-24  4.4437e-24  2.1821e-24  4.4868e-24  3.3319e-24  4.5633e-24  5.3795e-24  4.6993e-24  9.0292e-24  4.9412e-24  1.5547e-23  5.3716e-24  2.7223e-23  6.1379e-24  4.8261e-23  7.5051e-24  8.6536e-23  9.9553e-24  1.5733e-22
      3.95  4.0731e-24  7.4338e-25  4.0732e-24  7.4749e-25  4.0735e-24  7.5481e-25  4.0739e-24  7.6782e-25  4.0746e-24  7.9096e-25  4.0759e-24  8.3210e-25  4.0783e-24  9.0527e-25  4.0825e-24  1.0354e-24  4.0899e-24  1.2668e-24  4.1031e-24  1.6784e-24  4.1266e-24  2.4108e-24  4.1684e-24  3.7140e-24  4.2427e-24  6.0347e-24  4.3749e-24  1.0171e-23  4.6098e-24  1.7559e-23  5.0278e-24  3.0795e-23  5.7719e-24  5.4644e-23  7.0991e-24  9.8045e-23  9.4763e-24  1.7835e-22
