# This was generated using Cloudy10 and the columns are ordered 
# as log10 of the fraction of the metallicity to the solar metallicity
# 'h_*_Z' and 'c_*_Z' stands for cooling and heating respectively 
# at * metalicity
#
# NOTE: This was generated separately from loop_coolingcurve_w_UV.py
#       using Output_metals_w_redshift.py.
#
# Redshift = 4.5
# hden = 1.0
#
#     temp   h_-3.00_Z   c_-3.00_Z   h_-2.75_Z   c_-2.75_Z   h_-2.50_Z   c_-2.50_Z   h_-2.25_Z   c_-2.25_Z   h_-2.00_Z   c_-2.00_Z   h_-1.75_Z   c_-1.75_Z   h_-1.50_Z   c_-1.50_Z   h_-1.25_Z   c_-1.25_Z   h_-1.00_Z   c_-1.00_Z   h_-0.75_Z   c_-0.75_Z   h_-0.50_Z   c_-0.50_Z   h_-0.25_Z   c_-0.25_Z    h_0.00_Z    c_0.00_Z    h_0.25_Z    c_0.25_Z    h_0.50_Z    c_0.50_Z    h_0.75_Z    c_0.75_Z    h_1.00_Z    c_1.00_Z    h_1.25_Z    c_1.25_Z    h_1.50_Z    c_1.50_Z 
      1.00  5.1043e-25  9.8992e-29  5.1043e-25  9.9004e-29  5.1044e-25  9.9025e-29  5.1045e-25  9.9063e-29  5.1047e-25  9.9129e-29  5.1050e-25  9.9248e-29  5.1056e-25  9.9458e-29  5.1067e-25  9.9833e-29  5.1086e-25  1.0050e-28  5.1120e-25  1.0169e-28  5.1180e-25  1.0380e-28  5.1288e-25  1.0755e-28  5.1479e-25  1.1424e-28  5.1820e-25  1.2616e-28  5.2426e-25  1.4745e-28  5.3507e-25  1.8563e-28  5.5437e-25  2.5445e-28  5.8896e-25  3.7973e-28  6.5133e-25  6.1130e-28
      1.05  5.0966e-25  1.1075e-28  5.0967e-25  1.1078e-28  5.0967e-25  1.1082e-28  5.0968e-25  1.1091e-28  5.0970e-25  1.1106e-28  5.0974e-25  1.1132e-28  5.0980e-25  1.1179e-28  5.0990e-25  1.1262e-28  5.1009e-25  1.1410e-28  5.1043e-25  1.1673e-28  5.1103e-25  1.2142e-28  5.1210e-25  1.2976e-28  5.1401e-25  1.4461e-28  5.1739e-25  1.7107e-28  5.2342e-25  2.1830e-28  5.3417e-25  3.0286e-28  5.5336e-25  4.5503e-28  5.8774e-25  7.3125e-28  6.4972e-25  1.2397e-27
      1.10  5.0887e-25  1.2390e-28  5.0887e-25  1.2396e-28  5.0888e-25  1.2405e-28  5.0889e-25  1.2423e-28  5.0891e-25  1.2455e-28  5.0894e-25  1.2510e-28  5.0900e-25  1.2610e-28  5.0911e-25  1.2787e-28  5.0930e-25  1.3101e-28  5.0963e-25  1.3661e-28  5.1023e-25  1.4655e-28  5.1130e-25  1.6426e-28  5.1319e-25  1.9577e-28  5.1656e-25  2.5192e-28  5.2256e-25  3.5209e-28  5.3325e-25  5.3128e-28  5.5234e-25  8.5332e-28  5.8655e-25  1.4368e-27  6.4818e-25  2.5078e-27
      1.15  5.0805e-25  1.3861e-28  5.0805e-25  1.3872e-28  5.0806e-25  1.3892e-28  5.0807e-25  1.3928e-28  5.0809e-25  1.3992e-28  5.0812e-25  1.4105e-28  5.0818e-25  1.4307e-28  5.0829e-25  1.4665e-28  5.0848e-25  1.5302e-28  5.0881e-25  1.6436e-28  5.0941e-25  1.8452e-28  5.1046e-25  2.2039e-28  5.1235e-25  2.8423e-28  5.1570e-25  3.9795e-28  5.2166e-25  6.0079e-28  5.3229e-25  9.6343e-28  5.5127e-25  1.6147e-27  5.8526e-25  2.7933e-27  6.4650e-25  4.9537e-27
      1.20  5.0720e-25  1.5651e-28  5.0721e-25  1.5673e-28  5.0721e-25  1.5712e-28  5.0722e-25  1.5780e-28  5.0724e-25  1.5903e-28  5.0727e-25  1.6121e-28  5.0733e-25  1.6508e-28  5.0744e-25  1.7197e-28  5.0763e-25  1.8422e-28  5.0796e-25  2.0601e-28  5.0855e-25  2.4476e-28  5.0960e-25  3.1371e-28  5.1147e-25  4.3642e-28  5.1480e-25  6.5498e-28  5.2073e-25  1.0447e-27  5.3129e-25  1.7413e-27  5.5014e-25  2.9918e-27  5.8391e-25  5.2536e-27  6.4473e-25  9.3969e-27
      1.25  5.0633e-25  1.7810e-28  5.0633e-25  1.7849e-28  5.0634e-25  1.7920e-28  5.0635e-25  1.8045e-28  5.0637e-25  1.8268e-28  5.0640e-25  1.8664e-28  5.0646e-25  1.9368e-28  5.0656e-25  2.0620e-28  5.0675e-25  2.2848e-28  5.0708e-25  2.6809e-28  5.0766e-25  3.3854e-28  5.0871e-25  4.6389e-28  5.1057e-25  6.8698e-28  5.1387e-25  1.0843e-27  5.1976e-25  1.7927e-27  5.3025e-25  3.0588e-27  5.4898e-25  5.3310e-27  5.8251e-25  9.4400e-27  6.4288e-25  1.6966e-26
      1.30  5.0542e-25  2.0220e-28  5.0542e-25  2.0288e-28  5.0543e-25  2.0409e-28  5.0544e-25  2.0625e-28  5.0546e-25  2.1008e-28  5.0549e-25  2.1689e-28  5.0555e-25  2.2900e-28  5.0565e-25  2.5054e-28  5.0584e-25  2.8885e-28  5.0617e-25  3.5698e-28  5.0675e-25  4.7817e-28  5.0779e-25  6.9377e-28  5.0963e-25  1.0775e-27  5.1291e-25  1.7608e-27  5.1876e-25  2.9792e-27  5.2918e-25  5.1565e-27  5.4777e-25  9.0639e-27  5.8105e-25  1.6130e-26  6.4097e-25  2.9072e-26
      1.35  5.0448e-25  2.2914e-28  5.0449e-25  2.3025e-28  5.0449e-25  2.3222e-28  5.0450e-25  2.3574e-28  5.0452e-25  2.4198e-28  5.0455e-25  2.5310e-28  5.0461e-25  2.7285e-28  5.0471e-25  3.0799e-28  5.0490e-25  3.7049e-28  5.0522e-25  4.8163e-28  5.0580e-25  6.7932e-28  5.0683e-25  1.0310e-27  5.0866e-25  1.6570e-27  5.1192e-25  2.7716e-27  5.1773e-25  4.7591e-27  5.2806e-25  8.3106e-27  5.4652e-25  1.4684e-26  5.7956e-25  2.6212e-26  6.3902e-25  4.7329e-26
      1.40  5.0351e-25  2.5926e-28  5.0351e-25  2.6098e-28  5.0352e-25  2.6405e-28  5.0353e-25  2.6951e-28  5.0355e-25  2.7921e-28  5.0358e-25  2.9646e-28  5.0364e-25  3.2714e-28  5.0374e-25  3.8170e-28  5.0392e-25  4.7872e-28  5.0425e-25  6.5129e-28  5.0482e-25  9.5824e-28  5.0584e-25  1.5043e-27  5.0766e-25  2.4761e-27  5.1090e-25  4.2068e-27  5.1666e-25  7.2926e-27  5.2692e-25  1.2807e-26  5.4524e-25  2.2704e-26  5.7802e-25  4.0605e-26  6.3702e-25  7.3407e-26
      1.45  5.0251e-25  2.9295e-28  5.0251e-25  2.9551e-28  5.0251e-25  3.0007e-28  5.0252e-25  3.0816e-28  5.0254e-25  3.2255e-28  5.0257e-25  3.4815e-28  5.0263e-25  3.9366e-28  5.0273e-25  4.7461e-28  5.0291e-25  6.1856e-28  5.0323e-25  8.7458e-28  5.0380e-25  1.3300e-27  5.0482e-25  2.1401e-27  5.0662e-25  3.5820e-27  5.0984e-25  6.1496e-27  5.1555e-25  1.0728e-26  5.2574e-25  1.8910e-26  5.4392e-25  3.3595e-26  5.7645e-25  6.0159e-26  6.3498e-25  1.0885e-25
      1.50  5.0146e-25  3.3064e-28  5.0147e-25  3.3429e-28  5.0147e-25  3.4077e-28  5.0148e-25  3.5229e-28  5.0150e-25  3.7279e-28  5.0153e-25  4.0923e-28  5.0159e-25  4.7405e-28  5.0169e-25  5.8931e-28  5.0187e-25  7.9429e-28  5.0219e-25  1.1589e-27  5.0275e-25  1.8073e-27  5.0376e-25  2.9610e-27  5.0555e-25  5.0142e-27  5.0874e-25  8.6707e-27  5.1441e-25  1.5190e-26  5.2452e-25  2.6843e-26  5.4256e-25  4.7758e-26  5.7484e-25  8.5598e-26  6.3289e-25  1.5497e-25
      1.55  5.0039e-25  3.7282e-28  5.0039e-25  3.7783e-28  5.0040e-25  3.8672e-28  5.0041e-25  4.0255e-28  5.0042e-25  4.3068e-28  5.0046e-25  4.8072e-28  5.0051e-25  5.6970e-28  5.0061e-25  7.2794e-28  5.0079e-25  1.0093e-27  5.0110e-25  1.5099e-27  5.0167e-25  2.4001e-27  5.0267e-25  3.9839e-27  5.0444e-25  6.8027e-27  5.0761e-25  1.1823e-26  5.1324e-25  2.0774e-26  5.2327e-25  3.6771e-26  5.4117e-25  6.5489e-26  5.7320e-25  1.1745e-25  6.3078e-25  2.1274e-25
      1.60  4.9927e-25  4.1994e-28  4.9927e-25  4.2659e-28  4.9928e-25  4.3841e-28  4.9929e-25  4.5944e-28  4.9931e-25  4.9683e-28  4.9934e-25  5.6331e-28  4.9939e-25  6.8154e-28  4.9949e-25  8.9180e-28  4.9967e-25  1.2657e-27  4.9998e-25  1.9308e-27  5.0054e-25  3.1137e-27  5.0153e-25  5.2182e-27  5.0330e-25  8.9637e-27  5.0644e-25  1.5634e-26  5.1202e-25  2.7528e-26  5.2198e-25  4.8787e-26  5.3974e-25  8.6951e-26  5.7151e-25  1.5601e-25  6.2863e-25  2.8269e-25
      1.65  4.9812e-25  4.7254e-28  4.9812e-25  4.8113e-28  4.9813e-25  4.9639e-28  4.9813e-25  5.2355e-28  4.9815e-25  5.7183e-28  4.9818e-25  6.5770e-28  4.9824e-25  8.1039e-28  4.9834e-25  1.0819e-27  4.9851e-25  1.5649e-27  4.9882e-25  2.4238e-27  4.9938e-25  3.9515e-27  5.0036e-25  6.6696e-27  5.0211e-25  1.1507e-26  5.0523e-25  2.0122e-26  5.1077e-25  3.5484e-26  5.2065e-25  6.2942e-26  5.3827e-25  1.1224e-25  5.6979e-25  2.0146e-25  6.2644e-25  3.6515e-25
      1.70  4.9692e-25  5.3120e-28  4.9692e-25  5.4203e-28  4.9693e-25  5.6128e-28  4.9694e-25  5.9551e-28  4.9696e-25  6.5639e-28  4.9699e-25  7.6464e-28  4.9704e-25  9.5716e-28  4.9714e-25  1.2995e-27  4.9731e-25  1.9084e-27  4.9762e-25  2.9912e-27  4.9817e-25  4.9174e-27  4.9915e-25  8.3442e-27  5.0088e-25  1.4443e-26  5.0397e-25  2.5305e-26  5.0947e-25  4.4674e-26  5.1927e-25  7.9297e-26  5.3675e-25  1.4146e-25  5.6801e-25  2.5399e-25  6.2418e-25  4.6050e-25
      1.75  4.9568e-25  5.9661e-28  4.9569e-25  6.0999e-28  4.9569e-25  6.3379e-28  4.9570e-25  6.7611e-28  4.9572e-25  7.5137e-28  4.9575e-25  8.8521e-28  4.9580e-25  1.1232e-27  4.9590e-25  1.5465e-27  4.9607e-25  2.2992e-27  4.9638e-25  3.6380e-27  4.9692e-25  6.0193e-27  4.9789e-25  1.0256e-26  4.9961e-25  1.7796e-26  5.0268e-25  3.1225e-26  5.0813e-25  5.5174e-26  5.1785e-25  9.7985e-26  5.3518e-25  1.7486e-25  5.6618e-25  3.1406e-25  6.2187e-25  5.6956e-25
      1.80  4.9440e-25  6.6968e-28  4.9440e-25  6.8597e-28  4.9441e-25  7.1496e-28  4.9442e-25  7.6650e-28  4.9444e-25  8.5816e-28  4.9447e-25  1.0212e-27  4.9452e-25  1.3110e-27  4.9462e-25  1.8265e-27  4.9479e-25  2.7432e-27  4.9509e-25  4.3736e-27  4.9563e-25  7.2738e-27  4.9659e-25  1.2434e-26  4.9830e-25  2.1617e-26  5.0134e-25  3.7973e-26  5.0675e-25  6.7143e-26  5.1638e-25  1.1929e-25  5.3357e-25  2.1296e-25  5.6430e-25  3.8259e-25  6.1949e-25  6.9410e-25
      1.85  4.9307e-25  7.5119e-28  4.9308e-25  7.7083e-28  4.9308e-25  8.0575e-28  4.9309e-25  8.6786e-28  4.9311e-25  9.7831e-28  4.9314e-25  1.1747e-27  4.9319e-25  1.5240e-27  4.9329e-25  2.1452e-27  4.9346e-25  3.2499e-27  4.9376e-25  5.2146e-27  4.9429e-25  8.7095e-27  4.9525e-25  1.4927e-26  4.9694e-25  2.5994e-26  4.9995e-25  4.5707e-26  5.0531e-25  8.0864e-26  5.1487e-25  1.4373e-25  5.3190e-25  2.5666e-25  5.6236e-25  4.6126e-25  6.1705e-25  8.3718e-25
      1.90  4.9170e-25  8.4216e-28  4.9170e-25  8.6566e-28  4.9171e-25  9.0744e-28  4.9172e-25  9.8175e-28  4.9173e-25  1.1139e-27  4.9176e-25  1.3489e-27  4.9182e-25  1.7668e-27  4.9191e-25  2.5100e-27  4.9208e-25  3.8316e-27  4.9238e-25  6.1824e-27  4.9291e-25  1.0364e-26  4.9385e-25  1.7803e-26  4.9553e-25  3.1045e-26  4.9852e-25  5.4632e-26  5.0384e-25  9.6705e-26  5.1331e-25  1.7194e-25  5.3020e-25  3.0714e-25  5.6040e-25  5.5218e-25  6.1460e-25  1.0027e-24
      1.95  4.9028e-25  9.4365e-28  4.9028e-25  9.7156e-28  4.9029e-25  1.0212e-27  4.9030e-25  1.1094e-27  4.9031e-25  1.2664e-27  4.9034e-25  1.5455e-27  4.9039e-25  2.0419e-27  4.9049e-25  2.9246e-27  4.9066e-25  4.4944e-27  4.9095e-25  7.2864e-27  4.9148e-25  1.2253e-26  4.9242e-25  2.1089e-26  4.9409e-25  3.6817e-26  4.9707e-25  6.4833e-26  5.0236e-25  1.1481e-25  5.1178e-25  2.0418e-25  5.2859e-25  3.6478e-25  5.5864e-25  6.5589e-25  6.1257e-25  1.1912e-24
      2.00  4.8880e-25  1.0572e-27  4.8881e-25  1.0904e-27  4.8881e-25  1.1495e-27  4.8882e-25  1.2546e-27  4.8884e-25  1.4414e-27  4.8887e-25  1.7736e-27  4.8892e-25  2.3644e-27  4.8901e-25  3.4151e-27  4.8918e-25  5.2836e-27  4.8947e-25  8.6069e-27  4.9000e-25  1.4519e-26  4.9093e-25  2.5037e-26  4.9259e-25  4.3759e-26  4.9553e-25  7.7112e-26  5.0078e-25  1.3661e-25  5.1012e-25  2.4305e-25  5.2678e-25  4.3439e-25  5.5655e-25  7.8140e-25  6.0997e-25  1.4201e-24
      2.05  4.8728e-25  1.1846e-27  4.8728e-25  1.2241e-27  4.8729e-25  1.2944e-27  4.8730e-25  1.4193e-27  4.8731e-25  1.6415e-27  4.8734e-25  2.0367e-27  4.8739e-25  2.7394e-27  4.8749e-25  3.9890e-27  4.8765e-25  6.2115e-27  4.8794e-25  1.0164e-26  4.8846e-25  1.7196e-26  4.8938e-25  2.9707e-26  4.9102e-25  5.1979e-26  4.9394e-25  9.1658e-26  4.9913e-25  1.6246e-25  5.0838e-25  2.8914e-25  5.2487e-25  5.1697e-25  5.5434e-25  9.3044e-25  6.0720e-25  1.6923e-24
      2.10  4.8570e-25  1.3270e-27  4.8570e-25  1.3739e-27  4.8571e-25  1.4573e-27  4.8572e-25  1.6056e-27  4.8574e-25  1.8693e-27  4.8576e-25  2.3382e-27  4.8581e-25  3.1722e-27  4.8591e-25  4.6553e-27  4.8607e-25  7.2929e-27  4.8636e-25  1.1984e-26  4.8687e-25  2.0330e-26  4.8778e-25  3.5179e-26  4.8941e-25  6.1614e-26  4.9230e-25  1.0871e-25  4.9744e-25  1.9277e-25  5.0659e-25  3.4321e-25  5.2291e-25  6.1390e-25  5.5208e-25  1.1055e-24  6.0438e-25  2.0122e-24
      2.15  4.8407e-25  1.4862e-27  4.8407e-25  1.5416e-27  4.8407e-25  1.6402e-27  4.8408e-25  1.8156e-27  4.8410e-25  2.1274e-27  4.8413e-25  2.6819e-27  4.8418e-25  3.6680e-27  4.8427e-25  5.4217e-27  4.8443e-25  8.5406e-27  4.8472e-25  1.4088e-26  4.8522e-25  2.3956e-26  4.8613e-25  4.1516e-26  4.8774e-25  7.2778e-26  4.9060e-25  1.2849e-25  4.9568e-25  2.2791e-25  5.0474e-25  4.0591e-25  5.2090e-25  7.2630e-25  5.4976e-25  1.3085e-24  6.0152e-25  2.3834e-24
      2.20  4.8237e-25  1.6638e-27  4.8238e-25  1.7291e-27  4.8238e-25  1.8450e-27  4.8239e-25  2.0513e-27  4.8241e-25  2.4180e-27  4.8244e-25  3.0702e-27  4.8249e-25  4.2301e-27  4.8258e-25  6.2927e-27  4.8273e-25  9.9611e-27  4.8302e-25  1.6486e-26  4.8352e-25  2.8093e-26  4.8441e-25  4.8748e-26  4.8601e-25  8.5522e-26  4.8884e-25  1.5105e-25  4.9387e-25  2.6804e-25  5.0284e-25  4.7751e-25  5.1883e-25  8.5468e-25  5.4740e-25  1.5404e-24  5.9860e-25  2.8077e-24
      2.25  4.8062e-25  1.8620e-27  4.8063e-25  1.9381e-27  4.8063e-25  2.0736e-27  4.8064e-25  2.3145e-27  4.8065e-25  2.7428e-27  4.8068e-25  3.5046e-27  4.8073e-25  4.8592e-27  4.8082e-25  7.2683e-27  4.8098e-25  1.1553e-26  4.8126e-25  1.9174e-26  4.8176e-25  3.2731e-26  4.8264e-25  5.6856e-26  4.8422e-25  9.9811e-26  4.8702e-25  1.7636e-25  4.9201e-25  3.1303e-25  5.0089e-25  5.5781e-25  5.1671e-25  9.9867e-25  5.4498e-25  1.8006e-24  5.9566e-25  3.2835e-24
      2.30  4.7881e-25  2.0834e-27  4.7881e-25  2.1717e-27  4.7882e-25  2.3285e-27  4.7882e-25  2.6075e-27  4.7884e-25  3.1037e-27  4.7887e-25  3.9860e-27  4.7892e-25  5.5550e-27  4.7900e-25  8.3454e-27  4.7916e-25  1.3308e-26  4.7944e-25  2.2135e-26  4.7993e-25  3.7838e-26  4.8081e-25  6.5783e-26  4.8237e-25  1.1554e-25  4.8514e-25  2.0422e-25  4.9007e-25  3.6256e-25  4.9886e-25  6.4619e-25  5.1451e-25  1.1572e-24  5.4247e-25  2.0869e-24  5.9259e-25  3.8071e-24
      2.35  4.7693e-25  2.3298e-27  4.7693e-25  2.4311e-27  4.7694e-25  2.6111e-27  4.7695e-25  2.9313e-27  4.7696e-25  3.5007e-27  4.7699e-25  4.5132e-27  4.7704e-25  6.3139e-27  4.7713e-25  9.5163e-27  4.7728e-25  1.5212e-26  4.7755e-25  2.5342e-26  4.7804e-25  4.3364e-26  4.7891e-25  7.5435e-26  4.8046e-25  1.3254e-25  4.8320e-25  2.3432e-25  4.8809e-25  4.1607e-25  4.9680e-25  7.4168e-25  5.1231e-25  1.3284e-24  5.4001e-25  2.3961e-24  5.8966e-25  4.3727e-24
      2.40  4.7499e-25  2.6036e-27  4.7499e-25  2.7186e-27  4.7499e-25  2.9233e-27  4.7500e-25  3.2871e-27  4.7502e-25  3.9342e-27  4.7504e-25  5.0848e-27  4.7509e-25  7.1311e-27  4.7518e-25  1.0770e-26  4.7533e-25  1.7242e-26  4.7560e-25  2.8755e-26  4.7609e-25  4.9235e-26  4.7695e-25  8.5681e-26  4.7848e-25  1.5058e-25  4.8121e-25  2.6626e-25  4.8605e-25  4.7282e-25  4.9468e-25  8.4293e-25  5.1006e-25  1.5099e-24  5.3751e-25  2.7240e-24  5.8670e-25  4.9719e-24
      2.45  4.7297e-25  2.9075e-27  4.7298e-25  3.0370e-27  4.7298e-25  3.2672e-27  4.7299e-25  3.6766e-27  4.7300e-25  4.4045e-27  4.7303e-25  5.6991e-27  4.7308e-25  8.0013e-27  4.7316e-25  1.2096e-26  4.7332e-25  1.9377e-26  4.7359e-25  3.2330e-26  4.7407e-25  5.5372e-26  4.7492e-25  9.6378e-26  4.7644e-25  1.6940e-25  4.7914e-25  2.9955e-25  4.8395e-25  5.3198e-25  4.9250e-25  9.4845e-25  5.0774e-25  1.6990e-24  5.3496e-25  3.0655e-24  5.8371e-25  5.5959e-24
      2.50  4.7089e-25  3.2448e-27  4.7089e-25  3.3890e-27  4.7090e-25  3.6455e-27  4.7091e-25  4.1015e-27  4.7092e-25  4.9126e-27  4.7095e-25  6.3549e-27  4.7099e-25  8.9198e-27  4.7108e-25  1.3481e-26  4.7123e-25  2.1594e-26  4.7150e-25  3.6024e-26  4.7197e-25  6.1696e-26  4.7282e-25  1.0738e-25  4.7433e-25  1.8873e-25  4.7701e-25  3.3375e-25  4.8177e-25  5.9272e-25  4.9025e-25  1.0568e-24  5.0537e-25  1.8931e-24  5.3235e-25  3.4158e-24  5.8068e-25  6.2358e-24
      2.55  4.6873e-25  3.6204e-27  4.6874e-25  3.7796e-27  4.6874e-25  4.0627e-27  4.6875e-25  4.5660e-27  4.6876e-25  5.4611e-27  4.6879e-25  7.0529e-27  4.6884e-25  9.8836e-27  4.6892e-25  1.4918e-26  4.6907e-25  2.3871e-26  4.6934e-25  3.9797e-26  4.6981e-25  6.8129e-26  4.7065e-25  1.1855e-25  4.7214e-25  2.0833e-25  4.7480e-25  3.6838e-25  4.7953e-25  6.5422e-25  4.8794e-25  1.1664e-24  5.0293e-25  2.0895e-24  5.2968e-25  3.7701e-24  5.7760e-25  6.8824e-24
      2.60  4.6650e-25  4.0370e-27  4.6650e-25  4.2111e-27  4.6651e-25  4.5207e-27  4.6652e-25  5.0713e-27  4.6653e-25  6.0504e-27  4.6656e-25  7.7916e-27  4.6660e-25  1.0888e-26  4.6669e-25  1.6395e-26  4.6684e-25  2.6189e-26  4.6710e-25  4.3609e-26  4.6757e-25  7.4601e-26  4.6840e-25  1.2976e-25  4.6988e-25  2.2797e-25  4.7252e-25  4.0304e-25  4.7721e-25  7.1572e-25  4.8555e-25  1.2760e-24  5.0042e-25  2.2857e-24  5.2696e-25  4.1240e-24  5.7447e-25  7.5280e-24
      2.65  4.6419e-25  4.4988e-27  4.6419e-25  4.6877e-27  4.6420e-25  5.0237e-27  4.6421e-25  5.6211e-27  4.6422e-25  6.6834e-27  4.6425e-25  8.5726e-27  4.6429e-25  1.1932e-26  4.6438e-25  1.7907e-26  4.6452e-25  2.8534e-26  4.6478e-25  4.7435e-26  4.6525e-25  8.1062e-26  4.6608e-25  1.4090e-25  4.6755e-25  2.4747e-25  4.7016e-25  4.3742e-25  4.7481e-25  7.7668e-25  4.8309e-25  1.3846e-24  4.9784e-25  2.4801e-24  5.2416e-25  4.4743e-24  5.7129e-25  8.1666e-24
      2.70  4.6180e-25  5.0109e-27  4.6180e-25  5.2144e-27  4.6181e-25  5.5762e-27  4.6181e-25  6.2197e-27  4.6183e-25  7.3640e-27  4.6185e-25  9.3988e-27  4.6190e-25  1.3018e-26  4.6198e-25  1.9453e-26  4.6213e-25  3.0899e-26  4.6239e-25  5.1258e-26  4.6285e-25  8.7477e-26  4.6367e-25  1.5194e-25  4.6513e-25  2.6671e-25  4.6773e-25  4.7132e-25  4.7234e-25  8.3673e-25  4.8055e-25  1.4915e-24  4.9518e-25  2.6713e-24  5.2130e-25  4.8189e-24  5.6805e-25  8.7940e-24
      2.75  4.5932e-25  5.5787e-27  4.5933e-25  5.7965e-27  4.5933e-25  6.1837e-27  4.5934e-25  6.8722e-27  4.5935e-25  8.0967e-27  4.5938e-25  1.0274e-26  4.5943e-25  1.4147e-26  4.5951e-25  2.1033e-26  4.5965e-25  3.3281e-26  4.5991e-25  5.5067e-26  4.6037e-25  9.3825e-26  4.6118e-25  1.6280e-25  4.6263e-25  2.8562e-25  4.6521e-25  5.0456e-25  4.6979e-25  8.9558e-25  4.7795e-25  1.5961e-24  4.9248e-25  2.8584e-24  5.1841e-25  5.1557e-24  5.6484e-25  9.4065e-24
      2.80  4.5676e-25  6.2122e-27  4.5677e-25  6.4439e-27  4.5677e-25  6.8560e-27  4.5678e-25  7.5887e-27  4.5679e-25  8.8918e-27  4.5682e-25  1.1209e-26  4.5686e-25  1.5330e-26  4.5695e-25  2.2658e-26  4.5709e-25  3.5692e-26  4.5735e-25  5.8876e-26  4.5780e-25  1.0012e-25  4.5861e-25  1.7352e-25  4.6005e-25  3.0422e-25  4.6261e-25  5.3721e-25  4.6716e-25  9.5329e-25  4.7526e-25  1.6987e-24  4.8970e-25  3.0417e-24  5.1545e-25  5.4853e-24  5.6156e-25  1.0005e-23
      2.85  4.5411e-25  6.9152e-27  4.5412e-25  7.1606e-27  4.5412e-25  7.5970e-27  4.5413e-25  8.3732e-27  4.5414e-25  9.7533e-27  4.5417e-25  1.2208e-26  4.5422e-25  1.6572e-26  4.5430e-25  2.4335e-26  4.5444e-25  3.8140e-26  4.5469e-25  6.2696e-26  4.5515e-25  1.0638e-25  4.5595e-25  1.8413e-25  4.5738e-25  3.2256e-25  4.5993e-25  5.6932e-25  4.6445e-25  1.0100e-24  4.7249e-25  1.7994e-24  4.8683e-25  3.2215e-24  5.1241e-25  5.8084e-24  5.5821e-25  1.0592e-23
      2.90  4.5137e-25  7.6956e-27  4.5138e-25  7.9545e-27  4.5138e-25  8.4150e-27  4.5139e-25  9.2338e-27  4.5140e-25  1.0690e-26  4.5143e-25  1.3279e-26  4.5147e-25  1.7884e-26  4.5155e-25  2.6074e-26  4.5170e-25  4.0639e-26  4.5195e-25  6.6546e-26  4.5240e-25  1.1264e-25  4.5320e-25  1.9466e-25  4.5462e-25  3.4071e-25  4.5715e-25  6.0106e-25  4.6164e-25  1.0659e-24  4.6963e-25  1.8987e-24  4.8387e-25  3.3986e-24  5.0929e-25  6.1264e-24  5.5478e-25  1.1168e-23
      2.95  4.4854e-25  8.5671e-27  4.4854e-25  8.8393e-27  4.4855e-25  9.3236e-27  4.4855e-25  1.0185e-26  4.4857e-25  1.1716e-26  4.4859e-25  1.4439e-26  4.4864e-25  1.9281e-26  4.4872e-25  2.7893e-26  4.4886e-25  4.3210e-26  4.4911e-25  7.0454e-26  4.4956e-25  1.1892e-25  4.5035e-25  2.0517e-25  4.5177e-25  3.5876e-25  4.5427e-25  6.3253e-25  4.5874e-25  1.1213e-24  4.6668e-25  1.9969e-24  4.8082e-25  3.5737e-24  5.0607e-25  6.4406e-24  5.5125e-25  1.1737e-23
      3.00  4.4561e-25  9.5373e-27  4.4561e-25  9.8228e-27  4.4562e-25  1.0331e-26  4.4562e-25  1.1234e-26  4.4564e-25  1.2840e-26  4.4566e-25  1.5695e-26  4.4571e-25  2.0774e-26  4.4579e-25  2.9805e-26  4.4593e-25  4.5868e-26  4.4618e-25  7.4440e-26  4.4662e-25  1.2527e-25  4.4741e-25  2.1572e-25  4.4881e-25  3.7679e-25  4.5130e-25  6.6389e-25  4.5574e-25  1.1765e-24  4.6362e-25  2.0945e-24  4.7768e-25  3.7477e-24  5.0275e-25  6.7525e-24  5.4764e-25  1.2301e-23
      3.05  4.4258e-25  1.0625e-26  4.4258e-25  1.0924e-26  4.4258e-25  1.1455e-26  4.4259e-25  1.2399e-26  4.4261e-25  1.4078e-26  4.4263e-25  1.7064e-26  4.4268e-25  2.2374e-26  4.4275e-25  3.1818e-26  4.4289e-25  4.8613e-26  4.4314e-25  7.8487e-26  4.4358e-25  1.3163e-25  4.4437e-25  2.2621e-25  4.4576e-25  3.9462e-25  4.4824e-25  6.9479e-25  4.5264e-25  1.2307e-24  4.6047e-25  2.1905e-24  4.7443e-25  3.9184e-24  4.9933e-25  7.0583e-24  5.4391e-25  1.2853e-23
      3.10  4.3944e-25  1.1828e-26  4.3944e-25  1.2140e-26  4.3945e-25  1.2694e-26  4.3946e-25  1.3680e-26  4.3947e-25  1.5432e-26  4.3950e-25  1.8549e-26  4.3954e-25  2.4091e-26  4.3962e-25  3.3947e-26  4.3976e-25  5.1476e-26  4.4000e-25  8.2656e-26  4.4044e-25  1.3813e-25  4.4122e-25  2.3684e-25  4.4260e-25  4.1260e-25  4.4506e-25  7.2588e-25  4.4943e-25  1.2852e-24  4.5721e-25  2.2867e-24  4.7107e-25  4.0895e-24  4.9580e-25  7.3647e-24  5.4006e-25  1.3405e-23
      3.15  4.3620e-25  1.3172e-26  4.3620e-25  1.3497e-26  4.3621e-25  1.4074e-26  4.3621e-25  1.5102e-26  4.3623e-25  1.6928e-26  4.3625e-25  2.0177e-26  4.3630e-25  2.5954e-26  4.3637e-25  3.6229e-26  4.3651e-25  5.4502e-26  4.3676e-25  8.7004e-26  4.3719e-25  1.4483e-25  4.3797e-25  2.4773e-25  4.3934e-25  4.3094e-25  4.4178e-25  7.5749e-25  4.4612e-25  1.3405e-24  4.5384e-25  2.3842e-24  4.6760e-25  4.2629e-24  4.9215e-25  7.6750e-24  5.3611e-25  1.3963e-23
      3.20  4.3285e-25  1.4667e-26  4.3285e-25  1.5006e-26  4.3285e-25  1.5608e-26  4.3286e-25  1.6678e-26  4.3288e-25  1.8582e-26  4.3290e-25  2.1967e-26  4.3294e-25  2.7987e-26  4.3302e-25  3.8692e-26  4.3316e-25  5.7733e-26  4.3340e-25  9.1600e-26  4.3383e-25  1.5185e-25  4.3460e-25  2.5907e-25  4.3596e-25  4.4997e-25  4.3839e-25  7.9022e-25  4.4269e-25  1.3976e-24  4.5036e-25  2.4850e-24  4.6402e-25  4.4419e-24  4.8839e-25  7.9950e-24  5.3202e-25  1.4539e-23
      3.25  4.2938e-25  1.6328e-26  4.2939e-25  1.6681e-26  4.2939e-25  1.7308e-26  4.2940e-25  1.8425e-26  4.2941e-25  2.0409e-26  4.2944e-25  2.3939e-26  4.2948e-25  3.0217e-26  4.2956e-25  4.1380e-26  4.2969e-25  6.1235e-26  4.2993e-25  9.6550e-26  4.3036e-25  1.5938e-25  4.3112e-25  2.7118e-25  4.3248e-25  4.7024e-25  4.3488e-25  8.2502e-25  4.3916e-25  1.4583e-24  4.4676e-25  2.5920e-24  4.6032e-25  4.6320e-24  4.8451e-25  8.3347e-24  5.2782e-25  1.5151e-23
      3.30  4.2580e-25  1.8191e-26  4.2581e-25  1.8560e-26  4.2581e-25  1.9216e-26  4.2582e-25  2.0382e-26  4.2583e-25  2.2457e-26  4.2586e-25  2.6146e-26  4.2590e-25  3.2706e-26  4.2598e-25  4.4373e-26  4.2611e-25  6.5124e-26  4.2635e-25  1.0203e-25  4.2678e-25  1.6769e-25  4.2753e-25  2.8453e-25  4.2888e-25  4.9258e-25  4.3126e-25  8.6334e-25  4.3550e-25  1.5251e-24  4.4305e-25  2.7098e-24  4.5650e-25  4.8410e-24  4.8051e-25  8.7086e-24  5.2354e-25  1.5821e-23
      3.35  4.2211e-25  2.0265e-26  4.2211e-25  2.0652e-26  4.2211e-25  2.1340e-26  4.2212e-25  2.2565e-26  4.2213e-25  2.4742e-26  4.2216e-25  2.8614e-26  4.2220e-25  3.5500e-26  4.2228e-25  4.7746e-26  4.2241e-25  6.9525e-26  4.2265e-25  1.0826e-25  4.2307e-25  1.7718e-25  4.2382e-25  2.9982e-25  4.2515e-25  5.1818e-25  4.2752e-25  9.0731e-25  4.3173e-25  1.6019e-24  4.3922e-25  2.8451e-24  4.5257e-25  5.0814e-24  4.7639e-25  9.1384e-24  5.1911e-25  1.6593e-23
      3.40  4.1829e-25  2.2571e-26  4.1829e-25  2.2980e-26  4.1829e-25  2.3707e-26  4.1830e-25  2.5000e-26  4.1831e-25  2.7299e-26  4.1834e-25  3.1387e-26  4.1838e-25  3.8658e-26  4.1845e-25  5.1589e-26  4.1859e-25  7.4586e-26  4.1882e-25  1.1549e-25  4.1924e-25  1.8826e-25  4.1999e-25  3.1775e-25  4.2131e-25  5.4832e-25  4.2366e-25  9.5918e-25  4.2784e-25  1.6925e-24  4.3527e-25  3.0050e-24  4.4852e-25  5.3657e-24  4.7215e-25  9.6472e-24  5.1453e-25  1.7509e-23
      3.45  4.1434e-25  2.5136e-26  4.1434e-25  2.5571e-26  4.1435e-25  2.6345e-26  4.1436e-25  2.7720e-26  4.1437e-25  3.0167e-26  4.1439e-25  3.4518e-26  4.1443e-25  4.2255e-26  4.1451e-25  5.6016e-26  4.1464e-25  8.0489e-26  4.1488e-25  1.2402e-25  4.1529e-25  2.0146e-25  4.1603e-25  3.3926e-25  4.1734e-25  5.8462e-25  4.1967e-25  1.0218e-24  4.2382e-25  1.8022e-24  4.3119e-25  3.1987e-24  4.4434e-25  5.7103e-24  4.6780e-25  1.0264e-23  5.0988e-25  1.8620e-23
      3.50  4.1027e-25  2.7988e-26  4.1027e-25  2.8455e-26  4.1027e-25  2.9286e-26  4.1028e-25  3.0764e-26  4.1029e-25  3.3393e-26  4.1032e-25  3.8067e-26  4.1036e-25  4.6379e-26  4.1043e-25  6.1162e-26  4.1056e-25  8.7453e-26  4.1080e-25  1.3422e-25  4.1121e-25  2.1741e-25  4.1195e-25  3.6545e-25  4.1325e-25  6.2904e-25  4.1556e-25  1.0987e-24  4.1967e-25  1.9370e-24  4.2699e-25  3.4371e-24  4.4003e-25  6.1347e-24  4.6332e-25  1.1024e-23  5.0511e-25  1.9989e-23
      3.55  4.0606e-25  3.1191e-26  4.0607e-25  3.1699e-26  4.0607e-25  3.2601e-26  4.0608e-25  3.4207e-26  4.0609e-25  3.7061e-26  4.0611e-25  4.2138e-26  4.0616e-25  5.1165e-26  4.0623e-25  6.7220e-26  4.0636e-25  9.5774e-26  4.0659e-25  1.4656e-25  4.0700e-25  2.3692e-25  4.0773e-25  3.9770e-25  4.0902e-25  6.8397e-25  4.1131e-25  1.1941e-24  4.1539e-25  2.1044e-24  4.2266e-25  3.7335e-24  4.3560e-25  6.6626e-24  4.5869e-25  1.1969e-23  5.0023e-25  2.1693e-23
      3.60  4.0172e-25  3.4749e-26  4.0172e-25  3.5307e-26  4.0173e-25  3.6298e-26  4.0173e-25  3.8061e-26  4.0175e-25  4.1197e-26  4.0177e-25  4.6772e-26  4.0181e-25  5.6687e-26  4.0188e-25  7.4320e-26  4.0201e-25  1.0568e-25  4.0224e-25  1.6146e-25  4.0265e-25  2.6069e-25  4.0337e-25  4.3728e-25  4.0465e-25  7.5168e-25  4.0693e-25  1.3119e-24  4.1098e-25  2.3117e-24  4.1819e-25  4.1007e-24  4.3103e-25  7.3171e-24  4.5397e-25  1.3145e-23  4.9524e-25  2.3809e-23
      3.65  3.9723e-25  3.8699e-26  3.9723e-25  3.9319e-26  3.9724e-25  4.0421e-26  3.9724e-25  4.2382e-26  3.9726e-25  4.5868e-26  3.9728e-25  5.2067e-26  3.9732e-25  6.3092e-26  3.9739e-25  8.2699e-26  3.9752e-25  1.1757e-25  3.9775e-25  1.7959e-25  3.9815e-25  2.8994e-25  3.9887e-25  4.8630e-25  4.0014e-25  8.3589e-25  4.0240e-25  1.4588e-24  4.0642e-25  2.5704e-24  4.1357e-25  4.5595e-24  4.2632e-25  8.1354e-24  4.4918e-25  1.4622e-23  4.9012e-25  2.6454e-23
      3.70  3.9259e-25  4.3096e-26  3.9260e-25  4.3795e-26  3.9260e-25  4.5038e-26  3.9261e-25  4.7249e-26  3.9262e-25  5.1180e-26  3.9264e-25  5.8171e-26  3.9268e-25  7.0604e-26  3.9276e-25  9.2715e-26  3.9288e-25  1.3204e-25  3.9311e-25  2.0199e-25  3.9351e-25  3.2642e-25  3.9422e-25  5.4786e-25  3.9548e-25  9.4209e-25  3.9773e-25  1.6445e-24  4.0172e-25  2.8981e-24  4.0883e-25  5.1409e-24  4.2150e-25  9.1724e-24  4.4419e-25  1.6469e-23  4.8494e-25  2.9806e-23
      3.75  3.8781e-25  4.8069e-26  3.8781e-25  4.8871e-26  3.8781e-25  5.0297e-26  3.8782e-25  5.2832e-26  3.8783e-25  5.7340e-26  3.8786e-25  6.5358e-26  3.8790e-25  7.9615e-26  3.8797e-25  1.0497e-25  3.8810e-25  1.5007e-25  3.8832e-25  2.3028e-25  3.8872e-25  3.7298e-25  3.8943e-25  6.2691e-25  3.9068e-25  1.0790e-24  3.9292e-25  1.8845e-24  3.9689e-25  3.3218e-24  4.0397e-25  5.8934e-24  4.1658e-25  1.0515e-23  4.3915e-25  1.8876e-23  4.7979e-25  3.4141e-23
      3.80  3.8396e-25  5.4447e-26  3.8396e-25  5.5385e-26  3.8397e-25  5.7054e-26  3.8398e-25  6.0022e-26  3.8399e-25  6.5300e-26  3.8401e-25  7.4686e-26  3.8405e-25  9.1378e-26  3.8412e-25  1.2106e-25  3.8425e-25  1.7386e-25  3.8448e-25  2.6776e-25  3.8488e-25  4.3481e-25  3.8558e-25  7.3209e-25  3.8683e-25  1.2613e-24  3.8906e-25  2.2042e-24  3.9302e-25  3.8865e-24  4.0008e-25  6.8959e-24  4.1267e-25  1.2302e-23  4.3522e-25  2.2076e-23  4.7582e-25  3.9900e-23
      3.85  3.7905e-25  6.7120e-26  3.7905e-25  6.8247e-26  3.7905e-25  7.0251e-26  3.7906e-25  7.3816e-26  3.7907e-25  8.0156e-26  3.7910e-25  9.1429e-26  3.7914e-25  1.1148e-25  3.7921e-25  1.4713e-25  3.7934e-25  2.1054e-25  3.7956e-25  3.2333e-25  3.7996e-25  5.2396e-25  3.8067e-25  8.8100e-25  3.8193e-25  1.5165e-24  3.8417e-25  2.6488e-24  3.8816e-25  4.6686e-24  3.9526e-25  8.2804e-24  4.0781e-25  1.4769e-23  4.3061e-25  2.6475e-23  4.7147e-25  4.7789e-23
      3.90  3.7401e-25  1.1280e-25  3.7401e-25  1.1420e-25  3.7401e-25  1.1669e-25  3.7402e-25  1.2111e-25  3.7403e-25  1.2898e-25  3.7406e-25  1.4296e-25  3.7410e-25  1.6784e-25  3.7417e-25  2.1207e-25  3.7430e-25  2.9075e-25  3.7453e-25  4.3068e-25  3.7494e-25  6.7959e-25  3.7566e-25  1.1225e-24  3.7693e-25  1.9109e-24  3.7921e-25  3.3150e-24  3.8326e-25  5.8192e-24  3.9047e-25  1.0295e-23  4.0331e-25  1.8323e-23  4.2639e-25  3.2786e-23  4.6790e-25  5.9038e-23
      3.95  3.6883e-25  3.0976e-25  3.6883e-25  3.1154e-25  3.6884e-25  3.1471e-25  3.6884e-25  3.2035e-25  3.6886e-25  3.3037e-25  3.6888e-25  3.4818e-25  3.6892e-25  3.7987e-25  3.6900e-25  4.3622e-25  3.6913e-25  5.3644e-25  3.6937e-25  7.1467e-25  3.6979e-25  1.0317e-24  3.7052e-25  1.5958e-24  3.7184e-25  2.5996e-24  3.7417e-25  4.3871e-24  3.7833e-25  7.5731e-24  3.8573e-25  1.3262e-23  3.9896e-25  2.3447e-23  4.2265e-25  4.1751e-23  4.6529e-25  7.4811e-23
