# This was generated using Cloudy10 and the columns are ordered 
# as log10 of the fraction of the metallicity to the solar metallicity
# 'h_*_Z' and 'c_*_Z' stands for cooling and heating respectively 
# at * metalicity
#
# NOTE: This was generated separately from loop_coolingcurve_w_UV.py
#       using Output_metals_w_redshift.py.
#
# Redshift = 7.0
# hden = -4.5
#
#     temp   h_-3.00_Z   c_-3.00_Z   h_-2.75_Z   c_-2.75_Z   h_-2.50_Z   c_-2.50_Z   h_-2.25_Z   c_-2.25_Z   h_-2.00_Z   c_-2.00_Z   h_-1.75_Z   c_-1.75_Z   h_-1.50_Z   c_-1.50_Z   h_-1.25_Z   c_-1.25_Z   h_-1.00_Z   c_-1.00_Z   h_-0.75_Z   c_-0.75_Z   h_-0.50_Z   c_-0.50_Z   h_-0.25_Z   c_-0.25_Z    h_0.00_Z    c_0.00_Z    h_0.25_Z    c_0.25_Z    h_0.50_Z    c_0.50_Z    h_0.75_Z    c_0.75_Z    h_1.00_Z    c_1.00_Z    h_1.25_Z    c_1.25_Z    h_1.50_Z    c_1.50_Z 
      4.00  7.2570e-24  9.0586e-24  7.2584e-24  9.0627e-24  7.2610e-24  9.0700e-24  7.2655e-24  9.0831e-24  7.2736e-24  9.1063e-24  7.2879e-24  9.1476e-24  7.3134e-24  9.2210e-24  7.3587e-24  9.3515e-24  7.4393e-24  9.5837e-24  7.5827e-24  9.9967e-24  7.8376e-24  1.0732e-23  8.2908e-24  1.2040e-23  9.0966e-24  1.4371e-23  1.0529e-23  1.8530e-23  1.3075e-23  2.5970e-23  1.7599e-23  3.9343e-23  2.5645e-23  6.3565e-23  3.9982e-23  1.0803e-22  6.5644e-23  1.9148e-22
      4.05  6.8236e-24  1.0108e-23  6.8250e-24  1.0113e-23  6.8276e-24  1.0121e-23  6.8320e-24  1.0135e-23  6.8400e-24  1.0161e-23  6.8541e-24  1.0207e-23  6.8793e-24  1.0288e-23  6.9240e-24  1.0433e-23  7.0035e-24  1.0691e-23  7.1448e-24  1.1149e-23  7.3962e-24  1.1964e-23  7.8431e-24  1.3416e-23  8.6376e-24  1.6002e-23  1.0050e-23  2.0618e-23  1.2561e-23  2.8879e-23  1.7023e-23  4.3734e-23  2.4960e-23  7.0669e-23  3.9105e-23  1.2019e-22  6.4432e-23  2.1337e-22
      4.10  6.4113e-24  1.1284e-23  6.4127e-24  1.1290e-23  6.4152e-24  1.1299e-23  6.4196e-24  1.1315e-23  6.4274e-24  1.1345e-23  6.4414e-24  1.1397e-23  6.4662e-24  1.1489e-23  6.5103e-24  1.1654e-23  6.5887e-24  1.1947e-23  6.7281e-24  1.2468e-23  6.9760e-24  1.3395e-23  7.4169e-24  1.5046e-23  8.2007e-24  1.7988e-23  9.5940e-24  2.3239e-23  1.2071e-23  3.2641e-23  1.6474e-23  4.9558e-23  2.4306e-23  8.0264e-23  3.8267e-23  1.3682e-22  6.3275e-23  2.4352e-22
      4.15  6.0190e-24  1.2604e-23  6.0204e-24  1.2610e-23  6.0228e-24  1.2621e-23  6.0272e-24  1.2640e-23  6.0349e-24  1.2674e-23  6.0487e-24  1.2735e-23  6.0732e-24  1.2843e-23  6.1167e-24  1.3036e-23  6.1941e-24  1.3378e-23  6.3318e-24  1.3987e-23  6.5765e-24  1.5071e-23  7.0117e-24  1.7001e-23  7.7854e-24  2.0441e-23  9.1610e-24  2.6584e-23  1.1606e-23  3.7584e-23  1.5954e-23  5.7392e-23  2.3688e-23  9.3386e-23  3.7480e-23  1.5980e-22  6.2194e-23  2.8545e-22
      4.20  5.6459e-24  1.4085e-23  5.6472e-24  1.4093e-23  5.6497e-24  1.4106e-23  5.6540e-24  1.4129e-23  5.6616e-24  1.4170e-23  5.6752e-24  1.4243e-23  5.6994e-24  1.4373e-23  5.7424e-24  1.4605e-23  5.8189e-24  1.5016e-23  5.9550e-24  1.5749e-23  6.1969e-24  1.7053e-23  6.6270e-24  1.9374e-23  7.3917e-24  2.3512e-23  8.7512e-24  3.0902e-23  1.1168e-23  4.4143e-23  1.5466e-23  6.8001e-23  2.3114e-23  1.1140e-22  3.6754e-23  1.9163e-22  6.1210e-23  3.4382e-22
      4.25  5.2911e-24  1.5751e-23  5.2924e-24  1.5760e-23  5.2948e-24  1.5776e-23  5.2991e-24  1.5805e-23  5.3067e-24  1.5856e-23  5.3201e-24  1.5946e-23  5.3441e-24  1.6106e-23  5.3867e-24  1.6392e-23  5.4624e-24  1.6900e-23  5.5971e-24  1.7804e-23  5.8365e-24  1.9412e-23  6.2623e-24  2.2277e-23  7.0193e-24  2.7384e-23  8.3652e-24  3.6506e-23  1.0758e-23  5.2857e-23  1.5014e-23  8.2338e-23  2.2588e-23  1.3602e-22  3.6102e-23  2.3543e-22  6.0344e-23  4.2443e-22
      4.30  4.9539e-24  1.7629e-23  4.9552e-24  1.7640e-23  4.9576e-24  1.7661e-23  4.9618e-24  1.7697e-23  4.9693e-24  1.7760e-23  4.9827e-24  1.7874e-23  5.0064e-24  1.8076e-23  5.0486e-24  1.8435e-23  5.1237e-24  1.9074e-23  5.2572e-24  2.0210e-23  5.4946e-24  2.2233e-23  5.9168e-24  2.5836e-23  6.6674e-24  3.2259e-23  8.0021e-24  4.3736e-23  1.0375e-23  6.4312e-23  1.4596e-23  1.0143e-22  2.2110e-23  1.6909e-22  3.5522e-23  2.9452e-22  5.9596e-23  5.3351e-22
      4.35  4.6333e-24  1.9746e-23  4.6346e-24  1.9761e-23  4.6369e-24  1.9786e-23  4.6411e-24  1.9832e-23  4.6486e-24  1.9913e-23  4.6618e-24  2.0058e-23  4.6854e-24  2.0315e-23  4.7274e-24  2.0772e-23  4.8019e-24  2.1585e-23  4.9345e-24  2.3031e-23  5.1703e-24  2.5605e-23  5.5896e-24  3.0190e-23  6.3352e-24  3.8365e-23  7.6609e-24  5.2972e-23  1.0018e-23  7.9170e-23  1.4212e-23  1.2645e-22  2.1679e-23  2.1268e-22  3.5013e-23  3.7273e-22  5.8963e-23  6.7813e-22
      4.40  4.3283e-24  2.2136e-23  4.3296e-24  2.2154e-23  4.3319e-24  2.2187e-23  4.3361e-24  2.2246e-23  4.3435e-24  2.2350e-23  4.3567e-24  2.2534e-23  4.3802e-24  2.2863e-23  4.4219e-24  2.3448e-23  4.4961e-24  2.4489e-23  4.6280e-24  2.6340e-23  4.8626e-24  2.9635e-23  5.2797e-24  3.5503e-23  6.0215e-24  4.5967e-23  7.3405e-24  6.4668e-23  9.6861e-24  9.8212e-23  1.3859e-23  1.5876e-22  2.1292e-23  2.6926e-22  3.4572e-23  4.7451e-22  5.8441e-23  8.6663e-22
      4.45  4.0379e-24  2.4834e-23  4.0392e-24  2.4858e-23  4.0415e-24  2.4900e-23  4.0457e-24  2.4975e-23  4.0531e-24  2.5108e-23  4.0662e-24  2.5345e-23  4.0896e-24  2.5767e-23  4.1312e-24  2.6517e-23  4.2051e-24  2.7851e-23  4.3365e-24  3.0225e-23  4.5703e-24  3.4450e-23  4.9860e-24  4.1975e-23  5.7252e-24  5.5396e-23  7.0397e-24  7.9380e-23  9.3775e-24  1.2241e-22  1.3538e-23  2.0009e-22  2.0949e-23  3.4189e-22  3.4198e-23  6.0543e-22  5.8030e-23  1.1094e-21
      4.50  3.7609e-24  2.7882e-23  3.7622e-24  2.7913e-23  3.7646e-24  2.7967e-23  3.7687e-24  2.8063e-23  3.7761e-24  2.8234e-23  3.7892e-24  2.8538e-23  3.8126e-24  2.9078e-23  3.8541e-24  3.0039e-23  3.9279e-24  3.1749e-23  4.0591e-24  3.4792e-23  4.2924e-24  4.0207e-23  4.7074e-24  4.9852e-23  5.4453e-24  6.7052e-23  6.7575e-24  9.7793e-23  9.0917e-24  1.5294e-22  1.3246e-23  2.5252e-22  2.0650e-23  4.3432e-22  3.3893e-23  7.7228e-22  5.7735e-23  1.4189e-21
      4.55  3.4965e-24  3.1337e-23  3.4978e-24  3.1376e-23  3.5001e-24  3.1445e-23  3.5043e-24  3.1567e-23  3.5116e-24  3.1785e-23  3.5248e-24  3.2173e-23  3.5481e-24  3.2862e-23  3.5896e-24  3.4089e-23  3.6634e-24  3.6270e-23  3.7946e-24  4.0151e-23  4.0279e-24  4.7059e-23  4.4428e-24  5.9362e-23  5.1806e-24  8.1304e-23  6.4929e-24  1.2052e-22  8.8274e-24  1.9087e-22  1.2983e-23  3.1790e-22  2.0393e-23  5.4982e-22  3.3654e-23  9.8103e-22  5.7552e-23  1.8063e-21
      4.60  3.2434e-24  3.5276e-23  3.2447e-24  3.5325e-23  3.2470e-24  3.5413e-23  3.2512e-24  3.5569e-23  3.2586e-24  3.5845e-23  3.2717e-24  3.6337e-23  3.2951e-24  3.7212e-23  3.3366e-24  3.8768e-23  3.4105e-24  4.1536e-23  3.5419e-24  4.6461e-23  3.7756e-24  5.5226e-23  4.1912e-24  7.0838e-23  4.9302e-24  9.8678e-23  6.2446e-24  1.4843e-22  8.5833e-24  2.3769e-22  1.2747e-23  3.9886e-22  2.0176e-23  6.9310e-22  3.3478e-23  1.2401e-21  5.7472e-23  2.2871e-21
      4.65  3.0007e-24  3.9858e-23  3.0020e-24  3.9920e-23  3.0044e-24  4.0030e-23  3.0085e-24  4.0226e-23  3.0160e-24  4.0574e-23  3.0291e-24  4.1193e-23  3.0526e-24  4.2295e-23  3.0942e-24  4.4255e-23  3.1683e-24  4.7740e-23  3.3001e-24  5.3941e-23  3.5344e-24  6.4979e-23  3.9512e-24  8.4638e-23  4.6923e-24  1.1969e-22  6.0107e-24  1.8234e-22  8.3566e-24  2.9472e-22  1.2535e-23  4.9763e-22  1.9990e-23  8.6799e-22  3.3351e-23  1.5564e-21  5.7469e-23  2.8737e-21
      4.70  2.7671e-24  4.5379e-23  2.7685e-24  4.5456e-23  2.7708e-24  4.5593e-23  2.7750e-24  4.5838e-23  2.7824e-24  4.6272e-23  2.7956e-24  4.7044e-23  2.8192e-24  4.8418e-23  2.8610e-24  5.0861e-23  2.9353e-24  5.5207e-23  3.0676e-24  6.2940e-23  3.3028e-24  7.6702e-23  3.7210e-24  1.0121e-22  4.4649e-24  1.4492e-22  5.7881e-24  2.2303e-22  8.1429e-24  3.6313e-22  1.2338e-23  6.1603e-22  1.9826e-23  1.0776e-21  3.3253e-23  1.9351e-21  5.7505e-23  3.5755e-21
      4.75  2.5393e-24  5.2370e-23  2.5406e-24  5.2465e-23  2.5430e-24  5.2635e-23  2.5472e-24  5.2936e-23  2.5547e-24  5.3471e-23  2.5679e-24  5.4423e-23  2.5915e-24  5.6116e-23  2.6335e-24  5.9128e-23  2.7081e-24  6.4484e-23  2.8408e-24  7.4015e-23  3.0768e-24  9.0977e-23  3.4966e-24  1.2119e-22  4.2431e-24  1.7506e-22  5.5711e-24  2.7131e-22  7.9347e-24  4.4394e-22  1.2146e-23  7.5551e-22  1.9665e-23  1.3239e-21  3.3153e-23  2.3797e-21  5.7528e-23  4.3982e-21
      4.80  2.3066e-24  6.1625e-23  2.3097e-24  6.1754e-23  2.3121e-24  6.1960e-23  2.3163e-24  6.2326e-23  2.3238e-24  6.2977e-23  2.3371e-24  6.4135e-23  2.3608e-24  6.6194e-23  2.4028e-24  6.9857e-23  2.4776e-24  7.6371e-23  2.6107e-24  8.7961e-23  2.8472e-24  1.0859e-22  3.2680e-24  1.4533e-22  4.0163e-24  2.1083e-22  5.3475e-24  3.2788e-22  7.7169e-24  5.3776e-22  1.1939e-23  9.1650e-22  1.9479e-23  1.6072e-21  3.3008e-23  2.8896e-21  5.7465e-23  5.3399e-21
      4.85  2.0552e-24  7.4065e-23  2.0566e-24  7.4204e-23  2.0589e-24  7.4450e-23  2.0631e-24  7.4889e-23  2.0706e-24  7.5669e-23  2.0826e-24  7.7039e-23  2.1076e-24  7.9525e-23  2.1496e-24  8.3914e-23  2.2244e-24  9.1721e-23  2.3573e-24  1.0561e-22  2.5938e-24  1.3033e-22  3.0143e-24  1.7436e-22  3.7622e-24  2.5286e-22  5.0927e-24  3.9310e-22  7.4607e-24  6.4457e-22  1.1680e-23  1.0983e-21  1.9218e-23  1.9254e-21  3.2742e-23  3.4603e-21  5.7192e-23  6.3912e-21
      4.90  1.7527e-24  8.9756e-23  1.7540e-24  8.9920e-23  1.7564e-24  9.0211e-23  1.7606e-24  9.0729e-23  1.7680e-24  9.1649e-23  1.7812e-24  9.3287e-23  1.8047e-24  9.6198e-23  1.8465e-24  1.0138e-22  1.9208e-24  1.1059e-22  2.0530e-24  1.2697e-22  2.2880e-24  1.5614e-22  2.7059e-24  2.0808e-22  3.4492e-24  3.0068e-22  4.7714e-24  4.6612e-22  7.1245e-24  7.6274e-22  1.1317e-23  1.2978e-21  1.8807e-23  2.2729e-21  3.2244e-23  4.0817e-21  5.6529e-23  7.5334e-21
      4.95  1.3927e-24  1.0665e-22  1.3940e-24  1.0684e-22  1.3963e-24  1.0718e-22  1.4004e-24  1.0778e-22  1.4077e-24  1.0885e-22  1.4207e-24  1.1075e-22  1.4439e-24  1.1412e-22  1.4850e-24  1.2012e-22  1.5582e-24  1.3080e-22  1.6884e-24  1.4979e-22  1.9199e-24  1.8360e-22  2.3315e-24  2.4379e-22  3.0635e-24  3.5112e-22  4.3653e-24  5.4286e-22  6.6817e-24  8.8659e-22  1.0808e-23  1.5065e-21  1.8178e-23  2.6361e-21  3.1397e-23  4.7304e-21  5.5269e-23  8.7248e-21
      5.00  1.0222e-24  1.2105e-22  1.0235e-24  1.2126e-22  1.0257e-24  1.2165e-22  1.0297e-24  1.2233e-22  1.0369e-24  1.2354e-22  1.0495e-24  1.2570e-22  1.0720e-24  1.2953e-22  1.1121e-24  1.3635e-22  1.1833e-24  1.4848e-22  1.3100e-24  1.7007e-22  1.5352e-24  2.0848e-22  1.9356e-24  2.7689e-22  2.6474e-24  3.9885e-22  3.9130e-24  6.1672e-22  6.1642e-24  1.0073e-21  1.0173e-23  1.7115e-21  1.7330e-23  2.9943e-21  3.0158e-23  5.3718e-21  5.3298e-23  9.9035e-21
      5.05  7.1475e-25  1.3132e-22  7.1597e-25  1.3156e-22  7.1817e-25  1.3199e-22  7.2198e-25  1.3275e-22  7.2883e-25  1.3410e-22  7.4100e-25  1.3650e-22  7.6264e-25  1.4077e-22  8.0112e-25  1.4836e-22  8.6954e-25  1.6187e-22  9.9118e-25  1.8591e-22  1.2074e-24  2.2868e-22  1.5917e-24  3.0486e-22  2.2747e-24  4.4067e-22  3.4881e-24  6.8327e-22  5.6453e-24  1.1181e-21  9.4847e-24  1.9020e-21  1.6334e-23  3.3295e-21  2.8605e-23  5.9738e-21  5.0725e-23  1.1009e-20
      5.10  5.0002e-25  1.3927e-22  5.0118e-25  1.3953e-22  5.0324e-25  1.4000e-22  5.0692e-25  1.4083e-22  5.1341e-25  1.4231e-22  5.2499e-25  1.4494e-22  5.4560e-25  1.4961e-22  5.8219e-25  1.5792e-22  6.4728e-25  1.7271e-22  7.6295e-25  1.9901e-22  9.6847e-25  2.4582e-22  1.3335e-24  3.2918e-22  1.9816e-24  4.7780e-22  3.1320e-24  7.4325e-22  5.1750e-24  1.2190e-21  8.8117e-24  2.0765e-21  1.5310e-23  3.6374e-21  2.6943e-23  6.5275e-21  4.7860e-23  1.2028e-20
      5.15  3.6155e-25  1.4747e-22  3.6265e-25  1.4776e-22  3.6459e-25  1.4826e-22  3.6806e-25  1.4916e-22  3.7422e-25  1.5076e-22  3.8518e-25  1.5361e-22  4.0467e-25  1.5867e-22  4.3930e-25  1.6767e-22  5.0085e-25  1.8368e-22  6.1017e-25  2.1217e-22  8.0424e-25  2.6286e-22  1.1485e-24  3.5314e-22  1.7588e-24  5.1409e-22  2.8405e-24  8.0157e-22  4.7673e-24  1.3167e-21  8.2038e-24  2.2452e-21  1.4335e-23  3.9355e-21  2.5302e-23  7.0652e-21  4.4992e-23  1.3021e-20
      5.20  2.7251e-25  1.5748e-22  2.7354e-25  1.5778e-22  2.7537e-25  1.5833e-22  2.7864e-25  1.5930e-22  2.8444e-25  1.6102e-22  2.9476e-25  1.6408e-22  3.1310e-25  1.6952e-22  3.4567e-25  1.7920e-22  4.0352e-25  1.9643e-22  5.0617e-25  2.2707e-22  6.8814e-25  2.8160e-22  1.0103e-24  3.7872e-22  1.5801e-24  5.5187e-22  2.5968e-24  8.6114e-22  4.4070e-24  1.4154e-21  7.6317e-24  2.4147e-21  1.3384e-23  4.2347e-21  2.3667e-23  7.6068e-21  4.2116e-23  1.4031e-20
      5.25  2.1311e-25  1.6995e-22  2.1408e-25  1.7028e-22  2.1579e-25  1.7086e-22  2.1883e-25  1.7189e-22  2.2425e-25  1.7372e-22  2.3387e-25  1.7697e-22  2.5095e-25  1.8276e-22  2.8128e-25  1.9305e-22  3.3507e-25  2.1136e-22  4.3036e-25  2.4395e-22  5.9884e-25  3.0194e-22  8.9612e-25  4.0525e-22  1.4260e-24  5.8942e-22  2.3696e-24  9.1842e-22  4.0491e-24  1.5082e-21  7.0409e-24  2.5721e-21  1.2377e-23  4.5112e-21  2.1917e-23  8.1209e-21  3.9022e-23  1.5000e-20
      5.30  1.7157e-25  1.8515e-22  1.7245e-25  1.8549e-22  1.7403e-25  1.8610e-22  1.7684e-25  1.8717e-22  1.8182e-25  1.8908e-22  1.9067e-25  1.9248e-22  2.0636e-25  1.9853e-22  2.3419e-25  2.0928e-22  2.8342e-25  2.2842e-22  3.7036e-25  2.6247e-22  5.2338e-25  3.2311e-22  7.9474e-25  4.3111e-22  1.2794e-24  6.2366e-22  2.1417e-24  9.6772e-22  3.6766e-24  1.5848e-21  6.4108e-24  2.6986e-21  1.1288e-23  4.7315e-21  2.0006e-23  8.5108e-21  3.5641e-23  1.5766e-20
      5.35  1.4123e-25  2.0320e-22  1.4203e-25  2.0354e-22  1.4345e-25  2.0415e-22  1.4598e-25  2.0524e-22  1.5047e-25  2.0716e-22  1.5843e-25  2.1059e-22  1.7255e-25  2.1668e-22  1.9750e-25  2.2751e-22  2.4151e-25  2.4680e-22  3.1887e-25  2.8115e-22  4.5459e-25  3.4234e-22  6.9826e-25  4.5125e-22  1.1316e-24  6.4549e-22  1.9028e-24  9.9307e-22  3.2756e-24  1.6165e-21  5.7215e-24  2.7431e-21  1.0086e-23  4.8032e-21  1.7893e-23  8.6456e-21  3.1907e-23  1.6040e-20
      5.40  1.1827e-25  2.2423e-22  1.1897e-25  2.2455e-22  1.2020e-25  2.2512e-22  1.2238e-25  2.2613e-22  1.2624e-25  2.2793e-22  1.3310e-25  2.3112e-22  1.4525e-25  2.3681e-22  1.6669e-25  2.4694e-22  2.0441e-25  2.6497e-22  2.7049e-25  2.9711e-22  3.8757e-25  3.5433e-22  5.9705e-25  4.5620e-22  9.6968e-25  6.3793e-22  1.6328e-24  9.6294e-22  2.8134e-24  1.5467e-21  4.9176e-24  2.6033e-21  8.6747e-24  4.5402e-21  1.5402e-23  8.1713e-21  2.7499e-23  1.5240e-20
      5.45  1.0045e-25  2.4843e-22  1.0100e-25  2.4869e-22  1.0200e-25  2.4916e-22  1.0375e-25  2.4999e-22  1.0687e-25  2.5147e-22  1.1240e-25  2.5411e-22  1.2220e-25  2.5879e-22  1.3952e-25  2.6714e-22  1.7003e-25  2.8202e-22  2.2356e-25  3.0855e-22  3.1903e-25  3.5573e-22  4.8901e-25  4.3975e-22  7.9128e-25  5.8970e-22  1.3291e-24  8.5796e-22  2.2867e-24  1.3402e-21  3.9936e-24  2.2139e-21  7.0421e-24  3.8236e-21  1.2502e-23  6.8456e-21  2.2325e-23  1.2731e-20
      5.50  8.6370e-26  2.7605e-22  8.6803e-26  2.7625e-22  8.7575e-26  2.7660e-22  8.8953e-26  2.7722e-22  9.1394e-26  2.7834e-22  9.5732e-26  2.8031e-22  1.0343e-25  2.8384e-22  1.1707e-25  2.9010e-22  1.4119e-25  3.0126e-22  1.8372e-25  3.2115e-22  2.5941e-25  3.5653e-22  3.9388e-25  4.1955e-22  6.3288e-25  5.3200e-22  1.0580e-24  7.3322e-22  1.8148e-24  1.0949e-21  3.1635e-24  1.7563e-21  5.5706e-24  2.9658e-21  9.8783e-24  5.2405e-21  1.7618e-23  9.6994e-21
      5.55  7.5134e-26  3.0749e-22  7.5487e-26  3.0765e-22  7.6117e-26  3.0794e-22  7.7240e-26  3.0845e-22  7.9243e-26  3.0935e-22  8.2807e-26  3.1096e-22  8.9144e-26  3.1383e-22  1.0038e-25  3.1892e-22  1.2032e-25  3.2799e-22  1.5563e-25  3.4412e-22  2.1820e-25  3.7284e-22  3.2915e-25  4.2400e-22  5.2623e-25  5.1530e-22  8.7669e-25  6.7864e-22  1.5005e-24  9.7221e-22  2.6117e-24  1.5041e-21  4.5941e-24  2.4809e-21  8.1382e-24  4.3163e-21  1.4495e-23  7.8892e-21
      5.60  6.6074e-26  3.4312e-22  6.6380e-26  3.4327e-22  6.6926e-26  3.4353e-22  6.7899e-26  3.4398e-22  6.9633e-26  3.4480e-22  7.2730e-26  3.4624e-22  7.8242e-26  3.4881e-22  8.8031e-26  3.5338e-22  1.0542e-25  3.6151e-22  1.3613e-25  3.7599e-22  1.9048e-25  4.0175e-22  2.8669e-25  4.4765e-22  4.5770e-25  5.2956e-22  7.6186e-25  6.7610e-22  1.3032e-24  9.3947e-22  2.2674e-24  1.4166e-21  3.9870e-24  2.2927e-21  7.0601e-24  3.9380e-21  1.2568e-23  7.1402e-21
      5.65  5.8697e-26  3.8337e-22  5.8970e-26  3.8351e-22  5.9459e-26  3.8376e-22  6.0330e-26  3.8420e-22  6.1883e-26  3.8498e-22  6.4652e-26  3.8637e-22  6.9584e-26  3.8884e-22  7.8368e-26  3.9323e-22  9.3977e-26  4.0105e-22  1.2134e-25  4.1496e-22  1.6979e-25  4.3972e-22  2.5559e-25  4.8385e-22  4.0814e-25  5.6259e-22  6.7948e-25  7.0346e-22  1.1624e-24  9.5669e-22  2.0226e-24  1.4156e-21  3.5567e-24  2.2584e-21  6.2981e-24  3.8429e-21  1.1212e-23  6.9275e-21
      5.70  5.2638e-26  4.2873e-22  5.2883e-26  4.2887e-22  5.3323e-26  4.2911e-22  5.4108e-26  4.2953e-22  5.5505e-26  4.3029e-22  5.7998e-26  4.3164e-22  6.2445e-26  4.3403e-22  7.0361e-26  4.3829e-22  8.4315e-26  4.4588e-22  1.0878e-25  4.5937e-22  1.5209e-25  4.8339e-22  2.2892e-25  5.2618e-22  3.6549e-25  6.0256e-22  6.0841e-25  7.3922e-22  1.0408e-24  9.8492e-22  1.8111e-24  1.4303e-21  3.1849e-24  2.2489e-21  5.6408e-24  3.7893e-21  1.0044e-23  6.7935e-21
      5.75  4.7626e-26  4.7973e-22  4.7844e-26  4.7986e-22  4.8234e-26  4.8008e-22  4.8932e-26  4.8048e-22  5.0176e-26  4.8119e-22  5.2399e-26  4.8246e-22  5.6368e-26  4.8471e-22  6.3363e-26  4.8872e-22  7.5627e-26  4.9585e-22  9.7229e-26  5.0853e-22  1.3546e-25  5.3111e-22  2.0339e-25  5.7135e-22  3.2413e-25  6.4316e-22  5.3888e-25  7.7168e-22  9.2116e-25  1.0028e-21  1.6022e-24  1.4219e-21  2.8173e-24  2.1930e-21  4.9904e-24  3.6626e-21  8.8891e-24  6.5174e-21
      5.80  4.3457e-26  5.3712e-22  4.3648e-26  5.3724e-22  4.3990e-26  5.3744e-22  4.4604e-26  5.3782e-22  4.5701e-26  5.3847e-22  4.7667e-26  5.3965e-22  5.1139e-26  5.4173e-22  5.7231e-26  5.4544e-22  6.7890e-26  5.5205e-22  8.6748e-26  5.6379e-22  1.2014e-25  5.8471e-22  1.7949e-25  6.2198e-22  2.8497e-25  6.8849e-22  4.7259e-25  8.0754e-22  8.0658e-25  1.0216e-21  1.4016e-24  1.4101e-21  2.4634e-24  2.1254e-21  4.3622e-24  3.4746e-21  7.7698e-24  6.1206e-21
      5.85  3.9976e-26  6.0164e-22  4.0144e-26  6.0175e-22  4.0446e-26  6.0195e-22  4.0989e-26  6.0231e-22  4.1966e-26  6.0293e-22  4.3711e-26  6.0405e-22  4.6737e-26  6.0604e-22  5.2055e-26  6.0959e-22  6.1402e-26  6.1589e-22  7.7966e-26  6.2710e-22  1.0728e-25  6.4706e-22  1.5934e-25  6.8262e-22  2.5192e-25  7.4609e-22  4.1658e-25  8.5969e-22  7.0970e-25  1.0640e-21  1.2319e-24  1.4345e-21  2.1635e-24  2.1163e-21  3.8293e-24  3.4009e-21  6.8175e-24  5.9184e-21
      5.90  3.7057e-26  6.7414e-22  3.7207e-26  6.7425e-22  3.7476e-26  6.7445e-22  3.7962e-26  6.7481e-22  3.8836e-26  6.7544e-22  4.0386e-26  6.7656e-22  4.3068e-26  6.7855e-22  4.7758e-26  6.8210e-22  5.6055e-26  6.8842e-22  7.0694e-26  6.9965e-22  9.6626e-26  7.1965e-22  1.4269e-25  7.5529e-22  2.2459e-25  8.1889e-22  3.7030e-25  9.3272e-22  6.2963e-25  1.1374e-21  1.0916e-24  1.5088e-21  1.9156e-24  2.1947e-21  3.3885e-24  3.4999e-21  6.0293e-24  6.0511e-21
      5.95  3.4596e-26  7.5557e-22  3.4729e-26  7.5569e-22  3.4968e-26  7.5589e-22  3.5401e-26  7.5625e-22  3.6180e-26  7.5690e-22  3.7557e-26  7.5805e-22  3.9942e-26  7.6009e-22  4.4094e-26  7.6373e-22  5.1389e-26  7.7020e-22  6.4288e-26  7.8171e-22  8.7174e-26  8.0220e-22  1.2778e-25  8.3870e-22  1.9998e-25  9.0387e-22  3.2843e-25  1.0205e-21  5.5705e-25  1.2303e-21  9.6424e-25  1.6111e-21  1.6903e-24  2.3123e-21  2.9878e-24  3.6495e-21  5.3122e-24  6.2676e-21
      6.00  3.2511e-26  8.4700e-22  3.2626e-26  8.4711e-22  3.2834e-26  8.4732e-22  3.3212e-26  8.4768e-22  3.3896e-26  8.4833e-22  3.5116e-26  8.4949e-22  3.7201e-26  8.5155e-22  4.0811e-26  8.5521e-22  4.7152e-26  8.6171e-22  5.8347e-26  8.7329e-22  7.8196e-26  8.9390e-22  1.1345e-25  9.3063e-22  1.7611e-25  9.9619e-22  2.8759e-25  1.1135e-21  4.8598e-25  1.3247e-21  8.3929e-25  1.7079e-21  1.4691e-24  2.4147e-21  2.5938e-24  3.7498e-21  4.6071e-24  6.3698e-21
      6.05  3.0736e-26  9.4964e-22  3.0833e-26  9.4975e-22  3.1010e-26  9.4995e-22  3.1331e-26  9.5031e-22  3.1915e-26  9.5094e-22  3.2975e-26  9.5206e-22  3.4777e-26  9.5406e-22  3.7861e-26  9.5762e-22  4.3257e-26  9.6395e-22  5.2780e-26  9.7521e-22  6.9649e-26  9.9525e-22  9.9627e-26  1.0310e-21  1.5293e-25  1.0947e-21  2.4774e-25  1.2088e-21  4.1646e-25  1.4142e-21  7.1687e-25  1.7870e-21  1.2522e-24  2.4749e-21  2.2078e-24  3.7764e-21  3.9171e-24  6.3312e-21
      6.10  2.9221e-26  1.0648e-21  2.9302e-26  1.0649e-21  2.9449e-26  1.0651e-21  2.9715e-26  1.0655e-21  3.0203e-26  1.0661e-21  3.1092e-26  1.0671e-21  3.2614e-26  1.0691e-21  3.5217e-26  1.0724e-21  3.9718e-26  1.0785e-21  4.7655e-26  1.0892e-21  6.1744e-26  1.1082e-21  8.6769e-26  1.1422e-21  1.3127e-25  1.2029e-21  2.1043e-25  1.3115e-21  3.5129e-25  1.5070e-21  6.0205e-25  1.8619e-21  1.0489e-24  2.5166e-21  1.8460e-24  3.7540e-21  3.2712e-24  6.1876e-21
      6.15  2.7924e-26  1.1941e-21  2.7990e-26  1.1942e-21  2.8110e-26  1.1944e-21  2.8328e-26  1.1947e-21  2.8723e-26  1.1953e-21  2.9438e-26  1.1963e-21  3.0665e-26  1.1981e-21  3.2812e-26  1.2012e-21  3.6498e-26  1.2068e-21  4.2994e-26  1.2168e-21  5.4515e-26  1.2345e-21  7.4976e-26  1.2661e-21  1.1136e-25  1.3226e-21  1.7609e-25  1.4237e-21  2.9126e-25  1.6058e-21  4.9629e-25  1.9363e-21  8.6159e-25  2.5462e-21  1.5133e-24  3.6995e-21  2.6781e-24  5.9753e-21
      6.20  2.6809e-26  1.3392e-21  2.6862e-26  1.3393e-21  2.6958e-26  1.3395e-21  2.7129e-26  1.3397e-21  2.7439e-26  1.3402e-21  2.7996e-26  1.3411e-21  2.8958e-26  1.3427e-21  3.0636e-26  1.3456e-21  3.3575e-26  1.3506e-21  3.8743e-26  1.3596e-21  4.7893e-26  1.3756e-21  6.4149e-26  1.4041e-21  9.3048e-26  1.4551e-21  1.4446e-25  1.5462e-21  2.3593e-25  1.7103e-21  3.9877e-25  2.0085e-21  6.8892e-25  2.5590e-21  1.2066e-24  3.6060e-21  2.1323e-24  5.6785e-21
      6.25  2.5848e-26  1.5020e-21  2.5889e-26  1.5021e-21  2.5962e-26  1.5022e-21  2.6092e-26  1.5025e-21  2.6327e-26  1.5029e-21  2.6747e-26  1.5037e-21  2.7472e-26  1.5051e-21  2.8749e-26  1.5075e-21  3.0991e-26  1.5119e-21  3.4950e-26  1.5196e-21  4.1965e-26  1.5334e-21  5.4425e-26  1.5579e-21  7.6577e-26  1.6018e-21  1.1598e-25  1.6803e-21  1.8609e-25  1.8216e-21  3.1091e-25  2.0784e-21  5.3335e-25  2.5530e-21  9.3033e-25  3.4534e-21  1.6405e-24  5.2245e-21
      6.30  2.5017e-26  1.6847e-21  2.5047e-26  1.6847e-21  2.5101e-26  1.6849e-21  2.5197e-26  1.6851e-21  2.5368e-26  1.6854e-21  2.5674e-26  1.6861e-21  2.6202e-26  1.6872e-21  2.7139e-26  1.6893e-21  2.8798e-26  1.6929e-21  3.1722e-26  1.6992e-21  3.6917e-26  1.7106e-21  4.6140e-26  1.7309e-21  6.2541e-26  1.7671e-21  9.1711e-26  1.8318e-21  1.4362e-25  1.9484e-21  2.3605e-25  2.1601e-21  4.0079e-25  2.5507e-21  6.9492e-25  3.2894e-21  1.2215e-24  4.7498e-21
      6.35  2.4297e-26  1.8897e-21  2.4319e-26  1.8897e-21  2.4358e-26  1.8898e-21  2.4427e-26  1.8900e-21  2.4550e-26  1.8903e-21  2.4767e-26  1.8908e-21  2.5143e-26  1.8918e-21  2.5812e-26  1.8935e-21  2.7002e-26  1.8965e-21  2.9120e-26  1.9018e-21  3.2872e-26  1.9113e-21  3.9541e-26  1.9282e-21  5.1394e-26  1.9583e-21  7.2478e-26  2.0122e-21  1.1000e-25  2.1091e-21  1.7684e-25  2.2850e-21  2.9600e-25  2.6107e-21  5.0885e-25  3.2236e-21  8.9025e-25  4.4256e-21
      6.40  2.3674e-26  2.1197e-21  2.3689e-26  2.1197e-21  2.3717e-26  2.1198e-21  2.3766e-26  2.1200e-21  2.3854e-26  2.1202e-21  2.4009e-26  2.1207e-21  2.4277e-26  2.1215e-21  2.4753e-26  2.1230e-21  2.5605e-26  2.1256e-21  2.7124e-26  2.1303e-21  2.9829e-26  2.1385e-21  3.4637e-26  2.1532e-21  4.3185e-26  2.1793e-21  5.8392e-26  2.2261e-21  8.5465e-26  2.3103e-21  1.3369e-25  2.4628e-21  2.1972e-25  2.7436e-21  3.7353e-25  3.2719e-21  6.4960e-25  4.3104e-21
      6.45  2.3131e-26  2.3777e-21  2.3143e-26  2.3778e-21  2.3163e-26  2.3779e-21  2.3199e-26  2.3780e-21  2.3261e-26  2.3782e-21  2.3373e-26  2.3786e-21  2.3567e-26  2.3794e-21  2.3912e-26  2.3808e-21  2.4528e-26  2.3831e-21  2.5631e-26  2.3873e-21  2.7599e-26  2.3947e-21  3.1103e-26  2.4079e-21  3.7340e-26  2.4314e-21  4.8444e-26  2.4736e-21  6.8214e-26  2.5492e-21  1.0345e-25  2.6862e-21  1.6636e-25  2.9377e-21  2.7899e-25  3.4096e-21  4.8168e-25  4.3315e-21
      6.50  2.2658e-26  2.6673e-21  2.2667e-26  2.6673e-21  2.2682e-26  2.6674e-21  2.2708e-26  2.6675e-21  2.2755e-26  2.6677e-21  2.2836e-26  2.6681e-21  2.2979e-26  2.6689e-21  2.3234e-26  2.6701e-21  2.3689e-26  2.6723e-21  2.4504e-26  2.6762e-21  2.5963e-26  2.6830e-21  2.8569e-26  2.6951e-21  3.3215e-26  2.7168e-21  4.1490e-26  2.7555e-21  5.6232e-26  2.8249e-21  8.2522e-26  2.9505e-21  1.2949e-25  3.1810e-21  2.1370e-25  3.6110e-21  3.6554e-25  4.4405e-21
      6.55  2.2245e-26  2.9922e-21  2.2252e-26  2.9922e-21  2.2263e-26  2.9923e-21  2.2283e-26  2.9924e-21  2.2318e-26  2.9926e-21  2.2380e-26  2.9930e-21  2.2488e-26  2.9937e-21  2.2681e-26  2.9949e-21  2.3026e-26  2.9970e-21  2.3647e-26  3.0006e-21  2.4760e-26  3.0071e-21  2.6755e-26  3.0186e-21  3.0320e-26  3.0391e-21  3.6678e-26  3.0756e-21  4.8013e-26  3.1412e-21  6.8242e-26  3.2596e-21  1.0442e-25  3.4756e-21  1.6938e-25  3.8769e-21  2.8684e-25  4.6449e-21
      6.60  2.1883e-26  3.3567e-21  2.1888e-26  3.3568e-21  2.1897e-26  3.3568e-21  2.1912e-26  3.3569e-21  2.1939e-26  3.3571e-21  2.1987e-26  3.3575e-21  2.2070e-26  3.3582e-21  2.2220e-26  3.3594e-21  2.2488e-26  3.3615e-21  2.2971e-26  3.3650e-21  2.3842e-26  3.3713e-21  2.5406e-26  3.3826e-21  2.8209e-26  3.4026e-21  3.3220e-26  3.4383e-21  4.2166e-26  3.5022e-21  5.8148e-26  3.6174e-21  8.6768e-26  3.8268e-21  1.3827e-25  4.2139e-21  2.3173e-25  4.9495e-21
      6.65  2.1565e-26  3.7657e-21  2.1569e-26  3.7657e-21  2.1575e-26  3.7658e-21  2.1587e-26  3.7659e-21  2.1608e-26  3.7661e-21  2.1646e-26  3.7665e-21  2.1711e-26  3.7672e-21  2.1828e-26  3.7685e-21  2.2040e-26  3.7705e-21  2.2423e-26  3.7741e-21  2.3115e-26  3.7805e-21  2.4364e-26  3.7918e-21  2.6610e-26  3.8119e-21  3.0636e-26  3.8479e-21  3.7839e-26  3.9121e-21  5.0729e-26  4.0277e-21  7.3857e-26  4.2372e-21  1.1560e-25  4.6226e-21  1.9174e-25  5.3485e-21
      6.70  2.1285e-26  4.2245e-21  2.1288e-26  4.2246e-21  2.1293e-26  4.2246e-21  2.1302e-26  4.2248e-21  2.1319e-26  4.2250e-21  2.1348e-26  4.2253e-21  2.1400e-26  4.2261e-21  2.1495e-26  4.2275e-21  2.1666e-26  4.2296e-21  2.1979e-26  4.2334e-21  2.2546e-26  4.2399e-21  2.3575e-26  4.2516e-21  2.5434e-26  4.2723e-21  2.8778e-26  4.3093e-21  3.4779e-26  4.3755e-21  4.5549e-26  4.4942e-21  6.4946e-26  4.7089e-21  1.0016e-25  5.1022e-21  1.6501e-25  5.8376e-21
      6.75  2.1038e-26  4.7394e-21  2.1041e-26  4.7394e-21  2.1045e-26  4.7395e-21  2.1052e-26  4.7396e-21  2.1064e-26  4.7398e-21  2.1087e-26  4.7402e-21  2.1129e-26  4.7410e-21  2.1205e-26  4.7425e-21  2.1345e-26  4.7448e-21  2.1601e-26  4.7487e-21  2.2071e-26  4.7556e-21  2.2927e-26  4.7679e-21  2.4480e-26  4.7896e-21  2.7286e-26  4.8285e-21  3.2340e-26  4.8978e-21  4.1447e-26  5.0221e-21  5.7930e-26  5.2465e-21  8.8075e-26  5.6557e-21  1.4426e-25  6.4158e-21
      6.80  2.0821e-26  5.3170e-21  2.0823e-26  5.3170e-21  2.0825e-26  5.3171e-21  2.0831e-26  5.3172e-21  2.0840e-26  5.3174e-21  2.0858e-26  5.3179e-21  2.0891e-26  5.3188e-21  2.0951e-26  5.3204e-21  2.1063e-26  5.3228e-21  2.1270e-26  5.3271e-21  2.1651e-26  5.3344e-21  2.2351e-26  5.3475e-21  2.3628e-26  5.3707e-21  2.5948e-26  5.4121e-21  3.0146e-26  5.4859e-21  3.7744e-26  5.6181e-21  5.1571e-26  5.8562e-21  7.7057e-26  6.2891e-21  1.2513e-25  7.0889e-21
      6.85  2.0629e-26  5.9650e-21  2.0630e-26  5.9651e-21  2.0632e-26  5.9651e-21  2.0636e-26  5.9653e-21  2.0643e-26  5.9655e-21  2.0656e-26  5.9660e-21  2.0683e-26  5.9669e-21  2.0733e-26  5.9687e-21  2.0827e-26  5.9715e-21  2.1001e-26  5.9761e-21  2.1325e-26  5.9840e-21  2.1926e-26  5.9982e-21  2.3030e-26  6.0232e-21  2.5047e-26  6.0679e-21  2.8716e-26  6.1476e-21  3.5392e-26  6.2901e-21  4.7628e-26  6.5465e-21  7.0416e-26  7.0113e-21  1.1409e-25  7.8660e-21
      6.90  2.0459e-26  6.6921e-21  2.0460e-26  6.6921e-21  2.0462e-26  6.6922e-21  2.0464e-26  6.6924e-21  2.0469e-26  6.6926e-21  2.0480e-26  6.6931e-21  2.0503e-26  6.6942e-21  2.0547e-26  6.6962e-21  2.0631e-26  6.6993e-21  2.0788e-26  6.7043e-21  2.1087e-26  6.7130e-21  2.1647e-26  6.7284e-21  2.2685e-26  6.7558e-21  2.4587e-26  6.8045e-21  2.8060e-26  6.8915e-21  3.4412e-26  7.0468e-21  4.6142e-26  7.3259e-21  6.8232e-26  7.8309e-21  1.1129e-25  8.7562e-21
      6.95  2.0310e-26  7.5078e-21  2.0310e-26  7.5078e-21  2.0311e-26  7.5079e-21  2.0313e-26  7.5081e-21  2.0317e-26  7.5084e-21  2.0326e-26  7.5089e-21  2.0346e-26  7.5101e-21  2.0383e-26  7.5125e-21  2.0455e-26  7.5158e-21  2.0591e-26  7.5214e-21  2.0857e-26  7.5310e-21  2.1363e-26  7.5480e-21  2.2304e-26  7.5781e-21  2.4037e-26  7.6316e-21  2.7214e-26  7.7271e-21  3.3049e-26  7.8977e-21  4.3881e-26  8.2039e-21  6.4440e-26  8.7567e-21  1.0495e-25  9.7670e-21
      7.00  2.0177e-26  8.4229e-21  2.0177e-26  8.4230e-21  2.0178e-26  8.4231e-21  2.0180e-26  8.4233e-21  2.0183e-26  8.4236e-21  2.0190e-26  8.4242e-21  2.0208e-26  8.4253e-21  2.0242e-26  8.4281e-21  2.0305e-26  8.4320e-21  2.0428e-26  8.4382e-21  2.0674e-26  8.4488e-21  2.1147e-26  8.4676e-21  2.2034e-26  8.5008e-21  2.3679e-26  8.5598e-21  2.6706e-26  8.6651e-21  3.2284e-26  8.8532e-21  4.2682e-26  9.1903e-21  6.2531e-26  9.7981e-21  1.0196e-25  1.0906e-20
      7.05  2.0060e-26  9.4497e-21  2.0060e-26  9.4497e-21  2.0061e-26  9.4499e-21  2.0062e-26  9.4501e-21  2.0064e-26  9.4504e-21  2.0071e-26  9.4511e-21  2.0087e-26  9.4522e-21  2.0119e-26  9.4554e-21  2.0179e-26  9.4599e-21  2.0297e-26  9.4668e-21  2.0535e-26  9.4786e-21  2.1000e-26  9.4993e-21  2.1889e-26  9.5360e-21  2.3549e-26  9.6012e-21  2.6617e-26  9.7174e-21  3.2289e-26  9.9249e-21  4.2893e-26  1.0296e-20  6.3214e-26  1.0965e-20  1.0381e-25  1.2181e-20
      7.10  1.9956e-26  1.0602e-20  1.9956e-26  1.0602e-20  1.9957e-26  1.0602e-20  1.9958e-26  1.0602e-20  1.9960e-26  1.0602e-20  1.9966e-26  1.0603e-20  1.9980e-26  1.0604e-20  2.0012e-26  1.0608e-20  2.0071e-26  1.0613e-20  2.0187e-26  1.0621e-20  2.0420e-26  1.0634e-20  2.0895e-26  1.0657e-20  2.1819e-26  1.0697e-20  2.3563e-26  1.0769e-20  2.6802e-26  1.0897e-20  3.2808e-26  1.1126e-20  4.4063e-26  1.1535e-20  6.5691e-26  1.2271e-20  1.0907e-25  1.3605e-20
      7.15  1.9864e-26  1.1894e-20  1.9864e-26  1.1894e-20  1.9865e-26  1.1894e-20  1.9866e-26  1.1894e-20  1.9868e-26  1.1895e-20  1.9873e-26  1.1896e-20  1.9885e-26  1.1897e-20  1.9914e-26  1.1901e-20  1.9965e-26  1.1907e-20  2.0062e-26  1.1915e-20  2.0268e-26  1.1930e-20  2.0694e-26  1.1955e-20  2.1543e-26  1.2000e-20  2.3172e-26  1.2079e-20  2.6232e-26  1.2221e-20  3.1937e-26  1.2473e-20  4.2662e-26  1.2923e-20  6.3314e-26  1.3731e-20  1.0480e-25  1.5193e-20
      7.20  1.9783e-26  1.3344e-20  1.9783e-26  1.3344e-20  1.9783e-26  1.3344e-20  1.9784e-26  1.3344e-20  1.9786e-26  1.3345e-20  1.9790e-26  1.3346e-20  1.9800e-26  1.3347e-20  1.9824e-26  1.3350e-20  1.9865e-26  1.3358e-20  1.9947e-26  1.3368e-20  2.0120e-26  1.3384e-20  2.0487e-26  1.3412e-20  2.1240e-26  1.3462e-20  2.2720e-26  1.3549e-20  2.5544e-26  1.3705e-20  3.0859e-26  1.3983e-20  4.0901e-26  1.4479e-20  6.0289e-26  1.5367e-20  9.9305e-26  1.6969e-20
      7.25  1.9710e-26  1.4970e-20  1.9711e-26  1.4970e-20  1.9711e-26  1.4970e-20  1.9712e-26  1.4971e-20  1.9713e-26  1.4971e-20  1.9717e-26  1.4972e-20  1.9725e-26  1.4974e-20  1.9742e-26  1.4977e-20  1.9776e-26  1.4985e-20  1.9841e-26  1.4997e-20  1.9980e-26  1.5015e-20  2.0281e-26  1.5047e-20  2.0918e-26  1.5101e-20  2.2208e-26  1.5198e-20  2.4719e-26  1.5371e-20  2.9509e-26  1.5677e-20  3.8624e-26  1.6225e-20  5.6288e-26  1.7205e-20  9.1893e-26  1.8965e-20
      7.30  1.9646e-26  1.6795e-20  1.9646e-26  1.6795e-20  1.9647e-26  1.6795e-20  1.9647e-26  1.6795e-20  1.9649e-26  1.6796e-20  1.9652e-26  1.6797e-20  1.9658e-26  1.6799e-20  1.9672e-26  1.6802e-20  1.9699e-26  1.6811e-20  1.9753e-26  1.6825e-20  1.9861e-26  1.6846e-20  2.0105e-26  1.6881e-20  2.0641e-26  1.6941e-20  2.1763e-26  1.7049e-20  2.4010e-26  1.7240e-20  2.8374e-26  1.7580e-20  3.6766e-26  1.8187e-20  5.3116e-26  1.9270e-20  8.6156e-26  2.1214e-20
      7.35  1.9589e-26  1.8842e-20  1.9590e-26  1.8842e-20  1.9590e-26  1.8842e-20  1.9590e-26  1.8843e-20  1.9592e-26  1.8843e-20  1.9594e-26  1.8844e-20  1.9599e-26  1.8847e-20  1.9611e-26  1.8850e-20  1.9634e-26  1.8859e-20  1.9680e-26  1.8875e-20  1.9770e-26  1.8899e-20  1.9975e-26  1.8938e-20  2.0440e-26  1.9006e-20  2.1446e-26  1.9126e-20  2.3511e-26  1.9339e-20  2.7593e-26  1.9717e-20  3.5537e-26  2.0390e-20  5.1110e-26  2.1593e-20  8.2677e-26  2.3747e-20
      7.40  1.9539e-26  2.1138e-20  1.9539e-26  2.1138e-20  1.9539e-26  2.1139e-20  1.9540e-26  2.1139e-20  1.9541e-26  2.1140e-20  1.9543e-26  2.1141e-20  1.9547e-26  2.1143e-20  1.9557e-26  2.1148e-20  1.9578e-26  2.1155e-20  1.9619e-26  2.1175e-20  1.9699e-26  2.1203e-20  1.9879e-26  2.1247e-20  2.0293e-26  2.1323e-20  2.1211e-26  2.1457e-20  2.3141e-26  2.1694e-20  2.7027e-26  2.2115e-20  3.4675e-26  2.2866e-20  4.9767e-26  2.4204e-20  8.0464e-26  2.6598e-20
      7.45  1.9494e-26  2.3714e-20  1.9494e-26  2.3714e-20  1.9494e-26  2.3715e-20  1.9495e-26  2.3715e-20  1.9496e-26  2.3716e-20  1.9497e-26  2.3717e-20  1.9502e-26  2.3720e-20  1.9510e-26  2.3725e-20  1.9529e-26  2.3735e-20  1.9566e-26  2.3758e-20  1.9632e-26  2.3789e-20  1.9781e-26  2.3838e-20  2.0126e-26  2.3923e-20  2.0908e-26  2.4072e-20  2.2597e-26  2.4337e-20  2.6076e-26  2.4807e-20  3.3028e-26  2.5645e-20  4.6867e-26  2.7138e-20  7.5137e-26  2.9805e-20
      7.50  1.9454e-26  2.6604e-20  1.9454e-26  2.6604e-20  1.9454e-26  2.6604e-20  1.9454e-26  2.6605e-20  1.9455e-26  2.6606e-20  1.9457e-26  2.6607e-20  1.9461e-26  2.6610e-20  1.9469e-26  2.6615e-20  1.9488e-26  2.6630e-20  1.9521e-26  2.6655e-20  1.9580e-26  2.6690e-20  1.9709e-26  2.6745e-20  2.0006e-26  2.6840e-20  2.0690e-26  2.7007e-20  2.2205e-26  2.7303e-20  2.5398e-26  2.7829e-20  3.1885e-26  2.8765e-20  4.4928e-26  3.0433e-20  7.1705e-26  3.3410e-20
      7.55  1.9418e-26  2.9845e-20  1.9418e-26  2.9845e-20  1.9418e-26  2.9846e-20  1.9418e-26  2.9846e-20  1.9419e-26  2.9847e-20  1.9421e-26  2.9849e-20  1.9425e-26  2.9852e-20  1.9432e-26  2.9858e-20  1.9452e-26  2.9878e-20  1.9484e-26  2.9906e-20  1.9537e-26  2.9945e-20  1.9652e-26  3.0007e-20  1.9914e-26  3.0113e-20  2.0524e-26  3.0300e-20  2.1900e-26  3.0631e-20  2.4872e-26  3.1220e-20  3.1034e-26  3.2267e-20  4.3589e-26  3.4132e-20  6.9554e-26  3.7460e-20
      7.60  1.9385e-26  3.3481e-20  1.9386e-26  3.3481e-20  1.9386e-26  3.3481e-20  1.9386e-26  3.3482e-20  1.9387e-26  3.3483e-20  1.9389e-26  3.3485e-20  1.9392e-26  3.3489e-20  1.9400e-26  3.3496e-20  1.9421e-26  3.3521e-20  1.9451e-26  3.3554e-20  1.9500e-26  3.3598e-20  1.9601e-26  3.3667e-20  1.9827e-26  3.3786e-20  2.0347e-26  3.3995e-20  2.1535e-26  3.4366e-20  2.4144e-26  3.5025e-20  2.9652e-26  3.6197e-20  4.1022e-26  3.8285e-20  6.4710e-26  4.2008e-20
      7.65  1.9356e-26  3.7559e-20  1.9357e-26  3.7559e-20  1.9357e-26  3.7560e-20  1.9357e-26  3.7560e-20  1.9358e-26  3.7562e-20  1.9360e-26  3.7564e-20  1.9363e-26  3.7568e-20  1.9370e-26  3.7575e-20  1.9393e-26  3.7609e-20  1.9423e-26  3.7646e-20  1.9469e-26  3.7695e-20  1.9559e-26  3.7774e-20  1.9756e-26  3.7907e-20  2.0204e-26  3.8141e-20  2.1226e-26  3.8557e-20  2.3503e-26  3.9295e-20  2.8391e-26  4.0608e-20  3.8626e-26  4.2946e-20  6.0133e-26  4.7114e-20
      7.70  1.9330e-26  4.2133e-20  1.9330e-26  4.2133e-20  1.9330e-26  4.2134e-20  1.9331e-26  4.2134e-20  1.9332e-26  4.2136e-20  1.9333e-26  4.2138e-20  1.9337e-26  4.2143e-20  1.9344e-26  4.2152e-20  1.9369e-26  4.2195e-20  1.9397e-26  4.2238e-20  1.9441e-26  4.2293e-20  1.9524e-26  4.2381e-20  1.9698e-26  4.2531e-20  2.0085e-26  4.2793e-20  2.0965e-26  4.3259e-20  2.2941e-26  4.4086e-20  2.7249e-26  4.5557e-20  3.6399e-26  4.8177e-20  5.5818e-26  5.2846e-20
      7.75  1.9306e-26  4.7262e-20  1.9306e-26  4.7263e-20  1.9306e-26  4.7263e-20  1.9307e-26  4.7264e-20  1.9308e-26  4.7266e-20  1.9309e-26  4.7269e-20  1.9313e-26  4.7274e-20  1.9322e-26  4.7290e-20  1.9347e-26  4.7340e-20  1.9375e-26  4.7389e-20  1.9417e-26  4.7452e-20  1.9494e-26  4.7550e-20  1.9649e-26  4.7718e-20  1.9988e-26  4.8013e-20  2.0748e-26  4.8535e-20  2.2457e-26  4.9462e-20  2.6228e-26  5.1111e-20  3.4353e-26  5.4047e-20  5.1785e-26  5.9278e-20
      7.80  1.9284e-26  5.3015e-20  1.9284e-26  5.3016e-20  1.9284e-26  5.3016e-20  1.9285e-26  5.3017e-20  1.9286e-26  5.3019e-20  1.9287e-26  5.3022e-20  1.9290e-26  5.3028e-20  1.9302e-26  5.3052e-20  1.9327e-26  5.3112e-20  1.9355e-26  5.3168e-20  1.9396e-26  5.3239e-20  1.9467e-26  5.3350e-20  1.9610e-26  5.3539e-20  1.9908e-26  5.3870e-20  2.0568e-26  5.4455e-20  2.2047e-26  5.5494e-20  2.5336e-26  5.7343e-20  3.2518e-26  6.0634e-20  4.8110e-26  6.6497e-20
      7.85  1.9263e-26  5.9467e-20  1.9263e-26  5.9467e-20  1.9264e-26  5.9468e-20  1.9264e-26  5.9469e-20  1.9265e-26  5.9471e-20  1.9267e-26  5.9475e-20  1.9270e-26  5.9481e-20  1.9283e-26  5.9515e-20  1.9310e-26  5.9586e-20  1.9337e-26  5.9651e-20  1.9377e-26  5.9732e-20  1.9445e-26  5.9857e-20  1.9575e-26  6.0069e-20  1.9842e-26  6.0440e-20  2.0419e-26  6.1097e-20  2.1703e-26  6.2263e-20  2.4568e-26  6.4336e-20  3.0897e-26  6.8025e-20  4.4808e-26  7.4597e-20
      7.90  1.9244e-26  6.6700e-20  1.9244e-26  6.6701e-20  1.9244e-26  6.6702e-20  1.9245e-26  6.6703e-20  1.9245e-26  6.6705e-20  1.9247e-26  6.6709e-20  1.9250e-26  6.6717e-20  1.9267e-26  6.6767e-20  1.9294e-26  6.6851e-20  1.9321e-26  6.6925e-20  1.9360e-26  6.7018e-20  1.9423e-26  6.7159e-20  1.9542e-26  6.7397e-20  1.9779e-26  6.7813e-20  2.0280e-26  6.8549e-20  2.1378e-26  6.9857e-20  2.3824e-26  7.2181e-20  2.9273e-26  7.6318e-20  4.1393e-26  8.3685e-20
      7.95  1.9225e-26  7.4811e-20  1.9225e-26  7.4811e-20  1.9226e-26  7.4812e-20  1.9226e-26  7.4814e-20  1.9227e-26  7.4816e-20  1.9228e-26  7.4821e-20  1.9231e-26  7.4829e-20  1.9252e-26  7.4902e-20  1.9280e-26  7.5000e-20  1.9307e-26  7.5087e-20  1.9343e-26  7.5191e-20  1.9403e-26  7.5351e-20  1.9513e-26  7.5618e-20  1.9725e-26  7.6085e-20  2.0161e-26  7.6911e-20  2.1097e-26  7.8377e-20  2.3164e-26  8.0984e-20  2.7775e-26  8.5623e-20  3.8109e-26  9.3883e-20
      8.00  1.9207e-26  8.3903e-20  1.9207e-26  8.3904e-20  1.9208e-26  8.3905e-20  1.9208e-26  8.3907e-20  1.9209e-26  8.3909e-20  1.9210e-26  8.3915e-20  1.9213e-26  8.3924e-20  1.9238e-26  8.4024e-20  1.9266e-26  8.4141e-20  1.9294e-26  8.4242e-20  1.9329e-26  8.4362e-20  1.9386e-26  8.4541e-20  1.9487e-26  8.4842e-20  1.9680e-26  8.5367e-20  2.0063e-26  8.6293e-20  2.0868e-26  8.7937e-20  2.2615e-26  9.0861e-20  2.6491e-26  9.6063e-20  3.5196e-26  1.0532e-19
      8.05  1.9189e-26  9.4096e-20  1.9190e-26  9.4097e-20  1.9190e-26  9.4098e-20  1.9190e-26  9.4099e-20  1.9191e-26  9.4103e-20  1.9192e-26  9.4108e-20  1.9195e-26  9.4119e-20  1.9224e-26  9.4254e-20  1.9254e-26  9.4394e-20  1.9282e-26  9.4512e-20  1.9316e-26  9.4650e-20  1.9370e-26  9.4853e-20  1.9464e-26  9.5191e-20  1.9640e-26  9.5780e-20  1.9984e-26  9.6820e-20  2.0685e-26  9.8664e-20  2.2179e-26  1.0194e-19  2.5455e-26  1.0778e-19  3.2788e-26  1.1816e-19
      8.10  1.9171e-26  1.0552e-19  1.9172e-26  1.0552e-19  1.9172e-26  1.0552e-19  1.9172e-26  1.0552e-19  1.9173e-26  1.0553e-19  1.9174e-26  1.0553e-19  1.9177e-26  1.0555e-19  1.9210e-26  1.0572e-19  1.9242e-26  1.0589e-19  1.9271e-26  1.0603e-19  1.9304e-26  1.0619e-19  1.9356e-26  1.0642e-19  1.9445e-26  1.0680e-19  1.9608e-26  1.0746e-19  1.9919e-26  1.0863e-19  2.0541e-26  1.1070e-19  2.1827e-26  1.1438e-19  2.4619e-26  1.2092e-19  3.0801e-26  1.3257e-19
      8.15  1.9153e-26  1.1832e-19  1.9153e-26  1.1832e-19  1.9153e-26  1.1832e-19  1.9154e-26  1.1833e-19  1.9155e-26  1.1833e-19  1.9156e-26  1.1834e-19  1.9158e-26  1.1835e-19  1.9196e-26  1.1858e-19  1.9231e-26  1.1879e-19  1.9260e-26  1.1896e-19  1.9294e-26  1.1914e-19  1.9344e-26  1.1940e-19  1.9428e-26  1.1983e-19  1.9581e-26  1.2057e-19  1.9867e-26  1.2188e-19  2.0425e-26  1.2420e-19  2.1555e-26  1.2833e-19  2.3929e-26  1.3567e-19  2.9152e-26  1.4873e-19
      8.20  1.9134e-26  1.3267e-19  1.9134e-26  1.3267e-19  1.9134e-26  1.3267e-19  1.9135e-26  1.3267e-19  1.9135e-26  1.3267e-19  1.9137e-26  1.3268e-19  1.9139e-26  1.3270e-19  1.9182e-26  1.3299e-19  1.9220e-26  1.3325e-19  1.9251e-26  1.3345e-19  1.9285e-26  1.3367e-19  1.9333e-26  1.3396e-19  1.9415e-26  1.3445e-19  1.9559e-26  1.3528e-19  1.9827e-26  1.3675e-19  2.0338e-26  1.3935e-19  2.1349e-26  1.4398e-19  2.3434e-26  1.5221e-19  2.7902e-26  1.6686e-19
      8.25  1.9114e-26  1.4873e-19  1.9114e-26  1.4873e-19  1.9114e-26  1.4874e-19  1.9114e-26  1.4874e-19  1.9115e-26  1.4874e-19  1.9116e-26  1.4875e-19  1.9119e-26  1.4877e-19  1.9167e-26  1.4914e-19  1.9209e-26  1.4946e-19  1.9242e-26  1.4971e-19  1.9276e-26  1.4996e-19  1.9324e-26  1.5030e-19  1.9403e-26  1.5084e-19  1.9542e-26  1.5178e-19  1.9796e-26  1.5343e-19  2.0272e-26  1.5635e-19  2.1196e-26  1.6155e-19  2.3057e-26  1.7078e-19  2.6962e-26  1.8721e-19
      8.30  1.9092e-26  1.6673e-19  1.9092e-26  1.6673e-19  1.9092e-26  1.6673e-19  1.9093e-26  1.6673e-19  1.9093e-26  1.6674e-19  1.9095e-26  1.6675e-19  1.9097e-26  1.6677e-19  1.9151e-26  1.6724e-19  1.9198e-26  1.6765e-19  1.9233e-26  1.6794e-19  1.9268e-26  1.6824e-19  1.9316e-26  1.6863e-19  1.9394e-26  1.6924e-19  1.9528e-26  1.7030e-19  1.9771e-26  1.7215e-19  2.0222e-26  1.7543e-19  2.1082e-26  1.8125e-19  2.2777e-26  1.9161e-19  2.6256e-26  2.1004e-19
      8.35  1.9068e-26  1.8688e-19  1.9068e-26  1.8688e-19  1.9069e-26  1.8688e-19  1.9069e-26  1.8688e-19  1.9070e-26  1.8689e-19  1.9071e-26  1.8690e-19  1.9073e-26  1.8692e-19  1.9134e-26  1.8752e-19  1.9186e-26  1.8803e-19  1.9225e-26  1.8839e-19  1.9261e-26  1.8874e-19  1.9309e-26  1.8919e-19  1.9385e-26  1.8988e-19  1.9517e-26  1.9107e-19  1.9752e-26  1.9315e-19  2.0184e-26  1.9683e-19  2.0995e-26  2.0336e-19  2.2565e-26  2.1498e-19  2.5719e-26  2.3566e-19
      8.40  1.9042e-26  2.0943e-19  1.9042e-26  2.0943e-19  1.9043e-26  2.0943e-19  1.9043e-26  2.0944e-19  1.9044e-26  2.0944e-19  1.9045e-26  2.0946e-19  1.9047e-26  2.0948e-19  1.9116e-26  2.1023e-19  1.9174e-26  2.1087e-19  1.9216e-26  2.1133e-19  1.9254e-26  2.1174e-19  1.9303e-26  2.1225e-19  1.9378e-26  2.1304e-19  1.9507e-26  2.1438e-19  1.9737e-26  2.1671e-19  2.0154e-26  2.2084e-19  2.0929e-26  2.2817e-19  2.2404e-26  2.4121e-19  2.5310e-26  2.6440e-19
      8.45  1.9014e-26  2.3466e-19  1.9014e-26  2.3466e-19  1.9014e-26  2.3467e-19  1.9014e-26  2.3467e-19  1.9015e-26  2.3468e-19  1.9016e-26  2.3469e-19  1.9018e-26  2.3472e-19  1.9095e-26  2.3567e-19  1.9162e-26  2.3648e-19  1.9207e-26  2.3704e-19  1.9248e-26  2.3753e-19  1.9297e-26  2.3813e-19  1.9372e-26  2.3902e-19  1.9500e-26  2.4052e-19  1.9725e-26  2.4315e-19  2.0132e-26  2.4778e-19  2.0880e-26  2.5601e-19  2.2285e-26  2.7063e-19  2.5004e-26  2.9665e-19
      8.50  1.8982e-26  2.6288e-19  1.8982e-26  2.6288e-19  1.8982e-26  2.6289e-19  1.8982e-26  2.6289e-19  1.8983e-26  2.6290e-19  1.8984e-26  2.6292e-19  1.8986e-26  2.6295e-19  1.9073e-26  2.6415e-19  1.9148e-26  2.6518e-19  1.9198e-26  2.6587e-19  1.9241e-26  2.6646e-19  1.9292e-26  2.6715e-19  1.9367e-26  2.6817e-19  1.9494e-26  2.6986e-19  1.9716e-26  2.7281e-19  2.0115e-26  2.7801e-19  2.0843e-26  2.8724e-19  2.2196e-26  3.0365e-19  2.4773e-26  3.3283e-19
