# This was generated using Cloudy10 and the columns are ordered 
# as log10 of the fraction of the metallicity to the solar metallicity
# 'h_*_Z' and 'c_*_Z' stands for cooling and heating respectively 
# at * metalicity
#
# NOTE: This was generated separately from loop_coolingcurve_w_UV.py
#       using Output_metals_w_redshift.py.
#
# Redshift = 4.5
# hden = -10.0
#
#     temp   h_-3.00_Z   c_-3.00_Z   h_-2.75_Z   c_-2.75_Z   h_-2.50_Z   c_-2.50_Z   h_-2.25_Z   c_-2.25_Z   h_-2.00_Z   c_-2.00_Z   h_-1.75_Z   c_-1.75_Z   h_-1.50_Z   c_-1.50_Z   h_-1.25_Z   c_-1.25_Z   h_-1.00_Z   c_-1.00_Z   h_-0.75_Z   c_-0.75_Z   h_-0.50_Z   c_-0.50_Z   h_-0.25_Z   c_-0.25_Z    h_0.00_Z    c_0.00_Z    h_0.25_Z    c_0.25_Z    h_0.50_Z    c_0.50_Z    h_0.75_Z    c_0.75_Z    h_1.00_Z    c_1.00_Z    h_1.25_Z    c_1.25_Z    h_1.50_Z    c_1.50_Z 
      4.00  5.9110e-21  5.7160e-19  5.9112e-21  5.7160e-19  5.9116e-21  5.7161e-19  5.9123e-21  5.7162e-19  5.9134e-21  5.7164e-19  5.9155e-21  5.7167e-19  5.9192e-21  5.7174e-19  5.9259e-21  5.7185e-19  5.9376e-21  5.7204e-19  5.9586e-21  5.7240e-19  5.9959e-21  5.7302e-19  6.0624e-21  5.7413e-19  6.1811e-21  5.7611e-19  6.3938e-21  5.7962e-19  6.7770e-21  5.8587e-19  7.4741e-21  5.9697e-19  8.7629e-21  6.1672e-19  1.1209e-20  6.5184e-19  1.6043e-20  7.1428e-19
      4.05  5.9103e-21  6.4134e-19  5.9105e-21  6.4135e-19  5.9108e-21  6.4135e-19  5.9114e-21  6.4137e-19  5.9126e-21  6.4139e-19  5.9145e-21  6.4143e-19  5.9181e-21  6.4150e-19  5.9243e-21  6.4162e-19  5.9355e-21  6.4184e-19  5.9553e-21  6.4224e-19  5.9907e-21  6.4294e-19  6.0537e-21  6.4419e-19  6.1662e-21  6.4640e-19  6.3678e-21  6.5034e-19  6.7308e-21  6.5735e-19  7.3911e-21  6.6982e-19  8.6116e-21  6.9198e-19  1.0927e-20  7.3139e-19  1.5501e-20  8.0145e-19
      4.10  5.9096e-21  7.1960e-19  5.9098e-21  7.1960e-19  5.9101e-21  7.1961e-19  5.9107e-21  7.1962e-19  5.9117e-21  7.1965e-19  5.9136e-21  7.1969e-19  5.9170e-21  7.1977e-19  5.9229e-21  7.1991e-19  5.9335e-21  7.2016e-19  5.9523e-21  7.2060e-19  5.9858e-21  7.2139e-19  6.0455e-21  7.2279e-19  6.1522e-21  7.2528e-19  6.3432e-21  7.2970e-19  6.6873e-21  7.3756e-19  7.3129e-21  7.5155e-19  8.4690e-21  7.7642e-19  1.0662e-20  8.2064e-19  1.4989e-20  8.9926e-19
      4.15  5.9089e-21  8.0740e-19  5.9091e-21  8.0741e-19  5.9094e-21  8.0742e-19  5.9100e-21  8.0743e-19  5.9110e-21  8.0746e-19  5.9128e-21  8.0751e-19  5.9159e-21  8.0760e-19  5.9216e-21  8.0775e-19  5.9316e-21  8.0803e-19  5.9495e-21  8.0853e-19  5.9812e-21  8.0941e-19  6.0379e-21  8.1098e-19  6.1390e-21  8.1377e-19  6.3201e-21  8.1874e-19  6.6463e-21  8.2756e-19  7.2393e-21  8.4325e-19  8.3348e-21  8.7116e-19  1.0411e-20  9.2078e-19  1.4507e-20  1.0090e-18
      4.20  5.9083e-21  9.0592e-19  5.9085e-21  9.0593e-19  5.9088e-21  9.0594e-19  5.9093e-21  9.0595e-19  5.9103e-21  9.0598e-19  5.9120e-21  9.0604e-19  5.9150e-21  9.0614e-19  5.9203e-21  9.0632e-19  5.9299e-21  9.0663e-19  5.9468e-21  9.0719e-19  5.9769e-21  9.0818e-19  6.0307e-21  9.0994e-19  6.1266e-21  9.1307e-19  6.2984e-21  9.1864e-19  6.6078e-21  9.2854e-19  7.1701e-21  9.4615e-19  8.2085e-21  9.7746e-19  1.0176e-20  1.0331e-18  1.4052e-20  1.1321e-18
      4.25  5.9078e-21  1.0165e-18  5.9080e-21  1.0165e-18  5.9082e-21  1.0165e-18  5.9087e-21  1.0165e-18  5.9096e-21  1.0165e-18  5.9112e-21  1.0166e-18  5.9141e-21  1.0167e-18  5.9192e-21  1.0169e-18  5.9282e-21  1.0173e-18  5.9443e-21  1.0179e-18  5.9729e-21  1.0190e-18  6.0239e-21  1.0210e-18  6.1149e-21  1.0245e-18  6.2780e-21  1.0307e-18  6.5715e-21  1.0418e-18  7.1050e-21  1.0616e-18  8.0896e-21  1.0967e-18  9.9539e-21  1.1592e-18  1.3625e-20  1.2703e-18
      4.30  5.9073e-21  1.1405e-18  5.9074e-21  1.1405e-18  5.9077e-21  1.1405e-18  5.9082e-21  1.1405e-18  5.9090e-21  1.1406e-18  5.9106e-21  1.1406e-18  5.9133e-21  1.1408e-18  5.9181e-21  1.1410e-18  5.9267e-21  1.1414e-18  5.9419e-21  1.1421e-18  5.9691e-21  1.1433e-18  6.0175e-21  1.1455e-18  6.1040e-21  1.1495e-18  6.2588e-21  1.1565e-18  6.5375e-21  1.1690e-18  7.0438e-21  1.1911e-18  7.9780e-21  1.2306e-18  9.7454e-21  1.3007e-18  1.3222e-20  1.4253e-18
      4.35  5.9068e-21  1.2796e-18  5.9069e-21  1.2797e-18  5.9072e-21  1.2797e-18  5.9077e-21  1.2797e-18  5.9085e-21  1.2797e-18  5.9099e-21  1.2798e-18  5.9125e-21  1.2800e-18  5.9171e-21  1.2802e-18  5.9252e-21  1.2806e-18  5.9397e-21  1.2814e-18  5.9656e-21  1.2828e-18  6.0116e-21  1.2853e-18  6.0937e-21  1.2897e-18  6.2408e-21  1.2976e-18  6.5055e-21  1.3116e-18  6.9863e-21  1.3365e-18  7.8730e-21  1.3807e-18  9.5494e-21  1.4594e-18  1.2844e-20  1.5993e-18
      4.40  5.9064e-21  1.4358e-18  5.9065e-21  1.4358e-18  5.9067e-21  1.4358e-18  5.9072e-21  1.4358e-18  5.9080e-21  1.4359e-18  5.9093e-21  1.4360e-18  5.9118e-21  1.4361e-18  5.9161e-21  1.4364e-18  5.9239e-21  1.4369e-18  5.9377e-21  1.4378e-18  5.9622e-21  1.4394e-18  6.0060e-21  1.4422e-18  6.0841e-21  1.4471e-18  6.2239e-21  1.4559e-18  6.4755e-21  1.4716e-18  6.9324e-21  1.4996e-18  7.7744e-21  1.5492e-18  9.3653e-21  1.6375e-18  1.2488e-20  1.7944e-18
      4.45  5.9060e-21  1.6110e-18  5.9061e-21  1.6110e-18  5.9063e-21  1.6110e-18  5.9067e-21  1.6110e-18  5.9075e-21  1.6111e-18  5.9088e-21  1.6112e-18  5.9111e-21  1.6114e-18  5.9153e-21  1.6117e-18  5.9226e-21  1.6122e-18  5.9357e-21  1.6132e-18  5.9591e-21  1.6150e-18  6.0007e-21  1.6181e-18  6.0750e-21  1.6237e-18  6.2080e-21  1.6336e-18  6.4474e-21  1.6512e-18  6.8817e-21  1.6825e-18  7.6819e-21  1.7382e-18  9.1924e-21  1.8373e-18  1.2153e-20  2.0134e-18
      4.50  5.9056e-21  1.8075e-18  5.9057e-21  1.8076e-18  5.9059e-21  1.8076e-18  5.9063e-21  1.8076e-18  5.9070e-21  1.8077e-18  5.9083e-21  1.8078e-18  5.9105e-21  1.8080e-18  5.9144e-21  1.8083e-18  5.9215e-21  1.8090e-18  5.9339e-21  1.8101e-18  5.9562e-21  1.8120e-18  5.9958e-21  1.8156e-18  6.0666e-21  1.8218e-18  6.1932e-21  1.8329e-18  6.4209e-21  1.8527e-18  6.8342e-21  1.8878e-18  7.5951e-21  1.9503e-18  9.0301e-21  2.0615e-18  1.1840e-20  2.2591e-18
      4.55  5.9052e-21  2.0281e-18  5.9053e-21  2.0281e-18  5.9056e-21  2.0281e-18  5.9059e-21  2.0282e-18  5.9066e-21  2.0282e-18  5.9078e-21  2.0284e-18  5.9099e-21  2.0286e-18  5.9137e-21  2.0290e-18  5.9204e-21  2.0297e-18  5.9323e-21  2.0309e-18  5.9535e-21  2.0332e-18  5.9912e-21  2.0371e-18  6.0586e-21  2.0441e-18  6.1792e-21  2.0566e-18  6.3962e-21  2.0788e-18  6.7897e-21  2.1182e-18  7.5137e-21  2.1883e-18  8.8779e-21  2.3130e-18  1.1545e-20  2.5348e-18
      4.60  5.9049e-21  2.2756e-18  5.9050e-21  2.2756e-18  5.9052e-21  2.2756e-18  5.9056e-21  2.2757e-18  5.9062e-21  2.2757e-18  5.9074e-21  2.2759e-18  5.9094e-21  2.2761e-18  5.9130e-21  2.2766e-18  5.9193e-21  2.2773e-18  5.9307e-21  2.2787e-18  5.9509e-21  2.2812e-18  5.9869e-21  2.2857e-18  6.0512e-21  2.2935e-18  6.1662e-21  2.3075e-18  6.3730e-21  2.3324e-18  6.7479e-21  2.3767e-18  7.4374e-21  2.4553e-18  8.7351e-21  2.5953e-18  1.1269e-20  2.8441e-18
      4.65  5.9046e-21  2.5532e-18  5.9047e-21  2.5532e-18  5.9049e-21  2.5533e-18  5.9053e-21  2.5533e-18  5.9059e-21  2.5534e-18  5.9069e-21  2.5536e-18  5.9089e-21  2.5538e-18  5.9123e-21  2.5543e-18  5.9184e-21  2.5552e-18  5.9292e-21  2.5568e-18  5.9485e-21  2.5596e-18  5.9829e-21  2.5646e-18  6.0442e-21  2.5734e-18  6.1539e-21  2.5891e-18  6.3512e-21  2.6170e-18  6.7087e-21  2.6667e-18  7.3658e-21  2.7550e-18  8.6013e-21  2.9120e-18  1.1009e-20  3.1911e-18
      4.70  5.9043e-21  2.8648e-18  5.9044e-21  2.8648e-18  5.9046e-21  2.8648e-18  5.9049e-21  2.8649e-18  5.9055e-21  2.8650e-18  5.9066e-21  2.8651e-18  5.9084e-21  2.8655e-18  5.9117e-21  2.8660e-18  5.9175e-21  2.8670e-18  5.9278e-21  2.8688e-18  5.9463e-21  2.8719e-18  5.9791e-21  2.8775e-18  6.0377e-21  2.8874e-18  6.1425e-21  2.9050e-18  6.3308e-21  2.9363e-18  6.6721e-21  2.9920e-18  7.2988e-21  3.0911e-18  8.4759e-21  3.2673e-18  1.0766e-20  3.5805e-18
      4.75  5.9041e-21  3.2143e-18  5.9042e-21  3.2143e-18  5.9044e-21  3.2144e-18  5.9047e-21  3.2144e-18  5.9052e-21  3.2146e-18  5.9062e-21  3.2148e-18  5.9080e-21  3.2151e-18  5.9111e-21  3.2157e-18  5.9167e-21  3.2168e-18  5.9266e-21  3.2188e-18  5.9442e-21  3.2223e-18  5.9756e-21  3.2286e-18  6.0316e-21  3.2397e-18  6.1318e-21  3.2595e-18  6.3118e-21  3.2946e-18  6.6378e-21  3.3571e-18  7.2360e-21  3.4683e-18  8.3585e-21  3.6660e-18  1.0539e-20  4.0175e-18
      4.80  5.9038e-21  3.6065e-18  5.9039e-21  3.6066e-18  5.9041e-21  3.6066e-18  5.9044e-21  3.6067e-18  5.9049e-21  3.6068e-18  5.9059e-21  3.6070e-18  5.9076e-21  3.6074e-18  5.9106e-21  3.6081e-18  5.9159e-21  3.6094e-18  5.9254e-21  3.6116e-18  5.9422e-21  3.6155e-18  5.9723e-21  3.6225e-18  6.0259e-21  3.6350e-18  6.1217e-21  3.6572e-18  6.2939e-21  3.6966e-18  6.6056e-21  3.7668e-18  7.1773e-21  3.8915e-18  8.2485e-21  4.1133e-18  1.0326e-20  4.5077e-18
      4.85  5.9036e-21  4.0466e-18  5.9037e-21  4.0466e-18  5.9039e-21  4.0467e-18  5.9042e-21  4.0467e-18  5.9047e-21  4.0469e-18  5.9056e-21  4.0471e-18  5.9072e-21  4.0476e-18  5.9101e-21  4.0484e-18  5.9152e-21  4.0498e-18  5.9242e-21  4.0522e-18  5.9404e-21  4.0567e-18  5.9692e-21  4.0645e-18  6.0205e-21  4.0785e-18  6.1123e-21  4.1034e-18  6.2772e-21  4.1477e-18  6.5756e-21  4.2264e-18  7.1223e-21  4.3664e-18  8.1456e-21  4.6152e-18  1.0126e-20  5.0578e-18
      4.90  5.9034e-21  4.5404e-18  5.9035e-21  4.5404e-18  5.9037e-21  4.5404e-18  5.9039e-21  4.5405e-18  5.9044e-21  4.5407e-18  5.9053e-21  4.5410e-18  5.9068e-21  4.5415e-18  5.9096e-21  4.5423e-18  5.9145e-21  4.5439e-18  5.9232e-21  4.5467e-18  5.9387e-21  4.5517e-18  5.9663e-21  4.5605e-18  6.0155e-21  4.5762e-18  6.1035e-21  4.6041e-18  6.2616e-21  4.6538e-18  6.5474e-21  4.7421e-18  7.0708e-21  4.8991e-18  8.0492e-21  5.1784e-18  9.9391e-21  5.6749e-18
      4.95  5.9032e-21  5.0944e-18  5.9033e-21  5.0944e-18  5.9035e-21  5.0944e-18  5.9037e-21  5.0945e-18  5.9042e-21  5.0947e-18  5.9050e-21  5.0950e-18  5.9065e-21  5.0956e-18  5.9092e-21  5.0966e-18  5.9139e-21  5.0983e-18  5.9222e-21  5.1015e-18  5.9371e-21  5.1071e-18  5.9636e-21  5.1170e-18  6.0108e-21  5.1346e-18  6.0953e-21  5.1659e-18  6.2470e-21  5.2216e-18  6.5211e-21  5.3207e-18  7.0227e-21  5.4969e-18  7.9591e-21  5.8103e-18  9.7643e-21  6.3674e-18
      5.00  5.9031e-21  5.7160e-18  5.9031e-21  5.7160e-18  5.9033e-21  5.7161e-18  5.9035e-21  5.7162e-18  5.9040e-21  5.7164e-18  5.9048e-21  5.7167e-18  5.9062e-21  5.7173e-18  5.9088e-21  5.7185e-18  5.9133e-21  5.7204e-18  5.9213e-21  5.7240e-18  5.9356e-21  5.7302e-18  5.9611e-21  5.7413e-18  6.0065e-21  5.7611e-18  6.0877e-21  5.7963e-18  6.2333e-21  5.8588e-18  6.4966e-21  5.9700e-18  6.9777e-21  6.1677e-18  7.8748e-21  6.5193e-18  9.6008e-21  7.1444e-18
      5.05  5.9029e-21  6.4134e-18  5.9030e-21  6.4135e-18  5.9031e-21  6.4135e-18  5.9034e-21  6.4137e-18  5.9038e-21  6.4139e-18  5.9046e-21  6.4143e-18  5.9059e-21  6.4150e-18  5.9084e-21  6.4162e-18  5.9127e-21  6.4184e-18  5.9205e-21  6.4224e-18  5.9342e-21  6.4294e-18  5.9587e-21  6.4419e-18  6.0024e-21  6.4641e-18  6.0805e-21  6.5035e-18  6.2206e-21  6.5737e-18  6.4736e-21  6.6984e-18  6.9357e-21  6.9203e-18  7.7961e-21  7.3147e-18  9.4478e-21  8.0162e-18
      5.10  5.9028e-21  7.1960e-18  5.9028e-21  7.1960e-18  5.9030e-21  7.1961e-18  5.9032e-21  7.1962e-18  5.9036e-21  7.1965e-18  5.9044e-21  7.1969e-18  5.9057e-21  7.1977e-18  5.9080e-21  7.1991e-18  5.9122e-21  7.2016e-18  5.9197e-21  7.2060e-18  5.9329e-21  7.2139e-18  5.9565e-21  7.2279e-18  5.9986e-21  7.2528e-18  6.0738e-21  7.2971e-18  6.2087e-21  7.3758e-18  6.4521e-21  7.5158e-18  6.8964e-21  7.7647e-18  7.7224e-21  8.2073e-18  9.3049e-21  8.9944e-18
      5.15  5.9026e-21  8.0740e-18  5.9027e-21  8.0741e-18  5.9028e-21  8.0742e-18  5.9031e-21  8.0743e-18  5.9035e-21  8.0746e-18  5.9042e-21  8.0751e-18  5.9054e-21  8.0760e-18  5.9077e-21  8.0775e-18  5.9118e-21  8.0803e-18  5.9189e-21  8.0853e-18  5.9317e-21  8.0941e-18  5.9545e-21  8.1098e-18  5.9951e-21  8.1378e-18  6.0675e-21  8.1874e-18  6.1975e-21  8.2758e-18  6.4320e-21  8.4328e-18  6.8597e-21  8.7121e-18  7.6536e-21  9.2088e-18  9.1713e-21  1.0092e-17
      5.20  5.9025e-21  9.0592e-18  5.9026e-21  9.0592e-18  5.9027e-21  9.0593e-18  5.9029e-21  9.0595e-18  5.9033e-21  9.0598e-18  5.9040e-21  9.0604e-18  5.9052e-21  9.0614e-18  5.9074e-21  9.0631e-18  5.9113e-21  9.0663e-18  5.9182e-21  9.0719e-18  5.9306e-21  9.0818e-18  5.9526e-21  9.0994e-18  5.9917e-21  9.1307e-18  6.0617e-21  9.1865e-18  6.1871e-21  9.2856e-18  6.4133e-21  9.4618e-18  6.8254e-21  9.7752e-18  7.5894e-21  1.0332e-17  9.0465e-21  1.1323e-17
      5.25  5.9024e-21  1.0165e-17  5.9025e-21  1.0165e-17  5.9026e-21  1.0165e-17  5.9028e-21  1.0165e-17  5.9032e-21  1.0165e-17  5.9038e-21  1.0166e-17  5.9050e-21  1.0167e-17  5.9071e-21  1.0169e-17  5.9109e-21  1.0173e-17  5.9176e-21  1.0179e-17  5.9295e-21  1.0190e-17  5.9508e-21  1.0210e-17  5.9886e-21  1.0245e-17  6.0563e-21  1.0307e-17  6.1774e-21  1.0419e-17  6.3958e-21  1.0616e-17  6.7934e-21  1.0968e-17  7.5294e-21  1.1593e-17  8.9299e-21  1.2705e-17
      5.30  5.9023e-21  1.1405e-17  5.9023e-21  1.1405e-17  5.9025e-21  1.1405e-17  5.9027e-21  1.1405e-17  5.9030e-21  1.1406e-17  5.9037e-21  1.1406e-17  5.9048e-21  1.1408e-17  5.9069e-21  1.1410e-17  5.9105e-21  1.1414e-17  5.9170e-21  1.1421e-17  5.9286e-21  1.1433e-17  5.9491e-21  1.1455e-17  5.9858e-21  1.1495e-17  6.0512e-21  1.1565e-17  6.1684e-21  1.1690e-17  6.3795e-21  1.1912e-17  6.7635e-21  1.2306e-17  7.4733e-21  1.3008e-17  8.8211e-21  1.4255e-17
      5.35  5.9022e-21  1.2796e-17  5.9023e-21  1.2797e-17  5.9024e-21  1.2797e-17  5.9026e-21  1.2797e-17  5.9029e-21  1.2797e-17  5.9035e-21  1.2798e-17  5.9047e-21  1.2800e-17  5.9066e-21  1.2802e-17  5.9102e-21  1.2806e-17  5.9165e-21  1.2814e-17  5.9276e-21  1.2828e-17  5.9476e-21  1.2853e-17  5.9831e-21  1.2898e-17  6.0464e-21  1.2976e-17  6.1599e-21  1.3116e-17  6.3643e-21  1.3365e-17  6.7356e-21  1.3808e-17  7.4211e-21  1.4595e-17  8.7195e-21  1.5995e-17
      5.40  5.9021e-21  1.4358e-17  5.9022e-21  1.4358e-17  5.9023e-21  1.4358e-17  5.9025e-21  1.4358e-17  5.9028e-21  1.4359e-17  5.9034e-21  1.4360e-17  5.9045e-21  1.4361e-17  5.9064e-21  1.4364e-17  5.9099e-21  1.4369e-17  5.9159e-21  1.4378e-17  5.9268e-21  1.4394e-17  5.9461e-21  1.4422e-17  5.9805e-21  1.4471e-17  6.0420e-21  1.4560e-17  6.1520e-21  1.4717e-17  6.3500e-21  1.4996e-17  6.7096e-21  1.5493e-17  7.3723e-21  1.6376e-17  8.6246e-21  1.7947e-17
      5.45  5.9020e-21  1.6110e-17  5.9021e-21  1.6110e-17  5.9022e-21  1.6110e-17  5.9024e-21  1.6110e-17  5.9027e-21  1.6111e-17  5.9033e-21  1.6112e-17  5.9043e-21  1.6114e-17  5.9062e-21  1.6117e-17  5.9095e-21  1.6122e-17  5.9155e-21  1.6132e-17  5.9260e-21  1.6150e-17  5.9448e-21  1.6181e-17  5.9782e-21  1.6237e-17  6.0379e-21  1.6336e-17  6.1447e-21  1.6512e-17  6.3368e-21  1.6826e-17  6.6853e-21  1.7383e-17  7.3268e-21  1.8374e-17  8.5362e-21  2.0136e-17
      5.50  5.9019e-21  1.8075e-17  5.9020e-21  1.8076e-17  5.9021e-21  1.8076e-17  5.9023e-21  1.8076e-17  5.9026e-21  1.8077e-17  5.9032e-21  1.8078e-17  5.9042e-21  1.8080e-17  5.9060e-21  1.8083e-17  5.9093e-21  1.8090e-17  5.9150e-21  1.8101e-17  5.9253e-21  1.8121e-17  5.9435e-21  1.8156e-17  5.9760e-21  1.8218e-17  6.0340e-21  1.8329e-17  6.1378e-21  1.8527e-17  6.3244e-21  1.8879e-17  6.6626e-21  1.9504e-17  7.2843e-21  2.0616e-17  8.4536e-21  2.2594e-17
      5.55  5.9019e-21  2.0281e-17  5.9019e-21  2.0281e-17  5.9020e-21  2.0281e-17  5.9022e-21  2.0282e-17  5.9025e-21  2.0282e-17  5.9031e-21  2.0284e-17  5.9041e-21  2.0286e-17  5.9059e-21  2.0290e-17  5.9090e-21  2.0297e-17  5.9146e-21  2.0309e-17  5.9246e-21  2.0332e-17  5.9424e-21  2.0371e-17  5.9740e-21  2.0441e-17  6.0304e-21  2.0566e-17  6.1314e-21  2.0788e-17  6.3129e-21  2.1182e-17  6.6415e-21  2.1884e-17  7.2447e-21  2.3132e-17  8.3767e-21  2.5350e-17
      5.60  5.9018e-21  2.2756e-17  5.9019e-21  2.2756e-17  5.9020e-21  2.2756e-17  5.9021e-21  2.2756e-17  5.9024e-21  2.2757e-17  5.9030e-21  2.2759e-17  5.9040e-21  2.2761e-17  5.9057e-21  2.2766e-17  5.9088e-21  2.2773e-17  5.9142e-21  2.2787e-17  5.9240e-21  2.2812e-17  5.9413e-21  2.2857e-17  5.9721e-21  2.2935e-17  6.0271e-21  2.3075e-17  6.1255e-21  2.3324e-17  6.3022e-21  2.3767e-17  6.6219e-21  2.4554e-17  7.2079e-21  2.5954e-17  8.3050e-21  2.8444e-17
      5.65  5.9018e-21  2.5532e-17  5.9018e-21  2.5532e-17  5.9019e-21  2.5533e-17  5.9021e-21  2.5533e-17  5.9024e-21  2.5534e-17  5.9029e-21  2.5536e-17  5.9039e-21  2.5538e-17  5.9055e-21  2.5543e-17  5.9085e-21  2.5552e-17  5.9139e-21  2.5568e-17  5.9234e-21  2.5596e-17  5.9403e-21  2.5646e-17  5.9703e-21  2.5734e-17  6.0240e-21  2.5891e-17  6.1199e-21  2.6170e-17  6.2922e-21  2.6667e-17  6.6036e-21  2.7550e-17  7.1735e-21  2.9121e-17  8.2381e-21  3.1915e-17
      5.70  5.9017e-21  2.8648e-17  5.9018e-21  2.8648e-17  5.9019e-21  2.8648e-17  5.9020e-21  2.8649e-17  5.9023e-21  2.8650e-17  5.9028e-21  2.8651e-17  5.9038e-21  2.8655e-17  5.9054e-21  2.8660e-17  5.9083e-21  2.8670e-17  5.9135e-21  2.8688e-17  5.9228e-21  2.8719e-17  5.9393e-21  2.8775e-17  5.9687e-21  2.8874e-17  6.0211e-21  2.9050e-17  6.1148e-21  2.9364e-17  6.2828e-21  2.9921e-17  6.5865e-21  3.0912e-17  7.1415e-21  3.2675e-17  8.1758e-21  3.5809e-17
      5.75  5.9017e-21  3.2143e-17  5.9017e-21  3.2143e-17  5.9018e-21  3.2144e-17  5.9020e-21  3.2144e-17  5.9023e-21  3.2146e-17  5.9028e-21  3.2147e-17  5.9037e-21  3.2151e-17  5.9053e-21  3.2157e-17  5.9081e-21  3.2168e-17  5.9132e-21  3.2188e-17  5.9223e-21  3.2223e-17  5.9384e-21  3.2286e-17  5.9672e-21  3.2397e-17  6.0184e-21  3.2595e-17  6.1100e-21  3.2947e-17  6.2742e-21  3.3572e-17  6.5706e-21  3.4684e-17  7.1116e-21  3.6662e-17  8.1178e-21  4.0178e-17
      5.80  5.9016e-21  3.6065e-17  5.9017e-21  3.6066e-17  5.9018e-21  3.6066e-17  5.9019e-21  3.6067e-17  5.9022e-21  3.6068e-17  5.9027e-21  3.6070e-17  5.9036e-21  3.6074e-17  5.9052e-21  3.6081e-17  5.9080e-21  3.6094e-17  5.9130e-21  3.6116e-17  5.9218e-21  3.6155e-17  5.9376e-21  3.6225e-17  5.9657e-21  3.6350e-17  6.0159e-21  3.6572e-17  6.1055e-21  3.6967e-17  6.2661e-21  3.7668e-17  6.5558e-21  3.8916e-17  7.0839e-21  4.1135e-17  8.0638e-21  4.5081e-17
      5.85  5.9016e-21  4.0466e-17  5.9016e-21  4.0466e-17  5.9017e-21  4.0467e-17  5.9019e-21  4.0467e-17  5.9021e-21  4.0469e-17  5.9026e-21  4.0471e-17  5.9035e-21  4.0476e-17  5.9050e-21  4.0484e-17  5.9078e-21  4.0498e-17  5.9127e-21  4.0522e-17  5.9214e-21  4.0567e-17  5.9369e-21  4.0646e-17  5.9644e-21  4.0786e-17  6.0136e-21  4.1034e-17  6.1013e-21  4.1477e-17  6.2586e-21  4.2265e-17  6.5420e-21  4.3665e-17  7.0580e-21  4.6154e-17  8.0135e-21  5.0582e-17
      5.90  5.9015e-21  4.5404e-17  5.9016e-21  4.5404e-17  5.9017e-21  4.5404e-17  5.9018e-21  4.5405e-17  5.9021e-21  4.5407e-17  5.9026e-21  4.5410e-17  5.9034e-21  4.5415e-17  5.9049e-21  4.5423e-17  5.9076e-21  4.5439e-17  5.9124e-21  4.5467e-17  5.9210e-21  4.5517e-17  5.9362e-21  4.5605e-17  5.9632e-21  4.5762e-17  6.0114e-21  4.6041e-17  6.0974e-21  4.6538e-17  6.2516e-21  4.7422e-17  6.5292e-21  4.8993e-17  7.0340e-21  5.1786e-17  7.9667e-21  5.6754e-17
      5.95  5.9015e-21  5.0944e-17  5.9016e-21  5.0944e-17  5.9016e-21  5.0944e-17  5.9018e-21  5.0945e-17  5.9021e-21  5.0947e-17  5.9025e-21  5.0950e-17  5.9034e-21  5.0956e-17  5.9049e-21  5.0966e-17  5.9075e-21  5.0983e-17  5.9122e-21  5.1015e-17  5.9206e-21  5.1071e-17  5.9355e-21  5.1170e-17  5.9621e-21  5.1346e-17  6.0094e-21  5.1659e-17  6.0938e-21  5.2217e-17  6.2451e-21  5.3208e-17  6.5172e-21  5.4971e-17  7.0116e-21  5.8105e-17  7.9231e-21  6.3679e-17
      6.00  5.9015e-21  5.7160e-17  5.9015e-21  5.7160e-17  5.9016e-21  5.7161e-17  5.9018e-21  5.7162e-17  5.9020e-21  5.7164e-17  5.9025e-21  5.7167e-17  5.9033e-21  5.7173e-17  5.9048e-21  5.7185e-17  5.9074e-21  5.7204e-17  5.9120e-21  5.7240e-17  5.9202e-21  5.7302e-17  5.9349e-21  5.7413e-17  5.9610e-21  5.7611e-17  6.0075e-21  5.7963e-17  6.0905e-21  5.8588e-17  6.2390e-21  5.9700e-17  6.5061e-21  6.1678e-17  6.9907e-21  6.5195e-17  7.8826e-21  7.1449e-17
      6.05  5.9015e-21  6.4134e-17  5.9015e-21  6.4135e-17  5.9016e-21  6.4135e-17  5.9017e-21  6.4137e-17  5.9020e-21  6.4139e-17  5.9024e-21  6.4143e-17  5.9033e-21  6.4150e-17  5.9047e-21  6.4162e-17  5.9073e-21  6.4184e-17  5.9118e-21  6.4224e-17  5.9199e-21  6.4294e-17  5.9343e-21  6.4419e-17  5.9600e-21  6.4641e-17  6.0057e-21  6.5035e-17  6.0874e-21  6.5737e-17  6.2334e-21  6.6985e-17  6.4958e-21  6.9204e-17  6.9714e-21  7.3150e-17  7.8449e-21  8.0167e-17
      6.10  5.9014e-21  7.1960e-17  5.9015e-21  7.1960e-17  5.9016e-21  7.1961e-17  5.9017e-21  7.1962e-17  5.9020e-21  7.1965e-17  5.9024e-21  7.1969e-17  5.9032e-21  7.1977e-17  5.9046e-21  7.1991e-17  5.9071e-21  7.2016e-17  5.9116e-21  7.2060e-17  5.9196e-21  7.2139e-17  5.9338e-21  7.2279e-17  5.9591e-21  7.2528e-17  6.0041e-21  7.2971e-17  6.0845e-21  7.3758e-17  6.2281e-21  7.5158e-17  6.4862e-21  7.7648e-17  6.9534e-21  8.2076e-17  7.8099e-21  8.9949e-17
      6.15  5.9014e-21  8.0740e-17  5.9015e-21  8.0741e-17  5.9015e-21  8.0742e-17  5.9017e-21  8.0743e-17  5.9019e-21  8.0746e-17  5.9024e-21  8.0751e-17  5.9032e-21  8.0760e-17  5.9046e-21  8.0775e-17  5.9070e-21  8.0803e-17  5.9115e-21  8.0853e-17  5.9193e-21  8.0941e-17  5.9333e-21  8.1098e-17  5.9582e-21  8.1378e-17  6.0026e-21  8.1875e-17  6.0818e-21  8.2758e-17  6.2233e-21  8.4329e-17  6.4773e-21  8.7123e-17  6.9366e-21  9.2090e-17  7.7773e-21  1.0092e-16
      6.20  5.9014e-21  9.0592e-17  5.9014e-21  9.0592e-17  5.9015e-21  9.0593e-17  5.9017e-21  9.0595e-17  5.9019e-21  9.0598e-17  5.9023e-21  9.0604e-17  5.9031e-21  9.0614e-17  5.9045e-21  9.0631e-17  5.9069e-21  9.0663e-17  5.9113e-21  9.0719e-17  5.9191e-21  9.0818e-17  5.9329e-21  9.0994e-17  5.9574e-21  9.1307e-17  6.0012e-21  9.1865e-17  6.0793e-21  9.2856e-17  6.2188e-21  9.4619e-17  6.4690e-21  9.7753e-17  6.9211e-21  1.0333e-16  7.7470e-21  1.1324e-16
      6.25  5.9014e-21  1.0165e-16  5.9014e-21  1.0165e-16  5.9015e-21  1.0165e-16  5.9016e-21  1.0165e-16  5.9019e-21  1.0165e-16  5.9023e-21  1.0166e-16  5.9031e-21  1.0167e-16  5.9044e-21  1.0169e-16  5.9069e-21  1.0173e-16  5.9112e-21  1.0179e-16  5.9188e-21  1.0190e-16  5.9325e-21  1.0210e-16  5.9567e-21  1.0245e-16  5.9999e-21  1.0307e-16  6.0769e-21  1.0419e-16  6.2146e-21  1.0616e-16  6.4613e-21  1.0968e-16  6.9066e-21  1.1594e-16  7.7189e-21  1.2706e-16
      6.30  5.9014e-21  1.1405e-16  5.9014e-21  1.1405e-16  5.9015e-21  1.1405e-16  5.9016e-21  1.1405e-16  5.9019e-21  1.1406e-16  5.9023e-21  1.1406e-16  5.9030e-21  1.1408e-16  5.9044e-21  1.1410e-16  5.9068e-21  1.1414e-16  5.9110e-21  1.1421e-16  5.9186e-21  1.1433e-16  5.9321e-21  1.1455e-16  5.9560e-21  1.1495e-16  5.9987e-21  1.1565e-16  6.0748e-21  1.1690e-16  6.2107e-21  1.1912e-16  6.4542e-21  1.2306e-16  6.8932e-21  1.3008e-16  7.6928e-21  1.4256e-16
      6.35  5.9013e-21  1.2796e-16  5.9014e-21  1.2797e-16  5.9015e-21  1.2797e-16  5.9016e-21  1.2797e-16  5.9018e-21  1.2797e-16  5.9023e-21  1.2798e-16  5.9030e-21  1.2800e-16  5.9043e-21  1.2802e-16  5.9067e-21  1.2806e-16  5.9109e-21  1.2814e-16  5.9184e-21  1.2828e-16  5.9317e-21  1.2853e-16  5.9554e-21  1.2898e-16  5.9976e-21  1.2976e-16  6.0728e-21  1.3116e-16  6.2071e-21  1.3365e-16  6.4476e-21  1.3808e-16  6.8808e-21  1.4595e-16  7.6686e-21  1.5995e-16
      6.40  5.9013e-21  1.4358e-16  5.9014e-21  1.4358e-16  5.9015e-21  1.4358e-16  5.9016e-21  1.4358e-16  5.9018e-21  1.4359e-16  5.9022e-21  1.4360e-16  5.9030e-21  1.4361e-16  5.9043e-21  1.4364e-16  5.9066e-21  1.4369e-16  5.9108e-21  1.4378e-16  5.9182e-21  1.4394e-16  5.9314e-21  1.4422e-16  5.9548e-21  1.4471e-16  5.9965e-21  1.4560e-16  6.0709e-21  1.4717e-16  6.2037e-21  1.4996e-16  6.4414e-21  1.5493e-16  6.8692e-21  1.6376e-16  7.6461e-21  1.7947e-16
      6.45  5.9013e-21  1.6110e-16  5.9014e-21  1.6110e-16  5.9014e-21  1.6110e-16  5.9016e-21  1.6110e-16  5.9018e-21  1.6111e-16  5.9022e-21  1.6112e-16  5.9029e-21  1.6114e-16  5.9043e-21  1.6117e-16  5.9066e-21  1.6122e-16  5.9107e-21  1.6132e-16  5.9180e-21  1.6150e-16  5.9311e-21  1.6181e-16  5.9543e-21  1.6237e-16  5.9956e-21  1.6336e-16  6.0692e-21  1.6512e-16  6.2006e-21  1.6826e-16  6.4357e-21  1.7383e-16  6.8585e-21  1.8374e-16  7.6252e-21  2.0137e-16
      6.50  5.9013e-21  1.8075e-16  5.9014e-21  1.8076e-16  5.9014e-21  1.8076e-16  5.9016e-21  1.8076e-16  5.9018e-21  1.8077e-16  5.9022e-21  1.8078e-16  5.9029e-21  1.8080e-16  5.9042e-21  1.8083e-16  5.9065e-21  1.8090e-16  5.9106e-21  1.8101e-16  5.9179e-21  1.8121e-16  5.9308e-21  1.8156e-16  5.9538e-21  1.8218e-16  5.9947e-21  1.8329e-16  6.0676e-21  1.8527e-16  6.1977e-21  1.8879e-16  6.4304e-21  1.9504e-16  6.8485e-21  2.0617e-16  7.6058e-21  2.2594e-16
      6.55  5.9013e-21  2.0281e-16  5.9013e-21  2.0281e-16  5.9014e-21  2.0281e-16  5.9015e-21  2.0282e-16  5.9018e-21  2.0282e-16  5.9022e-21  2.0284e-16  5.9029e-21  2.0286e-16  5.9042e-21  2.0290e-16  5.9065e-21  2.0297e-16  5.9105e-21  2.0309e-16  5.9177e-21  2.0332e-16  5.9305e-21  2.0371e-16  5.9533e-21  2.0441e-16  5.9939e-21  2.0566e-16  6.0661e-21  2.0788e-16  6.1950e-21  2.1183e-16  6.4255e-21  2.1884e-16  6.8393e-21  2.3132e-16  7.5879e-21  2.5351e-16
      6.60  5.9013e-21  2.2756e-16  5.9013e-21  2.2756e-16  5.9014e-21  2.2756e-16  5.9015e-21  2.2756e-16  5.9018e-21  2.2757e-16  5.9022e-21  2.2759e-16  5.9029e-21  2.2761e-16  5.9041e-21  2.2766e-16  5.9064e-21  2.2773e-16  5.9104e-21  2.2787e-16  5.9176e-21  2.2812e-16  5.9303e-21  2.2857e-16  5.9529e-21  2.2935e-16  5.9931e-21  2.3075e-16  6.0647e-21  2.3324e-16  6.1925e-21  2.3767e-16  6.4209e-21  2.4555e-16  6.8308e-21  2.5955e-16  7.5712e-21  2.8445e-16
      6.65  5.9013e-21  2.5532e-16  5.9013e-21  2.5532e-16  5.9014e-21  2.5533e-16  5.9015e-21  2.5533e-16  5.9018e-21  2.5534e-16  5.9022e-21  2.5536e-16  5.9029e-21  2.5538e-16  5.9041e-21  2.5543e-16  5.9064e-21  2.5552e-16  5.9103e-21  2.5568e-16  5.9174e-21  2.5596e-16  5.9300e-21  2.5646e-16  5.9525e-21  2.5734e-16  5.9924e-21  2.5891e-16  6.0635e-21  2.6170e-16  6.1902e-21  2.6667e-16  6.4167e-21  2.7551e-16  6.8229e-21  2.9122e-16  7.5558e-21  3.1915e-16
      6.70  5.9013e-21  2.8648e-16  5.9013e-21  2.8648e-16  5.9014e-21  2.8648e-16  5.9015e-21  2.8649e-16  5.9017e-21  2.8650e-16  5.9021e-21  2.8651e-16  5.9028e-21  2.8655e-16  5.9041e-21  2.8660e-16  5.9063e-21  2.8670e-16  5.9103e-21  2.8688e-16  5.9173e-21  2.8719e-16  5.9298e-21  2.8775e-16  5.9521e-21  2.8874e-16  5.9917e-21  2.9050e-16  6.0623e-21  2.9364e-16  6.1881e-21  2.9921e-16  6.4128e-21  3.0912e-16  6.8155e-21  3.2675e-16  7.5415e-21  3.5810e-16
      6.75  5.9013e-21  3.2143e-16  5.9013e-21  3.2143e-16  5.9014e-21  3.2144e-16  5.9015e-21  3.2144e-16  5.9017e-21  3.2146e-16  5.9021e-21  3.2147e-16  5.9028e-21  3.2151e-16  5.9041e-21  3.2157e-16  5.9063e-21  3.2168e-16  5.9102e-21  3.2188e-16  5.9172e-21  3.2223e-16  5.9296e-21  3.2286e-16  5.9518e-21  3.2397e-16  5.9911e-21  3.2595e-16  6.0612e-21  3.2947e-16  6.1861e-21  3.3572e-16  6.4092e-21  3.4684e-16  6.8087e-21  3.6662e-16  7.5282e-21  4.0179e-16
      6.80  5.9013e-21  3.6065e-16  5.9013e-21  3.6066e-16  5.9014e-21  3.6066e-16  5.9015e-21  3.6067e-16  5.9017e-21  3.6068e-16  5.9021e-21  3.6070e-16  5.9028e-21  3.6074e-16  5.9040e-21  3.6081e-16  5.9062e-21  3.6094e-16  5.9102e-21  3.6116e-16  5.9171e-21  3.6155e-16  5.9295e-21  3.6225e-16  5.9514e-21  3.6350e-16  5.9906e-21  3.6572e-16  6.0602e-21  3.6967e-16  6.1843e-21  3.7668e-16  6.4058e-21  3.8916e-16  6.8024e-21  4.1135e-16  7.5160e-21  4.5082e-16
      6.85  5.9013e-21  4.0466e-16  5.9013e-21  4.0466e-16  5.9014e-21  4.0467e-16  5.9015e-21  4.0467e-16  5.9017e-21  4.0469e-16  5.9021e-21  4.0471e-16  5.9028e-21  4.0476e-16  5.9040e-21  4.0484e-16  5.9062e-21  4.0498e-16  5.9101e-21  4.0522e-16  5.9170e-21  4.0567e-16  5.9293e-21  4.0646e-16  5.9511e-21  4.0786e-16  5.9900e-21  4.1035e-16  6.0593e-21  4.1477e-16  6.1826e-21  4.2265e-16  6.4027e-21  4.3665e-16  6.7966e-21  4.6155e-16  7.5047e-21  5.0583e-16
      6.90  5.9013e-21  4.5404e-16  5.9013e-21  4.5404e-16  5.9014e-21  4.5404e-16  5.9015e-21  4.5405e-16  5.9017e-21  4.5407e-16  5.9021e-21  4.5410e-16  5.9028e-21  4.5415e-16  5.9040e-21  4.5423e-16  5.9062e-21  4.5439e-16  5.9100e-21  4.5467e-16  5.9169e-21  4.5517e-16  5.9291e-21  4.5605e-16  5.9509e-21  4.5762e-16  5.9895e-21  4.6041e-16  6.0584e-21  4.6538e-16  6.1811e-21  4.7422e-16  6.3999e-21  4.8993e-16  6.7912e-21  5.1787e-16  7.4942e-21  5.6755e-16
      6.95  5.9013e-21  5.0944e-16  5.9013e-21  5.0944e-16  5.9014e-21  5.0944e-16  5.9015e-21  5.0945e-16  5.9017e-21  5.0947e-16  5.9021e-21  5.0950e-16  5.9028e-21  5.0956e-16  5.9040e-21  5.0966e-16  5.9062e-21  5.0983e-16  5.9100e-21  5.1015e-16  5.9168e-21  5.1071e-16  5.9290e-21  5.1170e-16  5.9506e-21  5.1346e-16  5.9891e-21  5.1659e-16  6.0576e-21  5.2217e-16  6.1796e-21  5.3208e-16  6.3972e-21  5.4971e-16  6.7862e-21  5.8105e-16  7.4845e-21  6.3680e-16
      7.00  5.9013e-21  5.7160e-16  5.9013e-21  5.7160e-16  5.9014e-21  5.7161e-16  5.9015e-21  5.7162e-16  5.9017e-21  5.7164e-16  5.9021e-21  5.7167e-16  5.9028e-21  5.7173e-16  5.9040e-21  5.7185e-16  5.9061e-21  5.7204e-16  5.9100e-21  5.7240e-16  5.9168e-21  5.7302e-16  5.9289e-21  5.7413e-16  5.9504e-21  5.7611e-16  5.9887e-21  5.7963e-16  6.0569e-21  5.8588e-16  6.1783e-21  5.9700e-16  6.3948e-21  6.1678e-16  6.7816e-21  6.5195e-16  7.4755e-21  7.1450e-16
      7.05  5.9013e-21  6.4134e-16  5.9013e-21  6.4135e-16  5.9014e-21  6.4135e-16  5.9015e-21  6.4137e-16  5.9017e-21  6.4139e-16  5.9021e-21  6.4143e-16  5.9028e-21  6.4150e-16  5.9040e-21  6.4162e-16  5.9061e-21  6.4184e-16  5.9099e-21  6.4224e-16  5.9167e-21  6.4294e-16  5.9287e-21  6.4419e-16  5.9502e-21  6.4641e-16  5.9883e-21  6.5035e-16  6.0562e-21  6.5737e-16  6.1770e-21  6.6985e-16  6.3925e-21  6.9204e-16  6.7774e-21  7.3150e-16  7.4672e-21  8.0168e-16
      7.10  5.9013e-21  7.1960e-16  5.9013e-21  7.1960e-16  5.9014e-21  7.1961e-16  5.9015e-21  7.1962e-16  5.9017e-21  7.1965e-16  5.9021e-21  7.1969e-16  5.9027e-21  7.1977e-16  5.9039e-21  7.1991e-16  5.9061e-21  7.2016e-16  5.9099e-21  7.2060e-16  5.9166e-21  7.2139e-16  5.9286e-21  7.2279e-16  5.9500e-21  7.2528e-16  5.9880e-21  7.2971e-16  6.0556e-21  7.3758e-16  6.1759e-21  7.5158e-16  6.3904e-21  7.7648e-16  6.7735e-21  8.2076e-16  7.4596e-21  8.9950e-16
      7.15  5.9013e-21  8.0740e-16  5.9013e-21  8.0741e-16  5.9014e-21  8.0742e-16  5.9015e-21  8.0743e-16  5.9017e-21  8.0746e-16  5.9021e-21  8.0751e-16  5.9027e-21  8.0760e-16  5.9039e-21  8.0775e-16  5.9061e-21  8.0803e-16  5.9098e-21  8.0853e-16  5.9166e-21  8.0941e-16  5.9285e-21  8.1098e-16  5.9498e-21  8.1378e-16  5.9876e-21  8.1875e-16  6.0550e-21  8.2758e-16  6.1749e-21  8.4329e-16  6.3885e-21  8.7123e-16  6.7698e-21  9.2091e-16  7.4525e-21  1.0093e-15
      7.20  5.9013e-21  9.0592e-16  5.9013e-21  9.0592e-16  5.9014e-21  9.0593e-16  5.9015e-21  9.0595e-16  5.9017e-21  9.0598e-16  5.9021e-21  9.0604e-16  5.9027e-21  9.0614e-16  5.9039e-21  9.0631e-16  5.9060e-21  9.0663e-16  5.9098e-21  9.0719e-16  5.9165e-21  9.0818e-16  5.9284e-21  9.0994e-16  5.9496e-21  9.1307e-16  5.9873e-21  9.1865e-16  6.0544e-21  9.2856e-16  6.1739e-21  9.4619e-16  6.3867e-21  9.7754e-16  6.7665e-21  1.0333e-15  7.4460e-21  1.1324e-15
      7.25  5.9013e-21  1.0165e-15  5.9013e-21  1.0165e-15  5.9014e-21  1.0165e-15  5.9015e-21  1.0165e-15  5.9017e-21  1.0165e-15  5.9021e-21  1.0166e-15  5.9027e-21  1.0167e-15  5.9039e-21  1.0169e-15  5.9060e-21  1.0173e-15  5.9098e-21  1.0179e-15  5.9165e-21  1.0190e-15  5.9283e-21  1.0210e-15  5.9495e-21  1.0245e-15  5.9871e-21  1.0307e-15  6.0539e-21  1.0419e-15  6.1730e-21  1.0616e-15  6.3851e-21  1.0968e-15  6.7634e-21  1.1594e-15  7.4400e-21  1.2706e-15
      7.30  5.9012e-21  1.1405e-15  5.9013e-21  1.1405e-15  5.9014e-21  1.1405e-15  5.9015e-21  1.1405e-15  5.9017e-21  1.1406e-15  5.9021e-21  1.1406e-15  5.9027e-21  1.1408e-15  5.9039e-21  1.1410e-15  5.9060e-21  1.1414e-15  5.9098e-21  1.1421e-15  5.9164e-21  1.1433e-15  5.9283e-21  1.1455e-15  5.9493e-21  1.1495e-15  5.9868e-21  1.1565e-15  6.0535e-21  1.1690e-15  6.1722e-21  1.1912e-15  6.3836e-21  1.2306e-15  6.7606e-21  1.3008e-15  7.4345e-21  1.4256e-15
      7.35  5.9012e-21  1.2796e-15  5.9013e-21  1.2797e-15  5.9014e-21  1.2797e-15  5.9015e-21  1.2797e-15  5.9017e-21  1.2797e-15  5.9021e-21  1.2798e-15  5.9027e-21  1.2800e-15  5.9039e-21  1.2802e-15  5.9060e-21  1.2806e-15  5.9097e-21  1.2814e-15  5.9164e-21  1.2828e-15  5.9282e-21  1.2853e-15  5.9492e-21  1.2898e-15  5.9866e-21  1.2976e-15  6.0531e-21  1.3116e-15  6.1714e-21  1.3365e-15  6.3822e-21  1.3808e-15  6.7580e-21  1.4595e-15  7.4294e-21  1.5996e-15
      7.40  5.9012e-21  1.4358e-15  5.9013e-21  1.4358e-15  5.9014e-21  1.4358e-15  5.9015e-21  1.4358e-15  5.9017e-21  1.4359e-15  5.9021e-21  1.4360e-15  5.9027e-21  1.4361e-15  5.9039e-21  1.4364e-15  5.9060e-21  1.4369e-15  5.9097e-21  1.4378e-15  5.9163e-21  1.4394e-15  5.9281e-21  1.4422e-15  5.9491e-21  1.4471e-15  5.9864e-21  1.4560e-15  6.0527e-21  1.4717e-15  6.1707e-21  1.4996e-15  6.3809e-21  1.5493e-15  6.7556e-21  1.6376e-15  7.4247e-21  1.7947e-15
      7.45  5.9012e-21  1.6110e-15  5.9013e-21  1.6110e-15  5.9013e-21  1.6110e-15  5.9015e-21  1.6110e-15  5.9017e-21  1.6111e-15  5.9020e-21  1.6112e-15  5.9027e-21  1.6114e-15  5.9039e-21  1.6117e-15  5.9060e-21  1.6122e-15  5.9097e-21  1.6132e-15  5.9163e-21  1.6150e-15  5.9281e-21  1.6181e-15  5.9490e-21  1.6237e-15  5.9862e-21  1.6336e-15  6.0523e-21  1.6512e-15  6.1701e-21  1.6826e-15  6.3797e-21  1.7383e-15  6.7534e-21  1.8375e-15  7.4204e-21  2.0137e-15
      7.50  5.9012e-21  1.8075e-15  5.9013e-21  1.8076e-15  5.9013e-21  1.8076e-15  5.9015e-21  1.8076e-15  5.9017e-21  1.8077e-15  5.9020e-21  1.8078e-15  5.9027e-21  1.8080e-15  5.9039e-21  1.8083e-15  5.9060e-21  1.8090e-15  5.9097e-21  1.8101e-15  5.9163e-21  1.8121e-15  5.9280e-21  1.8156e-15  5.9489e-21  1.8218e-15  5.9860e-21  1.8329e-15  6.0520e-21  1.8527e-15  6.1695e-21  1.8879e-15  6.3786e-21  1.9504e-15  6.7513e-21  2.0617e-15  7.4165e-21  2.2594e-15
      7.55  5.9012e-21  2.0281e-15  5.9013e-21  2.0281e-15  5.9013e-21  2.0281e-15  5.9015e-21  2.0282e-15  5.9017e-21  2.0282e-15  5.9020e-21  2.0284e-15  5.9027e-21  2.0286e-15  5.9039e-21  2.0290e-15  5.9060e-21  2.0297e-15  5.9097e-21  2.0309e-15  5.9162e-21  2.0332e-15  5.9280e-21  2.0371e-15  5.9488e-21  2.0441e-15  5.9858e-21  2.0566e-15  6.0517e-21  2.0788e-15  6.1689e-21  2.1183e-15  6.3776e-21  2.1884e-15  6.7495e-21  2.3132e-15  7.4128e-21  2.5351e-15
      7.60  5.9012e-21  2.2756e-15  5.9013e-21  2.2756e-15  5.9013e-21  2.2756e-15  5.9015e-21  2.2756e-15  5.9017e-21  2.2757e-15  5.9020e-21  2.2759e-15  5.9027e-21  2.2761e-15  5.9039e-21  2.2766e-15  5.9059e-21  2.2773e-15  5.9096e-21  2.2787e-15  5.9162e-21  2.2812e-15  5.9279e-21  2.2857e-15  5.9487e-21  2.2935e-15  5.9857e-21  2.3075e-15  6.0514e-21  2.3324e-15  6.1685e-21  2.3767e-15  6.3767e-21  2.4555e-15  6.7477e-21  2.5955e-15  7.4095e-21  2.8445e-15
      7.65  5.9012e-21  2.5532e-15  5.9013e-21  2.5532e-15  5.9013e-21  2.5533e-15  5.9015e-21  2.5533e-15  5.9017e-21  2.5534e-15  5.9020e-21  2.5536e-15  5.9027e-21  2.5538e-15  5.9039e-21  2.5543e-15  5.9059e-21  2.5552e-15  5.9096e-21  2.5568e-15  5.9162e-21  2.5596e-15  5.9279e-21  2.5646e-15  5.9486e-21  2.5734e-15  5.9855e-21  2.5891e-15  6.0512e-21  2.6170e-15  6.1680e-21  2.6667e-15  6.3759e-21  2.7551e-15  6.7462e-21  2.9122e-15  7.4064e-21  3.1916e-15
      7.70  5.9012e-21  2.8648e-15  5.9013e-21  2.8648e-15  5.9013e-21  2.8648e-15  5.9015e-21  2.8649e-15  5.9017e-21  2.8650e-15  5.9020e-21  2.8651e-15  5.9027e-21  2.8655e-15  5.9039e-21  2.8660e-15  5.9059e-21  2.8670e-15  5.9096e-21  2.8688e-15  5.9162e-21  2.8719e-15  5.9278e-21  2.8775e-15  5.9485e-21  2.8874e-15  5.9854e-21  2.9050e-15  6.0510e-21  2.9364e-15  6.1676e-21  2.9921e-15  6.3751e-21  3.0912e-15  6.7447e-21  3.2675e-15  7.4036e-21  3.5810e-15
      7.75  5.9012e-21  3.2143e-15  5.9013e-21  3.2143e-15  5.9013e-21  3.2144e-15  5.9015e-21  3.2144e-15  5.9017e-21  3.2146e-15  5.9020e-21  3.2147e-15  5.9027e-21  3.2151e-15  5.9039e-21  3.2157e-15  5.9059e-21  3.2168e-15  5.9096e-21  3.2188e-15  5.9161e-21  3.2223e-15  5.9278e-21  3.2286e-15  5.9485e-21  3.2397e-15  5.9853e-21  3.2595e-15  6.0507e-21  3.2947e-15  6.1672e-21  3.3572e-15  6.3744e-21  3.4684e-15  6.7434e-21  3.6662e-15  7.4010e-21  4.0179e-15
      7.80  5.9012e-21  3.6065e-15  5.9013e-21  3.6066e-15  5.9013e-21  3.6066e-15  5.9015e-21  3.6067e-15  5.9017e-21  3.6068e-15  5.9020e-21  3.6070e-15  5.9027e-21  3.6074e-15  5.9039e-21  3.6081e-15  5.9059e-21  3.6094e-15  5.9096e-21  3.6116e-15  5.9161e-21  3.6155e-15  5.9277e-21  3.6225e-15  5.9484e-21  3.6350e-15  5.9852e-21  3.6572e-15  6.0505e-21  3.6967e-15  6.1668e-21  3.7668e-15  6.3738e-21  3.8916e-15  6.7422e-21  4.1136e-15  7.3987e-21  4.5082e-15
      7.85  5.9012e-21  4.0466e-15  5.9013e-21  4.0466e-15  5.9013e-21  4.0467e-15  5.9015e-21  4.0467e-15  5.9017e-21  4.0469e-15  5.9020e-21  4.0471e-15  5.9027e-21  4.0476e-15  5.9038e-21  4.0484e-15  5.9059e-21  4.0498e-15  5.9096e-21  4.0522e-15  5.9161e-21  4.0567e-15  5.9277e-21  4.0646e-15  5.9484e-21  4.0786e-15  5.9851e-21  4.1035e-15  6.0504e-21  4.1477e-15  6.1665e-21  4.2265e-15  6.3732e-21  4.3665e-15  6.7411e-21  4.6155e-15  7.3966e-21  5.0583e-15
      7.90  5.9012e-21  4.5404e-15  5.9013e-21  4.5404e-15  5.9013e-21  4.5404e-15  5.9015e-21  4.5405e-15  5.9017e-21  4.5407e-15  5.9020e-21  4.5410e-15  5.9027e-21  4.5415e-15  5.9038e-21  4.5423e-15  5.9059e-21  4.5439e-15  5.9096e-21  4.5467e-15  5.9161e-21  4.5517e-15  5.9277e-21  4.5605e-15  5.9483e-21  4.5762e-15  5.9850e-21  4.6042e-15  6.0502e-21  4.6538e-15  6.1662e-21  4.7422e-15  6.3727e-21  4.8993e-15  6.7401e-21  5.1787e-15  7.3946e-21  5.6755e-15
      7.95  5.9012e-21  5.0944e-15  5.9013e-21  5.0944e-15  5.9013e-21  5.0944e-15  5.9015e-21  5.0945e-15  5.9017e-21  5.0947e-15  5.9020e-21  5.0950e-15  5.9027e-21  5.0956e-15  5.9038e-21  5.0966e-15  5.9059e-21  5.0983e-15  5.9096e-21  5.1015e-15  5.9161e-21  5.1071e-15  5.9277e-21  5.1170e-15  5.9483e-21  5.1346e-15  5.9849e-21  5.1659e-15  6.0501e-21  5.2217e-15  6.1660e-21  5.3208e-15  6.3722e-21  5.4971e-15  6.7392e-21  5.8106e-15  7.3928e-21  6.3680e-15
      8.00  5.9012e-21  5.7160e-15  5.9013e-21  5.7160e-15  5.9013e-21  5.7161e-15  5.9015e-21  5.7162e-15  5.9017e-21  5.7164e-15  5.9020e-21  5.7167e-15  5.9027e-21  5.7173e-15  5.9038e-21  5.7185e-15  5.9059e-21  5.7204e-15  5.9096e-21  5.7240e-15  5.9161e-21  5.7302e-15  5.9276e-21  5.7413e-15  5.9482e-21  5.7611e-15  5.9848e-21  5.7963e-15  6.0499e-21  5.8588e-15  6.1657e-21  5.9700e-15  6.3717e-21  6.1678e-15  6.7384e-21  6.5196e-15  7.3912e-21  7.1450e-15
      8.05  5.9012e-21  6.4134e-15  5.9013e-21  6.4135e-15  5.9013e-21  6.4135e-15  5.9015e-21  6.4137e-15  5.9017e-21  6.4139e-15  5.9020e-21  6.4143e-15  5.9027e-21  6.4150e-15  5.9038e-21  6.4162e-15  5.9059e-21  6.4184e-15  5.9096e-21  6.4224e-15  5.9161e-21  6.4294e-15  5.9276e-21  6.4419e-15  5.9482e-21  6.4641e-15  5.9848e-21  6.5035e-15  6.0498e-21  6.5737e-15  6.1655e-21  6.6985e-15  6.3713e-21  6.9204e-15  6.7376e-21  7.3151e-15  7.3897e-21  8.0168e-15
      8.10  5.9012e-21  7.1960e-15  5.9013e-21  7.1960e-15  5.9013e-21  7.1961e-15  5.9015e-21  7.1962e-15  5.9017e-21  7.1965e-15  5.9020e-21  7.1969e-15  5.9027e-21  7.1977e-15  5.9038e-21  7.1991e-15  5.9059e-21  7.2016e-15  5.9095e-21  7.2060e-15  5.9160e-21  7.2139e-15  5.9276e-21  7.2279e-15  5.9482e-21  7.2528e-15  5.9847e-21  7.2971e-15  6.0497e-21  7.3758e-15  6.1653e-21  7.5158e-15  6.3710e-21  7.7648e-15  6.7369e-21  8.2076e-15  7.3884e-21  8.9950e-15
      8.15  5.9012e-21  8.0740e-15  5.9013e-21  8.0741e-15  5.9013e-21  8.0742e-15  5.9015e-21  8.0743e-15  5.9017e-21  8.0746e-15  5.9020e-21  8.0751e-15  5.9027e-21  8.0760e-15  5.9038e-21  8.0775e-15  5.9059e-21  8.0803e-15  5.9095e-21  8.0853e-15  5.9160e-21  8.0941e-15  5.9276e-21  8.1098e-15  5.9481e-21  8.1378e-15  5.9846e-21  8.1875e-15  6.0496e-21  8.2758e-15  6.1651e-21  8.4329e-15  6.3706e-21  8.7123e-15  6.7363e-21  9.2091e-15  7.3871e-21  1.0093e-14
      8.20  5.9012e-21  9.0592e-15  5.9013e-21  9.0592e-15  5.9013e-21  9.0593e-15  5.9015e-21  9.0595e-15  5.9017e-21  9.0598e-15  5.9020e-21  9.0604e-15  5.9027e-21  9.0614e-15  5.9038e-21  9.0631e-15  5.9059e-21  9.0663e-15  5.9095e-21  9.0719e-15  5.9160e-21  9.0818e-15  5.9276e-21  9.0994e-15  5.9481e-21  9.1307e-15  5.9846e-21  9.1865e-15  6.0495e-21  9.2856e-15  6.1650e-21  9.4619e-15  6.3703e-21  9.7754e-15  6.7357e-21  1.0333e-14  7.3860e-21  1.1324e-14
      8.25  5.9012e-21  1.0165e-14  5.9013e-21  1.0165e-14  5.9013e-21  1.0165e-14  5.9015e-21  1.0165e-14  5.9017e-21  1.0165e-14  5.9020e-21  1.0166e-14  5.9027e-21  1.0167e-14  5.9038e-21  1.0169e-14  5.9059e-21  1.0173e-14  5.9095e-21  1.0179e-14  5.9160e-21  1.0190e-14  5.9276e-21  1.0210e-14  5.9481e-21  1.0245e-14  5.9845e-21  1.0307e-14  6.0494e-21  1.0419e-14  6.1648e-21  1.0616e-14  6.3701e-21  1.0968e-14  6.7352e-21  1.1594e-14  7.3850e-21  1.2706e-14
      8.30  5.9012e-21  1.1405e-14  5.9013e-21  1.1405e-14  5.9013e-21  1.1405e-14  5.9015e-21  1.1405e-14  5.9017e-21  1.1406e-14  5.9020e-21  1.1406e-14  5.9027e-21  1.1408e-14  5.9038e-21  1.1410e-14  5.9059e-21  1.1414e-14  5.9095e-21  1.1421e-14  5.9160e-21  1.1433e-14  5.9275e-21  1.1455e-14  5.9480e-21  1.1495e-14  5.9845e-21  1.1565e-14  6.0494e-21  1.1690e-14  6.1647e-21  1.1912e-14  6.3698e-21  1.2306e-14  6.7347e-21  1.3008e-14  7.3841e-21  1.4256e-14
      8.35  5.9012e-21  1.2796e-14  5.9013e-21  1.2797e-14  5.9013e-21  1.2797e-14  5.9015e-21  1.2797e-14  5.9017e-21  1.2797e-14  5.9020e-21  1.2798e-14  5.9027e-21  1.2800e-14  5.9038e-21  1.2802e-14  5.9059e-21  1.2806e-14  5.9095e-21  1.2814e-14  5.9160e-21  1.2828e-14  5.9275e-21  1.2853e-14  5.9480e-21  1.2898e-14  5.9845e-21  1.2976e-14  6.0493e-21  1.3116e-14  6.1646e-21  1.3365e-14  6.3696e-21  1.3808e-14  6.7343e-21  1.4595e-14  7.3833e-21  1.5996e-14
      8.40  5.9012e-21  1.4358e-14  5.9013e-21  1.4358e-14  5.9013e-21  1.4358e-14  5.9015e-21  1.4358e-14  5.9017e-21  1.4359e-14  5.9020e-21  1.4360e-14  5.9027e-21  1.4361e-14  5.9038e-21  1.4364e-14  5.9059e-21  1.4369e-14  5.9095e-21  1.4378e-14  5.9160e-21  1.4394e-14  5.9275e-21  1.4422e-14  5.9480e-21  1.4471e-14  5.9844e-21  1.4560e-14  6.0492e-21  1.4717e-14  6.1644e-21  1.4996e-14  6.3694e-21  1.5493e-14  6.7339e-21  1.6376e-14  7.3826e-21  1.7947e-14
      8.45  5.9012e-21  1.6110e-14  5.9013e-21  1.6110e-14  5.9013e-21  1.6110e-14  5.9015e-21  1.6110e-14  5.9017e-21  1.6111e-14  5.9020e-21  1.6112e-14  5.9027e-21  1.6114e-14  5.9038e-21  1.6117e-14  5.9059e-21  1.6122e-14  5.9095e-21  1.6132e-14  5.9160e-21  1.6150e-14  5.9275e-21  1.6181e-14  5.9480e-21  1.6237e-14  5.9844e-21  1.6336e-14  6.0492e-21  1.6512e-14  6.1643e-21  1.6826e-14  6.3692e-21  1.7383e-14  6.7336e-21  1.8375e-14  7.3819e-21  2.0137e-14
      8.50  5.9012e-21  1.8075e-14  5.9013e-21  1.8076e-14  5.9013e-21  1.8076e-14  5.9015e-21  1.8076e-14  5.9017e-21  1.8077e-14  5.9020e-21  1.8078e-14  5.9027e-21  1.8080e-14  5.9038e-21  1.8083e-14  5.9059e-21  1.8090e-14  5.9095e-21  1.8101e-14  5.9160e-21  1.8121e-14  5.9275e-21  1.8156e-14  5.9480e-21  1.8218e-14  5.9844e-21  1.8329e-14  6.0491e-21  1.8527e-14  6.1643e-21  1.8879e-14  6.3690e-21  1.9504e-14  6.7333e-21  2.0617e-14  7.3813e-21  2.2594e-14
