# This was generated using Cloudy10 and the columns are ordered 
# as log10 of the fraction of the metallicity to the solar metallicity
# 'h_*_Z' and 'c_*_Z' stands for cooling and heating respectively 
# at * metalicity
#
# NOTE: This was generated separately from loop_coolingcurve_w_UV.py
#       using Output_metals_w_redshift.py.
#
# Redshift = 1.5
# hden = -7.5
#
#     temp   h_-3.00_Z   c_-3.00_Z   h_-2.75_Z   c_-2.75_Z   h_-2.50_Z   c_-2.50_Z   h_-2.25_Z   c_-2.25_Z   h_-2.00_Z   c_-2.00_Z   h_-1.75_Z   c_-1.75_Z   h_-1.50_Z   c_-1.50_Z   h_-1.25_Z   c_-1.25_Z   h_-1.00_Z   c_-1.00_Z   h_-0.75_Z   c_-0.75_Z   h_-0.50_Z   c_-0.50_Z   h_-0.25_Z   c_-0.25_Z    h_0.00_Z    c_0.00_Z    h_0.25_Z    c_0.25_Z    h_0.50_Z    c_0.50_Z    h_0.75_Z    c_0.75_Z    h_1.00_Z    c_1.00_Z    h_1.25_Z    c_1.25_Z    h_1.50_Z    c_1.50_Z 
      1.00  6.9987e-22  1.5696e-25  7.0097e-22  1.5697e-25  7.0294e-22  1.5697e-25  7.0643e-22  1.5699e-25  7.1263e-22  1.5701e-25  7.2364e-22  1.5706e-25  7.4313e-22  1.5713e-25  7.7769e-22  1.5727e-25  8.3913e-22  1.5751e-25  9.4837e-22  1.5795e-25  1.1425e-21  1.5872e-25  1.4882e-21  1.6010e-25  2.1043e-21  1.6256e-25  3.2061e-21  1.6698e-25  5.1812e-21  1.7488e-25  8.7431e-21  1.8917e-25  1.5231e-20  2.1531e-25  2.7242e-20  2.6416e-25  5.0032e-20  3.5821e-25
      1.05  6.5823e-22  1.7116e-25  6.5930e-22  1.7116e-25  6.6119e-22  1.7117e-25  6.6456e-22  1.7119e-25  6.7055e-22  1.7121e-25  6.8117e-22  1.7126e-25  6.9999e-22  1.7134e-25  7.3334e-22  1.7149e-25  7.9264e-22  1.7175e-25  8.9807e-22  1.7221e-25  1.0855e-21  1.7303e-25  1.4192e-21  1.7449e-25  2.0140e-21  1.7711e-25  3.0776e-21  1.8181e-25  4.9844e-21  1.9022e-25  8.4237e-21  2.0541e-25  1.4690e-20  2.3321e-25  2.6295e-20  2.8516e-25  4.8326e-20  3.8520e-25
      1.10  6.1916e-22  1.8667e-25  6.2019e-22  1.8667e-25  6.2202e-22  1.8668e-25  6.2527e-22  1.8669e-25  6.3104e-22  1.8672e-25  6.4129e-22  1.8677e-25  6.5945e-22  1.8686e-25  6.9162e-22  1.8701e-25  7.4883e-22  1.8729e-25  8.5056e-22  1.8778e-25  1.0314e-21  1.8865e-25  1.3534e-21  1.9021e-25  1.9274e-21  1.9299e-25  2.9538e-21  1.9798e-25  4.7942e-21  2.0690e-25  8.1140e-21  2.2302e-25  1.4164e-20  2.5253e-25  2.5373e-20  3.0767e-25  4.6665e-20  4.1388e-25
      1.15  5.8251e-22  2.0364e-25  5.8350e-22  2.0364e-25  5.8526e-22  2.0365e-25  5.8840e-22  2.0367e-25  5.9396e-22  2.0370e-25  6.0385e-22  2.0375e-25  6.2136e-22  2.0384e-25  6.5239e-22  2.0401e-25  7.0756e-22  2.0430e-25  8.0566e-22  2.0482e-25  9.8013e-22  2.0574e-25  1.2906e-21  2.0739e-25  1.8443e-21  2.1035e-25  2.8345e-21  2.1564e-25  4.6100e-21  2.2510e-25  7.8132e-21  2.4218e-25  1.3653e-20  2.7346e-25  2.4476e-20  3.3191e-25  4.5048e-20  4.4448e-25
      1.20  5.4814e-22  2.2225e-25  5.4909e-22  2.2226e-25  5.5079e-22  2.2227e-25  5.5381e-22  2.2229e-25  5.5917e-22  2.2232e-25  5.6870e-22  2.2237e-25  5.8558e-22  2.2247e-25  6.1550e-22  2.2264e-25  6.6867e-22  2.2295e-25  7.6325e-22  2.2350e-25  9.3144e-22  2.2448e-25  1.2308e-21  2.2623e-25  1.7647e-21  2.2936e-25  2.7194e-21  2.3497e-25  4.4316e-21  2.4499e-25  7.5212e-21  2.6308e-25  1.3155e-20  2.9621e-25  2.3602e-20  3.5809e-25  4.3473e-20  4.7728e-25
      1.25  5.1591e-22  2.4271e-25  5.1683e-22  2.4271e-25  5.1846e-22  2.4272e-25  5.2137e-22  2.4274e-25  5.2654e-22  2.4277e-25  5.3571e-22  2.4283e-25  5.5198e-22  2.4293e-25  5.8081e-22  2.4319e-25  6.3203e-22  2.4344e-25  7.2316e-22  2.4403e-25  8.8523e-22  2.4506e-25  1.1737e-21  2.4691e-25  1.6883e-21  2.5024e-25  2.6084e-21  2.5618e-25  4.2587e-21  2.6678e-25  7.2373e-21  2.8593e-25  1.2670e-20  3.2099e-25  2.2751e-20  3.8646e-25  4.1937e-20  5.1258e-25
      1.30  4.8570e-22  2.6522e-25  4.8659e-22  2.6523e-25  4.8816e-22  2.6524e-25  4.9096e-22  2.6526e-25  4.9594e-22  2.6529e-25  5.0477e-22  2.6535e-25  5.2044e-22  2.6546e-25  5.4820e-22  2.6566e-25  5.9753e-22  2.6600e-25  6.8529e-22  2.6662e-25  8.4139e-22  2.6771e-25  1.1193e-21  2.6967e-25  1.6150e-21  2.7320e-25  2.5014e-21  2.7949e-25  4.0913e-21  2.9072e-25  6.9615e-21  3.1098e-25  1.2199e-20  3.4807e-25  2.1920e-20  4.1733e-25  4.0440e-20  5.5072e-25
      1.35  4.5740e-22  2.9003e-25  4.5825e-22  2.9003e-25  4.5977e-22  2.9005e-25  4.6246e-22  2.9007e-25  4.6725e-22  2.9010e-25  4.7575e-22  2.9017e-25  4.9083e-22  2.9028e-25  5.1755e-22  2.9049e-25  5.6504e-22  2.9086e-25  6.4953e-22  2.9151e-25  7.9981e-22  2.9267e-25  1.0674e-21  2.9474e-25  1.5446e-21  2.9849e-25  2.3981e-21  3.0516e-25  3.9292e-21  3.1704e-25  6.6937e-21  3.3849e-25  1.1740e-20  3.7773e-25  2.1111e-20  4.5100e-25  3.8979e-20  5.9207e-25
      1.40  4.3088e-22  3.1740e-25  4.3170e-22  3.1741e-25  4.3315e-22  3.1742e-25  4.3575e-22  3.1744e-25  4.4035e-22  3.1748e-25  4.4853e-22  3.1755e-25  4.6305e-22  3.1767e-25  4.8876e-22  3.1789e-25  5.3447e-22  3.1828e-25  6.1577e-22  3.1897e-25  7.6039e-22  3.2020e-25  1.0179e-21  3.2239e-25  1.4773e-21  3.2638e-25  2.2988e-21  3.3344e-25  3.7726e-21  3.4603e-25  6.4341e-21  3.6874e-25  1.1293e-20  4.1028e-25  2.0324e-20  4.8781e-25  3.7555e-20  6.3703e-25
      1.45  4.0603e-22  3.4763e-25  4.0682e-22  3.4764e-25  4.0822e-22  3.4765e-25  4.1072e-22  3.4768e-25  4.1515e-22  3.4772e-25  4.2301e-22  3.4779e-25  4.3698e-22  3.4792e-25  4.6172e-22  3.4815e-25  5.0569e-22  3.4856e-25  5.8391e-22  3.4929e-25  7.2303e-22  3.5060e-25  9.7077e-22  3.5292e-25  1.4129e-21  3.5717e-25  2.2033e-21  3.6467e-25  3.6216e-21  3.7801e-25  6.1832e-21  4.0207e-25  1.0861e-20  4.4608e-25  1.9558e-20  5.2817e-25  3.6166e-20  6.8608e-25
      1.50  3.8276e-22  3.8106e-25  3.8352e-22  3.8107e-25  3.8487e-22  3.8109e-25  3.8727e-22  3.8111e-25  3.9153e-22  3.8115e-25  3.9910e-22  3.8123e-25  4.1253e-22  3.8137e-25  4.3633e-22  3.8162e-25  4.7862e-22  3.8205e-25  5.5385e-22  3.8283e-25  6.8767e-22  3.8421e-25  9.2595e-22  3.8668e-25  1.3513e-21  3.9121e-25  2.1117e-21  3.9917e-25  3.4762e-21  4.1333e-25  5.9409e-21  4.3886e-25  1.0443e-20  4.8552e-25  1.8816e-20  5.7251e-25  3.4817e-20  7.3973e-25
      1.55  3.6098e-22  4.1809e-25  3.6171e-22  4.1810e-25  3.6301e-22  4.1811e-25  3.6531e-22  4.1814e-25  3.6941e-22  4.1819e-25  3.7669e-22  4.1827e-25  3.8960e-22  4.1842e-25  4.1250e-22  4.1868e-25  4.5317e-22  4.1914e-25  5.2552e-22  4.1997e-25  6.5421e-22  4.2144e-25  8.8334e-22  4.2405e-25  1.2924e-21  4.2890e-25  2.0238e-21  4.3737e-25  3.3363e-21  4.5242e-25  5.7072e-21  4.7953e-25  1.0039e-20  5.2906e-25  1.8098e-20  6.2136e-25  3.3508e-20  7.9860e-25
      1.60  3.4059e-22  4.5911e-25  3.4129e-22  4.5912e-25  3.4254e-22  4.5914e-25  3.4475e-22  4.5916e-25  3.4869e-22  4.5921e-25  3.5569e-22  4.5930e-25  3.6810e-22  4.5946e-25  3.9012e-22  4.5973e-25  4.2922e-22  4.6023e-25  4.9879e-22  4.6111e-25  6.2254e-22  4.6267e-25  8.4281e-22  4.6546e-25  1.2362e-21  4.7065e-25  1.9395e-21  4.7967e-25  3.2016e-21  4.9568e-25  5.4816e-21  5.2452e-25  9.6479e-21  5.7717e-25  1.7401e-20  6.7521e-25  3.2235e-20  8.6329e-25
      1.65  3.2150e-22  5.0459e-25  3.2217e-22  5.0460e-25  3.2337e-22  5.0462e-25  3.2550e-22  5.0465e-25  3.2929e-22  5.0470e-25  3.3601e-22  5.0479e-25  3.4795e-22  5.0496e-25  3.6913e-22  5.0526e-25  4.0672e-22  5.0578e-25  4.7361e-22  5.0672e-25  5.9258e-22  5.0838e-25  8.0432e-22  5.1135e-25  1.1826e-21  5.1692e-25  1.8588e-21  5.2655e-25  3.0723e-21  5.4362e-25  5.2648e-21  5.7433e-25  9.2714e-21  6.3038e-25  1.6729e-20  7.3465e-25  3.1003e-20  9.3449e-25
      1.70  3.0363e-22  5.5506e-25  3.0428e-22  5.5507e-25  3.0543e-22  5.5509e-25  3.0748e-22  5.5512e-25  3.1112e-22  5.5517e-25  3.1759e-22  5.5527e-25  3.2906e-22  5.5545e-25  3.4942e-22  5.5577e-25  3.8556e-22  5.5633e-25  4.4987e-22  5.5733e-25  5.6424e-22  5.5911e-25  7.6778e-22  5.6229e-25  1.1315e-21  5.6827e-25  1.7816e-21  5.7856e-25  2.9483e-21  5.9677e-25  5.0564e-21  6.2954e-25  8.9092e-21  6.8928e-25  1.6082e-20  8.0036e-25  2.9815e-20  1.0130e-24
      1.75  2.8692e-22  6.1110e-25  2.8754e-22  6.1111e-25  2.8865e-22  6.1113e-25  2.9061e-22  6.1116e-25  2.9411e-22  6.1122e-25  3.0033e-22  6.1133e-25  3.1136e-22  6.1152e-25  3.3093e-22  6.1186e-25  3.6567e-22  6.1246e-25  4.2750e-22  6.1352e-25  5.3743e-22  6.1543e-25  7.3309e-22  6.1885e-25  1.0827e-21  6.2528e-25  1.7077e-21  6.3629e-25  2.8293e-21  6.5576e-25  4.8561e-21  6.9076e-25  8.5606e-21  7.5455e-25  1.5459e-20  8.7303e-25  2.8670e-20  1.0995e-24
      1.80  2.7128e-22  6.7341e-25  2.7187e-22  6.7342e-25  2.7294e-22  6.7344e-25  2.7483e-22  6.7348e-25  2.7819e-22  6.7354e-25  2.8417e-22  6.7366e-25  2.9477e-22  6.7386e-25  3.1358e-22  6.7423e-25  3.4697e-22  6.7488e-25  4.0640e-22  6.7603e-25  5.1206e-22  6.7808e-25  7.0014e-22  6.8182e-25  1.0362e-21  6.8879e-25  1.6370e-21  7.0070e-25  2.7152e-21  7.2173e-25  4.6636e-21  7.5950e-25  8.2253e-21  8.2832e-25  1.4858e-20  9.5606e-25  2.7565e-20  1.2000e-24
      1.85  2.5664e-22  7.4269e-25  2.5722e-22  7.4270e-25  2.5824e-22  7.4272e-25  2.6006e-22  7.4276e-25  2.6329e-22  7.4283e-25  2.6903e-22  7.4296e-25  2.7922e-22  7.4317e-25  2.9730e-22  7.4357e-25  3.2939e-22  7.4426e-25  3.8650e-22  7.4550e-25  4.8804e-22  7.4769e-25  6.6880e-22  7.5174e-25  9.9181e-22  7.5926e-25  1.5692e-21  7.7204e-25  2.6055e-21  7.9459e-25  4.4783e-21  8.3506e-25  7.9022e-21  9.0874e-25  1.4280e-20  1.0454e-24  2.6499e-20  1.3061e-24
      1.90  2.4296e-22  8.1976e-25  2.4351e-22  8.1978e-25  2.4449e-22  8.1980e-25  2.4624e-22  8.1984e-25  2.4935e-22  8.1992e-25  2.5486e-22  8.2005e-25  2.6465e-22  8.2028e-25  2.8203e-22  8.2070e-25  3.1286e-22  8.2145e-25  3.6774e-22  8.2278e-25  4.6530e-22  8.2515e-25  6.3902e-22  8.2956e-25  9.4942e-22  8.3771e-25  1.5043e-21  8.5149e-25  2.5002e-21  8.7577e-25  4.3002e-21  9.1931e-25  7.5912e-21  9.9855e-25  1.3722e-20  1.1454e-24  2.5473e-20  1.4252e-24
      1.95  2.3016e-22  9.0555e-25  2.3069e-22  9.0557e-25  2.3163e-22  9.0559e-25  2.3331e-22  9.0564e-25  2.3629e-22  9.0572e-25  2.4159e-22  9.0586e-25  2.5100e-22  9.0611e-25  2.6770e-22  9.0657e-25  2.9732e-22  9.0737e-25  3.5004e-22  9.0880e-25  4.4377e-22  9.1134e-25  6.1068e-22  9.1615e-25  9.0893e-22  9.2496e-25  1.4421e-21  9.3980e-25  2.3991e-21  9.6590e-25  4.1287e-21  1.0127e-24  7.2917e-21  1.0977e-24  1.3185e-20  1.2552e-24  2.4484e-20  1.5550e-24
      2.00  2.1819e-22  1.0011e-24  2.1870e-22  1.0011e-24  2.1961e-22  1.0011e-24  2.2122e-22  1.0012e-24  2.2408e-22  1.0013e-24  2.2917e-22  1.0014e-24  2.3821e-22  1.0017e-24  2.5425e-22  1.0022e-24  2.8271e-22  1.0030e-24  3.3334e-22  1.0046e-24  4.2338e-22  1.0073e-24  5.8373e-22  1.0126e-24  8.7026e-22  1.0221e-24  1.3825e-21  1.0381e-24  2.3019e-21  1.0662e-24  3.9638e-21  1.1165e-24  7.0031e-21  1.2079e-24  1.2668e-20  1.3771e-24  2.3531e-20  1.6987e-24
      2.05  2.0700e-22  1.1076e-24  2.0749e-22  1.1076e-24  2.0836e-22  1.1077e-24  2.0991e-22  1.1077e-24  2.1266e-22  1.1078e-24  2.1755e-22  1.1080e-24  2.2622e-22  1.1083e-24  2.4163e-22  1.1088e-24  2.6896e-22  1.1098e-24  3.1758e-22  1.1114e-24  4.0404e-22  1.1144e-24  5.5808e-22  1.1203e-24  8.3329e-22  1.1308e-24  1.3253e-21  1.1484e-24  2.2084e-21  1.1791e-24  3.8048e-21  1.2342e-24  6.7249e-21  1.3341e-24  1.2168e-20  1.5190e-24  2.2610e-20  1.8698e-24
      2.10  1.9654e-22  1.2263e-24  1.9701e-22  1.2264e-24  1.9784e-22  1.2264e-24  1.9933e-22  1.2264e-24  2.0197e-22  1.2265e-24  2.0666e-22  1.2267e-24  2.1500e-22  1.2271e-24  2.2979e-22  1.2276e-24  2.5604e-22  1.2286e-24  3.0271e-22  1.2305e-24  3.8573e-22  1.2337e-24  5.3365e-22  1.2401e-24  7.9793e-22  1.2516e-24  1.2704e-21  1.2706e-24  2.1185e-21  1.3037e-24  3.6517e-21  1.3631e-24  6.4566e-21  1.4708e-24  1.1686e-20  1.6699e-24  2.1722e-20  2.0473e-24
      2.15  1.8676e-22  1.3587e-24  1.8721e-22  1.3588e-24  1.8801e-22  1.3588e-24  1.8944e-22  1.3589e-24  1.9197e-22  1.3590e-24  1.9648e-22  1.3592e-24  2.0448e-22  1.3595e-24  2.1868e-22  1.3601e-24  2.4388e-22  1.3612e-24  2.8868e-22  1.3632e-24  3.6836e-22  1.3667e-24  5.1039e-22  1.3738e-24  7.6412e-22  1.3862e-24  1.2177e-21  1.4068e-24  2.0320e-21  1.4426e-24  3.5042e-21  1.5067e-24  6.1979e-21  1.6229e-24  1.1221e-20  1.8374e-24  2.0864e-20  2.2438e-24
      2.20  1.7762e-22  1.5064e-24  1.7805e-22  1.5065e-24  1.7882e-22  1.5065e-24  1.8019e-22  1.5066e-24  1.8262e-22  1.5067e-24  1.8694e-22  1.5069e-24  1.9462e-22  1.5073e-24  2.0825e-22  1.5079e-24  2.3244e-22  1.5091e-24  2.7543e-22  1.5112e-24  3.5190e-22  1.5150e-24  4.8823e-22  1.5229e-24  7.3177e-22  1.5365e-24  1.1671e-21  1.5587e-24  1.9488e-21  1.5975e-24  3.3621e-21  1.6667e-24  5.9483e-21  1.7921e-24  1.0772e-20  2.0236e-24  2.0036e-20  2.4616e-24
      2.25  1.6907e-22  1.6713e-24  1.6949e-22  1.6713e-24  1.7023e-22  1.6713e-24  1.7154e-22  1.6714e-24  1.7387e-22  1.6715e-24  1.7802e-22  1.6717e-24  1.8539e-22  1.6722e-24  1.9847e-22  1.6729e-24  2.2169e-22  1.6742e-24  2.6293e-22  1.6765e-24  3.3628e-22  1.6805e-24  4.6713e-22  1.6893e-24  7.0083e-22  1.7042e-24  1.1186e-21  1.7284e-24  1.8687e-21  1.7705e-24  3.2252e-21  1.8454e-24  5.7076e-21  1.9813e-24  1.0339e-20  2.2317e-24  1.9237e-20  2.7051e-24
      2.30  1.6109e-22  1.8553e-24  1.6149e-22  1.8554e-24  1.6220e-22  1.8554e-24  1.6345e-22  1.8555e-24  1.6569e-22  1.8556e-24  1.6967e-22  1.8559e-24  1.7674e-22  1.8563e-24  1.8929e-22  1.8571e-24  2.1157e-22  1.8585e-24  2.5114e-22  1.8610e-24  3.2149e-22  1.8654e-24  4.4703e-22  1.8752e-24  6.7124e-22  1.8915e-24  1.0721e-21  1.9178e-24  1.7918e-21  1.9634e-24  3.0933e-21  2.0445e-24  5.4757e-21  2.1914e-24  9.9219e-21  2.4622e-24  1.8466e-20  2.9734e-24
      2.35  1.5363e-22  2.0609e-24  1.5401e-22  2.0609e-24  1.5469e-22  2.0610e-24  1.5590e-22  2.0610e-24  1.5804e-22  2.0612e-24  1.6186e-22  2.0615e-24  1.6864e-22  2.0619e-24  1.8068e-22  2.0628e-24  2.0205e-22  2.0643e-24  2.4000e-22  2.0670e-24  3.0747e-22  2.0718e-24  4.2788e-22  2.0827e-24  6.4295e-22  2.1006e-24  1.0274e-21  2.1292e-24  1.7178e-21  2.1787e-24  2.9664e-21  2.2666e-24  5.2522e-21  2.4256e-24  9.5192e-21  2.7185e-24  1.7722e-20  3.2711e-24
      2.40  1.4666e-22  2.2905e-24  1.4702e-22  2.2905e-24  1.4767e-22  2.2905e-24  1.4883e-22  2.2906e-24  1.5089e-22  2.2908e-24  1.5455e-22  2.2911e-24  1.6105e-22  2.2916e-24  1.7260e-22  2.2925e-24  1.9309e-22  2.2942e-24  2.2949e-22  2.2971e-24  2.9417e-22  2.3023e-24  4.0967e-22  2.3146e-24  6.1593e-22  2.3342e-24  9.8468e-22  2.3654e-24  1.6468e-21  2.4191e-24  2.8444e-21  2.5144e-24  5.0371e-21  2.6868e-24  9.1312e-21  3.0040e-24  1.7004e-20  3.6018e-24
      2.45  1.4014e-22  2.5469e-24  1.4050e-22  2.5470e-24  1.4112e-22  2.5470e-24  1.4223e-22  2.5471e-24  1.4420e-22  2.5473e-24  1.4771e-22  2.5476e-24  1.5395e-22  2.5482e-24  1.6502e-22  2.5492e-24  1.8467e-22  2.5510e-24  2.1956e-22  2.5541e-24  2.8156e-22  2.5598e-24  3.9233e-22  2.5736e-24  5.9012e-22  2.5952e-24  9.4371e-22  2.6293e-24  1.5787e-21  2.6876e-24  2.7272e-21  2.7910e-24  4.8303e-21  2.9780e-24  8.7578e-21  3.3217e-24  1.6313e-20  3.9688e-24
      2.50  1.3406e-22  2.8335e-24  1.3440e-22  2.8336e-24  1.3500e-22  2.8336e-24  1.3606e-22  2.8337e-24  1.3795e-22  2.8339e-24  1.4132e-22  2.8343e-24  1.4729e-22  2.8349e-24  1.5791e-22  2.8360e-24  1.7675e-22  2.8379e-24  2.1019e-22  2.8413e-24  2.6962e-22  2.8475e-24  3.7584e-22  2.8631e-24  5.6547e-22  2.8870e-24  9.0449e-22  2.9241e-24  1.5133e-21  2.9876e-24  2.6145e-21  3.1000e-24  4.6313e-21  3.3029e-24  8.3984e-21  3.6756e-24  1.5648e-20  4.3767e-24
      2.55  1.2838e-22  3.1540e-24  1.2870e-22  3.1540e-24  1.2927e-22  3.1541e-24  1.3029e-22  3.1542e-24  1.3211e-22  3.1544e-24  1.3533e-22  3.1548e-24  1.4106e-22  3.1554e-24  1.5124e-22  3.1566e-24  1.6929e-22  3.1587e-24  2.0135e-22  3.1625e-24  2.5830e-22  3.1691e-24  3.6015e-22  3.1869e-24  5.4195e-22  3.2132e-24  8.6696e-22  3.2539e-24  1.4506e-21  3.3229e-24  2.5064e-21  3.4451e-24  4.4400e-21  3.6655e-24  8.0526e-21  4.0701e-24  1.5007e-20  4.8302e-24
      2.60  1.2307e-22  3.5122e-24  1.2338e-22  3.5122e-24  1.2393e-22  3.5123e-24  1.2491e-22  3.5124e-24  1.2664e-22  3.5126e-24  1.2974e-22  3.5130e-24  1.3523e-22  3.5138e-24  1.4498e-22  3.5150e-24  1.6229e-22  3.5173e-24  1.9301e-22  3.5214e-24  2.4759e-22  3.5286e-24  3.4524e-22  3.5489e-24  5.1953e-22  3.5781e-24  8.3109e-22  3.6225e-24  1.3906e-21  3.6978e-24  2.4027e-21  3.8307e-24  4.2566e-21  4.0703e-24  7.7204e-21  4.5097e-24  1.4391e-20  5.3344e-24
      2.65  1.1811e-22  3.9126e-24  1.1841e-22  3.9126e-24  1.1893e-22  3.9127e-24  1.1987e-22  3.9129e-24  1.2154e-22  3.9131e-24  1.2450e-22  3.9136e-24  1.2976e-22  3.9143e-24  1.3911e-22  3.9157e-24  1.5570e-22  3.9182e-24  1.8514e-22  3.9227e-24  2.3745e-22  3.9305e-24  3.3108e-22  3.9537e-24  4.9816e-22  3.9860e-24  7.9684e-22  4.0348e-24  1.3332e-21  4.1169e-24  2.3036e-21  4.2616e-24  4.0811e-21  4.5222e-24  7.4026e-21  4.9998e-24  1.3800e-20  5.8953e-24
      2.70  1.1348e-22  4.3603e-24  1.1376e-22  4.3604e-24  1.1427e-22  4.3605e-24  1.1517e-22  4.3606e-24  1.1677e-22  4.3609e-24  1.1961e-22  4.3614e-24  1.2465e-22  4.3622e-24  1.3361e-22  4.3638e-24  1.4951e-22  4.3665e-24  1.7773e-22  4.3713e-24  2.2787e-22  4.3799e-24  3.1767e-22  4.4065e-24  4.7787e-22  4.4424e-24  7.6424e-22  4.4959e-24  1.2785e-21  4.5855e-24  2.2089e-21  4.7432e-24  3.9134e-21  5.0269e-24  7.0990e-21  5.5464e-24  1.3235e-20  6.5192e-24
      2.75  1.0915e-22  4.8610e-24  1.0943e-22  4.8611e-24  1.0991e-22  4.8612e-24  1.1077e-22  4.8613e-24  1.1231e-22  4.8616e-24  1.1503e-22  4.8621e-24  1.1987e-22  4.8631e-24  1.2846e-22  4.8647e-24  1.4371e-22  4.8677e-24  1.7077e-22  4.8729e-24  2.1886e-22  4.8823e-24  3.0501e-22  4.9129e-24  4.5869e-22  4.9529e-24  7.3337e-22  5.0117e-24  1.2267e-21  5.1097e-24  2.1192e-21  5.2816e-24  3.7543e-21  5.5906e-24  6.8105e-21  6.1560e-24  1.2698e-20  7.2135e-24
      2.80  1.0512e-22  5.4212e-24  1.0538e-22  5.4212e-24  1.0584e-22  5.4213e-24  1.0667e-22  5.4215e-24  1.0814e-22  5.4218e-24  1.1076e-22  5.4224e-24  1.1540e-22  5.4234e-24  1.2365e-22  5.4252e-24  1.3828e-22  5.4284e-24  1.6425e-22  5.4342e-24  2.1040e-22  5.4444e-24  2.9314e-22  5.4798e-24  4.4068e-22  5.5244e-24  7.0438e-22  5.5890e-24  1.1779e-21  5.6962e-24  2.0348e-21  5.8838e-24  3.6046e-21  6.2207e-24  6.5390e-21  6.8363e-24  1.2192e-20  7.9866e-24
      2.85  1.0135e-22  6.0476e-24  1.0160e-22  6.0477e-24  1.0204e-22  6.0478e-24  1.0284e-22  6.0480e-24  1.0425e-22  6.0484e-24  1.0677e-22  6.0490e-24  1.1123e-22  6.0501e-24  1.1916e-22  6.0521e-24  1.3322e-22  6.0556e-24  1.5818e-22  6.0618e-24  2.0253e-22  6.0730e-24  2.8210e-22  6.1140e-24  4.2394e-22  6.1639e-24  6.7744e-22  6.2351e-24  1.1327e-21  6.3524e-24  1.9564e-21  6.5572e-24  3.4655e-21  6.9246e-24  6.2863e-21  7.5953e-24  1.1721e-20  8.8469e-24
      2.90  9.7824e-23  6.7483e-24  9.8066e-23  6.7484e-24  9.8497e-23  6.7485e-24  9.9263e-23  6.7488e-24  1.0062e-22  6.7491e-24  1.0304e-22  6.7498e-24  1.0734e-22  6.7510e-24  1.1498e-22  6.7532e-24  1.2852e-22  6.7570e-24  1.5255e-22  6.7639e-24  1.9525e-22  6.7760e-24  2.7192e-22  6.8236e-24  4.0855e-22  6.8796e-24  6.5274e-22  6.9581e-24  1.0912e-21  7.0866e-24  1.8845e-21  7.3104e-24  3.3379e-21  7.7111e-24  6.0542e-21  8.4421e-24  1.1287e-20  9.8045e-24
      2.95  9.4536e-23  7.5322e-24  9.4769e-23  7.5322e-24  9.5185e-23  7.5324e-24  9.5924e-23  7.5326e-24  9.7238e-23  7.5330e-24  9.9574e-23  7.5338e-24  1.0372e-22  7.5351e-24  1.1109e-22  7.5374e-24  1.2416e-22  7.5416e-24  1.4735e-22  7.5491e-24  1.8857e-22  7.5624e-24  2.6263e-22  7.6179e-24  3.9455e-22  7.6807e-24  6.3030e-22  7.7674e-24  1.0536e-21  7.9082e-24  1.8194e-21  8.1528e-24  3.2222e-21  8.5902e-24  5.8433e-21  9.3872e-24  1.0890e-20  1.0871e-23
      3.00  9.1465e-23  8.4090e-24  9.1691e-23  8.4091e-24  9.2093e-23  8.4092e-24  9.2808e-23  8.4095e-24  9.4079e-23  8.4099e-24  9.6338e-23  8.4107e-24  1.0035e-22  8.4122e-24  1.0748e-22  8.4148e-24  1.2012e-22  8.4193e-24  1.4256e-22  8.4275e-24  1.8244e-22  8.4420e-24  2.5415e-22  8.5069e-24  3.8184e-22  8.5776e-24  6.0999e-22  8.6735e-24  1.0196e-21  8.8280e-24  1.7606e-21  9.0954e-24  3.1175e-21  9.5731e-24  5.6518e-21  1.0442e-23  1.0529e-20  1.2058e-23
      3.05  8.8596e-23  9.3903e-24  8.8816e-23  9.3904e-24  8.9205e-23  9.3905e-24  8.9899e-23  9.3908e-24  9.1131e-23  9.3913e-24  9.3321e-23  9.3922e-24  9.7212e-23  9.3938e-24  1.0412e-22  9.3966e-24  1.1638e-22  9.4016e-24  1.3813e-22  9.4105e-24  1.7679e-22  9.4264e-24  2.4637e-22  9.5025e-24  3.7021e-22  9.5822e-24  5.9147e-22  9.6885e-24  9.8865e-22  9.8581e-24  1.7070e-21  1.0151e-23  3.0220e-21  1.0673e-23  5.4767e-21  1.1622e-23  1.0196e-20  1.3383e-23
      3.10  8.5917e-23  1.0488e-23  8.6130e-23  1.0488e-23  8.6508e-23  1.0488e-23  8.7181e-23  1.0488e-23  8.8377e-23  1.0489e-23  9.0503e-23  1.0490e-23  9.4281e-23  1.0492e-23  1.0099e-22  1.0495e-23  1.1289e-22  1.0500e-23  1.3401e-22  1.0510e-23  1.7154e-22  1.0527e-23  2.3915e-22  1.0617e-23  3.5945e-22  1.0707e-23  5.7433e-22  1.0825e-23  9.6001e-22  1.1011e-23  1.6573e-21  1.1332e-23  2.9334e-21  1.1903e-23  5.3140e-21  1.2939e-23  9.8860e-21  1.4861e-23
      3.15  8.3413e-23  1.1716e-23  8.3619e-23  1.1716e-23  8.3987e-23  1.1716e-23  8.4641e-23  1.1716e-23  8.5804e-23  1.1717e-23  8.7870e-23  1.1719e-23  9.1540e-23  1.1720e-23  9.8058e-23  1.1723e-23  1.0963e-22  1.1729e-23  1.3014e-22  1.1740e-23  1.6661e-22  1.1759e-23  2.3238e-22  1.1864e-23  3.4935e-22  1.1967e-23  5.5822e-22  1.2098e-23  9.3307e-22  1.2303e-23  1.6106e-21  1.2655e-23  2.8500e-21  1.3279e-23  5.1602e-21  1.4413e-23  9.5920e-21  1.6511e-23
      3.20  8.1072e-23  1.3090e-23  8.1273e-23  1.3090e-23  8.1630e-23  1.3090e-23  8.2266e-23  1.3090e-23  8.3396e-23  1.3091e-23  8.5405e-23  1.3092e-23  8.8973e-23  1.3094e-23  9.5310e-23  1.3098e-23  1.0655e-22  1.3104e-23  1.2650e-22  1.3116e-23  1.6194e-22  1.3137e-23  2.2595e-22  1.3261e-23  3.3972e-22  1.3378e-23  5.4285e-22  1.3524e-23  9.0730e-22  1.3750e-23  1.5659e-21  1.4136e-23  2.7699e-21  1.4821e-23  5.0127e-21  1.6061e-23  9.3094e-21  1.8354e-23
      3.25  7.8883e-23  1.4626e-23  7.9078e-23  1.4626e-23  7.9426e-23  1.4626e-23  8.0044e-23  1.4627e-23  8.1142e-23  1.4628e-23  8.3094e-23  1.4629e-23  8.6563e-23  1.4631e-23  9.2723e-23  1.4635e-23  1.0365e-22  1.4642e-23  1.2304e-22  1.4655e-23  1.5748e-22  1.4679e-23  2.1978e-22  1.4826e-23  3.3044e-22  1.4958e-23  5.2797e-22  1.5121e-23  8.8231e-22  1.5371e-23  1.5224e-21  1.5795e-23  2.6922e-21  1.6546e-23  4.8692e-21  1.7905e-23  9.0353e-21  2.0413e-23
      3.30  7.6835e-23  1.6345e-23  7.7025e-23  1.6345e-23  7.7363e-23  1.6345e-23  7.7963e-23  1.6346e-23  7.9031e-23  1.6347e-23  8.0928e-23  1.6348e-23  8.4299e-23  1.6351e-23  9.0285e-23  1.6355e-23  1.0091e-22  1.6363e-23  1.1975e-22  1.6377e-23  1.5330e-22  1.6418e-23  2.1390e-22  1.6584e-23  3.2150e-22  1.6732e-23  5.1357e-22  1.6913e-23  8.5803e-22  1.7188e-23  1.4801e-21  1.7654e-23  2.6163e-21  1.8479e-23  4.7292e-21  1.9969e-23  8.7680e-21  2.2715e-23
      3.35  7.4918e-23  1.8267e-23  7.5103e-23  1.8267e-23  7.5431e-23  1.8268e-23  7.6014e-23  1.8268e-23  7.7051e-23  1.8270e-23  7.8893e-23  1.8271e-23  8.2168e-23  1.8273e-23  8.7982e-23  1.8278e-23  9.8299e-23  1.8287e-23  1.1660e-22  1.8302e-23  1.4929e-22  1.8370e-23  2.0821e-22  1.8556e-23  3.1282e-22  1.8721e-23  4.9949e-22  1.8921e-23  8.3424e-22  1.9225e-23  1.4386e-21  1.9737e-23  2.5420e-21  2.0643e-23  4.5925e-21  2.2279e-23  8.5080e-21  2.5289e-23
      3.40  7.3123e-23  2.0417e-23  7.3302e-23  2.0417e-23  7.3620e-23  2.0417e-23  7.4187e-23  2.0418e-23  7.5193e-23  2.0418e-23  7.6982e-23  2.0420e-23  8.0161e-23  2.0423e-23  8.5805e-23  2.0429e-23  9.5821e-23  2.0438e-23  1.1358e-22  2.0455e-23  1.4544e-22  2.0557e-23  2.0270e-22  2.0766e-23  3.0434e-22  2.0950e-23  4.8569e-22  2.1172e-23  8.1086e-22  2.1507e-23  1.3978e-21  2.2071e-23  2.4690e-21  2.3067e-23  4.4587e-21  2.4864e-23  8.2538e-21  2.8167e-23
      3.45  7.1440e-23  2.2819e-23  7.1614e-23  2.2820e-23  7.1923e-23  2.2820e-23  7.2472e-23  2.2821e-23  7.3449e-23  2.2822e-23  7.5185e-23  2.2823e-23  7.8269e-23  2.2827e-23  8.3745e-23  2.2833e-23  9.3463e-23  2.2843e-23  1.1069e-22  2.2862e-23  1.4173e-22  2.3005e-23  1.9736e-22  2.3242e-23  2.9607e-22  2.3448e-23  4.7218e-22  2.3694e-23  7.8790e-22  2.4064e-23  1.3577e-21  2.4686e-23  2.3974e-21  2.5783e-23  4.3274e-21  2.7759e-23  8.0053e-21  3.1386e-23
      3.50  6.9861e-23  2.5506e-23  7.0030e-23  2.5506e-23  7.0330e-23  2.5506e-23  7.0862e-23  2.5507e-23  7.1810e-23  2.5508e-23  7.3493e-23  2.5510e-23  7.6485e-23  2.5514e-23  8.1796e-23  2.5522e-23  9.1218e-23  2.5532e-23  1.0792e-22  2.5553e-23  1.3815e-22  2.5747e-23  1.9217e-22  2.6015e-23  2.8800e-22  2.6247e-23  4.5894e-22  2.6521e-23  7.6538e-22  2.6930e-23  1.3184e-21  2.7616e-23  2.3271e-21  2.8824e-23  4.1987e-21  3.0999e-23  7.7628e-21  3.4986e-23
      3.55  6.8379e-23  2.8508e-23  6.8542e-23  2.8509e-23  6.8833e-23  2.8509e-23  6.9350e-23  2.8510e-23  7.0268e-23  2.8511e-23  7.1900e-23  2.8513e-23  7.4800e-23  2.8517e-23  7.9947e-23  2.8525e-23  8.9080e-23  2.8538e-23  1.0527e-22  2.8560e-23  1.3470e-22  2.8818e-23  1.8714e-22  2.9123e-23  2.8012e-22  2.9385e-23  4.4599e-22  2.9690e-23  7.4328e-22  3.0143e-23  1.2797e-21  3.0901e-23  2.2580e-21  3.2233e-23  4.0727e-21  3.4629e-23  7.5263e-21  3.9016e-23
      3.60  6.6985e-23  3.1864e-23  6.7144e-23  3.1864e-23  6.7425e-23  3.1865e-23  6.7926e-23  3.1865e-23  6.8816e-23  3.1867e-23  7.0397e-23  3.1869e-23  7.3206e-23  3.1874e-23  7.8193e-23  3.1884e-23  8.7038e-23  3.1896e-23  1.0271e-22  3.1921e-23  1.3137e-22  3.2256e-23  1.8224e-22  3.2605e-23  2.7242e-22  3.2901e-23  4.3327e-22  3.3242e-23  7.2154e-22  3.3744e-23  1.2417e-21  3.4582e-23  2.1901e-21  3.6053e-23  3.9490e-21  3.8695e-23  7.2951e-21  4.3525e-23
      3.65  6.5673e-23  3.5613e-23  6.5827e-23  3.5613e-23  6.6099e-23  3.5615e-23  6.6584e-23  3.5614e-23  6.7446e-23  3.5616e-23  6.8977e-23  3.5619e-23  7.1696e-23  3.5624e-23  7.6524e-23  3.5633e-23  8.5086e-23  3.5648e-23  1.0025e-22  3.5676e-23  1.2814e-22  3.6105e-23  1.7747e-22  3.6506e-23  2.6488e-22  3.6841e-23  4.2075e-22  3.7223e-23  7.0012e-22  3.7780e-23  1.2042e-21  3.8707e-23  2.1232e-21  4.0332e-23  3.8275e-21  4.3248e-23  7.0688e-21  4.8570e-23
      3.70  6.4436e-23  3.9800e-23  6.4584e-23  3.9800e-23  6.4848e-23  3.9800e-23  6.5317e-23  3.9801e-23  6.6151e-23  3.9803e-23  6.7632e-23  3.9806e-23  7.0264e-23  3.9812e-23  7.4934e-23  3.9821e-23  8.3214e-23  3.9839e-23  9.7882e-23  3.9870e-23  1.2501e-22  4.0413e-23  1.7281e-22  4.0875e-23  2.5747e-22  4.1257e-23  4.0842e-22  4.1685e-23  6.7895e-22  4.2304e-23  1.1671e-21  4.3331e-23  2.0572e-21  4.5128e-23  3.7077e-21  4.8348e-23  6.8467e-21  5.4218e-23
      3.75  6.3267e-23  4.4475e-23  6.3411e-23  4.4475e-23  6.3666e-23  4.4476e-23  6.4119e-23  4.4477e-23  6.4925e-23  4.4479e-23  6.6358e-23  4.4482e-23  6.8901e-23  4.4488e-23  7.3415e-23  4.4499e-23  8.1416e-23  4.4518e-23  9.5588e-23  4.4552e-23  1.2196e-22  4.5234e-23  1.6824e-22  4.5769e-23  2.5018e-22  4.6205e-23  3.9626e-22  4.6686e-23  6.5805e-22  4.7376e-23  1.1304e-21  4.8515e-23  1.9918e-21  5.0503e-23  3.5896e-21  5.4062e-23  6.6283e-21  6.0541e-23
      3.80  6.2161e-23  4.9694e-23  6.2300e-23  4.9695e-23  6.2546e-23  4.9695e-23  6.2984e-23  4.9697e-23  6.3763e-23  4.9699e-23  6.5146e-23  4.9702e-23  6.7603e-23  4.9709e-23  7.1961e-23  4.9721e-23  7.9686e-23  4.9745e-23  9.3369e-23  4.9780e-23  1.1899e-22  5.0629e-23  1.6377e-22  5.1251e-23  2.4300e-22  5.1750e-23  3.8423e-22  5.2293e-23  6.3735e-22  5.3063e-23  1.0941e-21  5.4326e-23  1.9272e-21  5.6529e-23  3.4729e-21  6.0465e-23  6.4135e-21  6.7623e-23
      3.85  6.1234e-23  5.5652e-23  6.1368e-23  5.5652e-23  6.1606e-23  5.5653e-23  6.2029e-23  5.5654e-23  6.2781e-23  5.5657e-23  6.4117e-23  5.5661e-23  6.6489e-23  5.5668e-23  7.0697e-23  5.5681e-23  7.8154e-23  5.5704e-23  9.1366e-23  5.5744e-23  1.1609e-22  5.6663e-23  1.5938e-22  5.7389e-23  2.3592e-22  5.7964e-23  3.7234e-22  5.8577e-23  6.1684e-22  5.9437e-23  1.0582e-21  6.0841e-23  1.8634e-21  6.3282e-23  3.3576e-21  6.7640e-23  6.2023e-21  7.5552e-23
      3.90  6.0401e-23  6.2367e-23  6.0530e-23  6.2368e-23  6.0760e-23  6.2369e-23  6.1169e-23  6.2370e-23  6.1894e-23  6.2373e-23  6.3184e-23  6.2377e-23  6.5473e-23  6.2385e-23  6.9533e-23  6.2399e-23  7.6727e-23  6.2425e-23  8.9480e-23  6.2470e-23  1.1328e-22  6.3432e-23  1.5509e-22  6.4274e-23  2.2896e-22  6.4932e-23  3.6060e-22  6.5624e-23  5.9656e-22  6.6585e-23  1.0226e-21  6.8145e-23  1.8002e-21  7.0852e-23  3.2442e-21  7.5680e-23  5.9947e-21  8.4432e-23
      3.95  5.9627e-23  6.9899e-23  5.9752e-23  6.9900e-23  5.9974e-23  6.9900e-23  6.0367e-23  6.9902e-23  6.1067e-23  6.9905e-23  6.2310e-23  6.9910e-23  6.4517e-23  6.9919e-23  6.8431e-23  6.9935e-23  7.5364e-23  6.9963e-23  8.7664e-23  7.0013e-23  1.1055e-22  7.1008e-23  1.5088e-22  7.1986e-23  2.2209e-22  7.2742e-23  3.4899e-22  7.3525e-23  5.7649e-22  7.4599e-23  9.8741e-22  7.6334e-23  1.7380e-21  7.9338e-23  3.1327e-21  8.4689e-23  5.7913e-21  9.4377e-23
