# This was generated using Cloudy10 and the columns are ordered 
# as log10 of the fraction of the metallicity to the solar metallicity
# 'h_*_Z' and 'c_*_Z' stands for cooling and heating respectively 
# at * metalicity
#
# NOTE: This was generated separately from loop_coolingcurve_w_UV.py
#       using Output_metals_w_redshift.py.
#
# Redshift = 2.5
# hden = -0.5
#
#     temp   h_-3.00_Z   c_-3.00_Z   h_-2.75_Z   c_-2.75_Z   h_-2.50_Z   c_-2.50_Z   h_-2.25_Z   c_-2.25_Z   h_-2.00_Z   c_-2.00_Z   h_-1.75_Z   c_-1.75_Z   h_-1.50_Z   c_-1.50_Z   h_-1.25_Z   c_-1.25_Z   h_-1.00_Z   c_-1.00_Z   h_-0.75_Z   c_-0.75_Z   h_-0.50_Z   c_-0.50_Z   h_-0.25_Z   c_-0.25_Z    h_0.00_Z    c_0.00_Z    h_0.25_Z    c_0.25_Z    h_0.50_Z    c_0.50_Z    h_0.75_Z    c_0.75_Z    h_1.00_Z    c_1.00_Z    h_1.25_Z    c_1.25_Z    h_1.50_Z    c_1.50_Z 
      1.00  2.3627e-23  4.6223e-27  2.3627e-23  4.6224e-27  2.3627e-23  4.6227e-27  2.3628e-23  4.6231e-27  2.3629e-23  4.6238e-27  2.3630e-23  4.6250e-27  2.3633e-23  4.6273e-27  2.3637e-23  4.6312e-27  2.3646e-23  4.6383e-27  2.3661e-23  4.6508e-27  2.3687e-23  4.6732e-27  2.3734e-23  4.7129e-27  2.3817e-23  4.7835e-27  2.3966e-23  4.9093e-27  2.4230e-23  5.1334e-27  2.4700e-23  5.5332e-27  2.5536e-23  6.2481e-27  2.7027e-23  7.5316e-27  2.9686e-23  9.8521e-27
      1.05  2.3354e-23  5.1996e-27  2.3354e-23  5.1999e-27  2.3354e-23  5.2004e-27  2.3354e-23  5.2013e-27  2.3355e-23  5.2029e-27  2.3357e-23  5.2057e-27  2.3359e-23  5.2107e-27  2.3364e-23  5.2196e-27  2.3372e-23  5.2355e-27  2.3387e-23  5.2638e-27  2.3413e-23  5.3141e-27  2.3460e-23  5.4036e-27  2.3543e-23  5.5628e-27  2.3691e-23  5.8462e-27  2.3954e-23  6.3512e-27  2.4422e-23  7.2523e-27  2.5255e-23  8.8644e-27  2.6740e-23  1.1761e-26  2.9388e-23  1.7004e-26
      1.10  2.3074e-23  5.8320e-27  2.3074e-23  5.8326e-27  2.3074e-23  5.8336e-27  2.3074e-23  5.8356e-27  2.3075e-23  5.8390e-27  2.3077e-23  5.8450e-27  2.3079e-23  5.8558e-27  2.3084e-23  5.8750e-27  2.3092e-23  5.9091e-27  2.3107e-23  5.9698e-27  2.3133e-23  6.0778e-27  2.3180e-23  6.2698e-27  2.3263e-23  6.6114e-27  2.3410e-23  7.2198e-27  2.3672e-23  8.3039e-27  2.4138e-23  1.0239e-26  2.4967e-23  1.3702e-26  2.6445e-23  1.9928e-26  2.9083e-23  3.1211e-26
      1.15  2.2787e-23  6.5248e-27  2.2787e-23  6.5260e-27  2.2788e-23  6.5282e-27  2.2788e-23  6.5321e-27  2.2789e-23  6.5389e-27  2.2790e-23  6.5512e-27  2.2793e-23  6.5730e-27  2.2798e-23  6.6118e-27  2.2806e-23  6.6807e-27  2.2821e-23  6.8033e-27  2.2847e-23  7.0213e-27  2.2893e-23  7.4092e-27  2.2975e-23  8.0994e-27  2.3122e-23  9.3284e-27  2.3382e-23  1.1519e-26  2.3846e-23  1.5429e-26  2.4672e-23  2.2429e-26  2.6142e-23  3.5022e-26  2.8767e-23  5.7867e-26
      1.20  2.2494e-23  7.2839e-27  2.2495e-23  7.2863e-27  2.2495e-23  7.2904e-27  2.2495e-23  7.2977e-27  2.2496e-23  7.3108e-27  2.2498e-23  7.3340e-27  2.2500e-23  7.3753e-27  2.2505e-23  7.4488e-27  2.2513e-23  7.5795e-27  2.2528e-23  7.8118e-27  2.2553e-23  8.2251e-27  2.2600e-23  8.9604e-27  2.2681e-23  1.0269e-26  2.2827e-23  1.2599e-26  2.3086e-23  1.6752e-26  2.3547e-23  2.4166e-26  2.4368e-23  3.7444e-26  2.5831e-23  6.1344e-26  2.8440e-23  1.0474e-25
      1.25  2.2195e-23  8.1158e-27  2.2195e-23  8.1200e-27  2.2196e-23  8.1273e-27  2.2196e-23  8.1404e-27  2.2197e-23  8.1637e-27  2.2198e-23  8.2051e-27  2.2201e-23  8.2787e-27  2.2205e-23  8.4096e-27  2.2214e-23  8.6424e-27  2.2228e-23  9.0565e-27  2.2254e-23  9.7930e-27  2.2300e-23  1.1103e-26  2.2381e-23  1.3435e-26  2.2526e-23  1.7587e-26  2.2783e-23  2.4989e-26  2.3242e-23  3.8205e-26  2.4058e-23  6.1879e-26  2.5511e-23  1.0451e-25  2.8105e-23  1.8198e-25
      1.30  2.1890e-23  9.0283e-27  2.1890e-23  9.0353e-27  2.1890e-23  9.0476e-27  2.1890e-23  9.0696e-27  2.1891e-23  9.1088e-27  2.1893e-23  9.1784e-27  2.1895e-23  9.3022e-27  2.1900e-23  9.5223e-27  2.1908e-23  9.9137e-27  2.1922e-23  1.0610e-26  2.1948e-23  1.1848e-26  2.1993e-23  1.4051e-26  2.2074e-23  1.7972e-26  2.2218e-23  2.4954e-26  2.2474e-23  3.7400e-26  2.2929e-23  5.9628e-26  2.3740e-23  9.9453e-26  2.5184e-23  1.7120e-25  2.7761e-23  3.0167e-25
      1.35  2.1578e-23  1.0028e-26  2.1578e-23  1.0039e-26  2.1578e-23  1.0059e-26  2.1578e-23  1.0094e-26  2.1579e-23  1.0156e-26  2.1581e-23  1.0267e-26  2.1583e-23  1.0465e-26  2.1588e-23  1.0815e-26  2.1596e-23  1.1439e-26  2.1610e-23  1.2549e-26  2.1635e-23  1.4522e-26  2.1681e-23  1.8033e-26  2.1761e-23  2.4281e-26  2.1904e-23  3.5407e-26  2.2158e-23  5.5243e-26  2.2610e-23  9.0672e-26  2.3415e-23  1.5416e-25  2.4850e-23  2.6859e-25  2.7409e-23  4.7682e-25
      1.40  2.1259e-23  1.1124e-26  2.1259e-23  1.1140e-26  2.1259e-23  1.1170e-26  2.1260e-23  1.1223e-26  2.1261e-23  1.1318e-26  2.1262e-23  1.1486e-26  2.1265e-23  1.1786e-26  2.1269e-23  1.2318e-26  2.1277e-23  1.3264e-26  2.1291e-23  1.4948e-26  2.1316e-23  1.7942e-26  2.1361e-23  2.3270e-26  2.1441e-23  3.2751e-26  2.1583e-23  4.9636e-26  2.1835e-23  7.9739e-26  2.2284e-23  1.3351e-25  2.3084e-23  2.2990e-25  2.4508e-23  4.0368e-25  2.7049e-23  7.2009e-25
      1.45  2.0934e-23  1.2323e-26  2.0934e-23  1.2347e-26  2.0935e-23  1.2391e-26  2.0935e-23  1.2468e-26  2.0936e-23  1.2605e-26  2.0937e-23  1.2850e-26  2.0940e-23  1.3284e-26  2.0944e-23  1.4057e-26  2.0952e-23  1.5431e-26  2.0966e-23  1.7875e-26  2.0991e-23  2.2222e-26  2.1036e-23  2.9956e-26  2.1115e-23  4.3721e-26  2.1256e-23  6.8234e-26  2.1506e-23  1.1194e-25  2.1952e-23  1.9002e-25  2.2746e-23  3.3000e-25  2.4159e-23  5.8246e-25  2.6681e-23  1.0424e-24
      1.50  2.0603e-23  1.3635e-26  2.0603e-23  1.3669e-26  2.0604e-23  1.3730e-26  2.0604e-23  1.3838e-26  2.0605e-23  1.4029e-26  2.0606e-23  1.4370e-26  2.0609e-23  1.4976e-26  2.0613e-23  1.6055e-26  2.0621e-23  1.7972e-26  2.0635e-23  2.1382e-26  2.0660e-23  2.7447e-26  2.0704e-23  3.8239e-26  2.0782e-23  5.7446e-26  2.0922e-23  9.1652e-26  2.1171e-23  1.5264e-25  2.1613e-23  2.6162e-25  2.2401e-23  4.5702e-25  2.3803e-23  8.0952e-25  2.6306e-23  1.4520e-24
      1.55  2.0266e-23  1.5072e-26  2.0266e-23  1.5118e-26  2.0266e-23  1.5200e-26  2.0267e-23  1.5345e-26  2.0268e-23  1.5603e-26  2.0269e-23  1.6063e-26  2.0271e-23  1.6879e-26  2.0276e-23  1.8331e-26  2.0284e-23  2.0914e-26  2.0297e-23  2.5507e-26  2.0322e-23  3.3677e-26  2.0366e-23  4.8212e-26  2.0444e-23  7.4083e-26  2.0582e-23  1.2016e-25  2.0829e-23  2.0232e-25  2.1268e-23  3.4913e-25  2.2049e-23  6.1240e-25  2.3440e-23  1.0875e-24  2.5923e-23  1.9539e-24
      1.60  1.9923e-23  1.6643e-26  1.9923e-23  1.6703e-26  1.9923e-23  1.6809e-26  1.9923e-23  1.6999e-26  1.9924e-23  1.7336e-26  1.9926e-23  1.7935e-26  1.9928e-23  1.9001e-26  1.9932e-23  2.0897e-26  1.9940e-23  2.4268e-26  1.9954e-23  3.0264e-26  1.9978e-23  4.0930e-26  2.0022e-23  5.9905e-26  2.0099e-23  9.3679e-26  2.0236e-23  1.5383e-25  2.0481e-23  2.6110e-25  2.0916e-23  4.5278e-25  2.1690e-23  7.9659e-25  2.3070e-23  1.4172e-24  2.5531e-23  2.5493e-24
      1.65  1.9573e-23  1.8357e-26  1.9573e-23  1.8433e-26  1.9574e-23  1.8568e-26  1.9574e-23  1.8809e-26  1.9575e-23  1.9237e-26  1.9576e-23  1.9999e-26  1.9579e-23  2.1353e-26  1.9583e-23  2.3761e-26  1.9591e-23  2.8043e-26  1.9604e-23  3.5659e-26  1.9628e-23  4.9207e-26  1.9671e-23  7.3312e-26  1.9748e-23  1.1621e-25  1.9884e-23  1.9263e-25  2.0126e-23  3.2890e-25  2.0557e-23  5.7243e-25  2.1324e-23  1.0093e-24  2.2691e-23  1.7980e-24  2.5128e-23  3.2376e-24
      1.70  1.9218e-23  2.0226e-26  1.9218e-23  2.0320e-26  1.9218e-23  2.0488e-26  1.9219e-23  2.0787e-26  1.9220e-23  2.1318e-26  1.9221e-23  2.2263e-26  1.9223e-23  2.3943e-26  1.9228e-23  2.6931e-26  1.9235e-23  3.2245e-26  1.9249e-23  4.1697e-26  1.9273e-23  5.8508e-26  1.9315e-23  8.8420e-26  1.9391e-23  1.4166e-25  1.9526e-23  2.3648e-25  1.9765e-23  4.0559e-25  2.0192e-23  7.0784e-25  2.0951e-23  1.2501e-24  2.2303e-23  2.2293e-24  2.4714e-23  4.0172e-24
      1.75  1.8857e-23  2.2262e-26  1.8857e-23  2.2377e-26  1.8857e-23  2.2582e-26  1.8858e-23  2.2945e-26  1.8859e-23  2.3592e-26  1.8860e-23  2.4742e-26  1.8862e-23  2.6787e-26  1.8867e-23  3.0423e-26  1.8874e-23  3.6890e-26  1.8887e-23  4.8392e-26  1.8911e-23  6.8852e-26  1.8953e-23  1.0525e-25  1.9028e-23  1.7005e-25  1.9161e-23  2.8546e-25  1.9398e-23  4.9128e-25  1.9819e-23  8.5917e-25  2.0569e-23  1.5193e-24  2.1904e-23  2.7116e-24  2.4286e-23  4.8893e-24
      1.80  1.8491e-23  2.4485e-26  1.8491e-23  2.4623e-26  1.8491e-23  2.4868e-26  1.8491e-23  2.5303e-26  1.8492e-23  2.6078e-26  1.8494e-23  2.7456e-26  1.8496e-23  2.9906e-26  1.8500e-23  3.4264e-26  1.8507e-23  4.2013e-26  1.8520e-23  5.5796e-26  1.8544e-23  8.0312e-26  1.8585e-23  1.2393e-25  1.8659e-23  2.0157e-25  1.8790e-23  3.3987e-25  1.9024e-23  5.8652e-25  1.9439e-23  1.0274e-24  2.0178e-23  1.8186e-24  2.1494e-23  3.2479e-24  2.3842e-23  5.8594e-24
      1.85  1.8119e-23  2.6903e-26  1.8119e-23  2.7066e-26  1.8119e-23  2.7356e-26  1.8120e-23  2.7872e-26  1.8120e-23  2.8790e-26  1.8122e-23  3.0422e-26  1.8124e-23  3.3323e-26  1.8128e-23  3.8484e-26  1.8135e-23  4.7661e-26  1.8148e-23  6.3984e-26  1.8171e-23  9.3020e-26  1.8212e-23  1.4468e-25  1.8284e-23  2.3664e-25  1.8414e-23  4.0043e-25  1.8643e-23  6.9256e-25  1.9051e-23  1.2148e-24  1.9778e-23  2.1520e-24  2.1073e-23  3.8455e-24  2.3380e-23  6.9405e-24
      1.90  1.7742e-23  2.9531e-26  1.7742e-23  2.9723e-26  1.7742e-23  3.0063e-26  1.7743e-23  3.0669e-26  1.7743e-23  3.1747e-26  1.7745e-23  3.3663e-26  1.7747e-23  3.7071e-26  1.7751e-23  4.3131e-26  1.7758e-23  5.3908e-26  1.7771e-23  7.3077e-26  1.7793e-23  1.0717e-25  1.7833e-23  1.6784e-25  1.7904e-23  2.7583e-25  1.8031e-23  4.6818e-25  1.8256e-23  8.1126e-25  1.8657e-23  1.4246e-24  1.9370e-23  2.5254e-24  2.0639e-23  4.5148e-24  2.2901e-23  8.1515e-24
      1.95  1.7360e-23  3.2386e-26  1.7360e-23  3.2609e-26  1.7361e-23  3.3006e-26  1.7361e-23  3.3713e-26  1.7362e-23  3.4969e-26  1.7363e-23  3.7204e-26  1.7365e-23  4.1177e-26  1.7369e-23  4.8243e-26  1.7376e-23  6.0810e-26  1.7388e-23  8.3161e-26  1.7410e-23  1.2292e-25  1.7450e-23  1.9366e-25  1.7519e-23  3.1958e-25  1.7643e-23  5.4387e-25  1.7864e-23  9.4393e-25  1.8256e-23  1.6591e-24  1.8955e-23  2.9428e-24  2.0198e-23  5.2628e-24  2.2413e-23  9.5046e-24
      2.00  1.6974e-23  3.5484e-26  1.6974e-23  3.5744e-26  1.6974e-23  3.6206e-26  1.6974e-23  3.7029e-26  1.6975e-23  3.8491e-26  1.6976e-23  4.1090e-26  1.6979e-23  4.5714e-26  1.6982e-23  5.3936e-26  1.6989e-23  6.8559e-26  1.7001e-23  9.4567e-26  1.7023e-23  1.4083e-25  1.7061e-23  2.2314e-25  1.7129e-23  3.6966e-25  1.7250e-23  6.3066e-25  1.7465e-23  1.0962e-24  1.7848e-23  1.9285e-24  1.8528e-23  3.4224e-24  1.9740e-23  6.1228e-24  2.1899e-23  1.1061e-23
      2.05  1.6583e-23  3.8857e-26  1.6583e-23  3.9158e-26  1.6583e-23  3.9695e-26  1.6584e-23  4.0649e-26  1.6584e-23  4.2346e-26  1.6586e-23  4.5363e-26  1.6588e-23  5.0729e-26  1.6591e-23  6.0271e-26  1.6598e-23  7.7242e-26  1.6610e-23  1.0743e-25  1.6631e-23  1.6112e-25  1.6668e-23  2.5665e-25  1.6734e-23  4.2669e-25  1.6852e-23  7.2960e-25  1.7061e-23  1.2699e-24  1.7433e-23  2.2359e-24  1.8094e-23  3.9699e-24  1.9272e-23  7.1045e-24  2.1369e-23  1.2838e-23
      2.10  1.6188e-23  4.2511e-26  1.6188e-23  4.2860e-26  1.6189e-23  4.3481e-26  1.6189e-23  4.4585e-26  1.6190e-23  4.6548e-26  1.6191e-23  5.0039e-26  1.6193e-23  5.6247e-26  1.6196e-23  6.7288e-26  1.6203e-23  8.6924e-26  1.6214e-23  1.2185e-25  1.6234e-23  1.8397e-25  1.6271e-23  2.9450e-25  1.6335e-23  4.9125e-25  1.6449e-23  8.4172e-25  1.6652e-23  1.4669e-24  1.7012e-23  2.5846e-24  1.7654e-23  4.5910e-24  1.8796e-23  8.2184e-24  2.0829e-23  1.4854e-23
      2.15  1.5790e-23  4.6467e-26  1.5790e-23  4.6869e-26  1.5790e-23  4.7585e-26  1.5790e-23  4.8857e-26  1.5791e-23  5.1120e-26  1.5792e-23  5.5144e-26  1.5794e-23  6.2299e-26  1.5798e-23  7.5025e-26  1.5804e-23  9.7657e-26  1.5815e-23  1.3791e-25  1.5835e-23  2.0951e-25  1.5869e-23  3.3691e-25  1.5932e-23  5.6368e-25  1.6042e-23  9.6764e-25  1.6238e-23  1.6882e-24  1.6588e-23  2.9765e-24  1.7209e-23  5.2893e-24  1.8314e-23  9.4706e-24  2.0282e-23  1.7120e-23
      2.20  1.5388e-23  5.0744e-26  1.5388e-23  5.1205e-26  1.5388e-23  5.2026e-26  1.5389e-23  5.3485e-26  1.5389e-23  5.6080e-26  1.5390e-23  6.0695e-26  1.5392e-23  6.8902e-26  1.5396e-23  8.3497e-26  1.5402e-23  1.0945e-25  1.5412e-23  1.5562e-25  1.5431e-23  2.3774e-25  1.5465e-23  3.8385e-25  1.5525e-23  6.4393e-25  1.5632e-23  1.1072e-24  1.5822e-23  1.9336e-24  1.6160e-23  3.4112e-24  1.6760e-23  6.0638e-24  1.7829e-23  1.0860e-23  1.9730e-23  1.9633e-23
      2.25  1.4983e-23  5.5362e-26  1.4983e-23  5.5888e-26  1.4984e-23  5.6824e-26  1.4984e-23  5.8487e-26  1.4985e-23  6.1445e-26  1.4986e-23  6.6705e-26  1.4987e-23  7.6059e-26  1.4991e-23  9.2694e-26  1.4996e-23  1.2228e-25  1.5007e-23  1.7490e-25  1.5025e-23  2.6850e-25  1.5058e-23  4.3504e-25  1.5116e-23  7.3148e-25  1.5219e-23  1.2595e-24  1.5403e-23  2.2015e-24  1.5729e-23  3.8856e-24  1.6310e-23  6.9090e-24  1.7342e-23  1.2375e-23  1.9179e-23  2.2376e-23
      2.30  1.4576e-23  6.0367e-26  1.4576e-23  6.0962e-26  1.4576e-23  6.2021e-26  1.4577e-23  6.3903e-26  1.4577e-23  6.7251e-26  1.4578e-23  7.3203e-26  1.4580e-23  8.3789e-26  1.4583e-23  1.0261e-25  1.4589e-23  1.3609e-25  1.4599e-23  1.9564e-25  1.4616e-23  3.0157e-25  1.4648e-23  4.9003e-25  1.4703e-23  8.2550e-25  1.4802e-23  1.4231e-24  1.4979e-23  2.4890e-24  1.5292e-23  4.3947e-24  1.5849e-23  7.8159e-24  1.6840e-23  1.4001e-23  1.8603e-23  2.5315e-23
      2.35  1.4167e-23  6.5758e-26  1.4167e-23  6.6426e-26  1.4167e-23  6.7614e-26  1.4167e-23  6.9726e-26  1.4168e-23  7.3483e-26  1.4169e-23  8.0163e-26  1.4171e-23  9.2043e-26  1.4174e-23  1.1317e-25  1.4179e-23  1.5074e-25  1.4189e-23  2.1757e-25  1.4206e-23  3.3644e-25  1.4236e-23  5.4794e-25  1.4290e-23  9.2442e-25  1.4387e-23  1.5951e-24  1.4558e-23  2.7913e-24  1.4863e-23  4.9300e-24  1.5404e-23  8.7694e-24  1.6367e-23  1.5711e-23  1.8079e-23  2.8409e-23
      2.40  1.3756e-23  7.1556e-26  1.3756e-23  7.2299e-26  1.3756e-23  7.3620e-26  1.3757e-23  7.5970e-26  1.3757e-23  8.0149e-26  1.3758e-23  8.7580e-26  1.3760e-23  1.0080e-25  1.3763e-23  1.2430e-25  1.3768e-23  1.6610e-25  1.3777e-23  2.4044e-25  1.3794e-23  3.7267e-25  1.3824e-23  6.0796e-25  1.3876e-23  1.0268e-24  1.3970e-23  1.7728e-24  1.4136e-23  3.1035e-24  1.4432e-23  5.4827e-24  1.4958e-23  9.7539e-24  1.5894e-23  1.7476e-23  1.7558e-23  3.1603e-23
      2.45  1.3344e-23  7.7782e-26  1.3344e-23  7.8602e-26  1.3344e-23  8.0059e-26  1.3345e-23  8.2650e-26  1.3345e-23  8.7258e-26  1.3346e-23  9.5453e-26  1.3348e-23  1.1003e-25  1.3350e-23  1.3594e-25  1.3356e-23  1.8203e-25  1.3365e-23  2.6401e-25  1.3381e-23  4.0983e-25  1.3410e-23  6.6928e-25  1.3461e-23  1.1311e-24  1.3552e-23  1.9538e-24  1.3713e-23  3.4212e-24  1.4001e-23  6.0448e-24  1.4512e-23  1.0755e-23  1.5421e-23  1.9270e-23  1.7037e-23  3.4848e-23
      2.50  1.2931e-23  8.4460e-26  1.2932e-23  8.5356e-26  1.2932e-23  8.6949e-26  1.2932e-23  8.9782e-26  1.2932e-23  9.4820e-26  1.2933e-23  1.0378e-25  1.2935e-23  1.1971e-25  1.2938e-23  1.4804e-25  1.2943e-23  1.9843e-25  1.2952e-23  2.8805e-25  1.2967e-23  4.4746e-25  1.2995e-23  7.3110e-25  1.3045e-23  1.2360e-24  1.3133e-23  2.1353e-24  1.3290e-23  3.7395e-24  1.3570e-23  6.6076e-24  1.4066e-23  1.1756e-23  1.4949e-23  2.1065e-23  1.6518e-23  3.8094e-23
      2.55  1.2519e-23  9.1657e-26  1.2519e-23  9.2627e-26  1.2519e-23  9.4354e-26  1.2519e-23  9.7425e-26  1.2520e-23  1.0288e-25  1.2521e-23  1.1259e-25  1.2522e-23  1.2986e-25  1.2525e-23  1.6057e-25  1.2530e-23  2.1518e-25  1.2538e-23  3.1232e-25  1.2554e-23  4.8510e-25  1.2581e-23  7.9252e-25  1.2629e-23  1.3397e-24  1.2715e-23  2.3145e-24  1.2867e-23  4.0532e-24  1.3139e-23  7.1617e-24  1.3621e-23  1.2742e-23  1.4478e-23  2.2830e-23  1.6001e-23  4.1286e-23
      2.60  1.2107e-23  9.9351e-26  1.2107e-23  1.0040e-25  1.2107e-23  1.0225e-25  1.2107e-23  1.0555e-25  1.2108e-23  1.1142e-25  1.2109e-23  1.2186e-25  1.2110e-23  1.4042e-25  1.2113e-23  1.7343e-25  1.2117e-23  2.3213e-25  1.2126e-23  3.3653e-25  1.2140e-23  5.2226e-25  1.2167e-23  8.5270e-25  1.2214e-23  1.4409e-24  1.2297e-23  2.4886e-24  1.2445e-23  4.3575e-24  1.2709e-23  7.6987e-24  1.3177e-23  1.3697e-23  1.4009e-23  2.4539e-23  1.5488e-23  4.4374e-23
      2.65  1.1696e-23  1.0757e-25  1.1696e-23  1.0868e-25  1.1696e-23  1.1066e-25  1.1696e-23  1.1418e-25  1.1697e-23  1.2044e-25  1.1697e-23  1.3158e-25  1.1699e-23  1.5139e-25  1.1701e-23  1.8661e-25  1.1706e-23  2.4924e-25  1.1714e-23  3.6065e-25  1.1728e-23  5.5882e-25  1.1754e-23  9.1141e-25  1.1800e-23  1.5390e-24  1.1880e-23  2.6570e-24  1.2024e-23  4.6511e-24  1.2280e-23  8.2161e-24  1.2735e-23  1.4616e-23  1.3543e-23  2.6184e-23  1.4978e-23  4.7344e-23
      2.70  1.1286e-23  1.1632e-25  1.1286e-23  1.1750e-25  1.1286e-23  1.1960e-25  1.1287e-23  1.2334e-25  1.1287e-23  1.2997e-25  1.1288e-23  1.4178e-25  1.1289e-23  1.6277e-25  1.1292e-23  2.0011e-25  1.1296e-23  2.6650e-25  1.1304e-23  3.8459e-25  1.1318e-23  5.9465e-25  1.1343e-23  9.6840e-25  1.1387e-23  1.6337e-24  1.1466e-23  2.8187e-24  1.1605e-23  4.9324e-24  1.1854e-23  8.7112e-24  1.2296e-23  1.5494e-23  1.3080e-23  2.7755e-23  1.4473e-23  5.0180e-23
      2.75  1.0879e-23  1.2564e-25  1.0879e-23  1.2689e-25  1.0879e-23  1.2910e-25  1.0879e-23  1.3303e-25  1.0880e-23  1.4003e-25  1.0881e-23  1.5247e-25  1.0882e-23  1.7459e-25  1.0884e-23  2.1393e-25  1.0889e-23  2.8390e-25  1.0896e-23  4.0835e-25  1.0910e-23  6.2971e-25  1.0934e-23  1.0236e-24  1.0977e-23  1.7246e-24  1.1053e-23  2.9734e-24  1.1189e-23  5.2008e-24  1.1431e-23  9.1827e-24  1.1859e-23  1.6330e-23  1.2621e-23  2.9248e-23  1.3974e-23  5.2873e-23
      2.80  1.0475e-23  1.3563e-25  1.0475e-23  1.3693e-25  1.0475e-23  1.3925e-25  1.0475e-23  1.4337e-25  1.0475e-23  1.5071e-25  1.0476e-23  1.6375e-25  1.0477e-23  1.8694e-25  1.0480e-23  2.2819e-25  1.0484e-23  3.0155e-25  1.0491e-23  4.3201e-25  1.0505e-23  6.6409e-25  1.0528e-23  1.0770e-24  1.0570e-23  1.8120e-24  1.0644e-23  3.1212e-24  1.0776e-23  5.4563e-24  1.1010e-23  9.6307e-24  1.1427e-23  1.7123e-23  1.2167e-23  3.0664e-23  1.3481e-23  5.5423e-23
      2.85  1.0074e-23  1.4622e-25  1.0074e-23  1.4758e-25  1.0074e-23  1.5000e-25  1.0074e-23  1.5430e-25  1.0074e-23  1.6196e-25  1.0075e-23  1.7557e-25  1.0076e-23  1.9977e-25  1.0079e-23  2.4282e-25  1.0083e-23  3.1937e-25  1.0090e-23  4.5553e-25  1.0103e-23  6.9773e-25  1.0126e-23  1.1287e-24  1.0166e-23  1.8957e-24  1.0238e-23  3.2620e-24  1.0366e-23  5.6988e-24  1.0594e-23  1.0055e-23  1.0999e-23  1.7873e-23  1.1719e-23  3.2001e-23  1.2995e-23  5.7831e-23
      2.90  9.6766e-24  1.5744e-25  9.6766e-24  1.5885e-25  9.6768e-24  1.6137e-25  9.6770e-24  1.6584e-25  9.6774e-24  1.7380e-25  9.6781e-24  1.8795e-25  9.6793e-24  2.1310e-25  9.6816e-24  2.5784e-25  9.6855e-24  3.3741e-25  9.6925e-24  4.7893e-25  9.7050e-24  7.3066e-25  9.7271e-24  1.1785e-24  9.7666e-24  1.9757e-24  9.8367e-24  3.3958e-24  9.9613e-24  5.9284e-24  1.0183e-23  1.0456e-23  1.0576e-23  1.8580e-23  1.1275e-23  3.3261e-23  1.2515e-23  6.0097e-23
      2.95  9.2842e-24  1.6933e-25  9.2843e-24  1.7079e-25  9.2844e-24  1.7339e-25  9.2846e-24  1.7803e-25  9.2850e-24  1.8626e-25  9.2857e-24  2.0091e-25  9.2869e-24  2.2696e-25  9.2890e-24  2.7329e-25  9.2929e-24  3.5568e-25  9.2997e-24  5.0223e-25  9.3118e-24  7.6289e-25  9.3334e-24  1.2267e-24  9.3717e-24  2.0522e-24  9.4399e-24  3.5226e-24  9.5611e-24  6.1450e-24  9.7764e-24  1.0833e-23  1.0159e-23  1.9245e-23  1.0838e-23  3.4443e-23  1.2043e-23  6.2220e-23
      3.00  8.8970e-24  1.8191e-25  8.8971e-24  1.8342e-25  8.8972e-24  1.8611e-25  8.8974e-24  1.9089e-25  8.8978e-24  1.9939e-25  8.8985e-24  2.1451e-25  8.8996e-24  2.4139e-25  8.9017e-24  2.8920e-25  8.9055e-24  3.7423e-25  8.9121e-24  5.2545e-25  8.9239e-24  7.9446e-25  8.9449e-24  1.2731e-24  8.9821e-24  2.1250e-24  9.0484e-24  3.6423e-24  9.1663e-24  6.3485e-24  9.3757e-24  1.1186e-23  9.7477e-24  1.9866e-23  1.0408e-23  3.5547e-23  1.1579e-23  6.4201e-23
      3.05  8.5157e-24  1.9538e-25  8.5157e-24  1.9693e-25  8.5158e-24  1.9970e-25  8.5160e-24  2.0461e-25  8.5164e-24  2.1336e-25  8.5171e-24  2.2890e-25  8.5182e-24  2.5655e-25  8.5202e-24  3.0572e-25  8.5239e-24  3.9316e-25  8.5303e-24  5.4868e-25  8.5418e-24  8.2531e-25  8.5622e-24  1.3175e-24  8.5985e-24  2.1936e-24  8.6630e-24  3.7540e-24  8.7776e-24  6.5369e-24  8.9813e-24  1.1511e-23  9.3432e-24  2.0436e-23  9.9854e-24  3.6559e-23  1.1124e-23  6.6016e-23
      3.10  8.1406e-24  2.0948e-25  8.1407e-24  2.1108e-25  8.1408e-24  2.1391e-25  8.1410e-24  2.1895e-25  8.1413e-24  2.2792e-25  8.1420e-24  2.4386e-25  8.1431e-24  2.7222e-25  8.1451e-24  3.2264e-25  8.1487e-24  4.1231e-25  8.1549e-24  5.7180e-25  8.1660e-24  8.5549e-25  8.1859e-24  1.3602e-24  8.2212e-24  2.2586e-24  8.2839e-24  3.8588e-24  8.3955e-24  6.7126e-24  8.5937e-24  1.1813e-23  8.9457e-24  2.0965e-23  9.5705e-24  3.7496e-23  1.0678e-23  6.7695e-23
      3.15  7.7724e-24  2.2451e-25  7.7725e-24  2.2614e-25  7.7726e-24  2.2904e-25  7.7728e-24  2.3420e-25  7.7731e-24  2.4337e-25  7.7738e-24  2.5969e-25  7.7749e-24  2.8869e-25  7.7768e-24  3.4028e-25  7.7802e-24  4.3203e-25  7.7863e-24  5.9521e-25  7.7972e-24  8.8547e-25  7.8165e-24  1.4019e-24  7.8509e-24  2.3211e-24  7.9119e-24  3.9583e-24  8.0205e-24  6.8781e-24  8.2134e-24  1.2097e-23  8.5559e-24  2.1459e-23  9.1638e-24  3.8370e-23  1.0241e-23  6.9258e-23
      3.20  7.4116e-24  2.4042e-25  7.4117e-24  2.4208e-25  7.4118e-24  2.4504e-25  7.4120e-24  2.5031e-25  7.4123e-24  2.5968e-25  7.4129e-24  2.7635e-25  7.4140e-24  3.0598e-25  7.4159e-24  3.5867e-25  7.4192e-24  4.5238e-25  7.4252e-24  6.1906e-25  7.4357e-24  9.1554e-25  7.4545e-24  1.4430e-24  7.4880e-24  2.3819e-24  7.5474e-24  4.0542e-24  7.6531e-24  7.0364e-24  7.8409e-24  1.2366e-23  8.1743e-24  2.1929e-23  8.7658e-24  3.9199e-23  9.8136e-24  7.0740e-23
      3.25  7.0587e-24  2.5710e-25  7.0588e-24  2.5880e-25  7.0589e-24  2.6182e-25  7.0591e-24  2.6720e-25  7.0594e-24  2.7676e-25  7.0600e-24  2.9377e-25  7.0610e-24  3.2401e-25  7.0628e-24  3.7779e-25  7.0661e-24  4.7344e-25  7.0719e-24  6.4356e-25  7.0822e-24  9.4616e-25  7.1005e-24  1.4845e-24  7.1331e-24  2.4428e-24  7.1910e-24  4.1496e-24  7.2939e-24  7.1933e-24  7.4767e-24  1.2633e-23  7.8013e-24  2.2392e-23  8.3772e-24  4.0016e-23  9.3968e-24  7.2201e-23
      3.30  6.7142e-24  2.7481e-25  6.7142e-24  2.7655e-25  6.7143e-24  2.7964e-25  6.7145e-24  2.8513e-25  6.7148e-24  2.9490e-25  6.7154e-24  3.1226e-25  6.7164e-24  3.4315e-25  6.7182e-24  3.9807e-25  6.7213e-24  4.9574e-25  6.7270e-24  6.6947e-25  6.7370e-24  9.7848e-25  6.7549e-24  1.5283e-24  6.7866e-24  2.5068e-24  6.8430e-24  4.2498e-24  6.9432e-24  7.3580e-24  7.1213e-24  1.2913e-23  7.4375e-24  2.2878e-23  7.9982e-24  4.0874e-23  8.9909e-24  7.3734e-23
      3.35  6.3784e-24  2.9334e-25  6.3784e-24  2.9512e-25  6.3785e-24  2.9828e-25  6.3787e-24  3.0390e-25  6.3790e-24  3.1390e-25  6.3795e-24  3.3167e-25  6.3805e-24  3.6327e-25  6.3823e-24  4.1948e-25  6.3854e-24  5.1943e-25  6.3909e-24  6.9721e-25  6.4006e-24  1.0134e-24  6.4180e-24  1.5761e-24  6.4489e-24  2.5775e-24  6.5039e-24  4.3611e-24  6.6015e-24  7.5418e-24  6.7750e-24  1.3226e-23  7.0830e-24  2.3424e-23  7.6293e-24  4.1837e-23  8.5960e-24  7.5459e-23
      3.40  6.0517e-24  3.1270e-25  6.0517e-24  3.1452e-25  6.0518e-24  3.1777e-25  6.0520e-24  3.2354e-25  6.0523e-24  3.3381e-25  6.0528e-24  3.5206e-25  6.0538e-24  3.8453e-25  6.0555e-24  4.4226e-25  6.0585e-24  5.4493e-25  6.0638e-24  7.2755e-25  6.0734e-24  1.0524e-24  6.0903e-24  1.6303e-24  6.1204e-24  2.6590e-24  6.1740e-24  4.4911e-24  6.2692e-24  7.7583e-24  6.4382e-24  1.3597e-23  6.7384e-24  2.4072e-23  7.2706e-24  4.2985e-23  8.2122e-24  7.7516e-23
      3.45  5.7345e-24  3.3287e-25  5.7345e-24  3.3476e-25  5.7346e-24  3.3811e-25  5.7348e-24  3.4407e-25  5.7351e-24  3.5467e-25  5.7356e-24  3.7353e-25  5.7365e-24  4.0706e-25  5.7382e-24  4.6668e-25  5.7411e-24  5.7273e-25  5.7463e-24  7.6133e-25  5.7556e-24  1.0968e-24  5.7721e-24  1.6937e-24  5.8015e-24  2.7561e-24  5.8537e-24  4.6483e-24  5.9465e-24  8.0226e-24  6.1113e-24  1.4053e-23  6.4039e-24  2.4871e-23  6.9225e-24  4.4403e-23  7.8399e-24  8.0064e-23
      3.50  5.4270e-24  3.5388e-25  5.4271e-24  3.5584e-25  5.4272e-24  3.5932e-25  5.4273e-24  3.6552e-25  5.4276e-24  3.7655e-25  5.4281e-24  3.9616e-25  5.4290e-24  4.3103e-25  5.4306e-24  4.9304e-25  5.4335e-24  6.0332e-25  5.4386e-24  7.9947e-25  5.4477e-24  1.1484e-24  5.4638e-24  1.7691e-24  5.4924e-24  2.8740e-24  5.5433e-24  4.8419e-24  5.6337e-24  8.3511e-24  5.7944e-24  1.4623e-23  6.0796e-24  2.5873e-23  6.5852e-24  4.6186e-23  7.4792e-24  8.3272e-23
      3.55  5.1297e-24  3.7614e-25  5.1297e-24  3.7819e-25  5.1298e-24  3.8185e-25  5.1300e-24  3.8835e-25  5.1302e-24  3.9991e-25  5.1307e-24  4.2048e-25  5.1316e-24  4.5705e-25  5.1332e-24  5.2208e-25  5.1360e-24  6.3774e-25  5.1410e-24  8.4344e-25  5.1498e-24  1.2093e-24  5.1655e-24  1.8603e-24  5.1934e-24  3.0190e-24  5.2431e-24  5.0827e-24  5.3313e-24  8.7629e-24  5.4879e-24  1.5340e-23  5.7660e-24  2.7138e-23  6.2588e-24  4.8441e-23  7.1315e-24  8.7332e-23
      3.60  4.8425e-24  3.9926e-25  4.8426e-24  4.0143e-25  4.8427e-24  4.0530e-25  4.8428e-24  4.1218e-25  4.8431e-24  4.2442e-25  4.8436e-24  4.4618e-25  4.8445e-24  4.8487e-25  4.8460e-24  5.5369e-25  4.8487e-24  6.7607e-25  4.8534e-24  8.9374e-25  4.8621e-24  1.2809e-24  4.8775e-24  1.9698e-24  4.9047e-24  3.1958e-24  4.9531e-24  5.3796e-24  5.0391e-24  9.2738e-24  5.1920e-24  1.6233e-23  5.4631e-24  2.8718e-23  5.9436e-24  5.1259e-23  6.7941e-24  9.2412e-23
      3.65  4.5658e-24  4.2323e-25  4.5658e-24  4.2556e-25  4.5659e-24  4.2969e-25  4.5660e-24  4.3704e-25  4.5663e-24  4.5012e-25  4.5668e-24  4.7336e-25  4.5676e-24  5.1470e-25  4.5691e-24  5.8822e-25  4.5718e-24  7.1897e-25  4.5765e-24  9.5152e-25  4.5849e-24  1.3652e-24  4.5999e-24  2.1011e-24  4.6264e-24  3.4110e-24  4.6736e-24  5.7440e-24  4.7575e-24  9.9044e-24  4.9066e-24  1.7340e-23  5.1710e-24  3.0677e-23  5.6403e-24  5.4758e-23  6.4683e-24  9.8719e-23
      3.70  4.2995e-24  4.4809e-25  4.2996e-24  4.5061e-25  4.2997e-24  4.5508e-25  4.2998e-24  4.6303e-25  4.3001e-24  4.7717e-25  4.3005e-24  5.0233e-25  4.3014e-24  5.4705e-25  4.3028e-24  6.2660e-25  4.3054e-24  7.6806e-25  4.3100e-24  1.0197e-24  4.3182e-24  1.4672e-24  4.3328e-24  2.2634e-24  4.3587e-24  3.6806e-24  4.4047e-24  6.2047e-24  4.4866e-24  1.0706e-23  4.6319e-24  1.8749e-23  4.8903e-24  3.3177e-23  5.3472e-24  5.9224e-23  6.1543e-24  1.0676e-22
      3.75  4.0440e-24  4.7384e-25  4.0441e-24  4.7658e-25  4.0442e-24  4.8146e-25  4.0443e-24  4.9013e-25  4.0446e-24  5.0555e-25  4.0450e-24  5.3296e-25  4.0458e-24  5.8172e-25  4.0473e-24  6.6842e-25  4.0498e-24  8.2263e-25  4.0543e-24  1.0969e-24  4.0623e-24  1.5847e-24  4.0765e-24  2.4527e-24  4.1018e-24  3.9975e-24  4.1467e-24  6.7489e-24  4.2266e-24  1.1655e-23  4.3684e-24  2.0422e-23  4.6199e-24  3.6145e-23  5.0653e-24  6.4526e-23  5.8518e-24  1.1631e-22
      3.80  3.7998e-24  5.0151e-25  3.7999e-24  5.0454e-25  3.8000e-24  5.0993e-25  3.8001e-24  5.1952e-25  3.8003e-24  5.3658e-25  3.8008e-24  5.6691e-25  3.8016e-24  6.2084e-25  3.8029e-24  7.1675e-25  3.8054e-24  8.8731e-25  3.8098e-24  1.1907e-24  3.8176e-24  1.7303e-24  3.8315e-24  2.6903e-24  3.8561e-24  4.3990e-24  3.8999e-24  7.4421e-24  3.9778e-24  1.2868e-23  4.1161e-24  2.2563e-23  4.3613e-24  3.9948e-23  4.7955e-24  7.1316e-23  5.5619e-24  1.2851e-22
      3.85  3.5655e-24  5.3258e-25  3.5655e-24  5.3600e-25  3.5656e-24  5.4208e-25  3.5657e-24  5.5290e-25  3.5660e-24  5.7212e-25  3.5664e-24  6.0632e-25  3.5671e-24  6.6713e-25  3.5685e-24  7.7528e-25  3.5709e-24  9.6760e-25  3.5752e-24  1.3097e-24  3.5828e-24  1.9181e-24  3.5963e-24  3.0006e-24  3.6204e-24  4.9271e-24  3.6631e-24  8.3581e-24  3.7391e-24  1.4475e-23  3.8740e-24  2.5404e-23  4.1132e-24  4.4995e-23  4.5366e-24  8.0330e-23  5.2840e-24  1.4471e-22
      3.90  3.3416e-24  5.7748e-25  3.3417e-24  5.8144e-25  3.3418e-24  5.8848e-25  3.3419e-24  6.0100e-25  3.3421e-24  6.2327e-25  3.3425e-24  6.6286e-25  3.3433e-24  7.3327e-25  3.3446e-24  8.5849e-25  3.3469e-24  1.0812e-24  3.3511e-24  1.4772e-24  3.3586e-24  2.1817e-24  3.3718e-24  3.4350e-24  3.3953e-24  5.6656e-24  3.4370e-24  9.6378e-24  3.5112e-24  1.6719e-23  3.6429e-24  2.9369e-23  3.8765e-24  5.2042e-23  4.2901e-24  9.2917e-23  5.0198e-24  1.6734e-22
      3.95  3.1282e-24  6.7817e-25  3.1283e-24  6.8287e-25  3.1283e-24  6.9124e-25  3.1285e-24  7.0612e-25  3.1287e-24  7.3257e-25  3.1291e-24  7.7962e-25  3.1298e-24  8.6328e-25  3.1311e-24  1.0121e-24  3.1334e-24  1.2767e-24  3.1375e-24  1.7473e-24  3.1448e-24  2.5844e-24  3.1577e-24  4.0736e-24  3.1807e-24  6.7239e-24  3.2216e-24  1.1444e-23  3.2941e-24  1.9858e-23  3.4230e-24  3.4886e-23  3.6518e-24  6.1819e-23  4.0566e-24  1.1037e-22  4.7711e-24  1.9875e-22
