# This was generated using Cloudy10 and the columns are ordered 
# as log10 of the fraction of the metallicity to the solar metallicity
# 'h_*_Z' and 'c_*_Z' stands for cooling and heating respectively 
# at * metalicity
#
# NOTE: This was generated separately from loop_coolingcurve_w_UV.py
#       using Output_metals_w_redshift.py.
#
# Redshift = 7.5
# hden = -6.0
#
#     temp   h_-3.00_Z   c_-3.00_Z   h_-2.75_Z   c_-2.75_Z   h_-2.50_Z   c_-2.50_Z   h_-2.25_Z   c_-2.25_Z   h_-2.00_Z   c_-2.00_Z   h_-1.75_Z   c_-1.75_Z   h_-1.50_Z   c_-1.50_Z   h_-1.25_Z   c_-1.25_Z   h_-1.00_Z   c_-1.00_Z   h_-0.75_Z   c_-0.75_Z   h_-0.50_Z   c_-0.50_Z   h_-0.25_Z   c_-0.25_Z    h_0.00_Z    c_0.00_Z    h_0.25_Z    c_0.25_Z    h_0.50_Z    c_0.50_Z    h_0.75_Z    c_0.75_Z    h_1.00_Z    c_1.00_Z    h_1.25_Z    c_1.25_Z    h_1.50_Z    c_1.50_Z 
      1.00  4.2021e-22  3.8298e-25  4.2025e-22  3.8298e-25  4.2032e-22  3.8299e-25  4.2044e-22  3.8299e-25  4.2065e-22  3.8300e-25  4.2103e-22  3.8301e-25  4.2171e-22  3.8304e-25  4.2291e-22  3.8308e-25  4.2504e-22  3.8316e-25  4.2882e-22  3.8330e-25  4.3551e-22  3.8354e-25  4.4732e-22  3.8398e-25  4.6810e-22  3.8476e-25  5.0450e-22  3.8613e-25  5.6849e-22  3.8857e-25  6.8142e-22  3.9292e-25  8.8395e-22  4.0068e-25  1.2467e-21  4.1457e-25  1.8984e-21  4.3948e-25
      1.05  3.9932e-22  4.2587e-25  3.9936e-22  4.2587e-25  3.9942e-22  4.2587e-25  3.9954e-22  4.2587e-25  3.9975e-22  4.2588e-25  4.0013e-22  4.2590e-25  4.0079e-22  4.2593e-25  4.0198e-22  4.2597e-25  4.0408e-22  4.2606e-25  4.0781e-22  4.2621e-25  4.1442e-22  4.2648e-25  4.2608e-22  4.2695e-25  4.4659e-22  4.2780e-25  4.8253e-22  4.2930e-25  5.4572e-22  4.3196e-25  6.5705e-22  4.3670e-25  8.5663e-22  4.4517e-25  1.2143e-21  4.6030e-25  1.8571e-21  4.8744e-25
      1.10  3.7949e-22  4.7381e-25  3.7953e-22  4.7381e-25  3.7959e-22  4.7381e-25  3.7971e-22  4.7382e-25  3.7992e-22  4.7383e-25  3.8029e-22  4.7385e-25  3.8095e-22  4.7388e-25  3.8212e-22  4.7393e-25  3.8419e-22  4.7402e-25  3.8788e-22  4.7419e-25  3.9440e-22  4.7448e-25  4.0592e-22  4.7500e-25  4.2619e-22  4.7593e-25  4.6169e-22  4.7758e-25  5.2413e-22  4.8050e-25  6.3396e-22  4.8570e-25  8.3081e-22  4.9499e-25  1.1838e-21  5.1159e-25  1.8182e-21  5.4138e-25
      1.15  3.6066e-22  5.2743e-25  3.6070e-22  5.2743e-25  3.6076e-22  5.2743e-25  3.6088e-22  5.2744e-25  3.6109e-22  5.2745e-25  3.6145e-22  5.2747e-25  3.6210e-22  5.2750e-25  3.6326e-22  5.2756e-25  3.6531e-22  5.2766e-25  3.6895e-22  5.2785e-25  3.7539e-22  5.2817e-25  3.8678e-22  5.2875e-25  4.0680e-22  5.2979e-25  4.4189e-22  5.3162e-25  5.0360e-22  5.3488e-25  6.1201e-22  5.4067e-25  8.0628e-22  5.5102e-25  1.1547e-21  5.6953e-25  1.7812e-21  6.0279e-25
      1.20  3.4277e-22  5.8740e-25  3.4281e-22  5.8741e-25  3.4287e-22  5.8741e-25  3.4299e-22  5.8742e-25  3.4319e-22  5.8743e-25  3.4355e-22  5.8745e-25  3.4419e-22  5.8749e-25  3.4533e-22  5.8755e-25  3.4736e-22  5.8767e-25  3.5096e-22  5.8789e-25  3.5733e-22  5.8826e-25  3.6858e-22  5.8893e-25  3.8837e-22  5.9012e-25  4.2306e-22  5.9223e-25  4.8405e-22  5.9598e-25  5.9116e-22  6.0265e-25  7.8292e-22  6.1459e-25  1.1269e-21  6.3598e-25  1.7459e-21  6.7454e-25
      1.25  3.2576e-22  6.5451e-25  3.2580e-22  6.5452e-25  3.2586e-22  6.5452e-25  3.2597e-22  6.5453e-25  3.2617e-22  6.5454e-25  3.2653e-22  6.5457e-25  3.2716e-22  6.5462e-25  3.2829e-22  6.5470e-25  3.3029e-22  6.5484e-25  3.3383e-22  6.5510e-25  3.4012e-22  6.5556e-25  3.5122e-22  6.5638e-25  3.7076e-22  6.5783e-25  4.0500e-22  6.6041e-25  4.6518e-22  6.6500e-25  5.7084e-22  6.7319e-25  7.5979e-22  6.8787e-25  1.0989e-21  7.1430e-25  1.7094e-21  7.6229e-25
      1.30  3.0958e-22  7.2962e-25  3.0961e-22  7.2963e-25  3.0968e-22  7.2963e-25  3.0979e-22  7.2964e-25  3.0999e-22  7.2966e-25  3.1034e-22  7.2970e-25  3.1096e-22  7.2976e-25  3.1207e-22  7.2986e-25  3.1404e-22  7.3006e-25  3.1754e-22  7.3040e-25  3.2374e-22  7.3101e-25  3.3469e-22  7.3209e-25  3.5398e-22  7.3401e-25  3.8777e-22  7.3743e-25  4.4716e-22  7.4353e-25  5.5136e-22  7.5445e-25  7.3757e-22  7.7410e-25  1.0719e-21  8.0970e-25  1.6740e-21  8.7514e-25
      1.35  2.9417e-22  8.1370e-25  2.9421e-22  8.1371e-25  2.9427e-22  8.1371e-25  2.9438e-22  8.1373e-25  2.9458e-22  8.1376e-25  2.9492e-22  8.1381e-25  2.9554e-22  8.1389e-25  2.9663e-22  8.1405e-25  2.9858e-22  8.1432e-25  3.0203e-22  8.1481e-25  3.0815e-22  8.1568e-25  3.1895e-22  8.1723e-25  3.3799e-22  8.2000e-25  3.7135e-22  8.2492e-25  4.2994e-22  8.3373e-25  5.3272e-22  8.4954e-25  7.1631e-22  8.7813e-25  1.0460e-21  9.3037e-25  1.6399e-21  1.0277e-24
      1.40  2.7950e-22  9.0904e-25  2.7954e-22  9.0904e-25  2.7960e-22  9.0906e-25  2.7971e-22  9.0908e-25  2.7990e-22  9.0912e-25  2.8024e-22  9.0920e-25  2.8085e-22  9.0933e-25  2.8193e-22  9.0957e-25  2.8385e-22  9.0998e-25  2.8725e-22  9.1073e-25  2.9329e-22  9.1205e-25  3.0395e-22  9.1441e-25  3.2274e-22  9.1862e-25  3.5568e-22  9.2613e-25  4.1350e-22  9.3959e-25  5.1491e-22  9.6385e-25  6.9600e-22  1.0079e-24  1.0211e-21  1.0891e-24  1.6070e-21  1.2423e-24
      1.45  2.6552e-22  1.0161e-24  2.6556e-22  1.0161e-24  2.6562e-22  1.0161e-24  2.6572e-22  1.0162e-24  2.6592e-22  1.0162e-24  2.6625e-22  1.0164e-24  2.6685e-22  1.0166e-24  2.6792e-22  1.0169e-24  2.6981e-22  1.0176e-24  2.7317e-22  1.0187e-24  2.7912e-22  1.0208e-24  2.8964e-22  1.0244e-24  3.0817e-22  1.0310e-24  3.4066e-22  1.0427e-24  3.9769e-22  1.0637e-24  4.9771e-22  1.1016e-24  6.7621e-22  1.1709e-24  9.9673e-22  1.2992e-24  1.5743e-21  1.5438e-24
      1.50  2.5219e-22  1.1358e-24  2.5223e-22  1.1358e-24  2.5229e-22  1.1358e-24  2.5239e-22  1.1359e-24  2.5258e-22  1.1360e-24  2.5291e-22  1.1361e-24  2.5350e-22  1.1365e-24  2.5455e-22  1.1370e-24  2.5642e-22  1.1380e-24  2.5973e-22  1.1398e-24  2.6560e-22  1.1430e-24  2.7598e-22  1.1486e-24  2.9426e-22  1.1587e-24  3.2633e-22  1.1768e-24  3.8258e-22  1.2092e-24  4.8125e-22  1.2681e-24  6.5724e-22  1.3758e-24  9.7334e-22  1.5763e-24  1.5428e-21  1.9616e-24
      1.55  2.3948e-22  1.2696e-24  2.3952e-22  1.2696e-24  2.3957e-22  1.2697e-24  2.3968e-22  1.2697e-24  2.3986e-22  1.2699e-24  2.4019e-22  1.2702e-24  2.4077e-22  1.2706e-24  2.4181e-22  1.2715e-24  2.4365e-22  1.2730e-24  2.4692e-22  1.2757e-24  2.5271e-22  1.2804e-24  2.6294e-22  1.2889e-24  2.8099e-22  1.3041e-24  3.1264e-22  1.3313e-24  3.6814e-22  1.3803e-24  4.6551e-22  1.4692e-24  6.3913e-22  1.6323e-24  9.5089e-22  1.9372e-24  1.5125e-21  2.5264e-24
      1.60  2.2735e-22  1.4193e-24  2.2739e-22  1.4193e-24  2.2744e-22  1.4194e-24  2.2755e-22  1.4195e-24  2.2773e-22  1.4197e-24  2.2805e-22  1.4201e-24  2.2863e-22  1.4208e-24  2.2965e-22  1.4221e-24  2.3146e-22  1.4242e-24  2.3468e-22  1.4281e-24  2.4040e-22  1.4351e-24  2.5050e-22  1.4475e-24  2.6830e-22  1.4696e-24  2.9954e-22  1.5093e-24  3.5429e-22  1.5807e-24  4.5037e-22  1.7107e-24  6.2164e-22  1.9495e-24  9.2911e-22  2.3972e-24  1.4831e-21  3.2663e-24
      1.65  2.1577e-22  1.5869e-24  2.1581e-22  1.5869e-24  2.1586e-22  1.5870e-24  2.1596e-22  1.5872e-24  2.1614e-22  1.5875e-24  2.1646e-22  1.5880e-24  2.1703e-22  1.5890e-24  2.1804e-22  1.5907e-24  2.1983e-22  1.5938e-24  2.2301e-22  1.5993e-24  2.2864e-22  1.6091e-24  2.3861e-22  1.6265e-24  2.5617e-22  1.6576e-24  2.8701e-22  1.7134e-24  3.4104e-22  1.8140e-24  4.3585e-22  1.9971e-24  6.0482e-22  2.3343e-24  9.0810e-22  2.9678e-24  1.4547e-21  4.2020e-24
      1.70  2.0472e-22  1.7745e-24  2.0475e-22  1.7745e-24  2.0481e-22  1.7747e-24  2.0491e-22  1.7749e-24  2.0508e-22  1.7753e-24  2.0540e-22  1.7761e-24  2.0596e-22  1.7774e-24  2.0695e-22  1.7797e-24  2.0872e-22  1.7839e-24  2.1185e-22  1.7913e-24  2.1741e-22  1.8046e-24  2.2724e-22  1.8282e-24  2.4458e-22  1.8704e-24  2.7502e-22  1.9461e-24  3.2832e-22  2.0827e-24  4.2191e-22  2.3316e-24  5.8858e-22  2.7904e-24  8.8775e-22  3.6544e-24  1.4270e-21  5.3423e-24
      1.75  1.9417e-22  1.9846e-24  1.9420e-22  1.9847e-24  1.9425e-22  1.9848e-24  1.9435e-22  1.9851e-24  1.9452e-22  1.9857e-24  1.9483e-22  1.9867e-24  1.9539e-22  1.9884e-24  1.9637e-22  1.9915e-24  1.9811e-22  1.9969e-24  2.0120e-22  2.0066e-24  2.0668e-22  2.0240e-24  2.1638e-22  2.0549e-24  2.3348e-22  2.1102e-24  2.6352e-22  2.2094e-24  3.1610e-22  2.3885e-24  4.0846e-22  2.7152e-24  5.7283e-22  3.3181e-24  8.6790e-22  4.4553e-24  1.3999e-21  6.6825e-24
      1.80  1.8408e-22  2.2199e-24  1.8412e-22  2.2201e-24  1.8417e-22  2.2203e-24  1.8427e-22  2.2207e-24  1.8444e-22  2.2214e-24  1.8474e-22  2.2226e-24  1.8529e-22  2.2248e-24  1.8625e-22  2.2287e-24  1.8797e-22  2.2356e-24  1.9102e-22  2.2479e-24  1.9642e-22  2.2699e-24  2.0598e-22  2.3091e-24  2.2285e-22  2.3792e-24  2.5248e-22  2.5051e-24  3.0433e-22  2.7326e-24  3.9549e-22  3.1477e-24  5.5752e-22  3.9144e-24  8.4851e-22  5.3630e-24  1.3733e-21  8.2063e-24
      1.85  1.7446e-22  2.4837e-24  1.7449e-22  2.4838e-24  1.7454e-22  2.4841e-24  1.7464e-22  2.4846e-24  1.7481e-22  2.4854e-24  1.7511e-22  2.4869e-24  1.7564e-22  2.4896e-24  1.7660e-22  2.4944e-24  1.7829e-22  2.5030e-24  1.8129e-22  2.5182e-24  1.8662e-22  2.5453e-24  1.9604e-22  2.5936e-24  2.1266e-22  2.6800e-24  2.4187e-22  2.8353e-24  2.9298e-22  3.1160e-24  3.8292e-22  3.6284e-24  5.4257e-22  4.5760e-24  8.2946e-22  6.3683e-24  1.3469e-21  9.8933e-24
      1.90  1.6526e-22  2.7792e-24  1.6529e-22  2.7794e-24  1.6534e-22  2.7797e-24  1.6544e-22  2.7803e-24  1.6561e-22  2.7813e-24  1.6590e-22  2.7831e-24  1.6643e-22  2.7864e-24  1.6737e-22  2.7922e-24  1.6903e-22  2.8024e-24  1.7199e-22  2.8207e-24  1.7724e-22  2.8534e-24  1.8652e-22  2.9116e-24  2.0290e-22  3.0157e-24  2.3168e-22  3.2027e-24  2.8206e-22  3.5410e-24  3.7071e-22  4.1587e-24  5.2796e-22  5.3020e-24  8.1069e-22  7.4665e-24  1.3206e-21  1.1730e-23
      1.95  1.5648e-22  3.1104e-24  1.5651e-22  3.1107e-24  1.5656e-22  3.1110e-24  1.5665e-22  3.1117e-24  1.5682e-22  3.1129e-24  1.5711e-22  3.1151e-24  1.5763e-22  3.1189e-24  1.5855e-22  3.1258e-24  1.6019e-22  3.1379e-24  1.6311e-22  3.1596e-24  1.6827e-22  3.1982e-24  1.7741e-22  3.2671e-24  1.9354e-22  3.3903e-24  2.2189e-22  3.6118e-24  2.7152e-22  4.0123e-24  3.5888e-22  4.7439e-24  5.1372e-22  6.0987e-24  7.9223e-22  8.6650e-24  1.2946e-21  1.3725e-23
      2.00  1.4810e-22  3.4818e-24  1.4813e-22  3.4820e-24  1.4818e-22  3.4825e-24  1.4827e-22  3.4833e-24  1.4843e-22  3.4847e-24  1.4872e-22  3.4872e-24  1.4923e-22  3.4917e-24  1.5014e-22  3.4997e-24  1.5175e-22  3.5140e-24  1.5462e-22  3.5394e-24  1.5970e-22  3.5846e-24  1.6870e-22  3.6653e-24  1.8458e-22  3.8097e-24  2.1250e-22  4.0692e-24  2.6139e-22  4.5387e-24  3.4745e-22  5.3960e-24  5.0000e-22  6.9837e-24  7.7427e-22  9.9910e-24  1.2692e-21  1.5921e-23
      2.05  1.4009e-22  3.8981e-24  1.4012e-22  3.8984e-24  1.4017e-22  3.8989e-24  1.4026e-22  3.8999e-24  1.4042e-22  3.9015e-24  1.4070e-22  3.9045e-24  1.4121e-22  3.9097e-24  1.4210e-22  3.9191e-24  1.4369e-22  3.9358e-24  1.4651e-22  3.9654e-24  1.5152e-22  4.0183e-24  1.6038e-22  4.1127e-24  1.7602e-22  4.2815e-24  2.0353e-22  4.5848e-24  2.5170e-22  5.1335e-24  3.3648e-22  6.1349e-24  4.8679e-22  7.9885e-24  7.5702e-22  1.1496e-23  1.2446e-21  1.8406e-23
      2.10  1.3246e-22  4.3649e-24  1.3248e-22  4.3653e-24  1.3253e-22  4.3659e-24  1.3262e-22  4.3670e-24  1.3278e-22  4.3689e-24  1.3306e-22  4.3724e-24  1.3355e-22  4.3786e-24  1.3443e-22  4.3896e-24  1.3600e-22  4.4091e-24  1.3878e-22  4.4440e-24  1.4371e-22  4.5060e-24  1.5245e-22  4.6168e-24  1.6786e-22  4.8149e-24  1.9498e-22  5.1708e-24  2.4248e-22  5.8142e-24  3.2604e-22  6.9878e-24  4.7422e-22  9.1574e-24  7.4063e-22  1.3256e-23  1.2213e-21  2.1311e-23
      2.15  1.2517e-22  4.8884e-24  1.2520e-22  4.8888e-24  1.2525e-22  4.8895e-24  1.2533e-22  4.8908e-24  1.2549e-22  4.8931e-24  1.2576e-22  4.8972e-24  1.2625e-22  4.9046e-24  1.2712e-22  4.9176e-24  1.2866e-22  4.9407e-24  1.3141e-22  4.9819e-24  1.3627e-22  5.0554e-24  1.4488e-22  5.1864e-24  1.6010e-22  5.4207e-24  1.8685e-22  5.8414e-24  2.3375e-22  6.6015e-24  3.1616e-22  7.9866e-24  4.6238e-22  1.0542e-23  7.2526e-22  1.5358e-23  1.1995e-21  2.4789e-23
      2.20  1.1822e-22  5.4754e-24  1.1825e-22  5.4759e-24  1.1830e-22  5.4768e-24  1.1838e-22  5.4783e-24  1.1853e-22  5.4811e-24  1.1881e-22  5.4860e-24  1.1929e-22  5.4947e-24  1.2015e-22  5.5102e-24  1.2167e-22  5.5379e-24  1.2438e-22  5.5870e-24  1.2918e-22  5.6746e-24  1.3769e-22  5.8308e-24  1.5271e-22  6.1101e-24  1.7915e-22  6.6114e-24  2.2550e-22  7.5162e-24  3.0685e-22  9.1632e-24  4.5125e-22  1.2195e-23  7.1092e-22  1.7889e-23  1.1792e-21  2.8992e-23
      2.25  1.1160e-22  6.1338e-24  1.1162e-22  6.1344e-24  1.1167e-22  6.1354e-24  1.1176e-22  6.1373e-24  1.1191e-22  6.1406e-24  1.1218e-22  6.1465e-24  1.1265e-22  6.1569e-24  1.1350e-22  6.1756e-24  1.1501e-22  6.2087e-24  1.1768e-22  6.2677e-24  1.2243e-22  6.3727e-24  1.3083e-22  6.5601e-24  1.4568e-22  6.8949e-24  1.7182e-22  7.4954e-24  2.1767e-22  8.5783e-24  2.9803e-22  1.0547e-23  4.4074e-22  1.4162e-23  6.9743e-22  2.0929e-23  1.1604e-21  3.4053e-23
      2.30  1.0529e-22  6.8723e-24  1.0531e-22  6.8730e-24  1.0536e-22  6.8742e-24  1.0544e-22  6.8765e-24  1.0559e-22  6.8805e-24  1.0586e-22  6.8875e-24  1.0633e-22  6.9001e-24  1.0717e-22  6.9225e-24  1.0866e-22  6.9623e-24  1.1130e-22  7.0333e-24  1.1599e-22  7.1595e-24  1.2430e-22  7.3847e-24  1.3898e-22  7.7870e-24  1.6484e-22  8.5080e-24  2.1021e-22  9.8069e-24  2.8969e-22  1.2165e-23  4.3075e-22  1.6486e-23  6.8456e-22  2.4545e-23  1.1424e-21  4.0089e-23
      2.35  9.9279e-23  7.7006e-24  9.9305e-23  7.7014e-24  9.9351e-23  7.7030e-24  9.9434e-23  7.7056e-24  9.9582e-23  7.7104e-24  9.9843e-23  7.7189e-24  1.0031e-22  7.7341e-24  1.0114e-22  7.7610e-24  1.0261e-22  7.8088e-24  1.0522e-22  7.8940e-24  1.0986e-22  8.0457e-24  1.1807e-22  8.3161e-24  1.3259e-22  8.7990e-24  1.5816e-22  9.6641e-24  2.0305e-22  1.1221e-23  2.8166e-22  1.4044e-23  4.2111e-22  1.9205e-23  6.7203e-22  2.8801e-23  1.1248e-21  4.7210e-23
      2.40  9.3561e-23  8.6297e-24  9.3587e-23  8.6307e-24  9.3633e-23  8.6325e-24  9.3715e-23  8.6357e-24  9.3860e-23  8.6415e-24  9.4119e-23  8.6517e-24  9.4579e-23  8.6698e-24  9.5397e-23  8.7020e-24  9.6850e-23  8.7593e-24  9.9430e-23  8.8613e-24  1.0401e-22  9.0430e-24  1.1213e-22  9.3668e-24  1.2647e-22  9.9448e-24  1.5175e-22  1.0980e-23  1.9613e-22  1.2841e-23  2.7384e-22  1.6210e-23  4.1166e-22  2.2362e-23  6.5963e-22  3.3763e-23  1.1073e-21  5.5528e-23
      2.45  8.8123e-23  9.6719e-24  8.8149e-23  9.6731e-24  8.8194e-23  9.6753e-24  8.8275e-23  9.6791e-24  8.8419e-23  9.6859e-24  8.8674e-23  9.6981e-24  8.9128e-23  9.7197e-24  8.9936e-23  9.7581e-24  9.1370e-23  9.8265e-24  9.3918e-23  9.9481e-24  9.8440e-23  1.0165e-23  1.0645e-22  1.0551e-23  1.2062e-22  1.1240e-23  1.4559e-22  1.2473e-23  1.8943e-22  1.4688e-23  2.6619e-22  1.8695e-23  4.0232e-22  2.5999e-23  6.4734e-22  3.9499e-23  1.0896e-21  6.5158e-23
      2.50  8.2955e-23  1.0841e-23  8.2981e-23  1.0842e-23  8.3026e-23  1.0845e-23  8.3105e-23  1.0850e-23  8.3247e-23  1.0858e-23  8.3499e-23  1.0872e-23  8.3947e-23  1.0898e-23  8.4743e-23  1.0943e-23  8.6158e-23  1.1024e-23  8.8671e-23  1.1169e-23  9.3132e-23  1.1425e-23  1.0104e-22  1.1883e-23  1.1502e-22  1.2700e-23  1.3966e-22  1.4161e-23  1.8293e-22  1.6785e-23  2.5869e-22  2.1526e-23  3.9305e-22  3.0158e-23  6.3496e-22  4.6076e-23  1.0718e-21  7.6217e-23
      2.55  7.8047e-23  1.2153e-23  7.8072e-23  1.2154e-23  7.8116e-23  1.2157e-23  7.8195e-23  1.2163e-23  7.8334e-23  1.2172e-23  7.8583e-23  1.2189e-23  7.9024e-23  1.2219e-23  7.9809e-23  1.2273e-23  8.1204e-23  1.2369e-23  8.3681e-23  1.2539e-23  8.8077e-23  1.2841e-23  9.5870e-23  1.3381e-23  1.0965e-22  1.4343e-23  1.3394e-22  1.6064e-23  1.7661e-22  1.9153e-23  2.5133e-22  2.4731e-23  3.8381e-22  3.4877e-23  6.2246e-22  5.3550e-23  1.0535e-21  8.8795e-23
      2.60  7.3389e-23  1.3624e-23  7.3413e-23  1.3626e-23  7.3457e-23  1.3629e-23  7.3534e-23  1.3636e-23  7.3672e-23  1.3647e-23  7.3916e-23  1.3667e-23  7.4351e-23  1.3702e-23  7.5123e-23  1.3765e-23  7.6497e-23  1.3877e-23  7.8936e-23  1.4076e-23  8.3265e-23  1.4430e-23  9.0938e-23  1.5061e-23  1.0451e-22  1.6186e-23  1.2843e-22  1.8199e-23  1.7046e-22  2.1812e-23  2.4408e-22  2.8331e-23  3.7459e-22  4.0178e-23  6.0979e-22  6.1951e-23  1.0349e-21  1.0294e-22
      2.65  6.8971e-23  1.5274e-23  6.8995e-23  1.5277e-23  6.9037e-23  1.5281e-23  6.9113e-23  1.5288e-23  6.9249e-23  1.5301e-23  6.9489e-23  1.5324e-23  6.9917e-23  1.5365e-23  7.0677e-23  1.5438e-23  7.2027e-23  1.5568e-23  7.4427e-23  1.5799e-23  7.8685e-23  1.6210e-23  8.6233e-23  1.6942e-23  9.9582e-23  1.8248e-23  1.2312e-22  2.0584e-23  1.6448e-22  2.4775e-23  2.3692e-22  3.2335e-23  3.6537e-22  4.6065e-23  5.9695e-22  7.1272e-23  1.0158e-21  1.1863e-22
      2.70  6.4783e-23  1.7126e-23  6.4807e-23  1.7129e-23  6.4849e-23  1.7133e-23  6.4924e-23  1.7142e-23  6.5056e-23  1.7157e-23  6.5293e-23  1.7183e-23  6.5713e-23  1.7230e-23  6.6460e-23  1.7314e-23  6.7787e-23  1.7464e-23  7.0144e-23  1.7729e-23  7.4328e-23  1.8202e-23  8.1744e-23  1.9044e-23  9.4862e-23  2.0546e-23  1.1799e-22  2.3232e-23  1.5864e-22  2.8050e-23  2.2986e-22  3.6740e-23  3.5614e-22  5.2517e-23  5.8392e-22  8.1461e-23  9.9626e-22  1.3576e-22
      2.75  6.0818e-23  1.9203e-23  6.0841e-23  1.9206e-23  6.0882e-23  1.9212e-23  6.0955e-23  1.9221e-23  6.1086e-23  1.9238e-23  6.1318e-23  1.9268e-23  6.1730e-23  1.9322e-23  6.2463e-23  1.9418e-23  6.3765e-23  1.9587e-23  6.6078e-23  1.9890e-23  7.0184e-23  2.0428e-23  7.7463e-23  2.1386e-23  9.0338e-23  2.3096e-23  1.1304e-22  2.6153e-23  1.5295e-22  3.1638e-23  2.2288e-22  4.1530e-23  3.4689e-22  5.9484e-23  5.7068e-22  9.2409e-23  9.7624e-22  1.5412e-22
      2.80  5.7065e-23  2.1534e-23  5.7088e-23  2.1537e-23  5.7128e-23  2.1543e-23  5.7200e-23  2.1554e-23  5.7328e-23  2.1573e-23  5.7555e-23  2.1607e-23  5.7959e-23  2.1668e-23  5.8677e-23  2.1775e-23  5.9953e-23  2.1966e-23  6.2220e-23  2.2306e-23  6.6245e-23  2.2912e-23  7.3379e-23  2.3991e-23  8.5999e-23  2.5916e-23  1.0826e-22  2.9358e-23  1.4739e-22  3.5534e-23  2.1597e-22  4.6673e-23  3.3759e-22  6.6889e-23  5.5730e-22  1.0396e-22  9.5571e-22  1.7340e-22
      2.85  5.3516e-23  2.4148e-23  5.3539e-23  2.4152e-23  5.3578e-23  2.4159e-23  5.3648e-23  2.4171e-23  5.3774e-23  2.4192e-23  5.3996e-23  2.4230e-23  5.4391e-23  2.4297e-23  5.5094e-23  2.4417e-23  5.6338e-23  2.4627e-23  5.8561e-23  2.5008e-23  6.2500e-23  2.5682e-23  6.9482e-23  2.6882e-23  8.1836e-23  2.9024e-23  1.0363e-22  3.2855e-23  1.4194e-22  3.9728e-23  2.0911e-22  5.2128e-23  3.2822e-22  7.4635e-23  5.4368e-22  1.1590e-22  9.3483e-22  1.9323e-22
      2.90  5.0163e-23  2.7082e-23  5.0185e-23  2.7086e-23  5.0223e-23  2.7093e-23  5.0292e-23  2.7106e-23  5.0414e-23  2.7130e-23  5.0632e-23  2.7171e-23  5.1018e-23  2.7245e-23  5.1704e-23  2.7376e-23  5.2925e-23  2.7610e-23  5.5092e-23  2.8026e-23  5.8940e-23  2.8767e-23  6.5763e-23  3.0086e-23  7.7837e-23  3.2441e-23  9.9137e-23  3.6652e-23  1.3660e-22  4.4210e-23  2.0229e-22  5.7850e-23  3.1875e-22  8.2612e-23  5.2976e-22  1.2803e-22  9.1331e-22  2.1319e-22
      2.95  4.6997e-23  3.0372e-23  4.7018e-23  3.0377e-23  4.7056e-23  3.0385e-23  4.7123e-23  3.0399e-23  4.7242e-23  3.0424e-23  4.7454e-23  3.0470e-23  4.7831e-23  3.0550e-23  4.8500e-23  3.0692e-23  4.9690e-23  3.0946e-23  5.1805e-23  3.1398e-23  5.5558e-23  3.2202e-23  6.2214e-23  3.3634e-23  7.3993e-23  3.6190e-23  9.4779e-23  4.0763e-23  1.3134e-22  4.8973e-23  1.9548e-22  6.3796e-23  3.0918e-22  9.0714e-23  5.1553e-22  1.4011e-22  8.9107e-22  2.3283e-22
      3.00  4.4009e-23  3.4064e-23  4.4030e-23  3.4069e-23  4.4067e-23  3.4078e-23  4.4132e-23  3.4093e-23  4.4248e-23  3.4120e-23  4.4454e-23  3.4168e-23  4.4821e-23  3.4254e-23  4.5444e-23  3.4405e-23  4.6631e-23  3.4679e-23  4.8690e-23  3.5164e-23  5.2344e-23  3.6026e-23  5.8825e-23  3.7562e-23  7.0296e-23  4.0303e-23  9.0543e-23  4.5208e-23  1.2617e-22  5.4018e-23  1.8869e-22  6.9932e-23  2.9952e-22  9.8845e-23  5.0095e-22  1.5194e-22  8.6805e-22  2.5175e-22
      3.05  4.1193e-23  3.8206e-23  4.1213e-23  3.8212e-23  4.1249e-23  3.8221e-23  4.1312e-23  3.8237e-23  4.1425e-23  3.8266e-23  4.1625e-23  3.8317e-23  4.1981e-23  3.8408e-23  4.2615e-23  3.8570e-23  4.3740e-23  3.8858e-23  4.5740e-23  3.9371e-23  4.9291e-23  4.0284e-23  5.5589e-23  4.1912e-23  6.6738e-23  4.4817e-23  8.6423e-23  5.0016e-23  1.2107e-22  5.9357e-23  1.8190e-22  7.6241e-23  2.8981e-22  1.0693e-22  4.8603e-22  1.6335e-22  8.4434e-22  2.6957e-22
      3.10  3.8539e-23  4.2854e-23  3.8559e-23  4.2859e-23  3.8593e-23  4.2868e-23  3.8655e-23  4.2885e-23  3.8764e-23  4.2916e-23  3.8958e-23  4.2969e-23  3.9304e-23  4.3065e-23  3.9918e-23  4.3234e-23  4.1009e-23  4.3536e-23  4.2949e-23  4.4073e-23  4.6392e-23  4.5029e-23  5.2500e-23  4.6733e-23  6.3315e-23  4.9776e-23  8.2414e-23  5.5222e-23  1.1604e-22  6.5012e-23  1.7512e-22  8.2718e-23  2.7998e-22  1.1491e-22  4.7079e-22  1.7419e-22  8.1996e-22  2.8599e-22
      3.15  3.6041e-23  4.8068e-23  3.6060e-23  4.8073e-23  3.6093e-23  4.8083e-23  3.6152e-23  4.8101e-23  3.6258e-23  4.8132e-23  3.6446e-23  4.8187e-23  3.6761e-23  4.8283e-23  3.7375e-23  4.8462e-23  3.8431e-23  4.8774e-23  4.0308e-23  4.9330e-23  4.3640e-23  5.0320e-23  4.9552e-23  5.2085e-23  6.0021e-23  5.5236e-23  7.8515e-23  6.0877e-23  1.1109e-22  7.1022e-23  1.6834e-22  8.9382e-23  2.7012e-22  1.2278e-22  4.5532e-22  1.8437e-22  7.9503e-22  3.0079e-22
      3.20  3.3690e-23  5.3918e-23  3.3708e-23  5.3923e-23  3.3741e-23  5.3933e-23  3.3798e-23  5.3951e-23  3.3900e-23  5.3983e-23  3.4082e-23  5.4040e-23  3.4405e-23  5.4141e-23  3.4978e-23  5.4321e-23  3.5999e-23  5.4641e-23  3.7811e-23  5.5211e-23  4.1029e-23  5.6225e-23  4.6739e-23  5.8032e-23  5.6852e-23  6.1260e-23  7.4724e-23  6.7041e-23  1.0621e-22  7.7441e-23  1.6160e-22  9.6275e-23  2.6021e-22  1.3056e-22  4.3963e-22  1.9387e-22  7.6948e-22  3.1383e-22
      3.25  3.1480e-23  6.0481e-23  3.1498e-23  6.0487e-23  3.1529e-23  6.0497e-23  3.1584e-23  6.0515e-23  3.1682e-23  6.0547e-23  3.1857e-23  6.0605e-23  3.2169e-23  6.0708e-23  3.2722e-23  6.0890e-23  3.3705e-23  6.1214e-23  3.5452e-23  6.1792e-23  3.8554e-23  6.2820e-23  4.4058e-23  6.4653e-23  5.3809e-23  6.7926e-23  7.1044e-23  7.3789e-23  1.0142e-22  8.4340e-23  1.5489e-22  1.0346e-22  2.5037e-22  1.3828e-22  4.2378e-22  2.0271e-22  7.4344e-22  3.2507e-22
      3.30  2.9404e-23  6.7845e-23  2.9421e-23  6.7851e-23  2.9451e-23  6.7861e-23  2.9504e-23  6.7879e-23  2.9599e-23  6.7912e-23  2.9767e-23  6.7970e-23  3.0066e-23  6.8072e-23  3.0599e-23  6.8256e-23  3.1544e-23  6.8581e-23  3.3225e-23  6.9161e-23  3.6210e-23  7.0194e-23  4.1507e-23  7.2034e-23  5.0891e-23  7.5322e-23  6.7482e-23  8.1212e-23  9.6742e-23  9.1814e-23  1.4828e-22  1.1104e-22  2.4055e-22  1.4606e-22  4.0787e-22  2.1100e-22  7.1711e-22  3.3460e-22
      3.35  2.7454e-23  7.6107e-23  2.7470e-23  7.6112e-23  2.7499e-23  7.6123e-23  2.7550e-23  7.6141e-23  2.7641e-23  7.6173e-23  2.7803e-23  7.6231e-23  2.8091e-23  7.6333e-23  2.8602e-23  7.6516e-23  2.9511e-23  7.6840e-23  3.1126e-23  7.7417e-23  3.3994e-23  7.8445e-23  3.9083e-23  8.0278e-23  4.8101e-23  8.3551e-23  6.4047e-23  8.9416e-23  9.2183e-23  9.9977e-23  1.4181e-22  1.1913e-22  2.3081e-22  1.5405e-22  3.9204e-22  2.1891e-22  6.9071e-22  3.4266e-22
      3.40  2.5625e-23  8.5376e-23  2.5640e-23  8.5382e-23  2.5668e-23  8.5392e-23  2.5717e-23  8.5410e-23  2.5804e-23  8.5442e-23  2.5960e-23  8.5499e-23  2.6236e-23  8.5600e-23  2.6726e-23  8.5780e-23  2.7599e-23  8.6101e-23  2.9148e-23  8.6671e-23  3.1901e-23  8.7687e-23  3.6785e-23  8.9497e-23  4.5440e-23  9.2732e-23  6.0748e-23  9.8527e-23  8.7767e-23  1.0896e-22  1.3550e-22  1.2790e-22  2.2122e-22  1.6244e-22  3.7642e-22  2.2671e-22  6.6455e-22  3.4958e-22
      3.45  2.3909e-23  9.5772e-23  2.3924e-23  9.5782e-23  2.3951e-23  9.5792e-23  2.3998e-23  9.5809e-23  2.4082e-23  9.5841e-23  2.4231e-23  9.5897e-23  2.4495e-23  9.5996e-23  2.4966e-23  9.6173e-23  2.5802e-23  9.6488e-23  2.7288e-23  9.7047e-23  2.9927e-23  9.8045e-23  3.4610e-23  9.9822e-23  4.2909e-23  1.0300e-22  5.7591e-23  1.0869e-22  8.3512e-23  1.1894e-22  1.2938e-22  1.3753e-22  2.1187e-22  1.7147e-22  3.6114e-22  2.3473e-22  6.3889e-22  3.5587e-22
      3.50  2.2302e-23  1.0744e-22  2.2316e-23  1.0745e-22  2.2341e-23  1.0746e-22  2.2387e-23  1.0748e-22  2.2467e-23  1.0751e-22  2.2610e-23  1.0756e-22  2.2863e-23  1.0766e-22  2.3314e-23  1.0783e-22  2.4115e-23  1.0814e-22  2.5539e-23  1.0869e-22  2.8069e-23  1.0966e-22  3.2557e-23  1.1140e-22  4.0511e-23  1.1450e-22  5.4583e-23  1.2006e-22  7.9436e-23  1.3007e-22  1.2348e-22  1.4823e-22  2.0280e-22  1.8141e-22  3.4640e-22  2.4332e-22  6.1386e-22  3.6210e-22
      3.55  2.0796e-23  1.2054e-22  2.0810e-23  1.2054e-22  2.0834e-23  1.2055e-22  2.0878e-23  1.2057e-22  2.0954e-23  1.2060e-22  2.1091e-23  1.2065e-22  2.1334e-23  1.2075e-22  2.1766e-23  1.2091e-22  2.2534e-23  1.2121e-22  2.3899e-23  1.2175e-22  2.6322e-23  1.2269e-22  3.0623e-23  1.2439e-22  3.8245e-23  1.2740e-22  5.1732e-23  1.3282e-22  7.5556e-23  1.4256e-22  1.1784e-22  1.6023e-22  1.9407e-22  1.9255e-22  3.3232e-22  2.5289e-22  5.8961e-22  3.6888e-22
      3.60  1.9387e-23  1.3523e-22  1.9400e-23  1.3523e-22  1.9423e-23  1.3524e-22  1.9465e-23  1.3526e-22  1.9539e-23  1.3529e-22  1.9670e-23  1.3534e-22  1.9903e-23  1.3543e-22  2.0317e-23  1.3559e-22  2.1053e-23  1.3588e-22  2.2360e-23  1.3640e-22  2.4683e-23  1.3732e-22  2.8806e-23  1.3897e-22  3.6112e-23  1.4190e-22  4.9041e-23  1.4715e-22  7.1885e-23  1.5662e-22  1.1248e-22  1.7378e-22  1.8572e-22  2.0518e-22  3.1883e-22  2.6385e-22  5.6657e-22  3.7680e-22
      3.65  1.8069e-23  1.5171e-22  1.8081e-23  1.5171e-22  1.8104e-23  1.5172e-22  1.8143e-23  1.5174e-22  1.8214e-23  1.5177e-22  1.8340e-23  1.5182e-22  1.8563e-23  1.5191e-22  1.8960e-23  1.5206e-22  1.9666e-23  1.5235e-22  2.0920e-23  1.5285e-22  2.3148e-23  1.5374e-22  2.7102e-23  1.5534e-22  3.4110e-23  1.5819e-22  4.6513e-23  1.6329e-22  6.8433e-23  1.7247e-22  1.0743e-22  1.8913e-22  1.7783e-22  2.1962e-22  3.0600e-22  2.7661e-22  5.4496e-22  3.8644e-22
      3.70  1.6836e-23  1.7020e-22  1.6848e-23  1.7020e-22  1.6869e-23  1.7021e-22  1.6908e-23  1.7023e-22  1.6975e-23  1.7026e-22  1.7096e-23  1.7030e-22  1.7311e-23  1.7039e-22  1.7692e-23  1.7055e-22  1.8369e-23  1.7082e-22  1.9573e-23  1.7131e-22  2.1712e-23  1.7218e-22  2.5508e-23  1.7373e-22  3.2237e-23  1.7649e-22  4.4147e-23  1.8145e-22  6.5201e-23  1.9037e-22  1.0269e-22  2.0655e-22  1.7040e-22  2.3617e-22  2.9388e-22  2.9156e-22  5.2451e-22  3.9838e-22
      3.75  1.5684e-23  1.9095e-22  1.5696e-23  1.9095e-22  1.5716e-23  1.9096e-22  1.5753e-23  1.9097e-22  1.5818e-23  1.9100e-22  1.5934e-23  1.9105e-22  1.6140e-23  1.9113e-22  1.6506e-23  1.9128e-22  1.7158e-23  1.9155e-22  1.8315e-23  1.9203e-22  2.0370e-23  1.9287e-22  2.4018e-23  1.9438e-22  3.0486e-23  1.9707e-22  4.1936e-23  2.0190e-22  6.2184e-23  2.1058e-22  9.8265e-23  2.2632e-22  1.6344e-22  2.5516e-22  2.8250e-22  3.0909e-22  5.0524e-22  4.1315e-22
      3.80  1.4608e-23  2.1423e-22  1.4619e-23  2.1423e-22  1.4639e-23  2.1424e-22  1.4675e-23  2.1425e-22  1.4737e-23  2.1428e-22  1.4849e-23  2.1433e-22  1.5047e-23  2.1441e-22  1.5399e-23  2.1455e-22  1.6026e-23  2.1482e-22  1.7139e-23  2.1528e-22  1.9116e-23  2.1611e-22  2.2626e-23  2.1758e-22  2.8850e-23  2.2021e-22  3.9872e-23  2.2492e-22  5.9369e-23  2.3340e-22  9.4129e-23  2.4876e-22  1.5694e-22  2.7692e-22  2.7183e-22  3.2959e-22  4.8713e-22  4.3123e-22
      3.85  1.3604e-23  2.4035e-22  1.3615e-23  2.4035e-22  1.3634e-23  2.4036e-22  1.3668e-23  2.4037e-22  1.3728e-23  2.4040e-22  1.3836e-23  2.4044e-22  1.4026e-23  2.4052e-22  1.4366e-23  2.4067e-22  1.4969e-23  2.4092e-22  1.6041e-23  2.4138e-22  1.7945e-23  2.4219e-22  2.1326e-23  2.4364e-22  2.7321e-23  2.4622e-22  3.7941e-23  2.5084e-22  5.6735e-23  2.5915e-22  9.0252e-23  2.7421e-22  1.5084e-22  3.0182e-22  2.6179e-22  3.5346e-22  4.7006e-22  4.5312e-22
      3.90  1.2667e-23  2.6965e-22  1.2677e-23  2.6966e-22  1.2696e-23  2.6966e-22  1.2729e-23  2.6968e-22  1.2787e-23  2.6970e-22  1.2890e-23  2.6975e-22  1.3074e-23  2.6983e-22  1.3401e-23  2.6997e-22  1.3982e-23  2.7022e-22  1.5015e-23  2.7067e-22  1.6849e-23  2.7147e-22  2.0107e-23  2.7290e-22  2.5886e-23  2.7544e-22  3.6126e-23  2.8000e-22  5.4255e-23  2.8820e-22  8.6592e-23  3.0305e-22  1.4506e-22  3.3026e-22  2.5228e-22  3.8115e-22  4.5383e-22  4.7934e-22
      3.95  1.1793e-23  3.0253e-22  1.1803e-23  3.0254e-22  1.1821e-23  3.0254e-22  1.1853e-23  3.0256e-22  1.1909e-23  3.0258e-22  1.2008e-23  3.0263e-22  1.2185e-23  3.0271e-22  1.2500e-23  3.0285e-22  1.3060e-23  3.0310e-22  1.4055e-23  3.0354e-22  1.5823e-23  3.0434e-22  1.8963e-23  3.0575e-22  2.4534e-23  3.0828e-22  3.4409e-23  3.1280e-22  5.1901e-23  3.2092e-22  8.3103e-23  3.3564e-22  1.3954e-22  3.6260e-22  2.4315e-22  4.1299e-22  4.3822e-22  5.1018e-22
