# This was generated using Cloudy10 and the columns are ordered 
# as log10 of the fraction of the metallicity to the solar metallicity
# 'h_*_Z' and 'c_*_Z' stands for cooling and heating respectively 
# at * metalicity
#
# NOTE: This was generated separately from loop_coolingcurve_w_UV.py
#       using Output_metals_w_redshift.py.
#
# Redshift = 2.0
# hden = -4.5
#
#     temp   h_-3.00_Z   c_-3.00_Z   h_-2.75_Z   c_-2.75_Z   h_-2.50_Z   c_-2.50_Z   h_-2.25_Z   c_-2.25_Z   h_-2.00_Z   c_-2.00_Z   h_-1.75_Z   c_-1.75_Z   h_-1.50_Z   c_-1.50_Z   h_-1.25_Z   c_-1.25_Z   h_-1.00_Z   c_-1.00_Z   h_-0.75_Z   c_-0.75_Z   h_-0.50_Z   c_-0.50_Z   h_-0.25_Z   c_-0.25_Z    h_0.00_Z    c_0.00_Z    h_0.25_Z    c_0.25_Z    h_0.50_Z    c_0.50_Z    h_0.75_Z    c_0.75_Z    h_1.00_Z    c_1.00_Z    h_1.25_Z    c_1.25_Z    h_1.50_Z    c_1.50_Z 
      1.00  5.2048e-22  6.8828e-26  5.2053e-22  6.8829e-26  5.2060e-22  6.8830e-26  5.2074e-22  6.8832e-26  5.2098e-22  6.8836e-26  5.2142e-22  6.8843e-26  5.2219e-22  6.8856e-26  5.2355e-22  6.8878e-26  5.2598e-22  6.8918e-26  5.3028e-22  6.8988e-26  5.3789e-22  6.9113e-26  5.5134e-22  6.9335e-26  5.7504e-22  6.9730e-26  6.1708e-22  7.0433e-26  6.9209e-22  7.1687e-26  8.2594e-22  7.3926e-26  1.0656e-21  7.7938e-26  1.4967e-21  8.5168e-26  2.2792e-21  9.8322e-26
      1.05  4.9175e-22  7.3289e-26  4.9179e-22  7.3289e-26  4.9187e-22  7.3291e-26  4.9200e-22  7.3293e-26  4.9223e-22  7.3297e-26  4.9265e-22  7.3305e-26  4.9340e-22  7.3319e-26  4.9472e-22  7.3343e-26  4.9707e-22  7.3386e-26  5.0123e-22  7.3462e-26  5.0860e-22  7.3598e-26  5.2162e-22  7.3841e-26  5.4456e-22  7.4271e-26  5.8521e-22  7.5038e-26  6.5780e-22  7.6404e-26  7.8730e-22  7.8845e-26  1.0192e-21  8.3222e-26  1.4362e-21  9.1117e-26  2.1932e-21  1.0550e-25
      1.10  4.6439e-22  7.7869e-26  4.6443e-22  7.7870e-26  4.6451e-22  7.7872e-26  4.6463e-22  7.7874e-26  4.6486e-22  7.7879e-26  4.6527e-22  7.7887e-26  4.6599e-22  7.7902e-26  4.6728e-22  7.7929e-26  4.6956e-22  7.7976e-26  4.7360e-22  7.8059e-26  4.8075e-22  7.8207e-26  4.9338e-22  7.8472e-26  5.1563e-22  7.8941e-26  5.5505e-22  7.9778e-26  6.2547e-22  8.1269e-26  7.5108e-22  8.3935e-26  9.7595e-22  8.8717e-26  1.3805e-21  9.7352e-26  2.1147e-21  1.1312e-25
      1.15  4.3836e-22  8.2582e-26  4.3840e-22  8.2583e-26  4.3847e-22  8.2585e-26  4.3859e-22  8.2588e-26  4.3882e-22  8.2593e-26  4.3921e-22  8.2602e-26  4.3991e-22  8.2618e-26  4.4116e-22  8.2647e-26  4.4338e-22  8.2699e-26  4.4731e-22  8.2791e-26  4.5426e-22  8.2954e-26  4.6654e-22  8.3244e-26  4.8817e-22  8.3761e-26  5.2646e-22  8.4682e-26  5.9491e-22  8.6323e-26  7.1700e-22  8.9259e-26  9.3550e-22  9.4531e-26  1.3286e-21  1.0407e-25  2.0422e-21  1.2154e-25
      1.20  4.1359e-22  8.7438e-26  4.1363e-22  8.7439e-26  4.1370e-22  8.7441e-26  4.1382e-22  8.7444e-26  4.1404e-22  8.7450e-26  4.1442e-22  8.7460e-26  4.1511e-22  8.7478e-26  4.1633e-22  8.7511e-26  4.1848e-22  8.7569e-26  4.2231e-22  8.7672e-26  4.2909e-22  8.7855e-26  4.4104e-22  8.8182e-26  4.6209e-22  8.8763e-26  4.9937e-22  8.9797e-26  5.6601e-22  9.1644e-26  6.8489e-22  9.4950e-26  8.9758e-22  1.0090e-25  1.2803e-21  1.1169e-25  1.9750e-21  1.3156e-25
      1.25  3.9005e-22  9.2448e-26  3.9008e-22  9.2449e-26  3.9015e-22  9.2451e-26  3.9027e-22  9.2455e-26  3.9048e-22  9.2462e-26  3.9085e-22  9.2474e-26  3.9151e-22  9.2495e-26  3.9269e-22  9.2533e-26  3.9478e-22  9.2601e-26  3.9848e-22  9.2723e-26  4.0503e-22  9.2938e-26  4.1659e-22  9.3321e-26  4.3694e-22  9.4004e-26  4.7298e-22  9.5221e-26  5.3738e-22  9.7395e-26  6.5231e-22  1.0129e-25  8.5790e-22  1.0833e-25  1.2279e-21  1.2116e-25  1.8998e-21  1.4500e-25
      1.30  3.6767e-22  9.7633e-26  3.6771e-22  9.7635e-26  3.6777e-22  9.7637e-26  3.6789e-22  9.7642e-26  3.6809e-22  9.7651e-26  3.6845e-22  9.7666e-26  3.6909e-22  9.7692e-26  3.7023e-22  9.7740e-26  3.7225e-22  9.7824e-26  3.7584e-22  9.7974e-26  3.8217e-22  9.8241e-26  3.9336e-22  9.8716e-26  4.1304e-22  9.9562e-26  4.4793e-22  1.0107e-25  5.1021e-22  1.0377e-25  6.2142e-22  1.0863e-25  8.2032e-22  1.1743e-25  1.1783e-21  1.3362e-25  1.8287e-21  1.6408e-25
      1.35  3.4642e-22  1.0300e-25  3.4646e-22  1.0300e-25  3.4652e-22  1.0300e-25  3.4663e-22  1.0301e-25  3.4683e-22  1.0302e-25  3.4718e-22  1.0304e-25  3.4780e-22  1.0307e-25  3.4890e-22  1.0314e-25  3.5086e-22  1.0325e-25  3.5434e-22  1.0344e-25  3.6048e-22  1.0379e-25  3.7132e-22  1.0442e-25  3.9039e-22  1.0553e-25  4.2423e-22  1.0751e-25  4.8456e-22  1.1107e-25  5.9234e-22  1.1749e-25  7.8510e-22  1.2919e-25  1.1321e-21  1.5089e-25  1.7626e-21  1.9238e-25
      1.40  3.2625e-22  1.0855e-25  3.2629e-22  1.0855e-25  3.2635e-22  1.0856e-25  3.2645e-22  1.0856e-25  3.2664e-22  1.0858e-25  3.2698e-22  1.0861e-25  3.2759e-22  1.0865e-25  3.2866e-22  1.0874e-25  3.3056e-22  1.0889e-25  3.3393e-22  1.0916e-25  3.3990e-22  1.0964e-25  3.5042e-22  1.1050e-25  3.6893e-22  1.1203e-25  4.0179e-22  1.1477e-25  4.6031e-22  1.1968e-25  5.6492e-22  1.2857e-25  7.5202e-22  1.4485e-25  1.0889e-21  1.7535e-25  1.7011e-21  2.3457e-25
      1.45  3.0711e-22  1.1430e-25  3.0715e-22  1.1430e-25  3.0721e-22  1.1431e-25  3.0731e-22  1.1432e-25  3.0749e-22  1.1434e-25  3.0782e-22  1.1438e-25  3.0841e-22  1.1445e-25  3.0945e-22  1.1457e-25  3.1129e-22  1.1478e-25  3.1456e-22  1.1516e-25  3.2034e-22  1.1584e-25  3.3054e-22  1.1705e-25  3.4849e-22  1.1920e-25  3.8035e-22  1.2306e-25  4.3705e-22  1.3001e-25  5.3843e-22  1.4260e-25  7.1981e-22  1.6581e-25  1.0464e-21  2.0964e-25  1.6402e-21  2.9589e-25
      1.50  2.8897e-22  1.2026e-25  2.8900e-22  1.2026e-25  2.8906e-22  1.2027e-25  2.8916e-22  1.2029e-25  2.8934e-22  1.2032e-25  2.8966e-22  1.2037e-25  2.9022e-22  1.2047e-25  2.9123e-22  1.2064e-25  2.9302e-22  1.2094e-25  2.9620e-22  1.2148e-25  3.0181e-22  1.2243e-25  3.1170e-22  1.2414e-25  3.2913e-22  1.2718e-25  3.6007e-22  1.3264e-25  4.1506e-22  1.4247e-25  5.1345e-22  1.6036e-25  6.8954e-22  1.9344e-25  1.0066e-21  2.5637e-25  1.5834e-21  3.8160e-25
      1.55  2.7177e-22  1.2646e-25  2.7180e-22  1.2647e-25  2.7186e-22  1.2648e-25  2.7196e-22  1.2650e-25  2.7213e-22  1.2655e-25  2.7244e-22  1.2662e-25  2.7299e-22  1.2675e-25  2.7397e-22  1.2699e-25  2.7572e-22  1.2741e-25  2.7880e-22  1.2816e-25  2.8425e-22  1.2949e-25  2.9386e-22  1.3186e-25  3.1081e-22  1.3611e-25  3.4088e-22  1.4373e-25  3.9433e-22  1.5747e-25  4.8991e-22  1.8251e-25  6.6108e-22  2.2899e-25  9.6932e-22  3.1793e-25  1.5304e-21  4.9650e-25
      1.60  2.5549e-22  1.3289e-25  2.5552e-22  1.3290e-25  2.5557e-22  1.3292e-25  2.5567e-22  1.3295e-25  2.5584e-22  1.3301e-25  2.5614e-22  1.3311e-25  2.5667e-22  1.3329e-25  2.5763e-22  1.3361e-25  2.5932e-22  1.3419e-25  2.6232e-22  1.3520e-25  2.6762e-22  1.3702e-25  2.7696e-22  1.4026e-25  2.9344e-22  1.4605e-25  3.2268e-22  1.5645e-25  3.7462e-22  1.7522e-25  4.6752e-22  2.0950e-25  6.3396e-22  2.7330e-25  9.3377e-22  3.9597e-25  1.4797e-21  6.4409e-25
      1.65  2.4007e-22  1.3957e-25  2.4010e-22  1.3958e-25  2.4015e-22  1.3960e-25  2.4024e-22  1.3965e-25  2.4041e-22  1.3972e-25  2.4070e-22  1.3986e-25  2.4123e-22  1.4010e-25  2.4215e-22  1.4053e-25  2.4380e-22  1.4129e-25  2.4672e-22  1.4264e-25  2.5187e-22  1.4505e-25  2.6096e-22  1.4936e-25  2.7699e-22  1.5706e-25  3.0545e-22  1.7088e-25  3.5597e-22  1.9587e-25  4.4633e-22  2.4156e-25  6.0830e-22  3.2680e-25  9.0016e-22  4.9134e-25  1.4318e-21  8.2617e-25
      1.70  2.2549e-22  1.4650e-25  2.2551e-22  1.4651e-25  2.2557e-22  1.4654e-25  2.2566e-22  1.4660e-25  2.2582e-22  1.4670e-25  2.2610e-22  1.4687e-25  2.2661e-22  1.4718e-25  2.2751e-22  1.4774e-25  2.2912e-22  1.4872e-25  2.3195e-22  1.5047e-25  2.3697e-22  1.5359e-25  2.4582e-22  1.5917e-25  2.6143e-22  1.6914e-25  2.8914e-22  1.8705e-25  3.3831e-22  2.1946e-25  4.2625e-22  2.7876e-25  5.8395e-22  3.8963e-25  8.6826e-22  6.0429e-25  1.3863e-21  1.0433e-24
      1.75  2.1170e-22  1.5369e-25  2.1173e-22  1.5371e-25  2.1177e-22  1.5375e-25  2.1186e-22  1.5382e-25  2.1202e-22  1.5394e-25  2.1230e-22  1.5417e-25  2.1279e-22  1.5456e-25  2.1367e-22  1.5526e-25  2.1523e-22  1.5650e-25  2.1799e-22  1.5872e-25  2.2288e-22  1.6268e-25  2.3149e-22  1.6974e-25  2.4669e-22  1.8238e-25  2.7367e-22  2.0509e-25  3.2154e-22  2.4620e-25  4.0715e-22  3.2148e-25  5.6072e-22  4.6242e-25  8.3773e-22  7.3589e-25  1.3427e-21  1.2971e-24
      1.80  1.9867e-22  1.6119e-25  1.9870e-22  1.6122e-25  1.9874e-22  1.6127e-25  1.9883e-22  1.6136e-25  1.9898e-22  1.6151e-25  1.9925e-22  1.6179e-25  1.9974e-22  1.6228e-25  2.0059e-22  1.6316e-25  2.0211e-22  1.6472e-25  2.0480e-22  1.6749e-25  2.0955e-22  1.7244e-25  2.1793e-22  1.8128e-25  2.3274e-22  1.9710e-25  2.5901e-22  2.2552e-25  3.0560e-22  2.7698e-25  3.8895e-22  3.7125e-25  5.3851e-22  5.4783e-25  8.0840e-22  8.9079e-25  1.3007e-21  1.5956e-24
      1.85  1.8636e-22  1.6899e-25  1.8639e-22  1.6902e-25  1.8644e-22  1.6909e-25  1.8652e-22  1.6920e-25  1.8667e-22  1.6939e-25  1.8693e-22  1.6974e-25  1.8740e-22  1.7035e-25  1.8824e-22  1.7145e-25  1.8971e-22  1.7340e-25  1.9233e-22  1.7688e-25  1.9696e-22  1.8307e-25  2.0511e-22  1.9414e-25  2.1953e-22  2.1394e-25  2.4510e-22  2.4951e-25  2.9045e-22  3.1393e-25  3.7158e-22  4.3188e-25  5.1718e-22  6.5271e-25  7.8007e-22  1.0812e-24  1.2600e-21  1.9607e-24
      1.90  1.7475e-22  1.7709e-25  1.7478e-22  1.7713e-25  1.7482e-22  1.7721e-25  1.7490e-22  1.7735e-25  1.7505e-22  1.7760e-25  1.7531e-22  1.7804e-25  1.7576e-22  1.7882e-25  1.7657e-22  1.8022e-25  1.7801e-22  1.8270e-25  1.8056e-22  1.8712e-25  1.8506e-22  1.9500e-25  1.9299e-22  2.0907e-25  2.0702e-22  2.3424e-25  2.3190e-22  2.7944e-25  2.7603e-22  3.6124e-25  3.5499e-22  5.1087e-25  4.9670e-22  7.9049e-25  7.5272e-22  1.3314e-24  1.2205e-21  2.4366e-24
      1.95  1.6380e-22  1.8551e-25  1.6382e-22  1.8556e-25  1.6386e-22  1.8567e-25  1.6394e-22  1.8585e-25  1.6408e-22  1.8617e-25  1.6433e-22  1.8675e-25  1.6478e-22  1.8777e-25  1.6557e-22  1.8959e-25  1.6697e-22  1.9283e-25  1.6944e-22  1.9861e-25  1.7382e-22  2.0890e-25  1.8154e-22  2.2728e-25  1.9520e-22  2.6013e-25  2.1941e-22  3.1909e-25  2.6236e-22  4.2568e-25  3.3918e-22  6.2034e-25  4.7712e-22  9.8298e-25  7.2643e-22  1.6811e-24  1.1823e-21  3.0961e-24
      2.00  1.5347e-22  1.9426e-25  1.5349e-22  1.9434e-25  1.5353e-22  1.9447e-25  1.5361e-22  1.9472e-25  1.5375e-22  1.9515e-25  1.5392e-22  1.9591e-25  1.5442e-22  1.9731e-25  1.5519e-22  1.9976e-25  1.5655e-22  2.0412e-25  1.5896e-22  2.1189e-25  1.6323e-22  2.2573e-25  1.7074e-22  2.5045e-25  1.8404e-22  2.9460e-25  2.0761e-22  3.7378e-25  2.4944e-22  5.1673e-25  3.2422e-22  7.7730e-25  4.5854e-22  1.2610e-24  7.0144e-22  2.1864e-24  1.1460e-21  4.0442e-24
      2.05  1.4373e-22  2.0342e-25  1.4376e-22  2.0353e-25  1.4380e-22  2.0372e-25  1.4381e-22  2.0404e-25  1.4401e-22  2.0465e-25  1.4424e-22  2.0572e-25  1.4467e-22  2.0762e-25  1.4541e-22  2.1099e-25  1.4674e-22  2.1700e-25  1.4909e-22  2.2769e-25  1.5325e-22  2.4674e-25  1.6057e-22  2.8074e-25  1.7353e-22  3.4146e-25  1.9650e-22  4.5027e-25  2.3728e-22  6.4645e-25  3.1018e-22  1.0034e-24  4.4114e-22  1.6636e-24  6.7808e-22  2.9194e-24  1.1121e-21  5.4156e-24
      2.10  1.3456e-22  2.1296e-25  1.3459e-22  2.1311e-25  1.3463e-22  2.1337e-25  1.3470e-22  2.1384e-25  1.3483e-22  2.1467e-25  1.3506e-22  2.1616e-25  1.3548e-22  2.1880e-25  1.3621e-22  2.2350e-25  1.3750e-22  2.3186e-25  1.3980e-22  2.4675e-25  1.4386e-22  2.7327e-25  1.5101e-22  3.2057e-25  1.6367e-22  4.0502e-25  1.8611e-22  5.5630e-25  2.2594e-22  8.2873e-25  2.9715e-22  1.3236e-24  4.2512e-22  2.2363e-24  6.5668e-22  3.9639e-24  1.0812e-21  7.3690e-24
      2.15  1.2593e-22  2.2289e-25  1.2596e-22  2.2310e-25  1.2600e-22  2.2346e-25  1.2607e-22  2.2412e-25  1.2620e-22  2.2528e-25  1.2642e-22  2.2735e-25  1.2683e-22  2.3102e-25  1.2754e-22  2.3756e-25  1.2881e-22  2.4920e-25  1.3106e-22  2.6992e-25  1.3504e-22  3.0683e-25  1.4204e-22  3.7264e-25  1.5444e-22  4.9013e-25  1.7641e-22  7.0047e-25  2.1543e-22  1.0790e-24  2.8518e-22  1.7657e-24  4.1055e-22  3.0297e-24  6.3748e-22  5.4132e-24  1.0539e-21  1.0081e-23
      2.20  1.1781e-22  2.3324e-25  1.1784e-22  2.3352e-25  1.1788e-22  2.3403e-25  1.1795e-22  2.3493e-25  1.1807e-22  2.3654e-25  1.1829e-22  2.3939e-25  1.1869e-22  2.4447e-25  1.1939e-22  2.5349e-25  1.2064e-22  2.6955e-25  1.2285e-22  2.9814e-25  1.2676e-22  3.4906e-25  1.3364e-22  4.3985e-25  1.4582e-22  6.0192e-25  1.6739e-22  8.9197e-25  2.0571e-22  1.4137e-24  2.7423e-22  2.3593e-24  3.9743e-22  4.0973e-24  6.2045e-22  7.3659e-24  1.0300e-21  1.3736e-23
      2.25  1.1018e-22  2.4403e-25  1.1020e-22  2.4442e-25  1.1024e-22  2.4511e-25  1.1031e-22  2.4634e-25  1.1043e-22  2.4852e-25  1.1065e-22  2.5240e-25  1.1104e-22  2.5931e-25  1.1173e-22  2.7159e-25  1.1296e-22  2.9345e-25  1.1514e-22  3.3235e-25  1.1898e-22  4.0163e-25  1.2577e-22  5.2516e-25  1.3776e-22  7.4564e-25  1.5899e-22  1.1402e-24  1.9673e-22  1.8495e-24  2.6422e-22  3.1345e-24  3.8558e-22  5.4937e-24  6.0532e-22  9.9226e-24  1.0091e-21  1.8525e-23
      2.30  1.0300e-22  2.5538e-25  1.0302e-22  2.5590e-25  1.0306e-22  2.5682e-25  1.0313e-22  2.5846e-25  1.0325e-22  2.6138e-25  1.0347e-22  2.6658e-25  1.0385e-22  2.7582e-25  1.0453e-22  2.9225e-25  1.0574e-22  3.2149e-25  1.0789e-22  3.7353e-25  1.1169e-22  4.6621e-25  1.1838e-22  6.3145e-25  1.3021e-22  9.2638e-25  1.5115e-22  1.4540e-24  1.8837e-22  2.4025e-24  2.5497e-22  4.1198e-24  3.7473e-22  7.2708e-24  5.9162e-22  1.3178e-23  9.9039e-22  2.4625e-23
      2.35  9.6256e-23  2.6722e-25  9.6277e-23  2.6790e-25  9.6315e-23  2.6911e-25  9.6383e-23  2.7127e-25  9.6503e-23  2.7510e-25  9.6716e-23  2.8192e-25  9.7095e-23  2.9405e-25  9.7769e-23  3.1563e-25  9.8964e-23  3.5402e-25  1.0108e-22  4.2235e-25  1.0483e-22  5.4404e-25  1.1144e-22  7.6099e-25  1.2312e-22  1.1482e-24  1.4379e-22  1.8410e-24  1.8052e-22  3.0859e-24  2.4629e-22  5.3393e-24  3.6454e-22  9.4721e-24  5.7882e-22  1.7213e-23  9.7282e-22  3.2189e-23
      2.40  8.9922e-23  2.7957e-25  8.9943e-23  2.8045e-25  8.9981e-23  2.8201e-25  9.0047e-23  2.8479e-25  9.0166e-23  2.8973e-25  9.0376e-23  2.9851e-25  9.0751e-23  3.1414e-25  9.1415e-23  3.4193e-25  9.2566e-23  3.9135e-25  9.4685e-23  4.7938e-25  9.8384e-23  6.3611e-25  1.0491e-22  9.1554e-25  1.1643e-22  1.4143e-24  1.3683e-22  2.3065e-24  1.7308e-22  3.9096e-24  2.3801e-22  6.8110e-24  3.5473e-22  1.2131e-23  5.6637e-22  2.2088e-23  9.5560e-22  4.1335e-23
      2.45  8.3977e-23  2.9246e-25  8.3998e-23  2.9357e-25  8.4035e-23  2.9555e-25  8.4100e-23  2.9906e-25  8.4217e-23  3.0530e-25  8.4424e-23  3.1640e-25  8.4793e-23  3.3615e-25  8.5448e-23  3.7127e-25  8.6610e-23  4.3376e-25  8.8671e-23  5.4498e-25  9.2318e-23  7.4307e-25  9.8756e-23  1.0962e-24  1.1011e-22  1.7266e-24  1.3022e-22  2.8542e-24  1.6596e-22  4.8802e-24  2.2998e-22  8.5465e-24  3.4508e-22  1.5268e-23  5.5390e-22  2.7846e-23  9.3803e-22  5.2145e-23
      2.50  7.8398e-23  3.0592e-25  7.8419e-23  3.0730e-25  7.8455e-23  3.0974e-25  7.8519e-23  3.1410e-25  7.8634e-23  3.2185e-25  7.8838e-23  3.3563e-25  7.9201e-23  3.6013e-25  7.9846e-23  4.0372e-25  8.0990e-23  4.8128e-25  8.3018e-23  6.1931e-25  8.6608e-23  8.6516e-25  9.2947e-23  1.3034e-24  1.0413e-22  2.0860e-24  1.2392e-22  3.4855e-24  1.5910e-22  6.0000e-24  2.2213e-22  1.0551e-23  3.3545e-22  1.8893e-23  5.4117e-22  3.4504e-23  9.1971e-22  6.4659e-23
      2.55  7.3166e-23  3.2009e-25  7.3186e-23  3.2177e-25  7.3222e-23  3.2476e-25  7.3285e-23  3.3008e-25  7.3398e-23  3.3953e-25  7.3598e-23  3.5634e-25  7.3955e-23  3.8623e-25  7.4588e-23  4.3940e-25  7.5711e-23  5.3401e-25  7.7704e-23  7.0241e-25  8.1211e-23  1.0023e-24  8.7461e-23  1.5370e-24  9.8443e-23  2.4917e-24  1.1789e-22  4.1991e-24  1.5246e-22  7.2670e-24  2.1441e-22  1.2819e-23  3.2577e-22  2.2999e-23  5.2809e-22  4.2052e-23  9.0048e-22  7.8863e-23
      2.60  6.8260e-23  3.3487e-25  6.8280e-23  3.3689e-25  6.8315e-23  3.4048e-25  6.8377e-23  3.4685e-25  6.8488e-23  3.5820e-25  6.8684e-23  3.7836e-25  6.9034e-23  4.1424e-25  6.9654e-23  4.7805e-25  7.0756e-23  5.9158e-25  7.2709e-23  7.9366e-25  7.6168e-23  1.1536e-24  8.2277e-23  1.7952e-24  9.3046e-23  2.9410e-24  1.1212e-22  4.9902e-24  1.4602e-22  8.6724e-24  2.0678e-22  1.5337e-23  3.1602e-22  2.7559e-23  5.1460e-22  5.0440e-23  8.8027e-22  9.4666e-23
      2.65  6.3663e-23  3.5028e-25  6.3682e-23  3.5266e-25  6.3717e-23  3.5689e-25  6.3778e-23  3.6443e-25  6.3886e-23  3.7782e-25  6.4078e-23  4.0164e-25  6.4420e-23  4.4401e-25  6.5027e-23  5.1938e-25  6.6105e-23  6.5348e-25  6.8016e-23  8.9216e-25  7.1401e-23  1.3172e-24  7.7380e-23  2.0751e-24  8.7918e-23  3.4286e-24  1.0660e-22  5.8492e-24  1.3977e-22  1.0199e-23  1.9925e-22  1.8074e-23  3.0620e-22  3.2517e-23  5.0073e-22  5.9566e-23  8.5913e-22  1.1188e-22
      2.70  5.9357e-23  3.6631e-25  5.9375e-23  3.6908e-25  5.9409e-23  3.7401e-25  5.9468e-23  3.8277e-25  5.9574e-23  3.9835e-25  5.9762e-23  4.2605e-25  6.0095e-23  4.7532e-25  6.0688e-23  5.6297e-25  6.1741e-23  7.1892e-25  6.3608e-23  9.9649e-25  6.6913e-23  1.4909e-24  7.2753e-23  2.3723e-24  8.3047e-23  3.9464e-24  1.0130e-22  6.7618e-24  1.3370e-22  1.1821e-23  1.9181e-22  2.0982e-23  2.9632e-22  3.7789e-23  4.8654e-22  6.9275e-23  8.3719e-22  1.3021e-22
      2.75  5.5324e-23  3.8300e-25  5.5342e-23  3.8617e-25  5.5375e-23  3.9182e-25  5.5432e-23  4.0185e-25  5.5535e-23  4.1969e-25  5.5718e-23  4.5142e-25  5.6044e-23  5.0785e-25  5.6622e-23  6.0824e-25  5.7648e-23  7.8684e-25  5.9467e-23  1.1047e-24  6.2690e-23  1.6710e-24  6.8383e-23  2.6805e-24  7.8419e-23  4.4835e-24  9.6221e-23  7.7082e-24  1.2782e-22  1.3504e-23  1.8449e-22  2.3999e-23  2.8644e-22  4.3259e-23  4.7210e-22  7.9353e-23  8.1456e-22  1.4925e-22
      2.80  5.1549e-23  4.0056e-25  5.1567e-23  4.0414e-25  5.1598e-23  4.1051e-25  5.1655e-23  4.2182e-25  5.1755e-23  4.4195e-25  5.1933e-23  4.7774e-25  5.2249e-23  5.4141e-25  5.2812e-23  6.5465e-25  5.3810e-23  8.5613e-25  5.5580e-23  1.2148e-24  5.8716e-23  1.8535e-24  6.4244e-23  2.9923e-24  7.4023e-23  5.0264e-24  9.1356e-23  8.6644e-24  1.2212e-22  1.5204e-23  1.7728e-22  2.7046e-23  2.7655e-22  4.8784e-23  4.5744e-22  8.9536e-23  7.9131e-22  1.6851e-22
      2.85  4.8016e-23  4.1880e-25  4.8034e-23  4.2278e-25  4.8064e-23  4.2985e-25  4.8119e-23  4.4243e-25  4.8216e-23  4.6479e-25  4.8389e-23  5.0457e-25  4.8697e-23  5.7531e-25  4.9243e-23  7.0115e-25  5.0203e-23  9.2502e-25  5.1932e-23  1.3236e-24  5.4977e-23  2.0333e-24  6.0358e-23  3.2989e-24  6.9845e-23  5.5592e-24  8.6690e-23  9.6020e-24  1.1658e-22  1.6869e-23  1.7018e-22  3.0032e-23  2.6666e-22  5.4199e-23  4.4261e-22  9.9519e-23  7.6750e-22  1.8740e-22
      2.90  4.4712e-23  4.3774e-25  4.4729e-23  4.4209e-25  4.4759e-23  4.4984e-25  4.4812e-23  4.6360e-25  4.4906e-23  4.8809e-25  4.5074e-23  5.3163e-25  4.5372e-23  6.0907e-25  4.5901e-23  7.4682e-25  4.6841e-23  9.9192e-25  4.8508e-23  1.4282e-24  5.1460e-23  2.2052e-24  5.6676e-23  3.5905e-24  6.5873e-23  6.0649e-24  8.2216e-23  1.0491e-23  1.1122e-22  1.8446e-23  1.6319e-22  3.2859e-23  2.5678e-22  5.9326e-23  4.2759e-22  1.0898e-22  7.4318e-22  2.0532e-22
      2.95  4.1622e-23  4.5741e-25  4.1638e-23  4.6211e-25  4.1667e-23  4.7046e-25  4.1719e-23  4.8531e-25  4.1810e-23  5.1172e-25  4.1972e-23  5.5868e-25  4.2261e-23  6.4221e-25  4.2773e-23  7.9080e-25  4.3682e-23  1.0552e-24  4.5296e-23  1.5257e-24  4.8152e-23  2.3638e-24  5.3200e-23  3.8581e-24  6.2100e-23  6.5269e-24  7.7927e-23  1.1301e-23  1.0602e-22  1.9883e-23  1.5633e-22  3.5433e-23  2.4697e-22  6.3992e-23  4.1249e-22  1.1759e-22  7.1850e-22  2.2166e-22
      3.00  3.8734e-23  4.7788e-25  3.8750e-23  4.8287e-25  3.8778e-23  4.9175e-25  3.8827e-23  5.0753e-25  3.8915e-23  5.3561e-25  3.9072e-23  5.8554e-25  3.9351e-23  6.7434e-25  3.9846e-23  8.3231e-25  4.0725e-23  1.1134e-24  4.2283e-23  1.6136e-24  4.5043e-23  2.5046e-24  4.9920e-23  4.0932e-24  5.8519e-23  6.9305e-24  7.3820e-23  1.2006e-23  1.0099e-22  2.1130e-23  1.4961e-22  3.7666e-23  2.3728e-22  6.8042e-23  3.9738e-22  1.2507e-22  6.9359e-22  2.3588e-22
      3.05  3.6035e-23  4.9955e-25  3.6050e-23  5.0478e-25  3.6077e-23  5.1409e-25  3.6125e-23  5.3064e-25  3.6210e-23  5.6007e-25  3.6362e-23  6.1242e-25  3.6631e-23  7.0552e-25  3.7108e-23  8.7114e-25  3.7956e-23  1.1658e-24  3.9460e-23  1.6903e-24  4.2123e-23  2.6243e-24  4.6827e-23  4.2898e-24  5.5125e-23  7.2642e-24  6.9895e-23  1.2585e-23  9.6145e-23  2.2152e-23  1.4306e-22  3.9493e-23  2.2773e-22  7.1354e-23  3.8238e-22  1.3120e-22  6.6868e-22  2.4757e-22
      3.10  3.3514e-23  5.2187e-25  3.3529e-23  5.2728e-25  3.3555e-23  5.3691e-25  3.3601e-23  5.5403e-25  3.3683e-23  5.8448e-25  3.3829e-23  6.3863e-25  3.4088e-23  7.3494e-25  3.4548e-23  9.0627e-25  3.5366e-23  1.2111e-24  3.6815e-23  1.7536e-24  3.9381e-23  2.7199e-24  4.3914e-23  4.4427e-24  5.1914e-23  7.5195e-24  6.6152e-23  1.3024e-23  9.1479e-23  2.2922e-23  1.3669e-22  4.0866e-23  2.1836e-22  7.3844e-23  3.6756e-22  1.3582e-22  6.4389e-22  2.5643e-22
      3.15  3.1160e-23  5.4540e-25  3.1174e-23  5.5093e-25  3.1199e-23  5.6076e-25  3.1244e-23  5.7825e-25  3.1323e-23  6.0936e-25  3.1463e-23  6.6467e-25  3.1713e-23  7.6306e-25  3.2156e-23  9.3806e-25  3.2943e-23  1.2494e-24  3.4338e-23  1.8036e-24  3.6809e-23  2.7907e-24  4.1174e-23  4.5505e-24  4.8878e-23  7.6932e-24  6.2590e-23  1.3317e-23  8.7003e-23  2.3428e-23  1.3055e-22  4.1765e-23  2.0923e-22  7.5473e-23  3.5301e-22  1.3886e-22  6.1942e-22  2.6232e-22
      3.20  2.8963e-23  5.7005e-25  2.8976e-23  5.7564e-25  2.9000e-23  5.8557e-25  2.9043e-23  6.0322e-25  2.9119e-23  6.3462e-25  2.9254e-23  6.9047e-25  2.9494e-23  7.8979e-25  2.9921e-23  9.6644e-25  3.0678e-23  1.2808e-24  3.2021e-23  1.8403e-24  3.4398e-23  2.8367e-24  3.8597e-23  4.6131e-24  4.6013e-23  7.7856e-24  5.9210e-23  1.3463e-23  8.2722e-23  2.3672e-23  1.2465e-22  4.2190e-23  2.0039e-22  7.6245e-23  3.3881e-22  1.4032e-22  5.9540e-22  2.6524e-22
      3.25  2.6912e-23  5.9568e-25  2.6925e-23  6.0126e-25  2.6948e-23  6.1117e-25  2.6989e-23  6.2880e-25  2.7062e-23  6.6016e-25  2.7192e-23  7.1592e-25  2.7423e-23  8.1509e-25  2.7834e-23  9.9151e-25  2.8562e-23  1.3054e-24  2.9854e-23  1.8640e-24  3.2140e-23  2.8589e-24  3.6179e-23  4.6328e-24  4.3314e-23  7.8004e-24  5.6010e-23  1.3470e-23  7.8641e-23  2.3666e-23  1.1899e-22  4.2165e-23  1.9187e-22  7.6197e-23  3.2508e-22  1.4027e-22  5.7204e-22  2.6532e-22
      3.30  2.4998e-23  6.2283e-25  2.5011e-23  6.2834e-25  2.5033e-23  6.3814e-25  2.5073e-23  6.5557e-25  2.5143e-23  6.8657e-25  2.5268e-23  7.4169e-25  2.5491e-23  8.3974e-25  2.5885e-23  1.0141e-24  2.6586e-23  1.3244e-24  2.7828e-23  1.8767e-24  3.0027e-23  2.8602e-24  3.3911e-23  4.6137e-24  4.0776e-23  7.7451e-24  5.2987e-23  1.3350e-23  7.4767e-23  2.3432e-23  1.1360e-22  4.1728e-23  1.8374e-22  7.5402e-23  3.1190e-22  1.3884e-22  5.4949e-22  2.6280e-22
      3.35  2.3214e-23  6.5108e-25  2.3226e-23  6.5648e-25  2.3248e-23  6.6608e-25  2.3286e-23  6.8315e-25  2.3353e-23  7.1352e-25  2.3474e-23  7.6752e-25  2.3688e-23  8.6357e-25  2.4067e-23  1.0344e-24  2.4741e-23  1.3384e-24  2.5937e-23  1.8794e-24  2.8052e-23  2.8429e-24  3.1788e-23  4.5607e-24  3.8393e-23  7.6282e-24  5.0141e-23  1.3120e-23  7.1104e-23  2.2999e-23  1.0847e-22  4.0933e-23  1.7600e-22  7.3952e-23  2.9936e-22  1.3621e-22  5.2800e-22  2.5799e-22
      3.40  2.1550e-23  6.8051e-25  2.1562e-23  6.8576e-25  2.1583e-23  6.9509e-25  2.1619e-23  7.1168e-25  2.1684e-23  7.4119e-25  2.1800e-23  7.9366e-25  2.2006e-23  8.8700e-25  2.2372e-23  1.0530e-24  2.3020e-23  1.3484e-24  2.4171e-23  1.8741e-24  2.6206e-23  2.8103e-24  2.9802e-23  4.4795e-24  3.6161e-23  7.4602e-24  4.7467e-23  1.2797e-23  6.7650e-23  2.2400e-23  1.0362e-22  3.9837e-23  1.6866e-22  7.1956e-23  2.8741e-22  1.3256e-22  5.0752e-22  2.5127e-22
      3.45  2.0000e-23  7.1120e-25  2.0011e-23  7.1627e-25  2.0031e-23  7.2527e-25  2.0066e-23  7.4127e-25  2.0129e-23  7.6974e-25  2.0240e-23  8.2037e-25  2.0438e-23  9.1041e-25  2.0791e-23  1.0706e-24  2.1415e-23  1.3555e-24  2.2523e-23  1.8627e-24  2.4484e-23  2.7659e-24  2.7946e-23  4.3762e-24  3.4071e-23  7.2519e-24  4.4959e-23  1.2402e-23  6.4402e-23  2.1670e-23  9.9053e-23  3.8503e-23  1.6171e-22  6.9527e-23  2.7609e-22  1.2812e-22  4.8807e-22  2.4302e-22
      3.50  1.8555e-23  7.4325e-25  1.8565e-23  7.4810e-25  1.8585e-23  7.5673e-25  1.8619e-23  7.7208e-25  1.8679e-23  7.9937e-25  1.8786e-23  8.4791e-25  1.8978e-23  9.3423e-25  1.9317e-23  1.0878e-24  1.9919e-23  1.3610e-24  2.0987e-23  1.8472e-24  2.2876e-23  2.7131e-24  2.6213e-23  4.2569e-24  3.2118e-23  7.0139e-24  4.2610e-23  1.1952e-23  6.1353e-23  2.0841e-23  9.4762e-23  3.6993e-23  1.5516e-22  6.6775e-23  2.6541e-22  1.2307e-22  4.6969e-22  2.3363e-22
      3.55  1.7209e-23  7.7748e-25  1.7219e-23  7.8211e-25  1.7238e-23  7.9033e-25  1.7270e-23  8.0497e-25  1.7329e-23  8.3099e-25  1.7432e-23  8.7727e-25  1.7617e-23  9.5958e-25  1.7944e-23  1.1060e-24  1.8525e-23  1.3665e-24  1.9555e-23  1.8301e-24  2.1377e-23  2.6557e-24  2.4596e-23  4.1278e-24  3.0293e-23  6.7568e-24  4.0413e-23  1.1466e-23  5.8497e-23  1.9946e-23  9.0734e-23  3.5361e-23  1.4900e-22  6.3802e-23  2.5535e-22  1.1762e-22  4.5239e-22  2.2346e-22
      3.60  1.5955e-23  8.1331e-25  1.5965e-23  8.1770e-25  1.5983e-23  8.2551e-25  1.6015e-23  8.3940e-25  1.6071e-23  8.6410e-25  1.6171e-23  9.0802e-25  1.6349e-23  9.8614e-25  1.6665e-23  1.1251e-24  1.7226e-23  1.3723e-24  1.8220e-23  1.8123e-24  1.9980e-23  2.5960e-24  2.3087e-23  3.9931e-24  2.8590e-23  6.4886e-24  3.8363e-23  1.0960e-23  5.5823e-23  1.9013e-23  8.6958e-23  3.3659e-23  1.4324e-22  6.0698e-23  2.4594e-22  1.1192e-22  4.3617e-22  2.1283e-22
      3.65  1.4788e-23  8.5090e-25  1.4798e-23  8.5505e-25  1.4815e-23  8.6244e-25  1.4846e-23  8.7557e-25  1.4900e-23  8.9892e-25  1.4997e-23  9.4045e-25  1.5169e-23  1.0143e-24  1.5474e-23  1.1457e-24  1.6016e-23  1.3794e-24  1.6977e-23  1.7955e-24  1.8677e-23  2.5364e-24  2.1681e-23  3.8575e-24  2.7001e-23  6.2173e-24  3.6450e-23  1.0446e-23  5.3322e-23  1.8065e-23  8.3421e-23  3.1930e-23  1.3786e-22  5.7543e-23  2.3717e-22  1.0612e-22  4.2109e-22  2.0200e-22
      3.70  1.3702e-23  8.9020e-25  1.3711e-23  8.9412e-25  1.3728e-23  9.0108e-25  1.3758e-23  9.1345e-25  1.3810e-23  9.3547e-25  1.3904e-23  9.7461e-25  1.4070e-23  1.0442e-24  1.4365e-23  1.1681e-24  1.4890e-23  1.3884e-24  1.5819e-23  1.7806e-24  1.7464e-23  2.4791e-24  2.0371e-23  3.7246e-24  2.5517e-23  5.9495e-24  3.4663e-23  9.9374e-24  5.0983e-23  1.7126e-23  8.0109e-23  3.0213e-23  1.3282e-22  5.4406e-23  2.2895e-22  1.0035e-22  4.0701e-22  1.9122e-22
      3.75  1.2691e-23  9.3159e-25  1.2700e-23  9.3528e-25  1.2716e-23  9.4182e-25  1.2745e-23  9.5347e-25  1.2796e-23  9.7417e-25  1.2887e-23  1.0110e-24  1.3048e-23  1.0765e-24  1.3333e-23  1.1930e-24  1.3840e-23  1.4003e-24  1.4741e-23  1.7692e-24  1.6334e-23  2.4263e-24  1.9149e-23  3.5981e-24  2.4133e-23  5.6916e-24  3.2992e-23  9.4448e-24  4.8794e-23  1.6213e-23  7.7004e-23  2.8542e-23  1.2809e-22  5.1350e-23  2.2124e-22  9.4727e-23  3.9382e-22  1.8069e-22
      3.80  1.1751e-23  9.7633e-25  1.1760e-23  9.7979e-25  1.1776e-23  9.8595e-25  1.1803e-23  9.9689e-25  1.1853e-23  1.0163e-24  1.1941e-23  1.0509e-24  1.2096e-23  1.1125e-24  1.2373e-23  1.2220e-24  1.2864e-23  1.4168e-24  1.3737e-23  1.7635e-24  1.5281e-23  2.3810e-24  1.8010e-23  3.4822e-24  2.2841e-23  5.4500e-24  3.1428e-23  8.9786e-24  4.6742e-23  1.5344e-23  7.4088e-23  2.6947e-23  1.2364e-22  4.8428e-23  2.1399e-22  8.9339e-23  3.8143e-22  1.7058e-22
      3.85  1.0877e-23  1.0234e-24  1.0886e-23  1.0266e-24  1.0901e-23  1.0324e-24  1.0928e-23  1.0427e-24  1.0976e-23  1.0610e-24  1.1061e-23  1.0935e-24  1.1212e-23  1.1513e-24  1.1480e-23  1.2542e-24  1.1957e-23  1.4372e-24  1.2803e-23  1.7629e-24  1.4300e-23  2.3432e-24  1.6947e-23  3.3780e-24  2.1632e-23  5.2273e-24  2.9961e-23  8.5441e-24  4.4812e-23  1.4530e-23  7.1349e-23  2.5448e-23  1.1944e-22  4.5675e-23  2.0714e-22  8.4255e-23  3.6972e-22  1.6104e-22
      3.90  1.0064e-23  1.0729e-24  1.0073e-23  1.0760e-24  1.0087e-23  1.0814e-24  1.0113e-23  1.0911e-24  1.0160e-23  1.1083e-24  1.0242e-23  1.1388e-24  1.0389e-23  1.1932e-24  1.0649e-23  1.2900e-24  1.1112e-23  1.4621e-24  1.1932e-23  1.7684e-24  1.3385e-23  2.3142e-24  1.5953e-23  3.2875e-24  2.0499e-23  5.0272e-24  2.8581e-23  8.1481e-24  4.2988e-23  1.3783e-23  6.8752e-23  2.4065e-23  1.1544e-22  4.3130e-23  2.0061e-22  7.9543e-23  3.5857e-22  1.5217e-22
      3.95  9.3090e-24  1.1251e-24  9.3170e-24  1.1280e-24  9.3312e-24  1.1331e-24  9.3565e-24  1.1422e-24  9.4015e-24  1.1584e-24  9.4816e-24  1.1872e-24  9.6238e-24  1.2383e-24  9.8764e-24  1.3294e-24  1.0325e-23  1.4914e-24  1.1121e-23  1.7797e-24  1.2531e-23  2.2933e-24  1.5023e-23  3.2095e-24  1.9435e-23  4.8472e-24  2.7277e-23  7.7860e-24  4.1257e-23  1.3094e-23  6.6275e-23  2.2784e-23  1.1161e-22  4.0766e-23  1.9433e-22  7.5162e-23  3.4784e-22  1.4392e-22
