# This was generated using Cloudy10 and the columns are ordered 
# as log10 of the fraction of the metallicity to the solar metallicity
# 'h_*_Z' and 'c_*_Z' stands for cooling and heating respectively 
# at * metalicity
#
# NOTE: This was generated separately from loop_coolingcurve_w_UV.py
#       using Output_metals_w_redshift.py.
#
# Redshift = 6.0
# hden = 1.0
#
#     temp   h_-3.00_Z   c_-3.00_Z   h_-2.75_Z   c_-2.75_Z   h_-2.50_Z   c_-2.50_Z   h_-2.25_Z   c_-2.25_Z   h_-2.00_Z   c_-2.00_Z   h_-1.75_Z   c_-1.75_Z   h_-1.50_Z   c_-1.50_Z   h_-1.25_Z   c_-1.25_Z   h_-1.00_Z   c_-1.00_Z   h_-0.75_Z   c_-0.75_Z   h_-0.50_Z   c_-0.50_Z   h_-0.25_Z   c_-0.25_Z    h_0.00_Z    c_0.00_Z    h_0.25_Z    c_0.25_Z    h_0.50_Z    c_0.50_Z    h_0.75_Z    c_0.75_Z    h_1.00_Z    c_1.00_Z    h_1.25_Z    c_1.25_Z    h_1.50_Z    c_1.50_Z 
      1.00  3.1253e-25  6.1704e-29  3.1253e-25  6.1711e-29  3.1253e-25  6.1723e-29  3.1254e-25  6.1745e-29  3.1255e-25  6.1784e-29  3.1258e-25  6.1852e-29  3.1263e-25  6.1975e-29  3.1271e-25  6.2192e-29  3.1285e-25  6.2578e-29  3.1311e-25  6.3266e-29  3.1356e-25  6.4490e-29  3.1437e-25  6.6667e-29  3.1581e-25  7.0546e-29  3.1838e-25  7.7464e-29  3.2296e-25  8.9828e-29  3.3115e-25  1.1202e-28  3.4583e-25  1.5212e-28  3.7239e-25  2.2550e-28  4.2101e-25  3.6250e-28
      1.05  3.1216e-25  6.9060e-29  3.1216e-25  6.9079e-29  3.1216e-25  6.9113e-29  3.1217e-25  6.9174e-29  3.1219e-25  6.9281e-29  3.1221e-25  6.9472e-29  3.1226e-25  6.9812e-29  3.1234e-25  7.0416e-29  3.1248e-25  7.1491e-29  3.1273e-25  7.3402e-29  3.1319e-25  7.6803e-29  3.1399e-25  8.2858e-29  3.1542e-25  9.3644e-29  3.1798e-25  1.1289e-28  3.2253e-25  1.4731e-28  3.3065e-25  2.0915e-28  3.4524e-25  3.2114e-28  3.7160e-25  5.2669e-28  4.1984e-25  9.1228e-28
      1.10  3.1177e-25  7.7294e-29  3.1178e-25  7.7339e-29  3.1178e-25  7.7419e-29  3.1179e-25  7.7561e-29  3.1180e-25  7.7814e-29  3.1183e-25  7.8264e-29  3.1187e-25  7.9063e-29  3.1195e-25  8.0485e-29  3.1210e-25  8.3014e-29  3.1235e-25  8.7512e-29  3.1280e-25  9.5515e-29  3.1360e-25  1.0976e-28  3.1502e-25  1.3514e-28  3.1756e-25  1.8042e-28  3.2208e-25  2.6138e-28  3.3016e-25  4.0679e-28  3.4466e-25  6.6996e-28  3.7084e-25  1.1525e-27  4.1874e-25  2.0563e-27
      1.15  3.1138e-25  8.6519e-29  3.1138e-25  8.6615e-29  3.1139e-25  8.6786e-29  3.1139e-25  8.7089e-29  3.1141e-25  8.7628e-29  3.1143e-25  8.8586e-29  3.1148e-25  9.0291e-29  3.1156e-25  9.3323e-29  3.1170e-25  9.8715e-29  3.1195e-25  1.0831e-28  3.1240e-25  1.2537e-28  3.1319e-25  1.5575e-28  3.1461e-25  2.0987e-28  3.1713e-25  3.0639e-28  3.2162e-25  4.7897e-28  3.2965e-25  7.8886e-28  3.4404e-25  1.3494e-27  3.7004e-25  2.3766e-27  4.1757e-25  4.2985e-27
      1.20  3.1097e-25  9.6867e-29  3.1097e-25  9.7057e-29  3.1097e-25  9.7393e-29  3.1098e-25  9.7991e-29  3.1100e-25  9.9055e-29  3.1102e-25  1.0095e-28  3.1107e-25  1.0431e-28  3.1115e-25  1.1030e-28  3.1129e-25  1.2094e-28  3.1153e-25  1.3987e-28  3.1198e-25  1.7356e-28  3.1277e-25  2.3352e-28  3.1417e-25  3.4032e-28  3.1668e-25  5.3082e-28  3.2114e-25  8.7138e-28  3.2911e-25  1.4828e-27  3.4340e-25  2.5885e-27  3.6920e-25  4.6137e-27  4.1634e-25  8.4006e-27
      1.25  3.1054e-25  1.0849e-28  3.1055e-25  1.0884e-28  3.1055e-25  1.0946e-28  3.1056e-25  1.1056e-28  3.1057e-25  1.1252e-28  3.1060e-25  1.1601e-28  3.1064e-25  1.2222e-28  3.1072e-25  1.3325e-28  3.1086e-25  1.5287e-28  3.1111e-25  1.8777e-28  3.1155e-25  2.4987e-28  3.1233e-25  3.6040e-28  3.1373e-25  5.5728e-28  3.1621e-25  9.0842e-28  3.2064e-25  1.5361e-27  3.2855e-25  2.6629e-27  3.4273e-25  4.7003e-27  3.6832e-25  8.4309e-27  4.1507e-25  1.5404e-26
      1.30  3.1010e-25  1.2250e-28  3.1011e-25  1.2311e-28  3.1011e-25  1.2418e-28  3.1012e-25  1.2609e-28  3.1013e-25  1.2949e-28  3.1016e-25  1.3553e-28  3.1020e-25  1.4628e-28  3.1028e-25  1.6539e-28  3.1042e-25  1.9937e-28  3.1066e-25  2.5983e-28  3.1110e-25  3.6740e-28  3.1188e-25  5.5886e-28  3.1326e-25  8.9989e-28  3.1573e-25  1.5081e-27  3.2012e-25  2.5953e-27  3.2797e-25  4.5467e-27  3.4204e-25  8.0747e-27  3.6743e-25  1.4534e-26  4.1377e-25  2.6604e-26
      1.35  3.0965e-25  1.3976e-28  3.0965e-25  1.4075e-28  3.0966e-25  1.4251e-28  3.0967e-25  1.4564e-28  3.0968e-25  1.5120e-28  3.0970e-25  1.6109e-28  3.0975e-25  1.7867e-28  3.0982e-25  2.0995e-28  3.0996e-25  2.6557e-28  3.1021e-25  3.6451e-28  3.1064e-25  5.4055e-28  3.1141e-25  8.5388e-28  3.1279e-25  1.4120e-27  3.1523e-25  2.4073e-27  3.1959e-25  4.1863e-27  3.2738e-25  7.3794e-27  3.4134e-25  1.3152e-26  3.6652e-25  2.3718e-26  4.1245e-25  4.3461e-26
      1.40  3.0918e-25  1.5910e-28  3.0918e-25  1.6064e-28  3.0919e-25  1.6337e-28  3.0920e-25  1.6823e-28  3.0921e-25  1.7687e-28  3.0923e-25  1.9224e-28  3.0928e-25  2.1957e-28  3.0935e-25  2.6817e-28  3.0949e-25  3.5462e-28  3.0973e-25  5.0839e-28  3.1016e-25  7.8198e-28  3.1093e-25  1.2689e-27  3.1229e-25  2.1363e-27  3.1472e-25  3.6830e-27  3.1905e-25  6.4478e-27  3.2677e-25  1.1410e-26  3.4062e-25  2.0379e-26  3.6559e-25  3.6794e-26  4.1111e-25  6.7461e-26
      1.45  3.0870e-25  1.8076e-28  3.0870e-25  1.8304e-28  3.0870e-25  1.8709e-28  3.0871e-25  1.9430e-28  3.0872e-25  2.0711e-28  3.0875e-25  2.2991e-28  3.0879e-25  2.7044e-28  3.0887e-25  3.4253e-28  3.0900e-25  4.7075e-28  3.0924e-25  6.9882e-28  3.0967e-25  1.1046e-27  3.1043e-25  1.8268e-27  3.1178e-25  3.1132e-27  3.1419e-25  5.4073e-27  3.1848e-25  9.5076e-27  3.2615e-25  1.6866e-26  3.3988e-25  3.0166e-26  3.6464e-25  5.4504e-26  4.0976e-25  9.9962e-26
      1.50  3.0819e-25  2.0501e-28  3.0819e-25  2.0825e-28  3.0820e-25  2.1402e-28  3.0821e-25  2.2427e-28  3.0822e-25  2.4250e-28  3.0824e-25  2.7492e-28  3.0829e-25  3.3257e-28  3.0836e-25  4.3509e-28  3.0850e-25  6.1745e-28  3.0873e-25  9.4181e-28  3.0916e-25  1.5189e-27  3.0991e-25  2.5460e-27  3.1125e-25  4.3755e-27  3.1364e-25  7.6380e-27  3.1790e-25  1.3469e-26  3.2550e-25  2.3933e-26  3.3912e-25  4.2843e-26  3.6366e-25  7.7444e-26  4.0837e-25  1.4206e-25
      1.55  3.0767e-25  2.3218e-28  3.0767e-25  2.3663e-28  3.0768e-25  2.4452e-28  3.0769e-25  2.5857e-28  3.0770e-25  2.8355e-28  3.0772e-25  3.2797e-28  3.0776e-25  4.0696e-28  3.0784e-25  5.4745e-28  3.0797e-25  7.9731e-28  3.0821e-25  1.2418e-27  3.0863e-25  2.0325e-27  3.0938e-25  3.4399e-27  3.1071e-25  5.9467e-27  3.1308e-25  1.0417e-26  3.1730e-25  1.8406e-26  3.2484e-25  3.2743e-26  3.3835e-25  5.8649e-26  3.6269e-25  1.0604e-25  4.0699e-25  1.9451e-25
      1.60  3.0713e-25  2.6256e-28  3.0713e-25  2.6845e-28  3.0714e-25  2.7892e-28  3.0715e-25  2.9754e-28  3.0716e-25  3.3065e-28  3.0718e-25  3.8954e-28  3.0722e-25  4.9426e-28  3.0730e-25  6.8050e-28  3.0743e-25  1.0117e-27  3.0766e-25  1.6009e-27  3.0808e-25  2.6492e-27  3.0882e-25  4.5150e-27  3.1014e-25  7.8380e-27  3.1250e-25  1.3764e-26  3.1669e-25  2.4354e-26  3.2417e-25  4.3356e-26  3.3756e-25  7.7691e-26  3.6169e-25  1.4049e-25  4.0559e-25  2.5768e-25
      1.65  3.0657e-25  2.9648e-28  3.0657e-25  3.0407e-28  3.0658e-25  3.1755e-28  3.0659e-25  3.4154e-28  3.0660e-25  3.8419e-28  3.0662e-25  4.6003e-28  3.0666e-25  5.9491e-28  3.0674e-25  8.3478e-28  3.0687e-25  1.2614e-27  3.0710e-25  2.0203e-27  3.0751e-25  3.3704e-27  3.0825e-25  5.7734e-27  3.0956e-25  1.0053e-26  3.1189e-25  1.7685e-26  3.1605e-25  3.1324e-26  3.2347e-25  5.5794e-26  3.3675e-25  1.0000e-25  3.6067e-25  1.8085e-25  4.0417e-25  3.3167e-25
      1.70  3.0599e-25  3.3433e-28  3.0600e-25  3.4386e-28  3.0600e-25  3.6081e-28  3.0601e-25  3.9095e-28  3.0602e-25  4.4455e-28  3.0604e-25  5.3986e-28  3.0608e-25  7.0937e-28  3.0616e-25  1.0108e-27  3.0629e-25  1.5470e-27  3.0652e-25  2.5007e-27  3.0693e-25  4.1974e-27  3.0766e-25  7.2173e-27  3.0896e-25  1.2596e-26  3.1127e-25  2.2187e-26  3.1539e-25  3.9326e-26  3.2275e-25  7.0075e-26  3.3592e-25  1.2562e-25  3.5962e-25  2.2718e-25  4.0272e-25  4.1659e-25
      1.75  3.0539e-25  3.7652e-28  3.0540e-25  3.8826e-28  3.0540e-25  4.0913e-28  3.0541e-25  4.4626e-28  3.0542e-25  5.1228e-28  3.0544e-25  6.2968e-28  3.0548e-25  8.3846e-28  3.0556e-25  1.2098e-27  3.0568e-25  1.8702e-27  3.0591e-25  3.0448e-27  3.0632e-25  5.1347e-27  3.0704e-25  8.8543e-27  3.0833e-25  1.5479e-26  3.1063e-25  2.7292e-26  3.1471e-25  4.8401e-26  3.2201e-25  8.6271e-26  3.3506e-25  1.5467e-25  3.5856e-25  2.7971e-25  4.0125e-25  5.1287e-25
      1.80  3.0477e-25  4.2364e-28  3.0477e-25  4.3788e-28  3.0478e-25  4.6319e-28  3.0478e-25  5.0821e-28  3.0480e-25  5.8826e-28  3.0482e-25  7.3062e-28  3.0486e-25  9.8379e-28  3.0493e-25  1.4340e-27  3.0506e-25  2.2348e-27  3.0529e-25  3.6592e-27  3.0569e-25  6.1934e-27  3.0641e-25  1.0704e-26  3.0769e-25  1.8737e-26  3.0996e-25  3.3061e-26  3.1401e-25  5.8657e-26  3.2124e-25  1.0457e-25  3.3419e-25  1.8751e-25  3.5747e-25  3.3910e-25  3.9975e-25  6.2171e-25
      1.85  3.0413e-25  4.7622e-28  3.0413e-25  4.9329e-28  3.0413e-25  5.2364e-28  3.0414e-25  5.7762e-28  3.0415e-25  6.7360e-28  3.0418e-25  8.4429e-28  3.0422e-25  1.1478e-27  3.0429e-25  1.6877e-27  3.0441e-25  2.6478e-27  3.0464e-25  4.3557e-27  3.0504e-25  7.3942e-27  3.0575e-25  1.2802e-26  3.0702e-25  2.2434e-26  3.0927e-25  3.9608e-26  3.1329e-25  7.0299e-26  3.2046e-25  1.2535e-25  3.3329e-25  2.2479e-25  3.5636e-25  4.0654e-25  3.9823e-25  7.4536e-25
      1.90  3.0346e-25  5.3492e-28  3.0346e-25  5.5523e-28  3.0347e-25  5.9134e-28  3.0347e-25  6.5556e-28  3.0349e-25  7.6977e-28  3.0351e-25  9.7287e-28  3.0355e-25  1.3340e-27  3.0362e-25  1.9764e-27  3.0374e-25  3.1188e-27  3.0397e-25  5.1509e-27  3.0436e-25  8.7663e-27  3.0507e-25  1.5201e-26  3.0633e-25  2.6661e-26  3.0856e-25  4.7097e-26  3.1255e-25  8.3615e-26  3.1966e-25  1.4912e-25  3.3237e-25  2.6745e-25  3.5524e-25  4.8371e-25  3.9673e-25  8.8685e-25
      1.95  3.0277e-25  6.0045e-28  3.0277e-25  6.2446e-28  3.0278e-25  6.6715e-28  3.0278e-25  7.4307e-28  3.0280e-25  8.7808e-28  3.0282e-25  1.1182e-27  3.0286e-25  1.5452e-27  3.0293e-25  2.3045e-27  3.0305e-25  3.6550e-27  3.0327e-25  6.0573e-27  3.0367e-25  1.0331e-26  3.0437e-25  1.7938e-26  3.0562e-25  3.1486e-26  3.0785e-25  5.5642e-26  3.1181e-25  9.8807e-26  3.1889e-25  1.7623e-25  3.3154e-25  3.1606e-25  3.5429e-25  5.7157e-25  3.9552e-25  1.0477e-24
      2.00  3.0205e-25  6.7383e-28  3.0206e-25  7.0222e-28  3.0206e-25  7.5270e-28  3.0207e-25  8.4246e-28  3.0208e-25  1.0021e-27  3.0210e-25  1.2860e-27  3.0214e-25  1.7908e-27  3.0221e-25  2.6887e-27  3.0233e-25  4.2856e-27  3.0255e-25  7.1260e-27  3.0295e-25  1.2180e-26  3.0364e-25  2.1174e-26  3.0488e-25  3.7193e-26  3.0709e-25  6.5757e-26  3.1102e-25  1.1680e-25  3.1803e-25  2.0837e-25  3.3058e-25  3.7375e-25  3.5312e-25  6.7598e-25  3.9397e-25  1.2393e-24
      2.05  3.0131e-25  7.5618e-28  3.0131e-25  7.8971e-28  3.0132e-25  8.4933e-28  3.0133e-25  9.5536e-28  3.0134e-25  1.1439e-27  3.0136e-25  1.4792e-27  3.0140e-25  2.0755e-27  3.0147e-25  3.1359e-27  3.0159e-25  5.0219e-27  3.0181e-25  8.3767e-27  3.0220e-25  1.4345e-26  3.0289e-25  2.4969e-26  3.0412e-25  4.3889e-26  3.0630e-25  7.7629e-26  3.1020e-25  1.3792e-25  3.1715e-25  2.4610e-25  3.2957e-25  4.4151e-25  3.5189e-25  7.9873e-25  3.9233e-25  1.4648e-24
      2.10  3.0054e-25  8.4836e-28  3.0055e-25  8.8788e-28  3.0055e-25  9.5816e-28  3.0056e-25  1.0831e-27  3.0057e-25  1.3054e-27  3.0059e-25  1.7006e-27  3.0063e-25  2.4034e-27  3.0070e-25  3.6533e-27  3.0082e-25  5.8764e-27  3.0104e-25  9.8308e-27  3.0142e-25  1.6866e-26  3.0210e-25  2.9388e-26  3.0332e-25  5.1691e-26  3.0549e-25  9.1464e-26  3.0935e-25  1.6255e-25  3.1623e-25  2.9009e-25  3.2854e-25  5.2051e-25  3.5065e-25  9.4187e-25  3.9068e-25  1.7279e-24
      2.15  2.9975e-25  9.5148e-28  2.9975e-25  9.9791e-28  2.9975e-25  1.0805e-27  2.9976e-25  1.2273e-27  2.9977e-25  1.4884e-27  2.9979e-25  1.9528e-27  2.9983e-25  2.7786e-27  2.9990e-25  4.2472e-27  3.0002e-25  6.8592e-27  3.0024e-25  1.1505e-26  3.0062e-25  1.9772e-26  3.0130e-25  3.4485e-26  3.0250e-25  6.0691e-26  3.0465e-25  1.0743e-25  3.0847e-25  1.9096e-25  3.1529e-25  3.4085e-25  3.2749e-25  6.1170e-25  3.4939e-25  1.1071e-24  3.8903e-25  2.0316e-24
      2.20  2.9892e-25  1.0667e-27  2.9893e-25  1.1210e-27  2.9893e-25  1.2176e-27  2.9894e-25  1.3893e-27  2.9895e-25  1.6946e-27  2.9897e-25  2.2376e-27  2.9901e-25  3.2033e-27  2.9907e-25  4.9207e-27  2.9919e-25  7.9751e-27  2.9941e-25  1.3408e-26  2.9978e-25  2.3075e-26  3.0046e-25  4.0281e-26  3.0165e-25  7.0928e-26  3.0378e-25  1.2558e-25  3.0757e-25  2.2328e-25  3.1433e-25  3.9860e-25  3.2642e-25  7.1544e-25  3.4811e-25  1.2950e-24  3.8737e-25  2.3770e-24
      2.25  2.9807e-25  1.1953e-27  2.9807e-25  1.2584e-27  2.9807e-25  1.3706e-27  2.9808e-25  1.5701e-27  2.9809e-25  1.9249e-27  2.9811e-25  2.5559e-27  2.9815e-25  3.6781e-27  2.9822e-25  5.6738e-27  2.9834e-25  9.2232e-27  2.9855e-25  1.5537e-26  2.9892e-25  2.6770e-26  2.9959e-25  4.6765e-26  3.0077e-25  8.2379e-26  3.0289e-25  1.4590e-25  3.0664e-25  2.5944e-25  3.1334e-25  4.6320e-25  3.2532e-25  8.3148e-25  3.4682e-25  1.5053e-24  3.8571e-25  2.7633e-24
      2.30  2.9718e-25  1.3391e-27  2.9719e-25  1.4119e-27  2.9719e-25  1.5412e-27  2.9720e-25  1.7713e-27  2.9721e-25  2.1805e-27  2.9723e-25  2.9082e-27  2.9727e-25  4.2022e-27  2.9733e-25  6.5037e-27  2.9745e-25  1.0597e-26  2.9766e-25  1.7878e-26  2.9803e-25  3.0832e-26  2.9869e-25  5.3890e-26  2.9987e-25  9.4962e-26  3.0196e-25  1.6821e-25  3.0568e-25  2.9916e-25  3.1232e-25  5.3417e-25  3.2419e-25  9.5895e-25  3.4549e-25  1.7361e-24  3.8401e-25  3.1873e-24
      2.35  2.9627e-25  1.4991e-27  2.9627e-25  1.5823e-27  2.9627e-25  1.7303e-27  2.9628e-25  1.9934e-27  2.9629e-25  2.4612e-27  2.9631e-25  3.2932e-27  2.9635e-25  4.7728e-27  2.9641e-25  7.4042e-27  2.9653e-25  1.2084e-26  2.9674e-25  2.0409e-26  2.9711e-25  3.5221e-26  2.9776e-25  6.1586e-26  2.9893e-25  1.0855e-25  3.0100e-25  1.9230e-25  3.0470e-25  3.4203e-25  3.1129e-25  6.1075e-25  3.2307e-25  1.0965e-24  3.4420e-25  1.9851e-24  3.8240e-25  3.6444e-24
      2.40  2.9532e-25  1.6770e-27  2.9532e-25  1.7713e-27  2.9532e-25  1.9389e-27  2.9533e-25  2.2369e-27  2.9534e-25  2.7670e-27  2.9536e-25  3.7095e-27  2.9540e-25  5.3857e-27  2.9546e-25  8.3667e-27  2.9558e-25  1.3669e-26  2.9578e-25  2.3100e-26  2.9615e-25  3.9880e-26  2.9680e-25  6.9748e-26  2.9796e-25  1.2295e-25  3.0002e-25  2.1783e-25  3.0369e-25  3.8746e-25  3.1023e-25  6.9189e-25  3.2192e-25  1.2421e-24  3.4288e-25  2.2487e-24  3.8077e-25  4.1281e-24
      2.45  2.9433e-25  1.8746e-27  2.9433e-25  1.9803e-27  2.9434e-25  2.1684e-27  2.9434e-25  2.5029e-27  2.9435e-25  3.0976e-27  2.9437e-25  4.1553e-27  2.9441e-25  6.0363e-27  2.9448e-25  9.3815e-27  2.9459e-25  1.5331e-26  2.9479e-25  2.5915e-26  2.9516e-25  4.4745e-26  2.9580e-25  7.8261e-26  2.9695e-25  1.3796e-25  2.9900e-25  2.4444e-25  3.0264e-25  4.3478e-25  3.0914e-25  7.7639e-25  3.2074e-25  1.3938e-24  3.4155e-25  2.5231e-24  3.7915e-25  4.6311e-24
      2.50  2.9331e-25  2.0937e-27  2.9331e-25  2.2113e-27  2.9332e-25  2.4204e-27  2.9332e-25  2.7922e-27  2.9333e-25  3.4534e-27  2.9335e-25  4.6293e-27  2.9339e-25  6.7204e-27  2.9345e-25  1.0439e-26  2.9357e-25  1.7054e-26  2.9377e-25  2.8819e-26  2.9413e-25  4.9753e-26  2.9477e-25  8.7014e-26  2.9592e-25  1.5338e-25  2.9795e-25  2.7175e-25  3.0157e-25  4.8336e-25  3.0801e-25  8.6310e-25  3.1953e-25  1.5493e-24  3.4020e-25  2.8044e-24  3.7751e-25  5.1464e-24
      2.55  2.9225e-25  2.3379e-27  2.9225e-25  2.4674e-27  2.9226e-25  2.6978e-27  2.9226e-25  3.1074e-27  2.9228e-25  3.8359e-27  2.9230e-25  5.1313e-27  2.9233e-25  7.4351e-27  2.9240e-25  1.1532e-26  2.9251e-25  1.8819e-26  2.9271e-25  3.1781e-26  2.9307e-25  5.4844e-26  2.9371e-25  9.5893e-26  2.9484e-25  1.6901e-25  2.9686e-25  2.9942e-25  3.0045e-25  5.3252e-25  3.0686e-25  9.5083e-25  3.1830e-25  1.7067e-24  3.3882e-25  3.0888e-24  3.7587e-25  5.6668e-24
      2.60  2.9116e-25  2.6087e-27  2.9116e-25  2.7502e-27  2.9116e-25  3.0018e-27  2.9117e-25  3.4492e-27  2.9118e-25  4.2449e-27  2.9120e-25  5.6599e-27  2.9124e-25  8.1762e-27  2.9130e-25  1.2651e-26  2.9141e-25  2.0611e-26  2.9161e-25  3.4769e-26  2.9197e-25  5.9960e-26  2.9260e-25  1.0480e-25  2.9373e-25  1.8466e-25  2.9574e-25  3.2710e-25  2.9931e-25  5.8170e-25  3.0567e-25  1.0385e-24  3.1703e-25  1.8639e-24  3.3741e-25  3.3727e-24  3.7420e-25  6.1861e-24
      2.65  2.9002e-25  2.9090e-27  2.9002e-25  3.0624e-27  2.9003e-25  3.3350e-27  2.9003e-25  3.8199e-27  2.9005e-25  4.6822e-27  2.9007e-25  6.2157e-27  2.9010e-25  8.9427e-27  2.9016e-25  1.3793e-26  2.9028e-25  2.2418e-26  2.9047e-25  3.7762e-26  2.9083e-25  6.5062e-26  2.9146e-25  1.1365e-25  2.9258e-25  2.0020e-25  2.9457e-25  3.5456e-25  2.9812e-25  6.3045e-25  3.0444e-25  1.1255e-24  3.1573e-25  2.0196e-24  3.3598e-25  3.6538e-24  3.7252e-25  6.6994e-24
      2.70  2.8885e-25  3.2422e-27  2.8885e-25  3.4072e-27  2.8885e-25  3.7006e-27  2.8886e-25  4.2224e-27  2.8887e-25  5.1503e-27  2.8889e-25  6.8004e-27  2.8892e-25  9.7348e-27  2.8899e-25  1.4954e-26  2.8910e-25  2.4236e-26  2.8930e-25  4.0746e-26  2.8965e-25  7.0122e-26  2.9028e-25  1.2241e-25  2.9139e-25  2.1554e-25  2.9337e-25  3.8163e-25  2.9689e-25  6.7847e-25  3.0318e-25  1.2110e-24  3.1440e-25  2.1729e-24  3.3452e-25  3.9302e-24  3.7081e-25  7.2036e-24
      2.75  2.8763e-25  3.6119e-27  2.8763e-25  3.7883e-27  2.8763e-25  4.1021e-27  2.8764e-25  4.6600e-27  2.8765e-25  5.6522e-27  2.8767e-25  7.4166e-27  2.8771e-25  1.0554e-26  2.8777e-25  1.6135e-26  2.8788e-25  2.6060e-26  2.8808e-25  4.3714e-26  2.8843e-25  7.5125e-26  2.8905e-25  1.3103e-25  2.9016e-25  2.3061e-25  2.9213e-25  4.0820e-25  2.9564e-25  7.2557e-25  3.0189e-25  1.2949e-24  3.1305e-25  2.3229e-24  3.3306e-25  4.2006e-24  3.6915e-25  7.6961e-24
      2.80  2.8637e-25  4.0247e-27  2.8637e-25  4.2123e-27  2.8637e-25  4.5460e-27  2.8638e-25  5.1394e-27  2.8639e-25  6.1946e-27  2.8641e-25  8.0711e-27  2.8644e-25  1.1408e-26  2.8651e-25  1.7343e-26  2.8662e-25  2.7899e-26  2.8681e-25  4.6675e-26  2.8716e-25  8.0081e-26  2.8778e-25  1.3954e-25  2.8888e-25  2.4544e-25  2.9084e-25  4.3430e-25  2.9433e-25  7.7179e-25  3.0055e-25  1.3771e-24  3.1166e-25  2.4700e-24  3.3157e-25  4.4653e-24  3.6748e-25  8.1774e-24
      2.85  2.8506e-25  4.4833e-27  2.8506e-25  4.6819e-27  2.8507e-25  5.0352e-27  2.8507e-25  5.6634e-27  2.8508e-25  6.7805e-27  2.8510e-25  8.7671e-27  2.8514e-25  1.2300e-26  2.8520e-25  1.8583e-26  2.8531e-25  2.9758e-26  2.8550e-25  4.9636e-26  2.8585e-25  8.5002e-26  2.8647e-25  1.4795e-25  2.8757e-25  2.6006e-25  2.8952e-25  4.5999e-25  2.9299e-25  8.1723e-25  2.9918e-25  1.4579e-24  3.1023e-25  2.6143e-24  3.3004e-25  4.7249e-24  3.6577e-25  8.6490e-24
      2.90  2.8371e-25  4.9931e-27  2.8371e-25  5.2026e-27  2.8371e-25  5.5752e-27  2.8372e-25  6.2377e-27  2.8373e-25  7.4159e-27  2.8375e-25  9.5111e-27  2.8378e-25  1.3237e-26  2.8384e-25  1.9864e-26  2.8395e-25  3.1649e-26  2.8415e-25  5.2614e-26  2.8449e-25  8.9912e-26  2.8511e-25  1.5630e-25  2.8620e-25  2.7454e-25  2.8814e-25  4.8537e-25  2.9160e-25  8.6208e-25  2.9776e-25  1.5376e-24  3.0876e-25  2.7566e-24  3.2847e-25  4.9806e-24  3.6402e-25  9.1126e-24
      2.95  2.8231e-25  5.5641e-27  2.8231e-25  5.7844e-27  2.8231e-25  6.1761e-27  2.8232e-25  6.8726e-27  2.8233e-25  8.1113e-27  2.8235e-25  1.0314e-26  2.8238e-25  1.4231e-26  2.8244e-25  2.1198e-26  2.8255e-25  3.3589e-26  2.8275e-25  5.5629e-26  2.8309e-25  9.4842e-26  2.8370e-25  1.6463e-25  2.8479e-25  2.8894e-25  2.8672e-25  5.1058e-25  2.9016e-25  9.0657e-25  2.9629e-25  1.6166e-24  3.0724e-25  2.8975e-24  3.2686e-25  5.2336e-24  3.6223e-25  9.5705e-24
      3.00  2.8085e-25  6.2012e-27  2.8086e-25  6.4321e-27  2.8086e-25  6.8429e-27  2.8087e-25  7.5732e-27  2.8088e-25  8.8721e-27  2.8090e-25  1.1182e-26  2.8085e-25  1.5280e-26  2.8099e-25  2.2595e-26  2.8110e-25  3.5588e-26  2.8129e-25  5.8699e-26  2.8163e-25  9.9817e-26  2.8224e-25  1.7300e-25  2.8333e-25  3.0334e-25  2.8525e-25  5.3573e-25  2.8867e-25  9.5090e-25  2.9477e-25  1.6952e-24  3.0567e-25  3.0377e-24  3.2519e-25  5.4850e-24  3.6038e-25  1.0025e-23
      3.05  2.7935e-25  6.9171e-27  2.7935e-25  7.1585e-27  2.7936e-25  7.5880e-27  2.7936e-25  8.3517e-27  2.7937e-25  9.7097e-27  2.7939e-25  1.2125e-26  2.7943e-25  1.6420e-26  2.7949e-25  2.4058e-26  2.7960e-25  3.7643e-26  2.7979e-25  6.1807e-26  2.8013e-25  1.0480e-25  2.8074e-25  1.8131e-25  2.8181e-25  3.1759e-25  2.8373e-25  5.6055e-25  2.8713e-25  9.9457e-25  2.9320e-25  1.7726e-24  3.0404e-25  3.1755e-24  3.2347e-25  5.7320e-24  3.5848e-25  1.0470e-23
      3.10  2.7780e-25  7.7102e-27  2.7780e-25  7.9623e-27  2.7780e-25  8.4105e-27  2.7781e-25  9.2076e-27  2.7782e-25  1.0625e-26  2.7784e-25  1.3146e-26  2.7787e-25  1.7629e-26  2.7793e-25  2.5601e-26  2.7804e-25  3.9781e-26  2.7823e-25  6.5003e-26  2.7857e-25  1.0988e-25  2.7917e-25  1.8974e-25  2.8024e-25  3.3198e-25  2.8215e-25  5.8556e-25  2.8554e-25  1.0385e-24  2.9158e-25  1.8503e-24  3.0236e-25  3.3140e-24  3.2168e-25  5.9800e-24  3.5649e-25  1.0915e-23
      3.15  2.7618e-25  8.5975e-27  2.7618e-25  8.8603e-27  2.7619e-25  9.3276e-27  2.7619e-25  1.0159e-26  2.7620e-25  1.1637e-26  2.7622e-25  1.4265e-26  2.7626e-25  1.8938e-26  2.7632e-25  2.7251e-26  2.7643e-25  4.2035e-26  2.7662e-25  6.8332e-26  2.7695e-25  1.1512e-25  2.7755e-25  1.9838e-25  2.7862e-25  3.4668e-25  2.8051e-25  6.1104e-25  2.8388e-25  1.0832e-24  2.8989e-25  1.9294e-24  3.0062e-25  3.4546e-24  3.1984e-25  6.2317e-24  3.5448e-25  1.1371e-23
      3.20  2.7451e-25  9.5867e-27  2.7452e-25  9.8607e-27  2.7452e-25  1.0348e-26  2.7453e-25  1.1214e-26  2.7454e-25  1.2754e-26  2.7456e-25  1.5494e-26  2.7459e-25  2.0365e-26  2.7465e-25  2.9029e-26  2.7476e-25  4.4438e-26  2.7494e-25  7.1846e-26  2.7528e-25  1.2061e-25  2.7588e-25  2.0739e-25  2.7694e-25  3.6195e-25  2.7882e-25  6.3747e-25  2.8217e-25  1.1295e-24  2.8815e-25  2.0112e-24  2.9882e-25  3.6002e-24  3.1794e-25  6.4920e-24  3.5241e-25  1.1835e-23
      3.25  2.7279e-25  1.0687e-26  2.7279e-25  1.0973e-26  2.7279e-25  1.1481e-26  2.7280e-25  1.2385e-26  2.7281e-25  1.3991e-26  2.7283e-25  1.6849e-26  2.7286e-25  2.1931e-26  2.7292e-25  3.0968e-26  2.7303e-25  4.7041e-26  2.7322e-25  7.5632e-26  2.7355e-25  1.2650e-25  2.7414e-25  2.1702e-25  2.7520e-25  3.7824e-25  2.7707e-25  6.6562e-25  2.8041e-25  1.1788e-24  2.8635e-25  2.0983e-24  2.9696e-25  3.7550e-24  3.1597e-25  6.7689e-24  3.5026e-25  1.2330e-23
      3.30  2.7100e-25  1.1925e-26  2.7100e-25  1.2224e-26  2.7100e-25  1.2755e-26  2.7101e-25  1.3700e-26  2.7102e-25  1.5380e-26  2.7104e-25  1.8368e-26  2.7107e-25  2.3681e-26  2.7113e-25  3.3130e-26  2.7124e-25  4.9936e-26  2.7143e-25  7.9829e-26  2.7176e-25  1.3301e-25  2.7235e-25  2.2766e-25  2.7340e-25  3.9622e-25  2.7526e-25  6.9667e-25  2.7858e-25  1.2332e-24  2.8449e-25  2.1943e-24  2.9504e-25  3.9257e-24  3.1395e-25  7.0739e-24  3.4803e-25  1.2880e-23
      3.35  2.6915e-25  1.3308e-26  2.6915e-25  1.3622e-26  2.6915e-25  1.4180e-26  2.6916e-25  1.5172e-26  2.6917e-25  1.6936e-26  2.6919e-25  2.0074e-26  2.6922e-25  2.5654e-26  2.6928e-25  3.5577e-26  2.6939e-25  5.3227e-26  2.6957e-25  8.4621e-26  2.6990e-25  1.4047e-25  2.7049e-25  2.3987e-25  2.7153e-25  4.1688e-25  2.7339e-25  7.3239e-25  2.7669e-25  1.2958e-24  2.8257e-25  2.3049e-24  2.9307e-25  4.1224e-24  3.1187e-25  7.4255e-24  3.4579e-25  1.3511e-23
      3.40  2.6724e-25  1.4851e-26  2.6724e-25  1.5183e-26  2.6724e-25  1.5772e-26  2.6725e-25  1.6820e-26  2.6726e-25  1.8685e-26  2.6728e-25  2.2000e-26  2.6731e-25  2.7895e-26  2.6737e-25  3.8379e-26  2.6747e-25  5.7026e-26  2.6766e-25  9.0194e-26  2.6799e-25  1.4920e-25  2.6857e-25  2.5422e-25  2.6961e-25  4.4123e-25  2.7145e-25  7.7454e-25  2.7474e-25  1.3697e-24  2.8059e-25  2.4356e-24  2.9103e-25  4.3549e-24  3.0974e-25  7.8415e-24  3.4349e-25  1.4258e-23
      3.45  2.6525e-25  1.6574e-26  2.6526e-25  1.6927e-26  2.6526e-25  1.7554e-26  2.6527e-25  1.8670e-26  2.6528e-25  2.0655e-26  2.6529e-25  2.4185e-26  2.6533e-25  3.0462e-26  2.6539e-25  4.1625e-26  2.6549e-25  6.1479e-26  2.6568e-25  9.6793e-26  2.6600e-25  1.5962e-25  2.6658e-25  2.7144e-25  2.6762e-25  4.7054e-25  2.6945e-25  8.2541e-25  2.7272e-25  1.4590e-24  2.7854e-25  2.5936e-24  2.8893e-25  4.6363e-24  3.0756e-25  8.3460e-24  3.4115e-25  1.5164e-23
      3.50  2.6320e-25  1.8496e-26  2.6321e-25  1.8876e-26  2.6321e-25  1.9550e-26  2.6322e-25  2.0750e-26  2.6323e-25  2.2883e-26  2.6324e-25  2.6676e-26  2.6328e-25  3.3422e-26  2.6334e-25  4.5419e-26  2.6344e-25  6.6755e-26  2.6362e-25  1.0471e-25  2.6395e-25  1.7223e-25  2.6453e-25  2.9240e-25  2.6556e-25  5.0636e-25  2.6738e-25  8.8771e-25  2.7063e-25  1.5685e-24  2.7643e-25  2.7877e-24  2.8678e-25  4.9822e-24  3.0533e-25  8.9647e-24  3.3877e-25  1.6279e-23
      3.55  2.6109e-25  2.0665e-26  2.6109e-25  2.1077e-26  2.6109e-25  2.1809e-26  2.6110e-25  2.3112e-26  2.6111e-25  2.5429e-26  2.6113e-25  2.9549e-26  2.6116e-25  3.6876e-26  2.6122e-25  4.9907e-26  2.6132e-25  7.3083e-26  2.6150e-25  1.1431e-25  2.6183e-25  1.8765e-25  2.6240e-25  3.1817e-25  2.6343e-25  5.5058e-25  2.6525e-25  9.6478e-25  2.6848e-25  1.7042e-24  2.7426e-25  3.0282e-24  2.8456e-25  5.4110e-24  3.0305e-25  9.7334e-24  3.3636e-25  1.7664e-23
      3.60  2.5889e-25  2.3082e-26  2.5889e-25  2.3535e-26  2.5890e-25  2.4339e-26  2.5890e-25  2.5770e-26  2.5891e-25  2.8314e-26  2.5893e-25  3.2838e-26  2.5896e-25  4.0883e-26  2.5902e-25  5.5191e-26  2.5912e-25  8.0639e-26  2.5931e-25  1.2590e-25  2.5963e-25  2.0643e-25  2.6020e-25  3.4975e-25  2.6122e-25  6.0493e-25  2.6303e-25  1.0597e-24  2.6626e-25  1.8716e-24  2.7201e-25  3.3251e-24  2.8228e-25  5.9405e-24  3.0069e-25  1.0683e-23  3.3390e-25  1.9375e-23
      3.65  2.5661e-25  2.5777e-26  2.5661e-25  2.6279e-26  2.5662e-25  2.7173e-26  2.5662e-25  2.8763e-26  2.5663e-25  3.1590e-26  2.5665e-25  3.6617e-26  2.5668e-25  4.5557e-26  2.5674e-25  6.1456e-26  2.5685e-25  8.9734e-26  2.5703e-25  1.4003e-25  2.5735e-25  2.2952e-25  2.5792e-25  3.8878e-25  2.5894e-25  6.7233e-25  2.6074e-25  1.1777e-24  2.6396e-25  2.0797e-24  2.6969e-25  3.6946e-24  2.7992e-25  6.5998e-24  2.9828e-25  1.1865e-23  3.3139e-25  2.1507e-23
      3.70  2.5426e-25  2.8790e-26  2.5426e-25  2.9356e-26  2.5426e-25  3.0363e-26  2.5427e-25  3.2154e-26  2.5428e-25  3.5338e-26  2.5430e-25  4.1001e-26  2.5433e-25  5.1071e-26  2.5439e-25  6.8981e-26  2.5449e-25  1.0083e-25  2.5467e-25  1.5749e-25  2.5499e-25  2.5829e-25  2.5556e-25  4.3767e-25  2.5657e-25  7.5706e-25  2.5838e-25  1.3262e-24  2.6158e-25  2.3422e-24  2.6730e-25  4.1608e-24  2.7751e-25  7.4319e-24  2.9583e-25  1.3357e-23  3.2888e-25  2.4197e-23
      3.75  2.5181e-25  3.2232e-26  2.5182e-25  3.2881e-26  2.5182e-25  3.4034e-26  2.5183e-25  3.6084e-26  2.5184e-25  3.9730e-26  2.5185e-25  4.6215e-26  2.5189e-25  5.7747e-26  2.5194e-25  7.8255e-26  2.5205e-25  1.1473e-25  2.5223e-25  1.7961e-25  2.5255e-25  2.9504e-25  2.5312e-25  5.0045e-25  2.5413e-25  8.6616e-25  2.5593e-25  1.5179e-24  2.5914e-25  2.6811e-24  2.6486e-25  4.7630e-24  2.7506e-25  8.5072e-24  2.9339e-25  1.5283e-23  3.2642e-25  2.7668e-23
      3.80  2.5016e-25  3.6806e-26  2.5016e-25  3.7564e-26  2.5016e-25  3.8911e-26  2.5017e-25  4.1308e-26  2.5018e-25  4.5570e-26  2.5020e-25  5.3149e-26  2.5023e-25  6.6627e-26  2.5029e-25  9.0597e-26  2.5039e-25  1.3323e-25  2.5057e-25  2.0906e-25  2.5089e-25  3.4397e-25  2.5146e-25  5.8404e-25  2.5248e-25  1.0114e-24  2.5428e-25  1.7730e-24  2.5750e-25  3.1322e-24  2.6323e-25  5.5643e-24  2.7346e-25  9.9349e-24  2.9182e-25  1.7840e-23  3.2492e-25  3.2269e-23
      3.85  2.4768e-25  4.6819e-26  2.4769e-25  4.7728e-26  2.4769e-25  4.9344e-26  2.4770e-25  5.2219e-26  2.4771e-25  5.7330e-26  2.4773e-25  6.6419e-26  2.4776e-25  8.2584e-26  2.4782e-25  1.1133e-25  2.4792e-25  1.6246e-25  2.4810e-25  2.5340e-25  2.4843e-25  4.1519e-25  2.4901e-25  7.0308e-25  2.5003e-25  1.2156e-24  2.5185e-25  2.1287e-24  2.5510e-25  3.7578e-24  2.6088e-25  6.6717e-24  2.7122e-25  1.1904e-23  2.8974e-25  2.1353e-23  3.2311e-25  3.8564e-23
      3.90  2.4515e-25  8.5890e-26  2.4515e-25  8.7016e-26  2.4516e-25  8.9020e-26  2.4516e-25  9.2583e-26  2.4517e-25  9.8918e-26  2.4519e-25  1.1019e-25  2.4523e-25  1.3022e-25  2.4529e-25  1.6586e-25  2.4539e-25  2.2923e-25  2.4558e-25  3.4195e-25  2.4591e-25  5.4248e-25  2.4650e-25  8.9928e-25  2.4754e-25  1.5344e-24  2.4940e-25  2.6656e-24  2.5270e-25  4.6830e-24  2.5859e-25  8.2888e-24  2.6911e-25  1.4755e-23  2.8797e-25  2.6403e-23  3.2187e-25  4.7547e-23
      3.95  2.4255e-25  2.5921e-25  2.4255e-25  2.6064e-25  2.4255e-25  2.6319e-25  2.4256e-25  2.6773e-25  2.4257e-25  2.7580e-25  2.4259e-25  2.9015e-25  2.4263e-25  3.1566e-25  2.4269e-25  3.6104e-25  2.4280e-25  4.4174e-25  2.4299e-25  5.8528e-25  2.4333e-25  8.4061e-25  2.4393e-25  1.2948e-24  2.4501e-25  2.1032e-24  2.4692e-25  3.5424e-24  2.5032e-25  6.1075e-24  2.5638e-25  1.0687e-23  2.6721e-25  1.8881e-23  2.8659e-25  3.3589e-23  3.2135e-25  6.0137e-23
