# This was generated using Cloudy10 and the columns are ordered 
# as log10 of the fraction of the metallicity to the solar metallicity
# 'h_*_Z' and 'c_*_Z' stands for cooling and heating respectively 
# at * metalicity
#
# NOTE: This was generated separately from loop_coolingcurve_w_UV.py
#       using Output_metals_w_redshift.py.
#
# Redshift = 5.5
# hden = 0.0
#
#     temp   h_-3.00_Z   c_-3.00_Z   h_-2.75_Z   c_-2.75_Z   h_-2.50_Z   c_-2.50_Z   h_-2.25_Z   c_-2.25_Z   h_-2.00_Z   c_-2.00_Z   h_-1.75_Z   c_-1.75_Z   h_-1.50_Z   c_-1.50_Z   h_-1.25_Z   c_-1.25_Z   h_-1.00_Z   c_-1.00_Z   h_-0.75_Z   c_-0.75_Z   h_-0.50_Z   c_-0.50_Z   h_-0.25_Z   c_-0.25_Z    h_0.00_Z    c_0.00_Z    h_0.25_Z    c_0.25_Z    h_0.50_Z    c_0.50_Z    h_0.75_Z    c_0.75_Z    h_1.00_Z    c_1.00_Z    h_1.25_Z    c_1.25_Z    h_1.50_Z    c_1.50_Z 
      1.00  3.3672e-24  6.5965e-28  3.3672e-24  6.5968e-28  3.3672e-24  6.5974e-28  3.3673e-24  6.5984e-28  3.3674e-24  6.6002e-28  3.3676e-24  6.6034e-28  3.3680e-24  6.6092e-28  3.3686e-24  6.6194e-28  3.3697e-24  6.6375e-28  3.3717e-24  6.6697e-28  3.3753e-24  6.7269e-28  3.3817e-24  6.8288e-28  3.3930e-24  7.0102e-28  3.4131e-24  7.3334e-28  3.4490e-24  7.9101e-28  3.5129e-24  8.9416e-28  3.6267e-24  1.0795e-27  3.8303e-24  1.4152e-27  4.1954e-24  2.0310e-27
      1.05  3.3537e-24  7.3608e-28  3.3537e-24  7.3616e-28  3.3537e-24  7.3630e-28  3.3538e-24  7.3655e-28  3.3539e-24  7.3700e-28  3.3541e-24  7.3779e-28  3.3545e-24  7.3920e-28  3.3551e-24  7.4172e-28  3.3562e-24  7.4619e-28  3.3582e-24  7.5414e-28  3.3618e-24  7.6828e-28  3.3681e-24  7.9344e-28  3.3794e-24  8.3823e-28  3.3995e-24  9.1805e-28  3.4351e-24  1.0605e-27  3.4987e-24  1.3153e-27  3.6121e-24  1.7735e-27  3.8147e-24  2.6038e-27  4.1780e-24  4.1294e-27
      1.10  3.3397e-24  8.2119e-28  3.3398e-24  8.2138e-28  3.3398e-24  8.2170e-28  3.3399e-24  8.2228e-28  3.3400e-24  8.2330e-28  3.3402e-24  8.2512e-28  3.3405e-24  8.2836e-28  3.3411e-24  8.3412e-28  3.3423e-24  8.4436e-28  3.3443e-24  8.6259e-28  3.3478e-24  8.9500e-28  3.3541e-24  9.5268e-28  3.3653e-24  1.0554e-27  3.3853e-24  1.2383e-27  3.4209e-24  1.5649e-27  3.4842e-24  2.1493e-27  3.5970e-24  3.2002e-27  3.7987e-24  5.1056e-27  4.1603e-24  8.6089e-27
      1.15  3.3253e-24  9.1599e-28  3.3254e-24  9.1637e-28  3.3254e-24  9.1706e-28  3.3255e-24  9.1828e-28  3.3256e-24  9.2045e-28  3.3258e-24  9.2431e-28  3.3261e-24  9.3117e-28  3.3268e-24  9.4337e-28  3.3279e-24  9.6506e-28  3.3299e-24  1.0037e-27  3.3334e-24  1.0723e-27  3.3397e-24  1.1945e-27  3.3508e-24  1.4119e-27  3.3707e-24  1.7995e-27  3.4061e-24  2.4911e-27  3.4691e-24  3.7291e-27  3.5814e-24  5.9555e-27  3.7820e-24  9.9935e-27  4.1417e-24  1.7422e-26
      1.20  3.3105e-24  1.0216e-27  3.3105e-24  1.0223e-27  3.3105e-24  1.0237e-27  3.3106e-24  1.0261e-27  3.3107e-24  1.0303e-27  3.3109e-24  1.0379e-27  3.3113e-24  1.0514e-27  3.3119e-24  1.0754e-27  3.3130e-24  1.1180e-27  3.3150e-24  1.1939e-27  3.3185e-24  1.3288e-27  3.3247e-24  1.5688e-27  3.3359e-24  1.9962e-27  3.3556e-24  2.7578e-27  3.3908e-24  4.1171e-27  3.4534e-24  6.5501e-27  3.5651e-24  1.0926e-26  3.7647e-24  1.8865e-26  4.1223e-24  3.3474e-26
      1.25  3.2952e-24  1.1399e-27  3.2952e-24  1.1413e-27  3.2952e-24  1.1438e-27  3.2953e-24  1.1482e-27  3.2954e-24  1.1560e-27  3.2956e-24  1.1699e-27  3.2959e-24  1.1946e-27  3.2966e-24  1.2385e-27  3.2977e-24  1.3167e-27  3.2996e-24  1.4558e-27  3.3031e-24  1.7031e-27  3.3093e-24  2.1433e-27  3.3204e-24  2.9269e-27  3.3400e-24  4.3234e-27  3.3750e-24  6.8159e-27  3.4373e-24  1.1277e-26  3.5484e-24  1.9303e-26  3.7467e-24  3.3863e-26  4.1023e-24  6.0662e-26
      1.30  3.2794e-24  1.2945e-27  3.2794e-24  1.2969e-27  3.2794e-24  1.3012e-27  3.2795e-24  1.3087e-27  3.2796e-24  1.3222e-27  3.2798e-24  1.3461e-27  3.2801e-24  1.3886e-27  3.2808e-24  1.4643e-27  3.2819e-24  1.5988e-27  3.2838e-24  1.8381e-27  3.2873e-24  2.2638e-27  3.2935e-24  3.0214e-27  3.3044e-24  4.3700e-27  3.3240e-24  6.7734e-27  3.3588e-24  1.1063e-26  3.4207e-24  1.8742e-26  3.5311e-24  3.2555e-26  3.7283e-24  5.7619e-26  4.0816e-24  1.0375e-25
      1.35  3.2631e-24  1.4659e-27  3.2631e-24  1.4697e-27  3.2631e-24  1.4766e-27  3.2632e-24  1.4889e-27  3.2633e-24  1.5108e-27  3.2635e-24  1.5497e-27  3.2638e-24  1.6188e-27  3.2645e-24  1.7417e-27  3.2656e-24  1.9603e-27  3.2675e-24  2.3492e-27  3.2709e-24  3.0409e-27  3.2771e-24  4.2718e-27  3.2880e-24  6.4633e-27  3.3074e-24  1.0369e-26  3.3420e-24  1.7339e-26  3.4036e-24  2.9817e-26  3.5133e-24  5.2263e-26  3.7093e-24  9.2992e-26  4.0604e-24  1.6797e-25
      1.40  3.2463e-24  1.6559e-27  3.2463e-24  1.6619e-27  3.2463e-24  1.6725e-27  3.2464e-24  1.6915e-27  3.2465e-24  1.7252e-27  3.2467e-24  1.7852e-27  3.2470e-24  1.8918e-27  3.2476e-24  2.0815e-27  3.2487e-24  2.4188e-27  3.2507e-24  3.0187e-27  3.2541e-24  4.0859e-27  3.2602e-24  5.9850e-27  3.2710e-24  9.3662e-27  3.2904e-24  1.5391e-26  3.3247e-24  2.6146e-26  3.3859e-24  4.5397e-26  3.4950e-24  8.0029e-26  3.6898e-24  1.4287e-25  4.0387e-24  2.5854e-25
      1.45  3.2289e-24  1.8666e-27  3.2289e-24  1.8755e-27  3.2290e-24  1.8912e-27  3.2290e-24  1.9191e-27  3.2291e-24  1.9688e-27  3.2293e-24  2.0571e-27  3.2297e-24  2.2141e-27  3.2303e-24  2.4934e-27  3.2314e-24  2.9902e-27  3.2333e-24  3.8737e-27  3.2367e-24  5.4454e-27  3.2428e-24  8.2423e-27  3.2536e-24  1.3222e-26  3.2727e-24  2.2095e-26  3.3069e-24  3.7934e-26  3.3677e-24  6.6284e-26  3.4761e-24  1.1729e-25  3.6697e-24  2.0982e-25  4.0164e-24  3.8017e-25
      1.50  3.2110e-24  2.1004e-27  3.2111e-24  2.1129e-27  3.2111e-24  2.1351e-27  3.2111e-24  2.1745e-27  3.2113e-24  2.2447e-27  3.2114e-24  2.3695e-27  3.2118e-24  2.5913e-27  3.2124e-24  2.9859e-27  3.2135e-24  3.6876e-27  3.2154e-24  4.9357e-27  3.2188e-24  7.1561e-27  3.2248e-24  1.1107e-26  3.2355e-24  1.8141e-26  3.2546e-24  3.0677e-26  3.2885e-24  5.3051e-26  3.3490e-24  9.3101e-26  3.4567e-24  1.6515e-25  3.6491e-24  2.9586e-25  3.9935e-24  5.3646e-25
      1.55  3.1926e-24  2.3599e-27  3.1926e-24  2.3769e-27  3.1926e-24  2.4071e-27  3.1927e-24  2.4608e-27  3.1928e-24  2.5564e-27  3.1930e-24  2.7263e-27  3.1933e-24  3.0284e-27  3.1939e-24  3.5656e-27  3.1950e-24  4.5211e-27  3.1969e-24  6.2207e-27  3.2003e-24  9.2441e-27  3.2063e-24  1.4624e-26  3.2169e-24  2.4202e-26  3.2359e-24  4.1271e-26  3.2696e-24  7.1737e-26  3.3297e-24  1.2627e-25  3.4368e-24  2.2437e-25  3.6279e-24  4.0233e-25  3.9701e-24  7.2987e-25
      1.60  3.1736e-24  2.6476e-27  3.1736e-24  2.6700e-27  3.1736e-24  2.7098e-27  3.1737e-24  2.7806e-27  3.1738e-24  2.9065e-27  3.1740e-24  3.1304e-27  3.1743e-24  3.5286e-27  3.1749e-24  4.2367e-27  3.1760e-24  5.4961e-27  3.1778e-24  7.7360e-27  3.1812e-24  1.1721e-26  3.1871e-24  1.8812e-26  3.1977e-24  3.1436e-26  3.2166e-24  5.3932e-26  3.2501e-24  9.4084e-26  3.3098e-24  1.6595e-25  3.4162e-24  2.9523e-25  3.6061e-24  5.2974e-25  3.9460e-24  9.6129e-25
      1.65  3.1539e-24  2.9663e-27  3.1540e-24  2.9950e-27  3.1540e-24  3.0460e-27  3.1541e-24  3.1367e-27  3.1542e-24  3.2980e-27  3.1544e-24  3.5848e-27  3.1547e-24  4.0949e-27  3.1553e-24  5.0020e-27  3.1563e-24  6.6153e-27  3.1582e-24  9.4848e-27  3.1615e-24  1.4589e-26  3.1674e-24  2.3673e-26  3.1780e-24  3.9845e-26  3.1967e-24  6.8662e-26  3.2300e-24  1.2010e-25  3.2893e-24  2.1216e-25  3.3950e-24  3.7774e-25  3.5836e-24  6.7810e-25  3.9212e-24  1.2307e-24
      1.70  3.1337e-24  3.3193e-27  3.1337e-24  3.3551e-27  3.1338e-24  3.4189e-27  3.1338e-24  3.5323e-27  3.1339e-24  3.7340e-27  3.1341e-24  4.0926e-27  3.1345e-24  4.7303e-27  3.1350e-24  5.8645e-27  3.1361e-24  7.8815e-27  3.1379e-24  1.1469e-26  3.1413e-24  1.7851e-26  3.1471e-24  2.9208e-26  3.1576e-24  4.9427e-26  3.1762e-24  8.5457e-26  3.2093e-24  1.4976e-25  3.2682e-24  2.6485e-25  3.3731e-24  4.7185e-25  3.5605e-24  8.4730e-25  3.8957e-24  1.5380e-24
      1.75  3.1129e-24  3.7100e-27  3.1129e-24  3.7539e-27  3.1129e-24  3.8321e-27  3.1130e-24  3.9710e-27  3.1131e-24  4.2181e-27  3.1133e-24  4.6576e-27  3.1136e-24  5.4390e-27  3.1142e-24  6.8288e-27  3.1152e-24  9.3005e-27  3.1171e-24  1.3697e-26  3.1204e-24  2.1517e-26  3.1262e-24  3.5434e-26  3.1366e-24  6.0210e-26  3.1550e-24  1.0436e-25  3.1879e-24  1.8315e-25  3.2464e-24  3.2417e-25  3.3506e-24  5.7780e-25  3.5365e-24  1.0378e-24  3.8692e-24  1.8837e-24
      1.80  3.0914e-24  4.1433e-27  3.0914e-24  4.1963e-27  3.0915e-24  4.2905e-27  3.0915e-24  4.4581e-27  3.0916e-24  4.7561e-27  3.0918e-24  5.2861e-27  3.0921e-24  6.2286e-27  3.0927e-24  7.9047e-27  3.0937e-24  1.0886e-26  3.0956e-24  1.6188e-26  3.0988e-24  2.5619e-26  3.1046e-24  4.2403e-26  3.1149e-24  7.2282e-26  3.1332e-24  1.2553e-25  3.1658e-24  2.2055e-25  3.2238e-24  3.9061e-25  3.3272e-24  6.9645e-25  3.5117e-24  1.2510e-24  3.8418e-24  2.2709e-24
      1.85  3.0693e-24  4.6229e-27  3.0693e-24  4.6861e-27  3.0693e-24  4.7984e-27  3.0694e-24  4.9981e-27  3.0695e-24  5.3533e-27  3.0697e-24  5.9849e-27  3.0700e-24  7.1081e-27  3.0706e-24  9.1057e-27  3.0716e-24  1.2658e-26  3.0734e-24  1.8977e-26  3.0766e-24  3.0218e-26  3.0824e-24  5.0219e-26  3.0926e-24  8.5829e-26  3.1107e-24  1.4928e-25  3.1431e-24  2.6253e-25  3.2006e-24  4.6519e-25  3.3031e-24  8.2963e-25  3.4860e-24  1.4905e-24  3.8133e-24  2.7055e-24
      1.90  3.0465e-24  5.1539e-27  3.0465e-24  5.2285e-27  3.0465e-24  5.3613e-27  3.0466e-24  5.5973e-27  3.0467e-24  6.0171e-27  3.0469e-24  6.7636e-27  3.0472e-24  8.0911e-27  3.0477e-24  1.0452e-26  3.0488e-24  1.4651e-26  3.0506e-24  2.2118e-26  3.0538e-24  3.5403e-26  3.0595e-24  5.9043e-26  3.0696e-24  1.0113e-25  3.0876e-24  1.7612e-25  3.1196e-24  3.0995e-25  3.1766e-24  5.4946e-25  3.2782e-24  9.8014e-25  3.4595e-24  1.7610e-24  3.7838e-24  3.1966e-24
      1.95  3.0230e-24  5.7416e-27  3.0230e-24  5.8293e-27  3.0230e-24  5.9852e-27  3.0231e-24  6.2624e-27  3.0232e-24  6.7553e-27  3.0234e-24  7.6319e-27  3.0237e-24  9.1908e-27  3.0243e-24  1.1963e-26  3.0253e-24  1.6894e-26  3.0270e-24  2.5663e-26  3.0302e-24  4.1264e-26  3.0359e-24  6.9023e-26  3.0459e-24  1.1844e-25  3.0638e-24  2.0650e-25  3.0955e-24  3.6366e-25  3.1521e-24  6.4488e-25  3.2529e-24  1.1505e-24  3.4327e-24  2.0672e-24  3.7544e-24  3.7521e-24
      2.00  2.9988e-24  6.3926e-27  2.9988e-24  6.4953e-27  2.9988e-24  6.6780e-27  2.9989e-24  7.0028e-27  2.9990e-24  7.5805e-27  2.9992e-24  8.6077e-27  2.9995e-24  1.0435e-26  3.0001e-24  1.3683e-26  3.0010e-24  1.9461e-26  3.0028e-24  2.9738e-26  3.0060e-24  4.8020e-26  3.0115e-24  8.0550e-26  3.0215e-24  1.3846e-25  3.0391e-24  2.4166e-25  3.0706e-24  4.2581e-25  3.1266e-24  7.5536e-25  3.2263e-24  1.3479e-24  3.4042e-24  2.4220e-24  3.7224e-24  4.3960e-24
      2.05  2.9739e-24  7.1155e-27  2.9739e-24  7.2356e-27  2.9739e-24  7.4492e-27  2.9740e-24  7.8291e-27  2.9741e-24  8.5045e-27  2.9743e-24  9.7057e-27  2.9746e-24  1.1842e-26  2.9751e-24  1.5641e-26  2.9761e-24  2.2397e-26  2.9779e-24  3.4414e-26  2.9810e-24  5.5791e-26  2.9865e-24  9.3830e-26  2.9963e-24  1.6155e-25  3.0138e-24  2.8222e-25  3.0448e-24  4.9756e-25  3.1002e-24  8.8289e-25  3.1987e-24  1.5757e-24  3.3745e-24  2.8316e-24  3.6889e-24  5.1397e-24
      2.10  2.9483e-24  7.9159e-27  2.9483e-24  8.0560e-27  2.9483e-24  8.3051e-27  2.9484e-24  8.7482e-27  2.9485e-24  9.5360e-27  2.9486e-24  1.0937e-26  2.9489e-24  1.3429e-26  2.9495e-24  1.7860e-26  2.9505e-24  2.5740e-26  2.9522e-24  3.9757e-26  2.9552e-24  6.4691e-26  2.9607e-24  1.0906e-25  2.9704e-24  1.8805e-25  2.9876e-24  3.2879e-25  3.0183e-24  5.7996e-25  3.0730e-24  1.0294e-24  3.1703e-24  1.8375e-24  3.3439e-24  3.3023e-24  3.6542e-24  5.9943e-24
      2.15  2.9219e-24  8.8017e-27  2.9219e-24  8.9645e-27  2.9219e-24  9.2542e-27  2.9220e-24  9.7692e-27  2.9221e-24  1.0685e-26  2.9222e-24  1.2314e-26  2.9225e-24  1.5210e-26  2.9231e-24  2.0361e-26  2.9240e-24  2.9522e-26  2.9257e-24  4.5815e-26  2.9288e-24  7.4801e-26  2.9342e-24  1.2638e-25  2.9437e-24  2.1820e-25  2.9607e-24  3.8181e-25  2.9910e-24  6.7378e-25  3.0449e-24  1.1962e-24  3.1410e-24  2.1356e-24  3.3123e-24  3.8384e-24  3.6185e-24  6.9676e-24
      2.20  2.8947e-24  9.7814e-27  2.8947e-24  9.9699e-27  2.8948e-24  1.0305e-26  2.8948e-24  1.0901e-26  2.8949e-24  1.1961e-26  2.8951e-24  1.3845e-26  2.8954e-24  1.7197e-26  2.8959e-24  2.3157e-26  2.8969e-24  3.3757e-26  2.8985e-24  5.2611e-26  2.9015e-24  8.6150e-26  2.9068e-24  1.4583e-25  2.9163e-24  2.5208e-25  2.9331e-24  4.4139e-25  2.9629e-24  7.7924e-25  3.0161e-24  1.3838e-24  3.1108e-24  2.4707e-24  3.2798e-24  4.4409e-24  3.5817e-24  8.0616e-24
      2.25  2.8668e-24  1.0864e-26  2.8668e-24  1.1081e-26  2.8669e-24  1.1466e-26  2.8669e-24  1.2152e-26  2.8670e-24  1.3371e-26  2.8672e-24  1.5539e-26  2.8675e-24  1.9394e-26  2.8680e-24  2.6249e-26  2.8689e-24  3.8442e-26  2.8706e-24  6.0129e-26  2.8735e-24  9.8707e-26  2.8787e-24  1.6735e-25  2.8880e-24  2.8956e-25  2.9046e-24  5.0732e-25  2.9341e-24  8.9593e-25  2.9865e-24  1.5913e-24  3.0799e-24  2.8415e-24  3.2464e-24  5.1076e-24  3.5441e-24  9.2720e-24
      2.30  2.8381e-24  1.2065e-26  2.8381e-24  1.2312e-26  2.8381e-24  1.2752e-26  2.8382e-24  1.3535e-26  2.8383e-24  1.4928e-26  2.8384e-24  1.7403e-26  2.8387e-24  2.1806e-26  2.8392e-24  2.9636e-26  2.8402e-24  4.3561e-26  2.8418e-24  6.8329e-26  2.8447e-24  1.1239e-25  2.8498e-24  1.9079e-25  2.8590e-24  3.3036e-25  2.8753e-24  5.7906e-25  2.9042e-24  1.0229e-24  2.9558e-24  1.8170e-24  3.0476e-24  3.2448e-24  3.2113e-24  5.8327e-24  3.5040e-24  1.0588e-23
      2.35  2.8086e-24  1.3389e-26  2.8086e-24  1.3670e-26  2.8086e-24  1.4169e-26  2.8087e-24  1.5056e-26  2.8088e-24  1.6633e-26  2.8089e-24  1.9438e-26  2.8092e-24  2.4426e-26  2.8097e-24  3.3297e-26  2.8106e-24  4.9074e-26  2.8122e-24  7.7136e-26  2.8151e-24  1.2705e-25  2.8202e-24  2.1588e-25  2.8292e-24  3.7401e-25  2.8453e-24  6.5578e-25  2.8739e-24  1.1586e-24  2.9248e-24  2.0583e-24  3.0154e-24  3.6759e-24  3.1771e-24  6.6078e-24  3.4662e-24  1.1995e-23
      2.40  2.7782e-24  1.4850e-26  2.7783e-24  1.5165e-26  2.7783e-24  1.5725e-26  2.7783e-24  1.6722e-26  2.7784e-24  1.8493e-26  2.7786e-24  2.1644e-26  2.7789e-24  2.7247e-26  2.7794e-24  3.7211e-26  2.7803e-24  5.4932e-26  2.7818e-24  8.6452e-26  2.7847e-24  1.4252e-25  2.7897e-24  2.4229e-25  2.7986e-24  4.1991e-25  2.8145e-24  7.3640e-25  2.8427e-24  1.3012e-24  2.8930e-24  2.3118e-24  2.9825e-24  4.1286e-24  3.1422e-24  7.4215e-24  3.4276e-24  1.3471e-23
      2.45  2.7471e-24  1.6459e-26  2.7471e-24  1.6810e-26  2.7471e-24  1.7434e-26  2.7472e-24  1.8543e-26  2.7473e-24  2.0516e-26  2.7474e-24  2.4023e-26  2.7477e-24  3.0261e-26  2.7482e-24  4.1355e-26  2.7491e-24  6.1084e-26  2.7506e-24  9.6176e-26  2.7534e-24  1.5860e-25  2.7584e-24  2.6968e-25  2.7672e-24  4.6743e-25  2.7829e-24  8.1977e-25  2.8107e-24  1.4485e-24  2.8604e-24  2.5736e-24  2.9488e-24  4.5962e-24  3.1064e-24  8.2619e-24  3.3881e-24  1.4996e-23
      2.50  2.7151e-24  1.8231e-26  2.7151e-24  1.8618e-26  2.7151e-24  1.9307e-26  2.7151e-24  2.0531e-26  2.7152e-24  2.2707e-26  2.7154e-24  2.6578e-26  2.7157e-24  3.3462e-26  2.7162e-24  4.5705e-26  2.7170e-24  6.7478e-26  2.7186e-24  1.0620e-25  2.7213e-24  1.7509e-25  2.7262e-24  2.9768e-25  2.7349e-24  5.1591e-25  2.7504e-24  9.0474e-25  2.7779e-24  1.5986e-24  2.8269e-24  2.8402e-24  2.9141e-24  5.0721e-24  3.0697e-24  9.1169e-24  3.3477e-24  1.6547e-23
      2.55  2.6822e-24  2.0190e-26  2.6822e-24  2.0614e-26  2.6822e-24  2.1367e-26  2.6823e-24  2.2706e-26  2.6824e-24  2.5088e-26  2.6825e-24  2.9323e-26  2.6828e-24  3.6855e-26  2.6833e-24  5.0250e-26  2.6841e-24  7.4072e-26  2.6857e-24  1.1644e-25  2.6884e-24  1.9182e-25  2.6932e-24  3.2594e-25  2.7018e-24  5.6470e-25  2.7171e-24  9.9013e-25  2.7442e-24  1.7493e-24  2.7926e-24  3.1077e-24  2.8786e-24  5.5494e-24  3.0321e-24  9.9743e-24  3.3065e-24  1.8101e-23
      2.60  2.6485e-24  2.2344e-26  2.6485e-24  2.2803e-26  2.6485e-24  2.3621e-26  2.6486e-24  2.5074e-26  2.6487e-24  2.7659e-26  2.6488e-24  3.2255e-26  2.6491e-24  4.0428e-26  2.6495e-24  5.4964e-26  2.6504e-24  8.0815e-26  2.6519e-24  1.2679e-25  2.6546e-24  2.0859e-25  2.6593e-24  3.5413e-25  2.6678e-24  6.1323e-25  2.6829e-24  1.0749e-24  2.7097e-24  1.8987e-24  2.7574e-24  3.3727e-24  2.8423e-24  6.0222e-24  2.9937e-24  1.0823e-23  3.2644e-24  1.9639e-23
      2.65  2.6139e-24  2.4711e-26  2.6139e-24  2.5206e-26  2.6139e-24  2.6086e-26  2.6140e-24  2.7651e-26  2.6141e-24  3.0435e-26  2.6142e-24  3.5385e-26  2.6145e-24  4.4188e-26  2.6149e-24  5.9844e-26  2.6158e-24  8.7687e-26  2.6173e-24  1.3721e-25  2.6199e-24  2.2530e-25  2.6246e-24  3.8206e-25  2.6330e-24  6.6112e-25  2.6478e-24  1.1583e-24  2.6743e-24  2.0456e-24  2.7213e-24  3.6331e-24  2.8050e-24  6.4865e-24  2.9544e-24  1.1656e-23  3.2213e-24  2.1148e-23
      2.70  2.5784e-24  2.7310e-26  2.5784e-24  2.7839e-26  2.5785e-24  2.8781e-26  2.5785e-24  3.0455e-26  2.5786e-24  3.3433e-26  2.5787e-24  3.8729e-26  2.5790e-24  4.8146e-26  2.5795e-24  6.4894e-26  2.5803e-24  9.4679e-26  2.5817e-24  1.4766e-25  2.5843e-24  2.4190e-25  2.5890e-24  4.0959e-25  2.5972e-24  7.0811e-25  2.6119e-24  1.2400e-24  2.6380e-24  2.1891e-24  2.6843e-24  3.8872e-24  2.7669e-24  6.9394e-24  2.9142e-24  1.2469e-23  3.1774e-24  2.2619e-23
      2.75  2.5421e-24  3.0162e-26  2.5421e-24  3.0725e-26  2.5421e-24  3.1726e-26  2.5421e-24  3.3507e-26  2.5422e-24  3.6673e-26  2.5424e-24  4.2304e-26  2.5426e-24  5.2317e-26  2.5431e-24  7.0125e-26  2.5439e-24  1.0180e-25  2.5453e-24  1.5813e-25  2.5479e-24  2.5833e-25  2.5525e-24  4.3664e-25  2.5606e-24  7.5406e-25  2.5751e-24  1.3196e-24  2.6008e-24  2.3288e-24  2.6465e-24  4.1343e-24  2.7280e-24  7.3792e-24  2.8732e-24  1.3257e-23  3.1328e-24  2.4046e-23
      2.80  2.5048e-24  3.3309e-26  2.5048e-24  3.3905e-26  2.5049e-24  3.4964e-26  2.5049e-24  3.6847e-26  2.5050e-24  4.0196e-26  2.5051e-24  4.6152e-26  2.5054e-24  5.6744e-26  2.5058e-24  7.5579e-26  2.5066e-24  1.0908e-25  2.5081e-24  1.6866e-25  2.5106e-24  2.7465e-25  2.5151e-24  4.6324e-25  2.5231e-24  7.9898e-25  2.5374e-24  1.3972e-24  2.5627e-24  2.4645e-24  2.6078e-24  4.3741e-24  2.6881e-24  7.8058e-24  2.8314e-24  1.4021e-23  3.0873e-24  2.5428e-23
      2.85  2.4667e-24  3.6760e-26  2.4667e-24  3.7387e-26  2.4667e-24  3.8502e-26  2.4668e-24  4.0485e-26  2.4669e-24  4.4011e-26  2.4670e-24  5.0282e-26  2.4673e-24  6.1434e-26  2.4677e-24  8.1266e-26  2.4685e-24  1.1654e-25  2.4699e-24  1.7927e-25  2.4724e-24  2.9087e-25  2.4768e-24  4.8944e-25  2.4848e-24  8.4293e-25  2.4988e-24  1.4728e-24  2.5238e-24  2.5965e-24  2.5683e-24  4.6069e-24  2.6474e-24  8.2197e-24  2.7886e-24  1.4762e-23  3.0410e-24  2.6766e-23
      2.90  2.4277e-24  4.0540e-26  2.4277e-24  4.1198e-26  2.4277e-24  4.2367e-26  2.4278e-24  4.4447e-26  2.4279e-24  4.8145e-26  2.4280e-24  5.4722e-26  2.4282e-24  6.6418e-26  2.4287e-24  8.7217e-26  2.4295e-24  1.2421e-25  2.4308e-24  1.9000e-25  2.4333e-24  3.0704e-25  2.4377e-24  5.1530e-25  2.4455e-24  8.8603e-25  2.4593e-24  1.5466e-24  2.4840e-24  2.7251e-24  2.5278e-24  4.8334e-24  2.6058e-24  8.6218e-24  2.7450e-24  1.5481e-23  2.9937e-24  2.8065e-23
      2.95  2.3878e-24  4.4689e-26  2.3878e-24  4.5377e-26  2.3878e-24  4.6599e-26  2.3879e-24  4.8773e-26  2.3880e-24  5.2638e-26  2.3881e-24  5.9513e-26  2.3883e-24  7.1737e-26  2.3888e-24  9.3477e-26  2.3895e-24  1.3214e-25  2.3909e-24  2.0091e-25  2.3933e-24  3.2324e-25  2.3977e-24  5.4091e-25  2.4053e-24  9.2841e-25  2.4190e-24  1.6188e-24  2.4433e-24  2.8506e-24  2.4864e-24  5.0540e-24  2.5633e-24  9.0130e-24  2.7005e-24  1.6181e-23  2.9455e-24  2.9327e-23
      3.00  2.3470e-24  4.9238e-26  2.3470e-24  4.9954e-26  2.3471e-24  5.1228e-26  2.3471e-24  5.3494e-26  2.3472e-24  5.7522e-26  2.3473e-24  6.4686e-26  2.3476e-24  7.7425e-26  2.3480e-24  1.0008e-25  2.3487e-24  1.4037e-25  2.3501e-24  2.1204e-25  2.3525e-24  3.3952e-25  2.3567e-24  5.6636e-25  2.3643e-24  9.7018e-25  2.3777e-24  1.6896e-24  2.4017e-24  2.9732e-24  2.4442e-24  5.2693e-24  2.5199e-24  9.3944e-24  2.6550e-24  1.6862e-23  2.8964e-24  3.0555e-23
      3.05  2.3054e-24  5.4267e-26  2.3054e-24  5.5011e-26  2.3054e-24  5.6334e-26  2.3055e-24  5.8688e-26  2.3055e-24  6.2872e-26  2.3057e-24  7.0313e-26  2.3059e-24  8.3546e-26  2.3063e-24  1.0708e-25  2.3071e-24  1.4893e-25  2.3084e-24  2.2338e-25  2.3108e-24  3.5580e-25  2.3149e-24  5.9142e-25  2.3224e-24  1.0109e-24  2.3356e-24  1.7582e-24  2.3592e-24  3.0914e-24  2.4011e-24  5.4763e-24  2.4757e-24  9.7604e-24  2.6087e-24  1.7515e-23  2.8464e-24  3.1731e-23
      3.10  2.2629e-24  5.9739e-26  2.2629e-24  6.0510e-26  2.2629e-24  6.1882e-26  2.2629e-24  6.4321e-26  2.2630e-24  6.8658e-26  2.2631e-24  7.6370e-26  2.2634e-24  9.0085e-26  2.2638e-24  1.1448e-25  2.2645e-24  1.5786e-25  2.2658e-24  2.3501e-25  2.2681e-24  3.7226e-25  2.2723e-24  6.1647e-25  2.2796e-24  1.0512e-24  2.2926e-24  1.8257e-24  2.3158e-24  3.2075e-24  2.3571e-24  5.6790e-24  2.4305e-24  1.0118e-23  2.5614e-24  1.8153e-23  2.7954e-24  3.2880e-23
      3.15  2.2195e-24  6.5771e-26  2.2195e-24  6.6569e-26  2.2195e-24  6.7988e-26  2.2196e-24  7.0511e-26  2.2196e-24  7.4999e-26  2.2198e-24  8.2978e-26  2.2200e-24  9.7170e-26  2.2204e-24  1.2241e-25  2.2211e-24  1.6729e-25  2.2224e-24  2.4712e-25  2.2247e-24  3.8913e-25  2.2288e-24  6.4180e-25  2.2360e-24  1.0916e-24  2.2488e-24  1.8929e-24  2.2716e-24  3.3226e-24  2.3122e-24  5.8796e-24  2.3845e-24  1.0472e-23  2.5133e-24  1.8783e-23  2.7435e-24  3.4012e-23
      3.20  2.1753e-24  7.2390e-26  2.1753e-24  7.3215e-26  2.1753e-24  7.4681e-26  2.1754e-24  7.7290e-26  2.1754e-24  8.1929e-26  2.1755e-24  9.0178e-26  2.1758e-24  1.0485e-25  2.1762e-24  1.3093e-25  2.1769e-24  1.7733e-25  2.1781e-24  2.5985e-25  2.1804e-24  4.0665e-25  2.1844e-24  6.6784e-25  2.1915e-24  1.1328e-24  2.2041e-24  1.9611e-24  2.2266e-24  3.4389e-24  2.2665e-24  6.0818e-24  2.3376e-24  1.0829e-23  2.4643e-24  1.9417e-23  2.6908e-24  3.5151e-23
      3.25  2.1302e-24  7.9607e-26  2.1303e-24  8.0460e-26  2.1303e-24  8.1976e-26  2.1303e-24  8.4673e-26  2.1304e-24  8.9469e-26  2.1305e-24  9.7997e-26  2.1307e-24  1.1316e-25  2.1311e-24  1.4013e-25  2.1318e-24  1.8810e-25  2.1331e-24  2.7342e-25  2.1353e-24  4.2518e-25  2.1392e-24  6.9521e-25  2.1462e-24  1.1759e-24  2.1586e-24  2.0322e-24  2.1807e-24  3.5600e-24  2.2199e-24  6.2921e-24  2.2898e-24  1.1199e-23  2.4145e-24  2.0075e-23  2.6372e-24  3.6334e-23
      3.30  2.0844e-24  8.7549e-26  2.0844e-24  8.8432e-26  2.0844e-24  9.0002e-26  2.0845e-24  9.2795e-26  2.0846e-24  9.7761e-26  2.0847e-24  1.0659e-25  2.0849e-24  1.2230e-25  2.0853e-24  1.5022e-25  2.0860e-24  1.9989e-25  2.0872e-24  2.8823e-25  2.0894e-24  4.4538e-25  2.0932e-24  7.2499e-25  2.1001e-24  1.2227e-24  2.1123e-24  2.1094e-24  2.1340e-24  3.6913e-24  2.1726e-24  6.5201e-24  2.2413e-24  1.1600e-23  2.3639e-24  2.0789e-23  2.5828e-24  3.7616e-23
      3.35  2.0378e-24  9.6195e-26  2.0378e-24  9.7113e-26  2.0378e-24  9.8744e-26  2.0379e-24  1.0165e-25  2.0379e-24  1.0680e-25  2.0381e-24  1.1598e-25  2.0383e-24  1.3230e-25  2.0387e-24  1.6131e-25  2.0393e-24  2.1292e-25  2.0405e-24  3.0470e-25  2.0427e-24  4.6797e-25  2.0465e-24  7.5848e-25  2.0532e-24  1.2756e-24  2.0652e-24  2.1968e-24  2.0865e-24  3.8403e-24  2.1244e-24  6.7791e-24  2.1920e-24  1.2056e-23  2.3125e-24  2.1600e-23  2.5276e-24  3.9075e-23
      3.40  1.9905e-24  1.0560e-25  1.9905e-24  1.0656e-25  1.9905e-24  1.0826e-25  1.9905e-24  1.1129e-25  1.9906e-24  1.1668e-25  1.9907e-24  1.2626e-25  1.9909e-24  1.4330e-25  1.9913e-24  1.7360e-25  1.9920e-24  2.2749e-25  1.9931e-24  3.2334e-25  1.9952e-24  4.9385e-25  1.9990e-24  7.9723e-25  2.0056e-24  1.3373e-24  2.0174e-24  2.2993e-24  2.0383e-24  4.0155e-24  2.0756e-24  7.0843e-24  2.1419e-24  1.2594e-23  2.2603e-24  2.2559e-23  2.4716e-24  4.0801e-23
      3.45  1.9424e-24  1.1581e-25  1.9424e-24  1.1682e-25  1.9424e-24  1.1861e-25  1.9425e-24  1.2180e-25  1.9425e-24  1.2746e-25  1.9427e-24  1.3754e-25  1.9429e-24  1.5546e-25  1.9432e-24  1.8732e-25  1.9439e-24  2.4399e-25  1.9450e-24  3.4478e-25  1.9471e-24  5.2408e-25  1.9508e-24  8.4310e-25  1.9573e-24  1.4110e-24  1.9688e-24  2.4226e-24  1.9894e-24  4.2273e-24  2.0260e-24  7.4540e-24  2.0912e-24  1.3247e-23  2.2074e-24  2.3724e-23  2.4149e-24  4.2897e-23
      3.50  1.8937e-24  1.2689e-25  1.8937e-24  1.2796e-25  1.8937e-24  1.2986e-25  1.8937e-24  1.3324e-25  1.8938e-24  1.3925e-25  1.8939e-24  1.4993e-25  1.8941e-24  1.6894e-25  1.8945e-24  2.0273e-25  1.8951e-24  2.6283e-25  1.8962e-24  3.6973e-25  1.8983e-24  5.5989e-25  1.9019e-24  8.9823e-25  1.9082e-24  1.5005e-24  1.9196e-24  2.5734e-24  1.9398e-24  4.4873e-24  1.9757e-24  7.9093e-24  2.0396e-24  1.4053e-23  2.1536e-24  2.5163e-23  2.3573e-24  4.5494e-23
      3.55  1.8443e-24  1.3905e-25  1.8443e-24  1.4020e-25  1.8443e-24  1.4223e-25  1.8444e-24  1.4585e-25  1.8444e-24  1.5229e-25  1.8445e-24  1.6374e-25  1.8447e-24  1.8409e-25  1.8451e-24  2.2030e-25  1.8457e-24  2.8468e-25  1.8468e-24  3.9920e-25  1.8488e-24  6.0290e-25  1.8524e-24  9.6534e-25  1.8586e-24  1.6105e-24  1.8697e-24  2.7598e-24  1.8895e-24  4.8100e-24  1.9248e-24  8.4757e-24  1.9875e-24  1.5057e-23  2.0994e-24  2.6956e-23  2.2992e-24  4.8729e-23
      3.60  1.7943e-24  1.5222e-25  1.7944e-24  1.5346e-25  1.7944e-24  1.5566e-25  1.7944e-24  1.5958e-25  1.7945e-24  1.6655e-25  1.7946e-24  1.7894e-25  1.7948e-24  2.0098e-25  1.7951e-24  2.4017e-25  1.7957e-24  3.0987e-25  1.7968e-24  4.3385e-25  1.7988e-24  6.5438e-25  1.8022e-24  1.0468e-24  1.8084e-24  1.7452e-24  1.8193e-24  2.9895e-24  1.8387e-24  5.2090e-24  1.8732e-24  9.1773e-24  1.9348e-24  1.6301e-23  2.0445e-24  2.9182e-23  2.2406e-24  5.2747e-23
      3.65  1.7438e-24  1.6644e-25  1.7438e-24  1.6780e-25  1.7438e-24  1.7021e-25  1.7439e-24  1.7450e-25  1.7439e-24  1.8214e-25  1.7441e-24  1.9571e-25  1.7442e-24  2.1985e-25  1.7446e-24  2.6279e-25  1.7452e-24  3.3914e-25  1.7463e-24  4.7494e-25  1.7482e-24  7.1651e-25  1.7516e-24  1.1463e-24  1.7576e-24  1.9114e-24  1.7683e-24  3.2744e-24  1.7873e-24  5.7056e-24  1.8211e-24  1.0052e-23  1.8815e-24  1.7856e-23  1.9890e-24  3.1964e-23  2.1813e-24  5.7770e-23
      3.70  1.6928e-24  1.8181e-25  1.6928e-24  1.8332e-25  1.6928e-24  1.8600e-25  1.6929e-24  1.9077e-25  1.6929e-24  1.9924e-25  1.6930e-24  2.1432e-25  1.6932e-24  2.4114e-25  1.6936e-24  2.8883e-25  1.6941e-24  3.7364e-25  1.6952e-24  5.2448e-25  1.6971e-24  7.9280e-25  1.7004e-24  1.2702e-24  1.7063e-24  2.1201e-24  1.7168e-24  3.6340e-24  1.7354e-24  6.3344e-24  1.7686e-24  1.1163e-23  1.8277e-24  1.9830e-23  1.9331e-24  3.5499e-23  2.1217e-24  6.4155e-23
      3.75  1.6413e-24  1.9849e-25  1.6414e-24  2.0019e-25  1.6414e-24  2.0321e-25  1.6414e-24  2.0859e-25  1.6415e-24  2.1816e-25  1.6416e-24  2.3517e-25  1.6418e-24  2.6542e-25  1.6421e-24  3.1922e-25  1.6427e-24  4.1491e-25  1.6437e-24  5.8509e-25  1.6455e-24  8.8781e-25  1.6488e-24  1.4264e-24  1.6546e-24  2.3852e-24  1.6648e-24  4.0932e-24  1.6831e-24  7.1398e-24  1.7156e-24  1.2587e-23  1.7736e-24  2.2365e-23  1.8769e-24  4.0041e-23  2.0620e-24  7.2361e-23
      3.80  1.5910e-24  2.1766e-25  1.5911e-24  2.1962e-25  1.5911e-24  2.2310e-25  1.5911e-24  2.2929e-25  1.5912e-24  2.4031e-25  1.5913e-24  2.5990e-25  1.5914e-24  2.9473e-25  1.5918e-24  3.5668e-25  1.5923e-24  4.6686e-25  1.5933e-24  6.6281e-25  1.5951e-24  1.0114e-24  1.5983e-24  1.6316e-24  1.6040e-24  2.7356e-24  1.6141e-24  4.7023e-24  1.6320e-24  8.2101e-24  1.6639e-24  1.4482e-23  1.7208e-24  2.5739e-23  1.8222e-24  4.6089e-23  2.0039e-24  8.3291e-23
      3.85  1.5391e-24  2.4469e-25  1.5391e-24  2.4701e-25  1.5392e-24  2.5112e-25  1.5392e-24  2.5844e-25  1.5392e-24  2.7144e-25  1.5393e-24  2.9458e-25  1.5395e-24  3.3572e-25  1.5398e-24  4.0888e-25  1.5404e-24  5.3900e-25  1.5414e-24  7.7044e-25  1.5432e-24  1.1821e-24  1.5463e-24  1.9146e-24  1.5519e-24  3.2184e-24  1.5618e-24  5.5410e-24  1.5794e-24  9.6836e-24  1.6109e-24  1.7089e-23  1.6669e-24  3.0381e-23  1.7668e-24  5.4403e-23  1.9464e-24  9.8291e-23
      3.90  1.4870e-24  3.0872e-25  1.4870e-24  3.1154e-25  1.4870e-24  3.1656e-25  1.4871e-24  3.2548e-25  1.4871e-24  3.4134e-25  1.4872e-24  3.6955e-25  1.4874e-24  4.1971e-25  1.4877e-24  5.0891e-25  1.4883e-24  6.6756e-25  1.4893e-24  9.4972e-25  1.4910e-24  1.4516e-24  1.4941e-24  2.3447e-24  1.4996e-24  3.9343e-24  1.5094e-24  6.7658e-24  1.5269e-24  1.1816e-23  1.5580e-24  2.0842e-23  1.6135e-24  3.7039e-23  1.7125e-24  6.6300e-23  1.8907e-24  1.1971e-22
      3.95  1.4347e-24  5.3369e-25  1.4348e-24  5.3722e-25  1.4348e-24  5.4350e-25  1.4348e-24  5.5467e-25  1.4349e-24  5.7453e-25  1.4350e-24  6.0984e-25  1.4351e-24  6.7264e-25  1.4354e-24  7.8432e-25  1.4360e-24  9.8294e-25  1.4370e-24  1.3362e-24  1.4387e-24  1.9646e-24  1.4418e-24  3.0825e-24  1.4473e-24  5.0725e-24  1.4571e-24  8.6168e-24  1.4745e-24  1.4937e-23  1.5056e-24  2.6232e-23  1.5609e-24  4.6492e-23  1.6598e-24  8.3066e-23  1.8377e-24  1.4975e-22
