# This was generated using Cloudy10 and the columns are ordered 
# as log10 of the fraction of the metallicity to the solar metallicity
# 'h_*_Z' and 'c_*_Z' stands for cooling and heating respectively 
# at * metalicity
#
# NOTE: This was generated separately from loop_coolingcurve_w_UV.py
#       using Output_metals_w_redshift.py.
#
# Redshift = 8.5
# hden = -6.5
#
#     temp   h_-3.00_Z   c_-3.00_Z   h_-2.75_Z   c_-2.75_Z   h_-2.50_Z   c_-2.50_Z   h_-2.25_Z   c_-2.25_Z   h_-2.00_Z   c_-2.00_Z   h_-1.75_Z   c_-1.75_Z   h_-1.50_Z   c_-1.50_Z   h_-1.25_Z   c_-1.25_Z   h_-1.00_Z   c_-1.00_Z   h_-0.75_Z   c_-0.75_Z   h_-0.50_Z   c_-0.50_Z   h_-0.25_Z   c_-0.25_Z    h_0.00_Z    c_0.00_Z    h_0.25_Z    c_0.25_Z    h_0.50_Z    c_0.50_Z    h_0.75_Z    c_0.75_Z    h_1.00_Z    c_1.00_Z    h_1.25_Z    c_1.25_Z    h_1.50_Z    c_1.50_Z 
      1.00  4.8380e-22  1.6728e-24  4.8386e-22  1.6728e-24  4.8397e-22  1.6728e-24  4.8416e-22  1.6728e-24  4.8450e-22  1.6728e-24  4.8511e-22  1.6728e-24  4.8620e-22  1.6729e-24  4.8813e-22  1.6731e-24  4.9156e-22  1.6733e-24  4.9762e-22  1.6738e-24  5.0836e-22  1.6746e-24  5.2726e-22  1.6760e-24  5.6041e-22  1.6786e-24  6.1844e-22  1.6831e-24  7.2005e-22  1.6910e-24  9.0073e-22  1.7053e-24  1.2244e-21  1.7305e-24  1.8048e-21  1.7754e-24  2.8478e-21  1.8552e-24
      1.05  4.6001e-22  1.8746e-24  4.6007e-22  1.8746e-24  4.6017e-22  1.8746e-24  4.6037e-22  1.8746e-24  4.6070e-22  1.8746e-24  4.6131e-22  1.8747e-24  4.6238e-22  1.8748e-24  4.6428e-22  1.8749e-24  4.6766e-22  1.8752e-24  4.7365e-22  1.8757e-24  4.8424e-22  1.8766e-24  5.0289e-22  1.8782e-24  5.3560e-22  1.8810e-24  5.9285e-22  1.8860e-24  6.9308e-22  1.8950e-24  8.7126e-22  1.9108e-24  1.1905e-21  1.9390e-24  1.7626e-21  1.9890e-24  2.7914e-21  2.0778e-24
      1.10  4.3730e-22  2.1010e-24  4.3736e-22  2.1010e-24  4.3746e-22  2.1010e-24  4.3765e-22  2.1010e-24  4.3799e-22  2.1011e-24  4.3858e-22  2.1011e-24  4.3964e-22  2.1012e-24  4.4152e-22  2.1014e-24  4.4485e-22  2.1017e-24  4.5076e-22  2.1023e-24  4.6121e-22  2.1033e-24  4.7962e-22  2.1051e-24  5.1190e-22  2.1082e-24  5.6837e-22  2.1139e-24  6.6724e-22  2.1238e-24  8.4308e-22  2.1415e-24  1.1578e-21  2.1730e-24  1.7219e-21  2.2289e-24  2.7370e-21  2.3281e-24
      1.15  4.1561e-22  2.3551e-24  4.1567e-22  2.3551e-24  4.1578e-22  2.3552e-24  4.1596e-22  2.3552e-24  4.1629e-22  2.3552e-24  4.1688e-22  2.3553e-24  4.1792e-22  2.3554e-24  4.1977e-22  2.3556e-24  4.2306e-22  2.3559e-24  4.2889e-22  2.3566e-24  4.3920e-22  2.3577e-24  4.5737e-22  2.3597e-24  4.8923e-22  2.3632e-24  5.4494e-22  2.3695e-24  6.4247e-22  2.3807e-24  8.1604e-22  2.4006e-24  1.1263e-21  2.4359e-24  1.6828e-21  2.4986e-24  2.6843e-21  2.6098e-24
      1.20  3.9490e-22  2.6403e-24  3.9496e-22  2.6403e-24  3.9506e-22  2.6403e-24  3.9524e-22  2.6404e-24  3.9557e-22  2.6404e-24  3.9615e-22  2.6405e-24  3.9718e-22  2.6406e-24  3.9901e-22  2.6408e-24  4.0225e-22  2.6412e-24  4.0800e-22  2.6420e-24  4.1817e-22  2.6432e-24  4.3610e-22  2.6455e-24  4.6755e-22  2.6495e-24  5.2250e-22  2.6566e-24  6.1870e-22  2.6692e-24  7.9001e-22  2.6916e-24  1.0960e-21  2.7315e-24  1.6449e-21  2.8024e-24  2.6331e-21  2.9282e-24
      1.25  3.7511e-22  2.9604e-24  3.7517e-22  2.9604e-24  3.7527e-22  2.9604e-24  3.7545e-22  2.9604e-24  3.7577e-22  2.9605e-24  3.7634e-22  2.9606e-24  3.7735e-22  2.9607e-24  3.7915e-22  2.9610e-24  3.8235e-22  2.9614e-24  3.8801e-22  2.9623e-24  3.9803e-22  2.9637e-24  4.1569e-22  2.9663e-24  4.4666e-22  2.9709e-24  5.0076e-22  2.9790e-24  5.9548e-22  2.9935e-24  7.6423e-22  3.0192e-24  1.0654e-21  3.0649e-24  1.6058e-21  3.1462e-24  2.5792e-21  3.2909e-24
      1.30  3.5620e-22  3.3196e-24  3.5626e-22  3.3196e-24  3.5636e-22  3.3197e-24  3.5654e-22  3.3197e-24  3.5685e-22  3.3197e-24  3.5741e-22  3.3198e-24  3.5841e-22  3.3200e-24  3.6018e-22  3.3203e-24  3.6333e-22  3.3208e-24  3.6891e-22  3.3218e-24  3.7877e-22  3.3235e-24  3.9616e-22  3.3265e-24  4.2666e-22  3.3318e-24  4.7990e-22  3.3413e-24  5.7316e-22  3.3582e-24  7.3933e-22  3.3882e-24  1.0359e-21  3.4416e-24  1.5678e-21  3.5369e-24  2.5265e-21  3.7073e-24
      1.35  3.3814e-22  3.7228e-24  3.3819e-22  3.7228e-24  3.3829e-22  3.7228e-24  3.3846e-22  3.7229e-24  3.3878e-22  3.7229e-24  3.3933e-22  3.7231e-24  3.4031e-22  3.7233e-24  3.4206e-22  3.7236e-24  3.4515e-22  3.7243e-24  3.5064e-22  3.7254e-24  3.6035e-22  3.7274e-24  3.7748e-22  3.7310e-24  4.0752e-22  3.7374e-24  4.5993e-22  3.7487e-24  5.5181e-22  3.7688e-24  7.1538e-22  3.8048e-24  1.0074e-21  3.8689e-24  1.5311e-21  3.9838e-24  2.4754e-21  4.1905e-24
      1.40  3.2087e-22  4.1753e-24  3.2092e-22  4.1753e-24  3.2102e-22  4.1754e-24  3.2119e-22  4.1754e-24  3.2150e-22  4.1755e-24  3.2204e-22  4.1756e-24  3.2301e-22  4.1759e-24  3.2473e-22  4.1763e-24  3.2778e-22  4.1771e-24  3.3318e-22  4.1785e-24  3.4275e-22  4.1810e-24  3.5961e-22  4.1853e-24  3.8919e-22  4.1932e-24  4.4080e-22  4.2071e-24  5.3132e-22  4.2318e-24  6.9232e-22  4.2760e-24  9.8000e-22  4.3553e-24  1.4956e-21  4.4980e-24  2.4258e-21  4.7577e-24
      1.45  3.0437e-22  4.6846e-24  3.0443e-22  4.6847e-24  3.0452e-22  4.6847e-24  3.0469e-22  4.6847e-24  3.0499e-22  4.6848e-24  3.0553e-22  4.6850e-24  3.0648e-22  4.6853e-24  3.0817e-22  4.6859e-24  3.1117e-22  4.6869e-24  3.1649e-22  4.6886e-24  3.2589e-22  4.6917e-24  3.4248e-22  4.6972e-24  3.7159e-22  4.7070e-24  4.2238e-22  4.7245e-24  5.1149e-22  4.7558e-24  6.6981e-22  4.8117e-24  9.5303e-22  4.9123e-24  1.4602e-21  5.0949e-24  2.3760e-21  5.4309e-24
      1.50  2.8861e-22  5.2566e-24  2.8866e-22  5.2566e-24  2.8876e-22  5.2566e-24  2.8892e-22  5.2567e-24  2.8922e-22  5.2568e-24  2.8974e-22  5.2570e-24  2.9068e-22  5.2574e-24  2.9234e-22  5.2581e-24  2.9529e-22  5.2594e-24  3.0052e-22  5.2616e-24  3.0978e-22  5.2656e-24  3.2610e-22  5.2726e-24  3.5475e-22  5.2852e-24  4.0473e-22  5.3076e-24  4.9247e-22  5.3477e-24  6.4817e-22  5.4197e-24  9.2699e-22  5.5498e-24  1.4259e-21  5.7877e-24  2.3278e-21  6.2312e-24
      1.55  2.7355e-22  5.8982e-24  2.7360e-22  5.8982e-24  2.7369e-22  5.8983e-24  2.7386e-22  5.8984e-24  2.7415e-22  5.8985e-24  2.7467e-22  5.8988e-24  2.7559e-22  5.8993e-24  2.7722e-22  5.9002e-24  2.8013e-22  5.9018e-24  2.8527e-22  5.9047e-24  2.9438e-22  5.9098e-24  3.1044e-22  5.9189e-24  3.3863e-22  5.9350e-24  3.8782e-22  5.9640e-24  4.7422e-22  6.0159e-24  6.2737e-22  6.1093e-24  9.0185e-22  6.2789e-24  1.3927e-21  6.5913e-24  2.2811e-21  7.1806e-24
      1.60  2.5917e-22  6.6181e-24  2.5922e-22  6.6182e-24  2.5931e-22  6.6182e-24  2.5947e-22  6.6183e-24  2.5976e-22  6.6185e-24  2.6027e-22  6.6189e-24  2.6117e-22  6.6196e-24  2.6278e-22  6.6207e-24  2.6564e-22  6.6228e-24  2.7070e-22  6.6265e-24  2.7965e-22  6.6330e-24  2.9545e-22  6.6447e-24  3.2318e-22  6.6655e-24  3.7158e-22  6.7029e-24  4.5664e-22  6.7699e-24  6.0728e-22  6.8910e-24  8.7733e-22  7.1116e-24  1.3603e-21  7.5208e-24  2.2350e-21  8.3009e-24
      1.65  2.4544e-22  7.4260e-24  2.4549e-22  7.4260e-24  2.4557e-22  7.4261e-24  2.4573e-22  7.4262e-24  2.4601e-22  7.4265e-24  2.4652e-22  7.4270e-24  2.4741e-22  7.4278e-24  2.4899e-22  7.4293e-24  2.5179e-22  7.4319e-24  2.5677e-22  7.4366e-24  2.6558e-22  7.4449e-24  2.8111e-22  7.4598e-24  3.0838e-22  7.4864e-24  3.5600e-22  7.5342e-24  4.3972e-22  7.6200e-24  5.8787e-22  7.7754e-24  8.5352e-22  8.0595e-24  1.3288e-21  8.5897e-24  2.1900e-21  9.6095e-24
      1.70  2.3233e-22  8.3325e-24  2.3237e-22  8.3325e-24  2.3246e-22  8.3326e-24  2.3262e-22  8.3328e-24  2.3289e-22  8.3331e-24  2.3339e-22  8.3337e-24  2.3426e-22  8.3348e-24  2.3582e-22  8.3366e-24  2.3857e-22  8.3399e-24  2.4347e-22  8.3458e-24  2.5212e-22  8.3563e-24  2.6739e-22  8.3750e-24  2.9420e-22  8.4085e-24  3.4103e-22  8.4687e-24  4.2342e-22  8.5770e-24  5.6908e-22  8.7736e-24  8.3032e-22  9.1337e-24  1.2980e-21  9.8094e-24  2.1458e-21  1.1119e-23
      1.75  2.1982e-22  9.3497e-24  2.1986e-22  9.3498e-24  2.1995e-22  9.3499e-24  2.2010e-22  9.3502e-24  2.2038e-22  9.3506e-24  2.2086e-22  9.3513e-24  2.2172e-22  9.3526e-24  2.2325e-22  9.3549e-24  2.2596e-22  9.3590e-24  2.3076e-22  9.3662e-24  2.3927e-22  9.3792e-24  2.5427e-22  9.4024e-24  2.8061e-22  9.4438e-24  3.2663e-22  9.5183e-24  4.0767e-22  9.6525e-24  5.5087e-22  9.8967e-24  8.0756e-22  1.0345e-23  1.2675e-21  1.1190e-23  2.1017e-21  1.2837e-23
      1.80  2.0789e-22  1.0491e-23  2.0793e-22  1.0491e-23  2.0802e-22  1.0492e-23  2.0817e-22  1.0492e-23  2.0844e-22  1.0492e-23  2.0891e-22  1.0493e-23  2.0975e-22  1.0495e-23  2.1125e-22  1.0498e-23  2.1391e-22  1.0503e-23  2.1863e-22  1.0511e-23  2.2698e-22  1.0527e-23  2.4171e-22  1.0555e-23  2.6758e-22  1.0606e-23  3.1277e-22  1.0696e-23  3.9242e-22  1.0860e-23  5.3312e-22  1.1158e-23  7.8518e-22  1.1706e-23  1.2373e-21  1.2741e-23  2.0577e-21  1.4772e-23
      1.85  1.9651e-22  1.1773e-23  1.9656e-22  1.1773e-23  1.9664e-22  1.1773e-23  1.9679e-22  1.1773e-23  1.9705e-22  1.1774e-23  1.9752e-22  1.1775e-23  1.9835e-22  1.1777e-23  1.9982e-22  1.1780e-23  2.0243e-22  1.1786e-23  2.0705e-22  1.1797e-23  2.1524e-22  1.1815e-23  2.2969e-22  1.1849e-23  2.5507e-22  1.1910e-23  2.9941e-22  1.2018e-23  3.7762e-22  1.2214e-23  5.1584e-22  1.2572e-23  7.6310e-22  1.3231e-23  1.2073e-21  1.4480e-23  2.0136e-21  1.6937e-23
      1.90  1.8568e-22  1.3210e-23  1.8572e-22  1.3211e-23  1.8580e-22  1.3211e-23  1.8595e-22  1.3211e-23  1.8621e-22  1.3212e-23  1.8666e-22  1.3213e-23  1.8747e-22  1.3215e-23  1.8891e-22  1.3219e-23  1.9147e-22  1.3226e-23  1.9601e-22  1.3239e-23  2.0404e-22  1.3261e-23  2.1820e-22  1.3301e-23  2.4307e-22  1.3373e-23  2.8655e-22  1.3502e-23  3.6328e-22  1.3735e-23  4.9896e-22  1.4160e-23  7.4137e-22  1.4945e-23  1.1774e-21  1.6431e-23  1.9693e-21  1.9365e-23
      1.95  1.7536e-22  1.4824e-23  1.7540e-22  1.4824e-23  1.7548e-22  1.4825e-23  1.7562e-22  1.4825e-23  1.7587e-22  1.4826e-23  1.7632e-22  1.4827e-23  1.7712e-22  1.4830e-23  1.7853e-22  1.4835e-23  1.8103e-22  1.4843e-23  1.8548e-22  1.4858e-23  1.9334e-22  1.4884e-23  2.0721e-22  1.4932e-23  2.3158e-22  1.5017e-23  2.7418e-22  1.5170e-23  3.4940e-22  1.5446e-23  4.8249e-22  1.5949e-23  7.2001e-22  1.6879e-23  1.1478e-21  1.8640e-23  1.9251e-21  2.2119e-23
      2.00  1.6554e-22  1.6635e-23  1.6558e-22  1.6635e-23  1.6566e-22  1.6636e-23  1.6580e-22  1.6636e-23  1.6604e-22  1.6637e-23  1.6648e-22  1.6639e-23  1.6726e-22  1.6642e-23  1.6864e-22  1.6648e-23  1.7109e-22  1.6658e-23  1.7545e-22  1.6675e-23  1.8315e-22  1.6707e-23  1.9673e-22  1.6763e-23  2.2060e-22  1.6864e-23  2.6233e-22  1.7046e-23  3.3604e-22  1.7375e-23  4.6652e-22  1.7974e-23  6.9922e-22  1.9079e-23  1.1189e-21  2.1172e-23  1.8817e-21  2.5301e-23
      2.05  1.5620e-22  1.8668e-23  1.5624e-22  1.8668e-23  1.5631e-22  1.8668e-23  1.5645e-22  1.8669e-23  1.5669e-22  1.8670e-23  1.5712e-22  1.8672e-23  1.5788e-22  1.8676e-23  1.5924e-22  1.8683e-23  1.6164e-22  1.8695e-23  1.6590e-22  1.8716e-23  1.7345e-22  1.8754e-23  1.8676e-22  1.8822e-23  2.1014e-22  1.8944e-23  2.5104e-22  1.9163e-23  3.2331e-22  1.9558e-23  4.5121e-22  2.0278e-23  6.7930e-22  2.1606e-23  1.0911e-21  2.4115e-23  1.8400e-21  2.9053e-23
      2.10  1.4732e-22  2.0949e-23  1.4736e-22  2.0949e-23  1.4743e-22  2.0950e-23  1.4757e-22  2.0951e-23  1.4780e-22  2.0952e-23  1.4822e-22  2.0955e-23  1.4897e-22  2.0959e-23  1.5030e-22  2.0968e-23  1.5265e-22  2.0982e-23  1.5683e-22  2.1008e-23  1.6423e-22  2.1055e-23  1.7729e-22  2.1138e-23  2.0023e-22  2.1286e-23  2.4036e-22  2.1554e-23  3.1127e-22  2.2037e-23  4.3673e-22  2.2914e-23  6.6060e-22  2.4532e-23  1.0649e-21  2.7580e-23  1.8008e-21  3.3556e-23
      2.15  1.3888e-22  2.3509e-23  1.3892e-22  2.3510e-23  1.3900e-22  2.3510e-23  1.3913e-22  2.3511e-23  1.3936e-22  2.3513e-23  1.3977e-22  2.3516e-23  1.4051e-22  2.3522e-23  1.4181e-22  2.3532e-23  1.4412e-22  2.3550e-23  1.4823e-22  2.3583e-23  1.5549e-22  2.3640e-23  1.6832e-22  2.3743e-23  1.9087e-22  2.3927e-23  2.3033e-22  2.4259e-23  2.9997e-22  2.4856e-23  4.2320e-22  2.5941e-23  6.4326e-22  2.7937e-23  1.0408e-21  3.1688e-23  1.7649e-21  3.9013e-23
      2.20  1.3088e-22  2.6383e-23  1.3092e-22  2.6383e-23  1.3099e-22  2.6384e-23  1.3112e-22  2.6385e-23  1.3135e-22  2.6387e-23  1.3175e-22  2.6391e-23  1.3247e-22  2.6398e-23  1.3375e-22  2.6411e-23  1.3603e-22  2.6434e-23  1.4007e-22  2.6474e-23  1.4721e-22  2.6546e-23  1.5984e-22  2.6675e-23  1.8204e-22  2.6906e-23  2.2091e-22  2.7320e-23  2.8943e-22  2.8066e-23  4.1064e-22  2.9421e-23  6.2732e-22  3.1908e-23  1.0187e-21  3.6571e-23  1.7323e-21  4.5635e-23
      2.25  1.2328e-22  2.9607e-23  1.2332e-22  2.9608e-23  1.2339e-22  2.9609e-23  1.2352e-22  2.9610e-23  1.2374e-22  2.9613e-23  1.2414e-22  2.9618e-23  1.2485e-22  2.9627e-23  1.2612e-22  2.9643e-23  1.2836e-22  2.9672e-23  1.3233e-22  2.9723e-23  1.3937e-22  2.9813e-23  1.5181e-22  2.9975e-23  1.7371e-22  3.0264e-23  2.1207e-22  3.0785e-23  2.7955e-22  3.1722e-23  3.9893e-22  3.3420e-23  6.1260e-22  3.6533e-23  9.9847e-22  4.2357e-23  1.7026e-21  5.3629e-23
      2.30  1.1608e-22  3.3226e-23  1.1612e-22  3.3227e-23  1.1619e-22  3.3228e-23  1.1632e-22  3.3230e-23  1.1654e-22  3.3234e-23  1.1693e-22  3.3240e-23  1.1763e-22  3.3251e-23  1.1888e-22  3.3271e-23  1.2108e-22  3.3307e-23  1.2500e-22  3.3371e-23  1.3195e-22  3.3485e-23  1.4422e-22  3.3688e-23  1.6583e-22  3.4051e-23  2.0371e-22  3.4703e-23  2.7023e-22  3.5879e-23  3.8788e-22  3.8007e-23  5.9878e-22  4.1901e-23  9.7947e-22  4.9172e-23  1.6748e-21  6.3188e-23
      2.35  1.0926e-22  3.7288e-23  1.0930e-22  3.7288e-23  1.0937e-22  3.7290e-23  1.0949e-22  3.7292e-23  1.0971e-22  3.7297e-23  1.1010e-22  3.7305e-23  1.1079e-22  3.7319e-23  1.1202e-22  3.7344e-23  1.1419e-22  3.7389e-23  1.1806e-22  3.7468e-23  1.2491e-22  3.7610e-23  1.3701e-22  3.7864e-23  1.5834e-22  3.8317e-23  1.9575e-22  3.9131e-23  2.6134e-22  4.0598e-23  3.7729e-22  4.3251e-23  5.8549e-22  4.8099e-23  9.6117e-22  5.7134e-23  1.6478e-21  7.4493e-23
      2.40  1.0280e-22  4.1842e-23  1.0284e-22  4.1847e-23  1.0291e-22  4.1848e-23  1.0303e-22  4.1851e-23  1.0325e-22  4.1857e-23  1.0363e-22  4.1867e-23  1.0431e-22  4.1884e-23  1.0552e-22  4.1915e-23  1.0766e-22  4.1971e-23  1.1147e-22  4.2070e-23  1.1822e-22  4.2245e-23  1.3016e-22  4.2559e-23  1.5120e-22  4.3120e-23  1.8811e-22  4.4127e-23  2.5276e-22  4.5943e-23  3.6700e-22  4.9224e-23  5.7245e-22  5.5212e-23  9.4307e-22  6.6357e-23  1.6209e-21  8.7711e-23
      2.45  9.6699e-23  4.6961e-23  9.6737e-23  4.6962e-23  9.6804e-23  4.6964e-23  9.6915e-23  4.6964e-23  9.7127e-23  4.6971e-23  9.7511e-23  4.6987e-23  9.8180e-23  4.7008e-23  9.9361e-23  4.7043e-23  1.0148e-22  4.7114e-23  1.0523e-22  4.7235e-23  1.1188e-22  4.7451e-23  1.2363e-22  4.7835e-23  1.4436e-22  4.8523e-23  1.8075e-22  4.9757e-23  2.4441e-22  5.1982e-23  3.5689e-22  5.6001e-23  5.5946e-22  6.3328e-23  9.2483e-22  7.6951e-23  1.5934e-21  1.0300e-22
      2.50  9.0925e-23  5.2701e-23  9.0962e-23  5.2703e-23  9.1028e-23  5.2705e-23  9.1145e-23  5.2710e-23  9.1353e-23  5.2718e-23  9.1723e-23  5.2733e-23  9.2381e-23  5.2759e-23  9.3551e-23  5.2805e-23  9.5627e-23  5.2887e-23  9.9314e-23  5.3034e-23  1.0585e-22  5.3295e-23  1.1741e-22  5.3762e-23  1.3781e-22  5.4596e-23  1.7362e-22  5.6091e-23  2.3627e-22  5.8788e-23  3.4687e-22  6.3659e-23  5.4634e-22  7.2535e-23  9.0620e-22  8.9022e-23  1.5649e-21  1.2050e-22
      2.55  8.5471e-23  5.9143e-23  8.5507e-23  5.9145e-23  8.5572e-23  5.9148e-23  8.5687e-23  5.9154e-23  8.5891e-23  5.9164e-23  8.6255e-23  5.9181e-23  8.6901e-23  5.9212e-23  8.8048e-23  5.9268e-23  9.0087e-23  5.9367e-23  9.3707e-23  5.9543e-23  1.0013e-22  5.9856e-23  1.1148e-22  6.0415e-23  1.3152e-22  6.1415e-23  1.6671e-22  6.3208e-23  2.2830e-22  6.6441e-23  3.3694e-22  7.2280e-23  5.3303e-22  8.2916e-23  8.8701e-22  1.0266e-22  1.5353e-21  1.4033e-22
      2.60  8.0322e-23  6.6373e-23  8.0358e-23  6.6375e-23  8.0421e-23  6.6378e-23  8.0534e-23  6.6385e-23  8.0734e-23  6.6397e-23  8.1090e-23  6.6417e-23  8.1723e-23  6.6454e-23  8.2848e-23  6.6520e-23  8.4847e-23  6.6637e-23  8.8395e-23  6.6846e-23  9.4687e-23  6.7217e-23  1.0582e-22  6.7880e-23  1.2547e-22  6.9065e-23  1.6000e-22  7.1190e-23  2.2045e-22  7.5021e-23  3.2704e-22  8.1943e-23  5.1949e-22  9.4548e-23  8.6720e-22  1.1795e-22  1.5044e-21  1.6255e-22
      2.65  7.5464e-23  7.4485e-23  7.5499e-23  7.4488e-23  7.5561e-23  7.4492e-23  7.5671e-23  7.4500e-23  7.5867e-23  7.4513e-23  7.6216e-23  7.4538e-23  7.6835e-23  7.4581e-23  7.7936e-23  7.4658e-23  7.9891e-23  7.4795e-23  8.3363e-23  7.5040e-23  8.9521e-23  7.5475e-23  1.0042e-22  7.6251e-23  1.1965e-22  7.7639e-23  1.5347e-22  8.0129e-23  2.1269e-22  8.4617e-23  3.1715e-22  9.2725e-23  5.0570e-22  1.0749e-22  8.4675e-22  1.3490e-22  1.4725e-21  1.8716e-22
      2.70  7.0884e-23  8.3589e-23  7.0919e-23  8.3592e-23  7.0979e-23  8.3597e-23  7.1087e-23  8.3606e-23  7.1278e-23  8.3622e-23  7.1618e-23  8.3650e-23  7.2223e-23  8.3700e-23  7.3298e-23  8.3789e-23  7.5208e-23  8.3948e-23  7.8599e-23  8.4231e-23  8.4614e-23  8.4734e-23  9.5262e-23  8.5633e-23  1.1406e-22  8.7239e-23  1.4712e-22  9.0120e-23  2.0504e-22  9.5314e-23  3.0726e-22  1.0470e-22  4.9172e-22  1.2180e-22  8.2569e-22  1.5353e-22  1.4393e-21  2.1404e-22
      2.75  6.6570e-23  9.3805e-23  6.6603e-23  9.3808e-23  6.6662e-23  9.3814e-23  6.6767e-23  9.3824e-23  6.6953e-23  9.3842e-23  6.7285e-23  9.3875e-23  6.7875e-23  9.3932e-23  6.8923e-23  9.4034e-23  7.0785e-23  9.4215e-23  7.4091e-23  9.4539e-23  7.9955e-23  9.5114e-23  9.0339e-23  9.6141e-23  1.0868e-22  9.7977e-23  1.4094e-22  1.0127e-22  1.9748e-22  1.0721e-22  2.9738e-22  1.1793e-22  4.7753e-22  1.3748e-22  8.0403e-22  1.7378e-22  1.4049e-21  2.4302e-22
      2.80  6.2507e-23  1.0527e-22  6.2539e-23  1.0527e-22  6.2597e-23  1.0528e-22  6.2699e-23  1.0529e-22  6.2880e-23  1.0531e-22  6.3203e-23  1.0535e-22  6.3776e-23  1.0541e-22  6.4796e-23  1.0553e-22  6.6608e-23  1.0573e-22  6.9825e-23  1.0610e-22  7.5532e-23  1.0675e-22  8.5638e-23  1.0790e-22  1.0349e-22  1.0998e-22  1.3491e-22  1.1369e-22  1.9001e-22  1.2039e-22  2.8749e-22  1.3250e-22  4.6311e-22  1.5456e-22  7.8175e-22  1.9556e-22  1.3691e-21  2.7380e-22
      2.85  5.8684e-23  1.1813e-22  5.8715e-23  1.1814e-22  5.8771e-23  1.1815e-22  5.8870e-23  1.1816e-22  5.9046e-23  1.1818e-22  5.9360e-23  1.1822e-22  5.9917e-23  1.1829e-22  6.0907e-23  1.1842e-22  6.2666e-23  1.1865e-22  6.5789e-23  1.1906e-22  7.1331e-23  1.1978e-22  8.1146e-23  1.2107e-22  9.8488e-23  1.2338e-22  1.2903e-22  1.2751e-22  1.8261e-22  1.3498e-22  2.7755e-22  1.4846e-22  4.4840e-22  1.7305e-22  7.5880e-22  2.1875e-22  1.3318e-21  3.0604e-22
      2.90  5.5089e-23  1.3257e-22  5.5119e-23  1.3257e-22  5.5173e-23  1.3258e-22  5.5269e-23  1.3260e-22  5.5440e-23  1.3262e-22  5.5741e-23  1.3266e-22  5.6283e-23  1.3274e-22  5.7242e-23  1.3289e-22  5.8946e-23  1.3314e-22  6.1972e-23  1.3358e-22  6.7341e-23  1.3438e-22  7.6852e-23  1.3580e-22  9.3661e-23  1.3833e-22  1.2327e-22  1.4288e-22  1.7526e-22  1.5108e-22  2.6754e-22  1.6590e-22  4.3339e-22  1.9295e-22  7.3515e-22  2.4324e-22  1.2929e-21  3.3936e-22
      2.95  5.1710e-23  1.4877e-22  5.1737e-23  1.4877e-22  5.1792e-23  1.4878e-22  5.1884e-23  1.4880e-22  5.2049e-23  1.4882e-22  5.2343e-23  1.4887e-22  5.2864e-23  1.4896e-22  5.3791e-23  1.4911e-22  5.5438e-23  1.4938e-22  5.8363e-23  1.4987e-22  6.3553e-23  1.5073e-22  7.2749e-23  1.5227e-22  8.9004e-23  1.5502e-22  1.1765e-22  1.5996e-22  1.6798e-22  1.6886e-22  2.5747e-22  1.8494e-22  4.1814e-22  2.1431e-22  7.1087e-22  2.6893e-22  1.2526e-21  3.7344e-22
      3.00  4.8537e-23  1.6695e-22  4.8565e-23  1.6695e-22  4.8615e-23  1.6696e-22  4.8705e-23  1.6698e-22  4.8864e-23  1.6701e-22  4.9147e-23  1.6706e-22  4.9650e-23  1.6715e-22  5.0543e-23  1.6731e-22  5.2132e-23  1.6760e-22  5.4953e-23  1.6812e-22  5.9959e-23  1.6905e-22  6.8829e-23  1.7070e-22  8.4514e-23  1.7365e-22  1.1217e-22  1.7894e-22  1.6081e-22  1.8848e-22  2.4738e-22  2.0571e-22  4.0270e-22  2.3720e-22  6.8604e-22  2.9579e-22  1.2109e-21  4.0801e-22
      3.05  4.5558e-23  1.8734e-22  4.5585e-23  1.8735e-22  4.5633e-23  1.8736e-22  4.5719e-23  1.8737e-22  4.5873e-23  1.8741e-22  4.6145e-23  1.8746e-22  4.6629e-23  1.8756e-22  4.7487e-23  1.8772e-22  4.9018e-23  1.8804e-22  5.1733e-23  1.8859e-22  5.6552e-23  1.8957e-22  6.5091e-23  1.9132e-22  8.0192e-23  1.9444e-22  1.0683e-22  2.0005e-22  1.5374e-22  2.1014e-22  2.3730e-22  2.2839e-22  3.8715e-22  2.6176e-22  6.6082e-22  3.2387e-22  1.1684e-21  4.4293e-22
      3.10  4.2763e-23  2.1023e-22  4.2789e-23  2.1024e-22  4.2835e-23  2.1025e-22  4.2918e-23  2.1026e-22  4.3065e-23  2.1030e-22  4.3327e-23  2.1035e-22  4.3792e-23  2.1046e-22  4.4618e-23  2.1064e-22  4.6087e-23  2.1096e-22  4.8696e-23  2.1154e-22  5.3326e-23  2.1257e-22  6.1530e-23  2.1440e-22  7.6043e-23  2.1767e-22  1.0165e-22  2.2354e-22  1.4681e-22  2.3411e-22  2.2729e-22  2.5322e-22  3.7166e-22  2.8818e-22  6.3540e-22  3.5328e-22  1.1254e-21  4.7820e-22
      3.15  4.0142e-23  2.3591e-22  4.0166e-23  2.3591e-22  4.0212e-23  2.3593e-22  4.0291e-23  2.3595e-22  4.0432e-23  2.3598e-22  4.0683e-23  2.3604e-22  4.1129e-23  2.3615e-22  4.1922e-23  2.3634e-22  4.3331e-23  2.3667e-22  4.5833e-23  2.3727e-22  5.0274e-23  2.3833e-22  5.8145e-23  2.4023e-22  7.2069e-23  2.4363e-22  9.6641e-23  2.4971e-22  1.4003e-22  2.6066e-22  2.1744e-22  2.8048e-22  3.5642e-22  3.1672e-22  6.1001e-22  3.8427e-22  1.0825e-21  5.1398e-22
      3.20  3.7686e-23  2.6473e-22  3.7710e-23  2.6474e-22  3.7753e-23  2.6475e-22  3.7829e-23  2.6477e-22  3.7964e-23  2.6480e-22  3.8204e-23  2.6486e-22  3.8632e-23  2.6497e-22  3.9391e-23  2.6517e-22  4.0741e-23  2.6551e-22  4.3138e-23  2.6613e-22  4.7392e-23  2.6722e-22  5.4933e-23  2.6917e-22  6.8272e-23  2.7266e-22  9.1819e-23  2.7891e-22  1.3344e-22  2.9016e-22  2.0777e-22  3.1051e-22  3.4143e-22  3.4773e-22  5.8482e-22  4.1718e-22  1.0396e-21  5.5059e-22
      3.25  3.5385e-23  2.9707e-22  3.5408e-23  2.9707e-22  3.5448e-23  2.9708e-22  3.5522e-23  2.9710e-22  3.5651e-23  2.9714e-22  3.5881e-23  2.9720e-22  3.6290e-23  2.9731e-22  3.7017e-23  2.9751e-22  3.8309e-23  2.9786e-22  4.0603e-23  2.9849e-22  4.4674e-23  2.9961e-22  5.1890e-23  3.0160e-22  6.4656e-23  3.0515e-22  8.7193e-23  3.1152e-22  1.2707e-22  3.2298e-22  1.9834e-22  3.4371e-22  3.2669e-22  3.8165e-22  5.6003e-22  4.5246e-22  9.9712e-22  5.8854e-22
      3.30  3.3232e-23  3.3335e-22  3.3254e-23  3.3336e-22  3.3293e-23  3.3337e-22  3.3362e-23  3.3339e-22  3.3486e-23  3.3343e-22  3.3706e-23  3.3349e-22  3.4097e-23  3.3360e-22  3.4792e-23  3.3380e-22  3.6027e-23  3.3416e-22  3.8221e-23  3.3479e-22  4.2114e-23  3.3592e-22  4.9014e-23  3.3794e-22  6.1222e-23  3.4154e-22  8.2774e-23  3.4799e-22  1.2095e-22  3.5958e-22  1.8920e-22  3.8057e-22  3.1231e-22  4.1896e-22  5.3584e-22  4.9066e-22  9.5533e-22  6.2846e-22
      3.35  3.1216e-23  3.7407e-22  3.1237e-23  3.7407e-22  3.1275e-23  3.7408e-22  3.1341e-23  3.7410e-22  3.1460e-23  3.7414e-22  3.1670e-23  3.7420e-22  3.2044e-23  3.7432e-22  3.2708e-23  3.7452e-22  3.3888e-23  3.7487e-22  3.5985e-23  3.7552e-22  3.9706e-23  3.7666e-22  4.6302e-23  3.7869e-22  5.7970e-23  3.8232e-22  7.8571e-23  3.8881e-22  1.1509e-22  4.0049e-22  1.8039e-22  4.2162e-22  2.9837e-22  4.6027e-22  5.1250e-22  5.3246e-22  9.1464e-22  6.7120e-22
      3.40  2.9332e-23  4.1975e-22  2.9351e-23  4.1975e-22  2.9387e-23  4.1977e-22  2.9451e-23  4.1979e-22  2.9564e-23  4.1983e-22  2.9765e-23  4.1989e-22  3.0122e-23  4.2000e-22  3.0757e-23  4.2021e-22  3.1885e-23  4.2057e-22  3.3889e-23  4.2121e-22  3.7445e-23  4.2236e-22  4.3747e-23  4.2439e-22  5.4897e-23  4.2803e-22  7.4583e-23  4.3455e-22  1.0950e-22  4.4626e-22  1.7195e-22  4.6746e-22  2.8493e-22  5.0622e-22  4.9023e-22  5.7860e-22  8.7548e-22  7.1769e-22
      3.45  2.7569e-23  4.7101e-22  2.7589e-23  4.7102e-22  2.7623e-23  4.7103e-22  2.7684e-23  4.7105e-22  2.7792e-23  4.7109e-22  2.7984e-23  4.7115e-22  2.8325e-23  4.7127e-22  2.8931e-23  4.7147e-22  3.0009e-23  4.7183e-22  3.1923e-23  4.7246e-22  3.5322e-23  4.7362e-22  4.1344e-23  4.7567e-22  5.1999e-23  4.7931e-22  7.0811e-23  4.8584e-22  1.0419e-22  4.9757e-22  1.6390e-22  5.1879e-22  2.7205e-22  5.5758e-22  4.6880e-22  6.2996e-22  8.3827e-22  7.6899e-22
      3.50  2.5923e-23  5.2853e-22  2.5941e-23  5.2854e-22  2.5974e-23  5.2855e-22  2.6032e-23  5.2857e-22  2.6135e-23  5.2861e-22  2.6319e-23  5.2867e-22  2.6645e-23  5.2879e-22  2.7224e-23  5.2899e-22  2.8255e-23  5.2935e-22  3.0084e-23  5.3000e-22  3.3331e-23  5.3115e-22  3.9087e-23  5.3320e-22  4.9269e-23  5.3685e-22  6.7249e-23  5.4339e-22  9.9159e-23  5.5513e-22  1.5624e-22  5.7636e-22  2.5973e-22  6.1516e-22  4.4825e-22  6.8752e-22  8.0255e-22  8.2631e-22
      3.55  2.4385e-23  5.9307e-22  2.4403e-23  5.9308e-22  2.4434e-23  5.9309e-22  2.4489e-23  5.9311e-22  2.4588e-23  5.9315e-22  2.4763e-23  5.9321e-22  2.5075e-23  5.9333e-22  2.5629e-23  5.9353e-22  2.6614e-23  5.9390e-22  2.8363e-23  5.9454e-22  3.1466e-23  5.9570e-22  3.6967e-23  5.9775e-22  4.6701e-23  6.0142e-22  6.3890e-23  6.0798e-22  9.4401e-23  6.1975e-22  1.4901e-22  6.4103e-22  2.4801e-22  6.7990e-22  4.2860e-22  7.5229e-22  7.6830e-22  8.9094e-22
      3.60  2.2950e-23  6.6549e-22  2.2966e-23  6.6550e-22  2.2996e-23  6.6551e-22  2.3049e-23  6.6553e-22  2.3143e-23  6.6555e-22  2.3311e-23  6.6563e-22  2.3609e-23  6.6575e-22  2.4139e-23  6.6595e-22  2.5080e-23  6.6632e-22  2.6752e-23  6.6697e-22  2.9719e-23  6.6814e-22  3.4979e-23  6.7021e-22  4.4287e-23  6.7390e-22  6.0726e-23  6.8050e-22  8.9907e-23  6.9234e-22  1.4216e-22  7.1373e-22  2.3688e-22  7.5278e-22  4.0989e-22  8.2541e-22  7.3561e-22  9.6423e-22
      3.65  2.1610e-23  7.4675e-22  2.1626e-23  7.4676e-22  2.1655e-23  7.4677e-22  2.1705e-23  7.4679e-22  2.1795e-23  7.4683e-22  2.1956e-23  7.4689e-22  2.2241e-23  7.4701e-22  2.2747e-23  7.4722e-22  2.3647e-23  7.4759e-22  2.5246e-23  7.4825e-22  2.8084e-23  7.4943e-22  3.3115e-23  7.5152e-22  4.2019e-23  7.5526e-22  5.7749e-23  7.6193e-22  8.5669e-23  7.7390e-22  1.3569e-22  7.9551e-22  2.2634e-22  8.3493e-22  3.9212e-22  9.0811e-22  7.0455e-22  1.0476e-21
      3.70  2.0360e-23  8.3793e-22  2.0376e-23  8.3793e-22  2.0403e-23  8.3794e-22  2.0451e-23  8.3797e-22  2.0538e-23  8.3800e-22  2.0691e-23  8.3807e-22  2.0964e-23  8.3819e-22  2.1448e-23  8.3840e-22  2.2309e-23  8.3877e-22  2.3839e-23  8.3946e-22  2.6554e-23  8.4065e-22  3.1368e-23  8.4279e-22  3.9891e-23  8.4659e-22  5.4951e-23  8.5339e-22  8.1678e-23  8.6557e-22  1.2959e-22  8.8755e-22  2.1638e-22  9.2758e-22  3.7530e-22  1.0017e-21  6.7519e-22  1.1427e-21
      3.75  1.9195e-23  9.4023e-22  1.9209e-23  9.4022e-22  1.9236e-23  9.4025e-22  1.9282e-23  9.4027e-22  1.9365e-23  9.4031e-22  1.9512e-23  9.4038e-22  1.9772e-23  9.4050e-22  2.0236e-23  9.4072e-22  2.1060e-23  9.4111e-22  2.2524e-23  9.4180e-22  2.5124e-23  9.4303e-22  2.9733e-23  9.4523e-22  3.7895e-23  9.4913e-22  5.2322e-23  9.5611e-22  7.7921e-23  9.6860e-22  1.2382e-22  9.9112e-22  2.0698e-22  1.0321e-21  3.5940e-22  1.1078e-21  6.4745e-22  1.2511e-21
      3.80  1.8109e-23  1.0550e-21  1.8123e-23  1.0550e-21  1.8148e-23  1.0550e-21  1.8193e-23  1.0551e-21  1.8272e-23  1.0551e-21  1.8412e-23  1.0552e-21  1.8662e-23  1.0553e-21  1.9106e-23  1.0555e-21  1.9895e-23  1.0559e-21  2.1297e-23  1.0567e-21  2.3787e-23  1.0579e-21  2.8202e-23  1.0602e-21  3.6023e-23  1.0642e-21  4.9853e-23  1.0715e-21  7.4385e-23  1.0844e-21  1.1839e-22  1.1077e-21  1.9810e-22  1.1500e-21  3.4436e-22  1.2279e-21  6.2121e-22  1.3747e-21
      3.85  1.7097e-23  1.1838e-21  1.7111e-23  1.1838e-21  1.7135e-23  1.1838e-21  1.7177e-23  1.1839e-21  1.7253e-23  1.1839e-21  1.7388e-23  1.1840e-21  1.7627e-23  1.1841e-21  1.8052e-23  1.1844e-21  1.8808e-23  1.1848e-21  2.0152e-23  1.1855e-21  2.2537e-23  1.1869e-21  2.6769e-23  1.1892e-21  3.4267e-23  1.1935e-21  4.7532e-23  1.2010e-21  7.1054e-23  1.2145e-21  1.1326e-22  1.2388e-21  1.8971e-22  1.2829e-21  3.3016e-22  1.3638e-21  5.9634e-22  1.5155e-21
      3.90  1.6155e-23  1.3283e-21  1.6168e-23  1.3284e-21  1.6191e-23  1.3283e-21  1.6232e-23  1.3284e-21  1.6304e-23  1.3284e-21  1.6433e-23  1.3285e-21  1.6663e-23  1.3287e-21  1.7070e-23  1.3289e-21  1.7795e-23  1.3294e-21  1.9082e-23  1.3301e-21  2.1368e-23  1.3316e-21  2.5426e-23  1.3341e-21  3.2617e-23  1.3385e-21  4.5344e-23  1.3465e-21  6.7906e-23  1.3608e-21  1.0840e-22  1.3864e-21  1.8174e-22  1.4327e-21  3.1667e-22  1.5175e-21  5.7263e-22  1.6758e-21
      3.95  1.5278e-23  1.4905e-21  1.5290e-23  1.4905e-21  1.5312e-23  1.4905e-21  1.5351e-23  1.4906e-21  1.5421e-23  1.4906e-21  1.5545e-23  1.4907e-21  1.5764e-23  1.4908e-21  1.6155e-23  1.4911e-21  1.6849e-23  1.4916e-21  1.8083e-23  1.4924e-21  2.0275e-23  1.4939e-21  2.4165e-23  1.4966e-21  3.1062e-23  1.5014e-21  4.3275e-23  1.5099e-21  6.4919e-23  1.5250e-21  1.0379e-22  1.5522e-21  1.7414e-22  1.6013e-21  3.0387e-22  1.6909e-21  5.5006e-22  1.8573e-21
