# This was generated using Cloudy10 and the columns are ordered 
# as log10 of the fraction of the metallicity to the solar metallicity
# 'h_*_Z' and 'c_*_Z' stands for cooling and heating respectively 
# at * metalicity
#
# Redshift = 1.0
# hden = 2.0
#     temp   h_-3.00_Z   c_-3.00_Z   h_-2.75_Z   c_-2.75_Z   h_-2.50_Z   c_-2.50_Z   h_-2.25_Z   c_-2.25_Z   h_-2.00_Z   c_-2.00_Z   h_-1.75_Z   c_-1.75_Z   h_-1.50_Z   c_-1.50_Z   h_-1.25_Z   c_-1.25_Z   h_-1.00_Z   c_-1.00_Z   h_-0.75_Z   c_-0.75_Z   h_-0.50_Z   c_-0.50_Z   h_-0.25_Z   c_-0.25_Z    h_0.00_Z    c_0.00_Z    h_0.25_Z    c_0.25_Z    h_0.50_Z    c_0.50_Z    h_0.75_Z    c_0.75_Z    h_1.00_Z    c_1.00_Z    h_1.25_Z    c_1.25_Z    h_1.50_Z    c_1.50_Z 
      4.00  5.4708e-26  5.3857e-25  5.4709e-26  5.3953e-25  5.4709e-26  5.4124e-25  5.4711e-26  5.4427e-25  5.4713e-26  5.4967e-25  5.4717e-26  5.5926e-25  5.4724e-26  5.7631e-25  5.4736e-26  6.0663e-25  5.4758e-26  6.6055e-25  5.4795e-26  7.5647e-25  5.4863e-26  9.2708e-25  5.4982e-26  1.2307e-24  5.5194e-26  1.7711e-24  5.5571e-26  2.7336e-24  5.624e-26  4.4475e-24  5.743e-26  7.4952e-24  5.9541e-26  1.2896e-23  6.3274e-26  2.242e-23  6.9862e-26  3.9101e-23
      4.05  5.4318e-26  2.0198e-24  5.4319e-26  2.0212e-24  5.4319e-26  2.0235e-24  5.4321e-26  2.0277e-24  5.4323e-26  2.0351e-24  5.4327e-26  2.0482e-24  5.4335e-26  2.0717e-24  5.4348e-26  2.1133e-24  5.4371e-26  2.1873e-24  5.4412e-26  2.3188e-24  5.4485e-26  2.5526e-24  5.4614e-26  2.9683e-24  5.4843e-26  3.7077e-24  5.5251e-26  5.0223e-24  5.5974e-26  7.3575e-24  5.7259e-26  1.1492e-23  5.9534e-26  1.877e-23  6.3545e-26  3.1448e-23  7.0581e-26  5.3221e-23
      4.10  5.2862e-26  7.2082e-24  5.2863e-26  7.2102e-24  5.2864e-26  7.2138e-24  5.2865e-26  7.2201e-24  5.2868e-26  7.2313e-24  5.2872e-26  7.2512e-24  5.288e-26  7.2867e-24  5.2894e-26  7.3496e-24  5.2919e-26  7.4613e-24  5.2963e-26  7.6598e-24  5.3041e-26  8.0124e-24  5.3181e-26  8.6389e-24  5.3429e-26  9.752e-24  5.387e-26  1.1728e-23  5.4652e-26  1.5229e-23  5.6041e-26  2.1405e-23  5.8497e-26  3.221e-23  6.2812e-26  5.0871e-23  7.0341e-26  8.2406e-23
      4.15  4.6669e-26  2.7809e-23  4.667e-26  2.7813e-23  4.6671e-26  2.782e-23  4.6672e-26  2.7833e-23  4.6675e-26  2.7855e-23  4.668e-26  2.7895e-23  4.6689e-26  2.7966e-23  4.6705e-26  2.8093e-23  4.6733e-26  2.8317e-23  4.6783e-26  2.8717e-23  4.6871e-26  2.9426e-23  4.7029e-26  3.0687e-23  4.731e-26  3.2928e-23  4.7809e-26  3.6904e-23  4.8695e-26  4.395e-23  5.0268e-26  5.6394e-23  5.3052e-26  7.8237e-23  5.7949e-26  1.1616e-22  6.648e-26  1.808e-22
      4.20  3.1167e-26  8.6105e-23  3.1168e-26  8.6115e-23  3.1169e-26  8.6131e-23  3.117e-26  8.6161e-23  3.1173e-26  8.6215e-23  3.1178e-26  8.631e-23  3.1187e-26  8.6479e-23  3.1202e-26  8.678e-23  3.123e-26  8.7315e-23  3.1279e-26  8.8266e-23  3.1366e-26  8.9957e-23  3.1521e-26  9.2964e-23  3.1796e-26  9.8314e-23  3.2286e-26  1.0783e-22  3.3157e-26  1.2475e-22  3.4705e-26  1.5485e-22  3.7458e-26  2.084e-22  4.2352e-26  3.0365e-22  5.1036e-26  4.7306e-22
      4.25  1.617e-26  1.2908e-22  1.617e-26  1.2909e-22  1.617e-26  1.2912e-22  1.6171e-26  1.2917e-22  1.6172e-26  1.2925e-22  1.6173e-26  1.2941e-22  1.6175e-26  1.2968e-22  1.618e-26  1.3016e-22  1.6187e-26  1.3102e-22   1.62e-26  1.3255e-22  1.6224e-26  1.3527e-22  1.6267e-26  1.4011e-22  1.6342e-26  1.4872e-22  1.6477e-26  1.6404e-22  1.6717e-26  1.9134e-22  1.7147e-26  2.4004e-22  1.7919e-26  3.2714e-22  1.9317e-26  4.8368e-22  2.1883e-26  7.6706e-22
      4.30  8.7439e-27  1.2042e-22  8.7433e-27  1.2044e-22  8.7424e-27  1.2047e-22  8.7406e-27  1.2053e-22  8.7376e-27  1.2064e-22  8.7321e-27  1.2082e-22  8.7224e-27  1.2115e-22  8.7052e-27  1.2174e-22  8.6745e-27  1.2279e-22  8.6503e-27  1.2465e-22  8.6652e-27  1.2795e-22  8.6916e-27  1.3384e-22  8.7389e-27  1.4431e-22  8.8236e-27  1.6296e-22  8.9757e-27  1.9619e-22  9.2503e-27  2.555e-22  9.7487e-27  3.617e-22  1.0657e-26  5.5285e-22  1.2322e-26  9.0001e-22
      4.35  5.8278e-27  9.5622e-23  5.8265e-27  9.5644e-23  5.824e-27  9.5684e-23  5.8197e-27  9.5754e-23  5.8119e-27  9.588e-23  5.7982e-27  9.6102e-23  5.7737e-27  9.6499e-23  5.7302e-27  9.7204e-23  5.716e-27  9.8457e-23  5.7223e-27  1.0069e-22  5.7337e-27  1.0465e-22  5.754e-27  1.1171e-22  5.7907e-27  1.2426e-22  5.8577e-27  1.4662e-22  5.9814e-27  1.8646e-22  6.2133e-27  2.5759e-22  6.6541e-27  3.8499e-22  7.4982e-27  6.1439e-22  9.0316e-27  1.0314e-21
      4.40  4.3763e-27  7.452e-23  4.3741e-27  7.4548e-23  4.3702e-27  7.4597e-23  4.3634e-27  7.4685e-23  4.3511e-27  7.4841e-23  4.3293e-27  7.5118e-23  4.2906e-27  7.561e-23  4.2217e-27  7.6486e-23  4.1959e-27  7.8044e-23  4.2015e-27  8.0815e-23  4.2116e-27  8.5743e-23  4.2299e-27  9.4511e-23  4.2641e-27  1.1011e-22  4.329e-27  1.3789e-22  4.4559e-27  1.874e-22  4.7112e-27  2.7578e-22  5.2303e-27  4.3404e-22  6.0877e-27   7.19e-22  7.4823e-27  1.237e-21
      4.45  2.9585e-27  6.0004e-23  2.9556e-27  6.0039e-23  2.9505e-27  6.0102e-23  2.9414e-27  6.0214e-23  2.9252e-27  6.0413e-23  2.8964e-27  6.0766e-23  2.8452e-27  6.1395e-23  2.7542e-27  6.2514e-23  2.7073e-27  6.4503e-23  2.713e-27  6.8042e-23  2.7237e-27  7.4335e-23  2.7439e-27  8.553e-23  2.7839e-27  1.0545e-22  2.8661e-27  1.4091e-22  3.0415e-27  2.041e-22  3.3853e-27  3.1687e-22  3.9455e-27  5.1873e-22  4.8598e-27  8.8191e-22  6.4128e-27  1.5412e-21
      4.50  1.622e-27  4.8938e-23  1.6186e-27  4.8984e-23  1.6125e-27  4.9065e-23  1.6017e-27  4.9209e-23  1.5824e-27  4.9466e-23  1.5482e-27  4.9922e-23  1.4873e-27  5.0734e-23  1.379e-27  5.2177e-23  1.3794e-27  5.4744e-23  1.386e-27  5.9309e-23  1.3992e-27  6.7428e-23  1.4271e-27  8.187e-23  1.489e-27  1.0757e-22  1.6308e-27  1.5331e-22  1.8904e-27  2.3482e-22  2.3041e-27  3.8029e-22  3.0101e-27  6.4063e-22  4.0744e-27  1.1089e-21  5.7136e-27  1.9587e-21
      4.55  8.4102e-28  3.9512e-23  8.3732e-28  3.9571e-23  8.3076e-28  3.9675e-23  8.1907e-28  3.9861e-23  7.983e-28  4.0192e-23  7.6138e-28  4.0779e-23  6.9575e-28  4.1825e-23  6.5395e-28  4.3683e-23  6.5746e-28  4.6989e-23  6.6469e-28  5.2868e-23  6.8042e-28  6.3324e-23  7.1674e-28  8.1925e-23  8.0393e-28  1.1502e-22  9.5772e-28  1.7395e-22  1.217e-27  2.7897e-22  1.6684e-27  4.6645e-22  2.3395e-27  8.0215e-22  3.4457e-27  1.4064e-21  5.3086e-27  2.5045e-21
      4.60  4.8738e-28  3.2024e-23  4.8381e-28   3.21e-23  4.7746e-28  3.2234e-23  4.6616e-28  3.2472e-23  4.4609e-28  3.2896e-23  4.104e-28  3.3649e-23  3.5342e-28  3.4989e-23  3.5517e-28  3.7373e-23  3.5872e-28  4.1611e-23  3.6644e-28  4.9149e-23  3.8434e-28  6.2556e-23  4.2831e-28  8.6407e-23  5.0943e-28  1.2885e-22  6.6068e-28  2.0444e-22  9.1495e-28  3.3917e-22  1.3485e-27  5.7979e-22  2.0483e-27  1.0109e-21  3.1804e-27  1.788e-21  5.1175e-27  3.2027e-21
      4.65  3.3198e-28  2.7153e-23  3.2889e-28  2.7249e-23  3.234e-28  2.742e-23  3.1363e-28  2.7724e-23  2.9626e-28  2.8265e-23  2.6539e-28  2.9227e-23  2.3631e-28  3.0938e-23  2.3806e-28  3.398e-23  2.4175e-28  3.939e-23  2.5006e-28  4.9013e-23  2.7012e-28  6.6128e-23  3.1274e-28  9.6579e-23  3.9452e-28  1.5077e-22  5.3995e-28  2.4729e-22  8.1949e-28  4.1937e-22  1.2773e-27  7.2683e-22  2.0109e-27  1.2781e-21  3.2307e-27  2.273e-21  5.3394e-27  4.088e-21
      4.70  2.5965e-28  2.5874e-23  2.5722e-28  2.5996e-23  2.5291e-28  2.6214e-23  2.4525e-28  2.6601e-23  2.3162e-28  2.729e-23  2.0742e-28  2.8514e-23  1.894e-28  3.0692e-23  1.9131e-28  3.4565e-23  1.9536e-28  4.1453e-23  2.0462e-28  5.3703e-23  2.2733e-28  7.5493e-23  2.7248e-28  1.1426e-22  3.6427e-28  1.8327e-22  5.3509e-28  3.0619e-22  8.2029e-28  5.2541e-22  1.2858e-27  9.1728e-22  2.0816e-27  1.6206e-21  3.4293e-27  2.8917e-21  5.7741e-27  5.2171e-21
      4.75  2.2175e-28  3.0467e-23  2.2001e-28  3.0622e-23  2.1691e-28  3.0898e-23  2.1141e-28  3.1387e-23  2.0164e-28  3.2258e-23  1.8429e-28  3.3807e-23  1.6943e-28  3.6562e-23  1.7181e-28  4.1461e-23  1.769e-28  5.0173e-23  1.8861e-28  6.5668e-23  2.1722e-28  9.3232e-23  2.7209e-28  1.4228e-22  3.7173e-28  2.2958e-22  5.4699e-28  3.8513e-22  8.5286e-28  6.6265e-22  1.3738e-27  1.1591e-21  2.2571e-27  2.051e-21  3.768e-27  3.6662e-21  6.4356e-27  6.6304e-21
      4.80  1.9342e-28  4.4025e-23  1.9231e-28  4.4218e-23  1.9034e-28  4.4562e-23  1.8684e-28  4.5175e-23  1.8064e-28  4.6263e-23  1.6965e-28  4.8199e-23  1.5595e-28  5.1642e-23  1.5928e-28  5.7764e-23  1.6652e-28  6.8652e-23  1.8355e-28  8.8019e-23  2.1983e-28  1.2247e-22  2.8037e-28  1.8378e-22  3.9234e-28  2.9292e-22  5.9429e-28  4.8743e-22  9.4172e-28  8.3459e-22  1.5387e-27  1.456e-21  2.5807e-27  2.5739e-21  4.387e-27  4.6021e-21  7.616e-27  8.336e-21
      4.85  1.5695e-28  6.5234e-23  1.5643e-28  6.5471e-23  1.5552e-28  6.5894e-23  1.5389e-28  6.6645e-23  1.5103e-28  6.7982e-23  1.4602e-28  7.0358e-23  1.3735e-28  7.4584e-23  1.3911e-28   8.21e-23  1.502e-28  9.5467e-23  1.7378e-28  1.1924e-22  2.1703e-28  1.6154e-22  2.9345e-28  2.3681e-22  4.3212e-28  3.7083e-22  6.7468e-28  6.0972e-22  1.0955e-27  1.0363e-21  1.8237e-27  1.8003e-21  3.0828e-27  3.1762e-21  5.2415e-27  5.6772e-21  9.0862e-27  1.0295e-20
      4.90  1.0963e-28  8.0946e-23  1.0967e-28  8.123e-23  1.0976e-28  8.1733e-23  1.0993e-28  8.2628e-23  1.1028e-28  8.422e-23  1.1106e-28  8.705e-23  1.1293e-28  9.2084e-23  1.1778e-28  1.0104e-22  1.2992e-28  1.1696e-22  1.5893e-28  1.4528e-22  2.167e-28  1.9566e-22  3.2041e-28  2.8532e-22  5.0739e-28  4.4498e-22  8.2546e-28  7.2959e-22  1.3589e-27  1.2379e-21  2.2558e-27  2.1486e-21  3.7763e-27  3.7897e-21  6.3256e-27  6.776e-21  1.0854e-26  1.2301e-20
      4.95  6.7937e-29  7.974e-23  6.8391e-29  8.0065e-23  6.9209e-29  8.0642e-23  7.0702e-29  8.1669e-23  7.3468e-29  8.3494e-23  7.8746e-29  8.6741e-23  8.9244e-29  9.2515e-23  1.1122e-28  1.0278e-22  1.5463e-28  1.2105e-22  2.3317e-28  1.5353e-22  3.7243e-28  2.1132e-22  6.1894e-28  3.1417e-22  1.0395e-27  4.9732e-22  1.7499e-27  8.238e-22  2.9438e-27  1.4069e-21  4.9533e-27  2.4519e-21  8.3502e-27  4.3355e-21  1.425e-26  7.7652e-21  2.4782e-26  1.4117e-20
      5.00  4.211e-29  6.7691e-23  4.2748e-29  6.8049e-23  4.3913e-29  6.8685e-23  4.6079e-29  6.9816e-23  5.022e-29  7.1827e-23   5.85e-29  7.5402e-23  7.5886e-29  8.1762e-23  1.1254e-28  9.3071e-23  1.8326e-28  1.1319e-22  3.1245e-28  1.4896e-22  5.2748e-28  2.1262e-22  8.9097e-28  3.259e-22  1.4955e-27  5.2766e-22  2.4827e-27  8.8739e-22  4.0879e-27  1.5301e-21  6.7371e-27  2.6824e-21  1.1185e-26  4.7615e-21  1.8913e-26  8.5532e-21  3.2557e-26  1.5595e-20
      5.05  2.8649e-29  5.4122e-23  2.9183e-29  5.449e-23  3.0706e-29  5.5143e-23  3.3372e-29  5.6304e-23  3.8963e-29  5.8369e-23  5.1089e-29  6.2042e-23  7.5559e-29  6.8574e-23  1.3164e-28  8.0189e-23  2.4423e-28  1.0085e-22  4.1658e-28  1.376e-22  6.9887e-28  2.0298e-22  1.1518e-27  3.1936e-22  1.8664e-27  5.2664e-22  2.9608e-27  8.9633e-22  4.6719e-27  1.5571e-21   7.43e-27  2.7428e-21  1.2083e-26  4.8851e-21  2.015e-26  8.8015e-21  3.3977e-26  1.6104e-20
      5.10  2.1783e-29  4.271e-23  2.2723e-29  4.3067e-23  2.4219e-29  4.3703e-23  2.8122e-29  4.4833e-23  3.6781e-29  4.6842e-23  5.3617e-29  5.0415e-23  9.1881e-29  5.6768e-23  1.8372e-28  6.8068e-23  3.2947e-28  8.8166e-23  5.5514e-28  1.2392e-22  8.9821e-28  1.8753e-22  1.4106e-27  3.0076e-22  2.161e-27  5.0248e-22  3.2534e-27  8.6233e-22  4.9172e-27  1.5058e-21  7.4558e-27  2.6616e-21  1.1607e-26  4.7528e-21   1.89e-26  8.5855e-21  3.1846e-26  1.5761e-20
      5.15  1.8546e-29  3.3958e-23  1.9548e-29  3.4313e-23  2.1812e-29  3.4945e-23  2.8274e-29  3.6067e-23  4.046e-29  3.8063e-23  6.7152e-29  4.1612e-23  1.3136e-28  4.7924e-23  2.5318e-28  5.9149e-23    4.4e-28  7.9115e-23  7.1519e-28  1.1463e-22  1.0986e-27  1.7783e-22  1.6355e-27  2.9034e-22  2.3855e-27  4.9079e-22  3.4484e-27  8.4847e-22  4.7513e-27  1.4884e-21  6.9409e-27  2.6384e-21  1.0736e-26  4.722e-21  1.7466e-26  8.5485e-21  2.9528e-26  1.5737e-20
      5.20  1.6862e-29  2.7417e-23  1.8314e-29  2.7783e-23  2.2248e-29  2.8434e-23  3.2626e-29  2.9591e-23  5.2127e-29  3.1964e-23  9.4844e-29  3.5306e-23  1.9915e-28  4.1812e-23  3.4091e-28  5.3383e-23  5.557e-28  7.3964e-23  8.7044e-28  1.1058e-22  1.286e-27  1.7573e-22  1.8341e-27  2.9171e-22  2.5486e-27  4.9839e-22  3.2597e-27  8.6725e-22  4.4417e-27  1.5274e-21  6.4977e-27  2.7145e-21  1.0141e-26  4.8675e-21  1.6669e-26  8.8287e-21  2.8503e-26  1.6292e-20
      5.25  1.6128e-29  2.2516e-23  1.8399e-29  2.2893e-23  2.4928e-29  2.3563e-23  4.1267e-29  2.4755e-23  7.4444e-29  2.6875e-23  1.3626e-28  3.0644e-23  2.5651e-28  3.7347e-23  4.2077e-28  4.9269e-23  6.5053e-28  7.0474e-23  9.8014e-28  1.082e-22  1.4171e-27  1.7533e-22  1.9788e-27  2.9485e-22  2.4263e-27  5.0785e-22  3.157e-27  8.8808e-22  4.4124e-27  1.5688e-21  6.6052e-27  2.7938e-21  1.0477e-26  5.0178e-21  1.7437e-26  9.1172e-21  3.0217e-26  1.6864e-20
      5.30  1.6191e-29  1.8806e-23  1.9982e-29  1.9189e-23  3.1802e-29  1.987e-23  6.2129e-29  2.1082e-23  9.9005e-29  2.3236e-23  1.702e-28  2.7068e-23  2.9772e-28  3.3883e-23  4.6794e-28  4.6002e-23  7.1581e-28  6.7559e-23  1.0379e-27  1.0591e-22  1.5127e-27  1.7416e-22  1.9066e-27  2.9568e-22  2.3969e-27  5.1228e-22  3.1231e-27  8.9901e-22  4.3193e-27  1.5917e-21  6.4057e-27  2.839e-21  9.9751e-27  5.1062e-21  1.6452e-26  9.2939e-21  2.842e-26  1.7233e-20
      5.35  1.7192e-29  1.5976e-23  2.433e-29  1.6366e-23  4.4751e-29  1.7059e-23  7.7236e-29  1.8293e-23  1.1889e-28  2.0486e-23  1.8984e-28  2.4386e-23  3.1831e-28  3.1323e-23  4.9348e-28  4.366e-23  7.3716e-28  6.5604e-23  1.1151e-27  1.0464e-22  1.5506e-27  1.7412e-22  1.8402e-27  2.9784e-22  2.2799e-27  5.1839e-22  2.9738e-27  9.1226e-22  4.1296e-27  1.618e-21  6.0392e-27  2.8897e-21  9.4637e-27  5.2042e-21  1.5666e-26  9.4878e-21  2.7183e-26  1.7636e-20
      5.40  1.8066e-29  1.3765e-23  2.8018e-29  1.4145e-23  5.2019e-29  1.4821e-23  8.0171e-29  1.6022e-23  1.2577e-28  1.8159e-23  1.9068e-28  2.1959e-23  3.1058e-28  2.8717e-23  5.0417e-28  4.0736e-23  7.7251e-28  6.2115e-23  1.209e-27  1.0015e-22  1.4871e-27  1.6784e-22  1.7851e-27  2.884e-22  2.2523e-27  5.0333e-22  2.9851e-27  8.8728e-22  4.2049e-27  1.5756e-21  6.2026e-27  2.8169e-21  9.6889e-27  5.0793e-21  1.6044e-26  9.2764e-21  2.7858e-26  1.729e-20
      5.45  1.6378e-29  1.197e-23  2.4013e-29  1.2289e-23  4.505e-29  1.2855e-23  6.9721e-29  1.3862e-23  1.0666e-28  1.5654e-23  1.7434e-28  1.8839e-23  2.8398e-28  2.4505e-23  4.6578e-28  3.4581e-23  7.8889e-28  5.2503e-23  1.267e-27  8.4388e-23  1.4999e-27  1.4114e-22  1.8489e-27  2.4223e-22  2.3751e-27  4.2248e-22  3.1005e-27  7.4461e-22  4.2731e-27  1.3224e-21  6.227e-27  2.3657e-21  9.6342e-27  4.2709e-21  1.5809e-26  7.8167e-21  2.7365e-26  1.4621e-20
      5.50  1.3578e-29  1.0474e-23  1.6669e-29  1.0704e-23  2.5281e-29  1.1112e-23  5.0203e-29  1.1839e-23  8.3965e-29  1.313e-23  1.4344e-28  1.5427e-23  2.5088e-28  1.9512e-23  4.4056e-28  2.6776e-23  7.6045e-28  3.9698e-23  1.2142e-27  6.2687e-23  1.573e-27  1.0361e-22  1.9747e-27  1.7651e-22  2.4183e-27  3.0652e-22  3.0756e-27  5.3896e-22  4.0368e-27  9.5616e-22  5.6481e-27  1.7103e-21  8.4782e-27  3.0901e-21  1.3596e-26  5.6662e-21  2.3141e-26  1.0634e-20
      5.55  1.2118e-29  9.3081e-24  1.3708e-29  9.4808e-24  1.7958e-29  9.7879e-24  2.997e-29  1.0334e-23  6.1147e-29  1.1305e-23  1.2534e-28  1.3032e-23  2.4135e-28  1.6104e-23  4.4846e-28  2.1566e-23  7.9267e-28  3.1283e-23  1.2103e-27  4.8571e-23  1.6043e-27  7.9346e-23  1.9715e-27  1.3417e-22  2.3536e-27  2.3198e-22  2.8387e-27  4.0686e-22  3.6086e-27  7.2091e-22  4.8584e-27  1.289e-21  7.0636e-27  2.3297e-21  1.1072e-26  4.2766e-21  1.8504e-26  8.0433e-21
      5.60  1.1642e-29  8.4114e-24  1.3206e-29  8.5613e-24  1.7549e-29  8.8279e-24  3.0481e-29  9.3019e-24  5.5811e-29  1.0145e-23  1.1617e-28  1.1644e-23  2.4943e-28  1.431e-23  4.7607e-28  1.9051e-23  8.6965e-28  2.7483e-23  1.2036e-27  4.249e-23  1.5712e-27  6.9204e-23  1.8176e-27  1.168e-22  2.1004e-27  2.0171e-22  2.5016e-27  3.5356e-22  3.138e-27  6.263e-22  4.1706e-27  1.1199e-21  5.9794e-27  2.0248e-21  9.2613e-27  3.7197e-21  1.5346e-26  7.005e-21
      5.65  1.1245e-29  7.7118e-24  1.3263e-29  7.8549e-24  1.9141e-29  8.1093e-24  3.544e-29  8.5618e-24  6.663e-29  9.3664e-24  1.3133e-28  1.0797e-23  2.6261e-28  1.3342e-23  5.0874e-28  1.7867e-23  9.2066e-28  2.5917e-23  1.2126e-27  4.0243e-23  1.5133e-27  6.5745e-23  1.6858e-27  1.1118e-22  1.934e-27  1.9225e-22  2.2826e-27  3.3724e-22  2.8642e-27  5.9771e-22  3.8063e-27  1.0692e-21  5.4672e-27  1.9341e-21  8.4773e-27  3.5555e-21  1.4078e-26  6.7025e-21
      5.70  1.0866e-29  7.155e-24  1.3353e-29  7.2951e-24  2.0615e-29  7.5441e-24  4.1591e-29  7.987e-24  7.5365e-29  8.7745e-24  1.4875e-28  1.0175e-23  2.9671e-28  1.2665e-23  5.7335e-28  1.7095e-23  9.0239e-28  2.4974e-23  1.1364e-27  3.8997e-23  1.357e-27  6.396e-23  1.5313e-27  1.0844e-22  1.7522e-27  1.8779e-22  2.0761e-27  3.2974e-22  2.6255e-27  5.8478e-22  3.5537e-27  1.0466e-21  5.1851e-27  1.8942e-21  8.1537e-27  3.4843e-21  1.3704e-26  6.5745e-21
      5.75  1.0234e-29  6.6481e-24  1.294e-29  6.7814e-24  2.075e-29  7.0186e-24  4.108e-29  7.4403e-24  8.2457e-29  8.1902e-24  1.6443e-28  9.5236e-24  3.3519e-28  1.1895e-23  6.044e-28  1.6113e-23  8.0055e-28  2.3617e-23  9.8225e-28  3.697e-23  1.1268e-27  6.0743e-23  1.299e-27  1.031e-22  1.5105e-27  1.7868e-22  1.8405e-27  3.1388e-22  2.3842e-27  5.5685e-22  3.313e-27  9.9699e-22  4.9739e-27  1.8051e-21  8.0132e-27  3.3228e-21  1.3734e-26  6.2764e-21
      5.80  9.5591e-30  6.2574e-24  1.2144e-29  6.3799e-24  1.9651e-29  6.5977e-24  4.0461e-29  6.985e-24  8.5285e-29  7.6736e-24  1.8255e-28  8.8981e-24  3.4521e-28  1.1076e-23  5.4158e-28  1.495e-23  6.8607e-28  2.1842e-23  8.3674e-28  3.4107e-23  9.4985e-28  5.5942e-23  1.1334e-27  9.4846e-23  1.3568e-27  1.6427e-22  1.6935e-27  2.8848e-22  2.2686e-27  5.1175e-22  3.2688e-27  9.1634e-22  5.0602e-27  1.6597e-21  8.3686e-27  3.0573e-21  1.4653e-26  5.7817e-21
      5.85  9.1595e-30  5.9602e-24  1.2117e-29  6.0756e-24  2.0343e-29  6.2809e-24   4.16e-29  6.6459e-24  9.4177e-29  7.295e-24  2.0208e-28  8.4491e-24  3.2318e-28  1.0502e-23  4.7882e-28  1.4154e-23  6.0257e-28  2.0652e-23  7.5383e-28  3.2213e-23  8.873e-28  5.2797e-23  1.0481e-27  8.9474e-23  1.2901e-27  1.5493e-22  1.6679e-27  2.7205e-22  2.3242e-27  4.8262e-22  3.4742e-27  8.6436e-22  5.5569e-27  1.5662e-21  9.4183e-27  2.887e-21  1.6807e-26  5.466e-21
      5.90  8.896e-30  5.7436e-24  1.2611e-29  5.8589e-24  2.2262e-29  6.0638e-24  4.7245e-29  6.4282e-24  1.0473e-28  7.076e-24  2.0629e-28  8.2282e-24  3.2642e-28  1.0278e-23   4.35e-28  1.3924e-23  5.7502e-28  2.041e-23  7.1056e-28  3.1952e-23  8.4297e-28  5.2501e-23  1.0099e-27  8.9117e-23  1.2859e-27  1.5447e-22  1.749e-27  2.7141e-22  2.5447e-27  4.8172e-22  3.9627e-27  8.6311e-22  6.5446e-27  1.5647e-21  1.1358e-26  2.8864e-21  2.0633e-26  5.4709e-21
      5.95  8.5192e-30  5.589e-24  1.263e-29  5.7066e-24  2.3547e-29  5.9158e-24  5.0485e-29  6.2877e-24  1.1401e-28  6.9489e-24  2.1501e-28  8.1249e-24  3.3327e-28  1.0217e-23  4.4554e-28  1.3938e-23  5.5664e-28  2.0559e-23  6.7789e-28  3.234e-23  8.3525e-28  5.3314e-23  1.0215e-27  9.0691e-23  1.328e-27  1.574e-22  1.8646e-27  2.768e-22  2.808e-27  4.9156e-22  4.4931e-27  8.8116e-22  7.5755e-27  1.5983e-21  1.3343e-26  2.9506e-21  2.4517e-26  5.5989e-21
      6.00  7.8687e-30  5.4797e-24  1.1815e-29  5.5977e-24  2.2464e-29  5.8076e-24  4.9753e-29  6.1807e-24  1.1325e-28  6.8441e-24  2.3029e-28  8.0239e-24  3.4611e-28  1.0123e-23  4.5371e-28  1.3856e-23  5.6518e-28  2.0498e-23  6.9517e-28  3.2317e-23  8.5694e-28  5.3361e-23  1.0923e-27  9.0862e-23  1.4754e-27  1.578e-22  2.1478e-27  2.7762e-22  3.3448e-27  4.9319e-22  5.509e-27  8.8442e-22  9.4758e-27  1.6051e-21  1.6923e-26  2.9655e-21  3.1422e-26  5.634e-21
      6.05  6.985e-30  5.4228e-24  1.0277e-29  5.5375e-24  1.9352e-29  5.7414e-24  4.378e-29  6.104e-24  1.0291e-28  6.7485e-24  2.3068e-28  7.8947e-24  3.5411e-28  9.9336e-24  4.6555e-28  1.3561e-23  5.8017e-28  2.0014e-23  7.1074e-28  3.1497e-23  8.7612e-28  5.1944e-23  1.1456e-27  8.8382e-23  1.6034e-27  1.5343e-22  2.4113e-27  2.6988e-22  3.8574e-27  4.7945e-22  6.4749e-27  8.5996e-22  1.1283e-26  1.5614e-21  2.0335e-26  2.8872e-21  3.8028e-26  5.4928e-21
      6.10  6.3085e-30  5.3977e-24  9.1152e-30  5.5065e-24  1.6626e-29  5.6998e-24  3.6734e-29  6.0436e-24  8.7244e-29  6.6548e-24  2.004e-28  7.7416e-24  3.3246e-28  9.6748e-24  4.5634e-28  1.3114e-23  5.6254e-28  1.9233e-23  6.8213e-28  3.0122e-23  8.6953e-28  4.951e-23  1.1713e-27  8.4063e-23  1.6981e-27  1.4575e-22  2.637e-27  2.5621e-22  4.3174e-27  4.5504e-22  7.3613e-27  8.1624e-22  1.2966e-26  1.4826e-21  2.354e-26  2.7438e-21  4.4273e-26  5.2273e-21
      6.15  6.0223e-30    5.4e-24  8.5421e-30  5.5009e-24   1.51e-29  5.6802e-24  3.2101e-29  5.9991e-24  7.3127e-29  6.5661e-24  1.5251e-28  7.5742e-24  2.5031e-28  9.3672e-24  3.8335e-28  1.2557e-23  4.8958e-28  1.8232e-23  6.1774e-28  2.8331e-23  8.1882e-28  4.6313e-23  1.1459e-27  7.8364e-23  1.726e-27  1.3559e-22  2.7581e-27  2.3807e-22  4.6143e-27  4.226e-22  7.9803e-27  7.5797e-22  1.4183e-26  1.3772e-21  2.5908e-26  2.5508e-21  4.8966e-26  4.8664e-21
      6.20  5.7992e-30  5.4243e-24  8.1906e-30  5.5144e-24  1.4332e-29  5.6746e-24  2.8935e-29  5.9594e-24  5.8235e-29  6.4659e-24  1.1269e-28  7.3665e-24  1.8167e-28  8.9682e-24  2.7209e-28  1.1817e-23  3.809e-28  1.6886e-23  5.192e-28  2.5906e-23  7.2173e-28  4.1968e-23  1.0675e-27  7.0597e-23  1.6689e-27  1.2172e-22  2.7448e-27  2.1328e-22  4.6787e-27  3.7821e-22  8.1901e-27  6.7811e-22  1.4668e-26  1.2324e-21  2.6937e-26  2.2842e-21  5.1124e-26  4.364e-21
      6.25  5.2977e-30  5.4663e-24  7.5345e-30  5.5421e-24  1.2744e-29  5.6769e-24  2.3271e-29  5.9167e-24  4.4083e-29  6.3429e-24  8.2048e-29  7.1008e-24  1.2796e-28  8.4488e-24  1.9358e-28  1.0846e-23  2.8169e-28  1.5111e-23  4.0851e-28  2.2701e-23  6.0688e-28  3.6216e-23  9.4632e-28  6.0307e-23  1.5401e-27  1.0333e-22  2.5971e-27  1.804e-22  4.495e-27  3.1927e-22  7.9441e-27  5.7194e-22  1.4315e-26  1.0393e-21  2.6402e-26  1.9277e-21  5.0289e-26  3.6883e-21
      6.30  4.633e-30  5.5497e-24  6.5076e-30  5.6663e-24  9.9477e-30  5.7178e-24  1.786e-29  5.9091e-24  3.1791e-29  6.2492e-24  5.779e-29  6.854e-24  8.5577e-29  7.9295e-24  1.3441e-28  9.8423e-24  2.0882e-28  1.3245e-23  3.1553e-28   1.93e-23  4.996e-28  3.0083e-23  8.1262e-28  4.9304e-23  1.3667e-27  8.3632e-23  2.3502e-27  1.4515e-22  4.1185e-27  2.5602e-22  7.3337e-27  4.5786e-22  1.3279e-26  8.3162e-22  2.4576e-26  1.5431e-21  4.6958e-26  2.9566e-21
      6.35  4.034e-30  5.6562e-24  5.264e-30  5.7041e-24  7.8398e-30  5.7892e-24  1.2925e-29  5.9406e-24  2.3443e-29  6.2098e-24  4.2154e-29  6.6884e-24  5.893e-29  7.5395e-24  9.0239e-29  9.0533e-24  1.4733e-28  1.1746e-23  2.4742e-28  1.6538e-23  4.092e-28  2.5071e-23  6.9522e-28  4.0282e-23  1.1966e-27  6.7451e-23   2.09e-27  1.1615e-22  3.701e-27  2.0394e-22  6.6328e-27  3.6388e-22  1.206e-26  6.6034e-22  2.2389e-26  1.2256e-21  4.2906e-26  2.3513e-21
      6.40  3.493e-30  5.7852e-24  4.5294e-30  5.824e-24  6.4559e-30  5.8932e-24  1.0102e-29  6.0161e-24  1.6937e-29  6.2347e-24  3.1331e-29  6.6233e-24  4.4198e-29  7.3144e-24  6.6907e-29  8.5436e-24  1.109e-28  1.073e-23  1.9539e-28  1.4621e-23  3.4761e-28  2.155e-23  6.1591e-28  3.3902e-23  1.0895e-27  5.5967e-23  1.9363e-27  9.5521e-23  3.4665e-27  1.6686e-22  6.2538e-27  2.969e-22  1.142e-26  5.3818e-22  2.1273e-26  9.9896e-22  4.0895e-26  1.9187e-21
      6.45  3.0134e-30  5.9332e-24  3.9616e-30  5.9653e-24  5.5132e-30  6.0225e-24  8.3943e-30  6.1242e-24  1.3408e-29  6.305e-24  2.3501e-29  6.6264e-24  3.7441e-29  7.1981e-24  5.7646e-29  8.2148e-24  9.7435e-29  1.0023e-23  1.7443e-28  1.3241e-23  3.1913e-28  1.8972e-23  5.8134e-28  2.9188e-23  1.0512e-27  4.7439e-23  1.8986e-27  8.0163e-23  3.4264e-27  1.392e-22  6.2141e-27  2.4688e-22  1.1389e-26  4.4684e-22  2.1276e-26  8.2929e-22  4.1018e-26  1.5943e-21
      6.50  2.5043e-30  6.0979e-24  3.3906e-30  6.1247e-24  4.6043e-30  6.1722e-24  6.9021e-30  6.2567e-24  1.0718e-29  6.407e-24   1.86e-29  6.6742e-24  2.9111e-29  7.1494e-24  4.6528e-29  7.9946e-24  7.9903e-29  9.4979e-24  1.4508e-28  1.2173e-23  2.7055e-28  1.6936e-23  5.0596e-28  2.5428e-23  9.3472e-28  4.0601e-23  1.7101e-27  6.7808e-23  3.1152e-27  1.1691e-22  5.6834e-27  2.065e-22  1.0457e-26   3.73e-22  1.9592e-26  6.9184e-22  3.7872e-26  1.3307e-21
      6.55  2.079e-30  6.309e-24  2.8428e-30  6.3316e-24  3.7917e-30  6.3718e-24  5.5668e-30  6.4434e-24  8.9359e-30  6.5706e-24  1.5301e-29  6.7969e-24  2.4417e-29  7.1993e-24  3.9124e-29  7.9149e-24  6.8915e-29  9.1879e-24  1.2767e-28  1.1453e-23  2.4256e-28  1.5487e-23  4.6167e-28  2.2678e-23  8.6858e-28  3.5527e-23  1.6114e-27  5.857e-23  2.9613e-27  1.0016e-22  5.4328e-27  1.7608e-22  1.0035e-26  3.1727e-22  1.8857e-26  5.8787e-22  3.6542e-26  1.1309e-21
      6.60  1.7318e-30  6.5378e-24  2.3214e-30  6.5576e-24  3.1495e-30  6.5929e-24  4.5694e-30  6.6557e-24  7.4578e-30  6.7673e-24  1.3274e-29  6.9658e-24  2.1724e-29  7.3187e-24  3.5188e-29  7.9465e-24  6.3103e-29  9.0632e-24  1.1966e-28  1.105e-23  2.3114e-28  1.4589e-23  4.4602e-28  2.0899e-23  8.4955e-28  3.2172e-23  1.5936e-27  5.2392e-23  2.9546e-27  8.8896e-23  5.4517e-27  1.5554e-22  1.0108e-26  2.7954e-22  1.9046e-26  5.1737e-22  3.6991e-26  9.9513e-22
      6.65  1.4444e-30  6.7831e-24  1.9022e-30  6.8012e-24  2.6101e-30  6.8335e-24  3.7357e-30  6.8907e-24  6.1602e-30  6.9926e-24  1.1477e-29  7.1737e-24  1.9364e-29  7.4958e-24  3.1885e-29  8.0687e-24  5.8762e-29  9.0879e-24  1.1411e-28  1.0902e-23  2.2419e-28  1.4131e-23  4.3795e-28  1.989e-23  8.4299e-28  3.018e-23  1.5965e-27  4.8638e-23  2.9831e-27  8.1964e-23  5.535e-27  1.4282e-22  1.0301e-26  2.5609e-22  1.946e-26  4.7348e-22  3.7874e-26  9.1054e-22
      6.70  1.2066e-30  7.044e-24  1.5253e-30  7.0611e-24  2.1104e-30  7.0915e-24  3.1487e-30  7.1456e-24  5.3067e-30  7.2419e-24  1.0546e-29  7.413e-24  1.9373e-29  7.7173e-24  3.4216e-29  8.2586e-24  6.5814e-29  9.2216e-24  1.3051e-28  1.0935e-23  2.5832e-28  1.3987e-23  5.0547e-28  1.9429e-23  9.7401e-28  2.9153e-23  1.8466e-27  4.6595e-23  3.4565e-27  7.8093e-23  6.4262e-27  1.3562e-22  1.1979e-26  2.4273e-22  2.2659e-26  4.4841e-22  4.4157e-26  8.6221e-22
      6.75  1.0078e-30  7.3193e-24  1.2215e-30  7.3359e-24  1.7203e-30  7.3654e-24  2.6656e-30  7.4179e-24  4.9058e-30  7.5112e-24  1.0652e-29  7.6772e-24  2.0608e-29  7.9725e-24  3.8517e-29  8.4976e-24  7.632e-29  9.4317e-24  1.528e-28  1.1094e-23  3.0182e-28  1.4055e-23  5.8881e-28  1.9334e-23  1.1306e-27  2.8767e-23  2.1401e-27  4.5691e-23  4.0038e-27  7.6253e-23  7.4477e-27  1.3209e-22  1.3895e-26  2.3606e-22  2.6307e-26  4.3581e-22  5.1314e-26  8.3794e-22
      6.80  8.4603e-31  7.6481e-24  9.8904e-31  7.6646e-24  1.4047e-30  7.6938e-24   2.28e-30  7.7458e-24  4.4952e-30  7.8383e-24  1.0052e-29  8.0028e-24  2.1394e-29  8.2952e-24  4.0979e-29  8.8153e-24  8.2396e-29  9.7407e-24  1.648e-28  1.1387e-23  3.2437e-28  1.432e-23  6.3095e-28  1.955e-23  1.2101e-27  2.8896e-23  2.2898e-27  4.5663e-23  4.2875e-27  7.5945e-23  7.9869e-27  1.3127e-22  1.4924e-26  2.3434e-22  2.8292e-26  4.3241e-22  5.525e-26  8.314e-22
      6.85  7.1522e-31  7.9947e-24  8.1387e-31  8.0112e-24  1.1153e-30  8.0407e-24  1.939e-30  8.0931e-24  3.9272e-30  8.1862e-24  9.5911e-30  8.3517e-24  2.2549e-29  8.6462e-24  4.468e-29  9.1699e-24  9.1918e-29  1.0102e-23  1.8387e-28  1.176e-23  3.6283e-28  1.4712e-23  7.0488e-28  1.9978e-23  1.3505e-27  2.9389e-23  2.553e-27  4.6272e-23  4.7779e-27  7.6768e-23  8.9013e-27  1.3249e-22  1.6641e-26  2.3632e-22  3.1571e-26  4.3593e-22  6.1707e-26  8.3822e-22
      6.90  6.1114e-31  8.3583e-24  6.8925e-31  8.3751e-24  9.2429e-31  8.4049e-24  1.6156e-30  8.4579e-24  3.6567e-30  8.5522e-24  9.632e-30  8.7198e-24  2.436e-29  9.018e-24  5.0118e-29  9.5482e-24  1.0524e-28  1.0492e-23  2.1154e-28  1.217e-23  4.2024e-28  1.516e-23  8.2187e-28  2.0492e-23  1.5773e-27  3.002e-23  2.9791e-27  4.7116e-23  5.5665e-27  7.7997e-23  1.0358e-26  1.3444e-22  1.9356e-26  2.3961e-22  3.6723e-26  4.4188e-22  7.1804e-26  8.4974e-22
      6.95  5.3782e-31  8.8257e-24  6.0077e-31  8.7551e-24  8.1707e-31  8.7851e-24  1.4787e-30  8.8384e-24  3.5623e-30  8.9331e-24  9.5553e-30  9.1016e-24  2.4904e-29  9.4011e-24  5.1644e-29  9.934e-24  1.0673e-28  1.0882e-23  2.1374e-28  1.2569e-23  4.2923e-28  1.5573e-23  8.4559e-28  2.093e-23  1.6287e-27  3.0504e-23  3.0822e-27  4.7682e-23  5.7665e-27  7.8715e-23  1.074e-26  1.3544e-22  2.0084e-26  2.4117e-22  3.8135e-26  4.4456e-22  7.4629e-26  8.5487e-22
      7.00  4.5807e-31  9.134e-24  5.2423e-31  9.1505e-24  7.4096e-31  9.1801e-24  1.3922e-30  9.2325e-24  3.3456e-30  9.3259e-24  9.1411e-30  9.4918e-24  2.5179e-29  9.7869e-24  5.2218e-29  1.0312e-23  1.0479e-28  1.1245e-23  2.1275e-28  1.2907e-23  4.3161e-28  1.5865e-23  8.5634e-28  2.1141e-23  1.6591e-27  3.0571e-23  3.1549e-27  4.749e-23  5.9213e-27  7.8057e-23  1.1051e-26  1.3393e-22  2.0694e-26  2.3811e-22  3.9338e-26  4.3858e-22  7.706e-26  8.4317e-22
      7.05  3.8648e-31  9.5954e-24  4.5406e-31  9.6112e-24  6.5585e-31  9.6394e-24  1.2456e-30  9.6895e-24  3.0322e-30  9.7787e-24  8.4671e-30  9.9372e-24  2.4007e-29  1.0219e-23  5.1644e-29  1.072e-23  1.044e-28  1.1612e-23  2.1389e-28  1.3199e-23  4.3726e-28  1.6024e-23  8.7674e-28  2.1062e-23  1.7211e-27  3.0065e-23  3.303e-27  4.6221e-23  6.2371e-27  7.541e-23  1.1684e-26  1.2877e-22  2.1929e-26  2.2828e-22  4.1748e-26  4.1983e-22  8.1878e-26  8.0659e-22
      7.10  3.2292e-31  1.0077e-23  3.8279e-31  1.0092e-23  5.5974e-31  1.0118e-23  1.0869e-30  1.0164e-23  2.7255e-30  1.0246e-23  7.5927e-30  1.0391e-23  2.2161e-29  1.065e-23  5.1131e-29  1.111e-23  1.0598e-28  1.1928e-23  2.1602e-28  1.3383e-23  4.4179e-28  1.5975e-23  9.0373e-28  2.0595e-23  1.8054e-27  2.8852e-23  3.5113e-27  4.3668e-23  6.6879e-27  7.0438e-23  1.2596e-26  1.1938e-22  2.3719e-26  2.1067e-22  4.5248e-26  3.8644e-22  8.8869e-26  7.4149e-22
      7.15  2.6977e-31  1.058e-23  3.2121e-31  1.0593e-23  4.7587e-31  1.0616e-23  9.5063e-31  1.0656e-23  2.394e-30  1.0728e-23  6.6924e-30  1.0856e-23  1.8933e-29  1.1083e-23  4.6158e-29  1.1487e-23  9.3168e-29  1.2205e-23  1.8656e-28  1.3482e-23  3.867e-28  1.5757e-23  8.0516e-28  1.9811e-23  1.642e-27  2.7056e-23  3.2521e-27  4.0054e-23  6.2814e-27  6.354e-23  1.1946e-26  1.0648e-22  2.264e-26  1.8659e-22  4.3369e-26  3.4087e-22  8.5411e-26  6.5263e-22
      7.20  2.245e-31  1.1104e-23  2.6757e-31  1.1115e-23  3.9864e-31  1.1134e-23  8.0056e-31  1.1168e-23  1.9816e-30  1.1229e-23  5.3618e-30  1.1337e-23  1.4973e-29  1.1529e-23  3.7998e-29  1.187e-23  7.3535e-29  1.2478e-23  1.5044e-28  1.3558e-23  3.1732e-28  1.5481e-23  6.7473e-28  1.8908e-23  1.4124e-27  2.5031e-23  2.8676e-27  3.6015e-23  5.6512e-27  5.586e-23  1.0907e-26  9.2148e-23  2.088e-26  1.5985e-22  4.0263e-26  2.9025e-22  7.9633e-26  5.5385e-22
      7.25  1.8631e-31  1.1648e-23   2.21e-31  1.1657e-23  3.2614e-31  1.1673e-23  6.3753e-31  1.1702e-23  1.5489e-30  1.1752e-23  4.1196e-30  1.1842e-23  1.1078e-29  1.2001e-23  2.7878e-29  1.2285e-23  5.4928e-29  1.2789e-23  1.1238e-28  1.3687e-23  2.4005e-28  1.5284e-23  5.249e-28  1.813e-23  1.1329e-27  2.3213e-23  2.3735e-27  3.2332e-23  4.8014e-27  4.8805e-23  9.4514e-27  7.8927e-23  1.8346e-26  1.3512e-22  3.5704e-26  2.4339e-22  7.1036e-26  4.6227e-22
      7.30  1.5435e-31  1.2277e-23  1.814e-31  1.2285e-23  2.6134e-31  1.2298e-23  4.987e-31  1.2322e-23  1.1894e-30  1.2364e-23  3.0704e-30  1.2439e-23  8.084e-30  1.2572e-23  1.9782e-29  1.2809e-23  4.1489e-29  1.323e-23  8.4509e-29  1.398e-23  1.7877e-28  1.5314e-23  4.0059e-28  1.7691e-23  8.9871e-28  2.1936e-23  1.956e-27  2.9549e-23  4.0908e-27  4.3302e-23  8.2619e-27  6.8447e-23  1.6334e-26  1.1536e-22  3.2182e-26  2.0574e-22  6.454e-26  3.8847e-22
      7.35  1.2821e-31  1.2935e-23  1.4854e-31  1.2942e-23  2.0867e-31  1.2953e-23  3.8704e-31  1.2973e-23  9.0688e-31  1.3009e-23  2.279e-30  1.3073e-23  5.9281e-30  1.3186e-23  1.4896e-29  1.3388e-23  3.2754e-29  1.3747e-23  6.5849e-29  1.4386e-23  1.3963e-28  1.5523e-23  3.1808e-28  1.755e-23  7.3908e-28  2.1169e-23  1.6688e-27  2.7659e-23  3.5983e-27  3.9382e-23  7.4475e-27  6.0813e-23  1.4992e-26  1.0079e-22  2.9908e-26  1.7782e-22  6.047e-26  3.3354e-22
      7.40  1.0695e-31  1.3622e-23  1.2247e-31  1.3627e-23  1.6841e-31  1.3637e-23  3.0493e-31  1.3655e-23  6.9747e-31  1.3686e-23  1.7355e-30  1.3742e-23  4.4966e-30  1.3841e-23  1.1776e-29  1.4018e-23  2.7928e-29  1.4332e-23  5.4883e-29  1.489e-23  1.1598e-28  1.5885e-23  2.6691e-28  1.7658e-23  6.3082e-28  2.0824e-23  1.4618e-27  2.6503e-23  3.2398e-27  3.6758e-23   6.86e-27  5.5505e-23  1.4047e-26  9.0475e-23  2.836e-26  1.5784e-22  5.7797e-26  2.9403e-22
      7.45  8.9016e-32  1.4336e-23  1.0204e-31  1.4341e-23  1.3726e-31  1.435e-23  2.447e-31  1.4366e-23  5.5961e-31  1.4394e-23  1.3795e-30  1.4444e-23  3.5791e-30  1.4533e-23  9.4723e-30  1.4692e-23  2.2191e-29  1.4974e-23  4.2788e-29  1.5475e-23  8.9216e-29  1.6369e-23  2.0659e-28  1.7961e-23  4.9741e-28  2.0806e-23  1.185e-27  2.5908e-23  2.7083e-27  3.5123e-23  5.896e-27  5.1967e-23  1.2339e-26  8.3384e-23  2.5305e-26  1.439e-22  5.212e-26  2.6622e-22
      7.50  7.5841e-32  1.5078e-23  8.5349e-32  1.5083e-23  1.1644e-31  1.5091e-23  2.0427e-31  1.5106e-23  4.6634e-31  1.5132e-23  1.1397e-30  1.5178e-23  2.9713e-30  1.526e-23  7.9341e-30  1.5406e-23  1.846e-29  1.5665e-23  3.5302e-29  1.6127e-23  7.2532e-29  1.695e-23  1.6757e-28  1.8416e-23  4.0772e-28  2.1036e-23  9.9219e-28  2.5735e-23  2.3307e-27  3.4221e-23  5.2125e-27  4.9734e-23  1.1154e-26  7.8665e-23  2.3251e-26  1.3438e-22  4.8426e-26  2.4699e-22
      7.55  6.413e-32  1.5929e-23  7.2964e-32  1.5934e-23  9.9467e-32  1.5942e-23  1.7721e-31  1.5955e-23  4.1082e-31  1.598e-23  1.0061e-30  1.6023e-23  2.6393e-30   1.61e-23  7.0014e-30  1.6238e-23  1.5708e-29  1.6482e-23  3.0584e-29  1.6918e-23  6.1919e-29  1.7693e-23  1.4144e-28  1.9075e-23  3.4442e-28  2.1544e-23  8.4962e-28  2.5974e-23  2.0425e-27  3.3975e-23  4.6904e-27  4.8599e-23  1.0282e-26  7.5871e-23  2.1841e-26  1.2839e-22  4.6098e-26  2.3451e-22
      7.60  5.5145e-32  1.6818e-23  6.374e-32  1.6822e-23  8.8516e-32  1.683e-23  1.5996e-31  1.6843e-23  3.7171e-31  1.6867e-23  9.3553e-31  1.6908e-23  2.4921e-30  1.6983e-23  6.523e-30  1.7115e-23   1.37e-29  1.735e-23  2.6947e-29  1.7768e-23  5.3188e-29  1.8513e-23  1.1812e-28  1.9842e-23  2.8274e-28  2.2217e-23  6.9625e-28  2.6477e-23  1.6943e-27  3.4172e-23  3.9693e-27  4.8238e-23  8.8878e-27  7.4466e-23  1.9226e-26  1.2497e-22  4.1129e-26   2.27e-22
      7.65  4.8148e-32  1.7745e-23  5.5878e-32  1.7749e-23  7.9429e-32  1.7756e-23  1.4717e-31  1.7769e-23  3.4978e-31  1.7792e-23  8.9789e-31  1.7833e-23  2.3806e-30  1.7906e-23  6.2092e-30  1.8035e-23  1.2167e-29  1.8265e-23  2.4034e-29  1.8674e-23  4.6645e-29  1.9402e-23  1.0054e-28  2.0701e-23  2.3506e-28  2.3023e-23  5.7313e-28  2.7188e-23  1.4019e-27  3.4711e-23  3.3367e-27  4.8464e-23  7.6213e-27  7.4109e-23  1.6795e-26  1.2348e-22  3.6456e-26  2.2322e-22
      7.70  4.1967e-32  1.8709e-23  4.931e-32  1.8713e-23  7.1856e-32  1.8721e-23  1.3641e-31  1.8733e-23  3.2838e-31  1.8756e-23  8.571e-31  1.8797e-23  2.2767e-30  1.8869e-23  5.9442e-30  1.8996e-23  1.1176e-29  1.9224e-23  2.1326e-29  1.9629e-23  4.1282e-29  2.035e-23  8.6509e-29  2.1637e-23  1.9695e-28  2.3936e-23  4.7297e-28  2.8061e-23  1.156e-27  3.5514e-23  2.7838e-27  4.9136e-23  6.4752e-27  7.4537e-23  1.454e-26  1.2344e-22  3.2063e-26  2.2221e-22
      7.75  3.6988e-32  1.9711e-23  4.3992e-32  1.9715e-23  6.5641e-32  1.9723e-23  1.2863e-31  1.9735e-23  3.073e-31  1.9758e-23  8.1891e-31  1.9799e-23  2.1654e-30  1.987e-23  5.469e-30  1.9998e-23  1.0019e-29  2.0226e-23  1.9167e-29  2.063e-23  3.6638e-29  2.1351e-23  7.5344e-29  2.2637e-23  1.6669e-28  2.4935e-23  3.9219e-28  2.9059e-23  9.519e-28  3.6509e-23  2.3076e-27  5.0127e-23  5.4522e-27  7.5519e-23  1.2472e-26  1.244e-22  2.7966e-26  2.2312e-22
      7.80  3.2865e-32  2.0854e-23  3.9491e-32  2.0858e-23  6.0145e-32  2.0865e-23  1.1999e-31  2.0878e-23  2.9161e-31  2.0901e-23  7.7802e-31  2.0942e-23  2.0838e-30  2.1014e-23  5.0791e-30  2.1143e-23  9.2475e-30  2.1372e-23  1.7283e-29  2.178e-23  3.2811e-29  2.2506e-23  6.6094e-29  2.3801e-23  1.4221e-28  2.6115e-23  3.2683e-28  3.0268e-23  7.8404e-28  3.7771e-23  1.9047e-27  5.1488e-23  4.5592e-27  7.7063e-23  1.0619e-26  1.2629e-22  2.4237e-26  2.2571e-22
      7.85   2.94e-32  2.2048e-23  3.5555e-32  2.2052e-23  5.4876e-32  2.2059e-23  1.0977e-31  2.2072e-23  2.6776e-31  2.2096e-23  7.1644e-31  2.2137e-23  1.9475e-30  2.221e-23  4.6355e-30  2.234e-23  8.3922e-30  2.2571e-23  1.5547e-29  2.2983e-23  2.9579e-29  2.3716e-23  5.7876e-29  2.5023e-23  1.2171e-28  2.736e-23  2.7318e-28  3.1553e-23  6.4591e-28  3.913e-23  1.5667e-27  5.298e-23  3.789e-27  7.8804e-23  8.9807e-27  1.2851e-22  2.0886e-26  2.2888e-22
      7.90  2.6487e-32  2.3294e-23  3.1951e-32  2.3298e-23  4.9395e-32  2.3305e-23  9.942e-32  2.3318e-23  2.4234e-31  2.3341e-23  6.4692e-31  2.3383e-23  1.7707e-30  2.3457e-23  4.0613e-30  2.3588e-23  7.2563e-30  2.3821e-23  1.3348e-29  2.4237e-23  2.5231e-29  2.4977e-23  4.8846e-29  2.6297e-23  1.0044e-28  2.8656e-23  2.207e-28  3.2889e-23  5.143e-28  4.0537e-23  1.2439e-27  5.4518e-23  3.0375e-27  8.0586e-23  7.3303e-27  1.3076e-22  1.7404e-26  2.3206e-22
      7.95  2.3919e-32  2.4591e-23  2.8659e-32  2.4595e-23  4.3917e-32  2.4602e-23  8.9126e-32  2.4615e-23  2.1622e-31  2.4639e-23  5.7542e-31  2.4681e-23  1.5525e-30  2.4755e-23  3.4081e-30  2.4887e-23  6.1323e-30  2.5122e-23  1.122e-29  2.554e-23  2.0996e-29  2.6284e-23  4.0373e-29  2.7612e-23  8.153e-29  2.9986e-23  1.7558e-28  3.4245e-23  4.0072e-28  4.1941e-23  9.6739e-28  5.6009e-23  2.3747e-27  8.2239e-23  5.8161e-27  1.3272e-22  1.4076e-26  2.3463e-22
      8.00  2.1944e-32  2.5939e-23    2.6e-32  2.5944e-23  3.9184e-32  2.5951e-23  7.7131e-32  2.5964e-23  1.8467e-31  2.5988e-23  4.9339e-31  2.603e-23  1.3324e-30  2.6104e-23  2.8028e-30  2.6236e-23  5.0298e-30  2.6472e-23  9.2467e-30  2.6891e-23  1.7187e-29  2.7637e-23  3.2812e-29  2.8968e-23  6.5349e-29  3.1347e-23  1.3822e-28  3.5615e-23  3.118e-28  4.3328e-23  7.4256e-28  5.7426e-23  1.8259e-27  8.3712e-23  4.5235e-27  1.343e-22  1.1136e-26  2.364e-22
      8.05  2.0191e-32  2.7473e-23  2.3519e-32  2.7477e-23  3.4456e-32  2.7484e-23  6.6503e-32  2.7497e-23  1.552e-31  2.7521e-23  4.1141e-31  2.7563e-23  1.1086e-30  2.7637e-23  2.278e-30  2.777e-23  4.0801e-30  2.8005e-23  7.4068e-30  2.8424e-23  1.3821e-29  2.9171e-23  2.6266e-29  3.0502e-23  5.1722e-29  3.2882e-23  1.0782e-28  3.7153e-23  2.3985e-28  4.4868e-23  5.6634e-28  5.8972e-23  1.393e-27  8.5265e-23  3.4845e-27  1.3586e-22  8.7144e-27  2.3797e-22
      8.10  1.8729e-32  2.9077e-23  2.1377e-32  2.9081e-23  3.007e-32  2.9088e-23  5.5661e-32  2.9101e-23  1.285e-31  2.9125e-23  3.3127e-31  2.9166e-23  9.0723e-31  2.9241e-23  1.8319e-30  2.9373e-23  3.2758e-30  2.9607e-23  5.8743e-30  3.0025e-23  1.0817e-29  3.077e-23  2.0636e-29  3.2097e-23  4.0338e-29  3.4469e-23  8.2853e-29  3.8726e-23  1.8193e-28  4.6417e-23  4.2785e-28  6.0476e-23  1.0517e-27  8.6683e-23  2.651e-27  1.3711e-22  6.7237e-27  2.3885e-22
      8.15  1.7526e-32  3.0752e-23  1.9579e-32  3.0756e-23  2.6394e-32  3.0764e-23  4.6267e-32  3.0777e-23  1.0386e-31   3.08e-23  2.6627e-31  3.0842e-23  7.1959e-31  3.0915e-23  1.4325e-30  3.1047e-23  2.5615e-30  3.128e-23  4.5819e-30  3.1696e-23  8.4049e-30  3.2436e-23  1.5784e-29  3.3756e-23  3.1019e-29  3.6116e-23  6.3119e-29  4.035e-23  1.3712e-28  4.7999e-23  3.1824e-28  6.198e-23  7.8007e-28  8.804e-23  1.9769e-27  1.3817e-22  5.0754e-27  2.3931e-22
      8.20  1.6546e-32   3.25e-23  1.8106e-32  3.2504e-23  2.3334e-32  3.2511e-23  3.8382e-32  3.2524e-23  8.2692e-32  3.2548e-23  2.0859e-31  3.2589e-23  5.6028e-31  3.2662e-23  1.1058e-30  3.2793e-23  1.9757e-30  3.3025e-23  3.561e-30  3.3437e-23  6.4527e-30  3.4173e-23  1.2176e-29  3.5485e-23  2.3536e-29  3.7829e-23  4.7692e-29  4.2036e-23  1.0274e-28  4.9635e-23  2.3686e-28  6.3524e-23  5.7954e-28  8.9411e-23  1.4758e-27  1.392e-22  3.8305e-27  2.3962e-22
      8.25  1.5725e-32  3.4321e-23  1.6895e-32  3.4325e-23  2.0559e-32  3.4332e-23  3.2455e-32  3.4345e-23  6.592e-32  3.4368e-23  1.6188e-31  3.4409e-23   4.27e-31  3.4482e-23  8.3809e-31  3.4612e-23  1.5084e-30  3.4842e-23  2.6906e-30  3.5253e-23  4.9121e-30  3.5984e-23  9.2433e-30  3.7287e-23  1.7797e-29  3.9617e-23  3.5906e-29  4.3798e-23  7.6933e-29  5.135e-23  1.766e-28  6.5152e-23  4.3183e-28  9.0874e-23  1.1048e-27  1.4034e-22  2.8962e-27  2.4007e-22
      8.30  1.5076e-32  3.6388e-23  1.597e-32  3.6392e-23  1.871e-32   3.64e-23  2.7258e-32  3.6412e-23  5.2465e-32  3.6435e-23  1.2475e-31  3.6476e-23  3.296e-31  3.6549e-23  6.4481e-31  3.6679e-23  1.1464e-30  3.6909e-23  2.0615e-30  3.7319e-23  3.7571e-30  3.8049e-23  6.9906e-30  3.9351e-23  1.3425e-29  4.1678e-23  2.6995e-29  4.5853e-23  5.7674e-29  5.3394e-23  1.3207e-28  6.7176e-23  3.2306e-28  9.2856e-23  8.2527e-28  1.4223e-22  2.1966e-27  2.4176e-22
      8.35  1.4595e-32  3.8556e-23  1.5229e-32  3.856e-23  1.7194e-32  3.8567e-23  2.3502e-32  3.858e-23  4.1748e-32  3.8603e-23  9.4347e-32  3.8644e-23  2.4644e-31  3.8717e-23  4.8034e-31  3.8847e-23  8.5115e-31  3.9078e-23  1.5277e-30  3.9488e-23  2.7824e-30  4.0219e-23  5.174e-30  4.1523e-23  9.9331e-30  4.3853e-23  1.9975e-29  4.8034e-23  4.2716e-29  5.5586e-23  9.8022e-29  6.9386e-23  2.4076e-28  9.5096e-23  6.232e-28  1.4452e-22  1.6651e-27  2.4411e-22
      8.40  1.4193e-32  4.0827e-23  1.4648e-32  4.0831e-23  1.6069e-32  4.0839e-23  2.0617e-32  4.0852e-23  3.3673e-32  4.0875e-23  7.1685e-32  4.0916e-23  1.7956e-31  4.0989e-23  3.5114e-31  4.1119e-23  6.1944e-31  4.1351e-23  1.1094e-30  4.1764e-23  2.0192e-30  4.2498e-23  3.7572e-30  4.3808e-23  7.225e-30  4.615e-23  1.4572e-29  5.035e-23  3.1299e-29  5.7938e-23  7.2263e-29  7.1801e-23  1.7882e-28  9.7626e-23  4.6713e-28  1.4726e-22  1.2618e-27  2.4725e-22
      8.45  1.3876e-32  4.3205e-23  1.4358e-32  4.3645e-23  1.5272e-32  4.3216e-23  1.8302e-32  4.3229e-23  2.803e-32  4.3253e-23  5.5624e-32  4.3294e-23  1.3386e-31  4.3368e-23  2.5959e-31  4.3499e-23  4.5529e-31  4.3733e-23  8.1291e-31  4.4149e-23  1.478e-30  4.489e-23  2.7511e-30  4.621e-23  5.2985e-30  4.8571e-23  1.0717e-29  5.2807e-23  2.3119e-29  6.0456e-23  5.3413e-29  7.4432e-23  1.3377e-28  1.0046e-22  3.5237e-28  1.5048e-22  9.6113e-28  2.5122e-22
      8.50  1.3627e-32  4.5691e-23  1.387e-32  4.5696e-23  1.4664e-32  4.5703e-23  1.6925e-32  4.5716e-23  2.4038e-32  4.574e-23  4.4068e-32  4.5782e-23  1.0176e-31  4.5857e-23  1.9261e-31  4.599e-23  3.3844e-31  4.6226e-23  6.0183e-31  4.6647e-23  1.0922e-30  4.7396e-23  2.0328e-30  4.8733e-23   3.92e-30  5.1122e-23  7.9494e-30  5.5407e-23  1.7214e-29  6.3147e-23  4.0174e-29  7.7286e-23  1.0074e-28  1.0362e-22  2.673e-28  1.5421e-22  7.3538e-28  2.5607e-22
