# This was generated using Cloudy10 and the columns are ordered 
# as log10 of the fraction of the metallicity to the solar metallicity
# 'h_*_Z' and 'c_*_Z' stands for cooling and heating respectively 
# at * metalicity
#
# Redshift = 2.5
# hden = 6.0
#     temp   h_-3.00_Z   c_-3.00_Z   h_-2.75_Z   c_-2.75_Z   h_-2.50_Z   c_-2.50_Z   h_-2.25_Z   c_-2.25_Z   h_-2.00_Z   c_-2.00_Z   h_-1.75_Z   c_-1.75_Z   h_-1.50_Z   c_-1.50_Z   h_-1.25_Z   c_-1.25_Z   h_-1.00_Z   c_-1.00_Z   h_-0.75_Z   c_-0.75_Z   h_-0.50_Z   c_-0.50_Z   h_-0.25_Z   c_-0.25_Z    h_0.00_Z    c_0.00_Z    h_0.25_Z    c_0.25_Z    h_0.50_Z    c_0.50_Z    h_0.75_Z    c_0.75_Z    h_1.00_Z    c_1.00_Z    h_1.25_Z    c_1.25_Z    h_1.50_Z    c_1.50_Z 
      1.00  1.0841e-29  2.1525e-33  1.084e-29  2.1664e-33  1.0839e-29  2.1912e-33  1.0837e-29  2.2352e-33  1.0833e-29  2.3134e-33  1.0826e-29  2.4525e-33  1.0814e-29  2.6999e-33  1.0794e-29  3.1396e-33  1.0758e-29  3.9216e-33  1.0704e-29  5.313e-33  1.065e-29  7.7941e-33  1.064e-29  1.2223e-32  1.069e-29  2.0114e-32  1.0812e-29  3.416e-32  1.105e-29  5.9328e-32  1.1497e-29  1.0356e-31  1.2303e-29  1.8266e-31  1.3738e-29  3.2333e-31  1.6292e-29  5.7344e-31
      1.05  1.0841e-29  2.6276e-33  1.084e-29  2.6457e-33  1.0839e-29  2.6781e-33  1.0837e-29  2.7356e-33  1.0834e-29  2.8379e-33  1.0827e-29  3.0198e-33  1.0816e-29  3.3432e-33  1.0796e-29  3.9187e-33  1.0761e-29  4.9429e-33  1.0706e-29  6.7695e-33  1.0651e-29  1.004e-32  1.0639e-29  1.5901e-32  1.0688e-29  2.6359e-32  1.081e-29  4.497e-32  1.1048e-29  7.9292e-32  1.1492e-29  1.3697e-31  1.2296e-29  2.415e-31  1.3727e-29  4.2778e-31  1.6273e-29  7.5899e-31
      1.10  1.0841e-29  3.1543e-33  1.0841e-29  3.1777e-33  1.084e-29  3.2193e-33  1.0838e-29  3.2933e-33  1.0834e-29  3.4249e-33  1.0828e-29  3.659e-33  1.0817e-29  4.0755e-33  1.0797e-29  4.8173e-33  1.0762e-29  6.1405e-33  1.0707e-29  8.5116e-33  1.065e-29  1.2797e-32  1.0638e-29  2.0541e-32  1.0687e-29  3.4393e-32  1.0809e-29  5.9045e-32  1.1047e-29  1.0504e-31  1.1487e-29  1.8084e-31  1.2289e-29  3.1953e-31  1.3716e-29  5.6568e-31  1.6256e-29  1.0041e-30
      1.15  1.0842e-29  3.7401e-33  1.0842e-29  3.7699e-33  1.0841e-29  3.8228e-33  1.0839e-29  3.9169e-33  1.0835e-29  4.0844e-33  1.0829e-29  4.3824e-33  1.0818e-29  4.9132e-33  1.0799e-29  5.8601e-33  1.0764e-29  7.5556e-33  1.0708e-29  1.062e-32  1.065e-29  1.6254e-32  1.0636e-29  2.6596e-32  1.0685e-29  4.5177e-32  1.0807e-29  7.8237e-32  1.1045e-29  1.401e-31  1.1481e-29  2.4141e-31  1.2281e-29  4.2718e-31  1.3705e-29  7.5675e-31  1.6236e-29  1.3438e-30
      1.20  1.0844e-29  4.3936e-33  1.0843e-29  4.4311e-33  1.0842e-29  4.4979e-33  1.084e-29  4.6166e-33  1.0837e-29  4.828e-33  1.0831e-29  5.2044e-33  1.082e-29  5.8759e-33   1.08e-29  7.0772e-33  1.0766e-29  9.2413e-33  1.071e-29  1.3207e-32  1.0649e-29  2.0698e-32  1.0635e-29  3.4801e-32  1.0684e-29  6.031e-32  1.0805e-29  1.0568e-31  1.1042e-29  1.9025e-31  1.1476e-29  3.2923e-31  1.2273e-29  5.8365e-31  1.3692e-29  1.0349e-30  1.6216e-29  1.8386e-30
      1.25  1.0845e-29  5.1246e-33  1.0845e-29  5.1717e-33  1.0844e-29  5.2556e-33  1.0842e-29  5.405e-33  1.0839e-29  5.6709e-33  1.0833e-29  6.145e-33  1.0822e-29  6.9925e-33  1.0803e-29  8.5148e-33  1.0768e-29  1.1281e-32  1.0711e-29  1.6448e-32  1.0649e-29  2.6592e-32  1.0634e-29  4.6356e-32  1.0683e-29  8.2416e-32  1.0803e-29  1.465e-31  1.104e-29  2.6505e-31  1.147e-29  4.6159e-31  1.2265e-29  8.2001e-31  1.3679e-29  1.4555e-30  1.6194e-29  2.5871e-30
      1.30  1.0847e-29  5.9467e-33  1.0847e-29  6.0064e-33  1.0846e-29  6.1126e-33  1.0844e-29  6.3016e-33  1.0841e-29  6.6386e-33  1.0835e-29  7.2402e-33  1.0824e-29  8.3182e-33  1.0805e-29  1.0264e-32  1.0771e-29  1.3838e-32  1.0713e-29  2.0673e-32  1.0649e-29  3.4733e-32  1.0633e-29  6.3247e-32  1.0681e-29  1.1575e-31  1.0802e-29  2.0928e-31  1.1038e-29  3.7977e-31  1.1463e-29  6.6617e-31  1.2256e-29  1.1859e-30  1.3666e-29  2.1073e-30  1.6173e-29  3.7475e-30
      1.35  1.085e-29  6.8745e-33  1.0849e-29  6.9522e-33  1.0848e-29  7.0904e-33  1.0846e-29  7.3367e-33  1.0843e-29  7.7759e-33  1.0837e-29  8.5613e-33  1.0827e-29  9.9723e-33  1.0808e-29  1.2533e-32  1.0774e-29  1.7284e-32  1.0715e-29  2.6591e-32  1.0649e-29  4.6647e-32  1.0632e-29  8.8938e-32  1.068e-29  1.6746e-31   1.08e-29  3.0736e-31  1.1036e-29  5.5938e-31  1.1457e-29  9.8797e-31  1.2248e-29  1.7618e-30  1.3653e-29  3.1338e-30  1.6151e-29  5.5752e-30
      1.40  1.0852e-29  7.9303e-33  1.0852e-29  8.038e-33  1.0851e-29  8.2297e-33  1.0849e-29  8.5713e-33  1.0846e-29  9.181e-33  1.084e-29  1.0272e-32  1.083e-29  1.2236e-32  1.0811e-29  1.5812e-32  1.0777e-29  2.2494e-32  1.0718e-29  3.5802e-32  1.0649e-29  6.5469e-32  1.063e-29  1.299e-31  1.0679e-29  2.5019e-31  1.0799e-29  4.6421e-31  1.1034e-29  8.4658e-31  1.1453e-29  1.5057e-30  1.2239e-29  2.682e-30  1.3639e-29  4.7783e-30  1.6129e-29  8.5033e-30
      1.45  1.0855e-29  9.1491e-33  1.0855e-29  9.3136e-33  1.0854e-29  9.6066e-33  1.0852e-29  1.0129e-32  1.0849e-29  1.106e-32  1.0843e-29  1.2727e-32  1.0833e-29  1.5728e-32  1.0814e-29  2.1191e-32  1.078e-29  3.1405e-32  1.0721e-29  5.1779e-32  1.0649e-29  9.7648e-32  1.0629e-29  1.9853e-31  1.0677e-29  3.872e-31  1.0797e-29  7.2232e-31  1.1032e-29  1.3178e-30  1.1449e-29  2.354e-30  1.223e-29  4.1933e-30  1.3626e-29  7.4728e-30  1.6108e-29   1.33e-29
      1.50  1.0858e-29  1.0589e-32  1.0858e-29  1.0867e-32  1.0857e-29  1.1364e-32  1.0855e-29  1.2248e-32  1.0852e-29  1.3826e-32  1.0847e-29  1.6646e-32  1.0837e-29  2.1712e-32  1.0818e-29  3.0907e-32  1.0784e-29  4.7977e-32  1.0724e-29  8.1572e-32  1.065e-29  1.5591e-31  1.0628e-29  3.1826e-31  1.0676e-29  6.2124e-31  1.0796e-29  1.1586e-30  1.1029e-29  2.1104e-30  1.1446e-29  3.7744e-30  1.2221e-29  6.7282e-30  1.3614e-29  1.1989e-29  1.6087e-29  2.1339e-29
      1.55  1.0862e-29  1.2348e-32  1.0861e-29  1.2856e-32  1.086e-29  1.376e-32  1.0859e-29  1.537e-32  1.0856e-29  1.8238e-32  1.085e-29  2.336e-32  1.084e-29  3.2539e-32  1.0822e-29  4.9114e-32  1.0788e-29  7.9577e-32  1.0727e-29  1.3824e-31  1.065e-29  2.6347e-31  1.0627e-29  5.3089e-31  1.0675e-29  1.0272e-30  1.0795e-29  1.9067e-30  1.1028e-29  3.4626e-30  1.1443e-29  6.1963e-30  1.2213e-29  1.1038e-29  1.3601e-29  1.9662e-29  1.6068e-29  3.4991e-29
      1.60  1.0866e-29  1.4571e-32  1.0865e-29  1.5518e-32  1.0864e-29  1.7204e-32  1.0863e-29  2.0204e-32  1.086e-29  2.5548e-32  1.0854e-29  3.5077e-32  1.0845e-29  5.2115e-32  1.0826e-29  8.2741e-32  1.0792e-29  1.3849e-31  1.073e-29  2.4356e-31  1.0651e-29  4.5894e-31  1.0627e-29  9.0512e-31  1.0674e-29  1.7275e-30  1.0793e-29  3.1842e-30  1.1026e-29  5.7564e-30  1.144e-29  1.0304e-29  1.2204e-29  1.8341e-29  1.359e-29  3.2653e-29  1.605e-29  5.8102e-29
      1.65  1.087e-29  1.7476e-32  1.0869e-29  1.9223e-32  1.0869e-29  2.2331e-32  1.0867e-29  2.7861e-32  1.0864e-29  3.7704e-32  1.0859e-29  5.5243e-32  1.0849e-29  8.6544e-32  1.0831e-29  1.4261e-31  1.0797e-29  2.4392e-31  1.0734e-29  4.3151e-31  1.0652e-29  8.0208e-31  1.0626e-29  1.5459e-30  1.0673e-29  2.9071e-30  1.0792e-29  5.3185e-30  1.1024e-29  9.5809e-30  1.1437e-29  1.7129e-29  1.2196e-29  3.0469e-29  1.3579e-29  5.421e-29  1.6032e-29  9.6441e-29
      1.70  1.0874e-29  2.1375e-32  1.0874e-29  2.4499e-32  1.0873e-29  3.0056e-32  1.0871e-29  3.9941e-32  1.0869e-29  5.7532e-32  1.0863e-29  8.8852e-32  1.0854e-29  1.4468e-31  1.0836e-29  2.4443e-31  1.0802e-29  4.2369e-31  1.0738e-29  7.5121e-31  1.0653e-29  1.3787e-30  1.0625e-29  2.6018e-30  1.0672e-29  4.8248e-30  1.0791e-29  8.7586e-30  1.1023e-29  1.5738e-29  1.1435e-29  2.8099e-29  1.2187e-29  4.9958e-29  1.3568e-29  8.8826e-29  1.6016e-29  1.5799e-28
      1.75  1.0879e-29  2.6683e-32  1.0879e-29  3.2058e-32  1.0878e-29  4.1619e-32  1.0876e-29  5.8623e-32  1.0873e-29  8.8875e-32  1.0868e-29  1.4271e-31  1.0859e-29  2.3859e-31  1.0841e-29  4.0959e-31  1.0807e-29  7.1567e-31  1.0743e-29  1.2694e-30  1.0655e-29  2.3041e-30  1.0624e-29  4.2683e-30  1.0671e-29  7.816e-30  1.079e-29  1.4101e-29  1.1021e-29  2.5257e-29  1.1432e-29  4.5039e-29  1.2179e-29  8.0053e-29  1.3558e-29  1.4225e-28  1.6002e-29  2.5298e-28
      1.80  1.0884e-29  3.395e-32  1.0884e-29  4.2833e-32  1.0883e-29  5.863e-32  1.0881e-29  8.6725e-32  1.0879e-29  1.367e-31  1.0873e-29  2.256e-31  1.0864e-29  3.8382e-31  1.0846e-29  6.6564e-31  1.0812e-29  1.1686e-30  1.0747e-29  2.0716e-30  1.0656e-29  3.7249e-30  1.0624e-29  6.7872e-30  1.067e-29  1.2278e-29  1.0789e-29  2.204e-29  1.102e-29  3.9365e-29  1.143e-29  7.0114e-29  1.217e-29  1.246e-28  1.3548e-29  2.2132e-28  1.5988e-29  3.9363e-28
      1.85  1.089e-29  4.3808e-32  1.0889e-29  5.7921e-32  1.0888e-29  8.3018e-32  1.0887e-29  1.2765e-31  1.0884e-29  2.0702e-31  1.0879e-29  3.482e-31  1.087e-29  5.9931e-31  1.0852e-29  1.0461e-30  1.0818e-29  1.8418e-30  1.0752e-29  3.2618e-30  1.0658e-29  5.8168e-30  1.0623e-29  1.044e-29  1.0669e-29  1.8687e-29  1.0788e-29  3.3359e-29  1.1019e-29  5.9426e-29  1.1429e-29  1.0573e-28  1.2161e-29  1.8787e-28  1.3539e-29  3.3372e-28  1.5975e-29  5.9372e-28
      1.90  1.0895e-29  5.7002e-32  1.0895e-29  7.8604e-32  1.0894e-29  1.1702e-31  1.0892e-29  1.8533e-31  1.0889e-29  3.068e-31  1.0884e-29  5.228e-31  1.0875e-29  9.0686e-31  1.0857e-29  1.5897e-30  1.0822e-29  2.8034e-30  1.0755e-29  4.9593e-30  1.0658e-29  8.7796e-30  1.0623e-29  1.5527e-29  1.0668e-29  2.7531e-29  1.0788e-29  4.8884e-29  1.1018e-29  8.6864e-29  1.1427e-29  1.5437e-28  1.2156e-29  2.7423e-28  1.3532e-29  4.8754e-28  1.5965e-29  8.6812e-28
      1.95  1.0901e-29  7.4306e-32   1.09e-29  1.0621e-31  1.0899e-29  1.6295e-31  1.0897e-29  2.6383e-31  1.0894e-29  4.432e-31  1.0888e-29  7.6209e-31  1.0877e-29  1.3289e-30  1.0857e-29  2.3358e-30  1.0818e-29  4.1223e-30  1.0745e-29  7.2801e-30  1.065e-29  1.2794e-29  1.0621e-29  2.2352e-29  1.0667e-29  3.9277e-29  1.0787e-29  6.9406e-29  1.1017e-29  1.2302e-28  1.1426e-29  2.183e-28  1.2158e-29  3.8738e-28  1.3536e-29  6.9065e-28  1.5968e-29  1.2321e-27
      2.00  1.0907e-29  9.6551e-32  1.0906e-29  1.4216e-31  1.0905e-29  2.2327e-31  1.0904e-29  3.6749e-31   1.09e-29  6.2388e-31  1.0894e-29  1.0796e-30  1.0883e-29  1.8894e-30  1.0862e-29  3.3272e-30  1.0823e-29  5.8745e-30  1.0749e-29  1.0359e-29  1.0651e-29  1.8089e-29  1.062e-29  3.1242e-29  1.0666e-29  5.443e-29  1.0787e-29  9.5743e-29  1.1016e-29  1.6932e-28  1.1424e-29  3.0011e-28  1.2152e-29  5.323e-28  1.3529e-29  9.5193e-28  1.596e-29  1.7028e-27
      2.05  1.0913e-29  1.2454e-31  1.0913e-29  1.878e-31  1.0912e-29  3.0028e-31  1.091e-29  5.0028e-31  1.0907e-29  8.5582e-31  1.0901e-29  1.4877e-30  1.089e-29  2.6104e-30  1.087e-29  4.6027e-30  1.083e-29  8.1293e-30  1.0756e-29  1.4321e-29  1.0654e-29  2.4861e-29  1.062e-29  4.2505e-29  1.0666e-29  7.3437e-29  1.0786e-29  1.2861e-28  1.1016e-29  2.2698e-28  1.1423e-29  4.0194e-28  1.2149e-29  7.1264e-28  1.3521e-29  1.279e-27  1.5949e-29  2.2975e-27
      2.10  1.092e-29  1.5886e-31  1.092e-29  2.441e-31  1.0919e-29  3.9566e-31  1.0917e-29  6.6515e-31  1.0914e-29  1.1442e-30  1.0908e-29  1.9956e-30  1.0897e-29  3.508e-30  1.0877e-29  6.1914e-30  1.0838e-29  1.0938e-29  1.0764e-29  1.9257e-29  1.0657e-29   3.33e-29  1.062e-29  5.6377e-29  1.0665e-29  9.6658e-29  1.0786e-29  1.6861e-28  1.1015e-29  2.9701e-28  1.1422e-29  5.2554e-28  1.2147e-29  9.3155e-28  1.3512e-29  1.6787e-27  1.5939e-29  3.0333e-27
      2.15  1.0927e-29  1.999e-31  1.0927e-29  3.117e-31  1.0926e-29  5.1048e-31  1.0924e-29  8.6392e-31  1.0921e-29  1.4922e-30  1.0915e-29  2.6088e-30  1.0905e-29  4.5922e-30  1.0885e-29  8.1108e-30  1.0847e-29  1.4333e-29  1.0771e-29  2.5226e-29  1.066e-29  4.3502e-29  1.062e-29  7.3031e-29  1.0665e-29  1.2436e-28  1.0785e-29  2.1618e-28  1.1014e-29  3.8023e-28  1.1421e-29  6.7239e-28  1.2145e-29  1.1917e-27  1.3504e-29  2.1564e-27  1.5929e-29  3.9274e-27
      2.20  1.0934e-29  2.4785e-31  1.0934e-29  3.9081e-31  1.0933e-29  6.4501e-31  1.0931e-29  1.097e-30  1.0928e-29  1.9004e-30  1.0923e-29  3.3283e-30  1.0913e-29  5.8646e-30  1.0893e-29  1.0364e-29  1.0855e-29  1.8321e-29  1.0779e-29  3.2243e-29  1.0663e-29  5.551e-29  1.0619e-29  9.2551e-29  1.0665e-29  1.567e-28  1.0784e-29  2.7162e-28  1.1014e-29  4.7717e-28  1.142e-29  8.4349e-28  1.2143e-29  1.4951e-27  1.3495e-29  2.715e-27  1.5919e-29  4.9949e-27
      2.25  1.0942e-29  3.0264e-31  1.0941e-29  4.812e-31  1.094e-29  7.987e-31  1.0939e-29  1.3632e-30  1.0936e-29  2.3668e-30  1.0931e-29  4.1505e-30  1.0921e-29  7.3189e-30  1.0901e-29  1.294e-29  1.0863e-29  2.2882e-29  1.0787e-29  4.0244e-29  1.0667e-29  6.9292e-29  1.0619e-29  1.1492e-28  1.0664e-29  1.937e-28  1.0784e-29  3.3501e-28  1.1013e-29  5.8803e-28  1.142e-29  1.0393e-27  1.2142e-29  1.8426e-27  1.3485e-29  3.354e-27  1.591e-29  6.2477e-27
      2.30  1.095e-29  3.6407e-31  1.0949e-29  5.8233e-31  1.0948e-29  9.7043e-31  1.0947e-29  1.6605e-30  1.0944e-29  2.8872e-30  1.0938e-29  5.0677e-30  1.0929e-29  8.9413e-30  1.091e-29  1.5815e-29  1.0872e-29  2.7975e-29  1.0795e-29  4.9223e-29  1.0671e-29  8.4752e-29  1.0619e-29  1.4004e-28  1.0664e-29  2.3523e-28  1.0783e-29  4.0622e-28  1.1013e-29  7.1266e-28  1.1419e-29  1.2596e-27  1.2141e-29  2.2342e-27  1.3476e-29  4.069e-27  1.5901e-29  7.6913e-27
      2.35  1.0957e-29  4.3165e-31  1.0957e-29  6.9322e-31  1.0956e-29  1.1583e-30  1.0955e-29  1.9853e-30  1.0952e-29  3.4556e-30  1.0947e-29  6.0692e-30  1.0937e-29  1.0713e-29  1.0918e-29  1.8955e-29  1.0881e-29  3.3541e-29  1.0804e-29  5.9049e-29  1.0675e-29  1.0173e-28  1.0619e-29  1.6771e-28  1.0664e-29  2.8106e-28  1.0783e-29  4.8489e-28  1.1012e-29  8.5051e-28  1.1418e-29  1.5036e-27  1.214e-29  2.6686e-27  1.3466e-29  4.8514e-27  1.5891e-29  9.3233e-27
      2.40  1.0966e-29  5.0458e-31  1.0965e-29  8.1228e-31  1.0964e-29  1.3594e-30  1.0963e-29  2.3323e-30  1.096e-29  4.0621e-30  1.0955e-29  7.1372e-30  1.0946e-29  1.2602e-29  1.0927e-29  2.2303e-29  1.089e-29  3.948e-29  1.0812e-29  6.9549e-29  1.0679e-29  1.1996e-28  1.0619e-29  1.9751e-28  1.0664e-29  3.3052e-28  1.0783e-29  5.6996e-28  1.1012e-29  9.9977e-28  1.1418e-29  1.7682e-27  1.2139e-29  3.1403e-27  1.3454e-29  5.6854e-27  1.5882e-29  1.1123e-26
      2.45  1.0974e-29  5.8197e-31  1.0974e-29  9.3773e-31  1.0973e-29  1.5703e-30  1.0971e-29  2.6953e-30  1.0969e-29  4.6955e-30  1.0964e-29  8.2516e-30  1.0954e-29  1.4572e-29  1.0936e-29  2.5797e-29  1.0899e-29  4.5681e-29  1.0821e-29  8.0526e-29  1.0683e-29  1.3908e-28  1.0619e-29  2.2892e-28  1.0663e-29  3.828e-28  1.0782e-29  6.6004e-28  1.1011e-29  1.158e-27  1.1417e-29  2.049e-27  1.2138e-29  3.6421e-27  1.3441e-29  6.5585e-27  1.5873e-29  1.3058e-26
      2.50  1.0983e-29  6.6383e-31  1.0982e-29  1.0694e-30  1.0981e-29  1.7905e-30  1.098e-29  3.0729e-30  1.0977e-29  5.3532e-30  1.0972e-29  9.4078e-30  1.0963e-29  1.6616e-29  1.0945e-29  2.942e-29  1.0908e-29  5.2116e-29  1.083e-29  9.1932e-29  1.0688e-29  1.5904e-28  1.062e-29  2.6188e-28  1.0663e-29  4.3786e-28  1.0782e-29  7.5515e-28  1.1011e-29  1.3254e-27  1.1417e-29  2.3465e-27  1.2137e-29  4.1743e-27  1.3426e-29  7.4888e-27  1.5863e-29  1.5111e-26
      2.55  1.0991e-29  7.4993e-31  1.0991e-29  1.2063e-30  1.099e-29  2.0179e-30  1.0989e-29  3.4611e-30  1.0986e-29  6.0277e-30  1.0981e-29  1.0592e-29  1.0972e-29  1.8707e-29  1.0955e-29  3.3129e-29  1.0918e-29  5.8705e-29  1.0839e-29  1.0362e-28  1.0693e-29  1.7957e-28  1.062e-29  2.9599e-28  1.0663e-29  4.9506e-28  1.0781e-29  8.5419e-28  1.101e-29    1.5e-27  1.1416e-29  2.6569e-27  1.2137e-29  4.7306e-27  1.342e-29  8.4792e-27  1.5853e-29  1.7243e-26
      2.60    1.1e-29  8.397e-31    1.1e-29  1.3474e-30  1.0999e-29  2.2503e-30  1.0998e-29  3.8559e-30  1.0995e-29  6.7116e-30  1.0991e-29  1.179e-29  1.0982e-29  2.0823e-29  1.0964e-29  3.688e-29  1.0928e-29  6.5373e-29  1.0848e-29  1.1546e-28  1.0698e-29  2.0045e-28  1.062e-29  3.3087e-28  1.0664e-29  5.5375e-28  1.0781e-29  9.5603e-28  1.101e-29  1.6796e-27  1.1416e-29  2.9769e-27  1.2136e-29  5.3046e-27  1.3418e-29  9.5123e-27  1.5843e-29  1.9408e-26
      2.65  1.101e-29   9.33e-31  1.1009e-29  1.492e-30  1.1008e-29  2.4862e-30  1.1007e-29  4.2544e-30  1.1005e-29  7.3993e-30    1.1e-29  1.2993e-29  1.0991e-29  2.2944e-29  1.0974e-29  4.0639e-29  1.0938e-29  7.2058e-29  1.0858e-29  1.2747e-28  1.0704e-29  2.2148e-28  1.062e-29  3.6621e-28  1.0664e-29  6.1339e-28  1.0781e-29  1.0597e-27  1.1009e-29  1.8628e-27  1.1415e-29  3.3033e-27  1.2135e-29  5.8908e-27  1.3417e-29  1.0573e-26  1.5832e-29  2.1561e-26
      2.70  1.1019e-29  1.0298e-30  1.1019e-29  1.6398e-30  1.1018e-29  2.7245e-30  1.1016e-29  4.6539e-30  1.1014e-29  8.0857e-30  1.101e-29  1.4191e-29  1.1001e-29  2.5053e-29  1.0984e-29  4.4377e-29  1.0947e-29  7.8704e-29  1.0867e-29  1.3931e-28  1.0709e-29  2.4246e-28  1.0621e-29  4.0166e-28  1.0665e-29  6.7344e-28  1.0782e-29  1.1643e-27  1.1009e-29  2.0477e-27  1.1415e-29  3.633e-27  1.2135e-29  6.4834e-27  1.3415e-29  1.1647e-26  1.5821e-29  2.3659e-26
      2.75  1.1028e-29  1.1299e-30  1.1028e-29  1.7897e-30  1.1027e-29  2.9632e-30  1.1026e-29  5.0504e-30  1.1023e-29  8.7632e-30  1.1018e-29  1.5369e-29  1.1009e-29  2.7124e-29  1.0991e-29  4.804e-29  1.0953e-29  8.5209e-29  1.0869e-29  1.5085e-28  1.0708e-29  2.6259e-28  1.0621e-29  4.3596e-28  1.0666e-29  7.3291e-28  1.0784e-29  1.2688e-27  1.1009e-29  2.2329e-27  1.1414e-29  3.9637e-27  1.2134e-29  7.0783e-27  1.3414e-29  1.2728e-26  1.5809e-29  2.5666e-26
      2.80  1.1038e-29  1.2348e-30  1.1038e-29  1.9435e-30  1.1037e-29  3.2041e-30  1.1035e-29  5.4463e-30  1.1032e-29  9.4351e-30  1.1027e-29  1.6533e-29  1.1017e-29  2.9165e-29  1.0998e-29  5.1647e-29  1.0957e-29  9.1609e-29  1.087e-29  1.622e-28  1.0706e-29  2.8235e-28  1.0622e-29  4.6987e-28  1.0667e-29  7.9208e-28  1.0787e-29  1.373e-27  1.101e-29  2.4179e-27  1.1414e-29  4.2941e-27  1.2133e-29  7.6728e-27  1.3414e-29  1.381e-26  1.5796e-29  2.7554e-26
      2.85  1.1048e-29  1.3448e-30  1.1047e-29  2.1017e-30  1.1046e-29  3.4478e-30  1.1045e-29  5.8422e-30  1.1042e-29  1.0102e-29  1.1036e-29  1.7683e-29  1.1025e-29  3.1176e-29  1.1004e-29  5.5196e-29  1.0962e-29  9.7904e-29  1.087e-29  1.7336e-28  1.0704e-29  3.0179e-28  1.0623e-29  5.0345e-28  1.0669e-29  8.5096e-28  1.0791e-29  1.4769e-27  1.1017e-29  2.6022e-27  1.142e-29  4.6233e-27  1.2133e-29  8.2653e-27  1.3413e-29  1.4888e-26  1.5783e-29  2.9313e-26
      2.90  1.1058e-29  1.4611e-30  1.1057e-29  2.2653e-30  1.1056e-29  3.6956e-30  1.1054e-29  6.2398e-30  1.1051e-29  1.0766e-29  1.1045e-29  1.8822e-29  1.1034e-29  3.3164e-29  1.1011e-29  5.8698e-29  1.0966e-29  1.0411e-28  1.0872e-29  1.8436e-28  1.0703e-29   3.21e-28  1.0624e-29  5.3688e-28  1.0672e-29  9.0968e-28  1.0796e-29  1.5804e-27  1.1026e-29  2.7859e-27  1.1436e-29  4.9512e-27  1.2154e-29  8.8547e-27  1.3412e-29  1.596e-26  1.5769e-29  3.0949e-26
      2.95  1.1068e-29  1.585e-30  1.1067e-29  2.4359e-30  1.1066e-29  3.9493e-30  1.1064e-29  6.6414e-30  1.1061e-29  1.1431e-29  1.1054e-29  1.9956e-29  1.1042e-29  3.5134e-29  1.1018e-29  6.2161e-29  1.0971e-29  1.1024e-28  1.0874e-29  1.9523e-28  1.0704e-29  3.401e-28  1.0627e-29  5.7039e-28  1.0676e-29  9.6846e-28  1.0804e-29  1.6839e-27  1.1039e-29  2.9692e-27  1.1457e-29  5.2779e-27  1.2186e-29  9.4413e-27  1.3445e-29  1.7026e-26  1.5756e-29  3.2479e-26
      3.00  1.1078e-29  1.7179e-30  1.1078e-29  2.615e-30  1.1076e-29  4.2107e-30  1.1074e-29  7.0491e-30  1.1071e-29  1.2099e-29  1.1064e-29  2.1088e-29  1.1051e-29  3.7093e-29  1.1026e-29  6.5595e-29  1.0978e-29  1.1631e-28  1.0878e-29  2.0601e-28  1.0707e-29  3.5958e-28  1.063e-29  6.0421e-28  1.0682e-29  1.0276e-27  1.0813e-29  1.7876e-27  1.1056e-29  3.1525e-27  1.1485e-29  5.604e-27  1.2228e-29  1.0026e-26  1.3492e-29  1.8086e-26  1.5743e-29  3.3945e-26
      3.05  1.1089e-29  1.8623e-30  1.1088e-29  2.8048e-30  1.1087e-29  4.4811e-30  1.1085e-29  7.463e-30  1.1081e-29  1.2769e-29  1.1073e-29  2.2212e-29  1.106e-29  3.9025e-29  1.1035e-29  6.8972e-29  1.0985e-29  1.2227e-28  1.0885e-29  2.1661e-28  1.0714e-29  3.7867e-28  1.0635e-29  6.3819e-28  1.0689e-29  1.0867e-27  1.0825e-29  1.8907e-27  1.1077e-29  3.3341e-27  1.1521e-29  5.9263e-27  1.2283e-29  1.0603e-26  1.3557e-29  1.9131e-26  1.5735e-29  3.5434e-26
      3.10  1.1099e-29  2.0199e-30  1.1098e-29  3.0079e-30  1.1097e-29  4.765e-30  1.1095e-29  7.8907e-30  1.1091e-29  1.3452e-29  1.1083e-29  2.335e-29  1.107e-29  4.0973e-29  1.1044e-29  7.2361e-29  1.0994e-29  1.2823e-28  1.0896e-29  2.2723e-28  1.0725e-29  3.9806e-28  1.064e-29  6.7318e-28  1.0696e-29  1.1472e-27  1.084e-29  1.9957e-27  1.1103e-29  3.5181e-27  1.1564e-29  6.2519e-27  1.235e-29  1.1185e-26  1.3642e-29  2.0182e-26  1.5743e-29  3.7117e-26
      3.15  1.111e-29  2.1939e-30  1.1109e-29  3.2282e-30  1.1108e-29  5.0677e-30  1.1105e-29  8.3397e-30  1.1101e-29  1.4161e-29  1.1094e-29  2.4521e-29  1.108e-29  4.2965e-29  1.1054e-29  7.5814e-29  1.1005e-29  1.343e-28  1.0908e-29  2.3802e-28  1.074e-29  4.1796e-28  1.0648e-29  7.0975e-28  1.0705e-29  1.2102e-27  1.0855e-29  2.1045e-27  1.1131e-29  3.7076e-27  1.1613e-29  6.586e-27  1.2429e-29  1.1781e-26  1.3744e-29  2.1258e-26  1.5778e-29  3.8984e-26
      3.20  1.112e-29  2.3883e-30  1.1119e-29  3.4709e-30  1.1118e-29  5.3964e-30  1.1116e-29  8.8213e-30  1.1112e-29  1.4914e-29  1.1104e-29  2.5756e-29  1.109e-29  4.5055e-29  1.1065e-29  7.9423e-29  1.1017e-29  1.4061e-28  1.0924e-29  2.4924e-28  1.076e-29  4.3874e-28  1.0656e-29  7.4872e-28  1.0713e-29  1.2775e-27  1.087e-29   2.22e-27  1.1159e-29  3.9081e-27  1.1664e-29  6.938e-27  1.2515e-29  1.2407e-26  1.3862e-29  2.2389e-26  1.584e-29  4.1009e-26
      3.25  1.1131e-29  2.6082e-30  1.113e-29  3.7432e-30  1.1129e-29  5.7619e-30  1.1126e-29  9.3523e-30  1.1122e-29  1.5739e-29  1.1115e-29  2.7103e-29  1.1101e-29  4.7327e-29  1.1076e-29  8.3335e-29  1.103e-29  1.4744e-28  1.0941e-29  2.6133e-28  1.0783e-29  4.6102e-28  1.0666e-29  7.9202e-28  1.072e-29  1.3515e-27  1.0883e-29  2.3471e-27  1.1184e-29  4.128e-27  1.1712e-29  7.3225e-27  1.2602e-29  1.3089e-26  1.399e-29  2.3622e-26  1.5927e-29  4.3245e-26
      3.30  1.1141e-29  2.864e-30  1.114e-29  4.0584e-30  1.1139e-29  6.1827e-30  1.1137e-29  9.9607e-30  1.1133e-29  1.6681e-29  1.1125e-29  2.8635e-29  1.1112e-29  4.9908e-29  1.1088e-29  8.777e-29  1.1043e-29  1.5516e-28  1.0959e-29  2.7496e-28  1.0809e-29  4.8587e-28  1.0677e-29  8.3991e-28  1.0726e-29  1.4355e-27  1.0892e-29  2.4924e-27  1.1204e-29  4.3795e-27  1.1753e-29  7.7612e-27  1.2683e-29  1.3865e-26  1.4121e-29  2.5027e-26  1.6031e-29  4.5813e-26
      3.35  1.1151e-29  3.1617e-30  1.1151e-29  4.4264e-30  1.1149e-29  6.6757e-30  1.1147e-29  1.0676e-29  1.1143e-29  1.779e-29  1.1136e-29  3.0445e-29  1.1123e-29  5.296e-29  1.1099e-29  9.3022e-29  1.1056e-29  1.6431e-28  1.0977e-29  2.9105e-28  1.0835e-29  5.1487e-28  1.069e-29  8.9539e-28  1.073e-29  1.5341e-27  1.0897e-29  2.6641e-27  1.1217e-29  4.6783e-27  1.1784e-29  8.2821e-27  1.2751e-29  1.4784e-26  1.4248e-29  2.6692e-26  1.6146e-29  4.8874e-26
      3.40  1.1161e-29  3.5114e-30  1.116e-29  4.8619e-30  1.1159e-29  7.2637e-30  1.1157e-29  1.1535e-29  1.1153e-29  1.9131e-29  1.1146e-29  3.2641e-29  1.1133e-29  5.6673e-29  1.1111e-29  9.9425e-29  1.107e-29  1.7548e-28  1.0994e-29  3.1068e-28  1.0861e-29  5.4993e-28  1.0706e-29  9.6136e-28  1.0732e-29  1.6525e-27  1.0899e-29  2.8722e-27  1.1223e-29  5.0429e-27  1.1802e-29  8.9193e-27  1.2803e-29  1.5905e-26  1.4364e-29  2.8722e-26  1.6264e-29  5.2622e-26
      3.45  1.1171e-29  3.9252e-30  1.117e-29  5.3824e-30  1.1169e-29  7.9737e-30  1.1166e-29  1.2582e-29  1.1163e-29  2.0777e-29  1.1156e-29  3.5352e-29  1.1144e-29  6.1274e-29  1.1122e-29  1.0738e-28  1.1083e-29  1.8938e-28  1.1012e-29  3.3513e-28  1.0886e-29  5.9334e-28  1.0725e-29  1.0415e-27  1.0734e-29  1.7972e-27  1.0898e-29  3.128e-27  1.1222e-29  5.4942e-27  1.181e-29  9.7111e-27  1.2837e-29  1.7295e-26  1.4465e-29  3.1234e-26  1.638e-29  5.7274e-26
      3.50  1.1179e-29  4.4148e-30  1.1179e-29  6.0043e-30  1.1178e-29  8.8307e-30  1.1176e-29  1.3857e-29  1.1172e-29  2.2795e-29  1.1165e-29  3.8691e-29  1.1154e-29  6.6958e-29  1.1133e-29  1.1723e-28  1.1095e-29  2.0661e-28  1.1028e-29  3.6547e-28  1.0909e-29  6.471e-28  1.0746e-29  1.1393e-27  1.0735e-29  1.9739e-27  1.0895e-29  3.4413e-27  1.1218e-29  6.049e-27  1.1808e-29  1.0688e-26  1.2853e-29  1.9006e-26  1.4547e-29  3.4311e-26  1.649e-29  6.2988e-26
      3.55  1.1188e-29  5.0053e-30  1.1187e-29  6.7596e-30  1.1186e-29  9.8792e-30  1.1184e-29  1.5427e-29  1.1181e-29  2.5292e-29  1.1174e-29  4.2834e-29  1.1163e-29  7.4029e-29  1.1143e-29  1.295e-28  1.1107e-29  2.2811e-28  1.1044e-29  4.0335e-28  1.0932e-29  7.1415e-28  1.0769e-29  1.2599e-27  1.0737e-29  2.1916e-27  1.0891e-29  3.8273e-27  1.1211e-29  6.7332e-27  1.1801e-29  1.1895e-26  1.2857e-29  2.1114e-26  1.4612e-29  3.8072e-26  1.6592e-29  6.9992e-26
      3.60  1.1196e-29  5.712e-30  1.1195e-29  7.6751e-30  1.1194e-29  1.1166e-29  1.1192e-29  1.7373e-29  1.1189e-29  2.8412e-29  1.1183e-29  4.804e-29  1.1172e-29  8.2943e-29  1.1153e-29   1.45e-28  1.1119e-29  2.5531e-28  1.1059e-29  4.5132e-28  1.0954e-29  7.9904e-28  1.0794e-29  1.4116e-27  1.0742e-29  2.4668e-27  1.0889e-29  4.311e-27  1.1207e-29  7.5885e-27  1.1796e-29  1.3399e-26  1.2861e-29  2.3726e-26  1.467e-29  4.2666e-26  1.6685e-29  7.8594e-26
      3.65  1.1203e-29  6.5653e-30  1.1203e-29  8.7945e-30  1.1202e-29  1.2759e-29   1.12e-29  1.9808e-29  1.1197e-29  3.2342e-29  1.1191e-29  5.4631e-29  1.1181e-29  9.4262e-29  1.1163e-29  1.6472e-28  1.1131e-29  2.8996e-28  1.1075e-29  5.1247e-28  1.0976e-29  9.0723e-28  1.0822e-29  1.604e-27  1.0752e-29  2.8116e-27  1.0895e-29  4.9199e-27  1.1215e-29  8.6584e-27  1.181e-29  1.526e-26  1.2891e-29   2.69e-26  1.4754e-29   4.81e-26  1.6776e-29  8.8908e-26
      3.70  1.1214e-29  7.6653e-30  1.1214e-29  1.0243e-29  1.1213e-29  1.4827e-29  1.1211e-29  2.2978e-29  1.1208e-29  3.7472e-29  1.1203e-29  6.3245e-29  1.1193e-29  1.0907e-28  1.1177e-29  1.9053e-28  1.1147e-29  3.3531e-28  1.1095e-29  5.9248e-28  1.1003e-29  1.0487e-27  1.0857e-29  1.8545e-27  1.0774e-29  3.2571e-27  1.092e-29  5.7017e-27  1.1255e-29  1.0014e-26  1.1878e-29  1.7559e-26  1.3005e-29  3.0654e-26  1.4934e-29  5.4206e-26  1.6872e-29  1.0089e-25
      3.75  1.1226e-29  9.728e-30  1.1225e-29  1.2792e-29  1.1224e-29  1.824e-29  1.1223e-29  2.7928e-29  1.122e-29  4.5154e-29  1.1216e-29  7.5783e-29  1.1207e-29  1.3024e-28  1.1193e-29  2.2702e-28  1.1166e-29   3.99e-28  1.112e-29  7.0433e-28  1.1038e-29  1.2456e-27  1.0905e-29  2.2011e-27  1.082e-29  3.8668e-27  1.0984e-29  6.7574e-27  1.1363e-29  1.1799e-26  1.2055e-29  2.0442e-26  1.3281e-29  3.4971e-26  1.5261e-29  6.073e-26  1.6969e-29  1.1526e-25
      3.80  1.1635e-29  1.8688e-29  1.1634e-29  2.2458e-29  1.1633e-29  2.9162e-29  1.1631e-29  4.1083e-29  1.1628e-29  6.228e-29  1.1621e-29  9.9963e-29  1.1611e-29  1.6694e-28  1.1591e-29  2.8595e-28  1.1557e-29  4.9727e-28  1.1497e-29   8.72e-28  1.1396e-29  1.5349e-27  1.1242e-29  2.7014e-27  1.1108e-29  4.7301e-27  1.1209e-29  8.2354e-27  1.1622e-29  1.4195e-26  1.2415e-29  2.3998e-26  1.3766e-29  3.9555e-26  1.5605e-29  6.7966e-26  1.7028e-29  1.3555e-25
      3.85  1.1654e-29  7.5743e-29  1.1654e-29  8.0561e-29  1.1653e-29  8.9127e-29  1.1652e-29  1.0436e-28  1.1649e-29  1.3144e-28  1.1645e-29  1.7957e-28  1.1637e-29  2.651e-28  1.1623e-29  4.1696e-28  1.1599e-29  6.8632e-28  1.1556e-29  1.163e-27  1.1484e-29  2.0034e-27  1.1376e-29  3.4734e-27  1.1298e-29  6.0039e-27  1.1467e-29  1.0285e-26  1.1994e-29  1.7268e-26  1.2924e-29  2.7956e-26  1.4335e-29  4.3811e-26  1.5766e-29  7.829e-26  1.6966e-29  1.6879e-25
      3.90  1.1672e-29  4.1274e-28  1.1672e-29  4.1909e-28  1.1672e-29  4.3039e-28  1.1671e-29  4.5047e-28  1.167e-29  4.8616e-28  1.1669e-29  5.4958e-28  1.1666e-29  6.6219e-28  1.166e-29  8.6193e-28  1.1651e-29  1.2155e-27  1.1635e-29  1.8391e-27  1.1608e-29  2.9315e-27  1.1576e-29  4.8215e-27  1.1596e-29  8.0137e-27  1.1859e-29  1.3225e-26  1.2498e-29  2.1187e-26  1.3485e-29  3.2229e-26  1.4743e-29  4.9175e-26  1.5749e-29  9.6851e-26  1.6714e-29  2.2648e-25
      3.95  1.1683e-29  2.1933e-27  1.1684e-29  2.2021e-27  1.1684e-29  2.2176e-27  1.1685e-29  2.2452e-27  1.1687e-29  2.2943e-27  1.1689e-29  2.3815e-27  1.1694e-29  2.5361e-27  1.1703e-29  2.8099e-27  1.1719e-29  3.2931e-27  1.1746e-29  4.1406e-27  1.1795e-29  5.6108e-27  1.1885e-29  8.1044e-27  1.2067e-29  1.2209e-26  1.2458e-29  1.8547e-26  1.3146e-29  2.7419e-26  1.4028e-29  3.8825e-26  1.4972e-29  6.119e-26  1.5723e-29  1.3151e-25  1.6498e-29  3.2472e-25
