# This was generated using Cloudy10 and the columns are ordered 
# as log10 of the fraction of the metallicity to the solar metallicity
# 'h_*_Z' and 'c_*_Z' stands for cooling and heating respectively 
# at * metalicity
#
# Redshift = 1.5
# hden = 2.0
#     temp   h_-3.00_Z   c_-3.00_Z   h_-2.75_Z   c_-2.75_Z   h_-2.50_Z   c_-2.50_Z   h_-2.25_Z   c_-2.25_Z   h_-2.00_Z   c_-2.00_Z   h_-1.75_Z   c_-1.75_Z   h_-1.50_Z   c_-1.50_Z   h_-1.25_Z   c_-1.25_Z   h_-1.00_Z   c_-1.00_Z   h_-0.75_Z   c_-0.75_Z   h_-0.50_Z   c_-0.50_Z   h_-0.25_Z   c_-0.25_Z    h_0.00_Z    c_0.00_Z    h_0.25_Z    c_0.25_Z    h_0.50_Z    c_0.50_Z    h_0.75_Z    c_0.75_Z    h_1.00_Z    c_1.00_Z    h_1.25_Z    c_1.25_Z    h_1.50_Z    c_1.50_Z 
      4.00  8.5058e-26  6.4049e-25  8.5059e-26  6.4166e-25  8.506e-26  6.4372e-25  8.5062e-26  6.4739e-25  8.5066e-26  6.5393e-25  8.5072e-26  6.6554e-25  8.5083e-26  6.8619e-25  8.5101e-26  7.2291e-25  8.5135e-26  7.8822e-25  8.5193e-26  9.0437e-25  8.5297e-26  1.1109e-24  8.5482e-26  1.4785e-24  8.581e-26  2.1325e-24  8.6394e-26  3.2969e-24  8.7433e-26  5.3708e-24  8.9281e-26  9.063e-24  9.2571e-26  1.5625e-23  9.8417e-26  2.7247e-23  1.0878e-25  4.7781e-23
      4.05  8.4334e-26  2.3731e-24  8.4335e-26  2.3747e-24  8.4336e-26  2.3775e-24  8.4338e-26  2.3825e-24  8.4342e-26  2.3915e-24  8.4348e-26  2.4073e-24  8.436e-26  2.4356e-24  8.438e-26  2.4857e-24  8.4415e-26  2.575e-24  8.4477e-26  2.7336e-24  8.4588e-26  3.0155e-24  8.4785e-26  3.5169e-24  8.5135e-26  4.4084e-24  8.5757e-26  5.9938e-24  8.6863e-26  8.8116e-24  8.883e-26  1.3811e-23  9.2329e-26  2.2644e-23  9.8526e-26  3.8138e-23  1.0948e-25  6.5078e-23
      4.10  8.2078e-26  8.2123e-24  8.2078e-26  8.2147e-24  8.208e-26  8.2188e-24  8.2082e-26  8.2262e-24  8.2086e-26  8.2394e-24  8.2092e-26  8.2626e-24  8.2104e-26  8.3044e-24  8.2125e-26  8.3784e-24  8.2162e-26  8.5099e-24  8.2228e-26  8.7433e-24  8.2345e-26  9.1581e-24  8.2553e-26  9.8953e-24  8.2922e-26  1.1205e-23  8.358e-26  1.3532e-23  8.4748e-26  1.7659e-23  8.6827e-26  2.4958e-23  9.0519e-26  3.779e-23  9.7042e-26  6.0159e-23  1.0855e-25  9.8378e-23
      4.15  7.313e-26  2.9264e-23  7.3131e-26  2.9268e-23  7.3132e-26  2.9276e-23  7.3134e-26  2.929e-23  7.3138e-26  2.9314e-23  7.3145e-26  2.9357e-23  7.3158e-26  2.9434e-23  7.318e-26  2.9571e-23  7.3219e-26  2.9815e-23  7.3289e-26  3.0247e-23  7.3413e-26  3.1016e-23  7.3634e-26  3.2383e-23  7.4027e-26  3.4811e-23  7.4726e-26  3.9123e-23  7.597e-26  4.6771e-23  7.818e-26  6.0301e-23  8.2108e-26  8.4119e-23  8.9066e-26  1.2568e-22  1.0131e-25  1.9722e-22
      4.20  5.0018e-26  8.6149e-23  5.0018e-26  8.6158e-23  5.0019e-26  8.6176e-23  5.0021e-26  8.6206e-23  5.0025e-26  8.626e-23  5.0031e-26  8.6357e-23  5.0043e-26  8.6528e-23  5.0063e-26  8.6832e-23  5.0099e-26  8.7374e-23  5.0164e-26  8.8337e-23  5.0278e-26  9.005e-23  5.0481e-26  9.3096e-23  5.0842e-26  9.8513e-23  5.1484e-26  1.0815e-22  5.2626e-26  1.2529e-22  5.4656e-26  1.5579e-22  5.8272e-26  2.1007e-22  6.4717e-26  3.0668e-22  7.6195e-26  4.7866e-22
      4.25  2.6645e-26  1.2882e-22  2.6645e-26  1.2883e-22  2.6645e-26  1.2886e-22  2.6646e-26  1.2891e-22  2.6647e-26  1.2899e-22  2.665e-26  1.2915e-22  2.6654e-26  1.2942e-22  2.6662e-26  1.299e-22  2.6675e-26  1.3076e-22  2.6699e-26  1.323e-22  2.6741e-26  1.3502e-22  2.6816e-26  1.3987e-22  2.6949e-26  1.4849e-22  2.7187e-26  1.6385e-22  2.761e-26  1.912e-22  2.8366e-26    2.4e-22  2.9718e-26  3.2728e-22  3.2148e-26  4.8415e-22  3.6563e-26  7.6817e-22
      4.30  1.4874e-26  1.2037e-22  1.4874e-26  1.2039e-22  1.4873e-26  1.2042e-22  1.4871e-26  1.2048e-22  1.4869e-26  1.2059e-22  1.4864e-26  1.2077e-22  1.4856e-26  1.2111e-22  1.4841e-26  1.2169e-22  1.4814e-26  1.2274e-22  1.4767e-26  1.246e-22  1.4766e-26  1.2791e-22  1.4813e-26  1.3381e-22  1.4897e-26  1.4429e-22  1.5046e-26  1.6296e-22  1.5313e-26  1.9622e-22  1.5792e-26  2.5561e-22  1.6654e-26  3.6193e-22  1.8211e-26  5.5329e-22  2.1035e-26  9.0085e-22
      4.35  1.0174e-26  9.5651e-23  1.0173e-26  9.5673e-23  1.0171e-26  9.5713e-23  1.0167e-26  9.5783e-23  1.0159e-26  9.5909e-23  1.0146e-26  9.6132e-23  1.0123e-26  9.6529e-23  1.0081e-26  9.7235e-23  1.0043e-26  9.8489e-23  1.0055e-26  1.0072e-22  1.0075e-26  1.0469e-22  1.0112e-26  1.1175e-22  1.0177e-26  1.2432e-22  1.0295e-26  1.467e-22  1.0509e-26  1.8658e-22  1.0903e-26  2.5779e-22  1.1631e-26  3.8531e-22  1.2987e-26  6.1493e-22  1.5431e-26  1.0323e-21
      4.40  7.6971e-27  7.4537e-23  7.695e-27  7.4564e-23  7.6912e-27  7.4614e-23  7.6845e-27  7.4701e-23  7.6725e-27  7.4857e-23  7.6512e-27  7.5134e-23  7.6134e-27  7.5627e-23  7.5462e-27  7.6504e-23  7.5118e-27  7.8063e-23  7.522e-27  8.0836e-23  7.5401e-27  8.5769e-23  7.5729e-27  9.4543e-23  7.6327e-27  1.1016e-22  7.7431e-27  1.3796e-22  7.9511e-27  1.875e-22  8.3507e-27  2.7596e-22  9.1264e-27  4.3434e-22  1.0438e-26  7.1953e-22  1.2639e-26  1.2379e-21
      4.45  5.1405e-27  5.9986e-23  5.1376e-27  6.0022e-23  5.1326e-27  6.0085e-23  5.1237e-27  6.0197e-23  5.1078e-27  6.0396e-23  5.0795e-27  6.0749e-23  5.0292e-27  6.1379e-23  4.9397e-27  6.2498e-23  4.8923e-27  6.4488e-23  4.9026e-27  6.8028e-23  4.9213e-27  7.4323e-23  4.956e-27  8.5523e-23  5.0216e-27  1.0545e-22  5.1495e-27  1.4093e-22  5.4061e-27  2.0414e-22  5.894e-27  3.1696e-22  6.7086e-27  5.189e-22  8.0716e-27  8.8223e-22  1.0413e-26  1.5418e-21
      4.50  2.7334e-27  4.8919e-23  2.7301e-27  4.8965e-23  2.7241e-27  4.9046e-23  2.7134e-27  4.919e-23  2.6944e-27  4.9447e-23  2.6606e-27  4.9903e-23  2.6006e-27  5.0715e-23  2.4939e-27  5.2159e-23  2.4962e-27  5.4726e-23  2.5073e-27  5.9291e-23  2.5286e-27  6.7411e-23  2.5709e-27  8.1855e-23  2.6585e-27  1.0756e-22  2.8459e-27  1.533e-22  3.1863e-27  2.3482e-22  3.743e-27  3.8031e-22  4.7012e-27  6.4069e-22  6.2047e-27  1.109e-21  8.6188e-27  1.959e-21
      4.55  1.3618e-27  3.9503e-23  1.3581e-27  3.9562e-23  1.3516e-27  3.9667e-23  1.3401e-27  3.9853e-23  1.3196e-27  4.0183e-23  1.2831e-27  4.0771e-23  1.2183e-27  4.1816e-23  1.1777e-27  4.3675e-23  1.1835e-27  4.6981e-23  1.1949e-27  5.286e-23  1.2181e-27  6.3316e-23  1.2676e-27  8.1918e-23  1.3783e-27  1.1502e-22  1.5738e-27  1.7395e-22  1.9071e-27  2.7897e-22  2.4895e-27  4.6647e-22  3.3923e-27  8.0218e-22  4.9067e-27  1.4065e-21  7.4858e-27  2.5047e-21
      4.60  7.6623e-28  3.2021e-23  7.627e-28  3.2096e-23  7.5642e-28  3.223e-23  7.4525e-28  3.2469e-23  7.2539e-28  3.2893e-23  6.901e-28  3.3646e-23  6.3373e-28  3.4986e-23  6.3663e-28  3.7369e-23  6.4226e-28  4.1608e-23  6.5365e-28  4.9146e-23  6.781e-28  6.2554e-23  7.3368e-28  8.6405e-23  8.3549e-28  1.2885e-22  1.0235e-27  2.0444e-22  1.343e-27  3.3918e-22  1.8924e-27  5.798e-22  2.7975e-27  1.011e-21  4.2931e-27  1.788e-21  6.872e-27  3.2028e-21
      4.65  5.1744e-28  2.7151e-23  5.1438e-28  2.7248e-23  5.0895e-28  2.7419e-23  4.9928e-28  2.7723e-23  4.821e-28  2.8264e-23  4.5156e-28  2.9226e-23  4.2301e-28  3.0936e-23  4.2577e-28  3.3979e-23  4.3124e-28  3.9389e-23  4.4272e-28  4.9012e-23  4.6841e-28  6.6128e-23  5.2105e-28  9.6579e-23  6.2065e-28  1.5077e-22  7.9777e-28  2.4729e-22  1.1337e-27  4.1938e-22  1.6917e-27  7.2684e-22  2.6031e-27  1.2782e-21  4.1388e-27  2.273e-21  6.8082e-27  4.0882e-21
      4.70  4.0702e-28  2.5873e-23  4.0462e-28  2.5995e-23  4.0035e-28  2.6213e-23  3.9278e-28   2.66e-23  3.793e-28  2.7289e-23  3.5537e-28  2.8514e-23  3.3781e-28  3.0691e-23  3.4056e-28  3.4564e-23  3.461e-28  4.1452e-23   3.58e-28  5.3703e-23  3.8541e-28  7.5493e-23  4.3894e-28  1.1426e-22  5.4563e-28  1.8327e-22  7.4292e-28  3.0619e-22  1.0752e-27  5.2542e-22  1.6245e-27  9.173e-22  2.5692e-27  1.6206e-21  4.1823e-27  2.8918e-21  6.9996e-27  5.2172e-21
      4.75  3.5038e-28  3.0466e-23  3.4866e-28  3.0621e-23  3.4561e-28  3.0896e-23  3.4018e-28  3.1386e-23  3.3052e-28  3.2257e-23  3.1339e-28  3.3806e-23  2.9892e-28  3.6561e-23  3.0198e-28  4.1459e-23  3.0827e-28  5.0172e-23  3.2213e-28  6.5667e-23  3.5457e-28  9.3231e-23  4.1624e-28  1.4228e-22  5.2797e-28  2.2958e-22  7.2474e-28  3.8513e-22  1.0689e-27  6.6266e-22  1.6578e-27  1.1591e-21  2.6622e-27  2.051e-21  4.3887e-27  3.6662e-21  7.4407e-27  6.6304e-21
      4.80  3.0603e-28  4.4022e-23  3.0494e-28  4.4216e-23   3.03e-28  4.456e-23  2.9956e-28  4.5172e-23  2.9346e-28  4.6261e-23  2.8264e-28  4.8197e-23  2.6925e-28  5.1639e-23  2.7313e-28  5.7762e-23  2.8135e-28  6.865e-23  3.0011e-28  8.8017e-23  3.3948e-28  1.2247e-22  4.055e-28  1.8378e-22  5.2723e-28  2.9292e-22  7.4651e-28  4.8743e-22  1.1248e-27  8.346e-22  1.7766e-27  1.456e-21  2.9162e-27  2.5739e-21  4.8961e-27  4.6021e-21  8.4342e-27  8.3361e-21
      4.85  2.4561e-28  6.523e-23  2.4511e-28  6.5468e-23  2.4421e-28  6.589e-23  2.4264e-28  6.6642e-23  2.3986e-28  6.7978e-23  2.3499e-28  7.0355e-23  2.2657e-28  7.4581e-23  2.2877e-28  8.2096e-23  2.4066e-28  9.5463e-23  2.6566e-28  1.1924e-22  3.1142e-28  1.6153e-22  3.9232e-28  2.368e-22  5.3895e-28  3.7083e-22  7.9566e-28  6.0971e-22  1.2416e-27  1.0363e-21  2.0146e-27  1.8003e-21  3.3531e-27  3.1762e-21  5.6533e-27  5.6772e-21  9.7496e-27  1.0295e-20
      4.90  1.6651e-28  8.0943e-23  1.6657e-28  8.1226e-23  1.6667e-28  8.173e-23  1.6688e-28  8.2625e-23  1.673e-28  8.4216e-23  1.682e-28  8.7047e-23  1.7028e-28  9.2081e-23  1.755e-28  1.0103e-22  1.8831e-28  1.1695e-22  2.1848e-28  1.4527e-22  2.7833e-28  1.9566e-22  3.8576e-28  2.8532e-22  5.7934e-28  4.4498e-22  9.0915e-28  7.2959e-22  1.4635e-27  1.2379e-21  2.3974e-27  2.1486e-21  3.9838e-27  3.7897e-21  6.6502e-27  6.776e-21  1.1387e-26  1.2301e-20
      4.95  9.7972e-29  7.9738e-23  9.8435e-29  8.0063e-23  9.9271e-29  8.064e-23  1.008e-28  8.1667e-23  1.0362e-28  8.3492e-23  1.0899e-28  8.6739e-23  1.1967e-28  9.2513e-23  1.4195e-28  1.0278e-22  1.8592e-28  1.2104e-22  2.6545e-28  1.5353e-22  4.0646e-28  2.1132e-22  6.561e-28  3.1417e-22  1.0822e-27  4.9731e-22  1.8024e-27  8.238e-22  3.0139e-27  1.4069e-21  5.0545e-27  2.4519e-21  8.5067e-27  4.3355e-21  1.4505e-26  7.7652e-21  2.5212e-26  1.4117e-20
      5.00  5.661e-29  6.7691e-23  5.7257e-29  6.8048e-23  5.8436e-29  6.8684e-23  6.0628e-29  6.9815e-23  6.4816e-29  7.1826e-23  7.3178e-29  7.5402e-23  9.0712e-29  8.1761e-23  1.2763e-28  9.307e-23  1.9881e-28  1.1318e-22  3.2883e-28  1.4896e-22  5.4533e-28  2.1262e-22  9.1144e-28  3.259e-22  1.5206e-27  5.2766e-22  2.516e-27  8.8738e-22  4.1359e-27  1.5301e-21  6.8113e-27  2.6824e-21  1.1306e-26  4.7615e-21  1.9115e-26  8.5532e-21  3.2907e-26  1.5595e-20
      5.05  3.566e-29  5.4122e-23  3.6376e-29  5.4489e-23  3.7736e-29  5.5142e-23  4.0424e-29  5.6304e-23  4.6053e-29  5.8369e-23  5.8247e-29  6.2042e-23  8.284e-29  6.8573e-23  1.3914e-28  8.0189e-23  2.5212e-28  1.0085e-22  4.2514e-28  1.376e-22  7.0865e-28  2.0298e-22  1.1638e-27  3.1936e-22  1.8821e-27  5.2664e-22  2.9834e-27  8.9632e-22  4.7066e-27  1.5571e-21  7.4863e-27  2.7428e-21  1.2178e-26  4.8851e-21  2.0312e-26  8.8015e-21  3.4261e-26  1.6104e-20
      5.10  2.5331e-29  4.271e-23  2.6276e-29  4.3067e-23  2.7943e-29  4.3703e-23  3.1703e-29  4.4832e-23  4.0639e-29  4.6842e-23  5.7285e-29  5.0415e-23  9.565e-29  5.6768e-23  1.8766e-28  6.8068e-23  3.3374e-28  8.8165e-23  5.5997e-28  1.2392e-22  9.0403e-28  1.8753e-22  1.4182e-27  3.0076e-22  2.1718e-27  5.0248e-22  3.2698e-27  8.6233e-22  4.9435e-27  1.5058e-21  7.4999e-27  2.6616e-21  1.1683e-26  4.7528e-21  1.9032e-26  8.5855e-21  3.2077e-26  1.5761e-20
      5.15  2.0452e-29  3.3958e-23  2.1736e-29  3.4656e-23  2.3731e-29  3.4945e-23  3.0208e-29  3.6067e-23  4.2729e-29  3.8063e-23  6.916e-29  4.1612e-23  1.3346e-28  4.7924e-23  2.5542e-28  5.9149e-23  4.4251e-28  7.9115e-23  7.1818e-28  1.1463e-22  1.1025e-27  1.7783e-22  1.6408e-27  2.9034e-22  2.3935e-27  4.9079e-22  3.4611e-27  8.4847e-22  4.7724e-27  1.4884e-21  6.977e-27  2.6384e-21  1.0798e-26  4.722e-21  1.7576e-26  8.5485e-21  2.9722e-26  1.5737e-20
      5.20  1.7951e-29  2.7417e-23  1.927e-29  2.7783e-23  2.3348e-29  2.8434e-23  3.374e-29  2.9591e-23  5.1978e-29  3.1648e-23  9.6022e-29  3.5306e-23  2.004e-28  4.1812e-23  3.4229e-28  5.3383e-23  5.5731e-28  7.3964e-23  8.7246e-28  1.1058e-22  1.2887e-27  1.7572e-22  1.8382e-27  2.9171e-22  2.5549e-27  4.9839e-22  3.2701e-27  8.6725e-22  4.4593e-27  1.5274e-21  6.5282e-27  2.7145e-21  1.0194e-26  4.8675e-21  1.6763e-26  8.8287e-21  2.867e-26  1.6292e-20
      5.25  1.6666e-29  2.2516e-23  1.8921e-29  2.2893e-23  2.5597e-29  2.3563e-23  4.1591e-29  2.4755e-23  7.5823e-29  2.6875e-23  1.3699e-28  3.0644e-23  2.5731e-28  3.7347e-23  4.2168e-28  4.9269e-23  6.5164e-28  7.0474e-23  9.8159e-28  1.082e-22  1.4192e-27  1.7533e-22  1.982e-27  2.9485e-22  2.4314e-27  5.0785e-22  3.1655e-27  8.8808e-22  4.4271e-27  1.5688e-21  6.6309e-27  2.7938e-21  1.0522e-26  5.0178e-21  1.7517e-26  9.1172e-21  3.0358e-26  1.6864e-20
      5.30  1.6613e-29  1.8806e-23  2.0888e-29  1.9381e-23  3.2232e-29  1.987e-23  6.2568e-29  2.1082e-23  1.0039e-28  2.3236e-23  1.7068e-28  2.7068e-23  2.9825e-28  3.3882e-23  4.6857e-28  4.6002e-23  7.166e-28  6.7559e-23  1.039e-27  1.0591e-22  1.5143e-27  1.7416e-22  1.9091e-27  2.9568e-22  2.401e-27  5.1228e-22  3.1301e-27  8.9901e-22  4.3315e-27  1.5917e-21  6.4271e-27  2.839e-21  1.0013e-26  5.1062e-21  1.6519e-26  9.2939e-21  2.8539e-26  1.7233e-20
      5.35  1.7743e-29  1.6135e-23  2.4615e-29  1.6366e-23  4.545e-29  1.7059e-23  7.7533e-29  1.8293e-23  1.192e-28  2.0486e-23  1.9201e-28  2.4386e-23  3.1869e-28  3.1323e-23  4.9394e-28  4.366e-23  7.3776e-28  6.5604e-23  1.1159e-27  1.0464e-22  1.5519e-27  1.7412e-22  1.8422e-27  2.9784e-22  2.2833e-27  5.1839e-22  2.9796e-27  9.1226e-22  4.1398e-27  1.618e-21  6.057e-27  2.8897e-21  9.4952e-27  5.2042e-21  1.5722e-26  9.4878e-21  2.7282e-26  1.7636e-20
      5.40  1.8149e-29  1.3765e-23  2.8217e-29  1.4145e-23  5.2221e-29  1.4821e-23  8.038e-29  1.6022e-23  1.2479e-28  1.8159e-23  1.9277e-28  2.1959e-23  3.1086e-28  2.8717e-23  5.0944e-28  4.0736e-23  7.7296e-28  6.2115e-23  1.2097e-27  1.0015e-22  1.4881e-27  1.6784e-22  1.7868e-27  2.884e-22  2.255e-27  5.0333e-22  2.9899e-27  8.8728e-22  4.2133e-27  1.5755e-21  6.2172e-27  2.8169e-21  9.7148e-27  5.0793e-21  1.609e-26  9.2764e-21  2.7939e-26  1.729e-20
      5.45  1.655e-29  1.197e-23  2.4157e-29  1.2289e-23  4.5611e-29  1.2855e-23  6.9221e-29  1.3862e-23  1.0682e-28  1.5654e-23  1.7452e-28  1.8839e-23  2.8418e-28  2.4505e-23  4.6603e-28  3.4581e-23  7.8923e-28  5.2503e-23  1.2675e-27  8.4388e-23  1.5007e-27  1.4114e-22  1.8502e-27  2.4223e-22  2.3773e-27  4.2248e-22  3.1042e-27  7.4461e-22  4.2795e-27  1.3224e-21  6.2384e-27  2.3657e-21  9.6543e-27  4.2709e-21  1.5844e-26  7.8167e-21  2.7428e-26  1.4621e-20
      5.50  1.3656e-29  1.0474e-23  1.6776e-29  1.0704e-23  2.5608e-29  1.1112e-23  4.9858e-29  1.1839e-23  8.4085e-29  1.313e-23  1.4357e-28  1.5427e-23  2.5103e-28  1.9512e-23  4.4075e-28  2.6776e-23  7.607e-28  3.9698e-23  1.2146e-27  6.2687e-23  1.5736e-27  1.0361e-22  1.9757e-27  1.7651e-22  2.4199e-27  3.0652e-22  3.0784e-27  5.3896e-22  4.0417e-27  9.5616e-22  5.6567e-27  1.7103e-21  8.4935e-27  3.0901e-21  1.3623e-26  5.6662e-21  2.3188e-26  1.0634e-20
      5.55  1.2292e-29  9.3081e-24  1.379e-29  9.4808e-24  1.8041e-29  9.7879e-24  3.0056e-29  1.0334e-23  6.1239e-29  1.1305e-23  1.2544e-28  1.3032e-23  2.4147e-28  1.6104e-23  4.4861e-28  2.1566e-23  7.9287e-28  3.1283e-23  1.2106e-27  4.8571e-23  1.6047e-27  7.9346e-23  1.9723e-27  1.3417e-22  2.3549e-27  2.3198e-22  2.8409e-27  4.0686e-22  3.6125e-27  7.2091e-22  4.8653e-27  1.289e-21  7.0757e-27  2.3297e-21  1.1093e-26  4.2766e-21  1.8542e-26  8.0433e-21
      5.60  1.1615e-29  8.4114e-24  1.327e-29  8.5613e-24  1.7614e-29  8.8279e-24  3.0549e-29  9.3019e-24  5.5884e-29  1.0145e-23  1.1625e-28  1.1644e-23  2.4952e-28  1.431e-23  4.7619e-28  1.9051e-23  8.6981e-28  2.7483e-23  1.2038e-27  4.249e-23  1.5716e-27  6.9204e-23  1.8182e-27  1.168e-22  2.1015e-27  2.0171e-22  2.5034e-27  3.5356e-22  3.1413e-27  6.263e-22  4.1764e-27  1.1199e-21  5.9896e-27  2.0248e-21  9.2795e-27  3.7197e-21  1.5378e-26  7.005e-21
      5.65  1.1295e-29  7.7118e-24  1.3315e-29  7.8549e-24  1.9194e-29  8.1093e-24  3.5495e-29  8.5618e-24  6.7324e-29  9.3664e-24  1.314e-28  1.0797e-23  2.6269e-28  1.3342e-23  5.0884e-28  1.7867e-23  9.208e-28  2.5917e-23  1.2128e-27  4.0243e-23  1.5136e-27  6.5745e-23  1.6863e-27  1.1118e-22  1.9349e-27  1.9225e-22  2.2843e-27  3.3724e-22  2.8671e-27  5.9771e-22  3.8114e-27  1.0692e-21  5.4761e-27  1.9341e-21  8.4931e-27  3.5555e-21  1.4106e-26  6.7025e-21
      5.70  1.0908e-29  7.155e-24  1.3395e-29  7.2951e-24  2.0658e-29  7.5441e-24  4.1247e-29  7.987e-24  7.6142e-29  8.7745e-24  1.488e-28  1.0175e-23  2.9677e-28  1.2665e-23  5.7343e-28  1.7095e-23  9.0251e-28  2.4974e-23  1.1366e-27  3.8997e-23  1.3573e-27  6.396e-23  1.5318e-27  1.0844e-22  1.753e-27  1.8779e-22  2.0775e-27  3.2974e-22  2.6281e-27  5.8478e-22  3.5581e-27  1.0466e-21  5.1929e-27  1.8942e-21  8.1676e-27  3.4843e-21  1.3729e-26  6.5745e-21
      5.75  1.0268e-29  6.6481e-24  1.2974e-29  6.7814e-24  2.0785e-29  7.0186e-24  4.1117e-29  7.4403e-24  8.2498e-29  8.1902e-24  1.6447e-28  9.5236e-24  3.3525e-28  1.1895e-23  6.0447e-28  1.6113e-23  8.0065e-28  2.3617e-23  9.824e-28  3.697e-23  1.127e-27  6.0743e-23  1.2995e-27  1.031e-22  1.5112e-27  1.7868e-22  1.8417e-27  3.1388e-22  2.3864e-27  5.5685e-22  3.3169e-27  9.9699e-22  4.9808e-27  1.8051e-21  8.0253e-27  3.3228e-21  1.3756e-26  6.2764e-21
      5.80  9.5878e-30  6.2574e-24  1.2173e-29  6.3799e-24  1.9681e-29  6.5977e-24  4.0108e-29  6.985e-24  8.5319e-29  7.6736e-24  1.8257e-28  8.8981e-24  3.4526e-28  1.1076e-23  5.4164e-28  1.495e-23  6.8617e-28  2.1842e-23  8.3687e-28  3.4107e-23  9.5006e-28  5.5942e-23  1.1338e-27  9.4846e-23  1.3574e-27  1.6427e-22  1.6946e-27  2.8848e-22  2.2705e-27  5.1175e-22  3.2721e-27  9.1634e-22  5.0661e-27  1.6597e-21  8.3791e-27  3.0573e-21  1.4672e-26  5.7817e-21
      5.85  9.1839e-30  5.9602e-24  1.2141e-29  6.0756e-24  2.0369e-29  6.2809e-24  4.1627e-29  6.6459e-24  9.4206e-29  7.295e-24  2.0211e-28  8.4491e-24  3.2322e-28  1.0502e-23  4.7887e-28  1.4154e-23  6.0264e-28  2.0652e-23  7.5395e-28  3.2213e-23  8.8748e-28  5.2797e-23  1.0484e-27  8.9474e-23  1.2906e-27  1.5493e-22  1.6688e-27  2.7205e-22  2.3259e-27  4.8262e-22  3.4771e-27  8.6436e-22  5.5621e-27  1.5662e-21  9.4274e-27  2.887e-21  1.6823e-26  5.466e-21
      5.90  8.917e-30  5.7436e-24  1.2632e-29  5.8589e-24  2.2284e-29  6.0638e-24  4.7268e-29  6.4282e-24  1.0476e-28  7.076e-24  2.0632e-28  8.2282e-24  3.2646e-28  1.0278e-23  4.3504e-28  1.3924e-23  5.7509e-28  2.041e-23  7.1066e-28  3.1952e-23  8.4313e-28  5.2501e-23  1.0102e-27  8.9117e-23  1.2864e-27  1.5447e-22  1.7498e-27  2.7141e-22  2.5462e-27  4.8172e-22  3.9653e-27  8.6311e-22  6.5491e-27  1.5647e-21  1.1366e-26  2.8864e-21  2.0647e-26  5.4709e-21
      5.95  8.5376e-30  5.589e-24  1.2649e-29  5.7066e-24  2.3558e-29  5.9158e-24  5.0999e-29  6.2876e-24  1.1403e-28  6.9489e-24  2.1504e-28  8.1249e-24  3.333e-28  1.0217e-23  4.4558e-28  1.3938e-23  5.567e-28  2.0559e-23  6.7798e-28  3.234e-23  8.354e-28  5.3314e-23  1.0218e-27  9.0691e-23  1.3284e-27  1.574e-22  1.8653e-27  2.768e-22  2.8092e-27  4.9156e-22  4.4953e-27  8.8116e-22  7.5796e-27  1.5983e-21  1.335e-26  2.9506e-21  2.4529e-26  5.5989e-21
      6.00  7.8849e-30  5.4797e-24  1.1831e-29  5.5977e-24  2.2481e-29  5.8076e-24  5.0734e-29  6.2425e-24  1.1325e-28  6.8441e-24  2.3031e-28  8.0239e-24  3.4614e-28  1.0123e-23  4.5375e-28  1.3856e-23  5.6523e-28  2.0498e-23  6.9524e-28  3.2317e-23  8.5707e-28  5.3361e-23  1.0925e-27  9.0862e-23  1.4758e-27  1.578e-22  2.1484e-27  2.7762e-22  3.346e-27  4.9319e-22  5.511e-27  8.8442e-22  9.4793e-27  1.6051e-21  1.6929e-26  2.9655e-21  3.1433e-26  5.634e-21
      6.05  6.9993e-30  5.4228e-24  1.0292e-29  5.5375e-24  1.9367e-29  5.7414e-24  4.3796e-29  6.104e-24  1.0293e-28  6.7486e-24  2.307e-28  7.8947e-24  3.5414e-28  9.9336e-24  4.6558e-28  1.3561e-23  5.8021e-28  2.0014e-23  7.1081e-28  3.1497e-23  8.7623e-28  5.1944e-23  1.1458e-27  8.8382e-23  1.6037e-27  1.5343e-22  2.4119e-27  2.6988e-22  3.8584e-27  4.7945e-22  6.4767e-27  8.5996e-22  1.1286e-26  1.5614e-21  2.0341e-26  2.8872e-21  3.8037e-26  5.4928e-21
      6.10  6.3798e-30  5.3977e-24  9.1283e-30  5.5065e-24  1.6483e-29  5.6998e-24  3.6748e-29  6.0436e-24  8.7284e-29  6.6548e-24  2.0042e-28  7.7416e-24  3.3248e-28  9.6748e-24  4.5636e-28  1.3114e-23  5.6258e-28  1.9233e-23  6.8219e-28  3.0122e-23  8.6962e-28  4.951e-23  1.1714e-27  8.4063e-23  1.6984e-27  1.4575e-22  2.6375e-27  2.5621e-22  4.3183e-27  4.5504e-22  7.3629e-27  8.1624e-22  1.2968e-26  1.4826e-21  2.3545e-26  2.7438e-21  4.4282e-26  5.2273e-21
      6.15  6.0339e-30    5.4e-24  8.5538e-30  5.5009e-24  1.5112e-29  5.6802e-24  3.2114e-29  5.9991e-24  7.3141e-29  6.5661e-24  1.5252e-28  7.5742e-24  2.5032e-28  9.3672e-24  3.8338e-28  1.2557e-23  4.8961e-28  1.8232e-23  6.1779e-28  2.8331e-23  8.1891e-28  4.6313e-23  1.1461e-27  7.8364e-23  1.7262e-27  1.3559e-22  2.7585e-27  2.3807e-22  4.6151e-27  4.226e-22  7.9816e-27  7.5797e-22  1.4185e-26  1.3772e-21  2.5912e-26  2.5508e-21  4.8973e-26  4.8664e-21
      6.20  5.8098e-30  5.4243e-24  8.279e-30  5.5144e-24  1.4614e-29  5.7313e-24  2.8947e-29  5.9595e-24  5.8248e-29  6.4659e-24  1.127e-28  7.3665e-24  1.8169e-28  8.9682e-24  2.7211e-28  1.1817e-23  3.8093e-28  1.6886e-23  5.1924e-28  2.5906e-23  7.2181e-28  4.1968e-23  1.0676e-27  7.0597e-23  1.6691e-27  1.2172e-22  2.7451e-27  2.1328e-22  4.6793e-27  3.7821e-22  8.1912e-27  6.7811e-22  1.467e-26  1.2324e-21  2.694e-26  2.2842e-21  5.113e-26  4.364e-21
      6.25  5.3074e-30  5.4663e-24  7.5444e-30  5.5421e-24  1.2754e-29  5.6769e-24  2.3282e-29  5.9167e-24  4.4095e-29  6.3429e-24  8.206e-29  7.1008e-24  1.2797e-28  8.4488e-24  1.936e-28  1.0846e-23  2.8171e-28  1.5111e-23  4.0855e-28  2.2701e-23  6.0694e-28  3.6216e-23  9.4642e-28  6.0307e-23  1.5403e-27  1.0333e-22  2.5974e-27  1.804e-22  4.4955e-27  3.1927e-22  7.945e-27  5.7194e-22  1.4317e-26  1.0393e-21  2.6405e-26  1.9277e-21  5.0294e-26  3.6883e-21
      6.30  4.6437e-30  5.5497e-24  6.3953e-30  5.6102e-24  9.8624e-30  5.7178e-24  1.787e-29  5.9091e-24  3.1801e-29  6.2492e-24  5.7766e-29  6.854e-24  8.559e-29  7.9295e-24  1.3443e-28  9.8423e-24  2.0885e-28  1.3245e-23  3.1557e-28   1.93e-23  4.9965e-28  3.0083e-23  8.1271e-28  4.9304e-23  1.3669e-27  8.3632e-23  2.3505e-27  1.4515e-22  4.1189e-27  2.5602e-22  7.3344e-27  4.5786e-22  1.328e-26  8.3162e-22  2.4578e-26  1.5431e-21  4.6962e-26  2.9566e-21
      6.35  4.0423e-30  5.6562e-24  5.2725e-30  5.7041e-24  7.8483e-30  5.7892e-24  1.2811e-29  5.9406e-24  2.3233e-29  6.2098e-24  4.2136e-29  6.6884e-24  5.8942e-29  7.5395e-24  9.0253e-29  9.0533e-24  1.4735e-28  1.1746e-23  2.4745e-28  1.6538e-23  4.0924e-28  2.5071e-23  6.9529e-28  4.0282e-23  1.1967e-27  6.7451e-23  2.0902e-27  1.1615e-22  3.7013e-27  2.0394e-22  6.6334e-27  3.6388e-22  1.2061e-26  6.6034e-22  2.2391e-26  1.2256e-21  4.2909e-26  2.3513e-21
      6.40  3.5008e-30  5.7852e-24  4.4941e-30  5.824e-24  6.4639e-30  5.8932e-24  1.0014e-29  6.0161e-24  1.6945e-29  6.2347e-24  3.1341e-29  6.6233e-24  4.4209e-29  7.3144e-24  6.692e-29  8.5436e-24  1.1092e-28  1.073e-23  1.9541e-28  1.4621e-23  3.4764e-28  2.155e-23  6.1597e-28  3.3902e-23  1.0896e-27  5.5967e-23  1.9365e-27  9.5521e-23  3.4668e-27  1.6686e-22  6.2543e-27  2.969e-22  1.1421e-26  5.3818e-22  2.1274e-26  9.9896e-22  4.0897e-26  1.9187e-21
      6.45  3.0207e-30  5.9332e-24  3.969e-30  5.9653e-24  5.5207e-30  6.0225e-24  8.4019e-30  6.1242e-24  1.366e-29  6.368e-24  2.3921e-29  6.6927e-24  3.7451e-29  7.1981e-24  5.7657e-29  8.2148e-24  9.7449e-29  1.0023e-23  1.7445e-28  1.3241e-23  3.1916e-28  1.8972e-23  5.8138e-28  2.9188e-23  1.0513e-27  4.7439e-23  1.8987e-27  8.0163e-23  3.4266e-27  1.392e-22  6.2145e-27  2.4688e-22  1.139e-26  4.4684e-22  2.1278e-26  8.2929e-22  4.1021e-26  1.5943e-21
      6.50  2.5112e-30  6.0979e-24  3.3976e-30  6.1247e-24  4.6114e-30  6.1722e-24  6.9093e-30  6.2567e-24  1.0726e-29  6.407e-24  1.8448e-29  6.6742e-24  2.9074e-29  7.1494e-24  4.6538e-29  7.9946e-24  7.9915e-29  9.4979e-24  1.4509e-28  1.2173e-23  2.7058e-28  1.6936e-23   5.06e-28  2.5428e-23  9.3478e-28  4.0601e-23  1.7102e-27  6.7808e-23  3.1154e-27  1.1691e-22  5.6837e-27  2.065e-22  1.0457e-26   3.73e-22  1.9593e-26  6.9184e-22  3.7874e-26  1.3307e-21
      6.55  2.0856e-30  6.309e-24  2.8494e-30  6.3316e-24  3.7624e-30  6.3718e-24  5.5736e-30  6.4434e-24  8.943e-30  6.5707e-24  1.5308e-29  6.7969e-24  2.4425e-29  7.1993e-24  3.9133e-29  7.9149e-24  6.8926e-29  9.1879e-24  1.2768e-28  1.1453e-23  2.4258e-28  1.5487e-23  4.617e-28  2.2678e-23  8.6863e-28  3.5527e-23  1.6115e-27  5.857e-23  2.9615e-27  1.0016e-22  5.433e-27  1.7608e-22  1.0036e-26  3.1727e-22  1.8858e-26  5.8787e-22  3.6543e-26  1.1309e-21
      6.60  1.7381e-30  6.5378e-24  2.3501e-30  6.5576e-24  3.1559e-30  6.5929e-24  4.5759e-30  6.6557e-24  7.601e-30  6.835e-24  1.3282e-29  6.9658e-24  2.1732e-29  7.3187e-24  3.5196e-29  7.9465e-24  6.3113e-29  9.0632e-24  1.1967e-28  1.105e-23  2.3116e-28  1.4589e-23  4.4604e-28  2.0899e-23  8.496e-28  3.2172e-23  1.5937e-27  5.2392e-23  2.9547e-27  8.8896e-23  5.4519e-27  1.5554e-22  1.0109e-26  2.7954e-22  1.9046e-26  5.1737e-22  3.6992e-26  9.9513e-22
      6.65  1.4504e-30  6.7831e-24  1.9083e-30  6.8013e-24  2.6162e-30  6.8335e-24  3.7419e-30  6.8908e-24  6.1665e-30  6.9926e-24  1.1583e-29  7.1737e-24  1.9219e-29  7.4958e-24  3.1892e-29  8.0687e-24  5.8771e-29  9.0879e-24  1.1412e-28  1.0902e-23  2.2421e-28  1.4131e-23  4.3797e-28  1.989e-23  8.4302e-28  3.018e-23  1.5966e-27  4.8638e-23  2.9832e-27  8.1964e-23  5.5352e-27  1.4282e-22  1.0302e-26  2.5609e-22  1.9461e-26  4.7348e-22  3.7875e-26  9.1054e-22
      6.70  1.2124e-30  7.044e-24  1.5312e-30  7.0611e-24  2.1163e-30  7.0915e-24  3.1547e-30  7.1457e-24  5.3128e-30  7.2419e-24  1.0552e-29  7.413e-24  1.9386e-29  7.7173e-24  3.4224e-29  8.2586e-24  6.5823e-29  9.2216e-24  1.3052e-28  1.0935e-23  2.5834e-28  1.3987e-23  5.0549e-28  1.9429e-23  9.7404e-28  2.9153e-23  1.8467e-27  4.6595e-23  3.4566e-27  7.8093e-23  6.4263e-27  1.3562e-22  1.1979e-26  2.4273e-22  2.266e-26  4.4841e-22  4.4158e-26  8.6221e-22
      6.75  1.0134e-30  7.3193e-24  1.2272e-30  7.3359e-24  1.726e-30  7.3654e-24  2.6728e-30  7.4179e-24  4.9117e-30  7.5113e-24  1.0658e-29  7.6773e-24  2.0624e-29  7.9725e-24  3.8524e-29  8.4976e-24  7.6328e-29  9.4317e-24  1.5281e-28  1.1094e-23  3.0183e-28  1.4055e-23  5.8883e-28  1.9334e-23  1.1307e-27  2.8767e-23  2.1401e-27  4.5691e-23  4.0039e-27  7.6253e-23  7.4479e-27  1.3209e-22  1.3896e-26  2.3606e-22  2.6308e-26  4.3581e-22  5.1315e-26  8.3794e-22
      6.80  8.5148e-31  7.6481e-24  9.945e-31  7.6646e-24  1.4102e-30  7.6938e-24  2.3055e-30  7.7458e-24  4.5364e-30  7.8383e-24  1.0058e-29  8.0028e-24   2.14e-29  8.2952e-24  4.0986e-29  8.8153e-24  8.2404e-29  9.7407e-24  1.6481e-28  1.1387e-23  3.2438e-28  1.432e-23  6.3096e-28  1.955e-23  1.2101e-27  2.8896e-23  2.2898e-27  4.5663e-23  4.2876e-27  7.5945e-23  7.987e-27  1.3127e-22  1.4924e-26  2.3434e-22  2.8292e-26  4.3241e-22  5.525e-26  8.314e-22
      6.85  7.2052e-31  7.9947e-24  8.1163e-31  8.0113e-24  1.1206e-30  8.0407e-24  1.944e-30  8.0931e-24  3.9327e-30  8.1862e-24  9.5967e-30  8.3517e-24  2.2555e-29  8.6462e-24  4.4686e-29  9.1699e-24  9.1925e-29  1.0102e-23  1.8388e-28  1.176e-23  3.6284e-28  1.4713e-23  7.049e-28  1.9978e-23  1.3506e-27  2.9389e-23  2.553e-27  4.6272e-23  4.7779e-27  7.6768e-23  8.9014e-27  1.3249e-22  1.6641e-26  2.3632e-22  3.1572e-26  4.3593e-22  6.1707e-26  8.3822e-22
      6.90  6.1631e-31  8.3583e-24  6.9443e-31  8.3751e-24  9.2949e-31  8.4049e-24  1.6075e-30  8.4579e-24  3.6628e-30  8.5522e-24  9.5691e-30  8.7199e-24  2.4365e-29  9.018e-24  5.0436e-29  9.5482e-24  1.0524e-28  1.0492e-23  2.1155e-28  1.217e-23  4.2025e-28  1.516e-23  8.2189e-28  2.0492e-23  1.5773e-27  3.002e-23  2.9791e-27  4.7116e-23  5.5665e-27  7.7997e-23  1.0359e-26  1.3444e-22  1.9356e-26  2.3961e-22  3.6723e-26  4.4188e-22  7.1804e-26  8.4974e-22
      6.95  5.3285e-31  8.7383e-24  6.0583e-31  8.7552e-24  8.2215e-31  8.7851e-24  1.4838e-30  8.8384e-24  3.567e-30  8.9331e-24  9.5605e-30  9.1016e-24  2.5082e-29  9.4012e-24  5.165e-29  9.934e-24  1.0673e-28  1.0882e-23  2.1657e-28  1.2694e-23  4.2923e-28  1.5573e-23  8.4561e-28  2.093e-23  1.6287e-27  3.0504e-23  3.0822e-27  4.7682e-23  5.7665e-27  7.8715e-23  1.074e-26  1.3544e-22  2.0084e-26  2.4117e-22  3.8135e-26  4.4456e-22  7.463e-26  8.5487e-22
      7.00  4.6302e-31  9.134e-24  5.2918e-31  9.1506e-24  7.4594e-31  9.1801e-24  1.4086e-30  9.2326e-24  3.3246e-30  9.3259e-24  9.0786e-30  9.4918e-24  2.5184e-29  9.7869e-24  5.2232e-29  1.0312e-23  1.048e-28  1.1245e-23  2.1275e-28  1.2907e-23  4.3162e-28  1.5865e-23  8.5635e-28  2.1141e-23  1.6591e-27  3.0571e-23  3.1549e-27  4.749e-23  5.9213e-27  7.8057e-23  1.1051e-26  1.3393e-22  2.0694e-26  2.3811e-22  3.9338e-26  4.3858e-22  7.7061e-26  8.4317e-22
      7.05  3.9133e-31  9.5954e-24  4.5892e-31  9.6112e-24  6.6073e-31  9.6394e-24  1.261e-30  9.6895e-24  3.0619e-30  9.7787e-24  8.4074e-30  9.9372e-24  2.4012e-29  1.0219e-23  5.1649e-29  1.072e-23  1.0476e-28  1.1612e-23  2.139e-28  1.3199e-23  4.3727e-28  1.6024e-23  8.7675e-28  2.1062e-23  1.7211e-27  3.0065e-23  3.303e-27  4.6221e-23  6.2371e-27  7.541e-23  1.1684e-26  1.2877e-22  2.1929e-26  2.2828e-22  4.1748e-26  4.1983e-22  8.1878e-26  8.0659e-22
      7.10  3.2474e-31  1.0078e-23  3.8757e-31  1.0092e-23  5.6453e-31  1.0118e-23  1.1011e-30  1.0164e-23  2.7303e-30  1.0246e-23  7.658e-30  1.0391e-23  2.2166e-29  1.065e-23  5.1137e-29  1.111e-23  1.0599e-28  1.1928e-23  2.1603e-28  1.3383e-23  4.4179e-28  1.5975e-23  9.0374e-28  2.0595e-23  1.8055e-27  2.8853e-23  3.5113e-27  4.3668e-23  6.6879e-27  7.0438e-23  1.2596e-26  1.1938e-22  2.3719e-26  2.1067e-22  4.5248e-26  3.8644e-22  8.8869e-26  7.4149e-22
      7.15  2.7448e-31  1.058e-23  3.2592e-31  1.0593e-23  4.8059e-31  1.0616e-23  9.5537e-31  1.0656e-23  2.4186e-30  1.0728e-23  6.6973e-30  1.0856e-23  1.8937e-29  1.1083e-23  4.6163e-29  1.1487e-23  9.3173e-29  1.2205e-23  1.8657e-28  1.3482e-23  3.8671e-28  1.5757e-23  8.0517e-28  1.9811e-23  1.642e-27  2.7056e-23  3.2522e-27  4.0054e-23  6.2814e-27  6.354e-23  1.1946e-26  1.0648e-22  2.264e-26  1.8659e-22  4.3369e-26  3.4087e-22  8.5411e-26  6.5263e-22
      7.20  2.2914e-31  1.1104e-23  2.7221e-31  1.1115e-23  4.0329e-31  1.1134e-23  8.0523e-31  1.1168e-23  1.9863e-30  1.1229e-23  5.4114e-30  1.1337e-23  1.4978e-29  1.1529e-23  3.8003e-29  1.187e-23  7.354e-29  1.2478e-23  1.5045e-28  1.3558e-23  3.1732e-28  1.5481e-23  6.7474e-28  1.8908e-23  1.4124e-27  2.5031e-23  2.8676e-27  3.6015e-23  5.6512e-27  5.586e-23  1.0907e-26  9.2148e-23  2.088e-26  1.5985e-22  4.0263e-26  2.9025e-22  7.9633e-26  5.5385e-22
      7.25  1.9089e-31  1.1648e-23  2.2559e-31  1.1657e-23  3.3073e-31  1.1673e-23  6.4213e-31  1.1702e-23  1.5535e-30  1.1752e-23  4.1243e-30  1.1842e-23  1.1083e-29  1.2001e-23  2.7883e-29  1.2285e-23  5.493e-29  1.2789e-23  1.1239e-28  1.3687e-23  2.4006e-28  1.5284e-23  5.2491e-28  1.813e-23  1.1329e-27  2.3213e-23  2.3735e-27  3.2332e-23  4.8014e-27  4.8805e-23  9.4514e-27  7.8927e-23  1.8346e-26  1.3512e-22  3.5704e-26  2.4339e-22  7.1036e-26  4.6227e-22
      7.30  1.5888e-31  1.2278e-23  1.8593e-31  1.2285e-23  2.6588e-31  1.2298e-23  5.0325e-31  1.2322e-23  1.194e-30  1.2364e-23  3.0482e-30  1.2439e-23  8.0886e-30  1.2572e-23  1.9786e-29  1.2809e-23  4.1493e-29  1.323e-23  8.4515e-29  1.398e-23  1.7876e-28  1.5314e-23  4.0059e-28  1.7691e-23  8.9872e-28  2.1936e-23  1.956e-27  2.9549e-23  4.0908e-27  4.3302e-23  8.2619e-27  6.8447e-23  1.6334e-26  1.1536e-22  3.2182e-26  2.0574e-22  6.454e-26  3.8847e-22
      7.35  1.327e-31  1.2935e-23  1.5302e-31  1.2942e-23  2.1316e-31  1.2953e-23  3.9154e-31  1.2973e-23  9.114e-31  1.3009e-23  2.2815e-30  1.3073e-23  5.8817e-30  1.3187e-23  1.5142e-29  1.3522e-23  3.2758e-29  1.3747e-23  6.5854e-29  1.4386e-23  1.3964e-28  1.5523e-23  3.1808e-28  1.755e-23  7.3909e-28  2.1169e-23  1.6688e-27  2.7659e-23  3.5983e-27  3.9382e-23  7.4475e-27  6.0813e-23  1.4992e-26  1.0079e-22  2.9908e-26  1.7782e-22  6.047e-26  3.3354e-22
      7.40  1.1139e-31  1.3622e-23  1.2692e-31  1.3627e-23  1.7286e-31  1.3637e-23  3.0939e-31  1.3655e-23  7.0194e-31  1.3686e-23   1.74e-30  1.3742e-23  4.5011e-30  1.3841e-23  1.1781e-29  1.4018e-23  2.7932e-29  1.4332e-23  5.4892e-29  1.489e-23  1.1599e-28  1.5885e-23  2.6692e-28  1.7658e-23  6.3083e-28  2.0824e-23  1.4618e-27  2.6503e-23  3.2398e-27  3.6758e-23   6.86e-27  5.5505e-23  1.4047e-26  9.0475e-23  2.836e-26  1.5784e-22  5.7797e-26  2.9403e-22
      7.45  9.3423e-32  1.4336e-23  1.0645e-31  1.4341e-23  1.4167e-31  1.435e-23  2.4911e-31  1.4366e-23  5.6404e-31  1.4394e-23  1.384e-30  1.4444e-23  3.5836e-30  1.4533e-23  9.4768e-30  1.4692e-23  2.2196e-29  1.4974e-23  4.2792e-29  1.5475e-23  8.9221e-29  1.6369e-23  2.0659e-28  1.7961e-23  4.9742e-28  2.0806e-23  1.185e-27  2.5908e-23  2.7083e-27  3.5123e-23  5.896e-27  5.1967e-23  1.2339e-26  8.3384e-23  2.5305e-26  1.439e-22  5.212e-26  2.6622e-22
      7.50  8.0217e-32  1.5078e-23  8.9726e-32  1.5083e-23  1.2082e-31  1.5091e-23  2.0865e-31  1.5106e-23  4.7073e-31  1.5132e-23  1.1441e-30  1.5178e-23  3.0019e-30  1.526e-23  7.9386e-30  1.5406e-23  1.8464e-29  1.5665e-23  3.5307e-29  1.6127e-23  7.2537e-29  1.695e-23  1.6758e-28  1.8416e-23  4.0773e-28  2.1036e-23  9.922e-28  2.5735e-23  2.3307e-27  3.4221e-23  5.2125e-27  4.9734e-23  1.1154e-26  7.8665e-23  2.3251e-26  1.3438e-22  4.8426e-26  2.4699e-22
      7.55  6.8477e-32  1.5929e-23  7.7878e-32  1.5934e-23  1.0382e-31  1.5942e-23  1.8156e-31  1.5955e-23  4.1518e-31  1.598e-23  1.0105e-30  1.6023e-23  2.6437e-30   1.61e-23  7.0655e-30  1.6238e-23  1.5742e-29  1.6482e-23  3.0588e-29  1.6918e-23  6.1924e-29  1.7693e-23  1.4145e-28  1.9075e-23  3.4443e-28  2.1544e-23  8.4963e-28  2.5974e-23  2.0425e-27  3.3975e-23  4.6904e-27  4.8599e-23  1.0282e-26  7.5871e-23  2.1841e-26  1.2839e-22  4.6098e-26  2.3451e-22
      7.60  5.9467e-32  1.6818e-23  6.8063e-32  1.6822e-23  9.2841e-32  1.683e-23  1.6429e-31  1.6843e-23  3.7605e-31  1.6867e-23  9.3988e-31  1.6908e-23  2.4743e-30  1.6983e-23  6.5274e-30  1.7115e-23  1.3726e-29  1.735e-23  2.695e-29  1.7768e-23  5.3192e-29  1.8514e-23  1.1812e-28  1.9842e-23  2.8275e-28  2.2217e-23  6.9625e-28  2.6477e-23  1.6943e-27  3.4172e-23  3.9694e-27  4.8238e-23  8.8879e-27  7.4466e-23  1.9226e-26  1.2497e-22  4.1129e-26   2.27e-22
      7.65  5.2448e-32  1.7745e-23  6.0179e-32  1.7749e-23  8.3732e-32  1.7756e-23  1.5148e-31  1.7769e-23  3.6057e-31  1.797e-23  9.0221e-31  1.7833e-23  2.3634e-30  1.7906e-23  6.2136e-30  1.8035e-23  1.2171e-29  1.8265e-23  2.4039e-29  1.8674e-23  4.665e-29  1.9402e-23  1.0055e-28  2.0701e-23  2.3507e-28  2.3023e-23  5.7313e-28  2.7188e-23  1.4019e-27  3.4712e-23  3.3367e-27  4.8464e-23  7.6213e-27  7.4109e-23  1.6795e-26  1.2348e-22  3.6456e-26  2.2322e-22
      7.70  4.6248e-32  1.871e-23  5.3591e-32  1.8714e-23  7.6139e-32  1.8721e-23  1.407e-31  1.8734e-23  3.3268e-31  1.8756e-23  8.614e-31  1.8797e-23  2.281e-30  1.8869e-23  5.9486e-30  1.8996e-23  1.0987e-29  1.9224e-23  2.1331e-29  1.9629e-23  4.1286e-29  2.035e-23  8.6514e-29  2.1637e-23  1.9696e-28  2.3936e-23  4.7298e-28  2.8061e-23  1.156e-27  3.5514e-23  2.7838e-27  4.9136e-23  6.4752e-27  7.4538e-23  1.454e-26  1.2344e-22  3.2063e-26  2.2221e-22
      7.75  4.125e-32  1.9711e-23  4.8255e-32  1.9716e-23  6.9906e-32  1.9723e-23  1.329e-31  1.9735e-23  3.1157e-31  1.9758e-23  8.232e-31  1.9799e-23  2.1697e-30  1.987e-23  5.4733e-30  1.9998e-23  1.0204e-29  2.0226e-23  1.9172e-29  2.0631e-23  3.7198e-29  2.1352e-23  7.5349e-29  2.2637e-23  1.667e-28  2.4935e-23  3.922e-28  2.9059e-23  9.5191e-28  3.6509e-23  2.3076e-27  5.0127e-23  5.4522e-27  7.5519e-23  1.2472e-26  1.244e-22  2.7966e-26  2.2312e-22
      7.80  3.7112e-32  2.0854e-23  4.3738e-32  2.0858e-23  6.4394e-32  2.0865e-23  1.2425e-31  2.0878e-23  2.9587e-31  2.0901e-23  7.8229e-31  2.0942e-23  2.0881e-30  2.1014e-23  5.0834e-30  2.1143e-23  9.2518e-30  2.1372e-23  1.7289e-29  2.178e-23  3.2816e-29  2.2506e-23  6.6099e-29  2.3801e-23  1.4221e-28  2.6115e-23  3.2684e-28  3.0268e-23  7.8405e-28  3.7772e-23  1.9047e-27  5.1488e-23  4.5592e-27  7.7063e-23  1.0619e-26  1.2629e-22  2.4237e-26  2.2571e-22
      7.85  3.3633e-32  2.2048e-23  3.9789e-32  2.2052e-23  5.9111e-32  2.206e-23  1.1401e-31  2.2073e-23   2.72e-31  2.2096e-23  7.2069e-31  2.2137e-23  1.9519e-30  2.221e-23  4.6398e-30  2.234e-23  8.3966e-30  2.2571e-23  1.5552e-29  2.2983e-23  2.9584e-29  2.3716e-23  5.802e-29  2.5023e-23  1.2173e-28  2.736e-23  2.7319e-28  3.1554e-23  6.4591e-28  3.913e-23  1.5667e-27  5.298e-23  3.789e-27  7.8804e-23  8.9807e-27  1.2851e-22  2.0886e-26  2.2888e-22
      7.90  3.0707e-32  2.3294e-23  3.6173e-32  2.3298e-23  5.3618e-32  2.3305e-23  1.0364e-31  2.3318e-23  2.4657e-31  2.3342e-23  6.5115e-31  2.3383e-23  1.7749e-30  2.3457e-23  4.0656e-30  2.3588e-23  7.2606e-30  2.3821e-23  1.3352e-29  2.4237e-23  2.5235e-29  2.4977e-23  4.8854e-29  2.6297e-23  1.0044e-28  2.8656e-23  2.2071e-28  3.2889e-23  5.1431e-28  4.0537e-23  1.2439e-27  5.4518e-23  3.0375e-27  8.0586e-23  7.3303e-27  1.3076e-22  1.7404e-26  2.3206e-22
      7.95  2.8235e-32  2.4591e-23  3.287e-32  2.4595e-23  4.8128e-32  2.4602e-23  9.334e-32  2.4616e-23  2.2044e-31  2.4639e-23  5.7965e-31  2.4681e-23  1.5568e-30  2.4755e-23  3.3797e-30  2.4887e-23  6.1366e-30  2.5122e-23  1.1217e-29  2.554e-23    2.1e-29  2.6285e-23  4.0378e-29  2.7613e-23  8.1313e-29  2.9986e-23  1.7559e-28  3.4246e-23  4.0261e-28  4.1941e-23  9.674e-28  5.6009e-23  2.3747e-27  8.2239e-23  5.8161e-27  1.3272e-22  1.4076e-26  2.3463e-22
      8.00  2.6144e-32  2.5939e-23  3.0201e-32  2.5944e-23  4.3386e-32  2.5951e-23  8.1334e-32  2.5964e-23  1.8888e-31  2.5988e-23  4.9761e-31  2.603e-23  1.3366e-30  2.6104e-23  2.8071e-30  2.6236e-23  5.0341e-30  2.6472e-23  9.2511e-30  2.6891e-23  1.7192e-29  2.7637e-23  3.2867e-29  2.8968e-23  6.4871e-29  3.1347e-23  1.3822e-28  3.5615e-23  3.1181e-28  4.3328e-23  7.4257e-28  5.7426e-23  1.8259e-27  8.3712e-23  4.5235e-27  1.343e-22  1.1136e-26  2.364e-22
      8.05  2.4382e-32  2.7473e-23  2.771e-32  2.7477e-23  3.8649e-32  2.7484e-23  7.0698e-32  2.7498e-23  1.594e-31  2.7521e-23  4.1173e-31  2.7563e-23  1.1128e-30  2.7637e-23  2.2822e-30  2.777e-23  4.1237e-30  2.8005e-23  7.4111e-30  2.8424e-23  1.3825e-29  2.9171e-23  2.6272e-29  3.0502e-23  5.1727e-29  3.2882e-23  1.0782e-28  3.7153e-23  2.3986e-28  4.4868e-23  5.6634e-28  5.8972e-23  1.3931e-27  8.5265e-23  3.4845e-27  1.3586e-22  8.7144e-27  2.3797e-22
      8.10  2.2913e-32  2.9077e-23  2.5561e-32  2.9081e-23  3.4255e-32  2.9088e-23  5.9847e-32  2.9101e-23  1.3269e-31  2.9125e-23  3.3547e-31  2.9167e-23  9.1143e-31  2.9241e-23  1.8361e-30  2.9373e-23  3.2801e-30  2.9608e-23  5.8786e-30  3.0025e-23  1.0821e-29  3.077e-23  2.0614e-29  3.2097e-23  4.0343e-29  3.447e-23  8.3106e-29  3.8727e-23  1.8194e-28  4.6418e-23  4.2786e-28  6.0476e-23  1.0517e-27  8.6683e-23  2.651e-27  1.3711e-22  6.7237e-27  2.3885e-22
      8.15  2.1702e-32  3.0752e-23  2.3756e-32  3.0756e-23  3.0572e-32  3.0764e-23  5.0446e-32  3.0777e-23  1.0804e-31   3.08e-23  2.7046e-31  3.0842e-23  7.2378e-31  3.0915e-23  1.4367e-30  3.1047e-23  2.5657e-30  3.128e-23  4.5862e-30  3.1696e-23  8.4093e-30  3.2436e-23  1.5788e-29  3.3756e-23  3.0965e-29  3.6116e-23  6.3124e-29  4.035e-23  1.3713e-28  4.7999e-23  3.1825e-28  6.198e-23  7.8008e-28  8.8041e-23  1.9769e-27  1.3817e-22  5.0754e-27  2.3931e-22
      8.20  2.0716e-32   3.25e-23  2.2277e-32  3.2504e-23  2.7506e-32  3.2512e-23  4.2555e-32  3.2525e-23  8.6185e-32  3.2548e-23  2.1277e-31  3.2589e-23  5.591e-31  3.2662e-23   1.11e-30  3.2793e-23  1.9799e-30  3.3025e-23  3.5315e-30  3.3438e-23  6.457e-30  3.4173e-23  1.218e-29  3.5485e-23  2.3541e-29  3.7829e-23  4.7697e-29  4.2036e-23  1.0274e-28  4.9635e-23  2.3687e-28  6.3525e-23  5.7955e-28  8.9411e-23  1.4758e-27  1.392e-22  3.8305e-27  2.3962e-22
      8.25  1.989e-32  3.4321e-23  2.106e-32  3.4325e-23  2.4725e-32  3.4333e-23  3.7167e-32  3.469e-23  7.0089e-32  3.4368e-23  1.6605e-31  3.4409e-23  4.3117e-31  3.4482e-23  8.4228e-31  3.4612e-23  1.5127e-30  3.4843e-23  2.6949e-30  3.5253e-23  4.9164e-30  3.5984e-23  9.2477e-30  3.7288e-23  1.7802e-29  3.9618e-23  3.5911e-29  4.3798e-23  7.6938e-29  5.1351e-23  1.7661e-28  6.5153e-23  4.3183e-28  9.0874e-23  1.1048e-27  1.4034e-22  2.8962e-27  2.4007e-22
      8.30  1.9237e-32  3.6388e-23  2.013e-32  3.6392e-23  2.2814e-32   3.64e-23  3.142e-32  3.6413e-23  5.6629e-32  3.6436e-23  1.2892e-31  3.6477e-23  3.3377e-31  3.6549e-23  6.4899e-31  3.6679e-23  1.1506e-30  3.6909e-23  2.0658e-30  3.7319e-23  3.7614e-30  3.8049e-23  6.995e-30  3.9351e-23  1.3429e-29  4.1678e-23  2.6999e-29  4.5853e-23  5.7678e-29  5.3395e-23  1.3207e-28  6.7176e-23  3.2307e-28  9.2857e-23  8.2528e-28  1.4223e-22  2.1967e-27  2.4176e-22
      8.35  1.8751e-32  3.8556e-23  1.9385e-32  3.856e-23  2.1351e-32  3.8568e-23  2.766e-32  3.8581e-23  4.5907e-32  3.8604e-23  9.8508e-32  3.8645e-23  2.5061e-31  3.8718e-23  4.8451e-31  3.8847e-23  8.5534e-31  3.9078e-23  1.5319e-30  3.9488e-23  2.7866e-30  4.0219e-23  5.1783e-30  4.1523e-23  9.9375e-30  4.3854e-23  1.998e-29  4.8034e-23  4.2721e-29  5.5586e-23  9.8028e-29  6.9386e-23  2.4077e-28  9.5096e-23  6.2321e-28  1.4452e-22  1.6651e-27  2.4411e-22
      8.40  1.8345e-32  4.0828e-23  1.8801e-32  4.0832e-23  2.0254e-32  4.0839e-23  2.4771e-32  4.0852e-23  3.7828e-32  4.0875e-23  7.5842e-32  4.0916e-23  1.8372e-31  4.099e-23  3.553e-31  4.112e-23  6.2362e-31  4.1352e-23  1.1136e-30  4.1764e-23  2.0235e-30  4.2499e-23  3.7615e-30  4.3809e-23  7.2294e-30  4.615e-23  1.4577e-29  5.0351e-23  3.1304e-29  5.7938e-23  7.2269e-29  7.1801e-23  1.7883e-28  9.7626e-23  4.6714e-28  1.4726e-22  1.2618e-27  2.4725e-22
      8.45  1.8026e-32  4.3205e-23  1.8356e-32  4.3209e-23  1.9422e-32  4.3217e-23  2.2452e-32  4.323e-23  3.2796e-32  4.3689e-23  5.9777e-32  4.3295e-23  1.3801e-31  4.3368e-23  2.6375e-31   4.35e-23  4.5946e-31  4.3733e-23  8.171e-31  4.4149e-23  1.4822e-30  4.489e-23  2.7554e-30  4.6211e-23  5.3029e-30  4.8572e-23  1.0722e-29  5.2807e-23  2.3124e-29  6.0457e-23  5.3687e-29  7.4432e-23  1.3378e-28  1.0046e-22  3.5238e-28  1.5048e-22  9.6114e-28  2.5122e-22
      8.50  1.7773e-32  4.5692e-23  1.8016e-32  4.5696e-23  1.881e-32  4.5704e-23  2.1073e-32  4.5717e-23  2.8186e-32  4.574e-23  4.8218e-32  4.5782e-23  1.0591e-31  4.5857e-23  1.9677e-31  4.599e-23  3.4261e-31  4.6226e-23  6.0601e-31  4.6647e-23  1.0964e-30  4.7397e-23  2.037e-30  4.8733e-23  3.9244e-30  5.1122e-23  7.9326e-30  5.5407e-23  1.7219e-29  6.3147e-23  4.018e-29  7.7286e-23  1.0074e-28  1.0362e-22  2.6731e-28  1.5421e-22  7.3012e-28  2.5607e-22
