# This was generated using Cloudy10 and the columns are ordered 
# as log10 of the fraction of the metallicity to the solar metallicity
# 'h_*_Z' and 'c_*_Z' stands for cooling and heating respectively 
# at * metalicity
#
# NOTE: This was generated separately from loop_coolingcurve_w_UV.py
#       using Output_metals_w_redshift.py.
#
# Redshift = 7.5
# hden = -7.5
#
#     temp   h_-3.00_Z   c_-3.00_Z   h_-2.75_Z   c_-2.75_Z   h_-2.50_Z   c_-2.50_Z   h_-2.25_Z   c_-2.25_Z   h_-2.00_Z   c_-2.00_Z   h_-1.75_Z   c_-1.75_Z   h_-1.50_Z   c_-1.50_Z   h_-1.25_Z   c_-1.25_Z   h_-1.00_Z   c_-1.00_Z   h_-0.75_Z   c_-0.75_Z   h_-0.50_Z   c_-0.50_Z   h_-0.25_Z   c_-0.25_Z    h_0.00_Z    c_0.00_Z    h_0.25_Z    c_0.25_Z    h_0.50_Z    c_0.50_Z    h_0.75_Z    c_0.75_Z    h_1.00_Z    c_1.00_Z    h_1.25_Z    c_1.25_Z    h_1.50_Z    c_1.50_Z 
      1.00  7.5971e-22  1.0746e-23  7.5999e-22  1.0746e-23  7.6058e-22  1.0747e-23  7.6157e-22  1.0747e-23  7.6333e-22  1.0747e-23  7.6645e-22  1.0747e-23  7.7197e-22  1.0748e-23  7.8171e-22  1.0749e-23  7.9880e-22  1.0752e-23  8.2861e-22  1.0756e-23  8.8088e-22  1.0763e-23  9.7462e-22  1.0777e-23  1.1411e-21  1.0800e-23  1.4364e-21  1.0842e-23  1.9631e-21  1.0915e-23  2.9096e-21  1.1047e-23  4.6287e-21  1.1279e-23  7.7944e-21  1.1690e-23  1.3754e-20  1.2413e-23
      1.05  7.1456e-22  1.2056e-23  7.1486e-22  1.2056e-23  7.1540e-22  1.2056e-23  7.1635e-22  1.2056e-23  7.1804e-22  1.2056e-23  7.2103e-22  1.2057e-23  7.2629e-22  1.2057e-23  7.3566e-22  1.2059e-23  7.5205e-22  1.2062e-23  7.8065e-22  1.2067e-23  8.3077e-22  1.2075e-23  9.2061e-22  1.2090e-23  1.0803e-21  1.2116e-23  1.3636e-21  1.2163e-23  1.8690e-21  1.2246e-23  2.7767e-21  1.2394e-23  4.4267e-21  1.2656e-23  7.4668e-21  1.3119e-23  1.3197e-20  1.3935e-23
      1.10  6.7197e-22  1.3525e-23  6.7225e-22  1.3525e-23  6.7277e-22  1.3525e-23  6.7368e-22  1.3525e-23  6.7529e-22  1.3526e-23  6.7816e-22  1.3526e-23  6.8323e-22  1.3527e-23  6.9218e-22  1.3529e-23  7.0790e-22  1.3532e-23  7.3533e-22  1.3537e-23  7.8341e-22  1.3546e-23  8.6943e-22  1.3563e-23  1.0225e-21  1.3593e-23  1.2941e-21  1.3646e-23  1.7789e-21  1.3740e-23  2.6491e-21  1.3907e-23  4.2317e-21  1.4202e-23  7.1499e-21  1.4725e-23  1.2658e-20  1.5644e-23
      1.15  6.3180e-22  1.5173e-23  6.3207e-22  1.5173e-23  6.3256e-22  1.5173e-23  6.3344e-22  1.5174e-23  6.3498e-22  1.5174e-23  6.3773e-22  1.5174e-23  6.4259e-22  1.5176e-23  6.5116e-22  1.5177e-23  6.6622e-22  1.5181e-23  6.9251e-22  1.5187e-23  7.3862e-22  1.5197e-23  8.2094e-22  1.5216e-23  9.6765e-22  1.5250e-23  1.2280e-21  1.5310e-23  1.6927e-21  1.5416e-23  2.5268e-21  1.5604e-23  4.0438e-21  1.5938e-23  6.8437e-21  1.6527e-23  1.2135e-20  1.7564e-23
      1.20  5.9392e-22  1.7022e-23  5.9420e-22  1.7023e-23  5.9467e-22  1.7023e-23  5.9551e-22  1.7023e-23  5.9699e-22  1.7023e-23  5.9962e-22  1.7024e-23  6.0427e-22  1.7025e-23  6.1248e-22  1.7027e-23  6.2691e-22  1.7031e-23  6.5209e-22  1.7038e-23  6.9628e-22  1.7050e-23  7.7502e-22  1.7071e-23  9.1555e-22  1.7109e-23  1.1649e-21  1.7177e-23  1.6101e-21  1.7296e-23  2.4095e-21  1.7509e-23  3.8627e-21  1.7885e-23  6.5478e-21  1.8550e-23  1.1628e-20  1.9720e-23
      1.25  5.5827e-22  1.9097e-23  5.5853e-22  1.9097e-23  5.5898e-22  1.9098e-23  5.5978e-22  1.9098e-23  5.6119e-22  1.9098e-23  5.6371e-22  1.9099e-23  5.6815e-22  1.9100e-23  5.7601e-22  1.9103e-23  5.8980e-22  1.9107e-23  6.1390e-22  1.9115e-23  6.5619e-22  1.9128e-23  7.3141e-22  1.9152e-23  8.6582e-22  1.9195e-23  1.1045e-21  1.9271e-23  1.5303e-21  1.9407e-23  2.2952e-21  1.9646e-23  3.6854e-21  2.0071e-23  6.2566e-21  2.0822e-23  1.1127e-20  2.2143e-23
      1.30  5.2470e-22  2.1425e-23  5.2495e-22  2.1425e-23  5.2538e-22  2.1426e-23  5.2614e-22  2.1426e-23  5.2749e-22  2.1426e-23  5.2989e-22  2.1427e-23  5.3415e-22  2.1429e-23  5.4165e-22  2.1431e-23  5.5484e-22  2.1436e-23  5.7789e-22  2.1445e-23  6.1834e-22  2.1460e-23  6.9018e-22  2.1487e-23  8.1869e-22  2.1536e-23  1.0469e-21  2.1622e-23  1.4541e-21  2.1774e-23  2.1857e-21  2.2045e-23  3.5153e-21  2.2525e-23  5.9765e-21  2.3372e-23  1.0643e-20  2.4863e-23
      1.35  4.9311e-22  2.4037e-23  4.9334e-22  2.4037e-23  4.9375e-22  2.4038e-23  4.9448e-22  2.4038e-23  4.9578e-22  2.4038e-23  4.9807e-22  2.4039e-23  5.0213e-22  2.4041e-23  5.0931e-22  2.4044e-23  5.2192e-22  2.4050e-23  5.4395e-22  2.4059e-23  5.8263e-22  2.4077e-23  6.5122e-22  2.4107e-23  7.7405e-22  2.4162e-23  9.9230e-22  2.4259e-23  1.3816e-21  2.4431e-23  2.0811e-21  2.4737e-23  3.3524e-21  2.5278e-23  5.7077e-21  2.6235e-23  1.0178e-20  2.7918e-23
      1.40  4.6340e-22  2.6969e-23  4.6362e-22  2.6969e-23  4.6401e-22  2.6969e-23  4.6471e-22  2.6970e-23  4.6594e-22  2.6970e-23  4.6813e-22  2.6972e-23  4.7201e-22  2.6974e-23  4.7887e-22  2.6977e-23  4.9092e-22  2.6983e-23  5.1198e-22  2.6994e-23  5.4896e-22  2.7014e-23  6.1443e-22  2.7048e-23  7.3179e-22  2.7110e-23  9.4039e-22  2.7220e-23  1.3124e-21  2.7414e-23  1.9810e-21  2.7759e-23  3.1969e-21  2.8371e-23  5.4496e-21  2.9451e-23  9.7310e-21  3.1352e-23
      1.45  4.3546e-22  3.0259e-23  4.3567e-22  3.0259e-23  4.3604e-22  3.0259e-23  4.3670e-22  3.0260e-23  4.3788e-22  3.0261e-23  4.3997e-22  3.0262e-23  4.4367e-22  3.0264e-23  4.5021e-22  3.0268e-23  4.6171e-22  3.0275e-23  4.8180e-22  3.0287e-23  5.1709e-22  3.0309e-23  5.7947e-22  3.0349e-23  6.9141e-22  3.0418e-23  8.9043e-22  3.0542e-23  1.2453e-21  3.0762e-23  1.8833e-21  3.1151e-23  3.0439e-21  3.1842e-23  5.1945e-21  3.3062e-23  9.2872e-21  3.5210e-23
      1.50  4.0920e-22  3.3950e-23  4.0940e-22  3.3950e-23  4.0976e-22  3.3950e-23  4.1039e-22  3.3951e-23  4.1151e-22  3.3952e-23  4.1351e-22  3.3953e-23  4.1704e-22  3.3956e-23  4.2327e-22  3.3960e-23  4.3424e-22  3.3968e-23  4.5342e-22  3.3982e-23  4.8710e-22  3.4007e-23  5.4665e-22  3.4051e-23  6.5336e-22  3.4130e-23  8.4327e-22  3.4269e-23  1.1819e-21  3.4517e-23  1.7908e-21  3.4957e-23  2.8988e-21  3.5737e-23  4.9526e-21  3.7115e-23  8.8663e-21  3.9540e-23
      1.55  3.8454e-22  3.8091e-23  3.8473e-22  3.8091e-23  3.8507e-22  3.8091e-23  3.8567e-22  3.8092e-23  3.8674e-22  3.8093e-23  3.8864e-22  3.8094e-23  3.9201e-22  3.8097e-23  3.9796e-22  3.8102e-23  4.0843e-22  3.8111e-23  4.2675e-22  3.8127e-23  4.5890e-22  3.8155e-23  5.1580e-22  3.8205e-23  6.1753e-22  3.8294e-23  7.9882e-22  3.8451e-23  1.1221e-21  3.8731e-23  1.7035e-21  3.9228e-23  2.7615e-21  4.0108e-23  4.7240e-21  4.1664e-23  8.4690e-21  4.4402e-23
      1.60  3.6137e-22  4.2737e-23  3.6156e-22  4.2737e-23  3.6188e-22  4.2737e-23  3.6245e-22  4.2738e-23  3.6347e-22  4.2739e-23  3.6529e-22  4.2741e-23  3.6849e-22  4.2744e-23  3.7416e-22  4.2749e-23  3.8414e-22  4.2759e-23  4.0161e-22  4.2777e-23  4.3225e-22  4.2809e-23  4.8652e-22  4.2865e-23  5.8337e-22  4.2966e-23  7.5615e-22  4.3143e-23  1.0643e-21  4.3459e-23  1.6185e-21  4.4020e-23  2.6274e-21  4.5014e-23  4.5001e-21  4.6770e-23  8.0778e-21  4.9861e-23
      1.65  3.3963e-22  4.7949e-23  3.3980e-22  4.7949e-23  3.4011e-22  4.7950e-23  3.4066e-22  4.7950e-23  3.4163e-22  4.7951e-23  3.4335e-22  4.7953e-23  3.4641e-22  4.7957e-23  3.5181e-22  4.7963e-23  3.6132e-22  4.7975e-23  3.7798e-22  4.7995e-23  4.0718e-22  4.8031e-23  4.5894e-22  4.8094e-23  5.5117e-22  4.8207e-23  7.1583e-22  4.8408e-23  1.0096e-21  4.8765e-23  1.5379e-21  4.9397e-23  2.5000e-21  5.0518e-23  4.2874e-21  5.2500e-23  7.7051e-21  5.5990e-23
      1.70  3.1922e-22  5.3797e-23  3.1939e-22  5.3797e-23  3.1968e-22  5.3798e-23  3.2020e-22  5.3798e-23  3.2113e-22  5.3800e-23  3.2277e-22  5.3802e-23  3.2568e-22  5.3806e-23  3.3083e-22  5.3813e-23  3.3990e-22  5.3826e-23  3.5578e-22  5.3849e-23  3.8362e-22  5.3889e-23  4.3299e-22  5.3961e-23  5.2083e-22  5.4088e-23  6.7779e-22  5.4315e-23  9.5782e-22  5.4717e-23  1.4616e-21  5.5431e-23  2.3793e-21  5.6696e-23  4.0852e-21  5.8932e-23  7.3511e-21  6.2871e-23
      1.75  3.0008e-22  6.0358e-23  3.0023e-22  6.0359e-23  3.0051e-22  6.0359e-23  3.0101e-22  6.0360e-23  3.0189e-22  6.0361e-23  3.0346e-22  6.0364e-23  3.0623e-22  6.0368e-23  3.1114e-22  6.0376e-23  3.1978e-22  6.0391e-23  3.3492e-22  6.0417e-23  3.6145e-22  6.0462e-23  4.0852e-22  6.0543e-23  4.9218e-22  6.0687e-23  6.4175e-22  6.0942e-23  9.0869e-22  6.1396e-23  1.3889e-21  6.2202e-23  2.2640e-21  6.3629e-23  3.8917e-21  6.6152e-23  7.0125e-21  7.0597e-23
      1.80  2.8212e-22  6.7720e-23  2.8227e-22  6.7720e-23  2.8254e-22  6.7721e-23  2.8301e-22  6.7721e-23  2.8385e-22  6.7723e-23  2.8534e-22  6.7726e-23  2.8798e-22  6.7731e-23  2.9266e-22  6.7740e-23  3.0089e-22  6.7757e-23  3.1533e-22  6.7786e-23  3.4060e-22  6.7837e-23  3.8547e-22  6.7928e-23  4.6518e-22  6.8090e-23  6.0762e-22  6.8379e-23  8.6199e-22  6.8891e-23  1.3196e-21  6.9800e-23  2.1540e-21  7.1410e-23  3.7067e-21  7.4257e-23  6.6880e-21  7.9274e-23
      1.85  2.6529e-22  7.5979e-23  2.6543e-22  7.5980e-23  2.6569e-22  7.5980e-23  2.6614e-22  7.5981e-23  2.6694e-22  7.5983e-23  2.6835e-22  7.5986e-23  2.7087e-22  7.5992e-23  2.7532e-22  7.6002e-23  2.8316e-22  7.6021e-23  2.9691e-22  7.6053e-23  3.2097e-22  7.6111e-23  3.6373e-22  7.6214e-23  4.3968e-22  7.6397e-23  5.7517e-22  7.6723e-23  8.1742e-22  7.7300e-23  1.2532e-21  7.8326e-23  2.0482e-21  8.0143e-23  3.5284e-21  8.3356e-23  6.3746e-21  8.9017e-23
      1.90  2.4951e-22  8.5246e-23  2.4965e-22  8.5247e-23  2.4989e-22  8.5247e-23  2.5032e-22  8.5248e-23  2.5108e-22  8.5250e-23  2.5243e-22  8.5254e-23  2.5482e-22  8.5261e-23  2.5905e-22  8.5272e-23  2.6651e-22  8.5293e-23  2.7961e-22  8.5330e-23  3.0250e-22  8.5395e-23  3.4323e-22  8.5511e-23  4.1554e-22  8.5718e-23  5.4436e-22  8.6085e-23  7.7494e-22  8.6737e-23  1.1898e-21  8.7893e-23  1.9467e-21  8.9944e-23  3.3573e-21  9.3569e-23  6.0730e-21  9.9960e-23
      1.95  2.3473e-22  9.5644e-23  2.3486e-22  9.5644e-23  2.3509e-22  9.5645e-23  2.3549e-22  9.5646e-23  2.3621e-22  9.5648e-23  2.3750e-22  9.5652e-23  2.3977e-22  9.5660e-23  2.4379e-22  9.5673e-23  2.5089e-22  9.5696e-23  2.6336e-22  9.5738e-23  2.8512e-22  9.5812e-23  3.2388e-22  9.5943e-23  3.9268e-22  9.6176e-23  5.1510e-22  9.6590e-23  7.3442e-22  9.7325e-23  1.1290e-21  9.8630e-23  1.8494e-21  1.0094e-22  3.1928e-21  1.0504e-22  5.7827e-21  1.1225e-22
      2.00  2.2088e-22  1.0731e-22  2.2100e-22  1.0731e-22  2.2122e-22  1.0731e-22  2.2160e-22  1.0731e-22  2.2229e-22  1.0731e-22  2.2351e-22  1.0732e-22  2.2567e-22  1.0733e-22  2.2949e-22  1.0734e-22  2.3624e-22  1.0737e-22  2.4810e-22  1.0742e-22  2.6881e-22  1.0750e-22  3.0565e-22  1.0765e-22  3.7107e-22  1.0791e-22  4.8737e-22  1.0838e-22  6.9590e-22  1.0921e-22  1.0711e-21  1.1068e-22  1.7565e-21  1.1329e-22  3.0364e-21  1.1791e-22  5.5052e-21  1.2605e-22
      2.05  2.0791e-22  1.2040e-22  2.0802e-22  1.2040e-22  2.0823e-22  1.2040e-22  2.0859e-22  1.2040e-22  2.0925e-22  1.2040e-22  2.1040e-22  1.2041e-22  2.1246e-22  1.2042e-22  2.1609e-22  1.2044e-22  2.2251e-22  1.2047e-22  2.3378e-22  1.2052e-22  2.5350e-22  1.2061e-22  2.8851e-22  1.2078e-22  3.5071e-22  1.2108e-22  4.6120e-22  1.2160e-22  6.5947e-22  1.2254e-22  1.0162e-21  1.2420e-22  1.6685e-21  1.2715e-22  2.8877e-21  1.3236e-22  5.2418e-21  1.4155e-22
      2.10  1.9576e-22  1.3508e-22  1.9587e-22  1.3508e-22  1.9607e-22  1.3509e-22  1.9641e-22  1.3509e-22  1.9703e-22  1.3509e-22  1.9814e-22  1.3510e-22  2.0009e-22  1.3511e-22  2.0354e-22  1.3513e-22  2.0965e-22  1.3516e-22  2.2038e-22  1.3522e-22  2.3916e-22  1.3533e-22  2.7246e-22  1.3551e-22  3.3164e-22  1.3585e-22  4.3684e-22  1.3644e-22  6.2542e-22  1.3750e-22  9.6509e-22  1.3937e-22  1.5863e-21  1.4270e-22  2.7487e-21  1.4858e-22  4.9961e-21  1.5895e-22
      2.15  1.8439e-22  1.5156e-22  1.8449e-22  1.5156e-22  1.8468e-22  1.5156e-22  1.8501e-22  1.5157e-22  1.8560e-22  1.5157e-22  1.8665e-22  1.5158e-22  1.8851e-22  1.5159e-22  1.9181e-22  1.5161e-22  1.9763e-22  1.5165e-22  2.0787e-22  1.5171e-22  2.2579e-22  1.5183e-22  2.5753e-22  1.5205e-22  3.1398e-22  1.5242e-22  4.1442e-22  1.5309e-22  5.9422e-22  1.5428e-22  9.1843e-22  1.5640e-22  1.5114e-21  1.6015e-22  2.6225e-21  1.6678e-22  4.7734e-21  1.7849e-22
      2.20  1.7375e-22  1.7005e-22  1.7385e-22  1.7005e-22  1.7403e-22  1.7005e-22  1.7435e-22  1.7005e-22  1.7491e-22  1.7006e-22  1.7591e-22  1.7007e-22  1.7769e-22  1.7008e-22  1.8085e-22  1.7010e-22  1.8642e-22  1.7015e-22  1.9623e-22  1.7022e-22  2.1341e-22  1.7036e-22  2.4380e-22  1.7059e-22  2.9787e-22  1.7102e-22  3.9420e-22  1.7178e-22  5.6644e-22  1.7312e-22  8.7726e-22  1.7550e-22  1.4457e-21  1.7972e-22  2.5127e-21  1.8720e-22  4.5805e-21  2.0041e-22
      2.25  1.6379e-22  1.9079e-22  1.6389e-22  1.9079e-22  1.6406e-22  1.9079e-22  1.6437e-22  1.9080e-22  1.6491e-22  1.9080e-22  1.6588e-22  1.9081e-22  1.6759e-22  1.9083e-22  1.7062e-22  1.9085e-22  1.7599e-22  1.9090e-22  1.8545e-22  1.9099e-22  2.0203e-22  1.9114e-22  2.3132e-22  1.9141e-22  2.8346e-22  1.9189e-22  3.7645e-22  1.9274e-22  5.4257e-22  1.9425e-22  8.4244e-22  1.9693e-22  1.3908e-21  2.0169e-22  2.4219e-21  2.1012e-22  4.4220e-21  2.2501e-22
      2.30  1.5448e-22  2.1407e-22  1.5457e-22  2.1407e-22  1.5474e-22  2.1407e-22  1.5504e-22  2.1407e-22  1.5556e-22  2.1408e-22  1.5650e-22  2.1409e-22  1.5816e-22  2.1410e-22  1.6111e-22  2.1413e-22  1.6632e-22  2.1419e-22  1.7551e-22  2.1428e-22  1.9163e-22  2.1445e-22  2.2009e-22  2.1476e-22  2.7078e-22  2.1530e-22  3.6123e-22  2.1626e-22  5.2269e-22  2.1796e-22  8.1410e-22  2.2098e-22  1.3469e-21  2.2634e-22  2.3501e-21  2.3584e-22  4.2967e-21  2.5262e-22
      2.35  1.4577e-22  2.4018e-22  1.4586e-22  2.4018e-22  1.4603e-22  2.4018e-22  1.4632e-22  2.4019e-22  1.4683e-22  2.4019e-22  1.4775e-22  2.4020e-22  1.4937e-22  2.4022e-22  1.5225e-22  2.4026e-22  1.5735e-22  2.4032e-22  1.6634e-22  2.4042e-22  1.8214e-22  2.4062e-22  2.1000e-22  2.4096e-22  2.5962e-22  2.4157e-22  3.4823e-22  2.4264e-22  5.0625e-22  2.4456e-22  7.9110e-22  2.4796e-22  1.3118e-21  2.5400e-22  2.2936e-21  2.6470e-22  4.1978e-21  2.8361e-22
      2.40  1.3763e-22  2.6948e-22  1.3772e-22  2.6948e-22  1.3788e-22  2.6948e-22  1.3816e-22  2.6949e-22  1.3867e-22  2.6949e-22  1.3957e-22  2.6950e-22  1.4116e-22  2.6953e-22  1.4399e-22  2.6956e-22  1.4901e-22  2.6963e-22  1.5786e-22  2.6976e-22  1.7342e-22  2.6997e-22  2.0083e-22  2.7036e-22  2.4964e-22  2.7104e-22  3.3680e-22  2.7225e-22  4.9215e-22  2.7441e-22  7.7165e-22  2.7824e-22  1.2825e-21  2.8504e-22  2.2467e-21  2.9709e-22  4.1142e-21  3.1842e-22
      2.45  1.3001e-22  3.0235e-22  1.3010e-22  3.0235e-22  1.3026e-22  3.0236e-22  1.3054e-22  3.0236e-22  1.3104e-22  3.0237e-22  1.3192e-22  3.0238e-22  1.3350e-22  3.0241e-22  1.3629e-22  3.0245e-22  1.4123e-22  3.0253e-22  1.4995e-22  3.0266e-22  1.6531e-22  3.0291e-22  1.9233e-22  3.0334e-22  2.4044e-22  3.0411e-22  3.2632e-22  3.0548e-22  4.7928e-22  3.0791e-22  7.5399e-22  3.1222e-22  1.2563e-21  3.1988e-22  2.2040e-21  3.3347e-22  4.0371e-21  3.5753e-22
      2.50  1.2290e-22  3.3924e-22  1.2298e-22  3.3924e-22  1.2314e-22  3.3924e-22  1.2342e-22  3.3925e-22  1.2391e-22  3.3926e-22  1.2478e-22  3.3927e-22  1.2633e-22  3.3930e-22  1.2907e-22  3.3935e-22  1.3394e-22  3.3943e-22  1.4255e-22  3.3959e-22  1.5770e-22  3.3986e-22  1.8434e-22  3.4035e-22  2.3177e-22  3.4122e-22  3.1633e-22  3.4276e-22  4.6689e-22  3.4549e-22  7.3682e-22  3.5036e-22  1.2311e-21  3.5899e-22  2.1621e-21  3.7431e-22  3.9606e-21  4.0148e-22
      2.55  1.1625e-22  3.8062e-22  1.1633e-22  3.8062e-22  1.1649e-22  3.8063e-22  1.1676e-22  3.8063e-22  1.1724e-22  3.8064e-22  1.1810e-22  3.8066e-22  1.1962e-22  3.8069e-22  1.2232e-22  3.8075e-22  1.2712e-22  3.8084e-22  1.3559e-22  3.8102e-22  1.5052e-22  3.8133e-22  1.7675e-22  3.8188e-22  2.2345e-22  3.8285e-22  3.0657e-22  3.8459e-22  4.5451e-22  3.8767e-22  7.1958e-22  3.9315e-22  1.2054e-21  4.0289e-22  2.1192e-21  4.2018e-22  3.8822e-21  4.5089e-22
      2.60  1.1003e-22  4.2706e-22  1.1012e-22  4.2706e-22  1.1027e-22  4.2706e-22  1.1053e-22  4.2707e-22  1.1101e-22  4.2708e-22  1.1185e-22  4.2710e-22  1.1335e-22  4.2713e-22  1.1600e-22  4.2720e-22  1.2071e-22  4.2731e-22  1.2903e-22  4.2750e-22  1.4372e-22  4.2785e-22  1.6951e-22  4.2847e-22  2.1536e-22  4.2957e-22  2.9690e-22  4.3153e-22  4.4191e-22  4.3501e-22  7.0194e-22  4.4119e-22  1.1790e-21  4.5217e-22  2.0747e-21  4.7169e-22  3.8001e-21  5.0641e-22
      2.65  1.0423e-22  4.7916e-22  1.0431e-22  4.7916e-22  1.0446e-22  4.7916e-22  1.0472e-22  4.7917e-22  1.0518e-22  4.7918e-22  1.0601e-22  4.7920e-22  1.0747e-22  4.7924e-22  1.1008e-22  4.7931e-22  1.1469e-22  4.7944e-22  1.2286e-22  4.7966e-22  1.3726e-22  4.8005e-22  1.6257e-22  4.8075e-22  2.0748e-22  4.8199e-22  2.8725e-22  4.8420e-22  4.2912e-22  4.8812e-22  6.8382e-22  4.9509e-22  1.1514e-21  5.0749e-22  2.0276e-21  5.2952e-22  3.7131e-21  5.6877e-22
      2.70  9.8805e-23  5.3761e-22  9.8886e-23  5.3762e-22  9.9030e-23  5.3762e-22  9.9285e-23  5.3763e-22  9.9739e-23  5.3764e-22  1.0055e-22  5.3767e-22  1.0198e-22  5.3771e-22  1.0453e-22  5.3779e-22  1.0904e-22  5.3793e-22  1.1703e-22  5.3818e-22  1.3113e-22  5.3862e-22  1.5592e-22  5.3941e-22  1.9979e-22  5.4081e-22  2.7765e-22  5.4329e-22  4.1632e-22  5.4772e-22  6.6538e-22  5.5558e-22  1.1227e-21  5.6956e-22  1.9781e-21  5.9444e-22  3.6218e-21  6.3878e-22
      2.75  9.3742e-23  6.0320e-22  9.3821e-23  6.0320e-22  9.3961e-23  6.0321e-22  9.4211e-23  6.0322e-22  9.4654e-23  6.0323e-22  9.5442e-23  6.0326e-22  9.6842e-23  6.0331e-22  9.9328e-23  6.0340e-22  1.0374e-22  6.0356e-22  1.1154e-22  6.0384e-22  1.2532e-22  6.0434e-22  1.4954e-22  6.0522e-22  1.9232e-22  6.0680e-22  2.6817e-22  6.0960e-22  4.0352e-22  6.1459e-22  6.4671e-22  6.2345e-22  1.0933e-21  6.3922e-22  1.9275e-21  6.6728e-22  3.5281e-21  7.1734e-22
      2.80  8.9015e-23  6.7679e-22  8.9092e-23  6.7679e-22  8.9229e-23  6.7680e-22  8.9472e-23  6.7681e-22  8.9904e-23  6.7683e-22  9.0673e-23  6.7686e-22  9.2038e-23  6.7692e-22  9.4462e-23  6.7702e-22  9.8760e-23  6.7719e-22  1.0637e-22  6.7751e-22  1.1981e-22  6.7807e-22  1.4343e-22  6.7907e-22  1.8507e-22  6.8085e-22  2.5895e-22  6.8400e-22  3.9089e-22  6.8962e-22  6.2797e-22  6.9960e-22  1.0635e-21  7.1738e-22  1.8762e-21  7.4900e-22  3.4341e-21  8.0544e-22
      2.85  8.4603e-23  7.5936e-22  8.4678e-23  7.5936e-22  8.4811e-23  7.5937e-22  8.5048e-23  7.5938e-22  8.5469e-23  7.5940e-22  8.6217e-23  7.5944e-22  8.7546e-23  7.5950e-22  8.9907e-23  7.5961e-22  9.4093e-23  7.5981e-22  1.0151e-22  7.6017e-22  1.1459e-22  7.6080e-22  1.3760e-22  7.6193e-22  1.7809e-22  7.6393e-22  2.4998e-22  7.6748e-22  3.7847e-22  7.7380e-22  6.0935e-22  7.8505e-22  1.0337e-21  8.0506e-22  1.8247e-21  8.4067e-22  3.3396e-21  9.0423e-22
      2.90  8.0485e-23  8.5200e-22  8.0558e-23  8.5201e-22  8.0687e-23  8.5201e-22  8.0918e-23  8.5203e-22  8.1327e-23  8.5205e-22  8.2055e-23  8.5209e-22  8.3348e-23  8.5216e-22  8.5644e-23  8.5229e-22  8.9717e-23  8.5251e-22  9.6928e-23  8.5291e-22  1.0966e-22  8.5363e-22  1.3205e-22  8.5489e-22  1.7139e-22  8.5714e-22  2.4129e-22  8.6114e-22  3.6631e-22  8.6826e-22  5.9092e-22  8.8092e-22  1.0041e-21  9.0344e-22  1.7732e-21  9.4351e-22  3.2452e-21  1.0150e-21
      2.95  7.6642e-23  9.5595e-22  7.6713e-23  9.5595e-22  7.6839e-23  9.5596e-22  7.7063e-23  9.5598e-22  7.7461e-23  9.5600e-22  7.8168e-23  9.5605e-22  7.9425e-23  9.5613e-22  8.1656e-23  9.5627e-22  8.5614e-23  9.5652e-22  9.2621e-23  9.5697e-22  1.0500e-22  9.5777e-22  1.2676e-22  9.5920e-22  1.6497e-22  9.6173e-22  2.3290e-22  9.6623e-22  3.5439e-22  9.7424e-22  5.7276e-22  9.8848e-22  9.7453e-22  1.0138e-21  1.7219e-21  1.0589e-21  3.1513e-21  1.1392e-21
      3.00  7.3058e-23  1.0726e-21  7.3127e-23  1.0726e-21  7.3249e-23  1.0726e-21  7.3466e-23  1.0726e-21  7.3852e-23  1.0726e-21  7.4539e-23  1.0727e-21  7.5758e-23  1.0728e-21  7.7924e-23  1.0729e-21  8.1765e-23  1.0732e-21  8.8567e-23  1.0737e-21  1.0058e-22  1.0746e-21  1.2171e-22  1.0762e-21  1.5880e-22  1.0791e-21  2.2477e-22  1.0841e-21  3.4266e-22  1.0932e-21  5.5484e-22  1.1092e-21  9.4492e-22  1.1377e-21  1.6703e-21  1.1883e-21  3.0573e-21  1.2786e-21
      3.05  6.9715e-23  1.2034e-21  6.9781e-23  1.2034e-21  6.9900e-23  1.2035e-21  7.0110e-23  1.2035e-21  7.0485e-23  1.2035e-21  7.1150e-23  1.2036e-21  7.2332e-23  1.2037e-21  7.4430e-23  1.2038e-21  7.8153e-23  1.2042e-21  8.4746e-23  1.2047e-21  9.6391e-23  1.2057e-21  1.1689e-22  1.2075e-21  1.5286e-22  1.2108e-21  2.1681e-22  1.2165e-21  3.3104e-22  1.2266e-21  5.3688e-22  1.2446e-21  9.1510e-22  1.2767e-21  1.6184e-21  1.3336e-21  2.9626e-21  1.4350e-21
      3.10  6.6597e-23  1.3503e-21  6.6662e-23  1.3503e-21  6.6776e-23  1.3503e-21  6.6980e-23  1.3503e-21  6.7342e-23  1.3503e-21  6.7985e-23  1.3504e-21  6.9129e-23  1.3505e-21  7.1159e-23  1.3507e-21  7.4761e-23  1.3511e-21  8.1140e-23  1.3517e-21  9.2411e-23  1.3529e-21  1.1225e-22  1.3549e-21  1.4711e-22  1.3585e-21  2.0897e-22  1.3649e-21  3.1946e-22  1.3763e-21  5.1879e-22  1.3966e-21  8.8491e-22  1.4327e-21  1.5657e-21  1.4967e-21  2.8667e-21  1.6105e-21
      3.15  6.3691e-23  1.5150e-21  6.3753e-23  1.5150e-21  6.3863e-23  1.5150e-21  6.4060e-23  1.5150e-21  6.4409e-23  1.5151e-21  6.5031e-23  1.5151e-21  6.6134e-23  1.5153e-21  6.8095e-23  1.5155e-21  7.1573e-23  1.5159e-21  7.7734e-23  1.5166e-21  8.8622e-23  1.5179e-21  1.0780e-22  1.5202e-21  1.4150e-22  1.5243e-21  2.0124e-22  1.5315e-21  3.0790e-22  1.5443e-21  5.0057e-22  1.5672e-21  8.5431e-22  1.6077e-21  1.5121e-21  1.6797e-21  2.7694e-21  1.8076e-21
      3.20  6.0981e-23  1.6998e-21  6.1041e-23  1.6998e-21  6.1147e-23  1.6998e-21  6.1337e-23  1.6999e-21  6.1674e-23  1.6999e-21  6.2272e-23  1.7000e-21  6.3336e-23  1.7001e-21  6.5225e-23  1.7004e-21  6.8576e-23  1.7009e-21  7.4515e-23  1.7017e-21  8.5014e-23  1.7031e-21  1.0351e-22  1.7057e-21  1.3603e-22  1.7103e-21  1.9361e-22  1.7184e-21  2.9638e-22  1.7328e-21  4.8226e-22  1.7585e-21  8.2343e-22  1.8042e-21  1.4580e-21  1.8852e-21  2.6710e-21  2.0289e-21
      3.25  5.8456e-23  1.9072e-21  5.8513e-23  1.9072e-21  5.8616e-23  1.9072e-21  5.8798e-23  1.9073e-21  5.9122e-23  1.9073e-21  5.9697e-23  1.9074e-21  6.0720e-23  1.9076e-21  6.2537e-23  1.9079e-21  6.5762e-23  1.9084e-21  7.1476e-23  1.9093e-21  8.1582e-23  1.9109e-21  9.9398e-23  1.9138e-21  1.3072e-22  1.9190e-21  1.8612e-22  1.9281e-21  2.8495e-22  1.9444e-21  4.6398e-22  1.9733e-21  7.9248e-22  2.0247e-21  1.4036e-21  2.1158e-21  2.5723e-21  2.2775e-21
      3.30  5.6103e-23  2.1399e-21  5.6158e-23  2.1399e-21  5.6257e-23  2.1399e-21  5.6432e-23  2.1400e-21  5.6743e-23  2.1400e-21  5.7295e-23  2.1401e-21  5.8278e-23  2.1403e-21  6.0023e-23  2.1406e-21  6.3120e-23  2.1412e-21  6.8611e-23  2.1422e-21  7.8324e-23  2.1441e-21  9.5456e-23  2.1473e-21  1.2558e-22  2.1531e-21  1.7880e-22  2.1634e-21  2.7372e-22  2.1817e-21  4.4592e-22  2.2144e-21  7.6182e-22  2.2722e-21  1.3497e-21  2.3748e-21  2.4744e-21  2.5566e-21
      3.35  5.3911e-23  2.4010e-21  5.3964e-23  2.4010e-21  5.4059e-23  2.4010e-21  5.4226e-23  2.4010e-21  5.4525e-23  2.4011e-21  5.5055e-23  2.4012e-21  5.5997e-23  2.4014e-21  5.7671e-23  2.4018e-21  6.0643e-23  2.4024e-21  6.5913e-23  2.4036e-21  7.5237e-23  2.4057e-21  9.1694e-23  2.4093e-21  1.2064e-22  2.4159e-21  1.7172e-22  2.4275e-21  2.6281e-22  2.4481e-21  4.2832e-22  2.4848e-21  7.3185e-22  2.5500e-21  1.2969e-21  2.6655e-21  2.3784e-21  2.8701e-21
      3.40  5.1870e-23  2.6939e-21  5.1921e-23  2.6939e-21  5.2011e-23  2.6939e-21  5.2172e-23  2.6940e-21  5.2458e-23  2.6940e-21  5.2966e-23  2.6942e-21  5.3869e-23  2.6944e-21  5.5474e-23  2.6948e-21  5.8324e-23  2.6956e-21  6.3377e-23  2.6969e-21  7.2322e-23  2.6992e-21  8.8118e-23  2.7033e-21  1.1592e-22  2.7107e-21  1.6494e-22  2.7237e-21  2.5230e-22  2.7470e-21  4.1128e-22  2.7884e-21  7.0282e-22  2.8618e-21  1.2458e-21  2.9918e-21  2.2856e-21  3.2222e-21
      3.45  4.9969e-23  3.0225e-21  5.0018e-23  3.0226e-21  5.0104e-23  3.0226e-21  5.0258e-23  3.0226e-21  5.0532e-23  3.0227e-21  5.1019e-23  3.0229e-21  5.1884e-23  3.0231e-21  5.3422e-23  3.0236e-21  5.6152e-23  3.0244e-21  6.0996e-23  3.0259e-21  6.9573e-23  3.0285e-21  8.4726e-23  3.0332e-21  1.1141e-22  3.0415e-21  1.5847e-22  3.0562e-21  2.4221e-22  3.0824e-21  3.9499e-22  3.1290e-21  6.7502e-22  3.2117e-21  1.1968e-21  3.3582e-21  2.1966e-21  3.6176e-21
      3.50  4.8199e-23  3.3913e-21  4.8246e-23  3.3913e-21  4.8329e-23  3.3913e-21  4.8476e-23  3.3914e-21  4.8738e-23  3.3915e-21  4.9205e-23  3.3917e-21  5.0033e-23  3.3920e-21  5.1505e-23  3.3925e-21  5.4120e-23  3.3934e-21  5.8760e-23  3.3951e-21  6.6979e-23  3.3980e-21  8.1507e-23  3.4033e-21  1.0711e-22  3.4126e-21  1.5227e-22  3.4292e-21  2.3253e-22  3.4587e-21  3.7935e-22  3.5113e-21  6.4838e-22  3.6044e-21  1.1501e-21  3.7695e-21  2.1119e-21  4.0617e-21
      3.55  4.6552e-23  3.8050e-21  4.6597e-23  3.8051e-21  4.6676e-23  3.8051e-21  4.6817e-23  3.8052e-21  4.7068e-23  3.8053e-21  4.7514e-23  3.8054e-21  4.8306e-23  3.8058e-21  4.9715e-23  3.8064e-21  5.2217e-23  3.8074e-21  5.6657e-23  3.8093e-21  6.4527e-23  3.8126e-21  7.8447e-23  3.8185e-21  1.0300e-22  3.8291e-21  1.4632e-22  3.8478e-21  2.2323e-22  3.8810e-21  3.6427e-22  3.9403e-21  6.2272e-22  4.0453e-21  1.1052e-21  4.2312e-21  2.0311e-21  4.5605e-21
      3.60  4.5019e-23  4.2693e-21  4.5062e-23  4.2693e-21  4.5138e-23  4.2693e-21  4.5272e-23  4.2694e-21  4.5512e-23  4.2695e-21  4.5938e-23  4.2697e-21  4.6695e-23  4.2701e-21  4.8041e-23  4.2707e-21  5.0432e-23  4.2719e-21  5.4676e-23  4.2740e-21  6.2201e-23  4.2778e-21  7.5521e-23  4.2845e-21  9.9040e-23  4.2963e-21  1.4055e-22  4.3174e-21  2.1427e-22  4.3548e-21  3.4962e-22  4.4217e-21  5.9779e-22  4.5400e-21  1.0617e-21  4.7496e-21  1.9531e-21  5.1208e-21
      3.65  4.3593e-23  4.7901e-21  4.3634e-23  4.7901e-21  4.3706e-23  4.7902e-21  4.3834e-23  4.7902e-21  4.4063e-23  4.7904e-21  4.4469e-23  4.7906e-21  4.5190e-23  4.7910e-21  4.6473e-23  4.7918e-21  4.8753e-23  4.7931e-21  5.2801e-23  4.7955e-21  5.9982e-23  4.7997e-21  7.2704e-23  4.8072e-21  9.5192e-23  4.8206e-21  1.3492e-22  4.8444e-21  2.0554e-22  4.8866e-21  3.3522e-22  4.9620e-21  5.7330e-22  5.0954e-21  1.0191e-21  5.3316e-21  1.8773e-21  5.7500e-21
      3.70  4.2266e-23  5.3745e-21  4.2305e-23  5.3745e-21  4.2373e-23  5.3745e-21  4.2495e-23  5.3746e-21  4.2712e-23  5.3748e-21  4.3098e-23  5.3750e-21  4.3784e-23  5.3755e-21  4.5004e-23  5.3764e-21  4.7171e-23  5.3779e-21  5.1021e-23  5.3806e-21  5.7855e-23  5.3853e-21  6.9973e-23  5.3938e-21  9.1426e-23  5.4089e-21  1.2936e-22  5.4356e-21  1.9696e-22  5.4833e-21  3.2100e-22  5.5683e-21  5.4907e-22  5.7187e-21  9.7692e-22  5.9850e-21  1.8026e-21  6.4566e-21
      3.75  4.1032e-23  6.0301e-21  4.1068e-23  6.0302e-21  4.1133e-23  6.0302e-21  4.1249e-23  6.0303e-21  4.1454e-23  6.0305e-21  4.1820e-23  6.0308e-21  4.2469e-23  6.0313e-21  4.3624e-23  6.0323e-21  4.5677e-23  6.0340e-21  4.9326e-23  6.0370e-21  5.5807e-23  6.0424e-21  6.7311e-23  6.0519e-21  8.7714e-23  6.0689e-21  1.2386e-22  6.0991e-21  1.8848e-22  6.1529e-21  3.0691e-22  6.2488e-21  5.2503e-22  6.4183e-21  9.3528e-22  6.7185e-21  1.7290e-21  7.2502e-21
      3.80  3.9884e-23  6.7658e-21  3.9919e-23  6.7658e-21  3.9980e-23  6.7659e-21  4.0089e-23  6.7660e-21  4.0283e-23  6.7662e-21  4.0627e-23  6.7665e-21  4.1239e-23  6.7671e-21  4.2328e-23  6.7682e-21  4.4264e-23  6.7701e-21  4.7706e-23  6.7735e-21  5.3826e-23  6.7796e-21  6.4705e-23  6.7903e-21  8.4039e-23  6.8095e-21  1.1839e-22  6.8435e-21  1.8000e-22  6.9043e-21  2.9280e-22  7.0124e-21  5.0099e-22  7.2035e-21  8.9362e-22  7.5420e-21  1.6560e-21  8.1413e-21
      3.85  3.8817e-23  7.5911e-21  3.8850e-23  7.5912e-21  3.8907e-23  7.5913e-21  3.9009e-23  7.5914e-21  3.9191e-23  7.5916e-21  3.9514e-23  7.5920e-21  4.0088e-23  7.5927e-21  4.1109e-23  7.5939e-21  4.2925e-23  7.5960e-21  4.6157e-23  7.5999e-21  5.1907e-23  7.6067e-21  6.2147e-23  7.6189e-21  8.0391e-23  7.6404e-21  1.1292e-22  7.6788e-21  1.7142e-22  7.7474e-21  2.7845e-22  7.8693e-21  4.7660e-22  8.0848e-21  8.5180e-22  8.4664e-21  1.5830e-21  9.1420e-21
      3.90  3.7826e-23  8.5172e-21  3.7856e-23  8.5172e-21  3.7909e-23  8.5173e-21  3.8004e-23  8.5175e-21  3.8174e-23  8.5177e-21  3.8474e-23  8.5181e-21  3.9009e-23  8.5189e-21  3.9961e-23  8.5203e-21  4.1655e-23  8.5227e-21  4.4671e-23  8.5270e-21  5.0044e-23  8.5347e-21  5.9632e-23  8.5484e-21  7.6764e-23  8.5728e-21  1.0744e-22  8.6160e-21  1.6273e-22  8.6935e-21  2.6387e-22  8.8309e-21  4.5168e-22  9.0738e-21  8.0916e-22  9.5040e-21  1.5099e-21  1.0266e-20
      3.95  3.6904e-23  9.5562e-21  3.6932e-23  9.5563e-21  3.6981e-23  9.5563e-21  3.7069e-23  9.5565e-21  3.7226e-23  9.5568e-21  3.7504e-23  9.5573e-21  3.7999e-23  9.5581e-21  3.8881e-23  9.5597e-21  4.0450e-23  9.5624e-21  4.3245e-23  9.5673e-21  4.8234e-23  9.5760e-21  5.7155e-23  9.5914e-21  7.3153e-23  9.6188e-21  1.0194e-22  9.6676e-21  1.5392e-22  9.7551e-21  2.4902e-22  9.9100e-21  4.2633e-22  1.0184e-20  7.6564e-22  1.0669e-20  1.4357e-21  1.1527e-20
