# This was generated using Cloudy10 and the columns are ordered 
# as log10 of the fraction of the metallicity to the solar metallicity
# 'h_*_Z' and 'c_*_Z' stands for cooling and heating respectively 
# at * metalicity
#
# NOTE: This was generated separately from loop_coolingcurve_w_UV.py
#       using Output_metals_w_redshift.py.
#
# Redshift = 6.5
# hden = -2.0
#
#     temp   h_-3.00_Z   c_-3.00_Z   h_-2.75_Z   c_-2.75_Z   h_-2.50_Z   c_-2.50_Z   h_-2.25_Z   c_-2.25_Z   h_-2.00_Z   c_-2.00_Z   h_-1.75_Z   c_-1.75_Z   h_-1.50_Z   c_-1.50_Z   h_-1.25_Z   c_-1.25_Z   h_-1.00_Z   c_-1.00_Z   h_-0.75_Z   c_-0.75_Z   h_-0.50_Z   c_-0.50_Z   h_-0.25_Z   c_-0.25_Z    h_0.00_Z    c_0.00_Z    h_0.25_Z    c_0.25_Z    h_0.50_Z    c_0.50_Z    h_0.75_Z    c_0.75_Z    h_1.00_Z    c_1.00_Z    h_1.25_Z    c_1.25_Z    h_1.50_Z    c_1.50_Z 
      1.00  1.0581e-22  2.0854e-26  1.0581e-22  2.0854e-26  1.0581e-22  2.0855e-26  1.0582e-22  2.0856e-26  1.0582e-22  2.0858e-26  1.0583e-22  2.0862e-26  1.0584e-22  2.0869e-26  1.0586e-22  2.0881e-26  1.0590e-22  2.0902e-26  1.0597e-22  2.0939e-26  1.0609e-22  2.1006e-26  1.0630e-22  2.1124e-26  1.0669e-22  2.1335e-26  1.0737e-22  2.1711e-26  1.0858e-22  2.2380e-26  1.1074e-22  2.3575e-26  1.1459e-22  2.5713e-26  1.2143e-22  2.9561e-26  1.3363e-22  3.6540e-26
      1.05  1.0261e-22  2.2652e-26  1.0261e-22  2.2653e-26  1.0261e-22  2.2654e-26  1.0261e-22  2.2657e-26  1.0262e-22  2.2662e-26  1.0262e-22  2.2670e-26  1.0264e-22  2.2685e-26  1.0266e-22  2.2712e-26  1.0269e-22  2.2761e-26  1.0276e-22  2.2846e-26  1.0288e-22  2.2998e-26  1.0309e-22  2.3269e-26  1.0347e-22  2.3751e-26  1.0414e-22  2.4609e-26  1.0533e-22  2.6138e-26  1.0746e-22  2.8869e-26  1.1123e-22  3.3759e-26  1.1796e-22  4.2565e-26  1.2994e-22  5.8564e-26
      1.10  9.9414e-23  2.4580e-26  9.9415e-23  2.4582e-26  9.9416e-23  2.4585e-26  9.9418e-23  2.4590e-26  9.9422e-23  2.4601e-26  9.9428e-23  2.4618e-26  9.9440e-23  2.4650e-26  9.9461e-23  2.4707e-26  9.9498e-23  2.4808e-26  9.9563e-23  2.4988e-26  9.9681e-23  2.5307e-26  9.9889e-23  2.5875e-26  1.0026e-22  2.6886e-26  1.0092e-22  2.8686e-26  1.0209e-22  3.1896e-26  1.0417e-22  3.7627e-26  1.0788e-22  4.7897e-26  1.1448e-22  6.6401e-26  1.2625e-22  1.0006e-25
      1.15  9.6230e-23  2.6645e-26  9.6231e-23  2.6648e-26  9.6232e-23  2.6654e-26  9.6234e-23  2.6666e-26  9.6238e-23  2.6685e-26  9.6244e-23  2.6720e-26  9.6256e-23  2.6782e-26  9.6276e-23  2.6893e-26  9.6312e-23  2.7090e-26  9.6377e-23  2.7439e-26  9.6492e-23  2.8061e-26  9.6696e-23  2.9168e-26  9.7059e-23  3.1138e-26  9.7705e-23  3.4645e-26  9.8854e-23  4.0898e-26  1.0090e-22  5.2068e-26  1.0453e-22  7.2088e-26  1.1101e-22  1.0818e-25  1.2254e-22  1.7391e-25
      1.20  9.3062e-23  2.8854e-26  9.3063e-23  2.8860e-26  9.3064e-23  2.8871e-26  9.3066e-23  2.8891e-26  9.3070e-23  2.8927e-26  9.3076e-23  2.8991e-26  9.3087e-23  2.9104e-26  9.3107e-23  2.9305e-26  9.3143e-23  2.9663e-26  9.3206e-23  3.0300e-26  9.3318e-23  3.1432e-26  9.3518e-23  3.3446e-26  9.3874e-23  3.7032e-26  9.4507e-23  4.3417e-26  9.5632e-23  5.4801e-26  9.7634e-23  7.5140e-26  1.0120e-22  1.1161e-25  1.0754e-22  1.7739e-25  1.1883e-22  2.9727e-25
      1.25  8.9914e-23  3.1213e-26  8.9914e-23  3.1224e-26  8.9915e-23  3.1244e-26  8.9917e-23  3.1278e-26  8.9921e-23  3.1339e-26  8.9927e-23  3.1448e-26  8.9938e-23  3.1642e-26  8.9958e-23  3.1986e-26  8.9993e-23  3.2598e-26  9.0054e-23  3.3687e-26  9.0165e-23  3.5623e-26  9.0360e-23  3.9069e-26  9.0709e-23  4.5201e-26  9.1328e-23  5.6122e-26  9.2429e-23  7.5596e-26  9.4388e-23  1.1039e-25  9.7874e-23  1.7280e-25  1.0408e-22  2.8542e-25  1.1513e-22  4.9086e-25
      1.30  8.6790e-23  3.3731e-26  8.6790e-23  3.3749e-26  8.6791e-23  3.3780e-26  8.6793e-23  3.3836e-26  8.6796e-23  3.3935e-26  8.6803e-23  3.4110e-26  8.6813e-23  3.4423e-26  8.6832e-23  3.4979e-26  8.6866e-23  3.5968e-26  8.6927e-23  3.7727e-26  8.7035e-23  4.0855e-26  8.7226e-23  4.6422e-26  8.7567e-23  5.6329e-26  8.8173e-23  7.3974e-26  8.9250e-23  1.0544e-25  9.1166e-23  1.6168e-25  9.4574e-23  2.6255e-25  1.0064e-22  4.4468e-25  1.1144e-22  7.7715e-25
      1.35  8.3693e-23  3.6960e-26  8.3694e-23  3.6987e-26  8.3695e-23  3.7035e-26  8.3697e-23  3.7120e-26  8.3700e-23  3.7272e-26  8.3706e-23  3.7541e-26  8.3717e-23  3.8021e-26  8.3735e-23  3.8874e-26  8.3769e-23  4.0391e-26  8.3828e-23  4.3089e-26  8.3933e-23  4.7888e-26  8.4120e-23  5.6426e-26  8.4453e-23  7.1623e-26  8.5045e-23  9.8692e-26  8.6098e-23  1.4697e-25  8.7971e-23  2.3325e-25  9.1302e-23  3.8806e-25  9.7229e-23  6.6769e-25  1.0778e-22  1.1785e-24
      1.40  8.0629e-23  4.0511e-26  8.0630e-23  4.0550e-26  8.0631e-23  4.0620e-26  8.0633e-23  4.0745e-26  8.0636e-23  4.0967e-26  8.0642e-23  4.1362e-26  8.0652e-23  4.2064e-26  8.0670e-23  4.3312e-26  8.0703e-23  4.5532e-26  8.0761e-23  4.9480e-26  8.0863e-23  5.6504e-26  8.1046e-23  6.9000e-26  8.1372e-23  9.1243e-26  8.1950e-23  1.3086e-25  8.2978e-23  2.0153e-25  8.4808e-23  3.2784e-25  8.8061e-23  5.5452e-25  9.3849e-23  9.6411e-25  1.0415e-22  1.7127e-24
      1.45  7.7601e-23  4.4247e-26  7.7601e-23  4.4303e-26  7.7602e-23  4.4401e-26  7.7604e-23  4.4576e-26  7.7607e-23  4.4888e-26  7.7613e-23  4.5441e-26  7.7623e-23  4.6426e-26  7.7641e-23  4.8178e-26  7.7673e-23  5.1293e-26  7.7729e-23  5.6833e-26  7.7830e-23  6.6687e-26  7.8008e-23  8.4221e-26  7.8326e-23  1.1543e-25  7.8890e-23  1.7103e-25  7.9894e-23  2.7019e-25  8.1680e-23  4.4746e-25  8.4856e-23  7.6566e-25  9.0505e-23  1.3408e-24  1.0055e-22  2.3926e-24
      1.50  7.4612e-23  4.8177e-26  7.4613e-23  4.8252e-26  7.4613e-23  4.8385e-26  7.4615e-23  4.8622e-26  7.4618e-23  4.9043e-26  7.4624e-23  4.9791e-26  7.4634e-23  5.1121e-26  7.4651e-23  5.3488e-26  7.4682e-23  5.7696e-26  7.4737e-23  6.5182e-26  7.4835e-23  7.8497e-26  7.5009e-23  1.0219e-25  7.5319e-23  1.4436e-25  7.5870e-23  2.1948e-25  7.6850e-23  3.5347e-25  7.8592e-23  5.9304e-25  8.1691e-23  1.0231e-24  8.7200e-23  1.8008e-24  9.6998e-23  3.2237e-24
      1.55  7.1667e-23  5.2315e-26  7.1667e-23  5.2412e-26  7.1668e-23  5.2586e-26  7.1670e-23  5.2895e-26  7.1673e-23  5.3445e-26  7.1678e-23  5.4423e-26  7.1688e-23  5.6161e-26  7.1705e-23  5.9253e-26  7.1735e-23  6.4752e-26  7.1789e-23  7.4532e-26  7.1884e-23  9.1929e-26  7.2054e-23  1.2288e-25  7.2356e-23  1.7798e-25  7.2894e-23  2.7614e-25  7.3849e-23  4.5124e-25  7.5548e-23  7.6433e-25  7.8568e-23  1.3265e-24  8.3938e-23  2.3432e-24  9.3485e-23  4.2045e-24
      1.60  6.8768e-23  5.6663e-26  6.8769e-23  5.6787e-26  6.8770e-23  5.7008e-26  6.8771e-23  5.7400e-26  6.8774e-23  5.8097e-26  6.8779e-23  5.9338e-26  6.8789e-23  6.1543e-26  6.8805e-23  6.5466e-26  6.8835e-23  7.2441e-26  6.8887e-23  8.4849e-26  6.8980e-23  1.0692e-25  6.9146e-23  1.4619e-25  6.9440e-23  2.1609e-25  6.9964e-23  3.4063e-25  7.0894e-23  5.6278e-25  7.2549e-23  9.6006e-25  7.5491e-23  1.6735e-24  8.0720e-23  2.9642e-24  9.0012e-23  5.3279e-24
      1.65  6.5920e-23  6.1230e-26  6.5921e-23  6.1384e-26  6.5921e-23  6.1656e-26  6.5923e-23  6.2141e-26  6.5926e-23  6.3004e-26  6.5931e-23  6.4537e-26  6.5940e-23  6.7265e-26  6.5956e-23  7.2115e-26  6.5985e-23  8.0741e-26  6.6036e-23  9.6083e-26  6.6126e-23  1.2337e-25  6.6288e-23  1.7194e-25  6.6574e-23  2.5838e-25  6.7083e-23  4.1238e-25  6.7989e-23  6.8712e-25  6.9599e-23  1.1785e-24  7.2460e-23  2.0610e-24  7.7545e-23  3.6578e-24  8.6577e-23  6.5836e-24
      1.70  6.3126e-23  6.6024e-26  6.3126e-23  6.6209e-26  6.3127e-23  6.6539e-26  6.3129e-23  6.7126e-26  6.3131e-23  6.8169e-26  6.3136e-23  7.0025e-26  6.3145e-23  7.3325e-26  6.3161e-23  7.9194e-26  6.3189e-23  8.9632e-26  6.3238e-23  1.0820e-25  6.3326e-23  1.4122e-25  6.3483e-23  1.9998e-25  6.3761e-23  3.0458e-25  6.4255e-23  4.9093e-25  6.5135e-23  8.2339e-25  6.6698e-23  1.4180e-24  6.9477e-23  2.4861e-24  7.4413e-23  4.4193e-24  8.3176e-23  7.9625e-24
      1.75  6.0388e-23  7.1051e-26  6.0389e-23  7.1272e-26  6.0389e-23  7.1664e-26  6.0391e-23  7.2362e-26  6.0394e-23  7.3602e-26  6.0398e-23  7.5808e-26  6.0407e-23  7.9731e-26  6.0422e-23  8.6708e-26  6.0449e-23  9.9115e-26  6.0497e-23  1.2118e-25  6.0582e-23  1.6044e-25  6.0734e-23  2.3029e-25  6.1003e-23  3.5464e-25  6.1483e-23  5.7617e-25  6.2335e-23  9.7142e-25  6.3850e-23  1.6784e-24  6.6541e-23  2.9484e-24  7.1321e-23  5.2474e-24  7.9803e-23  9.4624e-24
      1.80  5.7710e-23  7.6338e-26  5.7711e-23  7.6596e-26  5.7712e-23  7.7056e-26  5.7713e-23  7.7874e-26  5.7716e-23  7.9329e-26  5.7720e-23  8.1916e-26  5.7729e-23  8.6516e-26  5.7743e-23  9.4697e-26  5.7769e-23  1.0925e-25  5.7816e-23  1.3513e-25  5.7898e-23  1.8116e-25  5.8045e-23  2.6307e-25  5.8305e-23  4.0889e-25  5.8768e-23  6.6867e-25  5.9591e-23  1.1322e-24  6.1054e-23  1.9613e-24  6.3654e-23  3.4508e-24  6.8270e-23  6.1476e-24  7.6457e-23  1.1093e-23
      1.85  5.5095e-23  8.1878e-26  5.5095e-23  8.2178e-26  5.5096e-23  8.2712e-26  5.5098e-23  8.3662e-26  5.5100e-23  8.5352e-26  5.5105e-23  8.8356e-26  5.5112e-23  9.3699e-26  5.5127e-23  1.0320e-25  5.5152e-23  1.2010e-25  5.5196e-23  1.5015e-25  5.5276e-23  2.0362e-25  5.5417e-23  2.9875e-25  5.5668e-23  4.6811e-25  5.6113e-23  7.6983e-25  5.6906e-23  1.3082e-24  5.8315e-23  2.2711e-24  6.0818e-23  4.0013e-24  6.5260e-23  7.1338e-24  7.3137e-23  1.2879e-23
      1.90  5.2545e-23  8.7681e-26  5.2545e-23  8.8028e-26  5.2546e-23  8.8644e-26  5.2547e-23  8.9741e-26  5.2549e-23  9.1692e-26  5.2554e-23  9.5160e-26  5.2561e-23  1.0133e-25  5.2575e-23  1.1230e-25  5.2599e-23  1.3181e-25  5.2642e-23  1.6651e-25  5.2718e-23  2.2823e-25  5.2853e-23  3.3806e-25  5.3094e-23  5.3358e-25  5.3522e-23  8.8192e-25  5.4283e-23  1.5034e-24  5.5635e-23  2.6152e-24  5.8036e-23  4.6126e-24  6.2298e-23  8.2292e-24  6.9853e-23  1.4862e-23
      1.95  5.0061e-23  9.3757e-26  5.0062e-23  9.4156e-26  5.0062e-23  9.4866e-26  5.0064e-23  9.6128e-26  5.0066e-23  9.8372e-26  5.0070e-23  1.0236e-25  5.0077e-23  1.0946e-25  5.0090e-23  1.2209e-25  5.0113e-23  1.4454e-25  5.0154e-23  1.8447e-25  5.0227e-23  2.5550e-25  5.0357e-23  3.8188e-25  5.0588e-23  6.0687e-25  5.0998e-23  1.0077e-24  5.1726e-23  1.7229e-24  5.3021e-23  3.0021e-24  5.5322e-23  5.3005e-24  5.9404e-23  9.4614e-24  6.6641e-23  1.7092e-23
      2.00  4.7647e-23  1.0012e-25  4.7647e-23  1.0058e-25  4.7648e-23  1.0139e-25  4.7649e-23  1.0284e-25  4.7651e-23  1.0542e-25  4.7655e-23  1.1001e-25  4.7662e-23  1.1817e-25  4.7675e-23  1.3269e-25  4.7697e-23  1.5850e-25  4.7736e-23  2.0442e-25  4.7805e-23  2.8609e-25  4.7929e-23  4.3141e-25  4.8149e-23  6.9010e-25  4.8540e-23  1.1510e-24  4.9235e-23  1.9733e-24  5.0470e-23  3.4440e-24  5.2663e-23  6.0862e-24  5.6556e-23  1.0869e-23  6.3456e-23  1.9638e-23
      2.05  4.5303e-23  1.0680e-25  4.5304e-23  1.0733e-25  4.5304e-23  1.0827e-25  4.5305e-23  1.0993e-25  4.5308e-23  1.1290e-25  4.5311e-23  1.1818e-25  4.5318e-23  1.2756e-25  4.5330e-23  1.4424e-25  4.5351e-23  1.7391e-25  4.5388e-23  2.2669e-25  4.5454e-23  3.2057e-25  4.5572e-23  4.8760e-25  4.5781e-23  7.8495e-25  4.6153e-23  1.3147e-24  4.6814e-23  2.2598e-24  4.7989e-23  3.9501e-24  5.0075e-23  6.9864e-24  5.3778e-23  1.2482e-23  6.0342e-23  2.2553e-23
      2.10  4.3032e-23  1.1379e-25  4.3032e-23  1.1440e-25  4.3033e-23  1.1548e-25  4.3034e-23  1.1739e-25  4.3036e-23  1.2080e-25  4.3040e-23  1.2686e-25  4.3046e-23  1.3763e-25  4.3057e-23  1.5680e-25  4.3077e-23  1.9088e-25  4.3112e-23  2.5149e-25  4.3175e-23  3.5932e-25  4.3287e-23  5.5118e-25  4.3486e-23  8.9270e-25  4.3839e-23  1.5011e-24  4.4467e-23  2.5865e-24  4.5583e-23  4.5277e-24  4.7565e-23  8.0142e-24  5.1083e-23  1.4323e-23  5.7321e-23  2.5880e-23
      2.15  4.0834e-23  1.2110e-25  4.0834e-23  1.2179e-25  4.0835e-23  1.2303e-25  4.0836e-23  1.2523e-25  4.0838e-23  1.2913e-25  4.0841e-23  1.3608e-25  4.0847e-23  1.4843e-25  4.0858e-23  1.7040e-25  4.0877e-23  2.0947e-25  4.0910e-23  2.7896e-25  4.0970e-23  4.0257e-25  4.1076e-23  6.2252e-25  4.1265e-23  1.0140e-24  4.1600e-23  1.7115e-24  4.2196e-23  2.9557e-24  4.3256e-23  5.1806e-24  4.5138e-23  9.1762e-24  4.8478e-23  1.6404e-23  5.4404e-23  2.9641e-23
      2.20  3.8710e-23  1.2873e-25  3.8711e-23  1.2953e-25  3.8711e-23  1.3094e-25  3.8712e-23  1.3345e-25  3.8714e-23  1.3791e-25  3.8717e-23  1.4585e-25  3.8723e-23  1.5996e-25  3.8733e-23  1.8506e-25  3.8751e-23  2.2969e-25  3.8783e-23  3.0908e-25  3.8839e-23  4.5031e-25  3.8940e-23  7.0158e-25  3.9119e-23  1.1489e-24  3.9438e-23  1.9456e-24  4.0004e-23  3.3669e-24  4.1010e-23  5.9084e-24  4.2797e-23  1.0472e-23  4.5972e-23  1.8724e-23  5.1600e-23  3.3832e-23
      2.25  3.6661e-23  1.3670e-25  3.6662e-23  1.3760e-25  3.6662e-23  1.3921e-25  3.6663e-23  1.4206e-25  3.6665e-23  1.4713e-25  3.6668e-23  1.5616e-25  3.6673e-23  1.7220e-25  3.6683e-23  2.0073e-25  3.6700e-23  2.5147e-25  3.6730e-23  3.4171e-25  3.6784e-23  5.0224e-25  3.6880e-23  7.8787e-25  3.7050e-23  1.2963e-24  3.7353e-23  2.2020e-24  3.7891e-23  3.8175e-24  3.8847e-23  6.7059e-24  4.0546e-23  1.1892e-23  4.3563e-23  2.1268e-23  4.8914e-23  3.8425e-23
      2.30  3.4688e-23  1.4507e-25  3.4688e-23  1.4609e-25  3.4688e-23  1.4790e-25  3.4689e-23  1.5113e-25  3.4691e-23  1.5686e-25  3.4694e-23  1.6705e-25  3.4699e-23  1.8518e-25  3.4708e-23  2.1742e-25  3.4724e-23  2.7476e-25  3.4753e-23  3.7674e-25  3.4804e-23  5.5815e-25  3.4894e-23  8.8091e-25  3.5055e-23  1.4554e-24  3.5342e-23  2.4788e-24  3.5850e-23  4.3042e-24  3.6756e-23  7.5676e-24  3.8363e-23  1.3426e-23  4.1217e-23  2.4014e-23  4.6283e-23  4.3382e-23
      2.35  3.2789e-23  1.5379e-25  3.2790e-23  1.5493e-25  3.2790e-23  1.5697e-25  3.2791e-23  1.6058e-25  3.2793e-23  1.6700e-25  3.2795e-23  1.7842e-25  3.2800e-23  1.9873e-25  3.2809e-23  2.3484e-25  3.2824e-23  2.9908e-25  3.2852e-23  4.1332e-25  3.2901e-23  6.1654e-25  3.2987e-23  9.7811e-25  3.3141e-23  1.6217e-24  3.3416e-23  2.7681e-24  3.3903e-23  4.8129e-24  3.4769e-23  8.4683e-24  3.6309e-23  1.5030e-23  3.9042e-23  2.6888e-23  4.3892e-23  4.8574e-23
      2.40  3.0966e-23  1.6288e-25  3.0966e-23  1.6414e-25  3.0967e-23  1.6640e-25  3.0968e-23  1.7041e-25  3.0969e-23  1.7754e-25  3.0972e-23  1.9023e-25  3.0976e-23  2.1279e-25  3.0985e-23  2.5291e-25  3.0999e-23  3.2426e-25  3.1026e-23  4.5116e-25  3.1072e-23  6.7689e-25  3.1156e-23  1.0785e-24  3.1303e-23  1.7934e-24  3.1566e-23  3.0668e-24  3.2033e-23  5.3380e-24  3.2863e-23  9.3982e-24  3.4338e-23  1.6686e-23  3.6957e-23  2.9855e-23  4.1603e-23  5.3935e-23
      2.45  2.9217e-23  1.7233e-25  2.9218e-23  1.7372e-25  2.9218e-23  1.7621e-25  2.9219e-23  1.8063e-25  2.9220e-23  1.8849e-25  2.9223e-23  2.0246e-25  2.9227e-23  2.2732e-25  2.9235e-23  2.7151e-25  2.9249e-23  3.5012e-25  2.9274e-23  4.8992e-25  2.9319e-23  7.3860e-25  2.9399e-23  1.1811e-24  2.9540e-23  1.9686e-24  2.9792e-23  3.3715e-24  3.0240e-23  5.8735e-24  3.1036e-23  1.0346e-23  3.2449e-23  1.8374e-23  3.4958e-23  3.2880e-23  3.9410e-23  5.9401e-23
      2.50  2.7542e-23  1.8215e-25  2.7543e-23  1.8368e-25  2.7543e-23  1.8640e-25  2.7544e-23  1.9123e-25  2.7545e-23  1.9981e-25  2.7548e-23  2.1508e-25  2.7552e-23  2.4224e-25  2.7560e-23  2.9054e-25  2.7573e-23  3.7643e-25  2.7597e-23  5.2920e-25  2.7640e-23  8.0094e-25  2.7717e-23  1.2844e-24  2.7852e-23  2.1450e-24  2.8094e-23  3.6780e-24  2.8523e-23  6.4120e-24  2.9286e-23  1.1299e-23  3.0640e-23  2.0071e-23  3.3045e-23  3.5921e-23  3.7312e-23  6.4896e-23
      2.55  2.5941e-23  1.9246e-25  2.5941e-23  1.9411e-25  2.5941e-23  1.9705e-25  2.5942e-23  2.0229e-25  2.5943e-23  2.1160e-25  2.5946e-23  2.2815e-25  2.5950e-23  2.5758e-25  2.5957e-23  3.0992e-25  2.5970e-23  4.0300e-25  2.5993e-23  5.6856e-25  2.6035e-23  8.6306e-25  2.6108e-23  1.3870e-24  2.6238e-23  2.3197e-24  2.6470e-23  3.9809e-24  2.6881e-23  6.9439e-24  2.7613e-23  1.2240e-23  2.8912e-23  2.1746e-23  3.1219e-23  3.8923e-23  3.5310e-23  7.0322e-23
      2.60  2.4411e-23  2.0315e-25  2.4411e-23  2.0493e-25  2.4412e-23  2.0809e-25  2.4412e-23  2.1372e-25  2.4414e-23  2.2372e-25  2.4416e-23  2.4151e-25  2.4420e-23  2.7314e-25  2.4427e-23  3.2939e-25  2.4439e-23  4.2944e-25  2.4462e-23  6.0738e-25  2.4501e-23  9.2390e-25  2.4571e-23  1.4871e-24  2.4696e-23  2.4894e-24  2.4919e-23  4.2750e-24  2.5314e-23  7.4595e-24  2.6016e-23  1.3152e-23  2.7263e-23  2.3369e-23  2.9476e-23  4.1831e-23  3.3402e-23  7.5579e-23
      2.65  2.2952e-23  2.1424e-25  2.2952e-23  2.1614e-25  2.2953e-23  2.1951e-25  2.2953e-23  2.2552e-25  2.2954e-23  2.3619e-25  2.2957e-23  2.5518e-25  2.2960e-23  2.8893e-25  2.2967e-23  3.4897e-25  2.2979e-23  4.5574e-25  2.3001e-23  6.4564e-25  2.3039e-23  9.8344e-25  2.3106e-23  1.5845e-24  2.3226e-23  2.6543e-24  2.3440e-23  4.5598e-24  2.3819e-23  7.9585e-24  2.4494e-23  1.4034e-23  2.5691e-23  2.4938e-23  2.7817e-23  4.4643e-23  3.1586e-23  8.0665e-23
      2.70  2.1562e-23  2.2573e-25  2.1563e-23  2.2774e-25  2.1563e-23  2.3132e-25  2.1564e-23  2.3769e-25  2.1565e-23  2.4901e-25  2.1567e-23  2.6914e-25  2.1570e-23  3.0493e-25  2.1577e-23  3.6859e-25  2.1588e-23  4.8181e-25  2.1609e-23  6.8318e-25  2.1646e-23  1.0414e-24  2.1710e-23  1.6787e-24  2.1826e-23  2.8131e-24  2.2031e-23  4.8337e-24  2.2396e-23  8.4377e-24  2.3044e-23  1.4880e-23  2.4196e-23  2.6444e-23  2.6239e-23  4.7340e-23  2.9861e-23  8.5545e-23
      2.75  2.0240e-23  2.3762e-25  2.0240e-23  2.3975e-25  2.0241e-23  2.4352e-25  2.0241e-23  2.5023e-25  2.0243e-23  2.6216e-25  2.0245e-23  2.8338e-25  2.0248e-23  3.2112e-25  2.0254e-23  3.8822e-25  2.0265e-23  5.0757e-25  2.0285e-23  7.1984e-25  2.0320e-23  1.0974e-24  2.0383e-23  1.7692e-24  2.0494e-23  2.9650e-24  2.0692e-23  5.0951e-24  2.1043e-23  8.8942e-24  2.1667e-23  1.5686e-23  2.2775e-23  2.7876e-23  2.4741e-23  4.9908e-23  2.8225e-23  9.0191e-23
      2.80  1.8984e-23  2.5008e-25  1.8984e-23  2.5230e-25  1.8985e-23  2.5626e-25  1.8985e-23  2.6329e-25  1.8987e-23  2.7580e-25  1.8988e-23  2.9804e-25  1.8992e-23  3.3760e-25  1.8998e-23  4.0795e-25  1.9009e-23  5.3306e-25  1.9028e-23  7.5558e-25  1.9061e-23  1.1514e-24  1.9122e-23  1.8557e-24  1.9229e-23  3.1092e-24  1.9419e-23  5.3422e-24  1.9757e-23  9.3250e-24  2.0359e-23  1.6445e-23  2.1426e-23  2.9226e-23  2.3319e-23  5.2326e-23  2.6675e-23  9.4568e-23
      2.85  1.7792e-23  2.6295e-25  1.7793e-23  2.6527e-25  1.7793e-23  2.6940e-25  1.7793e-23  2.7673e-25  1.7795e-23  2.8977e-25  1.7796e-23  3.1297e-25  1.7800e-23  3.5421e-25  1.7805e-23  4.2757e-25  1.7816e-23  5.5802e-25  1.7834e-23  7.9004e-25  1.7867e-23  1.2028e-24  1.7925e-23  1.9371e-24  1.8028e-23  3.2442e-24  1.8212e-23  5.5726e-24  1.8538e-23  9.7257e-24  1.9118e-23  1.7150e-23  2.0147e-23  3.0479e-23  2.1972e-23  5.4570e-23  2.5206e-23  9.8633e-23
      2.90  1.6663e-23  2.7626e-25  1.6663e-23  2.7866e-25  1.6663e-23  2.8294e-25  1.6664e-23  2.9055e-25  1.6665e-23  3.0408e-25  1.6667e-23  3.2813e-25  1.6670e-23  3.7092e-25  1.6675e-23  4.4701e-25  1.6685e-23  5.8232e-25  1.6703e-23  8.2299e-25  1.6735e-23  1.2511e-24  1.6791e-23  2.0128e-24  1.6890e-23  3.3687e-24  1.7067e-23  5.7839e-24  1.7382e-23  1.0092e-23  1.7942e-23  1.7794e-23  1.8935e-23  3.1621e-23  2.0695e-23  5.6617e-23  2.3814e-23  1.0234e-22
      2.95  1.5593e-23  2.9001e-25  1.5593e-23  2.9250e-25  1.5594e-23  2.9691e-25  1.5594e-23  3.0476e-25  1.5595e-23  3.1872e-25  1.5597e-23  3.4355e-25  1.5600e-23  3.8770e-25  1.5605e-23  4.6622e-25  1.5615e-23  6.0585e-25  1.5632e-23  8.5421e-25  1.5663e-23  1.2960e-24  1.5717e-23  2.0820e-24  1.5813e-23  3.4812e-24  1.5984e-23  5.9737e-24  1.6288e-23  1.0420e-23  1.6828e-23  1.8368e-23  1.7786e-23  3.2639e-23  1.9486e-23  5.8440e-23  2.2495e-23  1.0565e-22
      3.00  1.4582e-23  3.0426e-25  1.4582e-23  3.0681e-25  1.4582e-23  3.1134e-25  1.4583e-23  3.1940e-25  1.4584e-23  3.3374e-25  1.4585e-23  3.5923e-25  1.4588e-23  4.0456e-25  1.4594e-23  4.8517e-25  1.4603e-23  6.2853e-25  1.4619e-23  8.8351e-25  1.4649e-23  1.3371e-24  1.4701e-23  2.1441e-24  1.4794e-23  3.5806e-24  1.4959e-23  6.1396e-24  1.5252e-23  1.0704e-23  1.5774e-23  1.8866e-23  1.6699e-23  3.3520e-23  1.8339e-23  6.0017e-23  2.1242e-23  1.0851e-22
      3.05  1.3626e-23  3.1930e-25  1.3627e-23  3.2191e-25  1.3627e-23  3.2655e-25  1.3627e-23  3.3480e-25  1.3628e-23  3.4948e-25  1.3630e-23  3.7557e-25  1.3633e-23  4.2197e-25  1.3638e-23  5.0449e-25  1.3647e-23  6.5125e-25  1.3663e-23  9.1228e-25  1.3691e-23  1.3766e-24  1.3742e-23  2.2028e-24  1.3832e-23  3.6733e-24  1.3992e-23  6.2930e-24  1.4276e-23  1.0966e-23  1.4781e-23  1.9322e-23  1.5676e-23  3.4324e-23  1.7264e-23  6.1454e-23  2.0072e-23  1.1111e-22
      3.10  1.2725e-23  3.3469e-25  1.2725e-23  3.3735e-25  1.2725e-23  3.4208e-25  1.2726e-23  3.5049e-25  1.2727e-23  3.6544e-25  1.2728e-23  3.9203e-25  1.2731e-23  4.3931e-25  1.2736e-23  5.2339e-25  1.2745e-23  6.7293e-25  1.2760e-23  9.3889e-25  1.2788e-23  1.4120e-24  1.2837e-23  2.2538e-24  1.2924e-23  3.7522e-24  1.3079e-23  6.4216e-24  1.3354e-23  1.1183e-23  1.3842e-23  1.9698e-23  1.4709e-23  3.4986e-23  1.6245e-23  6.2635e-23  1.8960e-23  1.1325e-22
      3.15  1.1875e-23  3.5087e-25  1.1875e-23  3.5357e-25  1.1875e-23  3.5836e-25  1.1876e-23  3.6689e-25  1.1877e-23  3.8206e-25  1.1878e-23  4.0903e-25  1.1881e-23  4.5699e-25  1.1886e-23  5.4229e-25  1.1894e-23  6.9399e-25  1.1909e-23  9.6379e-25  1.1936e-23  1.4437e-24  1.1983e-23  2.2977e-24  1.2067e-23  3.8178e-24  1.2217e-23  6.5257e-24  1.2483e-23  1.1356e-23  1.2956e-23  1.9994e-23  1.3794e-23  3.5505e-23  1.5279e-23  6.3559e-23  1.7903e-23  1.1492e-22
      3.20  1.1074e-23  3.6774e-25  1.1075e-23  3.7047e-25  1.1075e-23  3.7531e-25  1.1075e-23  3.8392e-25  1.1076e-23  3.9924e-25  1.1077e-23  4.2648e-25  1.1080e-23  4.7492e-25  1.1085e-23  5.6106e-25  1.1093e-23  7.1426e-25  1.1107e-23  9.8675e-25  1.1133e-23  1.4715e-24  1.1179e-23  2.3339e-24  1.1261e-23  3.8691e-24  1.1405e-23  6.6040e-24  1.1663e-23  1.1483e-23  1.2120e-23  2.0207e-23  1.2930e-23  3.5874e-23  1.4365e-23  6.4213e-23  1.6900e-23  1.1610e-22
      3.25  1.0321e-23  3.8513e-25  1.0321e-23  3.8787e-25  1.0322e-23  3.9274e-25  1.0322e-23  4.0140e-25  1.0323e-23  4.1680e-25  1.0324e-23  4.4419e-25  1.0327e-23  4.9289e-25  1.0331e-23  5.7951e-25  1.0339e-23  7.3355e-25  1.0353e-23  1.0075e-24  1.0378e-23  1.4949e-24  1.0422e-23  2.3621e-24  1.0501e-23  3.9057e-24  1.0641e-23  6.6556e-24  1.0890e-23  1.1561e-23  1.1332e-23  2.0334e-23  1.2116e-23  3.6089e-23  1.3503e-23  6.4590e-23  1.5951e-23  1.1679e-22
      3.30  9.6132e-24  4.0342e-25  9.6133e-24  4.0617e-25  9.6136e-24  4.1105e-25  9.6140e-24  4.1972e-25  9.6148e-24  4.3515e-25  9.6161e-24  4.6259e-25  9.6185e-24  5.1138e-25  9.6228e-24  5.9816e-25  9.6305e-24  7.5249e-25  9.6441e-24  1.0270e-24  9.6682e-24  1.5152e-24  9.7111e-24  2.3840e-24  9.7874e-24  3.9305e-24  9.9230e-24  6.6856e-24  1.0164e-23  1.1601e-23  1.0591e-23  2.0390e-23  1.1349e-23  3.6177e-23  1.2688e-23  6.4738e-23  1.5051e-23  1.1706e-22
      3.35  8.9483e-24  4.2227e-25  8.9484e-24  4.2501e-25  8.9486e-24  4.2989e-25  8.9490e-24  4.3856e-25  8.9498e-24  4.5397e-25  8.9511e-24  4.8138e-25  8.9534e-24  5.3012e-25  8.9576e-24  6.1681e-25  8.9650e-24  7.7097e-25  8.9781e-24  1.0452e-24  9.0014e-24  1.5329e-24  9.0429e-24  2.4008e-24  9.1167e-24  3.9457e-24  9.2478e-24  6.6979e-24  9.4806e-24  1.1608e-23  9.8938e-24  2.0389e-23  1.0626e-23  3.6161e-23  1.1919e-23  6.4698e-23  1.4199e-23  1.1698e-22
      3.40  8.3243e-24  4.4169e-25  8.3244e-24  4.4443e-25  8.3246e-24  4.4929e-25  8.3250e-24  4.5793e-25  8.3257e-24  4.7329e-25  8.3270e-24  5.0062e-25  8.3293e-24  5.4921e-25  8.3333e-24  6.3562e-25  8.3404e-24  7.8931e-25  8.3531e-24  1.0627e-24  8.3757e-24  1.5489e-24  8.4158e-24  2.4141e-24  8.4871e-24  3.9542e-24  8.6138e-24  6.6979e-24  8.8389e-24  1.1593e-23  9.2381e-24  2.0347e-23  9.9450e-24  3.6071e-23  1.1193e-23  6.4525e-23  1.3392e-23  1.1666e-22
      3.45  7.7392e-24  4.6170e-25  7.7393e-24  4.6442e-25  7.7395e-24  4.6926e-25  7.7399e-24  4.7787e-25  7.7406e-24  4.9317e-25  7.7418e-24  5.2038e-25  7.7440e-24  5.6877e-25  7.7479e-24  6.5483e-25  7.7548e-24  8.0788e-25  7.7670e-24  1.0801e-24  7.7889e-24  1.5643e-24  7.8276e-24  2.4259e-24  7.8966e-24  3.9596e-24  8.0190e-24  6.6920e-24  8.2365e-24  1.1567e-23  8.6221e-24  2.0285e-23  9.3046e-24  3.5944e-23  1.0509e-23  6.4282e-23  1.2628e-23  1.1621e-22
      3.50  7.1910e-24  4.8231e-25  7.1911e-24  4.8502e-25  7.1913e-24  4.8984e-25  7.1917e-24  4.9841e-25  7.1923e-24  5.1365e-25  7.1935e-24  5.4076e-25  7.1956e-24  5.8896e-25  7.1994e-24  6.7468e-25  7.2061e-24  8.2714e-25  7.2179e-24  1.0983e-24  7.2390e-24  1.5806e-24  7.2765e-24  2.4389e-24  7.3431e-24  3.9666e-24  7.4614e-24  6.6883e-24  7.6715e-24  1.1544e-23  8.0438e-24  2.0228e-23  8.7024e-24  3.5825e-23  9.8639e-24  6.4051e-23  1.1904e-23  1.1577e-22
      3.55  6.6778e-24  5.0410e-25  6.6779e-24  5.0681e-25  6.6781e-24  5.1162e-25  6.6785e-24  5.2017e-25  6.6791e-24  5.3538e-25  6.6803e-24  5.6244e-25  6.6823e-24  6.1054e-25  6.6860e-24  6.9609e-25  6.6924e-24  8.4825e-25  6.7038e-24  1.1189e-24  6.7242e-24  1.6002e-24  6.7604e-24  2.4568e-24  6.8248e-24  3.9815e-24  6.9390e-24  6.6977e-24  7.1419e-24  1.1543e-23  7.5013e-24  2.0209e-23  8.1366e-24  3.5774e-23  9.2560e-24  6.3938e-23  1.1219e-23  1.1554e-22
      3.60  6.1978e-24  5.2656e-25  6.1979e-24  5.2927e-25  6.1981e-24  5.3409e-25  6.1984e-24  5.4266e-25  6.1990e-24  5.5790e-25  6.2002e-24  5.8500e-25  6.2021e-24  6.3321e-25  6.2056e-24  7.1893e-25  6.2118e-24  8.7137e-25  6.2229e-24  1.1425e-24  6.2426e-24  1.6248e-24  6.2775e-24  2.4830e-24  6.3397e-24  4.0107e-24  6.4500e-24  6.7321e-24  6.6458e-24  1.1587e-23  6.9926e-24  2.0269e-23  7.6052e-24  3.5860e-23  8.6833e-24  6.4069e-23  1.0570e-23  1.1575e-22
      3.65  5.7490e-24  5.4970e-25  5.7491e-24  5.5243e-25  5.7493e-24  5.5729e-25  5.7496e-24  5.6594e-25  5.7502e-24  5.8131e-25  5.7513e-24  6.0865e-25  5.7532e-24  6.5726e-25  5.7566e-24  7.4372e-25  5.7626e-24  8.9748e-25  5.7732e-24  1.1709e-24  5.7922e-24  1.6574e-24  5.8260e-24  2.5230e-24  5.8859e-24  4.0637e-24  5.9924e-24  6.8083e-24  6.1813e-24  1.1704e-23  6.5158e-24  2.0459e-23  7.1062e-24  3.6180e-23  8.1439e-24  6.4617e-23  9.9564e-24  1.1670e-22
      3.70  5.3297e-24  5.7359e-25  5.3298e-24  5.7639e-25  5.3300e-24  5.8137e-25  5.3303e-24  5.9023e-25  5.3309e-24  6.0599e-25  5.3319e-24  6.3402e-25  5.3337e-24  6.8386e-25  5.3370e-24  7.7249e-25  5.3428e-24  9.3012e-25  5.3531e-24  1.2105e-24  5.3714e-24  1.7092e-24  5.4040e-24  2.5965e-24  5.4617e-24  4.1760e-24  5.5645e-24  6.9896e-24  5.7467e-24  1.2008e-23  6.0691e-24  2.0982e-23  6.6378e-24  3.7093e-23  7.6358e-24  6.6232e-23  9.3755e-24  1.1959e-22
      3.75  4.9383e-24  5.9819e-25  4.9384e-24  6.0107e-25  4.9385e-24  6.0619e-25  4.9389e-24  6.1531e-25  4.9394e-24  6.3152e-25  4.9404e-24  6.6034e-25  4.9422e-24  7.1159e-25  4.9453e-24  8.0274e-25  4.9509e-24  9.6485e-25  4.9608e-24  1.2532e-24  4.9785e-24  1.7660e-24  5.0099e-24  2.6786e-24  5.0657e-24  4.3028e-24  5.1647e-24  7.1962e-24  5.3403e-24  1.2357e-23  5.6508e-24  2.1585e-23  6.1981e-24  3.8151e-23  7.1573e-24  6.8108e-23  8.8258e-24  1.2296e-22
      3.80  4.5733e-24  6.2447e-25  4.5734e-24  6.2750e-25  4.5736e-24  6.3287e-25  4.5739e-24  6.4244e-25  4.5744e-24  6.5945e-25  4.5754e-24  6.8970e-25  4.5771e-24  7.4350e-25  4.5801e-24  8.3917e-25  4.5855e-24  1.0093e-24  4.5951e-24  1.3119e-24  4.6121e-24  1.8503e-24  4.6424e-24  2.8081e-24  4.6960e-24  4.5129e-24  4.7915e-24  7.5499e-24  4.9606e-24  1.2967e-23  5.2596e-24  2.2652e-23  5.7860e-24  4.0040e-23  6.7074e-24  7.1486e-23  8.3067e-24  1.2908e-22
      3.85  4.2330e-24  6.5202e-25  4.2331e-24  6.5528e-25  4.2332e-24  6.6108e-25  4.2335e-24  6.7140e-25  4.2340e-24  6.8974e-25  4.2350e-24  7.2236e-25  4.2366e-24  7.8036e-25  4.2395e-24  8.8352e-25  4.2447e-24  1.0670e-24  4.2539e-24  1.3933e-24  4.2703e-24  1.9737e-24  4.2995e-24  3.0064e-24  4.3513e-24  4.8446e-24  4.4432e-24  8.1193e-24  4.6060e-24  1.3960e-23  4.8938e-24  2.4405e-23  5.4001e-24  4.3159e-23  6.2849e-24  7.7085e-23  7.8180e-24  1.3925e-22
      3.90  3.9159e-24  6.8246e-25  3.9160e-24  6.8609e-25  3.9161e-24  6.9255e-25  3.9164e-24  7.0404e-25  3.9169e-24  7.2447e-25  3.9178e-24  7.6081e-25  3.9194e-24  8.2542e-25  3.9222e-24  9.4032e-25  3.9272e-24  1.1447e-24  3.9361e-24  1.5081e-24  3.9519e-24  2.1547e-24  3.9800e-24  3.3051e-24  4.0299e-24  5.3528e-24  4.1185e-24  9.0009e-24  4.2754e-24  1.5509e-23  4.5525e-24  2.7147e-23  5.0396e-24  4.8050e-23  5.8900e-24  8.5882e-23  7.3606e-24  1.5528e-22
      3.95  3.6206e-24  7.2203e-25  3.6207e-24  7.2621e-25  3.6208e-24  7.3366e-25  3.6211e-24  7.4689e-25  3.6216e-24  7.7043e-25  3.6224e-24  8.1228e-25  3.6240e-24  8.8671e-25  3.6267e-24  1.0191e-24  3.6315e-24  1.2545e-24  3.6401e-24  1.6732e-24  3.6554e-24  2.4179e-24  3.6825e-24  3.7432e-24  3.7307e-24  6.1022e-24  3.8161e-24  1.0305e-23  3.9675e-24  1.7803e-23  4.2347e-24  3.1216e-23  4.7040e-24  5.5314e-23  5.5222e-24  9.8959e-23  6.9346e-24  1.7910e-22
