# This was generated using Cloudy10 and the columns are ordered 
# as log10 of the fraction of the metallicity to the solar metallicity
# 'h_*_Z' and 'c_*_Z' stands for cooling and heating respectively 
# at * metalicity
#
# NOTE: This was generated separately from loop_coolingcurve_w_UV.py
#       using Output_metals_w_redshift.py.
#
# Redshift = 1.0
# hden = -5.5
#
#     temp   h_-3.00_Z   c_-3.00_Z   h_-2.75_Z   c_-2.75_Z   h_-2.50_Z   c_-2.50_Z   h_-2.25_Z   c_-2.25_Z   h_-2.00_Z   c_-2.00_Z   h_-1.75_Z   c_-1.75_Z   h_-1.50_Z   c_-1.50_Z   h_-1.25_Z   c_-1.25_Z   h_-1.00_Z   c_-1.00_Z   h_-0.75_Z   c_-0.75_Z   h_-0.50_Z   c_-0.50_Z   h_-0.25_Z   c_-0.25_Z    h_0.00_Z    c_0.00_Z    h_0.25_Z    c_0.25_Z    h_0.50_Z    c_0.50_Z    h_0.75_Z    c_0.75_Z    h_1.00_Z    c_1.00_Z    h_1.25_Z    c_1.25_Z    h_1.50_Z    c_1.50_Z 
      1.00  6.2643e-22  7.6151e-26  6.2655e-22  7.6153e-26  6.2676e-22  7.6155e-26  6.2715e-22  7.6160e-26  6.2783e-22  7.6168e-26  6.2904e-22  7.6183e-26  6.3118e-22  7.6208e-26  6.3497e-22  7.6254e-26  6.4166e-22  7.6336e-26  6.5344e-22  7.6481e-26  6.7432e-22  7.6739e-26  7.1127e-22  7.7198e-26  7.7677e-22  7.8016e-26  8.9342e-22  7.9474e-26  1.1015e-21  8.2078e-26  1.4734e-21  8.6742e-26  2.1417e-21  9.5141e-26  3.3527e-21  1.1041e-25  5.5770e-21  1.3854e-25
      1.05  5.8822e-22  8.0450e-26  5.8834e-22  8.0452e-26  5.8855e-22  8.0455e-26  5.8892e-22  8.0459e-26  5.8959e-22  8.0468e-26  5.9076e-22  8.0483e-26  5.9261e-22  8.0506e-26  5.9653e-22  8.0559e-26  6.0304e-22  8.0644e-26  6.1449e-22  8.0797e-26  6.3481e-22  8.1068e-26  6.7074e-22  8.1552e-26  7.3446e-22  8.2413e-26  8.4790e-22  8.3947e-26  1.0502e-21  8.6688e-26  1.4119e-21  9.1599e-26  2.0620e-21  1.0045e-25  3.2403e-21  1.1655e-25  5.4056e-21  1.4626e-25
      1.10  5.5214e-22  8.4887e-26  5.5226e-22  8.4888e-26  5.5246e-22  8.4891e-26  5.5283e-22  8.4896e-26  5.5347e-22  8.4905e-26  5.5461e-22  8.4921e-26  5.5664e-22  8.4950e-26  5.6023e-22  8.5001e-26  5.6656e-22  8.5091e-26  5.7771e-22  8.5251e-26  5.9747e-22  8.5537e-26  6.3243e-22  8.6045e-26  6.9444e-22  8.6951e-26  8.0480e-22  8.8566e-26  1.0016e-21  9.1450e-26  1.3535e-21  9.6619e-26  1.9862e-21  1.0594e-25  3.1332e-21  1.2291e-25  5.2421e-21  1.5428e-25
      1.15  5.1791e-22  8.9467e-26  5.1820e-22  8.9473e-26  5.1840e-22  8.9476e-26  5.1876e-22  8.9481e-26  5.1938e-22  8.9490e-26  5.2050e-22  8.9507e-26  5.2247e-22  8.9537e-26  5.2597e-22  8.9590e-26  5.3213e-22  8.9685e-26  5.4297e-22  8.9854e-26  5.6220e-22  9.0154e-26  5.9623e-22  9.0689e-26  6.5659e-22  9.1642e-26  7.6397e-22  9.3340e-26  9.5547e-22  9.6375e-26  1.2980e-21  1.0182e-25  1.9138e-21  1.1163e-25  3.0308e-21  1.2951e-25  5.0855e-21  1.6263e-25
      1.20  4.8597e-22  9.4213e-26  4.8608e-22  9.4214e-26  4.8628e-22  9.4218e-26  4.8662e-22  9.4223e-26  4.8723e-22  9.4233e-26  4.8832e-22  9.4251e-26  4.9024e-22  9.4283e-26  4.9364e-22  9.4339e-26  4.9964e-22  9.4438e-26  5.1019e-22  9.4616e-26  5.2891e-22  9.4932e-26  5.6203e-22  9.5495e-26  6.2079e-22  9.6498e-26  7.2529e-22  9.8285e-26  9.1172e-22  1.0148e-25  1.2451e-21  1.0721e-25  1.8447e-21  1.1755e-25  2.9326e-21  1.3641e-25  4.9353e-21  1.7139e-25
      1.25  4.5570e-22  9.9123e-26  4.5580e-22  9.9125e-26  4.5599e-22  9.9128e-26  4.5632e-22  9.9134e-26  4.5691e-22  9.9144e-26  4.5796e-22  9.9163e-26  4.5982e-22  9.9196e-26  4.6312e-22  9.9256e-26  4.6892e-22  9.9361e-26  4.7914e-22  9.9548e-26  4.9725e-22  9.9882e-26  5.2930e-22  1.0048e-25  5.8619e-22  1.0154e-25  6.8731e-22  1.0342e-25  8.6774e-22  1.0680e-25  1.1904e-21  1.1285e-25  1.7708e-21  1.2378e-25  2.8241e-21  1.4376e-25  4.7641e-21  1.8088e-25
      1.30  4.2717e-22  1.0422e-25  4.2727e-22  1.0423e-25  4.2745e-22  1.0423e-25  4.2778e-22  1.0424e-25  4.2835e-22  1.0425e-25  4.2937e-22  1.0427e-25  4.3117e-22  1.0430e-25  4.3435e-22  1.0436e-25  4.3998e-22  1.0448e-25  4.4986e-22  1.0467e-25  4.6740e-22  1.0503e-25  4.9843e-22  1.0566e-25  5.5351e-22  1.0677e-25  6.5141e-22  1.0877e-25  8.2607e-22  1.1234e-25  1.1385e-21  1.1875e-25  1.7005e-21  1.3033e-25  2.7206e-21  1.5152e-25  4.6004e-21  1.9102e-25
      1.35  4.0031e-22  1.0951e-25  4.0041e-22  1.0952e-25  4.0058e-22  1.0952e-25  4.0090e-22  1.0953e-25  4.0145e-22  1.0954e-25  4.0244e-22  1.0956e-25  4.0418e-22  1.0960e-25  4.0727e-22  1.0966e-25  4.1272e-22  1.0978e-25  4.2229e-22  1.0999e-25  4.3928e-22  1.1036e-25  4.6935e-22  1.1103e-25  5.2273e-22  1.1222e-25  6.1760e-22  1.1433e-25  7.8679e-22  1.1812e-25  1.0895e-21  1.2492e-25  1.6341e-21  1.3722e-25  2.6229e-21  1.5977e-25  4.4461e-21  2.0193e-25
      1.40  3.7502e-22  1.1500e-25  3.7512e-22  1.1501e-25  3.7529e-22  1.1501e-25  3.7559e-22  1.1502e-25  3.7613e-22  1.1503e-25  3.7708e-22  1.1505e-25  3.7878e-22  1.1509e-25  3.8177e-22  1.1516e-25  3.8705e-22  1.1529e-25  3.9633e-22  1.1551e-25  4.1279e-22  1.1591e-25  4.4194e-22  1.1662e-25  4.9370e-22  1.1788e-25  5.8568e-22  1.2013e-25  7.4965e-22  1.2415e-25  1.0431e-21  1.3138e-25  1.5712e-21  1.4450e-25  2.5301e-21  1.6858e-25  4.2992e-21  2.1381e-25
      1.45  3.5123e-22  1.2070e-25  3.5132e-22  1.2071e-25  3.5149e-22  1.2071e-25  3.5178e-22  1.2072e-25  3.5230e-22  1.2073e-25  3.5322e-22  1.2075e-25  3.5486e-22  1.2080e-25  3.5775e-22  1.2087e-25  3.6284e-22  1.2100e-25  3.7181e-22  1.2124e-25  3.8769e-22  1.2167e-25  4.1584e-22  1.2242e-25  4.6581e-22  1.2376e-25  5.5462e-22  1.2616e-25  7.1288e-22  1.3045e-25  9.9628e-22  1.3818e-25  1.5061e-21  1.5220e-25  2.4323e-21  1.7803e-25  4.1422e-21  2.2681e-25
      1.50  3.2886e-22  1.2662e-25  3.2895e-22  1.2662e-25  3.2911e-22  1.2663e-25  3.2939e-22  1.2664e-25  3.2989e-22  1.2665e-25  3.3078e-22  1.2668e-25  3.3236e-22  1.2672e-25  3.3515e-22  1.2680e-25  3.4008e-22  1.2694e-25  3.4874e-22  1.2720e-25  3.6409e-22  1.2765e-25  3.9128e-22  1.2846e-25  4.3957e-22  1.2989e-25  5.2537e-22  1.3246e-25  6.7827e-22  1.3705e-25  9.5215e-22  1.4532e-25  1.4448e-21  1.6036e-25  2.3401e-21  1.8818e-25  3.9940e-21  2.4100e-25
      1.55  3.0783e-22  1.3279e-25  3.0791e-22  1.3280e-25  3.0807e-22  1.3280e-25  3.0834e-22  1.3281e-25  3.0883e-22  1.3282e-25  3.0969e-22  1.3285e-25  3.1122e-22  1.3290e-25  3.1392e-22  1.3299e-25  3.1868e-22  1.3314e-25  3.2705e-22  1.3341e-25  3.4189e-22  1.3389e-25  3.6819e-22  1.3476e-25  4.1488e-22  1.3630e-25  4.9785e-22  1.3904e-25  6.4569e-22  1.4397e-25  9.1056e-22  1.5285e-25  1.3870e-21  1.6904e-25  2.2531e-21  1.9908e-25  3.8541e-21  2.5652e-25
      1.60  2.8807e-22  1.3921e-25  2.8815e-22  1.3921e-25  2.8830e-22  1.3921e-25  2.8856e-22  1.3922e-25  2.8903e-22  1.3924e-25  2.8986e-22  1.3927e-25  2.9134e-22  1.3932e-25  2.9395e-22  1.3941e-25  2.9855e-22  1.3958e-25  3.0663e-22  1.3987e-25  3.2095e-22  1.4039e-25  3.4636e-22  1.4131e-25  3.9143e-22  1.4297e-25  4.7154e-22  1.4592e-25  6.1432e-22  1.5121e-25  8.7009e-22  1.6077e-25  1.3300e-21  1.7822e-25  2.1670e-21  2.1076e-25  3.7147e-21  2.7342e-25
      1.65  2.6951e-22  1.4587e-25  2.6959e-22  1.4587e-25  2.6973e-22  1.4588e-25  2.6998e-22  1.4589e-25  2.7044e-22  1.4591e-25  2.7124e-22  1.4594e-25  2.7267e-22  1.4599e-25  2.7518e-22  1.4609e-25  2.7963e-22  1.4627e-25  2.8744e-22  1.4658e-25  3.0125e-22  1.4714e-25  3.2580e-22  1.4814e-25  3.6932e-22  1.4992e-25  4.4668e-22  1.5310e-25  5.8463e-22  1.5882e-25  8.3163e-22  1.6914e-25  1.2762e-21  1.8805e-25  2.0847e-21  2.2343e-25  3.5812e-21  2.9208e-25
      1.70  2.5208e-22  1.5280e-25  2.5216e-22  1.5280e-25  2.5229e-22  1.5281e-25  2.5254e-22  1.5282e-25  2.5298e-22  1.5284e-25  2.5375e-22  1.5287e-25  2.5513e-22  1.5293e-25  2.5756e-22  1.5304e-25  2.6186e-22  1.5323e-25  2.6940e-22  1.5357e-25  2.8275e-22  1.5418e-25  3.0646e-22  1.5527e-25  3.4850e-22  1.5720e-25  4.2323e-22  1.6067e-25  5.5654e-22  1.6689e-25  7.9514e-22  1.7817e-25  1.2248e-21  1.9886e-25  2.0063e-21  2.3774e-25  3.4536e-21  3.1380e-25
      1.75  2.3572e-22  1.6000e-25  2.3579e-22  1.6000e-25  2.3593e-22  1.6001e-25  2.3617e-22  1.6002e-25  2.3659e-22  1.6004e-25  2.3734e-22  1.6008e-25  2.3867e-22  1.6015e-25  2.4102e-22  1.6027e-25  2.4516e-22  1.6048e-25  2.5246e-22  1.6086e-25  2.6535e-22  1.6154e-25  2.8825e-22  1.6275e-25  3.2885e-22  1.6491e-25  4.0103e-22  1.6877e-25  5.2983e-22  1.7571e-25  7.6029e-22  1.8831e-25  1.1755e-21  2.1151e-25  1.9307e-21  2.5534e-25  3.3303e-21  3.4184e-25
      1.80  2.2037e-22  1.6753e-25  2.2044e-22  1.6753e-25  2.2057e-22  1.6754e-25  2.2080e-22  1.6756e-25  2.2121e-22  1.6758e-25  2.2193e-22  1.6763e-25  2.2322e-22  1.6770e-25  2.2549e-22  1.6784e-25  2.2950e-22  1.6809e-25  2.3654e-22  1.6853e-25  2.4899e-22  1.6932e-25  2.7113e-22  1.7072e-25  3.1034e-22  1.7323e-25  3.8008e-22  1.7772e-25  5.0455e-22  1.8582e-25  7.2723e-22  2.0053e-25  1.1284e-21  2.2775e-25  1.8586e-21  2.7953e-25  3.2122e-21  3.8285e-25
      1.85  2.0597e-22  1.7536e-25  2.0604e-22  1.7537e-25  2.0617e-22  1.7538e-25  2.0639e-22  1.7539e-25  2.0679e-22  1.7542e-25  2.0749e-22  1.7548e-25  2.0873e-22  1.7557e-25  2.1092e-22  1.7575e-25  2.1479e-22  1.7605e-25  2.2160e-22  1.7660e-25  2.3362e-22  1.7757e-25  2.5501e-22  1.7931e-25  2.9289e-22  1.8241e-25  3.6028e-22  1.8797e-25  4.8054e-22  1.9801e-25  6.9571e-22  2.1632e-25  1.0834e-21  2.5037e-25  1.7892e-21  3.1575e-25  3.0984e-21  4.4794e-25
      1.90  1.9247e-22  1.8351e-25  1.9254e-22  1.8351e-25  1.9266e-22  1.8353e-25  1.9288e-22  1.8355e-25  1.9326e-22  1.8359e-25  1.9393e-22  1.8366e-25  1.9513e-22  1.8379e-25  1.9725e-22  1.8402e-25  2.0100e-22  1.8442e-25  2.0758e-22  1.8514e-25  2.1919e-22  1.8642e-25  2.3986e-22  1.8871e-25  2.7646e-22  1.9280e-25  3.4160e-22  2.0015e-25  4.5781e-22  2.1345e-25  6.6578e-22  2.3780e-25  1.0405e-21  2.8337e-25  1.7230e-21  3.7173e-25  2.9894e-21  5.5305e-25
      1.95  1.7982e-22  1.9198e-25  1.7988e-22  1.9199e-25  1.8000e-22  1.9201e-25  1.8021e-22  1.9204e-25  1.8058e-22  1.9210e-25  1.8123e-22  1.9220e-25  1.8239e-22  1.9237e-25  1.8444e-22  1.9269e-25  1.8806e-22  1.9324e-25  1.9442e-22  1.9424e-25  2.0564e-22  1.9601e-25  2.2563e-22  1.9918e-25  2.6102e-22  2.0484e-25  3.2398e-22  2.1504e-25  4.3632e-22  2.3353e-25  6.3739e-22  2.6752e-25  9.9968e-22  3.3151e-25  1.6598e-21  4.5683e-25  2.8852e-21  7.1770e-25
      2.00  1.6796e-22  2.0081e-25  1.6802e-22  2.0082e-25  1.6813e-22  2.0085e-25  1.6834e-22  2.0089e-25  1.6869e-22  2.0097e-25  1.6932e-22  2.0111e-25  1.7044e-22  2.0136e-25  1.7243e-22  2.0180e-25  1.7593e-22  2.0259e-25  1.8208e-22  2.0399e-25  1.9294e-22  2.0650e-25  2.1227e-22  2.1097e-25  2.4651e-22  2.1900e-25  3.0741e-22  2.3345e-25  4.1608e-22  2.5970e-25  6.1062e-22  3.0815e-25  9.6109e-22  3.9986e-25  1.6000e-21  5.8104e-25  2.7865e-21  9.6300e-25
      2.05  1.5685e-22  2.1006e-25  1.5691e-22  2.1008e-25  1.5702e-22  2.1011e-25  1.5721e-22  2.1017e-25  1.5756e-22  2.1028e-25  1.5817e-22  2.1048e-25  1.5925e-22  2.1083e-25  1.6117e-22  2.1146e-25  1.6456e-22  2.1257e-25  1.7053e-22  2.1455e-25  1.8104e-22  2.1810e-25  1.9975e-22  2.2442e-25  2.3292e-22  2.3578e-25  2.9189e-22  2.5625e-25  3.9711e-22  2.9351e-25  5.8549e-22  3.6246e-25  9.2490e-22  4.9361e-25  1.5440e-21  7.5462e-25  2.6939e-21  1.3108e-24
      2.10  1.4644e-22  2.1969e-25  1.4650e-22  2.1971e-25  1.4661e-22  2.1976e-25  1.4679e-22  2.1985e-25  1.4713e-22  2.2001e-25  1.4772e-22  2.2028e-25  1.4877e-22  2.2077e-25  1.5064e-22  2.2164e-25  1.5392e-22  2.2320e-25  1.5971e-22  2.2597e-25  1.6991e-22  2.3092e-25  1.8805e-22  2.3977e-25  2.2023e-22  2.5566e-25  2.7741e-22  2.8432e-25  3.7944e-22  3.3657e-25  5.6216e-22  4.3351e-25  8.9137e-22  6.1858e-25  1.4922e-21  9.8914e-25  2.6085e-21  1.7858e-24
      2.15  1.3670e-22  2.2972e-25  1.3675e-22  2.2976e-25  1.3686e-22  2.2983e-25  1.3704e-22  2.2995e-25  1.3736e-22  2.3016e-25  1.3794e-22  2.3054e-25  1.3896e-22  2.3122e-25  1.4077e-22  2.3242e-25  1.4396e-22  2.3457e-25  1.4959e-22  2.3839e-25  1.5951e-22  2.4522e-25  1.7713e-22  2.5745e-25  2.0841e-22  2.7940e-25  2.6398e-22  3.1903e-25  3.6313e-22  3.9136e-25  5.4070e-22  5.2582e-25  8.6066e-22  7.8333e-25  1.4449e-21  1.3014e-24  2.5308e-21  2.4231e-24
      2.20  1.2757e-22  2.4018e-25  1.2763e-22  2.4023e-25  1.2773e-22  2.4033e-25  1.2791e-22  2.4049e-25  1.2822e-22  2.4078e-25  1.2878e-22  2.4130e-25  1.2978e-22  2.4223e-25  1.3154e-22  2.4388e-25  1.3465e-22  2.4682e-25  1.4013e-22  2.5206e-25  1.4980e-22  2.6142e-25  1.6697e-22  2.7817e-25  1.9745e-22  3.0827e-25  2.5158e-22  3.6263e-25  3.4817e-22  4.6195e-25  5.2115e-22  6.4686e-25  8.3287e-22  1.0018e-24  1.4024e-21  1.7183e-24  2.4612e-21  3.2781e-24
      2.25  1.1903e-22  2.5109e-25  1.1909e-22  2.5116e-25  1.1919e-22  2.5129e-25  1.1936e-22  2.5151e-25  1.1967e-22  2.5191e-25  1.2022e-22  2.5262e-25  1.2119e-22  2.5389e-25  1.2291e-22  2.5615e-25  1.2594e-22  2.6016e-25  1.3130e-22  2.6733e-25  1.4075e-22  2.8012e-25  1.5751e-22  3.0303e-25  1.8730e-22  3.4421e-25  2.4016e-22  4.1862e-25  3.3449e-22  5.5462e-25  5.0344e-22  8.0806e-25  8.0792e-22  1.2953e-24  1.3646e-21  2.2812e-24  2.3995e-21  4.4344e-24
      2.30  1.1104e-22  2.6257e-25  1.1110e-22  2.6266e-25  1.1119e-22  2.6284e-25  1.1136e-22  2.6314e-25  1.1166e-22  2.6369e-25  1.1220e-22  2.6466e-25  1.1315e-22  2.6640e-25  1.1483e-22  2.6948e-25  1.1781e-22  2.7497e-25  1.2305e-22  2.8476e-25  1.3231e-22  3.0225e-25  1.4872e-22  3.3356e-25  1.7790e-22  3.8987e-25  2.2965e-22  4.9164e-25  3.2200e-22  6.7771e-25  4.8739e-22  1.0245e-24  7.8548e-22  1.6920e-24  1.3307e-21  3.0433e-24  2.3446e-21  5.9990e-24
      2.35  1.0357e-22  2.7455e-25  1.0362e-22  2.7468e-25  1.0372e-22  2.7492e-25  1.0388e-22  2.7534e-25  1.0418e-22  2.7608e-25  1.0470e-22  2.7741e-25  1.0563e-22  2.7976e-25  1.0728e-22  2.8396e-25  1.1020e-22  2.9144e-25  1.1534e-22  3.0478e-25  1.2443e-22  3.2860e-25  1.4053e-22  3.7126e-25  1.6916e-22  4.4797e-25  2.1993e-22  5.8667e-25  3.1050e-22  8.4023e-25  4.7270e-22  1.3127e-24  7.6509e-22  2.2221e-24  1.3002e-21  4.0625e-24  2.2952e-21  8.0858e-24
      2.40  9.6578e-23  2.8706e-25  9.6630e-23  2.8724e-25  9.6722e-23  2.8756e-25  9.6885e-23  2.8813e-25  9.7175e-23  2.8913e-25  9.7691e-23  2.9092e-25  9.8605e-23  2.9411e-25  1.0023e-22  2.9978e-25  1.0309e-22  3.0988e-25  1.0814e-22  3.2789e-25  1.1707e-22  3.6006e-25  1.3288e-22  4.1768e-25  1.6099e-22  5.2125e-25  2.1086e-22  7.0861e-25  2.9977e-22  1.0510e-24  4.5902e-22  1.6885e-24  7.4611e-22  2.9149e-24  1.2719e-21  5.3931e-24  2.2491e-21  1.0800e-23
      2.45  9.0041e-23  3.0014e-25  9.0092e-23  3.0038e-25  9.0182e-23  3.0080e-25  9.0343e-23  3.0156e-25  9.0627e-23  3.0290e-25  9.1133e-23  3.0529e-25  9.2031e-23  3.0953e-25  9.3622e-23  3.1709e-25  9.6434e-23  3.3055e-25  1.0140e-22  3.5456e-25  1.1017e-22  3.9744e-25  1.2570e-22  4.7422e-25  1.5331e-22  6.1223e-25  2.0230e-22  8.6196e-25  2.8960e-22  1.3180e-24  4.4600e-22  2.1664e-24  7.2805e-22  3.7965e-24  1.2446e-21  7.0835e-24  2.2045e-21  1.4231e-23
      2.50  8.3930e-23  3.1382e-25  8.3980e-23  3.1413e-25  8.4068e-23  3.1469e-25  8.4226e-23  3.1568e-25  8.4505e-23  3.1744e-25  8.5002e-23  3.2057e-25  8.5883e-23  3.2614e-25  8.7443e-23  3.3606e-25  9.0205e-23  3.5373e-25  9.5077e-23  3.8524e-25  1.0369e-22  4.4150e-25  1.1895e-22  5.4223e-25  1.4605e-22  7.2328e-25  1.9416e-22  1.0509e-24  2.7986e-22  1.6488e-24  4.3341e-22  2.7599e-24  7.1047e-22  4.8911e-24  1.2176e-21  9.1786e-24  2.1600e-21  1.8465e-23
      2.55  7.8218e-23  3.2826e-25  7.8267e-23  3.2866e-25  7.8354e-23  3.2938e-25  7.8508e-23  3.3066e-25  7.8782e-23  3.3293e-25  7.9269e-23  3.3698e-25  8.0133e-23  3.4417e-25  8.1665e-23  3.5698e-25  8.4374e-23  3.7979e-25  8.9154e-23  4.2045e-25  9.7606e-23  4.9307e-25  1.1258e-22  6.2305e-25  1.3917e-22  8.5666e-25  1.8639e-22  1.2794e-24  2.7045e-22  2.0504e-24  4.2111e-22  3.4813e-24  6.9307e-22  6.2211e-24  1.1907e-21  1.1719e-23  2.1152e-21  2.3576e-23
      2.60  7.2881e-23  3.4336e-25  7.2929e-23  3.4387e-25  7.3014e-23  3.4478e-25  7.3165e-23  3.4641e-25  7.3433e-23  3.4929e-25  7.3910e-23  3.5442e-25  7.4757e-23  3.6355e-25  7.6258e-23  3.7981e-25  7.8913e-23  4.0875e-25  8.3600e-23  4.6034e-25  9.1884e-23  5.5246e-25  1.0656e-22  7.1734e-25  1.3263e-22  1.0136e-24  1.7894e-22  1.5496e-24  2.6135e-22  2.5269e-24  4.0904e-22  4.3386e-24  6.7577e-22  7.8012e-24  1.1636e-21  1.4732e-23  2.0699e-21  2.9617e-23
      2.65  6.7894e-23  3.5915e-25  6.7941e-23  3.5979e-25  6.8024e-23  3.6093e-25  6.8172e-23  3.6295e-25  6.8435e-23  3.6655e-25  6.8902e-23  3.7294e-25  6.9731e-23  3.8432e-25  7.1201e-23  4.0457e-25  7.3802e-23  4.4063e-25  7.8392e-23  5.0491e-25  8.6505e-23  6.1967e-25  1.0088e-22  8.2505e-25  1.2641e-22  1.1941e-24  1.7180e-22  1.8616e-24  2.5253e-22  3.0783e-24  3.9722e-22  5.3315e-24  6.5864e-22  9.6308e-24  1.1366e-21  1.8217e-23  2.0242e-21  3.6589e-23
      2.70  6.3236e-23  3.7567e-25  6.3282e-23  3.7645e-25  6.3363e-23  3.7784e-25  6.3508e-23  3.8031e-25  6.3765e-23  3.8471e-25  6.4222e-23  3.9252e-25  6.5034e-23  4.0642e-25  6.6472e-23  4.3117e-25  6.9018e-23  4.7523e-25  7.3511e-23  5.5377e-25  8.1451e-23  6.9397e-25  9.5519e-23  9.4486e-25  1.2051e-22  1.3957e-24  1.6497e-22  2.2110e-24  2.4401e-22  3.6969e-24  3.8568e-22  6.4464e-24  6.4176e-22  1.1686e-23  1.1098e-21  2.2131e-23  1.9787e-21  4.4413e-23
      2.75  5.8886e-23  3.9294e-25  5.8930e-23  3.9388e-25  5.9010e-23  3.9554e-25  5.9152e-23  3.9850e-25  5.9404e-23  4.0375e-25  5.9851e-23  4.1310e-25  6.0645e-23  4.2974e-25  6.2052e-23  4.5934e-25  6.4542e-23  5.1205e-25  6.8940e-23  6.0601e-25  7.6707e-23  7.7374e-25  9.0473e-23  1.0739e-24  1.1494e-22  1.6132e-24  1.5845e-22  2.5886e-24  2.3584e-22  4.3662e-24  3.7448e-22  7.6535e-24  6.2525e-22  1.3912e-23  1.0834e-21  2.6375e-23  1.9338e-21  5.2904e-23
      2.80  5.4824e-23  4.1122e-25  5.4868e-23  4.1231e-25  5.4946e-23  4.1425e-25  5.5084e-23  4.1771e-25  5.5331e-23  4.2386e-25  5.5768e-23  4.3480e-25  5.6544e-23  4.5426e-25  5.7921e-23  4.8890e-25  6.0358e-23  5.5057e-25  6.4660e-23  6.6049e-25  7.2259e-23  8.5672e-25  8.5730e-23  1.2079e-24  1.0968e-22  1.8389e-24  1.5226e-22  2.9804e-24  2.2801e-22  5.0608e-24  3.6368e-22  8.9070e-24  6.0926e-22  1.6225e-23  1.0577e-21  3.0792e-23  1.8901e-21  6.1767e-23
      2.85  5.1033e-23  4.3031e-25  5.1076e-23  4.3156e-25  5.1152e-23  4.3378e-25  5.1287e-23  4.3774e-25  5.1528e-23  4.4477e-25  5.1956e-23  4.5727e-25  5.2715e-23  4.7951e-25  5.4062e-23  5.1910e-25  5.6446e-23  5.8959e-25  6.0656e-23  7.1522e-25  6.8091e-23  9.3952e-25  8.1274e-23  1.3409e-24  1.0472e-22  2.0624e-24  1.4639e-22  3.3679e-24  2.2053e-22  5.7476e-24  3.5330e-22  1.0147e-23  5.9380e-22  1.8517e-23  1.0328e-21  3.5180e-23  1.8477e-21  7.0609e-23
      2.90  4.7495e-23  4.5027e-25  4.7536e-23  4.5167e-25  4.7611e-23  4.5415e-25  4.7743e-23  4.5856e-25  4.7979e-23  4.6640e-25  4.8397e-23  4.8036e-25  4.9140e-23  5.0518e-25  5.0457e-23  5.4936e-25  5.2788e-23  6.2802e-25  5.6908e-23  7.6824e-25  6.4183e-23  1.0186e-24  7.7082e-23  1.4667e-24  1.0003e-22  2.2723e-24  1.4080e-22  3.7305e-24  2.1334e-22  6.3895e-24  3.4328e-22  1.1305e-23  5.7876e-22  2.0662e-23  1.0085e-21  3.9305e-23  1.8061e-21  7.8975e-23
      2.95  4.4193e-23  4.7116e-25  4.4234e-23  4.7268e-25  4.4307e-23  4.7538e-25  4.4436e-23  4.8019e-25  4.4666e-23  4.8873e-25  4.5075e-23  5.0394e-25  4.5801e-23  5.3098e-25  4.7088e-23  5.7911e-25  4.9368e-23  6.6483e-25  5.3398e-23  8.1761e-25  6.0513e-23  1.0904e-24  7.3132e-23  1.5788e-24  9.5576e-23  2.4571e-24  1.3545e-22  4.0478e-24  2.0641e-22  6.9493e-24  3.3356e-22  1.2315e-23  5.6394e-22  2.2536e-23  9.8441e-22  4.2928e-23  1.7649e-21  8.6392e-23
      3.00  4.1113e-23  4.9305e-25  4.1153e-23  4.9467e-25  4.1224e-23  4.9755e-25  4.1350e-23  5.0266e-25  4.1575e-23  5.1175e-25  4.1974e-23  5.2792e-25  4.2683e-23  5.5670e-25  4.3941e-23  6.0791e-25  4.6169e-23  6.9911e-25  5.0108e-23  8.6167e-25  5.7061e-23  1.1520e-24  6.9399e-23  1.6719e-24  9.1334e-23  2.6071e-24  1.3029e-22  4.3018e-24  1.9964e-22  7.3945e-24  3.2400e-22  1.3116e-23  5.4924e-22  2.4028e-23  9.6031e-22  4.5835e-23  1.7234e-21  9.2432e-23
      3.05  3.8240e-23  5.1640e-25  3.8279e-23  5.1809e-25  3.8349e-23  5.2107e-25  3.8472e-23  5.2639e-25  3.8691e-23  5.3584e-25  3.9081e-23  5.5265e-25  3.9772e-23  5.8257e-25  4.1000e-23  6.3580e-25  4.3174e-23  7.3061e-25  4.7021e-23  8.9963e-25  5.3809e-23  1.2015e-24  6.5860e-23  1.7423e-24  8.7274e-23  2.7154e-24  1.2531e-22  4.4798e-24  1.9301e-22  7.7017e-24  3.1452e-22  1.3665e-23  5.3451e-22  2.5054e-23  9.3607e-22  4.7864e-23  1.6815e-21  9.6755e-23
      3.10  3.5561e-23  5.4068e-25  3.5599e-23  5.4238e-25  3.5667e-23  5.4542e-25  3.5787e-23  5.5083e-25  3.6001e-23  5.6043e-25  3.6380e-23  5.7753e-25  3.7055e-23  6.0794e-25  3.8251e-23  6.6206e-25  4.0371e-23  7.5845e-25  4.4122e-23  9.3030e-25  5.0745e-23  1.2373e-24  6.2497e-23  1.7873e-24  8.3378e-23  2.7777e-24  1.2047e-22  4.5744e-24  1.8649e-22  7.8572e-24  3.0505e-22  1.3937e-23  5.1967e-22  2.5568e-23  9.1146e-22  4.8920e-23  1.6389e-21  9.9154e-23
      3.15  3.3064e-23  5.6647e-25  3.3101e-23  5.6817e-25  3.3167e-23  5.7119e-25  3.3284e-23  5.7657e-25  3.3491e-23  5.8613e-25  3.3861e-23  6.0315e-25  3.4517e-23  6.3341e-25  3.5682e-23  6.8728e-25  3.7747e-23  7.8322e-25  4.1401e-23  9.5430e-25  4.7853e-23  1.2600e-24  5.9299e-23  1.8078e-24  7.9632e-23  2.7945e-24  1.1576e-22  4.5860e-24  1.8005e-22  7.8610e-24  2.9562e-22  1.3932e-23  5.0474e-22  2.5565e-23  8.8653e-22  4.8983e-23  1.5955e-21  9.9569e-23
      3.20  3.0736e-23  5.9374e-25  3.0772e-23  5.9540e-25  3.0836e-23  5.9835e-25  3.0949e-23  6.0359e-25  3.1151e-23  6.1293e-25  3.1511e-23  6.2952e-25  3.2149e-23  6.5906e-25  3.3282e-23  7.1162e-25  3.5290e-23  8.0525e-25  3.8844e-23  9.7221e-25  4.5123e-23  1.2706e-24  5.6256e-23  1.8055e-24  7.6031e-23  2.7694e-24  1.1118e-22  4.5203e-24  1.7371e-22  7.7240e-24  2.8622e-22  1.3667e-23  4.8973e-22  2.5076e-23  8.6134e-22  4.8109e-23  1.5516e-21  9.8082e-23
      3.25  2.8566e-23  6.2236e-25  2.8601e-23  6.2395e-25  2.8663e-23  6.2678e-25  2.8774e-23  6.3181e-25  2.8970e-23  6.4075e-25  2.9319e-23  6.5666e-25  2.9939e-23  6.8496e-25  3.1039e-23  7.3533e-25  3.2990e-23  8.2506e-25  3.6443e-23  9.8509e-25  4.2546e-23  1.2711e-24  5.3361e-23  1.7840e-24  7.2571e-23  2.7088e-24  1.0672e-22  4.3892e-24  1.6748e-22  7.4669e-24  2.7690e-22  1.3178e-23  4.7473e-22  2.4165e-23  8.3602e-22  4.6412e-23  1.5072e-21  9.4906e-23
      3.30  2.6545e-23  6.5294e-25  2.6579e-23  6.5444e-25  2.6639e-23  6.5710e-25  2.6746e-23  6.6185e-25  2.6937e-23  6.7028e-25  2.7275e-23  6.8528e-25  2.7876e-23  7.1197e-25  2.8944e-23  7.5948e-25  3.0837e-23  8.4411e-25  3.4190e-23  9.9505e-25  4.0115e-23  1.2649e-24  5.0610e-23  1.7489e-24  6.9251e-23  2.6219e-24  1.0240e-22  4.2088e-24  1.6138e-22  7.1180e-24  2.6768e-22  1.2518e-23  4.5981e-22  2.2925e-23  8.1073e-22  4.4060e-23  1.4628e-21  9.0343e-23
      3.35  2.4662e-23  6.8510e-25  2.4695e-23  6.8649e-25  2.4753e-23  6.8897e-25  2.4857e-23  6.9339e-25  2.5042e-23  7.0123e-25  2.5370e-23  7.1519e-25  2.5953e-23  7.4003e-25  2.6988e-23  7.8424e-25  2.8824e-23  8.6299e-25  3.2076e-23  1.0035e-24  3.7823e-23  1.2546e-24  4.7999e-23  1.7052e-24  6.6073e-23  2.5182e-24  9.8219e-23  3.9964e-24  1.5544e-22  6.7084e-24  2.5863e-22  1.1744e-23  4.4506e-22  2.1464e-23  7.8560e-22  4.1256e-23  1.4185e-21  8.4783e-23
      3.40  2.2908e-23  7.1897e-25  2.2940e-23  7.2025e-25  2.2997e-23  7.2254e-25  2.3097e-23  7.2660e-25  2.3276e-23  7.3383e-25  2.3594e-23  7.4669e-25  2.4159e-23  7.6957e-25  2.5162e-23  8.1029e-25  2.6942e-23  8.8283e-25  3.0093e-23  1.0122e-24  3.5666e-23  1.2436e-24  4.5526e-23  1.6588e-24  6.3040e-23  2.4081e-24  9.4195e-23  3.7705e-24  1.4971e-22  6.2707e-24  2.4977e-22  1.0916e-23  4.3054e-22  1.9894e-23  7.6080e-22  3.8209e-23  1.3747e-21  7.8636e-23
      3.45  2.1275e-23  7.5469e-25  2.1306e-23  7.5587e-25  2.1361e-23  7.5796e-25  2.1459e-23  7.6168e-25  2.1632e-23  7.6830e-25  2.1940e-23  7.8007e-25  2.2487e-23  8.0101e-25  2.3459e-23  8.3829e-25  2.5183e-23  9.0470e-25  2.8237e-23  1.0232e-24  3.3637e-23  1.2350e-24  4.3189e-23  1.6151e-24  6.0154e-23  2.3011e-24  9.0338e-23  3.5484e-24  1.4417e-22  5.8375e-24  2.4115e-22  1.0092e-23  4.1636e-22  1.8319e-23  7.3646e-22  3.5123e-23  1.3316e-21  7.2311e-23
      3.50  1.9755e-23  7.9242e-25  1.9785e-23  7.9349e-25  1.9838e-23  7.9541e-25  1.9933e-23  7.9881e-25  2.0101e-23  8.0486e-25  2.0399e-23  8.1562e-25  2.0929e-23  8.3477e-25  2.1870e-23  8.6886e-25  2.3541e-23  9.2959e-25  2.6500e-23  1.0379e-24  3.1733e-23  1.2316e-24  4.0985e-23  1.5791e-24  5.7418e-23  2.2062e-24  8.6660e-23  3.3458e-24  1.3886e-22  5.4345e-24  2.3285e-22  9.3191e-24  4.0264e-22  1.6830e-23  7.1281e-22  3.2175e-23  1.2894e-21  6.6178e-23
      3.55  1.8341e-23  8.3306e-25  1.8370e-23  8.3404e-25  1.8421e-23  8.3580e-25  1.8513e-23  8.3893e-25  1.8675e-23  8.4449e-25  1.8964e-23  8.5438e-25  1.9478e-23  8.7197e-25  2.0389e-23  9.0329e-25  2.2009e-23  9.5909e-25  2.4877e-23  1.0586e-24  2.9950e-23  1.2365e-24  3.8914e-23  1.5556e-24  5.4838e-23  2.1312e-24  8.3172e-23  3.1765e-24  1.3380e-22  5.0892e-24  2.2490e-22  8.6465e-24  3.8946e-22  1.5517e-23  6.9004e-22  2.9532e-23  1.2488e-21  6.0555e-23
      3.60  1.7024e-23  8.7610e-25  1.7053e-23  8.7702e-25  1.7103e-23  8.7865e-25  1.7191e-23  8.8156e-25  1.7349e-23  8.8673e-25  1.7629e-23  8.9592e-25  1.8126e-23  9.1228e-25  1.9012e-23  9.4139e-25  2.0581e-23  9.9324e-25  2.3362e-23  1.0857e-24  2.8283e-23  1.2510e-24  3.6973e-23  1.5472e-24  5.2414e-23  2.0813e-24  7.9881e-23  3.0503e-24  1.2901e-22  4.8197e-24  2.1735e-22  8.1082e-24  3.7691e-22  1.4444e-23  6.6828e-22  2.7326e-23  1.2097e-21  5.5733e-23
      3.65  1.5800e-23  9.2180e-25  1.5827e-23  9.2267e-25  1.5876e-23  9.2422e-25  1.5962e-23  9.2697e-25  1.6115e-23  9.3186e-25  1.6387e-23  9.4056e-25  1.6870e-23  9.5605e-25  1.7728e-23  9.8360e-25  1.9251e-23  1.0327e-24  2.1951e-23  1.1202e-24  2.6726e-23  1.2764e-24  3.5160e-23  1.5565e-24  5.0144e-23  2.0607e-24  7.6792e-23  2.9745e-24  1.2450e-22  4.6393e-24  2.1023e-22  7.7284e-24  3.6505e-22  1.3658e-23  6.4770e-22  2.5648e-23  1.1727e-21  5.1905e-23
      3.70  1.4661e-23  9.7021e-25  1.4688e-23  9.7105e-25  1.4735e-23  9.7255e-25  1.4818e-23  9.7522e-25  1.4967e-23  9.7996e-25  1.5231e-23  9.8840e-25  1.5700e-23  1.0034e-24  1.6534e-23  1.0301e-24  1.8014e-23  1.0777e-24  2.0636e-23  1.1624e-24  2.5276e-23  1.3138e-24  3.3471e-23  1.5847e-24  4.8024e-23  2.0720e-24  7.3903e-23  2.9538e-24  1.2027e-22  4.5561e-24  2.0355e-22  7.5222e-24  3.5392e-22  1.3187e-23  6.2835e-22  2.4555e-23  1.1379e-21  4.9196e-23
      3.75  1.3602e-23  1.0218e-24  1.3628e-23  1.0227e-24  1.3674e-23  1.0242e-24  1.3755e-23  1.0268e-24  1.3899e-23  1.0315e-24  1.4156e-23  1.0399e-24  1.4613e-23  1.0549e-24  1.5423e-23  1.0815e-24  1.6862e-23  1.1289e-24  1.9412e-23  1.2133e-24  2.3925e-23  1.3639e-24  3.1896e-23  1.6332e-24  4.6046e-23  2.1170e-24  7.1205e-23  2.9908e-24  1.1632e-22  4.5748e-24  1.9730e-22  7.4977e-24  3.4350e-22  1.3046e-23  6.1022e-22  2.4076e-23  1.1052e-21  4.7668e-23
      3.80  1.2618e-23  1.0780e-24  1.2643e-23  1.0789e-24  1.2687e-23  1.0804e-24  1.2767e-23  1.0831e-24  1.2907e-23  1.0880e-24  1.3157e-23  1.0966e-24  1.3601e-23  1.1119e-24  1.4390e-23  1.1392e-24  1.5791e-23  1.1877e-24  1.8273e-23  1.2741e-24  2.2667e-23  1.4282e-24  3.0428e-23  1.7035e-24  4.4200e-23  2.1974e-24  6.8686e-23  3.0878e-24  1.1263e-22  4.6979e-24  1.9146e-22  7.6583e-24  3.3375e-22  1.3241e-23  5.9326e-22  2.4221e-23  1.0746e-21  4.7343e-23
      3.85  1.1703e-23  1.1379e-24  1.1728e-23  1.1388e-24  1.1771e-23  1.1404e-24  1.1848e-23  1.1433e-24  1.1985e-23  1.1484e-24  1.2228e-23  1.1574e-24  1.2661e-23  1.1736e-24  1.3430e-23  1.2022e-24  1.4794e-23  1.2532e-24  1.7213e-23  1.3440e-24  2.1494e-23  1.5058e-24  2.9057e-23  1.7946e-24  4.2475e-23  2.3120e-24  6.6330e-23  3.2430e-24  1.0917e-22  4.9232e-24  1.8599e-22  8.0010e-24  3.2462e-22  1.3766e-23  5.7738e-22  2.4981e-23  1.0459e-21  4.8203e-23
      3.90  1.0853e-23  1.2018e-24  1.0877e-23  1.2028e-24  1.0919e-23  1.2045e-24  1.0994e-23  1.2076e-24  1.1128e-23  1.2131e-24  1.1365e-23  1.2228e-24  1.1787e-23  1.2401e-24  1.2536e-23  1.2709e-24  1.3866e-23  1.3257e-24  1.6224e-23  1.4231e-24  2.0399e-23  1.5967e-24  2.7775e-23  1.9060e-24  4.0858e-23  2.4598e-24  6.4132e-23  3.4545e-24  1.0591e-22  5.2471e-24  1.8083e-22  8.5187e-24  3.1601e-22  1.4608e-23  5.6241e-22  2.6332e-23  1.0190e-21  5.0202e-23
      3.95  1.0063e-23  1.2701e-24  1.0086e-23  1.2711e-24  1.0128e-23  1.2730e-24  1.0201e-23  1.2763e-24  1.0331e-23  1.2822e-24  1.0563e-23  1.2926e-24  1.0974e-23  1.3112e-24  1.1705e-23  1.3442e-24  1.3002e-23  1.4030e-24  1.5303e-23  1.5075e-24  1.9375e-23  1.6934e-24  2.6574e-23  2.0247e-24  3.9336e-23  2.6171e-24  6.2063e-23  3.6798e-24  1.0284e-22  5.5924e-24  1.7595e-22  9.0732e-24  3.0784e-22  1.5519e-23  5.4821e-22  2.7819e-23  9.9343e-22  5.2504e-23
