# This was generated using Cloudy10 and the columns are ordered 
# as log10 of the fraction of the metallicity to the solar metallicity
# 'h_*_Z' and 'c_*_Z' stands for cooling and heating respectively 
# at * metalicity
#
# NOTE: This was generated separately from loop_coolingcurve_w_UV.py
#       using Output_metals_w_redshift.py.
#
# Redshift = 5.0
# hden = -7.0
#
#     temp   h_-3.00_Z   c_-3.00_Z   h_-2.75_Z   c_-2.75_Z   h_-2.50_Z   c_-2.50_Z   h_-2.25_Z   c_-2.25_Z   h_-2.00_Z   c_-2.00_Z   h_-1.75_Z   c_-1.75_Z   h_-1.50_Z   c_-1.50_Z   h_-1.25_Z   c_-1.25_Z   h_-1.00_Z   c_-1.00_Z   h_-0.75_Z   c_-0.75_Z   h_-0.50_Z   c_-0.50_Z   h_-0.25_Z   c_-0.25_Z    h_0.00_Z    c_0.00_Z    h_0.25_Z    c_0.25_Z    h_0.50_Z    c_0.50_Z    h_0.75_Z    c_0.75_Z    h_1.00_Z    c_1.00_Z    h_1.25_Z    c_1.25_Z    h_1.50_Z    c_1.50_Z 
      1.00  7.1179e-22  9.1262e-25  7.1211e-22  9.1262e-25  7.1267e-22  9.1263e-25  7.1366e-22  9.1265e-25  7.1543e-22  9.1268e-25  7.1856e-22  9.1273e-25  7.2409e-22  9.1282e-25  7.3379e-22  9.1299e-25  7.5075e-22  9.1329e-25  7.8060e-22  9.1381e-25  8.3358e-22  9.1475e-25  9.2805e-22  9.1642e-25  1.0954e-21  9.1939e-25  1.3933e-21  9.2469e-25  1.9255e-21  9.3411e-25  2.8825e-21  9.5094e-25  4.6236e-21  9.8108e-25  7.8381e-21  1.0354e-24  1.3923e-20  1.1340e-24
      1.05  6.6713e-22  1.0188e-24  6.6744e-22  1.0188e-24  6.6797e-22  1.0188e-24  6.6893e-22  1.0188e-24  6.7062e-22  1.0188e-24  6.7362e-22  1.0189e-24  6.7891e-22  1.0190e-24  6.8822e-22  1.0192e-24  7.0448e-22  1.0195e-24  7.3310e-22  1.0201e-24  7.8384e-22  1.0211e-24  8.7438e-22  1.0229e-24  1.0348e-21  1.0262e-24  1.3203e-21  1.0320e-24  1.8304e-21  1.0423e-24  2.7478e-21  1.0607e-24  4.4170e-21  1.0936e-24  7.5009e-21  1.1528e-24  1.3346e-20  1.2602e-24
      1.10  6.2511e-22  1.1376e-24  6.2540e-22  1.1376e-24  6.2592e-22  1.1376e-24  6.2683e-22  1.1376e-24  6.2845e-22  1.1377e-24  6.3133e-22  1.1377e-24  6.3640e-22  1.1379e-24  6.4531e-22  1.1381e-24  6.6090e-22  1.1384e-24  6.8833e-22  1.1390e-24  7.3690e-22  1.1402e-24  8.2366e-22  1.1422e-24  9.7745e-22  1.1457e-24  1.2509e-21  1.1521e-24  1.7396e-21  1.1634e-24  2.6189e-21  1.1836e-24  4.2185e-21  1.2196e-24  7.1761e-21  1.2844e-24  1.2788e-20  1.4017e-24
      1.15  5.8559e-22  1.2707e-24  5.8586e-22  1.2707e-24  5.8636e-22  1.2707e-24  5.8723e-22  1.2707e-24  5.8879e-22  1.2707e-24  5.9154e-22  1.2708e-24  5.9639e-22  1.2709e-24  6.0493e-22  1.2712e-24  6.1987e-22  1.2715e-24  6.4616e-22  1.2722e-24  6.9264e-22  1.2735e-24  7.7574e-22  1.2757e-24  9.2308e-22  1.2796e-24  1.1850e-21  1.2866e-24  1.6531e-21  1.2990e-24  2.4954e-21  1.3212e-24  4.0279e-21  1.3608e-24  6.8635e-21  1.4319e-24  1.2251e-20  1.5603e-24
      1.20  5.4843e-22  1.4196e-24  5.4869e-22  1.4196e-24  5.4916e-22  1.4197e-24  5.5000e-22  1.4197e-24  5.5149e-22  1.4197e-24  5.5412e-22  1.4198e-24  5.5877e-22  1.4199e-24  5.6695e-22  1.4202e-24  5.8126e-22  1.4206e-24  6.0643e-22  1.4214e-24  6.5091e-22  1.4227e-24  7.3048e-22  1.4252e-24  8.7159e-22  1.4295e-24  1.1224e-21  1.4372e-24  1.5705e-21  1.4509e-24  2.3772e-21  1.4753e-24  3.8449e-21  1.5189e-24  6.5628e-21  1.5970e-24  1.1732e-20  1.7380e-24
      1.25  5.1350e-22  1.5877e-24  5.1376e-22  1.5877e-24  5.1421e-22  1.5877e-24  5.1501e-22  1.5877e-24  5.1643e-22  1.5878e-24  5.1895e-22  1.5879e-24  5.2340e-22  1.5880e-24  5.3122e-22  1.5883e-24  5.4491e-22  1.5888e-24  5.6899e-22  1.5896e-24  6.1156e-22  1.5911e-24  6.8759e-22  1.5938e-24  8.2257e-22  1.5986e-24  1.0624e-21  1.6071e-24  1.4909e-21  1.6223e-24  2.2625e-21  1.6493e-24  3.6664e-21  1.6976e-24  6.2681e-21  1.7840e-24  1.1221e-20  1.9397e-24
      1.30  4.8070e-22  1.7761e-24  4.8095e-22  1.7761e-24  4.8138e-22  1.7761e-24  4.8214e-22  1.7762e-24  4.8350e-22  1.7762e-24  4.8591e-22  1.7763e-24  4.9016e-22  1.7765e-24  4.9764e-22  1.7768e-24  5.1074e-22  1.7773e-24  5.3376e-22  1.7783e-24  5.7450e-22  1.7799e-24  6.4713e-22  1.7829e-24  7.7621e-22  1.7882e-24  1.0055e-21  1.7977e-24  1.4153e-21  1.8145e-24  2.1529e-21  1.8445e-24  3.4959e-21  1.8980e-24  5.9855e-21  1.9938e-24  1.0731e-20  2.1662e-24
      1.35  4.4990e-22  1.9870e-24  4.5013e-22  1.9870e-24  4.5054e-22  1.9870e-24  4.5128e-22  1.9870e-24  4.5257e-22  1.9871e-24  4.5487e-22  1.9872e-24  4.5894e-22  1.9874e-24  4.6609e-22  1.9877e-24  4.7862e-22  1.9883e-24  5.0063e-22  1.9893e-24  5.3960e-22  1.9912e-24  6.0899e-22  1.9945e-24  7.3240e-22  2.0004e-24  9.5163e-22  2.0109e-24  1.3434e-21  2.0296e-24  2.0485e-21  2.0629e-24  3.3331e-21  2.1223e-24  5.7153e-21  2.2285e-24  1.0261e-20  2.4196e-24
      1.40  4.2098e-22  2.2229e-24  4.2120e-22  2.2229e-24  4.2160e-22  2.2229e-24  4.2230e-22  2.2230e-24  4.2354e-22  2.2230e-24  4.2574e-22  2.2232e-24  4.2962e-22  2.2234e-24  4.3646e-22  2.2237e-24  4.4844e-22  2.2244e-24  4.6949e-22  2.2255e-24  5.0675e-22  2.2276e-24  5.7303e-22  2.2313e-24  6.9101e-22  2.2379e-24  9.0058e-22  2.2495e-24  1.2750e-21  2.2703e-24  1.9492e-21  2.3073e-24  3.1777e-21  2.3732e-24  5.4567e-21  2.4911e-24  9.8112e-21  2.7029e-24
      1.45  3.9385e-22  2.4870e-24  3.9406e-22  2.4871e-24  3.9443e-22  2.4871e-24  3.9510e-22  2.4871e-24  3.9628e-22  2.4872e-24  3.9838e-22  2.4873e-24  4.0209e-22  2.4876e-24  4.0861e-22  2.4880e-24  4.2005e-22  2.4887e-24  4.4013e-22  2.4900e-24  4.7571e-22  2.4923e-24  5.3892e-22  2.4964e-24  6.5149e-22  2.5037e-24  8.5146e-22  2.5166e-24  1.2087e-21  2.5397e-24  1.8521e-21  2.5808e-24  3.0248e-21  2.6540e-24  5.2017e-21  2.7850e-24  9.3635e-21  3.0199e-24
      1.50  3.6839e-22  2.7828e-24  3.6859e-22  2.7828e-24  3.6895e-22  2.7829e-24  3.6958e-22  2.7829e-24  3.7071e-22  2.7830e-24  3.7271e-22  2.7831e-24  3.7625e-22  2.7834e-24  3.8248e-22  2.7838e-24  3.9340e-22  2.7846e-24  4.1257e-22  2.7861e-24  4.4655e-22  2.7886e-24  5.0685e-22  2.7932e-24  6.1432e-22  2.8013e-24  8.0519e-22  2.8157e-24  1.1463e-21  2.8414e-24  1.7604e-21  2.8871e-24  2.8804e-21  2.9685e-24  4.9611e-21  3.1139e-24  8.9409e-21  3.3748e-24
      1.55  3.4451e-22  3.1141e-24  3.4470e-22  3.1141e-24  3.4505e-22  3.1141e-24  3.4565e-22  3.1142e-24  3.4673e-22  3.1143e-24  3.4864e-22  3.1144e-24  3.5202e-22  3.1147e-24  3.5798e-22  3.1152e-24  3.6841e-22  3.1161e-24  3.8672e-22  3.1177e-24  4.1918e-22  3.1206e-24  4.7676e-22  3.1256e-24  5.7938e-22  3.1347e-24  7.6170e-22  3.1507e-24  1.0874e-21  3.1792e-24  1.6742e-21  3.2300e-24  2.7443e-21  3.3206e-24  4.7342e-21  3.4822e-24  8.5425e-21  3.7719e-24
      1.60  3.2213e-22  3.4852e-24  3.2231e-22  3.4852e-24  3.2264e-22  3.4852e-24  3.2322e-22  3.4853e-24  3.2424e-22  3.4854e-24  3.2606e-22  3.4856e-24  3.2928e-22  3.4859e-24  3.3496e-22  3.4864e-24  3.4491e-22  3.4874e-24  3.6235e-22  3.4892e-24  3.9331e-22  3.4924e-24  4.4824e-22  3.4980e-24  5.4596e-22  3.5081e-24  7.1977e-22  3.5259e-24  1.0302e-21  3.5577e-24  1.5896e-21  3.6142e-24  2.6099e-21  3.7149e-24  4.5092e-21  3.8947e-24  8.1462e-21  4.2167e-24
      1.65  3.0114e-22  3.9009e-24  3.0132e-22  3.9009e-24  3.0163e-22  3.9010e-24  3.0218e-22  3.9010e-24  3.0316e-22  3.9012e-24  3.0490e-22  3.9014e-24  3.0796e-22  3.9017e-24  3.1337e-22  3.9023e-24  3.2287e-22  3.9035e-24  3.3949e-22  3.9054e-24  3.6901e-22  3.9090e-24  4.2142e-22  3.9153e-24  5.1450e-22  3.9264e-24  6.8021e-22  3.9463e-24  9.7619e-22  3.9817e-24  1.5095e-21  4.0446e-24  2.4827e-21  4.1567e-24  4.2959e-21  4.3568e-24  7.7701e-21  4.7148e-24
      1.70  2.8148e-22  4.3668e-24  2.8165e-22  4.3668e-24  2.8194e-22  4.3669e-24  2.8247e-22  4.3669e-24  2.8340e-22  4.3671e-24  2.8506e-22  4.3673e-24  2.8798e-22  4.3677e-24  2.9314e-22  4.3684e-24  3.0220e-22  4.3696e-24  3.1805e-22  4.3718e-24  3.4622e-22  4.3758e-24  3.9622e-22  4.3828e-24  4.8492e-22  4.3952e-24  6.4299e-22  4.4174e-24  9.2525e-22  4.4568e-24  1.4339e-21  4.5269e-24  2.3626e-21  4.6518e-24  4.0942e-21  4.8745e-24  7.4143e-21  5.2729e-24
      1.75  2.6306e-22  4.8889e-24  2.6322e-22  4.8889e-24  2.6350e-22  4.8889e-24  2.6400e-22  4.8890e-24  2.6489e-22  4.8892e-24  2.6646e-22  4.8894e-24  2.6925e-22  4.8898e-24  2.7418e-22  4.8906e-24  2.8282e-22  4.8921e-24  2.9793e-22  4.8945e-24  3.2481e-22  4.8989e-24  3.7250e-22  4.9067e-24  4.5703e-22  4.9206e-24  6.0778e-22  4.9453e-24  8.7694e-22  4.9892e-24  1.3621e-21  5.0674e-24  2.2483e-21  5.2065e-24  3.9019e-21  5.4547e-24  7.0741e-21  5.8983e-24
      1.80  2.4580e-22  5.4741e-24  2.4595e-22  5.4741e-24  2.4622e-22  5.4741e-24  2.4670e-22  5.4742e-24  2.4755e-22  5.4744e-24  2.4905e-22  5.4746e-24  2.5171e-22  5.4751e-24  2.5640e-22  5.4760e-24  2.6465e-22  5.4776e-24  2.7907e-22  5.4803e-24  3.0471e-22  5.4852e-24  3.5019e-22  5.4939e-24  4.3074e-22  5.5095e-24  5.7452e-22  5.5370e-24  8.3118e-22  5.5861e-24  1.2940e-21  5.6734e-24  2.1396e-21  5.8288e-24  3.7188e-21  6.1058e-24  6.7499e-21  6.6007e-24
      1.85  2.2965e-22  6.1300e-24  2.2979e-22  6.1300e-24  2.3005e-22  6.1301e-24  2.3050e-22  6.1302e-24  2.3131e-22  6.1303e-24  2.3274e-22  6.1306e-24  2.3527e-22  6.1312e-24  2.3975e-22  6.1322e-24  2.4761e-22  6.1339e-24  2.6136e-22  6.1370e-24  2.8579e-22  6.1424e-24  3.2914e-22  6.1522e-24  4.0593e-22  6.1695e-24  5.4290e-22  6.2003e-24  7.8752e-22  6.2551e-24  1.2287e-21  6.3525e-24  2.0352e-21  6.5260e-24  3.5427e-21  6.8352e-24  6.4375e-21  7.3875e-24
      1.90  2.1452e-22  6.8653e-24  2.1465e-22  6.8653e-24  2.1490e-22  6.8653e-24  2.1533e-22  6.8655e-24  2.1610e-22  6.8657e-24  2.1746e-22  6.8660e-24  2.1988e-22  6.8666e-24  2.2414e-22  6.8677e-24  2.3163e-22  6.8696e-24  2.4475e-22  6.8731e-24  2.6801e-22  6.8792e-24  3.0930e-22  6.8901e-24  3.8251e-22  6.9094e-24  5.1291e-22  6.9438e-24  7.4598e-22  7.0050e-24  1.1665e-21  7.1139e-24  1.9354e-21  7.3077e-24  3.3738e-21  7.6532e-24  6.1375e-21  8.2702e-24
      1.95  2.0036e-22  7.6896e-24  2.0049e-22  7.6896e-24  2.0072e-22  7.6897e-24  2.0113e-22  7.6898e-24  2.0186e-22  7.6900e-24  2.0316e-22  7.6904e-24  2.0545e-22  7.6911e-24  2.0951e-22  7.6923e-24  2.1665e-22  7.6945e-24  2.2915e-22  7.6983e-24  2.5129e-22  7.7052e-24  2.9059e-22  7.7173e-24  3.6034e-22  7.7390e-24  4.8441e-22  7.7774e-24  7.0637e-22  7.8459e-24  1.1069e-21  7.9676e-24  1.8397e-21  8.1844e-24  3.2110e-21  8.5707e-24  5.8483e-21  9.2607e-24
      2.00  1.8710e-22  8.6137e-24  1.8723e-22  8.6138e-24  1.8745e-22  8.6139e-24  1.8784e-22  8.6140e-24  1.8853e-22  8.6142e-24  1.8977e-22  8.6147e-24  1.9195e-22  8.6154e-24  1.9581e-22  8.6168e-24  2.0261e-22  8.6194e-24  2.1452e-22  8.6235e-24  2.3558e-22  8.6312e-24  2.7297e-22  8.6448e-24  3.3939e-22  8.6690e-24  4.5740e-22  8.7121e-24  6.6872e-22  8.7886e-24  1.0500e-21  8.9249e-24  1.7481e-21  9.1674e-24  3.0551e-21  9.5997e-24  5.5709e-21  1.0372e-23
      2.05  1.7470e-22  9.6500e-24  1.7482e-22  9.6501e-24  1.7503e-22  9.6502e-24  1.7540e-22  9.6503e-24  1.7606e-22  9.6506e-24  1.7724e-22  9.6511e-24  1.7931e-22  9.6519e-24  1.8299e-22  9.6534e-24  1.8946e-22  9.6562e-24  2.0080e-22  9.6610e-24  2.2083e-22  9.6696e-24  2.5639e-22  9.6848e-24  3.1962e-22  9.7119e-24  4.3187e-22  9.7601e-24  6.3302e-22  9.8458e-24  9.9595e-22  9.9983e-24  1.6610e-21  1.0270e-23  2.9066e-21  1.0754e-23  5.3063e-21  1.1619e-23
      2.10  1.6310e-22  1.0812e-23  1.6321e-22  1.0812e-23  1.6341e-22  1.0812e-23  1.6377e-22  1.0812e-23  1.6440e-22  1.0813e-23  1.6551e-22  1.0813e-23  1.6749e-22  1.0814e-23  1.7099e-22  1.0816e-23  1.7715e-22  1.0819e-23  1.8796e-22  1.0824e-23  2.0702e-22  1.0834e-23  2.4087e-22  1.0851e-23  3.0110e-22  1.0881e-23  4.0800e-22  1.0935e-23  5.9957e-22  1.1031e-23  9.4528e-22  1.1202e-23  1.5793e-21  1.1506e-23  2.7673e-21  1.2049e-23  5.0588e-21  1.3018e-23
      2.15  1.5225e-22  1.2115e-23  1.5236e-22  1.2115e-23  1.5255e-22  1.2115e-23  1.5288e-22  1.2115e-23  1.5348e-22  1.2116e-23  1.5455e-22  1.2116e-23  1.5643e-22  1.2117e-23  1.5977e-22  1.2119e-23  1.6565e-22  1.2123e-23  1.7597e-22  1.2129e-23  1.9414e-22  1.2139e-23  2.2643e-22  1.2159e-23  2.8393e-22  1.2193e-23  3.8599e-22  1.2253e-23  5.6878e-22  1.2361e-23  8.9874e-22  1.2552e-23  1.5046e-21  1.2893e-23  2.6403e-21  1.3500e-23  4.8333e-21  1.4587e-23
      2.20  1.4210e-22  1.3576e-23  1.4220e-22  1.3576e-23  1.4239e-22  1.3576e-23  1.4271e-22  1.3577e-23  1.4328e-22  1.3577e-23  1.4430e-22  1.3578e-23  1.4611e-22  1.3579e-23  1.4930e-22  1.3581e-23  1.5493e-22  1.3585e-23  1.6482e-22  1.3592e-23  1.8222e-22  1.3604e-23  2.1314e-22  1.3625e-23  2.6824e-22  1.3663e-23  3.6609e-22  1.3731e-23  5.4124e-22  1.3851e-23  8.5741e-22  1.4066e-23  1.4388e-21  1.4448e-23  2.5290e-21  1.5129e-23  4.6370e-21  1.6347e-23
      2.25  1.3262e-22  1.5215e-23  1.3271e-22  1.5215e-23  1.3289e-22  1.5215e-23  1.3320e-22  1.5215e-23  1.3375e-22  1.5216e-23  1.3473e-22  1.5216e-23  1.3647e-22  1.5218e-23  1.3954e-22  1.5220e-23  1.4497e-22  1.5224e-23  1.5451e-22  1.5232e-23  1.7127e-22  1.5246e-23  2.0107e-22  1.5270e-23  2.5422e-22  1.5312e-23  3.4864e-22  1.5388e-23  5.1755e-22  1.5523e-23  8.2240e-22  1.5763e-23  1.3838e-21  1.6191e-23  2.4371e-21  1.6955e-23  4.4763e-21  1.8323e-23
      2.30  1.2375e-22  1.7053e-23  1.2384e-22  1.7053e-23  1.2401e-22  1.7053e-23  1.2431e-22  1.7053e-23  1.2485e-22  1.7054e-23  1.2580e-22  1.7054e-23  1.2749e-22  1.7056e-23  1.3047e-22  1.7059e-23  1.3574e-22  1.7063e-23  1.4502e-22  1.7072e-23  1.6131e-22  1.7087e-23  1.9030e-22  1.7114e-23  2.4199e-22  1.7162e-23  3.3389e-22  1.7247e-23  4.9808e-22  1.7398e-23  7.9449e-22  1.7667e-23  1.3410e-21  1.8147e-23  2.3666e-21  1.9004e-23  4.3536e-21  2.0541e-23
      2.35  1.1546e-22  1.9114e-23  1.1555e-22  1.9114e-23  1.1572e-22  1.9114e-23  1.1602e-22  1.9114e-23  1.1654e-22  1.9115e-23  1.1747e-22  1.9116e-23  1.1912e-22  1.9117e-23  1.2205e-22  1.9120e-23  1.2722e-22  1.9126e-23  1.3632e-22  1.9136e-23  1.5230e-22  1.9152e-23  1.8077e-22  1.9183e-23  2.3148e-22  1.9236e-23  3.2169e-22  1.9332e-23  4.8269e-22  1.9501e-23  7.7322e-22  1.9803e-23  1.3095e-21  2.0342e-23  2.3155e-21  2.1305e-23  4.2639e-21  2.3035e-23
      2.40  1.0772e-22  2.1425e-23  1.0781e-22  2.1426e-23  1.0797e-22  2.1426e-23  1.0826e-22  2.1426e-23  1.0878e-22  2.1427e-23  1.0970e-22  2.1428e-23  1.1133e-22  2.1430e-23  1.1422e-22  2.1433e-23  1.1933e-22  2.1439e-23  1.2834e-22  2.1450e-23  1.4415e-22  2.1469e-23  1.7229e-22  2.1503e-23  2.2239e-22  2.1563e-23  3.1150e-22  2.1670e-23  4.7040e-22  2.1861e-23  7.5703e-22  2.2200e-23  1.2864e-21  2.2805e-23  2.2786e-21  2.3889e-23  4.1979e-21  2.5843e-23
      2.45  1.0048e-22  2.4018e-23  1.0057e-22  2.4018e-23  1.0074e-22  2.4019e-23  1.0102e-22  2.4019e-23  1.0154e-22  2.4020e-23  1.0245e-22  2.4021e-23  1.0407e-22  2.4023e-23  1.0693e-22  2.4027e-23  1.1200e-22  2.4034e-23  1.2095e-22  2.4046e-23  1.3667e-22  2.4067e-23  1.6460e-22  2.4105e-23  2.1427e-22  2.4173e-23  3.0260e-22  2.4293e-23  4.5994e-22  2.4508e-23  7.4398e-22  2.4890e-23  1.2681e-21  2.5573e-23  2.2490e-21  2.6796e-23  4.1430e-21  2.9009e-23
      2.50  9.3724e-23  2.6927e-23  9.3814e-23  2.6927e-23  9.3976e-23  2.6927e-23  9.4262e-23  2.6927e-23  9.4771e-23  2.6928e-23  9.5676e-23  2.6929e-23  9.7282e-23  2.6932e-23  1.0013e-22  2.6936e-23  1.0517e-22  2.6944e-23  1.1407e-22  2.6957e-23  1.2971e-22  2.6981e-23  1.5745e-22  2.7024e-23  2.0674e-22  2.7101e-23  2.9434e-22  2.7237e-23  4.5022e-22  2.7478e-23  7.3188e-22  2.7910e-23  1.2510e-21  2.8681e-23  2.2213e-21  3.0065e-23  4.0910e-21  3.2583e-23
      2.55  8.7411e-23  3.0189e-23  8.7501e-23  3.0189e-23  8.7661e-23  3.0189e-23  8.7945e-23  3.0190e-23  8.8450e-23  3.0190e-23  8.9347e-23  3.0192e-23  9.0940e-23  3.0195e-23  9.3766e-23  3.0200e-23  9.8769e-23  3.0208e-23  1.0760e-22  3.0223e-23  1.2316e-22  3.0251e-23  1.5067e-22  3.0299e-23  1.9953e-22  3.0385e-23  2.8629e-22  3.0539e-23  4.4058e-22  3.0812e-23  7.1979e-22  3.1300e-23  1.2335e-21  3.2173e-23  2.1922e-21  3.3744e-23  4.0358e-21  3.6617e-23
      2.60  8.1516e-23  3.3848e-23  8.1604e-23  3.3848e-23  8.1763e-23  3.3848e-23  8.2044e-23  3.3849e-23  8.2544e-23  3.3850e-23  8.3432e-23  3.3852e-23  8.5009e-23  3.3855e-23  8.7807e-23  3.3860e-23  9.2762e-23  3.3870e-23  1.0152e-22  3.3887e-23  1.1693e-22  3.3918e-23  1.4417e-22  3.3973e-23  1.9248e-22  3.4070e-23  2.7822e-22  3.4244e-23  4.3073e-22  3.4553e-23  7.0690e-22  3.5105e-23  1.2144e-21  3.6095e-23  2.1605e-21  3.7882e-23  3.9763e-21  4.1167e-23
      2.65  7.6010e-23  3.7952e-23  7.6098e-23  3.7953e-23  7.6254e-23  3.7953e-23  7.6532e-23  3.7953e-23  7.7025e-23  3.7955e-23  7.7902e-23  3.7957e-23  7.9459e-23  3.7960e-23  8.2222e-23  3.7966e-23  8.7117e-23  3.7977e-23  9.5769e-23  3.7997e-23  1.1101e-22  3.8032e-23  1.3790e-22  3.8094e-23  1.8554e-22  3.8204e-23  2.7004e-22  3.8400e-23  4.2045e-22  3.8750e-23  6.9316e-22  3.9376e-23  1.1935e-21  4.0499e-23  2.1255e-21  4.2532e-23  3.9113e-21  4.6288e-23
      2.70  7.0871e-23  4.2556e-23  7.0957e-23  4.2557e-23  7.1111e-23  4.2557e-23  7.1384e-23  4.2558e-23  7.1870e-23  4.2559e-23  7.2734e-23  4.2561e-23  7.4268e-23  4.2565e-23  7.6989e-23  4.2572e-23  8.1812e-23  4.2585e-23  9.0338e-23  4.2607e-23  1.0536e-22  4.2646e-23  1.3183e-22  4.2716e-23  1.7869e-22  4.2841e-23  2.6176e-22  4.3063e-23  4.0984e-22  4.3459e-23  6.7856e-22  4.4168e-23  1.1709e-21  4.5440e-23  2.0869e-21  4.7750e-23  3.8398e-21  5.2035e-23
      2.75  6.6073e-23  4.7721e-23  6.6158e-23  4.7721e-23  6.6309e-23  4.7722e-23  6.6578e-23  4.7723e-23  6.7055e-23  4.7724e-23  6.7904e-23  4.7727e-23  6.9411e-23  4.7731e-23  7.2085e-23  4.7739e-23  7.6825e-23  4.7753e-23  8.5206e-23  4.7778e-23  9.9981e-23  4.7822e-23  1.2597e-22  4.7901e-23  1.7194e-22  4.8042e-23  2.5350e-22  4.8293e-23  3.9899e-22  4.8740e-23  6.6317e-22  4.9542e-23  1.1466e-21  5.0981e-23  2.0453e-21  5.3598e-23  3.7628e-21  5.8470e-23
      2.80  6.1596e-23  5.3515e-23  6.1680e-23  5.3515e-23  6.1828e-23  5.3516e-23  6.2091e-23  5.3517e-23  6.2559e-23  5.3518e-23  6.3391e-23  5.3521e-23  6.4869e-23  5.3526e-23  6.7491e-23  5.3535e-23  7.2140e-23  5.3551e-23  8.0361e-23  5.3579e-23  9.4855e-23  5.3629e-23  1.2032e-22  5.3718e-23  1.6535e-22  5.3877e-23  2.4528e-22  5.4160e-23  3.8795e-22  5.4664e-23  6.4715e-22  5.5568e-23  1.1209e-21  5.7193e-23  2.0013e-21  6.0148e-23  3.6820e-21  6.5659e-23
      2.85  5.7419e-23  6.0014e-23  5.7500e-23  6.0015e-23  5.7645e-23  6.0015e-23  5.7903e-23  6.0016e-23  5.8361e-23  6.0018e-23  5.9175e-23  6.0021e-23  6.0622e-23  6.0027e-23  6.3189e-23  6.0037e-23  6.7740e-23  6.0055e-23  7.5789e-23  6.0086e-23  8.9980e-23  6.0143e-23  1.1490e-22  6.0243e-23  1.5895e-22  6.0422e-23  2.3716e-22  6.0740e-23  3.7682e-22  6.1308e-23  6.3073e-22  6.2325e-23  1.0944e-21  6.4154e-23  1.9557e-21  6.7481e-23  3.5986e-21  7.3687e-23
      2.90  5.3521e-23  6.7305e-23  5.3601e-23  6.7306e-23  5.3742e-23  6.7306e-23  5.3994e-23  6.7307e-23  5.4442e-23  6.7309e-23  5.5238e-23  6.7313e-23  5.6651e-23  6.7319e-23  5.9160e-23  6.7331e-23  6.3608e-23  6.7351e-23  7.1475e-23  6.7386e-23  8.5348e-23  6.7450e-23  1.0971e-22  6.7562e-23  1.5274e-22  6.7763e-23  2.2917e-22  6.8121e-23  3.6567e-22  6.8759e-23  6.1402e-22  6.9903e-23  1.0672e-21  7.1958e-23  1.9088e-21  7.5695e-23  3.5134e-21  8.2656e-23
      2.95  4.9886e-23  7.5485e-23  4.9963e-23  7.5485e-23  5.0101e-23  7.5486e-23  5.0347e-23  7.5487e-23  5.0784e-23  7.5489e-23  5.1561e-23  7.5493e-23  5.2940e-23  7.5500e-23  5.5388e-23  7.5513e-23  5.9728e-23  7.5535e-23  6.7405e-23  7.5575e-23  8.0945e-23  7.5647e-23  1.0473e-22  7.5773e-23  1.4670e-22  7.5999e-23  2.2128e-22  7.6401e-23  3.5459e-22  7.7118e-23  5.9708e-22  7.8402e-23  1.0395e-21  8.0708e-23  1.8609e-21  8.4898e-23  3.4264e-21  9.2688e-23
      3.00  4.6495e-23  8.4660e-23  4.6571e-23  8.4661e-23  4.6705e-23  8.4661e-23  4.6945e-23  8.4663e-23  4.7370e-23  8.4665e-23  4.8126e-23  8.4670e-23  4.9470e-23  8.4678e-23  5.1854e-23  8.4692e-23  5.6081e-23  8.4717e-23  6.3561e-23  8.4762e-23  7.6753e-23  8.4842e-23  9.9935e-23  8.4985e-23  1.4082e-22  8.5238e-23  2.1347e-22  8.5689e-23  3.4348e-22  8.6494e-23  5.7984e-22  8.7935e-23  1.0111e-21  9.0523e-23  1.8116e-21  9.5218e-23  3.3369e-21  1.0392e-22
      3.05  4.3334e-23  9.4954e-23  4.3407e-23  9.4955e-23  4.3538e-23  9.4956e-23  4.3771e-23  9.4957e-23  4.4184e-23  9.4960e-23  4.4919e-23  9.4965e-23  4.6225e-23  9.4974e-23  4.8543e-23  9.4990e-23  5.2652e-23  9.5019e-23  5.9924e-23  9.5069e-23  7.2754e-23  9.5159e-23  9.5306e-23  9.5319e-23  1.3506e-22  9.5603e-23  2.0569e-22  9.6110e-23  3.3223e-22  9.7014e-23  5.6218e-22  9.8632e-23  9.8173e-22  1.0153e-22  1.7606e-21  1.0679e-22  3.2446e-21  1.1652e-22
      3.10  4.0387e-23  1.0650e-22  4.0458e-23  1.0650e-22  4.0585e-23  1.0650e-22  4.0810e-23  1.0651e-22  4.1211e-23  1.0651e-22  4.1924e-23  1.0651e-22  4.3190e-23  1.0653e-22  4.5438e-23  1.0654e-22  4.9424e-23  1.0657e-22  5.6478e-23  1.0663e-22  6.8928e-23  1.0673e-22  9.0822e-23  1.0691e-22  1.2939e-22  1.0723e-22  1.9791e-22  1.0780e-22  3.2079e-22  1.0882e-22  5.4401e-22  1.1063e-22  9.5135e-22  1.1389e-22  1.7077e-21  1.1978e-22  3.1490e-21  1.3065e-22
      3.15  3.7639e-23  1.1946e-22  3.7708e-23  1.1946e-22  3.7831e-23  1.1946e-22  3.8049e-23  1.1946e-22  3.8437e-23  1.1947e-22  3.9126e-23  1.1947e-22  4.0351e-23  1.1948e-22  4.2525e-23  1.1950e-22  4.6381e-23  1.1954e-22  5.3207e-23  1.1960e-22  6.5260e-23  1.1972e-22  8.6465e-23  1.1992e-22  1.2380e-22  1.2028e-22  1.9011e-22  1.2092e-22  3.0913e-22  1.2206e-22  5.2531e-22  1.2410e-22  9.1991e-22  1.2775e-22  1.6528e-21  1.3436e-22  3.0500e-21  1.4652e-22
      3.20  3.5079e-23  1.3399e-22  3.5146e-23  1.3399e-22  3.5264e-23  1.3400e-22  3.5474e-23  1.3400e-22  3.5848e-23  1.3400e-22  3.6513e-23  1.3401e-22  3.7694e-23  1.3402e-22  3.9792e-23  1.3404e-22  4.3512e-23  1.3408e-22  5.0101e-23  1.3416e-22  6.1738e-23  1.3428e-22  8.2226e-23  1.3451e-22  1.1828e-22  1.3491e-22  1.8230e-22  1.3563e-22  2.9730e-22  1.3691e-22  5.0618e-22  1.3920e-22  8.8758e-22  1.4330e-22  1.5963e-21  1.5071e-22  2.9483e-21  1.6432e-22
      3.25  3.2693e-23  1.5030e-22  3.2757e-23  1.5030e-22  3.2871e-23  1.5030e-22  3.3074e-23  1.5031e-22  3.3433e-23  1.5031e-22  3.4073e-23  1.5032e-22  3.5209e-23  1.5033e-22  3.7227e-23  1.5036e-22  4.0807e-23  1.5040e-22  4.7149e-23  1.5048e-22  5.8357e-23  1.5063e-22  7.8101e-23  1.5088e-22  1.1286e-22  1.5133e-22  1.7449e-22  1.5214e-22  2.8537e-22  1.5358e-22  4.8674e-22  1.5615e-22  8.5464e-22  1.6075e-22  1.5388e-21  1.6906e-22  2.8448e-21  1.8430e-22
      3.30  3.0471e-23  1.6860e-22  3.0533e-23  1.6860e-22  3.0642e-23  1.6860e-22  3.0836e-23  1.6860e-22  3.1181e-23  1.6861e-22  3.1794e-23  1.6862e-22  3.2885e-23  1.6863e-22  3.4821e-23  1.6866e-22  3.8256e-23  1.6871e-22  4.4345e-23  1.6880e-22  5.5111e-23  1.6896e-22  7.4093e-23  1.6925e-22  1.0752e-22  1.6976e-22  1.6673e-22  1.7066e-22  2.7344e-22  1.7228e-22  4.6720e-22  1.7517e-22  8.2140e-22  1.8033e-22  1.4807e-21  1.8966e-22  2.7408e-21  2.0675e-22
      3.35  2.8401e-23  1.8912e-22  2.8460e-23  1.8912e-22  2.8565e-23  1.8912e-22  2.8750e-23  1.8913e-22  2.9081e-23  1.8913e-22  2.9667e-23  1.8914e-22  3.0710e-23  1.8916e-22  3.2563e-23  1.8919e-22  3.5852e-23  1.8925e-22  4.1683e-23  1.8935e-22  5.2000e-23  1.8953e-22  7.0207e-23  1.8985e-22  1.0228e-22  1.9042e-22  1.5907e-22  1.9144e-22  2.6162e-22  1.9326e-22  4.4778e-22  1.9651e-22  7.8842e-22  2.0232e-22  1.4232e-21  2.1279e-22  2.6378e-21  2.3196e-22
      3.40  2.6474e-23  2.1215e-22  2.6530e-23  2.1215e-22  2.6630e-23  2.1215e-22  2.6807e-23  2.1215e-22  2.7122e-23  2.1216e-22  2.7682e-23  2.1217e-22  2.8678e-23  2.1219e-22  3.0446e-23  2.1223e-22  3.3587e-23  2.1229e-22  3.9157e-23  2.1241e-22  4.9020e-23  2.1261e-22  6.6445e-23  2.1297e-22  9.7166e-23  2.1362e-22  1.5155e-22  2.1476e-22  2.4994e-22  2.1681e-22  4.2852e-22  2.2046e-22  7.5569e-22  2.2699e-22  1.3664e-21  2.3877e-22  2.5371e-21  2.6032e-22
      3.45  2.4679e-23  2.3798e-22  2.4733e-23  2.3798e-22  2.4828e-23  2.3799e-22  2.4996e-23  2.3799e-22  2.5296e-23  2.3800e-22  2.5829e-23  2.3801e-22  2.6777e-23  2.3803e-22  2.8461e-23  2.3807e-22  3.1452e-23  2.3815e-22  3.6760e-23  2.3827e-22  4.6167e-23  2.3850e-22  6.2808e-23  2.3891e-22  9.2180e-23  2.3964e-22  1.4419e-22  2.4093e-22  2.3843e-22  2.4323e-22  4.0949e-22  2.4735e-22  7.2337e-22  2.5470e-22  1.3105e-21  2.6797e-22  2.4387e-21  2.9222e-22
      3.50  2.3009e-23  2.6697e-22  2.3059e-23  2.6697e-22  2.3149e-23  2.6697e-22  2.3310e-23  2.6697e-22  2.3594e-23  2.6698e-22  2.4100e-23  2.6700e-22  2.4999e-23  2.6702e-22  2.6598e-23  2.6707e-22  2.9439e-23  2.6715e-22  3.4483e-23  2.6730e-22  4.3432e-23  2.6755e-22  5.9288e-23  2.6801e-22  8.7328e-23  2.6883e-22  1.3700e-22  2.7029e-22  2.2709e-22  2.7289e-22  3.9071e-22  2.7753e-22  6.9148e-22  2.8583e-22  1.2555e-21  3.0079e-22  2.3426e-21  3.2814e-22
      3.55  2.1454e-23  2.9948e-22  2.1502e-23  2.9949e-22  2.1587e-23  2.9949e-22  2.1739e-23  2.9949e-22  2.2008e-23  2.9950e-22  2.2486e-23  2.9952e-22  2.3337e-23  2.9955e-22  2.4850e-23  2.9960e-22  2.7539e-23  2.9969e-22  3.2318e-23  2.9986e-22  4.0806e-23  3.0015e-22  5.5873e-23  3.0067e-22  8.2585e-23  3.0159e-22  1.3000e-22  3.0323e-22  2.1591e-22  3.0618e-22  3.7212e-22  3.1142e-22  6.5986e-22  3.2079e-22  1.2012e-21  3.3769e-22  2.2483e-21  3.6858e-22
      3.60  2.0008e-23  3.3597e-22  2.0053e-23  3.3597e-22  2.0133e-23  3.3597e-22  2.0276e-23  3.3598e-22  2.0529e-23  3.3599e-22  2.0980e-23  3.3601e-22  2.1782e-23  3.3604e-22  2.3208e-23  3.3610e-22  2.5744e-23  3.3620e-22  3.0254e-23  3.3639e-22  3.8277e-23  3.3672e-22  5.2548e-23  3.3730e-22  7.7926e-23  3.3835e-22  1.2310e-22  3.4021e-22  2.0491e-22  3.4354e-22  3.5377e-22  3.4946e-22  6.2857e-22  3.6006e-22  1.1473e-21  3.7918e-22  2.1550e-21  4.1413e-22
      3.65  1.8662e-23  3.7690e-22  1.8704e-23  3.7690e-22  1.8779e-23  3.7690e-22  1.8913e-23  3.7691e-22  1.9151e-23  3.7692e-22  1.9574e-23  3.7694e-22  2.0326e-23  3.7698e-22  2.1663e-23  3.7705e-22  2.4044e-23  3.7716e-22  2.8283e-23  3.7737e-22  3.5835e-23  3.7775e-22  4.9302e-23  3.7841e-22  7.3332e-23  3.7959e-22  1.1627e-22  3.8170e-22  1.9390e-22  3.8547e-22  3.3537e-22  3.9217e-22  5.9733e-22  4.0417e-22  1.0937e-21  4.2582e-22  2.0625e-21  4.6540e-22
      3.70  1.7410e-23  4.2282e-22  1.7450e-23  4.2282e-22  1.7520e-23  4.2283e-22  1.7644e-23  4.2283e-22  1.7866e-23  4.2285e-22  1.8261e-23  4.2287e-22  1.8962e-23  4.2291e-22  2.0212e-23  4.2299e-22  2.2436e-23  4.2312e-22  2.6400e-23  4.2336e-22  3.3477e-23  4.2378e-22  4.6130e-23  4.2453e-22  6.8797e-23  4.2587e-22  1.0944e-22  4.2825e-22  1.8278e-22  4.3252e-22  3.1673e-22  4.4011e-22  5.6559e-22  4.5370e-22  1.0395e-21  4.7822e-22  1.9699e-21  5.2308e-22
      3.75  1.6246e-23  4.7434e-22  1.6283e-23  4.7434e-22  1.6348e-23  4.7435e-22  1.6463e-23  4.7436e-22  1.6669e-23  4.7437e-22  1.7035e-23  4.7440e-22  1.7687e-23  4.7445e-22  1.8847e-23  4.7453e-22  2.0914e-23  4.7468e-22  2.4604e-23  4.7495e-22  3.1202e-23  4.7543e-22  4.3036e-23  4.7628e-22  6.4326e-23  4.7779e-22  1.0258e-22  4.8049e-22  1.7154e-22  4.8531e-22  2.9781e-22  4.9390e-22  5.3331e-22  5.0929e-22  9.8417e-22  5.3706e-22  1.8760e-21  5.8791e-22
      3.80  1.5164e-23  5.3215e-22  1.5198e-23  5.3215e-22  1.5258e-23  5.3216e-22  1.5364e-23  5.3217e-22  1.5554e-23  5.3218e-22  1.5893e-23  5.3221e-22  1.6494e-23  5.3227e-22  1.7566e-23  5.3236e-22  1.9478e-23  5.3253e-22  2.2894e-23  5.3283e-22  2.9015e-23  5.3337e-22  4.0030e-23  5.3433e-22  5.9935e-23  5.3604e-22  9.5730e-23  5.3910e-22  1.6022e-22  5.4455e-22  2.7862e-22  5.5426e-22  5.0047e-22  5.7166e-22  9.2786e-22  6.0309e-22  1.7799e-21  6.6070e-22
      3.85  1.4158e-23  5.9700e-22  1.4189e-23  5.9701e-22  1.4244e-23  5.9701e-22  1.4342e-23  5.9702e-22  1.4517e-23  5.9704e-22  1.4827e-23  5.9708e-22  1.5380e-23  5.9714e-22  1.6366e-23  5.9724e-22  1.8125e-23  5.9744e-22  2.1271e-23  5.9778e-22  2.6921e-23  5.9838e-22  3.7121e-23  5.9946e-22  5.5641e-23  6.0139e-22  8.8914e-23  6.0485e-22  1.4889e-22  6.1101e-22  2.5929e-22  6.2197e-22  4.6708e-22  6.4162e-22  8.7051e-22  6.7715e-22  1.6818e-21  7.4233e-22
      3.90  1.3223e-23  6.6977e-22  1.3252e-23  6.6977e-22  1.3302e-23  6.6978e-22  1.3392e-23  6.6979e-22  1.3551e-23  6.6981e-22  1.3835e-23  6.6985e-22  1.4341e-23  6.6992e-22  1.5243e-23  6.7004e-22  1.6853e-23  6.7025e-22  1.9736e-23  6.7064e-22  2.4926e-23  6.7132e-22  3.4322e-23  6.7254e-22  5.1450e-23  6.7471e-22  8.2183e-23  6.7861e-22  1.3763e-22  6.8555e-22  2.3997e-22  6.9790e-22  4.3344e-22  7.2007e-22  8.1198e-22  7.6017e-22  1.5815e-21  8.3380e-22
      3.95  1.2355e-23  7.5140e-22  1.2381e-23  7.5141e-22  1.2427e-23  7.5142e-22  1.2508e-23  7.5143e-22  1.2653e-23  7.5145e-22  1.2912e-23  7.5150e-22  1.3372e-23  7.5157e-22  1.4193e-23  7.5171e-22  1.5660e-23  7.5195e-22  1.8291e-23  7.5238e-22  2.3033e-23  7.5315e-22  3.1644e-23  7.5452e-22  4.7382e-23  7.5696e-22  7.5592e-23  7.6135e-22  1.2654e-22  7.6916e-22  2.2080e-22  7.8305e-22  3.9982e-22  8.0798e-22  7.5268e-22  8.5312e-22  1.4789e-21  9.3608e-22
