# This was generated using Cloudy10 and the columns are ordered 
# as log10 of the fraction of the metallicity to the solar metallicity
# 'h_*_Z' and 'c_*_Z' stands for cooling and heating respectively 
# at * metalicity
#
# NOTE: This was generated separately from loop_coolingcurve_w_UV.py
#       using Output_metals_w_redshift.py.
#
# Redshift = 3.0
# hden = -3.0
#
#     temp   h_-3.00_Z   c_-3.00_Z   h_-2.75_Z   c_-2.75_Z   h_-2.50_Z   c_-2.50_Z   h_-2.25_Z   c_-2.25_Z   h_-2.00_Z   c_-2.00_Z   h_-1.75_Z   c_-1.75_Z   h_-1.50_Z   c_-1.50_Z   h_-1.25_Z   c_-1.25_Z   h_-1.00_Z   c_-1.00_Z   h_-0.75_Z   c_-0.75_Z   h_-0.50_Z   c_-0.50_Z   h_-0.25_Z   c_-0.25_Z    h_0.00_Z    c_0.00_Z    h_0.25_Z    c_0.25_Z    h_0.50_Z    c_0.50_Z    h_0.75_Z    c_0.75_Z    h_1.00_Z    c_1.00_Z    h_1.25_Z    c_1.25_Z    h_1.50_Z    c_1.50_Z 
      4.00  6.7677e-24  9.3220e-25  6.7686e-24  9.3672e-25  6.7702e-24  9.4477e-25  6.7730e-24  9.5908e-25  6.7781e-24  9.8453e-25  6.7870e-24  1.0298e-24  6.8029e-24  1.1103e-24  6.8313e-24  1.2534e-24  6.8816e-24  1.5081e-24  6.9712e-24  1.9610e-24  7.1304e-24  2.7668e-24  7.4134e-24  4.2012e-24  7.9167e-24  6.7566e-24  8.8114e-24  1.1315e-23  1.0402e-23  1.9465e-23  1.3230e-23  3.4100e-23  1.8265e-23  6.0571e-23  2.7248e-23  1.0904e-22  4.3356e-23  1.9964e-22
      4.05  6.3317e-24  9.7964e-25  6.3326e-24  9.8461e-25  6.3342e-24  9.9344e-25  6.3370e-24  1.0091e-24  6.3419e-24  1.0371e-24  6.3507e-24  1.0867e-24  6.3664e-24  1.1751e-24  6.3943e-24  1.3321e-24  6.4439e-24  1.6115e-24  6.5320e-24  2.1085e-24  6.6888e-24  2.9927e-24  6.9674e-24  4.5668e-24  7.4629e-24  7.3711e-24  8.3438e-24  1.2374e-23  9.9100e-24  2.1323e-23  1.2695e-23  3.7398e-23  1.7654e-23  6.6498e-23  2.6503e-23  1.1986e-22  4.2374e-23  2.1981e-22
      4.10  5.9191e-24  1.0362e-24  5.9200e-24  1.0418e-24  5.9216e-24  1.0517e-24  5.9243e-24  1.0694e-24  5.9292e-24  1.1009e-24  5.9379e-24  1.1569e-24  5.9533e-24  1.2564e-24  5.9808e-24  1.4335e-24  6.0296e-24  1.7484e-24  6.1164e-24  2.3086e-24  6.2708e-24  3.3053e-24  6.5453e-24  5.0797e-24  7.0334e-24  8.2412e-24  7.9012e-24  1.3882e-23  9.4441e-24  2.3975e-23  1.2188e-23  4.2113e-23  1.7074e-23  7.4972e-23  2.5796e-23  1.3531e-22  4.1442e-23  2.4857e-22
      4.15  5.5288e-24  1.1110e-24  5.5296e-24  1.1175e-24  5.5312e-24  1.1290e-24  5.5339e-24  1.1496e-24  5.5387e-24  1.1862e-24  5.5473e-24  1.2513e-24  5.5625e-24  1.3671e-24  5.5896e-24  1.5729e-24  5.6377e-24  1.9391e-24  5.7234e-24  2.5905e-24  5.8757e-24  3.7496e-24  6.1464e-24  5.8130e-24  6.6278e-24  9.4898e-24  7.4838e-24  1.6051e-23  9.0058e-24  2.7793e-23  1.1713e-23  4.8904e-23  1.6533e-23  8.7174e-23  2.5140e-23  1.5752e-22  4.0584e-23  2.8983e-22
      4.20  5.1594e-24  1.2201e-24  5.1603e-24  1.2279e-24  5.1618e-24  1.2418e-24  5.1645e-24  1.2665e-24  5.1692e-24  1.3105e-24  5.1777e-24  1.3887e-24  5.1927e-24  1.5278e-24  5.2195e-24  1.7752e-24  5.2671e-24  2.2152e-24  5.3518e-24  2.9979e-24  5.5023e-24  4.3908e-24  5.7699e-24  6.8705e-24  6.2457e-24  1.1289e-23  7.0918e-24  1.9176e-23  8.5962e-24  3.3291e-23  1.1272e-23  5.8677e-23  1.6038e-23  1.0472e-22  2.4548e-23  1.8943e-22  3.9823e-23  3.4896e-22
      4.25  4.8096e-24  1.3884e-24  4.8105e-24  1.3981e-24  4.8120e-24  1.4153e-24  4.8146e-24  1.4460e-24  4.8193e-24  1.5005e-24  4.8277e-24  1.5976e-24  4.8427e-24  1.7701e-24  4.8692e-24  2.0769e-24  4.9164e-24  2.6226e-24  5.0003e-24  3.5934e-24  5.1495e-24  5.3209e-24  5.4148e-24  8.3965e-24  5.8865e-24  1.3877e-23  6.7253e-24  2.3660e-23  8.2168e-24  4.1170e-23  1.0870e-23  7.2669e-23  1.5595e-23  1.2982e-22  2.4034e-23  2.3502e-22  3.9187e-23  4.3330e-22
      4.30  4.4775e-24  1.6522e-24  4.4784e-24  1.6645e-24  4.4799e-24  1.6864e-24  4.4825e-24  1.7253e-24  4.4872e-24  1.7946e-24  4.4955e-24  1.9177e-24  4.5104e-24  2.1367e-24  4.5367e-24  2.5262e-24  4.5836e-24  3.2190e-24  4.6671e-24  4.4514e-24  4.8154e-24  6.6443e-24  5.0791e-24  1.0549e-23  5.5479e-24  1.7506e-23  6.3816e-24  2.9926e-23  7.8641e-24  5.2157e-23  1.0501e-23  9.2152e-23  1.5198e-23  1.6473e-22  2.3589e-23  2.9835e-22  3.8659e-23  5.5031e-22
      4.35  4.1604e-24  2.0504e-24  4.1612e-24  2.0663e-24  4.1627e-24  2.0945e-24  4.1653e-24  2.1448e-24  4.1700e-24  2.2341e-24  4.1783e-24  2.3930e-24  4.1931e-24  2.6755e-24  4.2194e-24  3.1779e-24  4.2661e-24  4.0715e-24  4.3492e-24  5.6613e-24  4.4970e-24  8.4903e-24  4.7598e-24  1.3527e-23  5.2270e-24  2.2502e-23  6.0578e-24  3.8523e-23  7.5350e-24  6.7203e-23  1.0163e-23  1.1880e-22  1.4844e-23  2.1243e-22  2.3207e-23  3.8483e-22  3.8234e-23  7.0993e-22
      4.40  3.8547e-24  2.6235e-24  3.8555e-24  2.6442e-24  3.8570e-24  2.6810e-24  3.8596e-24  2.7465e-24  3.8643e-24  2.8629e-24  3.8726e-24  3.0699e-24  3.8874e-24  3.4381e-24  3.9136e-24  4.0928e-24  3.9603e-24  5.2574e-24  4.0434e-24  7.3292e-24  4.1910e-24  1.1016e-23  4.4535e-24  1.7580e-23  4.9203e-24  2.9276e-23  5.7502e-24  5.0155e-23  7.2261e-24  8.7529e-23  9.8515e-24  1.5477e-22  1.4529e-23  2.7679e-22  2.2887e-23  5.0145e-22  3.7912e-23  9.2512e-22
      4.45  3.5563e-24  3.3985e-24  3.5571e-24  3.4256e-24  3.5586e-24  3.4739e-24  3.5612e-24  3.5597e-24  3.5659e-24  3.7123e-24  3.5742e-24  3.9836e-24  3.5890e-24  4.4662e-24  3.6153e-24  5.3245e-24  3.6621e-24  6.8511e-24  3.7453e-24  9.5668e-24  3.8932e-24  1.4399e-23  4.1562e-24  2.3003e-23  4.6238e-24  3.8335e-23  5.4553e-24  6.5703e-23  6.9340e-24  1.1469e-22  9.5647e-24  2.0283e-22  1.4252e-23  3.6277e-22  2.2632e-23  6.5727e-22  3.7702e-23  1.2126e-21
      4.50  3.2611e-24  4.3714e-24  3.2619e-24  4.4071e-24  3.2634e-24  4.4704e-24  3.2661e-24  4.5832e-24  3.2708e-24  4.7836e-24  3.2791e-24  5.1400e-24  3.2940e-24  5.7739e-24  3.3204e-24  6.9013e-24  3.3674e-24  8.9066e-24  3.4510e-24  1.2474e-23  3.5997e-24  1.8821e-23  3.8639e-24  3.0123e-23  4.3338e-24  5.0262e-23  5.1694e-24  8.6211e-23  6.6553e-24  1.5056e-22  9.2994e-24  2.6633e-22  1.4012e-23  4.7643e-22  2.2441e-23  8.6327e-22  3.7610e-23  1.5928e-21
      4.55  2.9670e-24  5.4935e-24  2.9678e-24  5.5402e-24  2.9693e-24  5.6232e-24  2.9720e-24  5.7707e-24  2.9767e-24  6.0330e-24  2.9852e-24  6.4996e-24  3.0001e-24  7.3292e-24  3.0268e-24  8.8048e-24  3.0742e-24  1.1429e-23  3.1584e-24  1.6098e-23  3.3082e-24  2.4406e-23  3.5745e-24  3.9198e-23  4.0481e-24  6.5558e-23  4.8902e-24  1.1261e-22  6.3881e-24  1.9684e-22  9.0539e-24  3.4838e-22  1.3807e-23  6.2338e-22  2.2313e-23  1.1298e-21  3.7635e-23  2.0847e-21
      4.60  2.6752e-24  6.6595e-24  2.6761e-24  6.7202e-24  2.6776e-24  6.8280e-24  2.6803e-24  7.0199e-24  2.6851e-24  7.3611e-24  2.6936e-24  7.9678e-24  2.7087e-24  9.0467e-24  2.7356e-24  1.0966e-23  2.7835e-24  1.4379e-23  2.8686e-24  2.0450e-23  3.0199e-24  3.1255e-23  3.2890e-24  5.0490e-23  3.7675e-24  8.4770e-23  4.6185e-24  1.4596e-22  6.1323e-24  2.5550e-22  8.8272e-24  4.5257e-22  1.3634e-23  8.1022e-22  2.2242e-23  1.4688e-21  3.7760e-23  2.7108e-21
      4.65  2.3913e-24  7.8203e-24  2.3921e-24  7.8984e-24  2.3936e-24  8.0372e-24  2.3964e-24  8.2841e-24  2.4012e-24  8.7232e-24  2.4098e-24  9.5040e-24  2.4251e-24  1.0893e-23  2.4524e-24  1.3362e-23  2.5008e-24  1.7754e-23  2.5869e-24  2.5568e-23  2.7400e-24  3.9473e-23  3.0122e-24  6.4228e-23  3.4964e-24  1.0834e-22  4.3574e-24  1.8709e-22  5.8892e-24  3.2806e-22  8.6171e-24  5.8169e-22  1.3485e-23  1.0420e-21  2.2207e-23  1.8895e-21  3.7941e-23  3.4877e-21
      4.70  2.1230e-24  9.0397e-24  2.1239e-24  9.1389e-24  2.1254e-24  9.3151e-24  2.1282e-24  9.6286e-24  2.1330e-24  1.0186e-23  2.1418e-24  1.1177e-23  2.1572e-24  1.2940e-23  2.1848e-24  1.6075e-23  2.2337e-24  2.1652e-23  2.3208e-24  3.1572e-23  2.4756e-24  4.9224e-23  2.7509e-24  8.0651e-23  3.2404e-24  1.3666e-22  4.1111e-24  2.3663e-22  5.6604e-24  4.1560e-22  8.4200e-24  7.3759e-22  1.3346e-23  1.3219e-21  2.2177e-23  2.3978e-21  3.8115e-23  4.4265e-21
      4.75  1.8764e-24  1.0619e-23  1.8772e-24  1.0742e-23  1.8788e-24  1.0963e-23  1.8816e-24  1.1354e-23  1.8865e-24  1.2050e-23  1.8953e-24  1.3288e-23  1.9109e-24  1.5490e-23  1.9387e-24  1.9406e-23  1.9880e-24  2.6372e-23  2.0758e-24  3.8762e-23  2.2319e-24  6.0811e-23  2.5094e-24  1.0007e-22  3.0031e-24  1.7002e-22  3.8810e-24  2.9490e-22  5.4435e-24  5.1845e-22  8.2269e-24  9.2064e-22  1.3197e-23  1.6505e-21  2.2109e-23  2.9943e-21  3.8197e-23  5.5281e-21
      4.80  1.6505e-24  1.3121e-23  1.6513e-24  1.3273e-23  1.6529e-24  1.3543e-23  1.6557e-24  1.4023e-23  1.6606e-24  1.4877e-23  1.6694e-24  1.6395e-23  1.6851e-24  1.9095e-23  1.7130e-24  2.3898e-23  1.7625e-24  3.2440e-23  1.8505e-24  4.7636e-23  2.0072e-24  7.4677e-23  2.2857e-24  1.2282e-22  2.7809e-24  2.0862e-22  3.6619e-24  3.6177e-22  5.2297e-24  6.3594e-22  8.0232e-24  1.1292e-21  1.3012e-23  2.0244e-21  2.1958e-23  3.6727e-21  3.8107e-23  6.7807e-21
      4.85  1.4335e-24  1.7294e-23  1.4344e-24  1.7476e-23  1.4360e-24  1.7801e-23  1.4387e-24  1.8377e-23  1.4437e-24  1.9403e-23  1.4524e-24  2.1228e-23  1.4680e-24  2.4472e-23  1.4957e-24  3.0242e-23  1.5450e-24  4.0505e-23  1.6327e-24  5.8761e-23  1.7887e-24  9.1249e-23  2.0659e-24  1.4909e-22  2.5590e-24  2.5218e-22  3.4361e-24  4.3619e-22  4.9970e-24  7.6562e-22  7.7783e-24  1.3584e-21  1.2745e-23  2.4341e-21  2.1652e-23  4.4154e-21  3.7726e-23  8.1522e-21
      4.90  1.2044e-24  2.3463e-23  1.2052e-24  2.3677e-23  1.2067e-24  2.4058e-23  1.2095e-24  2.4735e-23  1.2143e-24  2.5939e-23  1.2229e-24  2.8079e-23  1.2383e-24  3.1886e-23  1.2656e-24  3.8656e-23  1.3141e-24  5.0699e-23  1.4003e-24  7.2121e-23  1.5537e-24  1.1024e-22  1.8264e-24  1.7812e-22  2.3115e-24  2.9908e-22  3.1742e-24  5.1503e-22  4.7095e-24  9.0166e-22  7.4451e-24  1.5974e-21  1.2330e-23  2.8605e-21  2.1088e-23  5.1875e-21  3.6885e-23  9.5795e-21
      4.95  9.4729e-25  3.0485e-23  9.4812e-25  3.0729e-23  9.4960e-25  3.1163e-23  9.5224e-25  3.1935e-23  9.5692e-25  3.3307e-23  9.6525e-25  3.5748e-23  9.8008e-25  4.0088e-23  1.0064e-24  4.7807e-23  1.0533e-24  6.1537e-23  1.1367e-24  8.5962e-23  1.2849e-24  1.2943e-22  1.5485e-24  2.0682e-22  2.0171e-24  3.4476e-22  2.8507e-24  5.9102e-22  4.3340e-24  1.0320e-21  6.9767e-24  1.8257e-21  1.1695e-23  3.2672e-21  2.0150e-23  5.9246e-21  3.5386e-23  1.0946e-20
      5.00  6.7904e-25  3.5542e-23  6.7983e-25  3.5811e-23  6.8123e-25  3.6289e-23  6.8373e-25  3.7137e-23  6.8814e-25  3.8652e-23  6.9602e-25  4.1341e-23  7.1003e-25  4.6125e-23  7.3495e-25  5.4632e-23  7.7928e-25  6.9763e-23  8.5808e-25  9.6682e-23  9.9819e-25  1.4459e-22  1.2473e-24  2.2989e-22  1.6902e-24  3.8192e-22  2.4777e-24  6.5338e-22  3.8788e-24  1.1396e-21  6.3744e-24  2.0148e-21  1.0828e-23  3.6050e-21  1.8803e-23  6.5387e-21  3.3156e-23  1.2089e-20
      5.05  4.4607e-25  3.6481e-23  4.4680e-25  3.6767e-23  4.4810e-25  3.7277e-23  4.5041e-25  3.8184e-23  4.5451e-25  3.9795e-23  4.6181e-25  4.2662e-23  4.7480e-25  4.7759e-23  4.9790e-25  5.6826e-23  5.3898e-25  7.2951e-23  6.1200e-25  1.0164e-22  7.4180e-25  1.5269e-22  9.7251e-25  2.4360e-22  1.3826e-24  4.0564e-22  2.1114e-24  6.9498e-22  3.4077e-24  1.2132e-21  5.7156e-24  2.1463e-21  9.8318e-24  3.8419e-21  1.7196e-23  6.9712e-21  3.0430e-23  1.2896e-20
      5.10  2.7918e-25  3.3845e-23  2.7985e-25  3.4145e-23  2.8104e-25  3.4678e-23  2.8316e-25  3.5627e-23  2.8693e-25  3.7313e-23  2.9363e-25  4.0311e-23  3.0556e-25  4.5643e-23  3.2679e-25  5.5126e-23  3.6451e-25  7.1994e-23  4.3155e-25  1.0200e-22  5.5066e-25  1.5540e-22  7.6226e-25  2.5050e-22  1.1381e-24  4.1999e-22  1.8058e-24  7.2262e-22  2.9926e-24  1.2646e-21  5.1057e-24  2.2405e-21  8.8756e-24  4.0138e-21  1.5613e-23  7.2868e-21  2.7695e-23  1.3484e-20
      5.15  1.7407e-25  2.9622e-23  1.7469e-25  2.9936e-23  1.7578e-25  3.0494e-23  1.7773e-25  3.1487e-23  1.8120e-25  3.3253e-23  1.8737e-25  3.6394e-23  1.9835e-25  4.1978e-23  2.1787e-25  5.1911e-23  2.5254e-25  6.9578e-23  3.1412e-25  1.0101e-22  4.2347e-25  1.5694e-22  6.1755e-25  2.5654e-22  9.6199e-25  4.3407e-22  1.5733e-24  7.5105e-22  2.6618e-24  1.3187e-21  4.6006e-24  2.3409e-21  8.0567e-24  4.1988e-21  1.4228e-23  7.6291e-21  2.5281e-23  1.4128e-20
      5.20  1.1142e-25  2.5294e-23  1.1199e-25  2.5625e-23  1.1299e-25  2.6213e-23  1.1479e-25  2.7260e-23  1.1798e-25  2.9122e-23  1.2367e-25  3.2433e-23  1.3379e-25  3.8320e-23  1.5174e-25  4.8791e-23  1.8363e-25  6.7416e-23  2.4022e-25  1.0055e-22  3.4058e-25  1.5952e-22  5.1850e-25  2.6453e-22  8.3390e-25  4.5170e-22  1.3956e-24  7.8592e-22  2.3950e-24  1.3846e-21  4.1744e-24  2.4630e-21  7.3455e-24  4.4240e-21  1.3006e-23  8.0481e-21  2.3133e-23  1.4925e-20
      5.25  7.4195e-26  2.1494e-23  7.4712e-26  2.1841e-23  7.5635e-26  2.2459e-23  7.7281e-26  2.3558e-23  8.0210e-26  2.5512e-23  8.5413e-26  2.8987e-23  9.4668e-26  3.5167e-23  1.1108e-25  4.6159e-23  1.4018e-25  6.5710e-23  1.9176e-25  1.0049e-22  2.8310e-25  1.6240e-22  4.4476e-25  2.7264e-22  7.3239e-25  4.6916e-22  1.2440e-24  8.2012e-22  2.1544e-24  1.4489e-21  3.7752e-24  2.5821e-21  6.6630e-24  4.6444e-21  1.1815e-23  8.4608e-21  2.1029e-23  1.5717e-20
      5.30  5.1529e-26  1.8366e-23  5.1999e-26  1.8726e-23  5.2839e-26  1.9368e-23  5.4338e-26  2.0507e-23  5.6990e-26  2.2535e-23  6.1704e-26  2.6140e-23  7.0081e-26  3.2551e-23  8.4910e-26  4.3955e-23  1.1117e-25  6.4240e-23  1.5761e-25  1.0033e-22  2.3967e-25  1.6457e-22  3.8526e-25  2.7896e-22  6.4439e-25  4.8290e-22  1.1052e-24  8.4718e-22  1.9251e-24  1.5001e-21  3.3845e-24  2.6774e-21  5.9843e-24  4.8220e-21  1.0622e-23  8.7973e-21  1.8909e-23  1.6375e-20
      5.35  3.7221e-26  1.5861e-23  3.7644e-26  1.6228e-23  3.8402e-26  1.6879e-23  3.9746e-26  1.8038e-23  4.2122e-26  2.0099e-23  4.6339e-26  2.3764e-23  5.3827e-26  3.0283e-23  6.7064e-26  4.1878e-23  9.0436e-26  6.2505e-23  1.3169e-25  9.9208e-23  2.0450e-25  1.6454e-22  3.3413e-25  2.8089e-22  5.6461e-25  4.8835e-22  9.7454e-25  8.5902e-22  1.7038e-24  1.5237e-21  3.0020e-24  2.7232e-21  5.3146e-24  4.9115e-21  9.4397e-24  8.9774e-21  1.6812e-23  1.6758e-20
      5.40  2.7820e-26  1.3847e-23  2.8189e-26  1.4195e-23  2.8851e-26  1.4815e-23  3.0014e-26  1.5918e-23  3.2079e-26  1.7879e-23  3.5734e-26  2.1367e-23  4.2216e-26  2.7570e-23  5.3691e-26  3.8606e-23  7.3898e-26  5.8241e-23  1.0950e-25  9.3193e-23  1.7248e-25  1.5540e-22  2.8455e-25  2.6620e-22  4.8381e-25  4.6379e-22  8.3819e-25  8.1697e-22  1.4687e-24  1.4508e-21  2.5910e-24  2.5959e-21  4.5908e-24  4.6893e-21  8.1590e-24  8.5924e-21  1.4539e-23  1.6102e-20
      5.45  2.1396e-26  1.2199e-23  2.1696e-26  1.2487e-23  2.2237e-26  1.3000e-23  2.3192e-26  1.3912e-23  2.4882e-26  1.5535e-23  2.7884e-26  1.8420e-23  3.3200e-26  2.3552e-23  4.2610e-26  3.2682e-23  5.9254e-26  4.8931e-23  8.8561e-26  7.7863e-23  1.4041e-25  1.2934e-22  2.3252e-25  2.2104e-22  3.9621e-25  3.8462e-22  6.8724e-25  6.7713e-22  1.2050e-24  1.2024e-21  2.1266e-24  2.1528e-21  3.7687e-24  3.8939e-21  6.6989e-24  7.1520e-21  1.1939e-23  1.3456e-20
      5.50  1.6869e-26  1.0838e-23  1.7107e-26  1.1051e-23  1.7534e-26  1.1430e-23  1.8301e-26  1.2104e-23  1.9663e-26  1.3303e-23  2.2074e-26  1.5435e-23  2.6363e-26  1.9227e-23  3.3976e-26  2.5972e-23  4.7441e-26  3.7975e-23  7.1255e-26  5.9341e-23  1.1326e-25  9.7362e-23  1.8770e-25  1.6510e-22  3.1979e-25  2.8595e-22  5.5463e-25  5.0211e-22  9.7224e-25  8.9045e-22  1.7155e-24  1.5935e-21  3.0393e-24  2.8830e-21  5.4002e-24  5.3004e-21  9.6177e-24  9.9919e-21
      5.55  1.3604e-26  9.7880e-24  1.3805e-26  9.9538e-24  1.4162e-26  1.0249e-23  1.4803e-26  1.0773e-23  1.5949e-26  1.1706e-23  1.7997e-26  1.3364e-23  2.1641e-26  1.6313e-23  2.8108e-26  2.1560e-23  3.9569e-26  3.0893e-23  5.9789e-26  4.7500e-23  9.5410e-26  7.7062e-23  1.5842e-25  1.2973e-22  2.7022e-25  2.2371e-22  4.6886e-25  3.9180e-22  8.2217e-25  6.9381e-22  1.4508e-24  1.2407e-21  2.5702e-24  2.2440e-21  4.5651e-24  4.1257e-21  8.1254e-24  7.7801e-21
      5.60  1.1195e-26  8.9946e-24  1.1373e-26  9.1413e-24  1.1692e-26  9.4021e-24  1.2263e-26  9.8660e-24  1.3281e-26  1.0691e-23  1.5106e-26  1.2158e-23  1.8371e-26  1.4767e-23  2.4167e-26  1.9407e-23  3.4454e-26  2.7661e-23  5.2441e-26  4.2349e-23  8.4172e-26  6.8496e-23  1.4017e-25  1.1509e-22  2.3961e-25  1.9821e-22  4.1638e-25  3.4690e-22  7.3078e-25  6.1407e-22  1.2901e-24  1.0979e-21  2.2859e-24  1.9857e-21  4.0600e-24  3.6515e-21  7.2245e-24  6.8881e-21
      5.65  9.3742e-27  8.3952e-24  9.5374e-27  8.5359e-24  9.8299e-27  8.7862e-24  1.0356e-26  9.2312e-24  1.1293e-26  1.0023e-23  1.2966e-26  1.1430e-23  1.5957e-26  1.3933e-23  2.1284e-26  1.8384e-23  3.0753e-26  2.6301e-23  4.7128e-26  4.0392e-23  7.6041e-26  6.5478e-23  1.2709e-25  1.1017e-22  2.1781e-25  1.8993e-22  3.7908e-25  3.3259e-22  6.6593e-25  5.8898e-22  1.1762e-24  1.0534e-21  2.0847e-24  1.9060e-21  3.7031e-24  3.5066e-21  6.5895e-24  6.6198e-21
      5.70  7.9706e-27  7.9419e-24  8.1208e-27  8.0794e-24  8.3905e-27  8.3238e-24  8.8780e-27  8.7586e-24  9.7417e-27  9.5318e-24  1.1288e-26  1.0907e-23  1.4056e-26  1.3352e-23  1.8986e-26  1.7700e-23  2.7628e-26  2.5436e-23  4.2606e-26  3.9202e-23  6.9030e-26  6.3712e-23  1.1580e-25  1.0738e-22  1.9888e-25  1.8531e-22  3.4658e-25  3.2473e-22  6.0929e-25  5.7533e-22  1.0767e-24  1.0294e-21  1.9088e-24  1.8635e-21  3.3913e-24  3.4311e-21  6.0356e-24  6.4847e-21
      5.75  6.8686e-27  7.5458e-24  7.0050e-27  7.6761e-24  7.2505e-27  7.9079e-24  7.6935e-27  8.3200e-24  8.4855e-27  9.0529e-24  9.9020e-27  1.0356e-23  1.2443e-26  1.2674e-23  1.6916e-26  1.6796e-23  2.4654e-26  2.4130e-23  3.8182e-26  3.7182e-23  6.2046e-26  6.0419e-23  1.0440e-25  1.0182e-22  1.7962e-25  1.7571e-22  3.1335e-25  3.0793e-22  5.5122e-25  5.4563e-22  9.7444e-25  9.7651e-22  1.7279e-24  1.7688e-21  3.0706e-24  3.2592e-21  5.4658e-24  6.1676e-21
      5.80  5.9911e-27  7.2772e-24  6.1136e-27  7.3973e-24  6.3339e-27  7.6107e-24  6.7325e-27  7.9903e-24  7.4495e-27  8.6652e-24  8.7400e-27  9.8654e-24  1.1020e-26  1.2000e-23  1.5003e-26  1.5797e-23  2.1863e-26  2.2552e-23  3.3951e-26  3.4574e-23  5.5285e-26  5.5977e-23  9.3200e-26  9.4114e-23  1.6052e-25  1.6218e-22  2.8019e-25  2.8398e-22  4.9306e-25  5.0300e-22  8.7182e-25  9.0015e-22  1.5461e-24  1.6307e-21  2.7476e-24  3.0063e-21  4.8909e-24  5.6943e-21
      5.85  5.2873e-27  7.1147e-24  5.3983e-27  7.2288e-24  5.5985e-27  7.4315e-24  5.9610e-27  7.7920e-24  6.6188e-27  8.4331e-24  7.8018e-27  9.5730e-24  9.8305e-27  1.1601e-23  1.3384e-26  1.5208e-23  1.9554e-26  2.1625e-23  3.0457e-26  3.3044e-23  4.9705e-26  5.3375e-23  8.3856e-26  8.9603e-23  1.4455e-25  1.5426e-22  2.5245e-25  2.6998e-22  4.4437e-25  4.7808e-22  7.8584e-25  8.5552e-22  1.3937e-24  1.5500e-21  2.4767e-24  2.8585e-21  4.4082e-24  5.4178e-21
      5.90  4.7177e-27  7.0467e-24  4.8201e-27  7.1610e-24  5.0053e-27  7.3642e-24  5.3416e-27  7.7255e-24  5.9523e-27  8.3680e-24  7.0360e-27  9.5106e-24  8.8977e-27  1.1543e-23  1.2116e-26  1.5159e-23  1.7781e-26  2.1591e-23  2.7737e-26  3.3038e-23  4.5334e-26  5.3417e-23  7.6562e-26  8.9733e-23  1.3207e-25  1.5455e-22  2.3077e-25  2.7056e-22  4.0632e-25  4.7922e-22  7.1865e-25  8.5777e-22  1.2746e-24  1.5546e-21  2.2649e-24  2.8684e-21  4.0307e-24  5.4407e-21
      5.95  4.2514e-27  7.0565e-24  4.3459e-27  7.1732e-24  4.5175e-27  7.3807e-24  4.8305e-27  7.7497e-24  5.4004e-27  8.4057e-24  6.4026e-27  9.5725e-24  8.1243e-27  1.1648e-23  1.1088e-26  1.5340e-23  1.6267e-26  2.1908e-23  2.5401e-26  3.3596e-23  4.1587e-26  5.4406e-23  7.0270e-26  9.1490e-23  1.2126e-25  1.5768e-22  2.1193e-25  2.7617e-22  3.7321e-25  4.8932e-22  6.6015e-25  8.7614e-22  1.1709e-24  1.5886e-21  2.0806e-24  2.9330e-21  3.7026e-24  5.5689e-21
      6.00  3.8651e-27  7.1308e-24  3.9513e-27  7.2478e-24  4.1082e-27  7.4560e-24  4.3954e-27  7.8261e-24  4.9204e-27  8.4841e-24  5.8580e-27  9.6543e-24  7.4368e-27  1.1736e-23  1.0142e-26  1.5439e-23  1.4873e-26  2.2027e-23  2.3213e-26  3.3751e-23  3.7974e-26  5.4626e-23  6.4173e-26  9.1826e-23  1.1073e-25  1.5823e-22  1.9352e-25  2.7711e-22  3.4077e-25  4.9103e-22  6.0278e-25  8.7938e-22  1.0691e-24  1.5951e-21  1.8998e-24  2.9473e-21  3.3808e-24  5.6026e-21
      6.05  3.5424e-27  7.2790e-24  3.6198e-27  7.3927e-24  3.7608e-27  7.5950e-24  4.0192e-27  7.9547e-24  4.4943e-27  8.5942e-24  5.3606e-27  9.7312e-24  6.8073e-27  1.1754e-23  9.2632e-27  1.5352e-23  1.3543e-26  2.1754e-23  2.1081e-26  3.3147e-23  3.4416e-26  5.3432e-23  5.8107e-26  8.9583e-23  1.0022e-25  1.5412e-22  1.7510e-25  2.6967e-22  3.0830e-25  4.7766e-22  5.4530e-25  8.5540e-22  9.6715e-25  1.5521e-21  1.7185e-24  2.8698e-21  3.0584e-24  5.4622e-21
      6.10  3.2717e-27  7.4834e-24  3.3410e-27  7.5913e-24  3.4668e-27  7.7832e-24  3.6971e-27  8.1244e-24  4.1210e-27  8.7310e-24  4.8997e-27  9.8094e-24  6.2161e-27  1.1728e-23  8.4465e-27  1.5141e-23  1.2293e-26  2.1213e-23  1.9064e-26  3.2019e-23  3.1078e-26  5.1259e-23  5.2411e-26  8.5551e-23  9.0339e-26  1.4677e-22  1.5779e-25  2.5641e-22  2.7778e-25  4.5379e-22  4.9127e-25  8.1245e-22  8.7130e-25  1.4744e-21  1.5483e-24  2.7280e-21  2.7556e-24  5.1990e-21
      6.15  3.0435e-27  7.7427e-24  3.1055e-27  7.8427e-24  3.2180e-27  8.0205e-24  3.4230e-27  8.3367e-24  3.7976e-27  8.8988e-24  4.4736e-27  9.8983e-24  5.6295e-27  1.1676e-23  7.6453e-27  1.4839e-23  1.1098e-26  2.0465e-23  1.7176e-26  3.0479e-23  2.7957e-26  4.8309e-23  4.7097e-26  8.0089e-23  8.1134e-26  1.3683e-22  1.4167e-25  2.3846e-22  2.4935e-25  4.2149e-22  4.4096e-25  7.5421e-22  7.8206e-25  1.3688e-21  1.3898e-24  2.5344e-21  2.4740e-24  4.8362e-21
      6.20  2.8493e-27  8.0547e-24  2.9044e-27  8.1439e-24  3.0039e-27  8.3024e-24  3.1843e-27  8.5842e-24  3.5084e-27  9.0853e-24  4.0894e-27  9.9762e-24  5.0924e-27  1.1561e-23  6.8440e-27  1.4380e-23  9.9082e-27  1.9394e-23  1.5300e-26  2.8318e-23  2.4844e-26  4.4209e-23  4.1802e-26  7.2534e-23  7.1946e-26  1.2311e-22  1.2556e-25  2.1378e-22  2.2094e-25  3.7705e-22  3.9067e-25  6.7402e-22  6.9286e-25  1.2231e-21  1.2314e-24  2.2659e-21  2.1925e-24  4.3298e-21
      6.25  2.6823e-27  8.4194e-24  2.7299e-27  8.4943e-24  2.8157e-27  8.6273e-24  2.9692e-27  8.8639e-24  3.2442e-27  9.2845e-24  3.7356e-27  1.0032e-23  4.5866e-27  1.1363e-23  6.0845e-27  1.3728e-23  8.7188e-27  1.7937e-23  1.3374e-26  2.5427e-23  2.1626e-26  3.8764e-23  3.6285e-26  6.2539e-23  6.2346e-26  1.0500e-22  1.0869e-25  1.8107e-22  1.9114e-25  3.1817e-22  3.3787e-25  5.6776e-22  5.9916e-25  1.0296e-21  1.0649e-24  1.9117e-21  1.8965e-24  3.6580e-21
      6.30  2.5379e-27  8.8651e-24  2.5777e-27  8.9248e-24  2.6489e-27  9.0311e-24  2.7770e-27  9.2200e-24  3.0040e-27  9.5560e-24  3.4096e-27  1.0153e-23  4.1123e-27  1.1216e-23  5.3612e-27  1.3105e-23  7.5711e-27  1.6466e-23  1.1474e-26  2.2447e-23  1.8409e-26  3.3097e-23  3.0727e-26  5.2083e-23  5.2630e-26  8.5993e-23  9.1581e-26  1.4676e-22  1.6088e-25  2.5632e-22  2.8421e-25  4.5583e-22  5.0386e-25  8.2547e-22  8.9547e-25  1.5298e-21  1.5949e-24  2.9306e-21
      6.35  2.4133e-27  9.3776e-24  2.4458e-27  9.4249e-24  2.5040e-27  9.5089e-24  2.6077e-27  9.6584e-24  2.7931e-27  9.9242e-24  3.1222e-27  1.0397e-23  3.6926e-27  1.1237e-23  4.7080e-27  1.2732e-23  6.5154e-27  1.5391e-23  9.7283e-27  2.0123e-23  1.5426e-26  2.8549e-23  2.5557e-26  4.3570e-23  4.3565e-26  7.0402e-23  7.5592e-26  1.1850e-22  1.3258e-25  2.0523e-22  2.3401e-25  3.6327e-22  4.1466e-25  6.5637e-22  7.3683e-25  1.2157e-21  1.3125e-24  2.3307e-21
      6.40  2.3059e-27  9.9618e-24  2.3323e-27  1.0000e-23  2.3794e-27  1.0068e-23  2.4630e-27  1.0190e-23  2.6118e-27  1.0405e-23  2.8776e-27  1.0788e-23  3.3395e-27  1.1470e-23  4.1607e-27  1.2682e-23  5.6247e-27  1.4838e-23  8.2344e-27  1.8675e-23  1.2878e-26  2.5508e-23  2.1132e-26  3.7690e-23  3.5808e-26  5.9452e-23  6.1911e-26  9.8467e-23  1.0836e-25  1.6885e-22  1.9105e-25  2.9716e-22  3.3835e-25  5.3535e-22  6.0112e-25  9.9055e-22  1.0709e-24  1.9003e-21
      6.45  2.2133e-27  1.0620e-23  2.2348e-27  1.0652e-23  2.2728e-27  1.0708e-23  2.3404e-27  1.0808e-23  2.4601e-27  1.0985e-23  2.6730e-27  1.1301e-23  3.0480e-27  1.1862e-23  3.7116e-27  1.2861e-23  4.8960e-27  1.4636e-23  7.0064e-27  1.7796e-23  1.0768e-26  2.3423e-23  1.7462e-26  3.3454e-23  2.9371e-26  5.1377e-23  5.0560e-26  8.3513e-23  8.8265e-26  1.4150e-22  1.5540e-25  2.4728e-22  2.7503e-25  4.4380e-22  4.8857e-25  8.1991e-22  8.7072e-25  1.5728e-21
      6.50  2.1332e-27  1.1358e-23  2.1508e-27  1.1384e-23  2.1817e-27  1.1430e-23  2.2365e-27  1.1512e-23  2.3336e-27  1.1658e-23  2.5058e-27  1.1918e-23  2.8094e-27  1.2380e-23  3.3491e-27  1.3202e-23  4.3110e-27  1.4664e-23  6.0273e-27  1.7264e-23  9.0886e-27  2.1896e-23  1.4545e-26  3.0153e-23  2.4257e-26  4.4906e-23  4.1542e-26  7.1363e-23  7.2308e-26  1.1911e-22  1.2709e-25  2.0626e-22  2.2475e-25  3.6827e-22  3.9910e-25  6.7873e-22  7.1133e-25  1.3012e-21
      6.55  2.0641e-27  1.2211e-23  2.0786e-27  1.2232e-23  2.1041e-27  1.2271e-23  2.1493e-27  1.2339e-23  2.2294e-27  1.2461e-23  2.3715e-27  1.2677e-23  2.6221e-27  1.3061e-23  3.0673e-27  1.3745e-23  3.8627e-27  1.4960e-23  5.2827e-27  1.7123e-23  7.8181e-27  2.0975e-23  1.2341e-26  2.7843e-23  2.0402e-26  4.0113e-23  3.4755e-26  6.2120e-23  6.0309e-26  1.0185e-22  1.0582e-25  1.7437e-22  1.8697e-25  3.0930e-22  3.3193e-25  5.6813e-22  5.9172e-25  1.0880e-21
      6.60  2.0042e-27  1.3160e-23  2.0164e-27  1.3179e-23  2.0378e-27  1.3211e-23  2.0757e-27  1.3270e-23  2.1431e-27  1.3374e-23  2.2628e-27  1.3558e-23  2.4735e-27  1.3887e-23  2.8484e-27  1.4470e-23  3.5190e-27  1.5509e-23  4.7181e-27  1.7358e-23  6.8614e-27  2.0649e-23  1.0689e-26  2.6518e-23  1.7516e-26  3.7003e-23  2.9683e-26  5.5811e-23  5.1357e-26  8.9766e-23  8.9972e-26  1.5178e-22  1.5885e-25  2.6716e-22  2.8196e-25  4.8853e-22  5.0317e-25  9.4305e-22
      6.65  1.9520e-27  1.4214e-23  1.9623e-27  1.4230e-23  1.9806e-27  1.4260e-23  2.0129e-27  1.4312e-23  2.0703e-27  1.4404e-23  2.1728e-27  1.4568e-23  2.3534e-27  1.4861e-23  2.6747e-27  1.5381e-23  3.2503e-27  1.6306e-23  4.2815e-27  1.7953e-23  6.1268e-27  2.0885e-23  9.4260e-27  2.6113e-23  1.5317e-26  3.5455e-23  2.5826e-26  5.2216e-23  4.4560e-26  8.2475e-23  7.7955e-26  1.3774e-22  1.3756e-25  2.4097e-22  2.4420e-25  4.3886e-22  4.3582e-25  8.3669e-22
      6.70  1.9063e-27  1.5381e-23  1.9151e-27  1.5396e-23  1.9308e-27  1.5423e-23  1.9586e-27  1.5470e-23  2.0080e-27  1.5554e-23  2.0968e-27  1.5704e-23  2.2543e-27  1.5970e-23  2.5346e-27  1.6442e-23  3.0383e-27  1.7283e-23  3.9426e-27  1.8780e-23  5.5634e-27  2.1445e-23  8.4654e-27  2.6197e-23  1.3655e-26  3.4693e-23  2.2921e-26  4.9946e-23  3.9455e-26  7.7472e-23  6.8960e-26  1.2775e-22  1.2168e-25  2.2157e-22  2.1620e-25  4.0186e-22  3.8666e-25  7.6806e-22
      6.75  1.8661e-27  1.6674e-23  1.8737e-27  1.6688e-23  1.8872e-27  1.6713e-23  1.9113e-27  1.6757e-23  1.9543e-27  1.6836e-23  2.0319e-27  1.6976e-23  2.1699e-27  1.7224e-23  2.4163e-27  1.7667e-23  2.8605e-27  1.8454e-23  3.6595e-27  1.9854e-23  5.0933e-27  2.2348e-23  7.6647e-27  2.6795e-23  1.2268e-26  3.4741e-23  2.0500e-26  4.8995e-23  3.5204e-26  7.4737e-23  6.1474e-26  1.2176e-22  1.0849e-25  2.0948e-22  1.9298e-25  3.7781e-22  3.4592e-25  7.1674e-22
      6.80  1.8308e-27  1.8145e-23  1.8373e-27  1.8158e-23  1.8490e-27  1.8181e-23  1.8699e-27  1.8223e-23  1.9074e-27  1.8298e-23  1.9752e-27  1.8430e-23  2.0970e-27  1.8666e-23  2.3141e-27  1.9086e-23  2.7069e-27  1.9832e-23  3.4141e-27  2.1159e-23  4.6846e-27  2.3524e-23  6.9665e-27  2.7740e-23  1.1058e-26  3.5274e-23  1.8382e-26  4.8790e-23  3.1481e-26  7.3199e-23  5.4913e-26  1.1779e-22  9.6910e-26  2.0093e-22  1.7254e-25  3.6058e-22  3.1020e-25  6.9445e-22
      6.85  1.7997e-27  1.9772e-23  1.8053e-27  1.9785e-23  1.8155e-27  1.9808e-23  1.8337e-27  1.9849e-23  1.8665e-27  1.9922e-23  1.9263e-27  2.0052e-23  2.0354e-27  2.0283e-23  2.2296e-27  2.0693e-23  2.5830e-27  2.1424e-23  3.2194e-27  2.2723e-23  4.3666e-27  2.5037e-23  6.4306e-27  2.9165e-23  1.0138e-26  3.6559e-23  1.6784e-26  4.9805e-23  2.8687e-26  7.3729e-23  5.0010e-26  1.1744e-22  8.8347e-26  2.0069e-22  1.5756e-25  3.5878e-22  2.8394e-25  6.7728e-22
      6.90  1.7722e-27  2.1573e-23  1.7771e-27  2.1586e-23  1.7860e-27  2.1609e-23  1.8019e-27  2.1650e-23  1.8308e-27  2.1723e-23  1.8842e-27  2.1852e-23  1.9825e-27  2.2082e-23  2.1584e-27  2.2490e-23  2.4803e-27  2.3217e-23  3.0611e-27  2.4511e-23  4.1135e-27  2.6815e-23  6.0153e-27  3.0924e-23  9.4382e-27  3.8266e-23  1.5582e-26  5.1443e-23  2.6600e-26  7.5239e-23  4.6374e-26  1.1872e-22  8.1984e-26  1.9974e-22  1.4659e-25  3.5550e-22  2.6538e-25  6.7194e-22
      6.95  1.7479e-27  2.3566e-23  1.7522e-27  2.3579e-23  1.7600e-27  2.3602e-23  1.7739e-27  2.3642e-23  1.7995e-27  2.3714e-23  1.8468e-27  2.3841e-23  1.9349e-27  2.4068e-23  2.0924e-27  2.4472e-23  2.3800e-27  2.5190e-23  2.9004e-27  2.6467e-23  3.8511e-27  2.8742e-23  5.5746e-27  3.2799e-23  8.6820e-27  4.0070e-23  1.4267e-26  5.3094e-23  2.4296e-26  7.6619e-23  4.2319e-26  1.1961e-22  7.4838e-26  2.0022e-22  1.3400e-25  3.5472e-22  2.4357e-25  6.7957e-22
      7.00  1.7264e-27  2.5772e-23  1.7302e-27  2.5785e-23  1.7370e-27  2.5807e-23  1.7493e-27  2.5847e-23  1.7717e-27  2.5917e-23  1.8136e-27  2.6043e-23  1.8930e-27  2.6266e-23  2.0341e-27  2.6663e-23  2.2896e-27  2.7370e-23  2.7583e-27  2.8627e-23  3.6186e-27  3.0866e-23  5.1840e-27  3.4859e-23  8.0149e-27  4.1994e-23  1.3116e-26  5.4795e-23  2.2291e-26  7.7921e-23  3.8805e-26  1.2018e-22  6.8665e-26  1.9956e-22  1.2330e-25  3.5896e-22  2.2496e-25  6.9390e-22
      7.05  1.7073e-27  2.8265e-23  1.7106e-27  2.8277e-23  1.7165e-27  2.8299e-23  1.7273e-27  2.8337e-23  1.7471e-27  2.8406e-23  1.7839e-27  2.8528e-23  1.8546e-27  2.8745e-23  1.9816e-27  2.9130e-23  2.2115e-27  2.9816e-23  2.6351e-27  3.1037e-23  3.4176e-27  3.3210e-23  4.8514e-27  3.7085e-23  7.4710e-27  4.4213e-23  1.2202e-26  5.6799e-23  2.0734e-26  7.9616e-23  3.6124e-26  1.2124e-22  6.4039e-26  2.0066e-22  1.1530e-25  3.5948e-22  2.1091e-25  6.7136e-22
      7.10  1.6903e-27  3.1027e-23  1.6932e-27  3.1039e-23  1.6983e-27  3.1060e-23  1.7077e-27  3.1097e-23  1.7249e-27  3.1163e-23  1.7573e-27  3.1281e-23  1.8198e-27  3.1490e-23  1.9344e-27  3.1863e-23  2.1424e-27  3.2526e-23  2.5245e-27  3.3705e-23  3.2339e-27  3.5804e-23  4.5558e-27  3.9546e-23  6.9862e-27  4.6235e-23  1.1409e-26  5.8234e-23  1.9415e-26  7.9912e-23  3.3901e-26  1.1959e-22  6.0285e-26  1.9618e-22  1.0882e-25  3.4074e-22  2.0078e-25  6.5578e-22
      7.15  1.6751e-27  3.4087e-23  1.6776e-27  3.4098e-23  1.6820e-27  3.4117e-23  1.6901e-27  3.4151e-23  1.7049e-27  3.4211e-23  1.7326e-27  3.4319e-23  1.7859e-27  3.4509e-23  1.8858e-27  3.4848e-23  2.0632e-27  3.5451e-23  2.3884e-27  3.6524e-23  3.0002e-27  3.8434e-23  4.1504e-27  4.1838e-23  6.2876e-27  4.7922e-23  1.0209e-26  5.8836e-23  1.7345e-26  7.8552e-23  3.0310e-26  1.1537e-22  5.3951e-26  1.8320e-22  9.7610e-26  3.1374e-22  1.8086e-25  5.9674e-22
      7.20  1.6616e-27  3.7480e-23  1.6637e-27  3.7490e-23  1.6674e-27  3.7507e-23  1.6742e-27  3.7536e-23  1.6866e-27  3.7590e-23  1.7098e-27  3.7684e-23  1.7539e-27  3.7851e-23  1.8375e-27  3.8150e-23  1.9824e-27  3.8680e-23  2.2534e-27  3.9623e-23  2.7650e-27  4.1302e-23  3.7345e-27  4.4295e-23  5.5601e-27  4.9642e-23  8.9491e-27  5.9339e-23  1.5168e-26  7.6747e-23  2.6524e-26  1.0857e-22  4.7322e-26  1.6788e-22  8.6294e-26  2.8890e-22  1.5992e-25  5.2852e-22
      7.25  1.6652e-27  4.1657e-23  1.6513e-27  4.1252e-23  1.6544e-27  4.1267e-23  1.6599e-27  4.1293e-23  1.6701e-27  4.1339e-23  1.6891e-27  4.1420e-23  1.7248e-27  4.1565e-23  1.7917e-27  4.1823e-23  1.9092e-27  4.2282e-23  2.1274e-27  4.3097e-23  2.5404e-27  4.4549e-23  3.3322e-27  4.7137e-23  4.8410e-27  5.1759e-23  7.6823e-27  6.0048e-23  1.2955e-26  7.5019e-23  2.2657e-26  1.0241e-22  4.0698e-26  1.5546e-22  7.4162e-26  2.5751e-22  1.3797e-25  4.6261e-22
      7.30  1.6390e-27  4.5485e-23  1.6403e-27  4.5492e-23  1.6428e-27  4.5505e-23  1.6474e-27  4.5527e-23  1.6556e-27  4.5567e-23  1.6709e-27  4.5637e-23  1.6996e-27  4.5762e-23  1.7528e-27  4.5985e-23  1.8483e-27  4.6380e-23  2.0232e-27  4.7084e-23  2.3518e-27  4.8340e-23  2.9899e-27  5.0575e-23  4.2274e-27  5.4566e-23  6.5984e-27  6.1723e-23  1.1067e-26  7.4647e-23  1.9481e-26  9.9326e-23  3.4996e-26  1.4422e-22  6.4085e-26  2.3227e-22  1.1990e-25  4.0797e-22
      7.35  1.6295e-27  5.0196e-23  1.6306e-27  5.0202e-23  1.6327e-27  5.0213e-23  1.6364e-27  5.0232e-23  1.6431e-27  5.0267e-23  1.6555e-27  5.0329e-23  1.6786e-27  5.0439e-23  1.7218e-27  5.0634e-23  1.8002e-27  5.0981e-23  1.9418e-27  5.1600e-23  2.2083e-27  5.2700e-23  2.7291e-27  5.4661e-23  3.7581e-27  5.8164e-23  5.7683e-27  6.4443e-23  9.6180e-27  7.5778e-23  1.6967e-26  9.7416e-23  3.0649e-26  1.3708e-22  5.6472e-26  2.1350e-22  1.0638e-25  3.6689e-22
      7.40  1.6211e-27  5.5429e-23  1.6221e-27  5.5434e-23  1.6237e-27  5.5444e-23  1.6268e-27  5.5462e-23  1.6324e-27  5.5493e-23  1.6425e-27  5.5548e-23  1.6615e-27  5.5646e-23  1.6974e-27  5.5822e-23  1.7636e-27  5.6133e-23  1.8808e-27  5.6688e-23  2.1023e-27  5.7674e-23  2.5382e-27  5.9433e-23  3.4085e-27  6.2574e-23  5.1394e-27  6.8204e-23  8.5584e-27  7.8791e-23  1.5054e-26  9.7691e-23  2.7358e-26  1.3329e-22  5.0756e-26  2.0122e-22  9.6331e-26  3.3798e-22
      7.45  1.6137e-27  6.1244e-23  1.6145e-27  6.1250e-23  1.6159e-27  6.1259e-23  1.6185e-27  6.1275e-23  1.6232e-27  6.1303e-23  1.6317e-27  6.1354e-23  1.6476e-27  6.1444e-23  1.6776e-27  6.1605e-23  1.7330e-27  6.1891e-23  1.8300e-27  6.2400e-23  2.0123e-27  6.3306e-23  2.3711e-27  6.4920e-23  3.0910e-27  6.7804e-23  4.5409e-27  7.2972e-23  7.4190e-27  8.2300e-23  1.3072e-26  9.9938e-23  2.3845e-26  1.3235e-22  4.4501e-26  1.9446e-22  8.4978e-26  3.1918e-22
      7.50  1.6071e-27  6.7710e-23  1.6078e-27  6.7715e-23  1.6090e-27  6.7724e-23  1.6112e-27  6.7739e-23  1.6153e-27  6.7766e-23  1.6226e-27  6.7813e-23  1.6362e-27  6.7898e-23  1.6620e-27  6.8049e-23  1.7094e-27  6.8317e-23  1.7923e-27  6.8795e-23  1.9465e-27  6.9646e-23  2.2504e-27  7.1162e-23  2.8612e-27  7.3869e-23  4.1045e-27  7.8722e-23  6.6139e-27  8.7479e-23  1.1614e-26  1.0393e-22  2.1287e-26  1.3423e-22  4.0015e-26  1.9220e-22  7.6969e-26  3.0850e-22
      7.55  1.6013e-27  7.4983e-23  1.6019e-27  7.4988e-23  1.6030e-27  7.4996e-23  1.6049e-27  7.5011e-23  1.6084e-27  7.5036e-23  1.6148e-27  7.5082e-23  1.6268e-27  7.5163e-23  1.6495e-27  7.5308e-23  1.6906e-27  7.5566e-23  1.7634e-27  7.6025e-23  1.8977e-27  7.6841e-23  2.1603e-27  7.8296e-23  2.6886e-27  8.0894e-23  3.7721e-27  8.5551e-23  5.9927e-27  9.3954e-23  1.0467e-26  1.0928e-22  1.9348e-26  1.3859e-22  3.6713e-26  1.9390e-22  7.1286e-26  3.0476e-22
      7.60  1.5961e-27  8.3078e-23  1.5967e-27  8.3082e-23  1.5976e-27  8.3090e-23  1.5993e-27  8.3104e-23  1.6025e-27  8.3129e-23  1.6082e-27  8.3174e-23  1.6189e-27  8.3254e-23  1.6393e-27  8.3395e-23  1.6754e-27  8.3648e-23  1.7403e-27  8.4097e-23  1.8580e-27  8.4895e-23  2.0859e-27  8.6318e-23  2.5401e-27  8.8859e-23  3.4683e-27  9.3414e-23  5.3808e-27  1.0163e-22  9.2810e-27  1.1661e-22  1.7112e-26  1.4507e-22  3.2602e-26  1.9888e-22  6.3657e-26  3.0664e-22
      7.65  1.5915e-27  9.2089e-23  1.5920e-27  9.2093e-23  1.5929e-27  9.2101e-23  1.5944e-27  9.2115e-23  1.5973e-27  9.2140e-23  1.6025e-27  9.2185e-23  1.6122e-27  9.2264e-23  1.6307e-27  9.2404e-23  1.6628e-27  9.2656e-23  1.7209e-27  9.3102e-23  1.8261e-27  9.3895e-23  2.0268e-27  9.5309e-23  2.4221e-27  9.7834e-23  3.2237e-27  1.0236e-22  4.8761e-27  1.1052e-22  8.2748e-27  1.2541e-22  1.5161e-26  1.5304e-22  2.8982e-26  2.0674e-22  5.6876e-26  3.1319e-22
      7.70  1.5875e-27  1.0212e-22  1.5879e-27  1.0213e-22  1.5887e-27  1.0214e-22  1.5901e-27  1.0215e-22  1.5927e-27  1.0218e-22  1.5974e-27  1.0222e-22  1.6063e-27  1.0230e-22  1.6233e-27  1.0244e-22  1.6521e-27  1.0270e-22  1.7045e-27  1.0314e-22  1.7994e-27  1.0394e-22  1.9778e-27  1.0537e-22  2.3251e-27  1.0791e-22  3.0221e-27  1.1246e-22  4.4532e-27  1.2068e-22  7.4106e-27  1.3565e-22  1.3465e-26  1.6343e-22  2.5743e-26  2.1714e-22  5.0736e-26  3.2370e-22
      7.75  1.5838e-27  1.1330e-22  1.5842e-27  1.1331e-22  1.5850e-27  1.1332e-22  1.5862e-27  1.1333e-22  1.5886e-27  1.1336e-22  1.5929e-27  1.1340e-22  1.6011e-27  1.1348e-22  1.6166e-27  1.1363e-22  1.6428e-27  1.1388e-22  1.6903e-27  1.1434e-22  1.7764e-27  1.1515e-22  1.9365e-27  1.1659e-22  2.2440e-27  1.1918e-22  2.8537e-27  1.2381e-22  4.0964e-27  1.3215e-22  6.6658e-27  1.4735e-22  1.1967e-26  1.7554e-22  2.2821e-26  2.2942e-22  4.5139e-26  3.3752e-22
      7.80  1.5806e-27  1.2587e-22  1.5810e-27  1.2587e-22  1.5816e-27  1.2588e-22  1.5828e-27  1.2589e-22  1.5850e-27  1.2592e-22  1.5890e-27  1.2597e-22  1.5965e-27  1.2605e-22  1.6106e-27  1.2620e-22  1.6346e-27  1.2646e-22  1.6778e-27  1.2693e-22  1.7560e-27  1.2776e-22  1.9001e-27  1.2923e-22  2.1741e-27  1.3187e-22  2.7101e-27  1.3660e-22  3.7918e-27  1.4513e-22  6.0228e-27  1.6071e-22  1.0651e-26  1.8954e-22  2.0217e-26  2.4450e-22  4.0075e-26  3.5460e-22
      7.85  1.5778e-27  1.3987e-22  1.5781e-27  1.3988e-22  1.5787e-27  1.3989e-22  1.5798e-27  1.3990e-22  1.5817e-27  1.3993e-22  1.5854e-27  1.3998e-22  1.5923e-27  1.4006e-22  1.6051e-27  1.4021e-22  1.6270e-27  1.4048e-22  1.6663e-27  1.4096e-22  1.7375e-27  1.4182e-22  1.8673e-27  1.4334e-22  2.1118e-27  1.4605e-22  2.5843e-27  1.5091e-22  3.5277e-27  1.5966e-22  5.4628e-27  1.7561e-22  9.4885e-27  2.0523e-22  1.7885e-26  2.6156e-22  3.5490e-26  3.7404e-22
      7.90  1.5752e-27  1.5549e-22  1.5755e-27  1.5550e-22  1.5761e-27  1.5551e-22  1.5770e-27  1.5552e-22  1.5788e-27  1.5555e-22  1.5822e-27  1.5560e-22  1.5885e-27  1.5569e-22  1.6000e-27  1.5584e-22  1.6198e-27  1.5612e-22  1.6551e-27  1.5662e-22  1.7190e-27  1.5750e-22  1.8351e-27  1.5906e-22  2.0511e-27  1.6185e-22  2.4637e-27  1.6684e-22  3.2771e-27  1.7585e-22  4.9308e-27  1.9223e-22  8.3670e-27  2.2257e-22  1.5580e-26  2.8042e-22  3.0845e-26  3.9520e-22
      7.95  1.5730e-27  1.7292e-22  1.5732e-27  1.7292e-22  1.5737e-27  1.7293e-22  1.5746e-27  1.7295e-22  1.5762e-27  1.7298e-22  1.5792e-27  1.7303e-22  1.5849e-27  1.7312e-22  1.5951e-27  1.7328e-22  1.6128e-27  1.7357e-22  1.6444e-27  1.7408e-22  1.7013e-27  1.7498e-22  1.8044e-27  1.7658e-22  1.9945e-27  1.7945e-22  2.3534e-27  1.8458e-22  3.0493e-27  1.9382e-22  4.4530e-27  2.1064e-22  7.3481e-27  2.4175e-22  1.3434e-26  3.0088e-22  2.6397e-26  4.1825e-22
      8.00  1.5710e-27  1.9236e-22  1.5712e-27  1.9237e-22  1.5716e-27  1.9238e-22  1.5724e-27  1.9240e-22  1.5739e-27  1.9242e-22  1.5766e-27  1.9248e-22  1.5816e-27  1.9257e-22  1.5907e-27  1.9274e-22  1.6064e-27  1.9303e-22  1.6345e-27  1.9355e-22  1.6847e-27  1.9448e-22  1.7758e-27  1.9612e-22  1.9422e-27  1.9906e-22  2.2529e-27  2.0432e-22  2.8505e-27  2.1379e-22  4.0344e-27  2.3102e-22  6.4566e-27  2.6286e-22  1.1534e-26  3.2329e-22  2.2379e-26  4.4298e-22
      8.05  1.5692e-27  2.1420e-22  1.5694e-27  2.1421e-22  1.5698e-27  2.1422e-22  1.5705e-27  2.1423e-22  1.5718e-27  2.1426e-22  1.5741e-27  2.1432e-22  1.5786e-27  2.1441e-22  1.5866e-27  2.1459e-22  1.6004e-27  2.1489e-22  1.6251e-27  2.1543e-22  1.6693e-27  2.1637e-22  1.7491e-27  2.1806e-22  1.8942e-27  2.2107e-22  2.1632e-27  2.2647e-22  2.6736e-27  2.3618e-22  3.6730e-27  2.5382e-22  5.6960e-27  2.8642e-22  9.9143e-27  3.4819e-22  1.8926e-26  4.7023e-22
      8.10  1.5676e-27  2.3859e-22  1.5678e-27  2.3859e-22  1.5681e-27  2.3860e-22  1.5687e-27  2.3862e-22  1.5699e-27  2.3865e-22  1.5720e-27  2.3870e-22  1.5759e-27  2.3880e-22  1.5828e-27  2.3898e-22  1.5950e-27  2.3930e-22  1.6165e-27  2.3985e-22  1.6552e-27  2.4082e-22  1.7246e-27  2.4255e-22  1.8505e-27  2.4564e-22  2.0820e-27  2.5116e-22  2.5177e-27  2.6111e-22  3.3601e-27  2.7917e-22  5.0458e-27  3.1250e-22  8.5332e-27  3.7557e-22  1.5963e-26  4.9976e-22
      8.15  1.5662e-27  2.6582e-22  1.5663e-27  2.6583e-22  1.5666e-27  2.6584e-22  1.5672e-27  2.6586e-22  1.5682e-27  2.6589e-22  1.5700e-27  2.6594e-22  1.5734e-27  2.6604e-22  1.5794e-27  2.6623e-22  1.5900e-27  2.6655e-22  1.6088e-27  2.6712e-22  1.6423e-27  2.6811e-22  1.7024e-27  2.6988e-22  1.8111e-27  2.7304e-22  2.0103e-27  2.7872e-22  2.3808e-27  2.8891e-22  3.0892e-27  3.0741e-22  4.4885e-27  3.4150e-22  7.3524e-27  4.0591e-22  1.3415e-26  5.3239e-22
      8.20  1.5649e-27  2.9625e-22  1.5650e-27  2.9625e-22  1.5653e-27  2.9626e-22  1.5658e-27  2.9628e-22  1.5667e-27  2.9631e-22  1.5682e-27  2.9637e-22  1.5712e-27  2.9647e-22  1.5764e-27  2.9667e-22  1.5856e-27  2.9701e-22  1.6019e-27  2.9759e-22  1.6310e-27  2.9861e-22  1.6830e-27  3.0043e-22  1.7767e-27  3.0368e-22  1.9474e-27  3.0948e-22  2.2631e-27  3.1993e-22  2.8605e-27  3.3888e-22  4.0252e-27  3.7388e-22  6.3907e-27  4.3974e-22  1.1352e-26  5.6873e-22
      8.25  1.5638e-27  3.3024e-22  1.5639e-27  3.3025e-22  1.5641e-27  3.3026e-22  1.5646e-27  3.3028e-22  1.5653e-27  3.3031e-22  1.5667e-27  3.3037e-22  1.5692e-27  3.3048e-22  1.5738e-27  3.3068e-22  1.5818e-27  3.3103e-22  1.5959e-27  3.3163e-22  1.6210e-27  3.3269e-22  1.6660e-27  3.3457e-22  1.7469e-27  3.3791e-22  1.8936e-27  3.4390e-22  2.1633e-27  3.5466e-22  2.6696e-27  3.7416e-22  3.6479e-27  4.1002e-22  5.6079e-27  4.7766e-22  9.6867e-27  6.0954e-22
      8.30  1.5628e-27  3.6841e-22  1.5629e-27  3.6842e-22  1.5631e-27  3.6843e-22  1.5635e-27  3.6845e-22  1.5641e-27  3.6848e-22  1.5653e-27  3.6854e-22  1.5675e-27  3.6865e-22  1.5715e-27  3.6887e-22  1.5784e-27  3.6924e-22  1.5907e-27  3.6986e-22  1.6125e-27  3.7096e-22  1.6514e-27  3.7291e-22  1.7212e-27  3.7638e-22  1.8476e-27  3.8258e-22  2.0788e-27  3.9374e-22  2.5097e-27  4.1394e-22  3.3348e-27  4.5103e-22  4.9646e-27  5.2068e-22  8.3421e-27  6.5646e-22
      8.35  1.5619e-27  4.1108e-22  1.5620e-27  4.1108e-22  1.5622e-27  4.1110e-22  1.5625e-27  4.1112e-22  1.5630e-27  4.1115e-22  1.5641e-27  4.1121e-22  1.5660e-27  4.1133e-22  1.5695e-27  4.1156e-22  1.5755e-27  4.1195e-22  1.5862e-27  4.1261e-22  1.6050e-27  4.1375e-22  1.6387e-27  4.1578e-22  1.6992e-27  4.1940e-22  1.8081e-27  4.2586e-22  2.0068e-27  4.3747e-22  2.3750e-27  4.5849e-22  3.0742e-27  4.9703e-22  4.4460e-27  5.6926e-22  7.2479e-27  7.0954e-22
      8.40  1.5611e-27  4.5879e-22  1.5612e-27  4.5879e-22  1.5613e-27  4.5881e-22  1.5616e-27  4.5883e-22  1.5621e-27  4.5886e-22  1.5630e-27  4.5893e-22  1.5646e-27  4.5905e-22  1.5677e-27  4.5931e-22  1.5730e-27  4.5972e-22  1.5823e-27  4.6041e-22  1.5987e-27  4.6161e-22  1.6279e-27  4.6374e-22  1.6803e-27  4.6752e-22  1.7747e-27  4.7429e-22  1.9461e-27  4.8644e-22  2.2621e-27  5.0841e-22  2.8578e-27  5.4865e-22  4.0159e-27  6.2391e-22  6.3488e-27  7.6946e-22
      8.45  1.5603e-27  5.1214e-22  1.5604e-27  5.1215e-22  1.5606e-27  5.1216e-22  1.5608e-27  5.1219e-22  1.5612e-27  5.1223e-22  1.5620e-27  5.1230e-22  1.5634e-27  5.1242e-22  1.5662e-27  5.1270e-22  1.5708e-27  5.1314e-22  1.5789e-27  5.1387e-22  1.5933e-27  5.1514e-22  1.6188e-27  5.1738e-22  1.6645e-27  5.2136e-22  1.7466e-27  5.2848e-22  1.8954e-27  5.4125e-22  2.1684e-27  5.6433e-22  2.6796e-27  6.0655e-22  3.6650e-27  6.8536e-22  5.6372e-27  8.3728e-22
      8.50  1.5597e-27  5.7182e-22  1.5598e-27  5.7183e-22  1.5599e-27  5.7184e-22  1.5601e-27  5.7187e-22  1.5605e-27  5.7191e-22  1.5612e-27  5.7198e-22  1.5624e-27  5.7212e-22  1.5649e-27  5.7242e-22  1.5690e-27  5.7290e-22  1.5761e-27  5.7368e-22  1.5887e-27  5.7502e-22  1.6112e-27  5.7739e-22  1.6512e-27  5.8160e-22  1.7230e-27  5.8912e-22  1.8529e-27  6.0261e-22  2.0903e-27  6.2697e-22  2.5322e-27  6.7148e-22  3.3770e-27  7.5439e-22  5.0511e-27  9.1371e-22
