# This was generated using Cloudy10 and the columns are ordered 
# as log10 of the fraction of the metallicity to the solar metallicity
# 'h_*_Z' and 'c_*_Z' stands for cooling and heating respectively 
# at * metalicity
#
# NOTE: This was generated separately from loop_coolingcurve_w_UV.py
#       using Output_metals_w_redshift.py.
#
# Redshift = 0.0
# hden = -5.5
#
#     temp   h_-3.00_Z   c_-3.00_Z   h_-2.75_Z   c_-2.75_Z   h_-2.50_Z   c_-2.50_Z   h_-2.25_Z   c_-2.25_Z   h_-2.00_Z   c_-2.00_Z   h_-1.75_Z   c_-1.75_Z   h_-1.50_Z   c_-1.50_Z   h_-1.25_Z   c_-1.25_Z   h_-1.00_Z   c_-1.00_Z   h_-0.75_Z   c_-0.75_Z   h_-0.50_Z   c_-0.50_Z   h_-0.25_Z   c_-0.25_Z    h_0.00_Z    c_0.00_Z    h_0.25_Z    c_0.25_Z    h_0.50_Z    c_0.50_Z    h_0.75_Z    c_0.75_Z    h_1.00_Z    c_1.00_Z    h_1.25_Z    c_1.25_Z    h_1.50_Z    c_1.50_Z 
      4.00  1.0418e-23  1.0291e-24  1.0427e-23  1.0323e-24  1.0442e-23  1.0380e-24  1.0470e-23  1.0480e-24  1.0519e-23  1.0660e-24  1.0605e-23  1.0979e-24  1.0759e-23  1.1546e-24  1.1033e-23  1.2555e-24  1.1521e-23  1.4351e-24  1.2386e-23  1.7547e-24  1.3925e-23  2.3238e-24  1.6658e-23  3.3385e-24  2.1509e-23  5.1514e-24  3.0115e-23  8.4015e-24  4.5384e-23  1.4263e-23  7.2672e-23  2.4934e-23  1.2185e-22  4.4672e-23  2.1133e-22  8.2158e-23  3.7732e-22  1.5625e-22
      4.05  9.6467e-24  1.0714e-24  9.6551e-24  1.0745e-24  9.6701e-24  1.0799e-24  9.6968e-24  1.0896e-24  9.7443e-24  1.1068e-24  9.8287e-24  1.1374e-24  9.9788e-24  1.1918e-24  1.0246e-23  1.2885e-24  1.0720e-23  1.4607e-24  1.1563e-23  1.7672e-24  1.3061e-23  2.3129e-24  1.5723e-23  3.2861e-24  2.0447e-23  5.0251e-24  2.8831e-23  8.1433e-24  4.3706e-23  1.3769e-23  7.0288e-23  2.4020e-23  1.1820e-22  4.3004e-23  2.0543e-22  7.9126e-23  3.6728e-22  1.5073e-22
      4.10  8.9281e-24  1.1153e-24  8.9363e-24  1.1182e-24  8.9509e-24  1.1235e-24  8.9769e-24  1.1329e-24  9.0231e-24  1.1495e-24  9.1052e-24  1.1792e-24  9.2513e-24  1.2319e-24  9.5110e-24  1.3256e-24  9.9727e-24  1.4924e-24  1.0793e-23  1.7892e-24  1.2252e-23  2.3179e-24  1.4843e-23  3.2606e-24  1.9443e-23  4.9455e-24  2.7607e-23  7.9677e-24  4.2096e-23  1.3423e-23  6.7982e-23  2.3372e-23  1.1464e-22  4.1825e-23  1.9966e-22  7.7009e-23  3.5743e-22  1.4700e-22
      4.15  8.2592e-24  1.1612e-24  8.2672e-24  1.1641e-24  8.2814e-24  1.1693e-24  8.3067e-24  1.1785e-24  8.3517e-24  1.1949e-24  8.4316e-24  1.2240e-24  8.5738e-24  1.2759e-24  8.8265e-24  1.3681e-24  9.2759e-24  1.5323e-24  1.0075e-23  1.8244e-24  1.1494e-23  2.3448e-24  1.4016e-23  3.2729e-24  1.8495e-23  4.9318e-24  2.6444e-23  7.9087e-24  4.0554e-23  1.3286e-23  6.5759e-23  2.3101e-23  1.1119e-22  4.1341e-23  1.9402e-22  7.6204e-23  3.4778e-22  1.4583e-22
      4.20  7.6360e-24  1.2097e-24  7.6447e-24  1.2127e-24  7.6585e-24  1.2179e-24  7.6831e-24  1.2272e-24  7.7269e-24  1.2438e-24  7.8047e-24  1.2732e-24  7.9431e-24  1.3255e-24  8.1891e-24  1.4187e-24  8.6265e-24  1.5843e-24  9.4041e-24  1.8792e-24  1.0786e-23  2.4046e-24  1.3241e-23  3.3417e-24  1.7602e-23  5.0172e-24  2.5343e-23  8.0254e-24  3.9087e-23  1.3464e-23  6.3634e-23  2.3403e-23  1.0787e-22  4.1912e-23  1.8859e-22  7.7392e-23  3.3849e-22  1.4860e-22
      4.25  7.0581e-24  1.2621e-24  7.0657e-24  1.2652e-24  7.0792e-24  1.2707e-24  7.1031e-24  1.2804e-24  7.1458e-24  1.2977e-24  7.2216e-24  1.3285e-24  7.3564e-24  1.3833e-24  7.5960e-24  1.4808e-24  8.0221e-24  1.6542e-24  8.7796e-24  1.9629e-24  1.0126e-23  2.5128e-24  1.2518e-23  3.4941e-24  1.6767e-23  5.2494e-24  2.4312e-23  8.4027e-24  3.7710e-23  1.4110e-23  6.1634e-23  2.4555e-23  1.0474e-22  4.4053e-23  1.8348e-22  8.1552e-23  3.2973e-22  1.5724e-22
      4.30  6.5202e-24  1.3220e-24  6.5276e-24  1.3254e-24  6.5407e-24  1.3314e-24  6.5641e-24  1.3420e-24  6.6057e-24  1.3610e-24  6.6797e-24  1.3947e-24  6.8112e-24  1.4547e-24  7.0449e-24  1.5615e-24  7.4606e-24  1.7514e-24  8.1996e-24  2.0896e-24  9.5132e-24  2.6921e-24  1.1847e-23  3.7676e-24  1.5994e-23  5.6924e-24  2.3358e-23  9.1532e-24  3.6438e-23  1.5425e-23  5.9789e-23  2.6922e-23  1.0187e-22  4.8437e-23  1.7879e-22  8.9959e-23  3.2173e-22  1.7428e-22
      4.35  6.0203e-24  1.3891e-24  6.0275e-24  1.3930e-24  6.0403e-24  1.3999e-24  6.0632e-24  1.4121e-24  6.1039e-24  1.4339e-24  6.1761e-24  1.4727e-24  6.3047e-24  1.5417e-24  6.5332e-24  1.6644e-24  6.9395e-24  1.8828e-24  7.6619e-24  2.2716e-24  8.9460e-24  2.9646e-24  1.1228e-23  4.2019e-24  1.5283e-23  6.4176e-24  2.2484e-23  1.0405e-23  3.5280e-23  1.7643e-23  5.8118e-23  3.0932e-23  9.9280e-23  5.5859e-23  1.7460e-22  1.0412e-22  3.1465e-22  2.0274e-22
      4.40  5.5557e-24  1.4655e-24  5.5628e-24  1.4701e-24  5.5754e-24  1.4784e-24  5.5978e-24  1.4931e-24  5.6376e-24  1.5192e-24  5.7084e-24  1.5658e-24  5.8343e-24  1.6485e-24  6.0582e-24  1.7957e-24  6.4563e-24  2.0577e-24  7.1641e-24  2.5243e-24  8.4222e-24  3.3560e-24  1.0658e-23  4.8416e-24  1.4632e-23  7.5035e-24  2.1691e-23  1.2299e-23  3.4238e-23  2.1016e-23  5.6624e-23  3.7047e-23  9.6991e-23  6.7174e-23  1.7094e-22  1.2567e-22  3.0855e-22  2.4585e-22
      4.45  5.1241e-24  1.5530e-24  5.1310e-24  1.5588e-24  5.1434e-24  1.5690e-24  5.1654e-24  1.5871e-24  5.2045e-24  1.6195e-24  5.2740e-24  1.6769e-24  5.3977e-24  1.7791e-24  5.6175e-24  1.9610e-24  6.0083e-24  2.2846e-24  6.7033e-24  2.8610e-24  7.9387e-24  3.8888e-24  1.0135e-23  5.7250e-24  1.4037e-23  9.0171e-24  2.0972e-23  1.4953e-23  3.3300e-23  2.5757e-23  5.5293e-23  4.5660e-23  9.4976e-23  8.3119e-23  1.6777e-22  1.5602e-22  3.0332e-22  3.0650e-22
      4.50  4.7230e-24  1.6536e-24  4.7299e-24  1.6608e-24  4.7420e-24  1.6737e-24  4.7637e-24  1.6966e-24  4.8021e-24  1.7374e-24  4.8705e-24  1.8099e-24  4.9921e-24  1.9388e-24  5.2083e-24  2.1682e-24  5.5928e-24  2.5766e-24  6.2763e-24  3.3039e-24  7.4916e-24  4.6009e-24  9.6519e-24  6.9189e-24  1.3491e-23  1.1077e-23  2.0316e-23  1.8580e-23  3.2450e-23  3.2252e-23  5.4102e-23  5.7489e-23  9.3192e-23  1.0503e-22  1.6499e-22  1.9778e-22  2.9880e-22  3.8999e-22
      4.55  4.3504e-24  1.7714e-24  4.3571e-24  1.7805e-24  4.3691e-24  1.7967e-24  4.3904e-24  1.8255e-24  4.4283e-24  1.8768e-24  4.4956e-24  1.9680e-24  4.6154e-24  2.1302e-24  4.8283e-24  2.4188e-24  5.2069e-24  2.9325e-24  5.8801e-24  3.8475e-24  7.0769e-24  5.4795e-24  9.2046e-24  8.3967e-24  1.2987e-23  1.3631e-23  1.9709e-23  2.3082e-23  3.1667e-23  4.0319e-23  5.3011e-23  7.2196e-23  9.1598e-23  1.3226e-22  1.6249e-22  2.4970e-22  2.9476e-22  4.9391e-22
      4.60  4.0040e-24  1.9043e-24  4.0106e-24  1.9157e-24  4.0224e-24  1.9359e-24  4.0434e-24  1.9718e-24  4.0807e-24  2.0358e-24  4.1471e-24  2.1494e-24  4.2651e-24  2.3516e-24  4.4749e-24  2.7113e-24  4.8479e-24  3.3517e-24  5.5112e-24  4.4924e-24  6.6906e-24  6.5270e-24  8.7873e-24  1.0165e-23  1.2515e-23  1.6693e-23  1.9142e-23  2.8487e-23  3.0932e-23  5.0015e-23  5.1985e-23  8.9907e-23  9.0101e-23  1.6505e-22  1.6015e-22  3.1236e-22  2.9102e-22  6.1974e-22
      4.65  3.6818e-24  2.0567e-24  3.6883e-24  2.0707e-24  3.7000e-24  2.0957e-24  3.7207e-24  2.1402e-24  3.7574e-24  2.2193e-24  3.8228e-24  2.3600e-24  3.9391e-24  2.6102e-24  4.1458e-24  3.0554e-24  4.5134e-24  3.8479e-24  5.1671e-24  5.2597e-24  6.3293e-24  7.7780e-24  8.3957e-24  1.2281e-23  1.2069e-23  2.0365e-23  1.8602e-23  3.4974e-23  3.0227e-23  6.1658e-23  5.0995e-23  1.1121e-22  8.8646e-23  2.0451e-22  1.5786e-22  3.8793e-22  2.8736e-22  7.7188e-22
      4.70  3.3821e-24  2.2368e-24  3.3885e-24  2.2540e-24  3.4000e-24  2.2845e-24  3.4203e-24  2.3388e-24  3.4566e-24  2.4353e-24  3.5210e-24  2.6071e-24  3.6355e-24  2.9125e-24  3.8391e-24  3.4560e-24  4.2012e-24  4.4236e-24  4.8451e-24  6.1472e-24  5.9900e-24  9.2221e-24  8.0257e-24  1.4721e-23  1.1645e-23  2.4595e-23  1.8082e-23  4.2445e-23  2.9541e-23  7.5071e-23  5.0021e-23  1.3574e-22  8.7196e-23  2.5011e-22  1.5556e-22  4.7546e-22  2.8365e-22  9.4892e-22
      4.75  3.1030e-24  2.4619e-24  3.1094e-24  2.4825e-24  3.1206e-24  2.5192e-24  3.1407e-24  2.5845e-24  3.1763e-24  2.7006e-24  3.2397e-24  2.9071e-24  3.3525e-24  3.2744e-24  3.5529e-24  3.9280e-24  3.9093e-24  5.0915e-24  4.5431e-24  7.1643e-24  5.6701e-24  1.0862e-23  7.6741e-24  1.7476e-23  1.1238e-23  2.9355e-23  1.7576e-23  5.0838e-23  2.8863e-23  9.0125e-23  4.9044e-23  1.6327e-22  8.5720e-23  3.0140e-22  1.5319e-22  5.7422e-22  2.7979e-22  1.1496e-21
      4.80  2.8429e-24  2.7633e-24  2.8491e-24  2.7877e-24  2.8602e-24  2.8312e-24  2.8799e-24  2.9084e-24  2.9150e-24  3.0459e-24  2.9773e-24  3.2903e-24  3.0881e-24  3.7251e-24  3.2852e-24  4.4987e-24  3.6357e-24  5.8758e-24  4.2589e-24  8.3294e-24  5.3671e-24  1.2707e-23  7.3377e-24  2.0537e-23  1.0842e-23  3.4603e-23  1.7078e-23  6.0044e-23  2.8184e-23  1.0662e-22  4.8048e-23  1.9336e-22  8.4194e-23  3.5745e-22  1.5071e-22  6.8249e-22  2.7568e-22  1.3710e-21
      4.85  2.5991e-24  3.1806e-24  2.6053e-24  3.2091e-24  2.6161e-24  3.2597e-24  2.6355e-24  3.3496e-24  2.6699e-24  3.5096e-24  2.7311e-24  3.7942e-24  2.8400e-24  4.3004e-24  3.0335e-24  5.2011e-24  3.3776e-24  6.8046e-24  3.9896e-24  9.6614e-24  5.0779e-24  1.4759e-23  7.0132e-24  2.3877e-23  1.0456e-23  4.0259e-23  1.6582e-23  6.9909e-23  2.7496e-23  1.2422e-22  4.7019e-23  2.2552e-22  8.2592e-23  4.1687e-22  1.4807e-22  7.9748e-22  2.7124e-22  1.6079e-21
      4.90  2.3685e-24  3.7674e-24  2.3745e-24  3.8000e-24  2.3852e-24  3.8579e-24  2.4041e-24  3.9609e-24  2.4379e-24  4.1441e-24  2.4979e-24  4.4699e-24  2.6046e-24  5.0494e-24  2.7943e-24  6.0805e-24  3.1317e-24  7.9162e-24  3.7317e-24  1.1187e-23  4.7988e-24  1.7023e-23  6.6966e-24  2.7463e-23  1.0073e-23  4.6223e-23  1.6081e-23  8.0184e-23  2.6790e-23  1.4242e-22  4.5947e-23  2.5864e-22  8.0894e-23  4.7836e-22  1.4523e-22  9.1663e-22  2.6638e-22  1.8526e-21
      4.95  2.1461e-24  4.5742e-24  2.1520e-24  4.6109e-24  2.1624e-24  4.6761e-24  2.1810e-24  4.7921e-24  2.2141e-24  4.9983e-24  2.2728e-24  5.3651e-24  2.3772e-24  6.0176e-24  2.5629e-24  7.1787e-24  2.8932e-24  9.2455e-24  3.4805e-24  1.2928e-23  4.5250e-24  1.9499e-23  6.3828e-24  3.1255e-23  9.6879e-24  5.2380e-23  1.5571e-23  9.0631e-23  2.6060e-23  1.6075e-22  4.4849e-23  2.9155e-22  7.9102e-23  5.3947e-22  1.4217e-22  1.0352e-21  2.6104e-22  2.0975e-21
      5.00  1.9260e-24  5.6265e-24  1.9318e-24  5.6672e-24  1.9420e-24  5.7394e-24  1.9601e-24  5.8679e-24  1.9924e-24  6.0963e-24  2.0498e-24  6.5027e-24  2.1518e-24  7.2255e-24  2.3333e-24  8.5117e-24  2.6560e-24  1.0801e-23  3.2299e-24  1.4881e-23  4.2506e-24  2.2161e-23  6.0660e-24  3.5184e-23  9.2960e-24  5.8588e-23  1.5046e-23  1.0097e-22  2.5299e-23  1.7868e-22  4.3698e-23  3.2337e-22  7.7212e-23  5.9826e-22  1.3893e-22  1.1489e-21  2.5526e-22  2.3329e-21
      5.05  1.7023e-24  6.8973e-24  1.7079e-24  6.9416e-24  1.7178e-24  7.0206e-24  1.7356e-24  7.1610e-24  1.7670e-24  7.4106e-24  1.8230e-24  7.8547e-24  1.9226e-24  8.6446e-24  2.0996e-24  1.0050e-23  2.4144e-24  1.2552e-23  2.9742e-24  1.7010e-23  3.9699e-24  2.4965e-23  5.7409e-24  3.9195e-23  8.8919e-24  6.4768e-23  1.4502e-23  1.1108e-22  2.4504e-23  1.9599e-22  4.2487e-23  3.5374e-22  7.5209e-23  6.5409e-22  1.3547e-22  1.2563e-21  2.4905e-22  2.5537e-21
      5.10  1.4719e-24  8.2558e-24  1.4774e-24  8.3035e-24  1.4871e-24  8.3885e-24  1.5043e-24  8.5395e-24  1.5350e-24  8.8081e-24  1.5895e-24  9.2859e-24  1.6864e-24  1.0136e-23  1.8589e-24  1.1648e-23  2.1655e-24  1.4340e-23  2.7107e-24  1.9137e-23  3.6804e-24  2.7696e-23  5.4052e-24  4.3008e-23  8.4738e-24  7.0522e-23  1.3937e-23  1.2031e-22  2.3676e-23  2.1165e-22  4.1220e-23  3.8090e-22  7.3107e-23  7.0372e-22  1.3182e-22  1.3513e-21  2.4240e-22  2.7473e-21
      5.15  1.2385e-24  9.5032e-24  1.2438e-24  9.5538e-24  1.2532e-24  9.6440e-24  1.2700e-24  9.8042e-24  1.2998e-24  1.0089e-23  1.3528e-24  1.0596e-23  1.4471e-24  1.1498e-23  1.6148e-24  1.3103e-23  1.9130e-24  1.5959e-23  2.4432e-24  2.1049e-23  3.3862e-24  3.0130e-23  5.0633e-24  4.6376e-23  8.0467e-24  7.5569e-23  1.3357e-23  1.2843e-22  2.2821e-23  2.2536e-22  3.9913e-23  4.0420e-22  7.0927e-23  7.4606e-22  1.2800e-22  1.4317e-21  2.3541e-22  2.9093e-21
      5.20  1.0128e-24  1.0427e-23  1.0180e-24  1.0480e-23  1.0271e-24  1.0575e-23  1.0434e-24  1.0744e-23  1.0724e-24  1.1045e-23  1.1239e-24  1.1580e-23  1.2154e-24  1.2532e-23  1.3783e-24  1.4225e-23  1.6678e-24  1.7239e-23  2.1827e-24  2.2609e-23  3.0983e-24  3.2190e-23  4.7266e-24  4.9331e-23  7.6225e-24  8.0131e-23  1.2775e-23  1.3590e-22  2.1983e-23  2.3775e-22  3.8585e-23  4.2601e-22  6.8700e-23  7.8567e-22  1.2409e-22  1.5067e-21  2.2820e-22  3.0594e-21
      5.25  8.0877e-25  1.0895e-23  8.1376e-25  1.0951e-23  8.2264e-25  1.1050e-23  8.3844e-25  1.1225e-23  8.6652e-25  1.1538e-23  9.1646e-25  1.2094e-23  1.0053e-24  1.3082e-23  1.1632e-24  1.4841e-23  1.4440e-24  1.7972e-23  1.9433e-24  2.3534e-23  2.8310e-24  3.3476e-23  4.4095e-24  5.1261e-23  7.2160e-24  8.3223e-23  1.2208e-23  1.4110e-22  2.1153e-23  2.4633e-22  3.7256e-23  4.4121e-22  6.6452e-23  8.1354e-22  1.2011e-22  1.5584e-21  2.2084e-22  3.1648e-21
      5.30  6.3673e-25  1.0923e-23  6.4156e-25  1.0979e-23  6.5016e-25  1.1081e-23  6.6546e-25  1.1261e-23  6.9265e-25  1.1581e-23  7.4101e-25  1.2150e-23  8.2700e-25  1.3162e-23  9.7991e-25  1.4964e-23  1.2518e-24  1.8171e-23  1.7352e-24  2.3885e-23  2.5946e-24  3.4082e-23  4.1222e-24  5.2326e-23  6.8373e-24  8.5115e-23  1.1672e-23  1.4438e-22  2.0344e-23  2.5200e-22  3.5936e-23  4.5145e-22  6.4196e-23  8.3203e-22  1.1609e-22  1.5928e-21  2.1335e-22  3.2223e-21
      5.35  4.9990e-25  1.0617e-23  5.0458e-25  1.0675e-23  5.1289e-25  1.0777e-23  5.2767e-25  1.0960e-23  5.5395e-25  1.1284e-23  6.0070e-25  1.1861e-23  6.8381e-25  1.2888e-23  8.3160e-25  1.4714e-23  1.0944e-24  1.7966e-23  1.5615e-24  2.3760e-23  2.3918e-24  3.4100e-23  3.8672e-24  5.2600e-23  6.4884e-24  8.5854e-23  1.1170e-23  1.4573e-22  1.9553e-23  2.5464e-22  3.4621e-23  4.5634e-22  6.1918e-23  8.4081e-22  1.1200e-22  1.6080e-21  2.0569e-22  3.2461e-21
      5.40  3.9538e-25  1.0119e-23  3.9989e-25  1.0177e-23  4.0790e-25  1.0279e-23  4.2215e-25  1.0461e-23  4.4750e-25  1.0785e-23  4.9258e-25  1.1361e-23  5.7273e-25  1.2385e-23  7.1524e-25  1.4208e-23  9.6859e-25  1.7453e-23  1.4189e-24  2.3236e-23  2.2191e-24  3.3556e-23  3.6406e-24  5.2023e-23  6.1680e-24  8.5175e-23  1.0687e-23  1.4479e-22  1.8770e-23  2.5330e-22  3.3295e-23  4.5415e-22  5.9591e-23  8.3674e-22  1.0778e-22  1.5989e-21  1.9776e-22  3.2230e-21
      5.45  3.1726e-25  9.5501e-24  3.2160e-25  9.6068e-24  3.2930e-25  9.7077e-24  3.4301e-25  9.8870e-24  3.6739e-25  1.0206e-23  4.1074e-25  1.0773e-23  4.8782e-25  1.1782e-23  6.2486e-25  1.3578e-23  8.6846e-25  1.6775e-23  1.3014e-24  2.2471e-23  2.0703e-24  3.2638e-23  3.4354e-24  5.0836e-23  5.8692e-24  8.3414e-23  1.0215e-23  1.4207e-22  1.7986e-23  2.4885e-22  3.1943e-23  4.4633e-22  5.7192e-23  8.2209e-22  1.0341e-22  1.5695e-21  1.8951e-22  3.1627e-21
      5.50  2.5929e-25  8.9796e-24  2.6345e-25  9.0353e-24  2.7084e-25  9.1344e-24  2.8399e-25  9.3106e-24  3.0737e-25  9.6240e-24  3.4894e-25  1.0181e-23  4.2285e-25  1.1173e-23  5.5426e-25  1.2937e-23  7.8779e-25  1.6078e-23  1.2027e-24  2.1676e-23  1.9392e-24  3.1655e-23  3.2475e-24  4.9513e-23  5.5827e-24  8.1491e-23  9.7482e-24  1.3905e-22  1.7196e-23  2.4371e-22  3.0565e-23  4.3717e-22  5.4728e-23  8.0475e-22  9.8889e-23  1.5352e-21  1.8098e-22  3.0818e-21
      5.55  2.1613e-25  8.4713e-24  2.2011e-25  8.5251e-24  2.2718e-25  8.6208e-24  2.3976e-25  8.7908e-24  2.6212e-25  9.0933e-24  3.0189e-25  9.6314e-24  3.7259e-25  1.0588e-23  4.9825e-25  1.2292e-23  7.2153e-25  1.5324e-23  1.1180e-24  2.0728e-23  1.8213e-24  3.0374e-23  3.0737e-24  4.7592e-23  5.3067e-24  7.8406e-23  9.2890e-24  1.3388e-22  1.6406e-23  2.3469e-22  2.9175e-23  4.2096e-22  5.2229e-23  7.7409e-22  9.4294e-23  1.4728e-21  1.7228e-22  2.9472e-21
      5.60  1.8369e-25  8.0414e-24  1.8748e-25  8.0927e-24  1.9424e-25  8.1837e-24  2.0625e-25  8.3457e-24  2.2760e-25  8.6338e-24  2.6557e-25  9.1461e-24  3.3305e-25  1.0058e-23  4.5297e-25  1.1679e-23  6.6593e-25  1.4567e-23  1.0438e-24  1.9714e-23  1.7141e-24  2.8896e-23  2.9103e-24  4.5269e-23  5.0406e-24  7.4583e-23  8.8391e-24  1.2733e-22  1.5626e-23  2.2311e-22  2.7794e-23  4.0025e-22  4.9742e-23  7.3484e-22  8.9714e-23  1.3946e-21  1.6361e-22  2.7796e-21
      5.65  1.5899e-25  7.6962e-24  1.6261e-25  7.7448e-24  1.6905e-25  7.8311e-24  1.8050e-25  7.9847e-24  2.0086e-25  8.2578e-24  2.3706e-25  8.7435e-24  3.0138e-25  9.6076e-24  4.1563e-25  1.1145e-23  6.1836e-25  1.3883e-23  9.7773e-25  1.8761e-23  1.6169e-24  2.7455e-23  2.7563e-24  4.2964e-23  4.7854e-24  7.0721e-23  8.4026e-24  1.2064e-22  1.4863e-23  2.1123e-22  2.6441e-23  3.7796e-22  4.7301e-23  6.9253e-22  8.5229e-23  1.3105e-21  1.5513e-22  2.6025e-21
      5.70  1.3992e-25  7.4325e-24  1.4337e-25  7.4782e-24  1.4951e-25  7.5596e-24  1.6042e-25  7.7043e-24  1.7982e-25  7.9616e-24  2.1430e-25  8.4193e-24  2.7555e-25  9.2334e-24  3.8426e-25  1.0682e-23  5.7699e-25  1.3261e-23  9.1821e-25  1.7857e-23  1.5275e-24  2.6039e-23  2.6118e-24  4.0641e-23  4.5427e-24  6.6782e-23  7.9843e-24  1.1375e-22  1.4129e-23  1.9888e-22  2.5135e-23  3.5595e-22  4.4948e-23  6.5098e-22  8.0909e-23  1.2282e-21  1.4700e-22  2.4227e-21
      5.75  1.2499e-25  7.1945e-24  1.2828e-25  7.2378e-24  1.3413e-25  7.3147e-24  1.4452e-25  7.4514e-24  1.6300e-25  7.6946e-24  1.9583e-25  8.1271e-24  2.5412e-25  8.8964e-24  3.5749e-25  1.0265e-23  5.4055e-25  1.2702e-23  8.6545e-25  1.7041e-23  1.4452e-24  2.4769e-23  2.4770e-24  3.8558e-23  4.3140e-24  6.3221e-23  7.5878e-24  1.0753e-22  1.3432e-23  1.8776e-22  2.3894e-23  3.3497e-22  4.2713e-23  6.1144e-22  7.6822e-23  1.2178e-21  1.3936e-22  2.4179e-21
      5.80  1.1314e-25  7.0619e-24  1.1628e-25  7.1053e-24  1.2184e-25  7.1824e-24  1.3175e-25  7.3194e-24  1.4934e-25  7.5632e-24  1.8059e-25  7.9968e-24  2.3604e-25  8.7679e-24  3.3429e-25  1.0140e-23  5.0811e-25  1.2582e-23  8.1778e-25  1.6929e-23  1.3695e-24  2.4672e-23  2.3512e-24  3.8486e-23  4.0991e-24  6.3187e-23  7.2136e-24  1.0755e-22  1.2772e-23  1.8781e-22  2.2721e-23  3.3490e-22  4.0605e-23  6.1345e-22  7.2986e-23  1.1576e-21  1.3224e-22  2.2608e-21
      5.85  1.0362e-25  7.0076e-24  1.0660e-25  7.0488e-24  1.1190e-25  7.1221e-24  1.2132e-25  7.2524e-24  1.3805e-25  7.4841e-24  1.6776e-25  7.8962e-24  2.2046e-25  8.6292e-24  3.1378e-25  9.9331e-24  4.7883e-25  1.2254e-23  7.7385e-25  1.6384e-23  1.2986e-24  2.3740e-23  2.2324e-24  3.6863e-23  3.8949e-24  6.0325e-23  6.8571e-24  1.0253e-22  1.2143e-23  1.7953e-22  2.1602e-23  3.1979e-22  3.8599e-23  5.8287e-22  6.9356e-23  1.0907e-21  1.2558e-22  2.2069e-21
      5.90  9.5880e-26  7.0277e-24  9.8707e-26  7.0674e-24  1.0373e-25  7.1379e-24  1.1267e-25  7.2632e-24  1.2854e-25  7.4862e-24  1.5673e-25  7.8826e-24  2.0670e-25  8.5876e-24  2.9519e-25  9.8416e-24  4.5217e-25  1.2073e-23  7.3233e-25  1.6044e-23  1.2307e-24  2.3118e-23  2.1174e-24  3.5734e-23  3.6960e-24  5.8286e-23  6.5087e-24  9.8755e-23  1.1528e-23  1.7188e-22  2.0508e-23  3.0559e-22  3.6642e-23  5.9607e-22  6.5826e-23  1.1235e-21  1.1914e-22  2.1846e-21
      5.95  8.9511e-26  7.1235e-24  9.2180e-26  7.1679e-24  9.6927e-26  7.2469e-24  1.0537e-25  7.3874e-24  1.2036e-25  7.6371e-24  1.4698e-25  8.0812e-24  1.9421e-25  8.8707e-24  2.7789e-25  1.0274e-23  4.2667e-25  1.2771e-23  6.9175e-25  1.7217e-23  1.1632e-24  2.5134e-23  2.0021e-24  3.9251e-23  3.4955e-24  6.4469e-23  6.1564e-24  1.0970e-22  1.0905e-23  1.9126e-22  1.9400e-23  3.4016e-22  3.4662e-23  6.1629e-22  6.2267e-23  1.1465e-21  1.1268e-22  2.2113e-21
      6.00  8.4213e-26  7.2798e-24  8.6715e-26  7.3273e-24  9.1164e-26  7.4116e-24  9.9074e-26  7.5616e-24  1.1313e-25  7.8282e-24  1.3811e-25  8.3022e-24  1.8245e-25  9.1449e-24  2.6107e-25  1.0643e-23  4.0109e-25  1.3309e-23  6.5015e-25  1.8056e-23  1.0931e-24  2.6509e-23  1.8814e-24  4.1579e-23  3.2848e-24  6.8497e-23  5.7855e-24  1.1674e-22  1.0248e-23  2.0376e-22  1.8235e-23  3.6238e-22  3.2586e-23  6.5653e-22  5.8552e-23  1.2202e-21  1.0598e-22  2.8128e-21
      6.05  7.9754e-26  7.5153e-24  8.2072e-26  7.5671e-24  8.6193e-26  7.6591e-24  9.3523e-26  7.8228e-24  1.0655e-25  8.1138e-24  1.2972e-25  8.6312e-24  1.7087e-25  9.5512e-24  2.4393e-25  1.1187e-23  3.7397e-25  1.4099e-23  6.0517e-25  1.9283e-23  1.0165e-24  2.8516e-23  1.7483e-24  4.4977e-23  3.0515e-24  7.4388e-23  5.3742e-24  1.2721e-22  9.5209e-24  2.2243e-22  1.6946e-23  3.9623e-22  3.0301e-23  7.2022e-22  5.4497e-23  1.3431e-21  9.8762e-23  3.0101e-21
      6.10  7.5954e-26  7.8093e-24  7.8063e-26  7.8639e-24  8.1812e-26  7.9611e-24  8.8480e-26  8.1339e-24  1.0034e-25  8.4411e-24  1.2142e-25  8.9876e-24  1.5889e-25  9.9595e-24  2.2550e-25  1.1689e-23  3.4391e-25  1.4766e-23  5.5447e-25  2.0246e-23  9.2907e-25  3.0006e-23  1.5957e-24  4.7416e-23  2.7831e-24  7.8541e-23  4.9001e-24  1.3442e-22  8.6823e-24  2.3561e-22  1.5462e-23  4.2094e-22  2.7680e-23  7.6693e-22  4.9877e-23  1.4769e-21  9.0637e-23  3.0858e-21
      6.15  7.2681e-26  8.1567e-24  7.4552e-26  8.2091e-24  7.7882e-26  8.3021e-24  8.3801e-26  8.4677e-24  9.4328e-26  8.7621e-24  1.1305e-25  9.2861e-24  1.4634e-25  1.0219e-23  2.0552e-25  1.1878e-23  3.1071e-25  1.4830e-23  4.9777e-25  2.0085e-23  8.3058e-25  2.9448e-23  1.4230e-24  4.6158e-23  2.4783e-24  7.6058e-23  4.3610e-24  1.2982e-22  7.7272e-24  2.2750e-22  1.3770e-23  4.0685e-22  2.4686e-23  7.4442e-22  4.4594e-23  1.4804e-21  8.1351e-23  2.9150e-21
      6.20  6.9850e-26  8.5587e-24  7.1474e-26  8.6036e-24  7.4362e-26  8.6835e-24  7.9496e-26  8.8256e-24  8.8627e-26  9.0785e-24  1.0487e-25  9.5290e-24  1.3375e-25  1.0332e-23  1.8511e-25  1.1760e-23  2.7641e-25  1.4298e-23  4.3879e-25  1.8817e-23  7.2767e-25  2.6872e-23  1.2420e-24  4.1251e-23  2.1583e-24  6.6998e-23  3.7935e-24  1.1335e-22  6.7191e-24  1.9758e-22  1.1977e-23  3.5297e-22  2.1491e-23  6.4774e-22  3.8897e-23  1.2572e-21  7.1195e-23  2.5003e-21
      6.25  6.7416e-26  9.0219e-24  6.8808e-26  9.0580e-24  7.1283e-26  9.1221e-24  7.5684e-26  9.2362e-24  8.3509e-26  9.4396e-24  9.7427e-26  9.8021e-24  1.2218e-25  1.0450e-23  1.6620e-25  1.1598e-23  2.4447e-25  1.3641e-23  3.8368e-25  1.7277e-23  6.3137e-25  2.3758e-23  1.0723e-24  3.5330e-23  1.8580e-24  5.6061e-23  3.2600e-24  9.3389e-23  5.7687e-24  1.6133e-22  1.0278e-23  2.8680e-22  1.8441e-23  5.2488e-22  3.3386e-23  1.0042e-21  6.1166e-23  2.0024e-21
      6.30  6.5336e-26  9.5769e-24  6.6529e-26  9.6059e-24  6.8651e-26  9.6574e-24  7.2423e-26  9.7493e-24  7.9128e-26  9.9129e-24  9.1051e-26  1.0205e-23  1.1225e-25  1.0727e-23  1.4996e-25  1.1651e-23  2.1702e-25  1.3296e-23  3.3630e-25  1.6223e-23  5.4853e-25  2.1439e-23  9.2631e-25  3.0752e-23  1.5994e-24  4.7427e-23  2.8003e-24  7.7463e-23  4.9483e-24  1.3202e-22  8.8067e-24  2.3280e-22  1.5786e-23  4.2376e-22  2.8547e-23  8.0253e-22  5.2227e-23  1.5949e-21
      6.35  6.3557e-26  1.0207e-23  6.4583e-26  1.0232e-23  6.6407e-26  1.0275e-23  6.9650e-26  1.0351e-23  7.5414e-26  1.0488e-23  8.5655e-26  1.0732e-23  1.0385e-25  1.1168e-23  1.3624e-25  1.1941e-23  1.9385e-25  1.3314e-23  2.9631e-25  1.5759e-23  4.7861e-25  2.0116e-23  8.0309e-25  2.7892e-23  1.3811e-24  4.1813e-23  2.4121e-24  6.6871e-23  4.2553e-24  1.1237e-22  7.5635e-24  1.9625e-22  1.3539e-23  3.5494e-22  2.4440e-23  6.6756e-22  4.4601e-23  1.3207e-21
      6.40  6.2026e-26  1.0918e-23  6.2908e-26  1.0938e-23  6.4476e-26  1.0975e-23  6.7263e-26  1.1041e-23  7.2215e-26  1.1159e-23  8.1009e-26  1.1369e-23  9.6612e-26  1.1743e-23  1.2443e-25  1.2408e-23  1.7389e-25  1.3589e-23  2.6185e-25  1.5690e-23  4.1835e-25  1.9434e-23  6.9688e-25  2.6116e-23  1.1929e-24  3.8078e-23  2.0775e-24  5.9598e-23  3.6581e-24  9.8659e-23  6.4924e-24  1.7064e-22  1.1604e-23  3.0672e-22  2.0906e-23  5.7421e-22  3.8042e-23  1.1316e-21
      6.45  6.0704e-26  1.1712e-23  6.1462e-26  1.1730e-23  6.2808e-26  1.1762e-23  6.5201e-26  1.1820e-23  6.9452e-26  1.1921e-23  7.6997e-26  1.2103e-23  9.0372e-26  1.2427e-23  1.1424e-25  1.3002e-23  1.5668e-25  1.4025e-23  2.3214e-25  1.5843e-23  3.6640e-25  1.9082e-23  6.0533e-25  2.4863e-23  1.0308e-24  3.5210e-23  1.7892e-24  5.3821e-23  3.1436e-24  8.7594e-23  5.5698e-24  1.4984e-22  9.9381e-24  2.6729e-22  1.7865e-23  4.9791e-22  3.2406e-23  9.7677e-22
      6.50  5.9562e-26  1.2599e-23  6.0215e-26  1.2615e-23  6.1375e-26  1.2642e-23  6.3435e-26  1.2692e-23  6.7095e-26  1.2780e-23  7.3588e-26  1.2937e-23  8.5101e-26  1.3217e-23  1.0565e-25  1.3715e-23  1.4219e-25  1.4599e-23  2.0716e-25  1.6171e-23  3.2274e-25  1.8972e-23  5.2840e-25  2.3968e-23  8.9456e-25  3.2910e-23  1.5470e-24  4.8990e-23  2.7116e-24  7.8156e-23  4.7957e-24  1.3183e-22  8.5416e-24  2.3303e-22  1.5320e-23  4.3169e-22  2.7700e-23  8.4285e-22
      6.55  5.8576e-26  1.3617e-23  5.9143e-26  1.3630e-23  6.0149e-26  1.3654e-23  6.1938e-26  1.3698e-23  6.5114e-26  1.3774e-23  7.0746e-26  1.3911e-23  8.0741e-26  1.4155e-23  9.8583e-26  1.4590e-23  1.3030e-25  1.5360e-23  1.8669e-25  1.6730e-23  2.8701e-25  1.9169e-23  4.6550e-25  2.3531e-23  7.8323e-25  3.1325e-23  1.3493e-24  4.5343e-23  2.3590e-24  7.0749e-23  4.1644e-24  1.1748e-22  7.4045e-24  2.0546e-22  1.3253e-23  3.7741e-22  2.3894e-23  7.3257e-22
      6.60  5.7723e-26  1.4747e-23  5.8219e-26  1.4760e-23  5.9100e-26  1.4781e-23  6.0666e-26  1.4819e-23  6.3446e-26  1.4887e-23  6.8376e-26  1.5008e-23  7.7133e-26  1.5225e-23  9.2762e-26  1.5611e-23  1.2054e-25  1.6293e-23  1.6993e-25  1.7506e-23  2.5779e-25  1.9666e-23  4.1410e-25  2.3518e-23  6.9233e-25  3.0410e-23  1.1879e-24  4.2799e-23  2.0715e-24  6.5255e-23  3.6502e-24  1.0650e-22  6.4800e-24  1.8403e-22  1.1578e-23  3.3521e-22  2.0823e-23  6.4648e-22
      6.65  5.6982e-26  1.6003e-23  5.7419e-26  1.6013e-23  5.8196e-26  1.6033e-23  5.9576e-26  1.6067e-23  6.2026e-26  1.6128e-23  6.6373e-26  1.6237e-23  7.4102e-26  1.6433e-23  8.7891e-26  1.6782e-23  1.1239e-25  1.7397e-23  1.5596e-25  1.8490e-23  2.3346e-25  2.0435e-23  3.7134e-25  2.3904e-23  6.1672e-25  3.0108e-23  1.0537e-24  4.1256e-23  1.8326e-24  6.1446e-23  3.2235e-24  9.8508e-23  5.7141e-24  1.6814e-22  1.0193e-23  3.0357e-22  1.8297e-23  5.8167e-22
      6.70  5.6334e-26  1.7394e-23  5.6721e-26  1.7404e-23  5.7408e-26  1.7422e-23  5.8628e-26  1.7454e-23  6.0796e-26  1.7510e-23  6.4643e-26  1.7610e-23  7.1490e-26  1.7790e-23  8.3702e-26  1.8111e-23  1.0540e-25  1.8676e-23  1.4397e-25  1.9678e-23  2.1258e-25  2.1461e-23  3.3465e-25  2.4641e-23  5.5188e-25  3.0328e-23  9.3866e-25  4.0543e-23  1.6279e-24  5.9036e-23  2.8581e-24  9.2959e-23  5.0591e-24  1.5663e-22  9.0122e-24  2.8030e-22  1.6150e-23  5.3494e-22
      6.75  5.5766e-26  1.8937e-23  5.6108e-26  1.8946e-23  5.6716e-26  1.8963e-23  5.7797e-26  1.8992e-23  5.9717e-26  1.9045e-23  6.3127e-26  1.9138e-23  6.9199e-26  1.9306e-23  8.0032e-26  1.9607e-23  9.9268e-26  2.0136e-23  1.3347e-25  2.1071e-23  1.9430e-25  2.2735e-23  3.0253e-25  2.5702e-23  4.9511e-25  3.1008e-23  8.3797e-25  4.0535e-23  1.4488e-24  5.7775e-23  2.5386e-24  8.9380e-23  4.4870e-24  1.4859e-22  7.9823e-24  2.6352e-22  1.4282e-23  4.9942e-22
      6.80  5.5266e-26  2.0686e-23  5.5569e-26  2.0695e-23  5.6108e-26  2.0711e-23  5.7066e-26  2.0739e-23  5.8769e-26  2.0789e-23  6.1795e-26  2.0877e-23  6.7183e-26  2.1038e-23  7.6805e-26  2.1327e-23  9.3884e-26  2.1831e-23  1.2424e-25  2.2723e-23  1.7824e-25  2.4307e-23  2.7431e-25  2.7131e-23  4.4525e-25  3.2180e-23  7.4955e-25  4.1245e-23  1.2916e-24  5.7664e-23  2.2583e-24  8.7727e-23  3.9855e-24  1.4397e-22  7.0810e-24  2.5340e-22  1.2651e-23  4.7580e-22
      6.85  5.4826e-26  2.2625e-23  5.5095e-26  2.2634e-23  5.5573e-26  2.2649e-23  5.6423e-26  2.2676e-23  5.7935e-26  2.2725e-23  6.0623e-26  2.2812e-23  6.5413e-26  2.2968e-23  7.3973e-26  2.3253e-23  8.9157e-26  2.3746e-23  1.1614e-25  2.4617e-23  1.6414e-25  2.6163e-23  2.4952e-25  2.8918e-23  4.0146e-25  3.3842e-23  6.7192e-25  4.2681e-23  1.1536e-24  5.8666e-23  2.0124e-24  8.7932e-23  3.5461e-24  1.4270e-22  6.2925e-24  2.4885e-22  1.1228e-23  4.6433e-22
      6.90  5.4437e-26  2.4774e-23  5.4676e-26  2.4783e-23  5.5100e-26  2.4798e-23  5.5855e-26  2.4825e-23  5.7197e-26  2.4874e-23  5.9584e-26  2.4960e-23  6.3844e-26  2.5116e-23  7.1461e-26  2.5403e-23  8.4961e-26  2.5895e-23  1.0894e-25  2.6762e-23  1.5160e-25  2.8301e-23  2.2751e-25  3.1042e-23  3.6257e-25  3.5941e-23  6.0296e-25  4.4732e-23  1.0311e-24  6.0627e-23  1.7942e-24  8.9718e-23  3.1565e-24  1.4409e-22  5.5945e-24  2.4930e-22  9.9720e-24  4.6253e-22
      6.95  5.4092e-26  2.7156e-23  5.4304e-26  2.7165e-23  5.4680e-26  2.7180e-23  5.5349e-26  2.7207e-23  5.6539e-26  2.7256e-23  5.8656e-26  2.7342e-23  6.2433e-26  2.7499e-23  6.9205e-26  2.7791e-23  8.1191e-26  2.8288e-23  1.0248e-25  2.9161e-23  1.4035e-25  3.0707e-23  2.0774e-25  3.3460e-23  3.2764e-25  3.8380e-23  5.4106e-25  4.7209e-23  9.2111e-25  6.3178e-23  1.5984e-24  9.2389e-23  2.8073e-24  1.4697e-22  4.9698e-24  2.5236e-22  8.8500e-24  4.6587e-22
      7.00  5.3784e-26  2.9796e-23  5.3971e-26  2.9805e-23  5.4304e-26  2.9820e-23  5.4895e-26  2.9848e-23  5.5947e-26  2.9896e-23  5.7819e-26  2.9983e-23  6.1151e-26  3.0137e-23  6.7156e-26  3.0435e-23  7.7767e-26  3.0937e-23  9.6608e-26  3.1812e-23  1.3012e-25  3.3361e-23  1.8976e-25  3.6118e-23  2.9589e-25  4.1042e-23  4.8481e-25  4.9889e-23  8.2123e-25  6.5870e-23  1.4208e-24  9.5117e-23  2.4908e-24  1.4978e-22  4.4043e-24  2.5524e-22  7.8368e-24  4.6890e-22
      7.05  5.3509e-26  3.2775e-23  5.3673e-26  3.2783e-23  5.3965e-26  3.2798e-23  5.4484e-26  3.2825e-23  5.5408e-26  3.2873e-23  5.7051e-26  3.2958e-23  5.9976e-26  3.3110e-23  6.5253e-26  3.3406e-23  7.4587e-26  3.3906e-23  9.1145e-26  3.4771e-23  1.2059e-25  3.6299e-23  1.7298e-25  3.9014e-23  2.6624e-25  4.3862e-23  4.3227e-25  5.2562e-23  7.2795e-25  6.8288e-23  1.2550e-24  9.7068e-23  2.1956e-24  1.5088e-22  3.8783e-24  2.5477e-22  6.8978e-24  4.6526e-22
      7.10  5.3260e-26  3.6078e-23  5.3402e-26  3.6086e-23  5.3655e-26  3.6101e-23  5.4105e-26  3.6127e-23  5.4906e-26  3.6172e-23  5.6331e-26  3.6254e-23  5.8867e-26  3.6398e-23  6.3438e-26  3.6680e-23  7.1552e-26  3.7167e-23  8.5918e-26  3.7997e-23  1.1145e-25  3.9455e-23  1.5690e-25  4.2044e-23  2.3780e-25  4.6664e-23  3.8185e-25  5.4953e-23  6.3845e-25  6.9938e-23  1.0959e-24  9.7586e-23  1.9126e-24  1.4903e-22  3.3743e-24  2.4841e-22  5.9992e-24  4.5005e-22
      7.15  5.3033e-26  3.9744e-23  5.3154e-26  3.9751e-23  5.3369e-26  3.9764e-23  5.3752e-26  3.9787e-23  5.4433e-26  3.9829e-23  5.5644e-26  3.9902e-23  5.7798e-26  4.0033e-23  6.1670e-26  4.0285e-23  6.8589e-26  4.0742e-23  8.0810e-26  4.1503e-23  1.0252e-25  4.2828e-23  1.4115e-25  4.5175e-23  2.0993e-25  4.9360e-23  3.3244e-25  5.7282e-23  5.5071e-25  7.1182e-23  9.3997e-25  9.6625e-23  1.6353e-24  1.4433e-22  2.8806e-24  2.3633e-22  5.1191e-24  4.2317e-22
      7.20  5.2825e-26  4.3812e-23  5.2926e-26  4.3819e-23  5.3105e-26  4.3831e-23  5.3423e-26  4.3852e-23  5.3989e-26  4.3889e-23  5.4996e-26  4.3956e-23  5.6786e-26  4.4076e-23  5.9969e-26  4.4287e-23  6.5753e-26  4.4728e-23  7.5931e-26  4.5435e-23  9.3979e-26  4.6651e-23  1.2608e-25  4.8791e-23  1.8325e-25  5.2602e-23  2.8511e-25  5.9431e-23  4.6665e-25  7.1774e-23  7.9051e-25  9.4362e-23  1.3693e-24  1.3820e-22  2.4065e-24  2.2127e-22  4.2729e-24  3.8980e-22
      7.25  5.2636e-26  4.8328e-23  5.2718e-26  4.8334e-23  5.2864e-26  4.8345e-23  5.3125e-26  4.8364e-23  5.3588e-26  4.8398e-23  5.4411e-26  4.8458e-23  5.5875e-26  4.8566e-23  5.8477e-26  4.8756e-23  6.3205e-26  4.9156e-23  7.1558e-26  4.9816e-23  8.6331e-26  5.0923e-23  1.1260e-25  5.2858e-23  1.5937e-25  5.6292e-23  2.4272e-25  6.2442e-23  3.9133e-25  7.3550e-23  6.5653e-25  9.3871e-23  1.1306e-24  1.3183e-22  1.9804e-24  2.0682e-22  3.5103e-24  3.5710e-22
      7.30  5.2462e-26  5.3407e-23  5.2529e-26  5.3413e-23  5.2649e-26  5.3422e-23  5.2861e-26  5.3440e-23  5.3237e-26  5.3470e-23  5.3908e-26  5.3525e-23  5.5100e-26  5.3622e-23  5.7218e-26  5.3794e-23  6.1054e-26  5.4149e-23  6.7899e-26  5.4778e-23  7.9955e-26  5.5797e-23  1.0136e-25  5.7555e-23  1.3948e-25  6.0664e-23  2.0744e-25  6.6220e-23  3.2865e-25  7.6249e-23  5.4502e-25  9.4585e-23  9.3187e-25  1.2881e-22  1.6254e-24  1.9480e-22  2.8739e-24  3.3013e-22
      7.35  5.2303e-26  5.9050e-23  5.2358e-26  5.9055e-23  5.2456e-26  5.9063e-23  5.2629e-26  5.9079e-23  5.2938e-26  5.9107e-23  5.3487e-26  5.9157e-23  5.4464e-26  5.9245e-23  5.6201e-26  5.9403e-23  5.9320e-26  5.9710e-23  6.4984e-26  6.0330e-23  7.4901e-26  6.1287e-23  9.2480e-26  6.2908e-23  1.2378e-25  6.5757e-23  1.7960e-25  7.0841e-23  2.7921e-25  8.0005e-23  4.5710e-25  9.6749e-23  7.7519e-25  1.2797e-22  1.3454e-24  1.8808e-22  2.3718e-24  3.1036e-22
      7.40  5.2155e-26  6.5318e-23  5.2201e-26  6.5323e-23  5.2282e-26  6.5331e-23  5.2426e-26  6.5346e-23  5.2682e-26  6.5372e-23  5.3138e-26  6.5418e-23  5.3950e-26  6.5500e-23  5.5393e-26  6.5646e-23  5.7968e-26  6.5917e-23  6.2734e-26  6.6548e-23  7.1015e-26  6.7467e-23  8.5659e-26  6.8991e-23  1.1172e-25  7.1647e-23  1.5821e-25  7.6372e-23  2.4120e-25  8.4883e-23  3.8948e-25  1.0042e-22  6.5468e-25  1.2936e-22  1.1301e-24  1.8500e-22  1.9856e-24  2.9718e-22
      7.45  5.2015e-26  7.2283e-23  5.2053e-26  7.2287e-23  5.2122e-26  7.2295e-23  5.2244e-26  7.2309e-23  5.2460e-26  7.2334e-23  5.2846e-26  7.2377e-23  5.3531e-26  7.2455e-23  5.4751e-26  7.2593e-23  5.6976e-26  7.2898e-23  6.1039e-26  7.3530e-23  6.8062e-26  7.4420e-23  8.0463e-26  7.5873e-23  1.0252e-25  7.8393e-23  1.4189e-25  8.2868e-23  2.1221e-25  9.0921e-23  3.3791e-25  1.0561e-22  5.6280e-25  1.3294e-22  9.6596e-25  1.8541e-22  1.6912e-24  2.9095e-22
      7.50  5.1880e-26  8.0022e-23  5.1913e-26  8.0026e-23  5.1972e-26  8.0034e-23  5.2076e-26  8.0047e-23  5.2263e-26  8.0071e-23  5.2594e-26  8.0113e-23  5.3183e-26  8.0188e-23  5.4232e-26  8.0322e-23  5.6207e-26  8.0686e-23  5.9734e-26  8.1332e-23  6.5798e-26  8.2211e-23  7.6486e-26  8.3623e-23  9.5490e-26  8.6060e-23  1.2940e-25  9.0378e-23  1.9002e-25  9.8143e-23  2.9845e-25  1.1230e-22  4.9256e-25  1.3860e-22  8.4064e-25  1.8902e-22  1.4669e-24  2.9022e-22
      7.55  5.1747e-26  8.8703e-23  5.1776e-26  8.8708e-23  5.1827e-26  8.8715e-23  5.1919e-26  8.8728e-23  5.2082e-26  8.8751e-23  5.2371e-26  8.8793e-23  5.2886e-26  8.8866e-23  5.3802e-26  8.8997e-23  5.5600e-26  8.9451e-23  5.8715e-26  9.0124e-23  6.4035e-26  9.1009e-23  7.3393e-26  9.2409e-23  9.0019e-26  9.4809e-23  1.1968e-25  9.9055e-23  1.7271e-25  1.0668e-22  2.6760e-25  1.2059e-22  4.3754e-25  1.4641e-22  7.4238e-25  1.9581e-22  1.2909e-24  2.9475e-22
      7.60  5.1614e-26  9.8352e-23  5.1640e-26  9.8356e-23  5.1685e-26  9.8363e-23  5.1766e-26  9.8376e-23  5.1910e-26  9.8400e-23  5.2167e-26  9.8441e-23  5.2623e-26  9.8515e-23  5.3435e-26  9.8645e-23  5.5111e-26  9.9225e-23  5.7901e-26  9.9939e-23  6.2636e-26  1.0085e-22  7.0943e-26  1.0226e-22  8.5688e-26  1.0467e-22  1.1198e-25  1.0891e-22  1.5898e-25  1.1653e-22  2.4312e-25  1.3041e-22  3.9385e-25  1.5616e-22  6.6429e-25  2.0540e-22  1.1509e-24  3.0379e-22
      7.65  5.1478e-26  1.0907e-22  5.1501e-26  1.0908e-22  5.1542e-26  1.0909e-22  5.1615e-26  1.0910e-22  5.1744e-26  1.0912e-22  5.1973e-26  1.0916e-22  5.2381e-26  1.0924e-22  5.3108e-26  1.0937e-22  5.4705e-26  1.1012e-22  5.7234e-26  1.1089e-22  6.1495e-26  1.1183e-22  6.8950e-26  1.1328e-22  8.2168e-26  1.1573e-22  1.0573e-25  1.2003e-22  1.4783e-25  1.2776e-22  2.2319e-25  1.4181e-22  3.5825e-25  1.6785e-22  6.0064e-25  2.1757e-22  1.0369e-24  3.1682e-22
      7.70  5.1337e-26  1.2099e-22  5.1358e-26  1.2099e-22  5.1395e-26  1.2100e-22  5.1460e-26  1.2101e-22  5.1577e-26  1.2104e-22  5.1784e-26  1.2108e-22  5.2152e-26  1.2116e-22  5.2808e-26  1.2129e-22  5.4355e-26  1.2226e-22  5.6669e-26  1.2310e-22  6.0536e-26  1.2410e-22  6.7281e-26  1.2560e-22  7.9223e-26  1.2811e-22  1.0049e-25  1.3253e-22  1.3849e-25  1.4043e-22  2.0650e-25  1.5481e-22  3.2840e-25  1.8144e-22  5.4725e-25  2.3221e-22  9.4119e-25  3.3339e-22
      7.75  5.1189e-26  1.3422e-22  5.1208e-26  1.3422e-22  5.1241e-26  1.3423e-22  5.1300e-26  1.3425e-22  5.1406e-26  1.3427e-22  5.1593e-26  1.3431e-22  5.1927e-26  1.3439e-22  5.2583e-26  1.3467e-22  5.4044e-26  1.3578e-22  5.6176e-26  1.3672e-22  5.9705e-26  1.3778e-22  6.5836e-26  1.3935e-22  7.6679e-26  1.4195e-22  9.5975e-26  1.4651e-22  1.3043e-25  1.5467e-22  1.9208e-25  1.6948e-22  3.0258e-25  1.9691e-22  5.0102e-25  2.4915e-22  8.5831e-25  3.5303e-22
      7.80  5.1030e-26  1.4902e-22  5.1047e-26  1.4902e-22  5.1077e-26  1.4903e-22  5.1131e-26  1.4904e-22  5.1227e-26  1.4907e-22  5.1397e-26  1.4911e-22  5.1699e-26  1.4920e-22  5.2361e-26  1.4964e-22  5.3753e-26  1.5094e-22  5.5728e-26  1.5200e-22  5.8958e-26  1.5315e-22  6.4545e-26  1.5480e-22  7.4407e-26  1.5752e-22  9.1943e-26  1.6225e-22  1.2324e-25  1.7072e-22  1.7921e-25  1.8608e-22  2.7954e-25  2.1449e-22  4.5974e-25  2.6855e-22  7.8429e-25  3.7588e-22
      7.85  5.0858e-26  1.6544e-22  5.0874e-26  1.6545e-22  5.0901e-26  1.6546e-22  5.0950e-26  1.6547e-22  5.1036e-26  1.6550e-22  5.1190e-26  1.6555e-22  5.1464e-26  1.6563e-22  5.2154e-26  1.6634e-22  5.3485e-26  1.6786e-22  5.5317e-26  1.6904e-22  5.8273e-26  1.7030e-22  6.3359e-26  1.7204e-22  7.2321e-26  1.7488e-22  8.8243e-26  1.7981e-22  1.1664e-25  1.8861e-22  1.6741e-25  2.0456e-22  2.5839e-25  2.3404e-22  4.2184e-25  2.9007e-22  7.1630e-25  4.0114e-22
      7.90  5.0670e-26  1.8367e-22  5.0684e-26  1.8367e-22  5.0709e-26  1.8368e-22  5.0753e-26  1.8370e-22  5.0831e-26  1.8373e-22  5.0970e-26  1.8377e-22  5.1217e-26  1.8386e-22  5.1963e-26  1.8497e-22  5.3236e-26  1.8673e-22  5.4933e-26  1.8807e-22  5.7631e-26  1.8944e-22  6.2247e-26  1.9128e-22  7.0363e-26  1.9425e-22  8.4770e-26  1.9938e-22  1.1045e-25  2.0852e-22  1.5633e-25  2.2507e-22  2.3854e-25  2.5565e-22  3.8620e-25  3.1368e-22  6.5227e-25  4.2853e-22
      7.95  5.0464e-26  2.0388e-22  5.0476e-26  2.0388e-22  5.0498e-26  2.0389e-22  5.0538e-26  2.0391e-22  5.0608e-26  2.0393e-22  5.0732e-26  2.0399e-22  5.0954e-26  2.0408e-22  5.1764e-26  2.0569e-22  5.2990e-26  2.0776e-22  5.4564e-26  2.0929e-22  5.7018e-26  2.1078e-22  6.1189e-26  2.1274e-22  6.8503e-26  2.1584e-22  8.1471e-26  2.2117e-22  1.0457e-25  2.3064e-22  1.4581e-25  2.4778e-22  2.1966e-25  2.7940e-22  3.5225e-25  3.3935e-22  5.9112e-25  4.5776e-22
      8.00  5.0235e-26  2.2626e-22  5.0246e-26  2.2627e-22  5.0265e-26  2.2628e-22  5.0301e-26  2.2629e-22  5.0363e-26  2.2632e-22  5.0474e-26  2.2638e-22  5.0672e-26  2.2647e-22  5.1552e-26  2.2871e-22  5.2743e-26  2.3118e-22  5.4206e-26  2.3295e-22  5.6433e-26  2.3459e-22  6.0182e-26  2.3668e-22  6.6734e-26  2.3992e-22  7.8337e-26  2.4544e-22  9.8986e-26  2.5523e-22  1.3584e-25  2.7294e-22  2.0178e-25  3.0556e-22  3.2012e-25  3.6732e-22  5.3322e-25  4.8902e-22
      8.05  4.9979e-26  2.5117e-22  4.9989e-26  2.5117e-22  5.0007e-26  2.5118e-22  5.0038e-26  2.5120e-22  5.0093e-26  2.5123e-22  5.0191e-26  2.5129e-22  5.0366e-26  2.5138e-22  5.1324e-26  2.5441e-22  5.2495e-26  2.5739e-22  5.3859e-26  2.5946e-22  5.5875e-26  2.6130e-22  5.9228e-26  2.6353e-22  6.5063e-26  2.6692e-22  7.5379e-26  2.7265e-22  9.3723e-26  2.8278e-22  1.2644e-25  3.0107e-22  1.8496e-25  3.3472e-22  2.8990e-25  3.9830e-22  4.7879e-25  5.2331e-22
      8.10  4.9961e-26  2.8004e-22  4.9969e-26  2.8005e-22  4.9985e-26  2.8006e-22  5.0012e-26  2.8008e-22  5.0061e-26  2.8011e-22  5.0148e-26  2.8017e-22  5.0302e-26  2.8027e-22  5.1077e-26  2.8293e-22  5.2244e-26  2.8655e-22  5.3525e-26  2.8901e-22  5.5350e-26  2.9110e-22  5.8336e-26  2.9350e-22  6.3504e-26  2.9706e-22  7.2623e-26  3.0302e-22  8.8824e-26  3.1349e-22  1.1771e-25  3.3235e-22  1.6932e-25  3.6702e-22  2.6184e-25  4.3240e-22  4.2828e-25  5.6059e-22
      8.15  4.9948e-26  3.1234e-22  4.9956e-26  3.1235e-22  4.9969e-26  3.1236e-22  4.9993e-26  3.1238e-22  5.0036e-26  3.1241e-22  5.0113e-26  3.1247e-22  5.0248e-26  3.1257e-22  5.0808e-26  3.1453e-22  5.1990e-26  3.1900e-22  5.3206e-26  3.2196e-22  5.4861e-26  3.2435e-22  5.7515e-26  3.2697e-22  6.2074e-26  3.3073e-22  7.0097e-26  3.3692e-22  8.4337e-26  3.4775e-22  1.0971e-25  3.6723e-22  1.5502e-25  4.0296e-22  2.3617e-25  4.7020e-22  3.8206e-25  6.0164e-22
      8.20  4.9937e-26  3.4845e-22  4.9944e-26  3.4846e-22  4.9956e-26  3.4847e-22  4.9977e-26  3.4849e-22  5.0014e-26  3.4852e-22  5.0081e-26  3.4858e-22  5.0200e-26  3.4869e-22  5.0513e-26  3.4951e-22  5.1730e-26  3.5508e-22  5.2900e-26  3.5868e-22  5.4410e-26  3.6146e-22  5.6768e-26  3.6436e-22  6.0780e-26  3.6834e-22  6.7817e-26  3.7480e-22  8.0290e-26  3.8604e-22  1.0250e-25  4.0618e-22  1.4214e-25  4.4306e-22  2.1309e-25  5.1232e-22  3.4055e-25  6.4726e-22
      8.25  4.9928e-26  3.8882e-22  4.9934e-26  3.8883e-22  4.9944e-26  3.8884e-22  4.9963e-26  3.8886e-22  4.9995e-26  3.8890e-22  5.0054e-26  3.8896e-22  5.0158e-26  3.8907e-22  5.0342e-26  3.8926e-22  5.1464e-26  3.9516e-22  5.2608e-26  3.9960e-22  5.3997e-26  4.0288e-22  5.6098e-26  4.0611e-22  5.9627e-26  4.1037e-22  6.5788e-26  4.1715e-22  7.6693e-26  4.2885e-22  9.6093e-26  4.4975e-22  1.3071e-25  4.8794e-22  1.9264e-25  5.5947e-22  3.0378e-25  6.9836e-22
      8.30  4.9920e-26  4.3415e-22  4.9925e-26  4.3415e-22  4.9934e-26  4.3416e-22  4.9950e-26  4.3418e-22  4.9979e-26  4.3422e-22  5.0030e-26  4.3429e-22  5.0120e-26  4.3440e-22  5.0282e-26  4.3461e-22  5.1187e-26  4.3984e-22  5.2328e-26  4.4535e-22  5.3621e-26  4.4928e-22  5.5502e-26  4.5294e-22  5.8609e-26  4.5755e-22  6.4004e-26  4.6472e-22  7.3534e-26  4.7698e-22  9.0473e-26  4.9880e-22  1.2068e-25  5.3858e-22  1.7469e-25  6.1291e-22  2.7157e-25  7.5673e-22
      8.35  4.9913e-26  4.8485e-22  4.9917e-26  4.8485e-22  4.9925e-26  4.8487e-22  4.9939e-26  4.8489e-22  4.9964e-26  4.8493e-22  5.0009e-26  4.8499e-22  5.0088e-26  4.8512e-22  5.0229e-26  4.8533e-22  5.0898e-26  4.8941e-22  5.2055e-26  4.9629e-22  5.3278e-26  5.0106e-22  5.4974e-26  5.0526e-22  5.7719e-26  5.1031e-22  6.2449e-26  5.1794e-22  7.0783e-26  5.3085e-22  8.5584e-26  5.5375e-22  1.1196e-25  5.9538e-22  1.5910e-25  6.7296e-22  2.4361e-25  8.2254e-22
      8.40  4.9906e-26  5.4158e-22  4.9910e-26  5.4158e-22  4.9917e-26  5.4160e-22  4.9930e-26  5.4162e-22  4.9952e-26  5.4166e-22  4.9991e-26  5.4173e-22  5.0060e-26  5.4186e-22  5.0183e-26  5.4208e-22  5.0591e-26  5.4436e-22  5.1787e-26  5.5300e-22  5.2962e-26  5.5883e-22  5.4507e-26  5.6372e-22  5.6943e-26  5.6930e-22  6.1102e-26  5.7749e-22  6.8405e-26  5.9117e-22  8.1360e-26  6.1531e-22  1.0444e-25  6.5908e-22  1.4566e-25  7.4046e-22  2.1949e-25  8.9677e-22
      8.45  4.9901e-26  6.0505e-22  4.9905e-26  6.0506e-22  4.9911e-26  6.0507e-22  4.9922e-26  6.0510e-22  4.9941e-26  6.0514e-22  4.9975e-26  6.0522e-22  5.0036e-26  6.0535e-22  5.0144e-26  6.0559e-22  5.0337e-26  6.0602e-22  5.1519e-26  6.1609e-22  5.2669e-26  6.2327e-22  5.4093e-26  6.2902e-22  5.6269e-26  6.3526e-22  5.9939e-26  6.4411e-22  6.6357e-26  6.5869e-22  7.7726e-26  6.8427e-22  9.7963e-26  7.3053e-22  1.3409e-25  8.1628e-22  1.9878e-25  9.8043e-22
      8.50  4.9897e-26  6.7610e-22  4.9900e-26  6.7610e-22  4.9905e-26  6.7612e-22  4.9915e-26  6.7614e-22  4.9931e-26  6.7619e-22  4.9962e-26  6.7627e-22  5.0015e-26  6.7641e-22  5.0110e-26  6.7667e-22  5.0280e-26  6.7712e-22  5.1247e-26  6.8624e-22  5.2394e-26  6.9513e-22  5.3723e-26  7.0197e-22  5.5682e-26  7.0901e-22  5.8935e-26  7.1866e-22  6.4596e-26  7.3429e-22  7.4604e-26  7.6153e-22  9.2406e-26  8.1063e-22  1.2417e-25  9.0143e-22  1.8101e-25  1.0746e-21
