# This was generated using Cloudy10 and the columns are ordered 
# as log10 of the fraction of the metallicity to the solar metallicity
# 'h_*_Z' and 'c_*_Z' stands for cooling and heating respectively 
# at * metalicity
#
# NOTE: This was generated separately from loop_coolingcurve_w_UV.py
#       using Output_metals_w_redshift.py.
#
# Redshift = 4.5
# hden = -4.5
#
#     temp   h_-3.00_Z   c_-3.00_Z   h_-2.75_Z   c_-2.75_Z   h_-2.50_Z   c_-2.50_Z   h_-2.25_Z   c_-2.25_Z   h_-2.00_Z   c_-2.00_Z   h_-1.75_Z   c_-1.75_Z   h_-1.50_Z   c_-1.50_Z   h_-1.25_Z   c_-1.25_Z   h_-1.00_Z   c_-1.00_Z   h_-0.75_Z   c_-0.75_Z   h_-0.50_Z   c_-0.50_Z   h_-0.25_Z   c_-0.25_Z    h_0.00_Z    c_0.00_Z    h_0.25_Z    c_0.25_Z    h_0.50_Z    c_0.50_Z    h_0.75_Z    c_0.75_Z    h_1.00_Z    c_1.00_Z    h_1.25_Z    c_1.25_Z    h_1.50_Z    c_1.50_Z 
      1.00  3.3422e-22  5.8150e-26  3.3423e-22  5.8150e-26  3.3426e-22  5.8151e-26  3.3430e-22  5.8152e-26  3.3438e-22  5.8155e-26  3.3451e-22  5.8159e-26  3.3475e-22  5.8166e-26  3.3518e-22  5.8178e-26  3.3594e-22  5.8201e-26  3.3728e-22  5.8240e-26  3.3968e-22  5.8311e-26  3.4391e-22  5.8437e-26  3.5140e-22  5.8661e-26  3.6463e-22  5.9060e-26  3.8811e-22  5.9772e-26  4.2980e-22  6.1043e-26  5.0424e-22  6.3323e-26  6.3748e-22  6.7441e-26  8.7731e-22  7.4962e-26
      1.05  3.1525e-22  6.1168e-26  3.1527e-22  6.1169e-26  3.1529e-22  6.1170e-26  3.1533e-22  6.1171e-26  3.1541e-22  6.1173e-26  3.1554e-22  6.1178e-26  3.1577e-22  6.1186e-26  3.1619e-22  6.1199e-26  3.1693e-22  6.1224e-26  3.1825e-22  6.1268e-26  3.2058e-22  6.1345e-26  3.2471e-22  6.1484e-26  3.3202e-22  6.1729e-26  3.4493e-22  6.2167e-26  3.6784e-22  6.2949e-26  4.0848e-22  6.4346e-26  4.8105e-22  6.6853e-26  6.1093e-22  7.1385e-26  8.4465e-22  7.9684e-26
      1.10  2.9744e-22  6.4343e-26  2.9745e-22  6.4343e-26  2.9748e-22  6.4344e-26  2.9752e-22  6.4346e-26  2.9759e-22  6.4349e-26  2.9772e-22  6.4354e-26  2.9795e-22  6.4362e-26  2.9836e-22  6.4378e-26  2.9908e-22  6.4406e-26  3.0037e-22  6.4456e-26  3.0266e-22  6.4544e-26  3.0671e-22  6.4701e-26  3.1387e-22  6.4980e-26  3.2651e-22  6.5477e-26  3.4894e-22  6.6365e-26  3.8869e-22  6.7953e-26  4.5968e-22  7.0807e-26  5.8675e-22  7.5977e-26  8.1536e-22  8.5477e-26
      1.15  2.8070e-22  6.7682e-26  2.8072e-22  6.7683e-26  2.8074e-22  6.7684e-26  2.8078e-22  6.7686e-26  2.8085e-22  6.7689e-26  2.8098e-22  6.7695e-26  2.8120e-22  6.7706e-26  2.8160e-22  6.7725e-26  2.8231e-22  6.7759e-26  2.8358e-22  6.7820e-26  2.8582e-22  6.7928e-26  2.8980e-22  6.8119e-26  2.9684e-22  6.8460e-26  3.0926e-22  6.9068e-26  3.3126e-22  7.0154e-26  3.7026e-22  7.2097e-26  4.3989e-22  7.5596e-26  5.6454e-22  8.1954e-26  7.8878e-22  9.3696e-26
      1.20  2.6498e-22  7.1810e-26  2.6499e-22  7.1811e-26  2.6501e-22  7.1813e-26  2.6505e-22  7.1815e-26  2.6512e-22  7.1820e-26  2.6524e-22  7.1828e-26  2.6547e-22  7.1843e-26  2.6586e-22  7.1870e-26  2.6656e-22  7.1918e-26  2.6780e-22  7.2002e-26  2.7001e-22  7.2152e-26  2.7393e-22  7.2420e-26  2.8085e-22  7.2896e-26  2.9307e-22  7.3746e-26  3.1471e-22  7.5263e-26  3.5304e-22  7.7984e-26  4.2148e-22  8.2891e-26  5.4397e-22  9.1841e-26  7.6436e-22  1.0847e-25
      1.25  2.5020e-22  7.6731e-26  2.5021e-22  7.6733e-26  2.5023e-22  7.6735e-26  2.5027e-22  7.6739e-26  2.5034e-22  7.6747e-26  2.5046e-22  7.6761e-26  2.5068e-22  7.6786e-26  2.5107e-22  7.6829e-26  2.5175e-22  7.6907e-26  2.5298e-22  7.7045e-26  2.5515e-22  7.7291e-26  2.5900e-22  7.7728e-26  2.6581e-22  7.8508e-26  2.7784e-22  7.9898e-26  2.9911e-22  8.2384e-26  3.3678e-22  8.6845e-26  4.0403e-22  9.4909e-26  5.2440e-22  1.0966e-25  7.4100e-22  1.3720e-25
      1.30  2.3631e-22  8.1797e-26  2.3632e-22  8.1800e-26  2.3634e-22  8.1804e-26  2.3638e-22  8.1812e-26  2.3645e-22  8.1826e-26  2.3657e-22  8.1852e-26  2.3678e-22  8.1897e-26  2.3716e-22  8.1977e-26  2.3784e-22  8.2119e-26  2.3904e-22  8.2372e-26  2.4118e-22  8.2822e-26  2.4497e-22  8.3623e-26  2.5167e-22  8.5050e-26  2.6351e-22  8.7598e-26  2.8443e-22  9.2154e-26  3.2149e-22  1.0034e-25  3.8759e-22  1.1516e-25  5.0594e-22  1.4232e-25  7.1896e-22  1.9319e-25
      1.35  2.2325e-22  8.7027e-26  2.2326e-22  8.7032e-26  2.2328e-22  8.7041e-26  2.2332e-22  8.7056e-26  2.2338e-22  8.7083e-26  2.2350e-22  8.7131e-26  2.2371e-22  8.7217e-26  2.2409e-22  8.7369e-26  2.2475e-22  8.7640e-26  2.2594e-22  8.8123e-26  2.2804e-22  8.8981e-26  2.3177e-22  9.0509e-26  2.3837e-22  9.3232e-26  2.5003e-22  9.8091e-26  2.7061e-22  1.0679e-25  3.0708e-22  1.2242e-25  3.7207e-22  1.5074e-25  4.8846e-22  2.0272e-25  6.9801e-22  3.0030e-25
      1.40  2.1096e-22  9.2443e-26  2.1097e-22  9.2452e-26  2.1099e-22  9.2468e-26  2.1103e-22  9.2497e-26  2.1110e-22  9.2548e-26  2.1121e-22  9.2638e-26  2.1142e-22  9.2799e-26  2.1179e-22  9.3085e-26  2.1245e-22  9.3594e-26  2.1361e-22  9.4500e-26  2.1568e-22  9.6112e-26  2.1935e-22  9.8982e-26  2.2585e-22  1.0410e-25  2.3733e-22  1.1323e-25  2.5759e-22  1.2957e-25  2.9348e-22  1.5896e-25  3.5737e-22  2.1223e-25  4.7183e-22  3.1010e-25  6.7797e-22  4.9406e-25
      1.45  1.9940e-22  9.8067e-26  1.9942e-22  9.8083e-26  1.9944e-22  9.8112e-26  1.9947e-22  9.8164e-26  1.9954e-22  9.8255e-26  1.9965e-22  9.8418e-26  1.9986e-22  9.8707e-26  2.0022e-22  9.9222e-26  2.0086e-22  1.0014e-25  2.0201e-22  1.0177e-25  2.0405e-22  1.0466e-25  2.0766e-22  1.0982e-25  2.1405e-22  1.1902e-25  2.2535e-22  1.3544e-25  2.4529e-22  1.6483e-25  2.8058e-22  2.1771e-25  3.4339e-22  3.1362e-25  4.5590e-22  4.8993e-25  6.5860e-22  8.2171e-25
      1.50  1.8853e-22  1.0392e-25  1.8854e-22  1.0395e-25  1.8856e-22  1.0400e-25  1.8859e-22  1.0409e-25  1.8866e-22  1.0424e-25  1.8877e-22  1.0452e-25  1.8897e-22  1.0502e-25  1.8933e-22  1.0589e-25  1.8996e-22  1.0745e-25  1.9109e-22  1.1023e-25  1.9309e-22  1.1517e-25  1.9664e-22  1.2396e-25  2.0294e-22  1.3964e-25  2.1406e-22  1.6763e-25  2.3368e-22  2.1774e-25  2.6838e-22  3.0793e-25  3.3012e-22  4.7157e-25  4.4071e-22  7.7259e-25  6.3997e-22  1.3396e-24
      1.55  1.7829e-22  1.1005e-25  1.7830e-22  1.1010e-25  1.7832e-22  1.1018e-25  1.7835e-22  1.1032e-25  1.7841e-22  1.1057e-25  1.7853e-22  1.1102e-25  1.7872e-22  1.1181e-25  1.7907e-22  1.1323e-25  1.7970e-22  1.1575e-25  1.8081e-22  1.2023e-25  1.8278e-22  1.2820e-25  1.8627e-22  1.4240e-25  1.9246e-22  1.6771e-25  2.0340e-22  2.1289e-25  2.2271e-22  2.9381e-25  2.5683e-22  4.3946e-25  3.1752e-22  7.0385e-25  4.2621e-22  1.1905e-24  6.2205e-22  2.1079e-24
      1.60  1.6864e-22  1.1647e-25  1.6865e-22  1.1653e-25  1.6867e-22  1.1666e-25  1.6870e-22  1.1687e-25  1.6877e-22  1.1726e-25  1.6888e-22  1.1795e-25  1.6907e-22  1.1917e-25  1.6942e-22  1.2134e-25  1.7003e-22  1.2520e-25  1.7112e-22  1.3207e-25  1.7306e-22  1.4429e-25  1.7649e-22  1.6606e-25  1.8258e-22  2.0485e-25  1.9335e-22  2.7413e-25  2.1235e-22  3.9820e-25  2.4588e-22  6.2158e-25  3.0554e-22  1.0272e-24  4.1235e-22  1.7743e-24  6.0479e-22  3.1838e-24
      1.65  1.5955e-22  1.2319e-25  1.5956e-22  1.2329e-25  1.5958e-22  1.2347e-25  1.5961e-22  1.2379e-25  1.5967e-22  1.2435e-25  1.5978e-22  1.2535e-25  1.5997e-22  1.2714e-25  1.6031e-22  1.3031e-25  1.6091e-22  1.3595e-25  1.6199e-22  1.4599e-25  1.6389e-22  1.6386e-25  1.6727e-22  1.9568e-25  1.7326e-22  2.5239e-25  1.8385e-22  3.5365e-25  2.0255e-22  5.3505e-25  2.3552e-22  8.6167e-25  2.9416e-22  1.4550e-24  3.9912e-22  2.5484e-24  5.8820e-22  4.6129e-24
      1.70  1.5098e-22  1.3026e-25  1.5099e-22  1.3040e-25  1.5101e-22  1.3065e-25  1.5104e-22  1.3109e-25  1.5110e-22  1.3188e-25  1.5120e-22  1.3328e-25  1.5139e-22  1.3578e-25  1.5173e-22  1.4022e-25  1.5232e-22  1.4812e-25  1.5337e-22  1.6217e-25  1.5525e-22  1.8717e-25  1.5857e-22  2.3170e-25  1.6446e-22  3.1107e-25  1.7488e-22  4.5281e-25  1.9328e-22  7.0673e-25  2.2571e-22  1.1640e-24  2.8335e-22  1.9950e-24  3.8648e-22  3.5270e-24  5.7226e-22  6.4221e-24
      1.75  1.4289e-22  1.3769e-25  1.4290e-22  1.3788e-25  1.4292e-22  1.3822e-25  1.4295e-22  1.3881e-25  1.4301e-22  1.3988e-25  1.4311e-22  1.4177e-25  1.4330e-22  1.4512e-25  1.4363e-22  1.5110e-25  1.4421e-22  1.6173e-25  1.4525e-22  1.8063e-25  1.4709e-22  2.1428e-25  1.5036e-22  2.7419e-25  1.5616e-22  3.8099e-25  1.6641e-22  5.7173e-25  1.8451e-22  9.1345e-25  2.1642e-22  1.5290e-24  2.7308e-22  2.6479e-24  3.7441e-22  4.7118e-24  5.5695e-22  8.6150e-24
      1.80  1.3525e-22  1.4555e-25  1.3526e-22  1.4580e-25  1.3528e-22  1.4624e-25  1.3532e-22  1.4701e-25  1.3537e-22  1.4839e-25  1.3548e-22  1.5084e-25  1.3566e-22  1.5521e-25  1.3598e-22  1.6297e-25  1.3655e-22  1.7677e-25  1.3757e-22  2.0132e-25  1.3939e-22  2.4502e-25  1.4260e-22  3.2284e-25  1.4831e-22  4.6156e-25  1.5839e-22  7.0932e-25  1.7620e-22  1.1532e-24  2.0760e-22  1.9530e-24  2.6331e-22  3.4072e-24  3.6287e-22  6.0913e-24  5.4224e-22  1.1171e-23
      1.85  1.2804e-22  1.5385e-25  1.2805e-22  1.5416e-25  1.2807e-22  1.5471e-25  1.2810e-22  1.5568e-25  1.2816e-22  1.5742e-25  1.2826e-22  1.6051e-25  1.2844e-22  1.6600e-25  1.2876e-22  1.7576e-25  1.2932e-22  1.9313e-25  1.3033e-22  2.2403e-25  1.3211e-22  2.7903e-25  1.3527e-22  3.7697e-25  1.4088e-22  5.5157e-25  1.5081e-22  8.6341e-25  1.6833e-22  1.4222e-24  1.9924e-22  2.4291e-24  2.5401e-22  4.2606e-24  3.5184e-22  7.6431e-24  5.2811e-22  1.4050e-23
      1.90  1.2123e-22  1.6261e-25  1.2124e-22  1.6299e-25  1.2126e-22  1.6366e-25  1.2129e-22  1.6485e-25  1.2134e-22  1.6698e-25  1.2144e-22  1.7076e-25  1.2162e-22  1.7748e-25  1.2193e-22  1.8943e-25  1.2249e-22  2.1070e-25  1.2347e-22  2.4853e-25  1.2523e-22  3.1585e-25  1.2834e-22  4.3575e-25  1.3386e-22  6.4950e-25  1.4363e-22  1.0313e-24  1.6088e-22  1.7155e-24  1.9129e-22  2.9486e-24  2.4516e-22  5.1923e-24  3.4130e-22  9.3387e-24  5.1458e-22  1.7198e-23
      1.95  1.1478e-22  1.7187e-25  1.1479e-22  1.7232e-25  1.1481e-22  1.7312e-25  1.1484e-22  1.7455e-25  1.1490e-22  1.7709e-25  1.1499e-22  1.8161e-25  1.1517e-22  1.8964e-25  1.1548e-22  2.0393e-25  1.1602e-22  2.2934e-25  1.1699e-22  2.7456e-25  1.1872e-22  3.5503e-25  1.2178e-22  4.9833e-25  1.2722e-22  7.5382e-25  1.3683e-22  1.2102e-24  1.5381e-22  2.0281e-24  1.8375e-22  3.5026e-24  2.3676e-22  6.1862e-24  3.3126e-22  1.1149e-23  5.0163e-22  2.0563e-23
      2.00  1.0869e-22  1.8167e-25  1.0870e-22  1.8220e-25  1.0871e-22  1.8314e-25  1.0874e-22  1.8481e-25  1.0880e-22  1.8779e-25  1.0889e-22  1.9308e-25  1.0906e-22  2.0249e-25  1.0937e-22  2.1922e-25  1.0990e-22  2.4899e-25  1.1086e-22  3.0195e-25  1.1256e-22  3.9620e-25  1.1558e-22  5.6404e-25  1.2093e-22  8.6330e-25  1.3039e-22  1.3979e-24  1.4711e-22  2.3561e-24  1.7660e-22  4.0837e-24  2.2879e-22  7.2290e-24  3.2173e-22  1.3048e-23  4.8927e-22  2.4097e-23
      2.05  1.0291e-22  1.9211e-25  1.0292e-22  1.9272e-25  1.0294e-22  1.9380e-25  1.0297e-22  1.9573e-25  1.0302e-22  1.9915e-25  1.0312e-22  2.0525e-25  1.0328e-22  2.1609e-25  1.0358e-22  2.3537e-25  1.0411e-22  2.6965e-25  1.0505e-22  3.3066e-25  1.0673e-22  4.3923e-25  1.0970e-22  6.3259e-25  1.1497e-22  9.7735e-25  1.2429e-22  1.5932e-24  1.4077e-22  2.6972e-24  1.6982e-22  4.6879e-24  2.2124e-22  8.3131e-24  3.1270e-22  1.5023e-23  4.7753e-22  2.7772e-23
      2.10  9.7442e-23  2.0318e-25  9.7452e-23  2.0387e-25  9.7468e-23  2.0510e-25  9.7498e-23  2.0729e-25  9.7550e-23  2.1119e-25  9.7643e-23  2.1812e-25  9.7808e-23  2.3044e-25  9.8102e-23  2.5236e-25  9.8625e-23  2.9134e-25  9.9553e-23  3.6070e-25  1.0120e-22  4.8414e-25  1.0413e-22  7.0399e-25  1.0932e-22  1.0960e-24  1.1851e-22  1.7962e-24  1.3476e-22  3.0515e-24  1.6340e-22  5.3151e-24  2.1409e-22  9.4379e-24  3.0415e-22  1.7072e-23  4.6643e-22  3.1580e-23
      2.15  9.2257e-23  2.1493e-25  9.2266e-23  2.1571e-25  9.2282e-23  2.1710e-25  9.2311e-23  2.1957e-25  9.2363e-23  2.2395e-25  9.2455e-23  2.3175e-25  9.2618e-23  2.4562e-25  9.2907e-23  2.7028e-25  9.3423e-23  3.1416e-25  9.4338e-23  3.9222e-25  9.5965e-23  5.3115e-25  9.8853e-23  7.7856e-25  1.0397e-22  1.2197e-24  1.1304e-22  2.0078e-24  1.2906e-22  3.4205e-24  1.5733e-22  5.9680e-24  2.0733e-22  1.0608e-23  2.9609e-22  1.9199e-23  4.5598e-22  3.5530e-23
      2.20  8.7338e-23  2.2743e-25  8.7347e-23  2.2831e-25  8.7363e-23  2.2985e-25  8.7392e-23  2.3261e-25  8.7443e-23  2.3750e-25  8.7533e-23  2.4621e-25  8.7694e-23  2.6170e-25  8.7980e-23  2.8924e-25  8.8489e-23  3.3824e-25  8.9392e-23  4.2540e-25  9.0998e-23  5.8053e-25  9.3849e-23  8.5681e-25  9.8904e-23  1.3494e-24  1.0785e-22  2.2293e-24  1.2367e-22  3.8066e-24  1.5158e-22  6.6506e-24  2.0094e-22  1.1830e-23  2.8853e-22  2.1418e-23  4.4614e-22  3.9639e-23
      2.25  8.2670e-23  2.4074e-25  8.2679e-23  2.4171e-25  8.2695e-23  2.4343e-25  8.2723e-23  2.4648e-25  8.2774e-23  2.5192e-25  8.2863e-23  2.6158e-25  8.3022e-23  2.7877e-25  8.3304e-23  3.0934e-25  8.3806e-23  3.6371e-25  8.4699e-23  4.6045e-25  8.6285e-23  6.3261e-25  8.9100e-23  9.3921e-25  9.4093e-23  1.4858e-24  1.0293e-22  2.4622e-24  1.1856e-22  4.2123e-24  1.4613e-22  7.3671e-24  1.9490e-22  1.3111e-23  2.8142e-22  2.3739e-23  4.3685e-22  4.3927e-23
      2.30  7.8238e-23  2.5501e-25  7.8247e-23  2.5607e-25  7.8263e-23  2.5797e-25  7.8291e-23  2.6135e-25  7.8340e-23  2.6735e-25  7.8429e-23  2.7802e-25  7.8586e-23  2.9701e-25  7.8865e-23  3.3077e-25  7.9361e-23  3.9082e-25  8.0243e-23  4.9766e-25  8.1809e-23  6.8780e-25  8.4591e-23  1.0264e-24  8.9525e-23  1.6301e-24  9.8263e-23  2.7082e-24  1.1371e-22  4.6404e-24  1.4096e-22  8.1227e-24  1.8916e-22  1.4460e-23  2.7468e-22  2.6179e-23  4.2806e-22  4.8421e-23
      2.35  7.4028e-23  2.7022e-25  7.4037e-23  2.7140e-25  7.4052e-23  2.7348e-25  7.4080e-23  2.7720e-25  7.4129e-23  2.8380e-25  7.4217e-23  2.9555e-25  7.4371e-23  3.1644e-25  7.4647e-23  3.5359e-25  7.5138e-23  4.1968e-25  7.6009e-23  5.3725e-25  7.7558e-23  7.4649e-25  8.0308e-23  1.1191e-24  8.5185e-23  1.7833e-24  9.3824e-23  2.9695e-24  1.0910e-22  5.0949e-24  1.3605e-22  8.9242e-24  1.8370e-22  1.5889e-23  2.6827e-22  2.8760e-23  4.1972e-22  5.3158e-23
      2.40  7.0027e-23  2.8647e-25  7.0035e-23  2.8776e-25  7.0051e-23  2.9005e-25  7.0078e-23  2.9413e-25  7.0127e-23  3.0138e-25  7.0213e-23  3.1427e-25  7.0366e-23  3.3721e-25  7.0639e-23  3.7799e-25  7.1124e-23  4.5054e-25  7.1986e-23  5.7960e-25  7.3517e-23  8.0928e-25  7.6235e-23  1.2183e-24  8.1058e-23  1.9473e-24  8.9601e-23  3.2491e-24  1.0470e-22  5.5811e-24  1.3136e-22  9.7812e-24  1.7849e-22  1.7416e-23  2.6213e-22  3.1511e-23  4.1174e-22  5.8194e-23
      2.45  6.6223e-23  3.0383e-25  6.6231e-23  3.0525e-25  6.6247e-23  3.0776e-25  6.6274e-23  3.1223e-25  6.6322e-23  3.2018e-25  6.6407e-23  3.3431e-25  6.6559e-23  3.5945e-25  6.6828e-23  4.0416e-25  6.7308e-23  4.8368e-25  6.8160e-23  6.2515e-25  6.9674e-23  8.7691e-25  7.2362e-23  1.3252e-24  7.7131e-23  2.1242e-24  8.5580e-23  3.5507e-24  1.0052e-22  6.1056e-24  1.2689e-22  1.0705e-23  1.7350e-22  1.9061e-23  2.5625e-22  3.4471e-23  4.0406e-22  6.3598e-23
      2.50  6.2606e-23  3.2242e-25  6.2614e-23  3.2396e-25  6.2629e-23  3.2672e-25  6.2656e-23  3.3161e-25  6.2703e-23  3.4032e-25  6.2787e-23  3.5580e-25  6.2937e-23  3.8334e-25  6.3204e-23  4.3231e-25  6.3678e-23  5.1942e-25  6.4521e-23  6.7439e-25  6.6018e-23  9.5015e-25  6.8677e-23  1.4411e-24  7.3393e-23  2.3162e-24  8.1750e-23  3.8783e-24  9.6528e-23  6.6753e-24  1.2262e-22  1.1709e-23  1.6872e-22  2.0847e-23  2.5059e-22  3.7679e-23  3.9669e-22  6.9441e-23
      2.55  5.9165e-23  3.4245e-25  5.9173e-23  3.4414e-25  5.9188e-23  3.4716e-25  5.9214e-23  3.5252e-25  5.9261e-23  3.6206e-25  5.9345e-23  3.7901e-25  5.9493e-23  4.0917e-25  5.9757e-23  4.6281e-25  6.0226e-23  5.5821e-25  6.1059e-23  7.2792e-25  6.2539e-23  1.0299e-24  6.5169e-23  1.5676e-24  6.9834e-23  2.5258e-24  7.8099e-23  4.2361e-24  9.2718e-23  7.2976e-24  1.1853e-22  1.2805e-23  1.6413e-22  2.2795e-23  2.4513e-22  4.1178e-23  3.8965e-22  7.5799e-23
      2.60  5.5892e-23  3.6392e-25  5.5900e-23  3.6577e-25  5.5914e-23  3.6907e-25  5.5941e-23  3.7494e-25  5.5987e-23  3.8538e-25  5.6069e-23  4.0395e-25  5.6216e-23  4.3697e-25  5.6477e-23  4.9569e-25  5.6940e-23  6.0013e-25  5.7764e-23  7.8592e-25  5.9229e-23  1.1165e-24  6.1829e-23  1.7051e-24  6.6443e-23  2.7539e-24  7.4618e-23  4.6258e-24  8.9079e-23  7.9756e-24  1.1462e-22  1.3999e-23  1.5972e-22  2.4918e-23  2.3986e-22  4.4985e-23  3.8287e-22  8.2707e-23
      2.65  5.2777e-23  3.8694e-25  5.2785e-23  3.8897e-25  5.2800e-23  3.9258e-25  5.2825e-23  3.9900e-25  5.2871e-23  4.1042e-25  5.2953e-23  4.3073e-25  5.3098e-23  4.6685e-25  5.3356e-23  5.3108e-25  5.3814e-23  6.4532e-25  5.4629e-23  8.4855e-25  5.6077e-23  1.2102e-24  5.8649e-23  1.8540e-24  6.3213e-23  3.0010e-24  7.1299e-23  5.0479e-24  8.5605e-23  8.7102e-24  1.1087e-22  1.5292e-23  1.5549e-22  2.7216e-23  2.3479e-22  4.9105e-23  3.7631e-22  9.0175e-23
      2.70  4.9814e-23  4.1166e-25  4.9822e-23  4.1387e-25  4.9836e-23  4.1782e-25  4.9861e-23  4.2483e-25  4.9907e-23  4.3730e-25  4.9988e-23  4.5948e-25  5.0131e-23  4.9893e-25  5.0386e-23  5.6908e-25  5.0839e-23  6.9385e-25  5.1645e-23  9.1581e-25  5.3078e-23  1.3107e-24  5.5621e-23  2.0138e-24  6.0135e-23  3.2664e-24  6.8134e-23  5.5013e-24  8.2287e-23  9.4990e-24  1.0729e-22  1.6682e-23  1.5143e-22  2.9684e-23  2.2989e-22  5.3526e-23  3.6996e-22  9.8179e-23
      2.75  4.6994e-23  4.3821e-25  4.7002e-23  4.4063e-25  4.7016e-23  4.4492e-25  4.7041e-23  4.5256e-25  4.7086e-23  4.6615e-25  4.7166e-23  4.9032e-25  4.7308e-23  5.3330e-25  4.7560e-23  6.0973e-25  4.8009e-23  7.4567e-25  4.8806e-23  9.8750e-25  5.0222e-23  1.4178e-24  5.2738e-23  2.1837e-24  5.7203e-23  3.5483e-24  6.5115e-23  5.9827e-24  7.9117e-23  1.0336e-23  1.0385e-22  1.8155e-23  1.4753e-22  3.2301e-23  2.2515e-22  5.8213e-23  3.6381e-22  1.0666e-22
      2.80  4.4312e-23  4.6696e-25  4.4319e-23  4.6958e-25  4.4334e-23  4.7425e-25  4.4358e-23  4.8255e-25  4.4403e-23  4.9731e-25  4.4482e-23  5.2355e-25  4.4622e-23  5.7023e-25  4.4872e-23  6.5323e-25  4.5315e-23  8.0087e-25  4.6103e-23  1.0635e-24  4.7504e-23  1.5308e-24  4.9993e-23  2.3625e-24  5.4408e-23  3.8443e-24  6.2235e-23  6.4874e-24  7.6087e-23  1.1214e-23  1.0056e-22  1.9699e-23  1.4378e-22  3.5041e-23  2.2057e-22  6.3117e-23  3.5785e-22  1.1552e-22
      2.85  4.1760e-23  4.9789e-25  4.1768e-23  5.0073e-25  4.1782e-23  5.0578e-25  4.1807e-23  5.1475e-25  4.1850e-23  5.3072e-25  4.1928e-23  5.5911e-25  4.2067e-23  6.0960e-25  4.2314e-23  6.9939e-25  4.2752e-23  8.5908e-25  4.3532e-23  1.1432e-24  4.4917e-23  1.6486e-24  4.7378e-23  2.5483e-24  5.1745e-23  4.1509e-24  5.9486e-23  7.0094e-24  7.3187e-23  1.2120e-23  9.7399e-23  2.1292e-23  1.4016e-22  3.7869e-23  2.1612e-22  6.8177e-23  3.5201e-22  1.2466e-22
      2.90  3.9334e-23  5.3121e-25  3.9342e-23  5.3427e-25  3.9355e-23  5.3971e-25  3.9380e-23  5.4937e-25  3.9423e-23  5.6657e-25  3.9500e-23  5.9714e-25  3.9637e-23  6.5150e-25  3.9881e-23  7.4819e-25  4.0315e-23  9.2016e-25  4.1085e-23  1.2261e-24  4.2455e-23  1.7703e-24  4.4888e-23  2.7391e-24  4.9205e-23  4.4647e-24  5.6860e-23  7.5423e-24  7.0408e-23  1.3044e-23  9.4354e-23  2.2915e-23  1.3666e-22  4.0748e-23  2.1176e-22  7.3327e-23  3.4628e-22  1.3396e-22
      2.95  3.7027e-23  5.6717e-25  3.7035e-23  5.7045e-25  3.7048e-23  5.7627e-25  3.7073e-23  5.8663e-25  3.7115e-23  6.0506e-25  3.7192e-23  6.3782e-25  3.7327e-23  6.9608e-25  3.7568e-23  7.9969e-25  3.7997e-23  9.8398e-25  3.8758e-23  1.3118e-24  4.0112e-23  1.8950e-24  4.2516e-23  2.9331e-24  4.6783e-23  4.7822e-24  5.4348e-23  8.0798e-24  6.7741e-23  1.3974e-23  9.1413e-23  2.4548e-23  1.3324e-22  4.3642e-23  2.0748e-22  7.8502e-23  3.4059e-22  1.4331e-22
      3.00  3.4835e-23  6.0605e-25  3.4843e-23  6.0955e-25  3.4856e-23  6.1576e-25  3.4880e-23  6.2680e-25  3.4922e-23  6.4645e-25  3.4998e-23  6.8138e-25  3.5132e-23  7.4350e-25  3.5370e-23  8.5397e-25  3.5793e-23  1.0505e-24  3.6545e-23  1.4000e-24  3.7882e-23  2.0218e-24  4.0256e-23  3.1287e-24  4.4471e-23  5.1001e-24  5.1944e-23  8.6158e-24  6.5175e-23  1.4899e-23  8.8563e-23  2.6169e-23  1.2989e-22  4.6515e-23  2.0324e-22  8.3641e-23  3.3488e-22  1.5259e-22
      3.05  3.2753e-23  6.4851e-25  3.2761e-23  6.5221e-25  3.2774e-23  6.5880e-25  3.2797e-23  6.7052e-25  3.2839e-23  6.9135e-25  3.2913e-23  7.2840e-25  3.3046e-23  7.9429e-25  3.3280e-23  9.1148e-25  3.3698e-23  1.1199e-24  3.4441e-23  1.4906e-24  3.5760e-23  2.1502e-24  3.8104e-23  3.3243e-24  4.2264e-23  5.4153e-24  4.9640e-23  9.1442e-24  6.2701e-23  1.5808e-23  8.5792e-23  2.7760e-23  1.2660e-22  4.9333e-23  1.9901e-22  8.8681e-23  3.2910e-22  1.6170e-22
      3.10  3.0776e-23  6.9427e-25  3.0784e-23  6.9818e-25  3.0797e-23  7.0514e-25  3.0820e-23  7.1750e-25  3.0861e-23  7.3948e-25  3.0934e-23  7.7858e-25  3.1065e-23  8.4810e-25  3.1296e-23  9.7174e-25  3.1708e-23  1.1917e-24  3.2440e-23  1.5828e-24  3.3741e-23  2.2788e-24  3.6053e-23  3.5175e-24  4.0155e-23  5.7238e-24  4.7430e-23  9.6583e-24  6.0312e-23  1.6689e-23  8.3089e-23  2.9299e-23  1.2335e-22  5.2057e-23  1.9478e-22  9.3556e-23  3.2322e-22  1.7052e-22
      3.15  2.8901e-23  7.4422e-25  2.8908e-23  7.4833e-25  2.8921e-23  7.5562e-25  2.8944e-23  7.6859e-25  2.8984e-23  7.9166e-25  2.9056e-23  8.3269e-25  2.9185e-23  9.0564e-25  2.9413e-23  1.0354e-24  2.9819e-23  1.2662e-24  3.0540e-23  1.6766e-24  3.1822e-23  2.4070e-24  3.4099e-23  3.7069e-24  3.8141e-23  6.0222e-24  4.5309e-23  1.0151e-23  5.8002e-23  1.7529e-23  8.0448e-23  3.0763e-23  1.2013e-22  5.4646e-23  1.9052e-22  9.8193e-23  3.1722e-22  1.7893e-22
      3.20  2.7122e-23  7.9861e-25  2.7129e-23  8.0289e-25  2.7141e-23  8.1050e-25  2.7164e-23  8.2404e-25  2.7204e-23  8.4811e-25  2.7275e-23  8.9091e-25  2.7401e-23  9.6703e-25  2.7626e-23  1.1024e-24  2.8025e-23  1.3432e-24  2.8735e-23  1.7715e-24  2.9997e-23  2.5335e-24  3.2238e-23  3.8898e-24  3.6216e-23  6.3056e-24  4.3272e-23  1.0614e-23  5.5766e-23  1.8313e-23  7.7864e-23  3.2124e-23  1.1693e-22  5.7050e-23  1.8624e-22  1.0250e-22  3.1109e-22  1.8677e-22
      3.25  2.5436e-23  8.5766e-25  2.5443e-23  8.6210e-25  2.5455e-23  8.6999e-25  2.5477e-23  8.8403e-25  2.5516e-23  9.0899e-25  2.5586e-23  9.5337e-25  2.5710e-23  1.0323e-24  2.5931e-23  1.1727e-24  2.6324e-23  1.4224e-24  2.7022e-23  1.8665e-24  2.8262e-23  2.6567e-24  3.0466e-23  4.0631e-24  3.4378e-23  6.5684e-24  4.1316e-23  1.1036e-23  5.3603e-23  1.9022e-23  7.5336e-23  3.3349e-23  1.1377e-22  5.9212e-23  1.8193e-22  1.0639e-22  3.0484e-22  1.9387e-22
      3.30  2.3839e-23  9.2234e-25  2.3846e-23  9.2691e-25  2.3858e-23  9.3504e-25  2.3879e-23  9.4950e-25  2.3918e-23  9.7520e-25  2.3987e-23  1.0209e-24  2.4109e-23  1.1022e-24  2.4326e-23  1.2468e-24  2.4711e-23  1.5040e-24  2.5397e-23  1.9615e-24  2.6615e-23  2.7755e-24  2.8780e-23  4.2244e-24  3.2623e-23  6.8054e-24  3.9439e-23  1.1409e-23  5.1511e-23  1.9638e-23  7.2866e-23  3.4404e-23  1.1063e-22  6.1071e-23  1.7762e-22  1.0974e-22  2.9850e-22  2.0003e-22
      3.35  2.2327e-23  9.9271e-25  2.2334e-23  9.9739e-25  2.2346e-23  1.0057e-24  2.2367e-23  1.0205e-24  2.2405e-23  1.0468e-24  2.2472e-23  1.0936e-24  2.2592e-23  1.1767e-24  2.2805e-23  1.3246e-24  2.3184e-23  1.5877e-24  2.3857e-23  2.0556e-24  2.5053e-23  2.8882e-24  2.7178e-23  4.3703e-24  3.0950e-23  7.0105e-24  3.7641e-23  1.1720e-23  4.9492e-23  2.0141e-23  7.0459e-23  3.5255e-23  1.0754e-22  6.2563e-23  1.7333e-22  1.1243e-22  2.9211e-22  2.0504e-22
      3.40  2.0898e-23  1.0694e-24  2.0904e-23  1.0742e-24  2.0916e-23  1.0826e-24  2.0937e-23  1.0976e-24  2.0974e-23  1.1243e-24  2.1040e-23  1.1718e-24  2.1158e-23  1.2562e-24  2.1366e-23  1.4064e-24  2.1738e-23  1.6734e-24  2.2398e-23  2.1485e-24  2.3571e-23  2.9939e-24  2.5656e-23  4.4987e-24  2.9357e-23  7.1796e-24  3.5921e-23  1.1963e-23  4.7550e-23  2.0516e-23  6.8126e-23  3.5875e-23  1.0453e-22  6.3641e-23  1.6912e-22  1.1439e-22  2.8579e-22  2.0873e-22
      3.45  1.9546e-23  1.1531e-24  1.9553e-23  1.1579e-24  1.9564e-23  1.1664e-24  1.9585e-23  1.1815e-24  1.9621e-23  1.2084e-24  1.9686e-23  1.2563e-24  1.9801e-23  1.3413e-24  2.0006e-23  1.4927e-24  2.0370e-23  1.7618e-24  2.1017e-23  2.2406e-24  2.2168e-23  3.0925e-24  2.4212e-23  4.6091e-24  2.7841e-23  7.3113e-24  3.4278e-23  1.2133e-23  4.5683e-23  2.0758e-23  6.5866e-23  3.6252e-23  1.0158e-22  6.4280e-23  1.6497e-22  1.1556e-22  2.7954e-22  2.1102e-22
      3.50  1.8270e-23  1.2446e-24  1.8277e-23  1.2494e-24  1.8288e-23  1.2579e-24  1.8308e-23  1.2730e-24  1.8344e-23  1.2999e-24  1.8407e-23  1.3478e-24  1.8520e-23  1.4329e-24  1.8721e-23  1.5843e-24  1.9078e-23  1.8536e-24  1.9712e-23  2.3327e-24  2.0839e-23  3.1851e-24  2.2843e-23  4.7028e-24  2.6400e-23  7.4071e-24  3.2709e-23  1.2233e-23  4.3890e-23  2.0869e-23  6.3678e-23  3.6390e-23  9.8703e-23  6.4489e-23  1.6089e-22  1.1596e-22  2.7335e-22  2.1192e-22
      3.55  1.7066e-23  1.3454e-24  1.7073e-23  1.3501e-24  1.7084e-23  1.3586e-24  1.7103e-23  1.3737e-24  1.7138e-23  1.4004e-24  1.7200e-23  1.4480e-24  1.7311e-23  1.5326e-24  1.7508e-23  1.6832e-24  1.7857e-23  1.9509e-24  1.8479e-23  2.4272e-24  1.9583e-23  3.2747e-24  2.1546e-23  4.7837e-24  2.5031e-23  7.4729e-24  3.1213e-23  1.2273e-23  4.2170e-23  2.0865e-23  6.1566e-23  3.6315e-23  9.5907e-23  6.4309e-23  1.5691e-22  1.1565e-22  2.6728e-22  2.1153e-22
      3.60  1.5919e-23  1.4557e-24  1.5937e-23  1.4606e-24  1.5936e-23  1.4688e-24  1.5967e-23  1.4838e-24  1.6001e-23  1.5103e-24  1.6062e-23  1.5574e-24  1.6170e-23  1.6410e-24  1.6363e-23  1.7899e-24  1.6705e-23  2.0546e-24  1.7314e-23  2.5256e-24  1.8396e-23  3.3638e-24  2.0318e-23  4.8562e-24  2.3732e-23  7.5162e-24  2.9789e-23  1.2265e-23  4.0523e-23  2.0768e-23  5.9531e-23  3.6067e-23  9.3196e-23  6.3810e-23  1.5303e-22  1.1476e-22  2.6136e-22  2.1007e-22
      3.65  1.4861e-23  1.5772e-24  1.4867e-23  1.5818e-24  1.4878e-23  1.5901e-24  1.4896e-23  1.6047e-24  1.4930e-23  1.6308e-24  1.4990e-23  1.6771e-24  1.5096e-23  1.7596e-24  1.5284e-23  1.9062e-24  1.5620e-23  2.1669e-24  1.6216e-23  2.6309e-24  1.7275e-23  3.4565e-24  1.9158e-23  4.9266e-24  2.2501e-23  7.5472e-24  2.8434e-23  1.2227e-23  3.8950e-23  2.0609e-23  5.7576e-23  3.5698e-23  9.0577e-23  6.3087e-23  1.4926e-22  1.1345e-22  2.5560e-22  2.0784e-22
      3.70  1.3854e-23  1.7104e-24  1.3860e-23  1.7149e-24  1.3870e-23  1.7230e-24  1.3888e-23  1.7374e-24  1.3921e-23  1.7630e-24  1.3980e-23  1.8086e-24  1.4084e-23  1.8896e-24  1.4268e-23  2.0336e-24  1.4597e-23  2.2898e-24  1.5181e-23  2.7457e-24  1.6218e-23  3.5570e-24  1.8062e-23  5.0017e-24  2.1337e-23  7.5773e-24  2.7149e-23  1.2178e-23  3.7452e-23  2.0420e-23  5.5704e-23  3.5267e-23  8.8056e-23  6.2241e-23  1.4562e-22  1.1192e-22  2.5002e-22  2.0519e-22
      3.75  1.2906e-23  1.8570e-24  1.2912e-23  1.8615e-24  1.2922e-23  1.8694e-24  1.2940e-23  1.8836e-24  1.2972e-23  1.9087e-24  1.3029e-23  1.9534e-24  1.3131e-23  2.0329e-24  1.3312e-23  2.1743e-24  1.3634e-23  2.4258e-24  1.4206e-23  2.8733e-24  1.5223e-23  3.6697e-24  1.7029e-23  5.0881e-24  2.0238e-23  7.6171e-24  2.5931e-23  1.2135e-23  3.6028e-23  2.0233e-23  5.3917e-23  3.4828e-23  8.5639e-23  6.1368e-23  1.4212e-22  1.1032e-22  2.4467e-22  2.0240e-22
      3.80  1.2015e-23  2.0197e-24  1.2021e-23  2.0241e-24  1.2031e-23  2.0319e-24  1.2049e-23  2.0458e-24  1.2080e-23  2.0705e-24  1.2136e-23  2.1144e-24  1.2236e-23  2.1925e-24  1.2413e-23  2.3314e-24  1.2729e-23  2.5785e-24  1.3289e-23  3.0180e-24  1.4285e-23  3.8003e-24  1.6056e-23  5.1937e-24  1.9200e-23  7.6783e-24  2.4781e-23  1.2118e-23  3.4677e-23  2.0079e-23  5.2217e-23  3.4435e-23  8.3330e-23  6.0565e-23  1.3877e-22  1.0883e-22  2.3953e-22  1.9981e-22
      3.85  1.1179e-23  2.1991e-24  1.1184e-23  2.2035e-24  1.1194e-23  2.2112e-24  1.1212e-23  2.2248e-24  1.1242e-23  2.2491e-24  1.1297e-23  2.2923e-24  1.1395e-23  2.3692e-24  1.1569e-23  2.5058e-24  1.1878e-23  2.7489e-24  1.2428e-23  3.1814e-24  1.3404e-23  3.9513e-24  1.5140e-23  5.3226e-24  1.8223e-23  7.7681e-24  2.3694e-23  1.2139e-23  3.3398e-23  1.9979e-23  5.0599e-23  3.4125e-23  8.1123e-23  5.9901e-23  1.3556e-22  1.0757e-22  2.3465e-22  1.9766e-22
      3.90  1.0394e-23  2.3971e-24  1.0399e-23  2.4014e-24  1.0409e-23  2.4090e-24  1.0426e-23  2.4225e-24  1.0456e-23  2.4464e-24  1.0510e-23  2.4891e-24  1.0606e-23  2.5649e-24  1.0776e-23  2.6998e-24  1.1079e-23  2.9398e-24  1.1618e-23  3.3667e-24  1.2576e-23  4.1266e-24  1.4278e-23  5.4803e-24  1.7301e-23  7.8949e-24  2.2666e-23  1.2211e-23  3.2183e-23  1.9956e-23  4.9056e-23  3.3941e-23  7.9006e-23  5.9447e-23  1.3248e-22  1.0669e-22  2.2993e-22  1.9621e-22
      3.95  9.6572e-24  2.6159e-24  9.6625e-24  2.6201e-24  9.6719e-24  2.6276e-24  9.6886e-24  2.6410e-24  9.7183e-24  2.6648e-24  9.7712e-24  2.7070e-24  9.8652e-24  2.7822e-24  1.0032e-23  2.9159e-24  1.0330e-23  3.1538e-24  1.0858e-23  3.5770e-24  1.1797e-23  4.3303e-24  1.3466e-23  5.6723e-24  1.6431e-23  8.0664e-24  2.1693e-23  1.2347e-23  3.1026e-23  2.0032e-23  4.7577e-23  3.3917e-23  7.6963e-23  5.9270e-23  1.2948e-22  1.0631e-22  2.2531e-22  1.9568e-22
