# This was generated using Cloudy10 and the columns are ordered 
# as log10 of the fraction of the metallicity to the solar metallicity
# 'h_*_Z' and 'c_*_Z' stands for cooling and heating respectively 
# at * metalicity
#
# NOTE: This was generated separately from loop_coolingcurve_w_UV.py
#       using Output_metals_w_redshift.py.
#
# Redshift = 4.5
# hden = -10.0
#
#     temp   h_-3.00_Z   c_-3.00_Z   h_-2.75_Z   c_-2.75_Z   h_-2.50_Z   c_-2.50_Z   h_-2.25_Z   c_-2.25_Z   h_-2.00_Z   c_-2.00_Z   h_-1.75_Z   c_-1.75_Z   h_-1.50_Z   c_-1.50_Z   h_-1.25_Z   c_-1.25_Z   h_-1.00_Z   c_-1.00_Z   h_-0.75_Z   c_-0.75_Z   h_-0.50_Z   c_-0.50_Z   h_-0.25_Z   c_-0.25_Z    h_0.00_Z    c_0.00_Z    h_0.25_Z    c_0.25_Z    h_0.50_Z    c_0.50_Z    h_0.75_Z    c_0.75_Z    h_1.00_Z    c_1.00_Z    h_1.25_Z    c_1.25_Z    h_1.50_Z    c_1.50_Z 
      1.00  6.6185e-21  5.7167e-22  6.6229e-21  5.7167e-22  6.6308e-21  5.7168e-22  6.6447e-21  5.7169e-22  6.6695e-21  5.7171e-22  6.7137e-21  5.7174e-22  6.7922e-21  5.7180e-22  6.9317e-21  5.7191e-22  7.1800e-21  5.7211e-22  7.6215e-21  5.7245e-22  8.4071e-21  5.7307e-22  9.8055e-21  5.7416e-22  1.2298e-20  5.7610e-22  1.6763e-20  5.7956e-22  2.4800e-20  5.8570e-22  3.9410e-20  5.9662e-22  6.6433e-20  6.1604e-22  1.1774e-19  6.5052e-22  2.1903e-19  7.1175e-22
      1.05  6.5725e-21  6.4142e-22  6.5767e-21  6.4142e-22  6.5842e-21  6.4143e-22  6.5975e-21  6.4144e-22  6.6211e-21  6.4146e-22  6.6632e-21  6.4150e-22  6.7379e-21  6.4157e-22  6.8709e-21  6.4169e-22  7.1075e-21  6.4191e-22  7.5283e-21  6.4230e-22  8.2770e-21  6.4299e-22  9.6100e-21  6.4422e-22  1.1987e-20  6.4640e-22  1.6242e-20  6.5028e-22  2.3904e-20  6.5717e-22  3.7837e-20  6.6943e-22  6.3604e-20  6.9123e-22  1.1255e-19  7.2995e-22  2.0926e-19  7.9869e-22
      1.10  6.5293e-21  7.1968e-22  6.5333e-21  7.1968e-22  6.5404e-21  7.1969e-22  6.5531e-21  7.1970e-22  6.5756e-21  7.1973e-22  6.6157e-21  7.1977e-22  6.6869e-21  7.1985e-22  6.8136e-21  7.1999e-22  7.0389e-21  7.2023e-22  7.4399e-21  7.2067e-22  8.1533e-21  7.2144e-22  9.4236e-21  7.2282e-22  1.1689e-20  7.2527e-22  1.5743e-20  7.2962e-22  2.3046e-20  7.3737e-22  3.6328e-20  7.5113e-22  6.0891e-20  7.7560e-22  1.0757e-19  8.1907e-22  1.9985e-19  8.9626e-22
      1.15  6.4888e-21  8.0748e-22  6.4926e-21  8.0749e-22  6.4994e-21  8.0750e-22  6.5114e-21  8.0751e-22  6.5329e-21  8.0754e-22  6.5710e-21  8.0759e-22  6.6389e-21  8.0768e-22  6.7595e-21  8.0783e-22  6.9742e-21  8.0811e-22  7.3561e-21  8.0860e-22  8.0357e-21  8.0946e-22  9.2457e-21  8.1101e-22  1.1404e-20  8.1376e-22  1.5266e-20  8.1865e-22  2.2224e-20  8.2734e-22  3.4883e-20  8.4280e-22  5.8297e-20  8.7026e-22  1.0280e-19  9.1907e-22  1.9081e-19  1.0057e-21
      1.20  6.4507e-21  9.0601e-22  6.4544e-21  9.0601e-22  6.4608e-21  9.0602e-22  6.4723e-21  9.0604e-22  6.4928e-21  9.0607e-22  6.5291e-21  9.0613e-22  6.5937e-21  9.0622e-22  6.7086e-21  9.0640e-22  6.9130e-21  9.0671e-22  7.2768e-21  9.0725e-22  7.9241e-21  9.0823e-22  9.0770e-21  9.0997e-22  1.1133e-20  9.1305e-22  1.4812e-20  9.1854e-22  2.1441e-20  9.2830e-22  3.3501e-20  9.4565e-22  5.5811e-20  9.7649e-22  9.8223e-20  1.0313e-21  1.8214e-19  1.1286e-21
      1.25  6.4151e-21  1.0166e-21  6.4186e-21  1.0166e-21  6.4247e-21  1.0166e-21  6.4356e-21  1.0166e-21  6.4551e-21  1.0166e-21  6.4897e-21  1.0167e-21  6.5512e-21  1.0168e-21  6.6607e-21  1.0170e-21  6.8553e-21  1.0173e-21  7.2017e-21  1.0180e-21  7.8181e-21  1.0190e-21  8.9162e-21  1.0210e-21  1.0875e-20  1.0245e-21  1.4380e-20  1.0306e-21  2.0692e-20  1.0416e-21  3.2180e-20  1.0611e-21  5.3442e-20  1.0957e-21  9.3844e-20  1.1572e-21  1.7384e-19  1.2664e-21
      1.30  6.3817e-21  1.1406e-21  6.3850e-21  1.1406e-21  6.3908e-21  1.1406e-21  6.4013e-21  1.1406e-21  6.4198e-21  1.1407e-21  6.4527e-21  1.1407e-21  6.5113e-21  1.1409e-21  6.6155e-21  1.1411e-21  6.8008e-21  1.1415e-21  7.1306e-21  1.1422e-21  7.7176e-21  1.1434e-21  8.7633e-21  1.1456e-21  1.0629e-20  1.1495e-21  1.3967e-20  1.1564e-21  1.9978e-20  1.1687e-21  3.0918e-20  1.1905e-21  5.1170e-20  1.2294e-21  8.9659e-20  1.2985e-21  1.6589e-19  1.4211e-21
      1.35  6.3504e-21  1.2797e-21  6.3535e-21  1.2798e-21  6.3591e-21  1.2798e-21  6.3690e-21  1.2798e-21  6.3866e-21  1.2798e-21  6.4180e-21  1.2799e-21  6.4738e-21  1.2801e-21  6.5730e-21  1.2803e-21  6.7494e-21  1.2807e-21  7.0634e-21  1.2815e-21  7.6223e-21  1.2829e-21  8.6180e-21  1.2854e-21  1.0395e-20  1.2897e-21  1.3575e-20  1.2975e-21  1.9298e-20  1.3113e-21  2.9716e-20  1.3358e-21  4.9002e-20  1.3795e-21  8.5664e-20  1.4570e-21  1.5827e-19  1.5947e-21
      1.40  6.3210e-21  1.4359e-21  6.3240e-21  1.4359e-21  6.3293e-21  1.4359e-21  6.3388e-21  1.4359e-21  6.3556e-21  1.4360e-21  6.3854e-21  1.4361e-21  6.4385e-21  1.4362e-21  6.5329e-21  1.4365e-21  6.7009e-21  1.4370e-21  6.9998e-21  1.4379e-21  7.5319e-21  1.4394e-21  8.4800e-21  1.4422e-21  1.0172e-20  1.4471e-21  1.3201e-20  1.4558e-21  1.8650e-20  1.4713e-21  2.8570e-20  1.4989e-21  4.6934e-20  1.5478e-21  8.1853e-20  1.6349e-21  1.5099e-19  1.7894e-21
      1.45  6.2936e-21  1.6111e-21  6.2964e-21  1.6111e-21  6.3015e-21  1.6111e-21  6.3104e-21  1.6112e-21  6.3264e-21  1.6112e-21  6.3548e-21  1.6113e-21  6.4054e-21  1.6115e-21  6.4953e-21  1.6118e-21  6.6552e-21  1.6123e-21  6.9398e-21  1.6133e-21  7.4464e-21  1.6151e-21  8.3491e-21  1.6182e-21  9.9603e-21  1.6237e-21  1.2845e-20  1.6334e-21  1.8035e-20  1.6508e-21  2.7478e-20  1.6818e-21  4.4963e-20  1.7367e-21  7.8217e-20  1.8344e-21  1.4404e-19  2.0080e-21
      1.50  6.2678e-21  1.8077e-21  6.2705e-21  1.8077e-21  6.2753e-21  1.8077e-21  6.2839e-21  1.8077e-21  6.2991e-21  1.8078e-21  6.3262e-21  1.8079e-21  6.3743e-21  1.8081e-21  6.4599e-21  1.8084e-21  6.6121e-21  1.8091e-21  6.8830e-21  1.8102e-21  7.3654e-21  1.8121e-21  8.2249e-21  1.8156e-21  9.7591e-21  1.8218e-21  1.2506e-20  1.8328e-21  1.7449e-20  1.8523e-21  2.6438e-20  1.8870e-21  4.3083e-20  1.9487e-21  7.4746e-20  2.0584e-21  1.3741e-19  2.2532e-21
      1.55  6.2437e-21  2.0282e-21  6.2463e-21  2.0282e-21  6.2509e-21  2.0283e-21  6.2590e-21  2.0283e-21  6.2735e-21  2.0284e-21  6.2993e-21  2.0285e-21  6.3451e-21  2.0287e-21  6.4264e-21  2.0291e-21  6.5712e-21  2.0298e-21  6.8294e-21  2.0310e-21  7.2887e-21  2.0332e-21  8.1070e-21  2.0371e-21  9.5678e-21  2.0441e-21  1.2183e-20  2.0564e-21  1.6892e-20  2.0783e-21  2.5450e-20  2.1173e-21  4.1293e-20  2.1866e-21  7.1435e-20  2.3097e-21  1.3110e-19  2.5284e-21
      1.60  6.2212e-21  2.2757e-21  6.2236e-21  2.2757e-21  6.2280e-21  2.2757e-21  6.2357e-21  2.2758e-21  6.2495e-21  2.2759e-21  6.2740e-21  2.2760e-21  6.3177e-21  2.2762e-21  6.3952e-21  2.2767e-21  6.5332e-21  2.2775e-21  6.7788e-21  2.2788e-21  7.2160e-21  2.2813e-21  7.9952e-21  2.2857e-21  9.3863e-21  2.2935e-21  1.1877e-20  2.3073e-21  1.6361e-20  2.3319e-21  2.4511e-20  2.3757e-21  3.9593e-20  2.4534e-21  6.8283e-20  2.5916e-21  1.2508e-19  2.8371e-21
      1.65  6.2000e-21  2.5534e-21  6.2024e-21  2.5534e-21  6.2065e-21  2.5534e-21  6.2139e-21  2.5535e-21  6.2270e-21  2.5535e-21  6.2504e-21  2.5537e-21  6.2919e-21  2.5540e-21  6.3658e-21  2.5545e-21  6.4972e-21  2.5553e-21  6.7310e-21  2.5569e-21  7.1473e-21  2.5597e-21  7.8893e-21  2.5646e-21  9.2139e-21  2.5733e-21  1.1586e-20  2.5888e-21  1.5856e-20  2.6165e-21  2.3618e-20  2.6656e-21  3.7975e-20  2.7528e-21  6.5281e-20  2.9080e-21  1.1935e-19  3.1836e-21
      1.70  6.1803e-21  2.8649e-21  6.1825e-21  2.8649e-21  6.1864e-21  2.8650e-21  6.1935e-21  2.8650e-21  6.2060e-21  2.8651e-21  6.2282e-21  2.8653e-21  6.2678e-21  2.8656e-21  6.3381e-21  2.8662e-21  6.4632e-21  2.8671e-21  6.6859e-21  2.8689e-21  7.0823e-21  2.8720e-21  7.7888e-21  2.8775e-21  9.0503e-21  2.8873e-21  1.1309e-20  2.9047e-21  1.5377e-20  2.9357e-21  2.2770e-20  2.9908e-21  3.6436e-20  3.0888e-21  6.2426e-20  3.2630e-21  1.1388e-19  3.5723e-21
      1.75  6.1618e-21  3.2145e-21  6.1639e-21  3.2145e-21  6.1677e-21  3.2145e-21  6.1743e-21  3.2146e-21  6.1863e-21  3.2147e-21  6.2074e-21  3.2149e-21  6.2451e-21  3.2152e-21  6.3121e-21  3.2159e-21  6.4312e-21  3.2170e-21  6.6432e-21  3.2189e-21  7.0208e-21  3.2224e-21  7.6936e-21  3.2286e-21  8.8950e-21  3.2396e-21  1.1046e-20  3.2592e-21  1.4921e-20  3.2940e-21  2.1963e-20  3.3558e-21  3.4973e-20  3.4658e-21  5.9710e-20  3.6613e-21  1.0868e-19  4.0085e-21
      1.80  6.1445e-21  3.6067e-21  6.1465e-21  3.6067e-21  6.1501e-21  3.6068e-21  6.1564e-21  3.6068e-21  6.1678e-21  3.6069e-21  6.1879e-21  3.6072e-21  6.2238e-21  3.6076e-21  6.2876e-21  3.6083e-21  6.4011e-21  3.6095e-21  6.6030e-21  3.6117e-21  6.9625e-21  3.6156e-21  7.6034e-21  3.6225e-21  8.7475e-21  3.6349e-21  1.0797e-20  3.6569e-21  1.4487e-20  3.6959e-21  2.1195e-20  3.7653e-21  3.3585e-20  3.8888e-21  5.7127e-20  4.1082e-21  1.0373e-19  4.4980e-21
      1.85  6.1283e-21  4.0468e-21  6.1302e-21  4.0468e-21  6.1336e-21  4.0468e-21  6.1397e-21  4.0469e-21  6.1505e-21  4.0470e-21  6.1697e-21  4.0473e-21  6.2038e-21  4.0477e-21  6.2646e-21  4.0485e-21  6.3727e-21  4.0499e-21  6.5650e-21  4.0524e-21  6.9067e-21  4.0567e-21  7.5178e-21  4.0645e-21  8.6076e-21  4.0784e-21  1.0560e-20  4.1031e-21  1.4075e-20  4.1469e-21  2.0464e-20  4.2248e-21  3.2267e-20  4.3634e-21  5.4673e-20  4.6097e-21  9.9017e-20  5.0472e-21
      1.90  6.1131e-21  4.5405e-21  6.1150e-21  4.5406e-21  6.1182e-21  4.5406e-21  6.1240e-21  4.5407e-21  6.1343e-21  4.5409e-21  6.1526e-21  4.5411e-21  6.1851e-21  4.5416e-21  6.2430e-21  4.5425e-21  6.3459e-21  4.5441e-21  6.5291e-21  4.5468e-21  6.8553e-21  4.5517e-21  7.4367e-21  4.5605e-21  8.4748e-21  4.5761e-21  1.0334e-20  4.6037e-21  1.3683e-20  4.6529e-21  1.9770e-20  4.7404e-21  3.1013e-20  4.8959e-21  5.2342e-20  5.1723e-21  9.4539e-20  5.6635e-21
      1.95  6.0990e-21  5.0945e-21  6.1007e-21  5.0946e-21  6.1038e-21  5.0946e-21  6.1093e-21  5.0947e-21  6.1191e-21  5.0949e-21  6.1365e-21  5.0952e-21  6.1675e-21  5.0958e-21  6.2227e-21  5.0967e-21  6.3207e-21  5.0985e-21  6.4952e-21  5.1016e-21  6.8060e-21  5.1071e-21  7.3599e-21  5.1169e-21  8.3488e-21  5.1344e-21  1.0120e-20  5.1655e-21  1.3310e-20  5.2207e-21  1.9109e-20  5.3189e-21  2.9820e-20  5.4934e-21  5.0127e-20  5.8037e-21  9.0281e-20  6.3550e-21
      2.00  6.0857e-21  5.7162e-21  6.0874e-21  5.7162e-21  6.0903e-21  5.7163e-21  6.0956e-21  5.7164e-21  6.1049e-21  5.7166e-21  6.1215e-21  5.7169e-21  6.1510e-21  5.7175e-21  6.2036e-21  5.7186e-21  6.2970e-21  5.7206e-21  6.4632e-21  5.7241e-21  6.7593e-21  5.7303e-21  7.2869e-21  5.7413e-21  8.2291e-21  5.7609e-21  9.9166e-21  5.7958e-21  1.2956e-20  5.8577e-21  1.8481e-20  5.9679e-21  2.8685e-20  6.1639e-21  4.8024e-20  6.5121e-21  8.6233e-20  7.1309e-21
      2.05  6.0733e-21  6.4136e-21  6.0749e-21  6.4137e-21  6.0777e-21  6.4137e-21  6.0827e-21  6.4139e-21  6.0916e-21  6.4141e-21  6.1074e-21  6.4145e-21  6.1356e-21  6.4152e-21  6.1856e-21  6.4164e-21  6.2746e-21  6.4186e-21  6.4330e-21  6.4225e-21  6.7151e-21  6.4295e-21  7.2178e-21  6.4418e-21  8.1154e-21  6.4638e-21  9.7231e-21  6.5030e-21  1.2619e-20  6.5725e-21  1.7882e-20  6.6962e-21  2.7604e-20  6.9161e-21  4.6025e-20  7.3070e-21  8.2385e-20  8.0015e-21
      2.10  6.0618e-21  7.1962e-21  6.0633e-21  7.1962e-21  6.0659e-21  7.1963e-21  6.0707e-21  7.1964e-21  6.0792e-21  7.1967e-21  6.0943e-21  7.1971e-21  6.1211e-21  7.1979e-21  6.1687e-21  7.1993e-21  6.2535e-21  7.2018e-21  6.4044e-21  7.2062e-21  6.6732e-21  7.2140e-21  7.1521e-21  7.2279e-21  8.0073e-21  7.2526e-21  9.5391e-21  7.2965e-21  1.2298e-20  7.3745e-21  1.7313e-20  7.5134e-21  2.6575e-20  7.7602e-21  4.4124e-20  8.1989e-21  7.8726e-20  8.9784e-21
      2.15  6.0509e-21  8.0742e-21  6.0524e-21  8.0743e-21  6.0549e-21  8.0744e-21  6.0595e-21  8.0745e-21  6.0675e-21  8.0748e-21  6.0819e-21  8.0753e-21  6.1074e-21  8.0762e-21  6.1529e-21  8.0777e-21  6.2337e-21  8.0805e-21  6.3774e-21  8.0854e-21  6.6335e-21  8.0942e-21  7.0898e-21  8.1098e-21  7.9046e-21  8.1375e-21  9.3641e-21  8.1868e-21  1.1993e-20  8.2744e-21  1.6771e-20  8.4302e-21  2.5595e-20  8.7072e-21  4.2313e-20  9.1996e-21  7.5251e-20  1.0075e-20
      2.20  6.0408e-21  9.0594e-21  6.0422e-21  9.0595e-21  6.0446e-21  9.0596e-21  6.0490e-21  9.0598e-21  6.0566e-21  9.0601e-21  6.0703e-21  9.0606e-21  6.0947e-21  9.0616e-21  6.1379e-21  9.0633e-21  6.2149e-21  9.0665e-21  6.3516e-21  9.0720e-21  6.5959e-21  9.0818e-21  7.0306e-21  9.0993e-21  7.8070e-21  9.1304e-21  9.1975e-21  9.1857e-21  1.1702e-20  9.2841e-21  1.6254e-20  9.4590e-21  2.4662e-20  9.7699e-21  4.0589e-20  1.0322e-20  7.1952e-20  1.1305e-20
      2.25  6.0314e-21  1.0165e-20  6.0327e-21  1.0165e-20  6.0350e-21  1.0165e-20  6.0391e-21  1.0165e-20  6.0464e-21  1.0166e-20  6.0595e-21  1.0166e-20  6.0827e-21  1.0167e-20  6.1239e-21  1.0169e-20  6.1972e-21  1.0173e-20  6.3278e-21  1.0179e-20  6.5602e-21  1.0190e-20  6.9744e-21  1.0210e-20  7.7141e-21  1.0245e-20  9.0390e-21  1.0307e-20  1.1425e-20  1.0417e-20  1.5763e-20  1.0613e-20  2.3773e-20  1.0962e-20  3.8946e-20  1.1582e-20  6.8814e-20  1.2685e-20
      2.30  6.0225e-21  1.1405e-20  6.0238e-21  1.1405e-20  6.0260e-21  1.1405e-20  6.0299e-21  1.1406e-20  6.0369e-21  1.1406e-20  6.0493e-21  1.1407e-20  6.0714e-21  1.1408e-20  6.1107e-21  1.1410e-20  6.1806e-21  1.1414e-20  6.3049e-21  1.1421e-20  6.5263e-21  1.1433e-20  6.9210e-21  1.1455e-20  7.6257e-21  1.1495e-20  8.8879e-21  1.1564e-20  1.1161e-20  1.1688e-20  1.5293e-20  1.1908e-20  2.2925e-20  1.2300e-20  3.7379e-20  1.2996e-20  6.5825e-20  1.4233e-20
      2.35  6.0143e-21  1.2797e-20  6.0155e-21  1.2797e-20  6.0176e-21  1.2797e-20  6.0213e-21  1.2797e-20  6.0280e-21  1.2798e-20  6.0398e-21  1.2798e-20  6.0608e-21  1.2800e-20  6.0983e-21  1.2802e-20  6.1648e-21  1.2807e-20  6.2833e-21  1.2814e-20  6.4942e-21  1.2828e-20  6.8702e-21  1.2853e-20  7.5415e-21  1.2897e-20  8.7439e-21  1.2975e-20  1.0909e-20  1.3114e-20  1.4846e-20  1.3362e-20  2.2116e-20  1.3801e-20  3.5886e-20  1.4582e-20  6.2980e-20  1.5971e-20
      2.40  6.0066e-21  1.4358e-20  6.0077e-21  1.4358e-20  6.0097e-21  1.4358e-20  6.0133e-21  1.4359e-20  6.0196e-21  1.4359e-20  6.0309e-21  1.4360e-20  6.0509e-21  1.4362e-20  6.0866e-21  1.4364e-20  6.1500e-21  1.4369e-20  6.2628e-21  1.4378e-20  6.4637e-21  1.4394e-20  6.8219e-21  1.4421e-20  7.4613e-21  1.4471e-20  8.6066e-21  1.4559e-20  1.0669e-20  1.4715e-20  1.4419e-20  1.4992e-20  2.1344e-20  1.5485e-20  3.4461e-20  1.6362e-20  6.0267e-20  1.7921e-20
      2.45  5.9994e-21  1.6110e-20  6.0005e-21  1.6110e-20  6.0024e-21  1.6110e-20  6.0058e-21  1.6111e-20  6.0118e-21  1.6111e-20  6.0225e-21  1.6112e-20  6.0416e-21  1.6114e-20  6.0756e-21  1.6117e-20  6.1359e-21  1.6123e-20  6.2434e-21  1.6132e-20  6.4348e-21  1.6150e-20  6.7758e-21  1.6181e-20  7.3849e-21  1.6236e-20  8.4757e-21  1.6335e-20  1.0440e-20  1.6510e-20  1.4012e-20  1.6822e-20  2.0608e-20  1.7375e-20  3.3101e-20  1.8359e-20  5.7679e-20  2.0108e-20
      2.50  5.9927e-21  1.8076e-20  5.9937e-21  1.8076e-20  5.9955e-21  1.8076e-20  5.9987e-21  1.8076e-20  6.0045e-21  1.8077e-20  6.0147e-21  1.8078e-20  6.0329e-21  1.8080e-20  6.0652e-21  1.8084e-20  6.1227e-21  1.8090e-20  6.2250e-21  1.8101e-20  6.4073e-21  1.8121e-20  6.7320e-21  1.8155e-20  7.3120e-21  1.8218e-20  8.3508e-21  1.8328e-20  1.0222e-20  1.8525e-20  1.3623e-20  1.8874e-20  1.9904e-20  1.9496e-20  3.1802e-20  2.0600e-20  5.5209e-20  2.2563e-20
      2.55  5.9864e-21  2.0281e-20  5.9874e-21  2.0281e-20  5.9891e-21  2.0282e-20  5.9922e-21  2.0282e-20  5.9976e-21  2.0283e-20  6.0074e-21  2.0284e-20  6.0247e-21  2.0286e-20  6.0554e-21  2.0290e-20  6.1102e-21  2.0297e-20  6.2076e-21  2.0310e-20  6.3811e-21  2.0332e-20  6.6903e-21  2.0371e-20  7.2425e-21  2.0441e-20  8.2315e-21  2.0565e-20  1.0013e-20  2.0785e-20  1.3251e-20  2.1177e-20  1.9232e-20  2.1875e-20  3.0562e-20  2.3114e-20  5.2852e-20  2.5318e-20
      2.60  5.9805e-21  2.2756e-20  5.9814e-21  2.2756e-20  5.9831e-21  2.2756e-20  5.9860e-21  2.2757e-20  5.9912e-21  2.2758e-20  6.0005e-21  2.2759e-20  6.0170e-21  2.2761e-20  6.0463e-21  2.2766e-20  6.0984e-21  2.2774e-20  6.1911e-21  2.2788e-20  6.3562e-21  2.2812e-20  6.6506e-21  2.2856e-20  7.1761e-21  2.2935e-20  8.1176e-21  2.3074e-20  9.8131e-21  2.3321e-20  1.2896e-20  2.3762e-20  1.8590e-20  2.4544e-20  2.9376e-20  2.5936e-20  5.0600e-20  2.8408e-20
      2.65  5.9751e-21  2.5533e-20  5.9759e-21  2.5533e-20  5.9775e-21  2.5533e-20  5.9803e-21  2.5534e-20  5.9852e-21  2.5534e-20  5.9941e-21  2.5536e-20  6.0097e-21  2.5539e-20  6.0376e-21  2.5544e-20  6.0872e-21  2.5552e-20  6.1754e-21  2.5568e-20  6.3326e-21  2.5596e-20  6.6127e-21  2.5645e-20  7.1128e-21  2.5733e-20  8.0087e-21  2.5889e-20  9.6224e-21  2.6167e-20  1.2553e-20  2.6661e-20  1.7976e-20  2.7540e-20  2.8244e-20  2.9101e-20  4.8449e-20  3.1876e-20
      2.70  5.9699e-21  2.8648e-20  5.9708e-21  2.8648e-20  5.9723e-21  2.8649e-20  5.9749e-21  2.8649e-20  5.9796e-21  2.8650e-20  5.9880e-21  2.8652e-20  6.0029e-21  2.8655e-20  6.0294e-21  2.8660e-20  6.0766e-21  2.8670e-20  6.1606e-21  2.8688e-20  6.3101e-21  2.8719e-20  6.5766e-21  2.8775e-20  7.0524e-21  2.8873e-20  7.9047e-21  2.9048e-20  9.4400e-21  2.9360e-20  1.2232e-20  2.9915e-20  1.7389e-20  3.0900e-20  2.7161e-20  3.2653e-20  4.6393e-20  3.5767e-20
      2.75  5.9652e-21  3.2144e-20  5.9660e-21  3.2144e-20  5.9674e-21  3.2144e-20  5.9699e-21  3.2145e-20  5.9744e-21  3.2146e-20  5.9824e-21  3.2148e-20  5.9965e-21  3.2151e-20  6.0218e-21  3.2158e-20  6.0666e-21  3.2169e-20  6.1465e-21  3.2188e-20  6.2887e-21  3.2223e-20  6.5421e-21  3.2286e-20  6.9947e-21  3.2396e-20  7.8054e-21  3.2593e-20  9.2657e-21  3.2943e-20  1.1921e-20  3.3565e-20  1.6823e-20  3.4671e-20  2.6125e-20  3.6638e-20  4.4428e-20  4.0134e-20
      2.80  5.9607e-21  3.6066e-20  5.9615e-21  3.6066e-20  5.9628e-21  3.6066e-20  5.9652e-21  3.6067e-20  5.9695e-21  3.6068e-20  5.9771e-21  3.6070e-20  5.9906e-21  3.6074e-20  6.0145e-21  3.6081e-20  6.0572e-21  3.6094e-20  6.1331e-21  3.6116e-20  6.2683e-21  3.6155e-20  6.5093e-21  3.6225e-20  6.9396e-21  3.6349e-20  7.7104e-21  3.6570e-20  9.0989e-21  3.6963e-20  1.1622e-20  3.7661e-20  1.6290e-20  3.8903e-20  2.5134e-20  4.1110e-20  4.2548e-20  4.5033e-20
      2.85  5.9566e-21  4.0466e-20  5.9573e-21  4.0467e-20  5.9586e-21  4.0467e-20  5.9609e-21  4.0468e-20  5.9649e-21  4.0469e-20  5.9721e-21  4.0472e-20  5.9849e-21  4.0476e-20  6.0077e-21  4.0484e-20  6.0483e-21  4.0498e-20  6.1204e-21  4.0523e-20  6.2489e-21  4.0567e-20  6.4780e-21  4.0645e-20  6.8869e-21  4.0784e-20  7.6196e-21  4.1032e-20  8.9395e-21  4.1473e-20  1.1340e-20  4.2257e-20  1.5776e-20  4.3650e-20  2.4186e-20  4.6127e-20  4.0750e-20  5.0530e-20
      2.90  5.9527e-21  4.5404e-20  5.9534e-21  4.5404e-20  5.9546e-21  4.5405e-20  5.9568e-21  4.5406e-20  5.9606e-21  4.5407e-20  5.9675e-21  4.5410e-20  5.9796e-21  4.5415e-20  6.0013e-21  4.5424e-20  6.0398e-21  4.5439e-20  6.1084e-21  4.5467e-20  6.2305e-21  4.5517e-20  6.4481e-21  4.5605e-20  6.8367e-21  4.5761e-20  7.5329e-21  4.6039e-20  8.7871e-21  4.6534e-20  1.1068e-20  4.7413e-20  1.5285e-20  4.8977e-20  2.3280e-20  5.1757e-20  3.9031e-20  5.6698e-20
      2.95  5.9491e-21  5.0944e-20  5.9497e-21  5.0944e-20  5.9509e-21  5.0945e-20  5.9530e-21  5.0946e-20  5.9566e-21  5.0948e-20  5.9631e-21  5.0951e-20  5.9747e-21  5.0956e-20  5.9952e-21  5.0966e-20  6.0318e-21  5.0984e-20  6.0970e-21  5.1015e-20  6.2129e-21  5.1070e-20  6.4196e-21  5.1169e-20  6.7887e-21  5.1345e-20  7.4500e-21  5.1657e-20  8.6414e-21  5.2212e-20  1.0809e-20  5.3199e-20  1.4815e-20  5.4954e-20  2.2413e-20  5.8074e-20  3.7387e-20  6.3619e-20
      3.00  5.9457e-21  5.7160e-20  5.9463e-21  5.7160e-20  5.9474e-21  5.7161e-20  5.9494e-21  5.7162e-20  5.9529e-21  5.7164e-20  5.9590e-21  5.7168e-20  5.9700e-21  5.7174e-20  5.9895e-21  5.7185e-20  6.0243e-21  5.7205e-20  6.0861e-21  5.7240e-20  6.1962e-21  5.7302e-20  6.3925e-21  5.7413e-20  6.7430e-21  5.7610e-20  7.3709e-21  5.7960e-20  8.5022e-21  5.8583e-20  1.0560e-20  5.9691e-20  1.4365e-20  6.1660e-20  2.1584e-20  6.5161e-20  3.5815e-20  7.1385e-20
      3.05  5.9426e-21  6.4135e-20  5.9432e-21  6.4135e-20  5.9442e-21  6.4136e-20  5.9461e-21  6.4137e-20  5.9494e-21  6.4139e-20  5.9552e-21  6.4143e-20  5.9656e-21  6.4150e-20  5.9842e-21  6.4163e-20  6.0172e-21  6.4185e-20  6.0758e-21  6.4224e-20  6.1804e-21  6.4294e-20  6.3666e-21  6.4418e-20  6.6993e-21  6.4639e-20  7.2954e-21  6.5032e-20  8.3693e-21  6.5731e-20  1.0323e-20  6.6975e-20  1.3936e-20  6.9185e-20  2.0791e-20  7.3114e-20  3.4308e-20  8.0098e-20
      3.10  5.9397e-21  7.1960e-20  5.9402e-21  7.1961e-20  5.9412e-21  7.1961e-20  5.9430e-21  7.1963e-20  5.9461e-21  7.1965e-20  5.9516e-21  7.1970e-20  5.9615e-21  7.1978e-20  5.9791e-21  7.1992e-20  6.0104e-21  7.2016e-20  6.0661e-21  7.2060e-20  6.1653e-21  7.2139e-20  6.3420e-21  7.2278e-20  6.6577e-21  7.2527e-20  7.2233e-21  7.2968e-20  8.2423e-21  7.3752e-20  1.0097e-20  7.5147e-20  1.3526e-20  7.7628e-20  2.0034e-20  8.2037e-20  3.2875e-20  8.9875e-20
      3.15  5.9369e-21  8.0741e-20  5.9375e-21  8.0741e-20  5.9384e-21  8.0742e-20  5.9401e-21  8.0744e-20  5.9430e-21  8.0746e-20  5.9483e-21  8.0751e-20  5.9577e-21  8.0760e-20  5.9744e-21  8.0776e-20  6.0040e-21  8.0804e-20  6.0569e-21  8.0853e-20  6.1509e-21  8.0941e-20  6.3186e-21  8.1098e-20  6.6180e-21  8.1376e-20  7.1545e-21  8.1871e-20  8.1212e-21  8.2752e-20  9.8803e-21  8.4317e-20  1.3134e-20  8.7101e-20  1.9311e-20  9.2049e-20  3.1502e-20  1.0085e-19
      3.20  5.9344e-21  9.0592e-20  5.9349e-21  9.0593e-20  5.9358e-21  9.0594e-20  5.9374e-21  9.0596e-20  5.9402e-21  9.0599e-20  5.9452e-21  9.0604e-20  5.9541e-21  9.0614e-20  5.9699e-21  9.0632e-20  5.9980e-21  9.0663e-20  6.0481e-21  9.0719e-20  6.1373e-21  9.0818e-20  6.2963e-21  9.0993e-20  6.5802e-21  9.1306e-20  7.0889e-21  9.1861e-20  8.0056e-21  9.2849e-20  9.6739e-21  9.4606e-20  1.2760e-20  9.7730e-20  1.8620e-20  1.0328e-19  3.0191e-20  1.1316e-19
      3.25  5.9320e-21  1.0165e-19  5.9325e-21  1.0165e-19  5.9333e-21  1.0165e-19  5.9348e-21  1.0165e-19  5.9375e-21  1.0165e-19  5.9422e-21  1.0166e-19  5.9507e-21  1.0167e-19  5.9657e-21  1.0169e-19  5.9923e-21  1.0173e-19  6.0398e-21  1.0179e-19  6.1244e-21  1.0190e-19  6.2751e-21  1.0210e-19  6.5442e-21  1.0245e-19  7.0265e-21  1.0307e-19  7.8955e-21  1.0418e-19  9.4771e-21  1.0615e-19  1.2403e-20  1.0966e-19  1.7961e-20  1.1589e-19  2.8939e-20  1.2697e-19
      3.30  5.9298e-21  1.1405e-19  5.9303e-21  1.1405e-19  5.9311e-21  1.1405e-19  5.9325e-21  1.1405e-19  5.9350e-21  1.1406e-19  5.9395e-21  1.1406e-19  5.9475e-21  1.1408e-19  5.9617e-21  1.1410e-19  5.9870e-21  1.1414e-19  6.0320e-21  1.1421e-19  6.1121e-21  1.1433e-19  6.2549e-21  1.1455e-19  6.5100e-21  1.1495e-19  6.9670e-21  1.1565e-19  7.7906e-21  1.1689e-19  9.2897e-21  1.1910e-19  1.2063e-20  1.2304e-19  1.7332e-20  1.3003e-19  2.7744e-20  1.4246e-19
      3.35  5.9278e-21  1.2797e-19  5.9282e-21  1.2797e-19  5.9289e-21  1.2797e-19  5.9303e-21  1.2797e-19  5.9327e-21  1.2797e-19  5.9369e-21  1.2798e-19  5.9445e-21  1.2800e-19  5.9580e-21  1.2802e-19  5.9819e-21  1.2806e-19  6.0245e-21  1.2814e-19  6.1004e-21  1.2828e-19  6.2357e-21  1.2853e-19  6.4774e-21  1.2897e-19  6.9104e-21  1.2976e-19  7.6908e-21  1.3115e-19  9.1111e-21  1.3364e-19  1.1739e-20  1.3805e-19  1.6733e-20  1.4590e-19  2.6605e-20  1.5985e-19
      3.40  5.9258e-21  1.4358e-19  5.9262e-21  1.4358e-19  5.9270e-21  1.4358e-19  5.9282e-21  1.4358e-19  5.9305e-21  1.4359e-19  5.9345e-21  1.4360e-19  5.9417e-21  1.4361e-19  5.9544e-21  1.4364e-19  5.9771e-21  1.4369e-19  6.0175e-21  1.4378e-19  6.0894e-21  1.4394e-19  6.2176e-21  1.4421e-19  6.4465e-21  1.4471e-19  6.8566e-21  1.4559e-19  7.5958e-21  1.4716e-19  8.9413e-21  1.4994e-19  1.1434e-20  1.5490e-19  1.6163e-20  1.6371e-19  2.5519e-20  1.7936e-19
      3.45  5.9241e-21  1.6110e-19  5.9244e-21  1.6110e-19  5.9251e-21  1.6110e-19  5.9263e-21  1.6110e-19  5.9285e-21  1.6111e-19  5.9323e-21  1.6112e-19  5.9391e-21  1.6114e-19  5.9512e-21  1.6117e-19  5.9726e-21  1.6122e-19  6.0109e-21  1.6132e-19  6.0790e-21  1.6150e-19  6.2003e-21  1.6181e-19  6.4171e-21  1.6237e-19  6.8055e-21  1.6336e-19  7.5055e-21  1.6511e-19  8.7798e-21  1.6824e-19  1.1138e-20  1.7380e-19  1.5620e-20  1.8368e-19  2.4485e-20  2.0126e-19
      3.50  5.9224e-21  1.8076e-19  5.9228e-21  1.8076e-19  5.9234e-21  1.8076e-19  5.9245e-21  1.8076e-19  5.9266e-21  1.8077e-19  5.9302e-21  1.8078e-19  5.9366e-21  1.8080e-19  5.9481e-21  1.8083e-19  5.9684e-21  1.8090e-19  6.0046e-21  1.8101e-19  6.0691e-21  1.8120e-19  6.1840e-21  1.8156e-19  6.3892e-21  1.8218e-19  6.7570e-21  1.8329e-19  7.4198e-21  1.8526e-19  8.6264e-21  1.8877e-19  1.0859e-20  1.9501e-19  1.5104e-20  2.0610e-19  2.3501e-20  2.2582e-19
      3.55  5.9209e-21  2.0281e-19  5.9212e-21  2.0281e-19  5.9218e-21  2.0281e-19  5.9229e-21  2.0282e-19  5.9248e-21  2.0283e-19  5.9282e-21  2.0284e-19  5.9343e-21  2.0286e-19  5.9451e-21  2.0290e-19  5.9644e-21  2.0297e-19  5.9987e-21  2.0309e-19  6.0597e-21  2.0332e-19  6.1685e-21  2.0371e-19  6.3628e-21  2.0441e-19  6.7110e-21  2.0565e-19  7.3385e-21  2.0787e-19  8.4807e-21  2.1181e-19  1.0595e-20  2.1881e-19  1.4614e-20  2.3125e-19  2.2565e-20  2.5338e-19
      3.60  5.9194e-21  2.2756e-19  5.9197e-21  2.2756e-19  5.9203e-21  2.2756e-19  5.9213e-21  2.2757e-19  5.9232e-21  2.2757e-19  5.9264e-21  2.2759e-19  5.9322e-21  2.2761e-19  5.9424e-21  2.2766e-19  5.9606e-21  2.2774e-19  5.9931e-21  2.2787e-19  6.0508e-21  2.2812e-19  6.1538e-21  2.2857e-19  6.3378e-21  2.2935e-19  6.6673e-21  2.3075e-19  7.2614e-21  2.3323e-19  8.3426e-21  2.3765e-19  1.0344e-20  2.4551e-19  1.4148e-20  2.5948e-19  2.1684e-20  2.8431e-19
      3.65  5.9181e-21  2.5532e-19  5.9184e-21  2.5533e-19  5.9189e-21  2.5533e-19  5.9199e-21  2.5533e-19  5.9216e-21  2.5534e-19  5.9247e-21  2.5536e-19  5.9301e-21  2.5539e-19  5.9398e-21  2.5543e-19  5.9571e-21  2.5552e-19  5.9878e-21  2.5568e-19  6.0425e-21  2.5596e-19  6.1400e-21  2.5645e-19  6.3141e-21  2.5734e-19  6.6260e-21  2.5890e-19  7.1883e-21  2.6169e-19  8.2117e-21  2.6665e-19  1.0108e-20  2.7547e-19  1.3706e-20  2.9114e-19  2.0832e-20  3.1901e-19
      3.70  5.9168e-21  2.8648e-19  5.9171e-21  2.8648e-19  5.9176e-21  2.8648e-19  5.9186e-21  2.8649e-19  5.9202e-21  2.8650e-19  5.9231e-21  2.8652e-19  5.9283e-21  2.8655e-19  5.9374e-21  2.8660e-19  5.9538e-21  2.8670e-19  5.9828e-21  2.8688e-19  6.0346e-21  2.8719e-19  6.1269e-21  2.8775e-19  6.2917e-21  2.8874e-19  6.5869e-21  2.9050e-19  7.1191e-21  2.9362e-19  8.0877e-21  2.9919e-19  9.8803e-21  3.0908e-19  1.3292e-20  3.2667e-19  2.0031e-20  3.5794e-19
      3.75  5.9157e-21  3.2143e-19  5.9160e-21  3.2144e-19  5.9164e-21  3.2144e-19  5.9173e-21  3.2144e-19  5.9189e-21  3.2146e-19  5.9216e-21  3.2148e-19  5.9265e-21  3.2151e-19  5.9352e-21  3.2157e-19  5.9506e-21  3.2168e-19  5.9782e-21  3.2188e-19  6.0271e-21  3.2223e-19  6.1146e-21  3.2286e-19  6.2705e-21  3.2397e-19  6.5500e-21  3.2594e-19  7.0536e-21  3.2945e-19  7.9704e-21  3.3570e-19  9.6668e-21  3.4680e-19  1.2891e-20  3.6653e-19  1.9271e-20  4.0163e-19
      3.80  5.9146e-21  3.6065e-19  5.9149e-21  3.6066e-19  5.9153e-21  3.6066e-19  5.9161e-21  3.6067e-19  5.9176e-21  3.6068e-19  5.9202e-21  3.6070e-19  5.9248e-21  3.6074e-19  5.9331e-21  3.6081e-19  5.9477e-21  3.6094e-19  5.9737e-21  3.6116e-19  6.0201e-21  3.6155e-19  6.1028e-21  3.6225e-19  6.2505e-21  3.6350e-19  6.5150e-21  3.6571e-19  6.9918e-21  3.6965e-19  7.8594e-21  3.7666e-19  9.4649e-21  3.8912e-19  1.2516e-20  4.1126e-19  1.8552e-20  4.5064e-19
      3.85  5.9136e-21  4.0466e-19  5.9138e-21  4.0466e-19  5.9143e-21  4.0467e-19  5.9151e-21  4.0467e-19  5.9165e-21  4.0469e-19  5.9189e-21  4.0471e-19  5.9233e-21  4.0476e-19  5.9311e-21  4.0484e-19  5.9449e-21  4.0498e-19  5.9696e-21  4.0522e-19  6.0135e-21  4.0567e-19  6.0918e-21  4.0645e-19  6.2316e-21  4.0785e-19  6.4820e-21  4.1034e-19  6.9333e-21  4.1476e-19  7.7546e-21  4.2262e-19  9.2740e-21  4.3660e-19  1.2161e-20  4.6145e-19  1.7871e-20  5.0564e-19
      3.90  5.9127e-21  4.5404e-19  5.9129e-21  4.5404e-19  5.9133e-21  4.5404e-19  5.9141e-21  4.5405e-19  5.9154e-21  4.5407e-19  5.9177e-21  4.5410e-19  5.9218e-21  4.5415e-19  5.9292e-21  4.5423e-19  5.9423e-21  4.5439e-19  5.9657e-21  4.5467e-19  6.0073e-21  4.5517e-19  6.0814e-21  4.5605e-19  6.2137e-21  4.5762e-19  6.4509e-21  4.6041e-19  6.8782e-21  4.6537e-19  7.6556e-21  4.7419e-19  9.0937e-21  4.8987e-19  1.1825e-20  5.1776e-19  1.7227e-20  5.6735e-19
      3.95  5.9118e-21  5.0944e-19  5.9120e-21  5.0944e-19  5.9124e-21  5.0945e-19  5.9131e-21  5.0946e-19  5.9144e-21  5.0947e-19  5.9166e-21  5.0950e-19  5.9205e-21  5.0956e-19  5.9275e-21  5.0966e-19  5.9399e-21  5.0983e-19  5.9620e-21  5.1015e-19  6.0014e-21  5.1070e-19  6.0716e-21  5.1169e-19  6.1969e-21  5.1345e-19  6.4218e-21  5.1659e-19  6.8261e-21  5.2215e-19  7.5622e-21  5.3205e-19  8.9235e-21  5.4965e-19  1.1508e-20  5.8095e-19  1.6618e-20  6.3659e-19
