#Species   Type II    Type Ia(W7)   Type Ia(W70)
12C       7.93e-2     4.83e-2      5.08e-2
13C       3.8e-9      1.4e-6       1.56e-09
14N       1.56e-3     1.16e-6      3.31e-08
15N       1.66e-8     1.32e-9      4.13e-07
16O       1.8         1.43e-1      1.33e-01
17O       9.88e-8     3.54e-8      3.33e-10
18O       4.61e-3     8.25e-10     2.69e-10
19F       1.16e-9     5.67e-10     1.37e-10
20Ne      2.12e-1     2.02e-3      2.29e-03
21Ne      1.08e-3     8.46e-6      2.81e-08
22Ne      1.83e-2     2.49e-3      2.15e-08
23Na      6.51e-3     6.32e-5      1.41e-05
24Mg      8.83e-2     8.5e-3       1.58e-02
25Mg      1.44e-2     4.05e-5      1.64e-07
26Mg      2.01e-2     3.18e-5      1.87e-07
27Al      1.48e-2     9.86e-4      1.13e-04
28Si      1.05e-1     1.5e-1       1.38e-01
29Si      8.99e-3     8.61e-4      6.03e-5
30Si      8.05e-3     1.74e-3      3.009e-5
31P       1.21e-3     4.18e-4      8.51e-5
32S       3.84e-2     8.41e-2      9.19e-2
33S       1.78e-4     4.5e-4       5.83e-5
34S       2.62e-3     1.9e-3       2.84e-6
36S       1.78e-6     3.15e-7      1.09e-11
35Cl      1.01e-4     1.34e-4      8.06e-6
37Cl      1.88e-5     3.98e-5      5.36e-6
36Ar      6.62e-3     1.49e-2      1.99e-2
38Ar      1.37e-3     1.06e-3      5.93e-7
40Ar      2.27e-8     1.26e-8      1.14e-12
39K       6.23e-5     8.52e-5      1.82e-6
41K       5.07e-6     7.44e-6      5.33e-7
40Ca      5.77e-3     1.23e-2      1.95e-2
42Ca      4.23e-5     3.52e-5      1.55e-8
43Ca      1.08e-6     1.03e-7      6.81e-8
44Ca      5.53e-5     8.86e-6      1.55e-5
46Ca      1.43e-10    1.99e-9      5.88e-11
48Ca      5.33e-14    7.1e-12      5.96e-12
45Sc      2.29e-7     2.47e-7      3.92e-8
46Ti      7.48e-6     1.71e-5      7.87e-7
47Ti      2.11e-6     6.04e-7      7.49e-7
48Ti      1.16e-4     2.03e-4      3.21e-4
49Ti      5.98e-6     1.69e-5      1.64e-6
50Ti      3.81e-10    1.26e-5      1.14e-5
50V       7.25e-10    8.28e-9      5.66e-9
51V       1.00e-5     5.15e-5      2.1e-5 
50Cr      4.64e-5     2.71e-4      7.61e-5
52Cr      1.15e-3     5.15e-3      6.63e-3
53Cr      1.19e-4     7.85e-4      4.65e-4
54Cr      2.33e-8     1.9e-4       1.79e-4
55Mn      3.86e-4     8.23e-3      6.27e-3
54Fe      3.62e-3     1.04e-1      8.18e-2
56Fe      8.44e-2     6.13e-1      6.72e-1
57Fe      2.72e-3     2.55e-2      1.98e-2
58Fe      7.22e-9     9.63e-4      9.34e-4
59Co      7.27e-5     1.02e-3      6.28e-8
58Ni      3.63e-3     1.28e-1      9.67e-2
60Ni      1.75e-3     1.05e-2      1.43e-2
61Ni      8.35e-5     2.51e-4      2.3e-4
62Ni      5.09e-4     2.66e-3      1.37e-3
64Ni      3.2e-14     1.31e-6      1.22e-6
63Cu      8.37e-7     2.86e-6      2.86e-6
65Cu      4.07e-7     9.6e-7       9.6e-7
64Zn      1.03e-5     1.05e-4      1.5e-4
66Zn      8.61e-6     2.12e-5      8.65e-6
67Zn      1.52e-8     1.34e-8      3.96e-9
68Zn      3.92e-9     1.02e-8      3.29e-9 
