# This was generated using Cloudy10 and the columns are ordered 
# as log10 of the fraction of the metallicity to the solar metallicity
# 'h_*_Z' and 'c_*_Z' stands for cooling and heating respectively 
# at * metalicity
#
# NOTE: This was generated separately from loop_coolingcurve_w_UV.py
#       using Output_metals_w_redshift.py.
#
# Redshift = 2.0
# hden = 0.5
#
#     temp   h_-3.00_Z   c_-3.00_Z   h_-2.75_Z   c_-2.75_Z   h_-2.50_Z   c_-2.50_Z   h_-2.25_Z   c_-2.25_Z   h_-2.00_Z   c_-2.00_Z   h_-1.75_Z   c_-1.75_Z   h_-1.50_Z   c_-1.50_Z   h_-1.25_Z   c_-1.25_Z   h_-1.00_Z   c_-1.00_Z   h_-0.75_Z   c_-0.75_Z   h_-0.50_Z   c_-0.50_Z   h_-0.25_Z   c_-0.25_Z    h_0.00_Z    c_0.00_Z    h_0.25_Z    c_0.25_Z    h_0.50_Z    c_0.50_Z    h_0.75_Z    c_0.75_Z    h_1.00_Z    c_1.00_Z    h_1.25_Z    c_1.25_Z    h_1.50_Z    c_1.50_Z 
      1.00  3.1930e-24  6.4638e-28  3.1931e-24  6.4641e-28  3.1931e-24  6.4647e-28  3.1932e-24  6.4658e-28  3.1933e-24  6.4677e-28  3.1935e-24  6.4711e-28  3.1938e-24  6.4772e-28  3.1944e-24  6.4879e-28  3.1955e-24  6.5071e-28  3.1974e-24  6.5411e-28  3.2009e-24  6.6017e-28  3.2070e-24  6.7094e-28  3.2179e-24  6.9012e-28  3.2372e-24  7.2425e-28  3.2716e-24  7.8510e-28  3.3329e-24  8.9369e-28  3.4420e-24  1.0880e-27  3.6365e-24  1.4369e-27  3.9840e-24  2.0668e-27
      1.05  3.1807e-24  7.3044e-28  3.1807e-24  7.3051e-28  3.1807e-24  7.3063e-28  3.1808e-24  7.3085e-28  3.1809e-24  7.3123e-28  3.1811e-24  7.3192e-28  3.1814e-24  7.3313e-28  3.1820e-24  7.3530e-28  3.1831e-24  7.3915e-28  3.1850e-24  7.4600e-28  3.1885e-24  7.5818e-28  3.1946e-24  7.7984e-28  3.2054e-24  8.1839e-28  3.2247e-24  8.8701e-28  3.2590e-24  1.0092e-27  3.3201e-24  1.2272e-27  3.4288e-24  1.6166e-27  3.6228e-24  2.3147e-27  3.9691e-24  3.5721e-27
      1.10  3.1679e-24  8.2372e-28  3.1679e-24  8.2386e-28  3.1679e-24  8.2410e-28  3.1680e-24  8.2454e-28  3.1681e-24  8.2532e-28  3.1683e-24  8.2671e-28  3.1686e-24  8.2918e-28  3.1692e-24  8.3357e-28  3.1703e-24  8.4138e-28  3.1722e-24  8.5527e-28  3.1756e-24  8.7997e-28  3.1817e-24  9.2391e-28  3.1925e-24  1.0021e-27  3.2118e-24  1.1411e-27  3.2460e-24  1.3888e-27  3.3069e-24  1.8301e-27  3.4153e-24  2.6180e-27  3.6086e-24  4.0284e-27  3.9540e-24  6.5653e-27
      1.15  3.1546e-24  9.2727e-28  3.1547e-24  9.2755e-28  3.1547e-24  9.2804e-28  3.1548e-24  9.2890e-28  3.1549e-24  9.3045e-28  3.1551e-24  9.3320e-28  3.1554e-24  9.3808e-28  3.1560e-24  9.4677e-28  3.1571e-24  9.6222e-28  3.1590e-24  9.8970e-28  3.1624e-24  1.0386e-27  3.1685e-24  1.1255e-27  3.1792e-24  1.2801e-27  3.1984e-24  1.5552e-27  3.2325e-24  2.0449e-27  3.2931e-24  2.9172e-27  3.4012e-24  4.4735e-27  3.5938e-24  7.2579e-27  3.9379e-24  1.2263e-26
      1.20  3.1410e-24  1.0423e-27  3.1410e-24  1.0428e-27  3.1411e-24  1.0437e-27  3.1411e-24  1.0454e-27  3.1412e-24  1.0483e-27  3.1414e-24  1.0535e-27  3.1418e-24  1.0628e-27  3.1423e-24  1.0792e-27  3.1434e-24  1.1085e-27  3.1453e-24  1.1606e-27  3.1487e-24  1.2532e-27  3.1548e-24  1.4178e-27  3.1655e-24  1.7108e-27  3.1846e-24  2.2319e-27  3.2185e-24  3.1594e-27  3.2789e-24  4.8113e-27  3.3865e-24  7.7578e-27  3.5783e-24  1.3028e-26  3.9209e-24  2.2500e-26
      1.25  3.1269e-24  1.1701e-27  3.1269e-24  1.1711e-27  3.1270e-24  1.1727e-27  3.1270e-24  1.1757e-27  3.1271e-24  1.1810e-27  3.1273e-24  1.1903e-27  3.1277e-24  1.2070e-27  3.1283e-24  1.2366e-27  3.1293e-24  1.2893e-27  3.1312e-24  1.3831e-27  3.1346e-24  1.5498e-27  3.1406e-24  1.8463e-27  3.1513e-24  2.3737e-27  3.1703e-24  3.3119e-27  3.2041e-24  4.9817e-27  3.2642e-24  7.9554e-27  3.3713e-24  1.3259e-26  3.5622e-24  2.2744e-26  3.9032e-24  3.9797e-26
      1.30  3.1124e-24  1.3124e-27  3.1124e-24  1.3140e-27  3.1124e-24  1.3168e-27  3.1125e-24  1.3219e-27  3.1126e-24  1.3309e-27  3.1128e-24  1.3469e-27  3.1131e-24  1.3754e-27  3.1137e-24  1.4260e-27  3.1148e-24  1.5161e-27  3.1167e-24  1.6762e-27  3.1200e-24  1.9610e-27  3.1260e-24  2.4676e-27  3.1366e-24  3.3685e-27  3.1555e-24  4.9714e-27  3.1891e-24  7.8239e-27  3.2490e-24  1.2904e-26  3.3556e-24  2.1965e-26  3.5455e-24  3.8171e-26  3.8849e-24  6.7317e-26
      1.35  3.0974e-24  1.4706e-27  3.0974e-24  1.4732e-27  3.0974e-24  1.4778e-27  3.0975e-24  1.4860e-27  3.0976e-24  1.5006e-27  3.0978e-24  1.5266e-27  3.0981e-24  1.5729e-27  3.0987e-24  1.6551e-27  3.0998e-24  1.8013e-27  3.1017e-24  2.0613e-27  3.1050e-24  2.5238e-27  3.1109e-24  3.3462e-27  3.1215e-24  4.8091e-27  3.1403e-24  7.4115e-27  3.1738e-24  1.2043e-26  3.2333e-24  2.0292e-26  3.3393e-24  3.5005e-26  3.5283e-24  6.1327e-26  3.8658e-24  1.0868e-25
      1.40  3.0819e-24  1.6466e-27  3.0819e-24  1.6506e-27  3.0820e-24  1.6578e-27  3.0820e-24  1.6705e-27  3.0821e-24  1.6931e-27  3.0823e-24  1.7334e-27  3.0826e-24  1.8049e-27  3.0832e-24  1.9322e-27  3.0843e-24  2.1585e-27  3.0862e-24  2.5610e-27  3.0895e-24  3.2768e-27  3.0954e-24  4.5498e-27  3.1059e-24  6.8141e-27  3.1246e-24  1.0842e-26  3.1579e-24  1.8012e-26  3.2171e-24  3.0781e-26  3.3225e-24  5.3560e-26  3.5105e-24  9.4323e-26  3.8462e-24  1.6770e-25
      1.45  3.0659e-24  1.8423e-27  3.0660e-24  1.8483e-27  3.0660e-24  1.8589e-27  3.0660e-24  1.8777e-27  3.0661e-24  1.9112e-27  3.0663e-24  1.9708e-27  3.0667e-24  2.0768e-27  3.0672e-24  2.2653e-27  3.0683e-24  2.6004e-27  3.0702e-24  3.1964e-27  3.0735e-24  4.2563e-27  3.0793e-24  6.1413e-27  3.0898e-24  9.4943e-27  3.1084e-24  1.5460e-26  3.1415e-24  2.6076e-26  3.2003e-24  4.4987e-26  3.3052e-24  7.8727e-26  3.4921e-24  1.3912e-25  3.8260e-24  2.4787e-25
      1.50  3.0495e-24  2.0600e-27  3.0495e-24  2.0685e-27  3.0495e-24  2.0836e-27  3.0496e-24  2.1104e-27  3.0497e-24  2.1581e-27  3.0499e-24  2.2430e-27  3.0502e-24  2.3938e-27  3.0508e-24  2.6621e-27  3.0518e-24  3.1391e-27  3.0537e-24  3.9875e-27  3.0569e-24  5.4963e-27  3.0628e-24  8.1797e-27  3.0732e-24  1.2953e-26  3.0917e-24  2.1445e-26  3.1246e-24  3.6559e-26  3.1831e-24  6.3484e-26  3.2873e-24  1.1153e-25  3.4732e-24  1.9755e-25  3.8051e-24  3.5253e-25
      1.55  3.0325e-24  2.3024e-27  3.0325e-24  2.3141e-27  3.0325e-24  2.3348e-27  3.0326e-24  2.3716e-27  3.0327e-24  2.4372e-27  3.0329e-24  2.5537e-27  3.0332e-24  2.7609e-27  3.0338e-24  3.1295e-27  3.0348e-24  3.7849e-27  3.0366e-24  4.9504e-27  3.0399e-24  7.0231e-27  3.0457e-24  1.0710e-26  3.0560e-24  1.7267e-26  3.0744e-24  2.8934e-26  3.1071e-24  4.9700e-26  3.1653e-24  8.6696e-26  3.2689e-24  1.5272e-25  3.4537e-24  2.7097e-25  3.7836e-24  4.8413e-25
      1.60  3.0149e-24  2.5717e-27  3.0149e-24  2.5872e-27  3.0150e-24  2.6148e-27  3.0150e-24  2.6639e-27  3.0151e-24  2.7511e-27  3.0153e-24  2.9062e-27  3.0156e-24  3.1821e-27  3.0162e-24  3.6726e-27  3.0172e-24  4.5450e-27  3.0191e-24  6.0964e-27  3.0223e-24  8.8555e-27  3.0281e-24  1.3763e-26  3.0384e-24  2.2492e-26  3.0566e-24  3.8022e-26  3.0891e-24  6.5668e-26  3.1470e-24  1.1492e-25  3.2499e-24  2.0284e-25  3.4336e-24  3.6035e-25  3.7615e-24  6.4442e-25
      1.65  2.9969e-24  2.8708e-27  2.9969e-24  2.8908e-27  2.9969e-24  2.9266e-27  2.9970e-24  2.9901e-27  2.9971e-24  3.1031e-27  2.9972e-24  3.3040e-27  2.9976e-24  3.6612e-27  2.9981e-24  4.2966e-27  2.9992e-24  5.4264e-27  3.0010e-24  7.4356e-27  3.0042e-24  1.1009e-26  3.0099e-24  1.7364e-26  3.0201e-24  2.8670e-26  3.0383e-24  4.8785e-26  3.0706e-24  8.4592e-26  3.1280e-24  1.4840e-25  3.2303e-24  2.6231e-25  3.4127e-24  4.6643e-25  3.7385e-24  8.3479e-25
      1.70  2.9782e-24  3.2027e-27  2.9782e-24  3.2281e-27  2.9783e-24  3.2733e-27  2.9783e-24  3.3537e-27  2.9784e-24  3.4966e-27  2.9786e-24  3.7509e-27  2.9789e-24  4.2030e-27  2.9795e-24  5.0069e-27  2.9805e-24  6.4367e-27  2.9823e-24  8.9793e-27  2.9855e-24  1.3501e-26  2.9912e-24  2.1544e-26  3.0013e-24  3.5851e-26  3.0193e-24  6.1307e-26  3.0514e-24  1.0663e-25  3.1085e-24  1.8739e-25  3.2101e-24  3.3160e-25  3.3912e-24  5.9011e-25  3.7147e-24  1.0569e-24
      1.75  2.9590e-24  3.5709e-27  2.9590e-24  3.6024e-27  2.9590e-24  3.6586e-27  2.9591e-24  3.7584e-27  2.9592e-24  3.9360e-27  2.9594e-24  4.2517e-27  2.9597e-24  4.8132e-27  2.9603e-24  5.8117e-27  2.9613e-24  7.5873e-27  2.9630e-24  1.0745e-26  2.9662e-24  1.6361e-26  2.9719e-24  2.6350e-26  2.9819e-24  4.4118e-26  2.9998e-24  7.5736e-26  3.0316e-24  1.3203e-25  3.0883e-24  2.3236e-25  3.1891e-24  4.1155e-25  3.3689e-24  7.3289e-25  3.6899e-24  1.3135e-24
      1.80  2.9392e-24  3.9803e-27  2.9392e-24  4.0189e-27  2.9392e-24  4.0877e-27  2.9393e-24  4.2099e-27  2.9394e-24  4.4273e-27  2.9396e-24  4.8138e-27  2.9399e-24  5.5012e-27  2.9404e-24  6.7235e-27  2.9414e-24  8.8973e-27  2.9432e-24  1.2763e-26  2.9464e-24  1.9639e-26  2.9520e-24  3.1868e-26  2.9619e-24  5.3622e-26  2.9797e-24  9.2334e-26  3.0112e-24  1.6126e-25  3.0674e-24  2.8413e-25  3.1674e-24  5.0364e-25  3.3457e-24  8.9747e-25  3.6641e-24  1.6095e-24
      1.85  2.9187e-24  4.4343e-27  2.9188e-24  4.4812e-27  2.9188e-24  4.5645e-27  2.9189e-24  4.7126e-27  2.9190e-24  4.9761e-27  2.9191e-24  5.4445e-27  2.9194e-24  6.2776e-27  2.9200e-24  7.7590e-27  2.9210e-24  1.0393e-26  2.9227e-24  1.5079e-26  2.9259e-24  2.3411e-26  2.9314e-24  3.8232e-26  2.9413e-24  6.4599e-26  2.9589e-24  1.1152e-25  2.9902e-24  1.9508e-25  3.0458e-24  3.4405e-25  3.1449e-24  6.1027e-25  3.3217e-24  1.0882e-24  3.6372e-24  1.9529e-24
      1.90  2.8977e-24  4.9379e-27  2.8977e-24  4.9943e-27  2.8978e-24  5.0945e-27  2.8978e-24  5.2728e-27  2.8979e-24  5.5898e-27  2.8981e-24  6.1534e-27  2.8984e-24  7.1558e-27  2.8989e-24  8.9384e-27  2.8999e-24  1.2109e-26  2.9017e-24  1.7746e-26  2.9048e-24  2.7773e-26  2.9103e-24  4.5608e-26  2.9200e-24  7.7337e-26  2.9375e-24  1.3381e-25  2.9684e-24  2.3437e-25  3.0236e-24  4.1371e-25  3.1218e-24  7.3431e-25  3.2968e-24  1.3101e-24  3.6093e-24  2.3530e-24
      1.95  2.8760e-24  5.4961e-27  2.8760e-24  5.5633e-27  2.8761e-24  5.6829e-27  2.8761e-24  5.8955e-27  2.8762e-24  6.2736e-27  2.8764e-24  6.9460e-27  2.8767e-24  8.1417e-27  2.8772e-24  1.0268e-26  2.8782e-24  1.4050e-26  2.8799e-24  2.0775e-26  2.8830e-24  3.2736e-26  2.8885e-24  5.4011e-26  2.8982e-24  9.1862e-26  2.9155e-24  1.5923e-25  2.9462e-24  2.7921e-25  3.0009e-24  4.9320e-25  3.0984e-24  8.7581e-25  3.2721e-24  1.5632e-24  3.5822e-24  2.8089e-24
      2.00  2.8537e-24  6.1155e-27  2.8537e-24  6.1960e-27  2.8537e-24  6.3390e-27  2.8538e-24  6.5934e-27  2.8539e-24  7.0458e-27  2.8541e-24  7.8503e-27  2.8544e-24  9.2809e-27  2.8549e-24  1.1825e-26  2.8559e-24  1.6349e-26  2.8576e-24  2.4396e-26  2.8606e-24  3.8707e-26  2.8660e-24  6.4163e-26  2.8756e-24  1.0945e-25  2.8927e-24  1.9007e-25  2.9231e-24  3.3367e-25  2.9772e-24  5.8984e-25  3.0735e-24  1.0481e-24  3.2453e-24  1.8719e-24  3.5519e-24  3.3665e-24
      2.05  2.8307e-24  6.8047e-27  2.8307e-24  6.9008e-27  2.8307e-24  7.0718e-27  2.8308e-24  7.3758e-27  2.8309e-24  7.9163e-27  2.8310e-24  8.8777e-27  2.8313e-24  1.0587e-26  2.8319e-24  1.3627e-26  2.8328e-24  1.9034e-26  2.8345e-24  2.8649e-26  2.8375e-24  4.5750e-26  2.8428e-24  7.6171e-26  2.8523e-24  1.3030e-25  2.8692e-24  2.2665e-25  2.8992e-24  3.9831e-25  2.9526e-24  7.0462e-25  3.0477e-24  1.2528e-24  3.2172e-24  2.2391e-24  3.5199e-24  4.0305e-24
      2.10  2.8070e-24  7.5687e-27  2.8070e-24  7.6832e-27  2.8070e-24  7.8869e-27  2.8071e-24  8.2490e-27  2.8072e-24  8.8929e-27  2.8073e-24  1.0038e-26  2.8076e-24  1.2074e-26  2.8082e-24  1.5695e-26  2.8091e-24  2.2135e-26  2.8108e-24  3.3589e-26  2.8137e-24  5.3960e-26  2.8190e-24  9.0198e-26  2.8283e-24  1.5468e-25  2.8450e-24  2.6947e-25  2.8746e-24  4.7402e-25  2.9273e-24  8.3912e-25  3.0211e-24  1.4928e-24  3.1883e-24  2.6698e-24  3.4867e-24  4.8101e-24
      2.15  2.7826e-24  8.4153e-27  2.7826e-24  8.5511e-27  2.7826e-24  8.7925e-27  2.7827e-24  9.2218e-27  2.7828e-24  9.9852e-27  2.7830e-24  1.1343e-26  2.7832e-24  1.3757e-26  2.7838e-24  1.8050e-26  2.7847e-24  2.5685e-26  2.7863e-24  3.9264e-26  2.7892e-24  6.3417e-26  2.7944e-24  1.0638e-25  2.8036e-24  1.8284e-25  2.8200e-24  3.1896e-25  2.8492e-24  5.6156e-25  2.9011e-24  9.9467e-25  2.9936e-24  1.7705e-24  3.1584e-24  3.1683e-24  3.4526e-24  5.7129e-24
      2.20  2.7575e-24  9.3526e-27  2.7575e-24  9.5126e-27  2.7575e-24  9.7970e-27  2.7576e-24  1.0303e-26  2.7577e-24  1.1202e-26  2.7578e-24  1.2801e-26  2.7581e-24  1.5646e-26  2.7586e-24  2.0703e-26  2.7596e-24  2.9699e-26  2.7612e-24  4.5696e-26  2.7640e-24  7.4151e-26  2.7691e-24  1.2477e-25  2.7782e-24  2.1485e-25  2.7944e-24  3.7525e-25  2.8231e-24  6.6115e-25  2.8743e-24  1.1717e-24  2.9653e-24  2.0865e-24  3.1277e-24  3.7359e-24  3.4174e-24  6.7413e-24
      2.25  2.7317e-24  1.0390e-26  2.7317e-24  1.0577e-26  2.7317e-24  1.0909e-26  2.7318e-24  1.1500e-26  2.7319e-24  1.2551e-26  2.7320e-24  1.4421e-26  2.7323e-24  1.7745e-26  2.7328e-24  2.3657e-26  2.7337e-24  3.4170e-26  2.7353e-24  5.2869e-26  2.7381e-24  8.6128e-26  2.7431e-24  1.4530e-25  2.7521e-24  2.5060e-25  2.7680e-24  4.3810e-25  2.7963e-24  7.7236e-25  2.8467e-24  1.3694e-24  2.9363e-24  2.4395e-24  3.0961e-24  4.3700e-24  3.3814e-24  7.8907e-24
      2.30  2.7051e-24  1.1540e-26  2.7051e-24  1.1757e-26  2.7051e-24  1.2142e-26  2.7052e-24  1.2826e-26  2.7053e-24  1.4044e-26  2.7054e-24  1.6209e-26  2.7057e-24  2.0059e-26  2.7062e-24  2.6907e-26  2.7071e-24  3.9084e-26  2.7086e-24  6.0742e-26  2.7114e-24  9.9265e-26  2.7164e-24  1.6780e-25  2.7251e-24  2.8977e-25  2.7408e-24  5.0698e-25  2.7686e-24  8.9422e-25  2.8180e-24  1.5860e-24  2.9061e-24  2.8264e-24  3.0630e-24  5.0649e-24  3.3431e-24  9.1503e-24
      2.35  2.6778e-24  1.2811e-26  2.6778e-24  1.3059e-26  2.6778e-24  1.3501e-26  2.6779e-24  1.4286e-26  2.6780e-24  1.5682e-26  2.6781e-24  1.8166e-26  2.6784e-24  2.2581e-26  2.6789e-24  3.0434e-26  2.6797e-24  4.4400e-26  2.6813e-24  6.9239e-26  2.6840e-24  1.1342e-25  2.6889e-24  1.9203e-25  2.6975e-24  3.3192e-25  2.7130e-24  5.8106e-25  2.7404e-24  1.0253e-24  2.7891e-24  1.8190e-24  2.8760e-24  3.2424e-24  3.0307e-24  5.8124e-24  3.3069e-24  1.0506e-23
      2.40  2.6497e-24  1.4213e-26  2.6497e-24  1.4495e-26  2.6497e-24  1.4996e-26  2.6498e-24  1.5887e-26  2.6499e-24  1.7472e-26  2.6500e-24  2.0291e-26  2.6503e-24  2.5303e-26  2.6508e-24  3.4217e-26  2.6516e-24  5.0069e-26  2.6531e-24  7.8264e-26  2.6558e-24  1.2841e-25  2.6606e-24  2.1764e-25  2.6692e-24  3.7644e-25  2.6844e-24  6.5926e-25  2.7114e-24  1.1636e-24  2.7595e-24  2.0648e-24  2.8452e-24  3.6813e-24  2.9977e-24  6.6010e-24  3.2701e-24  1.1936e-23
      2.45  2.6208e-24  1.5759e-26  2.6208e-24  1.6075e-26  2.6209e-24  1.6638e-26  2.6209e-24  1.7640e-26  2.6210e-24  1.9420e-26  2.6211e-24  2.2587e-26  2.6214e-24  2.8217e-26  2.6219e-24  3.8231e-26  2.6227e-24  5.6040e-26  2.6242e-24  8.7713e-26  2.6269e-24  1.4405e-25  2.6316e-24  2.4429e-25  2.6400e-24  4.2270e-25  2.6550e-24  7.4045e-25  2.6817e-24  1.3071e-24  2.7291e-24  2.3197e-24  2.8136e-24  4.1366e-24  2.9640e-24  7.4190e-24  3.2325e-24  1.3419e-23
      2.50  2.5911e-24  1.7461e-26  2.5912e-24  1.7814e-26  2.5912e-24  1.8440e-26  2.5912e-24  1.9553e-26  2.5913e-24  2.1534e-26  2.5915e-24  2.5055e-26  2.5917e-24  3.1317e-26  2.5922e-24  4.2454e-26  2.5930e-24  6.2260e-26  2.5945e-24  9.7486e-26  2.5971e-24  1.6015e-25  2.6018e-24  2.7163e-25  2.6101e-24  4.7005e-25  2.6249e-24  8.2346e-25  2.6512e-24  1.4537e-24  2.6979e-24  2.5802e-24  2.7811e-24  4.6016e-24  2.9295e-24  8.2542e-24  3.1941e-24  1.4933e-23
      2.55  2.5607e-24  1.9345e-26  2.5607e-24  1.9733e-26  2.5607e-24  2.0423e-26  2.5608e-24  2.1649e-26  2.5608e-24  2.3830e-26  2.5610e-24  2.7709e-26  2.5613e-24  3.4606e-26  2.5617e-24  4.6872e-26  2.5625e-24  6.8687e-26  2.5640e-24  1.0749e-25  2.5666e-24  1.7650e-25  2.5712e-24  2.9929e-25  2.5794e-24  5.1785e-25  2.5939e-24  9.0713e-25  2.6198e-24  1.6014e-24  2.6659e-24  2.8423e-24  2.7480e-24  5.0694e-24  2.8941e-24  9.0944e-24  3.1550e-24  1.6456e-23
      2.60  2.5294e-24  2.1417e-26  2.5294e-24  2.1841e-26  2.5294e-24  2.2593e-26  2.5295e-24  2.3932e-26  2.5296e-24  2.6312e-26  2.5297e-24  3.0546e-26  2.5300e-24  3.8074e-26  2.5304e-24  5.1461e-26  2.5312e-24  7.5270e-26  2.5327e-24  1.1762e-25  2.5352e-24  1.9294e-25  2.5398e-24  3.2696e-25  2.5478e-24  5.6550e-25  2.5622e-24  9.9040e-25  2.5877e-24  1.7482e-24  2.6331e-24  3.1028e-24  2.7140e-24  5.5341e-24  2.8580e-24  9.9287e-24  3.1150e-24  1.7968e-23
      2.65  2.4973e-24  2.3696e-26  2.4973e-24  2.4154e-26  2.4973e-24  2.4969e-26  2.4974e-24  2.6418e-26  2.4975e-24  2.8994e-26  2.4976e-24  3.3576e-26  2.4979e-24  4.1725e-26  2.4983e-24  5.6216e-26  2.4991e-24  8.1988e-26  2.5005e-24  1.2783e-25  2.5030e-24  2.0936e-25  2.5075e-24  3.5443e-25  2.5155e-24  6.1264e-25  2.5296e-24  1.0726e-24  2.5548e-24  1.8929e-24  2.5995e-24  3.3593e-24  2.6792e-24  5.9915e-24  2.8211e-24  1.0750e-23  3.0744e-24  1.9456e-23
      2.70  2.4644e-24  2.6199e-26  2.4644e-24  2.6691e-26  2.4644e-24  2.7566e-26  2.4645e-24  2.9123e-26  2.4645e-24  3.1892e-26  2.4647e-24  3.6815e-26  2.4649e-24  4.5570e-26  2.4654e-24  6.1140e-26  2.4661e-24  8.8830e-26  2.4675e-24  1.3808e-25  2.4700e-24  2.2568e-25  2.4744e-24  3.8155e-25  2.4823e-24  6.5899e-25  2.4962e-24  1.1532e-24  2.5210e-24  2.0346e-24  2.5651e-24  3.6103e-24  2.6436e-24  6.4388e-24  2.7834e-24  1.1553e-23  3.0329e-24  2.0910e-23
      2.75  2.4306e-24  2.8947e-26  2.4306e-24  2.9472e-26  2.4306e-24  3.0407e-26  2.4307e-24  3.2068e-26  2.4308e-24  3.5023e-26  2.4309e-24  4.0277e-26  2.4311e-24  4.9621e-26  2.4316e-24  6.6238e-26  2.4324e-24  9.5790e-26  2.4337e-24  1.4835e-25  2.4362e-24  2.4185e-25  2.4405e-24  4.0820e-25  2.4482e-24  7.0429e-25  2.4620e-24  1.2317e-24  2.4864e-24  2.1725e-24  2.5299e-24  3.8542e-24  2.6072e-24  6.8732e-24  2.7450e-24  1.2331e-23  2.9909e-24  2.2319e-23
      2.80  2.3960e-24  3.1982e-26  2.3960e-24  3.2539e-26  2.3960e-24  3.3531e-26  2.3961e-24  3.5294e-26  2.3962e-24  3.8429e-26  2.3963e-24  4.4005e-26  2.3965e-24  5.3920e-26  2.3970e-24  7.1554e-26  2.3977e-24  1.0291e-25  2.3991e-24  1.5869e-25  2.4015e-24  2.5791e-25  2.4058e-24  4.3444e-25  2.4134e-24  7.4865e-25  2.4269e-24  1.3084e-24  2.4510e-24  2.3067e-24  2.4938e-24  4.0914e-24  2.5701e-24  7.2952e-24  2.7059e-24  1.3087e-23  2.9481e-24  2.3686e-23
      2.85  2.3606e-24  3.5310e-26  2.3606e-24  3.5899e-26  2.3606e-24  3.6946e-26  2.3606e-24  3.8808e-26  2.3607e-24  4.2119e-26  2.3608e-24  4.8007e-26  2.3611e-24  5.8477e-26  2.3615e-24  7.7098e-26  2.3623e-24  1.1021e-25  2.3636e-24  1.6912e-25  2.3660e-24  2.7389e-25  2.3702e-24  4.6030e-25  2.3777e-24  7.9212e-25  2.3910e-24  1.3832e-24  2.4148e-24  2.4374e-24  2.4570e-24  4.3221e-24  2.5321e-24  7.7053e-24  2.6659e-24  1.3822e-23  2.9045e-24  2.5013e-23
      2.90  2.3243e-24  3.8959e-26  2.3243e-24  3.9578e-26  2.3243e-24  4.0679e-26  2.3244e-24  4.2637e-26  2.3244e-24  4.6119e-26  2.3246e-24  5.2311e-26  2.3248e-24  6.3322e-26  2.3252e-24  8.2903e-26  2.3259e-24  1.1773e-25  2.3273e-24  1.7967e-25  2.3296e-24  2.8985e-25  2.3338e-24  4.8588e-25  2.3412e-24  8.3481e-25  2.3543e-24  1.4564e-24  2.3777e-24  2.5650e-24  2.4193e-24  4.5469e-24  2.4933e-24  8.1046e-24  2.6251e-24  1.4536e-23  2.8602e-24  2.6303e-23
      2.95  2.2871e-24  4.2966e-26  2.2872e-24  4.3615e-26  2.2872e-24  4.4769e-26  2.2872e-24  4.6820e-26  2.2873e-24  5.0469e-26  2.2874e-24  5.6957e-26  2.2877e-24  6.8494e-26  2.2881e-24  8.9012e-26  2.2888e-24  1.2550e-25  2.2901e-24  1.9040e-25  2.2924e-24  3.0585e-25  2.2965e-24  5.1126e-25  2.3038e-24  8.7687e-25  2.3167e-24  1.5281e-24  2.3398e-24  2.6898e-24  2.3807e-24  4.7664e-24  2.4536e-24  8.4942e-24  2.5835e-24  1.5233e-23  2.8151e-24  2.7560e-23
      3.00  2.2492e-24  4.7363e-26  2.2492e-24  4.8040e-26  2.2492e-24  4.9245e-26  2.2492e-24  5.1388e-26  2.2493e-24  5.5199e-26  2.2494e-24  6.1976e-26  2.2497e-24  7.4028e-26  2.2501e-24  9.5460e-26  2.2508e-24  1.3358e-25  2.2521e-24  2.0137e-25  2.2543e-24  3.2196e-25  2.2584e-24  5.3652e-25  2.2656e-24  9.1843e-25  2.2783e-24  1.5987e-24  2.3010e-24  2.8121e-24  2.3414e-24  4.9812e-24  2.4132e-24  8.8749e-24  2.5411e-24  1.5913e-23  2.7692e-24  2.8787e-23
      3.05  2.2104e-24  5.2226e-26  2.2104e-24  5.2931e-26  2.2104e-24  5.4186e-26  2.2104e-24  5.6417e-26  2.2105e-24  6.0384e-26  2.2106e-24  6.7439e-26  2.2109e-24  7.9985e-26  2.2113e-24  1.0230e-25  2.2120e-24  1.4198e-25  2.2132e-24  2.1255e-25  2.2155e-24  3.3808e-25  2.2194e-24  5.6144e-25  2.2265e-24  9.5901e-25  2.2391e-24  1.6672e-24  2.2614e-24  2.9303e-24  2.3012e-24  5.1884e-24  2.3719e-24  9.2415e-24  2.4979e-24  1.6567e-23  2.7225e-24  2.9966e-23
      3.10  2.1707e-24  5.7521e-26  2.1707e-24  5.8254e-26  2.1708e-24  5.9557e-26  2.1708e-24  6.1874e-26  2.1709e-24  6.5994e-26  2.1710e-24  7.3321e-26  2.1712e-24  8.6351e-26  2.1716e-24  1.0952e-25  2.1723e-24  1.5074e-25  2.1735e-24  2.2403e-25  2.1757e-24  3.5442e-25  2.1797e-24  5.8640e-25  2.1866e-24  9.9932e-25  2.1990e-24  1.7348e-24  2.2210e-24  3.0467e-24  2.2602e-24  5.3919e-24  2.3298e-24  9.6012e-24  2.4538e-24  1.7209e-23  2.6750e-24  3.1121e-23
      3.15  2.1303e-24  6.3360e-26  2.1303e-24  6.4120e-26  2.1303e-24  6.5471e-26  2.1303e-24  6.7873e-26  2.1304e-24  7.2145e-26  2.1305e-24  7.9741e-26  2.1307e-24  9.3251e-26  2.1311e-24  1.1728e-25  2.1318e-24  1.6000e-25  2.1330e-24  2.3600e-25  2.1352e-24  3.7118e-25  2.1391e-24  6.1169e-25  2.1459e-24  1.0398e-24  2.1581e-24  1.8024e-24  2.1798e-24  3.1625e-24  2.2183e-24  5.5938e-24  2.2869e-24  9.9577e-24  2.4090e-24  1.7844e-23  2.6267e-24  3.2264e-23
      3.20  2.0890e-24  6.9771e-26  2.0890e-24  7.0558e-26  2.0890e-24  7.1957e-26  2.0891e-24  7.4445e-26  2.0891e-24  7.8870e-26  2.0892e-24  8.6738e-26  2.0895e-24  1.0073e-25  2.0898e-24  1.2561e-25  2.0905e-24  1.6987e-25  2.0917e-24  2.4858e-25  2.0939e-24  3.8859e-25  2.0976e-24  6.3771e-25  2.1044e-24  1.0811e-24  2.1164e-24  1.8710e-24  2.1377e-24  3.2797e-24  2.1757e-24  5.7979e-24  2.2432e-24  1.0317e-23  2.3634e-24  1.8484e-23  2.5776e-24  3.3416e-23
      3.25  2.0469e-24  7.6766e-26  2.0469e-24  7.7581e-26  2.0469e-24  7.9030e-26  2.0470e-24  8.1607e-26  2.0470e-24  8.6191e-26  2.0472e-24  9.4342e-26  2.0474e-24  1.0884e-25  2.0478e-24  1.3461e-25  2.0484e-24  1.8046e-25  2.0496e-24  2.6199e-25  2.0517e-24  4.0703e-25  2.0554e-24  6.6509e-25  2.0621e-24  1.1244e-24  2.0739e-24  1.9426e-24  2.0949e-24  3.4019e-24  2.1322e-24  6.0104e-24  2.1987e-24  1.0692e-23  2.3170e-24  1.9151e-23  2.5278e-24  3.4614e-23
      3.30  2.0041e-24  8.4468e-26  2.0041e-24  8.5314e-26  2.0041e-24  8.6818e-26  2.0041e-24  8.9492e-26  2.0042e-24  9.4248e-26  2.0043e-24  1.0270e-25  2.0045e-24  1.1774e-25  2.0049e-24  1.4449e-25  2.0056e-24  1.9205e-25  2.0067e-24  2.7665e-25  2.0088e-24  4.2714e-25  2.0125e-24  6.9488e-25  2.0190e-24  1.1715e-24  2.0306e-24  2.0204e-24  2.0513e-24  3.5344e-24  2.0880e-24  6.2409e-24  2.1534e-24  1.1098e-23  2.2698e-24  1.9873e-23  2.4773e-24  3.5914e-23
      3.35  1.9605e-24  9.2861e-26  1.9605e-24  9.3742e-26  1.9605e-24  9.5307e-26  1.9605e-24  9.8092e-26  1.9606e-24  1.0304e-25  1.9607e-24  1.1185e-25  1.9609e-24  1.2751e-25  1.9613e-24  1.5535e-25  1.9619e-24  2.0487e-25  1.9631e-24  2.9295e-25  1.9651e-24  4.4963e-25  1.9687e-24  7.2840e-25  1.9752e-24  1.2246e-24  1.9866e-24  2.1084e-24  2.0069e-24  3.6847e-24  2.0431e-24  6.5025e-24  2.1074e-24  1.1559e-23  2.2219e-24  2.0694e-23  2.4260e-24  3.7391e-23
      3.40  1.9162e-24  1.0200e-25  1.9162e-24  1.0292e-25  1.9162e-24  1.0456e-25  1.9162e-24  1.0747e-25  1.9163e-24  1.1265e-25  1.9164e-24  1.2187e-25  1.9166e-24  1.3826e-25  1.9170e-24  1.6741e-25  1.9176e-24  2.1924e-25  1.9187e-24  3.1144e-25  1.9207e-24  4.7544e-25  1.9243e-24  7.6723e-25  1.9306e-24  1.2866e-24  1.9419e-24  2.2117e-24  1.9619e-24  3.8617e-24  1.9974e-24  6.8111e-24  2.0607e-24  1.2104e-23  2.1733e-24  2.1665e-23  2.3740e-24  3.9139e-23
      3.45  1.8711e-24  1.1193e-25  1.8711e-24  1.1290e-25  1.8712e-24  1.1463e-25  1.8712e-24  1.1770e-25  1.8713e-24  1.2316e-25  1.8714e-24  1.3288e-25  1.8716e-24  1.5016e-25  1.8719e-24  1.8089e-25  1.8725e-24  2.3555e-25  1.8736e-24  3.3276e-25  1.8756e-24  5.0567e-25  1.8791e-24  8.1332e-25  1.8853e-24  1.3609e-24  1.8964e-24  2.3364e-24  1.9161e-24  4.0760e-24  1.9510e-24  7.1857e-24  2.0132e-24  1.2766e-23  2.1240e-24  2.2846e-23  2.3212e-24  4.1268e-23
      3.50  1.8254e-24  1.2271e-25  1.8254e-24  1.2375e-25  1.8255e-24  1.2559e-25  1.8255e-24  1.2885e-25  1.8256e-24  1.3467e-25  1.8257e-24  1.4501e-25  1.8259e-24  1.6339e-25  1.8262e-24  1.9609e-25  1.8268e-24  2.5424e-25  1.8279e-24  3.5766e-25  1.8298e-24  5.4163e-25  1.8333e-24  8.6896e-25  1.8394e-24  1.4516e-24  1.8502e-24  2.4895e-24  1.8695e-24  4.3405e-24  1.9037e-24  7.6495e-24  1.9647e-24  1.3588e-23  2.0733e-24  2.4318e-23  2.2667e-24  4.3931e-23
      3.55  1.7791e-24  1.3456e-25  1.7791e-24  1.3567e-25  1.7791e-24  1.3765e-25  1.7792e-24  1.4116e-25  1.7792e-24  1.4741e-25  1.7794e-24  1.5853e-25  1.7795e-24  1.7830e-25  1.7799e-24  2.1345e-25  1.7805e-24  2.7597e-25  1.7816e-24  3.8717e-25  1.7835e-24  5.8497e-25  1.7868e-24  9.3691e-25  1.7928e-24  1.5637e-24  1.8035e-24  2.6797e-24  1.8224e-24  4.6703e-24  1.8561e-24  8.2285e-24  1.9161e-24  1.4614e-23  2.0221e-24  2.6161e-23  2.2114e-24  4.7262e-23
      3.60  1.7322e-24  1.4740e-25  1.7322e-24  1.4861e-25  1.7322e-24  1.5076e-25  1.7323e-24  1.5458e-25  1.7323e-24  1.6138e-25  1.7324e-24  1.7347e-25  1.7326e-24  1.9497e-25  1.7329e-24  2.3321e-25  1.7335e-24  3.0122e-25  1.7346e-24  4.2218e-25  1.7365e-24  6.3733e-25  1.7398e-24  1.0203e-24  1.7457e-24  1.7018e-24  1.7561e-24  2.9158e-24  1.7747e-24  5.0811e-24  1.8078e-24  8.9515e-24  1.8667e-24  1.5897e-23  1.9709e-24  2.8459e-23  2.1569e-24  5.1410e-23
      3.65  1.6847e-24  1.6129e-25  1.6847e-24  1.6262e-25  1.6847e-24  1.6499e-25  1.6848e-24  1.6920e-25  1.6848e-24  1.7669e-25  1.6849e-24  1.9001e-25  1.6851e-24  2.1369e-25  1.6854e-24  2.5582e-25  1.6860e-24  3.3074e-25  1.6871e-24  4.6398e-25  1.6889e-24  7.0100e-25  1.6921e-24  1.1227e-24  1.6979e-24  1.8736e-24  1.7082e-24  3.2109e-24  1.7264e-24  5.5962e-24  1.7589e-24  9.8598e-24  1.8168e-24  1.7511e-23  1.9191e-24  3.1352e-23  2.1018e-24  5.6634e-23
      3.70  1.6367e-24  1.7631e-25  1.6367e-24  1.7780e-25  1.6367e-24  1.8045e-25  1.6368e-24  1.8516e-25  1.6368e-24  1.9353e-25  1.6369e-24  2.0842e-25  1.6371e-24  2.3490e-25  1.6374e-24  2.8199e-25  1.6380e-24  3.6575e-25  1.6390e-24  5.1471e-25  1.6408e-24  7.7968e-25  1.6440e-24  1.2511e-24  1.6497e-24  2.0903e-24  1.6598e-24  3.5855e-24  1.6777e-24  6.2520e-24  1.7096e-24  1.1018e-23  1.7664e-24  1.9572e-23  1.8668e-24  3.5049e-23  2.0464e-24  6.3311e-23
      3.75  1.5883e-24  1.9264e-25  1.5883e-24  1.9433e-25  1.5883e-24  1.9734e-25  1.5883e-24  2.0269e-25  1.5884e-24  2.1220e-25  1.5885e-24  2.2912e-25  1.5886e-24  2.5920e-25  1.5890e-24  3.1270e-25  1.5895e-24  4.0784e-25  1.5905e-24  5.7705e-25  1.5923e-24  8.7806e-25  1.5954e-24  1.4136e-24  1.6010e-24  2.3669e-24  1.6109e-24  4.0654e-24  1.6285e-24  7.0944e-24  1.6598e-24  1.2509e-23  1.7157e-24  2.2226e-23  1.8151e-24  3.9783e-23  1.9910e-24  7.1912e-23
      3.80  1.5410e-24  2.1146e-25  1.5410e-24  2.1342e-25  1.5410e-24  2.1691e-25  1.5410e-24  2.2311e-25  1.5411e-24  2.3414e-25  1.5412e-24  2.5374e-25  1.5414e-24  2.8861e-25  1.5417e-24  3.5063e-25  1.5422e-24  4.6092e-25  1.5432e-24  6.5707e-25  1.5449e-24  1.0060e-24  1.5480e-24  1.6268e-24  1.5535e-24  2.7319e-24  1.5633e-24  4.7003e-24  1.5806e-24  8.2118e-24  1.6114e-24  1.4488e-23  1.6664e-24  2.5751e-23  1.7642e-24  4.6099e-23  1.9373e-24  8.3349e-23
      3.85  1.4920e-24  2.3820e-25  1.4920e-24  2.4053e-25  1.4920e-24  2.4467e-25  1.4921e-24  2.5204e-25  1.4921e-24  2.6513e-25  1.4922e-24  2.8843e-25  1.4924e-24  3.2985e-25  1.4927e-24  4.0352e-25  1.4932e-24  5.3454e-25  1.4942e-24  7.6756e-25  1.4959e-24  1.1821e-24  1.4990e-24  1.9196e-24  1.5044e-24  3.2323e-24  1.5140e-24  5.5705e-24  1.5311e-24  9.7414e-24  1.5616e-24  1.7196e-23  1.6160e-24  3.0571e-23  1.7127e-24  5.4732e-23  1.8847e-24  9.8929e-23
      3.90  1.4428e-24  3.0230e-25  1.4428e-24  3.0515e-25  1.4428e-24  3.1023e-25  1.4428e-24  3.1925e-25  1.4429e-24  3.3528e-25  1.4430e-24  3.6381e-25  1.4432e-24  4.1453e-25  1.4435e-24  5.0474e-25  1.4440e-24  6.6517e-25  1.4450e-24  9.5050e-25  1.4467e-24  1.4581e-24  1.4497e-24  2.3611e-24  1.4551e-24  3.9684e-24  1.4647e-24  6.8313e-24  1.4817e-24  1.1937e-23  1.5120e-24  2.1062e-23  1.5660e-24  3.7430e-23  1.6623e-24  6.6984e-23  1.8338e-24  1.2100e-22
      3.95  1.3934e-24  5.2922e-25  1.3934e-24  5.3280e-25  1.3934e-24  5.3916e-25  1.3934e-24  5.5049e-25  1.3935e-24  5.7062e-25  1.3936e-24  6.0643e-25  1.3938e-24  6.7010e-25  1.3941e-24  7.8333e-25  1.3946e-24  9.8472e-25  1.3956e-24  1.3429e-24  1.3973e-24  1.9800e-24  1.4003e-24  3.1135e-24  1.4057e-24  5.1309e-24  1.4153e-24  8.7240e-24  1.4323e-24  1.5131e-23  1.4627e-24  2.6579e-23  1.5168e-24  4.7106e-23  1.6133e-24  8.4139e-23  1.7869e-24  1.5158e-22
