# This was generated using Cloudy10 and the columns are ordered 
# as log10 of the fraction of the metallicity to the solar metallicity
# 'h_*_Z' and 'c_*_Z' stands for cooling and heating respectively 
# at * metalicity
#
# NOTE: This was generated separately from loop_coolingcurve_w_UV.py
#       using Output_metals_w_redshift.py.
#
# Redshift = 2.5
# hden = -3.5
#
#     temp   h_-3.00_Z   c_-3.00_Z   h_-2.75_Z   c_-2.75_Z   h_-2.50_Z   c_-2.50_Z   h_-2.25_Z   c_-2.25_Z   h_-2.00_Z   c_-2.00_Z   h_-1.75_Z   c_-1.75_Z   h_-1.50_Z   c_-1.50_Z   h_-1.25_Z   c_-1.25_Z   h_-1.00_Z   c_-1.00_Z   h_-0.75_Z   c_-0.75_Z   h_-0.50_Z   c_-0.50_Z   h_-0.25_Z   c_-0.25_Z    h_0.00_Z    c_0.00_Z    h_0.25_Z    c_0.25_Z    h_0.50_Z    c_0.50_Z    h_0.75_Z    c_0.75_Z    h_1.00_Z    c_1.00_Z    h_1.25_Z    c_1.25_Z    h_1.50_Z    c_1.50_Z 
      4.00  8.0806e-24  1.0222e-24  8.0830e-24  1.0267e-24  8.0871e-24  1.0347e-24  8.0945e-24  1.0489e-24  8.1077e-24  1.0742e-24  8.1311e-24  1.1192e-24  8.1727e-24  1.1991e-24  8.2468e-24  1.3413e-24  8.3784e-24  1.5943e-24  8.6123e-24  2.0443e-24  9.0283e-24  2.8451e-24  9.7674e-24  4.2713e-24  1.1080e-23  6.8137e-24  1.3412e-23  1.1355e-23  1.7550e-23  1.9491e-23  2.4897e-23  3.4153e-23  3.7972e-23  6.0822e-23  6.1407e-23  1.1008e-22  1.0429e-22  2.0331e-22
      4.05  7.4920e-24  1.0676e-24  7.4943e-24  1.0722e-24  7.4984e-24  1.0803e-24  7.5056e-24  1.0948e-24  7.5185e-24  1.1205e-24  7.5414e-24  1.1663e-24  7.5821e-24  1.2477e-24  7.6545e-24  1.3925e-24  7.7831e-24  1.6500e-24  8.0119e-24  2.1081e-24  8.4185e-24  2.9235e-24  9.1411e-24  4.3756e-24  1.0425e-23  6.9647e-24  1.2704e-23  1.1590e-23  1.6749e-23  1.9881e-23  2.3931e-23  3.4831e-23  3.6714e-23  6.2055e-23  5.9661e-23  1.1242e-22  1.0164e-22  2.0801e-22
      4.10  6.9418e-24  1.1166e-24  6.9441e-24  1.1214e-24  6.9480e-24  1.1298e-24  6.9551e-24  1.1449e-24  6.9677e-24  1.1717e-24  6.9901e-24  1.2193e-24  7.0299e-24  1.3040e-24  7.1006e-24  1.4546e-24  7.2265e-24  1.7225e-24  7.4501e-24  2.1992e-24  7.8477e-24  3.0477e-24  8.5543e-24  4.5588e-24  9.8094e-24  7.2535e-24  1.2038e-23  1.2069e-23  1.5993e-23  2.0705e-23  2.3015e-23  3.6290e-23  3.5514e-23  6.4706e-23  5.7989e-23  1.1738e-22  9.9088e-23  2.1768e-22
      4.15  6.4278e-24  1.1718e-24  6.4300e-24  1.1770e-24  6.4339e-24  1.1860e-24  6.4408e-24  1.2022e-24  6.4531e-24  1.2309e-24  6.4750e-24  1.2820e-24  6.5139e-24  1.3729e-24  6.5832e-24  1.5345e-24  6.7063e-24  1.8219e-24  6.9251e-24  2.3334e-24  7.3142e-24  3.2438e-24  8.0055e-24  4.8655e-24  9.2335e-24  7.7579e-24  1.1414e-23  1.2928e-23  1.5283e-23  2.2207e-23  2.2153e-23  3.8967e-23  3.4381e-23  6.9574e-23  5.6408e-23  1.2644e-22  9.6677e-23  2.3508e-22
      4.20  5.9478e-24  1.2379e-24  5.9500e-24  1.2436e-24  5.9538e-24  1.2537e-24  5.9606e-24  1.2718e-24  5.9726e-24  1.3038e-24  5.9941e-24  1.3608e-24  6.0322e-24  1.4621e-24  6.1001e-24  1.6424e-24  6.2207e-24  1.9630e-24  6.4350e-24  2.5336e-24  6.8161e-24  3.5491e-24  7.4934e-24  5.3584e-24  8.6963e-24  8.5862e-24  1.0832e-23  1.4358e-23  1.4622e-23  2.4723e-23  2.1350e-23  4.3466e-23  3.3329e-23  7.7754e-23  5.4944e-23  1.4160e-22  9.4450e-23  2.6404e-22
      4.25  5.4998e-24  1.3218e-24  5.5019e-24  1.3285e-24  5.5056e-24  1.3403e-24  5.5123e-24  1.3613e-24  5.5241e-24  1.3986e-24  5.5452e-24  1.4649e-24  5.5826e-24  1.5830e-24  5.6492e-24  1.7929e-24  5.7676e-24  2.1663e-24  5.9780e-24  2.8307e-24  6.3521e-24  4.0136e-24  7.0168e-24  6.1211e-24  8.1973e-24  9.8817e-24  1.0293e-23  1.6609e-23  1.4012e-23  2.8698e-23  2.0615e-23  5.0580e-23  3.2371e-23  9.0679e-23  5.3625e-23  1.6550e-22  9.2460e-23  3.0953e-22
      4.30  5.0817e-24  1.4356e-24  5.0837e-24  1.4436e-24  5.0860e-24  1.4579e-24  5.0940e-24  1.4833e-24  5.1056e-24  1.5286e-24  5.1263e-24  1.6090e-24  5.1632e-24  1.7521e-24  5.2287e-24  2.0066e-24  5.3452e-24  2.4592e-24  5.5522e-24  3.2647e-24  5.9203e-24  4.6988e-24  6.5742e-24  7.2541e-24  7.7357e-24  1.1815e-23  9.7974e-24  1.9976e-23  1.3456e-23  3.4647e-23  1.9952e-23  6.1229e-23  3.1520e-23  1.1001e-22  5.2467e-23  2.0118e-22  9.0737e-23  3.7723e-22
      4.35  4.6910e-24  1.5889e-24  4.6931e-24  1.5989e-24  4.6967e-24  1.6168e-24  4.7032e-24  1.6487e-24  4.7147e-24  1.7053e-24  4.7351e-24  1.8059e-24  4.7715e-24  1.9850e-24  4.8361e-24  2.3034e-24  4.9511e-24  2.8699e-24  5.1554e-24  3.8780e-24  5.5185e-24  5.6727e-24  6.1639e-24  8.8709e-24  7.3099e-24  1.4579e-23  9.3440e-24  2.4797e-23  1.2953e-23  4.3171e-23  1.9362e-23  7.6482e-23  3.0782e-23  1.3767e-22  5.1482e-23  2.5217e-22  8.9300e-23  4.7380e-22
      4.40  4.3253e-24  1.7945e-24  4.3274e-24  1.8074e-24  4.3310e-24  1.8303e-24  4.3374e-24  1.8710e-24  4.3487e-24  1.9433e-24  4.3690e-24  2.0720e-24  4.4050e-24  2.3008e-24  4.4690e-24  2.7078e-24  4.5827e-24  3.4319e-24  4.7850e-24  4.7203e-24  5.1433e-24  7.0140e-24  5.7832e-24  1.1102e-23  6.9175e-24  1.8399e-23  8.9305e-24  3.1460e-23  1.2502e-23  5.4953e-23  1.8844e-23  9.7556e-23  3.0154e-23  1.7586e-22  5.0669e-23  3.2249e-22  8.8153e-23  6.0681e-22
      4.45  3.9820e-24  2.0641e-24  3.9840e-24  2.0807e-24  3.9875e-24  2.1103e-24  3.9939e-24  2.1628e-24  4.0052e-24  2.2563e-24  4.0253e-24  2.4226e-24  4.0610e-24  2.7184e-24  4.1246e-24  3.2445e-24  4.2375e-24  4.1803e-24  4.4384e-24  5.8455e-24  4.7953e-24  8.8103e-24  5.4294e-24  1.4094e-23  6.5555e-24  2.3525e-23  8.5538e-24  4.0406e-23  1.2099e-23  7.0771e-23  1.8394e-23  1.2584e-22  2.9629e-23  2.2709e-22  5.0023e-23  4.1677e-22  8.7286e-23  7.8499e-22
      4.50  3.6573e-24  2.4050e-24  3.6601e-24  2.4268e-24  3.6637e-24  2.4654e-24  3.6700e-24  2.5341e-24  3.6812e-24  2.6561e-24  3.7013e-24  2.8732e-24  3.7368e-24  3.2592e-24  3.8001e-24  3.9458e-24  3.9126e-24  5.1673e-24  4.1126e-24  7.3408e-24  4.4680e-24  1.1210e-23  5.0994e-24  1.8106e-23  6.2205e-24  3.0415e-23  8.2100e-24  5.2445e-23  1.1740e-23  9.2069e-23  1.8008e-23  1.6392e-22  2.9204e-23  2.9602e-22  4.9535e-23  5.4351e-22  8.6693e-23  1.0242e-21
      4.55  3.3512e-24  2.8208e-24  3.3532e-24  2.8489e-24  3.3568e-24  2.8989e-24  3.3631e-24  2.9878e-24  3.3743e-24  3.1458e-24  3.3943e-24  3.4269e-24  3.4298e-24  3.9268e-24  3.4930e-24  4.8159e-24  3.6054e-24  6.3975e-24  3.8050e-24  9.2119e-24  4.1599e-24  1.4223e-23  4.7904e-24  2.3152e-23  5.9097e-24  3.9089e-23  7.8962e-24  6.7612e-23  1.1421e-23  1.1891e-22  1.7682e-23  2.1192e-22  2.8876e-23  3.8286e-22  4.9202e-23  7.0331e-22  8.6362e-23  1.3260e-21
      4.60  3.0591e-24  3.2972e-24  3.0611e-24  3.3334e-24  3.0646e-24  3.3978e-24  3.0710e-24  3.5123e-24  3.0822e-24  3.7159e-24  3.1022e-24  4.0781e-24  3.1378e-24  4.7222e-24  3.2011e-24  5.8678e-24  3.3136e-24  7.9057e-24  3.5135e-24  1.1532e-23  3.8688e-24  1.7988e-23  4.5001e-24  2.9492e-23  5.6210e-24  5.0024e-23  7.6103e-24  8.6771e-23  1.1141e-23  1.5285e-22  1.7416e-23  2.7265e-22  2.8639e-23  4.9274e-22  4.9017e-23  9.0550e-22  8.6291e-23  1.7079e-21
      4.65  2.7805e-24  3.8315e-24  2.7825e-24  3.8778e-24  2.7860e-24  3.9602e-24  2.7924e-24  4.1068e-24  2.8037e-24  4.3674e-24  2.8238e-24  4.8309e-24  2.8595e-24  5.6551e-24  2.9230e-24  7.1211e-24  3.0359e-24  9.7291e-24  3.2367e-24  1.4370e-23  3.5934e-24  2.2631e-23  4.2272e-24  3.7353e-23  5.3527e-24  6.3627e-23  7.3505e-24  1.1065e-22  1.0897e-23  1.9519e-22  1.7205e-23  3.4842e-22  2.8494e-23  6.2984e-22  4.8976e-23  1.1577e-21  8.6468e-23  2.1839e-21
      4.70  2.5152e-24  4.4291e-24  2.5173e-24  4.4878e-24  2.5209e-24  4.5923e-24  2.5273e-24  4.7782e-24  2.5386e-24  5.1086e-24  2.5588e-24  5.6963e-24  2.5948e-24  6.7415e-24  2.6587e-24  8.6005e-24  2.7723e-24  1.1907e-23  2.9743e-24  1.7791e-23  3.3332e-24  2.8267e-23  3.9709e-24  4.6934e-23  5.1035e-24  8.0246e-23  7.1146e-24  1.3986e-22  1.0687e-23  2.4702e-22  1.7044e-23  4.4121e-22  2.8433e-23  7.9774e-22  4.9086e-23  1.4664e-21  8.6894e-23  2.7661e-21
      4.75  2.2642e-24  5.1261e-24  2.2662e-24  5.1998e-24  2.2698e-24  5.3308e-24  2.2763e-24  5.5638e-24  2.2877e-24  5.9781e-24  2.3081e-24  6.7150e-24  2.3443e-24  8.0254e-24  2.4087e-24  1.0356e-23  2.5231e-24  1.4502e-23  2.7266e-24  2.1880e-23  3.0882e-24  3.5014e-23  3.7307e-24  5.8417e-23  4.8721e-24  1.0018e-22  6.8992e-24  1.7491e-22  1.0502e-23  3.0922e-22  1.6917e-23  5.5254e-22  2.8421e-23  9.9909e-22  4.9276e-23  1.8364e-21  8.7462e-23  3.4627e-21
      4.80  2.0280e-24  6.0006e-24  2.0300e-24  6.0918e-24  2.0337e-24  6.2539e-24  2.0401e-24  6.5422e-24  2.0517e-24  7.0548e-24  2.0722e-24  7.9664e-24  2.1087e-24  9.5876e-24  2.1735e-24  1.2471e-23  2.2888e-24  1.7601e-23  2.4938e-24  2.6728e-23  2.8581e-24  4.2976e-23  3.5055e-24  7.1928e-23  4.6557e-24  1.2359e-22  6.6990e-24  2.1602e-22  1.0332e-23  3.8211e-22  1.6807e-23  6.8292e-22  2.8423e-23  1.2347e-21  4.9476e-23  2.2688e-21  8.8024e-23  4.2756e-21
      4.85  1.8058e-24  7.1967e-24  1.8078e-24  7.3077e-24  1.8115e-24  7.5052e-24  1.8180e-24  7.8565e-24  1.8296e-24  8.4811e-24  1.8503e-24  9.5919e-24  1.8869e-24  1.1567e-23  1.9522e-24  1.5081e-23  2.0682e-24  2.1331e-23  2.2743e-24  3.2452e-23  2.6408e-24  5.2251e-23  3.2921e-24  8.7526e-23  4.4492e-24  1.5047e-22  6.5055e-24  2.6306e-22  1.0163e-23  4.6536e-22  1.6685e-23  8.3161e-22  2.8391e-23  1.5031e-21  4.9599e-23  2.7607e-21  8.8424e-23  5.1983e-21
      4.90  1.5937e-24  8.8888e-24  1.5958e-24  9.0219e-24  1.5994e-24  9.2587e-24  1.6060e-24  9.6797e-24  1.6176e-24  1.0428e-23  1.6383e-24  1.1760e-23  1.6751e-24  1.4128e-23  1.7405e-24  1.8339e-23  1.8567e-24  2.5830e-23  2.0634e-24  3.9160e-23  2.4308e-24  6.2890e-23  3.0836e-24  1.0517e-22  4.2437e-24  1.8060e-22  6.3056e-24  3.1552e-22  9.9741e-24  5.5789e-22  1.6518e-23  9.9653e-22  2.8270e-23  1.8003e-21  4.9548e-23  3.3045e-21  8.8483e-23  6.2159e-21
      4.95  1.3844e-24  1.1183e-23  1.3865e-24  1.1340e-23  1.3901e-24  1.1619e-23  1.3966e-24  1.2115e-23  1.4082e-24  1.2997e-23  1.4288e-24  1.4564e-23  1.4655e-24  1.7354e-23  1.5307e-24  2.2316e-23  1.6466e-24  3.1140e-23  1.8527e-24  4.6843e-23  2.2189e-24  7.4796e-23  2.8697e-24  1.2460e-22  4.0262e-24  2.1345e-22  6.0818e-24  3.7235e-22  9.7398e-24  6.5775e-22  1.6267e-23  1.1741e-21  2.7993e-23  2.1197e-21  4.9209e-23  3.8877e-21  8.8005e-23  7.3048e-21
      5.00  1.1698e-24  1.3956e-23  1.1718e-24  1.4138e-23  1.1754e-24  1.4460e-23  1.1819e-24  1.5035e-23  1.1934e-24  1.6056e-23  1.2138e-24  1.7871e-23  1.2500e-24  2.1100e-23  1.3145e-24  2.6842e-23  1.4292e-24  3.7056e-23  1.6330e-24  5.5232e-23  1.9953e-24  8.7586e-23  2.6390e-24  1.4523e-22  3.7828e-24  2.4806e-22  5.8156e-24  4.3195e-22  9.4331e-24  7.6217e-22  1.5889e-23  1.3594e-21  2.7494e-23  2.4526e-21  4.8473e-23  4.4949e-21  8.6797e-23  8.4365e-21
      5.05  9.4824e-25  1.6723e-23  9.5024e-25  1.6929e-23  9.5379e-25  1.7296e-23  9.6011e-25  1.7949e-23  9.7135e-25  1.9110e-23  9.9134e-25  2.1175e-23  1.0269e-24  2.4847e-23  1.0901e-24  3.1378e-23  1.2024e-24  4.2996e-23  1.4021e-24  6.3668e-23  1.7569e-24  1.0047e-22  2.3873e-24  1.6603e-22  3.5071e-24  2.8298e-22  5.4968e-24  4.9212e-22  9.0367e-24  8.6763e-22  1.5364e-23  1.5465e-21  2.6731e-23  2.7888e-21  4.7262e-23  5.1085e-21  8.4720e-23  9.5802e-21
      5.10  7.3107e-25  1.8727e-23  7.3301e-25  1.8957e-23  7.3645e-25  1.9368e-23  7.4258e-25  2.0098e-23  7.5347e-25  2.1396e-23  7.7285e-25  2.3705e-23  8.0730e-25  2.7812e-23  8.6855e-25  3.5115e-23  9.7742e-25  4.8107e-23  1.1709e-24  7.1224e-23  1.5145e-24  1.1238e-22  2.1248e-24  1.8565e-22  3.2085e-24  3.1641e-22  5.1331e-24  5.5025e-22  8.5596e-24  9.7007e-22  1.4694e-23  1.7289e-21  2.5700e-23  3.1176e-21  4.5566e-23  5.7099e-21  8.1763e-23  1.0705e-20
      5.15  5.3834e-25  1.9466e-23  5.4019e-25  1.9720e-23  5.4351e-25  2.0172e-23  5.4936e-25  2.0974e-23  5.5980e-25  2.2401e-23  5.7836e-25  2.4939e-23  6.1136e-25  2.9451e-23  6.7001e-25  3.7479e-23  7.7424e-25  5.1759e-23  9.5939e-25  7.7158e-23  1.2882e-24  1.2239e-22  1.8717e-24  2.0297e-22  2.9069e-24  3.4670e-22  4.7445e-24  6.0378e-22  8.0293e-24  1.0652e-21  1.3899e-23  1.8996e-21  2.4426e-23  3.4268e-21  4.3417e-23  6.2793e-21  7.7986e-23  1.1781e-20
      5.20  3.8499e-25  1.8990e-23  3.8674e-25  1.9264e-23  3.8986e-25  1.9750e-23  3.9541e-25  2.0616e-23  4.0527e-25  2.2154e-23  4.2280e-25  2.4891e-23  4.5397e-25  2.9758e-23  5.0935e-25  3.8415e-23  6.0773e-25  5.3816e-23  7.8240e-25  8.1222e-23  1.0923e-24  1.3002e-22  1.6418e-24  2.1698e-22  2.6155e-24  3.7217e-22  4.3520e-24  6.4964e-22  7.4509e-24  1.1479e-21  1.2989e-23  2.0491e-21  2.2918e-23  3.6998e-21  4.0822e-23  6.7861e-21  7.3386e-23  1.2746e-20
      5.25  2.7306e-25  1.7730e-23  2.7468e-25  1.8018e-23  2.7758e-25  1.8531e-23  2.8273e-25  1.9444e-23  2.9188e-25  2.1066e-23  3.0815e-25  2.3952e-23  3.3707e-25  2.9084e-23  3.8844e-25  3.8214e-23  4.7964e-25  5.4457e-23  6.4140e-25  8.3368e-23  9.2810e-25  1.3486e-22  1.4357e-24  2.2663e-22  2.3384e-24  3.9040e-22  3.9492e-24  6.8323e-22  6.8215e-24  1.2093e-21  1.1954e-23  2.1617e-21  2.1156e-23  3.9085e-21  3.7747e-23  7.1810e-21  6.7914e-23  1.3520e-20
      5.30  1.9539e-25  1.6151e-23  1.9686e-25  1.6446e-23  1.9949e-25  1.6970e-23  2.0417e-25  1.7902e-23  2.1249e-25  1.9560e-23  2.2725e-25  2.2509e-23  2.5350e-25  2.7754e-23  3.0009e-25  3.7086e-23  3.8272e-25  5.3691e-23  5.2914e-25  8.3258e-23  7.8823e-25  1.3594e-22  1.2473e-24  2.2987e-22  2.0670e-24  3.9739e-22  3.5269e-24  6.9712e-22  6.1302e-24  1.2360e-21  1.0782e-23  2.2125e-21  1.9124e-23  4.0071e-21  3.4166e-23  7.3802e-21  6.1523e-23  1.3947e-20
      5.35  1.4250e-25  1.4564e-23  1.4381e-25  1.4851e-23  1.4614e-25  1.5362e-23  1.5027e-25  1.6271e-23  1.5762e-25  1.7886e-23  1.7067e-25  2.0760e-23  1.9384e-25  2.5872e-23  2.3498e-25  3.4968e-23  3.0785e-25  5.1161e-23  4.3681e-25  8.0009e-23  6.6470e-25  1.3145e-22  1.0707e-24  2.2307e-22  1.7940e-24  3.8657e-22  3.0825e-24  6.7925e-22  5.3801e-24  1.2059e-21  9.4860e-24  2.1617e-21  1.6850e-23  3.9227e-21  3.0133e-23  7.2468e-21  5.4301e-23  1.3762e-20
      5.40  1.0639e-25  1.3111e-23  1.0751e-25  1.3371e-23  1.0950e-25  1.3834e-23  1.1305e-25  1.4657e-23  1.1933e-25  1.6121e-23  1.3051e-25  1.8726e-23  1.5035e-25  2.3360e-23  1.8555e-25  3.1608e-23  2.4792e-25  4.6296e-23  3.5823e-25  7.2478e-23  5.5344e-25  1.1917e-22  9.0177e-25  2.0227e-22  1.5216e-24  3.5063e-22  2.6255e-24  6.1635e-22  4.5938e-24  1.0948e-21  8.1108e-24  1.9645e-21  1.4417e-23  3.5705e-21  2.5790e-23  6.6139e-21  4.6473e-23  1.2617e-20
      5.45  8.1372e-26  1.1851e-23  8.2305e-26  1.2069e-23  8.3968e-26  1.2455e-23  8.6930e-26  1.3143e-23  9.2187e-26  1.4365e-23  1.0153e-25  1.6540e-23  1.1813e-25  2.0409e-23  1.4759e-25  2.7296e-23  1.9982e-25  3.9562e-23  2.9228e-25  6.1427e-23  4.5631e-25  1.0038e-22  7.4834e-25  1.6974e-22  1.2678e-24  2.9359e-22  2.1927e-24  5.1543e-22  3.8411e-24  9.1495e-22  6.7846e-24  1.6413e-21  1.2057e-23  2.9834e-21  2.1547e-23  5.5294e-21  3.8757e-23  1.0561e-20
      5.50  6.3707e-26  1.0787e-23  6.4491e-26  1.0963e-23  6.5889e-26  1.1275e-23  6.8378e-26  1.1831e-23  7.2812e-26  1.2819e-23  8.0685e-26  1.4577e-23  9.4688e-26  1.7703e-23  1.1956e-25  2.3267e-23  1.6368e-25  3.3171e-23  2.4190e-25  5.0816e-23  3.8078e-25  8.2221e-23  6.2768e-25  1.3817e-22  1.0666e-24  2.3807e-22  1.8478e-24  4.1693e-22  3.2393e-24  7.3889e-22  5.7218e-24  1.3237e-21  1.0161e-23  2.4024e-21  1.8130e-23  4.4433e-21  3.2516e-23  8.4602e-21
      5.55  5.0981e-26  9.9515e-24  5.1665e-26  1.0101e-23  5.2882e-26  1.0368e-23  5.5052e-26  1.0842e-23  5.8913e-26  1.1684e-23  6.5794e-26  1.3183e-23  7.8029e-26  1.5848e-23  9.9760e-26  2.0590e-23  1.3834e-25  2.9027e-23  2.0681e-25  4.4045e-23  3.2829e-25  7.0776e-23  5.4402e-25  1.1841e-22  9.2749e-25  2.0344e-22  1.6098e-24  3.5564e-22  2.8249e-24  6.2942e-22  4.9910e-24  1.1262e-21  8.8601e-24  2.0409e-21  1.5792e-23  3.7660e-21  2.8265e-23  7.1450e-21
      5.60  4.1618e-26  9.3169e-24  4.2234e-26  9.4555e-24  4.3330e-26  9.7018e-24  4.5283e-26  1.0140e-23  4.8759e-26  1.0919e-23  5.4949e-26  1.2304e-23  6.5970e-26  1.4768e-23  8.5561e-26  1.9151e-23  1.2036e-25  2.6948e-23  1.8202e-25  4.0823e-23  2.9137e-25  6.5525e-23  4.8539e-25  1.0955e-22  8.3043e-25  1.8811e-22  1.4444e-24  3.2873e-22  2.5374e-24  5.8161e-22  4.4855e-24  1.0403e-21  7.9630e-24  1.8842e-21  1.4187e-23  3.4742e-21  2.5371e-23  6.5828e-21
      5.65  3.4583e-26  8.8477e-24  3.5145e-26  8.9817e-24  3.6145e-26  9.2198e-24  3.7929e-26  9.6433e-24  4.1101e-26  1.0396e-23  4.6750e-26  1.1736e-23  5.6806e-26  1.4118e-23  7.4687e-26  1.8354e-23  1.0647e-25  2.5890e-23  1.6259e-25  3.9303e-23  2.6214e-25  6.3183e-23  4.3884e-25  1.0574e-22  7.5311e-25  1.8170e-22  1.3123e-24  3.1765e-22  2.3078e-24  5.6218e-22  4.0818e-24  1.0058e-21  7.2482e-24  1.8224e-21  1.2914e-23  3.3628e-21  2.3089e-23  6.3767e-21
      5.70  2.9193e-26  8.5118e-24  2.9704e-26  8.6412e-24  3.0614e-26  8.8713e-24  3.2238e-26  9.2805e-24  3.5126e-26  1.0008e-23  4.0269e-26  1.1302e-23  4.9430e-26  1.3604e-23  6.5714e-26  1.7697e-23  9.4524e-26  2.4979e-23  1.4543e-25  3.7940e-23  2.3575e-25  6.1017e-23  3.9619e-25  1.0214e-22  6.8152e-25  1.7555e-22  1.1892e-24  3.0697e-22  2.0931e-24  5.4343e-22  3.7039e-24  9.7263e-22  6.5792e-24  1.7634e-21  1.1724e-23  3.2565e-21  2.0964e-23  6.1851e-21
      5.75  2.4991e-26  8.2327e-24  2.5450e-26  8.3543e-24  2.6269e-26  8.5706e-24  2.7730e-26  8.9553e-24  3.0332e-26  9.6393e-24  3.4968e-26  1.0856e-23  4.3224e-26  1.3019e-23  5.7830e-26  1.6867e-23  8.3625e-26  2.3714e-23  1.2930e-25  3.5899e-23  2.1032e-25  5.7595e-23  3.5437e-25  9.6260e-23  6.1051e-25  1.6528e-22  1.0662e-24  2.8887e-22  1.8776e-24  5.1128e-22  3.3236e-24  9.1517e-22  5.9044e-24  1.6598e-21  1.0522e-23  3.0675e-21  1.8815e-23  5.8343e-21
      5.80  2.1672e-26  8.0868e-24  2.2083e-26  8.2004e-24  2.2816e-26  8.4024e-24  2.4126e-26  8.7616e-24  2.6464e-26  9.4003e-24  3.0630e-26  1.0536e-23  3.8014e-26  1.2556e-23  5.1049e-26  1.6150e-23  7.4072e-26  2.2545e-23  1.1491e-25  3.3924e-23  1.8737e-25  5.4184e-23  3.1620e-25  9.0292e-23  5.4529e-25  1.5475e-22  9.5285e-25  2.7015e-22  1.6784e-24  4.7784e-22  2.9712e-24  8.5544e-22  5.2779e-24  1.5511e-21  9.4033e-24  2.8659e-21  1.6806e-23  5.4608e-21
      5.85  1.9025e-26  8.0539e-24  1.9398e-26  8.1644e-24  2.0063e-26  8.3610e-24  2.1253e-26  8.7105e-24  2.3381e-26  9.3319e-24  2.7172e-26  1.0437e-23  3.3829e-26  1.2403e-23  4.5608e-26  1.5899e-23  6.6440e-26  2.2121e-23  1.0342e-25  3.3191e-23  1.6902e-25  5.2903e-23  2.8562e-25  8.8033e-23  4.9300e-25  1.5074e-22  8.6192e-25  2.6301e-22  1.5186e-24  4.6502e-22  2.6884e-24  8.3178e-22  4.7749e-24  1.5077e-21  8.5040e-24  2.7846e-21  1.5189e-23  5.2935e-21
      5.90  1.6892e-26  8.1225e-24  1.7235e-26  8.2344e-24  1.7848e-26  8.4335e-24  1.8944e-26  8.7875e-24  2.0905e-26  9.4170e-24  2.4385e-26  1.0536e-23  3.0495e-26  1.2528e-23  4.1289e-26  1.6070e-23  6.0426e-26  2.2372e-23  9.4330e-26  3.3587e-23  1.5452e-25  5.3555e-23  2.6151e-25  8.9142e-23  4.5178e-25  1.5270e-22  7.9028e-25  2.6645e-22  1.3927e-24  4.7116e-22  2.4658e-24  8.4297e-22  4.3791e-24  1.5281e-21  7.7970e-24  2.8227e-21  1.3919e-23  5.3651e-21
      5.95  1.5153e-26  8.2795e-24  1.5469e-26  8.3939e-24  1.6034e-26  8.5973e-24  1.7046e-26  8.9589e-24  1.8857e-26  9.6019e-24  2.2065e-26  1.0745e-23  2.7706e-26  1.2779e-23  3.7650e-26  1.6398e-23  5.5231e-26  2.2835e-23  8.6420e-26  3.4292e-23  1.4183e-25  5.4689e-23  2.4027e-25  9.1043e-23  4.1534e-25  1.5594e-22  7.2682e-25  2.7214e-22  1.2811e-24  4.8127e-22  2.2683e-24  8.6109e-22  4.0282e-24  1.5616e-21  7.1709e-24  2.8861e-21  1.2796e-23  5.4904e-21
      6.00  1.3718e-26  8.5154e-24  1.4007e-26  8.6299e-24  1.4523e-26  8.8335e-24  1.5448e-26  9.1955e-24  1.7106e-26  9.8392e-24  2.0059e-26  1.0984e-23  2.5228e-26  1.3020e-23  3.4311e-26  1.6642e-23  5.0381e-26  2.3087e-23  7.8876e-26  3.4557e-23  1.2949e-25  5.4978e-23  2.1944e-25  9.1375e-23  3.7940e-25  1.5635e-22  6.6398e-25  2.7271e-22  1.1704e-24  4.8219e-22  2.0722e-24  8.6277e-22  3.6796e-24  1.5651e-21  6.5489e-24  2.8945e-21  1.1682e-23  5.5125e-21
      6.05  1.2525e-26  8.8429e-24  1.2785e-26  8.9542e-24  1.3251e-26  9.1520e-24  1.4087e-26  9.5038e-24  1.5587e-26  1.0129e-23  1.8274e-26  1.1241e-23  2.2981e-26  1.3219e-23  3.1215e-26  1.6739e-23  4.5763e-26  2.3000e-23  7.1556e-26  3.4143e-23  1.1736e-25  5.3984e-23  1.9880e-25  8.9347e-23  3.4362e-25  1.5249e-22  6.0125e-25  2.6556e-22  1.0597e-24  4.6917e-22  1.8760e-24  8.3928e-22  3.3305e-24  1.5226e-21  5.9261e-24  2.8175e-21  1.0567e-23  5.3716e-21
      6.10  1.1527e-26  9.2467e-24  1.1761e-26  9.3522e-24  1.2179e-26  9.5398e-24  1.2929e-26  9.8732e-24  1.4276e-26  1.0466e-23  1.6694e-26  1.1520e-23  2.0942e-26  1.3395e-23  2.8381e-26  1.6731e-23  4.1475e-26  2.2666e-23  6.4690e-26  3.3229e-23  1.0595e-25  5.2037e-23  1.7929e-25  8.5561e-23  3.0973e-25  1.4542e-22  5.4177e-25  2.5264e-22  9.5465e-25  4.4574e-22  1.6897e-24  7.9685e-22  2.9993e-24  1.4491e-21  5.3355e-24  2.6828e-21  9.5106e-24  5.1203e-21
      6.15  1.0686e-26  9.7283e-24  1.0896e-26  9.8261e-24  1.1270e-26  9.9999e-24  1.1940e-26  1.0309e-23  1.3139e-26  1.0858e-23  1.5289e-26  1.1835e-23  1.9060e-26  1.3573e-23  2.5730e-26  1.6665e-23  3.7456e-26  2.2165e-23  5.8245e-26  3.1954e-23  9.5184e-26  4.9384e-23  1.6085e-25  8.0454e-23  2.7763e-25  1.3594e-22  4.8537e-25  2.3533e-22  8.5503e-25  4.1440e-22  1.5131e-24  7.4014e-22  2.6854e-24  1.3425e-21  4.7764e-24  2.4867e-21  8.5126e-24  4.7609e-21
      6.20  9.9726e-27  1.0288e-23  1.0157e-26  1.0375e-23  1.0487e-26  1.0530e-23  1.1077e-26  1.0805e-23  1.2128e-26  1.1293e-23  1.4007e-26  1.2161e-23  1.7313e-26  1.3706e-23  2.3161e-26  1.6453e-23  3.3512e-26  2.1341e-23  5.1862e-26  3.0041e-23  8.4451e-26  4.5531e-23  1.4239e-25  7.3145e-23  2.4543e-25  1.2246e-22  4.2872e-25  2.1083e-22  7.5486e-25  3.7012e-22  1.3355e-24  6.6005e-22  2.3698e-24  1.1969e-21  4.2149e-24  2.2181e-21  7.5117e-24  4.2451e-21
      6.25  9.3610e-27  1.0931e-23  9.5201e-27  1.1003e-23  9.8041e-27  1.1132e-23  1.0309e-26  1.1361e-23  1.1210e-26  1.1769e-23  1.2815e-26  1.2494e-23  1.5646e-26  1.3784e-23  2.0666e-26  1.6077e-23  2.9562e-26  2.0158e-23  4.5354e-26  2.7419e-23  7.3412e-26  4.0351e-23  1.2329e-25  6.3404e-23  2.1201e-25  1.0458e-22  3.6981e-25  1.7838e-22  6.5061e-25  3.1143e-22  1.1505e-24  5.5380e-22  2.0412e-24  1.0030e-21  3.6301e-24  1.8593e-21  6.4696e-24  3.5637e-21
      6.30  8.8345e-27  1.1687e-23  8.9678e-27  1.1744e-23  9.2051e-27  1.1847e-23  9.6283e-27  1.2029e-23  1.0379e-26  1.2353e-23  1.1716e-26  1.2928e-23  1.4076e-26  1.3952e-23  1.8271e-26  1.5773e-23  2.5725e-26  1.9012e-23  3.8950e-26  2.4776e-23  6.2465e-26  3.5041e-23  1.0427e-25  5.3340e-23  1.7862e-25  8.6031e-23  3.1087e-25  1.4463e-22  5.4621e-25  2.5036e-22  9.6519e-25  4.4311e-22  1.7117e-24  8.0064e-22  3.0435e-24  1.4836e-21  5.4239e-24  2.8465e-21
      6.35  8.3814e-27  1.2548e-23  8.4909e-27  1.2593e-23  8.6857e-27  1.2674e-23  9.0320e-27  1.2818e-23  9.6479e-27  1.3074e-23  1.0740e-26  1.3529e-23  1.2672e-26  1.4338e-23  1.6109e-26  1.5778e-23  2.2223e-26  1.8338e-23  3.3094e-26  2.2894e-23  5.2414e-26  3.1008e-23  8.6769e-26  4.5473e-23  1.4787e-25  7.1317e-23  2.5655e-25  1.1765e-22  4.4994e-25  2.0125e-22  7.9422e-25  3.5370e-22  1.4076e-24  6.3681e-22  2.5018e-24  1.1782e-21  4.4573e-24  2.2610e-21
      6.40  7.9918e-27  1.3522e-23  8.0810e-27  1.3559e-23  8.2394e-27  1.3625e-23  8.5208e-27  1.3741e-23  9.0202e-27  1.3948e-23  9.9062e-27  1.4317e-23  1.1475e-26  1.4972e-23  1.4265e-26  1.6137e-23  1.9231e-26  1.8210e-23  2.8067e-26  2.1898e-23  4.3785e-26  2.8466e-23  7.1733e-26  4.0177e-23  1.2144e-25  6.1101e-23  2.0986e-25  9.8622e-23  3.6719e-25  1.6633e-22  6.4728e-25  2.8988e-22  1.1463e-24  5.1947e-22  2.0363e-24  9.5998e-22  3.6268e-24  1.8415e-21
      6.45  7.6565e-27  1.4618e-23  7.7290e-27  1.4648e-23  7.8575e-27  1.4702e-23  8.0857e-27  1.4798e-23  8.4902e-27  1.4969e-23  9.2070e-27  1.5272e-23  1.0478e-26  1.5811e-23  1.2739e-26  1.6770e-23  1.6763e-26  1.8476e-23  2.3925e-26  2.1534e-23  3.6669e-26  2.6957e-23  5.9336e-26  3.6626e-23  9.9654e-26  5.3902e-23  1.7138e-25  8.4886e-23  2.9900e-25  1.4082e-22  5.2617e-25  2.4290e-22  9.3085e-25  4.3412e-22  1.6525e-24  7.9921e-22  2.9418e-24  1.5332e-21
      6.50  7.3674e-27  1.5846e-23  7.4266e-27  1.5871e-23  7.5314e-27  1.5916e-23  7.7175e-27  1.5995e-23  8.0472e-27  1.6137e-23  8.6308e-27  1.6388e-23  9.6661e-27  1.6835e-23  1.1510e-26  1.7631e-23  1.4791e-26  1.9046e-23  2.0632e-26  2.1563e-23  3.1027e-26  2.6046e-23  4.9524e-26  3.4039e-23  8.2431e-26  4.8320e-23  1.4097e-25  7.3937e-23  2.4513e-25  1.2019e-22  4.3054e-25  2.0463e-22  7.6077e-25  3.6179e-22  1.3496e-24  6.6526e-22  2.4012e-24  1.2728e-21
      6.55  7.1178e-27  1.7249e-23  7.1669e-27  1.7270e-23  7.2537e-27  1.7307e-23  7.4077e-27  1.7374e-23  7.6809e-27  1.7492e-23  8.1641e-27  1.7702e-23  9.0214e-27  1.8075e-23  1.0549e-26  1.8740e-23  1.3268e-26  1.9921e-23  1.8109e-26  2.2024e-23  2.6727e-26  2.5768e-23  4.2067e-26  3.2443e-23  6.9365e-26  4.4371e-23  1.1793e-25  6.5767e-23  2.0435e-25  1.0440e-22  3.5818e-25  1.7495e-22  6.3213e-25  3.0628e-22  1.1206e-24  5.5960e-22  1.9927e-24  1.0680e-21
      6.60  6.9017e-27  1.8815e-23  6.9431e-27  1.8832e-23  7.0163e-27  1.8864e-23  7.1461e-27  1.8921e-23  7.3765e-27  1.9022e-23  7.7844e-27  1.9201e-23  8.5077e-27  1.9520e-23  9.7967e-27  2.0088e-23  1.2092e-26  2.1097e-23  1.6181e-26  2.2892e-23  2.3463e-26  2.6090e-23  3.6429e-26  3.1792e-23  5.9506e-26  4.1980e-23  1.0058e-25  6.0256e-23  1.7366e-25  9.3258e-23  3.0375e-25  1.5354e-22  5.3543e-25  2.6581e-22  9.4848e-25  4.8140e-22  1.6861e-24  9.1720e-22
      6.65  6.7136e-27  2.0559e-23  6.7490e-27  2.0575e-23  6.8115e-27  2.0603e-23  6.9225e-27  2.0653e-23  7.1195e-27  2.0741e-23  7.4687e-27  2.0898e-23  8.0882e-27  2.1177e-23  9.1923e-27  2.1673e-23  1.1160e-26  2.2556e-23  1.4666e-26  2.4128e-23  2.0913e-26  2.6926e-23  3.2038e-26  3.1915e-23  5.1847e-26  4.0831e-23  8.7109e-26  5.6824e-23  1.4987e-25  8.5706e-23  2.6159e-25  1.3851e-22  4.6059e-25  2.3700e-22  8.1541e-25  4.2685e-22  1.4492e-24  8.0935e-22
      6.70  6.5493e-27  2.2502e-23  6.5797e-27  2.2516e-23  6.6336e-27  2.2541e-23  6.7292e-27  2.2586e-23  6.8990e-27  2.2665e-23  7.2008e-27  2.2806e-23  7.7373e-27  2.3056e-23  8.6934e-27  2.3501e-23  1.0399e-26  2.4293e-23  1.3441e-26  2.5702e-23  1.8862e-26  2.8211e-23  2.8524e-26  3.2685e-23  4.5733e-26  4.0681e-23  7.6376e-26  5.5023e-23  1.3093e-25  8.0938e-23  2.2807e-25  1.2827e-22  4.0115e-25  2.1675e-22  7.0989e-25  3.8740e-22  1.2618e-24  7.2993e-22
      6.75  6.4053e-27  2.4665e-23  6.4315e-27  2.4678e-23  6.4780e-27  2.4700e-23  6.5608e-27  2.4741e-23  6.7080e-27  2.4814e-23  6.9701e-27  2.4942e-23  7.4359e-27  2.5171e-23  8.2669e-27  2.5578e-23  9.7503e-27  2.6303e-23  1.2397e-26  2.7592e-23  1.7117e-26  2.9887e-23  2.5532e-26  3.3980e-23  4.0527e-26  4.1296e-23  6.7238e-26  5.4439e-23  1.1481e-25  7.8256e-23  1.9954e-25  1.2166e-22  3.5057e-25  2.0252e-22  6.2017e-25  3.5803e-22  1.1027e-24  6.7249e-22
      6.80  6.2787e-27  2.7111e-23  6.3014e-27  2.7123e-23  6.3418e-27  2.7144e-23  6.4137e-27  2.7182e-23  6.5417e-27  2.7250e-23  6.7700e-27  2.7370e-23  7.1768e-27  2.7583e-23  7.9023e-27  2.7963e-23  9.1988e-27  2.8639e-23  1.1513e-26  2.9841e-23  1.5642e-26  3.1982e-23  2.3006e-26  3.5799e-23  3.6135e-26  4.2620e-23  5.9532e-26  5.4882e-23  1.0122e-25  7.7138e-23  1.7549e-25  1.1773e-22  3.0794e-25  1.9332e-22  5.4450e-25  3.3854e-22  9.6833e-25  6.3230e-22
      6.85  6.1673e-27  2.9833e-23  6.1871e-27  2.9844e-23  6.2222e-27  2.9865e-23  6.2849e-27  2.9901e-23  6.3967e-27  2.9965e-23  6.5967e-27  3.0079e-23  6.9548e-27  3.0282e-23  7.5929e-27  3.0643e-23  8.7357e-27  3.1286e-23  1.0776e-26  3.2429e-23  1.4421e-26  3.4464e-23  2.0927e-26  3.8094e-23  3.2533e-26  4.4586e-23  5.3226e-26  5.6227e-23  9.0110e-26  7.7250e-23  1.5586e-25  1.1566e-22  2.7319e-25  1.8755e-22  4.8299e-25  3.2648e-22  8.5951e-25  6.0727e-22
      6.90  6.0692e-27  3.2862e-23  6.0864e-27  3.2873e-23  6.1172e-27  3.2893e-23  6.1720e-27  3.2928e-23  6.2701e-27  3.2990e-23  6.4462e-27  3.3101e-23  6.7623e-27  3.3298e-23  7.3264e-27  3.3649e-23  8.3385e-27  3.4273e-23  1.0146e-26  3.5382e-23  1.3381e-26  3.7358e-23  1.9164e-26  4.0881e-23  2.9488e-26  4.7176e-23  4.7904e-26  5.8491e-23  8.0746e-26  7.8906e-23  1.3934e-25  1.1638e-22  2.4399e-25  1.8603e-22  4.3140e-25  3.2007e-22  7.6871e-25  5.9602e-22
      6.95  5.9825e-27  3.6233e-23  5.9976e-27  3.6244e-23  6.0246e-27  3.6264e-23  6.0727e-27  3.6298e-23  6.1589e-27  3.6359e-23  6.3138e-27  3.6468e-23  6.5931e-27  3.6661e-23  7.0914e-27  3.7005e-23  7.9841e-27  3.7616e-23  9.5811e-27  3.8704e-23  1.2446e-26  4.0641e-23  1.7574e-26  4.4095e-23  2.6736e-26  5.0288e-23  4.3087e-26  6.1377e-23  7.2262e-26  8.1410e-23  1.2434e-25  1.1801e-22  2.1742e-25  1.8668e-22  3.8431e-25  3.2013e-22  6.8522e-25  5.8971e-22
      7.00  5.9059e-27  3.9986e-23  5.9192e-27  3.9996e-23  5.9428e-27  4.0015e-23  5.9850e-27  4.0049e-23  6.0607e-27  4.0110e-23  6.1970e-27  4.0217e-23  6.4441e-27  4.0407e-23  6.8839e-27  4.0746e-23  7.6705e-27  4.1349e-23  9.0835e-27  4.2421e-23  1.1623e-26  4.4331e-23  1.6175e-26  4.7736e-23  2.4317e-26  5.3820e-23  3.8864e-26  6.4736e-23  6.4837e-26  8.4524e-23  1.1122e-25  1.2072e-22  1.9421e-25  1.8829e-22  3.4320e-25  3.1985e-22  6.1252e-25  5.9351e-22
      7.05  5.8381e-27  4.4214e-23  5.8497e-27  4.4224e-23  5.8704e-27  4.4243e-23  5.9073e-27  4.4276e-23  5.9736e-27  4.4335e-23  6.0931e-27  4.4440e-23  6.3107e-27  4.4626e-23  6.6988e-27  4.4958e-23  7.3934e-27  4.5548e-23  8.6434e-27  4.6597e-23  1.0896e-26  4.8466e-23  1.4944e-26  5.1797e-23  2.2206e-26  5.7793e-23  3.5201e-26  6.8513e-23  5.8427e-26  8.7870e-23  9.9952e-26  1.2334e-22  1.7433e-25  1.8966e-22  3.0810e-25  3.1741e-22  5.5065e-25  5.8637e-22
      7.10  5.7779e-27  4.8922e-23  5.7880e-27  4.8932e-23  5.8060e-27  4.8950e-23  5.8381e-27  4.8981e-23  5.8957e-27  4.9037e-23  5.9998e-27  4.9137e-23  6.1893e-27  4.9314e-23  6.5300e-27  4.9630e-23  7.1404e-27  5.0191e-23  8.2375e-27  5.1189e-23  1.0218e-26  5.2965e-23  1.3801e-26  5.6134e-23  2.0251e-26  6.1794e-23  3.1823e-26  7.1948e-23  5.2542e-26  9.0289e-23  8.9635e-26  1.2386e-22  1.5618e-25  1.8642e-22  2.7620e-25  3.0993e-22  4.9468e-25  5.6280e-22
      7.15  5.7245e-27  5.4167e-23  5.7331e-27  5.4176e-23  5.7485e-27  5.4192e-23  5.7760e-27  5.4221e-23  5.8253e-27  5.4273e-23  5.9144e-27  5.4364e-23  6.0762e-27  5.4527e-23  6.3690e-27  5.4816e-23  6.8900e-27  5.5331e-23  7.8258e-27  5.6246e-23  9.5231e-27  5.7874e-23  1.2603e-26  6.0777e-23  1.8171e-26  6.5964e-23  2.8193e-26  7.5269e-23  4.6177e-26  9.2074e-23  7.8427e-26  1.2284e-22  1.3638e-25  1.8110e-22  2.4104e-25  2.9393e-22  4.3203e-25  5.2123e-22
      7.20  5.6769e-27  6.0011e-23  5.6841e-27  6.0019e-23  5.6970e-27  6.0034e-23  5.7201e-27  6.0059e-23  5.7614e-27  6.0105e-23  5.8359e-27  6.0187e-23  5.9709e-27  6.0332e-23  6.2155e-27  6.0591e-23  6.6477e-27  6.1051e-23  7.4292e-27  6.1869e-23  8.8477e-27  6.3325e-23  1.1429e-26  6.5919e-23  1.6120e-26  7.0552e-23  2.4603e-26  7.8915e-23  3.9880e-26  9.4013e-23  6.7344e-26  1.2157e-22  1.1679e-25  1.7344e-22  2.0627e-25  2.7294e-22  3.7009e-25  4.7826e-22
      7.25  5.6347e-27  6.6524e-23  5.6406e-27  6.6532e-23  5.6512e-27  6.6545e-23  5.6702e-27  6.6567e-23  5.7041e-27  6.6608e-23  5.7652e-27  6.6680e-23  5.8756e-27  6.6809e-23  6.0746e-27  6.7037e-23  6.4279e-27  6.7444e-23  7.0648e-27  6.8168e-23  8.2218e-27  6.9455e-23  1.0336e-26  7.1747e-23  1.4194e-26  7.5843e-23  2.1213e-26  8.3186e-23  3.3912e-26  9.6454e-23  5.6821e-26  1.2068e-22  9.8166e-26  1.6591e-22  1.7318e-25  2.5355e-22  3.1089e-25  4.3489e-22
      7.30  5.5973e-27  7.3851e-23  5.6022e-27  7.3857e-23  5.6108e-27  7.3868e-23  5.6262e-27  7.3889e-23  5.6538e-27  7.3924e-23  5.7035e-27  7.3988e-23  5.7930e-27  7.4101e-23  5.9539e-27  7.4303e-23  6.2409e-27  7.4662e-23  6.7567e-27  7.5300e-23  7.6911e-27  7.6435e-23  9.4053e-27  7.8457e-23  1.2555e-26  8.2068e-23  1.8325e-26  8.8542e-23  2.8835e-26  1.0023e-22  4.7897e-26  1.2179e-22  8.2432e-26  1.6172e-22  1.4533e-25  2.3996e-22  2.6119e-25  3.9781e-22
      7.35  5.5643e-27  8.2022e-23  5.5682e-27  8.2028e-23  5.5753e-27  8.2038e-23  5.5879e-27  8.2056e-23  5.6105e-27  8.2088e-23  5.6510e-27  8.2146e-23  5.7239e-27  8.2248e-23  5.8553e-27  8.2429e-23  6.0901e-27  8.2752e-23  6.5108e-27  8.3327e-23  7.2732e-27  8.4349e-23  8.6749e-27  8.6168e-23  1.1269e-26  8.9418e-23  1.6061e-26  9.5241e-23  2.4854e-26  1.0575e-22  4.0905e-26  1.2493e-22  7.0167e-26  1.6154e-22  1.2364e-25  2.3098e-22  2.2266e-25  3.7169e-22
      7.40  5.5351e-27  9.1138e-23  5.5384e-27  9.1144e-23  5.5442e-27  9.1153e-23  5.5547e-27  9.1170e-23  5.5734e-27  9.1199e-23  5.6069e-27  9.1251e-23  5.6672e-27  9.1344e-23  5.7762e-27  9.1510e-23  5.9719e-27  9.1805e-23  6.3208e-27  9.2331e-23  6.9535e-27  9.3266e-23  8.1205e-27  9.4930e-23  1.0290e-26  9.7901e-23  1.4330e-26  1.0322e-22  2.1810e-26  1.1283e-22  3.5565e-26  1.3034e-22  6.0799e-26  1.6384e-22  1.0715e-25  2.2716e-22  1.9347e-25  3.5470e-22
      7.45  5.5094e-27  1.0131e-22  5.5121e-27  1.0132e-22  5.5171e-27  1.0132e-22  5.5259e-27  1.0134e-22  5.5417e-27  1.0137e-22  5.5699e-27  1.0142e-22  5.6207e-27  1.0150e-22  5.7125e-27  1.0166e-22  5.8773e-27  1.0193e-22  6.1701e-27  1.0243e-22  6.7002e-27  1.0330e-22  7.6770e-27  1.0486e-22  9.4950e-27  1.0764e-22  1.2896e-26  1.1262e-22  1.9243e-26  1.2159e-22  3.1020e-26  1.3846e-22  5.2714e-26  1.6931e-22  9.2782e-26  2.2826e-22  1.6772e-25  3.4662e-22
      7.50  5.4866e-27  1.1267e-22  5.4890e-27  1.1267e-22  5.4932e-27  1.1268e-22  5.5008e-27  1.1269e-22  5.5144e-27  1.1272e-22  5.5386e-27  1.1277e-22  5.5823e-27  1.1285e-22  5.6612e-27  1.1300e-22  5.8032e-27  1.1326e-22  6.0545e-27  1.1373e-22  6.5089e-27  1.1457e-22  7.3446e-27  1.1606e-22  8.9016e-27  1.1872e-22  1.1831e-26  1.2362e-22  1.7333e-26  1.3232e-22  2.7617e-26  1.4816e-22  4.6717e-26  1.7758e-22  8.2202e-26  2.3374e-22  1.4892e-25  3.4607e-22
      7.55  5.4665e-27  1.2542e-22  5.4686e-27  1.2543e-22  5.4723e-27  1.2544e-22  5.4790e-27  1.2545e-22  5.4908e-27  1.2548e-22  5.5121e-27  1.2552e-22  5.5503e-27  1.2560e-22  5.6195e-27  1.2575e-22  5.7434e-27  1.2601e-22  5.9639e-27  1.2647e-22  6.3607e-27  1.2729e-22  7.0896e-27  1.2874e-22  8.4465e-27  1.3134e-22  1.1006e-26  1.3612e-22  1.5846e-26  1.4461e-22  2.4976e-26  1.6007e-22  4.2089e-26  1.8874e-22  7.4125e-26  2.4337e-22  1.3476e-25  3.5235e-22
      7.60  5.4487e-27  1.3967e-22  5.4506e-27  1.3967e-22  5.4539e-27  1.3968e-22  5.4598e-27  1.3970e-22  5.4703e-27  1.3972e-22  5.4892e-27  1.3977e-22  5.5233e-27  1.3985e-22  5.5849e-27  1.3999e-22  5.6950e-27  1.4026e-22  5.8910e-27  1.4072e-22  6.2422e-27  1.4153e-22  6.8848e-27  1.4298e-22  8.0760e-27  1.4557e-22  1.0317e-26  1.5032e-22  1.4559e-26  1.5876e-22  2.2599e-26  1.7412e-22  3.7765e-26  2.0257e-22  6.6313e-26  2.5674e-22  1.2056e-25  3.6447e-22
      7.65  5.4330e-27  1.5559e-22  5.4347e-27  1.5559e-22  5.4376e-27  1.5560e-22  5.4429e-27  1.5561e-22  5.4524e-27  1.5564e-22  5.4695e-27  1.5568e-22  5.5002e-27  1.5577e-22  5.5558e-27  1.5591e-22  5.6545e-27  1.5618e-22  5.8308e-27  1.5665e-22  6.1459e-27  1.5747e-22  6.7197e-27  1.5894e-22  7.7782e-27  1.6155e-22  9.7583e-27  1.6624e-22  1.3509e-26  1.7486e-22  2.0633e-26  1.9037e-22  3.4141e-26  2.1905e-22  5.9706e-26  2.7359e-22  1.0849e-25  3.8178e-22
      7.70  5.4191e-27  1.7337e-22  5.4206e-27  1.7337e-22  5.4233e-27  1.7338e-22  5.4281e-27  1.7339e-22  5.4367e-27  1.7342e-22  5.4522e-27  1.7347e-22  5.4801e-27  1.7355e-22  5.5307e-27  1.7370e-22  5.6201e-27  1.7398e-22  5.7797e-27  1.7446e-22  6.0651e-27  1.7530e-22  6.5821e-27  1.7680e-22  7.5312e-27  1.7948e-22  9.2977e-27  1.8428e-22  1.2630e-26  1.9292e-22  1.8971e-26  2.0891e-22  3.1034e-26  2.3818e-22  5.3979e-26  2.9376e-22  9.7937e-26  4.0378e-22
      7.75  5.4068e-27  1.9324e-22  5.4081e-27  1.9324e-22  5.4106e-27  1.9325e-22  5.4150e-27  1.9326e-22  5.4228e-27  1.9329e-22  5.4370e-27  1.9334e-22  5.4625e-27  1.9343e-22  5.5087e-27  1.9358e-22  5.5902e-27  1.9387e-22  5.7357e-27  1.9437e-22  5.9955e-27  1.9524e-22  6.4643e-27  1.9679e-22  7.3207e-27  1.9956e-22  8.9061e-27  2.0451e-22  1.1883e-26  2.1343e-22  1.7535e-26  2.2965e-22  2.8322e-26  2.6001e-22  4.8918e-26  3.1715e-22  8.8537e-26  4.3003e-22
      7.80  5.3958e-27  2.1555e-22  5.3971e-27  2.1555e-22  5.3993e-27  2.1556e-22  5.4033e-27  2.1558e-22  5.4105e-27  2.1561e-22  5.4234e-27  2.1566e-22  5.4468e-27  2.1575e-22  5.4891e-27  2.1591e-22  5.5636e-27  2.1621e-22  5.6964e-27  2.1673e-22  5.9334e-27  2.1764e-22  6.3598e-27  2.1925e-22  7.1352e-27  2.2213e-22  8.5630e-27  2.2728e-22  1.1230e-26  2.3656e-22  1.6278e-26  2.5341e-22  2.5914e-26  2.8450e-22  4.4392e-26  3.4401e-22  8.0069e-26  4.6064e-22
      7.85  5.3861e-27  2.4049e-22  5.3873e-27  2.4050e-22  5.3893e-27  2.4051e-22  5.3930e-27  2.4052e-22  5.3996e-27  2.4055e-22  5.4114e-27  2.4061e-22  5.4327e-27  2.4070e-22  5.4714e-27  2.4087e-22  5.5395e-27  2.4119e-22  5.6605e-27  2.4173e-22  5.8766e-27  2.4268e-22  6.2644e-27  2.4436e-22  6.9667e-27  2.4737e-22  8.2536e-27  2.5274e-22  1.0645e-26  2.6241e-22  1.5153e-26  2.7997e-22  2.3753e-26  3.1234e-22  4.0287e-26  3.7406e-22  7.2344e-26  4.9494e-22
      7.90  5.3776e-27  2.6838e-22  5.3786e-27  2.6839e-22  5.3805e-27  2.6840e-22  5.3838e-27  2.6842e-22  5.3897e-27  2.6845e-22  5.4005e-27  2.6850e-22  5.4199e-27  2.6860e-22  5.4551e-27  2.6879e-22  5.5170e-27  2.6912e-22  5.6268e-27  2.6969e-22  5.8227e-27  2.7068e-22  6.1735e-27  2.7244e-22  6.8066e-27  2.7557e-22  7.9609e-27  2.8118e-22  1.0093e-26  2.9127e-22  1.4091e-26  3.0957e-22  2.1694e-26  3.4330e-22  3.6316e-26  4.0698e-22  6.4759e-26  5.3272e-22
      7.95  5.3699e-27  2.9958e-22  5.3709e-27  2.9958e-22  5.3725e-27  2.9959e-22  5.3756e-27  2.9961e-22  5.3809e-27  2.9964e-22  5.3906e-27  2.9970e-22  5.4082e-27  2.9980e-22  5.4400e-27  3.0001e-22  5.4959e-27  3.0036e-22  5.5950e-27  3.0095e-22  5.7715e-27  3.0198e-22  6.0871e-27  3.0382e-22  6.6549e-27  3.0708e-22  7.6864e-27  3.1293e-22  9.5773e-27  3.2344e-22  1.3102e-26  3.4250e-22  1.9771e-26  3.7759e-22  3.2568e-26  4.4373e-22  5.7464e-26  5.7380e-22
      8.00  5.3631e-27  3.3447e-22  5.3640e-27  3.3447e-22  5.3655e-27  3.3448e-22  5.3682e-27  3.3450e-22  5.3730e-27  3.3453e-22  5.3817e-27  3.3459e-22  5.3975e-27  3.3470e-22  5.4261e-27  3.3492e-22  5.4763e-27  3.3529e-22  5.5650e-27  3.3591e-22  5.7229e-27  3.3699e-22  6.0054e-27  3.3890e-22  6.5113e-27  3.4230e-22  7.4274e-27  3.4838e-22  9.0994e-27  3.5932e-22  1.2188e-26  3.7914e-22  1.8009e-26  4.1558e-22  2.9125e-26  4.8417e-22  5.0707e-26  6.1849e-22
      8.05  5.3571e-27  3.7363e-22  5.3579e-27  3.7363e-22  5.3592e-27  3.7365e-22  5.3616e-27  3.7367e-22  5.3659e-27  3.7370e-22  5.3737e-27  3.7376e-22  5.3877e-27  3.7387e-22  5.4133e-27  3.7412e-22  5.4580e-27  3.7451e-22  5.5370e-27  3.7515e-22  5.6773e-27  3.7628e-22  5.9280e-27  3.7827e-22  6.3764e-27  3.8182e-22  7.1849e-27  3.8815e-22  8.6547e-27  3.9954e-22  1.1362e-26  4.2016e-22  1.6416e-26  4.5802e-22  2.6028e-26  5.2916e-22  4.4631e-26  6.6763e-22
      8.10  5.3517e-27  4.1745e-22  5.3524e-27  4.1746e-22  5.3536e-27  4.1747e-22  5.3557e-27  4.1749e-22  5.3595e-27  4.1752e-22  5.3664e-27  4.1759e-22  5.3787e-27  4.1771e-22  5.4015e-27  4.1797e-22  5.4412e-27  4.1838e-22  5.5110e-27  4.1906e-22  5.6349e-27  4.2024e-22  5.8558e-27  4.2232e-22  6.2510e-27  4.2601e-22  6.9614e-27  4.3261e-22  8.2481e-27  4.4446e-22  1.0604e-26  4.6590e-22  1.4981e-26  5.0524e-22  2.3255e-26  5.7897e-22  3.9198e-26  7.2206e-22
      8.15  5.3469e-27  4.6649e-22  5.3475e-27  4.6649e-22  5.3485e-27  4.6651e-22  5.3504e-27  4.6653e-22  5.3538e-27  4.6657e-22  5.3598e-27  4.6663e-22  5.3706e-27  4.6675e-22  5.3909e-27  4.6705e-22  5.4259e-27  4.6749e-22  5.4873e-27  4.6820e-22  5.5962e-27  4.6943e-22  5.7901e-27  4.7160e-22  6.1365e-27  4.7545e-22  6.7579e-27  4.8233e-22  7.8796e-27  4.9468e-22  9.9238e-27  5.1701e-22  1.3699e-26  5.5791e-22  2.0787e-26  6.3441e-22  3.4364e-26  7.8235e-22
      8.20  5.3426e-27  5.2137e-22  5.3431e-27  5.2138e-22  5.3440e-27  5.2139e-22  5.3456e-27  5.2141e-22  5.3486e-27  5.2145e-22  5.3539e-27  5.2152e-22  5.3634e-27  5.2165e-22  5.3813e-27  5.2197e-22  5.4122e-27  5.2245e-22  5.4661e-27  5.2320e-22  5.5614e-27  5.2449e-22  5.7311e-27  5.2676e-22  6.0337e-27  5.3079e-22  6.5758e-27  5.3798e-22  7.5519e-27  5.5087e-22  9.3238e-27  5.7418e-22  1.2579e-26  6.1680e-22  1.8655e-26  6.9633e-22  3.0222e-26  8.4958e-22
      8.25  5.3387e-27  5.8280e-22  5.3391e-27  5.8280e-22  5.3399e-27  5.8282e-22  5.3414e-27  5.8284e-22  5.3439e-27  5.8288e-22  5.3485e-27  5.8296e-22  5.3568e-27  5.8309e-22  5.3728e-27  5.8345e-22  5.4000e-27  5.8397e-22  5.4472e-27  5.8477e-22  5.5305e-27  5.8613e-22  5.6786e-27  5.8851e-22  5.9429e-27  5.9274e-22  6.4151e-27  6.0028e-22  7.2640e-27  6.1379e-22  8.8002e-27  6.3819e-22  1.1610e-26  6.8275e-22  1.6826e-26  7.6571e-22  2.6698e-26  9.2496e-22
      8.30  5.3351e-27  6.5173e-22  5.3355e-27  6.5174e-22  5.3362e-27  6.5175e-22  5.3375e-27  6.5178e-22  5.3397e-27  6.5182e-22  5.3438e-27  6.5190e-22  5.3510e-27  6.5204e-22  5.3653e-27  6.5245e-22  5.3893e-27  6.5302e-22  5.4306e-27  6.5388e-22  5.5035e-27  6.5532e-22  5.6328e-27  6.5784e-22  5.8632e-27  6.6230e-22  6.2750e-27  6.7025e-22  7.0140e-27  6.8450e-22  8.3470e-27  7.1019e-22  1.0777e-26  7.5706e-22  1.5266e-26  8.4411e-22  2.3715e-26  1.0106e-21
      8.35  5.3319e-27  7.2891e-22  5.3323e-27  7.2892e-22  5.3329e-27  7.2893e-22  5.3340e-27  7.2896e-22  5.3359e-27  7.2901e-22  5.3395e-27  7.2909e-22  5.3457e-27  7.2924e-22  5.3586e-27  7.2971e-22  5.3799e-27  7.3034e-22  5.4162e-27  7.3127e-22  5.4799e-27  7.3281e-22  5.5930e-27  7.3548e-22  5.7942e-27  7.4021e-22  6.1534e-27  7.4863e-22  6.7971e-27  7.6372e-22  7.9571e-27  7.9091e-22  1.0063e-26  8.4043e-22  1.3938e-26  9.3218e-22  2.1191e-26  1.1070e-21
      8.40  5.3289e-27  8.1532e-22  5.3292e-27  8.1533e-22  5.3298e-27  8.1535e-22  5.3307e-27  8.1538e-22  5.3325e-27  8.1543e-22  5.3355e-27  8.1552e-22  5.3410e-27  8.1567e-22  5.3527e-27  8.1622e-22  5.3717e-27  8.1693e-22  5.4037e-27  8.1794e-22  5.4596e-27  8.1958e-22  5.5586e-27  8.2244e-22  5.7347e-27  8.2747e-22  6.0489e-27  8.3644e-22  6.6112e-27  8.5249e-22  7.6224e-27  8.8140e-22  9.4543e-27  9.3396e-22  1.2811e-26  1.0311e-21  1.9064e-26  1.2157e-21
      8.45  5.3261e-27  9.1208e-22  5.3264e-27  9.1209e-22  5.3269e-27  9.1211e-22  5.3277e-27  9.1214e-22  5.3293e-27  9.1219e-22  5.3320e-27  9.1229e-22  5.3368e-27  9.1246e-22  5.3475e-27  9.1310e-22  5.3646e-27  9.1390e-22  5.3929e-27  9.1501e-22  5.4421e-27  9.1678e-22  5.5292e-27  9.1984e-22  5.6839e-27  9.2523e-22  5.9597e-27  9.3482e-22  6.4528e-27  9.5197e-22  7.3381e-27  9.8284e-22  8.9383e-27  1.0389e-21  1.1860e-26  1.1423e-21  1.7278e-26  1.3380e-21
      8.50  5.3235e-27  1.0204e-21  5.3238e-27  1.0204e-21  5.3242e-27  1.0205e-21  5.3249e-27  1.0205e-21  5.3263e-27  1.0206e-21  5.3286e-27  1.0207e-21  5.3329e-27  1.0208e-21  5.3429e-27  1.0216e-21  5.3584e-27  1.0225e-21  5.3836e-27  1.0237e-21  5.4272e-27  1.0257e-21  5.5040e-27  1.0290e-21  5.6404e-27  1.0347e-21  5.8835e-27  1.0450e-21  6.3177e-27  1.0635e-21  7.0962e-27  1.0966e-21  8.5006e-27  1.1566e-21  1.1057e-26  1.2671e-21  1.5778e-26  1.4756e-21
