# This was generated using Cloudy10 and the columns are ordered 
# as log10 of the fraction of the metallicity to the solar metallicity
# 'h_*_Z' and 'c_*_Z' stands for cooling and heating respectively 
# at * metalicity
#
# NOTE: This was generated separately from loop_coolingcurve_w_UV.py
#       using Output_metals_w_redshift.py.
#
# Redshift = 5.5
# hden = -5.5
#
#     temp   h_-3.00_Z   c_-3.00_Z   h_-2.75_Z   c_-2.75_Z   h_-2.50_Z   c_-2.50_Z   h_-2.25_Z   c_-2.25_Z   h_-2.00_Z   c_-2.00_Z   h_-1.75_Z   c_-1.75_Z   h_-1.50_Z   c_-1.50_Z   h_-1.25_Z   c_-1.25_Z   h_-1.00_Z   c_-1.00_Z   h_-0.75_Z   c_-0.75_Z   h_-0.50_Z   c_-0.50_Z   h_-0.25_Z   c_-0.25_Z    h_0.00_Z    c_0.00_Z    h_0.25_Z    c_0.25_Z    h_0.50_Z    c_0.50_Z    h_0.75_Z    c_0.75_Z    h_1.00_Z    c_1.00_Z    h_1.25_Z    c_1.25_Z    h_1.50_Z    c_1.50_Z 
      1.00  4.3822e-22  9.5845e-26  4.3825e-22  9.5846e-26  4.3832e-22  9.5847e-26  4.3843e-22  9.5849e-26  4.3864e-22  9.5854e-26  4.3900e-22  9.5861e-26  4.3965e-22  9.5874e-26  4.4079e-22  9.5898e-26  4.4283e-22  9.5940e-26  4.4644e-22  9.6015e-26  4.5284e-22  9.6148e-26  4.6414e-22  9.6384e-26  4.8402e-22  9.6804e-26  5.1887e-22  9.7548e-26  5.8019e-22  9.8868e-26  6.8879e-22  1.0122e-25  8.8382e-22  1.0544e-25  1.2331e-21  1.1303e-25  1.8616e-21  1.2677e-25
      1.05  4.1613e-22  1.0333e-25  4.1617e-22  1.0333e-25  4.1623e-22  1.0333e-25  4.1635e-22  1.0333e-25  4.1655e-22  1.0334e-25  4.1690e-22  1.0335e-25  4.1754e-22  1.0336e-25  4.1867e-22  1.0339e-25  4.2067e-22  1.0343e-25  4.2422e-22  1.0351e-25  4.3051e-22  1.0365e-25  4.4163e-22  1.0391e-25  4.6118e-22  1.0435e-25  4.9546e-22  1.0515e-25  5.5578e-22  1.0656e-25  6.6238e-22  1.0907e-25  8.5395e-22  1.1358e-25  1.1971e-21  1.2168e-25  1.8148e-21  1.3637e-25
      1.10  3.9515e-22  1.1150e-25  3.9518e-22  1.1150e-25  3.9525e-22  1.1150e-25  3.9536e-22  1.1151e-25  3.9555e-22  1.1151e-25  3.9591e-22  1.1152e-25  3.9653e-22  1.1154e-25  3.9764e-22  1.1156e-25  3.9961e-22  1.1161e-25  4.0311e-22  1.1170e-25  4.0930e-22  1.1185e-25  4.2024e-22  1.1212e-25  4.3949e-22  1.1260e-25  4.7324e-22  1.1346e-25  5.3264e-22  1.1498e-25  6.3742e-22  1.1769e-25  8.2576e-22  1.2255e-25  1.1633e-21  1.3129e-25  1.7709e-21  1.4715e-25
      1.15  3.7520e-22  1.2043e-25  3.7523e-22  1.2043e-25  3.7529e-22  1.2043e-25  3.7540e-22  1.2044e-25  3.7560e-22  1.2044e-25  3.7594e-22  1.2045e-25  3.7656e-22  1.2047e-25  3.7765e-22  1.2050e-25  3.7959e-22  1.2055e-25  3.8304e-22  1.2065e-25  3.8914e-22  1.2081e-25  3.9991e-22  1.2111e-25  4.1888e-22  1.2165e-25  4.5211e-22  1.2259e-25  5.1064e-22  1.2427e-25  6.1370e-22  1.2727e-25  7.9903e-22  1.3264e-25  1.1313e-21  1.4233e-25  1.7294e-21  1.5996e-25
      1.20  3.5622e-22  1.3020e-25  3.5625e-22  1.3020e-25  3.5631e-22  1.3020e-25  3.5642e-22  1.3020e-25  3.5661e-22  1.3021e-25  3.5695e-22  1.3022e-25  3.5756e-22  1.3024e-25  3.5864e-22  1.3028e-25  3.6055e-22  1.3034e-25  3.6394e-22  1.3045e-25  3.6996e-22  1.3065e-25  3.8058e-22  1.3100e-25  3.9927e-22  1.3162e-25  4.3203e-22  1.3272e-25  4.8970e-22  1.3469e-25  5.9124e-22  1.3820e-25  7.7361e-22  1.4452e-25  1.1008e-21  1.5594e-25  1.6900e-21  1.7685e-25
      1.25  3.3816e-22  1.4094e-25  3.3819e-22  1.4094e-25  3.3825e-22  1.4095e-25  3.3836e-22  1.4095e-25  3.3854e-22  1.4096e-25  3.3888e-22  1.4097e-25  3.3948e-22  1.4100e-25  3.4053e-22  1.4104e-25  3.4242e-22  1.4112e-25  3.4575e-22  1.4127e-25  3.5166e-22  1.4152e-25  3.6211e-22  1.4197e-25  3.8049e-22  1.4278e-25  4.1270e-22  1.4421e-25  4.6941e-22  1.4677e-25  5.6922e-22  1.5134e-25  7.4832e-22  1.5959e-25  1.0698e-21  1.7461e-25  1.6489e-21  2.0241e-25
      1.30  3.2096e-22  1.5414e-25  3.2100e-22  1.5414e-25  3.2106e-22  1.5415e-25  3.2116e-22  1.5415e-25  3.2135e-22  1.5417e-25  3.2167e-22  1.5419e-25  3.2226e-22  1.5422e-25  3.2330e-22  1.5429e-25  3.2515e-22  1.5441e-25  3.2843e-22  1.5462e-25  3.3424e-22  1.5499e-25  3.4451e-22  1.5565e-25  3.6259e-22  1.5682e-25  3.9428e-22  1.5892e-25  4.5003e-22  1.6267e-25  5.4815e-22  1.6940e-25  7.2407e-22  1.8162e-25  1.0400e-21  2.0402e-25  1.6093e-21  2.4606e-25
      1.35  3.0459e-22  1.6842e-25  3.0462e-22  1.6842e-25  3.0468e-22  1.6843e-25  3.0478e-22  1.6844e-25  3.0496e-22  1.6845e-25  3.0529e-22  1.6849e-25  3.0586e-22  1.6855e-25  3.0689e-22  1.6865e-25  3.0871e-22  1.6884e-25  3.1193e-22  1.6917e-25  3.1765e-22  1.6976e-25  3.2775e-22  1.7081e-25  3.4554e-22  1.7268e-25  3.7672e-22  1.7603e-25  4.3155e-22  1.8202e-25  5.2801e-22  1.9284e-25  7.0091e-22  2.1253e-25  1.0115e-21  2.4894e-25  1.5714e-21  3.1815e-25
      1.40  2.8898e-22  1.8390e-25  2.8902e-22  1.8390e-25  2.8907e-22  1.8391e-25  2.8917e-22  1.8393e-25  2.8935e-22  1.8396e-25  2.8967e-22  1.8402e-25  2.9024e-22  1.8411e-25  2.9125e-22  1.8429e-25  2.9304e-22  1.8459e-25  2.9621e-22  1.8514e-25  3.0184e-22  1.8612e-25  3.1178e-22  1.8785e-25  3.2928e-22  1.9095e-25  3.5996e-22  1.9650e-25  4.1391e-22  2.0645e-25  5.0877e-22  2.2446e-25  6.7886e-22  2.5737e-25  9.8422e-22  3.1861e-25  1.5350e-21  4.3617e-25
      1.45  2.7411e-22  2.0074e-25  2.7414e-22  2.0075e-25  2.7420e-22  2.0076e-25  2.7430e-22  2.0079e-25  2.7447e-22  2.0084e-25  2.7479e-22  2.0093e-25  2.7534e-22  2.0109e-25  2.7633e-22  2.0138e-25  2.7809e-22  2.0188e-25  2.8122e-22  2.0278e-25  2.8675e-22  2.0439e-25  2.9652e-22  2.0725e-25  3.1373e-22  2.1235e-25  3.4392e-22  2.2150e-25  3.9695e-22  2.3794e-25  4.9017e-22  2.6775e-25  6.5745e-22  3.2239e-25  9.5753e-22  4.2454e-25  1.4990e-21  6.2210e-25
      1.50  2.5993e-22  2.1910e-25  2.5996e-22  2.1911e-25  2.6001e-22  2.1914e-25  2.6011e-22  2.1918e-25  2.6028e-22  2.1926e-25  2.6059e-22  2.1941e-25  2.6114e-22  2.1966e-25  2.6212e-22  2.2012e-25  2.6385e-22  2.2093e-25  2.6692e-22  2.2237e-25  2.7236e-22  2.2494e-25  2.8197e-22  2.2952e-25  2.9891e-22  2.3770e-25  3.2861e-22  2.5236e-25  3.8077e-22  2.7875e-25  4.7243e-22  3.2668e-25  6.3699e-22  4.1470e-25  9.3202e-22  5.7983e-25  1.4646e-21  9.0094e-25
      1.55  2.4641e-22  2.3917e-25  2.4644e-22  2.3920e-25  2.4649e-22  2.3923e-25  2.4659e-22  2.3930e-25  2.4676e-22  2.3943e-25  2.4706e-22  2.3965e-25  2.4760e-22  2.4005e-25  2.4856e-22  2.4075e-25  2.5026e-22  2.4200e-25  2.5328e-22  2.4422e-25  2.5864e-22  2.4817e-25  2.6810e-22  2.5523e-25  2.8477e-22  2.6784e-25  3.1400e-22  2.9044e-25  3.6533e-22  3.3118e-25  4.5555e-22  4.0525e-25  6.1751e-22  5.4148e-25  9.0767e-22  7.9780e-25  1.4317e-21  1.2982e-24
      1.60  2.3351e-22  2.6116e-25  2.3354e-22  2.6119e-25  2.3359e-22  2.6125e-25  2.3368e-22  2.6135e-25  2.3385e-22  2.6153e-25  2.3415e-22  2.6186e-25  2.3468e-22  2.6244e-25  2.3562e-22  2.6348e-25  2.3730e-22  2.6532e-25  2.4027e-22  2.6861e-25  2.4554e-22  2.7445e-25  2.5485e-22  2.8488e-25  2.7126e-22  3.0352e-25  3.0004e-22  3.3694e-25  3.5055e-22  3.9724e-25  4.3937e-22  5.0697e-25  5.9875e-22  7.0904e-25  8.8414e-22  1.0902e-24  1.3999e-21  1.8367e-24
      1.65  2.2120e-22  2.8527e-25  2.2123e-22  2.8532e-25  2.2128e-22  2.8540e-25  2.2138e-22  2.8554e-25  2.2154e-22  2.8581e-25  2.2184e-22  2.8627e-25  2.2236e-22  2.8710e-25  2.2329e-22  2.8857e-25  2.2493e-22  2.9118e-25  2.2786e-22  2.9583e-25  2.3305e-22  3.0412e-25  2.4221e-22  3.1891e-25  2.5837e-22  3.4534e-25  2.8671e-22  3.9277e-25  3.3642e-22  4.7837e-25  4.2391e-22  6.3428e-25  5.8075e-22  9.2172e-25  8.6161e-22  1.4650e-24  1.3692e-21  2.5319e-24
      1.70  2.0946e-22  3.1176e-25  2.0949e-22  3.1183e-25  2.0954e-22  3.1194e-25  2.0964e-22  3.1214e-25  2.0980e-22  3.1249e-25  2.1009e-22  3.1313e-25  2.1060e-22  3.1425e-25  2.1151e-22  3.1626e-25  2.1314e-22  3.1982e-25  2.1602e-22  3.2616e-25  2.2112e-22  3.3746e-25  2.3015e-22  3.5761e-25  2.4605e-22  3.9364e-25  2.7396e-22  4.5832e-25  3.2290e-22  5.7511e-25  4.0909e-22  7.8799e-25  5.6346e-22  1.1809e-24  8.3995e-22  1.9247e-24  1.3397e-21  3.3891e-24
      1.75  1.9827e-22  3.4092e-25  1.9829e-22  3.4100e-25  1.9834e-22  3.4115e-25  1.9843e-22  3.4141e-25  1.9859e-22  3.4188e-25  1.9888e-22  3.4271e-25  1.9938e-22  3.4419e-25  2.0028e-22  3.4682e-25  2.0188e-22  3.5149e-25  2.0472e-22  3.5982e-25  2.0974e-22  3.7466e-25  2.1862e-22  4.0113e-25  2.3428e-22  4.4848e-25  2.6176e-22  5.3348e-25  3.0993e-22  6.8705e-25  3.9483e-22  9.6713e-25  5.4674e-22  1.4846e-24  8.1893e-22  2.4658e-24  1.3108e-21  4.4017e-24
      1.80  1.8758e-22  3.7307e-25  1.8761e-22  3.7318e-25  1.8766e-22  3.7336e-25  1.8775e-22  3.7370e-25  1.8791e-22  3.7429e-25  1.8819e-22  3.7535e-25  1.8869e-22  3.7722e-25  1.8957e-22  3.8056e-25  1.9114e-22  3.8650e-25  1.9393e-22  3.9708e-25  1.9887e-22  4.1593e-25  2.0762e-22  4.4957e-25  2.2303e-22  5.0973e-25  2.5007e-22  6.1777e-25  2.9747e-22  8.1308e-25  3.8108e-22  1.1694e-24  5.3053e-22  1.8284e-24  7.9846e-22  3.0797e-24  1.2826e-21  5.5533e-24
      1.85  1.7740e-22  4.0854e-25  1.7743e-22  4.0867e-25  1.7747e-22  4.0890e-25  1.7756e-22  4.0931e-25  1.7772e-22  4.1005e-25  1.7799e-22  4.1135e-25  1.7848e-22  4.1367e-25  1.7935e-22  4.1779e-25  1.8090e-22  4.2512e-25  1.8364e-22  4.3818e-25  1.8850e-22  4.6145e-25  1.9710e-22  5.0297e-25  2.1226e-22  5.7725e-25  2.3887e-22  7.1070e-25  2.8548e-22  9.5201e-25  3.6781e-22  1.3924e-24  5.1477e-22  2.2077e-24  7.7841e-22  3.7573e-24  1.2548e-21  6.8260e-24
      1.90  1.6768e-22  4.4772e-25  1.6771e-22  4.4787e-25  1.6776e-22  4.4815e-25  1.6785e-22  4.4865e-25  1.6800e-22  4.4953e-25  1.6827e-22  4.5110e-25  1.6875e-22  4.5390e-25  1.6961e-22  4.5887e-25  1.7112e-22  4.6772e-25  1.7382e-22  4.8348e-25  1.7860e-22  5.1155e-25  1.8705e-22  5.6165e-25  2.0196e-22  6.5130e-25  2.2812e-22  8.1239e-25  2.7394e-22  1.1038e-24  3.5497e-22  1.6357e-24  4.9941e-22  2.6210e-24  7.5872e-22  4.4950e-24  1.2274e-21  8.2110e-24
      1.95  1.5843e-22  4.9103e-25  1.5845e-22  4.9122e-25  1.5850e-22  4.9155e-25  1.5858e-22  4.9214e-25  1.5873e-22  4.9319e-25  1.5900e-22  4.9506e-25  1.5947e-22  4.9838e-25  1.6031e-22  5.0428e-25  1.6180e-22  5.1479e-25  1.6445e-22  5.3351e-25  1.6915e-22  5.6686e-25  1.7746e-22  6.2638e-25  1.9211e-22  7.3290e-25  2.1782e-22  9.2432e-25  2.6284e-22  1.2706e-24  3.4256e-22  1.9027e-24  4.8448e-22  3.0740e-24  7.3944e-22  5.3023e-24  1.2003e-21  9.7229e-24
      2.00  1.4960e-22  5.3897e-25  1.4963e-22  5.3919e-25  1.4967e-22  5.3958e-25  1.4976e-22  5.4028e-25  1.4990e-22  5.4152e-25  1.5016e-22  5.4372e-25  1.5063e-22  5.4763e-25  1.5146e-22  5.5460e-25  1.5292e-22  5.6700e-25  1.5552e-22  5.8907e-25  1.6014e-22  6.2840e-25  1.6830e-22  6.9859e-25  1.8270e-22  8.2421e-25  2.0797e-22  1.0500e-24  2.5220e-22  1.4584e-24  3.3061e-22  2.2034e-24  4.7005e-22  3.5840e-24  7.2075e-22  6.2087e-24  1.1739e-21  1.1413e-23
      2.05  1.4120e-22  5.9213e-25  1.4122e-22  5.9239e-25  1.4127e-22  5.9285e-25  1.4135e-22  5.9368e-25  1.4149e-22  5.9514e-25  1.4175e-22  5.9774e-25  1.4221e-22  6.0236e-25  1.4302e-22  6.1058e-25  1.4446e-22  6.2522e-25  1.4702e-22  6.5127e-25  1.5155e-22  6.9770e-25  1.5958e-22  7.8056e-25  1.7373e-22  9.2882e-25  1.9858e-22  1.1952e-24  2.4207e-22  1.6770e-24  3.1918e-22  2.5553e-24  4.5624e-22  4.1815e-24  7.0284e-22  7.2681e-24  1.1485e-21  1.3377e-23
      2.10  1.3319e-22  6.5108e-25  1.3322e-22  6.5139e-25  1.3326e-22  6.5194e-25  1.3334e-22  6.5292e-25  1.3348e-22  6.5465e-25  1.3374e-22  6.5774e-25  1.3419e-22  6.6324e-25  1.3498e-22  6.7302e-25  1.3640e-22  6.9043e-25  1.3892e-22  7.2142e-25  1.4338e-22  7.7663e-25  1.5128e-22  8.7516e-25  1.6520e-22  1.0514e-24  1.8966e-22  1.3680e-24  2.3247e-22  1.9403e-24  3.0834e-22  2.9824e-24  4.4317e-22  4.9090e-24  6.8593e-22  8.5569e-24  1.1246e-21  1.5753e-23
      2.15  1.2557e-22  7.1650e-25  1.2560e-22  7.1687e-25  1.2564e-22  7.1753e-25  1.2572e-22  7.1870e-25  1.2586e-22  7.2079e-25  1.2611e-22  7.2451e-25  1.2655e-22  7.3112e-25  1.2734e-22  7.4288e-25  1.2874e-22  7.6380e-25  1.3121e-22  8.0104e-25  1.3561e-22  8.6740e-25  1.4339e-22  9.8580e-25  1.5710e-22  1.1975e-24  1.8121e-22  1.5777e-24  2.2342e-22  2.2642e-24  2.9813e-22  3.5129e-24  4.3098e-22  5.8164e-24  6.7016e-22  1.0164e-23  1.1025e-21  1.8700e-23
      2.20  1.1833e-22  7.8915e-25  1.1835e-22  7.8960e-25  1.1840e-22  7.9040e-25  1.1847e-22  7.9183e-25  1.1861e-22  7.9436e-25  1.1886e-22  7.9887e-25  1.1929e-22  8.0690e-25  1.2007e-22  8.2117e-25  1.2144e-22  8.4656e-25  1.2389e-22  8.9176e-25  1.2822e-22  9.7229e-25  1.3589e-22  1.1159e-24  1.4943e-22  1.3727e-24  1.7322e-22  1.8335e-24  2.1489e-22  2.6647e-24  2.8854e-22  4.1750e-24  4.1962e-22  6.9535e-24  6.5555e-22  1.2179e-23  1.0821e-21  2.2381e-23
      2.25  1.1144e-22  8.6990e-25  1.1146e-22  8.7045e-25  1.1151e-22  8.7143e-25  1.1158e-22  8.7317e-25  1.1172e-22  8.7626e-25  1.1196e-22  8.8177e-25  1.1239e-22  8.9157e-25  1.1315e-22  9.0900e-25  1.1451e-22  9.4001e-25  1.1693e-22  9.9520e-25  1.2121e-22  1.0935e-24  1.2878e-22  1.2688e-24  1.4215e-22  1.5822e-24  1.6566e-22  2.1440e-24  2.0684e-22  3.1565e-24  2.7950e-22  4.9939e-24  4.0897e-22  8.3650e-24  6.4191e-22  1.4682e-23  1.0633e-21  2.6940e-23
      2.30  1.0489e-22  9.5978e-25  1.0491e-22  9.6046e-25  1.0496e-22  9.6165e-25  1.0503e-22  9.6378e-25  1.0517e-22  9.6757e-25  1.0541e-22  9.7431e-25  1.0583e-22  9.8630e-25  1.0659e-22  1.0076e-24  1.0793e-22  1.0455e-24  1.1031e-22  1.1131e-24  1.1454e-22  1.2333e-24  1.2202e-22  1.4477e-24  1.3523e-22  1.8306e-24  1.5847e-22  2.5168e-24  1.9919e-22  3.7524e-24  2.7091e-22  5.9919e-24  3.9886e-22  1.0090e-23  6.2898e-22  1.7742e-23  1.0454e-21  3.2501e-23
      2.35  9.8674e-23  1.0598e-24  9.8698e-23  1.0606e-24  9.8740e-23  1.0621e-24  9.8814e-23  1.0647e-24  9.8947e-23  1.0693e-24  9.9183e-23  1.0775e-24  9.9603e-23  1.0922e-24  1.0035e-22  1.1182e-24  1.0167e-22  1.1645e-24  1.0403e-22  1.2469e-24  1.0820e-22  1.3936e-24  1.1559e-22  1.6552e-24  1.2865e-22  2.1223e-24  1.5162e-22  2.9589e-24  1.9188e-22  4.4639e-24  2.6267e-22  7.1889e-24  3.8914e-22  1.2164e-23  6.1647e-22  2.1422e-23  1.0281e-21  3.9181e-23
      2.40  9.2774e-23  1.1711e-24  9.2797e-23  1.1721e-24  9.2838e-23  1.1739e-24  9.2912e-23  1.1771e-24  9.3043e-23  1.1827e-24  9.3276e-23  1.1927e-24  9.3690e-23  1.2105e-24  9.4427e-23  1.2421e-24  9.5735e-23  1.2984e-24  9.8059e-23  1.3985e-24  1.0218e-22  1.5767e-24  1.0948e-22  1.8945e-24  1.2237e-22  2.4617e-24  1.4506e-22  3.4771e-24  1.8485e-22  5.3024e-24  2.5470e-22  8.6043e-24  3.7965e-22  1.4620e-23  6.0416e-22  2.5783e-23  1.0108e-21  4.7091e-23
      2.45  8.7177e-23  1.2952e-24  8.7200e-23  1.2964e-24  8.7241e-23  1.2985e-24  8.7314e-23  1.3023e-24  8.7443e-23  1.3091e-24  8.7673e-23  1.3212e-24  8.8082e-23  1.3427e-24  8.8808e-23  1.3809e-24  9.0099e-23  1.4488e-24  9.2392e-23  1.5697e-24  9.6459e-23  1.7849e-24  1.0366e-22  2.1685e-24  1.1639e-22  2.8531e-24  1.3878e-22  4.0781e-24  1.7807e-22  6.2788e-24  2.4695e-22  1.0257e-23  3.7032e-22  1.7492e-23  5.9189e-22  3.0885e-23  9.9350e-22  5.6343e-23
      2.50  8.1873e-23  1.4334e-24  8.1896e-23  1.4348e-24  8.1936e-23  1.4374e-24  8.2008e-23  1.4420e-24  8.2135e-23  1.4501e-24  8.2362e-23  1.4646e-24  8.2765e-23  1.4903e-24  8.3481e-23  1.5361e-24  8.4753e-23  1.6175e-24  8.7013e-23  1.7624e-24  9.1022e-23  2.0204e-24  9.8124e-23  2.4801e-24  1.1067e-22  3.3005e-24  1.3276e-22  4.7680e-24  1.7151e-22  7.4030e-24  2.3942e-22  1.2162e-23  3.6111e-22  2.0809e-23  5.7960e-22  3.6783e-23  9.7600e-22  6.7038e-23
      2.55  7.6849e-23  1.5876e-24  7.6872e-23  1.5893e-24  7.6911e-23  1.5924e-24  7.6982e-23  1.5978e-24  7.7107e-23  1.6075e-24  7.7331e-23  1.6247e-24  7.7727e-23  1.6553e-24  7.8433e-23  1.7098e-24  7.9686e-23  1.8066e-24  8.1911e-23  1.9789e-24  8.5860e-23  2.2856e-24  9.2854e-23  2.8322e-24  1.0521e-22  3.8074e-24  1.2697e-22  5.5516e-24  1.6515e-22  8.6821e-24  2.3204e-22  1.4333e-23  3.5198e-22  2.4592e-23  5.6724e-22  4.3512e-23  9.5818e-22  7.9247e-23
      2.60  7.2094e-23  1.7596e-24  7.2116e-23  1.7616e-24  7.2155e-23  1.7652e-24  7.2224e-23  1.7717e-24  7.2348e-23  1.7831e-24  7.2567e-23  1.8033e-24  7.2958e-23  1.8394e-24  7.3652e-23  1.9036e-24  7.4885e-23  2.0177e-24  7.7074e-23  2.2208e-24  8.0959e-23  2.5823e-24  8.7841e-23  3.2264e-24  1.0000e-22  4.3755e-24  1.2142e-22  6.4304e-24  1.5900e-22  1.0118e-23  2.2480e-22  1.6772e-23  3.4290e-22  2.8843e-23  5.5484e-22  5.1079e-23  9.4000e-22  9.2987e-23
      2.65  6.7596e-23  1.9515e-24  6.7618e-23  1.9539e-24  6.7656e-23  1.9581e-24  6.7724e-23  1.9655e-24  6.7846e-23  1.9789e-24  6.8061e-23  2.0025e-24  6.8445e-23  2.0446e-24  6.9127e-23  2.1195e-24  7.0339e-23  2.2527e-24  7.2490e-23  2.4897e-24  7.6308e-23  2.9116e-24  8.3072e-23  3.6633e-24  9.5025e-23  5.0044e-24  1.1608e-22  7.4022e-24  1.5302e-22  1.1704e-23  2.1770e-22  1.9466e-23  3.3385e-22  3.3539e-23  5.4233e-22  5.9444e-23  9.2145e-22  1.0819e-22
      2.70  6.3344e-23  2.1656e-24  6.3366e-23  2.1683e-24  6.3403e-23  2.1732e-24  6.3470e-23  2.1819e-24  6.3589e-23  2.1972e-24  6.3801e-23  2.2245e-24  6.4178e-23  2.2732e-24  6.4847e-23  2.3596e-24  6.6037e-23  2.5134e-24  6.8149e-23  2.7871e-24  7.1897e-23  3.2742e-24  7.8537e-23  4.1422e-24  9.0272e-23  5.6907e-24  1.1094e-22  8.4593e-24  1.4722e-22  1.3427e-23  2.1075e-22  2.2387e-23  3.2483e-22  3.8630e-23  5.2973e-22  6.8513e-23  9.0267e-22  1.2469e-22
      2.75  5.9329e-23  2.4047e-24  5.9349e-23  2.4078e-24  5.9386e-23  2.4133e-24  5.9410e-23  2.4230e-24  5.9569e-23  2.4407e-24  5.9776e-23  2.4719e-24  6.0146e-23  2.5274e-24  6.0802e-23  2.6261e-24  6.1968e-23  2.8016e-24  6.4039e-23  3.1140e-24  6.7714e-23  3.6700e-24  7.4225e-23  4.6607e-24  8.5732e-23  6.4282e-24  1.0600e-22  9.5886e-24  1.4159e-22  1.5259e-23  2.0391e-22  2.5488e-23  3.1583e-22  4.4028e-23  5.1700e-22  7.8129e-23  8.8352e-22  1.4222e-22
      2.80  5.5538e-23  2.6718e-24  5.5558e-23  2.6753e-24  5.5595e-23  2.6816e-24  5.5659e-23  2.6927e-24  5.5773e-23  2.7124e-24  5.5977e-23  2.7476e-24  5.6338e-23  2.8102e-24  5.6981e-23  2.9214e-24  5.8122e-23  3.1193e-24  6.0150e-23  3.4714e-24  6.3749e-23  4.0983e-24  7.0125e-23  5.2153e-24  8.1394e-23  7.2081e-24  1.0125e-22  1.0772e-23  1.3611e-22  1.7166e-23  1.9717e-22  2.8703e-23  3.0682e-22  4.9615e-23  5.0411e-22  8.8080e-23  8.6391e-22  1.6037e-22
      2.85  5.1963e-23  2.9701e-24  5.1983e-23  2.9740e-24  5.2018e-23  2.9810e-24  5.2081e-23  2.9934e-24  5.2160e-23  3.0152e-24  5.2391e-23  3.0545e-24  5.2745e-23  3.1241e-24  5.3373e-23  3.2479e-24  5.4489e-23  3.4682e-24  5.6472e-23  3.8601e-24  5.9991e-23  4.5578e-24  6.6225e-23  5.8010e-24  7.7246e-23  8.0192e-24  9.6664e-23  1.1986e-23  1.3077e-22  1.9106e-23  1.9051e-22  3.1956e-23  2.9779e-22  5.5248e-23  4.9102e-22  9.8107e-23  8.4382e-22  1.7870e-22
      2.90  4.8563e-23  3.3032e-24  4.8583e-23  3.3075e-24  4.8646e-23  3.3154e-24  4.8708e-23  3.3290e-24  4.8817e-23  3.3532e-24  4.9011e-23  3.3961e-24  4.9356e-23  3.4726e-24  4.9969e-23  3.6086e-24  5.1059e-23  3.8504e-24  5.2994e-23  4.2809e-24  5.6429e-23  5.0472e-24  6.2515e-23  6.4127e-24  7.3275e-23  8.8493e-24  9.2237e-23  1.3208e-23  1.2555e-22  2.1032e-23  1.8391e-22  3.5158e-23  2.8872e-22  6.0770e-23  4.7770e-22  1.0792e-22  8.2323e-22  1.9667e-22
      2.95  4.5418e-23  3.6760e-24  4.5436e-23  3.6806e-24  4.5470e-23  3.6889e-24  4.5530e-23  3.7036e-24  4.5636e-23  3.7298e-24  4.5825e-23  3.7764e-24  4.6161e-23  3.8593e-24  4.6759e-23  4.0066e-24  4.7821e-23  4.2687e-24  4.9707e-23  4.7352e-24  5.3054e-23  5.5657e-24  5.8985e-23  7.0457e-24  6.9473e-23  9.6870e-24  8.7958e-23  1.4413e-23  1.2043e-22  2.2899e-23  1.7739e-22  3.8222e-23  2.7962e-22  6.6020e-23  4.6414e-22  1.1724e-22  8.0202e-22  2.1376e-22
      3.00  4.2429e-23  4.0924e-24  4.2447e-23  4.0974e-24  4.2480e-23  4.1063e-24  4.2538e-23  4.1220e-24  4.2641e-23  4.1500e-24  4.2825e-23  4.1999e-24  4.3152e-23  4.2885e-24  4.3733e-23  4.4460e-24  4.4766e-23  4.7264e-24  4.6600e-23  5.2253e-24  4.9856e-23  6.1136e-24  5.5626e-23  7.6967e-24  6.5829e-23  1.0522e-23  8.3817e-23  1.5579e-23  1.1542e-22  2.4663e-23  1.7091e-22  4.1070e-23  2.7045e-22  7.0854e-23  4.5031e-22  1.2579e-22  7.8023e-22  2.2947e-22
      3.05  3.9617e-23  4.5585e-24  3.9635e-23  4.5638e-24  3.9667e-23  4.5731e-24  3.9723e-23  4.5898e-24  3.9824e-23  4.6193e-24  4.0002e-23  4.6719e-24  4.0320e-23  4.7655e-24  4.0884e-23  4.9319e-24  4.1886e-23  5.2278e-24  4.3667e-23  5.7546e-24  4.6827e-23  6.6925e-24  5.2428e-23  8.3642e-24  6.2335e-23  1.1349e-23  7.9804e-23  1.6690e-23  1.1051e-22  2.6290e-23  1.6446e-22  4.3635e-23  2.6120e-22  7.5145e-23  4.3628e-22  1.3333e-22  7.5779e-22  2.4335e-22
      3.10  3.6974e-23  5.0796e-24  3.6992e-23  5.0851e-24  3.7022e-23  5.0948e-24  3.7077e-23  5.1122e-24  3.7174e-23  5.1430e-24  3.7347e-23  5.1978e-24  3.7637e-23  5.2950e-24  3.8201e-23  5.4688e-24  3.9154e-23  5.7771e-24  4.0897e-23  6.3267e-24  4.3958e-23  7.3048e-24  4.9385e-23  9.0481e-24  5.8985e-23  1.2161e-23  7.5916e-23  1.7734e-23  1.0568e-22  2.7753e-23  1.5804e-22  4.5863e-23  2.5188e-22  7.8791e-23  4.2202e-22  1.3967e-22  7.3475e-22  2.5504e-22
      3.15  3.4491e-23  5.6628e-24  3.4508e-23  5.6685e-24  3.4537e-23  5.6785e-24  3.4590e-23  5.6964e-24  3.4684e-23  5.7281e-24  3.4851e-23  5.7846e-24  3.5148e-23  5.8851e-24  3.5677e-23  6.0638e-24  3.6615e-23  6.3817e-24  3.8283e-23  6.9476e-24  4.1243e-23  7.9553e-24  4.6490e-23  9.7516e-24  5.5773e-23  1.2959e-23  7.2149e-23  1.8704e-23  1.0095e-22  2.9036e-23  1.5166e-22  4.7719e-23  2.4252e-22  8.1722e-23  4.0755e-22  1.4468e-22  7.1120e-22  2.6427e-22
      3.20  3.2159e-23  6.3155e-24  3.2175e-23  6.3213e-24  3.2204e-23  6.3315e-24  3.2255e-23  6.3497e-24  3.2345e-23  6.3821e-24  3.2507e-23  6.4396e-24  3.2793e-23  6.5419e-24  3.3303e-23  6.7239e-24  3.4209e-23  7.0477e-24  3.5818e-23  7.6240e-24  3.8674e-23  8.6503e-24  4.3737e-23  1.0480e-23  5.2695e-23  1.3748e-23  6.8502e-23  1.9601e-23  9.6307e-23  3.0134e-23  1.4537e-22  4.9183e-23  2.3315e-22  8.3900e-23  3.9291e-22  1.4826e-22  6.8730e-22  2.7084e-22
      3.25  2.9971e-23  7.0460e-24  2.9986e-23  7.0518e-24  3.0014e-23  7.0621e-24  3.0063e-23  7.0804e-24  3.0150e-23  7.1130e-24  3.0306e-23  7.1710e-24  3.0582e-23  7.2740e-24  3.1073e-23  7.4573e-24  3.1945e-23  7.7835e-24  3.3494e-23  8.3640e-24  3.6245e-23  9.3979e-24  4.1121e-23  1.1241e-23  4.9749e-23  1.4534e-23  6.4977e-23  2.0433e-23  9.1774e-23  3.1052e-23  1.3915e-22  5.0264e-23  2.2381e-22  8.5322e-23  3.7818e-22  1.5041e-22  6.6305e-22  2.7469e-22
      3.30  2.7908e-23  7.8637e-24  2.7934e-23  7.8698e-24  2.7960e-23  7.8801e-24  2.8007e-23  7.8984e-24  2.8091e-23  7.9309e-24  2.8241e-23  7.9886e-24  2.8506e-23  8.0914e-24  2.8978e-23  8.2742e-24  2.9816e-23  8.5994e-24  3.1306e-23  9.1782e-24  3.3950e-23  1.0209e-23  3.8638e-23  1.2047e-23  4.6935e-23  1.5331e-23  6.1579e-23  2.1215e-23  8.7358e-23  3.1811e-23  1.3302e-22  5.0986e-23  2.1464e-22  8.6018e-23  3.6347e-22  1.5116e-22  6.3863e-22  2.7589e-22
      3.35  2.5995e-23  8.7799e-24  2.6010e-23  8.7856e-24  2.6035e-23  8.7957e-24  2.6080e-23  8.8137e-24  2.6161e-23  8.8458e-24  2.6304e-23  8.9029e-24  2.6559e-23  9.0044e-24  2.7012e-23  9.1849e-24  2.7817e-23  9.5061e-24  2.9247e-23  1.0078e-23  3.1786e-23  1.1096e-23  3.6287e-23  1.2911e-23  4.4252e-23  1.6155e-23  5.8315e-23  2.1968e-23  8.3077e-23  3.2440e-23  1.2702e-22  5.1397e-23  2.0568e-22  8.6062e-23  3.4888e-22  1.5065e-22  6.1439e-22  2.7461e-22
      3.40  2.4193e-23  9.8052e-24  2.4207e-23  9.8108e-24  2.4232e-23  9.8207e-24  2.4275e-23  9.8384e-24  2.4352e-23  9.8698e-24  2.4490e-23  9.9257e-24  2.4734e-23  1.0025e-23  2.5169e-23  1.0202e-23  2.5941e-23  1.0516e-23  2.7312e-23  1.1076e-23  2.9747e-23  1.2073e-23  3.4064e-23  1.3851e-23  4.1703e-23  1.7028e-23  5.5191e-23  2.2722e-23  7.8950e-23  3.2982e-23  1.2119e-22  5.1561e-23  1.9692e-22  8.5564e-23  3.3455e-22  1.4904e-22  5.9048e-22  2.7116e-22
      3.45  2.2506e-23  1.0954e-23  2.2520e-23  1.0959e-23  2.2543e-23  1.0969e-23  2.2585e-23  1.0986e-23  2.2659e-23  1.1016e-23  2.2791e-23  1.1071e-23  2.3025e-23  1.1167e-23  2.3441e-23  1.1339e-23  2.4181e-23  1.1645e-23  2.5496e-23  1.2189e-23  2.7829e-23  1.3158e-23  3.1965e-23  1.4886e-23  3.9286e-23  1.7974e-23  5.2213e-23  2.3510e-23  7.4988e-23  3.3486e-23  1.1555e-22  5.1558e-23  1.8840e-22  8.4659e-23  3.2058e-22  1.4657e-22  5.6707e-22  2.6593e-22
      3.50  2.0928e-23  1.2240e-23  2.0940e-23  1.2245e-23  2.0963e-23  1.2254e-23  2.1003e-23  1.2271e-23  2.1074e-23  1.2300e-23  2.1200e-23  1.2353e-23  2.1424e-23  1.2446e-23  2.1823e-23  1.2612e-23  2.2532e-23  1.2907e-23  2.3791e-23  1.3433e-23  2.6026e-23  1.4369e-23  2.9989e-23  1.6039e-23  3.7002e-23  1.9022e-23  4.9386e-23  2.4370e-23  7.1208e-23  3.4008e-23  1.1013e-22  5.1476e-23  1.8016e-22  8.3493e-23  3.0705e-22  1.4348e-22  5.4429e-22  2.5938e-22
      3.55  1.9452e-23  1.3681e-23  1.9464e-23  1.3686e-23  1.9485e-23  1.3695e-23  1.9523e-23  1.3711e-23  1.9591e-23  1.3739e-23  1.9712e-23  1.3790e-23  1.9927e-23  1.3879e-23  2.0309e-23  1.4039e-23  2.0989e-23  1.4323e-23  2.2195e-23  1.4828e-23  2.4336e-23  1.5728e-23  2.8132e-23  1.7332e-23  3.4849e-23  2.0200e-23  4.6712e-23  2.5340e-23  6.7621e-23  3.4605e-23  1.0497e-22  5.1403e-23  1.7225e-22  8.2214e-23  2.9411e-22  1.4004e-22  5.2233e-22  2.5198e-22
      3.60  1.8072e-23  1.5296e-23  1.8083e-23  1.5301e-23  1.8104e-23  1.5309e-23  1.8140e-23  1.5324e-23  1.8206e-23  1.5352e-23  1.8322e-23  1.5400e-23  1.8528e-23  1.5486e-23  1.8894e-23  1.5639e-23  1.9544e-23  1.5910e-23  2.0700e-23  1.6394e-23  2.2752e-23  1.7256e-23  2.6390e-23  1.8792e-23  3.2827e-23  2.1537e-23  4.4196e-23  2.6458e-23  6.4236e-23  3.5329e-23  1.0007e-22  5.1421e-23  1.6472e-22  8.0956e-23  2.8202e-22  1.3645e-22  5.0155e-22  2.4414e-22
      3.65  1.6782e-23  1.7105e-23  1.6794e-23  1.7110e-23  1.6813e-23  1.7118e-23  1.6848e-23  1.7132e-23  1.6911e-23  1.7159e-23  1.7022e-23  1.7205e-23  1.7220e-23  1.7287e-23  1.7571e-23  1.7433e-23  1.8195e-23  1.7692e-23  1.9303e-23  1.8154e-23  2.1271e-23  1.8976e-23  2.4759e-23  2.0443e-23  3.0933e-23  2.3063e-23  4.1836e-23  2.7762e-23  6.1067e-23  3.6232e-23  9.5457e-23  5.1604e-23  1.5761e-22  7.9839e-23  2.7059e-22  1.3296e-22  4.8212e-22  2.3625e-22
      3.70  1.5578e-23  1.9133e-23  1.5589e-23  1.9137e-23  1.5608e-23  1.9145e-23  1.5642e-23  1.9159e-23  1.5702e-23  1.9184e-23  1.5808e-23  1.9228e-23  1.5998e-23  1.9306e-23  1.6335e-23  1.9445e-23  1.6934e-23  1.9692e-23  1.7998e-23  2.0132e-23  1.9887e-23  2.0916e-23  2.3235e-23  2.2313e-23  2.9162e-23  2.4811e-23  3.9630e-23  2.9288e-23  5.8103e-23  3.7361e-23  9.1138e-23  5.2021e-23  1.5092e-22  7.8967e-23  2.5980e-22  1.2972e-22  4.6374e-22  2.2864e-22
      3.75  1.4455e-23  2.1405e-23  1.4465e-23  2.1410e-23  1.4483e-23  2.1417e-23  1.4515e-23  2.1430e-23  1.4573e-23  2.1454e-23  1.4676e-23  2.1496e-23  1.4858e-23  2.1570e-23  1.5182e-23  2.1702e-23  1.5757e-23  2.1938e-23  1.6780e-23  2.2357e-23  1.8594e-23  2.3103e-23  2.1812e-23  2.4434e-23  2.7508e-23  2.6811e-23  3.7571e-23  3.1075e-23  5.5336e-23  3.8763e-23  8.7106e-23  5.2732e-23  1.4467e-22  7.8430e-23  2.4966e-22  1.2690e-22  4.4646e-22  2.2156e-22
      3.80  1.3406e-23  2.3954e-23  1.3416e-23  2.3958e-23  1.3434e-23  2.3965e-23  1.3465e-23  2.3977e-23  1.3520e-23  2.4000e-23  1.3619e-23  2.4039e-23  1.3794e-23  2.4110e-23  1.4106e-23  2.4236e-23  1.4659e-23  2.4460e-23  1.5643e-23  2.4859e-23  1.7389e-23  2.5570e-23  2.0484e-23  2.6837e-23  2.5965e-23  2.9101e-23  3.5650e-23  3.3161e-23  5.2752e-23  4.0484e-23  8.3341e-23  5.3797e-23  1.3882e-22  7.8309e-23  2.4015e-22  1.2460e-22  4.3024e-22  2.1522e-22
      3.85  1.2429e-23  2.6810e-23  1.2438e-23  2.6813e-23  1.2455e-23  2.6820e-23  1.2485e-23  2.6832e-23  1.2538e-23  2.6854e-23  1.2633e-23  2.6892e-23  1.2802e-23  2.6959e-23  1.3102e-23  2.7079e-23  1.3635e-23  2.7293e-23  1.4582e-23  2.7673e-23  1.6263e-23  2.8350e-23  1.9244e-23  2.9558e-23  2.4523e-23  3.1716e-23  3.3853e-23  3.5586e-23  5.0334e-23  4.2567e-23  7.9814e-23  5.5267e-23  1.3332e-22  7.8671e-23  2.3120e-22  1.2294e-22  4.1495e-22  2.0978e-22
      3.90  1.1517e-23  3.0011e-23  1.1527e-23  3.0015e-23  1.1543e-23  3.0021e-23  1.1572e-23  3.0033e-23  1.1623e-23  3.0053e-23  1.1715e-23  3.0089e-23  1.1877e-23  3.0154e-23  1.2166e-23  3.0268e-23  1.2679e-23  3.0472e-23  1.3592e-23  3.0835e-23  1.5211e-23  3.1482e-23  1.8084e-23  3.2635e-23  2.3171e-23  3.4696e-23  3.2166e-23  3.8392e-23  4.8056e-23  4.5062e-23  7.6488e-23  5.7200e-23  1.2812e-22  7.9591e-23  2.2270e-22  1.2200e-22  4.0044e-22  2.0540e-22
      3.95  1.0668e-23  3.3600e-23  1.0677e-23  3.3604e-23  1.0693e-23  3.3610e-23  1.0721e-23  3.3621e-23  1.0770e-23  3.3640e-23  1.0858e-23  3.3675e-23  1.1015e-23  3.3736e-23  1.1293e-23  3.3846e-23  1.1788e-23  3.4041e-23  1.2667e-23  3.4388e-23  1.4227e-23  3.5006e-23  1.6995e-23  3.6109e-23  2.1899e-23  3.8079e-23  3.0572e-23  4.1614e-23  4.5896e-23  4.7994e-23  7.3325e-23  5.9610e-23  1.2315e-22  8.1062e-23  2.1454e-22  1.2175e-22  3.8647e-22  2.0196e-22
