# This was generated using Cloudy10 and the columns are ordered 
# as log10 of the fraction of the metallicity to the solar metallicity
# 'h_*_Z' and 'c_*_Z' stands for cooling and heating respectively 
# at * metalicity
#
# NOTE: This was generated separately from loop_coolingcurve_w_UV.py
#       using Output_metals_w_redshift.py.
#
# Redshift = 5.5
# hden = -6.0
#
#     temp   h_-3.00_Z   c_-3.00_Z   h_-2.75_Z   c_-2.75_Z   h_-2.50_Z   c_-2.50_Z   h_-2.25_Z   c_-2.25_Z   h_-2.00_Z   c_-2.00_Z   h_-1.75_Z   c_-1.75_Z   h_-1.50_Z   c_-1.50_Z   h_-1.25_Z   c_-1.25_Z   h_-1.00_Z   c_-1.00_Z   h_-0.75_Z   c_-0.75_Z   h_-0.50_Z   c_-0.50_Z   h_-0.25_Z   c_-0.25_Z    h_0.00_Z    c_0.00_Z    h_0.25_Z    c_0.25_Z    h_0.50_Z    c_0.50_Z    h_0.75_Z    c_0.75_Z    h_1.00_Z    c_1.00_Z    h_1.25_Z    c_1.25_Z    h_1.50_Z    c_1.50_Z 
      1.00  5.6505e-22  1.7910e-25  5.6514e-22  1.7910e-25  5.6529e-22  1.7910e-25  5.6556e-22  1.7911e-25  5.6604e-22  1.7912e-25  5.6689e-22  1.7913e-25  5.6840e-22  1.7916e-25  5.7108e-22  1.7920e-25  5.7584e-22  1.7928e-25  5.8427e-22  1.7943e-25  5.9912e-22  1.7969e-25  6.2520e-22  1.8014e-25  6.7073e-22  1.8096e-25  7.5074e-22  1.8239e-25  8.9299e-22  1.8494e-25  1.1465e-21  1.8951e-25  1.5997e-21  1.9769e-25  2.4145e-21  2.1238e-25  3.8885e-21  2.3899e-25
      1.05  5.3515e-22  1.9646e-25  5.3523e-22  1.9647e-25  5.3538e-22  1.9647e-25  5.3564e-22  1.9647e-25  5.3611e-22  1.9648e-25  5.3695e-22  1.9650e-25  5.3843e-22  1.9652e-25  5.4107e-22  1.9657e-25  5.4574e-22  1.9666e-25  5.5400e-22  1.9681e-25  5.6857e-22  1.9709e-25  5.9416e-22  1.9757e-25  6.3882e-22  1.9843e-25  7.1732e-22  1.9995e-25  8.5683e-22  2.0265e-25  1.1057e-21  2.0750e-25  1.5500e-21  2.1617e-25  2.3493e-21  2.3175e-25  3.7961e-21  2.5998e-25
      1.10  5.0659e-22  2.1570e-25  5.0667e-22  2.1570e-25  5.0682e-22  2.1570e-25  5.0708e-22  2.1571e-25  5.0754e-22  2.1572e-25  5.0836e-22  2.1573e-25  5.0981e-22  2.1576e-25  5.1240e-22  2.1581e-25  5.1698e-22  2.1590e-25  5.2509e-22  2.1607e-25  5.3939e-22  2.1636e-25  5.6449e-22  2.1687e-25  6.0830e-22  2.1779e-25  6.8535e-22  2.1940e-25  8.2218e-22  2.2228e-25  1.0665e-21  2.2743e-25  1.5023e-21  2.3666e-25  2.2866e-21  2.5325e-25  3.7071e-21  2.8330e-25
      1.15  4.7932e-22  2.3701e-25  4.7940e-22  2.3701e-25  4.7955e-22  2.3702e-25  4.7980e-22  2.3702e-25  4.8026e-22  2.3703e-25  4.8106e-22  2.3705e-25  4.8249e-22  2.3708e-25  4.8503e-22  2.3714e-25  4.8953e-22  2.3723e-25  4.9748e-22  2.3741e-25  5.1152e-22  2.3772e-25  5.3615e-22  2.3827e-25  5.7913e-22  2.3925e-25  6.5475e-22  2.4098e-25  7.8895e-22  2.4406e-25  1.0287e-21  2.4958e-25  1.4564e-21  2.5946e-25  2.2260e-21  2.7724e-25  3.6210e-21  3.0949e-25
      1.20  4.5331e-22  2.6065e-25  4.5338e-22  2.6065e-25  4.5353e-22  2.6066e-25  4.5378e-22  2.6066e-25  4.5422e-22  2.6067e-25  4.5501e-22  2.6069e-25  4.5641e-22  2.6072e-25  4.5890e-22  2.6078e-25  4.6332e-22  2.6089e-25  4.7113e-22  2.6108e-25  4.8490e-22  2.6142e-25  5.0907e-22  2.6201e-25  5.5124e-22  2.6307e-25  6.2547e-22  2.6495e-25  7.5708e-22  2.6829e-25  9.9245e-22  2.7428e-25  1.4123e-21  2.8502e-25  2.1675e-21  3.0436e-25  3.5375e-21  3.3952e-25
      1.25  4.2849e-22  2.8694e-25  4.2856e-22  2.8694e-25  4.2870e-22  2.8694e-25  4.2895e-22  2.8695e-25  4.2938e-22  2.8696e-25  4.3015e-22  2.8698e-25  4.3153e-22  2.8702e-25  4.3396e-22  2.8708e-25  4.3828e-22  2.8720e-25  4.4591e-22  2.8741e-25  4.5938e-22  2.8779e-25  4.8300e-22  2.8845e-25  5.2422e-22  2.8963e-25  5.9685e-22  2.9173e-25  7.2547e-22  2.9546e-25  9.5560e-22  3.0214e-25  1.3663e-21  3.1416e-25  2.1050e-21  3.3587e-25  3.4458e-21  3.7556e-25
      1.30  4.0483e-22  3.1765e-25  4.0491e-22  3.1765e-25  4.0504e-22  3.1766e-25  4.0528e-22  3.1766e-25  4.0570e-22  3.1768e-25  4.0646e-22  3.1770e-25  4.0780e-22  3.1774e-25  4.1018e-22  3.1782e-25  4.1440e-22  3.1796e-25  4.2187e-22  3.1820e-25  4.3502e-22  3.1864e-25  4.5811e-22  3.1941e-25  4.9840e-22  3.2077e-25  5.6945e-22  3.2321e-25  6.9513e-22  3.2755e-25  9.2005e-22  3.3534e-25  1.3218e-21  3.4939e-25  2.0441e-21  3.7491e-25  3.3563e-21  4.2202e-25
      1.35  3.8229e-22  3.5152e-25  3.8236e-22  3.5153e-25  3.8249e-22  3.5153e-25  3.8273e-22  3.5154e-25  3.8314e-22  3.5156e-25  3.8388e-22  3.5159e-25  3.8519e-22  3.5164e-25  3.8752e-22  3.5173e-25  3.9164e-22  3.5190e-25  3.9894e-22  3.5219e-25  4.1180e-22  3.5271e-25  4.3437e-22  3.5364e-25  4.7375e-22  3.5529e-25  5.4326e-22  3.5824e-25  6.6609e-22  3.6350e-25  8.8596e-22  3.7296e-25  1.2790e-21  3.9009e-25  1.9857e-21  4.2149e-25  3.2701e-21  4.8027e-25
      1.40  3.6082e-22  3.8895e-25  3.6089e-22  3.8895e-25  3.6102e-22  3.8896e-25  3.6125e-22  3.8897e-25  3.6165e-22  3.8899e-25  3.6237e-22  3.8903e-25  3.6366e-22  3.8909e-25  3.6593e-22  3.8921e-25  3.6997e-22  3.8942e-25  3.7710e-22  3.8978e-25  3.8967e-22  3.9044e-25  4.1173e-22  3.9160e-25  4.5022e-22  3.9368e-25  5.1825e-22  3.9738e-25  6.3829e-22  4.0402e-25  8.5327e-22  4.1600e-25  1.2378e-21  4.3782e-25  1.9294e-21  4.7821e-25  3.1868e-21  5.5511e-25
      1.45  3.4038e-22  4.3036e-25  3.4045e-22  4.3037e-25  3.4058e-22  4.3037e-25  3.4080e-22  4.3039e-25  3.4119e-22  4.3042e-25  3.4190e-22  4.3046e-25  3.4315e-22  4.3055e-25  3.4537e-22  4.3070e-25  3.4931e-22  4.3096e-25  3.5627e-22  4.3143e-25  3.6854e-22  4.3228e-25  3.9006e-22  4.3378e-25  4.2761e-22  4.3647e-25  4.9406e-22  4.4128e-25  6.1116e-22  4.4993e-25  8.2099e-22  4.6556e-25  1.1965e-21  4.9424e-25  1.8723e-21  5.4791e-25  3.1014e-21  6.5187e-25
      1.50  3.2094e-22  4.7624e-25  3.2101e-22  4.7625e-25  3.2113e-22  4.7626e-25  3.2135e-22  4.7628e-25  3.2173e-22  4.7631e-25  3.2242e-22  4.7638e-25  3.2364e-22  4.7649e-25  3.2581e-22  4.7668e-25  3.2965e-22  4.7703e-25  3.3644e-22  4.7765e-25  3.4842e-22  4.7876e-25  3.6942e-22  4.8074e-25  4.0606e-22  4.8428e-25  4.7097e-22  4.9062e-25  5.8527e-22  5.0206e-25  7.9004e-22  5.2281e-25  1.1568e-21  5.6109e-25  1.8172e-21  6.3348e-25  3.0189e-21  7.7601e-25
      1.55  3.0246e-22  5.2715e-25  3.0252e-22  5.2716e-25  3.0264e-22  5.2718e-25  3.0285e-22  5.2720e-25  3.0323e-22  5.2725e-25  3.0390e-22  5.2733e-25  3.0510e-22  5.2747e-25  3.0721e-22  5.2773e-25  3.1096e-22  5.2819e-25  3.1759e-22  5.2900e-25  3.2927e-22  5.3046e-25  3.4977e-22  5.3307e-25  3.8554e-22  5.3774e-25  4.4892e-22  5.4612e-25  5.6052e-22  5.6128e-25  7.6035e-22  5.8884e-25  1.1186e-21  6.3997e-25  1.7642e-21  7.3754e-25  2.9392e-21  9.3242e-25
      1.60  2.8490e-22  5.8369e-25  2.8496e-22  5.8370e-25  2.8508e-22  5.8372e-25  2.8528e-22  5.8375e-25  2.8565e-22  5.8381e-25  2.8631e-22  5.8391e-25  2.8747e-22  5.8410e-25  2.8953e-22  5.8444e-25  2.9319e-22  5.8503e-25  2.9965e-22  5.8610e-25  3.1104e-22  5.8800e-25  3.3103e-22  5.9140e-25  3.6593e-22  5.9750e-25  4.2776e-22  6.0846e-25  5.3670e-22  6.2834e-25  7.3149e-22  6.6459e-25  1.0811e-21  7.3212e-25  1.7117e-21  8.6196e-25  2.8601e-21  1.1245e-24
      1.65  2.6822e-22  6.4652e-25  2.6829e-22  6.4654e-25  2.6840e-22  6.4656e-25  2.6860e-22  6.4660e-25  2.6896e-22  6.4668e-25  2.6960e-22  6.4681e-25  2.7073e-22  6.4706e-25  2.7274e-22  6.4748e-25  2.7630e-22  6.4825e-25  2.8261e-22  6.4961e-25  2.9371e-22  6.5205e-25  3.1318e-22  6.5641e-25  3.4722e-22  6.6426e-25  4.0752e-22  6.7835e-25  5.1384e-22  7.0396e-25  7.0365e-22  7.5080e-25  1.0448e-21  8.3836e-25  1.6606e-21  1.0078e-24  2.7828e-21  1.3539e-24
      1.70  2.5240e-22  7.1642e-25  2.5246e-22  7.1644e-25  2.5257e-22  7.1647e-25  2.5277e-22  7.1652e-25  2.5312e-22  7.1662e-25  2.5374e-22  7.1679e-25  2.5484e-22  7.1709e-25  2.5680e-22  7.1763e-25  2.6027e-22  7.1859e-25  2.6641e-22  7.2030e-25  2.7723e-22  7.2336e-25  2.9620e-22  7.2885e-25  3.2938e-22  7.3874e-25  3.8817e-22  7.5650e-25  4.9191e-22  7.8883e-25  6.7676e-22  8.4812e-25  1.0096e-21  9.5925e-25  1.6106e-21  1.1754e-24  2.7068e-21  1.6208e-24
      1.75  2.3739e-22  7.9424e-25  2.3745e-22  7.9426e-25  2.3756e-22  7.9429e-25  2.3775e-22  7.9436e-25  2.3809e-22  7.9448e-25  2.3870e-22  7.9469e-25  2.3977e-22  7.9506e-25  2.4168e-22  7.9573e-25  2.4506e-22  7.9691e-25  2.5104e-22  7.9902e-25  2.6157e-22  8.0281e-25  2.8004e-22  8.0960e-25  3.1234e-22  8.2183e-25  3.6962e-22  8.4381e-25  4.7074e-22  8.8385e-25  6.5066e-22  9.5750e-25  9.7508e-22  1.0958e-24  1.5612e-21  1.3658e-24  2.6316e-21  1.9258e-24
      1.80  2.2318e-22  8.8095e-25  2.2323e-22  8.8098e-25  2.2334e-22  8.8102e-25  2.2353e-22  8.8110e-25  2.2386e-22  8.8125e-25  2.2445e-22  8.8150e-25  2.2549e-22  8.8196e-25  2.2735e-22  8.8277e-25  2.3063e-22  8.8422e-25  2.3645e-22  8.8680e-25  2.4669e-22  8.9142e-25  2.6466e-22  8.9972e-25  2.9608e-22  9.1468e-25  3.5185e-22  9.4157e-25  4.5033e-22  9.9057e-25  6.2543e-22  1.0809e-24  9.4136e-22  1.2506e-24  1.5126e-21  1.5830e-24  2.5570e-21  2.2754e-24
      1.85  2.0971e-22  9.7760e-25  2.0977e-22  9.7763e-25  2.0987e-22  9.7769e-25  2.1005e-22  9.7779e-25  2.1037e-22  9.7797e-25  2.1094e-22  9.7828e-25  2.1196e-22  9.7884e-25  2.1376e-22  9.7983e-25  2.1696e-22  9.8159e-25  2.2261e-22  9.8475e-25  2.3256e-22  9.9040e-25  2.5002e-22  1.0005e-24  2.8056e-22  1.0188e-24  3.3478e-22  1.0517e-24  4.3060e-22  1.1116e-24  6.0086e-22  1.2222e-24  9.0821e-22  1.4300e-24  1.4644e-21  1.8375e-24  2.4826e-21  2.6875e-24
      1.90  1.9696e-22  1.0854e-24  1.9702e-22  1.0854e-24  1.9712e-22  1.0855e-24  1.9729e-22  1.0856e-24  1.9761e-22  1.0858e-24  1.9816e-22  1.0862e-24  1.9913e-22  1.0868e-24  2.0090e-22  1.0882e-24  2.0400e-22  1.0903e-24  2.0949e-22  1.0943e-24  2.1916e-22  1.1013e-24  2.3611e-22  1.1138e-24  2.6576e-22  1.1365e-24  3.1843e-22  1.1772e-24  4.1157e-22  1.2514e-24  5.7700e-22  1.3883e-24  8.7576e-22  1.6454e-24  1.4169e-21  2.1491e-24  2.4088e-21  3.1980e-24
      1.95  1.8491e-22  1.2057e-24  1.8496e-22  1.2057e-24  1.8506e-22  1.2058e-24  1.8523e-22  1.2060e-24  1.8553e-22  1.2062e-24  1.8607e-22  1.2067e-24  1.8703e-22  1.2076e-24  1.8873e-22  1.2092e-24  1.9174e-22  1.2120e-24  1.9706e-22  1.2169e-24  2.0645e-22  1.2258e-24  2.2290e-22  1.2418e-24  2.5167e-22  1.2706e-24  3.0280e-22  1.3222e-24  3.9327e-22  1.4162e-24  5.5400e-22  1.5895e-24  8.4415e-22  1.9146e-24  1.3703e-21  2.5497e-24  2.3362e-21  3.8665e-24
      2.00  1.7351e-22  1.3399e-24  1.7356e-22  1.3400e-24  1.7366e-22  1.3401e-24  1.7382e-22  1.3403e-24  1.7410e-22  1.3406e-24  1.7464e-22  1.3413e-24  1.7557e-22  1.3425e-24  1.7722e-22  1.3445e-24  1.8014e-22  1.3482e-24  1.8530e-22  1.3546e-24  1.9441e-22  1.3663e-24  2.1038e-22  1.3871e-24  2.3829e-22  1.4247e-24  2.8791e-22  1.4921e-24  3.7579e-22  1.6144e-24  5.3196e-22  1.8397e-24  8.1371e-22  2.2617e-24  1.3252e-21  3.0832e-24  2.2657e-21  4.7757e-24
      2.05  1.6275e-22  1.4899e-24  1.6280e-22  1.4900e-24  1.6289e-22  1.4902e-24  1.6305e-22  1.4904e-24  1.6333e-22  1.4909e-24  1.6384e-22  1.4918e-24  1.6474e-22  1.4933e-24  1.6635e-22  1.4961e-24  1.6918e-22  1.5009e-24  1.7420e-22  1.5096e-24  1.8305e-22  1.5252e-24  1.9856e-22  1.5530e-24  2.2565e-22  1.6032e-24  2.7384e-22  1.6931e-24  3.5924e-22  1.8561e-24  5.1109e-22  2.1558e-24  7.8486e-22  2.7165e-24  1.2825e-21  3.8039e-24  2.1987e-21  6.0298e-24
      2.10  1.5258e-22  1.6575e-24  1.5263e-22  1.6576e-24  1.5272e-22  1.6578e-24  1.5288e-22  1.6582e-24  1.5315e-22  1.6589e-24  1.5365e-22  1.6600e-24  1.5453e-22  1.6621e-24  1.5608e-22  1.6658e-24  1.5884e-22  1.6724e-24  1.6372e-22  1.6842e-24  1.7233e-22  1.7053e-24  1.8742e-22  1.7430e-24  2.1377e-22  1.8108e-24  2.6063e-22  1.9325e-24  3.4374e-22  2.1529e-24  4.9158e-22  2.5575e-24  7.5803e-22  3.3134e-24  1.2428e-21  4.7749e-24  2.1366e-21  7.7509e-24
      2.15  1.4299e-22  1.8448e-24  1.4304e-22  1.8449e-24  1.4313e-22  1.8452e-24  1.4328e-22  1.8457e-24  1.4355e-22  1.8466e-24  1.4403e-22  1.8482e-24  1.4489e-22  1.8511e-24  1.4640e-22  1.8561e-24  1.4909e-22  1.8651e-24  1.5385e-22  1.8812e-24  1.6224e-22  1.9098e-24  1.7696e-22  1.9611e-24  2.0268e-22  2.0533e-24  2.4835e-22  2.2187e-24  3.2938e-22  2.5180e-24  4.7363e-22  3.0670e-24  7.3355e-22  4.0918e-24  1.2069e-21  6.0688e-24  2.0806e-21  1.0078e-23
      2.20  1.3395e-22  2.0541e-24  1.3400e-22  2.0543e-24  1.3408e-22  2.0547e-24  1.3423e-22  2.0554e-24  1.3449e-22  2.0566e-24  1.3496e-22  2.0587e-24  1.3579e-22  2.0625e-24  1.3728e-22  2.0695e-24  1.3991e-22  2.0817e-24  1.4456e-22  2.1035e-24  1.5276e-22  2.1424e-24  1.6716e-22  2.2120e-24  1.9233e-22  2.3369e-24  2.3695e-22  2.5613e-24  3.1616e-22  2.9670e-24  4.5724e-22  3.7107e-24  7.1155e-22  5.0975e-24  1.1748e-21  7.7689e-24  2.0309e-21  1.3169e-23
      2.25  1.2543e-22  2.2882e-24  1.2547e-22  2.2885e-24  1.2556e-22  2.2891e-24  1.2570e-22  2.2900e-24  1.2596e-22  2.2916e-24  1.2642e-22  2.2945e-24  1.2724e-22  2.2997e-24  1.2869e-22  2.3090e-24  1.3126e-22  2.3254e-24  1.3582e-22  2.3548e-24  1.4385e-22  2.4071e-24  1.5798e-22  2.5009e-24  1.8267e-22  2.6691e-24  2.2638e-22  2.9713e-24  3.0402e-22  3.5176e-24  4.4227e-22  4.5181e-24  6.9171e-22  6.3824e-24  1.1462e-21  9.9689e-24  1.9868e-21  1.7200e-23
      2.30  1.1740e-22  2.5502e-24  1.1745e-22  2.5506e-24  1.1753e-22  2.5513e-24  1.1767e-22  2.5525e-24  1.1792e-22  2.5547e-24  1.1837e-22  2.5586e-24  1.1918e-22  2.5655e-24  1.2060e-22  2.5778e-24  1.2312e-22  2.5998e-24  1.2759e-22  2.6389e-24  1.3548e-22  2.7087e-24  1.4935e-22  2.8335e-24  1.7363e-22  3.0577e-24  2.1652e-22  3.4604e-24  2.9276e-22  4.1880e-24  4.2844e-22  5.5199e-24  6.7354e-22  7.9991e-24  1.1201e-21  1.2763e-23  1.9469e-21  2.2344e-23
      2.35  1.0984e-22  2.8433e-24  1.0989e-22  2.8438e-24  1.0997e-22  2.8447e-24  1.1011e-22  2.8463e-24  1.1036e-22  2.8492e-24  1.1075e-22  2.8541e-24  1.1159e-22  2.8634e-24  1.1298e-22  2.8796e-24  1.1546e-22  2.9084e-24  1.1985e-22  2.9597e-24  1.2760e-22  3.0514e-24  1.4124e-22  3.2154e-24  1.6512e-22  3.5097e-24  2.0724e-22  4.0387e-24  2.8216e-22  4.9940e-24  4.1545e-22  6.7415e-24  6.5645e-22  9.9916e-24  1.0956e-21  1.6228e-23  1.9092e-21  2.8743e-23
      2.40  1.0273e-22  3.1712e-24  1.0278e-22  3.1719e-24  1.0286e-22  3.1730e-24  1.0299e-22  3.1751e-24  1.0324e-22  3.1788e-24  1.0367e-22  3.1854e-24  1.0444e-22  3.1972e-24  1.0581e-22  3.2181e-24  1.0825e-22  3.2553e-24  1.1255e-22  3.3216e-24  1.2016e-22  3.4399e-24  1.3356e-22  3.6515e-24  1.5705e-22  4.0314e-24  1.9842e-22  4.7144e-24  2.7202e-22  5.9471e-24  4.0296e-22  8.2008e-24  6.3985e-22  1.2389e-23  1.0716e-21  2.0417e-23  1.8722e-21  3.6495e-23
      2.45  9.6048e-23  3.5382e-24  9.6091e-23  3.5391e-24  9.6167e-23  3.5406e-24  9.6301e-23  3.5432e-24  9.6541e-23  3.5479e-24  9.6967e-23  3.5563e-24  9.7723e-23  3.5711e-24  9.9067e-23  3.5976e-24  1.0145e-22  3.6448e-24  1.0567e-22  3.7288e-24  1.1314e-22  3.8787e-24  1.2629e-22  4.1468e-24  1.4936e-22  4.6280e-24  1.8994e-22  5.4936e-24  2.6218e-22  7.0551e-24  3.9068e-22  9.9085e-24  6.2328e-22  1.5209e-23  1.0473e-21  2.5357e-23  1.8344e-21  4.5648e-23
      2.50  8.9764e-23  3.9491e-24  8.9802e-23  3.9500e-24  8.9880e-23  3.9520e-24  9.0012e-23  3.9553e-24  9.0246e-23  3.9611e-24  9.0663e-23  3.9715e-24  9.1403e-23  3.9900e-24  9.2717e-23  4.0230e-24  9.5051e-23  4.0816e-24  9.9185e-23  4.1861e-24  1.0650e-22  4.3726e-24  1.1938e-22  4.7061e-24  1.4199e-22  5.3044e-24  1.8175e-22  6.3812e-24  2.5253e-22  8.3229e-24  3.7844e-22  1.1870e-23  6.0645e-22  1.8456e-23  1.0223e-21  3.1057e-23  1.7950e-21  5.6223e-23
      2.55  8.3860e-23  4.4092e-24  8.3901e-23  4.4105e-24  8.3974e-23  4.4128e-24  8.4102e-23  4.4168e-24  8.4331e-23  4.4239e-24  8.4738e-23  4.4367e-24  8.5461e-23  4.4593e-24  8.6745e-23  4.4996e-24  8.9024e-23  4.5712e-24  9.3063e-23  4.6990e-24  1.0021e-22  4.9269e-24  1.1280e-22  5.3344e-24  1.3492e-22  6.0654e-24  1.7378e-22  7.3816e-24  2.4301e-22  9.7539e-24  3.6616e-22  1.4087e-23  5.8924e-22  2.2129e-23  9.9639e-22  3.7512e-23  1.7536e-21  6.8207e-23
      2.60  7.8317e-23  4.9245e-24  7.8357e-23  4.9260e-24  7.8424e-23  4.9285e-24  7.8553e-23  4.9336e-24  7.8776e-23  4.9422e-24  7.9172e-23  4.9574e-24  7.9877e-23  4.9847e-24  8.1128e-23  5.0331e-24  8.3349e-23  5.1193e-24  8.7286e-23  5.2728e-24  9.4251e-23  5.5468e-24  1.0653e-22  6.0366e-24  1.2811e-22  6.9152e-24  1.6603e-22  8.4973e-24  2.3361e-22  1.1348e-23  3.5380e-22  1.6555e-23  5.7163e-22  2.6218e-23  9.6938e-22  4.4693e-23  1.7100e-21  8.1542e-23
      2.65  7.3112e-23  5.5013e-24  7.3153e-23  5.5033e-24  7.3222e-23  5.5065e-24  7.3344e-23  5.5122e-24  7.3560e-23  5.5224e-24  7.3946e-23  5.5405e-24  7.4631e-23  5.5727e-24  7.5848e-23  5.6300e-24  7.8008e-23  5.7320e-24  8.1837e-23  5.9138e-24  8.8612e-23  6.2380e-24  1.0056e-22  6.8177e-24  1.2157e-22  7.8573e-24  1.5850e-22  9.7295e-24  2.2432e-22  1.3103e-23  3.4143e-22  1.9262e-23  5.5365e-22  3.0693e-23  9.4141e-22  5.2546e-23  1.6645e-21  9.6116e-23
      2.70  6.8234e-23  6.1477e-24  6.8271e-23  6.1498e-24  6.8338e-23  6.1536e-24  6.8456e-23  6.1602e-24  6.8666e-23  6.1721e-24  6.9041e-23  6.1932e-24  6.9705e-23  6.2308e-24  7.0887e-23  6.2976e-24  7.2983e-23  6.4166e-24  7.6700e-23  6.6286e-24  8.3278e-23  7.0066e-24  9.4886e-23  7.6824e-24  1.1529e-22  8.8942e-24  1.5120e-22  1.1076e-23  2.1519e-22  1.5008e-23  3.2910e-22  2.2186e-23  5.3545e-22  3.5509e-23  9.1274e-22  6.0976e-23  1.6174e-21  1.1174e-22
      2.75  6.3657e-23  6.8716e-24  6.3693e-23  6.8740e-24  6.3758e-23  6.8783e-24  6.3872e-23  6.8860e-24  6.4076e-23  6.8996e-24  6.4439e-23  6.9239e-24  6.5083e-23  6.9671e-24  6.6228e-23  7.0439e-24  6.8259e-23  7.1806e-24  7.1862e-23  7.4242e-24  7.8237e-23  7.8587e-24  8.9490e-23  8.6351e-24  1.0928e-22  1.0027e-23  1.4415e-22  1.2532e-23  2.0625e-22  1.7049e-23  3.1694e-22  2.5292e-23  5.1717e-22  4.0595e-23  8.8365e-22  6.9843e-23  1.5693e-21  1.2814e-22
      2.80  5.9368e-23  7.6827e-24  5.9403e-23  7.6855e-24  5.9465e-23  7.6904e-24  5.9576e-23  7.6990e-24  5.9772e-23  7.7143e-24  6.0124e-23  7.7420e-24  6.0747e-23  7.7909e-24  6.1855e-23  7.8779e-24  6.3821e-23  8.0328e-24  6.7307e-23  8.3087e-24  7.3477e-23  8.8006e-24  8.4370e-23  9.6797e-24  1.0353e-22  1.1255e-23  1.3733e-22  1.4090e-23  1.9754e-22  1.9202e-23  3.0495e-22  2.8531e-23  4.9894e-22  4.5854e-23  8.5436e-22  7.8961e-23  1.5204e-21  1.4494e-22
      2.85  5.5349e-23  8.5915e-24  5.5383e-23  8.5945e-24  5.5443e-23  8.6000e-24  5.5551e-23  8.6097e-24  5.5741e-23  8.6270e-24  5.6080e-23  8.6576e-24  5.6682e-23  8.7122e-24  5.7752e-23  8.8093e-24  5.9652e-23  8.9822e-24  6.3020e-23  9.2900e-24  6.8983e-23  9.8389e-24  7.9511e-23  1.0820e-23  9.8041e-23  1.2577e-23  1.3075e-22  1.5737e-23  1.8903e-22  2.1439e-23  2.9312e-22  3.1840e-23  4.8078e-22  5.1162e-23  8.2492e-22  8.8089e-23  1.4707e-21  1.6168e-22
      2.90  5.1586e-23  9.6097e-24  5.1618e-23  9.6131e-24  5.1677e-23  9.6191e-24  5.1780e-23  9.6297e-24  5.1964e-23  9.6487e-24  5.2291e-23  9.6824e-24  5.2872e-23  9.7424e-24  5.3904e-23  9.8492e-24  5.5737e-23  1.0039e-23  5.8987e-23  1.0377e-23  6.4741e-23  1.0981e-23  7.4901e-23  1.2058e-23  9.2787e-23  1.3989e-23  1.2440e-22  1.7459e-23  1.8071e-22  2.3722e-23  2.8142e-22  3.5146e-23  4.6266e-22  5.6375e-23  7.9535e-22  9.6950e-23  1.4203e-21  1.7782e-22
      2.95  4.8063e-23  1.0751e-23  4.8094e-23  1.0754e-23  4.8149e-23  1.0761e-23  4.8250e-23  1.0772e-23  4.8427e-23  1.0793e-23  4.8742e-23  1.0829e-23  4.9302e-23  1.0894e-23  5.0296e-23  1.1010e-23  5.2062e-23  1.1215e-23  5.5191e-23  1.1581e-23  6.0736e-23  1.2234e-23  7.0525e-23  1.3400e-23  8.7762e-23  1.5488e-23  1.1825e-22  1.9240e-23  1.7258e-22  2.6015e-23  2.6984e-22  3.8371e-23  4.4460e-22  6.1342e-23  7.6568e-22  1.0525e-22  1.3693e-21  1.9281e-22
      3.00  4.4766e-23  1.2029e-23  4.4797e-23  1.2033e-23  4.4850e-23  1.2040e-23  4.4947e-23  1.2053e-23  4.5117e-23  1.2074e-23  4.5420e-23  1.2113e-23  4.5958e-23  1.2183e-23  4.6915e-23  1.2306e-23  4.8613e-23  1.2525e-23  5.1625e-23  1.2915e-23  5.6957e-23  1.3610e-23  6.6374e-23  1.4852e-23  8.2958e-23  1.7075e-23  1.1232e-22  2.1070e-23  1.6463e-22  2.8284e-23  2.5840e-22  4.1444e-23  4.2673e-22  6.5919e-23  7.3598e-22  1.1273e-22  1.3182e-21  2.0611e-22
      3.05  4.1683e-23  1.3463e-23  4.1712e-23  1.3467e-23  4.1764e-23  1.3474e-23  4.1856e-23  1.3487e-23  4.2020e-23  1.3510e-23  4.2311e-23  1.3551e-23  4.2828e-23  1.3624e-23  4.3747e-23  1.3753e-23  4.5378e-23  1.3983e-23  4.8271e-23  1.4392e-23  5.3394e-23  1.5121e-23  6.2441e-23  1.6423e-23  7.8375e-23  1.8754e-23  1.0660e-22  2.2941e-23  1.5689e-22  3.0507e-23  2.4714e-22  4.4309e-23  4.0924e-22  6.9989e-23  7.0657e-22  1.1915e-22  1.2671e-21  2.1730e-22
      3.10  3.8801e-23  1.5070e-23  3.8829e-23  1.5074e-23  3.8878e-23  1.5081e-23  3.8967e-23  1.5095e-23  3.9124e-23  1.5118e-23  3.9403e-23  1.5161e-23  3.9899e-23  1.5236e-23  4.0781e-23  1.5369e-23  4.2346e-23  1.5606e-23  4.5122e-23  1.6029e-23  5.0037e-23  1.6782e-23  5.8719e-23  1.8127e-23  7.4010e-23  2.0534e-23  1.0111e-22  2.4857e-23  1.4939e-22  3.2671e-23  2.3611e-22  4.6931e-23  3.9200e-22  7.3476e-23  6.7749e-22  1.2435e-22  1.2163e-21  2.2604e-22
      3.15  3.6106e-23  1.6871e-23  3.6133e-23  1.6875e-23  3.6181e-23  1.6883e-23  3.6265e-23  1.6896e-23  3.6416e-23  1.6921e-23  3.6684e-23  1.6964e-23  3.7159e-23  1.7040e-23  3.8004e-23  1.7176e-23  3.9505e-23  1.7417e-23  4.2166e-23  1.7847e-23  4.6877e-23  1.8614e-23  5.5200e-23  1.9982e-23  6.9860e-23  2.2430e-23  9.5851e-23  2.6829e-23  1.4214e-22  3.4782e-23  2.2537e-22  4.9300e-23  3.7509e-22  7.6347e-23  6.4894e-22  1.2825e-22  1.1663e-21  2.3217e-22
      3.20  3.3589e-23  1.8891e-23  3.3615e-23  1.8895e-23  3.3660e-23  1.8903e-23  3.3741e-23  1.8916e-23  3.3885e-23  1.8940e-23  3.4142e-23  1.8983e-23  3.4597e-23  1.9060e-23  3.5407e-23  1.9196e-23  3.6844e-23  1.9438e-23  3.9393e-23  1.9870e-23  4.3906e-23  2.0638e-23  5.1878e-23  2.2011e-23  6.5920e-23  2.4466e-23  9.0823e-23  2.8878e-23  1.3518e-22  3.6857e-23  2.1495e-22  5.1433e-23  3.5857e-22  7.8612e-23  6.2119e-22  1.3085e-22  1.1173e-21  2.3565e-22
      3.25  3.1238e-23  2.1155e-23  3.1262e-23  2.1159e-23  3.1306e-23  2.1166e-23  3.1384e-23  2.1180e-23  3.1522e-23  2.1204e-23  3.1767e-23  2.1246e-23  3.2203e-23  2.1322e-23  3.2978e-23  2.1457e-23  3.4353e-23  2.1696e-23  3.6792e-23  2.2123e-23  4.1112e-23  2.2884e-23  4.8743e-23  2.4241e-23  6.2185e-23  2.6671e-23  8.6025e-23  3.1035e-23  1.2851e-22  3.8931e-23  2.0487e-22  5.3372e-23  3.4250e-22  8.0325e-23  5.9435e-22  1.3221e-22  1.0699e-21  2.3659e-22
      3.30  2.9043e-23  2.3693e-23  2.9066e-23  2.3698e-23  2.9108e-23  2.3705e-23  2.9182e-23  2.3718e-23  2.9314e-23  2.3741e-23  2.9549e-23  2.3783e-23  2.9966e-23  2.3857e-23  3.0707e-23  2.3988e-23  3.2022e-23  2.4223e-23  3.4355e-23  2.4639e-23  3.8487e-23  2.5382e-23  4.5787e-23  2.6707e-23  5.8647e-23  2.9080e-23  8.1452e-23  3.3342e-23  1.2211e-22  4.1057e-23  1.9515e-22  5.5182e-23  3.2692e-22  8.1579e-23  5.6830e-22  1.3249e-22  1.0241e-21  2.3523e-22
      3.35  2.6994e-23  2.6540e-23  2.7016e-23  2.6543e-23  2.7057e-23  2.6551e-23  2.7127e-23  2.6564e-23  2.7254e-23  2.6586e-23  2.7478e-23  2.6626e-23  2.7876e-23  2.6698e-23  2.8585e-23  2.6825e-23  2.9842e-23  2.7050e-23  3.2072e-23  2.7452e-23  3.6022e-23  2.8169e-23  4.3000e-23  2.9447e-23  5.5296e-23  3.1736e-23  7.7098e-23  3.5849e-23  1.1598e-22  4.3297e-23  1.8580e-22  5.6948e-23  3.1187e-22  8.2499e-23  5.4302e-22  1.3189e-22  9.7967e-22  2.3190e-22
      3.40  2.5083e-23  2.9732e-23  2.5104e-23  2.9735e-23  2.5142e-23  2.9742e-23  2.5210e-23  2.9754e-23  2.5331e-23  2.9776e-23  2.5545e-23  2.9814e-23  2.5925e-23  2.9882e-23  2.6602e-23  3.0003e-23  2.7803e-23  3.0218e-23  2.9933e-23  3.0601e-23  3.3707e-23  3.1285e-23  4.0375e-23  3.2504e-23  5.2125e-23  3.4687e-23  7.2953e-23  3.8612e-23  1.1012e-22  4.5722e-23  1.7681e-22  5.8772e-23  2.9734e-22  8.3237e-23  5.1853e-22  1.3066e-22  9.3655e-22  2.2703e-22
      3.45  2.3300e-23  3.3311e-23  2.3320e-23  3.3314e-23  2.3357e-23  3.3321e-23  2.3421e-23  3.3332e-23  2.3536e-23  3.3352e-23  2.3741e-23  3.3388e-23  2.4104e-23  3.3453e-23  2.4750e-23  3.3567e-23  2.5896e-23  3.3770e-23  2.7930e-23  3.4132e-23  3.1533e-23  3.4777e-23  3.7900e-23  3.5928e-23  4.9122e-23  3.7989e-23  6.9007e-23  4.1696e-23  1.0450e-22  4.8416e-23  1.6817e-22  6.0766e-23  2.8333e-22  8.3963e-23  4.9489e-22  1.2905e-22  8.9488e-22  2.2107e-22
      3.50  2.1638e-23  3.7324e-23  2.1657e-23  3.7327e-23  2.1692e-23  3.7333e-23  2.1753e-23  3.7344e-23  2.1863e-23  3.7363e-23  2.2058e-23  3.7397e-23  2.2405e-23  3.7457e-23  2.3021e-23  3.7564e-23  2.4114e-23  3.7754e-23  2.6055e-23  3.8093e-23  2.9492e-23  3.8696e-23  3.5568e-23  3.9774e-23  4.6280e-23  4.1703e-23  6.5252e-23  4.5173e-23  9.9126e-23  5.1470e-23  1.5987e-22  6.3056e-23  2.6982e-22  8.4861e-23  4.7220e-22  1.2736e-22  8.5471e-22  2.1450e-22
      3.55  2.0088e-23  4.1826e-23  2.0107e-23  4.1829e-23  2.0140e-23  4.1834e-23  2.0199e-23  4.1844e-23  2.0303e-23  4.1862e-23  2.0489e-23  4.1893e-23  2.0820e-23  4.1949e-23  2.1407e-23  4.2048e-23  2.2450e-23  4.2225e-23  2.4300e-23  4.2540e-23  2.7577e-23  4.3101e-23  3.3372e-23  4.4102e-23  4.3591e-23  4.5895e-23  6.1680e-23  4.9123e-23  9.3988e-23  5.4982e-23  1.5193e-22  6.5775e-23  2.5683e-22  8.6130e-23  4.5035e-22  1.2590e-22  8.1624e-22  2.0783e-22
      3.60  1.8645e-23  4.6874e-23  1.8662e-23  4.6877e-23  1.8694e-23  4.6882e-23  1.8750e-23  4.6891e-23  1.8850e-23  4.6908e-23  1.9027e-23  4.6937e-23  1.9341e-23  4.6988e-23  1.9901e-23  4.7080e-23  2.0895e-23  4.7244e-23  2.2658e-23  4.7535e-23  2.5782e-23  4.8054e-23  3.1306e-23  4.8981e-23  4.1051e-23  5.0641e-23  5.8290e-23  5.3629e-23  8.9089e-23  5.9056e-23  1.4435e-22  6.9064e-23  2.4436e-22  8.7973e-23  4.2933e-22  1.2499e-22  7.7917e-22  2.0161e-22
      3.65  1.7300e-23  5.2536e-23  1.7317e-23  5.2539e-23  1.7347e-23  5.2544e-23  1.7400e-23  5.2552e-23  1.7495e-23  5.2567e-23  1.7664e-23  5.2594e-23  1.7964e-23  5.2642e-23  1.8497e-23  5.2727e-23  1.9443e-23  5.2878e-23  2.1123e-23  5.3147e-23  2.4100e-23  5.3627e-23  2.9367e-23  5.4484e-23  3.8657e-23  5.6018e-23  5.5085e-23  5.8782e-23  8.4437e-23  6.3803e-23  1.3713e-22  7.3068e-23  2.3247e-22  9.0597e-23  4.0919e-22  1.2497e-22  7.4361e-22  1.9637e-22
      3.70  1.6048e-23  5.8887e-23  1.6064e-23  5.8889e-23  1.6092e-23  5.8894e-23  1.6143e-23  5.8901e-23  1.6234e-23  5.8915e-23  1.6394e-23  5.8940e-23  1.6680e-23  5.8985e-23  1.7188e-23  5.9063e-23  1.8090e-23  5.9204e-23  1.9691e-23  5.9453e-23  2.2529e-23  5.9898e-23  2.7549e-23  6.0693e-23  3.6410e-23  6.2116e-23  5.2066e-23  6.4678e-23  8.0043e-23  6.9335e-23  1.3029e-22  7.7930e-23  2.2119e-22  9.4202e-23  3.9003e-22  1.2612e-22  7.0971e-22  1.9261e-22
      3.75  1.4882e-23  6.6009e-23  1.4897e-23  6.6012e-23  1.4924e-23  6.6016e-23  1.4973e-23  6.6023e-23  1.5059e-23  6.6036e-23  1.5212e-23  6.6059e-23  1.5485e-23  6.6101e-23  1.5969e-23  6.6174e-23  1.6829e-23  6.6305e-23  1.8355e-23  6.6539e-23  2.1061e-23  6.6954e-23  2.5851e-23  6.7696e-23  3.4305e-23  6.9025e-23  4.9234e-23  7.1418e-23  7.5920e-23  7.5766e-23  1.2384e-22  8.3788e-23  2.1055e-22  9.8969e-23  3.7191e-22  1.2873e-22  6.7755e-22  1.9078e-22
      3.80  1.3797e-23  7.4000e-23  1.3812e-23  7.4002e-23  1.3838e-23  7.4006e-23  1.3884e-23  7.4013e-23  1.3966e-23  7.4025e-23  1.4112e-23  7.4047e-23  1.4372e-23  7.4086e-23  1.4834e-23  7.4155e-23  1.5655e-23  7.4279e-23  1.7111e-23  7.4500e-23  1.9694e-23  7.4893e-23  2.4266e-23  7.5594e-23  3.2341e-23  7.6849e-23  4.6587e-23  7.9109e-23  7.2066e-23  8.3211e-23  1.1780e-22  9.0773e-23  2.0065e-22  1.0506e-22  3.5485e-22  1.3303e-22  6.4720e-22  1.9125e-22
      3.85  1.2788e-23  8.2962e-23  1.2802e-23  8.2964e-23  1.2827e-23  8.2968e-23  1.2871e-23  8.2975e-23  1.2949e-23  8.2986e-23  1.3089e-23  8.3007e-23  1.3337e-23  8.3045e-23  1.3778e-23  8.3112e-23  1.4562e-23  8.3230e-23  1.5953e-23  8.3442e-23  1.8420e-23  8.3819e-23  2.2789e-23  8.4490e-23  3.0508e-23  8.5694e-23  4.4117e-23  8.7859e-23  6.8464e-23  9.1785e-23  1.1214e-22  9.9011e-23  1.9142e-22  1.1262e-22  3.3886e-22  1.3919e-22  6.1863e-22  1.9429e-22
      3.90  1.1849e-23  9.3015e-23  1.1862e-23  9.3017e-23  1.1886e-23  9.3021e-23  1.1928e-23  9.3027e-23  1.2004e-23  9.3039e-23  1.2137e-23  9.3059e-23  1.2374e-23  9.3096e-23  1.2796e-23  9.3161e-23  1.3545e-23  9.3277e-23  1.4875e-23  9.3483e-23  1.7234e-23  9.3851e-23  2.1412e-23  9.4507e-23  2.8797e-23  9.5680e-23  4.1822e-23  9.7790e-23  6.5096e-23  1.0161e-22  1.0684e-22  1.0863e-22  1.8279e-22  1.2179e-22  3.2394e-22  1.4738e-22  5.9181e-22  2.0011e-22
      3.95  1.0976e-23  1.0429e-22  1.0989e-23  1.0429e-22  1.1012e-23  1.0430e-22  1.1052e-23  1.0430e-22  1.1124e-23  1.0431e-22  1.1252e-23  1.0433e-22  1.1478e-23  1.0437e-22  1.1882e-23  1.0444e-22  1.2598e-23  1.0455e-22  1.3871e-23  1.0475e-22  1.6128e-23  1.0512e-22  2.0128e-23  1.0576e-22  2.7199e-23  1.0692e-22  3.9674e-23  1.0900e-22  6.1938e-23  1.1275e-22  1.0187e-22  1.1964e-22  1.7466e-22  1.3250e-22  3.0988e-22  1.5736e-22  5.6660e-22  2.0822e-22
