# This was generated using Cloudy10 and the columns are ordered 
# as log10 of the fraction of the metallicity to the solar metallicity
# 'h_*_Z' and 'c_*_Z' stands for cooling and heating respectively 
# at * metalicity
#
# Redshift = 1.0
# hden = 2.0
#     temp   h_-3.00_Z   c_-3.00_Z   h_-2.75_Z   c_-2.75_Z   h_-2.50_Z   c_-2.50_Z   h_-2.25_Z   c_-2.25_Z   h_-2.00_Z   c_-2.00_Z   h_-1.75_Z   c_-1.75_Z   h_-1.50_Z   c_-1.50_Z   h_-1.25_Z   c_-1.25_Z   h_-1.00_Z   c_-1.00_Z   h_-0.75_Z   c_-0.75_Z   h_-0.50_Z   c_-0.50_Z   h_-0.25_Z   c_-0.25_Z    h_0.00_Z    c_0.00_Z    h_0.25_Z    c_0.25_Z    h_0.50_Z    c_0.50_Z    h_0.75_Z    c_0.75_Z    h_1.00_Z    c_1.00_Z    h_1.25_Z    c_1.25_Z    h_1.50_Z    c_1.50_Z 
      1.00  6.0854e-26  1.3702e-29  6.0854e-26  1.3725e-29  6.0855e-26  1.3766e-29  6.0856e-26  1.3838e-29  6.0858e-26  1.3967e-29  6.0862e-26  1.4196e-29  6.0869e-26  1.4604e-29  6.0881e-26  1.5328e-29  6.0903e-26  1.6617e-29  6.0942e-26  1.891e-29  6.1011e-26  2.2988e-29  6.1133e-26  3.0247e-29  6.1352e-26  4.3173e-29  6.1741e-26  6.6215e-29  6.2435e-26  1.0736e-28  6.3678e-26  1.8102e-28  6.5914e-26  3.1333e-28  6.9965e-26  5.5192e-28  7.7383e-26  9.8332e-28
      1.05  6.0822e-26  1.5461e-29  6.0823e-26  1.5491e-29  6.0823e-26  1.5546e-29  6.0824e-26  1.5644e-29  6.0827e-26  1.5817e-29  6.083e-26  1.6125e-29  6.0837e-26  1.6674e-29  6.085e-26  1.7649e-29  6.0871e-26  1.9383e-29  6.091e-26  2.2468e-29  6.0978e-26  2.7957e-29   6.11e-26  3.7723e-29  6.1318e-26  5.5113e-29  6.1705e-26  8.6103e-29  6.2397e-26  1.4141e-28  6.3635e-26  2.4035e-28  6.5862e-26  4.1786e-28  6.9897e-26  7.374e-28  7.729e-26  1.314e-27
      1.10  6.0789e-26  1.7426e-29  6.079e-26  1.7467e-29  6.079e-26  1.754e-29  6.0792e-26  1.7671e-29  6.0794e-26  1.7902e-29  6.0798e-26  1.8313e-29  6.0805e-26  1.9045e-29  6.0817e-26  2.0346e-29  6.0838e-26  2.2659e-29  6.0877e-26  2.6774e-29  6.0945e-26  3.4094e-29  6.1067e-26  4.7118e-29  6.1284e-26  7.0301e-29  6.167e-26  1.1159e-28  6.2359e-26  1.8522e-28  6.3594e-26  3.1673e-28  6.5814e-26  5.5215e-28  6.9839e-26  9.7464e-28  7.7215e-26  1.7341e-27
      1.15  6.0755e-26  1.9624e-29  6.0756e-26  1.9679e-29  6.0757e-26  1.9776e-29  6.0758e-26  1.9949e-29  6.076e-26  2.0257e-29  6.0764e-26  2.0804e-29  6.0771e-26  2.1777e-29  6.0783e-26  2.3508e-29  6.0804e-26  2.6585e-29  6.0842e-26  3.2058e-29  6.0911e-26  4.1792e-29  6.1032e-26  5.9106e-29  6.1248e-26  8.9909e-29  6.1633e-26  1.4473e-28  6.232e-26  2.4233e-28  6.3551e-26  4.1627e-28  6.5765e-26  7.2653e-28  6.9779e-26  1.2806e-27  7.7138e-26  2.2708e-27
      1.20  6.072e-26  2.2084e-29  6.0721e-26  2.2157e-29  6.0721e-26  2.2287e-29  6.0723e-26  2.2517e-29  6.0725e-26  2.2927e-29  6.0728e-26  2.3656e-29  6.0735e-26  2.4953e-29  6.0747e-26  2.7258e-29  6.0769e-26  3.1358e-29  6.0807e-26  3.8648e-29  6.0875e-26  5.161e-29  6.0996e-26  7.4657e-29  6.1211e-26  1.1563e-28  6.1595e-26  1.8846e-28  6.228e-26  3.1786e-28  6.3507e-26  5.4768e-28  6.5714e-26  9.5554e-28  6.9717e-26  1.6788e-27  7.7058e-26  2.9605e-27
      1.25  6.0684e-26  2.4838e-29  6.0684e-26  2.4935e-29  6.0685e-26  2.5108e-29  6.0686e-26  2.5417e-29  6.0688e-26  2.5965e-29  6.0692e-26  2.6939e-29  6.0699e-26  2.8672e-29  6.0711e-26  3.1754e-29  6.0732e-26  3.7234e-29  6.077e-26  4.6975e-29  6.0838e-26  6.4292e-29  6.0958e-26  9.5065e-29  6.1173e-26  1.4972e-28  6.1555e-26  2.4671e-28  6.2238e-26  4.1858e-28  6.3461e-26  7.2247e-28  6.5662e-26  1.2581e-27  6.9654e-26  2.1993e-27  7.6977e-26  3.8485e-27
      1.30  6.0646e-26  2.7926e-29  6.0646e-26  2.8056e-29  6.0647e-26  2.8289e-29  6.0648e-26  2.8702e-29  6.065e-26  2.9436e-29  6.0654e-26  3.0742e-29  6.0661e-26  3.3064e-29  6.0673e-26  3.7193e-29  6.0694e-26  4.4534e-29  6.0732e-26  5.7582e-29   6.08e-26  8.0767e-29  6.092e-26  1.2194e-28  6.1133e-26  1.9499e-28  6.1515e-26  3.2437e-28  6.2195e-26  5.5288e-28  6.3414e-26  9.5475e-28  6.5608e-26  1.6574e-27  6.9589e-26  2.8777e-27  7.6895e-26  4.9877e-27
      1.35  6.0607e-26  3.1386e-29  6.0607e-26  3.1561e-29  6.0608e-26  3.1872e-29  6.0609e-26  3.2425e-29  6.0611e-26  3.3409e-29  6.0615e-26  3.5157e-29  6.0622e-26  3.8267e-29  6.0634e-26  4.3795e-29  6.0655e-26  5.3621e-29  6.0693e-26  7.1085e-29  6.076e-26  1.021e-28  6.0879e-26  1.5715e-28  6.1092e-26  2.5468e-28  6.1472e-26  4.2705e-28  6.2151e-26  7.3037e-28  6.3366e-26  1.2606e-27  6.5553e-26  2.1791e-27  6.9523e-26  3.7539e-27  7.6811e-26  6.4346e-27
      1.40  6.0566e-26  3.5265e-29  6.0566e-26  3.5498e-29  6.0567e-26  3.5913e-29  6.0568e-26  3.665e-29  6.057e-26  3.796e-29  6.0574e-26  4.029e-29  6.0581e-26  4.4433e-29  6.0593e-26  5.1798e-29  6.0614e-26  6.4888e-29  6.0652e-26  8.8145e-29  6.0719e-26  1.2944e-28  6.0838e-26  2.0266e-28  6.105e-26  3.3223e-28  6.1429e-26  5.6069e-28  6.2105e-26  9.6116e-28  6.3316e-26  1.6568e-27  6.5496e-26  2.8499e-27  6.9455e-26  4.8674e-27  7.6726e-26  8.2441e-27
      1.45  6.0524e-26  3.9613e-29  6.0524e-26  3.992e-29  6.0525e-26  4.0467e-29  6.0526e-26  4.1438e-29  6.0528e-26  4.3166e-29  6.0532e-26  4.6239e-29  6.0539e-26  5.1702e-29  6.0551e-26  6.1413e-29  6.0572e-26  7.867e-29  6.0609e-26  1.0932e-28  6.0676e-26  1.6372e-28  6.0795e-26  2.6012e-28  6.1006e-26  4.3047e-28  6.1383e-26  7.3013e-28  6.2057e-26  1.2534e-27  6.3264e-26  2.1563e-27  6.5438e-26  3.6896e-27  6.9385e-26  6.2453e-27  7.6638e-26  1.0448e-26
      1.50  6.048e-26  4.4486e-29  6.0481e-26  4.4887e-29  6.0481e-26   4.56e-29  6.0482e-26  4.6869e-29  6.0485e-26  4.9124e-29  6.0488e-26  5.3135e-29  6.0495e-26  6.0265e-29  6.0507e-26  7.2939e-29  6.0528e-26  9.5459e-29  6.0565e-26  1.3545e-28  6.0632e-26  2.0639e-28  6.075e-26  3.3201e-28  6.0961e-26  5.5371e-28  6.1336e-26  9.4283e-28  6.2008e-26  1.6197e-27  6.3211e-26  2.7804e-27  6.5378e-26  4.7316e-27  6.9315e-26  7.9388e-27  7.6551e-26  1.3121e-26
      1.55  6.0435e-26  4.9956e-29  6.0435e-26  5.0473e-29  6.0436e-26  5.1392e-29  6.0437e-26  5.3028e-29  6.0439e-26  5.5935e-29  6.0443e-26  6.1105e-29  6.045e-26  7.0296e-29  6.0461e-26  8.6632e-29  6.0482e-26  1.1565e-28  6.0519e-26  1.6718e-28  6.0586e-26  2.5856e-28  6.0704e-26  4.2023e-28  6.0914e-26  7.0522e-28  6.1288e-26  1.2044e-27  6.1957e-26  2.0694e-27  6.3156e-26  3.5441e-27  6.5317e-26  5.9999e-27  6.9243e-26  9.9823e-27  7.6462e-26  1.6309e-26
      1.60  6.0388e-26  5.6085e-29  6.0388e-26  5.6743e-29  6.0389e-26  5.7914e-29  6.039e-26  5.9996e-29  6.0392e-26  6.3698e-29  6.0396e-26  7.028e-29  6.0402e-26  8.1982e-29  6.0414e-26  1.0278e-28  6.0435e-26  1.3972e-28  6.0472e-26  2.053e-28  6.0538e-26  3.2154e-28  6.0656e-26  5.2709e-28  6.0865e-26  8.8901e-28  6.1238e-26  1.5217e-27  6.1905e-26  2.6145e-27   6.31e-26  4.4671e-27  6.5254e-26  7.5258e-27  6.917e-26  1.2424e-26  7.6372e-26  2.0086e-26
      1.65  6.0339e-26  6.2952e-29  6.034e-26  6.3782e-29  6.034e-26  6.5258e-29  6.0341e-26  6.7883e-29  6.0343e-26  7.2549e-29  6.0347e-26  8.0846e-29  6.0354e-26  9.5596e-29  6.0365e-26  1.2181e-28  6.0386e-26  1.6837e-28  6.0423e-26   2.51e-28  6.0489e-26  3.9742e-28  6.0606e-26  6.5619e-28  6.0814e-26  1.1114e-27  6.1186e-26  1.9057e-27  6.185e-26  3.2737e-27  6.3042e-26  5.5816e-27  6.519e-26  9.3637e-27  6.9095e-26  1.5356e-26  7.628e-26  2.4605e-26
      1.70  6.0289e-26  7.0652e-29  6.0289e-26  7.1693e-29  6.029e-26  7.3543e-29  6.0291e-26  7.6834e-29  6.0293e-26  8.2684e-29  6.0297e-26  9.3086e-29  6.0303e-26  1.1158e-28  6.0315e-26  1.4443e-28  6.0335e-26  2.0279e-28  6.0372e-26  3.0635e-28  6.0438e-26  4.8982e-28  6.0554e-26  8.139e-28  6.0762e-26  1.3835e-27  6.1132e-26  2.3761e-27  6.1794e-26  4.0816e-27  6.2982e-26  6.9481e-27  6.5123e-26  1.1618e-26  6.9017e-26  1.8958e-26  7.6186e-26  3.0175e-26
      1.75  6.0236e-26  7.9296e-29  6.0237e-26  8.0602e-29  6.0237e-26  8.2924e-29  6.0238e-26  8.7052e-29  6.024e-26  9.4393e-29  6.0244e-26  1.0744e-28  6.0251e-26  1.3064e-28  6.0262e-26  1.7187e-28  6.0283e-26  2.4509e-28  6.0319e-26   3.75e-28  6.0385e-26  6.051e-28  6.0501e-26  1.0114e-27  6.0708e-26  1.7253e-27  6.1076e-26  2.9681e-27  6.1736e-26  5.1003e-27  6.2919e-26  8.6756e-27  6.5054e-26  1.4481e-26  6.8938e-26  2.3565e-26  7.609e-26  3.7382e-26
      1.80  6.0182e-26  8.9043e-29  6.0182e-26  9.0693e-29  6.0183e-26  9.3628e-29  6.0184e-26  9.8847e-29  6.0186e-26  1.0813e-28  6.019e-26  1.2462e-28  6.0196e-26  1.5395e-28  6.0208e-26  2.0606e-28  6.0228e-26  2.9861e-28  6.0265e-26  4.6281e-28  6.033e-26  7.5364e-28  6.0445e-26  1.2672e-27  6.0651e-26  2.1691e-27  6.1019e-26  3.739e-27  6.1676e-26  6.4314e-27  6.2855e-26  1.0943e-26  6.4983e-26  1.827e-26  6.8856e-26  2.9739e-26  7.5991e-26  4.721e-26
      1.85  6.0125e-26  1.0004e-28  6.0126e-26  1.0215e-28  6.0126e-26  1.059e-28  6.0128e-26  1.1258e-28  6.013e-26  1.2446e-28  6.0133e-26  1.4558e-28  6.014e-26  1.8311e-28  6.0151e-26  2.4981e-28  6.0172e-26  3.6827e-28  6.0208e-26  5.7845e-28  6.0273e-26  9.5074e-28  6.0388e-26  1.6082e-27  6.0593e-26  2.7632e-27  6.0959e-26  4.7744e-27  6.1613e-26  8.2265e-27  6.2788e-26  1.4021e-26  6.491e-26  2.3461e-26  6.8772e-26  3.8322e-26  7.589e-26  6.1141e-26
      1.90  6.0067e-26  1.1246e-28  6.0067e-26  1.152e-28  6.0068e-26  1.2007e-28  6.0069e-26  1.2872e-28  6.0071e-26  1.4411e-28  6.0075e-26  1.7147e-28  6.0081e-26  2.201e-28  6.0093e-26  3.0653e-28  6.0113e-26  4.6003e-28  6.0149e-26  7.3242e-28  6.0213e-26  1.215e-27  6.0328e-26  2.0675e-27  6.0532e-26  3.5661e-27  6.0897e-26  6.1786e-27  6.1549e-26  1.0672e-26  6.272e-26  1.8242e-26  6.4836e-26  3.0652e-26  6.8689e-26  5.0385e-26  7.5794e-26  8.1078e-26
      1.95  6.0006e-26  1.265e-28  6.0007e-26  1.3004e-28  6.0007e-26  1.3635e-28  6.0008e-26  1.4757e-28  6.001e-26  1.6751e-28  6.0014e-26  2.0297e-28  6.002e-26   2.66e-28  6.0032e-26  3.7801e-28  6.0052e-26  5.7699e-28  6.0088e-26  9.3015e-28  6.0153e-26  1.556e-27  6.0267e-26  2.6623e-27  6.0471e-26  4.6092e-27  6.0836e-26  8.0094e-27  6.1488e-26  1.3877e-26  6.266e-26  2.3817e-26  6.4777e-26  4.0258e-26  6.8635e-26  6.6747e-26  7.5751e-26  1.0858e-25
      2.00  5.9943e-26  1.4249e-28  5.9944e-26  1.4717e-28  5.9944e-26  1.5551e-28  5.9945e-26  1.7032e-28  5.9947e-26  1.9667e-28  5.9951e-26  2.4351e-28  5.9957e-26  3.2678e-28  5.9969e-26  4.7477e-28  5.9989e-26  7.3768e-28  6.0025e-26  1.2044e-27  6.0089e-26  2.0318e-27  6.0203e-26  3.4951e-27  6.0406e-26  6.0729e-27  6.0769e-26  1.0583e-26  6.1419e-26  1.8389e-26  6.2587e-26  3.1687e-26  6.4698e-26  5.387e-26  6.8546e-26  9.0056e-26  7.5647e-26  1.4804e-25
      2.05  5.9878e-26  1.6072e-28  5.9878e-26  1.6692e-28  5.9879e-26  1.7794e-28  5.988e-26  1.9754e-28  5.9882e-26  2.3238e-28  5.9885e-26  2.9434e-28  5.9892e-26  4.0449e-28  5.9903e-26  6.0026e-28  5.9923e-26  9.481e-28  5.9959e-26  1.5657e-27  6.0023e-26  2.6608e-27  6.0136e-26  4.5989e-27  6.0338e-26  8.0162e-27  6.0699e-26  1.4006e-26  6.1346e-26  2.4403e-26  6.2509e-26  4.2207e-26  6.4611e-26  7.2149e-26  6.8447e-26  1.2156e-25  7.5528e-26  2.0178e-25
      2.10  5.981e-26  1.8143e-28  5.981e-26  1.8956e-28  5.9811e-26  2.0402e-28  5.9812e-26  2.2974e-28  5.9814e-26  2.7547e-28  5.9818e-26  3.5679e-28  5.9824e-26  5.0135e-28  5.9835e-26  7.583e-28  5.9855e-26  1.2149e-27  5.9891e-26  2.0256e-27  5.9954e-26  3.4638e-27  6.0067e-26  6.0103e-27  6.0268e-26  1.0505e-26  6.0627e-26  1.8395e-26  6.127e-26  3.2129e-26  6.2428e-26  5.5757e-26  6.4523e-26  9.5783e-26  6.8345e-26  1.625e-25  7.5405e-26  2.7207e-25
      2.15  5.9739e-26  2.0489e-28  5.974e-26  2.1543e-28  5.974e-26  2.3416e-28  5.9742e-26  2.6748e-28  5.9744e-26  3.2673e-28  5.9747e-26  4.3207e-28  5.9753e-26  6.1936e-28  5.9764e-26  9.5227e-28  5.9784e-26  1.5439e-27  5.982e-26  2.5946e-27  5.9883e-26  4.4589e-27  5.9995e-26  7.7613e-27  6.0195e-26  1.3595e-26  6.0552e-26  2.385e-26  6.1192e-26  4.1747e-26  6.2344e-26  7.2658e-26  6.4431e-26  1.2535e-25  6.8241e-26  2.1394e-25  7.528e-26  3.6079e-25
      2.20  5.9666e-26  2.314e-28  5.9667e-26  2.4483e-28  5.9667e-26  2.6872e-28  5.9668e-26  3.112e-28  5.967e-26  3.8672e-28  5.9674e-26  5.2102e-28  5.968e-26  7.5978e-28  5.9691e-26  1.1842e-27  5.9711e-26  1.9385e-27  5.9746e-26  3.2783e-27  5.9809e-26  5.6561e-27  5.992e-26  9.8699e-27  6.0119e-26  1.7318e-26  6.0474e-26  3.0427e-26  6.1111e-26  5.3357e-26  6.2258e-26  9.3094e-26  6.4336e-26  1.6119e-25  6.8134e-26  2.7648e-25  7.5152e-26  4.691e-25
      2.25  5.959e-26  2.6125e-28  5.9591e-26  2.7807e-28  5.9591e-26  3.0799e-28  5.9592e-26  3.6118e-28  5.9594e-26  4.5577e-28  5.9598e-26  6.2395e-28  5.9604e-26  9.2297e-28  5.9615e-26  1.4545e-27  5.9635e-26  2.3993e-27  5.967e-26  4.0776e-27  5.9732e-26  7.0567e-27  5.9843e-26  1.2338e-26  6.004e-26  2.1678e-26  6.0393e-26  3.8134e-26  6.1027e-26  6.697e-26  6.2168e-26  1.1708e-25  6.4239e-26  2.0334e-25  6.8024e-26  3.5025e-25  7.5023e-26  5.9726e-25
      2.30  5.9512e-26  2.9485e-28  5.9512e-26  3.1553e-28  5.9512e-26  3.523e-28  5.9514e-26  4.1769e-28  5.9516e-26  5.3397e-28  5.9519e-26  7.4073e-28  5.9525e-26  1.1083e-27  5.9536e-26  1.7618e-27  5.9556e-26  2.9234e-27  5.959e-26  4.9869e-27  5.9652e-26  8.6506e-27  5.9762e-26  1.5147e-26  5.9958e-26  2.6643e-26  6.0309e-26  4.6913e-26  6.0939e-26  8.2484e-26  6.2076e-26  1.4445e-25  6.4138e-26  2.515e-25  6.791e-26  4.3472e-25  7.4887e-26  7.4446e-25
      2.35  5.943e-26  3.3241e-28  5.943e-26  3.5737e-28  5.9431e-26  4.0176e-28  5.9432e-26  4.807e-28  5.9434e-26  6.2106e-28  5.9437e-26  8.7065e-28  5.9443e-26  1.3144e-27  5.9454e-26  2.1033e-27  5.9473e-26  3.5056e-27  5.9508e-26  5.997e-27  5.9569e-26  1.0421e-26  5.9679e-26  1.8267e-26  5.9874e-26  3.2157e-26  6.0223e-26  5.6667e-26  6.085e-26  9.9728e-26  6.1981e-26  1.7489e-25  6.4036e-26  3.0512e-25  6.7797e-26  5.289e-25  7.4756e-26  9.0891e-25
      2.40  5.9345e-26  3.7426e-28  5.9345e-26  4.0386e-28  5.9346e-26  4.5651e-28  5.9347e-26  5.5013e-28  5.9349e-26  7.1661e-28  5.9352e-26  1.0126e-27  5.9358e-26  1.539e-27  5.9369e-26  2.4747e-27  5.9388e-26  4.1379e-27  5.9422e-26  7.0933e-27  5.9483e-26  1.2341e-26  5.9592e-26  2.1651e-26  5.9786e-26  3.8138e-26  6.0133e-26  6.7247e-26  6.0757e-26  1.1844e-25  6.1884e-26  2.0794e-25  6.3932e-26  3.6339e-25  6.7682e-26  6.314e-25  7.4622e-26  1.0882e-24
      2.45  5.9256e-26  4.2075e-28  5.9257e-26  4.5529e-28  5.9257e-26  5.167e-28  5.9258e-26  6.2591e-28  5.926e-26  8.201e-28  5.9264e-26  1.1654e-27  5.927e-26  1.7794e-27  5.9281e-26  2.8709e-27   5.93e-26  4.8111e-27  5.9334e-26  8.2588e-27  5.9394e-26  1.4382e-26  5.9502e-26  2.5245e-26  5.9695e-26  4.4488e-26  6.004e-26  7.848e-26  6.0661e-26  1.3831e-25  6.1783e-26  2.4305e-25  6.3824e-26  4.2533e-25  6.7564e-26  7.405e-25  7.4485e-26  1.2795e-24
      2.50  5.9165e-26  4.7232e-28  5.9165e-26   5.12e-28  5.9166e-26  5.8256e-28  5.9167e-26  7.0803e-28  5.9169e-26  9.3114e-28  5.9172e-26  1.3279e-27  5.9178e-26  2.0333e-27  5.9189e-26  3.2874e-27  5.9208e-26  5.5167e-27  5.9242e-26  9.4782e-27  5.9302e-26  1.6514e-26  5.9409e-26  2.8999e-26  5.9601e-26  5.112e-26  5.9944e-26  9.021e-26  6.0562e-26  1.5906e-25  6.1679e-26  2.7972e-25  6.3713e-26  4.9009e-25  6.7442e-26  8.5467e-25  7.4345e-26   1.48e-24
      2.55  5.907e-26  5.2968e-28  5.907e-26  5.7465e-28  5.9071e-26  6.546e-28  5.9072e-26  7.9678e-28  5.9073e-26  1.0496e-27  5.9077e-26  1.4991e-27  5.9083e-26  2.2985e-27  5.9093e-26  3.7196e-27  5.9112e-26  6.2458e-27  5.9146e-26  1.0735e-26  5.9206e-26  1.8709e-26  5.9312e-26  3.286e-26  5.9503e-26  5.7936e-26  5.9844e-26  1.0226e-25  6.0459e-26  1.8038e-25  6.1572e-26  3.1742e-25  6.3599e-26  5.5668e-25  6.7317e-26  9.722e-25  7.4202e-26  1.6867e-24
      2.60  5.8971e-26  5.9319e-28  5.8971e-26  6.435e-28  5.8972e-26  7.3298e-28  5.8973e-26  8.9208e-28  5.8975e-26  1.175e-27  5.8978e-26  1.6781e-27  5.8984e-26  2.5726e-27  5.8994e-26  4.163e-27  5.9013e-26  6.9901e-27  5.9046e-26  1.2014e-26  5.9106e-26  2.0939e-26  5.9212e-26  3.6778e-26  5.9401e-26  6.485e-26  5.9741e-26  1.1449e-25  6.0352e-26   2.02e-25  6.146e-26  3.5565e-25  6.3481e-26  6.2425e-25  6.7189e-26  1.0916e-24  7.4055e-26  1.897e-24
      2.65  5.8868e-26  6.6348e-28  5.8868e-26  7.1916e-28  5.8869e-26  8.1819e-28  5.887e-26  9.9428e-28  5.8872e-26  1.3074e-27  5.8875e-26  1.8642e-27  5.8881e-26  2.8542e-27  5.8891e-26  4.6144e-27  5.891e-26  7.7434e-27  5.8943e-26  1.3304e-26  5.9002e-26  2.3182e-26  5.9108e-26  4.0715e-26  5.9296e-26  7.1794e-26  5.9633e-26  1.2676e-25  6.0242e-26  2.2371e-25  6.1346e-26  3.9404e-25  6.3359e-26  6.9212e-25  6.7056e-26  1.2116e-24  7.3903e-26  2.1088e-24
      2.70  5.8761e-26  7.4129e-28  5.8762e-26  8.0233e-28  5.8762e-26  9.1086e-28  5.8763e-26  1.1039e-27  5.8765e-26  1.4471e-27  5.8768e-26  2.0573e-27  5.8774e-26  3.1425e-27  5.8785e-26  5.0717e-27  5.8803e-26  8.5014e-27  5.8836e-26  1.4597e-26  5.8895e-26  2.5424e-26  5.8999e-26  4.4644e-26  5.9186e-26  7.8717e-26  5.9522e-26  1.3899e-25  6.0128e-26  2.4534e-25  6.1227e-26  4.323e-25  6.3234e-26  7.5977e-25  6.692e-26  1.3312e-24  7.3749e-26  2.3203e-24
      2.75  5.865e-26  8.2742e-28  5.8651e-26  8.937e-28  5.8651e-26  1.0116e-27  5.8652e-26  1.2211e-27  5.8654e-26  1.5938e-27  5.8657e-26  2.2565e-27  5.8663e-26  3.4349e-27  5.8674e-26   5.53e-27  5.8692e-26  9.2544e-27  5.8725e-26  1.5873e-26  5.8783e-26  2.7632e-26  5.8887e-26  4.8505e-26  5.9073e-26  8.5512e-26  5.9408e-26  1.5098e-25  6.0011e-26  2.6654e-25  6.1106e-26  4.6974e-25  6.3108e-26  8.2585e-25  6.6788e-26  1.4477e-24  7.361e-26  2.5249e-24
      2.80  5.8535e-26  9.2344e-28  5.8535e-26  9.949e-28  5.8536e-26  1.122e-27  5.8537e-26  1.348e-27  5.8539e-26  1.7498e-27  5.8542e-26  2.4644e-27  5.8548e-26  3.7349e-27  5.8558e-26  5.9939e-27  5.8576e-26  1.001e-26  5.8609e-26  1.7147e-26  5.8667e-26  2.9826e-26  5.8771e-26  5.2334e-26  5.8956e-26  9.2243e-26  5.9289e-26  1.6286e-25  5.9889e-26  2.8751e-25  6.0981e-26  5.0678e-25  6.2978e-26  8.9121e-25  6.6653e-26  1.5628e-24  7.3469e-26  2.727e-24
      2.85  5.8415e-26   1.03e-27  5.8416e-26  1.1066e-27  5.8416e-26  1.2429e-27  5.8417e-26  1.4851e-27  5.8419e-26  1.9159e-27  5.8422e-26  2.6818e-27  5.8428e-26  4.0438e-27  5.8438e-26  6.4653e-27  5.8457e-26  1.077e-26  5.8489e-26  1.8421e-26  5.8547e-26  3.2013e-26  5.865e-26  5.6143e-26  5.8834e-26  9.8931e-26  5.9165e-26  1.7465e-25  5.9763e-26  3.0833e-25  6.0852e-26  5.4356e-25  6.2844e-26  9.5611e-25  6.6512e-26  1.6771e-24  7.3322e-26  2.9278e-24
      2.90  5.8291e-26  1.1485e-27  5.8291e-26  1.2302e-27  5.8292e-26  1.3756e-27  5.8293e-26  1.634e-27  5.8295e-26  2.0936e-27  5.8298e-26  2.9108e-27  5.8304e-26  4.3639e-27  5.8314e-26  6.9474e-27  5.8332e-26  1.154e-26  5.8364e-26  1.9703e-26  5.8421e-26  3.4206e-26  5.8524e-26  5.9953e-26  5.8707e-26  1.0561e-25  5.9037e-26  1.8644e-25  5.9633e-26  3.2912e-25  6.0717e-26  5.803e-25  6.2704e-26  1.021e-24  6.6364e-26  1.7915e-24  7.3166e-26  3.1289e-24
      2.95  5.8162e-26  1.2804e-27  5.8162e-26  1.3672e-27  5.8162e-26  1.5217e-27  5.8163e-26  1.7964e-27  5.8165e-26  2.2848e-27  5.8168e-26  3.1534e-27  5.8174e-26  4.6978e-27  5.8184e-26  7.4436e-27  5.8202e-26  1.2325e-26  5.8234e-26  2.1001e-26  5.8291e-26  3.6416e-26  5.8393e-26  6.3785e-26  5.8576e-26  1.1233e-25  5.8904e-26  1.9827e-25  5.9497e-26  3.5002e-25  6.0577e-26  6.1726e-25  6.2557e-26  1.0863e-24  6.6209e-26  1.9067e-24  7.2998e-26  3.3323e-24
      3.00  5.8027e-26  1.4274e-27  5.8027e-26  1.5194e-27  5.8028e-26  1.6831e-27  5.8029e-26  1.9741e-27  5.8031e-26  2.4917e-27  5.8034e-26  3.4119e-27  5.804e-26  5.0483e-27  5.805e-26  7.9578e-27  5.8068e-26  1.313e-26  5.8099e-26  2.2324e-26  5.8156e-26  3.8659e-26  5.8258e-26  6.7664e-26  5.8439e-26  1.1911e-25  5.8766e-26  2.1022e-25  5.9356e-26  3.7117e-25  6.0431e-26  6.5471e-25  6.2403e-26  1.1526e-24  6.6042e-26  2.024e-24  7.2813e-26  3.5399e-24
      3.05  5.7887e-26  1.5927e-27  5.7888e-26  1.6898e-27  5.7888e-26  1.8627e-27  5.7889e-26   2.17e-27  5.7891e-26  2.7166e-27  5.7894e-26  3.6885e-27   5.79e-26  5.4166e-27  5.791e-26  8.4892e-27  5.7928e-26  1.3952e-26  5.7959e-26  2.3661e-26  5.8016e-26  4.0914e-26  5.8117e-26  7.1553e-26  5.8297e-26  1.2591e-25  5.8622e-26  2.222e-25  5.9209e-26  3.9236e-25  6.0278e-26  6.9231e-25  6.224e-26  1.2194e-24  6.5864e-26  2.1425e-24  7.2608e-26  3.7507e-24
      3.10  5.7742e-26  1.7763e-27  5.7742e-26  1.8787e-27  5.7743e-26  2.0609e-27  5.7744e-26  2.3849e-27  5.7745e-26  2.9609e-27  5.7749e-26  3.9853e-27  5.7754e-26  5.8068e-27  5.7764e-26  9.0456e-27  5.7782e-26  1.4804e-26  5.7813e-26  2.5039e-26  5.787e-26  4.3228e-26  5.797e-26  7.5532e-26  5.815e-26  1.3286e-25  5.8472e-26  2.3445e-25  5.9056e-26  4.1407e-25  6.0118e-26  7.3093e-25  6.2068e-26  1.2882e-24  6.567e-26  2.2652e-24  7.2377e-26  3.9701e-24
      3.15  5.759e-26  1.9828e-27  5.7591e-26  2.0907e-27  5.7591e-26  2.2825e-27  5.7592e-26  2.6235e-27  5.7594e-26   3.23e-27  5.7597e-26  4.3084e-27  5.7603e-26  6.2259e-27  5.7613e-26  9.6356e-27  5.763e-26  1.5698e-26  5.7662e-26  2.6474e-26  5.7718e-26  4.5626e-26  5.7818e-26  7.9648e-26  5.7996e-26  1.4004e-25  5.8317e-26  2.4711e-25  5.8896e-26  4.3655e-25  5.995e-26  7.7105e-25  6.1884e-26   1.36e-24  6.5458e-26  2.3938e-24  7.2116e-26  4.2017e-24
      3.20  5.7433e-26  2.2146e-27  5.7433e-26  2.3281e-27  5.7434e-26  2.5299e-27  5.7435e-26  2.8888e-27  5.7437e-26  3.5271e-27  5.744e-26  4.662e-27  5.7445e-26  6.6801e-27  5.7455e-26  1.0269e-26  5.7473e-26  1.6649e-26  5.7504e-26  2.7992e-26  5.756e-26  4.8153e-26  5.7659e-26  8.3974e-26  5.7836e-26  1.4758e-25  5.8155e-26  2.6041e-25  5.8729e-26  4.6021e-25  5.9774e-26  8.1342e-25  6.1689e-26  1.4361e-24  6.5227e-26  2.531e-24  7.1819e-26  4.4503e-24
      3.25  5.7269e-26  2.4737e-27  5.727e-26  2.5933e-27  5.727e-26  2.8059e-27  5.7271e-26  3.184e-27  5.7273e-26  3.8563e-27  5.7276e-26  5.0519e-27  5.7282e-26  7.1779e-27  5.7291e-26  1.0958e-26  5.7309e-26  1.768e-26  5.734e-26  2.9631e-26  5.7395e-26  5.0875e-26  5.7494e-26  8.8629e-26  5.767e-26  1.5569e-25  5.7986e-26  2.7473e-25  5.8556e-26  4.8576e-25  5.9589e-26  8.5919e-25  6.1481e-26  1.5188e-24  6.4975e-26  2.6809e-24  7.1484e-26  4.7235e-24
      3.30  5.7099e-26  2.7663e-27   5.71e-26  2.8926e-27   5.71e-26  3.1171e-27  5.7101e-26  3.5165e-27  5.7103e-26  4.2266e-27  5.7106e-26  5.4894e-27  5.7111e-26  7.735e-27  5.7121e-26  1.1728e-26  5.7139e-26  1.8828e-26  5.7169e-26  3.1453e-26  5.7224e-26  5.3898e-26  5.7323e-26  9.3794e-26  5.7498e-26  1.6469e-25  5.7811e-26  2.9061e-25  5.8375e-26  5.1406e-25  5.9397e-26  9.1006e-25  6.1263e-26  1.6109e-24  6.4704e-26  2.8488e-24  7.1112e-26  5.0316e-24
      3.35  5.6922e-26  3.0942e-27  5.6922e-26  3.2282e-27  5.6923e-26  3.4666e-27  5.6924e-26  3.8906e-27  5.6926e-26  4.6445e-27  5.6929e-26  5.9852e-27  5.6934e-26  8.3692e-27  5.6944e-26  1.2609e-26  5.6961e-26  2.0147e-26  5.6992e-26  3.3552e-26  5.7047e-26  5.7386e-26  5.7144e-26  9.9761e-26  5.7318e-26  1.7509e-25  5.7629e-26  3.0895e-25  5.8188e-26  5.4675e-25  5.9197e-26  9.688e-25  6.1035e-26  1.7174e-24  6.4416e-26  3.0436e-24  7.0707e-26  5.3905e-24
      3.40  5.6738e-26  3.4619e-27  5.6738e-26  3.6052e-27  5.6739e-26   3.86e-27  5.674e-26  4.3131e-27  5.6741e-26  5.1188e-27  5.6744e-26  6.5517e-27  5.675e-26  9.0997e-27  5.6759e-26  1.3631e-26  5.6777e-26  2.1688e-26  5.6807e-26  3.6017e-26  5.6862e-26  6.1496e-26  5.6959e-26  1.068e-25  5.7132e-26  1.8737e-25  5.744e-26  3.3062e-25  5.7994e-26  5.8531e-25  5.8991e-26  1.038e-24   6.08e-26  1.8428e-24  6.4118e-26  3.273e-24  7.0279e-26  5.8149e-24
      3.45  5.6546e-26  3.8746e-27  5.6546e-26  4.029e-27  5.6547e-26  4.3037e-27  5.6548e-26  4.7922e-27  5.6549e-26  5.6609e-27  5.6553e-26  7.2056e-27  5.6558e-26  9.9525e-27  5.6568e-26  1.4837e-26  5.6585e-26  2.3524e-26  5.6615e-26  3.8973e-26  5.6669e-26  6.6446e-26  5.6766e-26  1.1531e-25  5.6937e-26  2.0221e-25  5.7244e-26  3.568e-25  5.7793e-26  6.3186e-25  5.8778e-26  1.1214e-24  6.0561e-26  1.9935e-24  6.3818e-26  3.5483e-24  6.9844e-26  6.3242e-24
      3.50  5.6346e-26  4.338e-27  5.6347e-26  4.5063e-27  5.6347e-26  4.8055e-27  5.6348e-26  5.3376e-27  5.635e-26  6.2838e-27  5.6353e-26  7.9665e-27  5.6358e-26  1.0959e-26  5.6368e-26  1.628e-26  5.6385e-26  2.5743e-26  5.6415e-26  4.2572e-26  5.6469e-26  7.2502e-26  5.6565e-26  1.2574e-25  5.6736e-26  2.2044e-25  5.704e-26  3.8897e-25  5.7585e-26   6.89e-25  5.8561e-26  1.2235e-24  6.032e-26  2.1775e-24  6.352e-26  3.8832e-24  6.9415e-26  6.9426e-24
      3.55  5.6138e-26  4.8645e-27  5.6139e-26   5.05e-27  5.6139e-26  5.3798e-27  5.614e-26  5.9663e-27  5.6142e-26  7.0093e-27  5.6145e-26  8.8641e-27  5.615e-26  1.2162e-26  5.616e-26  1.8028e-26  5.6177e-26  2.8459e-26  5.6207e-26  4.701e-26  5.6261e-26  8.0005e-26  5.6356e-26  1.387e-25  5.6526e-26  2.4312e-25  5.6829e-26  4.2899e-25  5.737e-26  7.6004e-25  5.8338e-26  1.3503e-24  6.0077e-26  2.4051e-24  6.3229e-26  4.2958e-24  6.9006e-26  7.701e-24
      3.60  5.5922e-26  5.4566e-27  5.5922e-26  5.6635e-27  5.5923e-26  6.0314e-27  5.5924e-26  6.6857e-27  5.5925e-26  7.8491e-27  5.5928e-26  9.918e-27  5.5934e-26  1.3597e-26  5.5943e-26  2.014e-26  5.596e-26  3.1776e-26  5.599e-26  5.247e-26  5.6044e-26  8.9277e-26  5.6139e-26  1.5475e-25  5.6308e-26  2.7126e-25  5.661e-26  4.7866e-25  5.7148e-26  8.4819e-25  5.8109e-26  1.5073e-24  5.9834e-26  2.6865e-24  6.2948e-26  4.8038e-24  6.8629e-26  8.6296e-24
      3.65  5.5697e-26  6.1233e-27  5.5697e-26  6.357e-27  5.5697e-26  6.7726e-27  5.5698e-26  7.5117e-27   5.57e-26  8.826e-27  5.5703e-26  1.1163e-26  5.5708e-26  1.5319e-26  5.5718e-26  2.2711e-26  5.5735e-26  3.5855e-26  5.5765e-26  5.9233e-26  5.5818e-26  1.0081e-25  5.5913e-26  1.7478e-25  5.6082e-26  3.0641e-25  5.6383e-26  5.4075e-25  5.6919e-26  9.5834e-25  5.7877e-26  1.7035e-24  5.9592e-26  3.0372e-24  6.2681e-26  5.4347e-24  6.8296e-26  9.7758e-24
      3.70  5.5462e-26  6.8782e-27  5.5462e-26  7.1458e-27  5.5463e-26  7.6217e-27  5.5464e-26  8.4679e-27  5.5466e-26  9.9728e-27  5.5469e-26  1.2649e-26  5.5474e-26  1.7408e-26  5.5483e-26  2.5871e-26   5.55e-26  4.0922e-26  5.553e-26  6.769e-26  5.5584e-26  1.153e-25  5.5679e-26      2e-25  5.5848e-26  3.5072e-25  5.6149e-26  6.1907e-25  5.6686e-26  1.0973e-24  5.7643e-26  1.9507e-24  5.9357e-26  3.4785e-24  6.2438e-26  6.2261e-24  6.8027e-26  1.1205e-23
      3.75  5.5218e-26  7.7716e-27  5.5218e-26  8.0828e-27  5.5219e-26  8.6364e-27  5.522e-26  9.6207e-27  5.5222e-26  1.1371e-26  5.5225e-26  1.4484e-26  5.523e-26  2.0019e-26  5.5239e-26  2.9864e-26  5.5256e-26  4.737e-26  5.5287e-26  7.8506e-26  5.5341e-26  1.3389e-25  5.5436e-26  2.324e-25  5.5607e-26  4.0771e-25  5.591e-26  7.1983e-25  5.645e-26  1.276e-24  5.7414e-26  2.2685e-24  5.9138e-26  4.045e-24  6.2238e-26  7.2391e-24  6.7857e-26  1.3025e-23
      3.80  5.536e-26  9.1786e-27  5.536e-26  9.5478e-27  5.536e-26  1.0204e-26  5.5361e-26  1.1372e-26  5.5363e-26  1.3449e-26  5.5366e-26  1.7141e-26  5.5372e-26  2.3708e-26  5.5381e-26  3.5386e-26  5.5398e-26  5.6154e-26  5.5429e-26  9.3088e-26  5.5483e-26  1.5878e-25  5.5578e-26  2.7564e-25  5.5749e-26  4.8358e-25  5.6053e-26  8.5376e-25  5.6595e-26  1.5133e-24  5.7563e-26  2.6898e-24  5.9295e-26  4.7944e-24  6.2412e-26  8.5745e-24  6.8072e-26  1.5407e-23
      3.85  5.5161e-26  1.3565e-26  5.5162e-26  1.4015e-26  5.5162e-26  1.4815e-26  5.5163e-26  1.6239e-26  5.5165e-26  1.877e-26  5.5168e-26  2.3271e-26  5.5174e-26  3.1276e-26  5.5183e-26  4.5512e-26  5.5201e-26  7.0827e-26  5.5232e-26  1.1585e-25  5.5288e-26  1.9592e-25  5.5387e-26  3.3836e-25  5.5563e-26  5.9177e-25  5.5877e-26  1.0428e-24  5.6436e-26  1.846e-24  5.7435e-26  3.2778e-24  5.9224e-26  5.8359e-24  6.2446e-26  1.0418e-23  6.8302e-26  1.8662e-23
      3.90  5.4965e-26  3.4594e-26  5.4966e-26  3.5162e-26  5.4966e-26  3.6172e-26  5.4967e-26  3.7969e-26  5.4969e-26  4.1164e-26  5.4973e-26  4.6845e-26  5.4978e-26  5.6947e-26  5.4989e-26  7.4913e-26  5.5007e-26  1.0686e-25  5.504e-26  1.6368e-25  5.5099e-26  2.6472e-25  5.5203e-26  4.4442e-25  5.5389e-26  7.6406e-25  5.5719e-26  1.3327e-24  5.6308e-26  2.3446e-24  5.7359e-26  4.1456e-24  5.9244e-26  7.3549e-24  6.2638e-26  1.3076e-23  6.8806e-26  2.3277e-23
      3.95  5.4774e-26  1.3393e-25  5.4774e-26  1.3467e-25  5.4775e-26  1.3597e-25  5.4776e-26  1.383e-25  5.4778e-26  1.4243e-25  5.4781e-26  1.4977e-25  5.4788e-26  1.6284e-25  5.4799e-26  1.8606e-25  5.4819e-26  2.2737e-25  5.4854e-26  3.0082e-25  5.4917e-26  4.3143e-25  5.5029e-26  6.6366e-25  5.5228e-26  1.0765e-24  5.5583e-26  1.8105e-24  5.6215e-26  3.1147e-24  5.7344e-26  5.4305e-24  5.9366e-26  9.5389e-24  6.3001e-26  1.6806e-23  6.9589e-26  2.9581e-23
