# This was generated using Cloudy10 and the columns are ordered 
# as log10 of the fraction of the metallicity to the solar metallicity
# 'h_*_Z' and 'c_*_Z' stands for cooling and heating respectively 
# at * metalicity
#
# NOTE: This was generated separately from loop_coolingcurve_w_UV.py
#       using Output_metals_w_redshift.py.
#
# Redshift = 6.0
# hden = -5.5
#
#     temp   h_-3.00_Z   c_-3.00_Z   h_-2.75_Z   c_-2.75_Z   h_-2.50_Z   c_-2.50_Z   h_-2.25_Z   c_-2.25_Z   h_-2.00_Z   c_-2.00_Z   h_-1.75_Z   c_-1.75_Z   h_-1.50_Z   c_-1.50_Z   h_-1.25_Z   c_-1.25_Z   h_-1.00_Z   c_-1.00_Z   h_-0.75_Z   c_-0.75_Z   h_-0.50_Z   c_-0.50_Z   h_-0.25_Z   c_-0.25_Z    h_0.00_Z    c_0.00_Z    h_0.25_Z    c_0.25_Z    h_0.50_Z    c_0.50_Z    h_0.75_Z    c_0.75_Z    h_1.00_Z    c_1.00_Z    h_1.25_Z    c_1.25_Z    h_1.50_Z    c_1.50_Z 
      1.00  4.0419e-22  1.0616e-25  4.0422e-22  1.0616e-25  4.0427e-22  1.0616e-25  4.0437e-22  1.0616e-25  4.0453e-22  1.0616e-25  4.0482e-22  1.0617e-25  4.0535e-22  1.0618e-25  4.0627e-22  1.0621e-25  4.0792e-22  1.0625e-25  4.1084e-22  1.0632e-25  4.1601e-22  1.0644e-25  4.2514e-22  1.0666e-25  4.4124e-22  1.0706e-25  4.6946e-22  1.0775e-25  5.1911e-22  1.0900e-25  6.0706e-22  1.1120e-25  7.6456e-22  1.1517e-25  1.0469e-21  1.2229e-25  1.5541e-21  1.3519e-25
      1.05  3.8361e-22  1.1498e-25  3.8364e-22  1.1498e-25  3.8369e-22  1.1498e-25  3.8378e-22  1.1498e-25  3.8394e-22  1.1499e-25  3.8423e-22  1.1499e-25  3.8475e-22  1.1501e-25  3.8566e-22  1.1503e-25  3.8728e-22  1.1507e-25  3.9015e-22  1.1515e-25  3.9524e-22  1.1528e-25  4.0423e-22  1.1552e-25  4.2008e-22  1.1594e-25  4.4788e-22  1.1669e-25  4.9677e-22  1.1802e-25  5.8314e-22  1.2038e-25  7.3797e-22  1.2463e-25  1.0156e-21  1.3226e-25  1.5143e-21  1.4608e-25
      1.10  3.6412e-22  1.2466e-25  3.6415e-22  1.2466e-25  3.6420e-22  1.2466e-25  3.6429e-22  1.2466e-25  3.6445e-22  1.2467e-25  3.6474e-22  1.2468e-25  3.6524e-22  1.2469e-25  3.6614e-22  1.2472e-25  3.6773e-22  1.2476e-25  3.7057e-22  1.2484e-25  3.7558e-22  1.2499e-25  3.8445e-22  1.2524e-25  4.0006e-22  1.2570e-25  4.2747e-22  1.2651e-25  4.7566e-22  1.2795e-25  5.6064e-22  1.3051e-25  7.1300e-22  1.3511e-25  9.8630e-22  1.4338e-25  1.4773e-21  1.5839e-25
      1.15  3.4566e-22  1.3529e-25  3.4569e-22  1.3529e-25  3.4574e-22  1.3530e-25  3.4583e-22  1.3530e-25  3.4599e-22  1.3530e-25  3.4627e-22  1.3531e-25  3.4676e-22  1.3533e-25  3.4765e-22  1.3536e-25  3.4922e-22  1.3541e-25  3.5201e-22  1.3550e-25  3.5696e-22  1.3566e-25  3.6570e-22  1.3595e-25  3.8111e-22  1.3646e-25  4.0814e-22  1.3736e-25  4.5569e-22  1.3897e-25  5.3937e-22  1.4184e-25  6.8948e-22  1.4699e-25  9.5867e-22  1.5627e-25  1.4426e-21  1.7314e-25
      1.20  3.2816e-22  1.4699e-25  3.2819e-22  1.4699e-25  3.2824e-22  1.4699e-25  3.2833e-22  1.4699e-25  3.2848e-22  1.4700e-25  3.2876e-22  1.4701e-25  3.2925e-22  1.4703e-25  3.3012e-22  1.4706e-25  3.3168e-22  1.4712e-25  3.3443e-22  1.4723e-25  3.3931e-22  1.4743e-25  3.4794e-22  1.4777e-25  3.6314e-22  1.4838e-25  3.8982e-22  1.4947e-25  4.3675e-22  1.5140e-25  5.1925e-22  1.5485e-25  6.6718e-22  1.6106e-25  9.3250e-22  1.7228e-25  1.4097e-21  1.9283e-25
      1.25  3.1157e-22  1.5986e-25  3.1159e-22  1.5986e-25  3.1164e-22  1.5986e-25  3.1173e-22  1.5987e-25  3.1188e-22  1.5987e-25  3.1215e-22  1.5989e-25  3.1264e-22  1.5991e-25  3.1350e-22  1.5996e-25  3.1503e-22  1.6004e-25  3.1774e-22  1.6019e-25  3.2254e-22  1.6045e-25  3.3104e-22  1.6091e-25  3.4602e-22  1.6174e-25  3.7231e-22  1.6321e-25  4.1855e-22  1.6583e-25  4.9981e-22  1.7053e-25  6.4527e-22  1.7899e-25  9.0632e-22  1.9440e-25  1.3762e-21  2.2290e-25
      1.30  2.9582e-22  1.7463e-25  2.9584e-22  1.7463e-25  2.9589e-22  1.7464e-25  2.9598e-22  1.7464e-25  2.9613e-22  1.7466e-25  2.9640e-22  1.7468e-25  2.9687e-22  1.7472e-25  2.9772e-22  1.7479e-25  2.9922e-22  1.7492e-25  3.0190e-22  1.7514e-25  3.0663e-22  1.7554e-25  3.1500e-22  1.7626e-25  3.2976e-22  1.7753e-25  3.5567e-22  1.7979e-25  4.0122e-22  1.8385e-25  4.8128e-22  1.9112e-25  6.2432e-22  2.0431e-25  8.8120e-22  2.2848e-25  1.3439e-21  2.7373e-25
      1.35  2.8086e-22  1.9174e-25  2.8089e-22  1.9174e-25  2.8094e-22  1.9175e-25  2.8102e-22  1.9176e-25  2.8117e-22  1.9178e-25  2.8143e-22  1.9182e-25  2.8190e-22  1.9189e-25  2.8274e-22  1.9201e-25  2.8422e-22  1.9222e-25  2.8685e-22  1.9260e-25  2.9151e-22  1.9327e-25  2.9976e-22  1.9447e-25  3.1431e-22  1.9661e-25  3.3985e-22  2.0042e-25  3.8473e-22  2.0726e-25  4.6364e-22  2.1958e-25  6.0432e-22  2.4199e-25  8.5724e-22  2.8331e-25  1.3129e-21  3.6153e-25
      1.40  2.6666e-22  2.1041e-25  2.6668e-22  2.1042e-25  2.6673e-22  2.1043e-25  2.6681e-22  2.1045e-25  2.6696e-22  2.1049e-25  2.6722e-22  2.1055e-25  2.6768e-22  2.1067e-25  2.6850e-22  2.1087e-25  2.6996e-22  2.1124e-25  2.7255e-22  2.1189e-25  2.7715e-22  2.1305e-25  2.8528e-22  2.1512e-25  2.9961e-22  2.1881e-25  3.2479e-22  2.2541e-25  3.6903e-22  2.3724e-25  4.4680e-22  2.5862e-25  5.8521e-22  2.9762e-25  8.3429e-22  3.6990e-25  1.2831e-21  5.0777e-25
      1.45  2.5315e-22  2.3083e-25  2.5317e-22  2.3084e-25  2.5322e-22  2.3086e-25  2.5330e-22  2.3090e-25  2.5344e-22  2.3096e-25  2.5370e-22  2.3107e-25  2.5416e-22  2.3127e-25  2.5496e-22  2.3162e-25  2.5640e-22  2.3224e-25  2.5896e-22  2.3335e-25  2.6348e-22  2.3532e-25  2.7149e-22  2.3884e-25  2.8561e-22  2.4511e-25  3.1042e-22  2.5633e-25  3.5399e-22  2.7650e-25  4.3061e-22  3.1297e-25  5.6682e-22  3.7968e-25  8.1196e-22  5.0371e-25  1.2538e-21  7.4164e-25
      1.50  2.4030e-22  2.5322e-25  2.4032e-22  2.5324e-25  2.4037e-22  2.5327e-25  2.4045e-22  2.5333e-25  2.4059e-22  2.5343e-25  2.4084e-22  2.5361e-25  2.4129e-22  2.5394e-25  2.4209e-22  2.5451e-25  2.4350e-22  2.5553e-25  2.4602e-22  2.5735e-25  2.5048e-22  2.6058e-25  2.5837e-22  2.6634e-25  2.7228e-22  2.7662e-25  2.9673e-22  2.9503e-25  3.3966e-22  3.2813e-25  4.1516e-22  3.8807e-25  5.4925e-22  4.9791e-25  7.9062e-22  7.0262e-25  1.2257e-21  1.0969e-24
      1.55  2.2807e-22  2.7783e-25  2.2809e-22  2.7786e-25  2.2814e-22  2.7791e-25  2.2822e-22  2.7800e-25  2.2836e-22  2.7816e-25  2.2860e-22  2.7845e-25  2.2905e-22  2.7895e-25  2.2983e-22  2.7985e-25  2.3123e-22  2.8145e-25  2.3371e-22  2.8430e-25  2.3810e-22  2.8937e-25  2.4587e-22  2.9840e-25  2.5959e-22  3.1453e-25  2.8370e-22  3.4341e-25  3.2601e-22  3.9537e-25  4.0044e-22  4.8958e-25  5.3247e-22  6.6244e-25  7.7023e-22  9.8520e-25  1.1988e-21  1.6088e-24
      1.60  2.1642e-22  3.0492e-25  2.1645e-22  3.0496e-25  2.1649e-22  3.0504e-25  2.1657e-22  3.0517e-25  2.1671e-22  3.0541e-25  2.1695e-22  3.0584e-25  2.1739e-22  3.0660e-25  2.1816e-22  3.0794e-25  2.1954e-22  3.1034e-25  2.2198e-22  3.1461e-25  2.2631e-22  3.2220e-25  2.3397e-22  3.3575e-25  2.4749e-22  3.5993e-25  2.7126e-22  4.0323e-25  3.1297e-22  4.8118e-25  3.8635e-22  6.2260e-25  5.1639e-22  8.8241e-25  7.5060e-22  1.3683e-24  1.1728e-21  2.3094e-24
      1.65  2.0533e-22  3.3478e-25  2.0535e-22  3.3484e-25  2.0540e-22  3.3495e-25  2.0547e-22  3.3515e-25  2.0561e-22  3.3549e-25  2.0585e-22  3.3610e-25  2.0628e-22  3.3719e-25  2.0704e-22  3.3912e-25  2.0840e-22  3.4256e-25  2.1080e-22  3.4868e-25  2.1507e-22  3.5958e-25  2.2263e-22  3.7900e-25  2.3596e-22  4.1370e-25  2.5940e-22  4.7585e-25  3.0052e-22  5.8776e-25  3.7289e-22  7.9093e-25  5.0104e-22  1.1645e-24  7.3181e-22  1.8643e-24  1.1478e-21  3.2222e-24
      1.70  1.9476e-22  3.6775e-25  1.9478e-22  3.6784e-25  1.9482e-22  3.6799e-25  1.9490e-22  3.6825e-25  1.9503e-22  3.6872e-25  1.9527e-22  3.6957e-25  1.9569e-22  3.7106e-25  1.9644e-22  3.7372e-25  1.9778e-22  3.7846e-25  2.0015e-22  3.8688e-25  2.0436e-22  4.0188e-25  2.1181e-22  4.2863e-25  2.2496e-22  4.7640e-25  2.4808e-22  5.6199e-25  2.8862e-22  7.1617e-25  3.6002e-22  9.9623e-25  4.8632e-22  1.5117e-24  7.1379e-22  2.4783e-24  1.1238e-21  4.3574e-24
      1.75  1.8468e-22  4.0420e-25  1.8470e-22  4.0431e-25  1.8474e-22  4.0451e-25  1.8481e-22  4.0486e-25  1.8495e-22  4.0549e-25  1.8518e-22  4.0660e-25  1.8560e-22  4.0858e-25  1.8634e-22  4.1211e-25  1.8766e-22  4.1838e-25  1.9000e-22  4.2954e-25  1.9414e-22  4.4942e-25  2.0149e-22  4.8486e-25  2.1445e-22  5.4818e-25  2.3726e-22  6.6164e-25  2.7723e-22  8.6608e-25  3.4766e-22  1.2376e-24  4.7213e-22  1.9221e-24  6.9635e-22  3.2070e-24  1.1004e-21  5.7091e-24
      1.80  1.7506e-22  4.4456e-25  1.7509e-22  4.4470e-25  1.7513e-22  4.4496e-25  1.7520e-22  4.4541e-25  1.7533e-22  4.4621e-25  1.7556e-22  4.4764e-25  1.7597e-22  4.5017e-25  1.7670e-22  4.5468e-25  1.7800e-22  4.6271e-25  1.8031e-22  4.7700e-25  1.8440e-22  5.0244e-25  1.9163e-22  5.4781e-25  2.0442e-22  6.2886e-25  2.2690e-22  7.7414e-25  2.6631e-22  1.0360e-24  3.3576e-22  1.5121e-24  4.5845e-22  2.3899e-24  6.7940e-22  4.0396e-24  1.0776e-21  7.2567e-24
      1.85  1.6590e-22  4.8928e-25  1.6592e-22  4.8945e-25  1.6596e-22  4.8977e-25  1.6603e-22  4.9033e-25  1.6616e-22  4.9132e-25  1.6639e-22  4.9309e-25  1.6679e-22  4.9624e-25  1.6751e-22  5.0184e-25  1.6879e-22  5.1181e-25  1.7106e-22  5.2954e-25  1.7509e-22  5.6112e-25  1.8222e-22  6.1744e-25  1.9482e-22  7.1807e-25  2.1699e-22  8.9848e-25  2.5585e-22  1.2237e-24  3.2430e-22  1.8154e-24  4.4520e-22  2.9069e-24  6.6288e-22  4.9606e-24  1.0553e-21  8.9708e-24
      1.90  1.5715e-22  5.3886e-25  1.5717e-22  5.3907e-25  1.5721e-22  5.3945e-25  1.5728e-22  5.4013e-25  1.5741e-22  5.4133e-25  1.5763e-22  5.4348e-25  1.5803e-22  5.4728e-25  1.5874e-22  5.5406e-25  1.6000e-22  5.6611e-25  1.6224e-22  5.8756e-25  1.6621e-22  6.2577e-25  1.7323e-22  6.9391e-25  1.8565e-22  8.1566e-25  2.0749e-22  1.0340e-24  2.4579e-22  1.4277e-24  3.1323e-22  2.1442e-24  4.3235e-22  3.4665e-24  6.4680e-22  5.9570e-24  1.0335e-21  1.0826e-23
      1.95  1.4880e-22  5.9389e-25  1.4883e-22  5.9414e-25  1.4887e-22  5.9459e-25  1.4894e-22  5.9540e-25  1.4906e-22  5.9682e-25  1.4928e-22  5.9936e-25  1.4967e-22  6.0388e-25  1.5037e-22  6.1191e-25  1.5161e-22  6.2620e-25  1.5382e-22  6.5163e-25  1.5772e-22  6.9693e-25  1.6465e-22  7.7772e-25  1.7687e-22  9.2209e-25  1.9839e-22  1.1810e-24  2.3613e-22  1.6480e-24  3.0255e-22  2.4981e-24  4.1990e-22  4.0676e-24  6.3111e-22  7.0254e-24  1.0121e-21  1.2812e-23
      2.00  1.4084e-22  6.5501e-25  1.4086e-22  6.5531e-25  1.4090e-22  6.5584e-25  1.4097e-22  6.5678e-25  1.4109e-22  6.5845e-25  1.4131e-22  6.6141e-25  1.4170e-22  6.6670e-25  1.4239e-22  6.7609e-25  1.4361e-22  6.9280e-25  1.4578e-22  7.2255e-25  1.4963e-22  7.7553e-25  1.5644e-22  8.7001e-25  1.6848e-22  1.0389e-24  1.8968e-22  1.3417e-24  2.2687e-22  1.8880e-24  2.9228e-22  2.8825e-24  4.0794e-22  4.7186e-24  6.1590e-22  8.1802e-24  9.9125e-22  1.4954e-23
      2.05  1.3325e-22  7.2301e-25  1.3327e-22  7.2335e-25  1.3331e-22  7.2397e-25  1.3337e-22  7.2506e-25  1.3350e-22  7.2700e-25  1.3371e-22  7.3045e-25  1.3409e-22  7.3658e-25  1.3477e-22  7.4749e-25  1.3597e-22  7.6691e-25  1.3811e-22  8.0146e-25  1.4190e-22  8.6301e-25  1.4861e-22  9.7277e-25  1.6048e-22  1.1689e-24  1.8137e-22  1.5207e-24  2.1802e-22  2.1551e-24  2.8246e-22  3.3102e-24  3.9646e-22  5.4416e-24  6.0128e-22  9.4588e-24  9.7116e-22  1.7314e-23
      2.10  1.2600e-22  7.9864e-25  1.2602e-22  7.9904e-25  1.2606e-22  7.9976e-25  1.2613e-22  8.0102e-25  1.2625e-22  8.0327e-25  1.2646e-22  8.0728e-25  1.2683e-22  8.1440e-25  1.2750e-22  8.2707e-25  1.2869e-22  8.4961e-25  1.3079e-22  8.8973e-25  1.3453e-22  9.6119e-25  1.4115e-22  1.0886e-24  1.5284e-22  1.3163e-24  1.7344e-22  1.7246e-24  2.0959e-22  2.4608e-24  2.7312e-22  3.8004e-24  3.8553e-22  6.2704e-24  5.8747e-22  1.0920e-23  9.5210e-22  1.9999e-23
      2.15  1.1909e-22  8.8283e-25  1.1911e-22  8.8330e-25  1.1915e-22  8.8413e-25  1.1922e-22  8.8561e-25  1.1933e-22  8.8823e-25  1.1954e-22  8.9290e-25  1.1991e-22  9.0120e-25  1.2057e-22  9.1597e-25  1.2174e-22  9.4224e-25  1.2382e-22  9.8899e-25  1.2750e-22  1.0723e-24  1.3403e-22  1.2208e-24  1.4557e-22  1.4860e-24  1.6590e-22  1.9616e-24  2.0159e-22  2.8186e-24  2.6429e-22  4.3768e-24  3.7519e-22  7.2465e-24  5.7448e-22  1.2638e-23  9.3422e-22  2.3136e-23
      2.20  1.1250e-22  9.7660e-25  1.1252e-22  9.7714e-25  1.1256e-22  9.7812e-25  1.1263e-22  9.7985e-25  1.1274e-22  9.8292e-25  1.1295e-22  9.8839e-25  1.1331e-22  9.9812e-25  1.1396e-22  1.0154e-24  1.1512e-22  1.0462e-24  1.1717e-22  1.1010e-24  1.2081e-22  1.1985e-24  1.2726e-22  1.3724e-24  1.3866e-22  1.6831e-24  1.5874e-22  2.2397e-24  1.9401e-22  3.2422e-24  2.5595e-22  5.0628e-24  3.6543e-22  8.4108e-24  5.6229e-22  1.4683e-23  9.1750e-22  2.6855e-23
      2.25  1.0622e-22  1.0811e-24  1.0624e-22  1.0817e-24  1.0628e-22  1.0829e-24  1.0634e-22  1.0849e-24  1.0646e-22  1.0885e-24  1.0666e-22  1.0950e-24  1.0702e-22  1.1064e-24  1.0766e-22  1.1268e-24  1.0881e-22  1.1630e-24  1.1083e-22  1.2274e-24  1.1443e-22  1.3422e-24  1.2080e-22  1.5467e-24  1.3207e-22  1.9120e-24  1.5193e-22  2.5662e-24  1.8680e-22  3.7435e-24  2.4804e-22  5.8790e-24  3.5618e-22  9.7992e-24  5.5078e-22  1.7121e-23  9.0176e-22  3.1267e-23
      2.30  1.0024e-22  1.1977e-24  1.0026e-22  1.1984e-24  1.0029e-22  1.1998e-24  1.0036e-22  1.2022e-24  1.0047e-22  1.2064e-24  1.0067e-22  1.2140e-24  1.0103e-22  1.2275e-24  1.0166e-22  1.2515e-24  1.0279e-22  1.2942e-24  1.0479e-22  1.3702e-24  1.0835e-22  1.5055e-24  1.1465e-22  1.7466e-24  1.2579e-22  2.1771e-24  1.4543e-22  2.9476e-24  1.7993e-22  4.3332e-24  2.4049e-22  6.8432e-24  3.4737e-22  1.1442e-23  5.3979e-22  2.0004e-23  8.8676e-22  3.6467e-23
      2.35  9.4540e-23  1.3277e-24  9.4560e-23  1.3286e-24  9.4595e-23  1.3302e-24  9.4658e-23  1.3330e-24  9.4769e-23  1.3380e-24  9.4968e-23  1.3470e-24  9.5320e-23  1.3629e-24  9.5947e-23  1.3912e-24  9.7062e-23  1.4416e-24  9.9041e-23  1.5312e-24  1.0255e-22  1.6907e-24  1.0878e-22  1.9750e-24  1.1980e-22  2.4824e-24  1.3922e-22  3.3902e-24  1.7334e-22  5.0213e-24  2.3323e-22  7.9721e-24  3.3889e-22  1.3369e-23  5.2912e-22  2.3384e-23  8.7215e-22  4.2549e-23
      2.40  8.9114e-23  1.4728e-24  8.9133e-23  1.4738e-24  8.9168e-23  1.4757e-24  8.9230e-23  1.4790e-24  8.9341e-23  1.4850e-24  8.9537e-23  1.4955e-24  8.9885e-23  1.5142e-24  9.0505e-23  1.5476e-24  9.1606e-23  1.6069e-24  9.3561e-23  1.7124e-24  9.7033e-23  1.9003e-24  1.0319e-22  2.2351e-24  1.1407e-22  2.8323e-24  1.3327e-22  3.9005e-24  1.6701e-22  5.8183e-24  2.2620e-22  9.2838e-24  3.3067e-22  1.5609e-23  5.1866e-22  2.7316e-23  8.5770e-22  4.9612e-23
      2.45  8.3951e-23  1.6347e-24  8.3970e-23  1.6359e-24  8.4005e-23  1.6381e-24  8.4066e-23  1.6421e-24  8.4175e-23  1.6490e-24  8.4369e-23  1.6614e-24  8.4713e-23  1.6834e-24  8.5324e-23  1.7226e-24  8.6412e-23  1.7923e-24  8.8343e-23  1.9163e-24  9.1771e-23  2.1371e-24  9.7849e-23  2.5303e-24  1.0860e-22  3.2317e-24  1.2756e-22  4.4857e-24  1.6090e-22  6.7357e-24  2.1936e-22  1.0797e-23  3.2262e-22  1.8197e-23  5.0830e-22  3.1858e-23  8.4326e-22  5.7763e-23
      2.50  7.9041e-23  1.8155e-24  7.9061e-23  1.8170e-24  7.9095e-23  1.8195e-24  7.9155e-23  1.8241e-24  7.9262e-23  1.8323e-24  7.9453e-23  1.8468e-24  7.9793e-23  1.8726e-24  8.0397e-23  1.9185e-24  8.1470e-23  2.0001e-24  8.3376e-23  2.1453e-24  8.6759e-23  2.4038e-24  9.2758e-23  2.8643e-24  1.0337e-22  3.6854e-24  1.2209e-22  5.1529e-24  1.5501e-22  7.7846e-24  2.1271e-22  1.2530e-23  3.1472e-22  2.1164e-23  4.9807e-22  3.7067e-23  8.2884e-22  6.7103e-23
      2.55  7.4375e-23  2.0176e-24  7.4394e-23  2.0193e-24  7.4428e-23  2.0223e-24  7.4487e-23  2.0277e-24  7.4593e-23  2.0372e-24  7.4782e-23  2.0541e-24  7.5117e-23  2.0842e-24  7.5712e-23  2.1377e-24  7.6770e-23  2.2329e-24  7.8650e-23  2.4023e-24  8.1987e-23  2.7037e-24  8.7903e-23  3.2406e-24  9.8370e-23  4.1980e-24  1.1684e-22  5.9085e-24  1.4931e-22  8.9745e-24  2.0624e-22  1.4499e-23  3.0691e-22  2.4536e-23  4.8785e-22  4.2990e-23  8.1435e-22  7.7720e-23
      2.60  6.9944e-23  2.2434e-24  6.9962e-23  2.2454e-24  6.9995e-23  2.2489e-24  7.0054e-23  2.2551e-24  7.0158e-23  2.2661e-24  7.0344e-23  2.2857e-24  7.0674e-23  2.3206e-24  7.1261e-23  2.3827e-24  7.2303e-23  2.4932e-24  7.4156e-23  2.6897e-24  7.7444e-23  3.0394e-24  8.3274e-23  3.6622e-24  9.3590e-23  4.7727e-24  1.1179e-22  6.7564e-24  1.4380e-22  1.0311e-23  1.9993e-22  1.6712e-23  2.9919e-22  2.8328e-23  4.7763e-22  4.9649e-23  7.9970e-22  8.9657e-23
      2.65  6.5737e-23  2.4957e-24  6.5755e-23  2.4980e-24  6.5788e-23  2.5020e-24  6.5846e-23  2.5092e-24  6.5948e-23  2.5219e-24  6.6131e-23  2.5445e-24  6.6456e-23  2.5848e-24  6.7034e-23  2.6564e-24  6.8060e-23  2.7837e-24  6.9885e-23  3.0102e-24  7.3122e-23  3.4134e-24  7.8863e-23  4.1314e-24  8.9022e-23  5.4115e-24  1.0695e-22  7.6978e-24  1.3847e-22  1.1793e-23  1.9376e-22  1.9165e-23  2.9154e-22  3.2532e-23  4.6739e-22  5.7034e-23  7.8488e-22  1.0290e-22
      2.70  6.1747e-23  2.7778e-24  6.1765e-23  2.7804e-24  6.1797e-23  2.7850e-24  6.1854e-23  2.7931e-24  6.1955e-23  2.8077e-24  6.2135e-23  2.8336e-24  6.2454e-23  2.8797e-24  6.3023e-23  2.9616e-24  6.4033e-23  3.1073e-24  6.5827e-23  3.3665e-24  6.9013e-23  3.8279e-24  7.4661e-23  4.6494e-24  8.4656e-23  6.1140e-24  1.0229e-22  8.7296e-24  1.3332e-22  1.3414e-23  1.8773e-22  2.1844e-23  2.8397e-22  3.7120e-23  4.5713e-22  6.5090e-23  7.6986e-22  1.1735e-22
      2.75  5.7964e-23  3.0931e-24  5.7982e-23  3.0960e-24  5.8014e-23  3.1013e-24  5.8069e-23  3.1105e-24  5.8169e-23  3.1271e-24  5.8346e-23  3.1564e-24  5.8660e-23  3.2087e-24  5.9218e-23  3.3016e-24  6.0211e-23  3.4669e-24  6.1975e-23  3.7610e-24  6.5106e-23  4.2843e-24  7.0658e-23  5.2162e-24  8.0483e-23  6.8776e-24  9.7822e-23  9.8444e-24  1.2832e-22  1.5158e-23  1.8183e-22  2.4717e-23  2.7645e-22  4.2033e-23  4.4683e-22  7.3712e-23  7.5464e-22  1.3282e-22
      2.80  5.4382e-23  3.4459e-24  5.4399e-23  3.4492e-24  5.4430e-23  3.4551e-24  5.4485e-23  3.4655e-24  5.4583e-23  3.4841e-24  5.4756e-23  3.5171e-24  5.5065e-23  3.5758e-24  5.5613e-23  3.6802e-24  5.6588e-23  3.8658e-24  5.8320e-23  4.1962e-24  6.1395e-23  4.7841e-24  6.6847e-23  5.8311e-24  7.6496e-23  7.6975e-24  9.3525e-23  1.1031e-23  1.2348e-22  1.7000e-23  1.7604e-22  2.7738e-23  2.6899e-22  4.7187e-23  4.3648e-22  8.2750e-23  7.3919e-22  1.4905e-22
      2.85  5.0991e-23  3.8405e-24  5.1008e-23  3.8442e-24  5.1038e-23  3.8507e-24  5.1092e-23  3.8623e-24  5.1188e-23  3.8829e-24  5.1358e-23  3.9196e-24  5.1661e-23  3.9849e-24  5.2199e-23  4.1009e-24  5.3155e-23  4.3073e-24  5.4854e-23  4.6745e-24  5.7870e-23  5.3281e-24  6.3219e-23  6.4920e-24  7.2685e-23  8.5669e-24  8.9392e-23  1.2272e-23  1.1879e-22  1.8909e-23  1.7037e-22  3.0850e-23  2.6155e-22  5.2477e-23  4.2606e-22  9.2010e-23  7.2348e-22  1.6569e-22
      2.90  4.7784e-23  4.2820e-24  4.7801e-23  4.2860e-24  4.7830e-23  4.2932e-24  4.7883e-23  4.3059e-24  4.7977e-23  4.3286e-24  4.8144e-23  4.3689e-24  4.8440e-23  4.4407e-24  4.8967e-23  4.5682e-24  4.9865e-23  4.7947e-24  5.1569e-23  5.1988e-24  5.4524e-23  5.9173e-24  5.9764e-23  7.1969e-24  6.9040e-23  9.4781e-24  8.5412e-23  1.3553e-23  1.1422e-22  2.0851e-23  1.6479e-22  3.3986e-23  2.5414e-22  5.7782e-23  4.1557e-22  1.0127e-22  7.0766e-22  1.8235e-22
      2.95  4.4753e-23  4.7759e-24  4.4769e-23  4.7803e-24  4.4798e-23  4.7881e-24  4.4850e-23  4.8019e-24  4.4941e-23  4.8266e-24  4.5105e-23  4.8704e-24  4.5395e-23  4.9484e-24  4.5910e-23  5.0870e-24  4.6827e-23  5.3336e-24  4.8456e-23  5.7724e-24  5.1348e-23  6.5533e-24  5.6476e-23  7.9441e-24  6.5553e-23  1.0424e-23  8.1577e-23  1.4854e-23  1.0978e-22  2.2791e-23  1.5928e-22  3.7079e-23  2.4672e-22  6.2975e-23  4.0495e-22  1.1031e-22  6.9168e-22  1.9862e-22
      3.00  4.1890e-23  5.3287e-24  4.1906e-23  5.3334e-24  4.1934e-23  5.3418e-24  4.1984e-23  5.3567e-24  4.2074e-23  5.3832e-24  4.2234e-23  5.4303e-24  4.2517e-23  5.5140e-24  4.3021e-23  5.6630e-24  4.3917e-23  5.9279e-24  4.5508e-23  6.3993e-24  4.8334e-23  7.2384e-24  5.3344e-23  8.7329e-24  6.2215e-23  1.1398e-23  7.7877e-23  1.6159e-23  1.0545e-22  2.4693e-23  1.5385e-22  4.0061e-23  2.3934e-22  6.7928e-23  3.9416e-22  1.1890e-22  6.7528e-22  2.1408e-22
      3.05  3.9188e-23  5.9479e-24  3.9204e-23  5.9529e-24  3.9231e-23  5.9618e-24  3.9281e-23  5.9776e-24  3.9368e-23  6.0058e-24  3.9523e-23  6.0558e-24  3.9800e-23  6.1447e-24  4.0292e-23  6.3030e-24  4.1165e-23  6.5844e-24  4.2718e-23  7.0851e-24  4.5474e-23  7.9764e-24  5.0363e-23  9.5640e-24  5.9018e-23  1.2395e-23  7.4301e-23  1.7455e-23  1.0121e-22  2.6527e-23  1.4846e-22  4.2874e-23  2.3192e-22  7.2530e-23  3.8323e-22  1.2683e-22  6.5843e-22  2.2835e-22
      3.10  3.6640e-23  6.6409e-24  3.6655e-23  6.6462e-24  3.6682e-23  6.6555e-24  3.6730e-23  6.6721e-24  3.6815e-23  6.7017e-24  3.6967e-23  6.7542e-24  3.7236e-23  6.8476e-24  3.7715e-23  7.0138e-24  3.8566e-23  7.3093e-24  4.0078e-23  7.8352e-24  4.2762e-23  8.7713e-24  4.7523e-23  1.0439e-23  5.5954e-23  1.3413e-23  7.0843e-23  1.8730e-23  9.7063e-23  2.8267e-23  1.4312e-22  4.5463e-23  2.2448e-22  7.6677e-23  3.7215e-22  1.3389e-22  6.4117e-22  2.4106e-22
      3.15  3.4239e-23  7.4172e-24  3.4254e-23  7.4226e-24  3.4280e-23  7.4323e-24  3.4327e-23  7.4496e-24  3.4410e-23  7.4803e-24  3.4557e-23  7.5348e-24  3.4819e-23  7.6318e-24  3.5284e-23  7.8044e-24  3.6111e-23  8.1113e-24  3.7581e-23  8.6575e-24  4.0190e-23  9.6297e-24  4.4819e-23  1.1362e-23  5.3017e-23  1.4452e-23  6.7497e-23  1.9977e-23  9.3001e-23  2.9893e-23  1.3781e-22  4.7783e-23  2.1700e-22  8.0285e-23  3.6090e-22  1.3993e-22  6.2348e-22  2.5190e-22
      3.20  3.1978e-23  8.2867e-24  3.1992e-23  8.2923e-24  3.2018e-23  8.3022e-24  3.2063e-23  8.3199e-24  3.2143e-23  8.3514e-24  3.2286e-23  8.4075e-24  3.2540e-23  8.5071e-24  3.2992e-23  8.6844e-24  3.3794e-23  8.9997e-24  3.5220e-23  9.5607e-24  3.7752e-23  1.0560e-23  4.2244e-23  1.2339e-23  5.0200e-23  1.5515e-23  6.4256e-23  2.1194e-23  8.9018e-23  3.1391e-23  1.3255e-22  4.9805e-23  2.0951e-22  8.3283e-23  3.4947e-22  1.4481e-22  6.0536e-22  2.6059e-22
      3.25  2.9834e-23  9.2598e-24  2.9864e-23  9.2661e-24  2.9889e-23  9.2762e-24  2.9933e-23  9.2942e-24  3.0010e-23  9.3262e-24  3.0149e-23  9.3832e-24  3.0395e-23  9.4844e-24  3.0832e-23  9.6646e-24  3.1609e-23  9.9850e-24  3.2990e-23  1.0555e-23  3.5443e-23  1.1570e-23  3.9793e-23  1.3379e-23  4.7500e-23  1.6608e-23  6.1118e-23  2.2384e-23  8.5115e-23  3.2760e-23  1.2732e-22  5.1510e-23  2.0202e-22  8.5628e-23  3.3788e-22  1.4844e-22  5.8681e-22  2.6695e-22
      3.30  2.7850e-23  1.0352e-23  2.7863e-23  1.0357e-23  2.7887e-23  1.0367e-23  2.7929e-23  1.0386e-23  2.8004e-23  1.0418e-23  2.8138e-23  1.0475e-23  2.8376e-23  1.0577e-23  2.8799e-23  1.0758e-23  2.9550e-23  1.1080e-23  3.0885e-23  1.1654e-23  3.3256e-23  1.2675e-23  3.7462e-23  1.4495e-23  4.4914e-23  1.7743e-23  5.8084e-23  2.3557e-23  8.1298e-23  3.4005e-23  1.2214e-22  5.2903e-23  1.9460e-22  8.7310e-23  3.2620e-22  1.5079e-22  5.6799e-22  2.7087e-22
      3.35  2.5970e-23  1.1574e-23  2.5983e-23  1.1580e-23  2.6006e-23  1.1590e-23  2.6046e-23  1.1608e-23  2.6119e-23  1.1640e-23  2.6248e-23  1.1697e-23  2.6478e-23  1.1798e-23  2.6885e-23  1.1979e-23  2.7611e-23  1.2300e-23  2.8899e-23  1.2871e-23  3.1187e-23  1.3888e-23  3.5247e-23  1.5701e-23  4.2441e-23  1.8937e-23  5.5157e-23  2.4731e-23  7.7576e-23  3.5150e-23  1.1704e-22  5.4008e-23  1.8724e-22  8.8362e-23  3.1450e-22  1.5189e-22  5.4905e-22  2.7236e-22
      3.40  2.4204e-23  1.2943e-23  2.4217e-23  1.2949e-23  2.4239e-23  1.2959e-23  2.4278e-23  1.2977e-23  2.4348e-23  1.3008e-23  2.4472e-23  1.3065e-23  2.4694e-23  1.3165e-23  2.5087e-23  1.3343e-23  2.5786e-23  1.3660e-23  2.7027e-23  1.4223e-23  2.9233e-23  1.5227e-23  3.3146e-23  1.7017e-23  4.0080e-23  2.0212e-23  5.2340e-23  2.5934e-23  7.3962e-23  3.6227e-23  1.1204e-22  5.4874e-23  1.7998e-22  8.8859e-23  3.0293e-22  1.5184e-22  5.3010e-22  2.7161e-22
      3.45  2.2547e-23  1.4478e-23  2.2559e-23  1.4483e-23  2.2580e-23  1.4493e-23  2.2618e-23  1.4511e-23  2.2686e-23  1.4542e-23  2.2805e-23  1.4597e-23  2.3018e-23  1.4695e-23  2.3397e-23  1.4869e-23  2.4069e-23  1.5179e-23  2.5265e-23  1.5731e-23  2.7388e-23  1.6714e-23  3.1155e-23  1.8466e-23  3.7831e-23  2.1596e-23  4.9637e-23  2.7201e-23  7.0464e-23  3.7287e-23  1.0716e-22  5.5573e-23  1.7282e-22  8.8918e-23  2.9150e-22  1.5085e-22  5.1127e-22  2.6892e-22
      3.50  2.0993e-23  1.6197e-23  2.1005e-23  1.6203e-23  2.1025e-23  1.6212e-23  2.1061e-23  1.6229e-23  2.1126e-23  1.6259e-23  2.1241e-23  1.6313e-23  2.1446e-23  1.6408e-23  2.1810e-23  1.6578e-23  2.2457e-23  1.6879e-23  2.3607e-23  1.7416e-23  2.5649e-23  1.8372e-23  2.9273e-23  2.0076e-23  3.5694e-23  2.3120e-23  4.7052e-23  2.8573e-23  6.7095e-23  3.8389e-23  1.0242e-22  5.6195e-23  1.6583e-22  8.8682e-23  2.8029e-22  1.4914e-22  4.9270e-22  2.6470e-22
      3.55  1.9537e-23  1.8125e-23  1.9548e-23  1.8131e-23  1.9567e-23  1.8140e-23  1.9602e-23  1.8156e-23  1.9665e-23  1.8185e-23  1.9775e-23  1.8237e-23  1.9972e-23  1.8329e-23  2.0322e-23  1.8493e-23  2.0944e-23  1.8785e-23  2.2050e-23  1.9304e-23  2.4013e-23  2.0229e-23  2.7496e-23  2.1877e-23  3.3670e-23  2.4821e-23  4.4590e-23  3.0097e-23  6.3867e-23  3.9596e-23  9.7875e-23  5.6835e-23  1.5904e-22  8.8311e-23  2.6941e-22  1.4699e-22  4.7467e-22  2.5943e-22
      3.60  1.8172e-23  2.0286e-23  1.8183e-23  2.0291e-23  1.8202e-23  2.0300e-23  1.8236e-23  2.0316e-23  1.8295e-23  2.0344e-23  1.8402e-23  2.0394e-23  1.8591e-23  2.0483e-23  1.8928e-23  2.0641e-23  1.9525e-23  2.0922e-23  2.0588e-23  2.1422e-23  2.2475e-23  2.2313e-23  2.5824e-23  2.3901e-23  3.1759e-23  2.6737e-23  4.2258e-23  3.1820e-23  6.0797e-23  4.0975e-23  9.3544e-23  5.7594e-23  1.5251e-22  8.7964e-23  2.5902e-22  1.4467e-22  4.5725e-22  2.5358e-22
      3.65  1.6895e-23  2.2709e-23  1.6906e-23  2.2713e-23  1.6924e-23  2.2722e-23  1.6956e-23  2.2737e-23  1.7014e-23  2.2764e-23  1.7116e-23  2.2812e-23  1.7298e-23  2.2897e-23  1.7622e-23  2.3049e-23  1.8196e-23  2.3319e-23  1.9218e-23  2.3800e-23  2.1033e-23  2.4655e-23  2.4253e-23  2.6181e-23  2.9961e-23  2.8907e-23  4.0060e-23  3.3791e-23  5.7896e-23  4.2590e-23  8.9439e-23  5.8567e-23  1.4629e-22  8.7789e-23  2.4920e-22  1.4242e-22  4.4061e-22  2.4760e-22
      3.70  1.5700e-23  2.5424e-23  1.5710e-23  2.5428e-23  1.5728e-23  2.5437e-23  1.5759e-23  2.5451e-23  1.5814e-23  2.5477e-23  1.5913e-23  2.5523e-23  1.6088e-23  2.5605e-23  1.6399e-23  2.5751e-23  1.6953e-23  2.6010e-23  1.7936e-23  2.6471e-23  1.9683e-23  2.7292e-23  2.2782e-23  2.8756e-23  2.8276e-23  3.1371e-23  3.7997e-23  3.6058e-23  5.5170e-23  4.4503e-23  8.5576e-23  5.9840e-23  1.4042e-22  8.7917e-23  2.3990e-22  1.4047e-22  4.2506e-22  2.4188e-22
      3.75  1.4583e-23  2.8468e-23  1.4593e-23  2.8472e-23  1.4610e-23  2.8480e-23  1.4640e-23  2.8494e-23  1.4693e-23  2.8519e-23  1.4788e-23  2.8563e-23  1.4957e-23  2.8642e-23  1.5257e-23  2.8781e-23  1.5790e-23  2.9030e-23  1.6737e-23  2.9472e-23  1.8420e-23  3.0260e-23  2.1406e-23  3.1664e-23  2.6700e-23  3.4173e-23  3.6068e-23  3.8669e-23  5.2622e-23  4.6772e-23  8.1960e-23  6.1490e-23  1.3492e-22  8.8459e-23  2.3114e-22  1.3899e-22  4.1059e-22  2.3671e-22
      3.80  1.3539e-23  3.1882e-23  1.3549e-23  3.1887e-23  1.3565e-23  3.1894e-23  1.3594e-23  3.1908e-23  1.3645e-23  3.1931e-23  1.3737e-23  3.1974e-23  1.3900e-23  3.2049e-23  1.4189e-23  3.2183e-23  1.4703e-23  3.2422e-23  1.5617e-23  3.2846e-23  1.7240e-23  3.3602e-23  2.0121e-23  3.4950e-23  2.5227e-23  3.7358e-23  3.4267e-23  4.1675e-23  5.0244e-23  4.9454e-23  7.8582e-23  6.3590e-23  1.2977e-22  8.9514e-23  2.2293e-22  1.3815e-22  3.9698e-22  2.3238e-22
      3.85  1.2564e-23  3.5711e-23  1.2573e-23  3.5715e-23  1.2589e-23  3.5722e-23  1.2617e-23  3.5735e-23  1.2667e-23  3.5758e-23  1.2755e-23  3.5798e-23  1.2912e-23  3.5871e-23  1.3191e-23  3.6000e-23  1.3688e-23  3.6229e-23  1.4570e-23  3.6637e-23  1.6137e-23  3.7364e-23  1.8919e-23  3.8660e-23  2.3851e-23  4.0975e-23  3.2583e-23  4.5124e-23  4.8021e-23  5.2605e-23  7.5420e-23  6.6203e-23  1.2495e-22  9.1161e-23  2.1520e-22  1.3804e-22  3.8414e-22  2.2906e-22
      3.90  1.1654e-23  4.0003e-23  1.1663e-23  4.0007e-23  1.1678e-23  4.0014e-23  1.1705e-23  4.0026e-23  1.1753e-23  4.0048e-23  1.1838e-23  4.0088e-23  1.1990e-23  4.0157e-23  1.2260e-23  4.0282e-23  1.2740e-23  4.0502e-23  1.3592e-23  4.0896e-23  1.5106e-23  4.1596e-23  1.7794e-23  4.2845e-23  2.2561e-23  4.5075e-23  3.1002e-23  4.9075e-23  4.5931e-23  5.6286e-23  7.2438e-23  6.9398e-23  1.2039e-22  9.3485e-23  2.0792e-22  1.3878e-22  3.7192e-22  2.2692e-22
      3.95  1.0805e-23  4.4816e-23  1.0813e-23  4.4820e-23  1.0828e-23  4.4827e-23  1.0854e-23  4.4839e-23  1.0900e-23  4.4860e-23  1.0983e-23  4.4898e-23  1.1130e-23  4.4965e-23  1.1390e-23  4.5085e-23  1.1854e-23  4.5298e-23  1.2678e-23  4.5678e-23  1.4141e-23  4.6354e-23  1.6739e-23  4.7560e-23  2.1347e-23  4.9714e-23  2.9509e-23  5.3577e-23  4.3949e-23  6.0543e-23  6.9599e-23  7.3214e-23  1.1603e-22  9.6513e-23  2.0093e-22  1.4039e-22  3.6014e-22  2.2594e-22
