# This was generated using Cloudy10 and the columns are ordered 
# as log10 of the fraction of the metallicity to the solar metallicity
# 'h_*_Z' and 'c_*_Z' stands for cooling and heating respectively 
# at * metalicity
#
# NOTE: This was generated separately from loop_coolingcurve_w_UV.py
#       using Output_metals_w_redshift.py.
#
# Redshift = 7.0
# hden = 1.5
#
#     temp   h_-3.00_Z   c_-3.00_Z   h_-2.75_Z   c_-2.75_Z   h_-2.50_Z   c_-2.50_Z   h_-2.25_Z   c_-2.25_Z   h_-2.00_Z   c_-2.00_Z   h_-1.75_Z   c_-1.75_Z   h_-1.50_Z   c_-1.50_Z   h_-1.25_Z   c_-1.25_Z   h_-1.00_Z   c_-1.00_Z   h_-0.75_Z   c_-0.75_Z   h_-0.50_Z   c_-0.50_Z   h_-0.25_Z   c_-0.25_Z    h_0.00_Z    c_0.00_Z    h_0.25_Z    c_0.25_Z    h_0.50_Z    c_0.50_Z    h_0.75_Z    c_0.75_Z    h_1.00_Z    c_1.00_Z    h_1.25_Z    c_1.25_Z    h_1.50_Z    c_1.50_Z 
      4.00  6.6888e-26  5.7614e-25  6.6889e-26  5.7713e-25  6.6891e-26  5.7889e-25  6.6894e-26  5.8201e-25  6.6899e-26  5.8757e-25  6.6909e-26  5.9745e-25  6.6925e-26  6.1502e-25  6.6955e-26  6.4626e-25  6.7008e-26  7.0182e-25  6.7100e-26  8.0058e-25  6.7265e-26  9.7618e-25  6.7559e-26  1.2884e-24  6.8080e-26  1.8435e-24  6.9007e-26  2.8306e-24  7.0655e-26  4.5852e-24  7.3581e-26  7.7027e-24  7.8774e-26  1.3235e-23  8.7969e-26  2.3054e-23  1.0424e-25  4.0560e-23
      4.05  6.6371e-26  2.1508e-24  6.6372e-26  2.1522e-24  6.6374e-26  2.1546e-24  6.6377e-26  2.1589e-24  6.6383e-26  2.1665e-24  6.6393e-26  2.1800e-24  6.6411e-26  2.2041e-24  6.6442e-26  2.2469e-24  6.6497e-26  2.3230e-24  6.6595e-26  2.4582e-24  6.6769e-26  2.6984e-24  6.7079e-26  3.1253e-24  6.7629e-26  3.8837e-24  6.8606e-26  5.2307e-24  7.0342e-26  7.6203e-24  7.3421e-26  1.1850e-23  7.8870e-26  1.9309e-23  8.8472e-26  3.2410e-23  1.0532e-25  5.5362e-23
      4.10  6.4588e-26  7.5809e-24  6.4590e-26  7.5830e-24  6.4591e-26  7.5866e-24  6.4595e-26  7.5931e-24  6.4601e-26  7.6046e-24  6.4612e-26  7.6251e-24  6.4631e-26  7.6614e-24  6.4664e-26  7.7260e-24  6.4724e-26  7.8407e-24  6.4830e-26  8.0444e-24  6.5019e-26  8.4062e-24  6.5355e-26  9.0488e-24  6.5951e-26  1.0190e-23  6.7011e-26  1.2215e-23  6.8892e-26  1.5801e-23  7.2225e-26  2.2129e-23  7.8112e-26  3.3229e-23  8.8446e-26  5.2531e-23  1.0645e-25  8.5752e-23
      4.15  5.7213e-26  2.8337e-23  5.7215e-26  2.8341e-23  5.7217e-26  2.8348e-23  5.7221e-26  2.8361e-23  5.7228e-26  2.8384e-23  5.7241e-26  2.8424e-23  5.7265e-26  2.8496e-23  5.7306e-26  2.8623e-23  5.7379e-26  2.8850e-23  5.7509e-26  2.9253e-23  5.7740e-26  2.9969e-23  5.8152e-26  3.1241e-23  5.8883e-26  3.3501e-23  6.0183e-26  3.7511e-23  6.2490e-26  4.4619e-23  6.6580e-26  5.7178e-23  7.3811e-26  7.9250e-23  8.6520e-26  1.1771e-22  1.0867e-25  1.8385e-22
      4.20  3.8518e-26  8.6123e-23  3.8519e-26  8.6132e-23  3.8522e-26  8.6149e-23  3.8527e-26  8.6179e-23  3.8537e-26  8.6232e-23  3.8554e-26  8.6327e-23  3.8583e-26  8.6496e-23  3.8636e-26  8.6797e-23  3.8730e-26  8.7331e-23  3.8897e-26  8.8281e-23  3.9195e-26  8.9970e-23  3.9723e-26  9.2974e-23  4.0662e-26  9.8318e-23  4.2333e-26  1.0782e-22  4.5305e-26  1.2472e-22  5.0585e-26  1.5480e-22  5.9977e-26  2.0831e-22  7.6673e-26  3.0355e-22  1.0632e-25  4.7310e-22
      4.25  2.0144e-26  1.2899e-22  2.0145e-26  1.2900e-22  2.0148e-26  1.2903e-22  2.0153e-26  1.2908e-22  2.0162e-26  1.2917e-22  2.0177e-26  1.2932e-22  2.0205e-26  1.2959e-22  2.0255e-26  1.3008e-22  2.0344e-26  1.3094e-22  2.0501e-26  1.3247e-22  2.0781e-26  1.3520e-22  2.1279e-26  1.4004e-22  2.2165e-26  1.4867e-22  2.3741e-26  1.6402e-22  2.6547e-26  1.9138e-22  3.1545e-26  2.4019e-22  4.0461e-26  3.2750e-22  5.6395e-26  4.8441e-22  8.5007e-26  7.6858e-22
      4.30  1.0994e-26  1.2040e-22  1.0995e-26  1.2042e-22  1.0996e-26  1.2045e-22  1.1000e-26  1.2051e-22  1.1005e-26  1.2061e-22  1.1015e-26  1.2080e-22  1.1032e-26  1.2113e-22  1.1063e-26  1.2172e-22  1.1117e-26  1.2277e-22  1.1227e-26  1.2464e-22  1.1511e-26  1.2795e-22  1.2015e-26  1.3386e-22  1.2912e-26  1.4436e-22  1.4508e-26  1.6306e-22  1.7351e-26  1.9639e-22  2.2419e-26  2.5589e-22  3.1468e-26  3.6243e-22  4.7665e-26  5.5420e-22  7.6776e-26  9.0255e-22
      4.35  7.3826e-27  9.5602e-23  7.3827e-27  9.5625e-23  7.3830e-27  9.5664e-23  7.3834e-27  9.5735e-23  7.3841e-27  9.5861e-23  7.3855e-27  9.6084e-23  7.3878e-27  9.6481e-23  7.3920e-27  9.7188e-23  7.4598e-27  9.8444e-23  7.6167e-27  1.0068e-22  7.8957e-27  1.0465e-22  8.3923e-27  1.1172e-22  9.2762e-27  1.2431e-22  1.0851e-26  1.4671e-22  1.3658e-26  1.8664e-22  1.8672e-26  2.5794e-22  2.7646e-26  3.8563e-22  4.3758e-26  6.1559e-22  7.2733e-26  1.0337e-21
      4.40  5.5614e-27  7.4461e-23  5.5606e-27  7.4489e-23  5.5594e-27  7.4539e-23  5.5571e-27  7.4626e-23  5.5532e-27  7.4782e-23  5.5461e-27  7.5059e-23  5.5335e-27  7.5552e-23  5.5111e-27  7.6429e-23  5.5750e-27  7.7988e-23  5.7274e-27  8.0760e-23  5.9986e-27  8.5692e-23  6.4813e-27  9.4466e-23  7.3416e-27  1.1008e-22  8.8764e-27  1.3788e-22  1.1620e-26  1.8742e-22  1.6539e-26  2.7586e-22  2.5383e-26  4.3425e-22  4.1141e-26  7.1948e-22  6.9339e-26  1.2380e-21
      4.45  3.7386e-27  5.9977e-23  3.7371e-27  6.0012e-23  3.7344e-27  6.0075e-23  3.7298e-27  6.0187e-23  3.7214e-27  6.0386e-23  3.7066e-27  6.0739e-23  3.6802e-27  6.1368e-23  3.6334e-27  6.2486e-23  3.6751e-27  6.4474e-23  3.8205e-27  6.8010e-23  4.0797e-27  7.4298e-23  4.5420e-27  8.5485e-23  5.3682e-27  1.0539e-22  6.8494e-27  1.4083e-22  9.5155e-27  2.0398e-22  1.4298e-26  3.1668e-22  2.2787e-26  5.1842e-22  3.7905e-26  8.8143e-22  6.5034e-26  1.5405e-21
      4.50  1.9666e-27  4.9055e-23  1.9644e-27  4.9100e-23  1.9606e-27  4.9181e-23  1.9538e-27  4.9326e-23  1.9416e-27  4.9582e-23  1.9201e-27  5.0038e-23  1.8817e-27  5.0849e-23  1.8159e-27  5.2291e-23  1.8909e-27  5.4856e-23  2.0248e-27  5.9417e-23  2.2643e-27  6.7530e-23  2.6945e-27  8.1962e-23  3.4719e-27  1.0764e-22  4.8863e-27  1.5335e-22  7.4132e-27  2.3479e-22  1.1874e-26  3.8015e-22  1.9816e-26  6.4030e-22  3.3895e-26  1.1082e-21  5.8986e-26  1.9574e-21
      4.55  9.1602e-28  3.9695e-23  9.1342e-28  3.9754e-23  9.0880e-28  3.9858e-23  9.0057e-28  4.0044e-23  8.8595e-28  4.0375e-23  8.5995e-28  4.0962e-23  8.1376e-28  4.2007e-23  8.0852e-28  4.3865e-23  8.7387e-28  4.7170e-23  9.9107e-28  5.3048e-23  1.2024e-27  6.3502e-23  1.5867e-27  8.2098e-23  2.2930e-27  1.1519e-22  3.5490e-27  1.7410e-22  5.7721e-27  2.7910e-22  9.7276e-27  4.6653e-22  1.6667e-26  8.0214e-22  2.9036e-26  1.4063e-21  5.1284e-26  2.5040e-21
      4.60  4.4619e-28  3.2193e-23  4.4352e-28  3.2268e-23  4.3876e-28  3.2402e-23  4.3029e-28  3.2640e-23  4.1524e-28  3.3064e-23  3.8850e-28  3.3818e-23  3.4814e-28  3.5158e-23  3.7841e-28  3.7542e-23  4.3269e-28  4.1781e-23  5.3061e-28  4.9320e-23  7.0897e-28  6.2730e-23  1.0384e-27  8.6585e-23  1.6273e-27  1.2904e-22  2.6825e-27  2.0464e-22  4.5473e-27  3.3939e-22  7.8542e-27  5.8006e-22  1.3698e-26  1.0113e-21  2.4067e-26  1.7884e-21  4.2730e-26  3.2034e-21
      4.65  2.4557e-28  2.7287e-23  2.4318e-28  2.7383e-23  2.3894e-28  2.7554e-23  2.3139e-28  2.7858e-23  2.1798e-28  2.8400e-23  1.9414e-28  2.9362e-23  1.7791e-28  3.1073e-23  2.0208e-28  3.4117e-23  2.4564e-28  3.9529e-23  3.2485e-28  4.9155e-23  4.7104e-28  6.6277e-23  7.3795e-28  9.6739e-23  1.2188e-27  1.5095e-22  2.0744e-27  2.4751e-22  3.6187e-27  4.1966e-22  6.3351e-27  7.2723e-22  1.1104e-26  1.2787e-21  1.9569e-26  2.2740e-21  3.4789e-26  4.0898e-21
      4.70  1.5569e-28  2.5978e-23  1.5380e-28  2.6100e-23  1.5045e-28  2.6318e-23  1.4449e-28  2.6705e-23  1.3391e-28  2.7394e-23  1.1510e-28  2.8620e-23  1.0686e-28  3.0798e-23  1.2595e-28  3.4673e-23  1.6056e-28  4.1563e-23  2.2416e-28  5.3819e-23  3.4353e-28  7.5618e-23  5.6056e-28  1.1440e-22  9.5811e-28  1.8344e-22  1.6732e-27  3.0641e-22  2.9296e-27  5.2572e-22  5.1254e-27  9.1775e-22  9.0143e-27  1.6213e-21  1.5917e-26  2.8930e-21  2.8322e-26  5.2193e-21
      4.75  1.1273e-28  3.0549e-23  1.1140e-28  3.0704e-23  1.0904e-28  3.0980e-23  1.0484e-28  3.1470e-23  9.7378e-29  3.2341e-23  8.4140e-29  3.3890e-23  7.6687e-29  3.6646e-23  9.2136e-29  4.1546e-23  1.2046e-28  5.0262e-23  1.7351e-28  6.5763e-23  2.7563e-28  9.3337e-23  4.6125e-28  1.4240e-22  7.9356e-28  2.2974e-22  1.3837e-27  3.8535e-22  2.4282e-27  6.6297e-22  4.2685e-27  1.1596e-21  7.5125e-27  2.0518e-21  1.3272e-26  3.6676e-21  2.3658e-26  6.6328e-21
      4.80  8.9670e-29  4.4091e-23  8.8878e-29  4.4285e-23  8.7471e-29  4.4629e-23  8.4971e-29  4.5241e-23  8.0540e-29  4.6330e-23  7.2703e-29  4.8267e-23  6.4663e-29  5.1710e-23  7.8001e-29  5.7835e-23  1.0304e-28  6.8727e-23  1.5172e-28  8.8100e-23  2.4431e-28  1.2256e-22  4.0499e-28  1.8389e-22  6.9515e-28  2.9307e-22  1.2156e-27  4.8764e-22  2.1298e-27  8.3492e-22  3.7398e-27  1.4565e-21  6.5981e-27  2.5748e-21  1.1682e-26  4.6036e-21  2.0893e-26  8.3388e-21
      4.85  7.2401e-29  6.5286e-23  7.1848e-29  6.5524e-23  7.1365e-29  6.5947e-23  7.0801e-29  6.6698e-23  6.9319e-29  6.8035e-23  6.6760e-29  7.0412e-23  6.2440e-29  7.4640e-23  7.2023e-29  8.2158e-23  9.6955e-29  9.5529e-23  1.4515e-28  1.1931e-22  2.3219e-28  1.6162e-22  3.8671e-28  2.3691e-22  6.6424e-28  3.7098e-22  1.1546e-27  6.0995e-22  2.0172e-27  1.0366e-21  3.5352e-27  1.8009e-21  6.2140e-27  3.1773e-21  1.0940e-26  5.6791e-21  1.9491e-26  1.0298e-20
      4.90  5.5106e-29  8.0983e-23  5.5048e-29  8.1266e-23  5.5473e-29  8.1770e-23  5.6245e-29  8.2665e-23  5.7975e-29  8.4257e-23  6.0670e-29  8.7089e-23  6.5948e-29  9.2124e-23  7.6847e-29  1.0108e-22  9.9767e-29  1.1701e-22  1.4811e-28  1.4533e-22  2.4030e-28  1.9573e-22  4.0509e-28  2.8542e-22  7.0100e-28  4.4513e-22  1.2128e-27  7.2982e-22  2.0928e-27  1.2383e-21  3.6088e-27  2.1493e-21  6.2425e-27  3.7909e-21  1.0810e-26  6.7783e-21  1.9052e-26  1.2305e-20
      4.95  3.9437e-29  7.9762e-23  4.0300e-29  8.0086e-23  4.1379e-29  8.0664e-23  4.3063e-29  8.1691e-23  4.6640e-29  8.3517e-23  5.3660e-29  8.6764e-23  6.6754e-29  9.2540e-23  9.3354e-29  1.0281e-22  1.4495e-28  1.2108e-22  2.3826e-28  1.5357e-22  4.0368e-28  2.1137e-22  6.9663e-28  3.1424e-22  1.2003e-27  4.9743e-22  2.0583e-27  8.2398e-22  3.5162e-27  1.4072e-21  5.9977e-27  2.4524e-21  1.0244e-26  4.3365e-21  1.7688e-26  7.7669e-21  3.1070e-26  1.4121e-20
      5.00  2.8836e-29  6.7703e-23  2.9577e-29  6.8061e-23  3.0924e-29  6.8697e-23  3.3643e-29  6.9828e-23  3.8371e-29  7.1839e-23  4.7691e-29  7.5415e-23  6.6931e-29  8.1776e-23  1.0685e-28  9.3087e-23  1.8355e-28  1.1320e-22  3.2327e-28  1.4899e-22  5.5701e-28  2.1265e-22  9.5396e-28  3.2595e-22  1.6182e-27  5.2774e-22  2.7113e-27  8.8751e-22  4.5058e-27  1.5303e-21  7.4937e-27  2.6828e-21  1.2553e-26  4.7621e-21  2.1393e-26  8.5544e-21  3.7104e-26  1.5597e-20
      5.05  2.2748e-29  5.4129e-23  2.3525e-29  5.4496e-23  2.4993e-29  5.5149e-23  2.7672e-29  5.6311e-23  3.3837e-29  5.8376e-23  4.6339e-29  6.2049e-23  7.1830e-29  6.8581e-23  1.3055e-28  8.0198e-23  2.4697e-28  1.0086e-22  4.2607e-28  1.3761e-22  7.2075e-28  2.0300e-22  1.1954e-27  3.1939e-22  1.9486e-27  5.2670e-22  3.1119e-27  8.9641e-22  4.9457e-27  1.5573e-21  7.9238e-27  2.7431e-21  1.2975e-26  4.8856e-21  2.1769e-26  8.8023e-21  3.6955e-26  1.6105e-20
      5.10  1.9222e-29  4.2714e-23  2.0050e-29  4.3071e-23  2.1611e-29  4.3706e-23  2.5455e-29  4.4836e-23  3.4522e-29  4.6846e-23  5.1753e-29  5.0419e-23  9.0690e-29  5.6773e-23  1.8384e-28  6.8073e-23  3.3185e-28  8.8173e-23  5.6169e-28  1.2393e-22  9.1202e-28  1.8754e-22  1.4373e-27  3.0078e-22  2.2106e-27  5.0252e-22  3.3437e-27  8.6240e-22  5.0798e-27  1.5060e-21  7.7486e-27  2.6618e-21  1.2135e-26  4.7532e-21  1.9861e-26  8.5861e-21  3.3621e-26  1.5762e-20
      5.15  1.7263e-29  3.3961e-23  1.8286e-29  3.4315e-23  2.0745e-29  3.4947e-23  2.7116e-29  3.6069e-23  3.9418e-29  3.8065e-23  6.5787e-29  4.1615e-23  1.2979e-28  4.7927e-23  2.5343e-28  5.9153e-23  4.4148e-28  7.9120e-23  7.1897e-28  1.1464e-22  1.1064e-27  1.7784e-22  1.6501e-27  2.9036e-22  2.4124e-27  4.9082e-22  3.4972e-27  8.4852e-22  4.8389e-27  1.4885e-21  7.0983e-27  2.6386e-21  1.1020e-26  4.7223e-21  1.7985e-26  8.5490e-21  3.0492e-26  1.5738e-20
      5.20  1.6236e-29  2.7419e-23  1.7698e-29  2.7784e-23  2.1650e-29  2.8435e-23  3.2059e-29  2.9592e-23  5.0761e-29  3.1649e-23  9.5271e-29  3.5308e-23  1.9710e-28  4.1814e-23  3.3791e-28  5.3386e-23  5.5642e-28  7.3968e-23  8.7214e-28  1.1058e-22  1.2896e-27  1.7573e-22  1.8410e-27  2.9173e-22  2.5615e-27  4.9842e-22  3.2828e-27  8.6730e-22  4.4827e-27  1.5275e-21  6.5714e-27  2.7147e-21  1.0274e-26  4.8678e-21  1.6914e-26  8.8292e-21  2.8964e-26  1.6293e-20
      5.25  1.5814e-29  2.2517e-23  1.8089e-29  2.2894e-23  2.4624e-29  2.3564e-23  4.0617e-29  2.4756e-23  7.4849e-29  2.6876e-23  1.3602e-28  3.0645e-23  2.5393e-28  3.7349e-23  4.2070e-28  4.9271e-23  6.5067e-28  7.0478e-23  9.8078e-28  1.0820e-22  1.4184e-27  1.7534e-22  1.9814e-27  2.9486e-22  2.4308e-27  5.0788e-22  3.1650e-27  8.8813e-22  4.4266e-27  1.5689e-21  6.6308e-27  2.7939e-21  1.0524e-26  5.0180e-21  1.7525e-26  9.1176e-21  3.0387e-26  1.6865e-20
      5.30  1.6030e-29  1.8806e-23  1.9820e-29  1.9189e-23  3.1368e-29  1.9871e-23  6.1400e-29  2.1082e-23  9.9782e-29  2.3237e-23  1.7004e-28  2.7069e-23  2.9756e-28  3.3884e-23  4.6776e-28  4.6004e-23  7.1564e-28  6.7562e-23  1.0380e-27  1.0591e-22  1.5128e-27  1.7417e-22  1.9067e-27  2.9569e-22  2.3971e-27  5.1230e-22  3.1234e-27  8.9905e-22  4.3197e-27  1.5917e-21  6.4069e-27  2.8391e-21  9.9779e-27  5.1065e-21  1.6459e-26  9.2943e-21  2.8440e-26  1.7234e-20
      5.35  1.7106e-29  1.5976e-23  2.4244e-29  1.6366e-23  4.4663e-29  1.7060e-23  7.7145e-29  1.8293e-23  1.1992e-28  2.0487e-23  1.9154e-28  2.4387e-23  3.2123e-28  3.1324e-23  4.9332e-28  4.3661e-23  7.3704e-28  6.5606e-23  1.1148e-27  1.0465e-22  1.5502e-27  1.7413e-22  1.8393e-27  2.9785e-22  2.2780e-27  5.1841e-22  2.9705e-27  9.1229e-22  4.1238e-27  1.6180e-21  6.0288e-27  2.8898e-21  9.4453e-27  5.2044e-21  1.5635e-26  9.4882e-21  2.7130e-26  1.7636e-20
      5.40  1.8054e-29  1.3766e-23  2.7974e-29  1.4146e-23  5.1973e-29  1.4821e-23  8.0116e-29  1.6023e-23  1.2570e-28  1.8160e-23  1.9242e-28  2.1960e-23  3.0744e-28  2.8718e-23  5.0890e-28  4.0737e-23  7.7229e-28  6.2116e-23  1.2088e-27  1.0015e-22  1.4864e-27  1.6785e-22  1.7839e-27  2.8841e-22  2.2498e-27  5.0335e-22  2.9806e-27  8.8731e-22  4.1968e-27  1.5756e-21  6.1886e-27  2.8170e-21  9.6642e-27  5.0794e-21  1.6001e-26  9.2767e-21  2.7783e-26  1.7290e-20
      5.45  1.6388e-29  1.1971e-23  2.3992e-29  1.2289e-23  4.5442e-29  1.2855e-23  6.9688e-29  1.3863e-23  1.0661e-28  1.5654e-23  1.7258e-28  1.8840e-23  2.8389e-28  2.4505e-23  4.6564e-28  3.4581e-23  7.8866e-28  5.2503e-23  1.2667e-27  8.4389e-23  1.4994e-27  1.4115e-22  1.8477e-27  2.4223e-22  2.3729e-27  4.2249e-22  3.0964e-27  7.4462e-22  4.2657e-27  1.3224e-21  6.2139e-27  2.3658e-21  9.6113e-27  4.2710e-21  1.5768e-26  7.8168e-21  2.7294e-26  1.4621e-20
      5.50  1.3572e-29  1.0475e-23  1.6662e-29  1.0704e-23  2.5272e-29  1.1113e-23  5.0185e-29  1.1839e-23  8.3927e-29  1.3131e-23  1.4339e-28  1.5427e-23  2.5082e-28  1.9512e-23  4.4045e-28  2.6776e-23  7.6028e-28  3.9698e-23  1.2140e-27  6.2687e-23  1.5725e-27  1.0361e-22  1.9921e-27  1.7651e-22  2.4164e-27  3.0652e-22  3.0722e-27  5.3896e-22  4.0308e-27  9.5616e-22  5.6375e-27  1.7103e-21  8.4594e-27  3.0901e-21  1.3563e-26  5.6662e-21  2.3082e-26  1.0634e-20
      5.55  1.2188e-29  9.3084e-24  1.3710e-29  9.4811e-24  1.7957e-29  9.7882e-24  2.9962e-29  1.0334e-23  6.1136e-29  1.1306e-23  1.2531e-28  1.3033e-23  2.4131e-28  1.6104e-23  4.4839e-28  2.1567e-23  7.9256e-28  3.1283e-23  1.2100e-27  4.8571e-23  1.6038e-27  7.9346e-23  1.9706e-27  1.3417e-22  2.3520e-27  2.3198e-22  2.8358e-27  4.0686e-22  3.6034e-27  7.2091e-22  4.8491e-27  1.2890e-21  7.0471e-27  2.3297e-21  1.1042e-26  4.2766e-21  1.8453e-26  8.0433e-21
      5.60  1.1627e-29  8.4118e-24  1.3109e-29  8.5617e-24  1.7699e-29  8.8282e-24  3.0750e-29  9.3022e-24  5.5292e-29  1.0145e-23  1.1615e-28  1.1644e-23  2.4940e-28  1.4310e-23  4.7602e-28  1.9051e-23  8.6956e-28  2.7484e-23  1.2034e-27  4.2490e-23  1.5708e-27  6.9204e-23  1.8168e-27  1.1680e-22  2.0989e-27  2.0171e-22  2.4989e-27  3.5356e-22  3.1331e-27  6.2630e-22  4.1620e-27  1.1199e-21  5.9640e-27  2.0248e-21  9.2341e-27  3.7197e-21  1.5297e-26  7.0050e-21
      5.65  1.1258e-29  7.7122e-24  1.3166e-29  7.8553e-24  1.9149e-29  8.1097e-24  3.5447e-29  8.5622e-24  6.6633e-29  9.3668e-24  1.3006e-28  1.0798e-23  2.6260e-28  1.3342e-23  5.0870e-28  1.7868e-23  9.2057e-28  2.5917e-23  1.2124e-27  4.0243e-23  1.5129e-27  6.5746e-23  1.6850e-27  1.1118e-22  1.9326e-27  1.9225e-22  2.2801e-27  3.3724e-22  2.8597e-27  5.9771e-22  3.7982e-27  1.0692e-21  5.4528e-27  1.9341e-21  8.4517e-27  3.5555e-21  1.4032e-26  6.7025e-21
      5.70  1.0882e-29  7.1554e-24  1.3367e-29  7.2955e-24  2.0443e-29  7.5446e-24  4.1205e-29  7.9874e-24  7.6098e-29  8.7750e-24  1.4874e-28  1.0175e-23  2.9669e-28  1.2666e-23  5.7331e-28  1.7095e-23  9.0230e-28  2.4975e-23  1.1362e-27  3.8997e-23  1.3566e-27  6.3961e-23  1.5306e-27  1.0844e-22  1.7509e-27  1.8779e-22  2.0737e-27  3.2974e-22  2.6213e-27  5.8478e-22  3.5462e-27  1.0466e-21  5.1717e-27  1.8941e-21  8.1299e-27  3.4843e-21  1.3661e-26  6.5745e-21
      5.75  1.0250e-29  6.6486e-24  1.2955e-29  6.7819e-24  2.0574e-29  7.0191e-24  4.1482e-29  7.4408e-24  8.2464e-29  8.1906e-24  1.6282e-28  9.5241e-24  3.3518e-28  1.1895e-23  6.0436e-28  1.6113e-23  8.0046e-28  2.3617e-23  9.8206e-28  3.6970e-23  1.1264e-27  6.0743e-23  1.2984e-27  1.0310e-22  1.5093e-27  1.7868e-22  1.8383e-27  3.1388e-22  2.3804e-27  5.5685e-22  3.3062e-27  9.9698e-22  4.9618e-27  1.8051e-21  7.9915e-27  3.3228e-21  1.3696e-26  6.2764e-21
      5.80  9.5759e-30  6.2580e-24  1.2160e-29  6.3805e-24  1.9665e-29  6.5983e-24  4.0087e-29  6.9855e-24  8.5292e-29  7.6741e-24  1.8254e-28  8.8987e-24  3.4519e-28  1.1076e-23  5.4155e-28  1.4950e-23  6.8599e-28  2.1843e-23  8.3657e-28  3.4107e-23  9.4953e-28  5.5942e-23  1.1328e-27  9.4846e-23  1.3558e-27  1.6427e-22  1.6916e-27  2.8848e-22  2.2652e-27  5.1175e-22  3.2627e-27  9.1634e-22  5.0493e-27  1.6597e-21  8.3492e-27  3.0573e-21  1.4619e-26  5.7817e-21
      5.85  9.1759e-30  5.9608e-24  1.2241e-29  6.0762e-24  2.0357e-29  6.2815e-24  4.2014e-29  6.6465e-24  9.3265e-29  7.2956e-24  2.0208e-28  8.4497e-24  3.2317e-28  1.0503e-23  4.7879e-28  1.4155e-23  6.0249e-28  2.0652e-23  7.5368e-28  3.2214e-23  8.8701e-28  5.2797e-23  1.0476e-27  8.9474e-23  1.2891e-27  1.5493e-22  1.6662e-27  2.7205e-22  2.3211e-27  4.8262e-22  3.4687e-27  8.6435e-22  5.5472e-27  1.5662e-21  9.4009e-27  2.8870e-21  1.6776e-26  5.4660e-21
      5.90  8.9114e-30  5.7443e-24  1.2626e-29  5.8595e-24  2.2487e-29  6.0645e-24  4.7256e-29  6.4288e-24  1.0473e-28  7.0767e-24  2.0630e-28  8.2289e-24  3.2321e-28  1.0279e-23  4.3497e-28  1.3924e-23  5.7495e-28  2.0410e-23  7.1042e-28  3.1952e-23  8.4271e-28  5.2501e-23  1.0094e-27  8.9118e-23  1.2851e-27  1.5447e-22  1.7474e-27  2.7141e-22  2.5419e-27  4.8172e-22  3.9577e-27  8.6311e-22  6.5356e-27  1.5647e-21  1.1342e-26  2.8864e-21  2.0605e-26  5.4708e-21
      5.95  8.5335e-30  5.5897e-24  1.2644e-29  5.7074e-24  2.3560e-29  5.9165e-24  5.0989e-29  6.2884e-24  1.1290e-28  6.9497e-24  2.1500e-28  8.1257e-24  3.3326e-28  1.0218e-23  4.4551e-28  1.3939e-23  5.5658e-28  2.0559e-23  6.7777e-28  3.2340e-23  8.3501e-28  5.3315e-23  1.0211e-27  9.0692e-23  1.3272e-27  1.5740e-22  1.8631e-27  2.7680e-22  2.8053e-27  4.9156e-22  4.4884e-27  8.8116e-22  7.5672e-27  1.5983e-21  1.3328e-26  2.9506e-21  2.4490e-26  5.5989e-21
      6.00  7.8818e-30  5.4806e-24  1.1828e-29  5.5986e-24  2.2476e-29  5.8084e-24  4.9762e-29  6.1815e-24  1.1545e-28  6.9134e-24  2.3029e-28  8.0247e-24  3.4611e-28  1.0123e-23  4.5369e-28  1.3857e-23  5.6512e-28  2.0499e-23  6.9505e-28  3.2318e-23  8.5672e-28  5.3362e-23  1.0919e-27  9.0863e-23  1.4747e-27  1.5780e-22  2.1464e-27  2.7762e-22  3.3424e-27  4.9319e-22  5.5047e-27  8.8442e-22  9.4681e-27  1.6051e-21  1.6909e-26  2.9655e-21  3.1397e-26  5.6340e-21
      6.05  6.9969e-30  5.4238e-24  1.0289e-29  5.5385e-24  1.9363e-29  5.7424e-24  4.3789e-29  6.1049e-24  1.0292e-28  6.7495e-24  2.3068e-28  7.8956e-24  3.5410e-28  9.9345e-24  4.6553e-28  1.3562e-23  5.8011e-28  2.0015e-23  7.1063e-28  3.1498e-23  8.7591e-28  5.1945e-23  1.1452e-27  8.8383e-23  1.6027e-27  1.5343e-22  2.4101e-27  2.6988e-22  3.8552e-27  4.7945e-22  6.4710e-27  8.5996e-22  1.1276e-26  1.5614e-21  2.0323e-26  2.8872e-21  3.8005e-26  5.4928e-21
      6.10  6.3778e-30  5.3988e-24  9.1255e-30  5.5075e-24  1.6636e-29  5.7009e-24  3.6741e-29  6.0447e-24  8.7248e-29  6.6559e-24  2.0040e-28  7.7427e-24  3.3245e-28  9.6758e-24  4.5631e-28  1.3115e-23  5.6249e-28  1.9234e-23  6.8203e-28  3.0123e-23  8.6933e-28  4.9511e-23  1.1709e-27  8.4064e-23  1.6975e-27  1.4575e-22  2.6358e-27  2.5621e-22  4.3154e-27  4.5504e-22  7.3577e-27  8.1624e-22  1.2959e-26  1.4826e-21  2.3528e-26  2.7438e-21  4.4253e-26  5.2273e-21
      6.15  6.0322e-30  5.4012e-24  8.5516e-30  5.5021e-24  1.5108e-29  5.6814e-24  3.1804e-29  6.0003e-24  7.3132e-29  6.5672e-24  1.5255e-28  7.5753e-24  2.5030e-28  9.3684e-24  3.8333e-28  1.2558e-23  4.8953e-28  1.8233e-23  6.1765e-28  2.8332e-23  8.1864e-28  4.6315e-23  1.1456e-27  7.8365e-23  1.7254e-27  1.3559e-22  2.7570e-27  2.3807e-22  4.6124e-27  4.2260e-22  7.9770e-27  7.5797e-22  1.4177e-26  1.3772e-21  2.5898e-26  2.5508e-21  4.8947e-26  4.8664e-21
      6.20  5.8085e-30  5.4256e-24  8.2771e-30  5.5157e-24  1.4340e-29  5.6759e-24  2.8942e-29  5.9608e-24  5.8240e-29  6.4673e-24  1.1269e-28  7.3678e-24  1.8166e-28  8.9695e-24  2.7207e-28  1.1819e-23  3.8085e-28  1.6887e-23  5.1911e-28  2.5908e-23  7.2157e-28  4.1970e-23  1.0672e-27  7.0599e-23  1.6683e-27  1.2172e-22  2.7438e-27  2.1329e-22  4.6770e-27  3.7821e-22  8.1871e-27  6.7812e-22  1.4663e-26  1.2324e-21  2.6927e-26  2.2842e-21  5.1106e-26  4.3640e-21
      6.25  5.3121e-30  5.4678e-24  7.5485e-30  5.5436e-24  1.2636e-29  5.6784e-24  2.3283e-29  5.9182e-24  4.4093e-29  6.3444e-24  8.2052e-29  7.1023e-24  1.2795e-28  8.4502e-24  1.9356e-28  1.0848e-23  2.8164e-28  1.5113e-23  4.0843e-28  2.2703e-23  6.0673e-28  3.6218e-23  9.4605e-28  6.0308e-23  1.5396e-27  1.0333e-22  2.5962e-27  1.8040e-22  4.4934e-27  3.1927e-22  7.9414e-27  5.7194e-22  1.4311e-26  1.0393e-21  2.6393e-26  1.9277e-21  5.0274e-26  3.6883e-21
      6.30  4.6484e-30  5.5514e-24  6.3995e-30  5.6119e-24  9.9604e-30  5.7195e-24  1.7872e-29  5.9108e-24  3.1801e-29  6.2509e-24  5.7760e-29  6.8556e-24  8.5573e-29  7.9312e-24  1.3440e-28  9.8440e-24  2.0879e-28  1.3247e-23  3.1547e-28  1.9302e-23  4.9947e-28  3.0085e-23  8.1239e-28  4.9306e-23  1.3663e-27  8.3634e-23  2.3495e-27  1.4515e-22  4.1172e-27  2.5602e-22  7.3313e-27  4.5786e-22  1.3275e-26  8.3162e-22  2.4568e-26  1.5431e-21  4.6945e-26  2.9566e-21
      6.35  4.0469e-30  5.6581e-24  5.2767e-30  5.7060e-24  7.8495e-30  5.7911e-24  1.2936e-29  5.9425e-24  2.3452e-29  6.2117e-24  4.2132e-29  6.6903e-24  5.8928e-29  7.5414e-24  9.0228e-29  9.0552e-24  1.4730e-28  1.1748e-23  2.4737e-28  1.6540e-23  4.0909e-28  2.5072e-23  6.9502e-28  4.0284e-23  1.1963e-27  6.7453e-23  2.0894e-27  1.1615e-22  3.6998e-27  2.0395e-22  6.6307e-27  3.6388e-22  1.2056e-26  6.6034e-22  2.2383e-26  1.2256e-21  4.2894e-26  2.3513e-21
      6.40  3.5053e-30  5.7873e-24  4.5414e-30  5.8262e-24  6.5297e-30  5.8953e-24  1.0017e-29  6.0182e-24  1.6946e-29  6.2368e-24  3.1338e-29  6.6254e-24  4.4198e-29  7.3165e-24  6.6899e-29  8.5457e-24  1.1088e-28  1.0732e-23  1.9534e-28  1.4623e-23  3.4752e-28  2.1552e-23  6.1575e-28  3.3904e-23  1.0892e-27  5.5969e-23  1.9358e-27  9.5523e-23  3.4655e-27  1.6686e-22  6.2521e-27  2.9690e-22  1.1417e-26  5.3818e-22  2.1267e-26  9.9896e-22  4.0885e-26  1.9187e-21
      6.45  3.0251e-30  5.9355e-24  3.9732e-30  5.9677e-24  5.5244e-30  6.0249e-24  8.4049e-30  6.1266e-24  1.3417e-29  6.3073e-24  2.3508e-29  6.6288e-24  3.7496e-29  7.2004e-24  5.7640e-29  8.2171e-24  9.7418e-29  1.0026e-23  1.7440e-28  1.3244e-23  3.1906e-28  1.8974e-23  5.8120e-28  2.9190e-23  1.0510e-27  4.7441e-23  1.8982e-27  8.0165e-23  3.4256e-27  1.3921e-22  6.2127e-27  2.4688e-22  1.1387e-26  4.4685e-22  2.1272e-26  8.2929e-22  4.1010e-26  1.5943e-21
      6.50  2.5155e-30  6.1006e-24  3.4016e-30  6.1273e-24  4.6151e-30  6.1748e-24  6.9124e-30  6.2594e-24  1.0826e-29  6.4097e-24  1.8448e-29  6.6769e-24  2.9068e-29  7.1521e-24  4.6525e-29  7.9972e-24  7.9891e-29  9.5005e-24  1.4505e-28  1.2176e-23  2.7049e-28  1.6939e-23  5.0585e-28  2.5431e-23  9.3451e-28  4.0603e-23  1.7097e-27  6.7810e-23  3.1145e-27  1.1691e-22  5.6822e-27  2.0650e-22  1.0455e-26  3.7300e-22  1.9588e-26  6.9184e-22  3.7865e-26  1.3307e-21
      6.55  2.0897e-30  6.3119e-24  2.8533e-30  6.3346e-24  3.8021e-30  6.3748e-24  5.5768e-30  6.4464e-24  8.9452e-30  6.5736e-24  1.5308e-29  6.7999e-24  2.4421e-29  7.2023e-24  3.9123e-29  7.9179e-24  6.8906e-29  9.1909e-24  1.2764e-28  1.1456e-23  2.4251e-28  1.5490e-23  4.6158e-28  2.2681e-23  8.6841e-28  3.5530e-23  1.6111e-27  5.8573e-23  2.9607e-27  1.0017e-22  5.4317e-27  1.7609e-22  1.0033e-26  3.1727e-22  1.8854e-26  5.8788e-22  3.6536e-26  1.1309e-21
      6.60  1.7420e-30  6.5411e-24  2.3539e-30  6.5610e-24  3.1594e-30  6.5963e-24  4.5361e-30  6.6590e-24  7.4668e-30  6.7706e-24  1.3282e-29  6.9691e-24  2.1729e-29  7.3221e-24  3.5188e-29  7.9498e-24  6.3096e-29  9.0666e-24  1.1964e-28  1.1054e-23  2.3110e-28  1.4593e-23  4.4594e-28  2.0902e-23  8.4940e-28  3.2176e-23  1.5933e-27  5.2396e-23  2.9541e-27  8.8899e-23  5.4507e-27  1.5555e-22  1.0107e-26  2.7954e-22  1.9043e-26  5.1738e-22  3.6986e-26  9.9513e-22
      6.65  1.4542e-30  6.7869e-24  1.9119e-30  6.8050e-24  2.6196e-30  6.8372e-24  3.7803e-30  6.8945e-24  6.1690e-30  6.9964e-24  1.1484e-29  7.1775e-24  1.9214e-29  7.4996e-24  3.1885e-29  8.0725e-24  5.8757e-29  9.0916e-24  1.1410e-28  1.0905e-23  2.2416e-28  1.4135e-23  4.3788e-28  1.9894e-23  8.4285e-28  3.0184e-23  1.5963e-27  4.8641e-23  2.9826e-27  8.1968e-23  5.5342e-27  1.4283e-22  1.0300e-26  2.5610e-22  1.9457e-26  4.7349e-22  3.7869e-26  9.1054e-22
      6.70  1.2137e-30  7.0482e-24  1.5323e-30  7.0653e-24  2.1173e-30  7.0958e-24  3.1553e-30  7.1499e-24  5.3128e-30  7.2461e-24  1.0551e-29  7.4172e-24  1.9521e-29  7.7216e-24  3.4217e-29  8.2629e-24  6.5810e-29  9.2258e-24  1.3050e-28  1.0939e-23  2.5829e-28  1.3991e-23  5.0541e-28  1.9433e-23  9.7389e-28  2.9157e-23  1.8464e-27  4.6600e-23  3.4561e-27  7.8097e-23  6.4254e-27  1.3563e-22  1.1978e-26  2.4274e-22  2.2657e-26  4.4841e-22  4.4153e-26  8.6222e-22
      6.75  1.0148e-30  7.3240e-24  1.2288e-30  7.3406e-24  1.7272e-30  7.3701e-24  2.6737e-30  7.4226e-24  4.9120e-30  7.5160e-24  1.0658e-29  7.6820e-24  2.0612e-29  7.9772e-24  3.8519e-29  8.5023e-24  7.6317e-29  9.4364e-24  1.5279e-28  1.1099e-23  3.0179e-28  1.4059e-23  5.8876e-28  1.9338e-23  1.1305e-27  2.8772e-23  2.1399e-27  4.5695e-23  4.0035e-27  7.6258e-23  7.4470e-27  1.3209e-22  1.3894e-26  2.3607e-22  2.6305e-26  4.3581e-22  5.1310e-26  8.3795e-22
      6.80  8.5304e-31  7.6535e-24  9.9598e-31  7.6699e-24  1.4115e-30  7.6992e-24  2.3066e-30  7.7512e-24  4.4651e-30  7.8436e-24  1.0054e-29  8.0081e-24  2.1398e-29  8.3005e-24  4.0981e-29  8.8207e-24  8.2394e-29  9.7460e-24  1.6479e-28  1.1393e-23  3.2434e-28  1.4326e-23  6.3089e-28  1.9555e-23  1.2100e-27  2.8901e-23  2.2896e-27  4.5668e-23  4.2872e-27  7.5951e-23  7.9863e-27  1.3128e-22  1.4922e-26  2.3435e-22  2.8290e-26  4.3242e-22  5.5246e-26  8.3141e-22
      6.85  7.2220e-31  8.0007e-24  8.2081e-31  8.0172e-24  1.1221e-30  8.0467e-24  1.9457e-30  8.0990e-24  3.9347e-30  8.1921e-24  9.5969e-30  8.3577e-24  2.2554e-29  8.6521e-24  4.4682e-29  9.1758e-24  9.1917e-29  1.0107e-23  1.8387e-28  1.1766e-23  3.6281e-28  1.4718e-23  7.0484e-28  1.9984e-23  1.3504e-27  2.9395e-23  2.5528e-27  4.6278e-23  4.7775e-27  7.6774e-23  8.9007e-27  1.3250e-22  1.6640e-26  2.3633e-22  3.1569e-26  4.3593e-22  6.1703e-26  8.3823e-22
      6.90  6.1812e-31  8.3650e-24  6.9618e-31  8.3818e-24  9.3114e-31  8.4116e-24  1.6223e-30  8.4646e-24  3.6631e-30  8.5589e-24  9.6378e-30  8.7266e-24  2.4365e-29  9.0247e-24  5.0121e-29  9.5549e-24  1.0524e-28  1.0498e-23  2.1153e-28  1.2177e-23  4.2022e-28  1.5167e-23  8.2183e-28  2.0498e-23  1.5772e-27  3.0027e-23  2.9789e-27  4.7122e-23  5.5662e-27  7.8004e-23  1.0358e-26  1.3444e-22  1.9355e-26  2.3962e-22  3.6721e-26  4.4189e-22  7.1800e-26  8.4974e-22
      6.95  5.3476e-31  8.7458e-24  6.0769e-31  8.7627e-24  8.2392e-31  8.7926e-24  1.4975e-30  8.8459e-24  3.5693e-30  8.9407e-24  9.5630e-30  9.1091e-24  2.4909e-29  9.4087e-24  5.1648e-29  9.9415e-24  1.0673e-28  1.0889e-23  2.1373e-28  1.2576e-23  4.2921e-28  1.5580e-23  8.4555e-28  2.0937e-23  1.6286e-27  3.0511e-23  3.0821e-27  4.7689e-23  5.7662e-27  7.8722e-23  1.0739e-26  1.3544e-22  2.0083e-26  2.4117e-22  3.8133e-26  4.4457e-22  7.4626e-26  8.5488e-22
      7.00  4.6503e-31  9.1424e-24  5.3597e-31  9.1590e-24  7.5432e-31  9.1885e-24  1.4104e-30  9.2410e-24  3.3261e-30  9.3343e-24  9.1471e-30  9.5003e-24  2.5184e-29  9.7953e-24  5.2222e-29  1.0320e-23  1.0479e-28  1.1254e-23  2.1274e-28  1.2915e-23  4.3159e-28  1.5874e-23  8.5630e-28  2.1150e-23  1.6591e-27  3.0579e-23  3.1547e-27  4.7498e-23  5.9210e-27  7.8066e-23  1.1051e-26  1.3394e-22  2.0693e-26  2.3812e-22  3.9336e-26  4.3858e-22  7.7057e-26  8.4318e-22
      7.05  3.9343e-31  9.6048e-24  4.6097e-31  9.6207e-24  6.6271e-31  9.6489e-24  1.2629e-30  9.6990e-24  3.0633e-30  9.7882e-24  8.4091e-30  9.9467e-24  2.4012e-29  1.0228e-23  5.1648e-29  1.0730e-23  1.0476e-28  1.1621e-23  2.1389e-28  1.3208e-23  4.3724e-28  1.6033e-23  8.7670e-28  2.1071e-23  1.7210e-27  3.0075e-23  3.3028e-27  4.6230e-23  6.2368e-27  7.5419e-23  1.1683e-26  1.2878e-22  2.1928e-26  2.2829e-22  4.1746e-26  4.1984e-22  8.1874e-26  8.0660e-22
      7.10  3.3600e-31  1.0189e-23  3.8971e-31  1.0103e-23  5.6170e-31  1.0129e-23  1.1218e-30  1.0276e-23  2.7321e-30  1.0256e-23  7.5989e-30  1.0402e-23  2.2166e-29  1.0660e-23  5.1136e-29  1.1120e-23  1.0598e-28  1.1938e-23  2.1602e-28  1.3394e-23  4.4177e-28  1.5986e-23  9.0370e-28  2.0606e-23  1.8054e-27  2.8863e-23  3.5112e-27  4.3679e-23  6.6876e-27  7.0449e-23  1.2595e-26  1.1939e-22  2.3718e-26  2.1068e-22  4.5246e-26  3.8645e-22  8.8866e-26  7.4150e-22
      7.15  2.7671e-31  1.0592e-23  3.2812e-31  1.0605e-23  4.8275e-31  1.0628e-23  9.5743e-31  1.0668e-23  2.4205e-30  1.0740e-23  6.6988e-30  1.0868e-23  1.9084e-29  1.1095e-23  4.6162e-29  1.1499e-23  9.3170e-29  1.2217e-23  1.8656e-28  1.3494e-23  3.8669e-28  1.5769e-23  8.0513e-28  1.9823e-23  1.6419e-27  2.7068e-23  3.2520e-27  4.0066e-23  6.2811e-27  6.3552e-23  1.1945e-26  1.0650e-22  2.2639e-26  1.8660e-22  4.3367e-26  3.4088e-22  8.5408e-26  6.5265e-22
      7.20  2.3144e-31  1.1117e-23  2.7449e-31  1.1128e-23  4.0552e-31  1.1147e-23  8.0738e-31  1.1181e-23  1.9883e-30  1.1242e-23  5.4131e-30  1.1350e-23  1.4979e-29  1.1542e-23  3.8290e-29  1.1884e-23  7.3538e-29  1.2491e-23  1.5044e-28  1.3571e-23  3.1731e-28  1.5494e-23  6.7471e-28  1.8922e-23  1.4123e-27  2.5044e-23  2.8675e-27  3.6028e-23  5.6510e-27  5.5873e-23  1.0906e-26  9.2162e-23  2.0879e-26  1.5986e-22  4.0261e-26  2.9027e-22  7.9630e-26  5.5387e-22
      7.25  1.9325e-31  1.1663e-23  2.2793e-31  1.1672e-23  3.3304e-31  1.1688e-23  6.3881e-31  1.1717e-23  1.5556e-30  1.1767e-23  4.1967e-30  1.1975e-23  1.1084e-29  1.2016e-23  2.7672e-29  1.2300e-23  5.4929e-29  1.2804e-23  1.1239e-28  1.3702e-23  2.4005e-28  1.5299e-23  5.2488e-28  1.8145e-23  1.1328e-27  2.3229e-23  2.3734e-27  3.2347e-23  4.8012e-27  4.8820e-23  9.4510e-27  7.8943e-23  1.8345e-26  1.3514e-22  3.5702e-26  2.4341e-22  7.1034e-26  4.6229e-22
      7.30  1.6129e-31  1.2294e-23  1.8832e-31  1.2302e-23  2.6825e-31  1.2315e-23  5.0557e-31  1.2339e-23  1.1962e-30  1.2381e-23  3.0771e-30  1.2456e-23  8.0903e-30  1.2589e-23  1.9788e-29  1.2826e-23  4.1493e-29  1.3247e-23  8.4512e-29  1.3997e-23  1.7875e-28  1.5331e-23  4.0058e-28  1.7708e-23  8.9868e-28  2.1953e-23  1.9560e-27  2.9566e-23  4.0907e-27  4.3319e-23  8.2616e-27  6.8464e-23  1.6333e-26  1.1538e-22  3.2181e-26  2.0575e-22  6.4538e-26  3.8849e-22
      7.35  1.3516e-31  1.2954e-23  1.5547e-31  1.2961e-23  2.1559e-31  1.2972e-23  3.9392e-31  1.2992e-23  9.0561e-31  1.3028e-23  2.2857e-30  1.3092e-23  5.9345e-30  1.3206e-23  1.4902e-29  1.3407e-23  3.2759e-29  1.3766e-23  6.5852e-29  1.4405e-23  1.3963e-28  1.5542e-23  3.1807e-28  1.7569e-23  7.3905e-28  2.1188e-23  1.6688e-27  2.7679e-23  3.5982e-27  3.9401e-23  7.4473e-27  6.0833e-23  1.4991e-26  1.0081e-22  2.9907e-26  1.7784e-22  6.0468e-26  3.3357e-22
      7.40  1.1390e-31  1.3643e-23  1.2942e-31  1.3649e-23  1.7534e-31  1.3659e-23  3.1183e-31  1.3676e-23  7.1062e-31  1.3708e-23  1.7423e-30  1.3763e-23  4.5032e-30  1.3863e-23  1.1782e-29  1.4039e-23  2.7933e-29  1.4353e-23  5.4887e-29  1.4912e-23  1.1541e-28  1.5906e-23  2.6691e-28  1.7679e-23  6.3080e-28  2.0846e-23  1.4618e-27  2.6524e-23  3.2397e-27  3.6780e-23  6.8598e-27  5.5528e-23  1.4046e-26  9.0498e-23  2.8359e-26  1.5786e-22  5.7795e-26  2.9406e-22
      7.45  9.6706e-32  1.4360e-23  1.0899e-31  1.4365e-23  1.4420e-31  1.4374e-23  2.5162e-31  1.4390e-23  5.6648e-31  1.4418e-23  1.3863e-30  1.4468e-23  3.5857e-30  1.4557e-23  9.4785e-30  1.4716e-23  2.2197e-29  1.4998e-23  4.2792e-29  1.5500e-23  8.9218e-29  1.6393e-23  2.0658e-28  1.7985e-23  4.9740e-28  2.0830e-23  1.1849e-27  2.5933e-23  2.7082e-27  3.5148e-23  5.8958e-27  5.1992e-23  1.2339e-26  8.3410e-23  2.5304e-26  1.4393e-22  5.2119e-26  2.6625e-22
      7.50  8.2225e-32  1.5106e-23  9.3004e-32  1.5110e-23  1.2244e-31  1.5118e-23  2.1299e-31  1.5133e-23  4.7324e-31  1.5159e-23  1.1465e-30  1.5205e-23  3.0041e-30  1.5287e-23  7.9404e-30  1.5433e-23  1.8466e-29  1.5692e-23  3.5307e-29  1.6154e-23  7.2192e-29  1.6977e-23  1.6757e-28  1.8443e-23  4.0771e-28  2.1063e-23  9.9215e-28  2.5762e-23  2.3306e-27  3.4249e-23  5.2123e-27  4.9763e-23  1.1153e-26  7.8695e-23  2.3251e-26  1.3442e-22  4.8424e-26  2.4703e-22
      7.55  7.1613e-32  1.5960e-23  8.0520e-32  1.5964e-23  1.0645e-31  1.5972e-23  1.8417e-31  1.5986e-23  4.1775e-31  1.6010e-23  1.0130e-30  1.6054e-23  2.6460e-30  1.6131e-23  7.0675e-30  1.6268e-23  1.5744e-29  1.6513e-23  3.0589e-29  1.6948e-23  6.1922e-29  1.7723e-23  1.4144e-28  1.9106e-23  3.4441e-28  2.1575e-23  8.4959e-28  2.6005e-23  2.0424e-27  3.4007e-23  4.6903e-27  4.8632e-23  1.0281e-26  7.5905e-23  2.1841e-26  1.2842e-22  4.6097e-26  2.3455e-22
      7.60  6.2562e-32  1.6853e-23  7.0751e-32  1.6857e-23  9.5518e-32  1.6864e-23  1.6832e-31  1.6878e-23  3.8204e-31  1.6901e-23  9.5098e-31  1.6943e-23  2.4767e-30  1.7017e-23  6.5295e-30  1.7149e-23  1.3706e-29  1.7384e-23  2.6950e-29  1.7803e-23  5.3191e-29  1.8548e-23  1.1812e-28  1.9877e-23  2.8274e-28  2.2252e-23  6.9622e-28  2.6512e-23  1.6942e-27  3.4208e-23  3.9692e-27  4.8274e-23  8.8875e-27  7.4504e-23  1.9225e-26  1.2501e-22  4.1127e-26  2.2705e-22
      7.65  5.5184e-32  1.7784e-23  6.2909e-32  1.7788e-23  8.6452e-32  1.7795e-23  1.5544e-31  1.7808e-23  3.5676e-31  1.7831e-23  9.0480e-31  1.7872e-23  2.3658e-30  1.7945e-23  6.2157e-30  1.8074e-23  1.2173e-29  1.8304e-23  2.4039e-29  1.8713e-23  4.6649e-29  1.9441e-23  1.0054e-28  2.0740e-23  2.3505e-28  2.3062e-23  5.7311e-28  2.7227e-23  1.4018e-27  3.4752e-23  3.3366e-27  4.8506e-23  7.6210e-27  7.4153e-23  1.6794e-26  1.2353e-22  3.6455e-26  2.2327e-22
      7.70  4.9020e-32  1.8753e-23  5.6358e-32  1.8757e-23  7.8896e-32  1.8765e-23  1.4461e-31  1.8777e-23  3.3538e-31  1.8800e-23  8.6403e-31  1.8840e-23  2.2835e-30  1.8912e-23  6.0053e-30  1.9040e-23  1.1086e-29  1.9268e-23  2.1332e-29  1.9673e-23  4.1285e-29  2.0394e-23  8.6510e-29  2.1681e-23  1.9695e-28  2.3980e-23  4.7295e-28  2.8106e-23  1.1560e-27  3.5559e-23  2.7837e-27  4.9183e-23  6.4750e-27  7.4587e-23  1.4540e-26  1.2349e-22  3.2062e-26  2.2227e-22
      7.75  4.4049e-32  1.9761e-23  5.1049e-32  1.9765e-23  7.2692e-32  1.9772e-23  1.3567e-31  1.9785e-23  3.1713e-31  1.9807e-23  8.1822e-31  1.9848e-23  2.1926e-30  1.9920e-23  5.5265e-30  2.0048e-23  1.0115e-29  2.0275e-23  1.9173e-29  2.0680e-23  3.6918e-29  2.1401e-23  7.5345e-29  2.2687e-23  1.6669e-28  2.4985e-23  3.9218e-28  2.9109e-23  9.5186e-28  3.6560e-23  2.3075e-27  5.0179e-23  5.4520e-27  7.5575e-23  1.2472e-26  1.2446e-22  2.7965e-26  2.2319e-22
      7.80  3.9925e-32  2.0910e-23  4.6547e-32  2.0914e-23  6.7195e-32  2.0921e-23  1.2703e-31  2.0934e-23  2.9862e-31  2.0957e-23  7.8497e-31  2.0997e-23  2.0906e-30  2.1070e-23  5.0382e-30  2.1199e-23  9.2467e-30  2.1428e-23  1.7309e-29  2.1835e-23  3.3340e-29  2.2562e-23  6.6095e-29  2.3857e-23  1.4219e-28  2.6171e-23  3.2682e-28  3.0325e-23  7.8401e-28  3.7829e-23  1.9046e-27  5.1547e-23  4.5590e-27  7.7126e-23  1.0619e-26  1.2636e-22  2.4236e-26  2.2579e-22
      7.85  3.6448e-32  2.2111e-23  4.2600e-32  2.2115e-23  6.1915e-32  2.2122e-23  1.1680e-31  2.2135e-23  2.7476e-31  2.2158e-23  7.2339e-31  2.2199e-23  1.9358e-30  2.2272e-23  4.6420e-30  2.2402e-23  8.3942e-30  2.2634e-23  1.5553e-29  2.3045e-23  2.9583e-29  2.3778e-23  5.8017e-29  2.5086e-23  1.2171e-28  2.7423e-23  2.7318e-28  3.1617e-23  6.4587e-28  3.9195e-23  1.5666e-27  5.3047e-23  3.7889e-27  7.8875e-23  8.9803e-27  1.2859e-22  2.0885e-26  2.2897e-22
      7.90  3.3513e-32  2.3364e-23  3.8975e-32  2.3368e-23  5.6413e-32  2.3375e-23  1.0643e-31  2.3388e-23  2.5156e-31  2.3412e-23  6.6003e-31  2.3453e-23  1.7775e-30  2.3527e-23  3.9910e-30  2.3658e-23  7.2661e-30  2.3892e-23  1.3353e-29  2.4307e-23  2.5237e-29  2.5047e-23  4.8848e-29  2.6367e-23  1.0043e-28  2.8727e-23  2.2070e-28  3.2961e-23  5.1427e-28  4.0610e-23  1.2438e-27  5.4593e-23  3.0373e-27  8.0666e-23  7.3300e-27  1.3085e-22  1.7404e-26  2.3216e-22
      7.95  3.1024e-32  2.4670e-23  3.5807e-32  2.4674e-23  5.1207e-32  2.4681e-23  9.6106e-32  2.4694e-23  2.2318e-31  2.4718e-23  5.8233e-31  2.4760e-23  1.5593e-30  2.4834e-23  3.3820e-30  2.4966e-23  6.1385e-30  2.5201e-23  1.1225e-29  2.5619e-23  2.1000e-29  2.6364e-23  4.0375e-29  2.7692e-23  8.1532e-29  3.0066e-23  1.7557e-28  3.4326e-23  4.0258e-28  4.2023e-23  9.6734e-28  5.6094e-23  2.3746e-27  8.2328e-23  5.8158e-27  1.3282e-22  1.4076e-26  2.3475e-22
      8.00  2.8913e-32  2.6028e-23  3.2967e-32  2.6032e-23  4.6147e-32  2.6040e-23  8.4710e-32  2.6053e-23  1.9329e-31  2.6076e-23  5.0028e-31  2.6118e-23  1.3782e-30  2.6455e-23  2.8094e-30  2.6325e-23  5.0360e-30  2.6560e-23  9.2523e-30  2.6979e-23  1.7192e-29  2.7726e-23  3.2865e-29  2.9057e-23  6.5349e-29  3.1436e-23  1.3821e-28  3.5706e-23  3.1178e-28  4.3420e-23  7.4251e-28  5.7521e-23  1.8258e-27  8.3812e-23  4.5233e-27  1.3441e-22  1.1136e-26  2.3653e-22
      8.05  2.7132e-32  2.7572e-23  3.0458e-32  2.7576e-23  4.1391e-32  2.7584e-23  7.3429e-32  2.7597e-23  1.6350e-31  2.7620e-23  4.1828e-31  2.7662e-23  1.1153e-30  2.7737e-23  2.3290e-30  2.7869e-23  4.0864e-30  2.8105e-23  7.4824e-30  2.8524e-23  1.3826e-29  2.9271e-23  2.6269e-29  3.0602e-23  5.1722e-29  3.2983e-23  1.0781e-28  3.7254e-23  2.3983e-28  4.4971e-23  5.6630e-28  5.9078e-23  1.3930e-27  8.5377e-23  3.4843e-27  1.3598e-22  8.7140e-27  2.3811e-22
      8.10  2.5646e-32  2.9188e-23  2.8291e-32  2.9192e-23  3.6981e-32  2.9199e-23  6.2563e-32  2.9212e-23  1.3539e-31  2.9236e-23  3.4126e-31  2.9278e-23  9.1398e-31  2.9352e-23  1.8384e-30  2.9484e-23  3.2508e-30  2.9719e-23  5.8802e-30  3.0136e-23  1.0921e-29  3.0881e-23  2.0613e-29  3.2209e-23  4.0339e-29  3.4582e-23  8.3097e-29  3.8840e-23  1.8266e-28  4.6533e-23  4.2782e-28  6.0594e-23  1.0516e-27  8.6808e-23  2.6508e-27  1.3724e-22  6.7233e-27  2.3900e-22
      8.15  2.4422e-32  3.0875e-23  2.6473e-32  3.0879e-23  3.3285e-32  3.0887e-23  5.3151e-32  3.0900e-23  1.1073e-31  3.0923e-23  2.7826e-31  3.1275e-23  7.2634e-31  3.1038e-23  1.4253e-30  3.1170e-23  2.5679e-30  3.1403e-23  4.5879e-30  3.1819e-23  8.4102e-30  3.2559e-23  1.5788e-29  3.3880e-23  3.0962e-29  3.6240e-23  6.3116e-29  4.0475e-23  1.3711e-28  4.8126e-23  3.1821e-28  6.2110e-23  7.8001e-28  8.8176e-23  1.9767e-27  1.3832e-22  5.0751e-27  2.3947e-22
      8.20  2.3426e-32  3.2634e-23  2.4985e-32  3.2639e-23  3.0210e-32  3.2646e-23  4.5502e-32  3.2659e-23  8.9549e-32  3.2682e-23  2.1542e-31  3.2723e-23  5.6703e-31  3.2797e-23  1.1124e-30  3.2927e-23  1.9821e-30  3.3159e-23  3.5671e-30  3.3572e-23  6.5182e-30  3.4308e-23  1.2180e-29  3.5620e-23  2.3538e-29  3.7965e-23  4.7690e-29  4.2172e-23  1.0273e-28  4.9772e-23  2.3683e-28  6.3664e-23  5.7949e-28  8.9555e-23  1.4757e-27  1.3935e-22  3.8303e-27  2.3978e-22
      8.25  2.2594e-32  3.4464e-23  2.3762e-32  3.4468e-23  2.7424e-32  3.4475e-23  3.9314e-32  3.4488e-23  7.2769e-32  3.4511e-23  1.6870e-31  3.4552e-23  4.3786e-31  3.4625e-23  8.5288e-31  3.4754e-23  1.5149e-30  3.4985e-23  2.6968e-30  3.5395e-23  4.9177e-30  3.6126e-23  9.2479e-30  3.7430e-23  1.7800e-29  3.9760e-23  3.5906e-29  4.3941e-23  7.6926e-29  5.1493e-23  1.7658e-28  6.5295e-23  4.3178e-28  9.1015e-23  1.1047e-27  1.4048e-22  2.8960e-27  2.4020e-22
      8.30  2.1959e-32  3.6531e-23  2.2798e-32  3.6535e-23  2.5511e-32  3.6542e-23  3.4111e-32  3.6555e-23  5.9308e-32  3.6578e-23  1.3157e-31  3.6619e-23  3.3636e-31  3.6692e-23  6.5148e-31  3.6821e-23  1.1529e-30  3.7051e-23  2.0678e-30  3.7461e-23  3.7629e-30  3.8191e-23  6.9955e-30  3.9492e-23  1.3428e-29  4.1818e-23  2.6995e-29  4.5991e-23  5.7668e-29  5.3530e-23  1.3205e-28  6.7306e-23  3.2120e-28  9.2975e-23  8.3033e-28  1.4233e-22  2.1965e-27  2.4180e-22
      8.35  2.1450e-32  3.8683e-23  2.2083e-32  3.8687e-23  2.4089e-32  3.8694e-23  3.0351e-32  3.8707e-23  4.8588e-32  3.8730e-23  1.0117e-31  3.8771e-23  2.5321e-31  3.8844e-23  4.8703e-31  3.8974e-23  8.5770e-31  3.9204e-23  1.5341e-30  3.9614e-23  2.7883e-30  4.0344e-23  5.1792e-30  4.1646e-23  9.9369e-30  4.3974e-23  1.9976e-29  4.8150e-23  4.2713e-29  5.5692e-23  9.8010e-29  6.9475e-23  2.4073e-28  9.5153e-23  6.2314e-28  1.4451e-22  1.6649e-27  2.4397e-22
      8.40  2.1044e-32  4.0911e-23  2.1498e-32  4.0915e-23  2.2918e-32  4.0922e-23  2.7463e-32  4.0935e-23  4.0512e-32  4.0958e-23  7.8506e-32  4.0999e-23  1.8634e-31  4.1072e-23  3.5784e-31  4.1202e-23  6.2603e-31  4.1433e-23  1.1158e-30  4.1845e-23  2.0253e-30  4.2577e-23  3.7625e-30  4.3884e-23  7.2292e-30  4.6219e-23  1.4574e-29  5.0408e-23  3.1297e-29  5.7975e-23  7.2254e-29  7.1801e-23  1.7880e-28  9.7556e-23  4.6708e-28  1.4705e-22  1.2617e-27  2.4676e-22
      8.45  2.0725e-32  4.3201e-23  2.1055e-32  4.3205e-23  2.2094e-32  4.3212e-23  2.5145e-32  4.3225e-23  3.4868e-32  4.3248e-23  6.2447e-32  4.3290e-23  1.4064e-31  4.3363e-23  2.6632e-31  4.3494e-23  4.6192e-31  4.3726e-23  8.1936e-31  4.4140e-23  1.4841e-30  4.4877e-23  2.7567e-30  4.6191e-23  5.3031e-30  4.8540e-23  1.0720e-29  5.2754e-23  2.3118e-29  6.0364e-23  5.3675e-29  7.4269e-23  1.3375e-28  1.0017e-22  3.4995e-28  1.4993e-22  9.5432e-28  2.5015e-22
      8.50  2.0474e-32  4.5534e-23  2.0716e-32  4.5539e-23  2.1509e-32  4.5546e-23  2.3768e-32  4.5559e-23  3.0766e-32  4.5582e-23  5.0894e-32  4.5624e-23  1.0855e-31  4.5698e-23  1.9936e-31  4.5830e-23  3.4195e-31  4.6064e-23  6.0834e-31  4.6481e-23  1.0985e-30  4.7224e-23  2.0385e-30  4.8549e-23  3.9250e-30  5.0917e-23  7.9528e-30  5.5165e-23  1.7215e-29  6.2836e-23  4.0169e-29  7.6851e-23  1.0072e-28  1.0295e-22  2.6726e-28  1.5309e-22  7.3530e-28  2.5405e-22
