# This was generated using Cloudy10 and the columns are ordered 
# as log10 of the fraction of the metallicity to the solar metallicity
# 'h_*_Z' and 'c_*_Z' stands for cooling and heating respectively 
# at * metalicity
#
# NOTE: This was generated separately from loop_coolingcurve_w_UV.py
#       using Output_metals_w_redshift.py.
#
# Redshift = 5.5
# hden = -8.0
#
#     temp   h_-3.00_Z   c_-3.00_Z   h_-2.75_Z   c_-2.75_Z   h_-2.50_Z   c_-2.50_Z   h_-2.25_Z   c_-2.25_Z   h_-2.00_Z   c_-2.00_Z   h_-1.75_Z   c_-1.75_Z   h_-1.50_Z   c_-1.50_Z   h_-1.25_Z   c_-1.25_Z   h_-1.00_Z   c_-1.00_Z   h_-0.75_Z   c_-0.75_Z   h_-0.50_Z   c_-0.50_Z   h_-0.25_Z   c_-0.25_Z    h_0.00_Z    c_0.00_Z    h_0.25_Z    c_0.25_Z    h_0.50_Z    c_0.50_Z    h_0.75_Z    c_0.75_Z    h_1.00_Z    c_1.00_Z    h_1.25_Z    c_1.25_Z    h_1.50_Z    c_1.50_Z 
      1.00  7.6220e-22  1.1666e-23  7.6262e-22  1.1666e-23  7.6336e-22  1.1666e-23  7.6469e-22  1.1666e-23  7.6702e-22  1.1666e-23  7.7116e-22  1.1667e-23  7.7843e-22  1.1668e-23  7.9115e-22  1.1670e-23  8.1350e-22  1.1673e-23  8.5318e-22  1.1679e-23  9.2379e-22  1.1689e-23  1.0489e-21  1.1707e-23  1.2713e-21  1.1738e-23  1.6687e-21  1.1795e-23  2.3830e-21  1.1896e-23  3.6774e-21  1.2075e-23  6.0599e-21  1.2394e-23  1.0539e-20  1.2959e-23  1.9256e-20  1.3961e-23
      1.05  7.1488e-22  1.3084e-23  7.1528e-22  1.3084e-23  7.1599e-22  1.3084e-23  7.1724e-22  1.3084e-23  7.1946e-22  1.3085e-23  7.2338e-22  1.3085e-23  7.3028e-22  1.3086e-23  7.4236e-22  1.3088e-23  7.6354e-22  1.3092e-23  8.0115e-22  1.3098e-23  8.6813e-22  1.3110e-23  9.8682e-22  1.3130e-23  1.1979e-21  1.3165e-23  1.5747e-21  1.3229e-23  2.2523e-21  1.3342e-23  3.4804e-21  1.3543e-23  5.7417e-21  1.3901e-23  9.9946e-21  1.4535e-23  1.8276e-20  1.5659e-23
      1.10  6.7046e-22  1.4675e-23  6.7084e-22  1.4675e-23  6.7151e-22  1.4675e-23  6.7269e-22  1.4675e-23  6.7480e-22  1.4676e-23  6.7851e-22  1.4676e-23  6.8506e-22  1.4678e-23  6.9652e-22  1.4680e-23  7.1660e-22  1.4684e-23  7.5224e-22  1.4691e-23  8.1576e-22  1.4704e-23  9.2835e-22  1.4726e-23  1.1285e-21  1.4766e-23  1.4859e-21  1.4838e-23  2.1283e-21  1.4965e-23  3.2935e-21  1.5190e-23  5.4390e-21  1.5592e-23  9.4757e-21  1.6304e-23  1.7341e-20  1.7565e-23
      1.15  6.2877e-22  1.6459e-23  6.2912e-22  1.6460e-23  6.2976e-22  1.6460e-23  6.3088e-22  1.6460e-23  6.3287e-22  1.6460e-23  6.3640e-22  1.6461e-23  6.4260e-22  1.6463e-23  6.5348e-22  1.6465e-23  6.7250e-22  1.6470e-23  7.0630e-22  1.6478e-23  7.6648e-22  1.6492e-23  8.7325e-22  1.6517e-23  1.0631e-21  1.6562e-23  1.4018e-21  1.6642e-23  2.0109e-21  1.6785e-23  3.1160e-21  1.7038e-23  5.1511e-21  1.7489e-23  8.9816e-21  1.8288e-23  1.6449e-20  1.9703e-23
      1.20  5.8965e-22  1.8462e-23  5.8998e-22  1.8462e-23  5.9058e-22  1.8462e-23  5.9165e-22  1.8462e-23  5.9354e-22  1.8463e-23  5.9688e-22  1.8464e-23  6.0276e-22  1.8465e-23  6.1307e-22  1.8468e-23  6.3109e-22  1.8473e-23  6.6313e-22  1.8482e-23  7.2014e-22  1.8498e-23  8.2136e-22  1.8526e-23  1.0013e-21  1.8577e-23  1.3224e-21  1.8667e-23  1.8996e-21  1.8827e-23  2.9476e-21  1.9112e-23  4.8776e-21  1.9618e-23  8.5114e-21  2.0515e-23  1.5600e-20  2.2103e-23
      1.25  5.5295e-22  2.0708e-23  5.5327e-22  2.0708e-23  5.5384e-22  2.0708e-23  5.5485e-22  2.0708e-23  5.5664e-22  2.0709e-23  5.5980e-22  2.0710e-23  5.6537e-22  2.0712e-23  5.7515e-22  2.0715e-23  5.9225e-22  2.0721e-23  6.2259e-22  2.0731e-23  6.7658e-22  2.0749e-23  7.7249e-22  2.0781e-23  9.4303e-22  2.0837e-23  1.2473e-21  2.0938e-23  1.7942e-21  2.1118e-23  2.7876e-21  2.1438e-23  4.6173e-21  2.2007e-23  8.0637e-21  2.3013e-23  1.4790e-20  2.4796e-23
      1.30  5.1855e-22  2.3229e-23  5.1885e-22  2.3229e-23  5.1939e-22  2.3229e-23  5.2035e-22  2.3230e-23  5.2204e-22  2.3230e-23  5.2503e-22  2.3232e-23  5.3032e-22  2.3234e-23  5.3959e-22  2.3237e-23  5.5580e-22  2.3244e-23  5.8451e-22  2.3255e-23  6.3563e-22  2.3275e-23  7.2649e-22  2.3311e-23  8.8809e-22  2.3375e-23  1.1765e-21  2.3488e-23  1.6945e-21  2.3690e-23  2.6359e-21  2.4050e-23  4.3701e-21  2.4689e-23  7.6376e-21  2.5820e-23  1.4019e-20  2.7823e-23
      1.35  4.8630e-22  2.6057e-23  4.8659e-22  2.6058e-23  4.8710e-22  2.6058e-23  4.8800e-22  2.6058e-23  4.8960e-22  2.6059e-23  4.9244e-22  2.6060e-23  4.9744e-22  2.6063e-23  5.0622e-22  2.6067e-23  5.2160e-22  2.6074e-23  5.4877e-22  2.6086e-23  5.9715e-22  2.6109e-23  6.8320e-22  2.6150e-23  8.3630e-22  2.6221e-23  1.1095e-21  2.6349e-23  1.6002e-21  2.6575e-23  2.4919e-21  2.6980e-23  4.1351e-21  2.7698e-23  7.2324e-21  2.8969e-23  1.3284e-20  3.1219e-23
      1.40  4.5607e-22  2.9230e-23  4.5634e-22  2.9230e-23  4.5683e-22  2.9231e-23  4.5768e-22  2.9231e-23  4.5920e-22  2.9232e-23  4.6188e-22  2.9233e-23  4.6662e-22  2.9236e-23  4.7494e-22  2.9240e-23  4.8951e-22  2.9248e-23  5.1522e-22  2.9263e-23  5.6100e-22  2.9288e-23  6.4248e-22  2.9334e-23  7.8747e-22  2.9414e-23  1.0463e-21  2.9558e-23  1.5109e-21  2.9812e-23  2.3555e-21  3.0268e-23  3.9121e-21  3.1075e-23  6.8471e-21  3.2502e-23  1.2585e-20  3.5030e-23
      1.45  4.2775e-22  3.2789e-23  4.2801e-22  3.2790e-23  4.2846e-22  3.2790e-23  4.2927e-22  3.2790e-23  4.3070e-22  3.2791e-23  4.3324e-22  3.2793e-23  4.3772e-22  3.2796e-23  4.4560e-22  3.2801e-23  4.5941e-22  3.2810e-23  4.8372e-22  3.2826e-23  5.2702e-22  3.2855e-23  6.0413e-22  3.2906e-23  7.4139e-22  3.2996e-23  9.8640e-22  3.3157e-23  1.4262e-21  3.3443e-23  2.2260e-21  3.3956e-23  3.7001e-21  3.4863e-23  6.4801e-21  3.6467e-23  1.1918e-20  3.9307e-23
      1.50  4.0122e-22  3.6782e-23  4.0146e-22  3.6782e-23  4.0189e-22  3.6783e-23  4.0265e-22  3.6783e-23  4.0401e-22  3.6784e-23  4.0641e-22  3.6786e-23  4.1065e-22  3.6789e-23  4.1810e-22  3.6795e-23  4.3118e-22  3.6805e-23  4.5417e-22  3.6823e-23  4.9512e-22  3.6855e-23  5.6808e-22  3.6913e-23  6.9798e-22  3.7014e-23  9.2987e-22  3.7195e-23  1.3461e-21  3.7517e-23  2.1034e-21  3.8094e-23  3.4991e-21  3.9113e-23  6.1323e-21  4.0916e-23  1.1285e-20  4.4107e-23
      1.55  3.7637e-22  4.1261e-23  3.7660e-22  4.1261e-23  3.7700e-22  4.1262e-23  3.7772e-22  4.1262e-23  3.7901e-22  4.1264e-23  3.8128e-22  4.1266e-23  3.8529e-22  4.1269e-23  3.9234e-22  4.1276e-23  4.0472e-22  4.1287e-23  4.2646e-22  4.1307e-23  4.6517e-22  4.1344e-23  5.3419e-22  4.1408e-23  6.5710e-22  4.1522e-23  8.7653e-22  4.1726e-23  1.2705e-21  4.2087e-23  1.9874e-21  4.2736e-23  3.3087e-21  4.3882e-23  5.8020e-21  4.5908e-23  1.0684e-20  4.9494e-23
      1.60  3.5310e-22  4.6286e-23  3.5331e-22  4.6286e-23  3.5370e-22  4.6287e-23  3.5438e-22  4.6287e-23  3.5559e-22  4.6289e-23  3.5773e-22  4.6291e-23  3.6152e-22  4.6295e-23  3.6818e-22  4.6302e-23  3.7988e-22  4.6315e-23  4.0040e-22  4.6338e-23  4.3697e-22  4.6379e-23  5.0214e-22  4.6451e-23  6.1824e-22  4.6580e-23  8.2556e-22  4.6808e-23  1.1978e-21  4.7215e-23  1.8755e-21  4.7945e-23  3.1244e-21  4.9232e-23  5.4818e-21  5.1510e-23  1.0099e-20  5.5540e-23
      1.65  3.3131e-22  5.1923e-23  3.3152e-22  5.1923e-23  3.3188e-22  5.1924e-23  3.3252e-22  5.1924e-23  3.3366e-22  5.1926e-23  3.3568e-22  5.1928e-23  3.3926e-22  5.1933e-23  3.4555e-22  5.1941e-23  3.5661e-22  5.1956e-23  3.7598e-22  5.1981e-23  4.1051e-22  5.2027e-23  4.7201e-22  5.2108e-23  5.8164e-22  5.2253e-23  7.7746e-22  5.2510e-23  1.1290e-21  5.2967e-23  1.7693e-21  5.3789e-23  2.9494e-21  5.5236e-23  5.1776e-21  5.7796e-23  9.5436e-21  6.2326e-23
      1.70  3.1092e-22  5.8247e-23  3.1111e-22  5.8247e-23  3.1145e-22  5.8248e-23  3.1206e-22  5.8249e-23  3.1313e-22  5.8250e-23  3.1504e-22  5.8253e-23  3.1841e-22  5.8258e-23  3.2436e-22  5.8267e-23  3.3480e-22  5.8284e-23  3.5312e-22  5.8313e-23  3.8569e-22  5.8364e-23  4.4371e-22  5.8455e-23  5.4722e-22  5.8618e-23  7.3214e-22  5.8907e-23  1.0642e-21  5.9422e-23  1.6690e-21  6.0347e-23  2.7837e-21  6.1974e-23  4.8893e-21  6.4851e-23  9.0174e-21  6.9943e-23
      1.75  2.9183e-22  6.5341e-23  2.9201e-22  6.5342e-23  2.9234e-22  6.5342e-23  2.9291e-22  6.5343e-23  2.9392e-22  6.5345e-23  2.9572e-22  6.5348e-23  2.9890e-22  6.5354e-23  3.0451e-22  6.5364e-23  3.1438e-22  6.5383e-23  3.3169e-22  6.5415e-23  3.6240e-22  6.5473e-23  4.1714e-22  6.5576e-23  5.1484e-22  6.5758e-23  6.8942e-22  6.6083e-23  1.0031e-21  6.6664e-23  1.5742e-21  6.7704e-23  2.6271e-21  6.9533e-23  4.6163e-21  7.2768e-23  8.5180e-21  7.8492e-23
      1.80  2.7398e-22  7.3300e-23  2.7415e-22  7.3301e-23  2.7445e-22  7.3301e-23  2.7499e-22  7.3303e-23  2.7594e-22  7.3305e-23  2.7764e-22  7.3308e-23  2.8064e-22  7.3315e-23  2.8594e-22  7.3326e-23  2.9525e-22  7.3347e-23  3.1161e-22  7.3383e-23  3.4058e-22  7.3448e-23  3.9220e-22  7.3564e-23  4.8440e-22  7.3770e-23  6.4917e-22  7.4135e-23  9.4542e-22  7.4790e-23  1.4846e-21  7.5960e-23  2.4789e-21  7.8017e-23  4.3580e-21  8.1656e-23  8.0452e-21  8.8092e-23
      1.85  2.5727e-22  8.2229e-23  2.5743e-22  8.2230e-23  2.5771e-22  8.2231e-23  2.5822e-22  8.2232e-23  2.5912e-22  8.2234e-23  2.6072e-22  8.2238e-23  2.6355e-22  8.2246e-23  2.6854e-22  8.2259e-23  2.7733e-22  8.2282e-23  2.9278e-22  8.2323e-23  3.2009e-22  8.2396e-23  3.6876e-22  8.2526e-23  4.5573e-22  8.2757e-23  6.1118e-22  8.3168e-23  8.9080e-22  8.3906e-23  1.3996e-21  8.5222e-23  2.3381e-21  8.7536e-23  4.1122e-21  9.1627e-23  7.5951e-21  9.8863e-23
      1.90  2.4164e-22  9.2247e-23  2.4179e-22  9.2247e-23  2.4206e-22  9.2248e-23  2.4254e-22  9.2249e-23  2.4339e-22  9.2252e-23  2.4489e-22  9.2257e-23  2.4756e-22  9.2265e-23  2.5227e-22  9.2279e-23  2.6055e-22  9.2305e-23  2.7515e-22  9.2352e-23  3.0088e-22  9.2434e-23  3.4675e-22  9.2580e-23  4.2878e-22  9.2840e-23  5.7540e-22  9.3302e-23  8.3924e-22  9.4135e-23  1.3193e-21  9.5615e-23  2.2048e-21  9.8218e-23  3.8795e-21  1.0282e-22  7.1686e-21  1.1096e-22
      1.95  2.2702e-22  1.0348e-22  2.2716e-22  1.0348e-22  2.2742e-22  1.0349e-22  2.2787e-22  1.0349e-22  2.2867e-22  1.0349e-22  2.3008e-22  1.0350e-22  2.3260e-22  1.0350e-22  2.3704e-22  1.0352e-22  2.4485e-22  1.0355e-22  2.5862e-22  1.0360e-22  2.8287e-22  1.0370e-22  3.2610e-22  1.0386e-22  4.0344e-22  1.0415e-22  5.4170e-22  1.0467e-22  7.9056e-22  1.0561e-22  1.2433e-21  1.0728e-22  2.0787e-21  1.1020e-22  3.6590e-21  1.1538e-22  6.7643e-21  1.2453e-22
      2.00  2.1335e-22  1.1609e-22  2.1348e-22  1.1609e-22  2.1372e-22  1.1609e-22  2.1415e-22  1.1610e-22  2.1490e-22  1.1610e-22  2.1623e-22  1.1610e-22  2.1860e-22  1.1611e-22  2.2278e-22  1.1613e-22  2.3015e-22  1.1617e-22  2.4315e-22  1.1622e-22  2.6600e-22  1.1633e-22  3.0677e-22  1.1651e-22  3.7963e-22  1.1684e-22  5.0997e-22  1.1743e-22  7.4468e-22  1.1849e-22  1.1716e-21  1.2036e-22  1.9595e-21  1.2365e-22  3.4503e-21  1.2947e-22  6.3812e-21  1.3976e-22
      2.05  2.0057e-22  1.3024e-22  2.0069e-22  1.3024e-22  2.0092e-22  1.3024e-22  2.0132e-22  1.3024e-22  2.0203e-22  1.3024e-22  2.0328e-22  1.3025e-22  2.0551e-22  1.3026e-22  2.0945e-22  1.3028e-22  2.1640e-22  1.3032e-22  2.2865e-22  1.3039e-22  2.5022e-22  1.3050e-22  2.8862e-22  1.3071e-22  3.5725e-22  1.3108e-22  4.8010e-22  1.3174e-22  7.0139e-22  1.3293e-22  1.1039e-21  1.3504e-22  1.8467e-21  1.3875e-22  3.2527e-21  1.4529e-22  6.0180e-21  1.5686e-22
      2.10  1.8862e-22  1.4610e-22  1.8874e-22  1.4610e-22  1.8895e-22  1.4611e-22  1.8932e-22  1.4611e-22  1.8999e-22  1.4611e-22  1.9117e-22  1.4612e-22  1.9327e-22  1.4613e-22  1.9699e-22  1.4616e-22  2.0353e-22  1.4620e-22  2.1509e-22  1.4627e-22  2.3543e-22  1.4640e-22  2.7160e-22  1.4664e-22  3.3623e-22  1.4705e-22  4.5201e-22  1.4779e-22  6.6060e-22  1.4914e-22  1.0400e-21  1.5152e-22  1.7403e-21  1.5568e-22  3.0662e-21  1.6304e-22  5.6750e-21  1.7606e-22
      2.15  1.7745e-22  1.6390e-22  1.7756e-22  1.6391e-22  1.7776e-22  1.6391e-22  1.7811e-22  1.6391e-22  1.7874e-22  1.6391e-22  1.7985e-22  1.6392e-22  1.8183e-22  1.6394e-22  1.8533e-22  1.6396e-22  1.9149e-22  1.6401e-22  2.0239e-22  1.6409e-22  2.2158e-22  1.6424e-22  2.5564e-22  1.6450e-22  3.1650e-22  1.6497e-22  4.2562e-22  1.6580e-22  6.2220e-22  1.6733e-22  9.7975e-22  1.7000e-22  1.6399e-21  1.7469e-22  2.8901e-21  1.8297e-22  5.3513e-21  1.9761e-22
      2.20  1.6701e-22  1.8387e-22  1.6711e-22  1.8388e-22  1.6730e-22  1.8388e-22  1.6763e-22  1.8388e-22  1.6822e-22  1.8389e-22  1.6927e-22  1.8390e-22  1.7113e-22  1.8391e-22  1.7443e-22  1.8394e-22  1.8023e-22  1.8399e-22  1.9050e-22  1.8409e-22  2.0861e-22  1.8425e-22  2.4068e-22  1.8455e-22  2.9800e-22  1.8508e-22  4.0084e-22  1.8601e-22  5.8612e-22  1.8774e-22  9.2311e-22  1.9074e-22  1.5454e-21  1.9602e-22  2.7243e-21  2.0533e-22  5.0464e-21  2.2179e-22
      2.25  1.5725e-22  2.0628e-22  1.5735e-22  2.0628e-22  1.5752e-22  2.0628e-22  1.5784e-22  2.0628e-22  1.5839e-22  2.0629e-22  1.5938e-22  2.0630e-22  1.6113e-22  2.0632e-22  1.6424e-22  2.0635e-22  1.6971e-22  2.0641e-22  1.7939e-22  2.0652e-22  1.9647e-22  2.0671e-22  2.2668e-22  2.0704e-22  2.8068e-22  2.0763e-22  3.7759e-22  2.0868e-22  5.5226e-22  2.1063e-22  8.6993e-22  2.1402e-22  1.4567e-21  2.1995e-22  2.5686e-21  2.3042e-22  4.7603e-21  2.4894e-22
      2.30  1.4813e-22  2.3141e-22  1.4823e-22  2.3141e-22  1.4839e-22  2.3142e-22  1.4869e-22  2.3142e-22  1.4921e-22  2.3143e-22  1.5014e-22  2.3144e-22  1.5179e-22  2.3146e-22  1.5471e-22  2.3150e-22  1.5987e-22  2.3156e-22  1.6899e-22  2.3168e-22  1.8512e-22  2.3189e-22  2.1358e-22  2.3227e-22  2.6448e-22  2.3293e-22  3.5582e-22  2.3412e-22  5.2053e-22  2.3632e-22  8.2008e-22  2.4013e-22  1.3735e-21  2.4680e-22  2.4228e-21  2.5859e-22  4.4928e-21  2.7942e-22
      2.35  1.3962e-22  2.5961e-22  1.3970e-22  2.5961e-22  1.3986e-22  2.5961e-22  1.4014e-22  2.5962e-22  1.4063e-22  2.5962e-22  1.4151e-22  2.5964e-22  1.4306e-22  2.5966e-22  1.4581e-22  2.5970e-22  1.5068e-22  2.5978e-22  1.5928e-22  2.5991e-22  1.7450e-22  2.6015e-22  2.0134e-22  2.6057e-22  2.4935e-22  2.6132e-22  3.3545e-22  2.6265e-22  4.9083e-22  2.6515e-22  7.7341e-22  2.6944e-22  1.2957e-21  2.7694e-22  2.2865e-21  2.9020e-22  4.2432e-21  3.1363e-22
      2.40  1.3166e-22  2.9124e-22  1.3174e-22  2.9124e-22  1.3189e-22  2.9124e-22  1.3215e-22  2.9125e-22  1.3262e-22  2.9126e-22  1.3344e-22  2.9127e-22  1.3491e-22  2.9130e-22  1.3750e-22  2.9135e-22  1.4209e-22  2.9143e-22  1.5020e-22  2.9158e-22  1.6457e-22  2.9185e-22  1.8993e-22  2.9232e-22  2.3520e-22  2.9316e-22  3.1641e-22  2.9467e-22  4.6304e-22  2.9750e-22  7.2975e-22  3.0232e-22  1.2229e-21  3.1076e-22  2.1592e-21  3.2567e-22  4.0110e-21  3.5203e-22
      2.45  1.2423e-22  3.2672e-22  1.2431e-22  3.2672e-22  1.2445e-22  3.2673e-22  1.2469e-22  3.2673e-22  1.2513e-22  3.2674e-22  1.2591e-22  3.2676e-22  1.2729e-22  3.2679e-22  1.2973e-22  3.2684e-22  1.3406e-22  3.2694e-22  1.4172e-22  3.2711e-22  1.5529e-22  3.2741e-22  1.7926e-22  3.2794e-22  2.2198e-22  3.2889e-22  2.9862e-22  3.3060e-22  4.3706e-22  3.3379e-22  6.8895e-22  3.3921e-22  1.1549e-21  3.4871e-22  2.0406e-21  3.6549e-22  3.7956e-21  3.9514e-22
      2.50  1.1729e-22  3.6653e-22  1.1736e-22  3.6653e-22  1.1749e-22  3.6653e-22  1.1773e-22  3.6654e-22  1.1814e-22  3.6655e-22  1.1887e-22  3.6657e-22  1.2017e-22  3.6660e-22  1.2248e-22  3.6666e-22  1.2657e-22  3.6677e-22  1.3380e-22  3.6696e-22  1.4662e-22  3.6730e-22  1.6928e-22  3.6790e-22  2.0962e-22  3.6896e-22  2.8201e-22  3.7092e-22  4.1280e-22  3.7451e-22  6.5087e-22  3.8061e-22  1.0916e-21  3.9130e-22  1.9302e-21  4.1017e-22  3.5960e-21  4.4352e-22
      2.55  1.1081e-22  4.1118e-22  1.1088e-22  4.1119e-22  1.1100e-22  4.1119e-22  1.1122e-22  4.1120e-22  1.1161e-22  4.1121e-22  1.1230e-22  4.1123e-22  1.1353e-22  4.1127e-22  1.1571e-22  4.1133e-22  1.1956e-22  4.1145e-22  1.2640e-22  4.1167e-22  1.3851e-22  4.1205e-22  1.5995e-22  4.1272e-22  1.9806e-22  4.1392e-22  2.6654e-22  4.1616e-22  3.9023e-22  4.2020e-22  6.1543e-22  4.2707e-22  1.0326e-21  4.3909e-22  1.8272e-21  4.6032e-22  3.4105e-21  4.9783e-22
      2.60  1.0476e-22  4.6128e-22  1.0483e-22  4.6128e-22  1.0494e-22  4.6128e-22  1.0515e-22  4.6129e-22  1.0552e-22  4.6130e-22  1.0617e-22  4.6133e-22  1.0733e-22  4.6137e-22  1.0938e-22  4.6145e-22  1.1302e-22  4.6158e-22  1.1948e-22  4.6182e-22  1.3093e-22  4.6225e-22  1.5121e-22  4.6301e-22  1.8723e-22  4.6435e-22  2.5201e-22  4.6692e-22  3.6901e-22  4.7146e-22  5.8214e-22  4.7919e-22  9.7722e-22  4.9272e-22  1.7311e-21  5.1660e-22  3.2370e-21  5.5880e-22
      2.65  9.9114e-23  5.1747e-22  9.9175e-23  5.1747e-22  9.9285e-23  5.1747e-22  9.9480e-23  5.1748e-22  9.9826e-23  5.1750e-22  1.0044e-22  5.1753e-22  1.0153e-22  5.1757e-22  1.0347e-22  5.1766e-22  1.0691e-22  5.1781e-22  1.1301e-22  5.1808e-22  1.2383e-22  5.1856e-22  1.4301e-22  5.1941e-22  1.7708e-22  5.2093e-22  2.3831e-22  5.2386e-22  3.4895e-22  5.2898e-22  5.5058e-22  5.3768e-22  9.2469e-22  5.5291e-22  1.6398e-21  5.7977e-22  3.0729e-21  6.2724e-22
      2.70  9.3843e-23  5.8050e-22  9.3901e-23  5.8050e-22  9.4005e-23  5.8051e-22  9.4188e-23  5.8052e-22  9.4514e-23  5.8054e-22  9.5094e-23  5.8057e-22  9.6125e-23  5.8062e-22  9.7954e-23  5.8072e-22  1.0120e-22  5.8089e-22  1.0695e-22  5.8119e-22  1.1718e-22  5.8173e-22  1.3530e-22  5.8269e-22  1.6751e-22  5.8440e-22  2.2534e-22  5.8776e-22  3.2989e-22  5.9352e-22  5.2051e-22  6.0331e-22  8.7445e-22  6.2044e-22  1.5520e-21  6.5066e-22  2.9142e-21  7.0406e-22
      2.75  8.8925e-23  6.5121e-22  8.8979e-23  6.5121e-22  8.9077e-23  6.5122e-22  8.9249e-23  6.5123e-22  8.9557e-23  6.5125e-22  9.0103e-23  6.5128e-22  9.1074e-23  6.5134e-22  9.2797e-23  6.5145e-22  9.5855e-23  6.5164e-22  1.0128e-22  6.5198e-22  1.1093e-22  6.5259e-22  1.2804e-22  6.5367e-22  1.5846e-22  6.5559e-22  2.1309e-22  6.5944e-22  3.1181e-22  6.6594e-22  4.9184e-22  6.7696e-22  8.2623e-22  6.9623e-22  1.4672e-21  7.3022e-22  2.7592e-21  7.9029e-22
      2.80  8.4335e-23  7.3052e-22  8.4387e-23  7.3052e-22  8.4478e-23  7.3053e-22  8.4641e-23  7.3054e-22  8.4930e-23  7.3056e-22  8.5445e-23  7.3060e-22  8.6359e-23  7.3067e-22  8.7982e-23  7.3079e-22  9.0862e-23  7.3101e-22  9.5976e-23  7.3139e-22  1.0507e-22  7.3207e-22  1.2120e-22  7.3329e-22  1.4990e-22  7.3545e-22  2.0147e-22  7.3987e-22  2.9463e-22  7.4719e-22  4.6456e-22  7.5959e-22  7.8034e-22  7.8127e-22  1.3858e-21  8.1951e-22  2.6076e-21  8.8709e-22
      2.85  8.0054e-23  8.1948e-22  8.0102e-23  8.1949e-22  8.0188e-23  8.1949e-22  8.0341e-23  8.1951e-22  8.0614e-23  8.1953e-22  8.1098e-23  8.1958e-22  8.1957e-23  8.1965e-22  8.3485e-23  8.1979e-22  8.6195e-23  8.2003e-22  9.1009e-23  8.2046e-22  9.9569e-23  8.2123e-22  1.1477e-22  8.2260e-22  1.4181e-22  8.2503e-22  1.9044e-22  8.3011e-22  2.7825e-22  8.3836e-22  4.3843e-22  8.5232e-22  7.3621e-22  8.7670e-22  1.3075e-21  9.1973e-22  2.4614e-21  9.9574e-22
      2.90  7.6060e-23  9.1927e-22  7.6105e-23  9.1928e-22  7.6186e-23  9.1928e-22  7.6330e-23  9.1930e-22  7.6586e-23  9.1933e-22  7.7041e-23  9.1938e-22  7.7850e-23  9.1946e-22  7.9287e-23  9.1962e-22  8.1837e-23  9.1989e-22  8.6366e-23  9.2037e-22  9.4421e-23  9.2124e-22  1.0873e-22  9.2278e-22  1.3420e-22  9.2551e-22  1.8002e-22  9.3136e-22  2.6271e-22  9.4065e-22  4.1357e-22  9.5636e-22  6.9406e-22  9.8380e-22  1.2323e-21  1.0322e-21  2.3201e-21  1.1177e-21
      2.95  7.2334e-23  1.0312e-21  7.2377e-23  1.0312e-21  7.2453e-23  1.0312e-21  7.2589e-23  1.0312e-21  7.2830e-23  1.0313e-21  7.3258e-23  1.0313e-21  7.4018e-23  1.0314e-21  7.5370e-23  1.0316e-21  7.7768e-23  1.0319e-21  8.2028e-23  1.0324e-21  8.9605e-23  1.0334e-21  1.0307e-22  1.0351e-21  1.2705e-22  1.0382e-21  1.7019e-22  1.0450e-21  2.4803e-22  1.0554e-21  3.9004e-22  1.0731e-21  6.5406e-22  1.1040e-21  1.1607e-21  1.1584e-21  2.1846e-21  1.2546e-21
      3.00  6.8861e-23  1.1567e-21  6.8901e-23  1.1567e-21  6.8973e-23  1.1568e-21  6.9100e-23  1.1568e-21  6.9326e-23  1.1568e-21  6.9729e-23  1.1569e-21  7.0444e-23  1.1570e-21  7.1715e-23  1.1572e-21  7.3971e-23  1.1575e-21  7.7977e-23  1.1581e-21  8.5104e-23  1.1592e-21  9.7780e-23  1.1612e-21  1.2035e-22  1.1647e-21  1.6096e-22  1.1724e-21  2.3422e-22  1.1842e-21  3.6785e-22  1.2041e-21  6.1629e-22  1.2388e-21  1.0930e-21  1.3001e-21  2.0558e-21  1.4083e-21
      3.05  6.5622e-23  1.2975e-21  6.5660e-23  1.2975e-21  6.5727e-23  1.2976e-21  6.5847e-23  1.2976e-21  6.6060e-23  1.2976e-21  6.6438e-23  1.2977e-21  6.7111e-23  1.2978e-21  6.8307e-23  1.2980e-21  7.0428e-23  1.2984e-21  7.4196e-23  1.2991e-21  8.0900e-23  1.3003e-21  9.2828e-23  1.3025e-21  1.1408e-22  1.3067e-21  1.5230e-22  1.3154e-21  2.2123e-22  1.3287e-21  3.4697e-22  1.3511e-21  5.8067e-22  1.3902e-21  1.0289e-21  1.4590e-21  1.9337e-21  1.5808e-21
      3.10  6.2602e-23  1.4555e-21  6.2638e-23  1.4555e-21  6.2701e-23  1.4555e-21  6.2814e-23  1.4555e-21  6.3014e-23  1.4555e-21  6.3370e-23  1.4556e-21  6.4003e-23  1.4558e-21  6.5128e-23  1.4560e-21  6.7123e-23  1.4564e-21  7.0667e-23  1.4572e-21  7.6973e-23  1.4586e-21  8.8195e-23  1.4611e-21  1.0820e-22  1.4660e-21  1.4417e-22  1.4758e-21  2.0903e-22  1.4908e-21  3.2733e-22  1.5160e-21  5.4715e-22  1.5600e-21  9.6854e-22  1.6375e-21  1.8181e-21  1.7744e-21
      3.15  5.9787e-23  1.6326e-21  5.9821e-23  1.6326e-21  5.9880e-23  1.6326e-21  5.9986e-23  1.6326e-21  6.0175e-23  1.6327e-21  6.0510e-23  1.6327e-21  6.1105e-23  1.6329e-21  6.2163e-23  1.6332e-21  6.4040e-23  1.6337e-21  6.7373e-23  1.6345e-21  7.3303e-23  1.6361e-21  8.3860e-23  1.6389e-21  1.0269e-22  1.6447e-21  1.3654e-22  1.6558e-21  1.9756e-22  1.6727e-21  3.0882e-22  1.7011e-21  5.1552e-22  1.7505e-21  9.1151e-22  1.8377e-21  1.7088e-21  1.9917e-21
      3.20  5.7164e-23  1.8312e-21  5.7195e-23  1.8312e-21  5.7251e-23  1.8312e-21  5.7351e-23  1.8312e-21  5.7528e-23  1.8313e-21  5.7843e-23  1.8314e-21  5.8403e-23  1.8316e-21  5.9398e-23  1.8319e-21  6.1163e-23  1.8324e-21  6.4297e-23  1.8334e-21  6.9873e-23  1.8352e-21  7.9801e-23  1.8383e-21  9.7528e-23  1.8451e-21  1.2936e-22  1.8578e-21  1.8676e-22  1.8768e-21  2.9139e-22  1.9087e-21  4.8570e-22  1.9644e-21  8.5770e-22  2.0624e-21  1.6055e-21  2.2356e-21
      3.25  5.4719e-23  2.0539e-21  5.4749e-23  2.0539e-21  5.4801e-23  2.0539e-21  5.4895e-23  2.0540e-21  5.5062e-23  2.0540e-21  5.5358e-23  2.0542e-21  5.5884e-23  2.0543e-21  5.6820e-23  2.0547e-21  5.8480e-23  2.0553e-21  6.1427e-23  2.0564e-21  6.6669e-23  2.0584e-21  7.6005e-23  2.0619e-21  9.2687e-23  2.0700e-21  1.2263e-22  2.0843e-21  1.7660e-22  2.1058e-21  2.7498e-22  2.1417e-21  4.5761e-22  2.2043e-21  8.0701e-22  2.3146e-21  1.5083e-21  2.5094e-21
      3.30  5.2441e-23  2.3037e-21  5.2469e-23  2.3037e-21  5.2518e-23  2.3037e-21  5.2607e-23  2.3038e-21  5.2763e-23  2.3038e-21  5.3042e-23  2.3040e-21  5.3537e-23  2.3042e-21  5.4417e-23  2.3046e-21  5.5978e-23  2.3053e-21  5.8748e-23  2.3065e-21  6.3677e-23  2.3087e-21  7.2455e-23  2.3127e-21  8.8152e-23  2.3223e-21  1.1631e-22  2.3385e-21  1.6707e-22  2.3627e-21  2.5955e-22  2.4032e-21  4.3120e-22  2.4736e-21  7.5934e-22  2.5976e-21  1.4169e-21  2.8168e-21
      3.35  5.0319e-23  2.5838e-21  5.0345e-23  2.5838e-21  5.0391e-23  2.5838e-21  5.0474e-23  2.5839e-21  5.0622e-23  2.5839e-21  5.0884e-23  2.5841e-21  5.1349e-23  2.5843e-21  5.2176e-23  2.5848e-21  5.3645e-23  2.5856e-21  5.6250e-23  2.5869e-21  6.0884e-23  2.5894e-21  6.9137e-23  2.5939e-21  8.3908e-23  2.6054e-21  1.1039e-22  2.6237e-21  1.5812e-22  2.6510e-21  2.4507e-22  2.6965e-21  4.0638e-22  2.7757e-21  7.1461e-22  2.9153e-21  1.3314e-21  3.1617e-21
      3.40  4.8341e-23  2.8978e-21  4.8366e-23  2.8978e-21  4.8410e-23  2.8979e-21  4.8488e-23  2.8979e-21  4.8626e-23  2.8980e-21  4.8873e-23  2.8982e-21  4.9311e-23  2.8984e-21  5.0089e-23  2.8989e-21  5.1470e-23  2.8998e-21  5.3920e-23  2.9014e-21  5.8278e-23  2.9042e-21  6.6039e-23  2.9092e-21  7.9943e-23  2.9229e-21  1.0486e-22  2.9437e-21  1.4974e-22  2.9744e-21  2.3151e-22  3.0257e-21  3.8315e-22  3.1148e-21  6.7273e-22  3.2717e-21  1.2515e-21  3.5489e-21
      3.45  4.6499e-23  3.2499e-21  4.6522e-23  3.2500e-21  4.6564e-23  3.2500e-21  4.6637e-23  3.2500e-21  4.6767e-23  3.2501e-21  4.6999e-23  3.2503e-21  4.7411e-23  3.2506e-21  4.8143e-23  3.2512e-21  4.9443e-23  3.2522e-21  5.1748e-23  3.2540e-21  5.5847e-23  3.2571e-21  6.3149e-23  3.2627e-21  7.6241e-23  3.2790e-21  9.9686e-23  3.3026e-21  1.4191e-22  3.3373e-21  2.1883e-22  3.3951e-21  3.6144e-22  3.4953e-21  6.3363e-22  3.6717e-21  1.1770e-21  3.9835e-21
      3.50  4.4784e-23  3.6447e-21  4.4805e-23  3.6447e-21  4.4844e-23  3.6448e-21  4.4913e-23  3.6448e-21  4.5036e-23  3.6450e-21  4.5254e-23  3.6452e-21  4.5642e-23  3.6455e-21  4.6331e-23  3.6461e-21  4.7554e-23  3.6473e-21  4.9724e-23  3.6492e-21  5.3581e-23  3.6528e-21  6.0452e-23  3.6591e-21  7.2787e-23  3.6786e-21  9.4857e-23  3.7053e-21  1.3460e-22  3.7445e-21  2.0698e-22  3.8095e-21  3.4116e-22  3.9222e-21  5.9714e-22  4.1207e-21  1.1077e-21  4.4713e-21
      3.55  4.3186e-23  4.0873e-21  4.3206e-23  4.0873e-21  4.3243e-23  4.0874e-21  4.3308e-23  4.0875e-21  4.3423e-23  4.0876e-21  4.3629e-23  4.0878e-21  4.3994e-23  4.0882e-21  4.4642e-23  4.0889e-21  4.5794e-23  4.0902e-21  4.7837e-23  4.0924e-21  5.1469e-23  4.0964e-21  5.7937e-23  4.1034e-21  6.9563e-23  4.1268e-21  9.0348e-23  4.1571e-21  1.2777e-22  4.2013e-21  1.9591e-22  4.2745e-21  3.2222e-22  4.4013e-21  5.6309e-22  4.6245e-21  1.0431e-21  5.0188e-21
      3.60  4.1697e-23  4.5835e-21  4.1717e-23  4.5835e-21  4.1751e-23  4.5835e-21  4.1812e-23  4.5836e-21  4.1921e-23  4.5838e-21  4.2115e-23  4.5840e-21  4.2458e-23  4.5845e-21  4.3069e-23  4.5853e-21  4.4154e-23  4.5867e-21  4.6079e-23  4.5892e-21  4.9499e-23  4.5937e-21  5.5590e-23  4.6016e-21  6.6555e-23  4.6295e-21  8.6136e-23  4.6639e-21  1.2139e-22  4.7139e-21  1.8556e-22  4.7962e-21  3.0450e-22  4.9389e-21  5.3126e-22  5.1899e-21  9.8287e-22  5.6334e-21
      3.65  4.0311e-23  5.1396e-21  4.0330e-23  5.1396e-21  4.0362e-23  5.1397e-21  4.0420e-23  5.1398e-21  4.0522e-23  5.1399e-21  4.0704e-23  5.1402e-21  4.1028e-23  5.1407e-21  4.1604e-23  5.1416e-21  4.2626e-23  5.1432e-21  4.4439e-23  5.1460e-21  4.7661e-23  5.1511e-21  5.3399e-23  5.1600e-21  6.3747e-23  5.1939e-21  8.2200e-23  5.2328e-21  1.1541e-22  5.2890e-21  1.7588e-22  5.3817e-21  2.8791e-22  5.5421e-21  5.0147e-22  5.8244e-21  9.2657e-22  6.3231e-21
      3.70  3.9020e-23  5.7630e-21  3.9037e-23  5.7630e-21  3.9068e-23  5.7631e-21  3.9122e-23  5.7632e-21  3.9219e-23  5.7633e-21  3.9391e-23  5.7637e-21  3.9696e-23  5.7642e-21  4.0238e-23  5.7652e-21  4.1201e-23  5.7670e-21  4.2910e-23  5.7702e-21  4.5945e-23  5.7758e-21  5.1359e-23  5.7875e-21  6.1121e-23  5.8270e-21  7.8515e-23  5.8710e-21  1.0981e-22  5.9344e-21  1.6679e-22  6.0386e-21  2.7236e-22  6.2190e-21  4.7354e-22  6.5365e-21  8.7383e-22  7.0973e-21
      3.75  3.7818e-23  6.4616e-21  3.7834e-23  6.4616e-21  3.7863e-23  6.4617e-21  3.7914e-23  6.4618e-21  3.8005e-23  6.4620e-21  3.8167e-23  6.4624e-21  3.8454e-23  6.4630e-21  3.8965e-23  6.4641e-21  3.9872e-23  6.4661e-21  4.1483e-23  6.4697e-21  4.4343e-23  6.4761e-21  4.9456e-23  6.4923e-21  5.8663e-23  6.5373e-21  7.5058e-23  6.5870e-21  1.0455e-22  6.6585e-21  1.5825e-22  6.7758e-21  2.5772e-22  6.9787e-21  4.4728e-22  7.3356e-21  8.2431e-22  7.9662e-21
      3.80  3.6698e-23  7.2445e-21  3.6713e-23  7.2445e-21  3.6740e-23  7.2446e-21  3.6788e-23  7.2447e-21  3.6874e-23  7.2449e-21  3.7026e-23  7.2453e-21  3.7297e-23  7.2461e-21  3.7778e-23  7.2473e-21  3.8633e-23  7.2496e-21  4.0151e-23  7.2536e-21  4.2845e-23  7.2608e-21  4.7677e-23  7.2829e-21  5.6360e-23  7.3341e-21  7.1811e-23  7.3904e-21  9.9607e-23  7.4709e-21  1.5020e-22  7.6029e-21  2.4393e-22  7.8311e-21  4.2253e-22  8.2324e-21  7.7771e-22  8.9414e-21
      3.85  3.5654e-23  8.1217e-21  3.5668e-23  8.1218e-21  3.5694e-23  8.1219e-21  3.5739e-23  8.1220e-21  3.5820e-23  8.1222e-21  3.5964e-23  8.1227e-21  3.6219e-23  8.1235e-21  3.6672e-23  8.1249e-21  3.7477e-23  8.1275e-21  3.8907e-23  8.1320e-21  4.1444e-23  8.1400e-21  4.6012e-23  8.1696e-21  5.4200e-23  8.2279e-21  6.8762e-23  8.2917e-21  9.4950e-23  8.3824e-21  1.4261e-22  8.5309e-21  2.3092e-22  8.7876e-21  3.9916e-22  9.2388e-21  7.3372e-22  1.0036e-20
      3.90  3.4682e-23  9.1046e-21  3.4695e-23  9.1046e-21  3.4719e-23  9.1047e-21  3.4762e-23  9.1049e-21  3.4838e-23  9.1052e-21  3.4973e-23  9.1057e-21  3.5213e-23  9.1066e-21  3.5640e-23  9.1082e-21  3.6398e-23  9.1110e-21  3.7744e-23  9.1161e-21  4.0133e-23  9.1251e-21  4.4453e-23  9.1642e-21  5.2172e-23  9.2306e-21  6.5889e-23  9.3028e-21  9.0556e-23  9.4051e-21  1.3545e-22  9.5723e-21  2.1861e-22  9.8609e-21  3.7708e-22  1.0368e-20  6.9215e-22  1.1265e-20
      3.95  3.3775e-23  1.0206e-20  3.3788e-23  1.0206e-20  3.3810e-23  1.0206e-20  3.3851e-23  1.0206e-20  3.3922e-23  1.0206e-20  3.4049e-23  1.0207e-20  3.4275e-23  1.0208e-20  3.4676e-23  1.0210e-20  3.5390e-23  1.0213e-20  3.6657e-23  1.0219e-20  3.8905e-23  1.0229e-20  4.2991e-23  1.0280e-20  5.0264e-23  1.0355e-20  6.3181e-23  1.0437e-20  8.6400e-23  1.0553e-20  1.2866e-22  1.0741e-20  2.0695e-22  1.1065e-20  3.5613e-22  1.1636e-20  6.5277e-22  1.2644e-20
