# This was generated using Cloudy10 and the columns are ordered 
# as log10 of the fraction of the metallicity to the solar metallicity
# 'h_*_Z' and 'c_*_Z' stands for cooling and heating respectively 
# at * metalicity
#
# NOTE: This was generated separately from loop_coolingcurve_w_UV.py
#       using Output_metals_w_redshift.py.
#
# Redshift = 7.0
# hden = -2.5
#
#     temp   h_-3.00_Z   c_-3.00_Z   h_-2.75_Z   c_-2.75_Z   h_-2.50_Z   c_-2.50_Z   h_-2.25_Z   c_-2.25_Z   h_-2.00_Z   c_-2.00_Z   h_-1.75_Z   c_-1.75_Z   h_-1.50_Z   c_-1.50_Z   h_-1.25_Z   c_-1.25_Z   h_-1.00_Z   c_-1.00_Z   h_-0.75_Z   c_-0.75_Z   h_-0.50_Z   c_-0.50_Z   h_-0.25_Z   c_-0.25_Z    h_0.00_Z    c_0.00_Z    h_0.25_Z    c_0.25_Z    h_0.50_Z    c_0.50_Z    h_0.75_Z    c_0.75_Z    h_1.00_Z    c_1.00_Z    h_1.25_Z    c_1.25_Z    h_1.50_Z    c_1.50_Z 
      4.00  3.4238e-24  8.2994e-25  3.4239e-24  8.3479e-25  3.4241e-24  8.4342e-25  3.4243e-24  8.5877e-25  3.4248e-24  8.8605e-25  3.4257e-24  9.3457e-25  3.4272e-24  1.0209e-24  3.4300e-24  1.1743e-24  3.4348e-24  1.4473e-24  3.4435e-24  1.9327e-24  3.4588e-24  2.7963e-24  3.4862e-24  4.3332e-24  3.5348e-24  7.0697e-24  3.6211e-24  1.1947e-23  3.7745e-24  2.0656e-23  4.0469e-24  3.6254e-23  4.5307e-24  6.4345e-23  5.3894e-24  1.1542e-22  6.9161e-24  2.0977e-22
      4.05  3.1624e-24  9.1436e-25  3.1624e-24  9.2017e-25  3.1626e-24  9.3051e-25  3.1629e-24  9.4890e-25  3.1633e-24  9.8160e-25  3.1642e-24  1.0397e-24  3.1656e-24  1.1432e-24  3.1683e-24  1.3271e-24  3.1730e-24  1.6541e-24  3.1813e-24  2.2359e-24  3.1961e-24  3.2709e-24  3.2225e-24  5.1127e-24  3.2694e-24  8.3922e-24  3.3527e-24  1.4238e-23  3.5007e-24  2.4675e-23  3.7634e-24  4.3372e-23  4.2298e-24  7.7048e-23  5.0572e-24  1.3829e-22  6.5270e-24  2.5148e-22
      4.10  2.9195e-24  1.0776e-24  2.9195e-24  1.0846e-24  2.9198e-24  1.0973e-24  2.9199e-24  1.1196e-24  2.9205e-24  1.1596e-24  2.9213e-24  1.2306e-24  2.9227e-24  1.3567e-24  2.9253e-24  1.5811e-24  2.9298e-24  1.9802e-24  2.9379e-24  2.6901e-24  2.9522e-24  3.9530e-24  2.9777e-24  6.2003e-24  3.0230e-24  1.0202e-23  3.1035e-24  1.7335e-23  3.2466e-24  3.0072e-23  3.5004e-24  5.2888e-23  3.9509e-24  9.3990e-23  4.7496e-24  1.6875e-22  6.1672e-24  3.0698e-22
      4.15  2.6933e-24  1.4113e-24  2.6932e-24  1.4199e-24  2.6935e-24  1.4356e-24  2.6938e-24  1.4634e-24  2.6942e-24  1.5128e-24  2.6950e-24  1.6006e-24  2.6964e-24  1.7568e-24  2.6988e-24  2.0345e-24  2.7032e-24  2.5284e-24  2.7110e-24  3.4069e-24  2.7249e-24  4.9698e-24  2.7497e-24  7.7511e-24  2.7936e-24  1.2704e-23  2.8716e-24  2.1531e-23  3.0103e-24  3.7295e-23  3.2563e-24  6.5535e-23  3.6926e-24  1.1641e-22  4.4659e-24  2.0896e-22  5.8374e-24  3.8013e-22
      4.20  2.4803e-24  2.0755e-24  2.4802e-24  2.0863e-24  2.4805e-24  2.1060e-24  2.4807e-24  2.1407e-24  2.4811e-24  2.2025e-24  2.4818e-24  2.3122e-24  2.4832e-24  2.5078e-24  2.4857e-24  2.8552e-24  2.4899e-24  3.4732e-24  2.4975e-24  4.5723e-24  2.5111e-24  6.5277e-24  2.5352e-24  1.0008e-23  2.5779e-24  1.6204e-23  2.6539e-24  2.7249e-23  2.7889e-24  4.6972e-23  3.0284e-24  8.2305e-23  3.4530e-24  1.4596e-22  4.2054e-24  2.6177e-22  5.5395e-24  4.7597e-22
      4.25  2.2744e-24  3.3088e-24  2.2745e-24  3.3226e-24  2.2746e-24  3.3473e-24  2.2749e-24  3.3911e-24  2.2753e-24  3.4691e-24  2.2760e-24  3.6077e-24  2.2774e-24  3.8542e-24  2.2797e-24  4.2926e-24  2.2839e-24  5.0723e-24  2.2914e-24  6.4591e-24  2.3046e-24  8.9263e-24  2.3282e-24  1.3317e-23  2.3702e-24  2.1135e-23  2.4447e-24  3.5071e-23  2.5770e-24  5.9956e-23  2.8118e-24  1.0454e-22  3.2283e-24  1.8485e-22  3.9662e-24  3.3096e-22  5.2754e-24  6.0120e-22
      4.30  2.0655e-24  5.3987e-24  2.0655e-24  5.4163e-24  2.0657e-24  5.4476e-24  2.0659e-24  5.5032e-24  2.0663e-24  5.6021e-24  2.0671e-24  5.7779e-24  2.0684e-24  6.0905e-24  2.0707e-24  6.6466e-24  2.0749e-24  7.6356e-24  2.0823e-24  9.3946e-24  2.0954e-24  1.2524e-23  2.1187e-24  1.8093e-23  2.1602e-24  2.8009e-23  2.2340e-24  4.5685e-23  2.3650e-24  7.7247e-23  2.5976e-24  1.3379e-22  3.0103e-24  2.3564e-22  3.7422e-24  4.2091e-22  5.0430e-24  7.6348e-22
      4.35  1.8387e-24  8.5447e-24  1.8388e-24  8.5671e-24  1.8389e-24  8.6069e-24  1.8391e-24  8.6777e-24  1.8396e-24  8.8036e-24  1.8403e-24  9.0275e-24  1.8416e-24  9.4257e-24  1.8440e-24  1.0134e-23  1.8481e-24  1.1393e-23  1.8555e-24  1.3634e-23  1.8686e-24  1.7619e-23  1.8920e-24  2.4712e-23  1.9336e-24  3.7340e-23  2.0074e-24  5.9850e-23  2.1386e-24  1.0004e-22  2.3717e-24  1.7204e-22  2.7858e-24  3.0172e-22  3.5218e-24  5.3756e-22  4.8340e-24  9.7346e-22
      4.40  1.5810e-24  1.2585e-23  1.5810e-24  1.2614e-23  1.5812e-24  1.2665e-23  1.5814e-24  1.2756e-23  1.5818e-24  1.2917e-23  1.5826e-24  1.3203e-23  1.5839e-24  1.3713e-23  1.5863e-24  1.4620e-23  1.5905e-24  1.6232e-23  1.5979e-24  1.9101e-23  1.6112e-24  2.4203e-23  1.6349e-24  3.3283e-23  1.6770e-24  4.9451e-23  1.7517e-24  7.8269e-23  1.8847e-24  1.2972e-22  2.1212e-24  2.2189e-22  2.5421e-24  3.8788e-22  3.2926e-24  6.8968e-22  4.6371e-24  1.2473e-21
      4.45  1.2943e-24  1.6733e-23  1.2944e-24  1.6770e-23  1.2945e-24  1.6835e-23  1.2947e-24  1.6952e-23  1.2952e-24  1.7159e-23  1.2959e-24  1.7528e-23  1.2973e-24  1.8185e-23  1.2997e-24  1.9351e-23  1.3040e-24  2.1427e-23  1.3116e-24  2.5118e-23  1.3252e-24  3.1685e-23  1.3493e-24  4.3371e-23  1.3923e-24  6.4179e-23  1.4686e-24  1.0127e-22  1.6045e-24  1.6748e-22  1.8466e-24  2.8608e-22  2.2784e-24  4.9967e-22  3.0513e-24  8.8794e-22  4.4439e-24  1.6051e-21
      4.50  1.0060e-24  1.9811e-23  1.0061e-24  1.9859e-23  1.0062e-24  1.9943e-23  1.0065e-24  2.0094e-23  1.0069e-24  2.0361e-23  1.0077e-24  2.0836e-23  1.0091e-24  2.1681e-23  1.0115e-24  2.3185e-23  1.0159e-24  2.5858e-23  1.0237e-24  3.0613e-23  1.0377e-24  3.9072e-23  1.0624e-24  5.4125e-23  1.1064e-24  8.0927e-23  1.1847e-24  1.2870e-22  1.3241e-24  2.1399e-22  1.5728e-24  3.6674e-22  2.0175e-24  6.4180e-22  2.8162e-24  1.1418e-21  4.2624e-24  2.0649e-21
      4.55  7.5413e-25  2.1105e-23  7.5421e-25  2.1166e-23  7.5436e-25  2.1274e-23  7.5461e-25  2.1468e-23  7.5506e-25  2.1811e-23  7.5586e-25  2.2422e-23  7.5729e-25  2.3509e-23  7.5982e-25  2.5441e-23  7.6433e-25  2.8877e-23  7.7235e-25  3.4990e-23  7.8662e-25  4.5864e-23  8.1200e-25  6.5214e-23  8.5717e-25  9.9668e-23  9.3756e-25  1.6107e-22  1.0808e-24  2.7071e-22  1.3365e-24  4.6706e-22  1.7942e-24  8.2060e-22  2.6178e-24  1.4631e-21  4.1133e-24  2.6491e-21
      4.60  5.6012e-25  2.0898e-23  5.6020e-25  2.0977e-23  5.6034e-25  2.1116e-23  5.6060e-25  2.1363e-23  5.6106e-25  2.1803e-23  5.6188e-25  2.2585e-23  5.6334e-25  2.3977e-23  5.6593e-25  2.6451e-23  5.7054e-25  3.0851e-23  5.7873e-25  3.8679e-23  5.9331e-25  5.2603e-23  6.1925e-25  7.7381e-23  6.6542e-25  1.2150e-22  7.4760e-25  2.0013e-22  8.9404e-25  3.4052e-22  1.1554e-24  5.9195e-22  1.6234e-24  1.0446e-21  2.4655e-24  1.8673e-21  3.9948e-24  3.3857e-21
      4.65  4.2099e-25  2.0513e-23  4.2108e-25  2.0613e-23  4.2122e-25  2.0790e-23  4.2148e-25  2.1105e-23  4.2195e-25  2.1665e-23  4.2277e-25  2.2661e-23  4.2424e-25  2.4432e-23  4.2684e-25  2.7582e-23  4.3148e-25  3.3184e-23  4.3973e-25  4.3148e-23  4.5442e-25  6.0873e-23  4.8060e-25  9.2417e-23  5.2719e-25  1.4858e-22  6.1010e-25  2.4869e-22  7.5781e-25  4.2742e-22  1.0213e-24  7.4753e-22  1.4924e-24  1.3239e-21  2.3387e-24  2.3714e-21  3.8707e-24  4.3051e-21
      4.70  3.2226e-25  2.1867e-23  3.2234e-25  2.1993e-23  3.2248e-25  2.2217e-23  3.2274e-25  2.2615e-23  3.2319e-25  2.3322e-23  3.2400e-25  2.4580e-23  3.2543e-25  2.6818e-23  3.2798e-25  3.0797e-23  3.3256e-25  3.7873e-23  3.4071e-25  5.0460e-23  3.5522e-25  7.2852e-23  3.8102e-25  1.1270e-22  4.2691e-25  1.8365e-22  5.0861e-25  3.1012e-22  6.5411e-25  5.3594e-22  9.1355e-25  9.4041e-22  1.3772e-24  1.6688e-21  2.2092e-24  2.9930e-21  3.7125e-24  5.4381e-21
      4.75  2.4971e-25  2.7840e-23  2.4979e-25  2.7997e-23  2.4992e-25  2.8277e-23  2.5016e-25  2.8774e-23  2.5059e-25  2.9658e-23  2.5135e-25  3.1230e-23  2.5271e-25  3.4027e-23  2.5513e-25  3.9000e-23  2.5946e-25  4.7845e-23  2.6717e-25  6.3577e-23  2.8089e-25  9.1566e-23  3.0529e-25  1.4137e-22  3.4870e-25  2.3007e-22  4.2595e-25  3.8816e-22  5.6352e-25  6.7046e-22  8.0872e-25  1.1762e-21  1.2467e-24  2.0872e-21  2.0317e-24  3.7440e-21  3.4477e-24  6.8051e-21
      4.80  1.9162e-25  4.1825e-23  1.9169e-25  4.2019e-23  1.9181e-25  4.2364e-23  1.9203e-25  4.2978e-23  1.9242e-25  4.4069e-23  1.9310e-25  4.6009e-23  1.9433e-25  4.9459e-23  1.9651e-25  5.5595e-23  2.0041e-25  6.6509e-23  2.0736e-25  8.5920e-23  2.1972e-25  1.2045e-22  2.4170e-25  1.8191e-22  2.8080e-25  2.9135e-22  3.5037e-25  4.8644e-22  4.7422e-25  8.3485e-22  6.9490e-25  1.4591e-21  1.0887e-24  2.5841e-21  1.7939e-24  4.6311e-21  3.0627e-24  8.4164e-21
      4.85  1.3772e-25  6.3058e-23  1.3777e-25  6.3294e-23  1.3788e-25  6.3713e-23  1.3806e-25  6.4459e-23  1.3840e-25  6.5784e-23  1.3898e-25  6.8142e-23  1.4003e-25  7.2335e-23  1.4189e-25  7.9792e-23  1.4521e-25  9.3053e-23  1.5113e-25  1.1664e-22  1.6166e-25  1.5861e-22  1.8039e-25  2.3330e-22  2.1370e-25  3.6630e-22  2.7295e-25  6.0339e-22  3.7839e-25  1.0269e-21  5.6614e-25  1.7858e-21  9.0084e-25  3.1538e-21  1.4990e-24  5.6445e-21  2.5722e-24  1.0255e-20
      4.90  8.6774e-26  7.9337e-23  8.6822e-26  7.9617e-23  8.6907e-26  8.0115e-23  8.7059e-26  8.1000e-23  8.7328e-26  8.2573e-23  8.7806e-26  8.5372e-23  8.8658e-26  9.0348e-23  9.0174e-26  9.9199e-23  9.2872e-26  1.1494e-22  9.7673e-26  1.4294e-22  1.0621e-25  1.9275e-22  1.2139e-25  2.8139e-22  1.4839e-25  4.3925e-22  1.9639e-25  7.2066e-22  2.8175e-25  1.2233e-21  4.3358e-25  2.1241e-21  7.0389e-25  3.7479e-21  1.1859e-24  6.7050e-21  2.0482e-24  1.2182e-20
      4.95  4.8803e-26  7.9175e-23  4.8841e-26  7.9497e-23  4.8908e-26  8.0069e-23  4.9027e-26  8.1085e-23  4.9239e-26  8.2893e-23  4.9616e-26  8.6108e-23  5.0288e-26  9.1825e-23  5.1487e-26  1.0199e-22  5.3621e-26  1.2008e-22  5.7418e-26  1.5224e-22  6.4170e-26  2.0947e-22  7.6172e-26  3.1131e-22  9.7497e-26  4.9267e-22  1.3537e-25  8.1600e-22  2.0265e-25  1.3935e-21  3.2219e-25  2.4286e-21  5.3463e-25  4.2951e-21  9.1288e-25  7.6952e-21  1.5878e-24  1.3998e-20
      5.00  2.7000e-26  6.7908e-23  2.7029e-26  6.8262e-23  2.7081e-26  6.8893e-23  2.7173e-26  7.0013e-23  2.7338e-26  7.2006e-23  2.7631e-26  7.5549e-23  2.8155e-26  8.1851e-23  2.9092e-26  9.3058e-23  3.0764e-26  1.1299e-22  3.3740e-26  1.4845e-22  3.9015e-26  2.1152e-22  4.8377e-26  3.2379e-22  6.4978e-26  5.2374e-22  9.4399e-26  8.8025e-22  1.4654e-25  1.5173e-21  2.3902e-25  2.6596e-21  4.0321e-25  4.7211e-21  6.9523e-25  8.4824e-21  1.2154e-24  1.5473e-20
      5.05  1.5804e-26  5.4772e-23  1.5826e-26  5.5136e-23  1.5866e-26  5.5784e-23  1.5938e-26  5.6936e-23  1.6066e-26  5.8985e-23  1.6295e-26  6.2629e-23  1.6707e-26  6.9108e-23  1.7450e-26  8.0630e-23  1.8783e-26  1.0112e-22  2.1128e-26  1.3758e-22  2.5272e-26  2.0244e-22  3.2591e-26  3.1789e-22  4.5507e-26  5.2353e-22  6.8285e-26  8.9029e-22  1.0852e-25  1.5459e-21  1.7975e-25  2.7225e-21  3.0613e-25  4.8487e-21  5.3074e-25  8.7371e-21  9.3034e-25  1.5991e-20
      5.10  9.9803e-27  4.3620e-23  9.9983e-27  4.3975e-23  1.0031e-26  4.4607e-23  1.0089e-26  4.5731e-23  1.0194e-26  4.7729e-23  1.0383e-26  5.1282e-23  1.0726e-26  5.7600e-23  1.1360e-26  6.8837e-23  1.2470e-26  8.8823e-23  1.4410e-26  1.2437e-22  1.7801e-26  1.8763e-22  2.3731e-26  3.0024e-22  3.4106e-26  5.0085e-22  5.2291e-26  8.5872e-22  8.4313e-26  1.4987e-21  1.4083e-25  2.6483e-21  2.4106e-25  4.7286e-21  4.1927e-25  8.5422e-21  7.3636e-25  1.5685e-20
      5.15  6.7482e-27  3.5063e-23  6.7638e-27  3.5416e-23  6.7921e-27  3.6045e-23  6.8444e-27  3.7163e-23  6.9386e-27  3.9151e-23  7.1108e-27  4.2686e-23  7.4325e-27  4.8972e-23  8.0117e-27  6.0152e-23  9.0123e-27  8.0037e-23  1.0735e-26  1.1541e-22  1.3692e-26  1.7835e-22  1.8798e-26  2.9041e-22  2.7659e-26  4.9006e-22  4.3110e-26  8.4630e-22  7.0045e-26  1.4837e-21  1.1782e-25  2.6292e-21  2.0270e-25  4.7049e-21  3.5366e-25  8.5176e-21  6.2231e-25  1.5682e-20
      5.20  4.8162e-27  2.8699e-23  4.8306e-27  2.9063e-23  4.8575e-27  2.9711e-23  4.9086e-27  3.0864e-23  4.9998e-27  3.2914e-23  5.1731e-27  3.6560e-23  5.5044e-27  4.3042e-23  6.0520e-27  5.4572e-23  6.9886e-27  7.5079e-23  8.5855e-27  1.1156e-22  1.1279e-26  1.7648e-22  1.5866e-26  2.9205e-22  2.3741e-26  4.9799e-22  3.7228e-26  8.6555e-22  6.1131e-26  1.5234e-21  1.0359e-25  2.7064e-21  1.7910e-25  4.8522e-21  3.1344e-25  8.8008e-21  5.5262e-25  1.6242e-20
      5.25  3.5825e-27  2.3978e-23  3.5964e-27  2.4354e-23  3.6234e-27  2.5022e-23  3.6762e-27  2.6211e-23  3.7749e-27  2.8324e-23  3.9508e-27  3.2083e-23  4.2744e-27  3.8768e-23  4.8006e-27  5.0656e-23  5.6749e-27  7.1803e-23  7.1474e-27  1.0942e-22  9.6086e-27  1.7636e-22  1.3754e-26  2.9555e-22  2.0604e-26  5.0797e-22  3.2720e-26  8.8716e-22  5.4221e-26  1.5660e-21  9.2423e-26  2.7877e-21  1.6033e-25  5.0060e-21  2.8119e-25  9.0953e-21  4.9654e-25  1.6825e-20
      5.30  2.7520e-27  2.0461e-23  2.7663e-27  2.0843e-23  2.7962e-27  2.1523e-23  2.8587e-27  2.2733e-23  2.9541e-27  2.4884e-23  3.1265e-27  2.8710e-23  3.4348e-27  3.5514e-23  3.9265e-27  4.7614e-23  4.7444e-27  6.9138e-23  6.0756e-27  1.0743e-22  8.3284e-27  1.7557e-22  1.1899e-26  2.9690e-22  1.8050e-26  5.1317e-22  2.8842e-26  8.9930e-22  4.7938e-26  1.5909e-21  8.1857e-26  2.8363e-21  1.4204e-25  5.1004e-21  2.4919e-25  9.2824e-21  4.4020e-25  1.7212e-20
      5.35  2.1701e-27  1.7842e-23  2.1865e-27  1.8232e-23  2.2237e-27  1.8924e-23  2.2846e-27  2.0156e-23  2.3789e-27  2.2347e-23  2.5421e-27  2.6243e-23  2.8340e-27  3.3171e-23  3.2929e-27  4.5493e-23  4.0433e-27  6.7411e-23  5.3116e-27  1.0640e-22  7.3240e-27  1.7580e-22  1.0439e-26  2.9938e-22  1.5906e-26  5.1966e-22  2.5540e-26  9.1308e-22  4.2594e-26  1.6180e-21  7.2775e-26  2.8883e-21  1.2648e-25  5.2004e-21  2.2209e-25  9.4797e-21  3.9262e-25  1.7620e-20
      5.40  1.7484e-27  1.5866e-23  1.7665e-27  1.6245e-23  1.8047e-27  1.6920e-23  1.8584e-27  1.8119e-23  1.9492e-27  2.0253e-23  2.0965e-27  2.4046e-23  2.3569e-27  3.0793e-23  2.8061e-27  4.2793e-23  3.5108e-27  6.4138e-23  4.7186e-27  1.0211e-22  6.3829e-27  1.6970e-22  9.1685e-27  2.9007e-22  1.4014e-26  5.0466e-22  2.2561e-26  8.8801e-22  3.7679e-26  1.5752e-21  6.4389e-26  2.8147e-21  1.1182e-25  5.0738e-21  1.9634e-25  9.2653e-21  3.4715e-25  1.7269e-20
      5.45  1.4319e-27  1.4332e-23  1.4461e-27  1.4649e-23  1.4796e-27  1.5215e-23  1.5247e-27  1.6220e-23  1.5988e-27  1.8008e-23  1.7308e-27  2.1187e-23  1.9560e-27  2.6841e-23  2.3416e-27  3.6896e-23  3.0226e-27  5.4783e-23  4.1295e-27  8.6606e-23  5.4973e-27  1.4325e-22  7.8632e-27  2.4414e-22  1.1976e-26  4.2404e-22  1.9079e-26  7.4553e-22  3.1592e-26  1.3222e-21  5.3715e-26  2.3636e-21  9.2987e-26  4.2653e-21  1.6294e-25  7.8050e-21  2.8793e-25  1.4599e-20
      5.50  1.1901e-27  1.3128e-23  1.1982e-27  1.3357e-23  1.2159e-27  1.3765e-23  1.2564e-27  1.4490e-23  1.3190e-27  1.5779e-23  1.4275e-27  1.8072e-23  1.6233e-27  2.2150e-23  1.9694e-27  2.9402e-23  2.5652e-27  4.2302e-23  3.5096e-27  6.5253e-23  4.7456e-27  1.0611e-22  6.7072e-27  1.7888e-22  9.9457e-27  3.0868e-22  1.5513e-26  5.4074e-22  2.5244e-26  9.5726e-22  4.2449e-26  1.7102e-21  7.3010e-26  3.0879e-21  1.2744e-25  5.6603e-21  2.2469e-25  1.0622e-20
      5.55  1.0048e-27  1.2288e-23  1.0103e-27  1.2461e-23  1.0218e-27  1.2767e-23  1.0465e-27  1.3313e-23  1.1004e-27  1.4283e-23  1.2037e-27  1.6008e-23  1.3903e-27  1.9076e-23  1.7225e-27  2.4532e-23  2.2884e-27  3.4237e-23  3.1020e-27  5.1505e-23  4.2165e-27  8.2245e-23  5.8229e-27  1.3701e-22  8.4566e-27  2.3470e-22  1.2887e-26  4.0939e-22  2.0710e-26  7.2308e-22  3.4503e-26  1.2905e-21  5.9012e-26  2.3301e-21  1.0268e-25  4.2751e-21  1.8065e-25  8.0384e-21
      5.60  8.6080e-28  1.1757e-23  8.6578e-28  1.1907e-23  8.7635e-28  1.2174e-23  9.0021e-28  1.2647e-23  9.4442e-28  1.3490e-23  1.0389e-27  1.4988e-23  1.2325e-27  1.7652e-23  1.5663e-27  2.2391e-23  2.1503e-27  3.0819e-23  2.8254e-27  4.5818e-23  3.7989e-27  7.2518e-23  5.1221e-27  1.2009e-22  7.3392e-27  2.0495e-22  1.1127e-26  3.5673e-22  1.7821e-26  6.2934e-22  2.9624e-26  1.1227e-21  5.0587e-26  2.0272e-21  8.7932e-26  3.7214e-21  1.5463e-25  7.0062e-21
      5.65  7.4719e-28  1.1467e-23  7.5225e-28  1.1610e-23  7.6353e-28  1.1865e-23  7.8941e-28  1.2317e-23  8.3827e-28  1.3122e-23  9.3266e-28  1.4552e-23  1.1177e-27  1.7096e-23  1.4594e-27  2.1621e-23  2.0418e-27  2.9669e-23  2.6370e-27  4.3991e-23  3.4774e-27  6.9488e-23  4.6093e-27  1.1491e-22  6.5635e-27  1.9596e-22  9.9459e-27  3.4092e-22  1.5922e-26  6.0133e-22  2.6459e-26  1.0728e-21  4.5181e-26  1.9375e-21  7.8533e-26  3.5587e-21  1.3810e-25  6.7053e-21
      5.70  6.5852e-28  1.1484e-23  6.6380e-28  1.1625e-23  6.7376e-28  1.1759e-23  7.0339e-28  1.2202e-23  7.5318e-28  1.2989e-23  8.5312e-28  1.4389e-23  1.0495e-27  1.6879e-23  1.4179e-27  2.1307e-23  1.8969e-27  2.9185e-23  2.4048e-27  4.3204e-23  3.1119e-27  6.8161e-23  4.1510e-27  1.1263e-22  5.9254e-27  1.9196e-22  8.9672e-27  3.3388e-22  1.4378e-26  5.8886e-22  2.3952e-26  1.0506e-21  4.0957e-26  1.8980e-21  7.1266e-26  3.4878e-21  1.2544e-25  6.5776e-21
      5.75  5.8277e-28  1.1378e-23  5.8800e-28  1.1512e-23  6.0015e-28  1.1749e-23  6.2856e-28  1.2170e-23  6.8322e-28  1.2920e-23  7.8955e-28  1.4253e-23  1.0035e-27  1.6623e-23  1.3490e-27  2.0839e-23  1.6841e-27  2.8340e-23  2.1096e-27  4.1689e-23  2.6873e-27  6.5453e-23  3.6298e-27  1.0779e-22  5.2107e-27  1.8334e-22  7.9755e-27  3.1849e-22  1.2849e-26  5.6138e-22  2.1477e-26  1.0014e-21  3.6830e-26  1.8093e-21  6.4220e-26  3.3265e-21  1.1325e-25  6.2794e-21
      5.80  5.2274e-28  1.1566e-23  5.2755e-28  1.1688e-23  5.3923e-28  1.1906e-23  5.6642e-28  1.2293e-23  6.2322e-28  1.2981e-23  7.4176e-28  1.4205e-23  9.4207e-28  1.6382e-23  1.2068e-27  2.0254e-23  1.4713e-27  2.7144e-23  1.8354e-27  3.9403e-23  2.3278e-27  6.1229e-23  3.1855e-27  1.0012e-22  4.6075e-27  1.6951e-22  7.0751e-27  2.9367e-22  1.1440e-26  5.1685e-22  1.9178e-26  9.2130e-22  3.2953e-26  1.6644e-21  5.7574e-26  3.0616e-21  1.0176e-25  5.7852e-21
      5.85  4.7371e-28  1.1917e-23  4.7872e-28  1.2032e-23  4.9035e-28  1.2237e-23  5.1770e-28  1.2602e-23  5.8033e-28  1.3251e-23  7.0672e-28  1.4405e-23  8.6064e-28  1.6458e-23  1.0757e-27  2.0110e-23  1.3040e-27  2.6607e-23  1.6411e-27  3.8167e-23  2.1046e-27  5.8749e-23  2.8520e-27  9.5422e-23  4.1371e-27  1.6087e-22  6.3697e-27  2.7798e-22  1.0324e-26  4.8853e-22  1.7339e-26  8.7024e-22  2.9852e-26  1.5720e-21  5.2264e-26  2.8928e-21  9.2643e-26  5.4717e-21
      5.90  4.3342e-28  1.2427e-23  4.3877e-28  1.2543e-23  4.5152e-28  1.2748e-23  4.8142e-28  1.3112e-23  5.4801e-28  1.3760e-23  6.6571e-28  1.4912e-23  8.1439e-28  1.6962e-23  9.7405e-28  2.0607e-23  1.2049e-27  2.7093e-23  1.5020e-27  3.8635e-23  1.9217e-27  5.9184e-23  2.5995e-27  9.5800e-23  3.7841e-27  1.6115e-22  5.8627e-27  2.7810e-22  9.5314e-27  4.8840e-22  1.6059e-26  8.6979e-22  2.7726e-26  1.5714e-21  4.8698e-26  2.8931e-21  8.6711e-26  5.4776e-21
      5.95  3.9967e-28  1.3089e-23  4.0526e-28  1.3206e-23  4.1868e-28  1.3415e-23  4.5055e-28  1.3787e-23  5.2143e-28  1.4449e-23  6.3641e-28  1.5625e-23  7.7954e-28  1.7716e-23  9.3604e-28  2.1438e-23  1.1258e-27  2.8058e-23  1.3870e-27  3.9838e-23  1.7932e-27  6.0813e-23  2.4220e-27  9.8188e-23  3.5154e-27  1.6490e-22  5.4514e-27  2.8429e-22  8.8832e-27  4.9905e-22  1.4994e-26  8.8864e-22  2.5946e-26  1.6058e-21  4.5709e-26  2.9581e-21  8.1772e-26  5.6063e-21
      6.00  3.7120e-28  1.3895e-23  3.7641e-28  1.4013e-23  3.8919e-28  1.4223e-23  4.2025e-28  1.4596e-23  4.9152e-28  1.5259e-23  6.1939e-28  1.6439e-23  7.5650e-28  1.8537e-23  9.0190e-28  2.2270e-23  1.0806e-27  2.8911e-23  1.3368e-27  4.0729e-23  1.7043e-27  6.1771e-23  2.3175e-27  9.9267e-23  3.3726e-27  1.6620e-22  5.2398e-27  2.8600e-22  8.5618e-27  5.0155e-22  1.4505e-26  8.9274e-22  2.5191e-26  1.6133e-21  4.4588e-26  2.9736e-21  8.0339e-26  5.6418e-21
      6.05  3.4705e-28  1.4865e-23  3.5137e-28  1.4980e-23  3.6231e-28  1.5183e-23  3.8970e-28  1.5546e-23  4.5441e-28  1.6190e-23  5.9209e-28  1.7336e-23  7.3333e-28  1.9375e-23  8.7635e-28  2.3001e-23  1.0470e-27  2.9453e-23  1.2773e-27  4.0934e-23  1.6200e-27  6.1376e-23  2.2047e-27  9.7806e-23  3.2233e-27  1.6284e-22  5.0283e-27  2.7927e-22  8.2476e-27  4.8879e-22  1.4018e-26  8.6922e-22  2.4434e-26  1.5705e-21  4.3457e-26  2.8960e-21  7.8883e-26  5.5013e-21
      6.10  3.2661e-28  1.5992e-23  3.3018e-28  1.6101e-23  3.3915e-28  1.6294e-23  3.6184e-28  1.6638e-23  4.1694e-28  1.7250e-23  5.3828e-28  1.8337e-23  6.8485e-28  2.0270e-23  8.3466e-28  2.3710e-23  9.8687e-28  2.9831e-23  1.1883e-27  4.0723e-23  1.5212e-27  6.0116e-23  2.0817e-27  9.4678e-23  3.0688e-27  1.5638e-22  4.8260e-27  2.6687e-22  7.9617e-27  4.6575e-22  1.3594e-26  8.2704e-22  2.3800e-26  1.4936e-21  4.2559e-26  2.7551e-21  7.7847e-26  5.2391e-21
      6.15  3.0950e-28  1.7287e-23  3.1269e-28  1.7388e-23  3.2042e-28  1.7568e-23  3.3981e-28  1.7887e-23  3.8421e-28  1.8454e-23  4.7020e-28  1.9462e-23  5.7971e-28  2.1256e-23  7.3366e-28  2.4447e-23  8.7703e-28  3.0124e-23  1.0713e-27  4.0227e-23  1.3898e-27  5.8216e-23  1.9258e-27  9.0278e-23  2.8773e-27  1.4752e-22  4.5700e-27  2.5004e-22  7.6009e-27  4.3463e-22  1.3056e-26  7.7013e-22  2.2973e-26  1.3896e-21  4.1305e-26  2.5635e-21  7.6110e-26  4.8798e-21
      6.20  2.9499e-28  1.8762e-23  2.9798e-28  1.8852e-23  3.0497e-28  1.9013e-23  3.2146e-28  1.9298e-23  3.5339e-28  1.9804e-23  4.1304e-28  2.0706e-23  4.9122e-28  2.2308e-23  5.9803e-28  2.5158e-23  7.3605e-28  3.0230e-23  9.2626e-28  3.9254e-23  1.2211e-27  5.5324e-23  1.7310e-27  8.3967e-23  2.6244e-27  1.3511e-22  4.2194e-27  2.2672e-22  7.0766e-27  3.9172e-22  1.2230e-26  6.9177e-22  2.1628e-26  1.2463e-21  3.9088e-26  2.2985e-21  7.2509e-26  4.3791e-21
      6.25  2.8225e-28  2.0432e-23  2.8496e-28  2.0508e-23  2.9079e-28  2.0643e-23  3.0277e-28  2.0883e-23  3.2556e-28  2.1309e-23  3.6746e-28  2.2068e-23  4.2028e-28  2.3416e-23  4.9842e-28  2.5815e-23  6.0866e-28  3.0083e-23  7.7489e-28  3.7678e-23  1.0433e-27  5.1202e-23  1.5074e-27  7.5309e-23  2.3227e-27  1.1836e-22  3.7737e-27  1.9548e-22  6.3723e-27  3.3444e-22  1.1068e-26  5.8726e-22  1.9655e-26  1.0549e-21  3.5681e-26  1.9438e-21  6.6577e-26  3.7052e-21
      6.30  2.7107e-28  2.2342e-23  2.7311e-28  2.2402e-23  2.7719e-28  2.2510e-23  2.8602e-28  2.2701e-23  3.0155e-28  2.3042e-23  3.3038e-28  2.3647e-23  3.6332e-28  2.4723e-23  4.2125e-28  2.6638e-23  5.1190e-28  3.0043e-23  6.4747e-28  3.6105e-23  8.8286e-28  4.6897e-23  1.2872e-27  6.6135e-23  2.0036e-27  1.0049e-22  3.2757e-27  1.6206e-22  5.5573e-27  2.7303e-22  9.6853e-27  4.7504e-22  1.7254e-26  8.4909e-22  3.1437e-26  1.5611e-21  5.8953e-26  2.9755e-21
      6.35  2.6141e-28  2.4497e-23  2.6284e-28  2.4545e-23  2.6579e-28  2.4630e-23  2.7153e-28  2.4782e-23  2.8319e-28  2.5051e-23  3.0389e-28  2.5530e-23  3.2435e-28  2.6382e-23  3.6213e-28  2.7896e-23  4.3077e-28  3.0591e-23  5.5139e-28  3.5386e-23  7.4970e-28  4.3924e-23  1.1007e-27  5.9145e-23  1.7176e-27  8.6332e-23  2.8164e-27  1.3506e-22  4.7927e-27  2.2291e-22  8.3741e-27  3.8294e-22  1.4956e-26  6.7954e-22  2.7339e-26  1.2450e-21  5.1506e-26  2.3709e-21
      6.40  2.5303e-28  2.6925e-23  2.5417e-28  2.6964e-23  2.5646e-28  2.7033e-23  2.6051e-28  2.7156e-23  2.6815e-28  2.7374e-23  2.8393e-28  2.7762e-23  2.9932e-28  2.8453e-23  3.2655e-28  2.9681e-23  3.7858e-28  3.1865e-23  4.7735e-28  3.5752e-23  6.5498e-28  4.2673e-23  9.6847e-28  5.5013e-23  1.5224e-27  7.7055e-23  2.5121e-27  1.1657e-22  4.2962e-27  1.8783e-22  7.5350e-27  3.1772e-22  1.3503e-26  5.5870e-22  2.4780e-26  1.0189e-21  4.6925e-26  1.9371e-21
      6.45  2.4576e-28  2.9652e-23  2.4681e-28  2.9684e-23  2.4854e-28  2.9741e-23  2.5174e-28  2.9843e-23  2.5730e-28  3.0023e-23  2.6830e-28  3.0343e-23  2.8387e-28  3.0913e-23  3.0706e-28  3.1925e-23  3.5215e-28  3.3727e-23  4.3859e-28  3.6933e-23  6.0007e-28  4.2642e-23  8.9210e-28  5.2819e-23  1.4150e-27  7.1001e-23  2.3566e-27  1.0360e-22  4.0517e-27  1.6241e-22  7.1361e-27  2.6966e-22  1.2836e-26  4.6880e-22  2.3649e-26  8.4959e-22  4.5012e-26  1.6110e-21
      6.50  2.3933e-28  3.2711e-23  2.4029e-28  3.2738e-23  2.4364e-28  3.3112e-23  2.4413e-28  3.2868e-23  2.4837e-28  3.3017e-23  2.5647e-28  3.3281e-23  2.6798e-28  3.3751e-23  2.8716e-28  3.4587e-23  3.2357e-28  3.6074e-23  3.9416e-28  3.8719e-23  5.2926e-28  4.3430e-23  7.8175e-28  5.1829e-23  1.2408e-27  6.6834e-23  2.0699e-27  9.3740e-23  3.5700e-27  1.4229e-22  6.3052e-27  2.3087e-22  1.1371e-26  3.9576e-22  2.1006e-26  7.1109e-22  4.0119e-26  1.3430e-21
      6.55  2.3373e-28  3.6169e-23  2.3455e-28  3.6191e-23  2.3558e-28  3.6231e-23  2.3746e-28  3.6301e-23  2.4095e-28  3.6425e-23  2.4750e-28  3.6646e-23  2.5665e-28  3.7040e-23  2.7188e-28  3.7739e-23  3.0257e-28  3.8984e-23  3.6293e-28  4.1198e-23  4.8067e-28  4.5141e-23  7.0480e-28  5.2170e-23  1.1205e-27  6.4728e-23  1.8787e-27  8.7250e-23  3.2546e-27  1.2790e-22  5.7689e-27  2.0207e-22  1.0436e-26  3.3998e-22  1.9338e-26  6.0417e-22  3.7053e-26  1.1339e-21
      6.60  2.2886e-28  4.0041e-23  2.2948e-28  4.0060e-23  2.3031e-28  4.0094e-23  2.3178e-28  4.0155e-23  2.3459e-28  4.0262e-23  2.4004e-28  4.0453e-23  2.4788e-28  4.0792e-23  2.6064e-28  4.1395e-23  2.8730e-28  4.2467e-23  3.4159e-28  4.4376e-23  4.4904e-28  4.7775e-23  6.5666e-28  5.3835e-23  1.0471e-27  6.4661e-23  1.7673e-27  8.4079e-23  3.0839e-27  1.1913e-22  5.4963e-27  1.8310e-22  9.9840e-27  3.0208e-22  1.8564e-26  5.3067e-22  3.5689e-26  9.8896e-22
      6.65  2.2459e-28  4.4375e-23  2.2507e-28  4.4392e-23  2.2579e-28  4.4422e-23  2.2693e-28  4.4475e-23  2.2917e-28  4.4571e-23  2.3398e-28  4.4741e-23  2.4099e-28  4.5043e-23  2.5242e-28  4.5579e-23  2.7731e-28  4.6535e-23  3.2910e-28  4.8234e-23  4.3282e-28  5.1261e-23  6.3519e-28  5.6658e-23  1.0198e-27  6.6300e-23  1.7363e-27  8.3594e-23  3.1208e-27  1.1622e-22  5.5993e-27  1.7435e-22  1.0220e-26  2.8248e-22  1.9073e-26  4.9002e-22  3.6797e-26  9.0761e-22
      6.70  2.2085e-28  4.9222e-23  2.2117e-28  4.9239e-23  2.2178e-28  4.9267e-23  2.2279e-28  4.9318e-23  2.2483e-28  4.9408e-23  2.2967e-28  4.9568e-23  2.3785e-28  4.9853e-23  2.5181e-28  5.0360e-23  2.8185e-28  5.1262e-23  3.4375e-28  5.2867e-23  4.6657e-28  5.5725e-23  7.0479e-28  6.0821e-23  1.1573e-27  6.9927e-23  2.0009e-27  8.6258e-23  3.5576e-27  1.1574e-22  6.4280e-27  1.6958e-22  1.1887e-26  2.7255e-22  2.2264e-26  4.6733e-22  4.5203e-26  9.0392e-22
      6.75  2.1757e-28  5.4645e-23  2.1778e-28  5.4660e-23  2.1827e-28  5.4688e-23  2.1921e-28  5.4737e-23  2.2133e-28  5.4824e-23  2.2670e-28  5.4980e-23  2.3604e-28  5.5257e-23  2.5310e-28  5.5749e-23  2.8939e-28  5.6624e-23  3.6318e-28  5.8181e-23  5.0738e-28  6.0955e-23  7.8577e-28  6.5901e-23  1.3121e-27  7.4737e-23  2.2936e-27  9.0587e-23  4.1065e-27  1.1920e-22  7.7209e-27  1.7884e-22  1.4208e-26  2.8238e-22  2.6940e-26  4.8678e-22  5.2267e-26  8.9134e-22
      6.80  2.1468e-28  6.0750e-23  2.1484e-28  6.0766e-23  2.1528e-28  6.0796e-23  2.1622e-28  6.0848e-23  2.1848e-28  6.0941e-23  2.2415e-28  6.1107e-23  2.3569e-28  6.1402e-23  2.5566e-28  6.1926e-23  2.9775e-28  6.2859e-23  3.8135e-28  6.4519e-23  5.4302e-28  6.7476e-23  8.5336e-28  7.2748e-23  1.4392e-27  8.2168e-23  2.5307e-27  9.9065e-23  4.5494e-27  1.2958e-22  8.2859e-27  1.8529e-22  1.5288e-26  2.8900e-22  2.8771e-26  4.8805e-22  5.5961e-26  8.9208e-22
      6.85  2.1407e-28  6.8252e-23  2.1224e-28  6.7592e-23  2.1256e-28  6.7622e-23  2.1341e-28  6.7674e-23  2.1543e-28  6.7767e-23  2.2106e-28  6.7933e-23  2.3410e-28  6.8228e-23  2.5635e-28  6.8753e-23  3.0379e-28  6.9686e-23  3.9611e-28  7.1347e-23  5.7569e-28  7.4304e-23  9.1886e-28  7.9577e-23  1.5665e-27  8.9001e-23  2.7822e-27  1.0634e-22  5.0209e-27  1.3721e-22  9.1686e-27  1.9359e-22  1.6952e-26  2.9873e-22  3.1957e-26  5.0053e-22  6.2221e-26  9.0640e-22
      6.90  2.0989e-28  7.5209e-23  2.0997e-28  7.5226e-23  2.1022e-28  7.5257e-23  2.1091e-28  7.5311e-23  2.1300e-28  7.5406e-23  2.1902e-28  7.5577e-23  2.3381e-28  7.5880e-23  2.5972e-28  7.6419e-23  3.1509e-28  7.7377e-23  4.2185e-28  7.9083e-23  6.3135e-28  8.2121e-23  1.0344e-27  8.7537e-23  1.7924e-27  9.7217e-23  3.1987e-27  1.1458e-22  5.7940e-27  1.4593e-22  1.0600e-26  2.0320e-22  1.9621e-26  3.0982e-22  3.7030e-26  5.1464e-22  7.2179e-26  9.2661e-22
      6.95  2.0790e-28  8.3746e-23  2.0798e-28  8.3764e-23  2.0820e-28  8.3794e-23  2.0889e-28  8.3849e-23  2.1098e-28  8.3945e-23  2.1700e-28  8.4117e-23  2.3238e-28  8.4422e-23  2.5920e-28  8.4966e-23  3.1443e-28  8.5932e-23  4.2170e-28  8.7652e-23  6.3764e-28  9.0714e-23  1.0548e-27  9.6175e-23  1.8394e-27  1.0593e-22  3.2954e-27  1.2344e-22  5.9841e-27  1.5505e-22  1.0965e-26  2.1279e-22  2.0322e-26  3.2030e-22  3.8396e-26  5.2676e-22  7.4924e-26  9.4221e-22
      7.00  2.0614e-28  9.3295e-23  2.0622e-28  9.3312e-23  2.0643e-28  9.3342e-23  2.0709e-28  9.3396e-23  2.0906e-28  9.3491e-23  2.1481e-28  9.3661e-23  2.3093e-28  9.3963e-23  2.5803e-28  9.4501e-23  3.1069e-28  9.5458e-23  4.1882e-28  9.7159e-23  6.3798e-28  1.0019e-22  1.0632e-27  1.0559e-22  1.8669e-27  1.1525e-22  3.3643e-27  1.3257e-22  6.1336e-27  1.6385e-22  1.1268e-26  2.2099e-22  2.0920e-26  3.2738e-22  3.9577e-26  5.3170e-22  7.7384e-26  9.4750e-22
      7.05  2.0650e-28  1.0507e-22  2.0464e-28  1.0404e-22  2.0485e-28  1.0407e-22  2.0545e-28  1.0412e-22  2.0727e-28  1.0421e-22  2.1263e-28  1.0438e-22  2.2825e-28  1.0467e-22  2.5593e-28  1.0519e-22  3.0913e-28  1.0610e-22  4.1841e-28  1.0774e-22  6.4203e-28  1.1065e-22  1.0819e-27  1.1585e-22  1.9271e-27  1.2513e-22  3.5104e-27  1.4178e-22  6.4469e-27  1.7184e-22  1.1898e-26  2.2676e-22  2.2151e-26  3.2901e-22  4.2001e-26  5.2704e-22  8.2170e-26  9.2375e-22
      7.10  2.0317e-28  1.1603e-22  2.0324e-28  1.1604e-22  2.0342e-28  1.1607e-22  2.0395e-28  1.1612e-22  2.0557e-28  1.1620e-22  2.1054e-28  1.1636e-22  2.2507e-28  1.1663e-22  2.5408e-28  1.1710e-22  3.0901e-28  1.1796e-22  4.1919e-28  1.1947e-22  6.4521e-28  1.2217e-22  1.1076e-27  1.2697e-22  2.0101e-27  1.3556e-22  3.7173e-27  1.5097e-22  6.8963e-27  1.7879e-22  1.2811e-26  2.2989e-22  2.3944e-26  3.2472e-22  4.5491e-26  5.0679e-22  8.9143e-26  8.7306e-22
      7.15  2.0193e-28  1.2946e-22  2.0391e-28  1.3077e-22  2.0214e-28  1.2950e-22  2.0262e-28  1.2954e-22  2.0409e-28  1.2962e-22  2.0839e-28  1.2975e-22  2.2066e-28  1.2999e-22  2.4793e-28  1.3042e-22  2.9503e-28  1.3118e-22  3.8858e-28  1.3252e-22  5.8899e-28  1.3492e-22  1.0079e-27  1.3920e-22  1.8456e-27  1.4685e-22  3.4573e-27  1.6056e-22  6.4893e-27  1.8531e-22  1.2158e-26  2.3050e-22  2.2861e-26  3.1459e-22  4.3605e-26  4.7597e-22  8.5674e-26  8.0036e-22
      7.20  2.0275e-28  1.4593e-22  2.0087e-28  1.4450e-22  2.0101e-28  1.4452e-22  2.0141e-28  1.4456e-22  2.0260e-28  1.4462e-22  2.0604e-28  1.4474e-22  2.1563e-28  1.4495e-22  2.3869e-28  1.4531e-22  2.7480e-28  1.4597e-22  3.5135e-28  1.4713e-22  5.1846e-28  1.4919e-22  8.7629e-28  1.5287e-22  1.6146e-27  1.5944e-22  3.0712e-27  1.7122e-22  5.8571e-27  1.9249e-22  1.1117e-26  2.3130e-22  2.1097e-26  3.0349e-22  4.0492e-26  4.4188e-22  7.9885e-26  7.1966e-22
      7.25  1.9985e-28  1.6131e-22  1.9988e-28  1.6132e-22  1.9999e-28  1.6134e-22  2.0030e-28  1.6137e-22  2.0122e-28  1.6142e-22  2.0381e-28  1.6152e-22  2.1078e-28  1.6170e-22  2.2740e-28  1.6201e-22  2.5471e-28  1.6256e-22  3.1226e-28  1.6355e-22  4.4010e-28  1.6531e-22  7.2524e-28  1.6844e-22  1.3337e-27  1.7403e-22  2.5753e-27  1.8404e-22  5.0048e-27  2.0211e-22  9.6576e-27  2.3506e-22  1.8557e-26  2.9630e-22  3.5922e-26  4.1351e-22  7.1268e-26  6.4830e-22
      7.30  1.9897e-28  1.8020e-22  1.9900e-28  1.8021e-22  1.9908e-28  1.8022e-22  1.9932e-28  1.8025e-22  2.0002e-28  1.8030e-22  2.0191e-28  1.8038e-22  2.0694e-28  1.8053e-22  2.1864e-28  1.8080e-22  2.4035e-28  1.8128e-22  2.8341e-28  1.8213e-22  3.7771e-28  1.8364e-22  5.9963e-28  1.8634e-22  1.0979e-27  1.9115e-22  2.1555e-27  1.9977e-22  4.2906e-27  2.1531e-22  8.4620e-27  2.4363e-22  1.6534e-26  2.9618e-22  3.2382e-26  3.9658e-22  6.4736e-26  5.9712e-22
      7.35  1.9820e-28  2.0135e-22  1.9822e-28  2.0135e-22  1.9828e-28  2.0137e-22  1.9846e-28  2.0139e-22  1.9898e-28  2.0143e-22  2.0035e-28  2.0151e-22  2.0397e-28  2.0164e-22  2.1297e-28  2.0188e-22  2.3076e-28  2.0230e-22  2.6380e-28  2.0305e-22  3.3748e-28  2.0439e-22  5.1573e-28  2.0677e-22  9.3636e-28  2.1103e-22  1.8654e-27  2.1864e-22  3.7934e-27  2.3237e-22  7.6398e-27  2.5735e-22  1.5179e-26  3.0365e-22  3.0083e-26  3.9189e-22  6.0618e-26  5.6753e-22
      7.40  1.9751e-28  2.2502e-22  1.9753e-28  2.2503e-22  1.9757e-28  2.2504e-22  1.9771e-28  2.2506e-22  1.9812e-28  2.2510e-22  1.9913e-28  2.2517e-22  2.0190e-28  2.2529e-22  2.0904e-28  2.2551e-22  2.2513e-28  2.2589e-22  2.5226e-28  2.2658e-22  3.1220e-28  2.2780e-22  4.6323e-28  2.2997e-22  8.2630e-28  2.3385e-22  1.6558e-27  2.4078e-22  3.4307e-27  2.5328e-22  7.0454e-27  2.7601e-22  1.4222e-26  3.1806e-22  2.8513e-26  3.9798e-22  5.7903e-26  5.5644e-22
      7.45  1.9690e-28  2.5153e-22  1.9691e-28  2.5154e-22  1.9695e-28  2.5155e-22  1.9706e-28  2.5157e-22  1.9738e-28  2.5161e-22  1.9818e-28  2.5167e-22  2.0038e-28  2.5179e-22  2.0621e-28  2.5199e-22  2.1890e-28  2.5235e-22  2.3914e-28  2.5299e-22  2.8522e-28  2.5414e-22  4.0196e-28  2.5618e-22  6.9167e-28  2.5982e-22  1.3771e-27  2.6633e-22  2.8966e-27  2.7806e-22  6.0773e-27  2.9937e-22  1.2507e-26  3.3871e-22  2.5446e-26  4.1329e-22  5.2202e-26  5.6055e-22
      7.50  1.9635e-28  2.8122e-22  1.9636e-28  2.8122e-22  1.9639e-28  2.8123e-22  1.9649e-28  2.8125e-22  1.9675e-28  2.8129e-22  1.9742e-28  2.8135e-22  1.9923e-28  2.8146e-22  2.0411e-28  2.8166e-22  2.1445e-28  2.8201e-22  2.3129e-28  2.8263e-22  2.6791e-28  2.8373e-22  3.6225e-28  2.8570e-22  6.0113e-28  2.8921e-22  1.1833e-27  2.9549e-22  2.5175e-27  3.0680e-22  5.3915e-27  3.2732e-22  1.1318e-26  3.6514e-22  2.3385e-26  4.3664e-22  4.8496e-26  5.7720e-22
      7.55  1.9587e-28  3.1454e-22  1.9588e-28  3.1455e-22  1.9591e-28  3.1456e-22  1.9599e-28  3.1458e-22  1.9622e-28  3.1461e-22  1.9681e-28  3.1467e-22  1.9842e-28  3.1478e-22  2.0275e-28  3.1498e-22  2.1125e-28  3.1532e-22  2.2588e-28  3.1594e-22  2.5682e-28  3.1703e-22  3.3563e-28  3.1897e-22  5.3732e-28  3.2244e-22  1.0402e-27  3.2865e-22  2.2288e-27  3.3982e-22  4.8689e-27  3.6006e-22  1.0445e-26  3.9731e-22  2.1975e-26  4.6754e-22  4.6168e-26  6.0504e-22
      7.60  1.9544e-28  3.5187e-22  1.9545e-28  3.5187e-22  1.9547e-28  3.5188e-22  1.9555e-28  3.5190e-22  1.9576e-28  3.5194e-22  1.9632e-28  3.5200e-22  1.9783e-28  3.5211e-22  2.0179e-28  3.5230e-22  2.0873e-28  3.5265e-22  2.2185e-28  3.5327e-22  2.4773e-28  3.5437e-22  3.1200e-28  3.5634e-22  4.7544e-28  3.5983e-22  8.8680e-28  3.6609e-22  1.8809e-27  3.7734e-22  4.1487e-27  3.9772e-22  9.0533e-27  4.3517e-22  1.9363e-26  5.0557e-22  4.1207e-26  6.4287e-22
      7.65  1.9505e-28  3.9367e-22  1.9506e-28  3.9368e-22  1.9509e-28  3.9369e-22  1.9516e-28  3.9371e-22  1.9536e-28  3.9375e-22  1.9591e-28  3.9381e-22  1.9933e-28  3.9786e-22  2.0110e-28  3.9412e-22  2.0705e-28  3.9448e-22  2.1876e-28  3.9512e-22  2.4094e-28  3.9625e-22  2.9427e-28  3.9826e-22  4.2778e-28  4.0184e-22  7.6402e-28  4.0826e-22  1.5894e-27  4.1977e-22  3.5180e-27  4.4063e-22  7.7906e-27  4.7889e-22  1.6940e-26  5.5065e-22  3.6549e-26  6.9006e-22
      7.70  1.9471e-28  4.4051e-22  1.9472e-28  4.4052e-22  1.9475e-28  4.4053e-22  1.9482e-28  4.4055e-22  1.9501e-28  4.4058e-22  1.9553e-28  4.4065e-22  1.9693e-28  4.4077e-22  2.0260e-28  4.4539e-22  2.0558e-28  4.4135e-22  2.1581e-28  4.4201e-22  2.3540e-28  4.4318e-22  2.8019e-28  4.4527e-22  3.8985e-28  4.4899e-22  6.6444e-28  4.5564e-22  1.3449e-27  4.6759e-22  2.9678e-27  4.8920e-22  6.6497e-27  5.2880e-22  1.4696e-26  6.0289e-22  3.2176e-26  7.4634e-22
      7.75  1.9441e-28  4.9298e-22  1.9442e-28  4.9298e-22  1.9444e-28  4.9300e-22  1.9451e-28  4.9302e-22  1.9469e-28  4.9306e-22  1.9520e-28  4.9313e-22  1.9653e-28  4.9325e-22  2.0185e-28  4.9840e-22  2.0445e-28  4.9386e-22  2.1330e-28  4.9455e-22  2.3091e-28  4.9578e-22  2.6879e-28  4.9796e-22  3.5986e-28  5.0186e-22  5.8438e-28  5.0883e-22  1.1423e-27  5.2134e-22  2.4946e-27  5.4395e-22  5.6325e-27  5.8532e-22  1.2638e-26  6.6257e-22  2.8101e-26  8.1162e-22
      7.80  1.9414e-28  5.5187e-22  1.9415e-28  5.5187e-22  1.9417e-28  5.5189e-22  1.9424e-28  5.5191e-22  1.9441e-28  5.5195e-22  1.9683e-28  5.5754e-22  1.9620e-28  5.5215e-22  1.9911e-28  5.5238e-22  2.0321e-28  5.5280e-22  2.1130e-28  5.5353e-22  2.2724e-28  5.5482e-22  2.5985e-28  5.5713e-22  3.3567e-28  5.6125e-22  5.1978e-28  5.6861e-22  9.7600e-28  5.8180e-22  2.0947e-27  6.0564e-22  4.7453e-27  6.4921e-22  1.0797e-26  7.3039e-22  2.4394e-26  8.8650e-22
      7.85  1.9390e-28  6.1785e-22  1.9391e-28  6.1786e-22  1.9393e-28  6.1787e-22  1.9591e-28  6.2408e-22  1.9415e-28  6.1794e-22  1.9461e-28  6.1802e-22  1.9583e-28  6.1816e-22  1.9850e-28  6.1840e-22  2.0226e-28  6.1884e-22  2.0940e-28  6.1962e-22  2.2342e-28  6.2099e-22  2.5169e-28  6.2344e-22  3.1548e-28  6.2780e-22  4.6561e-28  6.3560e-22  8.3603e-28  6.4959e-22  1.7595e-27  6.7483e-22  3.9805e-27  7.2091e-22  9.1685e-27  8.0659e-22  2.1063e-26  9.7083e-22
      7.90  1.9369e-28  6.9179e-22  1.9370e-28  6.9180e-22  1.9372e-28  6.9182e-22  1.9377e-28  6.9184e-22  1.9392e-28  6.9189e-22  1.9433e-28  6.9197e-22  1.9544e-28  6.9212e-22  1.9970e-28  6.9930e-22  2.0103e-28  6.9285e-22  2.0720e-28  6.9367e-22  2.1902e-28  6.9514e-22  2.4273e-28  6.9774e-22  2.9449e-28  7.0238e-22  4.1503e-28  7.1067e-22  7.0911e-28  7.2553e-22  1.4395e-27  7.5233e-22  3.2341e-27  8.0119e-22  7.5281e-27  8.9187e-22  1.7602e-26  1.0651e-21
      7.95  1.9350e-28  7.7466e-22  1.9351e-28  7.7467e-22  1.9352e-28  7.7468e-22  1.9550e-28  7.8246e-22  1.9370e-28  7.7476e-22  1.9407e-28  7.7485e-22  1.9506e-28  7.7500e-22  1.9891e-28  7.8304e-22  1.9963e-28  7.7578e-22  2.0483e-28  7.7666e-22  2.1470e-28  7.7822e-22  2.3429e-28  7.8099e-22  2.7579e-28  7.8593e-22  3.7043e-28  7.9475e-22  5.9849e-28  8.1056e-22  1.1651e-27  8.3906e-22  2.5754e-27  8.9093e-22  6.0215e-27  9.8699e-22  1.4288e-26  1.1699e-21
      8.00  1.9525e-28  8.7620e-22  1.9334e-28  8.6754e-22  1.9527e-28  8.7623e-22  1.9340e-28  8.6758e-22  1.9351e-28  8.6763e-22  1.9383e-28  8.6773e-22  1.9468e-28  8.6789e-22  1.9617e-28  8.6820e-22  1.9845e-28  8.6873e-22  2.0275e-28  8.6966e-22  2.1084e-28  8.7133e-22  2.2677e-28  8.7428e-22  2.5972e-28  8.7955e-22  3.3293e-28  8.8895e-22  5.0844e-28  9.0578e-22  9.4172e-28  9.3610e-22  2.0294e-27  9.9123e-22  4.7345e-27  1.0931e-21  1.1359e-26  1.2863e-21
      8.05  1.9318e-28  9.7174e-22  1.9319e-28  9.7175e-22  1.9320e-28  9.7177e-22  1.9324e-28  9.7180e-22  1.9333e-28  9.7186e-22  1.9553e-28  9.8168e-22  1.9432e-28  9.7214e-22  1.9551e-28  9.7246e-22  1.9941e-28  9.8276e-22  2.0293e-28  9.8377e-22  2.0738e-28  9.7581e-22  2.2014e-28  9.7897e-22  2.4602e-28  9.8459e-22  3.0320e-28  9.9463e-22  4.3592e-28  1.0126e-21  7.6645e-28  1.0449e-21  1.5985e-27  1.1037e-21  3.6991e-27  1.2119e-21  8.9447e-27  1.4164e-21
      8.10  1.9497e-28  1.0994e-21  1.9498e-28  1.0995e-21  1.9307e-28  1.0886e-21  1.9309e-28  1.0886e-21  1.9317e-28  1.0887e-21  1.9339e-28  1.0888e-21  1.9398e-28  1.0890e-21  1.9690e-28  1.1002e-21  1.9843e-28  1.1008e-21  1.9915e-28  1.0910e-21  2.0429e-28  1.0929e-21  2.1442e-28  1.0963e-21  2.3474e-28  1.1023e-21  2.7856e-28  1.1131e-21  3.8002e-28  1.1323e-21  6.2853e-28  1.1668e-21  1.2582e-27  1.2295e-21  2.8679e-27  1.3447e-21  6.9586e-27  1.5616e-21
      8.15  1.9293e-28  1.2195e-21  1.9486e-28  1.2317e-21  1.9294e-28  1.2195e-21  1.9297e-28  1.2196e-21  1.9495e-28  1.2318e-21  1.9321e-28  1.2198e-21  1.9368e-28  1.2200e-21  1.9443e-28  1.2203e-21  1.9562e-28  1.2210e-21  1.9776e-28  1.2221e-21  2.0186e-28  1.2242e-21  2.0951e-28  1.2278e-21  2.2532e-28  1.2343e-21  2.5859e-28  1.2458e-21  3.3458e-28  1.2664e-21  5.1922e-28  1.3034e-21  9.8295e-28  1.3704e-21  2.1951e-27  1.4933e-21  5.3130e-27  1.7238e-21
      8.20  1.9283e-28  1.3663e-21  1.9283e-28  1.3663e-21  1.9284e-28  1.3663e-21  1.9286e-28  1.3664e-21  1.9483e-28  1.3801e-21  1.9304e-28  1.3666e-21  1.9342e-28  1.3668e-21  1.9399e-28  1.3672e-21  1.9492e-28  1.3679e-21  1.9664e-28  1.3691e-21  1.9974e-28  1.3713e-21  2.0583e-28  1.3752e-21  2.1783e-28  1.3822e-21  2.4314e-28  1.3946e-21  3.0022e-28  1.4167e-21  4.3796e-28  1.4564e-21  7.8707e-28  1.5283e-21  1.6947e-27  1.6598e-21  4.0696e-27  1.9055e-21
      8.25  1.9273e-28  1.5308e-21  1.9466e-28  1.5462e-21  1.9466e-28  1.5462e-21  1.9276e-28  1.5309e-21  1.9280e-28  1.5310e-21  1.9291e-28  1.5311e-21  1.9319e-28  1.5314e-21  1.9365e-28  1.5318e-21  1.9437e-28  1.5326e-21  1.9768e-28  1.5493e-21  1.9811e-28  1.5363e-21  2.0281e-28  1.5405e-21  2.1202e-28  1.5480e-21  2.3103e-28  1.5614e-21  2.7439e-28  1.5852e-21  3.7774e-28  1.6281e-21  6.3950e-28  1.7054e-21  1.3241e-27  1.8466e-21  3.1360e-27  2.1095e-21
      8.30  1.9265e-28  1.7155e-21  1.9265e-28  1.7155e-21  1.9266e-28  1.7155e-21  1.9267e-28  1.7156e-21  1.9270e-28  1.7156e-21  1.9279e-28  1.7158e-21  1.9301e-28  1.7160e-21  1.9337e-28  1.7165e-21  1.9394e-28  1.7174e-21  1.9497e-28  1.7188e-21  1.9688e-28  1.7214e-21  2.0049e-28  1.7260e-21  2.0758e-28  1.7341e-21  2.2232e-28  1.7486e-21  2.5509e-28  1.7744e-21  3.3319e-28  1.8208e-21  5.3078e-28  1.9044e-21  1.0498e-27  2.0568e-21  2.4369e-27  2.3395e-21
      8.35  1.9258e-28  1.9225e-21  1.9258e-28  1.9225e-21  1.9450e-28  1.9417e-21  1.9259e-28  1.9226e-21  1.9454e-28  1.9419e-21  1.9460e-28  1.9420e-21  1.9285e-28  1.9231e-21  1.9313e-28  1.9236e-21  1.9357e-28  1.9246e-21  1.9437e-28  1.9262e-21  1.9584e-28  1.9290e-21  1.9860e-28  1.9339e-21  2.0402e-28  1.9428e-21  2.1524e-28  1.9585e-21  2.4008e-28  1.9866e-21  2.9911e-28  2.0370e-21  4.4847e-28  2.1277e-21  8.3872e-28  2.2927e-21  1.9054e-27  2.5978e-21
      8.40  1.9443e-28  2.1761e-21  1.9251e-28  2.1545e-21  1.9252e-28  2.1546e-21  1.9252e-28  2.1546e-21  1.9254e-28  2.1547e-21  1.9259e-28  2.1549e-21  1.9272e-28  2.1552e-21  1.9293e-28  2.1558e-21  1.9328e-28  2.1568e-21  1.9389e-28  2.1586e-21  1.9501e-28  2.1616e-21  1.9712e-28  2.1671e-21  2.0125e-28  2.1767e-21  2.0978e-28  2.1939e-21  2.2861e-28  2.2245e-21  2.7331e-28  2.2794e-21  3.8650e-28  2.3781e-21  6.8661e-28  2.5575e-21  1.4937e-27  2.8880e-21
      8.45  1.9245e-28  2.4147e-21  1.9245e-28  2.4147e-21  1.9246e-28  2.4147e-21  1.9246e-28  2.4148e-21  1.9248e-28  2.4149e-21  1.9252e-28  2.4151e-21  1.9262e-28  2.4154e-21  1.9279e-28  2.4161e-21  1.9306e-28  2.4172e-21  1.9353e-28  2.4191e-21  1.9441e-28  2.4225e-21  1.9606e-28  2.4284e-21  1.9927e-28  2.4390e-21  2.0587e-28  2.4578e-21  2.2038e-28  2.4913e-21  2.5468e-28  2.5513e-21  3.4141e-28  2.6591e-21  5.7182e-28  2.8545e-21  1.1949e-27  3.2138e-21
      8.50  1.9240e-28  2.7063e-21  1.9432e-28  2.7334e-21  1.9240e-28  2.7064e-21  1.9241e-28  2.7065e-21  1.9242e-28  2.7066e-21  1.9245e-28  2.7068e-21  1.9446e-28  2.7342e-21  1.9267e-28  2.7079e-21  1.9288e-28  2.7092e-21  1.9327e-28  2.7113e-21  1.9398e-28  2.7149e-21  1.9529e-28  2.7215e-21  1.9784e-28  2.7330e-21  2.0306e-28  2.7536e-21  2.1442e-28  2.7904e-21  2.4112e-28  2.8561e-21  3.0833e-28  2.9742e-21  4.8671e-28  3.1878e-21  9.7580e-28  3.5795e-21
