# This was generated using Cloudy10 and the columns are ordered 
# as log10 of the fraction of the metallicity to the solar metallicity
# 'h_*_Z' and 'c_*_Z' stands for cooling and heating respectively 
# at * metalicity
#
# Redshift = 8.0
# hden = 3.0
#     temp   h_-3.00_Z   c_-3.00_Z   h_-2.75_Z   c_-2.75_Z   h_-2.50_Z   c_-2.50_Z   h_-2.25_Z   c_-2.25_Z   h_-2.00_Z   c_-2.00_Z   h_-1.75_Z   c_-1.75_Z   h_-1.50_Z   c_-1.50_Z   h_-1.25_Z   c_-1.25_Z   h_-1.00_Z   c_-1.00_Z   h_-0.75_Z   c_-0.75_Z   h_-0.50_Z   c_-0.50_Z   h_-0.25_Z   c_-0.25_Z    h_0.00_Z    c_0.00_Z    h_0.25_Z    c_0.25_Z    h_0.50_Z    c_0.50_Z    h_0.75_Z    c_0.75_Z    h_1.00_Z    c_1.00_Z    h_1.25_Z    c_1.25_Z    h_1.50_Z    c_1.50_Z 
      1.00  1.876e-27  3.8123e-31  1.8761e-27  3.8144e-31  1.8763e-27  3.8181e-31  1.8766e-27  3.8248e-31  1.8772e-27  3.8366e-31  1.8783e-27  3.8576e-31  1.8802e-27  3.895e-31  1.8836e-27  3.9611e-31  1.8896e-27  4.0783e-31  1.9002e-27  4.285e-31  1.9191e-27  4.6473e-31  1.9528e-27  5.2758e-31  2.0125e-27  6.3461e-31  2.1188e-27  8.1136e-31  2.308e-27  1.0894e-30  2.6466e-27  1.4958e-30  3.2602e-27  2.0338e-30  4.3997e-27  2.6591e-30  6.6112e-27  3.1914e-30
      1.05  1.8759e-27  4.2954e-31  1.876e-27  4.317e-31  1.8762e-27  4.3556e-31  1.8765e-27  4.4241e-31  1.8771e-27  4.546e-31  1.8782e-27  4.7628e-31  1.8801e-27  5.1485e-31  1.8834e-27  5.835e-31  1.8894e-27  7.0572e-31    1.9e-27  9.2356e-31  1.9188e-27  1.3125e-30  1.9522e-27  2.0088e-30  2.0116e-27  3.2609e-30  2.1171e-27  5.5273e-30  2.3049e-27  9.6638e-30  2.6408e-27  1.7278e-29  3.2491e-27  3.1378e-29  4.3782e-27  5.7539e-29  6.5639e-27  1.0609e-28
      1.10  1.8758e-27  4.8484e-31  1.8759e-27  4.9017e-31  1.8761e-27  4.9965e-31  1.8764e-27  5.1652e-31  1.877e-27  5.4651e-31  1.8781e-27  5.9986e-31   1.88e-27  6.9476e-31  1.8833e-27  8.6366e-31  1.8892e-27  1.1644e-30  1.8998e-27  1.7004e-30  1.9186e-27  2.6574e-30  1.952e-27  4.3709e-30  2.0113e-27  7.4525e-30  2.1167e-27  1.303e-29  2.3041e-27  2.3208e-29  2.6392e-27  4.1924e-29  3.2456e-27  7.6484e-29  4.3706e-27  1.4022e-28  6.5436e-27  2.5738e-28
      1.15  1.8757e-27  5.4789e-31  1.8758e-27  5.5769e-31  1.876e-27  5.7511e-31  1.8763e-27  6.061e-31  1.8769e-27  6.6121e-31  1.878e-27  7.5923e-31  1.8798e-27  9.3358e-31  1.8832e-27  1.2438e-30  1.8891e-27  1.796e-30  1.8997e-27  2.7795e-30  1.9185e-27  4.5336e-30  1.9519e-27  7.6681e-30  2.0111e-27  1.3288e-29  2.1164e-27  2.3409e-29  2.3036e-27  4.1743e-29  2.6381e-27  7.5133e-29  3.2429e-27  1.3611e-28  4.3643e-27  2.4729e-28  6.5264e-27  4.4931e-28
      1.20  1.8756e-27  6.2019e-31  1.8757e-27  6.3637e-31  1.8759e-27  6.6514e-31  1.8762e-27  7.1631e-31  1.8768e-27  8.073e-31  1.8779e-27  9.6912e-31  1.8797e-27  1.2569e-30  1.8831e-27  1.7688e-30  1.889e-27  2.6795e-30  1.8996e-27  4.3002e-30  1.9184e-27  7.1859e-30  1.9518e-27  1.2329e-29  2.011e-27  2.1507e-29  2.1163e-27  3.7918e-29  2.3034e-27  6.7332e-29  2.6373e-27  1.2015e-28  3.2409e-27  2.1507e-28  4.359e-27  3.8543e-28  6.5117e-27  6.9068e-28
      1.25  1.8755e-27  7.0362e-31  1.8756e-27  7.2893e-31  1.8757e-27  7.7395e-31  1.8761e-27  8.5401e-31  1.8767e-27  9.9638e-31  1.8777e-27  1.2495e-30  1.8796e-27  1.6997e-30  1.883e-27  2.5001e-30  1.8889e-27  3.9232e-30  1.8995e-27  6.4531e-30  1.9183e-27  1.0949e-29  1.9517e-27  1.8937e-29  2.011e-27  3.3116e-29  2.1162e-27  5.8255e-29  2.3031e-27  1.0274e-28  2.6366e-27  1.8126e-28  3.2389e-27  3.1952e-28  4.3539e-27  5.628e-28  6.4979e-27  9.9148e-28
      1.30  1.8753e-27  8.0041e-31  1.8754e-27  8.3868e-31  1.8756e-27  9.0674e-31  1.876e-27  1.0278e-30  1.8765e-27  1.2429e-30  1.8776e-27  1.6256e-30  1.8795e-27  2.3058e-30  1.8828e-27  3.5148e-30  1.8888e-27  5.6632e-30  1.8994e-27  9.4781e-30  1.9182e-27  1.6245e-29  1.9515e-27  2.8227e-29  2.0108e-27  4.9379e-29  2.116e-27  8.654e-29  2.3028e-27  1.5139e-28  2.6357e-27  2.6368e-28  3.2365e-27  4.5685e-28  4.3481e-27  7.8889e-28  6.4835e-27  1.3627e-27
      1.35  1.8752e-27  9.1311e-31  1.8753e-27  9.6938e-31  1.8755e-27  1.0694e-30  1.8758e-27  1.2473e-30  1.8764e-27  1.5637e-30  1.8775e-27  2.1261e-30  1.8794e-27  3.1257e-30  1.8827e-27  4.9019e-30  1.8886e-27  8.0561e-30  1.8992e-27  1.3651e-29  1.918e-27  2.3558e-29  1.9513e-27  4.1043e-29  2.0106e-27  7.1742e-29  2.1156e-27  1.252e-28  2.302e-27  2.1719e-28  2.6341e-27  3.7332e-28  3.2331e-27  6.3528e-28  4.3406e-27  1.0739e-27  6.4668e-27  1.8157e-27
      1.40  1.8751e-27   1.05e-30  1.8752e-27  1.1306e-30  1.8754e-27  1.2739e-30  1.8757e-27  1.5286e-30  1.8763e-27  1.9815e-30  1.8773e-27  2.7866e-30  1.8792e-27  4.2175e-30  1.8825e-27  6.7535e-30  1.8885e-27  1.1264e-29  1.899e-27  1.9259e-29  1.9178e-27  3.339e-29  1.9511e-27  5.8258e-29  2.0101e-27  1.017e-28  2.1149e-27  1.7672e-28  2.3007e-27  3.0413e-28  2.6317e-27  5.1618e-28  3.2282e-27  8.6303e-28  4.3307e-27  1.4281e-27  6.4462e-27  2.3614e-27
      1.45  1.8749e-27  1.2313e-30  1.875e-27  1.3436e-30  1.8752e-27  1.5433e-30  1.8756e-27  1.8985e-30  1.8762e-27  2.5299e-30  1.8772e-27  3.6523e-30  1.8791e-27  5.6466e-30  1.8824e-27  9.1883e-30  1.8883e-27  1.5471e-29  1.8988e-27  2.6597e-29  1.9175e-27  4.6199e-29  1.9506e-27  8.0669e-29  2.0095e-27  1.4062e-28  2.1138e-27  2.4338e-28  2.2988e-27  4.1582e-28  2.6281e-27  6.9763e-28  3.2214e-27  1.1474e-27  4.3177e-27   1.86e-27  6.4207e-27  3.0088e-27
      1.50  1.8748e-27  1.4389e-30  1.8749e-27  1.5914e-30  1.8751e-27  1.8626e-30  1.8754e-27  2.3447e-30  1.876e-27  3.2017e-30  1.8771e-27  4.7251e-30  1.8789e-27  7.4316e-30  1.8822e-27  1.2237e-29  1.8881e-27  2.0758e-29  1.8986e-27  3.5837e-29  1.9171e-27  6.2418e-29  1.9501e-27  1.0893e-28  2.0085e-27  1.896e-28  2.1122e-27   3.27e-28  2.296e-27  5.5514e-28  2.6232e-27  9.2195e-28  3.2125e-27  1.4941e-27  4.3012e-27  2.3767e-27  6.3897e-27  3.7658e-27
      1.55  1.8747e-27  1.6759e-30  1.8748e-27  1.8777e-30  1.875e-27  2.2364e-30  1.8753e-27  2.8741e-30  1.8759e-27  4.0078e-30  1.8769e-27  6.0228e-30  1.8788e-27  9.6024e-30  1.8821e-27  1.5957e-29  1.8879e-27  2.7221e-29  1.8983e-27  4.7142e-29  1.9167e-27  8.2224e-29  1.9494e-27  1.4351e-28  2.0074e-27  2.4946e-28  2.1103e-27  4.2894e-28  2.2927e-27  7.2429e-28  2.6172e-27  1.1925e-27  3.2019e-27  1.9081e-27  4.2822e-27  2.9848e-27  6.3547e-27  4.6416e-27
      1.60  1.8746e-27  1.945e-30  1.8747e-27  2.2054e-30  1.8749e-27  2.6686e-30  1.8752e-27  3.4921e-30  1.8758e-27  4.9559e-30  1.8768e-27  7.5574e-30  1.8786e-27  1.2179e-29  1.8819e-27  2.0381e-29  1.8876e-27  3.4917e-29  1.8979e-27  6.0613e-29  1.9162e-27  1.0583e-28  1.9486e-27  1.847e-28  2.0061e-27  3.2071e-28  2.108e-27  5.5009e-28  2.2887e-27  9.248e-28  2.6103e-27  1.5118e-27  3.1897e-27  2.3936e-27  4.2606e-27  3.6921e-27  6.3159e-27  5.6504e-27
      1.65  1.8744e-27  2.249e-30  1.8745e-27  2.5783e-30  1.8747e-27  3.1637e-30  1.875e-27  4.2045e-30  1.8756e-27  6.0547e-30  1.8766e-27  9.3427e-30  1.8784e-27  1.5183e-29  1.8817e-27  2.5548e-29  1.8874e-27  4.3913e-29  1.8975e-27  7.6365e-29  1.9156e-27  1.3343e-28  1.9476e-27  2.3288e-28  2.0045e-27  4.0402e-28  2.1054e-27  6.9169e-28  2.2842e-27  1.1589e-27  2.6024e-27  1.8843e-27  3.1761e-27  2.9591e-27  4.2369e-27  4.5151e-27  6.2739e-27  6.8257e-27
      1.70  1.8743e-27  2.5922e-30  1.8744e-27  3.0012e-30  1.8746e-27  3.7286e-30  1.8749e-27  5.0217e-30  1.8755e-27  7.3204e-30  1.8765e-27  1.1405e-29  1.8782e-27  1.8661e-29  1.8814e-27  3.1536e-29  1.8871e-27  5.4347e-29  1.8971e-27  9.4645e-29  1.9149e-27  1.6548e-28  1.9466e-27  2.8883e-28  2.0028e-27  5.0082e-28  2.1025e-27  8.5636e-28  2.2792e-27  1.4317e-27  2.5939e-27  2.3193e-27  3.1613e-27  3.6232e-27  4.2115e-27  5.4909e-27  6.2296e-27  8.2401e-27
      1.75  1.8741e-27  2.9804e-30  1.8742e-27  3.4826e-30  1.8744e-27  4.3755e-30  1.8747e-27  5.963e-30  1.8753e-27  8.785e-30  1.8763e-27   1.38e-29  1.878e-27  2.2707e-29  1.8812e-27  3.8512e-29  1.8868e-27  6.6513e-29  1.8967e-27  1.1597e-28  1.9143e-27  2.029e-28  1.9455e-27  3.5422e-28  2.001e-27  6.1414e-28  2.0993e-27  1.0496e-27  2.2739e-27  1.7533e-27  2.5848e-27  2.8365e-27  3.1458e-27  4.4234e-27  4.1851e-27  6.6915e-27  6.1837e-27  1.0033e-26
      1.80  1.874e-27  3.423e-30  1.8741e-27  4.0358e-30  1.8743e-27  5.1253e-30  1.8746e-27  7.0624e-30  1.8751e-27  1.0506e-29  1.8761e-27  1.6625e-29  1.8778e-27  2.7493e-29  1.8809e-27  4.678e-29  1.8864e-27  8.0948e-29  1.8962e-27  1.4131e-28  1.9135e-27  2.4739e-28  1.9444e-27  4.3211e-28  1.9991e-27  7.4947e-28  2.0961e-27  1.2815e-27  2.2683e-27  2.1422e-27  2.5754e-27  3.4702e-27  3.1299e-27  5.4243e-27  4.1581e-27  8.2402e-27  6.1373e-27  1.2438e-26
      1.85  1.8738e-27  3.9319e-30  1.8739e-27  4.6793e-30  1.8741e-27  6.0081e-30  1.8744e-27  8.3708e-30  1.875e-27  1.2571e-29  1.8759e-27  2.0034e-29  1.8776e-27  3.3292e-29  1.8807e-27  5.6818e-29  1.8861e-27  9.8504e-29  1.8957e-27  1.7216e-28  1.9128e-27  3.0166e-28  1.9432e-27  5.2733e-28  1.9971e-27  9.1552e-28  2.0928e-27  1.5678e-27  2.2627e-27  2.6272e-27  2.5659e-27  4.2735e-27  3.1139e-27  6.7254e-27  4.1312e-27  1.0323e-26  6.0911e-27  1.5805e-26
      1.90  1.8737e-27  4.5216e-30  1.8738e-27  5.4355e-30  1.8739e-27  7.0606e-30  1.8742e-27  9.9499e-30  1.8748e-27  1.5086e-29  1.8757e-27  2.4214e-29  1.8774e-27  4.0428e-29  1.8804e-27  6.9207e-29  1.8857e-27  1.2021e-28  1.8952e-27  2.1035e-28  1.9121e-27  3.6897e-28  1.942e-27  6.4569e-28  1.9952e-27  1.1227e-27  2.0895e-27  1.9272e-27  2.2572e-27  3.2425e-27  2.5566e-27  5.3098e-27  3.0986e-27  8.4456e-27  4.106e-27  1.3167e-26  6.049e-27  2.0565e-26
      1.95  1.8735e-27  5.2005e-30  1.8736e-27  6.3157e-30  1.8738e-27  8.2985e-30  1.8741e-27  1.1824e-29  1.8746e-27  1.8091e-29  1.8755e-27  2.923e-29  1.8772e-27  4.9017e-29  1.8802e-27  8.4141e-29  1.8854e-27  1.464e-28  1.8948e-27  2.565e-28  1.9114e-27  4.5035e-28  1.9409e-27  7.8901e-28  1.9934e-27  1.3741e-27  2.0867e-27  2.3653e-27  2.2525e-27  3.9983e-27  2.5491e-27  6.5999e-27  3.0874e-27  1.0632e-26  4.0905e-27  1.6883e-26  6.0292e-27  2.6959e-26
      2.00  1.8733e-27  6.0146e-30  1.8734e-27  7.3971e-30  1.8736e-27  9.8553e-30  1.8739e-27  1.4226e-29  1.8744e-27  2.1996e-29  1.8753e-27  3.5807e-29  1.877e-27  6.0344e-29  1.8799e-27  1.0391e-28  1.8851e-27  1.8116e-28  1.8943e-27  3.1784e-28  1.9107e-27  5.5877e-28  1.9398e-27  9.8051e-28  1.9915e-27  1.7116e-27  2.0835e-27  2.9575e-27  2.2472e-27  5.0304e-27  2.5404e-27  8.3855e-27  3.073e-27  1.3706e-26  4.0669e-27  2.2185e-26  5.9897e-27  3.6206e-26
      2.05  1.8732e-27  6.9808e-30  1.8732e-27  8.7038e-30  1.8734e-27  1.1768e-29  1.8737e-27  1.7215e-29  1.8742e-27   2.69e-29  1.8751e-27  4.4114e-29  1.8767e-27  7.4703e-29  1.8796e-27  1.2902e-28  1.8847e-27  2.2538e-28  1.8938e-27  3.9599e-28  1.9099e-27  6.9709e-28  1.9387e-27  1.2253e-27  1.9897e-27  2.1443e-27  2.0804e-27   3.72e-27  2.242e-27  6.369e-27  2.5316e-27  1.0724e-26  3.0584e-27  1.7782e-26  4.0425e-27  2.9311e-26  5.9476e-27  4.8792e-26
      2.10  1.873e-27  8.1171e-30  1.8731e-27  1.0263e-29  1.8732e-27  1.408e-29  1.8735e-27  2.0866e-29  1.874e-27  3.293e-29  1.8749e-27  5.4377e-29  1.8765e-27  9.2489e-29  1.8793e-27  1.6018e-28  1.8844e-27  2.8031e-28  1.8933e-27  4.9315e-28  1.9092e-27  8.6923e-28  1.9376e-27  1.5303e-27  1.9879e-27  2.6846e-27  2.0774e-27  4.6755e-27  2.2371e-27  8.0547e-27  2.5233e-27  1.3691e-26  3.0446e-27    2.3e-26  4.0193e-27  3.8524e-26  5.9075e-27  6.5218e-26
      2.15  1.8728e-27  9.4432e-30  1.8729e-27  1.2104e-29  1.873e-27  1.6837e-29  1.8733e-27  2.5251e-29  1.8738e-27  4.0212e-29  1.8747e-27  6.6807e-29  1.8762e-27  1.1408e-28  1.879e-27  1.9805e-28  1.884e-27  3.4712e-28  1.8928e-27  6.114e-28  1.9086e-27  1.0785e-27  1.9365e-27  1.9022e-27  1.9862e-27  3.3443e-27  2.0746e-27  5.8451e-27  2.2324e-27  1.0126e-26  2.5156e-27  1.7356e-26  3.0317e-27  2.9487e-26  3.9976e-27  5.0059e-26  5.8698e-27  8.5919e-26
      2.20  1.8726e-27  1.0975e-29  1.8726e-27  1.4248e-29  1.8728e-27  2.0069e-29  1.8731e-27  3.042e-29  1.8736e-27  4.8823e-29  1.8744e-27  8.154e-29  1.876e-27  1.3969e-28  1.8788e-27  2.4303e-28  1.8837e-27  4.2651e-28  1.8924e-27  7.5199e-28  1.9079e-27  1.3278e-27  1.9355e-27  2.3449e-27  1.9846e-27  4.1306e-27  2.072e-27  7.2416e-27  2.228e-27  1.2606e-26  2.5083e-27  2.176e-26  3.0197e-27  3.7322e-26  3.9775e-27  6.406e-26  5.8347e-27  1.1117e-25
      2.25  1.8723e-27  1.2724e-29  1.8724e-27  1.6708e-29  1.8726e-27  2.3792e-29  1.8729e-27  3.6389e-29  1.8733e-27  5.8787e-29  1.8742e-27  9.8609e-29  1.8757e-27  1.694e-28  1.8785e-27  2.952e-28  1.8833e-27  5.1864e-28  1.8919e-27  9.1518e-28  1.9073e-27  1.6173e-27  1.9346e-27  2.8592e-27  1.9831e-27  5.0448e-27  2.0697e-27  8.8676e-27  2.2242e-27   1.55e-26  2.5022e-27  2.6914e-26  3.0098e-27  4.652e-26  3.9613e-27  8.0559e-26  5.8071e-27  1.4102e-25
      2.30  1.8721e-27  1.4702e-29  1.8722e-27  1.9492e-29  1.8724e-27  2.8008e-29  1.8726e-27  4.3153e-29  1.8731e-27  7.0081e-29  1.874e-27  1.1796e-28  1.8755e-27  2.0307e-28  1.8782e-27  3.5435e-28  1.883e-27  6.2311e-28  1.8915e-27  1.1002e-27  1.9067e-27  1.9457e-27  1.9337e-27  3.4428e-27  1.9818e-27  6.0829e-27  2.0676e-27  1.0716e-26  2.2209e-27  1.8793e-26  2.497e-27  3.2793e-26  3.0018e-27  5.7039e-26  3.9488e-27  9.9475e-26  5.7862e-27  1.7534e-25
      2.35  1.8719e-27  1.691e-29  1.872e-27  2.2594e-29  1.8721e-27  3.2701e-29  1.8724e-27  5.0672e-29  1.8729e-27  8.2629e-29  1.8737e-27  1.3945e-28  1.8752e-27  2.4047e-28  1.8779e-27  4.2003e-28  1.8827e-27  7.3909e-28  1.8911e-27  1.3057e-27  1.9062e-27  2.3104e-27  1.9329e-27  4.091e-27  1.9806e-27  7.2363e-27  2.0657e-27  1.277e-26  2.218e-27  2.2459e-26  2.4924e-27  3.9345e-26  2.9947e-27  6.8779e-26  3.9377e-27  1.2062e-25  5.7676e-27  2.1377e-25
      2.40  1.8717e-27  1.9346e-29  1.8717e-27  2.5999e-29  1.8719e-27  3.783e-29  1.8722e-27  5.8868e-29  1.8726e-27  9.6276e-29  1.8735e-27  1.6279e-28  1.875e-27  2.8105e-28  1.8776e-27  4.9128e-28  1.8823e-27  8.649e-28  1.8907e-27  1.5286e-27  1.9056e-27  2.7059e-27  1.9322e-27  4.7941e-27  1.9795e-27  8.4879e-27  2.064e-27  1.5001e-26  2.2152e-27  2.6442e-26  2.4881e-27  4.647e-26  2.9882e-27  8.1561e-26  3.9276e-27  1.4367e-25  5.7505e-27  2.5571e-25
      2.45  1.8714e-27  2.2004e-29  1.8715e-27  2.9684e-29  1.8716e-27  4.3341e-29  1.8719e-27  6.7627e-29  1.8724e-27  1.1081e-28  1.8732e-27  1.876e-28  1.8747e-27  3.2413e-28  1.8773e-27  5.6685e-28  1.882e-27  9.9827e-28  1.8903e-27  1.7648e-27  1.9051e-27  3.125e-27  1.9315e-27  5.5393e-27  1.9785e-27  9.8146e-27  2.0624e-27  1.7367e-26  2.2127e-27  3.0667e-26  2.4843e-27  5.4034e-26  2.9823e-27  9.5142e-26  3.9185e-27  1.6818e-25  5.7349e-27  3.0035e-25
      2.50  1.8711e-27  2.4892e-29  1.8712e-27  3.365e-29  1.8714e-27  4.9223e-29  1.8716e-27  7.6916e-29  1.8721e-27  1.2616e-28  1.8729e-27  2.1372e-28  1.8744e-27  3.6942e-28  1.877e-27  6.4623e-28  1.8816e-27  1.1383e-27  1.8899e-27  2.0127e-27  1.9046e-27  3.5649e-27  1.9308e-27  6.3213e-27  1.9775e-27  1.1207e-26  2.0609e-27  1.9849e-26  2.2105e-27  3.5103e-26  2.4809e-27  6.1978e-26  2.9772e-27  1.0941e-25  3.9106e-27  1.9396e-25  5.7212e-27  3.4732e-25
      2.55  1.8709e-27  2.8025e-29  1.871e-27  3.7897e-29  1.8711e-27  5.5452e-29  1.8714e-27  8.667e-29  1.8718e-27  1.4218e-28  1.8726e-27  2.4089e-28  1.8741e-27  4.1641e-28  1.8767e-27  7.2848e-28  1.8813e-27  1.2833e-27  1.8895e-27  2.2693e-27  1.9041e-27  4.0199e-27  1.9302e-27  7.1303e-27  1.9766e-27  1.2647e-26  2.0595e-27  2.2418e-26  2.2085e-27  3.9693e-26  2.4779e-27  7.0202e-26  2.9727e-27  1.2419e-25  3.9037e-27  2.2064e-25  5.7092e-27  3.9595e-25
      2.60  1.8706e-27  3.1401e-29  1.8707e-27  4.2411e-29  1.8708e-27  6.199e-29  1.8711e-27  9.6806e-29  1.8715e-27  1.5872e-28  1.8723e-27  2.6881e-28  1.8738e-27  4.6457e-28  1.8764e-27  8.1264e-28  1.881e-27  1.4315e-27  1.8891e-27  2.5315e-27  1.9037e-27  4.4848e-27  1.9296e-27  7.9567e-27  1.9757e-27  1.4118e-26  2.0583e-27  2.5042e-26  2.2067e-27  4.4382e-26  2.4752e-27  7.8602e-26  2.9688e-27  1.3928e-25  3.8977e-27  2.479e-25  5.6985e-27  4.4563e-25
      2.65  1.8703e-27  3.5036e-29  1.8704e-27   4.72e-29  1.8705e-27  6.8831e-29  1.8708e-27  1.073e-28  1.8712e-27  1.757e-28  1.872e-27  2.9733e-28  1.8735e-27  5.1361e-28  1.8761e-27  8.9818e-28  1.8806e-27  1.5819e-27  1.8887e-27  2.7975e-27  1.9032e-27  4.9563e-27  1.929e-27  8.7946e-27  1.975e-27  1.561e-26  2.0573e-27  2.7702e-26  2.2051e-27  4.9136e-26  2.473e-27  8.7118e-26  2.9655e-27  1.5458e-25  3.8927e-27  2.7553e-25  5.6894e-27  4.9598e-25
      2.70   1.87e-27  3.8953e-29  1.8701e-27  5.2279e-29  1.8702e-27  7.5977e-29  1.8705e-27  1.1812e-28  1.8709e-27  1.9306e-28  1.8717e-27  3.2632e-28  1.8732e-27  5.6328e-28  1.8757e-27  9.8464e-28  1.8803e-27  1.7338e-27  1.8884e-27  3.0658e-27  1.9028e-27  5.4316e-27  1.9285e-27  9.6393e-27  1.9743e-27  1.7114e-26  2.0564e-27  3.0383e-26  2.2039e-27  5.3926e-26  2.4712e-27  9.5698e-26  2.963e-27  1.6999e-25  3.889e-27  3.0335e-25  5.6822e-27  5.4667e-25
      2.75  1.8697e-27  4.3171e-29  1.8697e-27  5.766e-29  1.8699e-27  8.3425e-29  1.8701e-27  1.2924e-28  1.8706e-27  2.1072e-28  1.8714e-27  3.556e-28  1.8728e-27  6.1323e-28  1.8754e-27  1.0713e-27  1.8799e-27  1.8859e-27  1.888e-27  3.3342e-27  1.9024e-27  5.9069e-27  1.9281e-27  1.0483e-26  1.9738e-27  1.8615e-26  2.0558e-27  3.3058e-26  2.2033e-27  5.8702e-26  2.4708e-27  1.0424e-25  2.9632e-27  1.8531e-25  3.8906e-27  3.3098e-25  5.6846e-27  5.9697e-25
      2.80  1.8693e-27  4.7759e-29  1.8694e-27  6.3414e-29  1.8696e-27  9.1253e-29  1.8698e-27  1.4076e-28  1.8703e-27  2.2879e-28  1.8711e-27  3.8534e-28  1.8725e-27  6.6371e-28  1.8751e-27  1.1587e-27  1.8796e-27  2.0389e-27  1.8877e-27  3.604e-27  1.902e-27  6.3866e-27  1.9277e-27  1.1331e-26  1.9735e-27  2.0122e-26  2.0554e-27  3.5742e-26  2.203e-27  6.3491e-26  2.4708e-27  1.128e-25  2.9644e-27  2.0066e-25  3.8937e-27  3.5866e-25  5.6895e-27  6.4735e-25
      2.85  1.869e-27  5.2745e-29  1.8691e-27  6.9573e-29  1.8692e-27  9.9498e-29  1.8695e-27  1.5271e-28  1.8699e-27  2.4735e-28  1.8707e-27  4.1563e-28  1.8722e-27  7.1487e-28  1.8747e-27  1.247e-27  1.8792e-27  2.1932e-27  1.8873e-27  3.8758e-27  1.9017e-27  6.8674e-27  1.9273e-27  1.2183e-26  1.9731e-27  2.1638e-26  2.0552e-27  3.8442e-26  2.2029e-27  6.8307e-26  2.4713e-27  1.2141e-25  2.9662e-27  2.1609e-25  3.898e-27  3.8647e-25  5.6961e-27  6.9796e-25
      2.90  1.8686e-27  5.8184e-29  1.8687e-27  7.6198e-29  1.8688e-27  1.0823e-28  1.8691e-27  1.652e-28  1.8695e-27  2.6649e-28  1.8704e-27  4.4663e-28  1.8718e-27  7.6696e-28  1.8743e-27  1.3366e-27  1.8789e-27  2.3495e-27  1.887e-27  4.1507e-27  1.9014e-27  7.3535e-27  1.927e-27  1.3045e-26  1.9729e-27  2.317e-26  2.055e-27  4.117e-26  2.203e-27  7.3173e-26  2.4721e-27  1.301e-25  2.9686e-27  2.3168e-25  3.9029e-27  4.1458e-25  5.7034e-27  7.4906e-25
      2.95  1.8682e-27  6.4142e-29  1.8683e-27  8.336e-29  1.8685e-27  1.1753e-28  1.8687e-27  1.783e-28  1.8692e-27  2.8637e-28   1.87e-27  4.7854e-28  1.8714e-27  8.2027e-28  1.874e-27  1.428e-27  1.8785e-27  2.5086e-27  1.8866e-27  4.4303e-27  1.901e-27  7.8475e-27  1.9267e-27  1.392e-26  1.9726e-27  2.4726e-26  2.055e-27  4.3941e-26  2.2033e-27  7.8115e-26  2.4732e-27  1.3894e-25  2.9712e-27  2.4753e-25  3.9081e-27  4.4316e-25  5.7108e-27  8.0101e-25
      3.00  1.8678e-27  7.0696e-29  1.8679e-27  9.114e-29  1.8681e-27  1.275e-28  1.8683e-27  1.9215e-28  1.8688e-27  3.0711e-28  1.8696e-27  5.1156e-28  1.871e-27  8.7512e-28  1.8736e-27  1.5216e-27  1.8781e-27  2.6713e-27  1.8862e-27  4.7159e-27  1.9007e-27  8.3518e-27  1.9265e-27  1.4813e-26  1.9725e-27  2.6313e-26  2.055e-27  4.6768e-26  2.2037e-27  8.3162e-26  2.4744e-27  1.4797e-25  2.974e-27  2.6375e-25  3.9132e-27  4.7242e-25  5.7172e-27  8.5422e-25
      3.05  1.8674e-27  7.7964e-29  1.8675e-27  9.9651e-29  1.8676e-27  1.3822e-28  1.8679e-27  2.068e-28  1.8683e-27  3.2875e-28  1.8692e-27  5.4563e-28  1.8706e-27  9.313e-28  1.8732e-27  1.6171e-27  1.8777e-27  2.8368e-27  1.8859e-27  5.0058e-27  1.9004e-27  8.8633e-27  1.9262e-27  1.5719e-26  1.9723e-27  2.7923e-26  2.0551e-27  4.9636e-26  2.2042e-27  8.8285e-26  2.4757e-27  1.5715e-25  2.9768e-27  2.8025e-25  3.9178e-27  5.0223e-25  5.7219e-27  9.0841e-25
      3.10  1.867e-27  8.598e-29  1.867e-27  1.0895e-28  1.8672e-27  1.4979e-28  1.8674e-27  2.2241e-28  1.8679e-27  3.5157e-28  1.8687e-27  5.8124e-28  1.8702e-27  9.8966e-28  1.8727e-27  1.716e-27  1.8773e-27  3.0076e-27  1.8855e-27  5.3048e-27    1.9e-27  9.3904e-27  1.9259e-27  1.6652e-26  1.9722e-27  2.9582e-26  2.0552e-27  5.2594e-26  2.2048e-27  9.3575e-26  2.4771e-27  1.6664e-25  2.9794e-27  2.9735e-25  3.9217e-27  5.3319e-25  5.7242e-27  9.6477e-25
      3.15  1.8665e-27  9.4923e-29  1.8666e-27  1.1922e-28  1.8667e-27  1.6242e-28  1.867e-27  2.3925e-28  1.8674e-27  3.7586e-28  1.8683e-27  6.1882e-28  1.8697e-27  1.0509e-27  1.8723e-27  1.8192e-27  1.8769e-27  3.1856e-27  1.8851e-27  5.6158e-27  1.8997e-27  9.9384e-27  1.9257e-27  1.7628e-26  1.9722e-27  3.1306e-26  2.0555e-27  5.5671e-26  2.2055e-27  9.9085e-26  2.4785e-27  1.7655e-25  2.9818e-27  3.1527e-25  3.9245e-27  5.6574e-25  5.7235e-27  1.0241e-24
      3.20  1.866e-27  1.0491e-28  1.8661e-27  1.306e-28  1.8662e-27  1.7629e-28  1.8665e-27  2.5753e-28  1.867e-27   4.02e-28  1.8678e-27  6.5891e-28  1.8692e-27  1.1158e-27  1.8718e-27  1.9283e-27  1.8765e-27  3.3733e-27  1.8847e-27  5.9434e-27  1.8994e-27  1.0515e-26  1.9255e-27  1.865e-26  1.9722e-27  3.3121e-26  2.0558e-27  5.8912e-26  2.2064e-27  1.049e-25   2.48e-27  1.8704e-25  2.984e-27  3.3432e-25  3.9263e-27  6.0048e-25  5.7193e-27  1.0877e-24
      3.25  1.8655e-27  1.1609e-28  1.8656e-27  1.4327e-28  1.8657e-27  1.9161e-28  1.866e-27  2.7758e-28  1.8665e-27  4.3046e-28  1.8673e-27  7.0232e-28  1.8688e-27  1.1858e-27  1.8714e-27  2.0456e-27  1.876e-27  3.5748e-27  1.8843e-27  6.2947e-27  1.899e-27  1.1134e-26  1.9253e-27  1.9745e-26  1.9722e-27  3.5067e-26  2.0561e-27  6.239e-26  2.2073e-27  1.1115e-25  2.4816e-27  1.9835e-25  2.986e-27  3.5494e-25  3.927e-27  6.3834e-25  5.7118e-27  1.1574e-24
      3.30  1.865e-27  1.2875e-28  1.865e-27  1.5757e-28  1.8652e-27  2.0883e-28  1.8655e-27  2.9998e-28  1.8659e-27  4.6207e-28  1.8668e-27  7.5032e-28  1.8682e-27  1.2629e-27  1.8709e-27  2.1746e-27  1.8755e-27  3.796e-27  1.8839e-27  6.6803e-27  1.8987e-27  1.1812e-26  1.9251e-27  2.0946e-26  1.9723e-27  3.7201e-26  2.0566e-27  6.6207e-26  2.2084e-27  1.1802e-25  2.4834e-27  2.1081e-25  2.988e-27  3.7777e-25  3.927e-27  6.8057e-25  5.7016e-27  1.2358e-24
      3.35  1.8644e-27  1.4312e-28  1.8645e-27  1.7385e-28  1.8646e-27  2.2849e-28  1.8649e-27  3.2566e-28  1.8654e-27  4.9845e-28  1.8662e-27  8.0573e-28  1.8677e-27  1.3522e-27  1.8704e-27  2.3241e-27  1.8751e-27  4.0527e-27  1.8835e-27  7.1278e-27  1.8984e-27  1.2599e-26  1.925e-27  2.234e-26  1.9725e-27  3.9679e-26  2.0575e-27  7.0637e-26   2.21e-27  1.2598e-25  2.4861e-27  2.2527e-25  2.9912e-27  4.0436e-25  3.9281e-27  7.3005e-25  5.6918e-27  1.3284e-24
      3.40  1.8638e-27  1.5941e-28  1.8639e-27  1.9233e-28  1.864e-27  2.5087e-28  1.8643e-27  3.5497e-28  1.8648e-27  5.4009e-28  1.8656e-27  8.693e-28  1.8671e-27  1.4548e-27  1.8698e-27  2.496e-27  1.8746e-27  4.3481e-27  1.883e-27  7.6428e-27  1.8981e-27  1.3506e-26  1.925e-27  2.3945e-26  1.9729e-27  4.2531e-26  2.0585e-27  7.5735e-26  2.212e-27  1.3515e-25  2.4892e-27  2.4192e-25  2.9951e-27  4.3504e-25  3.9303e-27  7.8755e-25  5.6831e-27  1.4375e-24
      3.45  1.8632e-27  1.7794e-28  1.8633e-27  2.1343e-28  1.8634e-27  2.7654e-28  1.8637e-27  3.8878e-28  1.8642e-27  5.8836e-28  1.865e-27  9.433e-28  1.8665e-27  1.5745e-27  1.8692e-27  2.6972e-27  1.8741e-27  4.694e-27  1.8826e-27  8.2465e-27  1.8978e-27  1.4569e-26  1.925e-27  2.5827e-26  1.9733e-27  4.5874e-26  2.0596e-27  8.1707e-26  2.2143e-27  1.4588e-25  2.4931e-27  2.6139e-25  3.0003e-27  4.7093e-25  3.9344e-27  8.5516e-25  5.6779e-27  1.5673e-24
      3.50  1.8625e-27  1.9908e-28  1.8626e-27  2.3763e-28  1.8628e-27  3.0619e-28  1.863e-27  4.2811e-28  1.8635e-27  6.4492e-28  1.8644e-27  1.0305e-27  1.8659e-27  1.7162e-27  1.8687e-27  2.9357e-27  1.8735e-27  5.105e-27  1.8822e-27  8.9643e-27  1.8976e-27  1.5833e-26  1.925e-27  2.8065e-26  1.9738e-27  4.9873e-26  2.061e-27  8.8805e-26  2.2171e-27  1.5862e-25  2.4978e-27  2.8446e-25  3.007e-27  5.1338e-25  3.9416e-27  9.3526e-25  5.6784e-27  1.7227e-24
      3.55  1.8618e-27  2.2353e-28  1.8619e-27  2.6578e-28  1.8621e-27  3.409e-28  1.8623e-27  4.7449e-28  1.8628e-27  7.1206e-28  1.8637e-27  1.1345e-27  1.8653e-27  1.8859e-27  1.868e-27  3.2222e-27  1.873e-27  5.5992e-27  1.8817e-27  9.8282e-27  1.8973e-27  1.7355e-26  1.9251e-27  3.076e-26  1.9745e-27  5.4663e-26  2.0627e-27  9.7345e-26  2.2203e-27  1.7393e-25  2.5035e-27  3.1212e-25  3.0158e-27  5.641e-25  3.9527e-27  1.0308e-24  5.6865e-27  1.9091e-24
      3.60  1.8611e-27  2.5155e-28  1.8612e-27  2.9825e-28  1.8613e-27  3.8128e-28  1.8616e-27  5.2894e-28  1.8621e-27  7.9152e-28  1.863e-27  1.2585e-27  1.8646e-27  2.089e-27  1.8674e-27  3.566e-27  1.8724e-27  6.1934e-27  1.8813e-27  1.0868e-26  1.8971e-27  1.9188e-26  1.9252e-27  3.4006e-26  1.9753e-27  6.0431e-26  2.0646e-27  1.0762e-25  2.2241e-27  1.9233e-25  2.5103e-27  3.453e-25  3.0268e-27  6.2472e-25  3.9682e-27  1.1443e-24  5.7036e-27  2.1305e-24
      3.65  1.8603e-27  2.8379e-28  1.8604e-27  3.3589e-28  1.8605e-27  4.2855e-28  1.8608e-27  5.9332e-28  1.8613e-27  8.8633e-28  1.8622e-27  1.4074e-27  1.8638e-27  2.3341e-27  1.8667e-27  3.9824e-27  1.8718e-27  6.9142e-27  1.8808e-27  1.213e-26  1.8968e-27  2.1415e-26  1.9254e-27  3.7951e-26  1.9762e-27  6.7439e-26  2.0668e-27  1.201e-25  2.2286e-27  2.1466e-25  2.5184e-27  3.8547e-25  3.0406e-27  6.9776e-25  3.9896e-27   1.28e-24  5.7324e-27  2.392e-24
      3.70  1.8595e-27  3.2167e-28  1.8596e-27  3.8043e-28  1.8597e-27  4.8493e-28   1.86e-27  6.7076e-28  1.8605e-27  1.0012e-27  1.8615e-27  1.5889e-27  1.8631e-27  2.6341e-27  1.866e-27  4.493e-27  1.8712e-27  7.7996e-27  1.8803e-27  1.3683e-26  1.8967e-27  2.4153e-26  1.9257e-27  4.2802e-26  1.9775e-27  7.6057e-26  2.0697e-27  1.3544e-25  2.2342e-27  2.4205e-25  2.5287e-27  4.346e-25  3.0584e-27  7.8659e-25  4.019e-27  1.443e-24  5.7782e-27  2.6994e-24
      3.75  1.8586e-27  3.7389e-28  1.8587e-27  4.4104e-28  1.8589e-27  5.6046e-28  1.8592e-27  7.7281e-28  1.8597e-27  1.1504e-27  1.8607e-27  1.822e-27  1.8623e-27  3.0164e-27  1.8653e-27  5.1406e-27  1.8706e-27  8.9189e-27   1.88e-27  1.5641e-26  1.8967e-27  2.7605e-26  1.9264e-27  4.8911e-26  1.9792e-27  8.6897e-26  2.0734e-27  1.5471e-25  2.2414e-27  2.7639e-25  2.5419e-27  4.9595e-25  3.0819e-27  8.9666e-25  4.0594e-27  1.6418e-24  5.8459e-27  3.0616e-24
      3.80  1.908e-27  5.126e-28  1.9081e-27  5.9061e-28  1.9083e-27  7.2934e-28  1.9086e-27  9.7605e-28  1.9091e-27  1.4148e-27  1.9101e-27  2.195e-27  1.9118e-27  3.5825e-27  1.9148e-27  6.0502e-27  1.9201e-27  1.0439e-26  1.9296e-27  1.8248e-26  1.9464e-27  3.2144e-26  1.9765e-27  5.6887e-26  2.0299e-27  1.0099e-25  2.1251e-27  1.7967e-25  2.295e-27  3.2071e-25  2.599e-27  5.7472e-25  3.1459e-27  1.0365e-24  4.1377e-27  1.8888e-24  5.9544e-27  3.4896e-24
      3.85  1.9133e-27  1.2364e-27  1.9134e-27  1.3291e-27  1.9136e-27  1.494e-27  1.9139e-27  1.7872e-27  1.9144e-27  2.3087e-27  1.9154e-27  3.236e-27  1.9172e-27  4.8851e-27  1.9203e-27  7.8178e-27  1.9258e-27  1.3034e-26  1.9356e-27  2.2312e-26  1.9531e-27  3.882e-26  1.9843e-27   6.82e-26  2.0397e-27  1.2053e-25  2.1384e-27  2.1377e-25  2.3144e-27  3.8049e-25  2.6291e-27  6.7943e-25  3.194e-27  1.2186e-24  4.2158e-27  2.1988e-24  6.0822e-27  3.9897e-24
      3.90  1.9192e-27  5.3343e-27  1.9193e-27  5.4481e-27  1.9195e-27  5.6505e-27  1.9198e-27  6.0104e-27  1.9204e-27  6.6505e-27  1.9214e-27  7.7886e-27  1.9232e-27  9.8125e-27  1.9265e-27  1.3412e-26  1.9323e-27  1.9812e-26  1.9426e-27  3.1194e-26  1.961e-27  5.1435e-26  1.9936e-27  8.7433e-26  2.0517e-27  1.5145e-25  2.1551e-27  2.6525e-25  2.3392e-27  4.6781e-25  2.6677e-27  8.2811e-25  3.2554e-27  1.4685e-24  4.3132e-27  2.6027e-24  6.2335e-27  4.5803e-24
      3.95  1.9256e-27  2.5585e-26  1.9257e-27  2.5728e-26  1.9259e-27  2.5984e-26  1.9263e-27  2.6439e-26  1.9269e-27  2.7247e-26  1.928e-27  2.8685e-26  1.9299e-27  3.1242e-26  1.9334e-27  3.5787e-26  1.9395e-27  4.3869e-26  1.9505e-27  5.8235e-26  1.9699e-27  8.3764e-26  2.0045e-27  1.2911e-25  2.066e-27  2.0946e-25  2.1753e-27  3.5197e-25  2.3697e-27  6.0361e-25  2.7153e-27  1.0454e-24   3.33e-27  1.8127e-24  4.4256e-27  3.1182e-24  6.392e-27  5.2554e-24
