# This was generated using Cloudy10 and the columns are ordered 
# as log10 of the fraction of the metallicity to the solar metallicity
# 'h_*_Z' and 'c_*_Z' stands for cooling and heating respectively 
# at * metalicity
#
# NOTE: This was generated separately from loop_coolingcurve_w_UV.py
#       using Output_metals_w_redshift.py.
#
# Redshift = 4.0
# hden = 0.5
#
#     temp   h_-3.00_Z   c_-3.00_Z   h_-2.75_Z   c_-2.75_Z   h_-2.50_Z   c_-2.50_Z   h_-2.25_Z   c_-2.25_Z   h_-2.00_Z   c_-2.00_Z   h_-1.75_Z   c_-1.75_Z   h_-1.50_Z   c_-1.50_Z   h_-1.25_Z   c_-1.25_Z   h_-1.00_Z   c_-1.00_Z   h_-0.75_Z   c_-0.75_Z   h_-0.50_Z   c_-0.50_Z   h_-0.25_Z   c_-0.25_Z    h_0.00_Z    c_0.00_Z    h_0.25_Z    c_0.25_Z    h_0.50_Z    c_0.50_Z    h_0.75_Z    c_0.75_Z    h_1.00_Z    c_1.00_Z    h_1.25_Z    c_1.25_Z    h_1.50_Z    c_1.50_Z 
      1.00  1.8526e-24  3.5800e-28  1.8526e-24  3.5802e-28  1.8527e-24  3.5806e-28  1.8527e-24  3.5813e-28  1.8528e-24  3.5826e-28  1.8529e-24  3.5848e-28  1.8531e-24  3.5889e-28  1.8534e-24  3.5961e-28  1.8540e-24  3.6088e-28  1.8552e-24  3.6315e-28  1.8571e-24  3.6719e-28  1.8607e-24  3.7437e-28  1.8669e-24  3.8716e-28  1.8781e-24  4.0994e-28  1.8979e-24  4.5058e-28  1.9332e-24  5.2322e-28  1.9961e-24  6.5363e-28  2.1085e-24  8.8933e-28  2.3099e-24  1.3203e-27
      1.05  1.8472e-24  3.9992e-28  1.8473e-24  3.9997e-28  1.8473e-24  4.0007e-28  1.8473e-24  4.0023e-28  1.8474e-24  4.0053e-28  1.8475e-24  4.0105e-28  1.8477e-24  4.0198e-28  1.8480e-24  4.0364e-28  1.8487e-24  4.0659e-28  1.8498e-24  4.1183e-28  1.8517e-24  4.2116e-28  1.8552e-24  4.3775e-28  1.8615e-24  4.6728e-28  1.8726e-24  5.1988e-28  1.8923e-24  6.1368e-28  1.9275e-24  7.8135e-28  1.9901e-24  1.0822e-27  2.1020e-24  1.6257e-27  2.3025e-24  2.6183e-27
      1.10  1.8417e-24  4.4669e-28  1.8417e-24  4.4680e-28  1.8417e-24  4.4701e-28  1.8418e-24  4.4738e-28  1.8418e-24  4.4802e-28  1.8419e-24  4.4918e-28  1.8421e-24  4.5123e-28  1.8425e-24  4.5488e-28  1.8431e-24  4.6138e-28  1.8442e-24  4.7293e-28  1.8462e-24  4.9347e-28  1.8497e-24  5.3003e-28  1.8559e-24  5.9508e-28  1.8669e-24  7.1096e-28  1.8866e-24  9.1761e-28  1.9216e-24  1.2869e-27  1.9840e-24  1.9495e-27  2.0954e-24  3.1459e-27  2.2950e-24  5.3304e-27
      1.15  1.8359e-24  5.0180e-28  1.8360e-24  5.0204e-28  1.8360e-24  5.0247e-28  1.8360e-24  5.0323e-28  1.8361e-24  5.0458e-28  1.8362e-24  5.0698e-28  1.8364e-24  5.1124e-28  1.8367e-24  5.1883e-28  1.8373e-24  5.3232e-28  1.8384e-24  5.5631e-28  1.8404e-24  5.9899e-28  1.8439e-24  6.7493e-28  1.8500e-24  8.1008e-28  1.8610e-24  1.0508e-27  1.8806e-24  1.4800e-27  1.9154e-24  2.2472e-27  1.9775e-24  3.6233e-27  2.0884e-24  6.1083e-27  2.2870e-24  1.0646e-26
      1.20  1.8300e-24  5.6993e-28  1.8300e-24  5.7040e-28  1.8300e-24  5.7123e-28  1.8301e-24  5.7271e-28  1.8301e-24  5.7534e-28  1.8302e-24  5.8001e-28  1.8304e-24  5.8833e-28  1.8308e-24  6.0312e-28  1.8314e-24  6.2942e-28  1.8325e-24  6.7620e-28  1.8344e-24  7.5941e-28  1.8379e-24  9.0745e-28  1.8440e-24  1.1709e-27  1.8550e-24  1.6402e-27  1.8744e-24  2.4771e-27  1.9091e-24  3.9727e-27  1.9709e-24  6.6559e-27  2.0811e-24  1.1501e-26  2.2786e-24  2.0350e-26
      1.25  1.8239e-24  6.4561e-28  1.8239e-24  6.4647e-28  1.8239e-24  6.4799e-28  1.8239e-24  6.5070e-28  1.8240e-24  6.5551e-28  1.8241e-24  6.6407e-28  1.8243e-24  6.7929e-28  1.8247e-24  7.0636e-28  1.8253e-24  7.5450e-28  1.8263e-24  8.4012e-28  1.8283e-24  9.9243e-28  1.8317e-24  1.2634e-27  1.8378e-24  1.7457e-27  1.8487e-24  2.6047e-27  1.8681e-24  4.1366e-27  1.9025e-24  6.8744e-27  1.9639e-24  1.1786e-26  2.0735e-24  2.0658e-26  2.2698e-24  3.6864e-26
      1.30  1.8175e-24  7.2982e-28  1.8176e-24  7.3129e-28  1.8176e-24  7.3392e-28  1.8176e-24  7.3858e-28  1.8177e-24  7.4688e-28  1.8178e-24  7.6164e-28  1.8180e-24  7.8788e-28  1.8183e-24  8.3454e-28  1.8189e-24  9.1754e-28  1.8200e-24  1.0651e-27  1.8219e-24  1.3277e-27  1.8253e-24  1.7949e-27  1.8314e-24  2.6263e-27  1.8422e-24  4.1073e-27  1.8615e-24  6.7483e-27  1.8957e-24  1.1469e-26  1.9567e-24  1.9938e-26  2.0657e-24  3.5237e-26  2.2607e-24  6.3194e-26
      1.35  1.8110e-24  8.2354e-28  1.8110e-24  8.2595e-28  1.8110e-24  8.3023e-28  1.8111e-24  8.3784e-28  1.8111e-24  8.5137e-28  1.8112e-24  8.7543e-28  1.8114e-24  9.1822e-28  1.8118e-24  9.9433e-28  1.8124e-24  1.1297e-27  1.8134e-24  1.3704e-27  1.8153e-24  1.7986e-27  1.8187e-24  2.5604e-27  1.8248e-24  3.9163e-27  1.8355e-24  6.3315e-27  1.8546e-24  1.0639e-26  1.8887e-24  1.8337e-26  1.9493e-24  3.2151e-26  2.0576e-24  5.7109e-26  2.2514e-24  1.0273e-25
      1.40  1.8042e-24  9.2791e-28  1.8042e-24  9.3164e-28  1.8043e-24  9.3827e-28  1.8043e-24  9.5006e-28  1.8044e-24  9.7104e-28  1.8045e-24  1.0083e-27  1.8047e-24  1.0747e-27  1.8050e-24  1.1926e-27  1.8056e-24  1.4024e-27  1.8067e-24  1.7755e-27  1.8086e-24  2.4392e-27  1.8119e-24  3.6199e-27  1.8179e-24  5.7216e-27  1.8286e-24  9.4651e-27  1.8476e-24  1.6141e-26  1.8814e-24  2.8075e-26  1.9417e-24  4.9489e-26  2.0492e-24  8.8186e-26  2.2418e-24  1.5894e-25
      1.45  1.7972e-24  1.0441e-27  1.7973e-24  1.0497e-27  1.7973e-24  1.0595e-27  1.7973e-24  1.0769e-27  1.7974e-24  1.1080e-27  1.7975e-24  1.1632e-27  1.7977e-24  1.2613e-27  1.7980e-24  1.4359e-27  1.7986e-24  1.7464e-27  1.7997e-24  2.2986e-27  1.8015e-24  3.2809e-27  1.8049e-24  5.0285e-27  1.8109e-24  8.1392e-27  1.8215e-24  1.3680e-26  1.8403e-24  2.3562e-26  1.8739e-24  4.1225e-26  1.9338e-24  7.2925e-26  2.0407e-24  1.3022e-25  2.2319e-24  2.3499e-25
      1.50  1.7900e-24  1.1736e-27  1.7900e-24  1.1814e-27  1.7901e-24  1.1953e-27  1.7901e-24  1.2201e-27  1.7901e-24  1.2642e-27  1.7903e-24  1.3426e-27  1.7904e-24  1.4820e-27  1.7908e-24  1.7300e-27  1.7914e-24  2.1709e-27  1.7924e-24  2.9551e-27  1.7943e-24  4.3501e-27  1.7976e-24  6.8321e-27  1.8035e-24  1.1250e-26  1.8141e-24  1.9119e-26  1.8328e-24  3.3153e-26  1.8662e-24  5.8241e-26  1.9257e-24  1.0327e-25  2.0319e-24  1.8465e-25  2.2218e-24  3.3352e-25
      1.55  1.7826e-24  1.3178e-27  1.7826e-24  1.3286e-27  1.7826e-24  1.3476e-27  1.7826e-24  1.3816e-27  1.7827e-24  1.4419e-27  1.7828e-24  1.5492e-27  1.7830e-24  1.7401e-27  1.7833e-24  2.0795e-27  1.7839e-24  2.6831e-27  1.7849e-24  3.7567e-27  1.7868e-24  5.6665e-27  1.7901e-24  9.0642e-27  1.7960e-24  1.5112e-26  1.8065e-24  2.5885e-26  1.8251e-24  4.5098e-26  1.8583e-24  7.9445e-26  1.9174e-24  1.4109e-25  2.0228e-24  2.5253e-25  2.2114e-24  4.5641e-25
      1.60  1.7749e-24  1.4783e-27  1.7749e-24  1.4925e-27  1.7749e-24  1.5178e-27  1.7749e-24  1.5628e-27  1.7750e-24  1.6428e-27  1.7751e-24  1.7850e-27  1.7753e-24  2.0379e-27  1.7756e-24  2.4876e-27  1.7762e-24  3.2875e-27  1.7772e-24  4.7100e-27  1.7791e-24  7.2405e-27  1.7824e-24  1.1743e-26  1.7882e-24  1.9757e-26  1.7986e-24  3.4031e-26  1.8171e-24  5.9491e-26  1.8501e-24  1.0500e-25  1.9088e-24  1.8670e-25  2.0135e-24  3.3439e-25  2.2008e-24  6.0463e-25
      1.65  1.7669e-24  1.6568e-27  1.7669e-24  1.6751e-27  1.7669e-24  1.7077e-27  1.7670e-24  1.7656e-27  1.7670e-24  1.8686e-27  1.7671e-24  2.0518e-27  1.7673e-24  2.3775e-27  1.7676e-24  2.9567e-27  1.7682e-24  3.9869e-27  1.7693e-24  5.8191e-27  1.7711e-24  9.0782e-27  1.7744e-24  1.4877e-26  1.7802e-24  2.5198e-26  1.7905e-24  4.3584e-26  1.8089e-24  7.6375e-26  1.8416e-24  1.3500e-25  1.8999e-24  2.4023e-25  2.0039e-24  4.3048e-25  2.1899e-24  7.7864e-25
      1.70  1.7587e-24  1.8552e-27  1.7587e-24  1.8782e-27  1.7587e-24  1.9191e-27  1.7587e-24  1.9919e-27  1.7588e-24  2.1214e-27  1.7589e-24  2.3517e-27  1.7591e-24  2.7612e-27  1.7594e-24  3.4894e-27  1.7600e-24  4.7845e-27  1.7610e-24  7.0879e-27  1.7628e-24  1.1185e-26  1.7661e-24  1.8476e-26  1.7718e-24  3.1452e-26  1.7821e-24  5.4566e-26  1.8003e-24  9.5793e-26  1.8328e-24  1.6950e-25  1.8907e-24  3.0181e-25  1.9939e-24  5.4103e-25  2.1786e-24  9.7888e-25
      1.75  1.7502e-24  2.0755e-27  1.7502e-24  2.1039e-27  1.7502e-24  2.1543e-27  1.7503e-24  2.2441e-27  1.7503e-24  2.4037e-27  1.7504e-24  2.6875e-27  1.7506e-24  3.1922e-27  1.7509e-24  4.0897e-27  1.7515e-24  5.6860e-27  1.7525e-24  8.5250e-27  1.7543e-24  1.3575e-26  1.7575e-24  2.2561e-26  1.7633e-24  3.8554e-26  1.7734e-24  6.7044e-26  1.7915e-24  1.1786e-25  1.8238e-24  2.0871e-25  1.8812e-24  3.7180e-25  1.9837e-24  6.6672e-25  2.1669e-24  1.2066e-24
      1.80  1.7414e-24  2.3208e-27  1.7414e-24  2.3552e-27  1.7415e-24  2.4165e-27  1.7415e-24  2.5254e-27  1.7415e-24  2.7191e-27  1.7416e-24  3.0635e-27  1.7418e-24  3.6760e-27  1.7421e-24  4.7652e-27  1.7427e-24  6.7024e-27  1.7437e-24  1.0148e-26  1.7455e-24  1.6277e-26  1.7487e-24  2.7181e-26  1.7544e-24  4.6592e-26  1.7645e-24  8.1167e-26  1.7825e-24  1.4284e-25  1.8144e-24  2.5310e-25  1.8714e-24  4.5107e-25  1.9731e-24  8.0908e-25  2.1548e-24  1.4646e-24
      1.85  1.7324e-24  2.5933e-27  1.7324e-24  2.6346e-27  1.7324e-24  2.7081e-27  1.7324e-24  2.8388e-27  1.7325e-24  3.0712e-27  1.7326e-24  3.4845e-27  1.7328e-24  4.2195e-27  1.7331e-24  5.5266e-27  1.7336e-24  7.8513e-27  1.7347e-24  1.1986e-26  1.7364e-24  1.9341e-26  1.7396e-24  3.2426e-26  1.7452e-24  5.5719e-26  1.7552e-24  9.7212e-26  1.7731e-24  1.7122e-25  1.8048e-24  3.0356e-25  1.8613e-24  5.4117e-25  1.9621e-24  9.7094e-25  2.1422e-24  1.7580e-24
      1.90  1.7230e-24  2.8961e-27  1.7230e-24  2.9453e-27  1.7231e-24  3.0328e-27  1.7231e-24  3.1884e-27  1.7231e-24  3.4651e-27  1.7232e-24  3.9572e-27  1.7234e-24  4.8323e-27  1.7237e-24  6.3885e-27  1.7243e-24  9.1563e-27  1.7253e-24  1.4079e-26  1.7270e-24  2.2836e-26  1.7302e-24  3.8416e-26  1.7358e-24  6.6149e-26  1.7457e-24  1.1555e-25  1.7634e-24  2.0368e-25  1.7948e-24  3.6126e-25  1.8508e-24  6.4422e-25  1.9507e-24  1.1561e-24  2.1293e-24  2.0939e-24
      1.95  1.7134e-24  3.2324e-27  1.7134e-24  3.2906e-27  1.7134e-24  3.3940e-27  1.7134e-24  3.5779e-27  1.7135e-24  3.9050e-27  1.7136e-24  4.4867e-27  1.7138e-24  5.5212e-27  1.7141e-24  7.3608e-27  1.7146e-24  1.0632e-26  1.7156e-24  1.6451e-26  1.7174e-24  2.6802e-26  1.7205e-24  4.5219e-26  1.7260e-24  7.8002e-26  1.7359e-24  1.3640e-25  1.7535e-24  2.4057e-25  1.7847e-24  4.2685e-25  1.8403e-24  7.6134e-25  1.9396e-24  1.3665e-24  2.1170e-24  2.4750e-24
      2.00  1.7034e-24  3.6065e-27  1.7034e-24  3.6753e-27  1.7034e-24  3.7976e-27  1.7035e-24  4.0150e-27  1.7035e-24  4.4018e-27  1.7036e-24  5.0894e-27  1.7038e-24  6.3124e-27  1.7041e-24  8.4873e-27  1.7047e-24  1.2355e-26  1.7056e-24  1.9235e-26  1.7074e-24  3.1472e-26  1.7105e-24  5.3246e-26  1.7159e-24  9.2005e-26  1.7257e-24  1.6105e-25  1.7431e-24  2.8422e-25  1.7740e-24  5.0449e-25  1.8291e-24  9.0009e-25  1.9274e-24  1.6159e-24  2.1030e-24  2.9279e-24
      2.05  1.6931e-24  4.0237e-27  1.6931e-24  4.1049e-27  1.6932e-24  4.2492e-27  1.6932e-24  4.5059e-27  1.6932e-24  4.9624e-27  1.6933e-24  5.7742e-27  1.6935e-24  7.2178e-27  1.6938e-24  9.7851e-27  1.6944e-24  1.4351e-26  1.6953e-24  2.2472e-26  1.6970e-24  3.6917e-26  1.7001e-24  6.2620e-26  1.7055e-24  1.0837e-25  1.7152e-24  1.8989e-25  1.7324e-24  3.3530e-25  1.7630e-24  5.9537e-25  1.8175e-24  1.0626e-24  1.9147e-24  1.9082e-24  2.0883e-24  3.4588e-24
      2.10  1.6825e-24  4.4875e-27  1.6825e-24  4.5831e-27  1.6825e-24  4.7531e-27  1.6826e-24  5.0553e-27  1.6826e-24  5.5928e-27  1.6827e-24  6.5486e-27  1.6829e-24  8.2484e-27  1.6832e-24  1.1271e-26  1.6837e-24  1.6647e-26  1.6847e-24  2.6209e-26  1.6864e-24  4.3218e-26  1.6894e-24  7.3483e-26  1.6948e-24  1.2736e-25  1.7043e-24  2.2334e-25  1.7213e-24  3.9459e-25  1.7516e-24  7.0089e-25  1.8054e-24  1.2512e-24  1.9015e-24  2.2477e-24  2.0731e-24  4.0758e-24
      2.15  1.6716e-24  5.0029e-27  1.6716e-24  5.1150e-27  1.6716e-24  5.3144e-27  1.6716e-24  5.6690e-27  1.6717e-24  6.2996e-27  1.6718e-24  7.4209e-27  1.6719e-24  9.4150e-27  1.6722e-24  1.2961e-26  1.6728e-24  1.9268e-26  1.6737e-24  3.0486e-26  1.6754e-24  5.0441e-26  1.6784e-24  8.5947e-26  1.6837e-24  1.4915e-25  1.6931e-24  2.6177e-25  1.7099e-24  4.6269e-25  1.7398e-24  8.2211e-25  1.7930e-24  1.4680e-24  1.8879e-24  2.6378e-24  2.0574e-24  4.7851e-24
      2.20  1.6603e-24  5.5752e-27  1.6603e-24  5.7061e-27  1.6603e-24  5.9389e-27  1.6603e-24  6.3527e-27  1.6604e-24  7.0887e-27  1.6605e-24  8.3975e-27  1.6606e-24  1.0725e-26  1.6609e-24  1.4864e-26  1.6614e-24  2.2226e-26  1.6624e-24  3.5319e-26  1.6640e-24  5.8610e-26  1.6670e-24  1.0005e-25  1.6722e-24  1.7383e-25  1.6816e-24  3.0528e-25  1.6981e-24  5.3982e-25  1.7277e-24  9.5943e-25  1.7802e-24  1.7136e-24  1.8739e-24  3.0799e-24  2.0413e-24  5.5887e-24
      2.25  1.6486e-24  6.2103e-27  1.6486e-24  6.3620e-27  1.6486e-24  6.6319e-27  1.6487e-24  7.1118e-27  1.6487e-24  7.9652e-27  1.6488e-24  9.4827e-27  1.6490e-24  1.2181e-26  1.6493e-24  1.6981e-26  1.6498e-24  2.5516e-26  1.6507e-24  4.0698e-26  1.6523e-24  6.7705e-26  1.6552e-24  1.1576e-25  1.6604e-24  2.0131e-25  1.6696e-24  3.5373e-25  1.6860e-24  6.2572e-25  1.7152e-24  1.1123e-24  1.7671e-24  1.9870e-24  1.8596e-24  3.5721e-24  2.0249e-24  6.4838e-24
      2.30  1.6366e-24  6.9170e-27  1.6366e-24  7.0916e-27  1.6366e-24  7.4021e-27  1.6366e-24  7.9541e-27  1.6367e-24  8.9359e-27  1.6368e-24  1.0682e-26  1.6369e-24  1.3787e-26  1.6372e-24  1.9308e-26  1.6377e-24  2.9128e-26  1.6386e-24  4.6594e-26  1.6403e-24  7.7665e-26  1.6431e-24  1.3295e-25  1.6482e-24  2.3137e-25  1.6573e-24  4.0674e-25  1.6734e-24  7.1968e-25  1.7022e-24  1.2796e-24  1.7533e-24  2.2862e-24  1.8445e-24  4.1106e-24  2.0074e-24  7.4627e-24
      2.35  1.6242e-24  7.6999e-27  1.6242e-24  7.8990e-27  1.6242e-24  8.2531e-27  1.6242e-24  8.8828e-27  1.6243e-24  1.0002e-26  1.6244e-24  1.1994e-26  1.6245e-24  1.5535e-26  1.6248e-24  2.1832e-26  1.6253e-24  3.3032e-26  1.6262e-24  5.2953e-26  1.6278e-24  8.8390e-26  1.6306e-24  1.5145e-25  1.6357e-24  2.6370e-25  1.6447e-24  4.6372e-25  1.6606e-24  8.2066e-25  1.6890e-24  1.4594e-24  1.7396e-24  2.6076e-24  1.8298e-24  4.6892e-24  1.9908e-24  8.5145e-24
      2.40  1.6114e-24  8.5664e-27  1.6114e-24  8.7914e-27  1.6114e-24  9.1915e-27  1.6114e-24  9.9030e-27  1.6115e-24  1.1168e-26  1.6116e-24  1.3418e-26  1.6117e-24  1.7420e-26  1.6120e-24  2.4536e-26  1.6125e-24  3.7191e-26  1.6134e-24  5.9701e-26  1.6150e-24  9.9743e-26  1.6178e-24  1.7100e-25  1.6228e-24  2.9784e-25  1.6317e-24  5.2387e-25  1.6474e-24  9.2722e-25  1.6755e-24  1.6490e-24  1.7256e-24  2.9467e-24  1.8147e-24  5.2994e-24  1.9739e-24  9.6237e-24
      2.45  1.5982e-24  9.5247e-27  1.5982e-24  9.7765e-27  1.5982e-24  1.0224e-26  1.5983e-24  1.1021e-26  1.5983e-24  1.2437e-26  1.5984e-24  1.4955e-26  1.5986e-24  1.9434e-26  1.5988e-24  2.7399e-26  1.5993e-24  4.1565e-26  1.6002e-24  6.6760e-26  1.6018e-24  1.1158e-25  1.6045e-24  1.9134e-25  1.6095e-24  3.3332e-25  1.6183e-24  5.8632e-25  1.6339e-24  1.0378e-24  1.6616e-24  1.8458e-24  1.7111e-24  3.2985e-24  1.7993e-24  5.9324e-24  1.9567e-24  1.0774e-23
      2.50  1.5846e-24  1.0584e-26  1.5846e-24  1.0863e-26  1.5846e-24  1.1360e-26  1.5847e-24  1.2243e-26  1.5847e-24  1.3813e-26  1.5848e-24  1.6606e-26  1.5850e-24  2.1573e-26  1.5852e-24  3.0405e-26  1.5857e-24  4.6114e-26  1.5866e-24  7.4054e-26  1.5881e-24  1.2376e-25  1.5909e-24  2.1220e-25  1.5958e-24  3.6965e-25  1.6044e-24  6.5022e-25  1.6199e-24  1.1509e-24  1.6474e-24  2.0469e-24  1.6962e-24  3.6581e-24  1.7834e-24  6.5791e-24  1.9390e-24  1.1949e-23
      2.55  1.5706e-24  1.1759e-26  1.5706e-24  1.2066e-26  1.5706e-24  1.2612e-26  1.5707e-24  1.3583e-26  1.5707e-24  1.5308e-26  1.5708e-24  1.8378e-26  1.5710e-24  2.3836e-26  1.5712e-24  3.3542e-26  1.5717e-24  5.0805e-26  1.5726e-24  8.1509e-26  1.5741e-24  1.3613e-25  1.5768e-24  2.3332e-25  1.5816e-24  4.0636e-25  1.5902e-24  7.1468e-25  1.6055e-24  1.2649e-24  1.6326e-24  2.2496e-24  1.6810e-24  4.0203e-24  1.7671e-24  7.2304e-24  1.9210e-24  1.3132e-23
      2.60  1.5562e-24  1.3057e-26  1.5562e-24  1.3392e-26  1.5562e-24  1.3986e-26  1.5562e-24  1.5044e-26  1.5563e-24  1.6924e-26  1.5564e-24  2.0268e-26  1.5565e-24  2.6215e-26  1.5568e-24  3.6791e-26  1.5573e-24  5.5600e-26  1.5581e-24  8.9054e-26  1.5596e-24  1.4857e-25  1.5623e-24  2.5446e-25  1.5671e-24  4.4299e-25  1.5756e-24  7.7893e-25  1.5907e-24  1.3785e-24  1.6175e-24  2.4513e-24  1.6653e-24  4.3806e-24  1.7505e-24  7.8781e-24  1.9025e-24  1.4308e-23
      2.65  1.5413e-24  1.4490e-26  1.5413e-24  1.4852e-26  1.5414e-24  1.5494e-26  1.5414e-24  1.6638e-26  1.5414e-24  1.8670e-26  1.5415e-24  2.2285e-26  1.5417e-24  2.8714e-26  1.5419e-24  4.0147e-26  1.5424e-24  6.0481e-26  1.5432e-24  9.6646e-26  1.5447e-24  1.6098e-25  1.5474e-24  2.7546e-25  1.5521e-24  4.7927e-25  1.5605e-24  8.4244e-25  1.5754e-24  1.4906e-24  1.6020e-24  2.6504e-24  1.6492e-24  4.7359e-24  1.7334e-24  8.5168e-24  1.8837e-24  1.5467e-23
      2.70  1.5260e-24  1.6071e-26  1.5260e-24  1.6459e-26  1.5261e-24  1.7149e-26  1.5261e-24  1.8376e-26  1.5261e-24  2.0558e-26  1.5262e-24  2.4439e-26  1.5264e-24  3.1340e-26  1.5266e-24  4.3612e-26  1.5271e-24  6.5439e-26  1.5279e-24  1.0426e-25  1.5294e-24  1.7332e-25  1.5320e-24  2.9621e-25  1.5367e-24  5.1499e-25  1.5450e-24  9.0483e-25  1.5597e-24  1.6005e-24  1.5860e-24  2.8455e-24  1.6327e-24  5.0842e-24  1.7159e-24  9.1422e-24  1.8644e-24  1.6601e-23
      2.75  1.5103e-24  1.7813e-26  1.5103e-24  1.8227e-26  1.5103e-24  1.8963e-26  1.5103e-24  2.0272e-26  1.5104e-24  2.2600e-26  1.5105e-24  2.6739e-26  1.5106e-24  3.4101e-26  1.5109e-24  4.7192e-26  1.5113e-24  7.0474e-26  1.5122e-24  1.1189e-25  1.5136e-24  1.8555e-25  1.5162e-24  3.1664e-25  1.5208e-24  5.5001e-25  1.5290e-24  9.6584e-25  1.5436e-24  1.7079e-24  1.5695e-24  3.0359e-24  1.6157e-24  5.4236e-24  1.6980e-24  9.7514e-24  1.8449e-24  1.7705e-23
      2.80  1.4941e-24  1.9747e-26  1.4941e-24  2.0186e-26  1.4941e-24  2.0967e-26  1.4941e-24  2.2355e-26  1.4942e-24  2.4825e-26  1.4943e-24  2.9216e-26  1.4944e-24  3.7026e-26  1.4947e-24  5.0915e-26  1.4951e-24  7.5615e-26  1.4959e-24  1.1955e-25  1.4974e-24  1.9770e-25  1.4999e-24  3.3677e-25  1.5045e-24  5.8436e-25  1.5126e-24  1.0255e-24  1.5270e-24  1.8128e-24  1.5527e-24  3.2215e-24  1.5983e-24  5.7544e-24  1.6797e-24  1.0345e-23  1.8249e-24  1.8780e-23
      2.85  1.4774e-24  2.1877e-26  1.4774e-24  2.2341e-26  1.4774e-24  2.3166e-26  1.4775e-24  2.4632e-26  1.4775e-24  2.7240e-26  1.4776e-24  3.1877e-26  1.4777e-24  4.0124e-26  1.4780e-24  5.4790e-26  1.4784e-24  8.0874e-26  1.4792e-24  1.2727e-25  1.4807e-24  2.0980e-25  1.4832e-24  3.5665e-25  1.4877e-24  6.1810e-25  1.4957e-24  1.0839e-24  1.5100e-24  1.9153e-24  1.5354e-24  3.4029e-24  1.5805e-24  6.0771e-24  1.6609e-24  1.0923e-23  1.8045e-24  1.9826e-23
      2.90  1.4603e-24  2.4225e-26  1.4603e-24  2.4713e-26  1.4603e-24  2.5580e-26  1.4603e-24  2.7123e-26  1.4604e-24  2.9866e-26  1.4605e-24  3.4744e-26  1.4606e-24  4.3418e-26  1.4608e-24  5.8844e-26  1.4613e-24  8.6280e-26  1.4621e-24  1.3508e-25  1.4635e-24  2.2188e-25  1.4660e-24  3.7635e-25  1.4705e-24  6.5134e-25  1.4784e-24  1.1413e-24  1.4925e-24  2.0157e-24  1.5176e-24  3.5803e-24  1.5622e-24  6.3926e-24  1.6417e-24  1.1489e-23  1.7836e-24  2.0848e-23
      2.95  1.4427e-24  2.6820e-26  1.4427e-24  2.7331e-26  1.4427e-24  2.8241e-26  1.4427e-24  2.9857e-26  1.4428e-24  3.2733e-26  1.4428e-24  3.7846e-26  1.4430e-24  4.6939e-26  1.4432e-24  6.3110e-26  1.4437e-24  9.1870e-26  1.4444e-24  1.4302e-25  1.4458e-24  2.3402e-25  1.4483e-24  3.9594e-25  1.4527e-24  6.8421e-25  1.4606e-24  1.1978e-24  1.4745e-24  2.1144e-24  1.4993e-24  3.7543e-24  1.5434e-24  6.7020e-24  1.6220e-24  1.2042e-23  1.7623e-24  2.1849e-23
      3.00  1.4246e-24  2.9683e-26  1.4246e-24  3.0217e-26  1.4246e-24  3.1168e-26  1.4246e-24  3.2858e-26  1.4246e-24  3.5863e-26  1.4247e-24  4.1208e-26  1.4249e-24  5.0713e-26  1.4251e-24  6.7616e-26  1.4255e-24  9.7677e-26  1.4263e-24  1.5115e-25  1.4277e-24  2.4626e-25  1.4301e-24  4.1551e-25  1.4345e-24  7.1681e-25  1.4423e-24  1.2537e-24  1.4560e-24  2.2116e-24  1.4805e-24  3.9257e-24  1.5241e-24  7.0062e-24  1.6018e-24  1.2587e-23  1.7404e-24  2.2832e-23
      3.05  1.4060e-24  3.2868e-26  1.4060e-24  3.3425e-26  1.4060e-24  3.4415e-26  1.4060e-24  3.6176e-26  1.4060e-24  3.9307e-26  1.4061e-24  4.4876e-26  1.4063e-24  5.4779e-26  1.4065e-24  7.2391e-26  1.4069e-24  1.0371e-25  1.4077e-24  1.5942e-25  1.4091e-24  2.5853e-25  1.4115e-24  4.3487e-25  1.4158e-24  7.4880e-25  1.4234e-24  1.3082e-24  1.4371e-24  2.3063e-24  1.4613e-24  4.0920e-24  1.5043e-24  7.3011e-24  1.5811e-24  1.3114e-23  1.7180e-24  2.3782e-23
      3.10  1.3869e-24  3.6358e-26  1.3869e-24  3.6937e-26  1.3869e-24  3.7967e-26  1.3869e-24  3.9798e-26  1.3869e-24  4.3054e-26  1.3870e-24  4.8844e-26  1.3872e-24  5.9141e-26  1.3874e-24  7.7453e-26  1.3878e-24  1.1002e-25  1.3886e-24  1.6795e-25  1.3899e-24  2.7099e-25  1.3923e-24  4.5434e-25  1.3966e-24  7.8076e-25  1.4041e-24  1.3623e-24  1.4176e-24  2.4001e-24  1.4415e-24  4.2566e-24  1.4840e-24  7.5927e-24  1.5599e-24  1.3635e-23  1.6952e-24  2.4721e-23
      3.15  1.3673e-24  4.0231e-26  1.3673e-24  4.0832e-26  1.3673e-24  4.1901e-26  1.3673e-24  4.3802e-26  1.3673e-24  4.7182e-26  1.3674e-24  5.3193e-26  1.3676e-24  6.3883e-26  1.3678e-24  8.2894e-26  1.3682e-24  1.1670e-25  1.3690e-24  1.7684e-25  1.3703e-24  2.8382e-25  1.3727e-24  4.7417e-25  1.3769e-24  8.1303e-25  1.3843e-24  1.4168e-24  1.3976e-24  2.4941e-24  1.4212e-24  4.4213e-24  1.4632e-24  7.8841e-24  1.5381e-24  1.4154e-23  1.6718e-24  2.5658e-23
      3.20  1.3471e-24  4.4511e-26  1.3472e-24  4.5135e-26  1.3472e-24  4.6244e-26  1.3472e-24  4.8215e-26  1.3472e-24  5.1722e-26  1.3473e-24  5.7958e-26  1.3474e-24  6.9047e-26  1.3477e-24  8.8769e-26  1.3481e-24  1.2384e-25  1.3488e-24  1.8623e-25  1.3501e-24  2.9720e-25  1.3525e-24  4.9466e-25  1.3566e-24  8.4619e-25  1.3640e-24  1.4725e-24  1.3771e-24  2.5900e-24  1.4004e-24  4.5890e-24  1.4419e-24  8.1806e-24  1.5159e-24  1.4683e-23  1.6478e-24  2.6609e-23
      3.25  1.3265e-24  4.9215e-26  1.3265e-24  4.9862e-26  1.3265e-24  5.1012e-26  1.3266e-24  5.3059e-26  1.3266e-24  5.6698e-26  1.3267e-24  6.3169e-26  1.3268e-24  7.4677e-26  1.3270e-24  9.5143e-26  1.3275e-24  1.3154e-25  1.3282e-24  1.9628e-25  1.3295e-24  3.1144e-25  1.3318e-24  5.1636e-25  1.3359e-24  8.8115e-25  1.3432e-24  1.5311e-24  1.3561e-24  2.6907e-24  1.3791e-24  4.7650e-24  1.4201e-24  8.4915e-24  1.4931e-24  1.5237e-23  1.6234e-24  2.7607e-23
      3.30  1.3054e-24  5.4431e-26  1.3054e-24  5.5104e-26  1.3054e-24  5.6300e-26  1.3054e-24  5.8428e-26  1.3055e-24  6.2211e-26  1.3056e-24  6.8939e-26  1.3057e-24  8.0903e-26  1.3059e-24  1.0218e-25  1.3063e-24  1.4002e-25  1.3070e-24  2.0733e-25  1.3083e-24  3.2706e-25  1.3106e-24  5.4010e-25  1.3146e-24  9.1936e-25  1.3218e-24  1.5950e-24  1.3346e-24  2.8006e-24  1.3573e-24  4.9569e-24  1.3978e-24  8.8305e-24  1.4698e-24  1.5842e-23  1.5984e-24  2.8695e-23
      3.35  1.2838e-24  6.0160e-26  1.2838e-24  6.0862e-26  1.2838e-24  6.2111e-26  1.2838e-24  6.4331e-26  1.2838e-24  6.8279e-26  1.2839e-24  7.5300e-26  1.2840e-24  8.7785e-26  1.2843e-24  1.0999e-25  1.2847e-24  1.4948e-25  1.2854e-24  2.1971e-25  1.2866e-24  3.4466e-25  1.2889e-24  5.6697e-25  1.2929e-24  9.6273e-25  1.3000e-24  1.6678e-24  1.3126e-24  2.9258e-24  1.3350e-24  5.1758e-24  1.3749e-24  9.2173e-24  1.4460e-24  1.6532e-23  1.5728e-24  2.9937e-23
      3.40  1.2616e-24  6.6448e-26  1.2616e-24  6.7185e-26  1.2616e-24  6.8495e-26  1.2617e-24  7.0824e-26  1.2617e-24  7.4967e-26  1.2618e-24  8.2334e-26  1.2619e-24  9.5435e-26  1.2621e-24  1.1873e-25  1.2625e-24  1.6017e-25  1.2632e-24  2.3387e-25  1.2645e-24  3.6497e-25  1.2667e-24  5.9825e-25  1.2706e-24  1.0135e-24  1.2776e-24  1.7534e-24  1.2900e-24  3.0734e-24  1.3121e-24  5.4341e-24  1.3515e-24  9.6743e-24  1.4216e-24  1.7347e-23  1.5468e-24  3.1406e-23
      3.45  1.2390e-24  7.3343e-26  1.2390e-24  7.4122e-26  1.2390e-24  7.5507e-26  1.2390e-24  7.7969e-26  1.2390e-24  8.2349e-26  1.2391e-24  9.0136e-26  1.2392e-24  1.0399e-25  1.2394e-24  1.2861e-25  1.2398e-24  1.7242e-25  1.2405e-24  2.5032e-25  1.2418e-24  3.8891e-25  1.2439e-24  6.3550e-25  1.2478e-24  1.0745e-24  1.2547e-24  1.8565e-24  1.2670e-24  3.2518e-24  1.2888e-24  5.7471e-24  1.3276e-24  1.0229e-23  1.3968e-24  1.8338e-23  1.5202e-24  3.3191e-23
      3.50  1.2158e-24  8.0899e-26  1.2158e-24  8.1730e-26  1.2158e-24  8.3207e-26  1.2158e-24  8.5834e-26  1.2159e-24  9.0505e-26  1.2159e-24  9.8812e-26  1.2161e-24  1.1359e-25  1.2163e-24  1.3986e-25  1.2167e-24  1.8658e-25  1.2173e-24  2.6969e-25  1.2186e-24  4.1752e-25  1.2207e-24  6.8056e-25  1.2245e-24  1.1488e-24  1.2313e-24  1.9831e-24  1.2434e-24  3.4714e-24  1.2649e-24  6.1330e-24  1.3032e-24  1.0913e-23  1.3713e-24  1.9561e-23  1.4931e-24  3.5397e-23
      3.55  1.1921e-24  8.9270e-26  1.1921e-24  9.0165e-26  1.1921e-24  9.1758e-26  1.1922e-24  9.4590e-26  1.1922e-24  9.9626e-26  1.1923e-24  1.0858e-25  1.1924e-24  1.2451e-25  1.1926e-24  1.5283e-25  1.1930e-24  2.0321e-25  1.1937e-24  2.9280e-25  1.1949e-24  4.5218e-25  1.1970e-24  7.3577e-25  1.2007e-24  1.2406e-24  1.2074e-24  2.1400e-24  1.2193e-24  3.7445e-24  1.2405e-24  6.6138e-24  1.2782e-24  1.1767e-23  1.3454e-24  2.1089e-23  1.4655e-24  3.8153e-23
      3.60  1.1680e-24  9.8426e-26  1.1680e-24  9.9402e-26  1.1680e-24  1.0114e-25  1.1680e-24  1.0423e-25  1.1680e-24  1.0972e-25  1.1681e-24  1.1948e-25  1.1682e-24  1.3684e-25  1.1684e-24  1.6772e-25  1.1688e-24  2.2264e-25  1.1695e-24  3.2031e-25  1.1706e-24  4.9406e-25  1.1727e-24  8.0322e-25  1.1765e-24  1.3536e-24  1.1830e-24  2.3341e-24  1.1948e-24  4.0832e-24  1.2156e-24  7.2111e-24  1.2528e-24  1.2828e-23  1.3190e-24  2.2990e-23  1.4371e-24  4.1574e-23
      3.65  1.1433e-24  1.0843e-25  1.1433e-24  1.0951e-25  1.1433e-24  1.1142e-25  1.1433e-24  1.1483e-25  1.1434e-24  1.2089e-25  1.1434e-24  1.3167e-25  1.1435e-24  1.5083e-25  1.1438e-24  1.8491e-25  1.1441e-24  2.4552e-25  1.1448e-24  3.5333e-25  1.1459e-24  5.4510e-25  1.1480e-24  8.8633e-25  1.1516e-24  1.4938e-24  1.1581e-24  2.5759e-24  1.1697e-24  4.5065e-24  1.1902e-24  7.9587e-24  1.2268e-24  1.4158e-23  1.2920e-24  2.5372e-23  1.4083e-24  4.5887e-23
      3.70  1.1181e-24  1.1936e-25  1.1181e-24  1.2057e-25  1.1182e-24  1.2272e-25  1.1182e-24  1.2653e-25  1.1182e-24  1.3332e-25  1.1183e-24  1.4538e-25  1.1184e-24  1.6684e-25  1.1186e-24  2.0500e-25  1.1190e-24  2.7287e-25  1.1196e-24  3.9357e-25  1.1207e-24  6.0830e-25  1.1228e-24  9.9036e-25  1.1264e-24  1.6705e-24  1.1327e-24  2.8822e-24  1.1441e-24  5.0437e-24  1.1644e-24  8.9089e-24  1.2004e-24  1.5850e-23  1.2646e-24  2.8404e-23  1.3798e-24  5.1358e-23
      3.75  1.0925e-24  1.3141e-25  1.0925e-24  1.3278e-25  1.0925e-24  1.3522e-25  1.0925e-24  1.3957e-25  1.0926e-24  1.4729e-25  1.0926e-24  1.6102e-25  1.0928e-24  1.8545e-25  1.0930e-24  2.2888e-25  1.0933e-24  3.0613e-25  1.0939e-24  4.4352e-25  1.0951e-24  6.8792e-25  1.0971e-24  1.1228e-24  1.1006e-24  1.8969e-24  1.1069e-24  3.2760e-24  1.1181e-24  5.7362e-24  1.1381e-24  1.0135e-23  1.1736e-24  1.8035e-23  1.2369e-24  3.2320e-23  1.3507e-24  5.8424e-23
      3.80  1.0679e-24  1.4568e-25  1.0679e-24  1.4728e-25  1.0680e-24  1.5012e-25  1.0680e-24  1.5516e-25  1.0680e-24  1.6414e-25  1.0681e-24  1.8009e-25  1.0682e-24  2.0847e-25  1.0684e-24  2.5894e-25  1.0687e-24  3.4870e-25  1.0694e-24  5.0835e-25  1.0705e-24  7.9233e-25  1.0724e-24  1.2976e-24  1.0759e-24  2.1971e-24  1.0822e-24  3.7996e-24  1.0932e-24  6.6581e-24  1.1129e-24  1.1769e-23  1.1480e-24  2.0946e-23  1.2106e-24  3.7537e-23  1.3229e-24  6.7846e-23
      3.85  1.0416e-24  1.6792e-25  1.0416e-24  1.6983e-25  1.0417e-24  1.7321e-25  1.0417e-24  1.7922e-25  1.0417e-24  1.8992e-25  1.0418e-24  2.0894e-25  1.0419e-24  2.4276e-25  1.0421e-24  3.0292e-25  1.0424e-24  4.0990e-25  1.0431e-24  6.0017e-25  1.0442e-24  9.3865e-25  1.0461e-24  1.5409e-24  1.0496e-24  2.6129e-24  1.0557e-24  4.5227e-24  1.0667e-24  7.9291e-24  1.0863e-24  1.4019e-23  1.1211e-24  2.4950e-23  1.1832e-24  4.4705e-23  1.2950e-24  8.0758e-23
      3.90  1.0150e-24  2.2920e-25  1.0150e-24  2.3154e-25  1.0150e-24  2.3570e-25  1.0150e-24  2.4310e-25  1.0150e-24  2.5626e-25  1.0151e-24  2.7966e-25  1.0152e-24  3.2127e-25  1.0154e-24  3.9527e-25  1.0157e-24  5.2688e-25  1.0164e-24  7.6097e-25  1.0175e-24  1.1774e-24  1.0194e-24  1.9183e-24  1.0229e-24  3.2370e-24  1.0290e-24  5.5862e-24  1.0400e-24  9.7757e-24  1.0595e-24  1.7264e-23  1.0943e-24  3.0701e-23  1.1564e-24  5.4964e-23  1.2684e-24  9.9186e-23
      3.95  9.8787e-25  4.6374e-25  9.8788e-25  4.6669e-25  9.8789e-25  4.7195e-25  9.8791e-25  4.8129e-25  9.8795e-25  4.9790e-25  9.8801e-25  5.2745e-25  9.8812e-25  5.7998e-25  9.8832e-25  6.7342e-25  9.8867e-25  8.3958e-25  9.8930e-25  1.1351e-24  9.9040e-25  1.6608e-24  9.9237e-25  2.5961e-24  9.9585e-25  4.2609e-24  1.0021e-24  7.2258e-24  1.0131e-24  1.2512e-23  1.0328e-24  2.1957e-23  1.0679e-24  3.8894e-23  1.1306e-24  6.9444e-23  1.2440e-24  1.2497e-22
