# This was generated using Cloudy10 and the columns are ordered 
# as log10 of the fraction of the metallicity to the solar metallicity
# 'h_*_Z' and 'c_*_Z' stands for cooling and heating respectively 
# at * metalicity
#
# NOTE: This was generated separately from loop_coolingcurve_w_UV.py
#       using Output_metals_w_redshift.py.
#
# Redshift = 3.0
# hden = -7.5
#
#     temp   h_-3.00_Z   c_-3.00_Z   h_-2.75_Z   c_-2.75_Z   h_-2.50_Z   c_-2.50_Z   h_-2.25_Z   c_-2.25_Z   h_-2.00_Z   c_-2.00_Z   h_-1.75_Z   c_-1.75_Z   h_-1.50_Z   c_-1.50_Z   h_-1.25_Z   c_-1.25_Z   h_-1.00_Z   c_-1.00_Z   h_-0.75_Z   c_-0.75_Z   h_-0.50_Z   c_-0.50_Z   h_-0.25_Z   c_-0.25_Z    h_0.00_Z    c_0.00_Z    h_0.25_Z    c_0.25_Z    h_0.50_Z    c_0.50_Z    h_0.75_Z    c_0.75_Z    h_1.00_Z    c_1.00_Z    h_1.25_Z    c_1.25_Z    h_1.50_Z    c_1.50_Z 
      1.00  7.0061e-22  5.9940e-25  7.0166e-22  5.9940e-25  7.0354e-22  5.9941e-25  7.0687e-22  5.9943e-25  7.1280e-22  5.9947e-25  7.2332e-22  5.9953e-25  7.4199e-22  5.9964e-25  7.7503e-22  5.9984e-25  8.3360e-22  6.0019e-25  9.3782e-22  6.0081e-25  1.1230e-21  6.0192e-25  1.4525e-21  6.0390e-25  2.0394e-21  6.0742e-25  3.0876e-21  6.1369e-25  4.9681e-21  6.2497e-25  8.3611e-21  6.4518e-25  1.4544e-20  6.8169e-25  2.6002e-20  7.4850e-25  4.7777e-20  8.7321e-25
      1.05  6.5873e-22  6.6742e-25  6.5975e-22  6.6743e-25  6.6156e-22  6.6744e-25  6.6478e-22  6.6746e-25  6.7049e-22  6.6750e-25  6.8064e-22  6.6757e-25  6.9864e-22  6.6769e-25  7.3051e-22  6.6790e-25  7.8699e-22  6.6828e-25  8.8748e-22  6.6896e-25  1.0661e-21  6.7016e-25  1.3838e-21  6.7231e-25  1.9499e-21  6.7612e-25  2.9608e-21  6.8293e-25  4.7748e-21  6.9517e-25  8.0478e-21  7.1708e-25  1.4014e-20  7.5663e-25  2.5071e-20  8.2898e-25  4.6093e-20  9.6390e-25
      1.10  6.1944e-22  7.4440e-25  6.2042e-22  7.4440e-25  6.2217e-22  7.4442e-25  6.2527e-22  7.4444e-25  6.3077e-22  7.4448e-25  6.4055e-22  7.4456e-25  6.5791e-22  7.4469e-25  6.8865e-22  7.4492e-25  7.4310e-22  7.4533e-25  8.3996e-22  7.4607e-25  1.0122e-21  7.4738e-25  1.3186e-21  7.4972e-25  1.8644e-21  7.5388e-25  2.8392e-21  7.6130e-25  4.5885e-21  7.7465e-25  7.7452e-21  7.9853e-25  1.3500e-20  8.4163e-25  2.4169e-20  9.2041e-25  4.4462e-20  1.0672e-24
      1.15  5.8258e-22  8.3024e-25  5.8353e-22  8.3024e-25  5.8521e-22  8.3026e-25  5.8820e-22  8.3028e-25  5.9350e-22  8.3033e-25  6.0293e-22  8.3041e-25  6.1966e-22  8.3055e-25  6.4929e-22  8.3081e-25  7.0177e-22  8.3126e-25  7.9511e-22  8.3206e-25  9.6112e-22  8.3349e-25  1.2565e-21  8.3604e-25  1.7826e-21  8.4057e-25  2.7223e-21  8.4865e-25  4.4088e-21  8.6321e-25  7.4526e-21  8.8923e-25  1.3003e-20  9.3615e-25  2.3295e-20  1.0219e-24  4.2880e-20  1.1814e-24
      1.20  5.4802e-22  9.2603e-25  5.4893e-22  9.2603e-25  5.5055e-22  9.2605e-25  5.5342e-22  9.2608e-25  5.5853e-22  9.2613e-25  5.6761e-22  9.2621e-25  5.8373e-22  9.2637e-25  6.1229e-22  9.2665e-25  6.6286e-22  9.2714e-25  7.5278e-22  9.2801e-25  9.1275e-22  9.2957e-25  1.1974e-21  9.3234e-25  1.7044e-21  9.3728e-25  2.6099e-21  9.4609e-25  4.2356e-21  9.6197e-25  7.1696e-21  9.9030e-25  1.2521e-20  1.0414e-24  2.2447e-20  1.1346e-24  4.1347e-20  1.3079e-24
      1.25  5.1561e-22  1.0330e-24  5.1648e-22  1.0330e-24  5.1804e-22  1.0330e-24  5.2081e-22  1.0330e-24  5.2573e-22  1.0331e-24  5.3448e-22  1.0332e-24  5.5000e-22  1.0334e-24  5.7752e-22  1.0337e-24  6.2622e-22  1.0342e-24  7.1283e-22  1.0352e-24  8.6689e-22  1.0368e-24  1.1411e-21  1.0399e-24  1.6295e-21  1.0453e-24  2.5018e-21  1.0548e-24  4.0682e-21  1.0722e-24  6.8955e-21  1.1030e-24  1.2053e-20  1.1586e-24  2.1625e-20  1.2600e-24  3.9857e-20  1.4483e-24
      1.30  4.8523e-22  1.1525e-24  4.8608e-22  1.1525e-24  4.8758e-22  1.1525e-24  4.9024e-22  1.1525e-24  4.9498e-22  1.1526e-24  5.0339e-22  1.1527e-24  5.1833e-22  1.1529e-24  5.4483e-22  1.1532e-24  5.9173e-22  1.1538e-24  6.7511e-22  1.1548e-24  8.2343e-22  1.1567e-24  1.0874e-21  1.1600e-24  1.5578e-21  1.1659e-24  2.3979e-21  1.1763e-24  3.9066e-21  1.1952e-24  6.6300e-21  1.2288e-24  1.1599e-20  1.2894e-24  2.0826e-20  1.3997e-24  3.8410e-20  1.6044e-24
      1.35  4.5677e-22  1.2860e-24  4.5758e-22  1.2860e-24  4.5902e-22  1.2861e-24  4.6159e-22  1.2861e-24  4.6614e-22  1.2862e-24  4.7424e-22  1.2863e-24  4.8862e-22  1.2865e-24  5.1412e-22  1.2868e-24  5.5927e-22  1.2875e-24  6.3949e-22  1.2886e-24  7.8223e-22  1.2906e-24  1.0363e-21  1.2942e-24  1.4891e-21  1.3006e-24  2.2979e-21  1.3121e-24  3.7503e-21  1.3327e-24  6.3727e-21  1.3694e-24  1.1159e-20  1.4353e-24  2.0049e-20  1.5555e-24  3.7004e-20  1.7780e-24
      1.40  4.3010e-22  1.4354e-24  4.3088e-22  1.4354e-24  4.3226e-22  1.4354e-24  4.3473e-22  1.4354e-24  4.3911e-22  1.4355e-24  4.4690e-22  1.4356e-24  4.6073e-22  1.4358e-24  4.8526e-22  1.4362e-24  5.2871e-22  1.4369e-24  6.0587e-22  1.4382e-24  7.4317e-22  1.4404e-24  9.8766e-22  1.4443e-24  1.4234e-21  1.4513e-24  2.2017e-21  1.4638e-24  3.5994e-21  1.4863e-24  6.1235e-21  1.5263e-24  1.0732e-20  1.5983e-24  1.9295e-20  1.7292e-24  3.5637e-20  1.9713e-24
      1.45  4.0511e-22  1.6024e-24  4.0586e-22  1.6024e-24  4.0720e-22  1.6024e-24  4.0957e-22  1.6025e-24  4.1378e-22  1.6025e-24  4.2127e-22  1.6027e-24  4.3456e-22  1.6029e-24  4.5815e-22  1.6033e-24  4.9995e-22  1.6041e-24  5.7413e-22  1.6054e-24  7.0617e-22  1.6079e-24  9.4131e-22  1.6121e-24  1.3604e-21  1.6198e-24  2.1091e-21  1.6335e-24  3.4537e-21  1.6581e-24  5.8821e-21  1.7018e-24  1.0317e-20  1.7804e-24  1.8562e-20  1.9232e-24  3.4308e-20  2.1869e-24
      1.50  3.8172e-22  1.7892e-24  3.8244e-22  1.7892e-24  3.8372e-22  1.7893e-24  3.8600e-22  1.7893e-24  3.9005e-22  1.7894e-24  3.9724e-22  1.7895e-24  4.1002e-22  1.7898e-24  4.3270e-22  1.7903e-24  4.7289e-22  1.7911e-24  5.4419e-22  1.7926e-24  6.7114e-22  1.7952e-24  8.9722e-22  1.7999e-24  1.3002e-21  1.8083e-24  2.0203e-21  1.8233e-24  3.3133e-21  1.8503e-24  5.6491e-21  1.8981e-24  9.9157e-21  1.9839e-24  1.7851e-20  2.1398e-24  3.3016e-20  2.4273e-24
      1.55  3.5981e-22  1.9983e-24  3.6051e-22  1.9983e-24  3.6174e-22  1.9984e-24  3.6393e-22  1.9984e-24  3.6782e-22  1.9985e-24  3.7473e-22  1.9987e-24  3.8701e-22  1.9989e-24  4.0881e-22  1.9995e-24  4.4745e-22  2.0004e-24  5.1598e-22  2.0020e-24  6.3800e-22  2.0049e-24  8.5531e-22  2.0100e-24  1.2427e-21  2.0192e-24  1.9350e-21  2.0357e-24  3.1782e-21  2.0652e-24  5.4241e-21  2.1176e-24  9.5276e-21  2.2116e-24  1.7163e-20  2.3820e-24  3.1763e-20  2.6958e-24
      1.60  3.3931e-22  2.2324e-24  3.3997e-22  2.2324e-24  3.4115e-22  2.2324e-24  3.4326e-22  2.2325e-24  3.4699e-22  2.2326e-24  3.5364e-22  2.2327e-24  3.6543e-22  2.2331e-24  3.8638e-22  2.2336e-24  4.2351e-22  2.2346e-24  4.8936e-22  2.2364e-24  6.0661e-22  2.2396e-24  8.1542e-22  2.2452e-24  1.1876e-21  2.2552e-24  1.8530e-21  2.2735e-24  3.0478e-21  2.3059e-24  5.2065e-21  2.3633e-24  9.1512e-21  2.4662e-24  1.6493e-20  2.6527e-24  3.0542e-20  2.9957e-24
      1.65  3.2011e-22  2.4944e-24  3.2075e-22  2.4944e-24  3.2189e-22  2.4944e-24  3.2391e-22  2.4945e-24  3.2750e-22  2.4946e-24  3.3388e-22  2.4948e-24  3.4521e-22  2.4951e-24  3.6533e-22  2.4958e-24  4.0102e-22  2.4969e-24  4.6429e-22  2.4988e-24  5.7694e-22  2.5023e-24  7.7756e-22  2.5085e-24  1.1352e-21  2.5195e-24  1.7745e-21  2.5396e-24  2.9226e-21  2.5752e-24  4.9971e-21  2.6382e-24  8.7885e-21  2.7511e-24  1.5847e-20  2.9556e-24  2.9360e-20  3.3309e-24
      1.70  3.0215e-22  2.7877e-24  3.0276e-22  2.7878e-24  3.0385e-22  2.7878e-24  3.0579e-22  2.7879e-24  3.0924e-22  2.7880e-24  3.1537e-22  2.7882e-24  3.2626e-22  2.7886e-24  3.4559e-22  2.7893e-24  3.7988e-22  2.7905e-24  4.4067e-22  2.7926e-24  5.4891e-22  2.7965e-24  7.4165e-22  2.8033e-24  1.0852e-21  2.8154e-24  1.6996e-21  2.8376e-24  2.8027e-21  2.8767e-24  4.7961e-21  2.9460e-24  8.4396e-21  3.0701e-24  1.5224e-20  3.2944e-24  2.8218e-20  3.7056e-24
      1.75  2.8534e-22  3.1163e-24  2.8593e-22  3.1163e-24  2.8698e-22  3.1164e-24  2.8884e-22  3.1164e-24  2.9215e-22  3.1166e-24  2.9804e-22  3.1168e-24  3.0850e-22  3.1172e-24  3.2707e-22  3.1180e-24  3.6002e-22  3.1193e-24  4.1843e-22  3.1217e-24  5.2242e-22  3.1259e-24  7.0759e-22  3.1334e-24  1.0376e-21  3.1467e-24  1.6279e-21  3.1713e-24  2.6878e-21  3.2144e-24  4.6031e-21  3.2907e-24  8.1043e-21  3.4271e-24  1.4625e-20  3.6736e-24  2.7117e-20  4.1248e-24
      1.80  2.6961e-22  3.4843e-24  2.7018e-22  3.4843e-24  2.7119e-22  3.4844e-24  2.7298e-22  3.4845e-24  2.7616e-22  3.4846e-24  2.8181e-22  3.4849e-24  2.9186e-22  3.4853e-24  3.0970e-22  3.4862e-24  3.4136e-22  3.4876e-24  3.9750e-22  3.4903e-24  4.9739e-22  3.4949e-24  6.7529e-22  3.5032e-24  9.9227e-22  3.5180e-24  1.5594e-21  3.5453e-24  2.5778e-21  3.5931e-24  4.4180e-21  3.6774e-24  7.7822e-21  3.8283e-24  1.4049e-20  4.1006e-24  2.6057e-20  4.5984e-24
      1.85  2.5490e-22  3.8966e-24  2.5545e-22  3.8966e-24  2.5641e-22  3.8966e-24  2.5813e-22  3.8967e-24  2.6119e-22  3.8969e-24  2.6662e-22  3.8972e-24  2.7627e-22  3.8977e-24  2.9341e-22  3.8986e-24  3.2382e-22  3.9002e-24  3.7777e-22  3.9031e-24  4.7372e-22  3.9083e-24  6.4459e-22  3.9174e-24  9.4907e-22  3.9337e-24  1.4939e-21  3.9640e-24  2.4722e-21  4.0168e-24  4.2400e-21  4.1098e-24  7.4722e-21  4.2761e-24  1.3493e-20  4.5761e-24  2.5034e-20  5.1236e-24
      1.90  2.4115e-22  4.3584e-24  2.4167e-22  4.3584e-24  2.4260e-22  4.3585e-24  2.4425e-22  4.3586e-24  2.4718e-22  4.3588e-24  2.5240e-22  4.3591e-24  2.6167e-22  4.3597e-24  2.7813e-22  4.3607e-24  3.0734e-22  4.3625e-24  3.5917e-22  4.3657e-24  4.5134e-22  4.3714e-24  6.1545e-22  4.3815e-24  9.0790e-22  4.3995e-24  1.4313e-21  4.4332e-24  2.3710e-21  4.4916e-24  4.0693e-21  4.5945e-24  7.1745e-21  4.7783e-24  1.2960e-20  5.1094e-24  2.4050e-20  5.7131e-24
      1.95  2.2828e-22  4.8759e-24  2.2878e-22  4.8759e-24  2.2967e-22  4.8760e-24  2.3126e-22  4.8761e-24  2.3408e-22  4.8763e-24  2.3909e-22  4.8766e-24  2.4799e-22  4.8772e-24  2.6379e-22  4.8784e-24  2.9185e-22  4.8804e-24  3.4164e-22  4.8839e-24  4.3016e-22  4.8902e-24  5.8778e-22  4.9014e-24  8.6865e-22  4.9213e-24  1.3714e-21  4.9588e-24  2.2740e-21  5.0234e-24  3.9054e-21  5.1372e-24  6.8885e-21  5.3402e-24  1.2447e-20  5.7057e-24  2.3104e-20  6.3711e-24
      2.00  2.1625e-22  5.4557e-24  2.1673e-22  5.4557e-24  2.1759e-22  5.4558e-24  2.1911e-22  5.4559e-24  2.2181e-22  5.4561e-24  2.2662e-22  5.4565e-24  2.3517e-22  5.4572e-24  2.5035e-22  5.4585e-24  2.7730e-22  5.4607e-24  3.2512e-22  5.4646e-24  4.1013e-22  5.4715e-24  5.6150e-22  5.4839e-24  8.3123e-22  5.5060e-24  1.3142e-21  5.5478e-24  2.1811e-21  5.6193e-24  3.7481e-21  5.7452e-24  6.6137e-21  5.9697e-24  1.1954e-20  6.3735e-24  2.2195e-20  7.1078e-24
      2.05  2.0500e-22  6.1055e-24  2.0546e-22  6.1056e-24  2.0628e-22  6.1056e-24  2.0775e-22  6.1058e-24  2.1034e-22  6.1060e-24  2.1496e-22  6.1065e-24  2.2317e-22  6.1072e-24  2.3774e-22  6.1086e-24  2.6362e-22  6.1111e-24  3.0955e-22  6.1154e-24  3.9117e-22  6.1232e-24  5.3652e-22  6.1370e-24  7.9550e-22  6.1615e-24  1.2593e-21  6.2084e-24  2.0919e-21  6.2882e-24  3.5968e-21  6.4285e-24  6.3492e-21  6.6783e-24  1.1479e-20  7.1275e-24  2.1318e-20  7.9434e-24
      2.10  1.9449e-22  6.8338e-24  1.9493e-22  6.8338e-24  1.9572e-22  6.8339e-24  1.9712e-22  6.8341e-24  1.9962e-22  6.8343e-24  2.0405e-22  6.8348e-24  2.1193e-22  6.8357e-24  2.2592e-22  6.8372e-24  2.5076e-22  6.8399e-24  2.9486e-22  6.8448e-24  3.7322e-22  6.8534e-24  5.1277e-22  6.8686e-24  7.6140e-22  6.8959e-24  1.2068e-21  6.9483e-24  2.0062e-21  7.0368e-24  3.4513e-21  7.1923e-24  6.0946e-21  7.4690e-24  1.1022e-20  7.9663e-24  2.0475e-20  8.8684e-24
      2.15  1.8466e-22  7.6500e-24  1.8508e-22  7.6500e-24  1.8584e-22  7.6501e-24  1.8719e-22  7.6503e-24  1.8958e-22  7.6506e-24  1.9384e-22  7.6512e-24  2.0140e-22  7.6521e-24  2.1483e-22  7.6538e-24  2.3868e-22  7.6568e-24  2.8102e-22  7.6622e-24  3.5623e-22  7.6717e-24  4.9019e-22  7.6887e-24  7.2886e-22  7.7192e-24  1.1564e-21  7.7775e-24  1.9239e-21  7.8759e-24  3.3114e-21  8.0483e-24  5.8494e-21  8.3551e-24  1.0582e-20  8.9059e-24  1.9663e-20  9.9042e-24
      2.20  1.7547e-22  8.5649e-24  1.7588e-22  8.5649e-24  1.7661e-22  8.5650e-24  1.7790e-22  8.5652e-24  1.8020e-22  8.5655e-24  1.8428e-22  8.5661e-24  1.9154e-22  8.5672e-24  2.0443e-22  8.5691e-24  2.2732e-22  8.5724e-24  2.6795e-22  8.5784e-24  3.4015e-22  8.5890e-24  4.6870e-22  8.6078e-24  6.9777e-22  8.6420e-24  1.1081e-21  8.7070e-24  1.8448e-21  8.8163e-24  3.1766e-21  9.0077e-24  5.6131e-21  9.3481e-24  1.0157e-20  9.9587e-24  1.8879e-20  1.1064e-23
      2.25  1.6689e-22  9.5903e-24  1.6728e-22  9.5904e-24  1.6798e-22  9.5905e-24  1.6922e-22  9.5907e-24  1.7142e-22  9.5911e-24  1.7534e-22  9.5918e-24  1.8230e-22  9.5929e-24  1.9467e-22  9.5950e-24  2.1663e-22  9.5988e-24  2.5563e-22  9.6054e-24  3.2491e-22  9.6171e-24  4.4825e-22  9.6381e-24  6.6808e-22  9.6764e-24  1.0619e-21  9.7490e-24  1.7688e-21  9.8707e-24  3.0471e-21  1.0083e-23  5.3858e-21  1.0461e-23  9.7479e-21  1.1139e-23  1.8124e-20  1.2365e-23
      2.30  1.5887e-22  1.0740e-23  1.5925e-22  1.0740e-23  1.5992e-22  1.0740e-23  1.6110e-22  1.0740e-23  1.6322e-22  1.0741e-23  1.6698e-22  1.0742e-23  1.7365e-22  1.0743e-23  1.8552e-22  1.0745e-23  2.0659e-22  1.0749e-23  2.4401e-22  1.0757e-23  3.1048e-22  1.0770e-23  4.2879e-22  1.0793e-23  6.3973e-22  1.0836e-23  1.0176e-21  1.0917e-23  1.6959e-21  1.1053e-23  2.9225e-21  1.1289e-23  5.1671e-21  1.1709e-23  9.3542e-21  1.2461e-23  1.7396e-20  1.3821e-23
      2.35  1.5138e-22  1.2029e-23  1.5174e-22  1.2029e-23  1.5238e-22  1.2029e-23  1.5352e-22  1.2029e-23  1.5555e-22  1.2030e-23  1.5915e-22  1.2030e-23  1.6556e-22  1.2032e-23  1.7694e-22  1.2034e-23  1.9715e-22  1.2039e-23  2.3305e-22  1.2047e-23  2.9681e-22  1.2062e-23  4.1028e-22  1.2088e-23  6.1263e-22  1.2136e-23  9.7510e-22  1.2227e-23  1.6259e-21  1.2378e-23  2.8027e-21  1.2641e-23  4.9564e-21  1.3107e-23  8.9751e-21  1.3943e-23  1.6696e-20  1.5452e-23
      2.40  1.4438e-22  1.3473e-23  1.4473e-22  1.3474e-23  1.4534e-22  1.3474e-23  1.4643e-22  1.3474e-23  1.4838e-22  1.3474e-23  1.5183e-22  1.3475e-23  1.5798e-22  1.3477e-23  1.6889e-22  1.3480e-23  1.8828e-22  1.3485e-23  2.2271e-22  1.3494e-23  2.8387e-22  1.3510e-23  3.9268e-22  1.3539e-23  5.8675e-22  1.3594e-23  9.3440e-22  1.3695e-23  1.5586e-21  1.3863e-23  2.6874e-21  1.4156e-23  4.7536e-21  1.4675e-23  8.6099e-21  1.5604e-23  1.6021e-20  1.7280e-23
      2.45  1.3784e-22  1.5093e-23  1.3817e-22  1.5093e-23  1.3876e-22  1.5093e-23  1.3981e-22  1.5094e-23  1.4168e-22  1.5094e-23  1.4499e-22  1.5095e-23  1.5088e-22  1.5097e-23  1.6135e-22  1.5100e-23  1.7994e-22  1.5106e-23  2.1296e-22  1.5116e-23  2.7160e-22  1.5134e-23  3.7594e-22  1.5166e-23  5.6203e-22  1.5228e-23  8.9541e-22  1.5342e-23  1.4940e-21  1.5529e-23  2.5766e-21  1.5855e-23  4.5585e-21  1.6433e-23  8.2581e-21  1.7466e-23  1.5371e-20  1.9328e-23
      2.50  1.3174e-22  1.6909e-23  1.3206e-22  1.6909e-23  1.3262e-22  1.6909e-23  1.3363e-22  1.6910e-23  1.3541e-22  1.6910e-23  1.3859e-22  1.6911e-23  1.4424e-22  1.6913e-23  1.5427e-22  1.6917e-23  1.7210e-22  1.6923e-23  2.0376e-22  1.6935e-23  2.5999e-22  1.6955e-23  3.6002e-22  1.6990e-23  5.3842e-22  1.7060e-23  8.5807e-22  1.7187e-23  1.4320e-21  1.7397e-23  2.4701e-21  1.7760e-23  4.3708e-21  1.8403e-23  7.9196e-21  1.9552e-23  1.4744e-20  2.1622e-23
      2.55  1.2604e-22  1.8945e-23  1.2634e-22  1.8945e-23  1.2688e-22  1.8945e-23  1.2785e-22  1.8946e-23  1.2956e-22  1.8946e-23  1.3261e-22  1.8948e-23  1.3802e-22  1.8950e-23  1.4764e-22  1.8954e-23  1.6473e-22  1.8961e-23  1.9508e-22  1.8973e-23  2.4899e-22  1.8996e-23  3.4487e-22  1.9035e-23  5.1589e-22  1.9115e-23  8.2233e-22  1.9257e-23  1.3726e-21  1.9491e-23  2.3679e-21  1.9896e-23  4.1904e-21  2.0612e-23  7.5939e-21  2.1891e-23  1.4141e-20  2.4194e-23
      2.60  1.2071e-22  2.1227e-23  1.2101e-22  2.1228e-23  1.2153e-22  2.1228e-23  1.2245e-22  2.1228e-23  1.2409e-22  2.1229e-23  1.2701e-22  2.1230e-23  1.3220e-22  2.1233e-23  1.4142e-22  2.1237e-23  1.5780e-22  2.1245e-23  1.8690e-22  2.1259e-23  2.3858e-22  2.1284e-23  3.3047e-22  2.1328e-23  4.9440e-22  2.1418e-23  7.8815e-22  2.1579e-23  1.3156e-21  2.1840e-23  2.2698e-21  2.2291e-23  4.0172e-21  2.3089e-23  7.2811e-21  2.4514e-23  1.3562e-20  2.7076e-23
      2.65  1.1575e-22  2.3787e-23  1.1603e-22  2.3787e-23  1.1652e-22  2.3787e-23  1.1741e-22  2.3787e-23  1.1898e-22  2.3788e-23  1.2178e-22  2.3790e-23  1.2675e-22  2.3793e-23  1.3559e-22  2.3798e-23  1.5130e-22  2.3806e-23  1.7919e-22  2.3822e-23  2.2873e-22  2.3850e-23  3.1679e-22  2.3899e-23  4.7394e-22  2.4001e-23  7.5553e-22  2.4181e-23  1.2612e-21  2.4473e-23  2.1760e-21  2.4977e-23  3.8514e-21  2.5866e-23  6.9811e-21  2.7454e-23  1.3006e-20  3.0306e-23
      2.70  1.1111e-22  2.6656e-23  1.1138e-22  2.6656e-23  1.1185e-22  2.6656e-23  1.1270e-22  2.6657e-23  1.1421e-22  2.6658e-23  1.1689e-22  2.6660e-23  1.2166e-22  2.6663e-23  1.3013e-22  2.6668e-23  1.4519e-22  2.6678e-23  1.7193e-22  2.6695e-23  2.1942e-22  2.6726e-23  3.0383e-22  2.6781e-23  4.5452e-22  2.6898e-23  7.2451e-22  2.7100e-23  1.2093e-21  2.7426e-23  2.0864e-21  2.7988e-23  3.6929e-21  2.8981e-23  6.6946e-21  3.0750e-23  1.2474e-20  3.3927e-23
      2.75  1.0678e-22  2.9873e-23  1.0703e-22  2.9873e-23  1.0749e-22  2.9873e-23  1.0831e-22  2.9874e-23  1.0975e-22  2.9875e-23  1.1233e-22  2.9877e-23  1.1690e-22  2.9880e-23  1.2503e-22  2.9886e-23  1.3947e-22  2.9897e-23  1.6511e-22  2.9917e-23  2.1066e-22  2.9951e-23  2.9159e-22  3.0013e-23  4.3614e-22  3.0145e-23  6.9511e-22  3.0373e-23  1.1601e-21  3.0738e-23  2.0014e-21  3.1366e-23  3.5424e-21  3.2473e-23  6.4220e-21  3.4445e-23  1.1967e-20  3.7985e-23
      2.80  1.0274e-22  3.3480e-23  1.0298e-22  3.3480e-23  1.0342e-22  3.3480e-23  1.0420e-22  3.3481e-23  1.0559e-22  3.3482e-23  1.0806e-22  3.3484e-23  1.1245e-22  3.3488e-23  1.2025e-22  3.3495e-23  1.3411e-22  3.3507e-23  1.5873e-22  3.3529e-23  2.0244e-22  3.3567e-23  2.8010e-22  3.3636e-23  4.1888e-22  3.3787e-23  6.6745e-22  3.4044e-23  1.1138e-21  3.4453e-23  1.9214e-21  3.5154e-23  3.4006e-21  3.6389e-23  6.1648e-21  3.8589e-23  1.1489e-20  4.2534e-23
      2.85  9.8967e-23  3.7524e-23  9.9204e-23  3.7524e-23  9.9626e-23  3.7524e-23  1.0038e-22  3.7525e-23  1.0171e-22  3.7526e-23  1.0408e-22  3.7529e-23  1.0830e-22  3.7533e-23  1.1580e-22  3.7541e-23  1.2912e-22  3.7554e-23  1.5277e-22  3.7579e-23  1.9478e-22  3.7622e-23  2.6940e-22  3.7698e-23  4.0279e-22  3.7871e-23  6.4170e-22  3.8160e-23  1.0707e-21  3.8618e-23  1.8469e-21  3.9401e-23  3.2685e-21  4.0780e-23  5.9250e-21  4.3234e-23  1.1042e-20  4.7632e-23
      2.90  9.5449e-23  4.2057e-23  9.5678e-23  4.2058e-23  9.6084e-23  4.2058e-23  9.6807e-23  4.2059e-23  9.8091e-23  4.2061e-23  1.0038e-22  4.2063e-23  1.0444e-22  4.2068e-23  1.1165e-22  4.2077e-23  1.2448e-22  4.2092e-23  1.4725e-22  4.2119e-23  1.8768e-22  4.2167e-23  2.5952e-22  4.2252e-23  3.8796e-22  4.2450e-23  6.1798e-22  4.2777e-23  1.0310e-21  4.3290e-23  1.7782e-21  4.4165e-23  3.1468e-21  4.5704e-23  5.7037e-21  4.8441e-23  1.0627e-20  5.3345e-23
      2.95  9.2168e-23  4.7141e-23  9.2388e-23  4.7141e-23  9.2780e-23  4.7141e-23  9.3477e-23  4.7142e-23  9.4717e-23  4.7144e-23  9.6920e-23  4.7147e-23  1.0084e-22  4.7153e-23  1.0780e-22  4.7162e-23  1.2017e-22  4.7179e-23  1.4214e-22  4.7209e-23  1.8115e-22  4.7263e-23  2.5045e-22  4.7358e-23  3.7438e-22  4.7585e-23  5.9631e-22  4.7954e-23  9.9478e-22  4.8529e-23  1.7156e-21  4.9507e-23  3.0356e-21  5.1225e-23  5.5011e-21  5.4280e-23  1.0247e-20  5.9748e-23
      3.00  8.9107e-23  5.2839e-23  8.9320e-23  5.2840e-23  8.9699e-23  5.2840e-23  9.0373e-23  5.2841e-23  9.1571e-23  5.2843e-23  9.3701e-23  5.2847e-23  9.7488e-23  5.2853e-23  1.0422e-22  5.2863e-23  1.1618e-22  5.2882e-23  1.3741e-22  5.2916e-23  1.7512e-22  5.2976e-23  2.4212e-22  5.3082e-23  3.6195e-22  5.3344e-23  5.7651e-22  5.3760e-23  9.6172e-22  5.4404e-23  1.6584e-21  5.5498e-23  2.9340e-21  5.7416e-23  5.3156e-21  6.0826e-23  9.8967e-21  6.6925e-23
      3.05  8.6252e-23  5.9229e-23  8.6458e-23  5.9229e-23  8.6825e-23  5.9230e-23  8.7477e-23  5.9231e-23  8.8638e-23  5.9233e-23  9.0700e-23  5.9237e-23  9.4367e-23  5.9243e-23  1.0089e-22  5.9255e-23  1.1247e-22  5.9277e-23  1.3303e-22  5.9314e-23  1.6955e-22  5.9381e-23  2.3444e-22  5.9500e-23  3.5051e-22  5.9801e-23  5.5833e-22  6.0272e-23  9.3137e-22  6.0995e-23  1.6059e-21  6.2217e-23  2.8405e-21  6.4360e-23  5.1443e-21  6.8166e-23  9.5723e-21  7.4971e-23
      3.10  8.3588e-23  6.6391e-23  8.3788e-23  6.6392e-23  8.4144e-23  6.6393e-23  8.4777e-23  6.6394e-23  8.5902e-23  6.6396e-23  8.7902e-23  6.6400e-23  9.1458e-23  6.6408e-23  9.7778e-23  6.6421e-23  1.0901e-22  6.6446e-23  1.2895e-22  6.6487e-23  1.6436e-22  6.6562e-23  2.2728e-22  6.6694e-23  3.3986e-22  6.7042e-23  5.4139e-22  6.7575e-23  9.0310e-22  6.8386e-23  1.5570e-21  6.9754e-23  2.7533e-21  7.2148e-23  4.9842e-21  7.6397e-23  9.2681e-21  8.3991e-23
      3.15  8.1104e-23  7.4421e-23  8.1298e-23  7.4422e-23  8.1643e-23  7.4423e-23  8.2257e-23  7.4424e-23  8.3349e-23  7.4427e-23  8.5290e-23  7.4431e-23  8.8740e-23  7.4440e-23  9.4873e-23  7.4455e-23  1.0577e-22  7.4481e-23  1.2513e-22  7.4528e-23  1.5949e-22  7.4611e-23  2.2054e-22  7.4760e-23  3.2981e-22  7.5161e-23  5.2539e-22  7.5765e-23  8.7636e-22  7.6676e-23  1.5107e-21  7.8207e-23  2.6706e-21  8.0883e-23  4.8324e-21  8.5629e-23  8.9789e-21  9.4106e-23
      3.20  7.8786e-23  8.3423e-23  7.8975e-23  8.3423e-23  7.9310e-23  8.3424e-23  7.9906e-23  8.3426e-23  8.0965e-23  8.3429e-23  8.2849e-23  8.3434e-23  8.6199e-23  8.3443e-23  9.2152e-23  8.3460e-23  1.0273e-22  8.3489e-23  1.2152e-22  8.3542e-23  1.5488e-22  8.3635e-23  2.1413e-22  8.3801e-23  3.2022e-22  8.4266e-23  5.1009e-22  8.4951e-23  8.5074e-22  8.5975e-23  1.4662e-21  8.7689e-23  2.5912e-21  9.0681e-23  4.6866e-21  9.5983e-23  8.7007e-21  1.0545e-22
      3.25  7.6624e-23  9.3513e-23  7.6807e-23  9.3513e-23  7.7132e-23  9.3514e-23  7.7711e-23  9.3516e-23  7.8739e-23  9.3519e-23  8.0568e-23  9.3525e-23  8.3819e-23  9.3536e-23  8.9598e-23  9.3554e-23  9.9866e-23  9.3587e-23  1.1811e-22  9.3646e-23  1.5049e-22  9.3750e-23  2.0800e-22  9.3936e-23  3.1100e-22  9.4475e-23  4.9532e-22  9.5253e-23  8.2594e-22  9.6405e-23  1.4232e-21  9.8325e-23  2.5144e-21  1.0167e-22  4.5453e-21  1.0760e-22  8.4312e-21  1.1817e-22
      3.30  7.4607e-23  1.0482e-22  7.4784e-23  1.0482e-22  7.5100e-23  1.0482e-22  7.5661e-23  1.0483e-22  7.6660e-23  1.0483e-22  7.8434e-23  1.0484e-22  8.1589e-23  1.0485e-22  8.7198e-23  1.0487e-22  9.7163e-23  1.0491e-22  1.1486e-22  1.0497e-22  1.4629e-22  1.0509e-22  2.0210e-22  1.0530e-22  3.0208e-22  1.0593e-22  4.8098e-22  1.0681e-22  8.0184e-22  1.0810e-22  1.3813e-21  1.1026e-22  2.4396e-21  1.1400e-22  4.4075e-21  1.2062e-22  8.1691e-21  1.3244e-22
      3.35  7.2725e-23  1.1750e-22  7.2897e-23  1.1750e-22  7.3203e-23  1.1750e-22  7.3748e-23  1.1750e-22  7.4716e-23  1.1751e-22  7.6438e-23  1.1752e-22  7.9499e-23  1.1753e-22  8.4940e-23  1.1755e-22  9.4608e-23  1.1759e-22  1.1178e-22  1.1767e-22  1.4227e-22  1.1780e-22  1.9640e-22  1.1803e-22  2.9354e-22  1.1879e-22  4.6717e-22  1.1979e-22  7.7853e-22  1.2124e-22  1.3407e-21  1.2364e-22  2.3668e-21  1.2783e-22  4.2735e-21  1.3524e-22  7.9141e-21  1.4845e-22
      3.40  7.0968e-23  1.3171e-22  7.1135e-23  1.3171e-22  7.1432e-23  1.3171e-22  7.1960e-23  1.3171e-22  7.2900e-23  1.3172e-22  7.4570e-23  1.3172e-22  7.7539e-23  1.3174e-22  8.2816e-23  1.3176e-22  9.2193e-23  1.3181e-22  1.0885e-22  1.3189e-22  1.3842e-22  1.3204e-22  1.9091e-22  1.3230e-22  2.8524e-22  1.3323e-22  4.5371e-22  1.3434e-22  7.5576e-22  1.3597e-22  1.3010e-21  1.3866e-22  2.2958e-21  1.4335e-22  4.1433e-21  1.5163e-22  7.6674e-21  1.6640e-22
      3.45  6.9328e-23  1.4763e-22  6.9490e-23  1.4763e-22  6.9778e-23  1.4763e-22  7.0291e-23  1.4763e-22  7.1201e-23  1.4764e-22  7.2821e-23  1.4765e-22  7.5700e-23  1.4766e-22  8.0817e-23  1.4769e-22  8.9910e-23  1.4774e-22  1.0606e-22  1.4784e-22  1.3473e-22  1.4800e-22  1.8562e-22  1.4830e-22  2.7720e-22  1.4941e-22  4.4062e-22  1.5067e-22  7.3356e-22  1.5249e-22  1.2622e-21  1.5551e-22  2.2266e-21  1.6075e-22  4.0165e-21  1.7002e-22  7.4279e-21  1.8654e-22
      3.50  6.7797e-23  1.6547e-22  6.7954e-23  1.6547e-22  6.8234e-23  1.6547e-22  6.8730e-23  1.6547e-22  6.9613e-23  1.6548e-22  7.1183e-23  1.6549e-22  7.3975e-23  1.6551e-22  7.8935e-23  1.6554e-22  8.7750e-23  1.6560e-22  1.0340e-22  1.6570e-22  1.3119e-22  1.6588e-22  1.8059e-22  1.6631e-22  2.6942e-22  1.6757e-22  4.2789e-22  1.6898e-22  7.1195e-22  1.7103e-22  1.2245e-21  1.7441e-22  2.1592e-21  1.8028e-22  3.8933e-21  1.9065e-22  7.1958e-21  2.0913e-22
      3.55  6.6368e-23  1.8546e-22  6.6520e-23  1.8546e-22  6.6791e-23  1.8546e-22  6.7272e-23  1.8546e-22  6.8128e-23  1.8547e-22  6.9650e-23  1.8548e-22  7.2355e-23  1.8550e-22  7.7163e-23  1.8554e-22  8.5705e-23  1.8560e-22  1.0087e-22  1.8572e-22  1.2780e-22  1.8592e-22  1.7574e-22  1.8650e-22  2.6187e-22  1.8793e-22  4.1552e-22  1.8952e-22  6.9090e-22  1.9182e-22  1.1877e-21  1.9561e-22  2.0935e-21  2.0218e-22  3.7735e-21  2.1380e-22  6.9710e-21  2.3447e-22
      3.60  6.5032e-23  2.0785e-22  6.5179e-23  2.0786e-22  6.5442e-23  2.0786e-22  6.5908e-23  2.0786e-22  6.6738e-23  2.0787e-22  6.8212e-23  2.0788e-22  7.0833e-23  2.0790e-22  7.5492e-23  2.0795e-22  8.3768e-23  2.0802e-22  9.8463e-23  2.0815e-22  1.2454e-22  2.0838e-22  1.7105e-22  2.0914e-22  2.5454e-22  2.1077e-22  4.0347e-22  2.1257e-22  6.7036e-22  2.1515e-22  1.1518e-21  2.1940e-22  2.0295e-21  2.2676e-22  3.6568e-21  2.3976e-22  6.7528e-21  2.6290e-22
      3.65  6.3783e-23  2.3294e-22  6.3926e-23  2.3295e-22  6.4180e-23  2.3295e-22  6.4632e-23  2.3295e-22  6.5435e-23  2.3296e-22  6.6864e-23  2.3297e-22  6.9403e-23  2.3300e-22  7.3915e-23  2.3305e-22  8.1929e-23  2.3313e-22  9.6159e-23  2.3327e-22  1.2141e-22  2.3353e-22  1.6652e-22  2.3452e-22  2.4742e-22  2.3638e-22  3.9171e-22  2.3841e-22  6.5029e-22  2.4132e-22  1.1167e-21  2.4608e-22  1.9669e-21  2.5433e-22  3.5429e-21  2.6889e-22  6.5404e-21  2.9479e-22
      3.70  6.2615e-23  2.6105e-22  6.2754e-23  2.6105e-22  6.3000e-23  2.6105e-22  6.3437e-23  2.6106e-22  6.4215e-23  2.6107e-22  6.5598e-23  2.6108e-22  6.8056e-23  2.6111e-22  7.2424e-23  2.6116e-22  8.0182e-23  2.6125e-22  9.3955e-23  2.6141e-22  1.1839e-22  2.6170e-22  1.6212e-22  2.6297e-22  2.4048e-22  2.6510e-22  3.8022e-22  2.6740e-22  6.3063e-22  2.7067e-22  1.0823e-21  2.7601e-22  1.9056e-21  2.8525e-22  3.4315e-21  3.0156e-22  6.3331e-21  3.3057e-22
      3.75  6.1522e-23  2.9252e-22  6.1656e-23  2.9252e-22  6.1894e-23  2.9253e-22  6.2317e-23  2.9253e-22  6.3070e-23  2.9254e-22  6.4408e-23  2.9256e-22  6.6787e-23  2.9259e-22  7.1013e-23  2.9265e-22  7.8519e-23  2.9275e-22  9.1841e-23  2.9293e-22  1.1547e-22  2.9326e-22  1.5785e-22  2.9487e-22  2.3371e-22  2.9730e-22  3.6896e-22  2.9992e-22  6.1133e-22  3.0360e-22  1.0485e-21  3.0959e-22  1.8454e-21  3.1995e-22  3.3224e-21  3.3822e-22  6.1306e-21  3.7070e-22
      3.80  6.0498e-23  3.2777e-22  6.0628e-23  3.2777e-22  6.0858e-23  3.2778e-22  6.1267e-23  3.2778e-22  6.1995e-23  3.2779e-22  6.3289e-23  3.2781e-22  6.5589e-23  3.2785e-22  6.9676e-23  3.2792e-22  7.6933e-23  3.2803e-22  8.9811e-23  3.2823e-22  1.1265e-22  3.2859e-22  1.5369e-22  3.3062e-22  2.2708e-22  3.3342e-22  3.5792e-22  3.3639e-22  5.9238e-22  3.4053e-22  1.0153e-21  3.4726e-22  1.7863e-21  3.5888e-22  3.2154e-21  3.7935e-22  5.9324e-21  4.1573e-22
      3.85  5.9538e-23  3.6724e-22  5.9663e-23  3.6724e-22  5.9886e-23  3.6724e-22  6.0281e-23  3.6725e-22  6.0985e-23  3.6726e-22  6.2235e-23  3.6728e-22  6.4458e-23  3.6732e-22  6.8407e-23  3.6740e-22  7.5419e-23  3.6752e-22  8.7860e-23  3.6775e-22  1.0992e-22  3.6816e-22  1.4964e-22  3.7068e-22  2.2061e-22  3.7391e-22  3.4710e-22  3.7729e-22  5.7376e-22  3.8197e-22  9.8267e-22  3.8953e-22  1.7282e-21  4.0255e-22  3.1104e-21  4.2549e-22  5.7385e-21  4.6625e-22
      3.90  5.8636e-23  4.1141e-22  5.8757e-23  4.1142e-22  5.8972e-23  4.1142e-22  5.9354e-23  4.1143e-22  6.0034e-23  4.1144e-22  6.1242e-23  4.1147e-22  6.3388e-23  4.1151e-22  6.7202e-23  4.1159e-22  7.3972e-23  4.1174e-22  8.5983e-23  4.1199e-22  1.0727e-22  4.1245e-22  1.4570e-22  4.1558e-22  2.1428e-22  4.1931e-22  3.3649e-22  4.2317e-22  5.5549e-22  4.2844e-22  9.5065e-22  4.3694e-22  1.6713e-21  4.5154e-22  3.0076e-21  4.7726e-22  5.5491e-21  5.2292e-22
      3.95  5.7789e-23  4.6086e-22  5.7905e-23  4.6086e-22  5.8113e-23  4.6087e-22  5.8482e-23  4.6088e-22  5.9138e-23  4.6089e-22  6.0304e-23  4.6092e-22  6.2375e-23  4.6097e-22  6.6056e-23  4.6106e-22  7.2589e-23  4.6122e-22  8.4178e-23  4.6151e-22  1.0471e-22  4.6202e-22  1.4187e-22  4.6589e-22  2.0811e-22  4.7021e-22  3.2612e-22  4.7461e-22  5.3760e-22  4.8058e-22  9.1927e-22  4.9012e-22  1.6155e-21  5.0651e-22  2.9072e-21  5.3534e-22  5.3646e-21  5.8651e-22
