# This was generated using Cloudy10 and the columns are ordered 
# as log10 of the fraction of the metallicity to the solar metallicity
# 'h_*_Z' and 'c_*_Z' stands for cooling and heating respectively 
# at * metalicity
#
# NOTE: This was generated separately from loop_coolingcurve_w_UV.py
#       using Output_metals_w_redshift.py.
#
# Redshift = 4.0
# hden = -1.5
#
#     temp   h_-3.00_Z   c_-3.00_Z   h_-2.75_Z   c_-2.75_Z   h_-2.50_Z   c_-2.50_Z   h_-2.25_Z   c_-2.25_Z   h_-2.00_Z   c_-2.00_Z   h_-1.75_Z   c_-1.75_Z   h_-1.50_Z   c_-1.50_Z   h_-1.25_Z   c_-1.25_Z   h_-1.00_Z   c_-1.00_Z   h_-0.75_Z   c_-0.75_Z   h_-0.50_Z   c_-0.50_Z   h_-0.25_Z   c_-0.25_Z    h_0.00_Z    c_0.00_Z    h_0.25_Z    c_0.25_Z    h_0.50_Z    c_0.50_Z    h_0.75_Z    c_0.75_Z    h_1.00_Z    c_1.00_Z    h_1.25_Z    c_1.25_Z    h_1.50_Z    c_1.50_Z 
      4.00  3.4538e-24  7.9080e-25  3.4539e-24  7.9585e-25  3.4540e-24  8.0483e-25  3.4543e-24  8.2081e-25  3.4549e-24  8.4921e-25  3.4558e-24  8.9971e-25  3.4575e-24  9.8953e-25  3.4604e-24  1.1493e-24  3.4657e-24  1.4333e-24  3.4750e-24  1.9386e-24  3.4917e-24  2.8373e-24  3.5213e-24  4.4364e-24  3.5738e-24  7.2826e-24  3.6669e-24  1.2353e-23  3.8317e-24  2.1396e-23  4.1222e-24  3.7565e-23  4.6315e-24  6.6596e-23  5.5158e-24  1.1912e-22  7.0307e-24  2.1542e-22
      4.05  3.1960e-24  9.9410e-25  3.1961e-24  1.0003e-24  3.1962e-24  1.0112e-24  3.1965e-24  1.0307e-24  3.1970e-24  1.0653e-24  3.1979e-24  1.1269e-24  3.1996e-24  1.2364e-24  3.2024e-24  1.4312e-24  3.2076e-24  1.7776e-24  3.2167e-24  2.3937e-24  3.2329e-24  3.4896e-24  3.2617e-24  5.4396e-24  3.3128e-24  8.9107e-24  3.4035e-24  1.5094e-23  3.5639e-24  2.6125e-23  3.8465e-24  4.5850e-23  4.3415e-24  8.1279e-23  5.1998e-24  1.4542e-22  6.6673e-24  2.6315e-22
      4.10  2.9547e-24  1.4933e-24  2.9548e-24  1.5009e-24  2.9550e-24  1.5145e-24  2.9552e-24  1.5386e-24  2.9557e-24  1.5815e-24  2.9566e-24  1.6578e-24  2.9582e-24  1.7935e-24  2.9610e-24  2.0349e-24  2.9660e-24  2.4641e-24  2.9749e-24  3.2274e-24  2.9908e-24  4.5853e-24  3.0188e-24  7.0015e-24  3.0687e-24  1.1302e-23  3.1571e-24  1.8965e-23  3.3135e-24  3.2634e-23  3.5889e-24  5.7082e-23  4.0708e-24  1.0100e-22  4.9050e-24  1.8055e-22  6.3288e-24  3.2669e-22
      4.15  2.7258e-24  2.6394e-24  2.7259e-24  2.6490e-24  2.7261e-24  2.6659e-24  2.7264e-24  2.6961e-24  2.7269e-24  2.7497e-24  2.7277e-24  2.8451e-24  2.7293e-24  3.0147e-24  2.7320e-24  3.3163e-24  2.7369e-24  3.8527e-24  2.7456e-24  4.8068e-24  2.7611e-24  6.5040e-24  2.7885e-24  9.5238e-24  2.8372e-24  1.4899e-23  2.9236e-24  2.4476e-23  3.0763e-24  4.1562e-23  3.3451e-24  7.2124e-23  3.8149e-24  1.2704e-22  4.6270e-24  2.2652e-22  6.0102e-24  4.0937e-22
      4.20  2.5001e-24  5.0280e-24  2.5002e-24  5.0400e-24  2.5003e-24  5.0612e-24  2.5006e-24  5.0990e-24  2.5011e-24  5.1661e-24  2.5019e-24  5.2856e-24  2.5034e-24  5.4980e-24  2.5061e-24  5.8757e-24  2.5109e-24  6.5475e-24  2.5194e-24  7.7423e-24  2.5345e-24  9.8678e-24  2.5614e-24  1.3650e-23  2.6091e-24  2.0382e-23  2.6936e-24  3.2376e-23  2.8429e-24  5.3775e-23  3.1057e-24  9.2054e-23  3.5645e-24  1.6084e-22  4.3565e-24  2.8547e-22  5.7031e-24  5.1460e-22
      4.25  2.2586e-24  9.4414e-24  2.2587e-24  9.4563e-24  2.2588e-24  9.4828e-24  2.2591e-24  9.5299e-24  2.2595e-24  9.6137e-24  2.2604e-24  9.7627e-24  2.2619e-24  1.0028e-23  2.2645e-24  1.0499e-23  2.2692e-24  1.1337e-23  2.2775e-24  1.2827e-23  2.2924e-24  1.5479e-23  2.3187e-24  2.0196e-23  2.3654e-24  2.8594e-23  2.4482e-24  4.3556e-23  2.5946e-24  7.0252e-23  2.8519e-24  1.1801e-22  3.3009e-24  2.0382e-22  4.0754e-24  3.5932e-22  5.3914e-24  6.4521e-22
      4.30  1.9725e-24  1.6389e-23  1.9725e-24  1.6408e-23  1.9727e-24  1.6440e-23  1.9729e-24  1.6499e-23  1.9734e-24  1.6603e-23  1.9742e-24  1.6788e-23  1.9757e-24  1.7116e-23  1.9783e-24  1.7700e-23  1.9829e-24  1.8739e-23  1.9910e-24  2.0588e-23  2.0056e-24  2.3875e-23  2.0314e-24  2.9725e-23  2.0772e-24  4.0139e-23  2.1584e-24  5.8693e-23  2.3019e-24  9.1797e-23  2.5542e-24  1.5102e-22  2.9945e-24  2.5745e-22  3.7545e-24  4.5031e-22  5.0482e-24  8.0489e-22
      4.35  1.6207e-24  2.4982e-23  1.6208e-24  2.5005e-23  1.6209e-24  2.5046e-23  1.6211e-24  2.5118e-23  1.6216e-24  2.5248e-23  1.6224e-24  2.5477e-23  1.6238e-24  2.5885e-23  1.6263e-24  2.6611e-23  1.6308e-24  2.7902e-23  1.6388e-24  3.0198e-23  1.6530e-24  3.4283e-23  1.6781e-24  4.1551e-23  1.7228e-24  5.4490e-23  1.8020e-24  7.7542e-23  1.9419e-24  1.1868e-22  2.1883e-24  1.9227e-22  2.6191e-24  3.2456e-22  3.3652e-24  5.6434e-22  4.6436e-24  1.0053e-21
      4.40  1.2301e-24  3.2246e-23  1.2301e-24  3.2275e-23  1.2303e-24  3.2327e-23  1.2305e-24  3.2418e-23  1.2309e-24  3.2581e-23  1.2317e-24  3.2869e-23  1.2331e-24  3.3383e-23  1.2355e-24  3.4297e-23  1.2398e-24  3.5922e-23  1.2474e-24  3.8812e-23  1.2609e-24  4.3953e-23  1.2850e-24  5.3102e-23  1.3278e-24  6.9388e-23  1.4036e-24  9.8407e-23  1.5379e-24  1.5019e-22  1.7748e-24  2.4285e-22  2.1909e-24  4.0945e-22  2.9172e-24  7.1152e-22  4.1767e-24  1.2671e-21
      4.45  8.7715e-25  3.5240e-23  8.7722e-25  3.5277e-23  8.7734e-25  3.5342e-23  8.7757e-25  3.5459e-23  8.7797e-25  3.5666e-23  8.7868e-25  3.6034e-23  8.7994e-25  3.6688e-23  8.8219e-25  3.7853e-23  8.8618e-25  3.9923e-23  8.9329e-25  4.3606e-23  9.0592e-25  5.0157e-23  9.2837e-25  6.1814e-23  9.6827e-25  8.2567e-23  1.0391e-24  1.1954e-22  1.1649e-24  1.8553e-22  1.3876e-24  3.0362e-22  1.7814e-24  5.1596e-22  2.4761e-24  9.0104e-22  3.6999e-24  1.6094e-21
      4.50  6.1756e-25  3.3945e-23  6.1763e-25  3.3992e-23  6.1775e-25  3.4076e-23  6.1795e-25  3.4225e-23  6.1832e-25  3.4490e-23  6.1898e-25  3.4961e-23  6.2014e-25  3.5798e-23  6.2221e-25  3.7288e-23  6.2590e-25  3.9937e-23  6.3245e-25  4.4649e-23  6.4410e-25  5.3031e-23  6.6481e-25  6.7946e-23  7.0165e-25  9.4499e-23  7.6718e-25  1.4181e-22  8.8370e-25  2.2624e-22  1.0909e-24  3.7734e-22  1.4594e-24  6.4907e-22  2.1157e-24  1.1418e-21  3.2882e-24  2.0482e-21
      4.55  4.4768e-25  3.0436e-23  4.4774e-25  3.0496e-23  4.4785e-25  3.0603e-23  4.4804e-25  3.0794e-23  4.4839e-25  3.1133e-23  4.4900e-25  3.1736e-23  4.5009e-25  3.2809e-23  4.5202e-25  3.4716e-23  4.5545e-25  3.8109e-23  4.6157e-25  4.4142e-23  4.7244e-25  5.4876e-23  4.9178e-25  7.3975e-23  5.2620e-25  1.0798e-22  5.8746e-25  1.6856e-22  6.9653e-25  2.7668e-22  8.9078e-25  4.7019e-22  1.2374e-24  8.1819e-22  1.8578e-24  1.4493e-21  2.9749e-24  2.6100e-21
      4.60  3.3605e-25  2.6622e-23  3.3610e-25  2.6699e-23  3.3621e-25  2.6836e-23  3.3639e-25  2.7080e-23  3.3672e-25  2.7514e-23  3.3729e-25  2.8286e-23  3.3832e-25  2.9659e-23  3.4015e-25  3.2101e-23  3.4340e-25  3.6443e-23  3.4919e-25  4.4167e-23  3.5949e-25  5.7906e-23  3.7780e-25  8.2354e-23  4.1042e-25  1.2588e-22  4.6847e-25  2.0343e-22  5.7179e-25  3.4184e-22  7.5586e-25  5.8957e-22  1.0845e-24  1.0351e-21  1.6734e-24  1.8431e-21  2.7354e-24  3.3293e-21
      4.65  2.5669e-25  2.3986e-23  2.5674e-25  2.4085e-23  2.5684e-25  2.4260e-23  2.5701e-25  2.4571e-23  2.5732e-25  2.5125e-23  2.5787e-25  2.6111e-23  2.5884e-25  2.7863e-23  2.6057e-25  3.0979e-23  2.6365e-25  3.6520e-23  2.6919e-25  4.6377e-23  2.7904e-25  6.3911e-23  2.9659e-25  9.5111e-23  3.2782e-25  1.5066e-22  3.8337e-25  2.4964e-22  4.8220e-25  4.2630e-22  6.5820e-25  7.4250e-22  9.7202e-25  1.3112e-21  1.5331e-24  2.3428e-21  2.5411e-24  4.2407e-21
      4.70  1.9823e-25  2.3943e-23  1.9828e-25  2.4068e-23  1.9837e-25  2.4290e-23  1.9853e-25  2.4685e-23  1.9881e-25  2.5387e-23  1.9932e-25  2.6636e-23  2.0022e-25  2.8857e-23  2.0184e-25  3.2808e-23  2.0475e-25  3.9833e-23  2.0994e-25  5.2329e-23  2.1917e-25  7.4559e-23  2.3560e-25  1.1412e-22  2.6482e-25  1.8454e-22  3.1679e-25  3.1004e-22  4.0928e-25  5.3406e-22  5.7397e-25  9.3507e-22  8.6758e-25  1.6565e-21  1.3923e-24  2.9655e-21  2.3339e-24  5.3751e-21
      4.75  1.5627e-25  2.8920e-23  1.5631e-25  2.9076e-23  1.5639e-25  2.9355e-23  1.5654e-25  2.9850e-23  1.5679e-25  3.0731e-23  1.5725e-25  3.2298e-23  1.5805e-25  3.5085e-23  1.5952e-25  4.0040e-23  1.6213e-25  4.8853e-23  1.6679e-25  6.4528e-23  1.7507e-25  9.2414e-23  1.8981e-25  1.4204e-22  2.1602e-25  2.3039e-22  2.6264e-25  3.8785e-22  3.4560e-25  6.6896e-22  4.9329e-25  1.1723e-21  7.5650e-25  2.0781e-21  1.2266e-24  3.7229e-21  2.0688e-24  6.7536e-21
      4.80  1.2400e-25  4.2081e-23  1.2404e-25  4.2275e-23  1.2411e-25  4.2620e-23  1.2423e-25  4.3234e-23  1.2445e-25  4.4325e-23  1.2484e-25  4.6265e-23  1.2554e-25  4.9716e-23  1.2679e-25  5.5853e-23  1.2904e-25  6.6768e-23  1.3304e-25  8.6182e-23  1.4016e-25  1.2072e-22  1.5281e-25  1.8218e-22  1.7532e-25  2.9162e-22  2.1535e-25  4.8669e-22  2.8657e-25  8.3499e-22  4.1329e-25  1.4588e-21  6.3897e-25  2.5823e-21  1.0415e-24  4.6240e-21  1.7612e-24  8.3922e-21
      4.85  9.2057e-26  6.2641e-23  9.2089e-26  6.2878e-23  9.2147e-26  6.3298e-23  9.2251e-26  6.4047e-23  9.2435e-26  6.5377e-23  9.2762e-26  6.7743e-23  9.3343e-26  7.1950e-23  9.4384e-26  7.9433e-23  9.6252e-26  9.2741e-23  9.9577e-26  1.1641e-22  1.0549e-25  1.5852e-22  1.1601e-25  2.3347e-22  1.3471e-25  3.6692e-22  1.6797e-25  6.0481e-22  2.2712e-25  1.0297e-21  3.3229e-25  1.7909e-21  5.1942e-25  3.1626e-21  8.5269e-25  5.6582e-21  1.4472e-24  1.0273e-20
      4.90  5.8304e-26  7.8583e-23  5.8331e-26  7.8865e-23  5.8379e-26  7.9364e-23  5.8465e-26  8.0253e-23  5.8618e-26  8.1834e-23  5.8889e-26  8.4645e-23  5.9373e-26  8.9644e-23  6.0234e-26  9.8535e-23  6.1769e-26  1.1435e-22  6.4500e-26  1.4247e-22  6.9356e-26  1.9251e-22  7.7992e-26  2.8156e-22  9.3349e-26  4.4013e-22  1.2064e-25  7.2280e-22  1.6912e-25  1.2277e-21  2.5526e-25  2.1324e-21  4.0838e-25  3.7631e-21  6.8070e-25  6.7317e-21  1.1658e-24  1.2227e-20
      4.95  3.1519e-26  7.8372e-23  3.1542e-26  7.8695e-23  3.1582e-26  7.9269e-23  3.1654e-26  8.0289e-23  3.1781e-26  8.2104e-23  3.2008e-26  8.5331e-23  3.2413e-26  9.1069e-23  3.3137e-26  1.0127e-22  3.4427e-26  1.1943e-22  3.6724e-26  1.5171e-22  4.0807e-26  2.0915e-22  4.8064e-26  3.1137e-22  6.0949e-26  4.9340e-22  8.3814e-26  8.1791e-22  1.2438e-25  1.3975e-21  1.9637e-25  2.4363e-21  3.2414e-25  4.3092e-21  5.5116e-25  7.7203e-21  9.5510e-25  1.4041e-20
      5.00  1.6035e-26  6.7085e-23  1.6054e-26  6.7440e-23  1.6088e-26  6.8072e-23  1.6148e-26  6.9197e-23  1.6256e-26  7.1196e-23  1.6448e-26  7.4751e-23  1.6792e-26  8.1074e-23  1.7409e-26  9.2318e-23  1.8513e-26  1.1232e-22  2.0478e-26  1.4789e-22  2.3958e-26  2.1117e-22  3.0124e-26  3.2381e-22  4.1045e-26  5.2440e-22  6.0364e-26  8.8208e-22  9.4543e-26  1.5211e-21  1.5507e-25  2.6670e-21  2.6239e-25  4.7349e-21  4.5299e-25  8.5071e-21  7.9191e-25  1.5516e-20
      5.05  8.3898e-27  5.3875e-23  8.4058e-27  5.4240e-23  8.4344e-27  5.4890e-23  8.4855e-27  5.6045e-23  8.5771e-27  5.8100e-23  8.7423e-27  6.1754e-23  9.0389e-27  6.8251e-23  9.5789e-27  7.9806e-23  1.0551e-26  1.0036e-22  1.2253e-26  1.3692e-22  1.5255e-26  2.0196e-22  2.0541e-26  3.1773e-22  2.9845e-26  5.2395e-22  4.6202e-26  8.9174e-22  7.5028e-26  1.5492e-21  1.2597e-25  2.7289e-21  2.1625e-25  4.8608e-21  3.7657e-25  8.7590e-21  6.6132e-25  1.6030e-20
      5.10  4.7003e-27  4.2612e-23  4.7141e-27  4.2968e-23  4.7390e-27  4.3601e-23  4.7839e-27  4.4726e-23  4.8662e-27  4.6728e-23  5.0131e-27  5.0288e-23  5.2831e-27  5.6619e-23  5.7868e-27  6.7877e-23  6.6647e-27  8.7901e-23  8.1927e-27  1.2352e-22  1.0850e-26  1.8690e-22  1.5476e-26  2.9972e-22  2.3535e-26  5.0071e-22  3.7607e-26  8.5926e-22  6.2326e-26  1.5005e-21  1.0586e-25  2.6522e-21  1.8293e-25  4.7363e-21  3.1992e-25  8.5564e-21  5.6352e-25  1.5710e-20
      5.15  2.8429e-27  3.3922e-23  2.8555e-27  3.4276e-23  2.8785e-27  3.4906e-23  2.9215e-27  3.6025e-23  2.9991e-27  3.8015e-23  3.1412e-27  4.1555e-23  3.4111e-27  4.7850e-23  3.8984e-27  5.9045e-23  4.7350e-27  7.8958e-23  6.1659e-27  1.1438e-22  8.6028e-27  1.7741e-22  1.2787e-26  2.8962e-22  2.0012e-26  4.8954e-22  3.2568e-26  8.4626e-22  5.4330e-26  1.4845e-21  9.2900e-26  2.6316e-21  1.6140e-25  4.7099e-21  2.8320e-25  8.5273e-21  4.9991e-25  1.5700e-20
      5.20  1.8449e-27  2.7409e-23  1.8570e-27  2.7774e-23  1.8797e-27  2.8423e-23  1.9235e-27  2.9577e-23  2.0016e-27  3.1629e-23  2.1516e-27  3.5279e-23  2.4423e-27  4.1769e-23  2.9176e-27  5.3312e-23  3.7250e-27  7.3844e-23  5.0928e-27  1.1037e-22  7.3789e-27  1.7536e-22  1.1245e-26  2.9107e-22  1.7848e-26  4.9725e-22  2.9050e-26  8.6524e-22  4.8888e-26  1.5238e-21  8.4120e-26  2.7082e-21  1.4676e-25  4.8564e-21  2.5821e-25  8.8091e-21  4.5664e-25  1.6258e-20
      5.25  1.2706e-27  2.2522e-23  1.2826e-27  2.2899e-23  1.3062e-27  2.3568e-23  1.3530e-27  2.4757e-23  1.4410e-27  2.6873e-23  1.5981e-27  3.0635e-23  1.8889e-27  3.7325e-23  2.3563e-27  4.9224e-23  3.1256e-27  7.0389e-23  4.4126e-27  1.0804e-22  6.5468e-27  1.7504e-22  1.0117e-26  2.9433e-22  1.5928e-26  5.0693e-22  2.6197e-26  8.8644e-22  4.4413e-26  1.5659e-21  7.6769e-26  2.7886e-21  1.3428e-25  5.0087e-21  2.3664e-25  9.1012e-21  4.1906e-25  1.6836e-20
      5.30  9.1883e-28  1.8821e-23  9.3149e-28  1.9204e-23  9.5862e-28  1.9884e-23  1.0170e-27  2.1095e-23  1.1030e-27  2.3247e-23  1.2600e-27  2.7074e-23  1.5416e-27  3.3880e-23  1.9853e-27  4.5985e-23  2.7189e-27  6.7517e-23  3.9016e-27  1.0582e-22  5.8970e-27  1.7399e-22  9.0025e-27  2.9537e-22  1.4320e-26  5.1171e-22  2.3630e-26  8.9799e-22  4.0090e-26  1.5898e-21  6.9320e-26  2.8357e-21  1.2116e-25  5.1006e-21  2.1348e-25  9.2840e-21  3.7810e-25  1.7216e-20
      5.35  6.9185e-28  1.5998e-23  7.0684e-28  1.6387e-23  7.4167e-28  1.7080e-23  7.9863e-28  1.8312e-23  8.8565e-28  2.0503e-23  1.0358e-27  2.4400e-23  1.3050e-27  3.1329e-23  1.7244e-27  4.3654e-23  2.4055e-27  6.5575e-23  3.5550e-27  1.0458e-22  5.3590e-27  1.7398e-22  8.0928e-27  2.9758e-22  1.2880e-26  5.1791e-22  2.1304e-26  9.1138e-22  3.6208e-26  1.6164e-21  6.2565e-26  2.8869e-21  1.0946e-25  5.1993e-21  1.9298e-25  9.4793e-21  3.4199e-25  1.7621e-20
      5.40  5.3787e-28  1.3792e-23  5.5477e-28  1.4172e-23  5.9118e-28  1.4847e-23  6.4142e-28  1.6046e-23  7.2629e-28  1.8180e-23  8.6278e-28  2.1975e-23  1.1044e-27  2.8723e-23  1.5217e-27  4.0725e-23  2.1710e-27  6.2074e-23  3.2862e-27  1.0006e-22  4.7790e-27  1.6766e-22  7.2399e-27  2.8805e-22  1.1553e-26  5.0268e-22  1.9125e-26  8.8611e-22  3.2506e-26  1.5734e-21  5.6130e-26  2.8131e-21  9.8076e-26  5.0727e-21  1.7283e-25  9.2648e-21  3.0627e-25  1.7270e-20
      5.45  4.2647e-28  1.2003e-23  4.3984e-28  1.2321e-23  4.7157e-28  1.2886e-23  5.1418e-28  1.3892e-23  5.8470e-28  1.5680e-23  7.0922e-28  1.8860e-23  9.2146e-28  2.4516e-23  1.2847e-27  3.4574e-23  1.9356e-27  5.2466e-23  2.9713e-27  8.4298e-23  4.2176e-27  1.4096e-22  6.3678e-27  2.4187e-22  1.0096e-26  4.2183e-22  1.6517e-26  7.4341e-22  2.7817e-26  1.3203e-21  4.7781e-26  2.3619e-21  8.3214e-26  4.2641e-21  1.4634e-25  7.8047e-21  2.5918e-25  1.4600e-20
      5.50  3.4367e-28  1.0512e-23  3.5137e-28  1.0742e-23  3.6840e-28  1.1150e-23  4.0764e-28  1.1875e-23  4.6816e-28  1.3164e-23  5.7293e-28  1.5458e-23  7.6224e-28  1.9537e-23  1.0971e-27  2.6792e-23  1.6737e-27  3.9696e-23  2.5842e-27  6.2654e-23  3.7571e-27  1.0352e-22  5.6061e-27  1.7632e-22  8.6229e-27  3.0616e-22  1.3856e-26  5.3828e-22  2.2954e-26  9.5494e-22  3.9035e-26  1.7081e-21  6.7596e-26  3.0862e-21  1.1847e-25  5.6593e-21  2.0939e-25  1.0622e-20
      5.55  2.8296e-28  9.3517e-24  2.8833e-28  9.5243e-24  2.9946e-28  9.8312e-24  3.2396e-28  1.0377e-23  3.7717e-28  1.1347e-23  4.7943e-28  1.3073e-23  6.6412e-28  1.6142e-23  9.9313e-28  2.1600e-23  1.5535e-27  3.1309e-23  2.3565e-27  4.8583e-23  3.4361e-27  7.9334e-23  5.0226e-27  1.3412e-22  7.5725e-27  2.3184e-22  1.1937e-26  4.0659e-22  1.9538e-26  7.2039e-22  3.3015e-26  1.2880e-21  5.6863e-26  2.3280e-21  9.9423e-26  4.2736e-21  1.7541e-25  8.0380e-21
      5.60  2.3753e-28  8.4611e-24  2.4254e-28  8.6110e-24  2.5317e-28  8.8774e-24  2.7713e-28  9.3512e-24  3.2158e-28  1.0194e-23  4.1641e-28  1.1692e-23  6.1085e-28  1.4357e-23  9.4629e-28  1.9096e-23  1.5330e-27  2.7525e-23  2.2117e-27  4.2525e-23  3.1919e-27  6.9227e-23  4.5270e-27  1.1680e-22  6.7462e-27  2.0167e-22  1.0591e-26  3.5346e-22  1.7350e-26  6.2609e-22  2.9272e-26  1.1195e-21  5.0445e-26  2.0240e-21  8.8162e-26  3.7183e-21  1.5548e-25  7.0027e-21
      5.65  2.0253e-28  7.7681e-24  2.0828e-28  7.9902e-24  2.1925e-28  8.1655e-24  2.4559e-28  8.6178e-24  2.9526e-28  9.4222e-24  3.9105e-28  1.0853e-23  5.7869e-28  1.3396e-23  9.2496e-28  1.7921e-23  1.5153e-27  2.5968e-23  2.1242e-27  4.0289e-23  2.9888e-27  6.5784e-23  4.1639e-27  1.1121e-22  6.1949e-27  1.9225e-22  9.7138e-27  3.3719e-22  1.5933e-26  5.9759e-22  2.6900e-26  1.0690e-21  4.6389e-26  1.9336e-21  8.1104e-26  3.5546e-21  1.4309e-25  6.7010e-21
      5.70  1.7501e-28  7.2185e-24  1.8045e-28  7.3585e-24  1.9294e-28  7.6075e-24  2.2322e-28  8.0502e-24  2.7428e-28  8.8375e-24  3.7634e-28  1.0237e-23  5.7657e-28  1.2727e-23  9.4607e-28  1.7155e-23  1.4416e-27  2.5032e-23  1.9700e-27  3.9049e-23  2.7138e-27  6.4005e-23  3.8182e-27  1.0847e-22  5.6928e-27  1.8780e-22  8.9573e-27  3.2970e-22  1.4736e-26  5.8466e-22  2.4963e-26  1.0464e-21  4.3131e-26  1.8936e-21  7.5506e-26  3.4834e-21  1.3335e-25  6.5729e-21
      5.75  1.5275e-28  6.7196e-24  1.5816e-28  6.8529e-24  1.7077e-28  7.0899e-24  2.0002e-28  7.5115e-24  2.5619e-28  8.2610e-24  3.6513e-28  9.5939e-24  5.8381e-28  1.1964e-23  9.4375e-28  1.6180e-23  1.2867e-27  2.3681e-23  1.7380e-27  3.7029e-23  2.3617e-27  6.0791e-23  3.3859e-27  1.0313e-22  5.1122e-27  1.7867e-22  8.1358e-27  3.1382e-22  1.3469e-26  5.5669e-22  2.2916e-26  9.9665e-22  3.9724e-26  1.8045e-21  6.9699e-26  3.3217e-21  1.2332e-25  6.2744e-21
      5.80  1.3463e-28  6.3379e-24  1.3976e-28  6.4603e-24  1.5167e-28  6.6780e-24  1.7999e-28  7.0652e-24  2.3849e-28  7.7535e-24  3.6002e-28  8.9775e-24  5.6577e-28  1.1154e-23  8.3950e-28  1.5027e-23  1.1207e-27  2.1916e-23  1.5144e-27  3.4176e-23  2.0594e-27  5.6002e-23  3.0107e-27  9.4891e-23  4.5993e-27  1.6429e-22  7.3634e-27  2.8845e-22  1.2255e-26  5.1163e-22  2.0932e-26  9.1608e-22  3.6374e-26  1.6592e-21  6.3957e-26  3.0564e-21  1.1341e-25  5.7800e-21
      5.85  1.1998e-28  6.0506e-24  1.2533e-28  6.1661e-24  1.3755e-28  6.3713e-24  1.6597e-28  6.7362e-24  2.3141e-28  7.3851e-24  3.6031e-28  8.5389e-24  5.2028e-28  1.0592e-23  7.4571e-28  1.4243e-23  9.9286e-28  2.0738e-23  1.3635e-27  3.2296e-23  1.8867e-27  5.2875e-23  2.7405e-27  8.9542e-23  4.2146e-27  1.5498e-22  6.7835e-27  2.7207e-22  1.1336e-26  4.8259e-22  1.9415e-26  8.6423e-22  3.3819e-26  1.5659e-21  5.9591e-26  2.8865e-21  1.0595e-25  5.4650e-21
      5.90  1.0822e-28  5.8453e-24  1.1395e-28  5.9605e-24  1.2738e-28  6.1654e-24  1.5850e-28  6.5297e-24  2.2726e-28  7.1775e-24  3.4884e-28  8.3295e-24  5.0443e-28  1.0379e-23  6.7636e-28  1.4024e-23  9.2894e-28  2.0509e-23  1.2645e-27  3.2049e-23  1.7527e-27  5.2595e-23  2.5522e-27  8.9205e-23  3.9532e-27  1.5454e-22  6.4166e-27  2.7147e-22  1.0770e-26  4.8175e-22  1.8514e-26  8.6308e-22  3.2345e-26  1.5646e-21  5.7164e-26  2.8862e-21  1.0202e-25  5.4704e-21
      5.95  9.8295e-29  5.7032e-24  1.0425e-28  5.8208e-24  1.1844e-28  6.0299e-24  1.5168e-28  6.4017e-24  2.2502e-28  7.0629e-24  3.4437e-28  8.2387e-24  4.9527e-28  1.0330e-23  6.6558e-28  1.4051e-23  8.7984e-28  2.0670e-23  1.1911e-27  3.2450e-23  1.6681e-27  5.3421e-23  2.4343e-27  9.0793e-23  3.7720e-27  1.5749e-22  6.1426e-27  2.7687e-22  1.0347e-26  4.9160e-22  1.7832e-26  8.8115e-22  3.1227e-26  1.5982e-21  5.5335e-26  2.9504e-21  9.9124e-26  5.5984e-21
      6.00  8.9689e-29  5.6079e-24  9.5310e-29  5.7259e-24  1.0893e-28  5.9357e-24  1.4151e-28  6.3088e-24  2.1438e-28  6.9721e-24  3.4814e-28  8.1517e-24  4.9378e-28  1.0250e-23  6.5429e-28  1.3983e-23  8.5983e-28  2.0624e-23  1.1570e-27  3.2441e-23  1.6161e-27  5.3482e-23  2.3802e-27  9.0977e-23  3.7035e-27  1.5790e-22  6.0478e-27  2.7771e-22  1.0218e-26  4.9324e-22  1.7669e-26  8.8442e-22  3.1038e-26  1.6050e-21  5.5205e-26  2.9652e-21  9.9437e-26  5.6335e-21
      6.05  8.2190e-29  5.5667e-24  8.7021e-29  5.6814e-24  9.8863e-29  5.8853e-24  1.2786e-28  6.2477e-24  1.9545e-28  6.8922e-24  3.3824e-28  8.0382e-24  4.8860e-28  1.0077e-23  6.4775e-28  1.3703e-23  8.4711e-28  2.0155e-23  1.1284e-27  3.1637e-23  1.5617e-27  5.2081e-23  2.3076e-27  8.8514e-23  3.6128e-27  1.5355e-22  5.9275e-27  2.6999e-22  1.0053e-26  4.7952e-22  1.7435e-26  8.5998e-22  3.0717e-26  1.5613e-21  5.4837e-26  2.8870e-21  9.9325e-26  5.4923e-21
      6.10  7.5876e-29  5.5592e-24  7.9975e-29  5.6680e-24  9.0041e-29  5.8613e-24  1.1461e-28  6.2050e-24  1.7234e-28  6.8162e-24  2.9904e-28  7.9028e-24  4.5508e-28  9.8357e-24  6.2169e-28  1.3274e-23  8.0376e-28  1.9392e-23  1.0583e-27  3.0280e-23  1.4855e-27  4.9665e-23  2.2138e-27  8.4214e-23  3.4992e-27  1.4589e-22  5.7868e-27  2.5634e-22  9.8658e-27  4.5514e-22  1.7175e-26  8.1629e-22  3.0365e-26  1.4826e-21  5.4427e-26  2.7436e-21  9.9148e-26  5.2269e-21
      6.15  7.0760e-29  5.5813e-24  7.4485e-29  5.6821e-24  8.3185e-29  5.8614e-24  1.0400e-28  6.1803e-24  1.5178e-28  6.7472e-24  2.4324e-28  7.7551e-24  3.6247e-28  9.5479e-24  5.3365e-28  1.2737e-23  7.0765e-28  1.8411e-23  9.5631e-28  2.8509e-23  1.3716e-27  4.6489e-23  2.0797e-27  7.8534e-23  3.3372e-27  1.3575e-22  5.5740e-27  2.3822e-22  9.5725e-27  4.2272e-22  1.6748e-26  7.5805e-22  2.9725e-26  1.3772e-21  5.3498e-26  2.5506e-21  9.7980e-26  4.8660e-21
      6.20  6.6460e-29  5.6277e-24  6.9993e-29  5.7178e-24  7.7946e-29  5.8780e-24  9.5901e-29  6.1628e-24  1.3116e-28  6.6692e-24  1.9626e-28  7.5696e-24  2.8413e-28  9.1710e-24  4.0815e-28  1.2020e-23  5.7671e-28  1.7087e-23  8.2124e-28  2.6106e-23  1.2127e-27  4.2165e-23  1.8943e-27  7.0789e-23  3.0930e-27  1.2190e-22  5.2310e-27  2.1345e-22  9.0538e-27  3.7835e-22  1.5924e-26  6.7820e-22  2.8375e-26  1.2324e-21  5.1266e-26  2.2840e-21  9.4342e-26  4.3636e-21
      6.25  6.2447e-29  5.6946e-24  6.5599e-29  5.7704e-24  7.2435e-29  5.9052e-24  8.5848e-29  6.1449e-24  1.1179e-28  6.5710e-24  1.5891e-28  7.3287e-24  2.2106e-28  8.6763e-24  3.1559e-28  1.1073e-23  4.5508e-28  1.5337e-23  6.7331e-28  2.2925e-23  1.0342e-27  3.6437e-23  1.6626e-27  6.0522e-23  2.7703e-27  1.0353e-22  4.7412e-27  1.8059e-22  8.2642e-27  3.1943e-22  1.4603e-26  5.7204e-22  2.6114e-26  1.0393e-21  4.7339e-26  1.9275e-21  8.7478e-26  3.6878e-21
      6.30  5.8745e-29  5.8059e-24  6.1262e-29  5.8663e-24  6.6185e-29  5.9739e-24  7.6515e-29  6.1651e-24  9.4733e-29  6.5051e-24  1.2833e-28  7.1096e-24  1.6974e-28  8.1848e-24  2.4272e-28  1.0097e-23  3.6010e-28  1.3498e-23  5.4319e-28  1.9551e-23  8.6310e-28  3.0330e-23  1.4177e-27  4.9543e-23  2.4013e-27  8.3859e-23  4.1487e-27  1.4535e-22  7.2752e-27  2.5618e-22  1.2906e-26  4.5795e-22  2.3146e-26  8.3157e-22  4.2082e-26  1.5428e-21  7.8048e-26  2.9559e-21
      6.35  5.5514e-29  5.9437e-24  5.7371e-29  5.9916e-24  6.1061e-29  6.0767e-24  6.8123e-29  6.2280e-24  8.2145e-29  6.4971e-24  1.0705e-28  6.9756e-24  1.3494e-28  7.8266e-24  1.8597e-28  9.3401e-24  2.7813e-28  1.2032e-23  4.4059e-28  1.6823e-23  7.1329e-28  2.5354e-23  1.1966e-27  4.0562e-23  2.0487e-27  6.7725e-23  3.5658e-27  1.1641e-22  6.2859e-27  2.0419e-22  1.1190e-26  3.6410e-22  2.0125e-26  6.6050e-22  3.6691e-26  1.2257e-21  6.8300e-26  2.3512e-21
      6.40  5.2701e-29  6.1077e-24  5.4244e-29  6.1466e-24  5.7132e-29  6.2157e-24  6.2312e-29  6.3386e-24  7.1977e-29  6.5572e-24  9.1381e-29  6.9457e-24  1.1320e-28  7.6367e-24  1.5183e-28  8.8657e-24  2.2414e-28  1.1052e-23  3.5896e-28  1.4942e-23  6.0072e-28  2.1869e-23  1.0282e-27  3.4219e-23  1.7849e-27  5.6280e-23  3.1352e-27  9.5828e-23  5.5606e-27  1.6716e-22  9.9400e-27  2.9717e-22  1.7938e-26  5.3841e-22  3.2825e-26  9.9913e-22  6.1399e-26  1.9188e-21
      6.45  5.0230e-29  6.2951e-24  5.1614e-29  6.3273e-24  5.3890e-29  6.3845e-24  5.8056e-29  6.4861e-24  6.5345e-29  6.6669e-24  7.9462e-29  6.9883e-24  1.0088e-28  7.5598e-24  1.3354e-28  8.5764e-24  1.9603e-28  1.0385e-23  3.1340e-28  1.3602e-23  5.2989e-28  1.9332e-23  9.1974e-28  2.9546e-23  1.6166e-27  4.7795e-23  2.8677e-27  8.0514e-23  5.1132e-27  1.3955e-22  9.1775e-27  2.4720e-22  1.6623e-26  4.4714e-22  3.0546e-26  8.2954e-22  5.7466e-26  1.5945e-21
      6.50  4.8056e-29  6.5041e-24  4.9272e-29  6.5308e-24  5.1072e-29  6.5783e-24  5.4409e-29  6.6628e-24  6.0263e-29  6.8131e-24  7.1042e-29  7.0803e-24  8.7458e-29  7.5555e-24  1.1524e-28  8.4006e-24  1.6698e-28  9.9038e-24  2.6480e-28  1.2579e-23  4.4832e-28  1.7341e-23  7.8695e-28  2.5833e-23  1.3993e-27  4.1004e-23  2.5010e-27  6.8209e-23  4.4866e-27  1.1731e-22  8.0869e-27  2.0689e-22  1.4696e-26  3.7338e-22  2.7095e-26  6.9220e-22  5.1179e-26  1.3311e-21
      6.55  4.6159e-29  6.7647e-24  4.7194e-29  6.7873e-24  4.8625e-29  6.8276e-24  5.1256e-29  6.8991e-24  5.6140e-29  7.0264e-24  6.5182e-29  7.2526e-24  7.9058e-29  7.6550e-24  1.0255e-28  8.3706e-24  1.4715e-28  9.6435e-24  2.3276e-28  1.1909e-23  3.9540e-28  1.5942e-23  6.9942e-28  2.3133e-23  1.2573e-27  3.5982e-23  2.2687e-27  5.9025e-23  4.0959e-27  1.0062e-22  7.4164e-27  1.7654e-22  1.3529e-26  3.1772e-22  2.5035e-26  5.8832e-22  4.7494e-26  1.1313e-21
      6.60  4.4533e-29  7.0491e-24  4.5748e-29  7.1396e-24  4.6582e-29  7.1043e-24  4.8720e-29  7.1670e-24  5.2880e-29  7.2786e-24  6.0942e-29  7.4771e-24  7.3383e-29  7.8301e-24  9.3971e-29  8.4579e-24  1.3455e-28  9.5747e-24  2.1363e-28  1.1562e-23  3.6517e-28  1.5101e-23  6.5127e-28  2.1411e-23  1.1815e-27  3.2685e-23  2.1507e-27  5.2906e-23  3.9122e-27  8.9411e-23  7.1214e-27  1.5606e-22  1.3045e-26  2.8006e-22  2.4234e-26  5.1791e-22  4.6184e-26  9.9568e-22
      6.65  4.3128e-29  7.3569e-24  4.3780e-29  7.3750e-24  4.4831e-29  7.4072e-24  4.6603e-29  7.4645e-24  5.0074e-29  7.5664e-24  5.7303e-29  7.7475e-24  6.8434e-29  8.0696e-24  8.7176e-29  8.6426e-24  1.2484e-28  9.6618e-24  1.9938e-28  1.1476e-23  3.4357e-28  1.4706e-23  6.1799e-28  2.0465e-23  1.1309e-27  3.0756e-23  2.0762e-27  4.9216e-23  3.8038e-27  8.2545e-23  6.9623e-27  1.4341e-22  1.2807e-26  2.5669e-22  2.3884e-26  4.7410e-22  4.5708e-26  9.1119e-22
      6.70  4.1908e-29  7.6877e-24  4.2753e-29  7.7819e-24  4.3273e-29  7.7353e-24  4.4834e-29  7.7894e-24  4.7920e-29  7.8857e-24  5.4801e-29  8.0568e-24  6.6550e-29  8.3612e-24  8.6603e-29  8.9026e-24  1.2747e-28  9.8657e-24  2.0865e-28  1.1580e-23  3.6576e-28  1.4632e-23  6.6502e-28  2.0074e-23  1.2262e-27  2.9800e-23  2.2636e-27  4.7245e-23  4.1664e-27  7.8748e-23  7.6571e-27  1.3629e-22  1.4136e-26  2.4341e-22  2.6464e-26  4.4911e-22  5.0892e-26  8.6296e-22
      6.75  4.0848e-29  8.0416e-24  4.1204e-29  8.0582e-24  4.1957e-29  8.0877e-24  4.3354e-29  8.1402e-24  4.6392e-29  8.2336e-24  5.3473e-29  8.3996e-24  6.6025e-29  8.6949e-24  8.8418e-29  9.2201e-24  1.3419e-28  1.0154e-23  2.2486e-28  1.1817e-23  3.9908e-28  1.4778e-23  7.3091e-28  2.0058e-23  1.3524e-27  2.9494e-23  2.5036e-27  4.6421e-23  4.6194e-27  7.6989e-23  8.5115e-27  1.3283e-22  1.5756e-26  2.3683e-22  2.9586e-26  4.3661e-22  5.7113e-26  8.3880e-22
      6.80  3.9926e-29  8.4586e-24  4.0192e-29  8.4751e-24  4.0827e-29  8.5043e-24  4.2112e-29  8.5563e-24  4.4997e-29  8.6488e-24  5.1776e-29  8.8133e-24  6.5298e-29  9.1058e-24  8.8763e-29  9.6261e-24  1.3708e-28  1.0552e-23  2.3175e-28  1.2199e-23  4.1314e-28  1.5132e-23  7.5851e-28  2.0363e-23  1.4066e-27  2.9712e-23  2.6090e-27  4.6482e-23  4.8248e-27  7.6772e-23  8.9121e-27  1.3211e-22  1.6539e-26  2.3520e-22  3.1133e-26  4.3331e-22  6.0272e-26  8.3238e-22
      6.85  3.9117e-29  8.9041e-24  3.9322e-29  8.9206e-24  3.9811e-29  8.9501e-24  4.0982e-29  9.0025e-24  4.3570e-29  9.0956e-24  5.0300e-29  9.2612e-24  6.5151e-29  9.5557e-24  9.0655e-29  1.0080e-23  1.4389e-28  1.1012e-23  2.4652e-28  1.2670e-23  4.4445e-28  1.5624e-23  8.2026e-28  2.0891e-23  1.5259e-27  3.0304e-23  2.8351e-27  4.7192e-23  5.2498e-27  7.7696e-23  9.7108e-27  1.3344e-22  1.8051e-26  2.3729e-22  3.4048e-26  4.3695e-22  6.6081e-26  8.3932e-22
      6.90  3.8426e-29  9.3787e-24  3.8597e-29  9.3954e-24  3.8998e-29  9.4253e-24  3.9983e-29  9.4783e-24  4.2547e-29  9.5726e-24  4.9453e-29  9.7403e-24  6.5838e-29  1.0039e-23  9.4526e-29  1.0569e-23  1.5487e-28  1.1513e-23  2.7046e-28  1.3192e-23  4.9568e-28  1.6183e-23  9.2669e-28  2.1516e-23  1.7343e-27  3.1047e-23  3.2290e-27  4.8149e-23  5.9816e-27  7.9040e-23  1.1067e-26  1.3550e-22  2.0587e-26  2.4071e-22  3.8883e-26  4.4303e-22  7.5616e-26  8.5098e-22
      6.95  3.7816e-29  9.8831e-24  3.7971e-29  9.9000e-24  3.8332e-29  9.9300e-24  3.9262e-29  9.9833e-24  4.1791e-29  1.0078e-23  4.9065e-29  1.0349e-23  6.5388e-29  1.0546e-23  9.4695e-29  1.1079e-23  1.5434e-28  1.2027e-23  2.6947e-28  1.3715e-23  4.9940e-28  1.6720e-23  9.4144e-28  2.2079e-23  1.7702e-27  3.1657e-23  3.3049e-27  4.8841e-23  6.1335e-27  7.9885e-23  1.1364e-26  1.3663e-22  2.1164e-26  2.4239e-22  4.0027e-26  4.4585e-22  7.7965e-26  8.5628e-22
      7.00  3.7280e-29  1.0418e-23  3.7422e-29  1.0435e-23  3.7767e-29  1.0465e-23  3.8648e-29  1.0517e-23  4.0989e-29  1.0611e-23  4.7427e-29  1.0777e-23  6.4795e-29  1.1072e-23  9.4080e-29  1.1597e-23  1.5065e-28  1.2531e-23  2.6570e-28  1.4193e-23  4.9720e-28  1.7153e-23  9.4438e-28  2.2431e-23  1.7871e-27  3.1864e-23  3.3539e-27  4.8791e-23  6.2466e-27  7.9371e-23  1.1601e-26  1.3527e-22  2.1644e-26  2.3949e-22  4.0997e-26  4.4002e-22  7.9983e-26  8.4475e-22
      7.05  3.6794e-29  1.1037e-23  3.6923e-29  1.1053e-23  3.7230e-29  1.1081e-23  3.8032e-29  1.1131e-23  4.0182e-29  1.1220e-23  4.6147e-29  1.1379e-23  6.2854e-29  1.1661e-23  9.2452e-29  1.2162e-23  1.4905e-28  1.3054e-23  2.6439e-28  1.4642e-23  4.9879e-28  1.7468e-23  9.5789e-28  2.2509e-23  1.8371e-27  3.1517e-23  3.4811e-27  4.7680e-23  6.5256e-27  7.6884e-23  1.2169e-26  1.3027e-22  2.2763e-26  2.2983e-22  4.3202e-26  4.2145e-22  8.4436e-26  8.0836e-22
      7.10  3.6361e-29  1.1695e-23  3.6474e-29  1.1709e-23  3.6747e-29  1.1735e-23  3.7454e-29  1.1781e-23  3.9386e-29  1.1863e-23  4.4851e-29  1.2009e-23  6.0316e-29  1.2267e-23  9.0984e-29  1.2728e-23  1.4886e-28  1.3546e-23  2.6427e-28  1.5003e-23  4.9958e-28  1.7596e-23  9.7851e-28  2.2219e-23  1.9104e-27  3.0481e-23  3.6700e-27  4.5306e-23  6.9421e-27  7.2092e-23  1.3020e-26  1.2107e-22  2.4445e-26  2.1240e-22  4.6511e-26  3.8826e-22  9.1087e-26  7.4347e-22
      7.15  3.5978e-29  1.2395e-23  3.6076e-29  1.2408e-23  3.6312e-29  1.2430e-23  3.6933e-29  1.2471e-23  3.8654e-29  1.2543e-23  4.3393e-29  1.2670e-23  5.6448e-29  1.2898e-23  8.5124e-29  1.3302e-23  1.3471e-28  1.4020e-23  2.3270e-28  1.5299e-23  4.4099e-28  1.7575e-23  8.7394e-28  2.1633e-23  1.7366e-27  2.8883e-23  3.3925e-27  4.1891e-23  6.5033e-27  6.5393e-23  1.2313e-26  1.0837e-22  2.3264e-26  1.8853e-22  4.4451e-26  3.4290e-22  8.7309e-26  6.5483e-22
      7.20  3.5639e-29  1.3140e-23  3.5721e-29  1.3151e-23  3.5920e-29  1.3170e-23  3.6444e-29  1.3204e-23  3.7841e-29  1.3265e-23  4.1651e-29  1.3373e-23  5.1898e-29  1.3565e-23  7.6131e-29  1.3907e-23  1.1382e-28  1.4515e-23  1.9456e-28  1.5596e-23  3.6823e-28  1.7521e-23  7.3773e-28  2.0951e-23  1.4968e-27  2.7078e-23  2.9902e-27  3.8072e-23  5.8417e-27  5.7933e-23  1.1218e-26  9.4250e-23  2.1406e-26  1.6200e-22  4.1170e-26  2.9249e-22  8.1219e-26  5.5624e-22
      7.25  3.5339e-29  1.3933e-23  3.5405e-29  1.3941e-23  3.5566e-29  1.3957e-23  3.5978e-29  1.3986e-23  3.7066e-29  1.4036e-23  3.9951e-29  1.4126e-23  4.7465e-29  1.4286e-23  6.5031e-29  1.4570e-23  9.4039e-29  1.5075e-23  1.5462e-28  1.5973e-23  2.8780e-28  1.7571e-23  5.8245e-28  2.0420e-23  1.2078e-27  2.5507e-23  2.4794e-27  3.4633e-23  4.9624e-27  5.1120e-23  9.7103e-27  8.1265e-23  1.8779e-26  1.3750e-22  3.6445e-26  2.4583e-22  7.2326e-26  4.6481e-22
      7.30  3.5074e-29  1.4841e-23  3.5126e-29  1.4848e-23  3.5252e-29  1.4861e-23  3.5571e-29  1.4885e-23  3.6405e-29  1.4927e-23  3.8539e-29  1.5002e-23  4.3998e-29  1.5135e-23  5.6472e-29  1.5372e-23  7.9553e-29  1.5794e-23  1.2504e-28  1.6544e-23  2.2367e-28  1.7878e-23  4.5327e-28  2.0257e-23  9.6519e-28  2.4505e-23  2.0470e-27  3.2123e-23  4.2253e-27  4.5883e-23  8.4736e-27  7.1041e-23  1.6682e-26  1.1797e-22  3.2773e-26  2.0837e-22  6.5560e-26  3.9112e-22
      7.35  3.4841e-29  1.5811e-23  3.4882e-29  1.5817e-23  3.4979e-29  1.5829e-23  3.5224e-29  1.5849e-23  3.5860e-29  1.5885e-23  3.7436e-29  1.5949e-23  4.1438e-29  1.6062e-23  5.1131e-29  1.6264e-23  7.0140e-29  1.6623e-23  1.0492e-28  1.7262e-23  1.8211e-28  1.8399e-23  3.6657e-28  2.0426e-23  7.9824e-28  2.4046e-23  1.7469e-27  3.0537e-23  3.7100e-27  4.2260e-23  7.6186e-27  6.3690e-23  1.5268e-26  1.0366e-22  3.0369e-26  1.8066e-22  6.1255e-26  3.3629e-22
      7.40  3.4635e-29  1.6848e-23  3.4668e-29  1.6854e-23  3.4745e-29  1.6864e-23  3.4936e-29  1.6881e-23  3.5424e-29  1.6913e-23  3.6627e-29  1.6969e-23  3.9669e-29  1.7068e-23  4.7415e-29  1.7244e-23  6.4319e-29  1.7558e-23  9.2739e-29  1.8116e-23  1.5644e-28  1.9110e-23  3.1200e-28  2.0882e-23  6.8411e-28  2.4047e-23  1.5297e-27  2.9721e-23  3.3334e-27  3.9969e-23  6.9991e-27  5.8702e-23  1.4266e-26  9.3638e-23  2.8719e-26  1.6092e-22  5.8396e-26  2.9690e-22
      7.45  3.4455e-29  1.7957e-23  3.4481e-29  1.7962e-23  3.4543e-29  1.7970e-23  3.4696e-29  1.7986e-23  3.5095e-29  1.8014e-23  3.6045e-29  1.8064e-23  3.8470e-29  1.8153e-23  4.4722e-29  1.8312e-23  5.8016e-29  1.8593e-23  7.9762e-29  1.9094e-23  1.2823e-28  1.9986e-23  2.4923e-28  2.1576e-23  5.4648e-28  2.4417e-23  1.2454e-27  2.9512e-23  2.7888e-27  3.8712e-23  6.0120e-27  5.5528e-23  1.2517e-26  8.6885e-23  2.5591e-26  1.4727e-22  5.2587e-26  2.6926e-22
      7.50  3.4296e-29  1.9141e-23  3.4318e-29  1.9145e-23  3.4372e-29  1.9153e-23  3.4498e-29  1.9168e-23  3.4831e-29  1.9194e-23  3.5623e-29  1.9240e-23  3.7654e-29  1.9322e-23  4.2868e-29  1.9467e-23  5.3849e-29  1.9726e-23  7.1614e-29  2.0187e-23  1.1048e-28  2.1008e-23  2.0843e-28  2.2471e-23  4.5373e-28  2.5085e-23  1.0473e-27  2.9773e-23  2.4019e-27  3.8239e-23  5.3120e-27  5.3713e-23  1.1303e-26  8.2565e-23  2.3485e-26  1.3811e-22  4.8798e-26  2.5030e-22
      7.55  3.4156e-29  2.0487e-23  3.4508e-29  2.0696e-23  3.4222e-29  2.0499e-23  3.4334e-29  2.0513e-23  3.4624e-29  2.0537e-23  3.5324e-29  2.0581e-23  3.7123e-29  2.0658e-23  4.1739e-29  2.0795e-23  5.0917e-29  2.1039e-23  6.6407e-29  2.1473e-23  9.9099e-29  2.2246e-23  1.8103e-28  2.3624e-23  3.8827e-28  2.6087e-23  9.0103e-28  3.0504e-23  2.1072e-27  3.8481e-23  4.7785e-27  5.3060e-23  1.0410e-26  8.0240e-23  2.2039e-26  1.3255e-22  4.6408e-26  2.3820e-22
      7.60  3.4033e-29  2.1932e-23  3.4051e-29  2.1936e-23  3.4093e-29  2.1944e-23  3.4195e-29  2.1957e-23  3.4456e-29  2.1980e-23  3.5111e-29  2.2022e-23  3.6788e-29  2.2096e-23  4.1051e-29  2.2228e-23  4.8531e-29  2.2462e-23  6.2413e-29  2.2879e-23  8.9823e-29  2.3623e-23  1.5683e-28  2.4948e-23  3.2513e-28  2.7315e-23  7.4512e-28  3.1563e-23  1.7546e-27  3.9234e-23  4.0497e-27  5.3253e-23  9.0028e-27  7.9386e-23  1.9399e-26  1.2968e-22  4.1396e-26  2.3121e-22
      7.65  3.3924e-29  2.3483e-23  3.3940e-29  2.3487e-23  3.3979e-29  2.3494e-23  3.4073e-29  2.3507e-23  3.4318e-29  2.3530e-23  3.4942e-29  2.3571e-23  3.6516e-29  2.3643e-23  4.0569e-29  2.3772e-23  4.6892e-29  2.4001e-23  5.9193e-29  2.4409e-23  8.2903e-29  2.5136e-23  1.3866e-28  2.6432e-23  2.7647e-28  2.8747e-23  6.2036e-28  3.2902e-23  1.4594e-27  4.0405e-23  3.4122e-27  5.4118e-23  7.7278e-27  7.9677e-23  1.6954e-26  1.2886e-22  3.6699e-26  2.2811e-22
      7.70  3.3827e-29  2.5147e-23  3.3842e-29  2.5151e-23  3.3879e-29  2.5159e-23  3.3968e-29  2.5171e-23  3.4200e-29  2.5194e-23  3.4795e-29  2.5234e-23  3.6315e-29  2.5306e-23  4.0169e-29  2.5434e-23  4.5556e-29  2.5661e-23  5.6312e-29  2.6066e-23  7.7560e-29  2.6786e-23  1.2423e-28  2.8071e-23  2.3773e-28  3.0366e-23  5.1916e-28  3.4485e-23  1.2118e-27  4.1924e-23  2.8563e-27  5.5519e-23  6.5766e-27  8.0858e-23  1.4691e-26  1.2961e-22  3.2293e-26  2.2797e-22
      7.75  3.3741e-29  2.6935e-23  3.3756e-29  2.6939e-23  3.4122e-29  2.7216e-23  3.3875e-29  2.6959e-23  3.4094e-29  2.6982e-23  3.4663e-29  2.7022e-23  3.6124e-29  2.7094e-23  3.9591e-29  2.7222e-23  4.4472e-29  2.7449e-23  5.4022e-29  2.7854e-23  7.2721e-29  2.8575e-23  1.1279e-28  2.9861e-23  2.0705e-28  3.2159e-23  4.3770e-28  3.6283e-23  1.0065e-27  4.3730e-23  2.3782e-27  5.7341e-23  5.5505e-27  8.2708e-23  1.2618e-26  1.3150e-22  2.8189e-26  2.2994e-22
      7.80  3.3666e-29  2.8959e-23  3.3679e-29  2.8963e-23  3.3711e-29  2.8970e-23  3.3791e-29  2.8983e-23  3.3997e-29  2.9006e-23  3.4540e-29  2.9047e-23  3.5934e-29  2.9120e-23  3.9065e-29  2.9249e-23  4.3508e-29  2.9478e-23  5.2051e-29  2.9887e-23  6.8731e-29  3.0614e-23  1.0333e-28  3.1912e-23  1.8224e-28  3.4231e-23  3.7028e-28  3.8393e-23  8.3785e-28  4.5909e-23  1.9740e-27  5.9645e-23  4.6554e-27  8.5245e-23  1.0762e-26  1.3448e-22  2.4457e-26  2.3378e-22
      7.85  3.3598e-29  3.1142e-23  3.3611e-29  3.1146e-23  3.3640e-29  3.1153e-23  3.3715e-29  3.1166e-23  3.3904e-29  3.1190e-23  3.4412e-29  3.1231e-23  3.5721e-29  3.1304e-23  3.8545e-29  3.1435e-23  4.2651e-29  3.1667e-23  5.0213e-29  3.2081e-23  6.5103e-29  3.2817e-23  9.5065e-29  3.4131e-23  1.6148e-28  3.6478e-23  3.1775e-28  4.0690e-23  6.9898e-28  4.8298e-23  1.6347e-27  6.2201e-23  3.8834e-27  8.8110e-23  9.1206e-27  1.3793e-22  2.1103e-26  2.3840e-22
      7.90  3.3539e-29  3.3497e-23  3.3550e-29  3.3501e-23  3.3577e-29  3.3509e-23  3.3977e-29  3.3857e-23  3.3818e-29  3.3545e-23  3.4277e-29  3.3587e-23  3.5475e-29  3.3661e-23  3.7865e-29  3.3794e-23  4.1826e-29  3.4369e-23  4.7920e-29  3.4447e-23  6.0634e-29  3.5193e-23  8.5725e-29  3.6522e-23  1.3994e-28  3.8899e-23  2.6486e-28  4.3162e-23  5.6671e-28  5.0863e-23  1.3109e-27  6.4936e-23  3.1301e-27  9.1157e-23  7.4678e-27  1.4157e-22  1.7619e-26  2.4322e-22
      7.95  3.3486e-29  3.6039e-23  3.3495e-29  3.6043e-23  3.3520e-29  3.6051e-23  3.3580e-29  3.6064e-23  3.3734e-29  3.6088e-23  3.4140e-29  3.6130e-23  3.5209e-29  3.6205e-23  3.7184e-29  3.6338e-23  4.0156e-29  3.6576e-23  4.5683e-29  3.6998e-23  5.6258e-29  3.7751e-23  7.6970e-29  3.9093e-23  1.2070e-28  4.1491e-23  2.1919e-28  4.5793e-23  4.5220e-28  5.3565e-23  1.0328e-27  6.7767e-23  2.4647e-27  9.4226e-23  5.9494e-27  1.4509e-22  1.4285e-26  2.4760e-22
      8.00  3.3439e-29  3.8785e-23  3.3447e-29  3.8789e-23  3.3468e-29  3.8797e-23  3.3521e-29  3.8810e-23  3.3652e-29  3.8834e-23  3.4004e-29  3.8876e-23  3.4915e-29  3.8952e-23  3.6541e-29  3.9086e-23  3.9023e-29  3.9324e-23  4.3608e-29  3.9749e-23  5.2289e-29  4.0506e-23  6.9282e-29  4.1855e-23  1.0411e-28  4.4266e-23  1.8113e-28  4.8592e-23  3.6209e-28  5.6405e-23  8.0594e-28  7.0682e-23  1.9124e-27  9.7277e-23  4.6509e-27  1.4839e-22  1.1335e-26  2.5138e-22
      8.05  3.3397e-29  4.1885e-23  3.3735e-29  4.2309e-23  3.3422e-29  4.1897e-23  3.3467e-29  4.1911e-23  3.3579e-29  4.1935e-23  3.3873e-29  4.1977e-23  3.4647e-29  4.2053e-23  3.5947e-29  4.2188e-23  3.7982e-29  4.2427e-23  4.1722e-29  4.2853e-23  4.8747e-29  4.3613e-23  6.2402e-29  4.4967e-23  9.0010e-29  4.7387e-23  1.4993e-28  5.1729e-23  2.8876e-28  5.9572e-23  6.2730e-28  7.3900e-23  1.4754e-27  1.0059e-22  3.6046e-27  1.5187e-22  8.9012e-27  2.5514e-22
      8.10  3.3360e-29  4.5248e-23  3.3366e-29  4.5252e-23  3.3381e-29  4.5260e-23  3.3418e-29  4.5273e-23  3.3510e-29  4.5297e-23  3.3751e-29  4.5340e-23  3.4385e-29  4.5416e-23  3.5418e-29  4.5550e-23  3.7057e-29  4.5790e-23  4.0058e-29  4.6216e-23  4.5660e-29  4.6976e-23  5.6450e-29  4.8331e-23  7.8128e-29  5.0752e-23  1.2436e-28  5.5096e-23  2.2935e-28  6.2941e-23  4.8621e-28  7.7271e-23  1.1294e-27  1.0396e-22  2.7631e-27  1.5522e-22  6.8967e-27  2.5842e-22
      8.15  3.3327e-29  4.8897e-23  3.3332e-29  4.8901e-23  3.3676e-29  4.9399e-23  3.3374e-29  4.8922e-23  3.3450e-29  4.8946e-23  3.3640e-29  4.8988e-23  3.4151e-29  4.9064e-23  3.4961e-29  4.9198e-23  3.6265e-29  4.9438e-23  3.8596e-29  4.9864e-23  4.3048e-29  5.0622e-23  5.1470e-29  5.1975e-23  6.8252e-29  5.4392e-23  1.0351e-28  5.8728e-23  1.8303e-28  6.6558e-23  3.7395e-28  8.0861e-23  8.5319e-28  1.0749e-22  2.0809e-27  1.5863e-22  5.2342e-27  2.6152e-22
      8.20  3.3298e-29  5.2859e-23  3.3302e-29  5.2863e-23  3.3643e-29  5.3400e-23  3.3668e-29  5.3414e-23  3.3396e-29  5.2908e-23  3.3549e-29  5.2950e-23  3.4291e-29  5.3557e-23  3.4582e-29  5.3160e-23  3.5607e-29  5.3398e-23  3.7467e-29  5.3823e-23  4.0909e-29  5.4580e-23  4.7443e-29  5.5929e-23  6.0352e-29  5.8340e-23  8.7263e-29  6.2665e-23  1.4720e-28  7.0474e-23  2.9003e-28  8.4737e-23  6.4818e-28  1.1129e-22  1.5719e-27  1.6225e-22  3.9754e-27  2.6473e-22
      8.25  3.3272e-29  5.7164e-23  3.3276e-29  5.7168e-23  3.3615e-29  5.7749e-23  3.3634e-29  5.7762e-23  3.3350e-29  5.7213e-23  3.3470e-29  5.7255e-23  3.3783e-29  5.7330e-23  3.4274e-29  5.7464e-23  3.5073e-29  5.7702e-23  3.6524e-29  5.8126e-23  3.9199e-29  5.8882e-23  4.4171e-29  6.0228e-23  5.4174e-29  6.2634e-23  7.4715e-29  6.6951e-23  1.2007e-28  7.4744e-23  2.2742e-28  8.8974e-23  4.9631e-28  1.1546e-22  1.1936e-27  1.6626e-22  3.0280e-27  2.6838e-22
      8.30  3.3249e-29  6.2018e-23  3.3252e-29  6.2022e-23  3.3259e-29  6.2030e-23  3.3274e-29  6.2043e-23  3.3311e-29  6.2067e-23  3.3405e-29  6.2110e-23  3.3647e-29  6.2185e-23  3.4030e-29  6.2320e-23  3.4652e-29  6.2559e-23  3.5782e-29  6.2984e-23  3.7858e-29  6.3741e-23  4.1769e-29  6.5092e-23  4.9407e-29  6.7506e-23  6.5119e-29  7.1835e-23  9.9605e-29  7.9651e-23  1.8077e-28  9.3919e-23  3.8380e-28  1.2046e-22  9.1254e-28  1.7137e-22  2.3168e-27  2.7362e-22
      8.35  3.3229e-29  6.7313e-23  3.3232e-29  6.7318e-23  3.3237e-29  6.7325e-23  3.3580e-29  6.8014e-23  3.3278e-29  6.7363e-23  3.3682e-29  6.8082e-23  3.3535e-29  6.7481e-23  3.3828e-29  6.7617e-23  3.4652e-29  6.8538e-23  3.5170e-29  6.8285e-23  3.6760e-29  6.9047e-23  3.9748e-29  7.0406e-23  4.5567e-29  7.2835e-23  5.7494e-29  7.7190e-23  8.3588e-29  8.5052e-23  1.4485e-28  9.9403e-23  2.9819e-28  1.2609e-22  6.9948e-28  1.7725e-22  1.7640e-27  2.7993e-22
      8.40  3.3211e-29  7.3093e-23  3.3213e-29  7.3098e-23  3.3218e-29  7.3105e-23  3.3228e-29  7.3119e-23  3.3250e-29  7.3143e-23  3.3304e-29  7.3186e-23  3.3441e-29  7.3263e-23  3.3662e-29  7.3400e-23  3.4027e-29  7.3643e-23  3.5036e-29  7.4818e-23  3.5889e-29  7.4844e-23  3.8152e-29  7.6217e-23  4.2555e-29  7.8669e-23  5.1563e-29  8.3066e-23  7.1246e-29  9.1003e-23  1.1746e-28  1.0549e-22  2.3337e-28  1.3242e-22  5.3829e-28  1.8401e-22  1.3625e-27  2.8749e-22
      8.45  3.3196e-29  7.9408e-23  3.3197e-29  7.9412e-23  3.3201e-29  7.9420e-23  3.3209e-29  7.9434e-23  3.3558e-29  8.0257e-23  3.3269e-29  7.9502e-23  3.3374e-29  7.9580e-23  3.3542e-29  7.9718e-23  3.3823e-29  7.9965e-23  3.4328e-29  8.0403e-23  3.5254e-29  8.1183e-23  3.6991e-29  8.2574e-23  4.0365e-29  8.5059e-23  4.7252e-29  8.9516e-23  6.2265e-29  9.7559e-23  9.7471e-29  1.1224e-22  1.8582e-28  1.3951e-22  4.1910e-28  1.9174e-22  1.0540e-27  2.9641e-22
      8.50  3.3512e-29  8.7180e-23  3.3514e-29  8.7184e-23  3.3517e-29  8.7192e-23  3.3523e-29  8.7207e-23  3.3538e-29  8.7232e-23  3.3240e-29  8.6408e-23  3.3321e-29  8.6487e-23  3.3452e-29  8.6628e-23  3.3672e-29  8.6879e-23  3.4065e-29  8.7325e-23  3.4787e-29  8.8118e-23  3.6139e-29  8.9534e-23  3.8759e-29  9.2062e-23  4.4090e-29  9.6597e-23  5.5670e-29  1.0478e-22  8.2747e-29  1.1971e-22  1.5063e-28  1.4744e-22  3.3021e-28  2.0052e-22  8.2143e-28  3.0679e-22
