# This was generated using Cloudy10 and the columns are ordered 
# as log10 of the fraction of the metallicity to the solar metallicity
# 'h_*_Z' and 'c_*_Z' stands for cooling and heating respectively 
# at * metalicity
#
# NOTE: This was generated separately from loop_coolingcurve_w_UV.py
#       using Output_metals_w_redshift.py.
#
# Redshift = 7.0
# hden = 1.0
#
#     temp   h_-3.00_Z   c_-3.00_Z   h_-2.75_Z   c_-2.75_Z   h_-2.50_Z   c_-2.50_Z   h_-2.25_Z   c_-2.25_Z   h_-2.00_Z   c_-2.00_Z   h_-1.75_Z   c_-1.75_Z   h_-1.50_Z   c_-1.50_Z   h_-1.25_Z   c_-1.25_Z   h_-1.00_Z   c_-1.00_Z   h_-0.75_Z   c_-0.75_Z   h_-0.50_Z   c_-0.50_Z   h_-0.25_Z   c_-0.25_Z    h_0.00_Z    c_0.00_Z    h_0.25_Z    c_0.25_Z    h_0.50_Z    c_0.50_Z    h_0.75_Z    c_0.75_Z    h_1.00_Z    c_1.00_Z    h_1.25_Z    c_1.25_Z    h_1.50_Z    c_1.50_Z 
      4.00  1.8679e-25  8.7771e-25  1.8679e-25  8.7937e-25  1.8680e-25  8.8231e-25  1.8680e-25  8.8754e-25  1.8681e-25  8.9684e-25  1.8683e-25  9.1337e-25  1.8687e-25  9.4278e-25  1.8693e-25  9.9507e-25  1.8705e-25  1.0881e-24  1.8725e-25  1.2535e-24  1.8760e-25  1.5476e-24  1.8823e-25  2.0707e-24  1.8935e-25  3.0012e-24  1.9133e-25  4.6569e-24  1.9487e-25  7.6046e-24  2.0117e-25  1.2856e-23  2.1240e-25  2.2218e-23  2.3243e-25  3.8917e-23  2.6816e-25  6.8787e-23
      4.05  1.8434e-25  3.1649e-24  1.8434e-25  3.1671e-24  1.8434e-25  3.1711e-24  1.8435e-25  3.1781e-24  1.8436e-25  3.1907e-24  1.8438e-25  3.2131e-24  1.8442e-25  3.2529e-24  1.8449e-25  3.3236e-24  1.8460e-25  3.4493e-24  1.8481e-25  3.6729e-24  1.8518e-25  4.0703e-24  1.8583e-25  4.7769e-24  1.8699e-25  6.0333e-24  1.8906e-25  8.2674e-24  1.9274e-25  1.2240e-23  1.9928e-25  1.9303e-23  2.1093e-25  3.1848e-23  2.3167e-25  5.4085e-23  2.6849e-25  9.3453e-23
      4.10  1.7889e-25  1.0421e-23  1.7889e-25  1.0424e-23  1.7889e-25  1.0430e-23  1.7890e-25  1.0440e-23  1.7891e-25  1.0458e-23  1.7893e-25  1.0490e-23  1.7897e-25  1.0546e-23  1.7904e-25  1.0647e-23  1.7916e-25  1.0826e-23  1.7938e-25  1.1145e-23  1.7976e-25  1.1710e-23  1.8044e-25  1.2716e-23  1.8165e-25  1.4504e-23  1.8381e-25  1.7680e-23  1.8765e-25  2.3324e-23  1.9447e-25  3.3341e-23  2.0660e-25  5.1079e-23  2.2817e-25  8.2362e-23  2.6633e-25  1.3726e-22
      4.15  1.6113e-25  3.2623e-23  1.6113e-25  3.2628e-23  1.6113e-25  3.2638e-23  1.6114e-25  3.2654e-23  1.6115e-25  3.2684e-23  1.6118e-25  3.2736e-23  1.6122e-25  3.2829e-23  1.6129e-25  3.2994e-23  1.6143e-25  3.3287e-23  1.6166e-25  3.3809e-23  1.6208e-25  3.4736e-23  1.6282e-25  3.6384e-23  1.6414e-25  3.9313e-23  1.6650e-25  4.4519e-23  1.7068e-25  5.3766e-23  1.7812e-25  7.0179e-23  1.9136e-25  9.9243e-23  2.1488e-25  1.5051e-22  2.5652e-25  2.4037e-22
      4.20  1.1451e-25  8.5843e-23  1.1451e-25  8.5853e-23  1.1452e-25  8.5871e-23  1.1452e-25  8.5902e-23  1.1454e-25  8.5959e-23  1.1457e-25  8.6059e-23  1.1461e-25  8.6237e-23  1.1470e-25  8.6553e-23  1.1485e-25  8.7115e-23  1.1512e-25  8.8116e-23  1.1559e-25  8.9895e-23  1.1644e-25  9.3059e-23  1.1795e-25  9.8688e-23  1.2063e-25  1.0870e-22  1.2540e-25  1.2652e-22  1.3390e-25  1.5824e-22  1.4902e-25  2.1477e-22  1.7603e-25  3.1560e-22  2.2430e-25  4.9578e-22
      4.25  6.1784e-26  1.2756e-22  6.1787e-26  1.2758e-22  6.1791e-26  1.2760e-22  6.1799e-26  1.2765e-22  6.1814e-26  1.2774e-22  6.1840e-26  1.2789e-22  6.1887e-26  1.2817e-22  6.1970e-26  1.2865e-22  6.2117e-26  1.2952e-22  6.2380e-26  1.3106e-22  6.2846e-26  1.3381e-22  6.3675e-26  1.3869e-22  6.5151e-26  1.4737e-22  6.7777e-26  1.6283e-22  7.2453e-26  1.9037e-22  8.0787e-26  2.3951e-22  9.5669e-26  3.2744e-22  1.2231e-25  4.8549e-22  1.7031e-25  7.7185e-22
      4.30  3.3735e-26  1.2001e-22  3.3737e-26  1.2003e-22  3.3741e-26  1.2006e-22  3.3747e-26  1.2012e-22  3.3759e-26  1.2022e-22  3.3778e-26  1.2041e-22  3.3814e-26  1.2074e-22  3.3877e-26  1.2134e-22  3.3989e-26  1.2239e-22  3.4189e-26  1.2426e-22  3.4544e-26  1.2758e-22  3.5275e-26  1.3350e-22  3.6728e-26  1.4404e-22  3.9316e-26  1.6279e-22  4.3925e-26  1.9621e-22  5.2146e-26  2.5587e-22  6.6841e-26  3.6270e-22  9.3198e-26  5.5500e-22  1.4076e-25  9.0436e-22
      4.35  2.2374e-26  9.5628e-23  2.2375e-26  9.5650e-23  2.2377e-26  9.5690e-23  2.2380e-26  9.5761e-23  2.2386e-26  9.5887e-23  2.2397e-26  9.6111e-23  2.2416e-26  9.6508e-23  2.2450e-26  9.7216e-23  2.2511e-26  9.8475e-23  2.2726e-26  1.0071e-22  2.3168e-26  1.0469e-22  2.3955e-26  1.1178e-22  2.5356e-26  1.2438e-22  2.7851e-26  1.4682e-22  3.2299e-26  1.8682e-22  4.0243e-26  2.5823e-22  5.4467e-26  3.8613e-22  8.0035e-26  6.1645e-22  1.2621e-25  1.0352e-21
      4.40  1.6623e-26  7.4480e-23  1.6623e-26  7.4508e-23  1.6623e-26  7.4557e-23  1.6623e-26  7.4645e-23  1.6624e-26  7.4801e-23  1.6626e-26  7.5078e-23  1.6629e-26  7.5571e-23  1.6634e-26  7.6448e-23  1.6708e-26  7.8007e-23  1.6945e-26  8.0780e-23  1.7366e-26  8.5714e-23  1.8115e-26  9.4489e-23  1.9451e-26  1.1011e-22  2.1832e-26  1.3791e-22  2.6085e-26  1.8746e-22  3.3698e-26  2.7593e-22  4.7370e-26  4.3436e-22  7.1825e-26  7.1964e-22  1.1585e-25  1.2382e-21
      4.45  1.1041e-26  5.9898e-23  1.1040e-26  5.9934e-23  1.1039e-26  5.9996e-23  1.1036e-26  6.0108e-23  1.1033e-26  6.0306e-23  1.1026e-26  6.0659e-23  1.1013e-26  6.1287e-23  1.0992e-26  6.2403e-23  1.1069e-26  6.4387e-23  1.1292e-26  6.7917e-23  1.1689e-26  7.4195e-23  1.2397e-26  8.5364e-23  1.3661e-26  1.0524e-22  1.5922e-26  1.4062e-22  1.9978e-26  2.0366e-22  2.7240e-26  3.1617e-22  4.0168e-26  5.1760e-22  6.3273e-26  8.8004e-22  1.0492e-25  1.5382e-21
      4.50  5.6494e-27  4.9018e-23  5.6480e-27  4.9063e-23  5.6454e-27  4.9144e-23  5.6408e-27  4.9288e-23  5.6327e-27  4.9544e-23  5.6182e-27  4.9999e-23  5.5924e-27  5.0807e-23  5.5482e-27  5.2246e-23  5.6623e-27  5.4804e-23  5.8656e-27  5.9354e-23  6.2287e-27  6.7447e-23  6.8788e-27  8.1842e-23  8.0472e-27  1.0746e-22  1.0158e-26  1.5305e-22  1.3925e-26  2.3429e-22  2.0598e-26  3.7930e-22  3.2499e-26  6.3881e-22  5.3699e-26  1.1056e-21  9.1722e-26  1.9529e-21
      4.55  2.4701e-27  3.9724e-23  2.4681e-27  3.9783e-23  2.4645e-27  3.9887e-23  2.4581e-27  4.0072e-23  2.4468e-27  4.0402e-23  2.4266e-27  4.0988e-23  2.3908e-27  4.2031e-23  2.4040e-27  4.3885e-23  2.5018e-27  4.7183e-23  2.6768e-27  5.3049e-23  2.9908e-27  6.3481e-23  3.5578e-27  8.2038e-23  4.5893e-27  1.1506e-22  6.4242e-27  1.7385e-22  9.6789e-27  2.7862e-22  1.5476e-26  4.6567e-22  2.5713e-26  8.0057e-22  4.4020e-26  1.4034e-21  7.7079e-26  2.4989e-21
      4.60  1.0949e-27  3.2239e-23  1.0927e-27  3.2315e-23  1.0887e-27  3.2448e-23  1.0817e-27  3.2686e-23  1.0692e-27  3.3110e-23  1.0469e-27  3.3862e-23  1.0145e-27  3.5201e-23  1.0588e-27  3.7581e-23  1.1381e-27  4.1814e-23  1.2806e-27  4.9343e-23  1.5381e-27  6.2734e-23  2.0082e-27  8.6556e-23  2.8478e-27  1.2895e-22  4.3492e-27  2.0444e-22  7.0097e-27  3.3901e-22  1.1738e-26  5.7934e-22  2.0132e-26  1.0100e-21  3.5104e-26  1.7860e-21  6.2176e-26  3.1990e-21
      4.65  5.3929e-28  2.7330e-23  5.3723e-28  2.7426e-23  5.3355e-28  2.7597e-23  5.2703e-28  2.7901e-23  5.1542e-28  2.8442e-23  4.9480e-28  2.9403e-23  4.8429e-28  3.1113e-23  5.1860e-28  3.4154e-23  5.8018e-28  3.9563e-23  6.9146e-28  4.9181e-23  8.9468e-28  6.6290e-23  1.2631e-27  9.6729e-23  1.9245e-27  1.5090e-22  3.1020e-27  2.4738e-22  5.2203e-27  4.1940e-22  8.9644e-27  7.2673e-22  1.5577e-26  1.2778e-21  2.7379e-26  2.2723e-21  4.8722e-26  4.0867e-21
      4.70  3.0541e-28  2.6013e-23  3.0374e-28  2.6136e-23  3.0078e-28  2.6353e-23  2.9551e-28  2.6741e-23  2.8615e-28  2.7429e-23  2.6952e-28  2.8654e-23  2.6517e-28  3.0832e-23  2.9116e-28  3.4705e-23  3.3803e-28  4.1593e-23  4.2345e-28  5.3844e-23  5.8162e-28  7.5636e-23  8.6771e-28  1.1441e-22  1.3882e-27  1.8342e-22  2.3224e-27  3.0634e-22  3.9703e-27  5.2558e-22  6.8663e-27  9.1747e-22  1.2015e-26  1.6208e-21  2.1204e-26  2.8920e-21  3.7823e-26  5.2175e-21
      4.75  1.9930e-28  3.0577e-23  1.9811e-28  3.0732e-23  1.9600e-28  3.1008e-23  1.9225e-28  3.1498e-23  1.8558e-28  3.2369e-23  1.7376e-28  3.3918e-23  1.6885e-28  3.6674e-23  1.8878e-28  4.1574e-23  2.2509e-28  5.0288e-23  2.9233e-28  6.5787e-23  4.1970e-28  9.3358e-23  6.5026e-28  1.4242e-22  1.0626e-27  2.2975e-22  1.7956e-27  3.8533e-22  3.0948e-27  6.6293e-22  5.3920e-27  1.1595e-21  9.4589e-27  2.0516e-21  1.6716e-26  3.6672e-21  2.9874e-26  6.6320e-21
      4.80  1.4479e-28  4.4114e-23  1.4408e-28  4.4307e-23  1.4283e-28  4.4652e-23  1.4062e-28  4.5264e-23  1.3669e-28  4.6353e-23  1.2975e-28  4.8289e-23  1.2331e-28  5.1733e-23  1.3949e-28  5.7858e-23  1.6958e-28  6.8750e-23  2.2724e-28  8.8123e-23  3.3579e-28  1.2259e-22  5.2490e-28  1.8391e-22  8.6566e-28  2.9310e-22  1.4767e-27  4.8767e-22  2.5525e-27  8.3496e-22  4.4521e-27  1.4566e-21  7.8329e-27  2.5748e-21  1.3870e-26  4.6037e-21  2.4853e-26  8.3389e-21
      4.85  1.0794e-28  6.5303e-23  1.0772e-28  6.5541e-23  1.0734e-28  6.5964e-23  1.0667e-28  6.6716e-23  1.0550e-28  6.8052e-23  1.0349e-28  7.0430e-23  1.0016e-28  7.4658e-23  1.1154e-28  8.2176e-23  1.3962e-28  9.5548e-23  1.9342e-28  1.1933e-22  2.9043e-28  1.6165e-22  4.6267e-28  2.3695e-22  7.7196e-28  3.7103e-22  1.3189e-27  6.1001e-22  2.2827e-27  1.0367e-21  3.9819e-27  1.8011e-21  6.9885e-27  3.1776e-21  1.2313e-26  5.6797e-21  2.1980e-26  1.0299e-20
      4.90  7.6216e-29  8.0995e-23  7.6487e-29  8.1278e-23  7.6975e-29  8.1782e-23  7.7859e-29  8.2677e-23  7.9480e-29  8.4269e-23  8.2515e-29  8.7101e-23  8.8400e-29  9.2137e-23  1.0038e-28  1.0109e-22  1.2521e-28  1.1702e-22  1.7704e-28  1.4535e-22  2.7542e-28  1.9576e-22  4.5118e-28  2.8545e-22  7.6668e-28  4.4518e-22  1.3133e-27  7.2991e-22  2.2558e-27  1.2384e-21  3.8836e-27  2.1495e-21  6.7193e-27  3.7914e-21  1.1657e-26  6.7792e-21  2.0590e-26  1.2307e-20
      4.95  5.1268e-29  7.9769e-23  5.1889e-29  8.0094e-23  5.2732e-29  8.0671e-23  5.4746e-29  8.1698e-23  5.8726e-29  8.3524e-23  6.5666e-29  8.6772e-23  7.9118e-29  9.2548e-23  1.0636e-28  1.0282e-22  1.5908e-28  1.2109e-22  2.5447e-28  1.5358e-22  4.2355e-28  2.1139e-22  7.2296e-28  3.1427e-22  1.2383e-27  4.9747e-22  2.1169e-27  8.2406e-22  3.6119e-27  1.4074e-21  6.1598e-27  2.4527e-21  1.0526e-26  4.3369e-21  1.8190e-26  7.7678e-21  3.1984e-26  1.4122e-20
      5.00  3.5411e-29  6.7707e-23  3.6165e-29  6.8065e-23  3.7536e-29  6.8701e-23  4.0067e-29  6.9832e-23  4.4609e-29  7.1843e-23  5.4290e-29  7.5420e-23  7.3351e-29  8.1781e-23  1.1399e-28  9.3093e-23  1.9136e-28  1.1321e-22  3.3224e-28  1.4900e-22  5.6800e-28  2.1266e-22  9.6866e-28  3.2598e-22  1.6395e-27  5.2778e-22  2.7445e-27  8.8758e-22  4.5599e-27  1.5304e-21  7.5853e-27  2.6830e-21  1.2712e-26  4.7625e-21  2.1678e-26  8.5551e-21  3.7624e-26  1.5599e-20
      5.05  2.6468e-29  5.4131e-23  2.7251e-29  5.4498e-23  2.8538e-29  5.5152e-23  3.1625e-29  5.6313e-23  3.7623e-29  5.8379e-23  5.0180e-29  6.2052e-23  7.5767e-29  6.8585e-23  1.3469e-28  8.0202e-23  2.5145e-28  1.0086e-22  4.3114e-28  1.3762e-22  7.2700e-28  2.0301e-22  1.2037e-27  3.1941e-22  1.9605e-27  5.2673e-22  3.1301e-27  8.9647e-22  4.9750e-27  1.5574e-21  7.9733e-27  2.7433e-21  1.3060e-26  4.8859e-21  2.1922e-26  8.8029e-21  3.7234e-26  1.6106e-20
      5.10  2.1573e-29  4.2715e-23  2.2243e-29  4.3072e-23  2.3969e-29  4.3708e-23  2.7823e-29  4.4838e-23  3.6910e-29  4.6847e-23  5.3802e-29  5.0421e-23  9.3159e-29  5.6775e-23  1.8643e-28  6.8076e-23  3.3464e-28  8.8176e-23  5.6490e-28  1.2393e-22  9.1591e-28  1.8755e-22  1.4424e-27  3.0080e-22  2.2179e-27  5.0254e-22  3.3545e-27  8.6244e-22  5.0970e-27  1.5060e-21  7.7771e-27  2.6619e-21  1.2184e-26  4.7534e-21  1.9947e-26  8.5866e-21  3.3777e-26  1.5763e-20
      5.15  1.8850e-29  3.3961e-23  1.9876e-29  3.4316e-23  2.2339e-29  3.4948e-23  2.8719e-29  3.6070e-23  4.1034e-29  3.8066e-23  6.7426e-29  4.1616e-23  1.3147e-28  4.7929e-23  2.5521e-28  5.9155e-23  4.4342e-28  7.9123e-23  7.2124e-28  1.1464e-22  1.1091e-27  1.7785e-22  1.6537e-27  2.9037e-22  2.4176e-27  4.9085e-22  3.5052e-27  8.4856e-22  4.8516e-27  1.4885e-21  7.1192e-27  2.6387e-21  1.1056e-26  4.7225e-21  1.8048e-26  8.5495e-21  3.0604e-26  1.5739e-20
      5.20  1.7365e-29  2.7419e-23  1.8830e-29  2.7785e-23  2.2786e-29  2.8436e-23  3.3202e-29  2.9593e-23  5.1920e-29  3.1650e-23  9.5611e-29  3.5309e-23  2.0013e-28  4.1816e-23  3.4234e-28  5.3388e-23  5.5789e-28  7.3970e-23  8.7384e-28  1.1059e-22  1.2917e-27  1.7574e-22  1.8440e-27  2.9174e-22  2.5659e-27  4.9844e-22  3.2896e-27  8.6734e-22  4.4938e-27  1.5275e-21  6.5900e-27  2.7148e-21  1.0306e-26  4.8680e-21  1.6970e-26  8.8296e-21  2.9064e-26  1.6293e-20
      5.25  1.6525e-29  2.2517e-23  1.8784e-29  2.2894e-23  2.5263e-29  2.3565e-23  4.1467e-29  2.4757e-23  7.5032e-29  2.6877e-23  1.3564e-28  3.0646e-23  2.5726e-28  3.7350e-23  4.2169e-28  4.9273e-23  6.5179e-28  7.0480e-23  9.8221e-28  1.0821e-22  1.4203e-27  1.7534e-22  1.9841e-27  2.9487e-22  2.4348e-27  5.0790e-22  3.1712e-27  8.8815e-22  4.4369e-27  1.5689e-21  6.6481e-27  2.7940e-21  1.0554e-26  5.0182e-21  1.7579e-26  9.1179e-21  3.0481e-26  1.6865e-20
      5.30  1.6544e-29  1.8807e-23  2.0462e-29  1.9190e-23  3.2291e-29  1.9871e-23  6.2624e-29  2.1083e-23  1.0044e-28  2.3238e-23  1.7072e-28  2.7070e-23  2.9827e-28  3.3885e-23  4.6853e-28  4.6005e-23  7.1654e-28  6.7564e-23  1.0391e-27  1.0592e-22  1.5143e-27  1.7417e-22  1.9090e-27  2.9570e-22  2.4007e-27  5.1231e-22  3.1290e-27  8.9907e-22  4.3291e-27  1.5918e-21  6.4231e-27  2.8391e-21  1.0006e-26  5.1066e-21  1.6509e-26  9.2945e-21  2.8529e-26  1.7234e-20
      5.35  1.7610e-29  1.5977e-23  2.4752e-29  1.6367e-23  4.5172e-29  1.7060e-23  7.6932e-29  1.8294e-23  1.2044e-28  2.0487e-23  1.9208e-28  2.4388e-23  3.1870e-28  3.1325e-23  4.9396e-28  4.3662e-23  7.3782e-28  6.5607e-23  1.1158e-27  1.0465e-22  1.5516e-27  1.7413e-22  1.8413e-27  2.9786e-22  2.2811e-27  5.1842e-22  2.9755e-27  9.1231e-22  4.1323e-27  1.6181e-21  6.0434e-27  2.8899e-21  9.4711e-27  5.2045e-21  1.5680e-26  9.4883e-21  2.7211e-26  1.7636e-20
      5.40  1.8462e-29  1.3766e-23  2.8383e-29  1.4146e-23  5.2381e-29  1.4822e-23  8.0528e-29  1.6023e-23  1.2612e-28  1.8160e-23  1.9285e-28  2.1960e-23  3.1090e-28  2.8718e-23  5.0943e-28  4.0738e-23  7.7293e-28  6.2117e-23  1.2097e-27  1.0015e-22  1.4876e-27  1.6785e-22  1.7856e-27  2.8841e-22  2.2525e-27  5.0335e-22  2.9850e-27  8.8731e-22  4.2043e-27  1.5756e-21  6.2017e-27  2.8170e-21  9.6872e-27  5.0795e-21  1.6042e-26  9.2767e-21  2.7856e-26  1.7291e-20
      5.45  1.6726e-29  1.1971e-23  2.4329e-29  1.2290e-23  4.5361e-29  1.2856e-23  6.9374e-29  1.3863e-23  1.0797e-28  1.5655e-23  1.7294e-28  1.8840e-23  2.8428e-28  2.4506e-23  4.6607e-28  3.4582e-23  7.8918e-28  5.2504e-23  1.2674e-27  8.4389e-23  1.5003e-27  1.4114e-22  1.8491e-27  2.4223e-22  2.3751e-27  4.2249e-22  3.1000e-27  7.4461e-22  4.2719e-27  1.3224e-21  6.2247e-27  2.3657e-21  9.6302e-27  4.2709e-21  1.5802e-26  7.8167e-21  2.7354e-26  1.4621e-20
      5.50  1.3856e-29  1.0475e-23  1.6947e-29  1.0705e-23  2.5773e-29  1.1113e-23  5.0010e-29  1.1840e-23  8.4213e-29  1.3131e-23  1.4369e-28  1.5428e-23  2.5114e-28  1.9512e-23  4.4081e-28  2.6777e-23  7.6072e-28  3.9698e-23  1.2145e-27  6.2687e-23  1.5732e-27  1.0361e-22  1.9748e-27  1.7650e-22  2.4181e-27  3.0652e-22  3.0750e-27  5.3895e-22  4.0356e-27  9.5615e-22  5.6458e-27  1.7103e-21  8.4739e-27  3.0901e-21  1.3589e-26  5.6661e-21  2.3128e-26  1.0634e-20
      5.55  1.2457e-29  9.3091e-24  1.3954e-29  9.4818e-24  1.8203e-29  9.7889e-24  3.0206e-29  1.0335e-23  6.1951e-29  1.1306e-23  1.2557e-28  1.3033e-23  2.4158e-28  1.6105e-23  4.4870e-28  2.1567e-23  7.9293e-28  3.1283e-23  1.2105e-27  4.8571e-23  1.6044e-27  7.9346e-23  1.9715e-27  1.3417e-22  2.3533e-27  2.3197e-22  2.8380e-27  4.0686e-22  3.6072e-27  7.2090e-22  4.8557e-27  1.2890e-21  7.0586e-27  2.3296e-21  1.1063e-26  4.2765e-21  1.8489e-26  8.0432e-21
      5.60  1.1860e-29  8.4125e-24  1.3424e-29  8.5624e-24  1.7911e-29  8.8289e-24  3.0963e-29  9.3030e-24  5.6025e-29  1.0146e-23  1.1637e-28  1.1645e-23  2.4963e-28  1.4311e-23  4.7629e-28  1.9052e-23  8.6988e-28  2.7484e-23  1.2038e-27  4.2490e-23  1.5713e-27  6.9204e-23  1.8175e-27  1.1680e-22  2.1001e-27  2.0171e-22  2.5008e-27  3.5355e-22  3.1364e-27  6.2630e-22  4.1676e-27  1.1199e-21  5.9738e-27  2.0248e-21  9.2514e-27  3.7197e-21  1.5328e-26  7.0049e-21
      5.65  1.1441e-29  7.7130e-24  1.3459e-29  7.8561e-24  1.9169e-29  8.1105e-24  3.5634e-29  8.5630e-24  6.7460e-29  9.3676e-24  1.3152e-28  1.0799e-23  2.6281e-28  1.3343e-23  5.0893e-28  1.7869e-23  9.2085e-28  2.5918e-23  1.2127e-27  4.0244e-23  1.5133e-27  6.5746e-23  1.6857e-27  1.1118e-22  1.9336e-27  1.9225e-22  2.2818e-27  3.3724e-22  2.8625e-27  5.9770e-22  3.8032e-27  1.0692e-21  5.4614e-27  1.9341e-21  8.4670e-27  3.5555e-21  1.4060e-26  6.7025e-21
      5.70  1.1042e-29  7.1564e-24  1.3528e-29  7.2964e-24  2.0788e-29  7.5455e-24  4.1756e-29  7.9883e-24  7.6267e-29  8.7759e-24  1.4892e-28  1.0176e-23  2.9687e-28  1.2667e-23  5.7352e-28  1.7096e-23  9.0255e-28  2.4975e-23  1.1365e-27  3.8998e-23  1.3570e-27  6.3961e-23  1.5312e-27  1.0844e-22  1.7518e-27  1.8779e-22  2.0752e-27  3.2974e-22  2.6240e-27  5.8478e-22  3.5506e-27  1.0466e-21  5.1794e-27  1.8941e-21  8.1436e-27  3.4843e-21  1.3686e-26  6.5744e-21
      5.75  1.0392e-29  6.6496e-24  1.3097e-29  6.7829e-24  2.0905e-29  7.0201e-24  4.1234e-29  7.4418e-24  8.2612e-29  8.1917e-24  1.6458e-28  9.5251e-24  3.3534e-28  1.1896e-23  6.0455e-28  1.6114e-23  8.0068e-28  2.3618e-23  9.8233e-28  3.6971e-23  1.1268e-27  6.0744e-23  1.2989e-27  1.0310e-22  1.5101e-27  1.7868e-22  1.8397e-27  3.1388e-22  2.3826e-27  5.5685e-22  3.3101e-27  9.9698e-22  4.9687e-27  1.8051e-21  8.0037e-27  3.3228e-21  1.3717e-26  6.2764e-21
      5.80  9.7049e-30  6.2591e-24  1.2289e-29  6.3816e-24  1.9795e-29  6.5994e-24  4.0602e-29  6.9867e-24  8.5426e-29  7.6753e-24  1.8268e-28  8.8998e-24  3.4535e-28  1.1078e-23  5.4171e-28  1.4951e-23  6.8618e-28  2.1844e-23  8.3681e-28  3.4108e-23  9.4984e-28  5.5943e-23  1.1333e-27  9.4847e-23  1.3565e-27  1.6427e-22  1.6928e-27  2.8848e-22  2.2672e-27  5.1174e-22  3.2661e-27  9.1634e-22  5.0554e-27  1.6597e-21  8.3599e-27  3.0573e-21  1.4638e-26  5.7817e-21
      5.85  9.2919e-30  5.9621e-24  1.2358e-29  6.0775e-24  2.0665e-29  6.2828e-24  4.2132e-29  6.6478e-24  9.4303e-29  7.2969e-24  2.0220e-28  8.4510e-24  3.2330e-28  1.0504e-23  4.7894e-28  1.4156e-23  6.0265e-28  2.0653e-23  7.5389e-28  3.2215e-23  8.8729e-28  5.2798e-23  1.0480e-27  8.9475e-23  1.2897e-27  1.5493e-22  1.6672e-27  2.7205e-22  2.3229e-27  4.8262e-22  3.4718e-27  8.6435e-22  5.5524e-27  1.5662e-21  9.4101e-27  2.8870e-21  1.6792e-26  5.4659e-21
      5.90  9.0166e-30  5.7458e-24  1.2731e-29  5.8610e-24  2.2593e-29  6.0659e-24  4.7363e-29  6.4303e-24  1.0485e-28  7.0781e-24  2.0641e-28  8.2303e-24  3.2653e-28  1.0280e-23  4.3510e-28  1.3926e-23  5.7510e-28  2.0412e-23  7.1061e-28  3.1954e-23  8.4295e-28  5.2503e-23  1.0098e-27  8.9119e-23  1.2856e-27  1.5447e-22  1.7483e-27  2.7142e-22  2.5434e-27  4.8172e-22  3.9603e-27  8.6311e-22  6.5402e-27  1.5647e-21  1.1350e-26  2.8864e-21  2.0619e-26  5.4708e-21
      5.95  8.5531e-30  5.5914e-24  1.2740e-29  5.7090e-24  2.3433e-29  5.9181e-24  5.1087e-29  6.2900e-24  1.1300e-28  6.9513e-24  2.1301e-28  8.1273e-24  3.3337e-28  1.0219e-23  4.4562e-28  1.3940e-23  5.5671e-28  2.0561e-23  6.7793e-28  3.2342e-23  8.3523e-28  5.3317e-23  1.0214e-27  9.0693e-23  1.3277e-27  1.5740e-22  1.8639e-27  2.7680e-22  2.8067e-27  4.9156e-22  4.4907e-27  8.8116e-22  7.5712e-27  1.5983e-21  1.3335e-26  2.9506e-21  2.4503e-26  5.5989e-21
      6.00  7.9708e-30  5.4824e-24  1.1917e-29  5.6004e-24  2.2565e-29  5.8103e-24  4.9853e-29  6.1834e-24  1.1333e-28  6.8468e-24  2.2813e-28  8.0266e-24  3.4620e-28  1.0125e-23  4.5379e-28  1.3859e-23  5.6524e-28  2.0500e-23  6.9519e-28  3.2320e-23  8.5691e-28  5.3364e-23  1.0922e-27  9.0864e-23  1.4751e-27  1.5780e-22  2.1471e-27  2.7762e-22  3.3436e-27  4.9319e-22  5.5067e-27  8.8442e-22  9.4715e-27  1.6051e-21  1.6915e-26  2.9655e-21  3.1408e-26  5.6340e-21
      6.05  7.0798e-30  5.4258e-24  1.0372e-29  5.5405e-24  1.9446e-29  5.7444e-24  4.3452e-29  6.1069e-24  1.0300e-28  6.7515e-24  2.3077e-28  7.8977e-24  3.5419e-28  9.9365e-24  4.6562e-28  1.3564e-23  5.8022e-28  2.0017e-23  7.1076e-28  3.1500e-23  8.7607e-28  5.1947e-23  1.1454e-27  8.8385e-23  1.6030e-27  1.5343e-22  2.4107e-27  2.6988e-22  3.8561e-27  4.7945e-22  6.4726e-27  8.5996e-22  1.1279e-26  1.5614e-21  2.0328e-26  2.8872e-21  3.8014e-26  5.4928e-21
      6.10  6.4556e-30  5.4011e-24  9.2035e-30  5.5098e-24  1.6714e-29  5.7032e-24  3.6820e-29  6.0469e-24  8.7353e-29  6.6582e-24  2.0048e-28  7.7450e-24  3.3253e-28  9.6781e-24  4.5640e-28  1.3117e-23  5.6258e-28  1.9236e-23  6.8214e-28  3.0125e-23  8.6948e-28  4.9513e-23  1.1711e-27  8.4066e-23  1.6978e-27  1.4575e-22  2.6363e-27  2.5621e-22  4.3162e-27  4.5504e-22  7.3590e-27  8.1624e-22  1.2962e-26  1.4826e-21  2.3532e-26  2.7438e-21  4.4260e-26  5.2273e-21
      6.15  6.1057e-30  5.4038e-24  8.7852e-30  5.5597e-24  1.5040e-29  5.6840e-24  3.2183e-29  6.0028e-24  7.3206e-29  6.5698e-24  1.5258e-28  7.5779e-24  2.5037e-28  9.3710e-24  3.8341e-28  1.2561e-23  4.8962e-28  1.8236e-23  6.1775e-28  2.8335e-23  8.1877e-28  4.6317e-23  1.1458e-27  7.8367e-23  1.7256e-27  1.3559e-22  2.7574e-27  2.3807e-22  4.6131e-27  4.2260e-22  7.9781e-27  7.5797e-22  1.4178e-26  1.3772e-21  2.5901e-26  2.5508e-21  4.8953e-26  4.8664e-21
      6.20  5.8783e-30  5.4285e-24  8.3470e-30  5.5186e-24  1.4410e-29  5.6788e-24  2.9012e-29  5.9637e-24  5.8311e-29  6.4701e-24  1.1276e-28  7.3707e-24  1.8173e-28  8.9724e-24  2.7215e-28  1.1821e-23  3.8093e-28  1.6890e-23  5.1920e-28  2.5911e-23  7.2168e-28  4.1973e-23  1.0673e-27  7.0601e-23  1.6685e-27  1.2172e-22  2.7441e-27  2.1329e-22  4.6775e-27  3.7821e-22  8.1879e-27  6.7812e-22  1.4664e-26  1.2324e-21  2.6930e-26  2.2842e-21  5.1111e-26  4.3640e-21
      6.25  5.3730e-30  5.4710e-24  7.6095e-30  5.5468e-24  1.2818e-29  5.6817e-24  2.3345e-29  5.9214e-24  4.4155e-29  6.3477e-24  8.2115e-29  7.1056e-24  1.2802e-28  8.4535e-24  1.9363e-28  1.0851e-23  2.8172e-28  1.5116e-23  4.0851e-28  2.2706e-23  6.0683e-28  3.6221e-23  9.4617e-28  6.0312e-23  1.5398e-27  1.0333e-22  2.5965e-27  1.8041e-22  4.4938e-27  3.1928e-22  7.9420e-27  5.7194e-22  1.4312e-26  1.0393e-21  2.6395e-26  1.9277e-21  5.0277e-26  3.6883e-21
      6.30  4.7068e-30  5.5550e-24  6.4579e-30  5.6155e-24  1.0019e-29  5.7231e-24  1.7761e-29  5.9144e-24  3.1860e-29  6.2545e-24  5.7819e-29  6.8593e-24  8.5634e-29  7.9348e-24  1.3446e-28  9.8476e-24  2.0886e-28  1.3250e-23  3.1554e-28  1.9306e-23  4.9955e-28  3.0088e-23  8.1249e-28  4.9309e-23  1.3665e-27  8.3637e-23  2.3497e-27  1.4515e-22  4.1175e-27  2.5602e-22  7.3318e-27  4.5786e-22  1.3275e-26  8.3162e-22  2.4569e-26  1.5431e-21  4.6947e-26  2.9566e-21
      6.35  4.1031e-30  5.6622e-24  5.3329e-30  5.7101e-24  7.9082e-30  5.7952e-24  1.2993e-29  5.9466e-24  2.3509e-29  6.2157e-24  4.2190e-29  6.6943e-24  5.8986e-29  7.5455e-24  9.0287e-29  9.0593e-24  1.4737e-28  1.1752e-23  2.4743e-28  1.6544e-23  4.0916e-28  2.5077e-23  6.9511e-28  4.0288e-23  1.1964e-27  6.7457e-23  2.0895e-27  1.1615e-22  3.7001e-27  2.0395e-22  6.6311e-27  3.6389e-22  1.2057e-26  6.6035e-22  2.2384e-26  1.2256e-21  4.2896e-26  2.3513e-21
      6.40  3.5264e-30  5.7918e-24  4.5958e-30  5.8307e-24  6.5220e-30  5.8999e-24  1.0071e-29  6.0228e-24  1.7001e-29  6.2413e-24  3.1393e-29  6.6300e-24  4.4254e-29  7.3211e-24  6.6956e-29  8.5503e-24  1.1094e-28  1.0737e-23  1.9541e-28  1.4628e-23  3.4759e-28  2.1556e-23  6.1583e-28  3.3908e-23  1.0893e-27  5.5973e-23  1.9359e-27  9.5527e-23  3.4657e-27  1.6687e-22  6.2524e-27  2.9691e-22  1.1418e-26  5.3818e-22  2.1268e-26  9.9897e-22  4.0886e-26  1.9187e-21
      6.45  3.0779e-30  5.9407e-24  3.9881e-30  5.9728e-24  5.5772e-30  6.0300e-24  8.4578e-30  6.1317e-24  1.3470e-29  6.3125e-24  2.3561e-29  6.6339e-24  3.7497e-29  7.2056e-24  5.7695e-29  8.2223e-24  9.7474e-29  1.0031e-23  1.7446e-28  1.3249e-23  3.1912e-28  1.8979e-23  5.8127e-28  2.9195e-23  1.0511e-27  4.7446e-23  1.8983e-27  8.0170e-23  3.4257e-27  1.3921e-22  6.2129e-27  2.4688e-22  1.1387e-26  4.4685e-22  2.1272e-26  8.2930e-22  4.1011e-26  1.5943e-21
      6.50  2.5669e-30  6.1063e-24  3.4531e-30  6.1331e-24  4.6665e-30  6.1806e-24  6.9639e-30  6.2651e-24  1.0878e-29  6.4154e-24  1.8820e-29  6.7495e-24  2.9120e-29  7.1578e-24  4.6578e-29  8.0030e-24  7.9945e-29  9.5063e-24  1.4510e-28  1.2181e-23  2.7055e-28  1.6945e-23  5.0592e-28  2.5437e-23  9.3458e-28  4.0609e-23  1.7098e-27  6.7816e-23  3.1147e-27  1.1692e-22  5.6823e-27  2.0650e-22  1.0455e-26  3.7301e-22  1.9588e-26  6.9184e-22  3.7866e-26  1.3308e-21
      6.55  2.1399e-30  6.3184e-24  2.9036e-30  6.3410e-24  3.8524e-30  6.3813e-24  5.6271e-30  6.4528e-24  8.9956e-30  6.5801e-24  1.5359e-29  6.8063e-24  2.4472e-29  7.2087e-24  3.9174e-29  7.9243e-24  6.8958e-29  9.1973e-24  1.2770e-28  1.1463e-23  2.4257e-28  1.5496e-23  4.6164e-28  2.2687e-23  8.6847e-28  3.5536e-23  1.6112e-27  5.8579e-23  2.9608e-27  1.0017e-22  5.4319e-27  1.7609e-22  1.0034e-26  3.1728e-22  1.8854e-26  5.8788e-22  3.6536e-26  1.1309e-21
      6.60  1.7913e-30  6.5484e-24  2.4031e-30  6.5682e-24  3.1788e-30  6.6035e-24  4.6283e-30  6.6663e-24  7.5163e-30  6.7779e-24  1.3332e-29  6.9764e-24  2.1778e-29  7.3293e-24  3.5238e-29  7.9571e-24  6.3147e-29  9.0738e-24  1.1969e-28  1.1061e-23  2.3115e-28  1.4600e-23  4.4599e-28  2.0909e-23  8.4946e-28  3.2183e-23  1.5934e-27  5.2403e-23  2.9542e-27  8.8907e-23  5.4509e-27  1.5555e-22  1.0107e-26  2.7955e-22  1.9043e-26  5.1738e-22  3.6986e-26  9.9514e-22
      6.65  1.5026e-30  6.7950e-24  1.9603e-30  6.8131e-24  2.6680e-30  6.8454e-24  3.8287e-30  6.9026e-24  6.2176e-30  7.0045e-24  1.1533e-29  7.1856e-24  1.9262e-29  7.5077e-24  3.1934e-29  8.0806e-24  5.8806e-29  9.0998e-24  1.1415e-28  1.0913e-23  2.2421e-28  1.4143e-23  4.3793e-28  1.9902e-23  8.4291e-28  3.0192e-23  1.5964e-27  4.8650e-23  2.9827e-27  8.1976e-23  5.5343e-27  1.4283e-22  1.0300e-26  2.5611e-22  1.9458e-26  4.7349e-22  3.7869e-26  9.1055e-22
      6.70  1.2498e-30  7.0573e-24  1.5654e-30  7.0744e-24  2.1649e-30  7.1049e-24  3.2029e-30  7.1590e-24  5.3605e-30  7.2552e-24  1.0686e-29  7.4264e-24  1.9425e-29  7.7307e-24  3.4266e-29  8.2720e-24  6.5859e-29  9.2349e-24  1.3055e-28  1.0949e-23  2.5834e-28  1.4000e-23  5.0546e-28  1.9442e-23  9.7394e-28  2.9166e-23  1.8464e-27  4.6609e-23  3.4561e-27  7.8107e-23  6.4255e-27  1.3564e-22  1.1978e-26  2.4275e-22  2.2657e-26  4.4842e-22  4.4153e-26  8.6223e-22
      6.75  1.0617e-30  7.3342e-24  1.2757e-30  7.3508e-24  1.7741e-30  7.3804e-24  2.7206e-30  7.4329e-24  4.9597e-30  7.5262e-24  1.0629e-29  7.6922e-24  2.0659e-29  7.9874e-24  3.8566e-29  8.5125e-24  7.6364e-29  9.4467e-24  1.5284e-28  1.1109e-23  3.0184e-28  1.4070e-23  5.8881e-28  1.9349e-23  1.1306e-27  2.8782e-23  2.1399e-27  4.5706e-23  4.0035e-27  7.6268e-23  7.4471e-27  1.3210e-22  1.3894e-26  2.3608e-22  2.6305e-26  4.3582e-22  5.1310e-26  8.3796e-22
      6.80  8.9934e-31  7.6649e-24  1.0423e-30  7.6814e-24  1.4578e-30  7.7106e-24  2.3529e-30  7.7626e-24  4.5479e-30  7.8551e-24  1.0100e-29  8.0196e-24  2.1444e-29  8.3120e-24  4.1028e-29  8.8322e-24  8.2441e-29  9.7575e-24  1.6484e-28  1.1404e-23  3.2439e-28  1.4337e-23  6.3094e-28  1.9567e-23  1.2101e-27  2.8913e-23  2.2897e-27  4.5680e-23  4.2872e-27  7.5962e-23  7.9864e-27  1.3129e-22  1.4923e-26  2.3436e-22  2.8290e-26  4.3243e-22  5.5246e-26  8.3142e-22
      6.85  7.6797e-31  8.0136e-24  8.8237e-31  8.1104e-24  1.1679e-30  8.0596e-24  1.9911e-30  8.1119e-24  3.9794e-30  8.2050e-24  9.7161e-30  8.4543e-24  2.2600e-29  8.6650e-24  4.4728e-29  9.1887e-24  9.1963e-29  1.0120e-23  1.8391e-28  1.1778e-23  3.6285e-28  1.4731e-23  7.0488e-28  1.9997e-23  1.3505e-27  2.9408e-23  2.5529e-27  4.6291e-23  4.7776e-27  7.6787e-23  8.9008e-27  1.3251e-22  1.6640e-26  2.3634e-22  3.1569e-26  4.3595e-22  6.1703e-26  8.3824e-22
      6.90  6.6342e-31  8.3795e-24  7.4148e-31  8.3962e-24  9.7638e-31  8.4261e-24  1.6676e-30  8.4791e-24  3.7084e-30  8.5734e-24  9.6832e-30  8.7410e-24  2.4410e-29  9.0391e-24  5.0166e-29  9.5694e-24  1.0528e-28  1.0513e-23  2.1158e-28  1.2191e-23  4.2026e-28  1.5181e-23  8.2187e-28  2.0513e-23  1.5772e-27  3.0041e-23  2.9790e-27  4.7137e-23  5.5662e-27  7.8019e-23  1.0358e-26  1.3446e-22  1.9355e-26  2.3964e-22  3.6721e-26  4.4190e-22  7.1800e-26  8.4976e-22
      6.95  5.7964e-31  8.7620e-24  6.5257e-31  8.7789e-24  8.6881e-31  8.8089e-24  1.5424e-30  8.8621e-24  3.6136e-30  8.9569e-24  9.6744e-30  9.1253e-24  2.4959e-29  9.4249e-24  5.1692e-29  9.9577e-24  1.0677e-28  1.0906e-23  2.1378e-28  1.2592e-23  4.2925e-28  1.5596e-23  8.4560e-28  2.0953e-23  1.6287e-27  3.0528e-23  3.0821e-27  4.7706e-23  5.7663e-27  7.8739e-23  1.0739e-26  1.3546e-22  2.0083e-26  2.4119e-22  3.8133e-26  4.4458e-22  7.4626e-26  8.5490e-22
      7.00  5.0954e-31  9.1606e-24  5.8049e-31  9.1772e-24  7.9883e-31  9.2067e-24  1.4549e-30  9.2592e-24  3.3966e-30  9.3525e-24  9.1251e-30  9.5185e-24  2.5229e-29  9.8135e-24  5.2267e-29  1.0338e-23  1.0484e-28  1.1272e-23  2.1279e-28  1.2933e-23  4.3164e-28  1.5892e-23  8.5635e-28  2.1168e-23  1.6591e-27  3.0598e-23  3.1547e-27  4.7517e-23  5.9211e-27  7.8084e-23  1.1051e-26  1.3396e-22  2.0693e-26  2.3814e-22  3.9336e-26  4.3861e-22  7.7057e-26  8.4320e-22
      7.05  4.3761e-31  9.6253e-24  5.0517e-31  9.6411e-24  7.0690e-31  9.6693e-24  1.3071e-30  9.7194e-24  3.0830e-30  9.8086e-24  8.4527e-30  9.9671e-24  2.4056e-29  1.0249e-23  5.1692e-29  1.0750e-23  1.0480e-28  1.1642e-23  2.1393e-28  1.3228e-23  4.3729e-28  1.6054e-23  8.7675e-28  2.1092e-23  1.7210e-27  3.0095e-23  3.3029e-27  4.6251e-23  6.2369e-27  7.5440e-23  1.1683e-26  1.2880e-22  2.1928e-26  2.2831e-22  4.1746e-26  4.1986e-22  8.1874e-26  8.0662e-22
      7.10  3.7376e-31  1.0111e-23  4.3360e-31  1.0126e-23  6.1050e-31  1.0151e-23  1.1376e-30  1.0197e-23  2.7760e-30  1.0279e-23  7.7626e-30  1.0425e-23  2.2210e-29  1.0683e-23  5.1180e-29  1.1143e-23  1.0603e-28  1.1961e-23  2.1606e-28  1.3417e-23  4.4182e-28  1.6009e-23  9.0374e-28  2.0629e-23  1.8054e-27  2.8886e-23  3.5112e-27  4.3702e-23  6.6877e-27  7.0472e-23  1.2595e-26  1.1942e-22  2.3718e-26  2.1071e-22  4.5246e-26  3.8647e-22  8.8866e-26  7.4153e-22
      7.15  3.2035e-31  1.0618e-23  3.7176e-31  1.0631e-23  5.2639e-31  1.0653e-23  1.0011e-30  1.0694e-23  2.4641e-30  1.0766e-23  6.7424e-30  1.0893e-23  1.8982e-29  1.1120e-23  4.6206e-29  1.1524e-23  9.3214e-29  1.2242e-23  1.8661e-28  1.3520e-23  3.8674e-28  1.5795e-23  8.0518e-28  1.9849e-23  1.6420e-27  2.7094e-23  3.2521e-27  4.0092e-23  6.2812e-27  6.3579e-23  1.1945e-26  1.0652e-22  2.2639e-26  1.8663e-22  4.3367e-26  3.4091e-22  8.5408e-26  6.5268e-22
      7.20  2.7484e-31  1.1146e-23  3.1790e-31  1.1157e-23  4.4893e-31  1.1176e-23  8.5079e-31  1.1210e-23  2.0317e-30  1.1271e-23  5.4565e-30  1.1379e-23  1.5023e-29  1.1571e-23  3.8046e-29  1.1913e-23  7.3582e-29  1.2520e-23  1.5049e-28  1.3600e-23  3.1735e-28  1.5523e-23  6.7475e-28  1.8950e-23  1.4123e-27  2.5073e-23  2.8675e-27  3.6057e-23  5.6510e-27  5.5903e-23  1.0906e-26  9.2192e-23  2.0879e-26  1.5989e-22  4.0261e-26  2.9030e-22  7.9630e-26  5.5390e-22
      7.25  2.3645e-31  1.1696e-23  2.7113e-31  1.1705e-23  3.7624e-31  1.1721e-23  6.8758e-31  1.1749e-23  1.5989e-30  1.1799e-23  4.1694e-30  1.1889e-23  1.1127e-29  1.2049e-23  2.7714e-29  1.2332e-23  5.4972e-29  1.2837e-23  1.1243e-28  1.3734e-23  2.4009e-28  1.5331e-23  5.2493e-28  1.8177e-23  1.1329e-27  2.3261e-23  2.3734e-27  3.2380e-23  4.8012e-27  4.8854e-23  9.4511e-27  7.8976e-23  1.8345e-26  1.3517e-22  3.5702e-26  2.4344e-22  7.1034e-26  4.6233e-22
      7.30  2.0432e-31  1.2331e-23  2.3135e-31  1.2338e-23  3.1127e-31  1.2352e-23  5.4859e-31  1.2375e-23  1.2393e-30  1.2417e-23  3.1201e-30  1.2492e-23  8.2016e-30  1.2625e-23  1.9987e-29  1.2862e-23  4.1536e-29  1.3284e-23  8.4555e-29  1.4033e-23  1.7880e-28  1.5367e-23  4.0062e-28  1.7744e-23  8.9872e-28  2.1989e-23  1.9560e-27  2.9603e-23  4.0907e-27  4.3356e-23  8.2617e-27  6.8502e-23  1.6333e-26  1.1541e-22  3.2181e-26  2.0580e-22  6.4538e-26  3.8854e-22
      7.35  1.7802e-31  1.2995e-23  1.9834e-31  1.3002e-23  2.5845e-31  1.3013e-23  4.3679e-31  1.3033e-23  9.5657e-31  1.3069e-23  2.3286e-30  1.3133e-23  5.9774e-30  1.3246e-23  1.4945e-29  1.3448e-23  3.2802e-29  1.3807e-23  6.5895e-29  1.4446e-23  1.3968e-28  1.5583e-23  3.1811e-28  1.7610e-23  7.3910e-28  2.1229e-23  1.6688e-27  2.7720e-23  3.5982e-27  3.9443e-23  7.4473e-27  6.0875e-23  1.4991e-26  1.0086e-22  2.9907e-26  1.7788e-22  6.0468e-26  3.3362e-22
      7.40  1.5662e-31  1.3689e-23  1.7214e-31  1.3694e-23  2.1806e-31  1.3704e-23  3.5456e-31  1.3722e-23  7.4704e-31  1.3753e-23  1.7696e-30  1.3809e-23  4.5459e-30  1.3908e-23  1.1825e-29  1.4085e-23  2.7976e-29  1.4399e-23  5.4930e-29  1.4958e-23  1.1602e-28  1.5952e-23  2.6695e-28  1.7725e-23  6.3085e-28  2.0892e-23  1.4618e-27  2.6571e-23  3.2397e-27  3.6827e-23  6.8598e-27  5.5575e-23  1.4046e-26  9.0548e-23  2.8359e-26  1.5792e-22  5.7795e-26  2.9411e-22
      7.45  1.3931e-31  1.4412e-23  1.5159e-31  1.4417e-23  1.8680e-31  1.4426e-23  2.9422e-31  1.4441e-23  6.0908e-31  1.4470e-23  1.4166e-30  1.4520e-23  3.6283e-30  1.4609e-23  9.5212e-30  1.4767e-23  2.2239e-29  1.5049e-23  4.3098e-29  1.5551e-23  8.9260e-29  1.6444e-23  2.0663e-28  1.8037e-23  4.9744e-28  2.0882e-23  1.1850e-27  2.5985e-23  2.7082e-27  3.5200e-23  5.8958e-27  5.2046e-23  1.2339e-26  8.3466e-23  2.5304e-26  1.4398e-22  5.2119e-26  2.6631e-22
      7.50  1.2531e-31  1.5163e-23  1.3481e-31  1.5168e-23  1.6494e-31  1.5176e-23  2.5370e-31  1.5191e-23  5.1573e-31  1.5216e-23  1.1890e-30  1.5263e-23  3.0466e-30  1.5345e-23  7.9830e-30  1.5491e-23  1.8508e-29  1.5750e-23  3.5577e-29  1.6212e-23  7.2577e-29  1.7034e-23  1.6761e-28  1.8501e-23  4.0775e-28  2.1121e-23  9.9220e-28  2.5821e-23  2.3306e-27  3.4308e-23  5.2123e-27  4.9823e-23  1.1154e-26  7.8757e-23  2.3251e-26  1.3448e-22  4.8424e-26  2.4710e-22
      7.55  1.1401e-31  1.6025e-23  1.2292e-31  1.6029e-23  1.4885e-31  1.6037e-23  2.2810e-31  1.6050e-23  4.6015e-31  1.6075e-23  1.0737e-30  1.6118e-23  2.6884e-30  1.6196e-23  7.0503e-30  1.6333e-23  1.5786e-29  1.6578e-23  3.0631e-29  1.7013e-23  6.1965e-29  1.7788e-23  1.4149e-28  1.9170e-23  3.4445e-28  2.1640e-23  8.4963e-28  2.6071e-23  2.0424e-27  3.4073e-23  4.6903e-27  4.8699e-23  1.0281e-26  7.5975e-23  2.1841e-26  1.2850e-22  4.6097e-26  2.3463e-22
      7.60  1.0488e-31  1.6925e-23  1.1307e-31  1.6929e-23  1.3713e-31  1.6937e-23  2.1064e-31  1.6950e-23  4.2436e-31  1.6974e-23  9.8474e-31  1.7015e-23  2.5190e-30  1.7090e-23  6.5719e-30  1.7222e-23  1.3658e-29  1.7457e-23  2.6993e-29  1.7875e-23  5.3234e-29  1.8621e-23  1.1816e-28  1.9950e-23  2.8278e-28  2.2325e-23  6.9627e-28  2.6586e-23  1.6942e-27  3.4282e-23  3.9693e-27  4.8350e-23  8.8876e-27  7.4582e-23  1.9225e-26  1.2509e-22  4.1127e-26  2.2714e-22
      7.65  9.8717e-32  1.8044e-23  1.0516e-31  1.7869e-23  1.2870e-31  1.7877e-23  1.9770e-31  1.7889e-23  3.9901e-31  1.7912e-23  9.4706e-31  1.7953e-23  2.4081e-30  1.8026e-23  6.2580e-30  1.8155e-23  1.2318e-29  1.8385e-23  2.4082e-29  1.8794e-23  4.6997e-29  1.9523e-23  1.0059e-28  2.0822e-23  2.3510e-28  2.3144e-23  5.7315e-28  2.7310e-23  1.4019e-27  3.4835e-23  3.3366e-27  4.8591e-23  7.6210e-27  7.4240e-23  1.6794e-26  1.2362e-22  3.6455e-26  2.2337e-22
      7.70  9.0943e-32  1.8844e-23  9.8554e-32  1.8849e-23  1.2281e-31  1.9044e-23  1.8681e-31  1.8868e-23  3.7758e-31  1.8891e-23  9.0624e-31  1.8932e-23  2.3257e-30  1.9004e-23  6.1028e-30  1.9132e-23  1.1031e-29  1.9359e-23  2.1374e-29  1.9764e-23  4.1328e-29  2.0486e-23  8.6552e-29  2.1772e-23  1.9699e-28  2.4072e-23  4.7299e-28  2.8198e-23  1.1560e-27  3.5652e-23  2.7838e-27  4.9278e-23  6.4750e-27  7.4685e-23  1.4540e-26  1.2360e-22  3.2062e-26  2.2238e-22
      7.75  8.6199e-32  1.9863e-23  9.3200e-32  1.9867e-23  1.1484e-31  1.9874e-23  1.7782e-31  1.9887e-23  3.5928e-31  1.9910e-23  8.6802e-31  1.9950e-23  2.2347e-30  2.0022e-23  5.5687e-30  2.0150e-23  1.0157e-29  2.0377e-23  1.9160e-29  2.0782e-23  3.6960e-29  2.1504e-23  7.5388e-29  2.2790e-23  1.6673e-28  2.5088e-23  3.9222e-28  2.9213e-23  9.5190e-28  3.6665e-23  2.3075e-27  5.0286e-23  5.4520e-27  7.5685e-23  1.2472e-26  1.2458e-22  2.7965e-26  2.2332e-22
      7.80  8.2036e-32  2.1024e-23  8.8658e-32  2.1029e-23  1.0931e-31  2.1036e-23  1.6914e-31  2.1049e-23  3.4074e-31  2.1072e-23  8.2709e-31  2.1112e-23  2.1727e-30  2.1397e-23  5.1758e-30  2.1313e-23  9.2889e-30  2.1543e-23  1.7332e-29  2.1950e-23  3.3382e-29  2.2677e-23  6.5681e-29  2.3972e-23  1.4223e-28  2.6287e-23  3.2686e-28  3.0442e-23  7.8405e-28  3.7947e-23  1.9047e-27  5.1667e-23  4.5590e-27  7.7250e-23  1.0619e-26  1.2649e-22  2.4236e-26  2.2593e-22
      7.85  7.8365e-32  2.2239e-23  8.4674e-32  2.2244e-23  1.0399e-31  2.2251e-23  1.5980e-31  2.2264e-23  3.1684e-31  2.2287e-23  7.6547e-31  2.2328e-23  1.9778e-30  2.2401e-23  4.6841e-30  2.2531e-23  8.4405e-30  2.2762e-23  1.5595e-29  2.3174e-23  2.9625e-29  2.3908e-23  5.8059e-29  2.5215e-23  1.2175e-28  2.7553e-23  2.7321e-28  3.1748e-23  6.4592e-28  3.9327e-23  1.5666e-27  5.3181e-23  3.7889e-27  7.9013e-23  8.9804e-27  1.2874e-22  2.0885e-26  2.2913e-22
      7.90  7.5548e-32  2.3508e-23  8.1010e-32  2.3513e-23  9.8448e-32  2.3520e-23  1.4846e-31  2.3533e-23  2.9136e-31  2.3556e-23  6.9588e-31  2.3598e-23  1.8195e-30  2.3672e-23  4.0331e-30  2.3803e-23  7.3045e-30  2.4036e-23  1.3395e-29  2.4452e-23  2.5277e-29  2.5192e-23  4.8789e-29  2.6513e-23  1.0048e-28  2.8873e-23  2.2073e-28  3.3107e-23  5.1431e-28  4.0758e-23  1.2439e-27  5.4744e-23  3.0374e-27  8.0822e-23  7.3300e-27  1.3101e-22  1.7404e-26  2.3235e-22
      7.95  7.3016e-32  2.4832e-23  7.7799e-32  2.4836e-23  9.3200e-32  2.4843e-23  1.3737e-31  2.4857e-23  2.6518e-31  2.4880e-23  6.1887e-31  2.4922e-23  1.6013e-30  2.4996e-23  3.4240e-30  2.5128e-23  6.1805e-30  2.5363e-23  1.1259e-29  2.5781e-23  2.1042e-29  2.6526e-23  4.0417e-29  2.7855e-23  8.1570e-29  3.0230e-23  1.7562e-28  3.4491e-23  4.0263e-28  4.2189e-23  9.6738e-28  5.6263e-23  2.3746e-27  8.2503e-23  5.8158e-27  1.3300e-22  1.4076e-26  2.3495e-22
      8.00  7.0859e-32  2.6210e-23  7.4913e-32  2.6214e-23  8.8093e-32  2.6222e-23  1.2666e-31  2.6235e-23  2.3524e-31  2.6258e-23  5.4693e-31  2.6300e-23  1.4206e-30  2.6639e-23  2.8513e-30  2.6507e-23  5.1747e-30  2.6742e-23  9.2943e-30  2.7162e-23  1.7218e-29  2.7908e-23  3.2907e-29  2.9240e-23  6.5391e-29  3.1620e-23  1.3825e-28  3.5891e-23  3.1182e-28  4.3606e-23  7.4256e-28  5.7711e-23  1.8258e-27  8.4008e-23  4.5233e-27  1.3461e-22  1.1136e-26  2.3676e-22
      8.05  6.9030e-32  2.7776e-23  7.2355e-32  2.7780e-23  8.3289e-32  2.7788e-23  1.1533e-31  2.7801e-23  2.0540e-31  2.7825e-23  4.6018e-31  2.7866e-23  1.1572e-30  2.7941e-23  2.3264e-30  2.8073e-23  4.1283e-30  2.8309e-23  7.5945e-30  2.8728e-23  1.3868e-29  2.9475e-23  2.6275e-29  3.0807e-23  5.1764e-29  3.3189e-23  1.0785e-28  3.7461e-23  2.3988e-28  4.5181e-23  5.6634e-28  5.9291e-23  1.3930e-27  8.5597e-23  3.4843e-27  1.3621e-22  8.7140e-27  2.3837e-22
      8.10  6.7495e-32  2.9417e-23  7.0141e-32  2.9421e-23  7.8996e-32  2.9428e-23  1.0441e-31  2.9441e-23  1.7724e-31  2.9465e-23  3.8312e-31  2.9507e-23  9.5584e-31  2.9581e-23  1.8803e-30  2.9713e-23  3.2926e-30  2.9948e-23  5.9220e-30  3.0366e-23  1.0863e-29  3.1111e-23  2.0655e-29  3.2439e-23  4.0381e-29  3.4813e-23  8.3139e-29  3.9072e-23  1.8271e-28  4.6767e-23  4.2786e-28  6.0834e-23  1.0516e-27  8.7055e-23  2.6508e-27  1.3750e-22  6.7234e-27  2.3929e-22
      8.15  6.6225e-32  3.1132e-23  6.8277e-32  3.1136e-23  7.5089e-32  3.1144e-23  9.6212e-32  3.1469e-23  1.5254e-31  3.1180e-23  3.1492e-31  3.1222e-23  7.6815e-31  3.1296e-23  1.4671e-30  3.1427e-23  2.5851e-30  3.1660e-23  4.6297e-30  3.2076e-23  8.5299e-30  3.2817e-23  1.5969e-29  3.4138e-23  3.1004e-29  3.6499e-23  6.3158e-29  4.0736e-23  1.3715e-28  4.8389e-23  3.1670e-28  6.2379e-23  7.8005e-28  8.8454e-23  1.9768e-27  1.3861e-22  5.0752e-27  2.3979e-22
      8.20  6.5187e-32  3.2923e-23  6.6746e-32  3.2927e-23  7.1972e-32  3.2934e-23  8.7265e-32  3.2947e-23  1.3131e-31  3.2971e-23  2.5719e-31  3.3012e-23  6.0344e-31  3.3085e-23  1.1542e-30  3.3216e-23  2.0049e-30  3.3448e-23  3.5751e-30  3.3861e-23  6.5000e-30  3.4597e-23  1.2115e-29  3.5909e-23  2.3389e-29  3.8255e-23  4.7732e-29  4.2464e-23  1.0277e-28  5.0068e-23  2.3574e-28  6.3965e-23  5.7953e-28  8.9866e-23  1.4757e-27  1.3968e-22  3.8303e-27  2.4014e-22
      8.25  6.4319e-32  3.4787e-23  6.5487e-32  3.4791e-23  6.9150e-32  3.4799e-23  8.1041e-32  3.4811e-23  1.1450e-31  3.4835e-23  2.0897e-31  3.4876e-23  4.7959e-31  3.4948e-23  8.8647e-31  3.5078e-23  1.5422e-30  3.5309e-23  2.7385e-30  3.5719e-23  4.9595e-30  3.6451e-23  9.2898e-30  3.7755e-23  1.7842e-29  4.0086e-23  3.5948e-29  4.4269e-23  7.6969e-29  5.1824e-23  1.7579e-28  6.5633e-23  4.3183e-28  9.1364e-23  1.1048e-27  1.4084e-22  2.8960e-27  2.4061e-22
      8.30  6.3653e-32  3.6894e-23  6.4492e-32  3.6898e-23  6.7205e-32  3.6905e-23  7.5806e-32  3.6918e-23  1.0100e-31  3.6941e-23  1.7327e-31  3.6982e-23  3.7807e-31  3.7055e-23  6.9319e-31  3.7184e-23  1.1946e-30  3.7415e-23  2.1095e-30  3.7825e-23  3.8046e-30  3.8555e-23  7.0374e-30  3.9857e-23  1.3470e-29  4.2184e-23  2.7037e-29  4.6360e-23  5.7711e-29  5.3902e-23  1.3209e-28  6.7685e-23  3.2307e-28  9.3366e-23  8.3038e-28  1.4274e-22  2.1965e-27  2.4226e-22
      8.35  6.3117e-32  3.9090e-23  6.3751e-32  3.9095e-23  6.5715e-32  3.9102e-23  7.2020e-32  3.9115e-23  9.0259e-32  3.9138e-23  1.4284e-31  3.9179e-23  2.9489e-31  3.9252e-23  5.2871e-31  3.9381e-23  8.9939e-31  3.9612e-23  1.5758e-30  4.0022e-23  2.8300e-30  4.0752e-23  5.2210e-30  4.2056e-23  9.9788e-30  4.4384e-23  2.0018e-29  4.8563e-23  4.2756e-29  5.6110e-23  9.8053e-29  6.9900e-23  2.4078e-28  9.5592e-23  6.1923e-28  1.4498e-22  1.6650e-27  2.4448e-22
      8.40  6.2690e-32  4.1368e-23  6.3145e-32  4.1372e-23  6.4597e-32  4.1379e-23  6.9110e-32  4.1392e-23  8.2161e-32  4.1415e-23  1.2016e-31  4.1457e-23  2.2800e-31  4.1530e-23  3.9950e-31  4.1660e-23  6.6770e-31  4.1891e-23  1.1575e-30  4.2302e-23  2.0670e-30  4.3036e-23  3.8044e-30  4.4343e-23  7.2712e-30  4.6680e-23  1.4616e-29  5.0872e-23  3.1340e-29  5.8444e-23  7.2297e-29  7.2278e-23  1.7884e-28  9.8049e-23  4.6713e-28  1.4757e-22  1.2617e-27  2.4733e-22
      8.45  6.2354e-32  4.3714e-23  6.2683e-32  4.3718e-23  6.3748e-32  4.3725e-23  6.6776e-32  4.3738e-23  7.6499e-32  4.3761e-23  1.0408e-31  4.3803e-23  1.8228e-31  4.3876e-23  3.0796e-31  4.4007e-23  5.0357e-31  4.4240e-23  8.6104e-31  4.4654e-23  1.5258e-30  4.5391e-23  2.8227e-30  4.6706e-23  5.3451e-30  4.9057e-23  1.0762e-29  5.3274e-23  2.3161e-29  6.0890e-23  5.3718e-29  7.4805e-23  1.3380e-28  1.0072e-22  3.5237e-28  1.5052e-22  9.6108e-28  2.5079e-22
      8.50  6.2088e-32  4.6110e-23  6.2331e-32  4.6114e-23  6.3124e-32  4.6121e-23  6.5384e-32  4.6135e-23  7.2383e-32  4.6158e-23  9.2513e-32  4.6200e-23  1.5017e-31  4.6274e-23  2.4099e-31  4.6406e-23  3.8674e-31  4.6640e-23  6.5000e-31  4.7058e-23  1.1402e-30  4.7801e-23  2.0803e-30  4.9127e-23  3.9669e-30  5.1497e-23  7.9950e-30  5.5748e-23  1.7257e-29  6.3426e-23  4.0213e-29  7.7452e-23  1.0077e-28  1.0357e-22  2.6731e-28  1.5375e-22  7.3535e-28  2.5477e-22
