# This was generated using Cloudy10 and the columns are ordered 
# as log10 of the fraction of the metallicity to the solar metallicity
# 'h_*_Z' and 'c_*_Z' stands for cooling and heating respectively 
# at * metalicity
#
# Redshift = 7.5
# hden = 3.5
#     temp   h_-3.00_Z   c_-3.00_Z   h_-2.75_Z   c_-2.75_Z   h_-2.50_Z   c_-2.50_Z   h_-2.25_Z   c_-2.25_Z   h_-2.00_Z   c_-2.00_Z   h_-1.75_Z   c_-1.75_Z   h_-1.50_Z   c_-1.50_Z   h_-1.25_Z   c_-1.25_Z   h_-1.00_Z   c_-1.00_Z   h_-0.75_Z   c_-0.75_Z   h_-0.50_Z   c_-0.50_Z   h_-0.25_Z   c_-0.25_Z    h_0.00_Z    c_0.00_Z    h_0.25_Z    c_0.25_Z    h_0.50_Z    c_0.50_Z    h_0.75_Z    c_0.75_Z    h_1.00_Z    c_1.00_Z    h_1.25_Z    c_1.25_Z    h_1.50_Z    c_1.50_Z 
      4.00  7.1165e-28  5.9651e-26  7.1169e-28  5.9759e-26  7.1177e-28  5.9952e-26  7.1191e-28  6.0294e-26  7.1216e-28  6.0899e-26  7.126e-28  6.1973e-26  7.1339e-28  6.3879e-26  7.1479e-28  6.7264e-26  7.1727e-28  7.3279e-26  7.2167e-28  8.3968e-26  7.2948e-28  1.0296e-25  7.4327e-28  1.3667e-25  7.6758e-28  1.9641e-25  8.1022e-28  3.0202e-25  8.8481e-28  4.885e-25  1.0155e-27  8.1942e-25  1.2458e-27  1.4183e-24  1.653e-27  2.5505e-24  2.3719e-27  4.824e-24
      4.05  7.0672e-28  2.9802e-25  7.0677e-28  2.982e-25  7.0686e-28  2.9852e-25  7.0703e-28  2.9908e-25  7.0732e-28  3.0007e-25  7.0784e-28  3.0182e-25  7.0877e-28  3.0494e-25  7.1042e-28  3.1046e-25  7.1334e-28  3.2025e-25  7.1853e-28  3.3764e-25  7.2773e-28  3.6846e-25   7.44e-28  4.2295e-25  7.7264e-28  5.1888e-25  8.228e-28  6.864e-25  9.0999e-28  9.7577e-25  1.0603e-27  1.4707e-24  1.3173e-27  2.3196e-24  1.7566e-27  3.8344e-24  2.5129e-27  6.7254e-24
      4.10  6.6694e-28  2.6876e-24  6.6703e-28  2.6883e-24  6.672e-28  2.6893e-24  6.6749e-28  2.6913e-24  6.6801e-28  2.6947e-24  6.6894e-28  2.7008e-24  6.7059e-28  2.7115e-24  6.7353e-28  2.7306e-24  6.7874e-28  2.7648e-24   6.88e-28  2.8253e-24  7.0441e-28  2.9326e-24  7.3344e-28  3.1225e-24  7.8459e-28  3.457e-24  8.7406e-28  4.0412e-24  1.0287e-27  5.0452e-24  1.2899e-27  6.7211e-24  1.7146e-27  9.3793e-24  2.3654e-27  1.328e-23  3.3102e-27  1.8687e-23
      4.15  5.4909e-28  2.3462e-23  5.4931e-28  2.3465e-23  5.4971e-28  2.347e-23  5.5042e-28  2.3479e-23  5.5169e-28  2.3496e-23  5.5393e-28  2.3525e-23  5.5792e-28  2.3577e-23  5.6501e-28  2.3669e-23  5.7762e-28  2.3834e-23  6.0004e-28  2.4125e-23  6.3986e-28  2.4644e-23  7.1054e-28  2.5566e-23  8.3586e-28  2.7202e-23  1.0575e-27  3.0099e-23  1.4477e-27  3.5213e-23  2.1296e-27  4.4184e-23  3.3041e-27  5.9731e-23  5.2758e-27  8.6093e-23  8.4301e-27  1.2898e-22
      4.20  3.539e-28  8.6037e-23  3.5423e-28  8.6045e-23  3.548e-28  8.606e-23  3.5581e-28  8.6088e-23  3.5762e-28  8.6136e-23  3.6084e-28  8.6222e-23  3.6655e-28  8.6374e-23  3.7672e-28  8.6645e-23  3.9479e-28  8.7128e-23  4.2693e-28  8.7986e-23  4.8406e-28  8.9512e-23  5.8565e-28  9.2225e-23  7.6624e-28  9.7049e-23  1.0871e-27  1.0563e-22  1.6569e-27  1.2089e-22  2.6679e-27  1.4802e-22  4.4591e-27  1.9626e-22  7.6207e-27  2.8198e-22  1.3168e-26  4.3418e-22
      4.25  2.0657e-28  1.2966e-22  2.0662e-28  1.2967e-22  2.067e-28  1.297e-22  2.0684e-28  1.2974e-22  2.0708e-28  1.2982e-22  2.0753e-28  1.2996e-22  2.0831e-28  1.302e-22  2.0971e-28  1.3064e-22  2.1221e-28  1.3142e-22  2.1664e-28  1.328e-22  2.2453e-28  1.3526e-22  2.3859e-28  1.3964e-22  2.6368e-28  1.4744e-22  3.0854e-28  1.6131e-22  3.8912e-28  1.8601e-22  5.3482e-28  2.3009e-22  8.0118e-28  3.089e-22  1.2968e-27  4.5042e-22  2.2459e-27  7.0647e-22
      4.30  1.8564e-28  1.2072e-22  1.8506e-28  1.2073e-22  1.8398e-28  1.2076e-22  1.821e-28  1.2082e-22  1.7874e-28  1.2091e-22  1.7277e-28  1.2108e-22  1.6216e-28  1.2137e-22  1.4328e-28  1.219e-22  1.0972e-28  1.2283e-22  1.0921e-28  1.2449e-22  1.1673e-28  1.2745e-22  1.3018e-28  1.3271e-22  1.5426e-28  1.4207e-22  1.9762e-28  1.5873e-22  2.7624e-28  1.8842e-22  4.2004e-28  2.4141e-22  6.8538e-28  3.3625e-22  1.1783e-27  5.0682e-22  2.0949e-27  8.1627e-22
      4.35  2.7382e-28  9.6171e-23  2.7242e-28  9.6191e-23  2.6993e-28  9.6227e-23  2.6549e-28  9.629e-23  2.576e-28  9.6402e-23  2.4358e-28  9.6602e-23  2.1863e-28  9.6957e-23  1.7428e-28  9.7588e-23  9.5409e-29  9.8711e-23  7.9193e-29  1.0071e-22  8.6472e-29  1.0426e-22  9.9606e-29  1.1058e-22  1.2354e-28  1.2182e-22  1.6781e-28  1.4183e-22  2.5126e-28  1.775e-22  4.1191e-28  2.4115e-22  7.2642e-28  3.551e-22  1.3454e-27  5.6009e-22  2.4756e-27  9.3215e-22
      4.40  4.0283e-28  7.5528e-23  4.0065e-28  7.5553e-23  3.9677e-28  7.5598e-23  3.8987e-28  7.5677e-23  3.7761e-28  7.5819e-23  3.5579e-28  7.6071e-23   3.17e-28  7.652e-23  2.4802e-28  7.7317e-23  1.2537e-28  7.8736e-23  6.3113e-29  8.1258e-23  7.0491e-29  8.5744e-23  8.419e-29  9.3725e-23  1.1027e-28  1.0793e-22  1.616e-28  1.3321e-22  2.6616e-28  1.7825e-22  4.8498e-28  2.5863e-22  9.4293e-28  4.0246e-22  1.6733e-27  6.6114e-22  2.818e-27  1.1303e-21
      4.45  4.2194e-28  6.0238e-23  4.192e-28  6.027e-23  4.1431e-28  6.0329e-23  4.0562e-28  6.0432e-23  3.9017e-28  6.0616e-23  3.627e-28  6.0943e-23  3.1385e-28  6.1524e-23  2.2701e-28  6.2558e-23  7.2663e-29  6.4397e-23  7.6626e-29  6.7668e-23  1.0493e-28  7.3485e-23  1.5744e-28  8.3833e-23  2.5703e-28  1.0225e-22  4.5089e-28  1.3502e-22  8.3731e-28  1.9341e-22  1.5683e-27  2.9758e-22  2.8234e-27  4.8398e-22  5.0615e-27  8.1904e-22  9.2616e-27  1.4264e-21
      4.50  3.2748e-28  4.7853e-23  3.2443e-28  4.7895e-23   3.19e-28  4.7971e-23  3.0935e-28  4.8105e-23  2.9219e-28  4.8344e-23  2.6168e-28  4.8769e-23  2.0744e-28  4.9524e-23  1.1107e-28  5.0868e-23  8.0033e-29  5.3257e-23  1.1831e-28  5.7506e-23  1.8826e-28  6.5064e-23  3.1801e-28  7.8508e-23  5.6327e-28  1.0243e-22  1.0354e-27  1.4501e-22  1.8808e-27  2.2088e-22  3.3344e-27  3.563e-22  5.9153e-27  5.9866e-22  1.046e-26  1.0345e-21  1.8928e-26  1.8253e-21
      4.55   2.25e-28  3.8056e-23  2.2184e-28  3.8111e-23  2.1622e-28  3.8209e-23  2.0623e-28  3.8383e-23  1.8845e-28  3.8694e-23  1.5686e-28  3.9245e-23  1.0071e-28  4.0226e-23  5.8643e-29  4.1971e-23  8.8168e-29  4.5074e-23  1.4166e-28  5.0592e-23  2.3975e-28  6.0407e-23  4.2271e-28  7.7867e-23  7.7131e-28  1.0893e-22  1.3921e-27  1.6425e-22  2.4871e-27  2.6283e-22  4.4418e-27  4.3884e-22  7.841e-27   7.54e-22  1.3955e-26  1.3213e-21  2.5293e-26  2.3522e-21
      4.60  1.5327e-28  3.0746e-23  1.5028e-28  3.0817e-23  1.4496e-28  3.0944e-23  1.3551e-28  3.1171e-23  1.187e-28  3.1573e-23  8.8833e-29  3.2289e-23  3.6312e-29  3.3561e-23  5.4304e-29  3.5824e-23  8.6752e-29  3.9849e-23  1.4585e-28  4.7007e-23  2.5515e-28  5.9739e-23  4.6172e-28  8.2387e-23  8.3332e-28  1.2269e-22  1.5026e-27  1.9446e-22  2.6838e-27  3.224e-22  4.7745e-27  5.5086e-22  8.4728e-27  9.6018e-22  1.5135e-26  1.6977e-21  2.7454e-26   3.04e-21
      4.65  1.087e-28  2.6144e-23  1.0613e-28  2.6237e-23  1.0157e-28  2.6401e-23  9.3365e-29  2.6694e-23  7.8941e-29  2.7214e-23  5.3334e-29  2.814e-23  3.0804e-29  2.9786e-23  4.7789e-29  3.2714e-23  7.838e-29  3.792e-23  1.3452e-28  4.718e-23  2.3964e-28  6.365e-23  4.3412e-28  9.2952e-23  7.8652e-28  1.451e-22  1.4152e-27  2.3797e-22  2.5506e-27  4.0355e-22  4.5511e-27  6.9934e-22  8.0763e-27  1.2296e-21  1.4421e-26  2.1863e-21  2.6125e-26  3.9306e-21
      4.70  8.1871e-29  2.5341e-23  7.9855e-29  2.5462e-23  7.6165e-29  2.5424e-23  6.9826e-29  2.5801e-23  5.8562e-29  2.6472e-23  3.8552e-29  2.7666e-23  2.6783e-29  2.9788e-23  4.1235e-29  3.3563e-23  6.7596e-29  4.0276e-23  1.1652e-28  5.2216e-23  2.0982e-28  7.3453e-23  3.8116e-28  1.1124e-22  6.9808e-28  1.785e-22  1.2638e-27  2.9829e-22  2.2581e-27  5.1194e-22  4.0015e-27  8.9383e-22  7.1106e-27  1.5792e-21  1.2698e-26  2.8175e-21  2.2979e-26  5.0821e-21
      4.75  6.5296e-29  2.9855e-23  6.3873e-29  3.0008e-23  6.1341e-29  3.0279e-23  5.6843e-29  3.0761e-23  4.8853e-29  3.1619e-23  3.4673e-29  3.3144e-23  2.4941e-29  3.5856e-23  3.7025e-29  4.0678e-23  5.9371e-29  4.9256e-23  1.018e-28  6.4511e-23  1.8521e-28  9.1648e-23  3.3765e-28  1.3993e-22  6.1002e-28  2.2589e-22  1.0913e-27  3.7903e-22  1.9439e-27  6.5225e-22  3.4453e-27  1.141e-21  6.1082e-27  2.0191e-21  1.0882e-26  3.609e-21  1.9666e-26  6.5265e-21
      4.80  5.4102e-29  4.3538e-23  5.323e-29  4.373e-23  5.1682e-29  4.4071e-23  4.8932e-29  4.4678e-23  4.4057e-29  4.5757e-23  3.543e-29  4.7675e-23  2.5617e-29  5.1087e-23  3.6207e-29  5.7155e-23  5.6374e-29  6.7946e-23  9.6405e-29  8.7139e-23  1.7371e-28  1.2128e-22  3.0749e-28  1.8204e-22  5.4683e-28  2.9021e-22  9.746e-28  4.8298e-22  1.729e-27  8.2703e-22  3.0566e-27  1.4429e-21  5.4207e-27  2.5507e-21  9.6525e-27  4.5606e-21  1.7429e-26  8.2606e-21
      4.85  4.3918e-29  6.4864e-23  4.3577e-29  6.5101e-23  4.2974e-29  6.5521e-23  4.191e-29  6.6268e-23  4.0041e-29  6.7598e-23  3.6795e-29  6.9962e-23  3.1263e-29  7.4166e-23  3.8062e-29  8.1642e-23  5.8721e-29  9.4938e-23  9.9381e-29  1.1859e-22   1.73e-28  1.6066e-22  3.0109e-28  2.3554e-22  5.3243e-28  3.6885e-22  9.4087e-28  6.0647e-22  1.6583e-27  1.0307e-21  2.9187e-27  1.7906e-21  5.1337e-27  3.1589e-21  9.0538e-27  5.6459e-21  1.6197e-26  1.0237e-20
      4.90  3.3152e-29  8.0697e-23  3.3326e-29  8.0979e-23  3.364e-29  8.1481e-23  3.4215e-29  8.2373e-23  3.511e-29  8.396e-23  3.7353e-29  8.6782e-23  4.1519e-29   9.18e-23  5.0475e-29  1.0072e-22  6.9893e-29  1.166e-22  1.1047e-28  1.4483e-22  1.887e-28  1.9505e-22  3.2986e-28  2.8443e-22  5.8285e-28  4.4359e-22  1.0171e-27  7.273e-22  1.7615e-27  1.2339e-21  3.0385e-27  2.1417e-21  5.2473e-27  3.7772e-21  9.056e-27  6.7529e-21  1.5934e-26  1.2257e-20
      4.95  2.4104e-29  7.9593e-23  2.4644e-29  7.9917e-23  2.5615e-29  8.0493e-23  2.7378e-29  8.1519e-23  3.063e-29  8.3342e-23  3.6782e-29  8.6584e-23  4.8825e-29  9.235e-23  7.3648e-29  1.026e-22  1.2181e-28  1.2084e-22  2.081e-28  1.5328e-22  3.617e-28  2.1099e-22  6.333e-28  3.1369e-22  1.0979e-27  4.9658e-22  1.8875e-27  8.2261e-22  3.2253e-27  1.4049e-21  5.4949e-27  2.4484e-21  9.3651e-27  4.3293e-21  1.6133e-26  7.7538e-21  2.8292e-26  1.4096e-20
      5.00  1.843e-29  6.761e-23  1.912e-29  6.7968e-23  2.0377e-29  6.8603e-23  2.2709e-29  6.9734e-23  2.7157e-29  7.1744e-23  3.5958e-29  7.5319e-23  5.4386e-29  8.1676e-23  9.2787e-29  9.2982e-23  1.6572e-28  1.1309e-22  2.996e-28  1.4886e-22  5.2184e-28  2.1249e-22  8.985e-28  3.2574e-22  1.5275e-27  5.2744e-22  2.5595e-27  8.8706e-22  4.246e-27  1.5295e-21  7.0434e-27  2.6815e-21  1.1762e-26   4.76e-21  1.9987e-26  8.5506e-21  3.456e-26  1.5591e-20
      5.05  1.5608e-29  5.4078e-23  1.6344e-29  5.4446e-23  1.774e-29  5.5099e-23  2.0498e-29  5.6261e-23  2.6246e-29  5.8326e-23  3.8677e-29    6.2e-23  6.3855e-29  6.8534e-23  1.2027e-28  8.0152e-23  2.3405e-28  1.0082e-22  4.0817e-28  1.3758e-22  6.9278e-28  2.0298e-22  1.1513e-27  3.1938e-22  1.8758e-27  5.2673e-22  2.9896e-27  8.9651e-22  4.7365e-27  1.5575e-21  7.5614e-27  2.7435e-21  1.2338e-26  4.8865e-21  2.0631e-26  8.804e-21  3.4885e-26  1.6109e-20
      5.10  1.4335e-29  4.2686e-23  1.5135e-29  4.3044e-23  1.6816e-29  4.3679e-23  2.0598e-29  4.481e-23  2.9561e-29  4.682e-23  4.6329e-29  5.0395e-23  8.5062e-29  5.6752e-23  1.7674e-28  6.8058e-23  3.2302e-28  8.8168e-23  5.4808e-28  1.2394e-22  8.9154e-28  1.8759e-22  1.405e-27  3.0088e-22  2.1576e-27  5.0272e-22  3.2546e-27  8.6278e-22  4.9292e-27  1.5067e-21  7.4896e-27  2.6631e-21  1.1684e-26  4.7556e-21  1.9055e-26  8.5906e-21  3.2147e-26  1.5771e-20
      5.15  1.386e-29  3.3945e-23  1.4861e-29   3.43e-23  1.7282e-29  3.4932e-23  2.3596e-29  3.6055e-23  3.6086e-29  3.8052e-23  6.2525e-29  4.1604e-23  1.2695e-28  4.792e-23  2.4837e-28  5.9153e-23  4.3483e-28  7.9132e-23  7.0892e-28  1.1467e-22  1.0913e-27  1.7792e-22  1.6263e-27  2.905e-22  2.3745e-27  4.9109e-22  3.4327e-27  8.4901e-22  4.732e-27  1.4893e-21  6.9164e-27  2.6402e-21  1.0702e-26  4.7252e-21  1.7415e-26  8.5546e-21  2.9443e-26  1.5749e-20
      5.20  1.3844e-29  2.7409e-23  1.529e-29  2.7776e-23  1.9217e-29  2.8427e-23  2.959e-29  2.9584e-23  4.821e-29  3.1643e-23  9.262e-29  3.5304e-23  1.9612e-28  4.1814e-23  3.3752e-28  5.3392e-23  5.5188e-28  7.3986e-23  8.6587e-28  1.1062e-22  1.2799e-27  1.7581e-22  1.8254e-27  2.9187e-22  2.5364e-27  4.9868e-22  3.2437e-27  8.6778e-22  4.4197e-27  1.5283e-21  6.465e-27  2.7163e-21  1.0089e-26  4.8707e-21  1.6583e-26  8.8347e-21  2.8355e-26  1.6303e-20
      5.25  1.4116e-29  2.2511e-23  1.6384e-29  2.2889e-23  2.2903e-29  2.3559e-23  3.9227e-29  2.4752e-23  7.3069e-29  2.6872e-23  1.3415e-28  3.0644e-23  2.5438e-28  3.735e-23  4.1864e-28  4.9278e-23  6.4782e-28  7.0494e-23  9.7601e-28  1.0824e-22  1.4113e-27  1.754e-22  1.9705e-27  2.9498e-22  2.416e-27  5.0809e-22  3.1427e-27  8.8851e-22  4.3912e-27  1.5696e-21  6.5717e-27  2.7952e-21  1.042e-26  5.0204e-21  1.7341e-26  9.1221e-21  3.0048e-26  1.6874e-20
      5.30  1.482e-29  1.8803e-23  1.8767e-29  1.9186e-23  3.0419e-29  1.9868e-23  6.0732e-29  2.1079e-23  9.8521e-29  2.3235e-23  1.6874e-28  2.7068e-23  2.9618e-28  3.3884e-23  4.6633e-28  4.6007e-23  7.1332e-28  6.7571e-23  1.0342e-27  1.0593e-22  1.5073e-27  1.742e-22  1.8997e-27  2.9576e-22  2.3871e-27  5.1242e-22  3.1094e-27  8.9927e-22  4.2981e-27  1.5921e-21   6.37e-27  2.8398e-21  9.9147e-27  5.1078e-21  1.6347e-26  9.2968e-21  2.8237e-26  1.7239e-20
      5.35  1.6254e-29  1.5974e-23  2.3387e-29  1.6364e-23  4.4212e-29  1.7057e-23  7.6279e-29  1.8291e-23  1.1906e-28  2.0484e-23  1.9072e-28  2.4385e-23  3.2041e-28  3.1322e-23  4.919e-28  4.3659e-23  7.3469e-28  6.5604e-23  1.1121e-27  1.0465e-22  1.5459e-27  1.7413e-22  1.8343e-27  2.9786e-22  2.2717e-27  5.1841e-22  2.9613e-27  9.123e-22  4.1096e-27  1.6181e-21  6.006e-27  2.8899e-21  9.4068e-27  5.2046e-21  1.5567e-26  9.4885e-21  2.7007e-26  1.7637e-20
      5.40  1.7449e-29  1.3764e-23  2.7364e-29  1.4144e-23  5.1359e-29  1.4819e-23  7.9506e-29  1.6021e-23  1.2511e-28  1.8157e-23  1.9186e-28  2.1957e-23  3.0979e-28  2.8714e-23  5.0777e-28  4.0731e-23  7.7035e-28  6.2107e-23  1.2056e-27  1.0014e-22  1.4838e-27  1.6782e-22  1.7799e-27  2.8836e-22  2.2456e-27  5.0327e-22  2.975e-27  8.8717e-22  4.1885e-27  1.5754e-21  6.1695e-27  2.8165e-21  9.6315e-27  5.0787e-21  1.5944e-26  9.2753e-21  2.7674e-26  1.7288e-20
      5.45  1.5822e-29  1.1969e-23  2.3553e-29  1.2288e-23  4.5006e-29  1.2854e-23  6.9262e-29  1.3861e-23  1.0725e-28  1.5652e-23  1.7398e-28  1.8837e-23  2.8318e-28  2.4501e-23  4.6475e-28  3.4574e-23  7.8758e-28  5.2492e-23  1.2646e-27  8.437e-23  1.4962e-27  1.4111e-22  1.8451e-27  2.4217e-22  2.3685e-27  4.2239e-22  3.0903e-27  7.4444e-22  4.2553e-27  1.3221e-21  6.1958e-27  2.3652e-21  9.5772e-27  4.2699e-21  1.5707e-26  7.8149e-21  2.718e-26  1.4618e-20
      5.50  1.3248e-29  1.0474e-23  1.6338e-29  1.0703e-23  2.4955e-29  1.1112e-23  4.944e-29  1.1838e-23  8.4501e-29  1.3129e-23  1.4313e-28  1.5425e-23  2.5022e-28  1.9508e-23  4.3978e-28  2.677e-23  7.5946e-28  3.9687e-23  1.2124e-27  6.2668e-23  1.5708e-27  1.0358e-22  1.9706e-27  1.7645e-22  2.4122e-27  3.0642e-22  3.066e-27  5.3877e-22  4.0194e-27  9.5583e-22  5.6156e-27  1.7097e-21  8.4205e-27  3.089e-21  1.349e-26  5.6642e-21  2.2945e-26  1.0631e-20
      5.55  1.1966e-29  9.3076e-24  1.3463e-29  9.4803e-24  1.7717e-29  9.7872e-24  2.9751e-29  1.0333e-23  6.088e-29  1.1304e-23  1.2383e-28  1.303e-23  2.4084e-28   1.61e-23  4.4773e-28  2.156e-23  7.9165e-28  3.1273e-23  1.2092e-27  4.8553e-23  1.6025e-27  7.9315e-23  1.9684e-27  1.3412e-22  2.3482e-27  2.3188e-22  2.8298e-27  4.0669e-22  3.593e-27  7.206e-22  4.8313e-27  1.2884e-21  7.0123e-27  2.3287e-21  1.0976e-26  4.2747e-21  1.8326e-26  8.0397e-21
      5.60  1.1458e-29  8.4111e-24  1.3023e-29  8.5609e-24  1.7518e-29  8.8274e-24  3.0599e-29  9.3012e-24  5.5582e-29  1.0144e-23  1.1483e-28  1.1642e-23  2.4665e-28  1.4307e-23  4.7526e-28  1.9046e-23  8.6025e-28  2.7475e-23  1.226e-27  4.2899e-23  1.5698e-27  6.9177e-23  1.8151e-27  1.1675e-22  2.0964e-27  2.0162e-22  2.4949e-27  3.5341e-22  3.1259e-27  6.2603e-22  4.1478e-27  1.1194e-21  5.9382e-27  2.0239e-21  9.1851e-27  3.718e-21  1.5204e-26  7.0018e-21
      5.65  1.1102e-29  7.7115e-24  1.3121e-29  7.8546e-24  1.9006e-29  8.1089e-24  3.5272e-29  8.5612e-24  6.7049e-29  9.3655e-24  1.3111e-28  1.0796e-23  2.5974e-28  1.3339e-23  5.0329e-28  1.7863e-23  9.1087e-28  2.591e-23  1.2118e-27  4.0229e-23  1.5123e-27  6.5722e-23  1.684e-27  1.1114e-22  1.9307e-27  1.9217e-22  2.2771e-27  3.371e-22  2.8541e-27  5.9747e-22  3.7874e-27  1.0688e-21  5.4316e-27  1.9333e-21  8.4124e-27  3.554e-21  1.3957e-26  6.6996e-21
      5.70  1.0754e-29  7.1548e-24  1.3242e-29  7.2949e-24  2.0511e-29  7.5438e-24  4.1509e-29  7.9865e-24  7.592e-29  8.7738e-24  1.4851e-28  1.0174e-23  2.9644e-28  1.2663e-23  5.7302e-28  1.7091e-23  8.9308e-28  2.4968e-23  1.1247e-27  3.8986e-23  1.3561e-27  6.394e-23  1.5153e-27  1.084e-22  1.7494e-27  1.8773e-22  2.0712e-27  3.2963e-22  2.6167e-27  5.8458e-22  3.5376e-27  1.0463e-21  5.1554e-27  1.8935e-21  8.0989e-27  3.483e-21  1.3602e-26  6.5719e-21
      5.75  1.0142e-29  6.648e-24  1.2737e-29  6.7813e-24  2.0663e-29  7.0184e-24  4.1374e-29   7.44e-24  8.1535e-29  8.1896e-24  1.6266e-28  9.5227e-24  3.3162e-28  1.1893e-23  6.0413e-28  1.611e-23  8.0026e-28  2.3612e-23  9.8171e-28  3.6961e-23  1.1259e-27  6.0728e-23  1.2976e-27  1.0307e-22  1.5081e-27  1.7863e-22  1.8363e-27  3.1379e-22  2.3768e-27  5.567e-22  3.2997e-27  9.967e-22   4.95e-27  1.8046e-21  7.9693e-27  3.3218e-21  1.3653e-26  6.2744e-21
      5.80  9.481e-30  6.2574e-24  1.2066e-29  6.3798e-24  1.9575e-29  6.5976e-24  4.0007e-29  6.9848e-24  8.4372e-29  7.6733e-24  1.8245e-28  8.8976e-24  3.4503e-28  1.1075e-23  5.4134e-28  1.4948e-23  6.8578e-28  2.1839e-23  8.3626e-28  3.4101e-23  9.4911e-28  5.5932e-23  1.1323e-27  9.4829e-23  1.3548e-27  1.6424e-22  1.6901e-27  2.8842e-22  2.2625e-27  5.1165e-22  3.258e-27  9.1617e-22  5.0409e-27  1.6594e-21  8.3336e-27  3.0567e-21  1.4589e-26  5.7804e-21
      5.85  9.092e-30  5.9601e-24  1.2158e-29  6.0756e-24  2.0275e-29  6.2808e-24  4.1533e-29  6.6458e-24  9.3195e-29  7.2948e-24      2e-28  8.4489e-24  3.2307e-28  1.0502e-23  4.7864e-28  1.4154e-23  6.0229e-28  2.065e-23  7.5345e-28  3.2211e-23  8.8671e-28  5.2793e-23  1.0471e-27  8.9467e-23  1.2885e-27  1.5491e-22  1.6652e-27  2.7202e-22  2.3195e-27  4.8258e-22  3.4659e-27  8.6428e-22  5.5419e-27  1.5661e-21  9.3913e-27  2.8868e-21  1.6757e-26  5.4654e-21
      5.90  8.8375e-30  5.7436e-24  1.2552e-29  5.8589e-24  2.2414e-29  6.0638e-24  4.7185e-29  6.4281e-24  1.0467e-28  7.076e-24  2.0622e-28  8.2282e-24  3.2631e-28  1.0278e-23  4.306e-28  1.3924e-23  5.7482e-28  2.0409e-23  7.1027e-28  3.1951e-23  8.4249e-28   5.25e-23  1.0091e-27  8.9115e-23  1.2846e-27  1.5446e-22  1.7467e-27  2.7141e-22  2.5407e-27  4.8171e-22  3.9557e-27  8.6309e-22  6.5323e-27  1.5647e-21  1.1336e-26  2.8863e-21  2.0593e-26  5.4706e-21
      5.95  8.467e-30  5.589e-24  1.2461e-29  5.7066e-24  2.3494e-29  5.9157e-24  5.0431e-29  6.2876e-24  1.1394e-28  6.9489e-24  2.1494e-28  8.1249e-24  3.2991e-28  1.0217e-23  4.4541e-28  1.3938e-23  5.5647e-28  2.0558e-23  6.7764e-28  3.2339e-23  8.3485e-28  5.3314e-23  1.0208e-27  9.0691e-23  1.3269e-27  1.574e-22  1.8627e-27  2.768e-22  2.8045e-27  4.9156e-22  4.487e-27  8.8116e-22  7.5648e-27  1.5983e-21  1.3324e-26  2.9506e-21  2.4482e-26  5.5988e-21
      6.00  7.8216e-30  5.4797e-24  1.1767e-29  5.5977e-24  2.2416e-29  5.8076e-24  4.9704e-29  6.1807e-24  1.1539e-28  6.9126e-24  2.3022e-28  8.0239e-24  3.4603e-28  1.0123e-23  4.536e-28  1.3856e-23  5.5955e-28  2.0498e-23  6.9494e-28  3.2317e-23  8.5658e-28  5.3361e-23  1.0917e-27  9.0862e-23  1.4744e-27  1.578e-22  2.146e-27  2.7762e-22  3.3418e-27  4.9319e-22  5.5037e-27  8.8442e-22  9.4662e-27  1.6051e-21  1.6906e-26  2.9655e-21  3.1392e-26  5.634e-21
      6.05  6.9422e-30  5.4228e-24  1.0234e-29  5.5375e-24  1.9308e-29  5.7414e-24  4.3735e-29  6.104e-24  1.0286e-28  6.7486e-24  2.3062e-28  7.8947e-24  3.5404e-28  9.9336e-24  4.6546e-28  1.3561e-23  5.8003e-28  2.0014e-23  7.1054e-28  3.1498e-23  8.758e-28  5.1944e-23  1.1451e-27  8.8383e-23  1.6025e-27  1.5343e-22  2.4098e-27  2.6988e-22  3.8547e-27  4.7945e-22  6.4702e-27  8.5996e-22  1.1275e-26  1.5614e-21  2.032e-26  2.8872e-21  3.8001e-26  5.4928e-21
      6.10  6.3282e-30  5.3977e-24  9.076e-30  5.5065e-24  1.6586e-29  5.6998e-24  3.7392e-29  6.104e-24  8.7224e-29  6.6548e-24  2.0035e-28  7.7416e-24  3.3239e-28  9.6748e-24  4.5625e-28  1.3114e-23  5.6242e-28  1.9233e-23  6.8195e-28  3.0122e-23  8.6924e-28  4.951e-23  1.1708e-27  8.4063e-23  1.6974e-27  1.4575e-22  2.6356e-27  2.5621e-22  4.315e-27  4.5504e-22  7.3571e-27  8.1624e-22  1.2958e-26  1.4826e-21  2.3526e-26  2.7438e-21  4.425e-26  5.2273e-21
      6.15  5.9868e-30    5.4e-24  8.5062e-30  5.5009e-24  1.5063e-29  5.6802e-24  3.2063e-29  5.9991e-24  7.3083e-29  6.5661e-24  1.5246e-28  7.5742e-24  2.5024e-28  9.3673e-24  3.8327e-28  1.2557e-23  4.8947e-28  1.8232e-23  6.1758e-28  2.8331e-23  8.1857e-28  4.6314e-23  1.1455e-27  7.8364e-23  1.7252e-27  1.3559e-22  2.7568e-27  2.3807e-22  4.6121e-27  4.226e-22  7.9765e-27  7.5798e-22  1.4176e-26  1.3772e-21  2.5896e-26  2.5508e-21  4.8944e-26  4.8664e-21
      6.20  5.7124e-30  5.4243e-24  8.2353e-30  5.5144e-24  1.4298e-29  5.6746e-24  2.8898e-29  5.9595e-24   5.93e-29  6.5306e-24  1.1264e-28  7.3665e-24  1.8162e-28  8.9683e-24  2.7202e-28  1.1817e-23  3.808e-28  1.6886e-23  5.1905e-28  2.5907e-23  7.215e-28  4.1969e-23  1.0671e-27  7.0598e-23  1.6682e-27  1.2172e-22  2.7437e-27  2.1329e-22  4.6767e-27  3.7821e-22  8.1867e-27  6.7812e-22  1.4662e-26  1.2324e-21  2.6926e-26  2.2842e-21  5.1105e-26  4.364e-21
      6.25  5.3673e-30  5.5209e-24  7.4328e-30  5.5421e-24  1.2592e-29  5.6769e-24  2.3238e-29  5.9167e-24  4.4047e-29  6.3429e-24  8.2007e-29  7.1009e-24  1.2791e-28  8.4488e-24  1.9351e-28  1.0846e-23  2.816e-28  1.5111e-23  4.0838e-28  2.2701e-23  6.0668e-28  3.6217e-23  9.4599e-28  6.0307e-23  1.5395e-27  1.0333e-22  2.5961e-27  1.804e-22  4.4933e-27  3.1927e-22  7.9411e-27  5.7194e-22  1.431e-26  1.0393e-21  2.6392e-26  1.9277e-21  5.0272e-26  3.6883e-21
      6.30  4.6944e-30  5.6052e-24  6.3579e-30  5.6102e-24  9.9188e-30  5.7178e-24  1.783e-29  5.9091e-24  3.1758e-29  6.2492e-24  5.7718e-29  6.854e-24  8.5533e-29  7.9296e-24  1.3436e-28  9.8424e-24  2.0875e-28  1.3245e-23  3.1542e-28  1.9301e-23  4.9942e-28  3.0083e-23  8.1234e-28  4.9305e-23  1.3663e-27  8.3633e-23  2.3494e-27  1.4515e-22  4.1171e-27  2.5602e-22  7.3311e-27  4.5786e-22  1.3274e-26  8.3163e-22  2.4568e-26  1.5431e-21  4.6944e-26  2.9566e-21
      6.35  4.0078e-30  5.6562e-24  5.2376e-30  5.7041e-24  7.8128e-30  5.7893e-24  1.2897e-29  5.9406e-24  2.3413e-29  6.2098e-24  4.2092e-29  6.6884e-24  5.889e-29  7.5396e-24  9.019e-29  9.0534e-24  1.4727e-28  1.1746e-23  2.4733e-28  1.6538e-23  4.0905e-28  2.5071e-23  6.9498e-28  4.0282e-23  1.1962e-27  6.7452e-23  2.0893e-27  1.1615e-22  3.6998e-27  2.0395e-22  6.6306e-27  3.6389e-22  1.2056e-26  6.6035e-22  2.2382e-26  1.2256e-21  4.2894e-26  2.3513e-21
      6.40  3.4686e-30  5.7852e-24  4.5047e-30  5.8241e-24  6.4308e-30  5.8932e-24  9.9801e-30  6.0161e-24  1.6909e-29  6.2347e-24  3.1301e-29  6.6233e-24  4.4164e-29  7.3145e-24  6.6864e-29  8.5437e-24  1.1085e-28  1.073e-23  1.9531e-28  1.4621e-23  3.4748e-28  2.155e-23  6.1571e-28  3.3902e-23  1.0892e-27  5.5967e-23  1.9358e-27  9.5522e-23  3.4655e-27  1.6686e-22  6.252e-27  2.969e-22  1.1417e-26  5.3818e-22  2.1267e-26  9.9897e-22  4.0885e-26  1.9187e-21
      6.45  2.9906e-30  5.9332e-24  3.9387e-30  5.9653e-24  5.4898e-30  6.0225e-24  8.3702e-30  6.1242e-24  1.3261e-29  6.305e-24  2.3473e-29  6.6265e-24  3.741e-29  7.1981e-24  5.7607e-29  8.2148e-24  9.8871e-29  1.0123e-23  1.7436e-28  1.3241e-23  3.1903e-28  1.8972e-23  5.8117e-28  2.9188e-23  1.051e-27  4.7439e-23  1.8981e-27  8.0163e-23  3.4255e-27  1.392e-22  6.2126e-27  2.4688e-22  1.1387e-26  4.4685e-22  2.1272e-26  8.293e-22  4.101e-26  1.5943e-21
      6.50  2.4828e-30  6.098e-24  3.369e-30  6.1247e-24  4.5824e-30  6.1722e-24  6.8796e-30  6.2567e-24  1.0793e-29  6.407e-24  1.8415e-29  6.6743e-24  2.9083e-29  7.1495e-24  4.6494e-29  7.9946e-24  7.9859e-29  9.4979e-24  1.4502e-28  1.2173e-23  2.7046e-28  1.6936e-23  5.0582e-28  2.5428e-23  9.3448e-28  4.0601e-23  1.7097e-27  6.7808e-23  3.1145e-27  1.1691e-22  5.6821e-27  2.065e-22  1.0455e-26   3.73e-22  1.9588e-26  6.9184e-22  3.7865e-26  1.3308e-21
      6.55  2.0587e-30  6.309e-24  2.8223e-30  6.3316e-24  3.735e-30  6.3719e-24  5.5457e-30  6.4434e-24  8.9142e-30  6.5707e-24  1.5278e-29  6.7969e-24  2.4391e-29  7.1993e-24  3.9095e-29  7.915e-24  6.8876e-29  9.1879e-24  1.2761e-28  1.1453e-23  2.4248e-28  1.5487e-23  4.6155e-28  2.2678e-23  8.6838e-28  3.5527e-23  1.6111e-27  5.857e-23  2.9607e-27  1.0016e-22  5.4317e-27  1.7608e-22  1.0033e-26  3.1727e-22  1.8854e-26  5.8788e-22  3.6536e-26  1.1309e-21
      6.60  1.7125e-30  6.5378e-24  2.3243e-30  6.5576e-24  3.1299e-30  6.593e-24  4.5066e-30  6.6557e-24  7.369e-30  6.7673e-24  1.3252e-29  6.9658e-24   2.17e-29  7.3188e-24  3.516e-29  7.9465e-24  6.3067e-29  9.0633e-24  1.1961e-28  1.1051e-23  2.3107e-28  1.4589e-23  4.4591e-28  2.0899e-23  8.4937e-28  3.2173e-23  1.5933e-27  5.2392e-23  2.9541e-27  8.8896e-23  5.4507e-27  1.5554e-22  1.0107e-26  2.7954e-22  1.9043e-26  5.1738e-22  3.6986e-26  9.9513e-22
      6.65  1.4259e-30  6.7832e-24  1.8837e-30  6.8013e-24  2.5665e-30  6.8335e-24  3.752e-30  6.8908e-24  6.1407e-30  6.9927e-24  1.1456e-29  7.1738e-24  1.934e-29  7.4959e-24  3.1858e-29  8.0688e-24  5.8729e-29  9.0879e-24  1.1407e-28  1.0902e-23  2.2414e-28  1.4131e-23  4.3785e-28  1.989e-23  8.4283e-28  3.018e-23  1.5963e-27  4.8638e-23  2.9826e-27  8.1964e-23  5.5342e-27  1.4282e-22   1.03e-26  2.5609e-22  1.9457e-26  4.7348e-22  3.7869e-26  9.1054e-22
      6.70  1.1865e-30  7.044e-24  1.5052e-30  7.0612e-24  2.1301e-30  7.1625e-24  3.1283e-30  7.1457e-24  5.2382e-30  7.2419e-24  1.0611e-29  7.4131e-24  1.9494e-29  7.7174e-24  3.4191e-29  8.2587e-24  6.5784e-29  9.2216e-24  1.3047e-28  1.0935e-23  2.5827e-28  1.3987e-23  5.0538e-28  1.9429e-23  9.7386e-28  2.9153e-23  1.8464e-27  4.6596e-23  3.456e-27  7.8093e-23  6.4254e-27  1.3562e-22  1.1978e-26  2.4274e-22  2.2657e-26  4.4841e-22  4.4153e-26  8.6221e-22
      6.75  9.8866e-31  7.3193e-24  1.2026e-30  7.3359e-24  1.701e-30  7.3655e-24  2.6475e-30  7.418e-24  4.8866e-30  7.5113e-24  1.0631e-29  7.6773e-24  2.0587e-29  7.9725e-24  3.8494e-29  8.4976e-24  7.6291e-29  9.4317e-24  1.5276e-28  1.1094e-23  3.0176e-28  1.4055e-23  5.8873e-28  1.9334e-23  1.1305e-27  2.8767e-23  2.1398e-27  4.5691e-23  4.0034e-27  7.6253e-23  7.447e-27  1.3209e-22  1.3894e-26  2.3606e-22  2.6305e-26  4.3581e-22  5.131e-26  8.3794e-22
      6.80  8.2774e-31  7.6482e-24  9.7068e-31  7.6647e-24  1.3862e-30  7.6939e-24  2.2813e-30  7.7459e-24  4.4762e-30  7.8384e-24  1.0032e-29  8.0028e-24  2.1373e-29  8.2953e-24  4.0957e-29  8.8154e-24  8.2369e-29  9.7408e-24  1.6477e-28  1.1388e-23  3.2432e-28  1.432e-23  6.3087e-28  1.955e-23   1.21e-27  2.8896e-23  2.2896e-27  4.5663e-23  4.2871e-27  7.5945e-23  7.9863e-27  1.3127e-22  1.4922e-26  2.3434e-22  2.829e-26  4.3241e-22  5.5246e-26  8.314e-22
      6.85  6.9765e-31  7.9948e-24  7.9626e-31  8.0113e-24  1.0976e-30  8.0408e-24  1.9211e-30  8.0932e-24  3.878e-30  8.1863e-24  9.5034e-30  8.3518e-24  2.253e-29  8.6463e-24  4.4658e-29   9.17e-24  9.1892e-29  1.0102e-23  1.8384e-28  1.176e-23  3.6278e-28  1.4713e-23  7.0481e-28  1.9978e-23  1.3504e-27  2.9389e-23  2.5528e-27  4.6272e-23  4.7775e-27  7.6768e-23  8.9007e-27  1.3249e-22  1.664e-26  2.3632e-22  3.1569e-26  4.3593e-22  6.1703e-26  8.3822e-22
      6.90  5.9421e-31  8.3584e-24  6.7228e-31  8.3752e-24  9.0723e-31  8.405e-24  1.5984e-30  8.458e-24  3.6392e-30  8.5523e-24  9.6139e-30   8.72e-24  2.4341e-29  9.0181e-24  5.0097e-29  9.5483e-24  1.0521e-28  1.0492e-23  2.1151e-28  1.217e-23  4.2019e-28  1.516e-23  8.218e-28  2.0492e-23  1.5772e-27  3.002e-23  2.9789e-27  4.7116e-23  5.5662e-27  7.7997e-23  1.0358e-26  1.3444e-22  1.9355e-26  2.3961e-22  3.6721e-26  4.4188e-22   7.18e-26  8.4974e-22
      6.95  5.1142e-31  8.7384e-24  5.8435e-31  8.7553e-24  8.0058e-31  8.7852e-24  1.4742e-30  8.8385e-24  3.546e-30  8.9333e-24  9.4684e-30  9.1017e-24  2.4886e-29  9.4013e-24  5.1625e-29  9.9341e-24  1.067e-28  1.0882e-23  2.1371e-28  1.2569e-23  4.2918e-28  1.5573e-23  8.4553e-28  2.093e-23  1.6286e-27  3.0504e-23  3.082e-27  4.7682e-23  5.7662e-27  7.8715e-23  1.0739e-26  1.3544e-22  2.0083e-26  2.4117e-22  3.8133e-26  4.4456e-22  7.4626e-26  8.5487e-22
      7.00  4.4217e-31  9.1341e-24  5.1312e-31  9.1507e-24  7.3146e-31  9.1802e-24  1.376e-30  9.2327e-24  3.3296e-30  9.326e-24  9.0577e-30  9.492e-24  2.5161e-29  9.787e-24  5.2199e-29  1.0312e-23  1.0477e-28  1.1245e-23  2.1272e-28  1.2907e-23  4.3157e-28  1.5866e-23  8.5628e-28  2.1141e-23  1.659e-27  3.0571e-23  3.1547e-27  4.749e-23  5.921e-27  7.8057e-23  1.1051e-26  1.3393e-22  2.0693e-26  2.3811e-22  3.9336e-26  4.3858e-22  7.7057e-26  8.4317e-22
      7.05  3.7103e-31  9.5955e-24  4.3858e-31  9.6114e-24  6.4032e-31  9.6396e-24  1.2405e-30  9.6897e-24  3.0164e-30  9.7788e-24  8.3862e-30  9.9373e-24  2.399e-29  1.0219e-23  5.1626e-29  1.072e-23  1.0473e-28  1.1612e-23  2.1315e-28  1.3199e-23  4.3722e-28  1.6024e-23  8.7668e-28  2.1062e-23  1.721e-27  3.0065e-23  3.3028e-27  4.6221e-23  6.2368e-27  7.541e-23  1.1683e-26  1.2877e-22  2.1928e-26  2.2828e-22  4.1746e-26  4.1983e-22  8.1874e-26  8.0659e-22
      7.10  3.0786e-31  1.0078e-23  3.6427e-31  1.0092e-23  5.397e-31  1.0118e-23  1.081e-30  1.0164e-23  2.7323e-30  1.0246e-23  7.6373e-30  1.0391e-23  2.231e-29  1.065e-23  5.1117e-29  1.111e-23  1.0596e-28  1.1928e-23  2.1599e-28  1.3384e-23  4.4175e-28  1.5975e-23  9.0367e-28  2.0596e-23  1.8054e-27  2.8853e-23  3.5112e-27  4.3669e-23  6.6876e-27  7.0438e-23  1.2595e-26  1.1938e-22  2.3718e-26  2.1067e-22  4.5246e-26  3.8644e-22  8.8866e-26  7.4149e-22
      7.15  2.5504e-31  1.0581e-23  3.0645e-31  1.0593e-23  4.6107e-31  1.0616e-23  9.3575e-31  1.0656e-23  2.379e-30  1.0728e-23  6.6771e-30  1.0856e-23  1.8916e-29  1.1083e-23  4.6141e-29  1.1487e-23  9.3149e-29  1.2205e-23  1.8654e-28  1.3483e-23  3.8667e-28  1.5757e-23  8.0511e-28  1.9811e-23  1.6419e-27  2.7056e-23  3.252e-27  4.0055e-23  6.2811e-27  6.354e-23  1.1945e-26  1.0649e-22  2.2639e-26  1.8659e-22  4.3367e-26  3.4087e-22  8.5408e-26  6.5263e-22
      7.20  2.1002e-31  1.1104e-23  2.5308e-31  1.1115e-23  3.8411e-31  1.1134e-23  7.7909e-31  1.1168e-23  1.9668e-30  1.1229e-23  5.3917e-30  1.1337e-23  1.4958e-29  1.1529e-23  3.7982e-29  1.1871e-23  7.3517e-29  1.2478e-23  1.5042e-28  1.3558e-23  3.1729e-28  1.5481e-23  6.7469e-28  1.8908e-23  1.4123e-27  2.5031e-23  2.8675e-27  3.6015e-23  5.651e-27  5.586e-23  1.0906e-26  9.2149e-23  2.0879e-26  1.5985e-22  4.0261e-26  2.9025e-22  7.963e-26  5.5385e-22
      7.25  1.7204e-31  1.1649e-23  2.0672e-31  1.1657e-23  3.1183e-31  1.1673e-23  6.2317e-31  1.1702e-23  1.5344e-30  1.1752e-23  4.105e-30  1.1842e-23  1.1063e-29  1.2001e-23  2.7649e-29  1.2285e-23  5.4908e-29  1.279e-23  1.1237e-28  1.3687e-23  2.4003e-28  1.5284e-23  5.2486e-28  1.813e-23  1.1328e-27  2.3214e-23  2.3734e-27  3.2332e-23  4.8012e-27  4.8805e-23  9.4511e-27  7.8928e-23  1.8345e-26  1.3512e-22  3.5702e-26  2.4339e-22  7.1034e-26  4.6227e-22
      7.30  1.4026e-31  1.2278e-23  1.6729e-31  1.2285e-23  2.4721e-31  1.2299e-23  4.8453e-31  1.2322e-23  1.1752e-30  1.2364e-23  3.056e-30  1.2439e-23  8.0693e-30  1.2573e-23  1.9767e-29  1.2809e-23  4.1759e-29  1.3231e-23  8.4491e-29  1.398e-23  1.7873e-28  1.5314e-23  4.0056e-28  1.7691e-23  8.9866e-28  2.1936e-23  1.9559e-27  2.955e-23  4.0907e-27  4.3302e-23  8.2616e-27  6.8447e-23  1.6333e-26  1.1536e-22  3.2181e-26  2.0574e-22  6.4538e-26  3.8847e-22
      7.35  1.1426e-31  1.2936e-23  1.3458e-31  1.2942e-23  1.9469e-31  1.2954e-23  3.7303e-31  1.2974e-23  8.9281e-31  1.301e-23  2.2648e-30  1.3073e-23  5.9137e-30  1.3187e-23  1.4882e-29  1.3389e-23  3.274e-29  1.3748e-23  6.5832e-29  1.4387e-23  1.3961e-28  1.5524e-23  3.1805e-28  1.755e-23  7.3904e-28  2.1169e-23  1.6688e-27  2.766e-23  3.5982e-27  3.9382e-23  7.4473e-27  6.0814e-23  1.4991e-26  1.0079e-22  2.9907e-26  1.7782e-22  6.0468e-26  3.3354e-22
      7.40  9.3127e-32  1.3622e-23  1.0864e-31  1.3628e-23  1.5456e-31  1.3638e-23  2.8838e-31  1.3655e-23  6.8355e-31  1.3687e-23  1.7061e-30  1.3743e-23  4.4824e-30  1.3842e-23  1.1665e-29  1.4018e-23  2.7912e-29  1.4332e-23  5.4866e-29  1.4891e-23  1.1596e-28  1.5885e-23  2.6689e-28  1.7658e-23  6.3078e-28  2.0825e-23  1.4618e-27  2.6503e-23  3.2397e-27  3.6758e-23  6.8598e-27  5.5506e-23  1.4046e-26  9.0476e-23  2.8359e-26  1.5784e-22  5.7795e-26  2.9403e-22
      7.45  7.6043e-32  1.4337e-23  8.7498e-32  1.4342e-23  1.2354e-31  1.4351e-23  2.3095e-31  1.4367e-23  5.4582e-31  1.4395e-23  1.3656e-30  1.4445e-23  3.565e-30  1.4534e-23  9.4579e-30  1.4692e-23  2.2176e-29  1.4974e-23  4.3035e-29  1.5476e-23  8.9197e-29  1.6369e-23  2.0656e-28  1.7962e-23  4.9738e-28  2.0807e-23  1.1849e-27  2.5909e-23  2.7081e-27  3.5124e-23  5.8958e-27  5.1968e-23  1.2339e-26  8.3385e-23  2.5304e-26  1.439e-22  5.2119e-26  2.6622e-22
      7.50  6.2273e-32  1.5079e-23  7.245e-32  1.5084e-23  1.0189e-31  1.5092e-23  1.9065e-31  1.5107e-23  4.5268e-31  1.5133e-23  1.126e-30  1.5179e-23  2.9574e-30  1.5261e-23  7.9086e-30  1.5407e-23  1.8587e-29  1.5666e-23  3.5287e-29  1.6128e-23  7.2514e-29  1.695e-23  1.6755e-28  1.8417e-23  4.0769e-28  2.1037e-23  9.9214e-28  2.5736e-23  2.3306e-27  3.4223e-23  5.2123e-27  4.9736e-23  1.1153e-26  7.8667e-23  2.3251e-26  1.3439e-22  4.8424e-26   2.47e-22
      7.55  5.1172e-32  1.5931e-23  6.0079e-32  1.5935e-23  8.6815e-32  1.5943e-23  1.6373e-31  1.5956e-23  3.9363e-31  1.5981e-23  9.9254e-31  1.6024e-23  2.6256e-30  1.6102e-23  7.0471e-30  1.6239e-23  1.5724e-29  1.6484e-23  3.0568e-29  1.6919e-23  6.1902e-29  1.7694e-23  1.4142e-28  1.9076e-23  3.4439e-28  2.1546e-23  8.4957e-28  2.5975e-23  2.0424e-27  3.3976e-23  4.6903e-27  4.8601e-23  1.0281e-26  7.5874e-23  2.1841e-26  1.2839e-22  4.6097e-26  2.3451e-22
      7.60  4.2243e-32  1.682e-23  5.0431e-32  1.6824e-23  7.5198e-32  1.6831e-23   1.48e-31  1.6845e-23  3.6172e-31  1.6868e-23  9.221e-31  1.691e-23  2.4564e-30  1.6984e-23  6.5092e-30  1.7116e-23  1.3596e-29  1.7351e-23  2.693e-29  1.777e-23  5.3171e-29  1.8515e-23  1.181e-28  1.9844e-23  2.8272e-28  2.2219e-23  6.962e-28  2.6479e-23  1.6942e-27  3.4174e-23  3.9692e-27  4.824e-23  8.8875e-27  7.4469e-23  1.9225e-26  1.2497e-22  4.1127e-26   2.27e-22
      7.65  3.4994e-32  1.7747e-23  4.2719e-32  1.7751e-23  6.6262e-32  1.7758e-23  1.3525e-31  1.7771e-23  3.3657e-31  1.7794e-23  8.8461e-31  1.7835e-23  2.3456e-30  1.7907e-23  6.1955e-30  1.8037e-23  1.2257e-29  1.8266e-23  2.3967e-29  1.8675e-23  4.6629e-29  1.9404e-23  1.0052e-28  2.0703e-23  2.3504e-28  2.3024e-23  5.7309e-28  2.719e-23  1.4018e-27  3.4714e-23  3.3366e-27  4.8467e-23  7.621e-27  7.4113e-23  1.6794e-26  1.2349e-22  3.6455e-26  2.2323e-22
      7.70  2.8966e-32  1.8712e-23  3.6304e-32  1.8716e-23  5.8842e-32  1.8723e-23  1.2338e-31  1.8736e-23  3.1533e-31  1.8758e-23  8.4398e-31  1.8799e-23  2.2634e-30  1.8871e-23  5.9853e-30  1.8999e-23  1.0968e-29  1.9226e-23  2.1312e-29  1.9631e-23  4.1266e-29  2.0353e-23  8.649e-29  2.1639e-23  1.9693e-28  2.3938e-23  4.7293e-28  2.8064e-23  1.156e-27  3.5516e-23  2.7837e-27  4.914e-23  6.475e-27  7.4542e-23  1.454e-26  1.2344e-22  3.2062e-26  2.2222e-22
      7.75  2.4135e-32  1.9714e-23  3.1135e-32  1.9718e-23  5.2777e-32  1.9725e-23  1.1576e-31  1.9738e-23  2.9722e-31  1.9761e-23  8.0595e-31  1.9801e-23  2.1727e-30  1.9873e-23  5.5042e-30  2.0001e-23  1.0095e-29  2.0228e-23  1.9126e-29  2.0633e-23  3.7178e-29  2.1354e-23  7.5326e-29  2.264e-23  1.6668e-28  2.4938e-23  3.9216e-28  2.9062e-23  9.5184e-28  3.6512e-23  2.3075e-27  5.0131e-23  5.452e-27  7.5524e-23  1.2471e-26  1.2441e-22  2.7965e-26  2.2313e-22
      7.80  2.015e-32  2.0857e-23  2.6772e-32  2.0861e-23  4.742e-32  2.0869e-23  1.0725e-31  2.0881e-23  2.7885e-31  2.0904e-23  7.652e-31  2.0945e-23  2.0512e-30  2.1017e-23  5.0664e-30  2.1146e-23  9.3118e-30  2.1375e-23  1.7566e-29  2.2001e-23  3.2796e-29  2.2509e-23  6.6076e-29  2.3804e-23  1.4161e-28  2.6119e-23  3.268e-28  3.0272e-23  7.8399e-28  3.7776e-23  1.9046e-27  5.1493e-23  4.559e-27  7.7069e-23  1.0619e-26  1.263e-22  2.4236e-26  2.2573e-22
      7.85  1.6808e-32  2.2052e-23  2.296e-32  2.2056e-23  4.2274e-32  2.2063e-23  9.7154e-32  2.2076e-23  2.5512e-31  2.2099e-23  7.0374e-31  2.214e-23  1.9161e-30  2.2213e-23  4.6666e-30  2.2343e-23  8.3788e-30  2.2575e-23  1.5533e-29  2.2986e-23  2.9564e-29  2.3719e-23  5.7997e-29  2.5027e-23  1.217e-28  2.7364e-23  2.7315e-28  3.1558e-23  6.4258e-28  3.9134e-23  1.5666e-27  5.2985e-23  3.7888e-27  7.8811e-23  8.9803e-27  1.2852e-22  2.0885e-26  2.289e-22
      7.90  1.3998e-32  2.3298e-23  1.9459e-32  2.3302e-23  3.6897e-32  2.3309e-23  8.691e-32  2.3322e-23  2.2981e-31  2.3346e-23  6.3432e-31  2.3387e-23  1.741e-30  2.3461e-23  3.9715e-30  2.3592e-23  7.3113e-30  2.3826e-23  1.3324e-29  2.4241e-23  2.5216e-29  2.4981e-23  4.8832e-29  2.6301e-23  1.0042e-28  2.866e-23  2.2067e-28  3.2894e-23  5.1425e-28  4.0542e-23  1.2438e-27  5.4524e-23  3.0373e-27  8.0594e-23   7.33e-27  1.3077e-22  1.7404e-26  2.3208e-22
      7.95  1.162e-32  2.4596e-23  1.6402e-32   2.46e-23  3.1802e-32  2.4607e-23  7.5967e-32  2.462e-23  2.0181e-31  2.4644e-23  5.5746e-31  2.4686e-23  1.5399e-30  2.476e-23  3.3626e-30  2.4892e-23  6.1192e-30  2.5127e-23  1.1198e-29  2.5545e-23  2.0981e-29  2.6289e-23  4.0356e-29  2.7618e-23  8.1287e-29  2.9991e-23  1.7555e-28  3.4251e-23  4.0256e-28  4.1947e-23  9.6732e-28  5.6016e-23  2.3745e-27  8.2248e-23  5.8158e-27  1.3273e-22  1.4076e-26  2.3465e-22
      8.00  9.6044e-33  2.5945e-23  1.3658e-32  2.5949e-23  2.6586e-32  2.5957e-23   6.54e-32  2.597e-23  1.7229e-31  2.5993e-23  4.8096e-31  2.6035e-23  1.3199e-30  2.6109e-23  2.7901e-30  2.6242e-23  5.0168e-30  2.6477e-23  9.2331e-30  2.6896e-23  1.7173e-29  2.7643e-23  3.2795e-29  2.8974e-23  6.5332e-29  3.1353e-23  1.3771e-28  3.5622e-23  3.1176e-28  4.3335e-23  7.4249e-28  5.7434e-23  1.8258e-27  8.3722e-23  4.5232e-27  1.3431e-22  1.1136e-26  2.3643e-22
      8.05  7.9058e-33  2.7479e-23  1.1231e-32  2.7483e-23  2.1957e-32  2.749e-23  5.3683e-32  2.7504e-23  1.4428e-31  2.7527e-23  3.9516e-31  2.7569e-23  1.1069e-30  2.7643e-23  2.2653e-30  2.7776e-23  4.0672e-30  2.8011e-23  7.4633e-30  2.843e-23  1.3807e-29  2.9177e-23  2.6251e-29  3.0509e-23  5.1703e-29  3.2889e-23  1.0745e-28  3.716e-23  2.3981e-28  4.4876e-23  5.6628e-28  5.8981e-23  1.3929e-27  8.5276e-23  3.4843e-27  1.3588e-22  8.714e-27  2.3799e-22
      8.10  6.4812e-33  2.9083e-23  9.1266e-33  2.9087e-23  1.7816e-32  2.9094e-23  4.3398e-32  2.9107e-23  1.1622e-31  2.9131e-23  3.221e-31  2.9173e-23  8.8608e-31  2.9247e-23  1.8194e-30  2.9379e-23  3.2317e-30  2.9614e-23  5.861e-30  3.0031e-23  1.0902e-29  3.0776e-23  2.0621e-29  3.2103e-23  4.032e-29  3.4476e-23  8.3077e-29  3.8733e-23  1.8264e-28  4.6425e-23  4.2566e-28  6.0485e-23  1.0516e-27  8.6694e-23  2.6508e-27  1.3712e-22  6.7233e-27  2.3887e-22
      8.15  5.3053e-33  3.0757e-23  7.357e-33  3.0761e-23  1.4168e-32  3.0769e-23  3.4034e-32  3.0782e-23  9.1612e-32  3.0805e-23  2.5151e-31  3.0847e-23  7.0722e-31  3.092e-23  1.4062e-30  3.1052e-23  2.5242e-30  3.1285e-23  4.6125e-30  3.1701e-23  8.3911e-30  3.2441e-23  1.5769e-29  3.3761e-23  3.0942e-29  3.6121e-23  6.3097e-29  4.0355e-23  1.3709e-28  4.8005e-23  3.1819e-28  6.1986e-23  7.7999e-28  8.8048e-23  1.9767e-27  1.3818e-22  5.0751e-27  2.3932e-22
      8.20  4.3459e-33  3.2501e-23  5.9045e-33  3.2505e-23  1.1029e-32  3.2513e-23  2.6422e-32  3.2526e-23  7.0468e-32  3.2549e-23  1.9634e-31  3.259e-23  5.4795e-31  3.2663e-23  1.0827e-30  3.2794e-23  1.9441e-30  3.3026e-23  3.6155e-30  3.3774e-23  6.4391e-30  3.4174e-23  1.2054e-29  3.5486e-23  2.3519e-29  3.783e-23  4.7671e-29  4.2036e-23  1.0271e-28  4.9635e-23  2.3682e-28  6.3524e-23  5.7946e-28  8.9409e-23  1.4756e-27  1.392e-22  3.8302e-27  2.3961e-22
      8.25  3.541e-33  3.4312e-23  4.7093e-33  3.4316e-23  8.3714e-33  3.4324e-23  2.0261e-32  3.4337e-23  5.3715e-32  3.436e-23  1.4964e-31  3.4401e-23  4.188e-31  3.4474e-23  8.2569e-31  3.4603e-23  1.4814e-30  3.4834e-23  2.6777e-30  3.5244e-23  4.8987e-30  3.5975e-23  9.2288e-30  3.7278e-23  1.7781e-29  3.9607e-23  3.5886e-29  4.3787e-23  7.6907e-29  5.1336e-23  1.7656e-28  6.5134e-23  4.3176e-28  9.0848e-23  1.1047e-27  1.4029e-22  2.8959e-27    2.4e-22
      8.30  2.9271e-33  3.6358e-23  3.7661e-33  3.6362e-23  6.478e-33  3.637e-23  1.5078e-32  3.6383e-23  4.0274e-32  3.6405e-23  1.1254e-31  3.6446e-23  3.1732e-31  3.6519e-23  6.3245e-31  3.6648e-23  1.1339e-30  3.6878e-23  2.0488e-30  3.7288e-23  3.7438e-30  3.8017e-23  6.9764e-30  3.9318e-23  1.3409e-29  4.1643e-23  2.6976e-29  4.5815e-23  5.7442e-29  5.335e-23  1.3203e-28  6.7121e-23   3.23e-28  9.278e-23  8.3031e-28  1.4211e-22  2.1965e-27  2.4155e-22
      8.35  2.4327e-33  3.8484e-23  3.0657e-33  3.8488e-23  5.0717e-33  3.8496e-23  1.1649e-32  3.8896e-23  2.957e-32  3.8532e-23  8.2148e-32  3.8572e-23  2.3419e-31  3.8645e-23  4.6801e-31  3.8775e-23  8.3868e-31  3.9005e-23  1.515e-30  3.9414e-23  2.7692e-30  4.0144e-23  5.1601e-30  4.1446e-23  9.9177e-30  4.3772e-23  1.9957e-29  4.7945e-23  4.2693e-29  5.5484e-23  9.799e-29  6.9258e-23  2.3933e-28  9.4922e-23  6.2311e-28  1.4425e-22  1.6649e-27  2.4367e-22
      8.40  2.0386e-33  4.068e-23  2.4927e-33  4.0684e-23  3.9122e-33  4.0691e-23  8.5328e-33  4.0704e-23  2.1505e-32  4.0727e-23  5.9498e-32  4.0768e-23  1.6733e-31  4.0841e-23  3.3883e-31  4.0971e-23  6.0701e-31  4.1202e-23  1.0967e-30  4.1613e-23  2.0062e-30  4.2345e-23  3.7435e-30  4.3651e-23  7.2101e-30  4.5984e-23  1.4555e-29  5.017e-23  3.1278e-29  5.773e-23  7.2234e-29  7.1545e-23  1.7878e-28  9.728e-23  4.6706e-28  1.4674e-22  1.2616e-27  2.4638e-22
      8.45  1.7287e-33  4.293e-23  2.058e-33  4.2934e-23  3.1216e-33  4.2942e-23  6.2021e-33  4.2955e-23  1.587e-32  4.2978e-23  4.3871e-32  4.3019e-23  1.2164e-31  4.3093e-23  2.449e-31  4.3223e-23  4.4291e-31  4.3455e-23  8.0034e-31  4.3869e-23  1.4651e-30  4.4605e-23  2.7618e-30  4.5917e-23  5.284e-30  4.8263e-23  1.0701e-29  5.2473e-23  2.3099e-29  6.0075e-23  5.3655e-29  7.3964e-23  1.3373e-28  9.9834e-23  3.523e-28  1.4954e-22   9.61e-28  2.4966e-22
      8.50  1.5046e-33  4.5672e-23  1.7266e-33  4.522e-23  2.5191e-33  4.5227e-23  4.7781e-33  4.524e-23  1.1885e-32  4.5264e-23  3.1902e-32  4.5305e-23  8.9556e-32  4.5379e-23  1.8036e-31  4.5511e-23  3.2609e-31  4.5745e-23  5.8932e-31  4.6161e-23  1.0794e-30  4.6903e-23  2.0195e-30  4.8226e-23  3.9058e-30  5.059e-23  7.9335e-30  5.4831e-23  1.7195e-29  6.2491e-23  4.0149e-29  7.6484e-23  1.007e-28  1.0254e-22  2.6724e-28  1.5261e-22  7.3527e-28  2.5342e-22
