# This was generated using Cloudy10 and the columns are ordered 
# as log10 of the fraction of the metallicity to the solar metallicity
# 'h_*_Z' and 'c_*_Z' stands for cooling and heating respectively 
# at * metalicity
#
# NOTE: This was generated separately from loop_coolingcurve_w_UV.py
#       using Output_metals_w_redshift.py.
#
# Redshift = 6.5
# hden = -2.5
#
#     temp   h_-3.00_Z   c_-3.00_Z   h_-2.75_Z   c_-2.75_Z   h_-2.50_Z   c_-2.50_Z   h_-2.25_Z   c_-2.25_Z   h_-2.00_Z   c_-2.00_Z   h_-1.75_Z   c_-1.75_Z   h_-1.50_Z   c_-1.50_Z   h_-1.25_Z   c_-1.25_Z   h_-1.00_Z   c_-1.00_Z   h_-0.75_Z   c_-0.75_Z   h_-0.50_Z   c_-0.50_Z   h_-0.25_Z   c_-0.25_Z    h_0.00_Z    c_0.00_Z    h_0.25_Z    c_0.25_Z    h_0.50_Z    c_0.50_Z    h_0.75_Z    c_0.75_Z    h_1.00_Z    c_1.00_Z    h_1.25_Z    c_1.25_Z    h_1.50_Z    c_1.50_Z 
      1.00  1.7679e-22  3.4721e-26  1.7679e-22  3.4721e-26  1.7680e-22  3.4722e-26  1.7680e-22  3.4724e-26  1.7681e-22  3.4727e-26  1.7682e-22  3.4732e-26  1.7684e-22  3.4742e-26  1.7687e-22  3.4759e-26  1.7694e-22  3.4790e-26  1.7705e-22  3.4844e-26  1.7725e-22  3.4940e-26  1.7761e-22  3.5111e-26  1.7825e-22  3.5416e-26  1.7938e-22  3.5959e-26  1.8139e-22  3.6926e-26  1.8498e-22  3.8654e-26  1.9137e-22  4.1747e-26  2.0276e-22  4.7316e-26  2.2313e-22  5.7433e-26
      1.05  1.6895e-22  3.7168e-26  1.6895e-22  3.7169e-26  1.6895e-22  3.7171e-26  1.6896e-22  3.7175e-26  1.6896e-22  3.7182e-26  1.6897e-22  3.7194e-26  1.6899e-22  3.7215e-26  1.6903e-22  3.7253e-26  1.6909e-22  3.7320e-26  1.6920e-22  3.7439e-26  1.6939e-22  3.7652e-26  1.6974e-22  3.8030e-26  1.7036e-22  3.8703e-26  1.7145e-22  3.9901e-26  1.7340e-22  4.2037e-26  1.7688e-22  4.5852e-26  1.8306e-22  5.2689e-26  1.9410e-22  6.5010e-26  2.1383e-22  8.7436e-26
      1.10  1.6130e-22  3.9746e-26  1.6130e-22  3.9748e-26  1.6131e-22  3.9753e-26  1.6131e-22  3.9760e-26  1.6132e-22  3.9774e-26  1.6133e-22  3.9798e-26  1.6134e-22  3.9841e-26  1.6138e-22  3.9917e-26  1.6144e-22  4.0053e-26  1.6154e-22  4.0294e-26  1.6173e-22  4.0724e-26  1.6207e-22  4.1488e-26  1.6267e-22  4.2848e-26  1.6373e-22  4.5269e-26  1.6561e-22  4.9587e-26  1.6898e-22  5.7300e-26  1.7497e-22  7.1127e-26  1.8565e-22  9.6069e-26  2.0476e-22  1.4153e-25
      1.15  1.5386e-22  4.2459e-26  1.5386e-22  4.2463e-26  1.5386e-22  4.2471e-26  1.5386e-22  4.2486e-26  1.5387e-22  4.2511e-26  1.5388e-22  4.2556e-26  1.5390e-22  4.2637e-26  1.5393e-22  4.2780e-26  1.5399e-22  4.3035e-26  1.5409e-22  4.3487e-26  1.5427e-22  4.4293e-26  1.5460e-22  4.5726e-26  1.5518e-22  4.8277e-26  1.5620e-22  5.2820e-26  1.5803e-22  6.0921e-26  1.6128e-22  7.5396e-26  1.6707e-22  1.0136e-25  1.7741e-22  1.4822e-25  1.9589e-22  2.3372e-25
      1.20  1.4662e-22  4.5310e-26  1.4662e-22  4.5318e-26  1.4662e-22  4.5332e-26  1.4663e-22  4.5357e-26  1.4663e-22  4.5402e-26  1.4664e-22  4.5482e-26  1.4666e-22  4.5623e-26  1.4669e-22  4.5874e-26  1.4675e-22  4.6321e-26  1.4685e-22  4.7116e-26  1.4702e-22  4.8529e-26  1.4734e-22  5.1045e-26  1.4789e-22  5.5522e-26  1.4889e-22  6.3496e-26  1.5065e-22  7.7717e-26  1.5380e-22  1.0313e-25  1.5940e-22  1.4873e-25  1.6939e-22  2.3108e-25  1.8726e-22  3.8150e-25
      1.25  1.3960e-22  4.8304e-26  1.3960e-22  4.8317e-26  1.3960e-22  4.8341e-26  1.3960e-22  4.8382e-26  1.3961e-22  4.8456e-26  1.3962e-22  4.8587e-26  1.3963e-22  4.8821e-26  1.3966e-22  4.9236e-26  1.3972e-22  4.9975e-26  1.3981e-22  5.1288e-26  1.3998e-22  5.3625e-26  1.4029e-22  5.7782e-26  1.4083e-22  6.5182e-26  1.4179e-22  7.8362e-26  1.4349e-22  1.0187e-25  1.4653e-22  1.4389e-25  1.5194e-22  2.1930e-25  1.6159e-22  3.5557e-25  1.7886e-22  6.0469e-25
      1.30  1.3279e-22  5.1445e-26  1.3279e-22  5.1465e-26  1.3279e-22  5.1502e-26  1.3279e-22  5.1567e-26  1.3280e-22  5.1682e-26  1.3281e-22  5.1888e-26  1.3282e-22  5.2253e-26  1.3285e-22  5.2903e-26  1.3291e-22  5.4060e-26  1.3300e-22  5.6116e-26  1.3316e-22  5.9774e-26  1.3346e-22  6.6282e-26  1.3398e-22  7.7866e-26  1.3490e-22  9.8502e-26  1.3655e-22  1.3531e-25  1.3948e-22  2.0111e-25  1.4471e-22  3.1923e-25  1.5404e-22  5.3278e-25  1.7072e-22  9.2349e-25
      1.35  1.2620e-22  5.5554e-26  1.2620e-22  5.5585e-26  1.2620e-22  5.5640e-26  1.2620e-22  5.5736e-26  1.2621e-22  5.5909e-26  1.2622e-22  5.6215e-26  1.2623e-22  5.6760e-26  1.2626e-22  5.7729e-26  1.2631e-22  5.9453e-26  1.2640e-22  6.2519e-26  1.2656e-22  6.7972e-26  1.2684e-22  7.7675e-26  1.2735e-22  9.4947e-26  1.2824e-22  1.2571e-25  1.2983e-22  1.8060e-25  1.3267e-22  2.7873e-25  1.3771e-22  4.5493e-25  1.4672e-22  7.7360e-25  1.6283e-22  1.3571e-24
      1.40  1.1983e-22  6.0017e-26  1.1983e-22  6.0061e-26  1.1983e-22  6.0139e-26  1.1984e-22  6.0277e-26  1.1984e-22  6.0523e-26  1.1985e-22  6.0960e-26  1.1987e-22  6.1738e-26  1.1989e-22  6.3121e-26  1.1994e-22  6.5581e-26  1.2003e-22  6.9956e-26  1.2018e-22  7.7739e-26  1.2045e-22  9.1587e-26  1.2094e-22  1.1624e-25  1.2180e-22  1.6015e-25  1.2334e-22  2.3849e-25  1.2607e-22  3.7857e-25  1.3095e-22  6.3015e-25  1.3965e-22  1.0853e-24  1.5520e-22  1.9192e-24
      1.45  1.1369e-22  6.4619e-26  1.1369e-22  6.4679e-26  1.1369e-22  6.4786e-26  1.1369e-22  6.4976e-26  1.1370e-22  6.5313e-26  1.1371e-22  6.5914e-26  1.1372e-22  6.6982e-26  1.1375e-22  6.8881e-26  1.1379e-22  7.2258e-26  1.1388e-22  7.8265e-26  1.1402e-22  8.8951e-26  1.1429e-22  1.0796e-25  1.1476e-22  1.4181e-25  1.1559e-22  2.0211e-25  1.1707e-22  3.0968e-25  1.1971e-22  5.0206e-25  1.2442e-22  8.4761e-25  1.3281e-22  1.4730e-24  1.4782e-22  2.6192e-24
      1.50  1.0776e-22  6.9366e-26  1.0777e-22  6.9445e-26  1.0777e-22  6.9587e-26  1.0777e-22  6.9839e-26  1.0777e-22  7.0287e-26  1.0778e-22  7.1084e-26  1.0780e-22  7.2501e-26  1.0782e-22  7.5021e-26  1.0787e-22  7.9504e-26  1.0795e-22  8.7475e-26  1.0809e-22  1.0166e-25  1.0834e-22  1.2689e-25  1.0880e-22  1.7181e-25  1.0960e-22  2.5183e-25  1.1103e-22  3.9460e-25  1.1358e-22  6.4994e-25  1.1812e-22  1.1087e-24  1.2622e-22  1.9390e-24  1.4070e-22  3.4616e-24
      1.55  1.0207e-22  7.4272e-26  1.0207e-22  7.4375e-26  1.0207e-22  7.4558e-26  1.0207e-22  7.4882e-26  1.0207e-22  7.5460e-26  1.0208e-22  7.6487e-26  1.0210e-22  7.8312e-26  1.0212e-22  8.1560e-26  1.0216e-22  8.7335e-26  1.0224e-22  9.7606e-26  1.0238e-22  1.1588e-25  1.0262e-22  1.4839e-25  1.0306e-22  2.0626e-25  1.0384e-22  3.0937e-25  1.0522e-22  4.9334e-25  1.0767e-22  8.2238e-25  1.1205e-22  1.4135e-24  1.1986e-22  2.4838e-24  1.3383e-22  4.4470e-24
      1.60  9.6588e-23  7.9340e-26  9.6589e-23  7.9469e-26  9.6590e-23  7.9699e-26  9.6593e-23  8.0107e-26  9.6597e-23  8.0832e-26  9.6604e-23  8.2122e-26  9.6617e-23  8.4416e-26  9.6641e-23  8.8496e-26  9.6683e-23  9.5751e-26  9.6758e-23  1.0866e-25  9.6891e-23  1.3161e-25  9.7127e-23  1.7246e-25  9.7547e-23  2.4517e-25  9.8295e-23  3.7472e-25  9.9625e-23  6.0585e-25  1.0199e-22  1.0193e-24  1.0621e-22  1.7621e-24  1.1374e-22  3.1071e-24  1.2721e-22  5.5746e-24
      1.65  9.1330e-23  8.4576e-26  9.1331e-23  8.4735e-26  9.1332e-23  8.5017e-26  9.1334e-23  8.5519e-26  9.1338e-23  8.6411e-26  9.1346e-23  8.7998e-26  9.1358e-23  9.0820e-26  9.1381e-23  9.5839e-26  9.1422e-23  1.0476e-25  9.1493e-23  1.2064e-25  9.1621e-23  1.4888e-25  9.1849e-23  1.9913e-25  9.2254e-23  2.8858e-25  9.2974e-23  4.4795e-25  9.4256e-23  7.3230e-25  9.6537e-23  1.2409e-24  1.0060e-22  2.1548e-24  1.0785e-22  3.8095e-24  1.2083e-22  6.8456e-24
      1.70  8.6290e-23  8.9987e-26  8.6290e-23  9.0179e-26  8.6292e-23  9.0520e-26  8.6294e-23  9.1127e-26  8.6298e-23  9.2207e-26  8.6305e-23  9.4127e-26  8.6317e-23  9.7541e-26  8.6339e-23  1.0361e-25  8.6378e-23  1.1441e-25  8.6447e-23  1.3362e-25  8.6570e-23  1.6778e-25  8.6789e-23  2.2857e-25  8.7179e-23  3.3678e-25  8.7872e-23  5.2958e-25  8.9106e-23  8.7356e-25  9.1302e-23  1.4888e-24  9.5214e-23  2.5943e-24  1.0220e-22  4.5959e-24  1.1468e-22  8.2681e-24
      1.75  8.1464e-23  9.5581e-26  8.1464e-23  9.5810e-26  8.1466e-23  9.6218e-26  8.1468e-23  9.6944e-26  8.1471e-23  9.8233e-26  8.1478e-23  1.0053e-25  8.1490e-23  1.0461e-25  8.1511e-23  1.1186e-25  8.1549e-23  1.2476e-25  8.1615e-23  1.4770e-25  8.1734e-23  1.8852e-25  8.1944e-23  2.6115e-25  8.2319e-23  3.9043e-25  8.2986e-23  6.2076e-25  8.4172e-23  1.0317e-24  8.6284e-23  1.7667e-24  9.0046e-23  3.0872e-24  9.6759e-23  5.4779e-24  1.0877e-22  9.8629e-24
      1.80  7.6850e-23  1.0139e-25  7.6850e-23  1.0166e-25  7.6851e-23  1.0214e-25  7.6853e-23  1.0300e-25  7.6857e-23  1.0453e-25  7.6863e-23  1.0725e-25  7.6875e-23  1.1208e-25  7.6895e-23  1.2068e-25  7.6931e-23  1.3596e-25  7.6995e-23  1.6315e-25  7.7109e-23  2.1151e-25  7.7311e-23  2.9756e-25  7.7671e-23  4.5074e-25  7.8312e-23  7.2364e-25  7.9451e-23  1.2105e-24  8.1479e-23  2.0813e-24  8.5094e-23  3.6455e-24  9.1543e-23  6.4767e-24  1.0308e-22  1.1668e-23
      1.85  7.2443e-23  1.0740e-25  7.2443e-23  1.0772e-25  7.2444e-23  1.0829e-25  7.2446e-23  1.0931e-25  7.2450e-23  1.1111e-25  7.2456e-23  1.1431e-25  7.2467e-23  1.2002e-25  7.2486e-23  1.3015e-25  7.2521e-23  1.4819e-25  7.2582e-23  1.8026e-25  7.2691e-23  2.3731e-25  7.2886e-23  3.3881e-25  7.3231e-23  5.1951e-25  7.3845e-23  8.4141e-25  7.4939e-23  1.4157e-24  7.6885e-23  2.4426e-24  8.0353e-23  4.2872e-24  8.6541e-23  7.6249e-24  9.7613e-23  1.3742e-23
      1.90  6.8239e-23  1.1363e-25  6.8240e-23  1.1401e-25  6.8241e-23  1.1468e-25  6.8243e-23  1.1587e-25  6.8246e-23  1.1800e-25  6.8252e-23  1.2177e-25  6.8262e-23  1.2849e-25  6.8281e-23  1.4043e-25  6.8314e-23  1.6168e-25  6.8373e-23  1.9946e-25  6.8477e-23  2.6667e-25  6.8663e-23  3.8625e-25  6.8994e-23  5.9911e-25  6.9583e-23  9.7831e-25  7.0631e-23  1.6547e-24  7.2496e-23  2.8643e-24  7.5819e-23  5.0363e-24  8.1750e-23  8.9654e-24  9.2363e-23  1.6162e-23
      1.95  6.4234e-23  1.2008e-25  6.4234e-23  1.2053e-25  6.4235e-23  1.2132e-25  6.4237e-23  1.2273e-25  6.4240e-23  1.2523e-25  6.4246e-23  1.2968e-25  6.4256e-23  1.3760e-25  6.4274e-23  1.5168e-25  6.4305e-23  1.7671e-25  6.4362e-23  2.2124e-25  6.4462e-23  3.0045e-25  6.4641e-23  4.4138e-25  6.4958e-23  6.9225e-25  6.5523e-23  1.1391e-24  6.6527e-23  1.9362e-24  6.8315e-23  3.3614e-24  7.1502e-23  5.9201e-24  7.7190e-23  1.0547e-23  8.7371e-23  1.9015e-23
      2.00  6.0421e-23  1.2678e-25  6.0422e-23  1.2730e-25  6.0423e-23  1.2824e-25  6.0425e-23  1.2990e-25  6.0428e-23  1.3285e-25  6.0433e-23  1.3810e-25  6.0443e-23  1.4744e-25  6.0460e-23  1.6406e-25  6.0490e-23  1.9360e-25  6.0544e-23  2.4614e-25  6.0640e-23  3.3960e-25  6.0811e-23  5.0590e-25  6.1114e-23  8.0190e-25  6.1654e-23  1.3292e-24  6.2615e-23  2.2696e-24  6.4325e-23  3.9508e-24  6.7372e-23  6.9684e-24  7.2811e-23  1.2423e-23  8.2549e-23  2.2400e-23
      2.05  5.6797e-23  1.3376e-25  5.6798e-23  1.3438e-25  5.6799e-23  1.3548e-25  5.6800e-23  1.3744e-25  5.6803e-23  1.4093e-25  5.6808e-23  1.4713e-25  5.6817e-23  1.5815e-25  5.6834e-23  1.7776e-25  5.6863e-23  2.1262e-25  5.6914e-23  2.7464e-25  5.7006e-23  3.8494e-25  5.7169e-23  5.8121e-25  5.7459e-23  9.3054e-25  5.7974e-23  1.5528e-24  5.8892e-23  2.6625e-24  6.0525e-23  4.6462e-24  6.3436e-23  8.2061e-24  6.8631e-23  1.4638e-23  7.7934e-23  2.6397e-23
      2.10  5.3355e-23  1.4101e-25  5.3356e-23  1.4174e-25  5.3357e-23  1.4304e-25  5.3358e-23  1.4535e-25  5.3361e-23  1.4946e-25  5.3366e-23  1.5676e-25  5.3375e-23  1.6975e-25  5.3390e-23  1.9286e-25  5.3418e-23  2.3394e-25  5.3467e-23  3.0701e-25  5.3554e-23  4.3699e-25  5.3710e-23  6.6825e-25  5.3987e-23  1.0799e-24  5.4479e-23  1.8130e-24  5.5354e-23  3.1205e-24  5.6913e-23  5.4575e-24  5.9691e-23  9.6505e-24  6.4650e-23  1.7224e-23  7.3533e-23  3.1062e-23
      2.15  5.0090e-23  1.4854e-25  5.0090e-23  1.4940e-25  5.0091e-23  1.5092e-25  5.0093e-23  1.5363e-25  5.0095e-23  1.5846e-25  5.0100e-23  1.6703e-25  5.0108e-23  1.8228e-25  5.0123e-23  2.0940e-25  5.0150e-23  2.5763e-25  5.0197e-23  3.4340e-25  5.0280e-23  4.9598e-25  5.0428e-23  7.6744e-25  5.0692e-23  1.2506e-24  5.1162e-23  2.1112e-24  5.1997e-23  3.6459e-24  5.3484e-23  6.3886e-24  5.6134e-23  1.1309e-23  6.0865e-23  2.0195e-23  6.9341e-23  3.6422e-23
      2.20  4.6995e-23  1.5636e-25  4.6996e-23  1.5736e-25  4.6996e-23  1.5914e-25  4.6998e-23  1.6230e-25  4.7000e-23  1.6793e-25  4.7005e-23  1.7793e-25  4.7013e-23  1.9573e-25  4.7027e-23  2.2737e-25  4.7052e-23  2.8364e-25  4.7097e-23  3.8373e-25  4.7176e-23  5.6176e-25  4.7318e-23  8.7851e-25  4.7569e-23  1.4423e-24  4.8017e-23  2.4464e-24  4.8813e-23  4.2370e-24  5.0231e-23  7.4369e-24  5.2758e-23  1.3177e-23  5.7270e-23  2.3541e-23  6.5355e-23  4.2461e-23
      2.25  4.4065e-23  1.6448e-25  4.4065e-23  1.6563e-25  4.4066e-23  1.6769e-25  4.4067e-23  1.7136e-25  4.4070e-23  1.7787e-25  4.4074e-23  1.8945e-25  4.4082e-23  2.1005e-25  4.4095e-23  2.4669e-25  4.4119e-23  3.1183e-25  4.4162e-23  4.2771e-25  4.4237e-23  6.3381e-25  4.4372e-23  1.0005e-24  4.4612e-23  1.6532e-24  4.5039e-23  2.8156e-24  4.5798e-23  4.8885e-24  4.7149e-23  8.5928e-24  4.9558e-23  1.5237e-23  5.3859e-23  2.7232e-23  6.1569e-23  4.9127e-23
      2.30  4.1293e-23  1.7297e-25  4.1293e-23  1.7430e-25  4.1294e-23  1.7666e-25  4.1295e-23  1.8087e-25  4.1298e-23  1.8834e-25  4.1302e-23  2.0163e-25  4.1309e-23  2.2526e-25  4.1322e-23  2.6729e-25  4.1345e-23  3.4203e-25  4.1385e-23  4.7497e-25  4.1457e-23  7.1143e-25  4.1585e-23  1.1321e-24  4.1814e-23  1.8809e-24  4.2219e-23  3.2146e-24  4.2942e-23  5.5927e-24  4.4227e-23  9.8424e-24  4.6519e-23  1.7465e-23  5.0613e-23  3.1225e-23  5.7952e-23  5.6338e-23
      2.35  3.8673e-23  1.8179e-25  3.8674e-23  1.8330e-25  3.8674e-23  1.8598e-25  3.8676e-23  1.9075e-25  3.8678e-23  1.9923e-25  3.8682e-23  2.1432e-25  3.8689e-23  2.4114e-25  3.8701e-23  2.8884e-25  3.8722e-23  3.7368e-25  3.8761e-23  5.2457e-25  3.8830e-23  7.9297e-25  3.8952e-23  1.2705e-24  3.9170e-23  2.1204e-24  3.9557e-23  3.6342e-24  4.0246e-23  6.3335e-24  4.1473e-23  1.1157e-23  4.3659e-23  1.9809e-23  4.7564e-23  3.5429e-23  5.4568e-23  6.3936e-23
      2.40  3.6200e-23  1.9094e-25  3.6200e-23  1.9263e-25  3.6201e-23  1.9564e-25  3.6202e-23  2.0100e-25  3.6204e-23  2.1052e-25  3.6208e-23  2.2746e-25  3.6214e-23  2.5758e-25  3.6226e-23  3.1115e-25  3.6247e-23  4.0641e-25  3.6283e-23  5.7583e-25  3.6349e-23  8.7721e-25  3.6466e-23  1.4134e-24  3.6673e-23  2.3677e-24  3.7042e-23  4.0675e-24  3.7699e-23  7.0986e-24  3.8869e-23  1.2515e-23  4.0954e-23  2.2232e-23  4.4678e-23  3.9773e-23  5.1360e-23  7.1792e-23
      2.45  3.3866e-23  2.0043e-25  3.3866e-23  2.0231e-25  3.3867e-23  2.0566e-25  3.3868e-23  2.1161e-25  3.3870e-23  2.2219e-25  3.3873e-23  2.4101e-25  3.3880e-23  2.7448e-25  3.3891e-23  3.3400e-25  3.3910e-23  4.3985e-25  3.3946e-23  6.2812e-25  3.4008e-23  9.6300e-25  3.4119e-23  1.5588e-24  3.4317e-23  2.6193e-24  3.4669e-23  4.5081e-24  3.5295e-23  7.8764e-24  3.6409e-23  1.3896e-23  3.8396e-23  2.4694e-23  4.1946e-23  4.4192e-23  4.8316e-23  7.9789e-23
      2.50  3.1666e-23  2.1027e-25  3.1666e-23  2.1234e-25  3.1667e-23  2.1602e-25  3.1668e-23  2.2256e-25  3.1670e-23  2.3421e-25  3.1673e-23  2.5491e-25  3.1679e-23  2.9172e-25  3.1689e-23  3.5718e-25  3.1708e-23  4.7361e-25  3.1742e-23  6.8069e-25  3.1801e-23  1.0490e-24  3.1907e-23  1.7044e-24  3.2095e-23  2.8708e-24  3.2430e-23  4.9484e-24  3.3027e-23  8.6535e-24  3.4088e-23  1.5275e-23  3.5980e-23  2.7155e-23  3.9361e-23  4.8609e-23  4.5430e-23  8.7788e-23
      2.55  2.9593e-23  2.2057e-25  2.9594e-23  2.2283e-25  2.9594e-23  2.2683e-25  2.9595e-23  2.3396e-25  2.9597e-23  2.4664e-25  2.9600e-23  2.6918e-25  2.9606e-23  3.0927e-25  2.9616e-23  3.8056e-25  2.9634e-23  5.0735e-25  2.9666e-23  7.3285e-25  2.9723e-23  1.1340e-24  2.9823e-23  1.8476e-24  3.0003e-23  3.1179e-24  3.0322e-23  5.3805e-24  3.0890e-23  9.4156e-24  3.1901e-23  1.6628e-23  3.3704e-23  2.9568e-23  3.6926e-23  5.2941e-23  4.2711e-23  9.5640e-23
      2.60  2.7643e-23  2.3124e-25  2.7643e-23  2.3367e-25  2.7644e-23  2.3800e-25  2.7645e-23  2.4568e-25  2.7646e-23  2.5935e-25  2.7650e-23  2.8366e-25  2.7655e-23  3.2688e-25  2.7665e-23  4.0375e-25  2.7682e-23  5.4047e-25  2.7712e-23  7.8362e-25  2.7766e-23  1.2161e-24  2.7862e-23  1.9857e-24  2.8033e-23  3.3554e-24  2.8337e-23  5.7952e-24  2.8878e-23  1.0146e-23  2.9842e-23  1.7924e-23  3.1560e-23  3.1881e-23  3.4630e-23  5.7096e-23  4.0146e-23  1.0318e-22
      2.65  2.5809e-23  2.4229e-25  2.5809e-23  2.4489e-25  2.5809e-23  2.4951e-25  2.5810e-23  2.5772e-25  2.5812e-23  2.7233e-25  2.5815e-23  2.9831e-25  2.5820e-23  3.4450e-25  2.5829e-23  4.2666e-25  2.5845e-23  5.7276e-25  2.5874e-23  8.3262e-25  2.5926e-23  1.2949e-24  2.6017e-23  2.1173e-24  2.6180e-23  3.5812e-24  2.6470e-23  6.1887e-24  2.6986e-23  1.0839e-23  2.7905e-23  1.9153e-23  2.9542e-23  3.4074e-23  3.2469e-23  6.1037e-23  3.7729e-23  1.1033e-22
      2.70  2.4084e-23  2.5373e-25  2.4085e-23  2.5648e-25  2.4085e-23  2.6137e-25  2.4086e-23  2.7008e-25  2.4088e-23  2.8556e-25  2.4090e-23  3.1309e-25  2.4095e-23  3.6205e-25  2.4104e-23  4.4911e-25  2.4120e-23  6.0395e-25  2.4147e-23  8.7934e-25  2.4196e-23  1.3692e-24  2.4284e-23  2.2408e-24  2.4439e-23  3.7923e-24  2.4716e-23  6.5559e-24  2.5207e-23  1.1485e-23  2.6083e-23  2.0298e-23  2.7645e-23  3.6116e-23  3.0437e-23  6.4708e-23  3.5456e-23  1.1700e-22
      2.75  2.2465e-23  2.6555e-25  2.2465e-23  2.6845e-25  2.2466e-23  2.7359e-25  2.2467e-23  2.8275e-25  2.2468e-23  2.9902e-25  2.2471e-23  3.2797e-25  2.2475e-23  3.7945e-25  2.2484e-23  4.7099e-25  2.2499e-23  6.3380e-25  2.2525e-23  9.2337e-25  2.2572e-23  1.4385e-24  2.2655e-23  2.3549e-24  2.2804e-23  3.9863e-24  2.3068e-23  6.8923e-24  2.3537e-23  1.2076e-23  2.4373e-23  2.1344e-23  2.5864e-23  3.7982e-23  2.8530e-23  6.8066e-23  3.3323e-23  1.2311e-22
      2.80  2.0945e-23  2.7794e-25  2.0946e-23  2.8096e-25  2.0946e-23  2.8634e-25  2.0947e-23  2.9589e-25  2.0948e-23  3.1288e-25  2.0951e-23  3.4308e-25  2.0955e-23  3.9680e-25  2.0963e-23  4.9234e-25  2.0977e-23  6.6224e-25  2.1003e-23  9.6443e-25  2.1047e-23  1.5020e-24  2.1127e-23  2.4584e-24  2.1269e-23  4.1609e-24  2.1521e-23  7.1938e-24  2.1970e-23  1.2604e-23  2.2769e-23  2.2278e-23  2.4193e-23  3.9648e-23  2.6742e-23  7.1063e-23  3.1324e-23  1.2857e-22
      2.85  1.9520e-23  2.9075e-25  1.9520e-23  2.9388e-25  1.9521e-23  2.9945e-25  1.9521e-23  3.0934e-25  1.9523e-23  3.2694e-25  1.9525e-23  3.5824e-25  1.9529e-23  4.1389e-25  1.9537e-23  5.1287e-25  1.9551e-23  6.8890e-25  1.9575e-23  1.0020e-24  1.9618e-23  1.5589e-24  1.9694e-23  2.5498e-24  1.9829e-23  4.3138e-24  2.0071e-23  7.4561e-24  2.0500e-23  1.3062e-23  2.1264e-23  2.3087e-23  2.2627e-23  4.1090e-23  2.5066e-23  7.3658e-23  2.9451e-23  1.3331e-22
      2.90  1.8184e-23  3.0399e-25  1.8184e-23  3.0721e-25  1.8184e-23  3.1294e-25  1.8185e-23  3.2312e-25  1.8186e-23  3.4123e-25  1.8189e-23  3.7343e-25  1.8193e-23  4.3069e-25  1.8200e-23  5.3252e-25  1.8213e-23  7.1363e-25  1.8236e-23  1.0358e-24  1.8277e-23  1.6088e-24  1.8350e-23  2.6283e-24  1.8480e-23  4.4432e-24  1.8711e-23  7.6765e-24  1.9122e-23  1.3445e-23  1.9853e-23  2.3761e-23  2.1159e-23  4.2291e-23  2.3495e-23  7.5822e-23  2.7696e-23  1.3727e-22
      2.95  1.6931e-23  3.1770e-25  1.6932e-23  3.2099e-25  1.6932e-23  3.2684e-25  1.6933e-23  3.3725e-25  1.6934e-23  3.5575e-25  1.6936e-23  3.8866e-25  1.6940e-23  4.4718e-25  1.6947e-23  5.5126e-25  1.6960e-23  7.3635e-25  1.6982e-23  1.0656e-24  1.7021e-23  1.6512e-24  1.7091e-23  2.6932e-24  1.7215e-23  4.5481e-24  1.7437e-23  7.8528e-24  1.7830e-23  1.3749e-23  1.8532e-23  2.4294e-23  1.9783e-23  4.3239e-23  2.2022e-23  7.7531e-23  2.6049e-23  1.4040e-22
      3.00  1.5759e-23  3.3192e-25  1.5759e-23  3.3526e-25  1.5760e-23  3.4121e-25  1.5760e-23  3.5177e-25  1.5762e-23  3.7057e-25  1.5764e-23  4.0398e-25  1.5768e-23  4.6341e-25  1.5774e-23  5.6910e-25  1.5786e-23  7.5706e-25  1.5807e-23  1.0914e-24  1.5845e-23  1.6861e-24  1.5912e-23  2.7443e-24  1.6031e-23  4.6280e-24  1.6243e-23  7.9841e-24  1.6621e-23  1.3972e-23  1.7293e-23  2.4683e-23  1.8493e-23  4.3928e-23  2.0639e-23  7.8774e-23  2.4501e-23  1.4269e-22
      3.05  1.4662e-23  3.4698e-25  1.4662e-23  3.5036e-25  1.4663e-23  3.5636e-25  1.4663e-23  3.6703e-25  1.4665e-23  3.8601e-25  1.4667e-23  4.1976e-25  1.4670e-23  4.7978e-25  1.4677e-23  5.8651e-25  1.4688e-23  7.7634e-25  1.4709e-23  1.1140e-24  1.4745e-23  1.7146e-24  1.4809e-23  2.7833e-24  1.4924e-23  4.6857e-24  1.5128e-23  8.0753e-24  1.5490e-23  1.4123e-23  1.6136e-23  2.4943e-23  1.7289e-23  4.4385e-23  1.9351e-23  7.9597e-23  2.3062e-23  1.4422e-22
      3.10  1.3636e-23  3.6242e-25  1.3637e-23  3.6581e-25  1.3637e-23  3.7184e-25  1.3638e-23  3.8255e-25  1.3639e-23  4.0161e-25  1.3641e-23  4.3550e-25  1.3644e-23  4.9578e-25  1.3650e-23  6.0296e-25  1.3661e-23  7.9359e-25  1.3681e-23  1.1326e-24  1.3716e-23  1.7358e-24  1.3777e-23  2.8090e-24  1.3888e-23  4.7195e-24  1.4083e-23  8.1236e-24  1.4432e-23  1.4198e-23  1.5052e-23  2.5065e-23  1.6159e-23  4.4596e-23  1.8141e-23  7.9977e-23  2.1706e-23  1.4493e-22
      3.15  1.2677e-23  3.7872e-25  1.2678e-23  3.8210e-25  1.2678e-23  3.8812e-25  1.2679e-23  3.9883e-25  1.2680e-23  4.1787e-25  1.2681e-23  4.5172e-25  1.2685e-23  5.1193e-25  1.2691e-23  6.1901e-25  1.2701e-23  8.0943e-25  1.2720e-23  1.1481e-24  1.2753e-23  1.7506e-24  1.2813e-23  2.8228e-24  1.2919e-23  4.7314e-24  1.3106e-23  8.1320e-24  1.3441e-23  1.4200e-23  1.4037e-23  2.5058e-23  1.5099e-23  4.4575e-23  1.7002e-23  7.9939e-23  2.0425e-23  1.4489e-22
      3.20  1.1781e-23  3.9578e-25  1.1782e-23  3.9915e-25  1.1782e-23  4.0513e-25  1.1783e-23  4.1577e-25  1.1784e-23  4.3470e-25  1.1785e-23  4.6835e-25  1.1789e-23  5.2820e-25  1.1794e-23  6.3463e-25  1.1804e-23  8.2392e-25  1.1822e-23  1.1606e-24  1.1854e-23  1.7595e-24  1.1911e-23  2.8252e-24  1.2013e-23  4.7225e-24  1.2193e-23  8.1030e-24  1.2514e-23  1.4136e-23  1.3086e-23  2.4930e-23  1.4105e-23  4.4336e-23  1.5931e-23  7.9508e-23  1.9215e-23  1.4413e-22
      3.25  1.0945e-23  4.1344e-25  1.0945e-23  4.1677e-25  1.0945e-23  4.2269e-25  1.0946e-23  4.3322e-25  1.0947e-23  4.5194e-25  1.0949e-23  4.8524e-25  1.0952e-23  5.4446e-25  1.0957e-23  6.4977e-25  1.0967e-23  8.3707e-25  1.0984e-23  1.1702e-24  1.1015e-23  1.7628e-24  1.1069e-23  2.8173e-24  1.1167e-23  4.6946e-24  1.1340e-23  8.0397e-24  1.1648e-23  1.4009e-23  1.2196e-23  2.4692e-23  1.3174e-23  4.3899e-23  1.4925e-23  7.8718e-23  1.8074e-23  1.4272e-22
      3.30  1.0164e-23  4.3211e-25  1.0164e-23  4.3539e-25  1.0164e-23  4.4123e-25  1.0165e-23  4.5160e-25  1.0166e-23  4.7006e-25  1.0167e-23  5.0288e-25  1.0170e-23  5.6124e-25  1.0176e-23  6.6503e-25  1.0185e-23  8.4961e-25  1.0202e-23  1.1779e-24  1.0231e-23  1.7620e-24  1.0283e-23  2.8012e-24  1.0377e-23  4.6515e-24  1.0543e-23  7.9483e-24  1.0838e-23  1.3832e-23  1.1363e-23  2.4362e-23  1.2301e-23  4.3296e-23  1.3979e-23  7.7629e-23  1.6997e-23  1.4076e-22
      3.35  9.4354e-24  4.5144e-25  9.4355e-24  4.5466e-25  9.4358e-24  4.6040e-25  9.4363e-24  4.7059e-25  9.4372e-24  4.8872e-25  9.4388e-24  5.2095e-25  9.4416e-24  5.7828e-25  9.4466e-24  6.8022e-25  9.4556e-24  8.6153e-25  9.4715e-24  1.1840e-24  9.4997e-24  1.7577e-24  9.5500e-24  2.7785e-24  9.6393e-24  4.5960e-24  9.7982e-24  7.8345e-24  1.0081e-23  1.3614e-23  1.0585e-23  2.3959e-23  1.1483e-23  4.2562e-23  1.3090e-23  7.6301e-23  1.5980e-23  1.3836e-22
      3.40  8.7560e-24  4.7147e-25  8.7562e-24  4.7463e-25  8.7564e-24  4.8024e-25  8.7569e-24  4.9023e-25  8.7578e-24  5.0799e-25  8.7593e-24  5.3957e-25  8.7620e-24  5.9573e-25  8.7668e-24  6.9560e-25  8.7753e-24  8.7323e-25  8.7906e-24  1.1892e-24  8.8176e-24  1.7512e-24  8.8657e-24  2.7513e-24  8.9513e-24  4.5319e-24  9.1035e-24  7.7047e-24  9.3743e-24  1.3368e-23  9.8565e-24  2.3503e-23  1.0716e-23  4.1733e-23  1.2254e-23  7.4802e-23  1.5019e-23  1.3565e-22
      3.45  8.1227e-24  4.9222e-25  8.1229e-24  4.9531e-25  8.1231e-24  5.0080e-25  8.1236e-24  5.1057e-25  8.1244e-24  5.2794e-25  8.1259e-24  5.5882e-25  8.1285e-24  6.1375e-25  8.1331e-24  7.1144e-25  8.1412e-24  8.8517e-25  8.1558e-24  1.1942e-24  8.1817e-24  1.7439e-24  8.2277e-24  2.7220e-24  8.3096e-24  4.4636e-24  8.4552e-24  7.5669e-24  8.7144e-24  1.3106e-23  9.1758e-24  2.3020e-23  9.9984e-24  4.0855e-23  1.1469e-23  7.3211e-23  1.4113e-23  1.3277e-22
      3.50  7.5327e-24  5.1374e-25  7.5328e-24  5.1676e-25  7.5331e-24  5.2213e-25  7.5335e-24  5.3168e-25  7.5343e-24  5.4866e-25  7.5357e-24  5.7886e-25  7.5382e-24  6.3256e-25  7.5426e-24  7.2806e-25  7.5504e-24  8.9792e-25  7.5643e-24  1.2000e-24  7.5891e-24  1.7375e-24  7.6332e-24  2.6938e-24  7.7115e-24  4.3965e-24  7.8508e-24  7.4307e-24  8.0987e-24  1.2847e-23  8.5399e-24  2.2541e-23  9.3265e-24  3.9981e-23  1.0732e-23  7.1628e-23  1.3257e-23  1.2990e-22
      3.55  6.9832e-24  5.3664e-25  6.9834e-24  5.3960e-25  6.9836e-24  5.4486e-25  6.9840e-24  5.5421e-25  6.9848e-24  5.7083e-25  6.9861e-24  6.0040e-25  6.9885e-24  6.5298e-25  6.9927e-24  7.4649e-25  7.0002e-24  9.1280e-25  7.0135e-24  1.2086e-24  7.0372e-24  1.7348e-24  7.0793e-24  2.6712e-24  7.1542e-24  4.3384e-24  7.2875e-24  7.3094e-24  7.5245e-24  1.2612e-23  7.9464e-24  2.2106e-23  8.6983e-24  3.9185e-23  1.0042e-23  7.0183e-23  1.2453e-23  1.2728e-22
      3.60  6.4717e-24  5.6042e-25  6.4719e-24  5.6333e-25  6.4721e-24  5.6850e-25  6.4719e-24  5.7765e-25  6.4732e-24  5.9404e-25  6.4745e-24  6.2311e-25  6.4767e-24  6.7480e-25  6.4808e-24  7.6673e-25  6.4879e-24  9.3023e-25  6.5007e-24  1.2210e-24  6.5233e-24  1.7384e-24  6.5636e-24  2.6590e-24  6.6353e-24  4.2980e-24  6.7627e-24  7.2189e-24  6.9893e-24  1.2433e-23  7.3927e-24  2.1767e-23  8.1114e-24  3.8561e-23  9.3947e-24  6.9046e-23  1.1696e-23  1.2521e-22
      3.65  5.9957e-24  5.8513e-25  5.9958e-24  5.8801e-25  5.9961e-24  5.9313e-25  5.9964e-24  6.0224e-25  5.9971e-24  6.1843e-25  5.9983e-24  6.4723e-25  6.0005e-24  6.9845e-25  6.0044e-24  7.8952e-25  6.0112e-24  9.5150e-25  6.0234e-24  1.2396e-24  6.0451e-24  1.7521e-24  6.0836e-24  2.6642e-24  6.1522e-24  4.2880e-24  6.2740e-24  7.1819e-24  6.4908e-24  1.2348e-23  6.8765e-24  2.1596e-23  7.5635e-24  3.8237e-23  8.7895e-24  6.8449e-23  1.0987e-23  1.2413e-22
      3.70  5.5529e-24  6.1086e-25  5.5530e-24  6.1377e-25  5.5533e-24  6.1895e-25  5.5536e-24  6.2814e-25  5.5543e-24  6.4450e-25  5.5554e-24  6.7359e-25  5.5575e-24  7.2531e-25  5.5612e-24  8.1731e-25  5.5678e-24  9.8091e-25  5.5794e-24  1.2719e-24  5.6002e-24  1.7896e-24  5.6371e-24  2.7108e-24  5.7026e-24  4.3510e-24  5.8193e-24  7.2740e-24  6.0267e-24  1.2492e-23  6.3956e-24  2.1834e-23  7.0526e-24  3.8646e-23  8.2244e-24  6.9172e-23  1.0323e-23  1.2544e-22
      3.75  5.1412e-24  6.3761e-25  5.1413e-24  6.4057e-25  5.1415e-24  6.4582e-25  5.1419e-24  6.5516e-25  5.1425e-24  6.7177e-25  5.1436e-24  7.0131e-25  5.1456e-24  7.5385e-25  5.1491e-24  8.4727e-25  5.1554e-24  1.0134e-24  5.1666e-24  1.3090e-24  5.1864e-24  1.8347e-24  5.2218e-24  2.7703e-24  5.2846e-24  4.4360e-24  5.3959e-24  7.4042e-24  5.5948e-24  1.2704e-23  5.9479e-24  2.2193e-23  6.5765e-24  3.9271e-23  7.6970e-24  7.0285e-23  9.7018e-24  1.2747e-22
      3.80  4.7587e-24  6.6638e-25  4.7588e-24  6.6945e-25  4.7590e-24  6.7492e-25  4.7593e-24  6.8463e-25  4.7599e-24  7.0191e-25  4.7610e-24  7.3264e-25  4.7629e-24  7.8729e-25  4.7662e-24  8.8447e-25  4.7723e-24  1.0573e-24  4.7830e-24  1.3647e-24  4.8020e-24  1.9116e-24  4.8358e-24  2.8849e-24  4.8960e-24  4.6177e-24  5.0030e-24  7.7059e-24  5.1932e-24  1.3219e-23  5.5314e-24  2.3091e-23  6.1333e-24  4.0861e-23  7.2057e-24  7.3140e-23  9.1229e-24  1.3268e-22
      3.85  4.4032e-24  6.9654e-25  4.4033e-24  6.9983e-25  4.4035e-24  7.0568e-25  4.4038e-24  7.1609e-25  4.4044e-24  7.3458e-25  4.4054e-24  7.6748e-25  4.4072e-24  8.2599e-25  4.4105e-24  9.3003e-25  4.4162e-24  1.1151e-24  4.4265e-24  1.4442e-24  4.4447e-24  2.0297e-24  4.4772e-24  3.0717e-24  4.5349e-24  4.9269e-24  4.6375e-24  8.2334e-24  4.8199e-24  1.4137e-23  5.1443e-24  2.4708e-23  5.7212e-24  4.3739e-23  6.7486e-24  7.8317e-23  8.5840e-24  1.4213e-22
      3.90  4.0730e-24  7.2870e-25  4.0731e-24  7.3234e-25  4.0733e-24  7.3880e-25  4.0736e-24  7.5029e-25  4.0742e-24  7.7072e-25  4.0751e-24  8.0706e-25  4.0769e-24  8.7168e-25  4.0800e-24  9.8660e-25  4.0856e-24  1.1910e-24  4.0954e-24  1.5545e-24  4.1130e-24  2.2012e-24  4.1441e-24  3.3521e-24  4.1996e-24  5.4014e-24  4.2981e-24  9.0537e-24  4.4733e-24  1.5575e-23  4.7848e-24  2.7253e-23  5.3386e-24  4.8282e-23  6.3245e-24  8.6500e-23  8.0845e-24  1.5707e-22
      3.95  3.7665e-24  7.6499e-25  3.7666e-24  7.6913e-25  3.7668e-24  7.7648e-25  3.7671e-24  7.8957e-25  3.7676e-24  8.1283e-25  3.7685e-24  8.5420e-25  3.7702e-24  9.2778e-25  3.7732e-24  1.0586e-24  3.7786e-24  1.2913e-24  3.7881e-24  1.7053e-24  3.8049e-24  2.4417e-24  3.8350e-24  3.7521e-24  3.8883e-24  6.0855e-24  3.9832e-24  1.0244e-23  4.1518e-24  1.7670e-23  4.4514e-24  3.0970e-23  4.9842e-24  5.4923e-23  5.9321e-24  9.8470e-23  7.6232e-24  1.7892e-22
