# This was generated using Cloudy10 and the columns are ordered 
# as log10 of the fraction of the metallicity to the solar metallicity
# 'h_*_Z' and 'c_*_Z' stands for cooling and heating respectively 
# at * metalicity
#
# NOTE: This was generated separately from loop_coolingcurve_w_UV.py
#       using Output_metals_w_redshift.py.
#
# Redshift = 6.5
# hden = -9.0
#
#     temp   h_-3.00_Z   c_-3.00_Z   h_-2.75_Z   c_-2.75_Z   h_-2.50_Z   c_-2.50_Z   h_-2.25_Z   c_-2.25_Z   h_-2.00_Z   c_-2.00_Z   h_-1.75_Z   c_-1.75_Z   h_-1.50_Z   c_-1.50_Z   h_-1.25_Z   c_-1.25_Z   h_-1.00_Z   c_-1.00_Z   h_-0.75_Z   c_-0.75_Z   h_-0.50_Z   c_-0.50_Z   h_-0.25_Z   c_-0.25_Z    h_0.00_Z    c_0.00_Z    h_0.25_Z    c_0.25_Z    h_0.50_Z    c_0.50_Z    h_0.75_Z    c_0.75_Z    h_1.00_Z    c_1.00_Z    h_1.25_Z    c_1.25_Z    h_1.50_Z    c_1.50_Z 
      1.00  1.2094e-21  2.0371e-22  1.2099e-21  2.0371e-22  1.2108e-21  2.0372e-22  1.2124e-21  2.0372e-22  1.2152e-21  2.0373e-22  1.2201e-21  2.0374e-22  1.2288e-21  2.0375e-22  1.2442e-21  2.0379e-22  1.2715e-21  2.0385e-22  1.3197e-21  2.0395e-22  1.4054e-21  2.0414e-22  1.5583e-21  2.0448e-22  1.8315e-21  2.0507e-22  2.3202e-21  2.0613e-22  3.2010e-21  2.0836e-22  4.8039e-21  2.1238e-22  7.7642e-21  2.1869e-22  1.3378e-20  2.2941e-22  2.4456e-20  2.4812e-22
      1.05  1.1600e-21  2.2842e-22  1.1605e-21  2.2842e-22  1.1613e-21  2.2842e-22  1.1628e-21  2.2843e-22  1.1654e-21  2.2843e-22  1.1701e-21  2.2845e-22  1.1783e-21  2.2847e-22  1.1929e-21  2.2850e-22  1.2187e-21  2.2857e-22  1.2642e-21  2.2869e-22  1.3452e-21  2.2890e-22  1.4897e-21  2.2928e-22  1.7479e-21  2.2995e-22  2.2098e-21  2.3114e-22  3.0425e-21  2.3376e-22  4.5579e-21  2.3829e-22  7.3570e-21  2.4540e-22  1.2667e-20  2.5746e-22  2.3149e-20  2.7851e-22
      1.10  1.1136e-21  2.5611e-22  1.1141e-21  2.5611e-22  1.1148e-21  2.5611e-22  1.1162e-21  2.5612e-22  1.1187e-21  2.5613e-22  1.1231e-21  2.5614e-22  1.1309e-21  2.5616e-22  1.1447e-21  2.5621e-22  1.1690e-21  2.5628e-22  1.2121e-21  2.5642e-22  1.2885e-21  2.5665e-22  1.4250e-21  2.5708e-22  1.6689e-21  2.5783e-22  2.1054e-21  2.5917e-22  2.8927e-21  2.6225e-22  4.3249e-21  2.6736e-22  6.9708e-21  2.7537e-22  1.1992e-20  2.8894e-22  2.1908e-20  3.1262e-22
      1.15  1.0700e-21  2.8715e-22  1.0704e-21  2.8715e-22  1.0712e-21  2.8715e-22  1.0725e-21  2.8716e-22  1.0748e-21  2.8716e-22  1.0790e-21  2.8718e-22  1.0863e-21  2.8721e-22  1.0993e-21  2.8725e-22  1.1224e-21  2.8734e-22  1.1631e-21  2.8749e-22  1.2353e-21  2.8776e-22  1.3641e-21  2.8823e-22  1.5945e-21  2.8908e-22  2.0068e-21  2.9058e-22  2.7510e-21  2.9421e-22  4.1043e-21  2.9998e-22  6.6048e-21  3.0900e-22  1.1351e-20  3.2427e-22  2.0729e-20  3.5091e-22
      1.20  1.0291e-21  3.2193e-22  1.0295e-21  3.2193e-22  1.0302e-21  3.2193e-22  1.0314e-21  3.2194e-22  1.0336e-21  3.2195e-22  1.0376e-21  3.2196e-22  1.0445e-21  3.2199e-22  1.0568e-21  3.2205e-22  1.0785e-21  3.2214e-22  1.1170e-21  3.2231e-22  1.1851e-21  3.2261e-22  1.3068e-21  3.2315e-22  1.5244e-21  3.2410e-22  1.9138e-21  3.2579e-22  2.6172e-21  3.3007e-22  3.8957e-21  3.3658e-22  6.2583e-21  3.4673e-22  1.0744e-20  3.6392e-22  1.9610e-20  3.9389e-22
      1.25  9.9067e-22  3.6090e-22  9.9104e-22  3.6090e-22  9.9171e-22  3.6090e-22  9.9288e-22  3.6091e-22  9.9496e-22  3.6092e-22  9.9866e-22  3.6094e-22  1.0052e-21  3.6097e-22  1.0168e-21  3.6103e-22  1.0374e-21  3.6114e-22  1.0737e-21  3.6133e-22  1.1381e-21  3.6167e-22  1.2530e-21  3.6227e-22  1.4583e-21  3.6334e-22  1.8261e-21  3.6525e-22  2.4908e-21  3.7029e-22  3.6985e-21  3.7764e-22  5.9302e-21  3.8907e-22  1.0168e-20  4.0842e-22  1.8549e-20  4.4214e-22
      1.30  9.5461e-22  4.0456e-22  9.5496e-22  4.0457e-22  9.5558e-22  4.0457e-22  9.5669e-22  4.0458e-22  9.5866e-22  4.0459e-22  9.6215e-22  4.0461e-22  9.6833e-22  4.0465e-22  9.7928e-22  4.0472e-22  9.9868e-22  4.0484e-22  1.0330e-21  4.0505e-22  1.0939e-21  4.0543e-22  1.2023e-21  4.0611e-22  1.3962e-21  4.0731e-22  1.7435e-21  4.0945e-22  2.3717e-21  4.1541e-22  3.5124e-21  4.2371e-22  5.6203e-21  4.3659e-22  9.6237e-21  4.5836e-22  1.7543e-20  4.9630e-22
      1.35  9.2075e-22  4.5349e-22  9.2108e-22  4.5349e-22  9.2167e-22  4.5349e-22  9.2272e-22  4.5350e-22  9.2458e-22  4.5351e-22  9.2787e-22  4.5354e-22  9.3371e-22  4.5358e-22  9.4405e-22  4.5366e-22  9.6238e-22  4.5379e-22  9.9482e-22  4.5403e-22  1.0523e-21  4.5446e-22  1.1547e-21  4.5522e-22  1.3377e-21  4.5658e-22  1.6657e-21  4.5899e-22  2.2595e-21  4.6602e-22  3.3368e-21  4.7540e-22  5.3277e-21  4.8990e-22  9.1091e-21  5.1441e-22  1.6591e-20  5.5709e-22
      1.40  8.8897e-22  5.0829e-22  8.8929e-22  5.0829e-22  8.8984e-22  5.0830e-22  8.9083e-22  5.0831e-22  8.9258e-22  5.0832e-22  8.9569e-22  5.0835e-22  9.0120e-22  5.0840e-22  9.1097e-22  5.0848e-22  9.2828e-22  5.0863e-22  9.5894e-22  5.0890e-22  1.0133e-21  5.0939e-22  1.1100e-21  5.1024e-22  1.2827e-21  5.1177e-22  1.5925e-21  5.1448e-22  2.1538e-21  5.2279e-22  3.1715e-21  5.3338e-22  5.0518e-21  5.4973e-22  8.6233e-21  5.7731e-22  1.5690e-20  6.2534e-22
      1.45  8.5914e-22  5.6967e-22  8.5944e-22  5.6968e-22  8.5996e-22  5.6968e-22  8.6089e-22  5.6969e-22  8.6255e-22  5.6971e-22  8.6548e-22  5.6974e-22  8.7069e-22  5.6979e-22  8.7991e-22  5.6989e-22  8.9627e-22  5.7006e-22  9.2524e-22  5.7037e-22  9.7659e-22  5.7091e-22  1.0679e-21  5.7187e-22  1.2311e-21  5.7359e-22  1.5238e-21  5.7694e-22  2.0543e-21  5.8648e-22  3.0157e-21  5.9844e-22  4.7918e-21  6.1685e-22  8.1651e-21  6.4790e-22  1.4840e-20  7.0194e-22
      1.50  8.3113e-22  6.3842e-22  8.3141e-22  6.3842e-22  8.3191e-22  6.3843e-22  8.3279e-22  6.3844e-22  8.3435e-22  6.3846e-22  8.3712e-22  6.3849e-22  8.4204e-22  6.3855e-22  8.5075e-22  6.3866e-22  8.6620e-22  6.3886e-22  8.9357e-22  6.3920e-22  9.4211e-22  6.3981e-22  1.0283e-21  6.4089e-22  1.1825e-21  6.4282e-22  1.4593e-21  6.4707e-22  1.9607e-21  6.5791e-22  2.8690e-21  6.7143e-22  4.5468e-21  6.9218e-22  7.7330e-21  7.2712e-22  1.4038e-20  7.8792e-22
      1.55  8.0484e-22  7.1540e-22  8.0510e-22  7.1540e-22  8.0557e-22  7.1541e-22  8.0640e-22  7.1542e-22  8.0788e-22  7.1544e-22  8.1050e-22  7.1548e-22  8.1514e-22  7.1555e-22  8.2337e-22  7.1567e-22  8.3796e-22  7.1589e-22  8.6383e-22  7.1628e-22  9.0970e-22  7.1696e-22  9.9123e-22  7.1818e-22  1.1368e-21  7.2035e-22  1.3987e-21  7.2572e-22  1.8727e-21  7.3803e-22  2.7309e-21  7.5331e-22  4.3159e-21  7.7669e-22  7.3256e-21  8.1602e-22  1.3281e-20  8.8442e-22
      1.60  7.8015e-22  8.0159e-22  7.8040e-22  8.0160e-22  7.8084e-22  8.0160e-22  7.8162e-22  8.0162e-22  7.8301e-22  8.0164e-22  7.8549e-22  8.0168e-22  7.8987e-22  8.0176e-22  7.9764e-22  8.0190e-22  8.1143e-22  8.0214e-22  8.3587e-22  8.0258e-22  8.7921e-22  8.0335e-22  9.5627e-22  8.0472e-22  1.0938e-21  8.0716e-22  1.3415e-21  8.1389e-22  1.7895e-21  8.2790e-22  2.6003e-21  8.4518e-22  4.0976e-21  8.7152e-22  6.9403e-21  9.1579e-22  1.2564e-20  9.9275e-22
      1.65  7.5695e-22  8.9808e-22  7.5719e-22  8.9808e-22  7.5760e-22  8.9809e-22  7.5834e-22  8.9811e-22  7.5966e-22  8.9813e-22  7.6199e-22  8.9818e-22  7.6614e-22  8.9827e-22  7.7347e-22  8.9842e-22  7.8650e-22  8.9870e-22  8.0959e-22  8.9919e-22  8.5054e-22  9.0005e-22  9.2338e-22  9.0160e-22  1.0532e-21  9.0434e-22  1.2878e-21  9.1276e-22  1.7114e-21  9.2870e-22  2.4776e-21  9.4823e-22  3.8919e-21  9.7792e-22  6.5769e-21  1.0277e-21  1.1888e-20  1.1143e-21
      1.70  7.3516e-22  1.0061e-21  7.3538e-22  1.0061e-21  7.3577e-22  1.0061e-21  7.3647e-22  1.0061e-21  7.3771e-22  1.0061e-21  7.3992e-22  1.0062e-21  7.4383e-22  1.0063e-21  7.5076e-22  1.0065e-21  7.6306e-22  1.0068e-21  7.8488e-22  1.0073e-21  8.2357e-22  1.0083e-21  8.9241e-22  1.0100e-21  1.0151e-21  1.0131e-21  1.2373e-21  1.0236e-21  1.6379e-21  1.0417e-21  2.3620e-21  1.0638e-21  3.6986e-21  1.0973e-21  6.2353e-21  1.1534e-21  1.1251e-20  1.2508e-21
      1.75  7.1467e-22  1.1269e-21  7.1488e-22  1.1269e-21  7.1525e-22  1.1269e-21  7.1591e-22  1.1270e-21  7.1708e-22  1.1270e-21  7.1916e-22  1.1271e-21  7.2286e-22  1.1272e-21  7.2940e-22  1.1274e-21  7.4102e-22  1.1277e-21  7.6164e-22  1.1283e-21  7.9819e-22  1.1294e-21  8.6325e-22  1.1314e-21  9.7914e-22  1.1348e-21  1.1898e-21  1.1479e-21  1.5686e-21  1.1685e-21  2.2531e-21  1.1935e-21  3.5162e-21  1.2313e-21  5.9132e-21  1.2944e-21  1.0652e-20  1.4040e-21
      1.80  6.9540e-22  1.2622e-21  6.9560e-22  1.2622e-21  6.9595e-22  1.2622e-21  6.9657e-22  1.2622e-21  6.9768e-22  1.2622e-21  6.9965e-22  1.2623e-21  7.0314e-22  1.2624e-21  7.0932e-22  1.2626e-21  7.2029e-22  1.2630e-21  7.3977e-22  1.2637e-21  7.7431e-22  1.2650e-21  8.3578e-22  1.2672e-21  9.4533e-22  1.2711e-21  1.1449e-21  1.2872e-21  1.5032e-21  1.3107e-21  2.1502e-21  1.3390e-21  3.3439e-21  1.3816e-21  5.6090e-21  1.4526e-21  1.0087e-20  1.5759e-21
      1.85  6.7727e-22  1.4134e-21  6.7746e-22  1.4134e-21  6.7779e-22  1.4134e-21  6.7838e-22  1.4135e-21  6.7943e-22  1.4135e-21  6.8128e-22  1.4136e-21  6.8458e-22  1.4137e-21  6.9042e-22  1.4140e-21  7.0078e-22  1.4144e-21  7.1918e-22  1.4152e-21  7.5180e-22  1.4166e-21  8.0988e-22  1.4190e-21  9.1339e-22  1.4234e-21  1.1027e-21  1.4434e-21  1.4416e-21  1.4702e-21  2.0530e-21  1.5022e-21  3.1807e-21  1.5502e-21  5.3209e-21  1.6302e-21  9.5515e-21  1.7689e-21
      1.90  6.6020e-22  1.5826e-21  6.6038e-22  1.5826e-21  6.6069e-22  1.5826e-21  6.6125e-22  1.5826e-21  6.6224e-22  1.5827e-21  6.6399e-22  1.5828e-21  6.6710e-22  1.5829e-21  6.7261e-22  1.5832e-21  6.8240e-22  1.5837e-21  6.9978e-22  1.5846e-21  7.3060e-22  1.5861e-21  7.8545e-22  1.5889e-21  8.8325e-22  1.5938e-21  1.0630e-21  1.6184e-21  1.3836e-21  1.6490e-21  1.9616e-21  1.6853e-21  3.0274e-21  1.7394e-21  5.0491e-21  1.8294e-21  9.0454e-21  1.9855e-21
      1.95  6.4412e-22  1.7717e-21  6.4429e-22  1.7718e-21  6.4458e-22  1.7718e-21  6.4510e-22  1.7718e-21  6.4604e-22  1.7719e-21  6.4769e-22  1.7720e-21  6.5063e-22  1.7721e-21  6.5584e-22  1.7724e-21  6.6508e-22  1.7730e-21  6.8149e-22  1.7740e-21  7.1060e-22  1.7757e-21  7.6240e-22  1.7789e-21  8.5479e-22  1.7844e-21  1.0256e-21  1.8146e-21  1.3288e-21  1.8496e-21  1.8751e-21  1.8907e-21  2.8824e-21  1.9517e-21  4.7931e-21  2.0530e-21  8.5687e-21  2.2286e-21
      2.00  6.2895e-22  1.9832e-21  6.2911e-22  1.9832e-21  6.2938e-22  1.9832e-21  6.2988e-22  1.9833e-21  6.3076e-22  1.9833e-21  6.3232e-22  1.9834e-21  6.3509e-22  1.9836e-21  6.4001e-22  1.9840e-21  6.4873e-22  1.9846e-21  6.6423e-22  1.9857e-21  6.9173e-22  1.9877e-21  7.4065e-22  1.9912e-21  8.2792e-22  1.9974e-21  9.9023e-22  2.0345e-21  1.2771e-21  2.0744e-21  1.7934e-21  2.1210e-21  2.7452e-21  2.1898e-21  4.5506e-21  2.3039e-21  8.1188e-21  2.5015e-21
      2.05  6.1463e-22  2.2195e-21  6.1478e-22  2.2195e-21  6.1504e-22  2.2195e-21  6.1551e-22  2.2196e-21  6.1634e-22  2.2196e-21  6.1781e-22  2.2198e-21  6.2043e-22  2.2200e-21  6.2507e-22  2.2204e-21  6.3331e-22  2.2211e-21  6.4794e-22  2.2223e-21  6.7391e-22  2.2246e-21  7.2009e-22  2.2285e-21  8.0251e-22  2.2355e-21  9.5689e-22  2.2809e-21  1.2282e-21  2.3266e-21  1.7162e-21  2.3794e-21  2.6153e-21  2.4570e-21  4.3210e-21  2.5855e-21  7.6922e-21  2.8078e-21
      2.10  6.0185e-22  2.4879e-21  6.0199e-22  2.4879e-21  6.0224e-22  2.4879e-21  6.0268e-22  2.4880e-21  6.0346e-22  2.4881e-21  6.0485e-22  2.4882e-21  6.0732e-22  2.4884e-21  6.1170e-22  2.4889e-21  6.1947e-22  2.4896e-21  6.3328e-22  2.4910e-21  6.5779e-22  2.4934e-21  7.0136e-22  2.4976e-21  7.7914e-22  2.5052e-21  9.2545e-22  2.5570e-21  1.1821e-21  2.6093e-21  1.6432e-21  2.6692e-21  2.4926e-21  2.7568e-21  4.1038e-21  2.9014e-21  7.2886e-21  3.1515e-21
      2.15  5.9030e-22  2.7915e-21  5.9043e-22  2.7915e-21  5.9066e-22  2.7915e-21  5.9108e-22  2.7916e-21  5.9182e-22  2.7916e-21  5.9313e-22  2.7918e-21  5.9546e-22  2.7921e-21  5.9960e-22  2.7925e-21  6.0693e-22  2.7934e-21  6.1996e-22  2.7949e-21  6.4311e-22  2.7976e-21  6.8424e-22  2.8024e-21  7.5769e-22  2.8109e-21  8.9581e-22  2.8664e-21  1.1386e-21  2.9263e-21  1.5743e-21  2.9943e-21  2.3766e-21  3.0931e-21  3.8983e-21  3.2559e-21  6.9066e-21  3.5373e-21
      2.20  5.7950e-22  3.1321e-21  5.7962e-22  3.1321e-21  5.7984e-22  3.1321e-21  5.8024e-22  3.1322e-21  5.8093e-22  3.1323e-21  5.8217e-22  3.1324e-21  5.8437e-22  3.1327e-21  5.8828e-22  3.1333e-21  5.9520e-22  3.1342e-21  6.0750e-22  3.1359e-21  6.2935e-22  3.1390e-21  6.6818e-22  3.1444e-21  7.3753e-22  3.1539e-21  8.6790e-22  3.2133e-21  1.0976e-21  3.2817e-21  1.5093e-21  3.3588e-21  2.2670e-21  3.4704e-21  3.7041e-21  3.6537e-21  6.5451e-21  3.9703e-21
      2.25  5.6941e-22  3.5142e-21  5.6953e-22  3.5142e-21  5.6974e-22  3.5143e-21  5.7011e-22  3.5143e-21  5.7076e-22  3.5144e-21  5.7193e-22  3.5146e-21  5.7401e-22  3.5150e-21  5.7770e-22  3.5156e-21  5.8423e-22  3.5167e-21  5.9584e-22  3.5186e-21  6.1647e-22  3.5220e-21  6.5313e-22  3.5280e-21  7.1860e-22  3.5388e-21  8.4173e-22  3.6033e-21  1.0590e-21  3.6810e-21  1.4479e-21  3.7682e-21  2.1635e-21  3.8938e-21  3.5206e-21  4.1001e-21  6.2035e-21  4.4563e-21
      2.30  5.5999e-22  3.9430e-21  5.6010e-22  3.9430e-21  5.6029e-22  3.9431e-21  5.6064e-22  3.9431e-21  5.6126e-22  3.9432e-21  5.6237e-22  3.9435e-21  5.6433e-22  3.9438e-21  5.6781e-22  3.9445e-21  5.7397e-22  3.9457e-21  5.8493e-22  3.9479e-21  6.0441e-22  3.9517e-21  6.3903e-22  3.9585e-21  7.0081e-22  3.9707e-21  8.1706e-22  4.0404e-21  1.0226e-21  4.1288e-21  1.3900e-21  4.2274e-21  2.0657e-21  4.3690e-21  3.3471e-21  4.6011e-21  5.8804e-21  5.0017e-21
      2.35  5.5118e-22  4.4241e-21  5.5128e-22  4.4241e-21  5.5147e-22  4.4242e-21  5.5180e-22  4.4242e-21  5.5239e-22  4.4244e-21  5.5343e-22  4.4246e-21  5.5528e-22  4.4251e-21  5.5856e-22  4.4258e-21  5.6438e-22  4.4272e-21  5.7473e-22  4.4296e-21  5.9312e-22  4.4339e-21  6.2581e-22  4.4416e-21  6.8409e-22  4.4552e-21  7.9381e-22  4.5304e-21  9.8826e-22  4.6311e-21  1.3353e-21  4.7426e-21  1.9733e-21  4.9021e-21  3.1831e-21  5.1634e-21  5.5749e-21  5.6138e-21
      2.40  5.4296e-22  4.9639e-21  5.4305e-22  4.9639e-21  5.4323e-22  4.9640e-21  5.4354e-22  4.9641e-21  5.4409e-22  4.9642e-21  5.4508e-22  4.9645e-21  5.4682e-22  4.9650e-21  5.4992e-22  4.9658e-21  5.5542e-22  4.9674e-21  5.6518e-22  4.9701e-21  5.8254e-22  4.9749e-21  6.1341e-22  4.9836e-21  6.6840e-22  4.9989e-21  7.7190e-22  5.0797e-21  9.5588e-22  5.1942e-21  1.2837e-21  5.3204e-21  1.8861e-21  5.5003e-21  3.0281e-21  5.7943e-21  5.2861e-21  6.3010e-21
      2.45  5.3527e-22  5.5696e-21  5.3537e-22  5.5696e-21  5.3553e-22  5.5697e-21  5.3583e-22  5.5698e-21  5.3635e-22  5.5699e-21  5.3727e-22  5.5702e-21  5.3892e-22  5.5708e-21  5.4185e-22  5.5718e-21  5.4704e-22  5.5735e-21  5.5625e-22  5.5765e-21  5.7262e-22  5.5820e-21  6.0177e-22  5.5917e-21  6.5367e-22  5.6089e-21  7.5124e-22  5.6952e-21  9.2531e-22  5.8257e-21  1.2349e-21  5.9686e-21  1.8036e-21  6.1714e-21  2.8815e-21  6.5023e-21  5.0127e-21  7.0722e-21
      2.50  5.2810e-22  6.2492e-21  5.2819e-22  6.2492e-21  5.2835e-22  6.2492e-21  5.2862e-22  6.2494e-21  5.2911e-22  6.2496e-21  5.2999e-22  6.2499e-21  5.3154e-22  6.2505e-21  5.3430e-22  6.2516e-21  5.3920e-22  6.2535e-21  5.4789e-22  6.2570e-21  5.6334e-22  6.2631e-21  5.9085e-22  6.2740e-21  6.3984e-22  6.2934e-21  7.3178e-22  6.3851e-21  8.9655e-22  6.5339e-21  1.1890e-21  6.6957e-21  1.7258e-21  6.9244e-21  2.7431e-21  7.2968e-21  4.7544e-21  7.9377e-21
      2.55  5.2141e-22  7.0116e-21  5.2149e-22  7.0117e-21  5.2164e-22  7.0118e-21  5.2190e-22  7.0119e-21  5.2236e-22  7.0121e-21  5.2318e-22  7.0125e-21  5.2465e-22  7.0132e-21  5.2725e-22  7.0144e-21  5.3188e-22  7.0166e-21  5.4008e-22  7.0204e-21  5.5466e-22  7.0273e-21  5.8061e-22  7.0396e-21  6.2685e-22  7.0613e-21  7.1343e-22  7.1581e-21  8.6941e-22  7.3278e-21  1.1457e-21  7.5112e-21  1.6525e-21  7.7691e-21  2.6127e-21  8.1882e-21  4.5108e-21  8.9090e-21
      2.60  5.1516e-22  7.8672e-21  5.1523e-22  7.8672e-21  5.1537e-22  7.8673e-21  5.1562e-22  7.8674e-21  5.1606e-22  7.8677e-21  5.1683e-22  7.8681e-21  5.1821e-22  7.8689e-21  5.2067e-22  7.8703e-21  5.2503e-22  7.8727e-21  5.3277e-22  7.8771e-21  5.4653e-22  7.8848e-21  5.7102e-22  7.8986e-21  6.1466e-22  7.9230e-21  6.9613e-22  8.0243e-21  8.4383e-22  8.2180e-21  1.1049e-21  8.4258e-21  1.5832e-21  8.7167e-21  2.4894e-21  9.1884e-21  4.2809e-21  9.9992e-21
      2.65  5.0932e-22  8.8271e-21  5.0939e-22  8.8271e-21  5.0952e-22  8.8272e-21  5.0976e-22  8.8274e-21  5.1017e-22  8.8277e-21  5.1090e-22  8.8282e-21  5.1221e-22  8.8290e-21  5.1452e-22  8.8306e-21  5.1864e-22  8.8333e-21  5.2594e-22  8.8382e-21  5.3892e-22  8.8469e-21  5.6202e-22  8.8624e-21  6.0321e-22  8.8899e-21  6.7982e-22  8.9947e-21  8.1972e-22  9.2160e-21  1.0664e-21  9.4517e-21  1.5179e-21  9.7798e-21  2.3732e-21  1.0311e-20  4.0638e-21  1.1223e-20
      2.70  5.0388e-22  9.9041e-21  5.0395e-22  9.9042e-21  5.0407e-22  9.9043e-21  5.0429e-22  9.9045e-21  5.0468e-22  9.9048e-21  5.0537e-22  9.9053e-21  5.0660e-22  9.9063e-21  5.0878e-22  9.9081e-21  5.1266e-22  9.9111e-21  5.1956e-22  9.9166e-21  5.3180e-22  9.9264e-21  5.5359e-22  9.9438e-21  5.9246e-22  9.9747e-21  6.6443e-22  1.0082e-20  7.9700e-22  1.0335e-20  1.0300e-21  1.0602e-20  1.4563e-21  1.0972e-20  2.2635e-21  1.1570e-20  3.8588e-21  1.2596e-20
      2.75  4.9880e-22  1.1113e-20  4.9886e-22  1.1113e-20  4.9898e-22  1.1113e-20  4.9918e-22  1.1113e-20  4.9955e-22  1.1113e-20  5.0020e-22  1.1114e-20  5.0136e-22  1.1115e-20  5.0342e-22  1.1117e-20  5.0708e-22  1.1120e-20  5.1359e-22  1.1127e-20  5.2514e-22  1.1138e-20  5.4570e-22  1.1157e-20  5.8238e-22  1.1192e-20  6.5006e-22  1.1304e-20  7.7565e-22  1.1591e-20  9.9583e-22  1.1893e-20  1.3982e-21  1.2310e-20  2.1599e-21  1.2983e-20  3.6654e-21  1.4137e-20
      2.80  4.9406e-22  1.2469e-20  4.9412e-22  1.2469e-20  4.9423e-22  1.2469e-20  4.9442e-22  1.2469e-20  4.9477e-22  1.2469e-20  4.9538e-22  1.2470e-20  4.9648e-22  1.2471e-20  4.9842e-22  1.2473e-20  5.0187e-22  1.2477e-20  5.0801e-22  1.2484e-20  5.1891e-22  1.2497e-20  5.3831e-22  1.2519e-20  5.7292e-22  1.2558e-20  6.3659e-22  1.2674e-20  7.5561e-22  1.3001e-20  9.6368e-22  1.3342e-20  1.3436e-21  1.3812e-20  2.0624e-21  1.4569e-20  3.4830e-21  1.5866e-20
      2.85  4.8963e-22  1.3990e-20  4.8969e-22  1.3990e-20  4.8980e-22  1.3990e-20  4.8998e-22  1.3990e-20  4.9030e-22  1.3991e-20  4.9088e-22  1.3992e-20  4.9192e-22  1.3993e-20  4.9375e-22  1.3995e-20  4.9701e-22  1.4000e-20  5.0280e-22  1.4008e-20  5.1309e-22  1.4022e-20  5.3139e-22  1.4046e-20  5.6405e-22  1.4090e-20  6.2391e-22  1.4211e-20  7.3676e-22  1.4582e-20  9.3341e-22  1.4968e-20  1.2921e-21  1.5497e-20  1.9705e-21  1.6348e-20  3.3111e-21  1.7806e-20
      2.90  4.8551e-22  1.5697e-20  4.8556e-22  1.5697e-20  4.8566e-22  1.5697e-20  4.8584e-22  1.5697e-20  4.8614e-22  1.5698e-20  4.8669e-22  1.5699e-20  4.8766e-22  1.5700e-20  4.8939e-22  1.5703e-20  4.9247e-22  1.5708e-20  4.9794e-22  1.5717e-20  5.0765e-22  1.5732e-20  5.2492e-22  1.5760e-20  5.5574e-22  1.5810e-20  6.1199e-22  1.5934e-20  7.1903e-22  1.6355e-20  9.0495e-22  1.6791e-20  1.2437e-21  1.7388e-20  1.8841e-21  1.8345e-20  3.1492e-21  1.9984e-20
      2.95  4.8166e-22  1.7612e-20  4.8172e-22  1.7612e-20  4.8181e-22  1.7612e-20  4.8197e-22  1.7613e-20  4.8226e-22  1.7613e-20  4.8278e-22  1.7614e-20  4.8370e-22  1.7616e-20  4.8533e-22  1.7619e-20  4.8823e-22  1.7625e-20  4.9339e-22  1.7635e-20  5.0257e-22  1.7652e-20  5.1887e-22  1.7683e-20  5.4796e-22  1.7739e-20  6.0079e-22  1.7865e-20  7.0237e-22  1.8343e-20  8.7820e-22  1.8837e-20  1.1981e-21  1.9509e-20  1.8027e-21  2.0586e-20  2.9969e-21  2.2429e-20
      3.00  4.7808e-22  1.9761e-20  4.7813e-22  1.9761e-20  4.7821e-22  1.9761e-20  4.7837e-22  1.9762e-20  4.7864e-22  1.9762e-20  4.7913e-22  1.9764e-20  4.8000e-22  1.9766e-20  4.8154e-22  1.9769e-20  4.8428e-22  1.9775e-20  4.8915e-22  1.9786e-20  4.9781e-22  1.9806e-20  5.1322e-22  1.9841e-20  5.4068e-22  1.9903e-20  5.9026e-22  2.0030e-20  6.8673e-22  2.0573e-20  8.5307e-22  2.1132e-20  1.1553e-21  2.1889e-20  1.7262e-21  2.3100e-20  2.8536e-21  2.5172e-20
      3.05  4.7474e-22  2.2172e-20  4.7478e-22  2.2173e-20  4.7487e-22  2.2173e-20  4.7501e-22  2.2173e-20  4.7527e-22  2.2174e-20  4.7573e-22  2.2175e-20  4.7655e-22  2.2177e-20  4.7800e-22  2.2181e-20  4.8059e-22  2.2188e-20  4.8519e-22  2.2201e-20  4.9338e-22  2.2223e-20  5.0793e-22  2.2262e-20  5.3387e-22  2.2332e-20  5.8036e-22  2.2457e-20  6.7204e-22  2.3074e-20  8.2947e-22  2.3706e-20  1.1151e-21  2.4559e-20  1.6543e-21  2.5922e-20  2.7188e-21  2.8251e-20
      3.10  4.7162e-22  2.4878e-20  4.7167e-22  2.4878e-20  4.7174e-22  2.4878e-20  4.7188e-22  2.4879e-20  4.7213e-22  2.4879e-20  4.7256e-22  2.4881e-20  4.7333e-22  2.4883e-20  4.7471e-22  2.4888e-20  4.7715e-22  2.4896e-20  4.8150e-22  2.4910e-20  4.8923e-22  2.4934e-20  5.0299e-22  2.4979e-20  5.2749e-22  2.5057e-20  5.7140e-22  2.5197e-20  6.5825e-22  2.5879e-20  8.0731e-22  2.6593e-20  1.0773e-21  2.7555e-20  1.5867e-21  2.9087e-20  2.5920e-21  3.1706e-20
      3.15  4.6872e-22  2.7913e-20  4.6876e-22  2.7913e-20  4.6883e-22  2.7914e-20  4.6896e-22  2.7914e-20  4.6919e-22  2.7915e-20  4.6961e-22  2.7917e-20  4.7034e-22  2.7919e-20  4.7163e-22  2.7924e-20  4.7394e-22  2.7933e-20  4.7805e-22  2.7949e-20  4.8536e-22  2.7977e-20  4.9836e-22  2.8027e-20  5.2152e-22  2.8115e-20  5.6302e-22  2.8272e-20  6.4531e-22  2.9024e-20  7.8652e-22  2.9832e-20  1.0419e-21  3.0915e-20  1.5233e-21  3.2639e-20  2.4728e-21  3.5583e-20
      3.20  4.6602e-22  3.1319e-20  4.6605e-22  3.1319e-20  4.6612e-22  3.1320e-20  4.6625e-22  3.1320e-20  4.6646e-22  3.1321e-20  4.6685e-22  3.1323e-20  4.6754e-22  3.1326e-20  4.6877e-22  3.1332e-20  4.7095e-22  3.1342e-20  4.7483e-22  3.1359e-20  4.8174e-22  3.1391e-20  4.9404e-22  3.1447e-20  5.1595e-22  3.1546e-20  5.5517e-22  3.1722e-20  6.3314e-22  3.2552e-20  7.6698e-22  3.3465e-20  1.0086e-21  3.4686e-20  1.4636e-21  3.6625e-20  2.3608e-21  3.9934e-20
      3.25  4.6350e-22  3.5141e-20  4.6353e-22  3.5141e-20  4.6360e-22  3.5141e-20  4.6371e-22  3.5142e-20  4.6392e-22  3.5143e-20  4.6429e-22  3.5145e-20  4.6494e-22  3.5149e-20  4.6610e-22  3.5155e-20  4.6816e-22  3.5166e-20  4.7183e-22  3.5186e-20  4.7836e-22  3.5221e-20  4.8999e-22  3.5284e-20  5.1072e-22  3.5395e-20  5.4780e-22  3.5594e-20  6.2169e-22  3.6507e-20  7.4861e-22  3.7540e-20  9.7723e-22  3.8916e-20  1.4075e-21  4.1097e-20  2.2554e-21  4.4816e-20
      3.30  4.6115e-22  3.9428e-20  4.6118e-22  3.9429e-20  4.6125e-22  3.9429e-20  4.6136e-22  3.9430e-20  4.6155e-22  3.9431e-20  4.6190e-22  3.9433e-20  4.6251e-22  3.9437e-20  4.6361e-22  3.9444e-20  4.6556e-22  3.9457e-20  4.6903e-22  3.9479e-20  4.7521e-22  3.9519e-20  4.8621e-22  3.9589e-20  5.0582e-22  3.9715e-20  5.4089e-22  3.9937e-20  6.1093e-22  4.0941e-20  7.3133e-22  4.2110e-20  9.4776e-22  4.3661e-20  1.3547e-21  4.6114e-20  2.1562e-21  5.0295e-20
      3.35  4.5897e-22  4.4239e-20  4.5900e-22  4.4240e-20  4.5906e-22  4.4240e-20  4.5916e-22  4.4241e-20  4.5934e-22  4.4242e-20  4.5967e-22  4.4245e-20  4.6026e-22  4.4249e-20  4.6129e-22  4.4257e-20  4.6314e-22  4.4271e-20  4.6642e-22  4.4296e-20  4.7227e-22  4.4341e-20  4.8268e-22  4.4420e-20  5.0124e-22  4.4561e-20  5.3443e-22  4.4811e-20  6.0082e-22  4.5914e-20  7.1512e-22  4.7237e-20  9.2008e-22  4.8985e-20  1.3051e-21  5.1744e-20  2.0628e-21  5.6444e-20
      3.40  4.5693e-22  4.9637e-20  4.5696e-22  4.9638e-20  4.5702e-22  4.9638e-20  4.5712e-22  4.9639e-20  4.5729e-22  4.9641e-20  4.5760e-22  4.9644e-20  4.5815e-22  4.9649e-20  4.5913e-22  4.9657e-20  4.6088e-22  4.9673e-20  4.6399e-22  4.9701e-20  4.6952e-22  4.9751e-20  4.7937e-22  4.9840e-20  4.9694e-22  4.9999e-20  5.2837e-22  5.0280e-20  5.9130e-22  5.1489e-20  6.9987e-22  5.2987e-20  8.9408e-22  5.4957e-20  1.2585e-21  5.8061e-20  1.9751e-21  6.3343e-20
      3.45  4.5504e-22  5.5694e-20  4.5507e-22  5.5694e-20  4.5512e-22  5.5695e-20  4.5521e-22  5.5696e-20  4.5538e-22  5.5698e-20  4.5567e-22  5.5701e-20  4.5619e-22  5.5707e-20  4.5712e-22  5.5717e-20  4.5878e-22  5.5734e-20  4.6172e-22  5.5766e-20  4.6695e-22  5.5822e-20  4.7628e-22  5.5922e-20  4.9292e-22  5.6100e-20  5.2268e-22  5.6416e-20  5.8233e-22  5.7739e-20  6.8552e-22  5.9435e-20  8.6962e-22  6.1657e-20  1.2147e-21  6.5148e-20  1.8927e-21  7.1086e-20
      3.50  4.5328e-22  6.2490e-20  4.5330e-22  6.2490e-20  4.5335e-22  6.2491e-20  4.5344e-22  6.2492e-20  4.5360e-22  6.2494e-20  4.5388e-22  6.2497e-20  4.5437e-22  6.2504e-20  4.5525e-22  6.2515e-20  4.5682e-22  6.2535e-20  4.5960e-22  6.2570e-20  4.6456e-22  6.2634e-20  4.7340e-22  6.2746e-20  4.8916e-22  6.2945e-20  5.1735e-22  6.3300e-20  5.7388e-22  6.4745e-20  6.7202e-22  6.6667e-20  8.4660e-22  6.9172e-20  1.1734e-21  7.3100e-20  1.8152e-21  7.9774e-20
      3.55  4.5164e-22  7.0115e-20  4.5166e-22  7.0115e-20  4.5171e-22  7.0116e-20  4.5179e-22  7.0117e-20  4.5194e-22  7.0119e-20  4.5220e-22  7.0123e-20  4.5267e-22  7.0130e-20  4.5351e-22  7.0143e-20  4.5499e-22  7.0165e-20  4.5763e-22  7.0205e-20  4.6233e-22  7.0276e-20  4.7070e-22  7.0402e-20  4.8564e-22  7.0627e-20  5.1236e-22  7.1025e-20  5.6591e-22  7.2599e-20  6.5931e-22  7.4778e-20  8.2495e-22  7.7603e-20  1.1346e-21  8.2022e-20  1.7422e-21  8.9523e-20
      3.60  4.5011e-22  7.8670e-20  4.5014e-22  7.8670e-20  4.5018e-22  7.8671e-20  4.5026e-22  7.8673e-20  4.5040e-22  7.8675e-20  4.5065e-22  7.8680e-20  4.5109e-22  7.8687e-20  4.5188e-22  7.8702e-20  4.5329e-22  7.8727e-20  4.5579e-22  7.8772e-20  4.6025e-22  7.8851e-20  4.6818e-22  7.8993e-20  4.8234e-22  7.9245e-20  5.0767e-22  7.9693e-20  5.5839e-22  8.1401e-20  6.4734e-22  8.3872e-20  8.0456e-22  8.7059e-20  1.0981e-21  9.2032e-20  1.6735e-21  1.0046e-19
      3.65  4.4869e-22  8.8269e-20  4.4872e-22  8.8269e-20  4.4876e-22  8.8270e-20  4.4883e-22  8.8272e-20  4.4897e-22  8.8275e-20  4.4920e-22  8.8280e-20  4.4962e-22  8.8289e-20  4.5037e-22  8.8305e-20  4.5171e-22  8.8333e-20  4.5408e-22  8.8383e-20  4.5830e-22  8.8473e-20  4.6582e-22  8.8632e-20  4.7925e-22  8.8915e-20  5.0327e-22  8.9418e-20  5.5127e-22  9.1266e-20  6.3605e-22  9.4070e-20  7.8534e-22  9.7667e-20  1.0636e-21  1.0326e-19  1.6087e-21  1.1274e-19
      3.70  4.4737e-22  9.9039e-20  4.4740e-22  9.9040e-20  4.4744e-22  9.9041e-20  4.4751e-22  9.9043e-20  4.4763e-22  9.9046e-20  4.4786e-22  9.9052e-20  4.4826e-22  9.9062e-20  4.4897e-22  9.9080e-20  4.5023e-22  9.9111e-20  4.5248e-22  9.9168e-20  4.5649e-22  9.9268e-20  4.6362e-22  9.9447e-20  4.7636e-22  9.9765e-20  4.9914e-22  1.0033e-19  5.4453e-22  1.0232e-19  6.2539e-22  1.0550e-19  7.6722e-22  1.0956e-19  1.0311e-21  1.1586e-19  1.5476e-21  1.2651e-19
      3.75  4.4615e-22  1.1112e-19  4.4617e-22  1.1112e-19  4.4621e-22  1.1113e-19  4.4627e-22  1.1113e-19  4.4639e-22  1.1113e-19  4.4661e-22  1.1114e-19  4.4698e-22  1.1115e-19  4.4766e-22  1.1117e-19  4.4886e-22  1.1120e-19  4.5099e-22  1.1127e-19  4.5479e-22  1.1138e-19  4.6156e-22  1.1158e-19  4.7364e-22  1.1194e-19  4.9526e-22  1.1257e-19  5.3814e-22  1.1470e-19  6.1532e-22  1.1832e-19  7.5010e-22  1.2291e-19  1.0005e-21  1.3000e-19  1.4898e-21  1.4197e-19
      3.80  4.4501e-22  1.2468e-19  4.4503e-22  1.2468e-19  4.4506e-22  1.2469e-19  4.4513e-22  1.2469e-19  4.4524e-22  1.2469e-19  4.4544e-22  1.2470e-19  4.4580e-22  1.2471e-19  4.4644e-22  1.2473e-19  4.4758e-22  1.2477e-19  4.4960e-22  1.2485e-19  4.5321e-22  1.2497e-19  4.5963e-22  1.2520e-19  4.7110e-22  1.2560e-19  4.9162e-22  1.2631e-19  5.3206e-22  1.2858e-19  6.0579e-22  1.3270e-19  7.3393e-22  1.3788e-19  9.7147e-22  1.4585e-19  1.4352e-21  1.5931e-19
      3.85  4.4395e-22  1.3990e-19  4.4397e-22  1.3990e-19  4.4400e-22  1.3990e-19  4.4406e-22  1.3990e-19  4.4417e-22  1.3991e-19  4.4436e-22  1.3991e-19  4.4470e-22  1.3993e-19  4.4531e-22  1.3995e-19  4.4639e-22  1.4000e-19  4.4831e-22  1.4008e-19  4.5173e-22  1.4022e-19  4.5783e-22  1.4047e-19  4.6871e-22  1.4092e-19  4.8819e-22  1.4173e-19  5.2628e-22  1.4412e-19  5.9677e-22  1.4881e-19  7.1864e-22  1.5466e-19  9.4407e-22  1.6364e-19  1.3836e-21  1.7877e-19
      3.90  4.4296e-22  1.5697e-19  4.4298e-22  1.5697e-19  4.4301e-22  1.5697e-19  4.4307e-22  1.5697e-19  4.4317e-22  1.5698e-19  4.4336e-22  1.5699e-19  4.4368e-22  1.5700e-19  4.4426e-22  1.5703e-19  4.4528e-22  1.5708e-19  4.4711e-22  1.5717e-19  4.5036e-22  1.5733e-19  4.5614e-22  1.5762e-19  4.6648e-22  1.5812e-19  4.8497e-22  1.5902e-19  5.2078e-22  1.6153e-19  5.8823e-22  1.6687e-19  7.0421e-22  1.7349e-19  9.1820e-22  1.8360e-19  1.3348e-21  2.0061e-19
      3.95  4.4205e-22  1.7612e-19  4.4207e-22  1.7612e-19  4.4210e-22  1.7612e-19  4.4215e-22  1.7613e-19  4.4225e-22  1.7613e-19  4.4242e-22  1.7614e-19  4.4273e-22  1.7616e-19  4.4328e-22  1.7619e-19  4.4425e-22  1.7625e-19  4.4598e-22  1.7635e-19  4.4907e-22  1.7653e-19  4.5457e-22  1.7685e-19  4.6438e-22  1.7742e-19  4.8194e-22  1.7843e-19  5.1576e-22  1.8112e-19  5.8025e-22  1.8715e-19  6.9060e-22  1.9461e-19  8.9378e-22  2.0598e-19  1.2887e-21  2.2511e-19
