# This was generated using Cloudy10 and the columns are ordered 
# as log10 of the fraction of the metallicity to the solar metallicity
# 'h_*_Z' and 'c_*_Z' stands for cooling and heating respectively 
# at * metalicity
#
# NOTE: This was generated separately from loop_coolingcurve_w_UV.py
#       using Output_metals_w_redshift.py.
#
# Redshift = 6.0
# hden = -0.5
#
#     temp   h_-3.00_Z   c_-3.00_Z   h_-2.75_Z   c_-2.75_Z   h_-2.50_Z   c_-2.50_Z   h_-2.25_Z   c_-2.25_Z   h_-2.00_Z   c_-2.00_Z   h_-1.75_Z   c_-1.75_Z   h_-1.50_Z   c_-1.50_Z   h_-1.25_Z   c_-1.25_Z   h_-1.00_Z   c_-1.00_Z   h_-0.75_Z   c_-0.75_Z   h_-0.50_Z   c_-0.50_Z   h_-0.25_Z   c_-0.25_Z    h_0.00_Z    c_0.00_Z    h_0.25_Z    c_0.25_Z    h_0.50_Z    c_0.50_Z    h_0.75_Z    c_0.75_Z    h_1.00_Z    c_1.00_Z    h_1.25_Z    c_1.25_Z    h_1.50_Z    c_1.50_Z 
      1.00  8.4386e-24  1.6629e-27  8.4386e-24  1.6629e-27  8.4387e-24  1.6631e-27  8.4389e-24  1.6632e-27  8.4391e-24  1.6636e-27  8.4396e-24  1.6642e-27  8.4405e-24  1.6652e-27  8.4421e-24  1.6671e-27  8.4449e-24  1.6705e-27  8.4498e-24  1.6765e-27  8.4586e-24  1.6871e-27  8.4743e-24  1.7061e-27  8.5021e-24  1.7398e-27  8.5517e-24  1.7999e-27  8.6399e-24  1.9070e-27  8.7968e-24  2.0985e-27  9.0765e-24  2.4420e-27  9.5758e-24  3.0625e-27  1.0469e-23  4.1956e-27
      1.05  8.3830e-24  1.8507e-27  8.3831e-24  1.8508e-27  8.3832e-24  1.8511e-27  8.3833e-24  1.8515e-27  8.3836e-24  1.8523e-27  8.3841e-24  1.8538e-27  8.3850e-24  1.8564e-27  8.3865e-24  1.8609e-27  8.3893e-24  1.8691e-27  8.3942e-24  1.8836e-27  8.4030e-24  1.9094e-27  8.4186e-24  1.9552e-27  8.4463e-24  2.0369e-27  8.4957e-24  2.1823e-27  8.5835e-24  2.4416e-27  8.7398e-24  2.9053e-27  9.0183e-24  3.7375e-27  9.5155e-24  5.2417e-27  1.0405e-23  7.9926e-27
      1.10  8.3259e-24  2.0590e-27  8.3259e-24  2.0593e-27  8.3260e-24  2.0599e-27  8.3261e-24  2.0609e-27  8.3264e-24  2.0628e-27  8.3269e-24  2.0660e-27  8.3278e-24  2.0718e-27  8.3293e-24  2.0822e-27  8.3321e-24  2.1005e-27  8.3370e-24  2.1332e-27  8.3457e-24  2.1914e-27  8.3613e-24  2.2948e-27  8.3889e-24  2.4789e-27  8.4380e-24  2.8069e-27  8.5255e-24  3.3919e-27  8.6811e-24  4.4381e-27  8.9585e-24  6.3164e-27  9.4535e-24  9.7134e-27  1.0339e-23  1.5932e-26
      1.15  8.2670e-24  2.2901e-27  8.2670e-24  2.2907e-27  8.2671e-24  2.2920e-27  8.2673e-24  2.2941e-27  8.2675e-24  2.2980e-27  8.2680e-24  2.3048e-27  8.2689e-24  2.3170e-27  8.2705e-24  2.3386e-27  8.2732e-24  2.3771e-27  8.2781e-24  2.4455e-27  8.2868e-24  2.5671e-27  8.3022e-24  2.7837e-27  8.3297e-24  3.1691e-27  8.3786e-24  3.8557e-27  8.4657e-24  5.0806e-27  8.6206e-24  7.2710e-27  8.8967e-24  1.1205e-26  9.3893e-24  1.8323e-26  1.0271e-23  3.1363e-26
      1.20  8.2064e-24  2.5463e-27  8.2065e-24  2.5477e-27  8.2065e-24  2.5500e-27  8.2067e-24  2.5542e-27  8.2070e-24  2.5617e-27  8.2075e-24  2.5750e-27  8.2083e-24  2.5987e-27  8.2099e-24  2.6407e-27  8.2126e-24  2.7155e-27  8.2175e-24  2.8486e-27  8.2261e-24  3.0853e-27  8.2415e-24  3.5065e-27  8.2689e-24  4.2562e-27  8.3175e-24  5.5919e-27  8.4041e-24  7.9748e-27  8.5583e-24  1.2237e-26  8.8329e-24  1.9892e-26  9.3230e-24  3.3748e-26  1.0200e-23  5.9146e-26
      1.25  8.1441e-24  2.8305e-27  8.1442e-24  2.8329e-27  8.1442e-24  2.8372e-27  8.1444e-24  2.8448e-27  8.1447e-24  2.8584e-27  8.1452e-24  2.8826e-27  8.1460e-24  2.9256e-27  8.1475e-24  3.0020e-27  8.1503e-24  3.1380e-27  8.1551e-24  3.3797e-27  8.1637e-24  3.8098e-27  8.1790e-24  4.5751e-27  8.2062e-24  5.9374e-27  8.2546e-24  8.3644e-27  8.3408e-24  1.2695e-26  8.4941e-24  2.0440e-26  8.7673e-24  3.4355e-26  9.2547e-24  5.9544e-26  1.0127e-23  1.0574e-25
      1.30  8.0801e-24  3.1693e-27  8.0801e-24  3.1735e-27  8.0802e-24  3.1808e-27  8.0803e-24  3.1939e-27  8.0806e-24  3.2170e-27  8.0811e-24  3.2583e-27  8.0819e-24  3.3317e-27  8.0835e-24  3.4622e-27  8.0862e-24  3.6942e-27  8.0910e-24  4.1070e-27  8.0995e-24  4.8412e-27  8.1148e-24  6.1476e-27  8.1418e-24  8.4732e-27  8.1900e-24  1.2617e-26  8.2756e-24  2.0009e-26  8.4281e-24  3.3233e-26  8.6998e-24  5.6992e-26  9.1845e-24  1.0001e-25  1.0051e-23  1.7892e-25
      1.35  8.0142e-24  3.5826e-27  8.0143e-24  3.5892e-27  8.0144e-24  3.6011e-27  8.0145e-24  3.6221e-27  8.0148e-24  3.6595e-27  8.0153e-24  3.7261e-27  8.0161e-24  3.8444e-27  8.0176e-24  4.0549e-27  8.0203e-24  4.4293e-27  8.0251e-24  5.0951e-27  8.0336e-24  6.2794e-27  8.0487e-24  8.3869e-27  8.0756e-24  1.2138e-26  8.1235e-24  1.8822e-26  8.2087e-24  3.0748e-26  8.3603e-24  5.2081e-26  8.6304e-24  9.0414e-26  9.1124e-24  1.5983e-25  9.9742e-24  2.8717e-25
      1.40  7.9465e-24  4.0380e-27  7.9466e-24  4.0482e-27  7.9467e-24  4.0663e-27  7.9468e-24  4.0986e-27  7.9471e-24  4.1559e-27  7.9476e-24  4.2579e-27  7.9484e-24  4.4394e-27  7.9499e-24  4.7620e-27  7.9526e-24  5.3357e-27  7.9574e-24  6.3562e-27  7.9658e-24  8.1716e-27  7.9809e-24  1.1402e-26  8.0076e-24  1.7152e-26  8.0552e-24  2.7397e-26  8.1399e-24  4.5677e-26  8.2906e-24  7.8377e-26  8.5592e-24  1.3714e-25  9.0383e-24  2.4355e-25  9.8950e-24  4.3881e-25
      1.45  7.8770e-24  4.5399e-27  7.8771e-24  4.5548e-27  7.8771e-24  4.5814e-27  7.8773e-24  4.6286e-27  7.8776e-24  4.7126e-27  7.8780e-24  4.8619e-27  7.8789e-24  5.1275e-27  7.8804e-24  5.5998e-27  7.8830e-24  6.4398e-27  7.8877e-24  7.9338e-27  7.8962e-24  1.0592e-26  7.9111e-24  1.5320e-26  7.9377e-24  2.3739e-26  7.9850e-24  3.8738e-26  8.0692e-24  6.5500e-26  8.2191e-24  1.1337e-25  8.4860e-24  1.9941e-25  8.9623e-24  3.5522e-25  9.8138e-24  6.4113e-25
      1.50  7.8055e-24  5.0930e-27  7.8056e-24  5.1140e-27  7.8057e-24  5.1513e-27  7.8058e-24  5.2177e-27  7.8061e-24  5.3357e-27  7.8066e-24  5.5455e-27  7.8074e-24  5.9187e-27  7.8089e-24  6.5823e-27  7.8115e-24  7.7626e-27  7.8162e-24  9.8618e-27  7.8246e-24  1.3596e-26  7.8394e-24  2.0241e-26  7.8659e-24  3.2069e-26  7.9129e-24  5.3144e-26  7.9966e-24  9.0749e-26  8.1455e-24  1.5802e-25  8.4109e-24  2.7891e-25  8.8842e-24  4.9786e-25  9.7304e-24  8.9966e-25
      1.55  7.7322e-24  5.7031e-27  7.7322e-24  5.7315e-27  7.7323e-24  5.7821e-27  7.7324e-24  5.8720e-27  7.7327e-24  6.0319e-27  7.7332e-24  6.3162e-27  7.7340e-24  6.8218e-27  7.7355e-24  7.7211e-27  7.7381e-24  9.3203e-27  7.7428e-24  1.2165e-26  7.7511e-24  1.7225e-26  7.7658e-24  2.6228e-26  7.7921e-24  4.2256e-26  7.8389e-24  7.0813e-26  7.9220e-24  1.2177e-25  8.0700e-24  2.1292e-25  8.3337e-24  3.7673e-25  8.8041e-24  6.7342e-25  9.6450e-24  1.2179e-24
      1.60  7.6568e-24  6.3751e-27  7.6568e-24  6.4124e-27  7.6569e-24  6.4787e-27  7.6571e-24  6.5967e-27  7.6573e-24  6.8065e-27  7.6578e-24  7.1796e-27  7.6586e-24  7.8430e-27  7.6601e-24  9.0229e-27  7.6627e-24  1.1121e-26  7.6673e-24  1.4853e-26  7.6756e-24  2.1493e-26  7.6903e-24  3.3306e-26  7.7164e-24  5.4336e-26  7.7628e-24  9.1806e-26  7.8454e-24  1.5866e-25  7.9925e-24  2.7827e-25  8.2545e-24  4.9320e-25  8.7217e-24  8.8247e-25  9.5571e-24  1.5968e-24
      1.65  7.5794e-24  7.1149e-27  7.5795e-24  7.1625e-27  7.5796e-24  7.2471e-27  7.5797e-24  7.3976e-27  7.5800e-24  7.6653e-27  7.5804e-24  8.1412e-27  7.5812e-24  8.9877e-27  7.5827e-24  1.0493e-26  7.5853e-24  1.3170e-26  7.5899e-24  1.7931e-26  7.5981e-24  2.6402e-26  7.6127e-24  4.1473e-26  7.6386e-24  6.8303e-26  7.6847e-24  1.1610e-25  7.7668e-24  2.0140e-25  7.9128e-24  3.5398e-25  8.1730e-24  6.2819e-25  8.6370e-24  1.1248e-24  9.4665e-24  2.0361e-24
      1.70  7.5000e-24  7.9290e-27  7.5001e-24  7.9883e-27  7.5002e-24  8.0937e-27  7.5003e-24  8.2812e-27  7.5006e-24  8.6145e-27  7.5010e-24  9.2073e-27  7.5018e-24  1.0262e-26  7.5033e-24  1.2136e-26  7.5059e-24  1.5471e-26  7.5104e-24  2.1401e-26  7.5186e-24  3.1950e-26  7.5330e-24  5.0722e-26  7.5588e-24  8.4138e-26  7.6045e-24  1.4368e-25  7.6860e-24  2.4991e-25  7.8310e-24  4.3995e-25  8.0892e-24  7.8145e-25  8.5497e-24  1.3999e-24  9.3729e-24  2.5348e-24
      1.75  7.4186e-24  8.8245e-27  7.4186e-24  8.8969e-27  7.4187e-24  9.0256e-27  7.4189e-24  9.2544e-27  7.4191e-24  9.6614e-27  7.4196e-24  1.0385e-26  7.4204e-24  1.1672e-26  7.4218e-24  1.3961e-26  7.4244e-24  1.8032e-26  7.4289e-24  2.5273e-26  7.4370e-24  3.8152e-26  7.4513e-24  6.1070e-26  7.4768e-24  1.0187e-25  7.5222e-24  1.7456e-25  7.6030e-24  3.0425e-25  7.7468e-24  5.3627e-25  8.0029e-24  9.5319e-25  8.4596e-24  1.7082e-24  9.2760e-24  3.0936e-24
      1.80  7.3351e-24  9.8112e-27  7.3351e-24  9.8982e-27  7.3352e-24  1.0053e-26  7.3353e-24  1.0328e-26  7.3356e-24  1.0817e-26  7.3360e-24  1.1687e-26  7.3368e-24  1.3233e-26  7.3382e-24  1.5984e-26  7.3408e-24  2.0876e-26  7.3453e-24  2.9576e-26  7.3533e-24  4.5054e-26  7.3675e-24  7.2593e-26  7.3928e-24  1.2162e-25  7.4378e-24  2.0897e-25  7.5178e-24  3.6481e-25  7.6602e-24  6.4361e-25  7.9140e-24  1.1446e-24  8.3665e-24  2.0518e-24  9.1752e-24  3.7162e-24
      1.85  7.2494e-24  1.0896e-26  7.2495e-24  1.0999e-26  7.2496e-24  1.1183e-26  7.2497e-24  1.1510e-26  7.2500e-24  1.2090e-26  7.2504e-24  1.3123e-26  7.2512e-24  1.4960e-26  7.2526e-24  1.8225e-26  7.2551e-24  2.4034e-26  7.2595e-24  3.4365e-26  7.2675e-24  5.2742e-26  7.2815e-24  8.5442e-26  7.3066e-24  1.4365e-25  7.3511e-24  2.4737e-25  7.4303e-24  4.3242e-25  7.5712e-24  7.6344e-25  7.8223e-24  1.3582e-24  8.2700e-24  2.4353e-24  9.0701e-24  4.4113e-24
      1.90  7.1617e-24  1.2089e-26  7.1617e-24  1.2210e-26  7.1618e-24  1.2427e-26  7.1620e-24  1.2811e-26  7.1622e-24  1.3495e-26  7.1626e-24  1.4711e-26  7.1634e-24  1.6873e-26  7.1648e-24  2.0718e-26  7.1673e-24  2.7556e-26  7.1717e-24  3.9719e-26  7.1795e-24  6.1356e-26  7.1934e-24  9.9855e-26  7.2181e-24  1.6839e-25  7.2621e-24  2.9049e-25  7.3404e-24  5.0835e-25  7.4797e-24  8.9806e-25  7.7278e-24  1.5983e-24  8.1703e-24  2.8662e-24  8.9609e-24  5.1921e-24
      1.95  7.0718e-24  1.3400e-26  7.0719e-24  1.3542e-26  7.0719e-24  1.3795e-26  7.0721e-24  1.4245e-26  7.0723e-24  1.5045e-26  7.0728e-24  1.6467e-26  7.0735e-24  1.8996e-26  7.0749e-24  2.3494e-26  7.0773e-24  3.1494e-26  7.0817e-24  4.5723e-26  7.0894e-24  7.1034e-26  7.1031e-24  1.1607e-25  7.1276e-24  1.9624e-25  7.1711e-24  3.3908e-25  7.2484e-24  5.9393e-25  7.3860e-24  1.0498e-24  7.6312e-24  1.8689e-24  8.0683e-24  3.3518e-24  8.8493e-24  6.0716e-24
      2.00  6.9798e-24  1.4841e-26  6.9798e-24  1.5007e-26  6.9799e-24  1.5302e-26  6.9800e-24  1.5826e-26  6.9803e-24  1.6759e-26  6.9807e-24  1.8419e-26  6.9815e-24  2.1370e-26  6.9828e-24  2.6618e-26  6.9852e-24  3.5951e-26  6.9895e-24  5.2551e-26  6.9971e-24  8.2081e-26  7.0107e-24  1.3462e-25  7.0347e-24  2.2816e-25  7.0775e-24  3.9480e-25  7.1537e-24  6.9212e-25  7.2893e-24  1.2239e-24  7.5308e-24  2.1794e-24  7.9614e-24  3.9093e-24  8.7307e-24  7.0818e-24
      2.05  6.8856e-24  1.6428e-26  6.8856e-24  1.6622e-26  6.8857e-24  1.6965e-26  6.8858e-24  1.7576e-26  6.8861e-24  1.8661e-26  6.8865e-24  2.0593e-26  6.8872e-24  2.4027e-26  6.8886e-24  3.0134e-26  6.8909e-24  4.0996e-26  6.8952e-24  6.0314e-26  6.9026e-24  9.4679e-26  6.9160e-24  1.5583e-25  6.9396e-24  2.6468e-25  6.9817e-24  4.5861e-25  7.0567e-24  8.0461e-25  7.1900e-24  1.4235e-24  7.4275e-24  2.5354e-24  7.8508e-24  4.5484e-24  8.6072e-24  8.2397e-24
      2.10  6.7892e-24  1.8172e-26  6.7893e-24  1.8396e-26  6.7893e-24  1.8795e-26  6.7895e-24  1.9504e-26  6.7897e-24  2.0764e-26  6.7901e-24  2.3005e-26  6.7909e-24  2.6991e-26  6.7922e-24  3.4079e-26  6.7945e-24  4.6685e-26  6.7986e-24  6.9105e-26  6.8060e-24  1.0899e-25  6.8190e-24  1.7996e-25  6.8423e-24  3.0628e-25  6.8836e-24  5.3135e-25  6.9572e-24  9.3291e-25  7.0881e-24  1.6512e-24  7.3213e-24  2.9415e-24  7.7371e-24  5.2776e-24  8.4796e-24  9.5610e-24
      2.15  6.6907e-24  2.0087e-26  6.6907e-24  2.0346e-26  6.6908e-24  2.0807e-26  6.6909e-24  2.1626e-26  6.6912e-24  2.3084e-26  6.6916e-24  2.5676e-26  6.6923e-24  3.0286e-26  6.6936e-24  3.8483e-26  6.6959e-24  5.3062e-26  6.6999e-24  7.8993e-26  6.7071e-24  1.2512e-25  6.7199e-24  2.0719e-25  6.7427e-24  3.5330e-25  6.7833e-24  6.1359e-25  6.8555e-24  1.0780e-24  6.9839e-24  1.9086e-24  7.2126e-24  3.4009e-24  7.6203e-24  6.1024e-24  8.3484e-24  1.1055e-23
      2.20  6.5900e-24  2.2186e-26  6.5900e-24  2.2485e-26  6.5901e-24  2.3015e-26  6.5902e-24  2.3959e-26  6.5905e-24  2.5637e-26  6.5909e-24  2.8621e-26  6.5916e-24  3.3927e-26  6.5928e-24  4.3364e-26  6.5951e-24  6.0147e-26  6.5990e-24  8.9997e-26  6.6061e-24  1.4310e-25  6.6187e-24  2.3758e-25  6.6410e-24  4.0577e-25  6.6807e-24  7.0541e-25  6.7514e-24  1.2400e-24  6.8773e-24  2.1962e-24  7.1013e-24  3.9140e-24  7.5008e-24  7.0234e-24  8.2141e-24  1.2724e-23
      2.25  6.4871e-24  2.4488e-26  6.4872e-24  2.4829e-26  6.4872e-24  2.5436e-26  6.4874e-24  2.6516e-26  6.4876e-24  2.8436e-26  6.4880e-24  3.1851e-26  6.4887e-24  3.7924e-26  6.4899e-24  4.8723e-26  6.4921e-24  6.7929e-26  6.4960e-24  1.0209e-25  6.5029e-24  1.6285e-25  6.5152e-24  2.7098e-25  6.5371e-24  4.6345e-25  6.5760e-24  8.0635e-25  6.6452e-24  1.4181e-24  6.7684e-24  2.5123e-24  6.9878e-24  4.4780e-24  7.3789e-24  8.0360e-24  8.0772e-24  1.4559e-23
      2.30  6.3821e-24  2.7018e-26  6.3822e-24  2.7406e-26  6.3822e-24  2.8096e-26  6.3824e-24  2.9323e-26  6.3826e-24  3.1505e-26  6.3830e-24  3.5385e-26  6.3836e-24  4.2286e-26  6.3848e-24  5.4558e-26  6.3870e-24  7.6383e-26  6.3908e-24  1.1520e-25  6.3975e-24  1.8425e-25  6.4095e-24  3.0712e-25  6.4308e-24  5.2584e-25  6.4687e-24  9.1549e-25  6.5362e-24  1.6107e-24  6.6563e-24  2.8540e-24  6.8701e-24  5.0874e-24  7.2512e-24  9.1298e-24  7.9319e-24  1.6540e-23
      2.35  6.2750e-24  2.9786e-26  6.2750e-24  3.0223e-26  6.2751e-24  3.1001e-26  6.2752e-24  3.2385e-26  6.2754e-24  3.4845e-26  6.2758e-24  3.9219e-26  6.2765e-24  4.6999e-26  6.2776e-24  6.0834e-26  6.2797e-24  8.5439e-26  6.2835e-24  1.2920e-25  6.2901e-24  2.0705e-25  6.3019e-24  3.4557e-25  6.3228e-24  5.9215e-25  6.3600e-24  1.0314e-24  6.4263e-24  1.8151e-24  6.5442e-24  3.2168e-24  6.7541e-24  5.7347e-24  7.1282e-24  1.0292e-23  7.7964e-24  1.8644e-23
      2.40  6.1658e-24  3.2811e-26  6.1658e-24  3.3300e-26  6.1659e-24  3.4169e-26  6.1660e-24  3.5716e-26  6.1662e-24  3.8465e-26  6.1666e-24  4.3355e-26  6.1672e-24  5.2051e-26  6.1684e-24  6.7516e-26  6.1704e-24  9.5020e-26  6.1741e-24  1.4394e-25  6.1806e-24  2.3096e-25  6.1921e-24  3.8579e-25  6.2127e-24  6.6141e-25  6.2492e-24  1.1524e-24  6.3143e-24  2.0285e-24  6.4300e-24  3.5952e-24  6.6360e-24  6.4095e-24  7.0033e-24  1.1503e-23  7.6591e-24  2.0838e-23
      2.45  6.0545e-24  3.6113e-26  6.0545e-24  3.6655e-26  6.0546e-24  3.7619e-26  6.0547e-24  3.9332e-26  6.0549e-24  4.2379e-26  6.0552e-24  4.7798e-26  6.0559e-24  5.7434e-26  6.0570e-24  7.4570e-26  6.0590e-24  1.0505e-25  6.0626e-24  1.5925e-25  6.0690e-24  2.5568e-25  6.0803e-24  4.2725e-25  6.1005e-24  7.3266e-25  6.1364e-24  1.2768e-24  6.2002e-24  2.2474e-24  6.3137e-24  3.9835e-24  6.5159e-24  7.1019e-24  6.8762e-24  1.2745e-23  7.5195e-24  2.3088e-23
      2.50  5.9411e-24  3.9715e-26  5.9412e-24  4.0311e-26  5.9412e-24  4.1369e-26  5.9413e-24  4.3251e-26  5.9415e-24  4.6599e-26  5.9419e-24  5.2551e-26  5.9425e-24  6.3137e-26  5.9436e-24  8.1962e-26  5.9456e-24  1.1544e-25  5.9491e-24  1.7499e-25  5.9554e-24  2.8092e-25  5.9665e-24  4.6939e-25  5.9863e-24  8.0490e-25  6.0215e-24  1.4026e-24  6.0840e-24  2.4690e-24  6.1954e-24  4.3760e-24  6.3936e-24  7.8015e-24  6.7470e-24  1.4000e-23  7.3778e-24  2.5360e-23
      2.55  5.8258e-24  4.3661e-26  5.8258e-24  4.4309e-26  5.8259e-24  4.5462e-26  5.8260e-24  4.7512e-26  5.8262e-24  5.1158e-26  5.8266e-24  5.7642e-26  5.8272e-24  6.9172e-26  5.8283e-24  8.9677e-26  5.8302e-24  1.2614e-25  5.8336e-24  1.9101e-25  5.8398e-24  3.0638e-25  5.8507e-24  5.1168e-25  5.8701e-24  8.7712e-25  5.9046e-24  1.5282e-24  5.9659e-24  2.6896e-24  6.0751e-24  4.7668e-24  6.2694e-24  8.4976e-24  6.6158e-24  1.5249e-23  7.2341e-24  2.7619e-23
      2.60  5.7086e-24  4.7956e-26  5.7086e-24  4.8656e-26  5.7086e-24  4.9902e-26  5.7088e-24  5.2117e-26  5.7089e-24  5.6056e-26  5.7093e-24  6.3061e-26  5.7099e-24  7.5517e-26  5.7109e-24  9.7670e-26  5.7128e-24  1.3707e-25  5.7162e-24  2.0714e-25  5.7222e-24  3.3179e-25  5.7329e-24  5.5358e-25  5.7519e-24  9.4839e-25  5.7857e-24  1.6517e-24  5.8458e-24  2.9065e-24  5.9528e-24  5.1505e-24  6.1433e-24  9.1808e-24  6.4827e-24  1.6473e-23  7.0885e-24  2.9835e-23
      2.65  5.5894e-24  5.2626e-26  5.5895e-24  5.3377e-26  5.5895e-24  5.4713e-26  5.5896e-24  5.7088e-26  5.5898e-24  6.1312e-26  5.5901e-24  6.8824e-26  5.5907e-24  8.2183e-26  5.5918e-24  1.0594e-25  5.5936e-24  1.4819e-25  5.5969e-24  2.2334e-25  5.6028e-24  3.5701e-25  5.6133e-24  5.9486e-25  5.6319e-24  1.0182e-24  5.6650e-24  1.7725e-24  5.7239e-24  3.1181e-24  5.8287e-24  5.5244e-24  6.0153e-24  9.8461e-24  6.3477e-24  1.7665e-23  6.9412e-24  3.1990e-23
      2.70  5.4685e-24  5.7698e-26  5.4685e-24  5.8498e-26  5.4686e-24  5.9921e-26  5.4687e-24  6.2451e-26  5.4689e-24  6.6951e-26  5.4692e-24  7.4953e-26  5.4698e-24  8.9183e-26  5.4708e-24  1.1449e-25  5.4726e-24  1.5950e-25  5.4759e-24  2.3954e-25  5.4816e-24  3.8194e-25  5.4919e-24  6.3530e-25  5.5101e-24  1.0863e-24  5.5425e-24  1.8897e-24  5.6002e-24  3.3230e-24  5.7028e-24  5.8862e-24  5.8855e-24  1.0489e-23  6.2110e-24  1.8817e-23  6.7921e-24  3.4071e-23
      2.75  5.3458e-24  6.3201e-26  5.3459e-24  6.4048e-26  5.3459e-24  6.5555e-26  5.3460e-24  6.8234e-26  5.3462e-24  7.2999e-26  5.3465e-24  8.1472e-26  5.3471e-24  9.6540e-26  5.3481e-24  1.2334e-25  5.3499e-24  1.7099e-25  5.3530e-24  2.5576e-25  5.3587e-24  4.0653e-25  5.3687e-24  6.7481e-25  5.3866e-24  1.1524e-24  5.4183e-24  2.0031e-24  5.4748e-24  3.5208e-24  5.5753e-24  6.2347e-24  5.7542e-24  1.1108e-23  6.0729e-24  1.9925e-23  6.6419e-24  3.6072e-23
      2.80  5.2216e-24  6.9205e-26  5.2216e-24  7.0098e-26  5.2216e-24  7.1685e-26  5.2217e-24  7.4507e-26  5.2219e-24  7.9526e-26  5.2222e-24  8.8451e-26  5.2228e-24  1.0432e-25  5.2238e-24  1.3255e-25  5.2255e-24  1.8275e-25  5.2286e-24  2.7203e-25  5.2341e-24  4.3086e-25  5.2440e-24  7.1345e-25  5.2615e-24  1.2165e-24  5.2925e-24  2.1126e-24  5.3478e-24  3.7111e-24  5.4462e-24  6.5696e-24  5.6213e-24  1.1703e-23  5.9333e-24  2.0988e-23  6.4903e-24  3.7990e-23
      2.85  5.0957e-24  7.5706e-26  5.0958e-24  7.6642e-26  5.0958e-24  7.8306e-26  5.0959e-24  8.1265e-26  5.0961e-24  8.6528e-26  5.0964e-24  9.5886e-26  5.0969e-24  1.1253e-25  5.0979e-24  1.4212e-25  5.0996e-24  1.9476e-25  5.1026e-24  2.8838e-25  5.1081e-24  4.5491e-25  5.1177e-24  7.5121e-25  5.1348e-24  1.2786e-24  5.1652e-24  2.2182e-24  5.2193e-24  3.8943e-24  5.3156e-24  6.8913e-24  5.4870e-24  1.2273e-23  5.7924e-24  2.2006e-23  6.3374e-24  3.9826e-23
      2.90  4.9685e-24  8.2737e-26  4.9685e-24  8.3714e-26  4.9686e-24  8.5452e-26  4.9687e-24  8.8543e-26  4.9688e-24  9.4038e-26  4.9691e-24  1.0381e-25  4.9696e-24  1.2119e-25  4.9706e-24  1.5210e-25  4.9723e-24  2.0707e-25  4.9752e-24  3.0483e-25  4.9805e-24  4.7875e-25  4.9900e-24  7.8818e-25  5.0067e-24  1.3390e-24  5.0365e-24  2.3202e-24  5.0894e-24  4.0705e-24  5.1837e-24  7.2001e-24  5.3514e-24  1.2819e-23  5.6501e-24  2.2982e-23  6.1833e-24  4.1583e-23
      2.95  4.8399e-24  9.0344e-26  4.8399e-24  9.1361e-26  4.8400e-24  9.3170e-26  4.8401e-24  9.6386e-26  4.8402e-24  1.0210e-25  4.8405e-24  1.1228e-25  4.8411e-24  1.3036e-25  4.8420e-24  1.6252e-25  4.8436e-24  2.1973e-25  4.8465e-24  3.2146e-25  4.8517e-24  5.0244e-25  4.8609e-24  8.2444e-25  4.8773e-24  1.3976e-24  4.9064e-24  2.4187e-24  4.9582e-24  4.2400e-24  5.0504e-24  7.4964e-24  5.2145e-24  1.3343e-23  5.5066e-24  2.3916e-23  6.0281e-24  4.3265e-23
      3.00  4.7101e-24  9.8569e-26  4.7102e-24  9.9624e-26  4.7102e-24  1.0150e-25  4.7103e-24  1.0484e-25  4.7105e-24  1.1077e-25  4.7108e-24  1.2132e-25  4.7113e-24  1.4008e-25  4.7122e-24  1.7344e-25  4.7138e-24  2.3278e-25  4.7166e-24  3.3832e-25  4.7217e-24  5.2605e-25  4.7307e-24  8.6007e-25  4.7467e-24  1.4546e-24  4.7752e-24  2.5138e-24  4.8259e-24  4.4030e-24  4.9160e-24  7.7808e-24  5.0764e-24  1.3845e-23  5.3621e-24  2.4809e-23  5.8720e-24  4.4872e-23
      3.05  4.5793e-24  1.0754e-25  4.5794e-24  1.0863e-25  4.5794e-24  1.1057e-25  4.5795e-24  1.1402e-25  4.5797e-24  1.2015e-25  4.5799e-24  1.3106e-25  4.5804e-24  1.5045e-25  4.5813e-24  1.8495e-25  4.5829e-24  2.4629e-25  4.5857e-24  3.5538e-25  4.5906e-24  5.4945e-25  4.5994e-24  8.9475e-25  4.6151e-24  1.5094e-24  4.6429e-24  2.6042e-24  4.6925e-24  4.5571e-24  4.7806e-24  8.0487e-24  4.9374e-24  1.4317e-23  5.2166e-24  2.5648e-23  5.7150e-24  4.6379e-23
      3.10  4.4476e-24  1.1716e-25  4.4476e-24  1.1828e-25  4.4477e-24  1.2028e-25  4.4478e-24  1.2384e-25  4.4479e-24  1.3016e-25  4.4482e-24  1.4141e-25  4.4487e-24  1.6141e-25  4.4496e-24  1.9697e-25  4.4511e-24  2.6023e-25  4.4538e-24  3.7273e-25  4.4586e-24  5.7285e-25  4.4673e-24  9.2892e-25  4.4826e-24  1.5627e-24  4.5098e-24  2.6917e-24  4.5582e-24  4.7055e-24  4.6443e-24  8.3057e-24  4.7975e-24  1.4768e-23  5.0704e-24  2.6451e-23  5.5574e-24  4.7819e-23
      3.15  4.3151e-24  1.2760e-25  4.3152e-24  1.2876e-25  4.3152e-24  1.3082e-25  4.3153e-24  1.3448e-25  4.3154e-24  1.4099e-25  4.3157e-24  1.5256e-25  4.3162e-24  1.7314e-25  4.3170e-24  2.0975e-25  4.3185e-24  2.7485e-25  4.3212e-24  3.9063e-25  4.3259e-24  5.9659e-25  4.3343e-24  9.6304e-25  4.3493e-24  1.6153e-24  4.3759e-24  2.7772e-24  4.4232e-24  4.8496e-24  4.5073e-24  8.5545e-24  4.6569e-24  1.5205e-23  4.9236e-24  2.7225e-23  5.3992e-24  4.9207e-23
      3.20  4.1820e-24  1.3889e-25  4.1821e-24  1.4008e-25  4.1821e-24  1.4220e-25  4.1822e-24  1.4596e-25  4.1823e-24  1.5265e-25  4.1826e-24  1.6455e-25  4.1831e-24  1.8570e-25  4.1839e-24  2.2333e-25  4.1854e-24  2.9024e-25  4.1880e-24  4.0925e-25  4.1926e-24  6.2095e-25  4.2008e-24  9.9761e-25  4.2154e-24  1.6681e-24  4.2414e-24  2.8623e-24  4.2876e-24  4.9924e-24  4.3697e-24  8.8003e-24  4.5159e-24  1.5635e-23  4.7763e-24  2.7987e-23  5.2408e-24  5.0573e-23
      3.25  4.0485e-24  1.5100e-25  4.0486e-24  1.5222e-25  4.0486e-24  1.5440e-25  4.0487e-24  1.5826e-25  4.0488e-24  1.6514e-25  4.0491e-24  1.7736e-25  4.0495e-24  1.9910e-25  4.0503e-24  2.3777e-25  4.0518e-24  3.0653e-25  4.0543e-24  4.2884e-25  4.0588e-24  6.4639e-25  4.0668e-24  1.0335e-24  4.0811e-24  1.7224e-24  4.1065e-24  2.9497e-24  4.1516e-24  5.1386e-24  4.2318e-24  9.0515e-24  4.3745e-24  1.6074e-23  4.6287e-24  2.8765e-23  5.0822e-24  5.1966e-23
      3.30  3.9148e-24  1.6411e-25  3.9148e-24  1.6537e-25  3.9149e-24  1.6761e-25  3.9150e-24  1.7159e-25  3.9151e-24  1.7866e-25  3.9154e-24  1.9124e-25  3.9158e-24  2.1361e-25  3.9166e-24  2.5339e-25  3.9180e-24  3.2414e-25  3.9204e-24  4.4997e-25  3.9248e-24  6.7379e-25  3.9327e-24  1.0720e-24  3.9466e-24  1.7809e-24  3.9714e-24  3.0435e-24  4.0154e-24  5.2955e-24  4.0937e-24  9.3210e-24  4.2330e-24  1.6545e-23  4.4811e-24  2.9599e-23  4.9236e-24  5.3461e-23
      3.35  3.7810e-24  1.7814e-25  3.7811e-24  1.7944e-25  3.7811e-24  1.8175e-25  3.7812e-24  1.8585e-25  3.7813e-24  1.9315e-25  3.7816e-24  2.0613e-25  3.7820e-24  2.2921e-25  3.7827e-24  2.7025e-25  3.7841e-24  3.4325e-25  3.7865e-24  4.7308e-25  3.7908e-24  7.0402e-25  3.7985e-24  1.1149e-24  3.8120e-24  1.8463e-24  3.8362e-24  3.1490e-24  3.8792e-24  5.4725e-24  3.9556e-24  9.6257e-24  4.0915e-24  1.7079e-23  4.3336e-24  3.0545e-23  4.7653e-24  5.5157e-23
      3.40  3.6474e-24  1.9312e-25  3.6474e-24  1.9447e-25  3.6475e-24  1.9686e-25  3.6475e-24  2.0112e-25  3.6477e-24  2.0868e-25  3.6479e-24  2.2213e-25  3.6483e-24  2.4606e-25  3.6491e-24  2.8860e-25  3.6504e-24  3.6427e-25  3.6527e-24  4.9884e-25  3.6569e-24  7.3822e-25  3.6644e-24  1.1641e-24  3.6776e-24  1.9222e-24  3.7012e-24  3.2726e-24  3.7431e-24  5.6809e-24  3.8176e-24  9.9857e-24  3.9502e-24  1.7711e-23  4.1864e-24  3.1666e-23  4.6074e-24  5.7170e-23
      3.45  3.5141e-24  2.0909e-25  3.5141e-24  2.1050e-25  3.5142e-24  2.1299e-25  3.5142e-24  2.1743e-25  3.5144e-24  2.2532e-25  3.5146e-24  2.3936e-25  3.5150e-24  2.6431e-25  3.5157e-24  3.0869e-25  3.5170e-24  3.8762e-25  3.5193e-24  5.2800e-25  3.5234e-24  7.7771e-25  3.5307e-24  1.2220e-24  3.5436e-24  2.0128e-24  3.5666e-24  3.4213e-24  3.6074e-24  5.9335e-24  3.6801e-24  1.0424e-23  3.8093e-24  1.8481e-23  4.0396e-24  3.3037e-23  4.4500e-24  5.9633e-23
      3.50  3.3813e-24  2.2609e-25  3.3814e-24  2.2757e-25  3.3814e-24  2.3019e-25  3.3815e-24  2.3486e-25  3.3816e-24  2.4315e-25  3.3818e-24  2.5791e-25  3.3822e-24  2.8415e-25  3.3829e-24  3.3081e-25  3.3842e-24  4.1380e-25  3.3864e-24  5.6139e-25  3.3904e-24  8.2394e-25  3.3975e-24  1.2911e-24  3.4101e-24  2.1225e-24  3.4325e-24  3.6035e-24  3.4723e-24  6.2447e-24  3.5431e-24  1.0966e-23  3.6691e-24  1.9437e-23  3.8935e-24  3.4739e-23  4.2934e-24  6.2697e-23
      3.55  3.2494e-24  2.4443e-25  3.2494e-24  2.4599e-25  3.2495e-24  2.4878e-25  3.2495e-24  2.5373e-25  3.2496e-24  2.6254e-25  3.2499e-24  2.7820e-25  3.2503e-24  3.0604e-25  3.2509e-24  3.5557e-25  3.2522e-24  4.4364e-25  3.2544e-24  6.0029e-25  3.2582e-24  8.7893e-25  3.2651e-24  1.3747e-24  3.2774e-24  2.2571e-24  3.2992e-24  3.8289e-24  3.3380e-24  6.6320e-24  3.4069e-24  1.1642e-23  3.5297e-24  2.0632e-23  3.7483e-24  3.6871e-23  4.1378e-24  6.6539e-23
      3.60  3.1184e-24  2.6388e-25  3.1184e-24  2.6556e-25  3.1185e-24  2.6854e-25  3.1185e-24  2.7385e-25  3.1186e-24  2.8329e-25  3.1189e-24  3.0008e-25  3.1192e-24  3.2993e-25  3.1199e-24  3.8302e-25  3.1211e-24  4.7743e-25  3.1232e-24  6.4535e-25  3.1270e-24  9.4405e-25  3.1337e-24  1.4755e-24  3.1457e-24  2.4214e-24  3.1669e-24  4.1063e-24  3.2047e-24  7.1112e-24  3.2718e-24  1.2482e-23  3.3913e-24  2.2119e-23  3.6042e-24  3.9526e-23  3.9834e-24  7.1327e-23
      3.65  2.9886e-24  2.8448e-25  2.9886e-24  2.8630e-25  2.9886e-24  2.8953e-25  2.9887e-24  2.9529e-25  2.9888e-24  3.0552e-25  2.9890e-24  3.2372e-25  2.9894e-24  3.5607e-25  2.9900e-24  4.1362e-25  2.9912e-24  5.1596e-25  2.9933e-24  6.9797e-25  2.9969e-24  1.0217e-24  3.0035e-24  1.5978e-24  3.0151e-24  2.6231e-24  3.0358e-24  4.4494e-24  3.0725e-24  7.7065e-24  3.1379e-24  1.3528e-23  3.2542e-24  2.3974e-23  3.4614e-24  4.2841e-23  3.8303e-24  7.7310e-23
      3.70  2.8602e-24  3.0627e-25  2.8602e-24  3.0827e-25  2.8602e-24  3.1183e-25  2.8603e-24  3.1815e-25  2.8604e-24  3.2939e-25  2.8606e-24  3.4939e-25  2.8609e-24  3.8494e-25  2.8616e-24  4.4817e-25  2.8627e-24  5.6061e-25  2.8647e-24  7.6061e-25  2.8683e-24  1.1164e-24  2.8747e-24  1.7493e-24  2.8860e-24  2.8759e-24  2.9061e-24  4.8826e-24  2.9418e-24  8.4613e-24  3.0054e-24  1.4858e-23  3.1186e-24  2.6335e-23  3.3202e-24  4.7065e-23  3.6791e-24  8.4935e-23
      3.75  2.7333e-24  3.2937e-25  2.7334e-24  3.3159e-25  2.7334e-24  3.3555e-25  2.7335e-24  3.4259e-25  2.7336e-24  3.5511e-25  2.7338e-24  3.7738e-25  2.7341e-24  4.1697e-25  2.7347e-24  4.8739e-25  2.7358e-24  6.1262e-25  2.7379e-24  8.3531e-25  2.7413e-24  1.2315e-24  2.7475e-24  1.9364e-24  2.7585e-24  3.1911e-24  2.7780e-24  5.4259e-24  2.8128e-24  9.4115e-24  2.8747e-24  1.6535e-23  2.9848e-24  2.9317e-23  3.1809e-24  5.2403e-23  3.5301e-24  9.4577e-23
      3.80  2.6097e-24  3.5489e-25  2.6097e-24  3.5742e-25  2.6098e-24  3.6191e-25  2.6098e-24  3.6990e-25  2.6099e-24  3.8412e-25  2.6101e-24  4.0939e-25  2.6105e-24  4.5433e-25  2.6111e-24  5.3427e-25  2.6121e-24  6.7642e-25  2.6140e-24  9.2925e-25  2.6174e-24  1.3790e-24  2.6234e-24  2.1791e-24  2.6342e-24  3.6034e-24  2.6532e-24  6.1402e-24  2.6870e-24  1.0664e-23  2.7472e-24  1.8750e-23  2.8545e-24  3.3259e-23  3.0453e-24  5.9463e-23  3.3851e-24  1.0733e-22
      3.85  2.4870e-24  3.8660e-25  2.4870e-24  3.8954e-25  2.4870e-24  3.9476e-25  2.4871e-24  4.0406e-25  2.4872e-24  4.2058e-25  2.4874e-24  4.4996e-25  2.4877e-24  5.0222e-25  2.4882e-24  5.9513e-25  2.4893e-24  7.6041e-25  2.4912e-24  1.0543e-24  2.4945e-24  1.5772e-24  2.5003e-24  2.5075e-24  2.5108e-24  4.1632e-24  2.5293e-24  7.1124e-24  2.5623e-24  1.2372e-23  2.6210e-24  2.1772e-23  2.7255e-24  3.8637e-23  2.9116e-24  6.9097e-23  3.2429e-24  1.2473e-22
      3.90  2.3665e-24  4.4564e-25  2.3665e-24  4.4916e-25  2.3665e-24  4.5542e-25  2.3666e-24  4.6655e-25  2.3667e-24  4.8635e-25  2.3669e-24  5.2157e-25  2.3672e-24  5.8419e-25  2.3678e-24  6.9555e-25  2.3688e-24  8.9359e-25  2.3706e-24  1.2458e-24  2.3738e-24  1.8724e-24  2.3796e-24  2.9872e-24  2.3898e-24  4.9713e-24  2.4079e-24  8.5054e-24  2.4401e-24  1.4808e-23  2.4975e-24  2.6071e-23  2.5997e-24  4.6278e-23  2.7817e-24  8.2766e-23  3.1060e-24  1.4939e-22
      3.95  2.2484e-24  6.1951e-25  2.2484e-24  6.2385e-25  2.2484e-24  6.3155e-25  2.2485e-24  6.4524e-25  2.2486e-24  6.6960e-25  2.2488e-24  7.1291e-25  2.2491e-24  7.8993e-25  2.2497e-24  9.2691e-25  2.2507e-24  1.1705e-24  2.2524e-24  1.6038e-24  2.2556e-24  2.3744e-24  2.2612e-24  3.7456e-24  2.2713e-24  6.1861e-24  2.2891e-24  1.0533e-23  2.3207e-24  1.8284e-23  2.3771e-24  3.2136e-23  2.4776e-24  5.6983e-23  2.6565e-24  1.0184e-22  2.9755e-24  1.8372e-22
