# This was generated using Cloudy10 and the columns are ordered 
# as log10 of the fraction of the metallicity to the solar metallicity
# 'h_*_Z' and 'c_*_Z' stands for cooling and heating respectively 
# at * metalicity
#
# NOTE: This was generated separately from loop_coolingcurve_w_UV.py
#       using Output_metals_w_redshift.py.
#
# Redshift = 5.5
# hden = -2.0
#
#     temp   h_-3.00_Z   c_-3.00_Z   h_-2.75_Z   c_-2.75_Z   h_-2.50_Z   c_-2.50_Z   h_-2.25_Z   c_-2.25_Z   h_-2.00_Z   c_-2.00_Z   h_-1.75_Z   c_-1.75_Z   h_-1.50_Z   c_-1.50_Z   h_-1.25_Z   c_-1.25_Z   h_-1.00_Z   c_-1.00_Z   h_-0.75_Z   c_-0.75_Z   h_-0.50_Z   c_-0.50_Z   h_-0.25_Z   c_-0.25_Z    h_0.00_Z    c_0.00_Z    h_0.25_Z    c_0.25_Z    h_0.50_Z    c_0.50_Z    h_0.75_Z    c_0.75_Z    h_1.00_Z    c_1.00_Z    h_1.25_Z    c_1.25_Z    h_1.50_Z    c_1.50_Z 
      4.00  3.4476e-24  7.7591e-25  3.4477e-24  7.8085e-25  3.4479e-24  7.8963e-25  3.4482e-24  8.0526e-25  3.4487e-24  8.3304e-25  3.4496e-24  8.8245e-25  3.4512e-24  9.7032e-25  3.4540e-24  1.1266e-24  3.4591e-24  1.4045e-24  3.4681e-24  1.8988e-24  3.4842e-24  2.7782e-24  3.5127e-24  4.3429e-24  3.5634e-24  7.1288e-24  3.6532e-24  1.2093e-23  3.8124e-24  2.0954e-23  4.0936e-24  3.6814e-23  4.5879e-24  6.5347e-23  5.4517e-24  1.1713e-22  6.9500e-24  2.1254e-22
      4.05  3.1855e-24  8.9949e-25  3.1856e-24  9.0545e-25  3.1857e-24  9.1607e-25  3.1860e-24  9.3495e-25  3.1865e-24  9.6852e-25  3.1874e-24  1.0282e-24  3.1889e-24  1.1344e-24  3.1917e-24  1.3232e-24  3.1966e-24  1.6590e-24  3.2053e-24  2.2562e-24  3.2209e-24  3.3187e-24  3.2484e-24  5.2094e-24  3.2974e-24  8.5755e-24  3.3844e-24  1.4574e-23  3.5383e-24  2.5282e-23  3.8100e-24  4.4450e-23  4.2873e-24  7.8942e-23  5.1203e-24  1.4157e-22  6.5630e-24  2.5703e-22
      4.10  2.9413e-24  1.1814e-24  2.9414e-24  1.1887e-24  2.9416e-24  1.2018e-24  2.9418e-24  1.2250e-24  2.9423e-24  1.2662e-24  2.9432e-24  1.3396e-24  2.9447e-24  1.4701e-24  2.9473e-24  1.7021e-24  2.9521e-24  2.1148e-24  2.9606e-24  2.8488e-24  2.9756e-24  4.1545e-24  3.0024e-24  6.4780e-24  3.0498e-24  1.0615e-23  3.1340e-24  1.7987e-23  3.2831e-24  3.1147e-23  3.5461e-24  5.4708e-23  4.0077e-24  9.7110e-23  4.8124e-24  1.7411e-22  6.2035e-24  3.1617e-22
      4.15  2.7123e-24  1.8092e-24  2.7124e-24  1.8184e-24  2.7126e-24  1.8346e-24  2.7128e-24  1.8634e-24  2.7133e-24  1.9147e-24  2.7141e-24  2.0059e-24  2.7156e-24  2.1681e-24  2.7182e-24  2.4566e-24  2.7228e-24  2.9696e-24  2.7310e-24  3.8821e-24  2.7456e-24  5.5053e-24  2.7716e-24  8.3939e-24  2.8177e-24  1.3537e-23  2.8995e-24  2.2702e-23  3.0441e-24  3.9063e-23  3.2993e-24  6.8357e-23  3.7468e-24  1.2108e-22  4.5258e-24  2.1684e-22  5.8706e-24  3.9355e-22
      4.20  2.4929e-24  3.1070e-24  2.4930e-24  3.1184e-24  2.4931e-24  3.1387e-24  2.4934e-24  3.1748e-24  2.4939e-24  3.2390e-24  2.4947e-24  3.3532e-24  2.4961e-24  3.5562e-24  2.4986e-24  3.9173e-24  2.5031e-24  4.5595e-24  2.5111e-24  5.7017e-24  2.5254e-24  7.7336e-24  2.5507e-24  1.1349e-23  2.5956e-24  1.7787e-23  2.6752e-24  2.9260e-23  2.8160e-24  4.9741e-23  3.0643e-24  8.6410e-23  3.4996e-24  1.5241e-22  4.2565e-24  2.7230e-22  5.5620e-24  4.9355e-22
      4.25  2.2721e-24  5.5364e-24  2.2722e-24  5.5507e-24  2.2723e-24  5.5762e-24  2.2725e-24  5.6215e-24  2.2730e-24  5.7021e-24  2.2738e-24  5.8455e-24  2.2752e-24  6.1004e-24  2.2776e-24  6.5538e-24  2.2820e-24  7.3601e-24  2.2899e-24  8.7943e-24  2.3038e-24  1.1346e-23  2.3285e-24  1.5886e-23  2.3725e-24  2.3969e-23  2.4503e-24  3.8375e-23  2.5880e-24  6.4091e-23  2.8308e-24  1.1013e-22  3.2561e-24  1.9301e-22  3.9958e-24  3.4354e-22  5.2719e-24  6.2135e-22
      4.30  2.0313e-24  9.5600e-24  2.0313e-24  9.5780e-24  2.0315e-24  9.6100e-24  2.0317e-24  9.6669e-24  2.0321e-24  9.7682e-24  2.0329e-24  9.9483e-24  2.0343e-24  1.0269e-23  2.0367e-24  1.0838e-23  2.0410e-24  1.1851e-23  2.0487e-24  1.3652e-23  2.0624e-24  1.6857e-23  2.0867e-24  2.2560e-23  2.1298e-24  3.2714e-23  2.2063e-24  5.0810e-23  2.3416e-24  8.3113e-23  2.5801e-24  1.4095e-22  2.9984e-24  2.4504e-22  3.7267e-24  4.3410e-22  4.9863e-24  7.8292e-22
      4.35  1.7487e-24  1.5192e-23  1.7488e-24  1.5215e-23  1.7489e-24  1.5255e-23  1.7492e-24  1.5327e-23  1.7496e-24  1.5455e-23  1.7504e-24  1.5681e-23  1.7517e-24  1.6085e-23  1.7541e-24  1.6802e-23  1.7584e-24  1.8077e-23  1.7659e-24  2.0345e-23  1.7794e-24  2.4381e-23  1.8033e-24  3.1562e-23  1.8457e-24  4.4347e-23  1.9210e-24  6.7131e-23  2.0543e-24  1.0780e-22  2.2896e-24  1.8062e-22  2.7031e-24  3.1168e-22  3.4257e-24  5.4970e-22  4.6827e-24  9.8872e-22
      4.40  1.4193e-24  2.1354e-23  1.4194e-24  2.1383e-23  1.4196e-24  2.1434e-23  1.4198e-24  2.1525e-23  1.4202e-24  2.1687e-23  1.4209e-24  2.1975e-23  1.4223e-24  2.2487e-23  1.4246e-24  2.3397e-23  1.4288e-24  2.5016e-23  1.4362e-24  2.7896e-23  1.4494e-24  3.3020e-23  1.4729e-24  4.2137e-23  1.5145e-24  5.8370e-23  1.5885e-24  8.7298e-23  1.7196e-24  1.3894e-22  1.9516e-24  2.3140e-22  2.3609e-24  3.9780e-22  3.0808e-24  7.0000e-22  4.3452e-24  1.2573e-21
      4.45  1.0774e-24  2.5975e-23  1.0775e-24  2.6012e-23  1.0776e-24  2.6078e-23  1.0778e-24  2.6194e-23  1.0782e-24  2.6402e-23  1.0790e-24  2.6770e-23  1.0802e-24  2.7426e-23  1.0825e-24  2.8592e-23  1.0866e-24  3.0666e-23  1.0938e-24  3.4355e-23  1.1066e-24  4.0918e-23  1.1295e-24  5.2596e-23  1.1700e-24  7.3388e-23  1.2421e-24  1.1044e-22  1.3701e-24  1.7658e-22  1.5973e-24  2.9500e-22  2.0003e-24  5.0813e-22  2.7153e-24  8.9516e-22  3.9861e-24  1.6087e-21
      4.50  7.8027e-25  2.7603e-23  7.8034e-25  2.7651e-23  7.8046e-25  2.7735e-23  7.8069e-25  2.7885e-23  7.8108e-25  2.8151e-23  7.8178e-25  2.8624e-23  7.8302e-25  2.9466e-23  7.8523e-25  3.0964e-23  7.8915e-25  3.3627e-23  7.9614e-25  3.8364e-23  8.0856e-25  4.6790e-23  8.3065e-25  6.1785e-23  8.6995e-25  8.8482e-23  9.3985e-25  1.3606e-22  1.0642e-24  2.2098e-22  1.2856e-24  3.7303e-22  1.6802e-24  6.4665e-22  2.3855e-24  1.1435e-21  3.6531e-24  2.0591e-21
      4.55  5.6015e-25  2.6592e-23  5.6021e-25  2.6653e-23  5.6034e-25  2.6761e-23  5.6055e-25  2.6953e-23  5.6093e-25  2.7294e-23  5.6161e-25  2.7901e-23  5.6282e-25  2.8981e-23  5.6497e-25  3.0902e-23  5.6879e-25  3.4318e-23  5.7558e-25  4.0393e-23  5.8766e-25  5.1202e-23  6.0916e-25  7.0434e-23  6.4742e-25  1.0468e-22  7.1552e-25  1.6570e-22  8.3678e-25  2.7462e-22  1.0530e-24  4.6963e-22  1.4395e-24  8.2056e-22  2.1332e-24  1.4577e-21  3.3877e-24  2.6316e-21
      4.60  4.1005e-25  2.4344e-23  4.1012e-25  2.4422e-23  4.1023e-25  2.4560e-23  4.1044e-25  2.4806e-23  4.1082e-25  2.5243e-23  4.1148e-25  2.6020e-23  4.1266e-25  2.7402e-23  4.1476e-25  2.9860e-23  4.1849e-25  3.4231e-23  4.2513e-25  4.2005e-23  4.3695e-25  5.5835e-23  4.5797e-25  8.0446e-23  4.9540e-25  1.2426e-22  5.6201e-25  2.0234e-22  6.8064e-25  3.4173e-22  8.9225e-25  5.9128e-22  1.2707e-24  1.0404e-21  1.9504e-24  1.8556e-21  3.1813e-24  3.3578e-21
      4.65  3.0714e-25  2.2583e-23  3.0721e-25  2.2682e-23  3.0732e-25  2.2858e-23  3.0752e-25  2.3171e-23  3.0789e-25  2.3728e-23  3.0853e-25  2.4719e-23  3.0967e-25  2.6480e-23  3.1171e-25  2.9612e-23  3.1533e-25  3.5183e-23  3.2177e-25  4.5091e-23  3.3330e-25  6.2717e-23  3.5382e-25  9.4083e-23  3.9033e-25  1.4993e-22  4.5528e-25  2.4945e-22  5.7094e-25  4.2711e-22  7.7708e-25  7.4520e-22  1.1453e-24  1.3177e-21  1.8052e-24  2.3570e-21  2.9961e-24  4.2724e-21
      4.70  2.3322e-25  2.3093e-23  2.3329e-25  2.3219e-23  2.3339e-25  2.3441e-23  2.3359e-25  2.3838e-23  2.3393e-25  2.4543e-23  2.3454e-25  2.5797e-23  2.3562e-25  2.8027e-23  2.3755e-25  3.1992e-23  2.4103e-25  3.9044e-23  2.4722e-25  5.1588e-23  2.5825e-25  7.3904e-23  2.7786e-25  1.1361e-22  3.1274e-25  1.8432e-22  3.7480e-25  3.1033e-22  4.8530e-25  5.3528e-22  6.8219e-25  9.3809e-22  1.0337e-24  1.6631e-21  1.6632e-24  2.9799e-21  2.7973e-24  5.4074e-21
      4.75  1.7864e-25  2.8533e-23  1.7870e-25  2.8691e-23  1.7880e-25  2.8970e-23  1.7897e-25  2.9467e-23  1.7929e-25  3.0350e-23  1.7984e-25  3.1921e-23  1.8083e-25  3.4714e-23  1.8261e-25  3.9681e-23  1.8579e-25  4.8516e-23  1.9145e-25  6.4231e-23  2.0153e-25  9.2187e-23  2.1945e-25  1.4194e-22  2.5133e-25  2.3052e-22  3.0805e-25  3.8840e-22  4.0903e-25  6.7029e-22  5.8889e-25  1.1751e-21  9.0984e-25  2.0841e-21  1.4842e-24  3.7356e-21  2.5170e-24  6.7826e-21
      4.80  1.3614e-25  4.2167e-23  1.3619e-25  4.2361e-23  1.3627e-25  4.2707e-23  1.3643e-25  4.3321e-23  1.3670e-25  4.4413e-23  1.3718e-25  4.6355e-23  1.3804e-25  4.9809e-23  1.3958e-25  5.5952e-23  1.4234e-25  6.6877e-23  1.4725e-25  8.6310e-23  1.5599e-25  1.2088e-22  1.7153e-25  1.8240e-22  1.9917e-25  2.9195e-22  2.4834e-25  4.8722e-22  3.3585e-25  8.3592e-22  4.9167e-25  1.4606e-21  7.6948e-25  2.5858e-21  1.2660e-24  4.6317e-21  2.1566e-24  8.4105e-21
      4.85  9.7449e-26  6.3141e-23  9.7489e-26  6.3377e-23  9.7560e-26  6.3798e-23  9.7686e-26  6.4546e-23  9.7910e-26  6.5876e-23  9.8309e-26  6.8241e-23  9.9019e-26  7.2446e-23  1.0028e-25  7.9926e-23  1.0255e-25  9.3229e-23  1.0659e-25  1.1689e-22  1.1378e-25  1.5899e-22  1.2656e-25  2.3390e-22  1.4928e-25  3.6730e-22  1.8971e-25  6.0511e-22  2.6161e-25  1.0298e-21  3.8956e-25  1.7909e-21  6.1741e-25  3.1624e-21  1.0239e-24  5.6584e-21  1.7510e-24  1.0276e-20
      4.90  6.0683e-26  7.9170e-23  6.0715e-26  7.9451e-23  6.0771e-26  7.9950e-23  6.0872e-26  8.0838e-23  6.1051e-26  8.2418e-23  6.1370e-26  8.5227e-23  6.1937e-26  9.0221e-23  6.2947e-26  9.9104e-23  6.4746e-26  1.1490e-22  6.7948e-26  1.4300e-22  7.3640e-26  1.9300e-22  8.3764e-26  2.8197e-22  1.0177e-25  4.4041e-22  1.3377e-25  7.2284e-22  1.9064e-25  1.2273e-21  2.9173e-25  2.1313e-21  4.7154e-25  3.7607e-21  7.9172e-25  6.7274e-21  1.3631e-24  1.2220e-20
      4.95  3.3188e-26  7.8767e-23  3.3213e-26  7.9090e-23  3.3258e-26  7.9663e-23  3.3337e-26  8.0683e-23  3.3478e-26  8.2496e-23  3.3730e-26  8.5721e-23  3.4178e-26  9.1456e-23  3.4977e-26  1.0165e-22  3.6404e-26  1.1979e-22  3.8941e-26  1.5206e-22  4.3453e-26  2.0946e-22  5.1473e-26  3.1161e-22  6.5715e-26  4.9353e-22  9.0994e-26  8.1783e-22  1.3586e-25  1.3971e-21  2.1550e-25  2.4353e-21  3.5692e-25  4.3070e-21  6.0839e-25  7.7162e-21  1.0563e-24  1.4034e-20
      5.00  1.7573e-26  6.7313e-23  1.7593e-26  6.7668e-23  1.7628e-26  6.8300e-23  1.7690e-26  6.9424e-23  1.7801e-26  7.1422e-23  1.8000e-26  7.4976e-23  1.8355e-26  8.1295e-23  1.8993e-26  9.2533e-23  2.0133e-26  1.1252e-22  2.2163e-26  1.4807e-22  2.5757e-26  2.1133e-22  3.2127e-26  3.2391e-22  4.3409e-26  5.2440e-22  6.3373e-26  8.8189e-22  9.8698e-26  1.5206e-21  1.6127e-25  2.6660e-21  2.7223e-25  4.7328e-21  4.6939e-25  8.5034e-21  8.2018e-25  1.5509e-20
      5.05  9.7606e-27  5.4033e-23  9.7761e-27  5.4398e-23  9.8037e-27  5.5048e-23  9.8531e-27  5.6202e-23  9.9417e-27  5.8256e-23  1.0102e-26  6.1908e-23  1.0389e-26  6.8403e-23  1.0911e-26  7.9954e-23  1.1853e-26  1.0050e-22  1.3500e-26  1.3704e-22  1.6404e-26  2.0206e-22  2.1518e-26  3.1779e-22  3.0515e-26  5.2392e-22  4.6325e-26  8.9156e-22  7.4180e-26  1.5487e-21  1.2339e-25  2.7281e-21  2.1061e-25  4.8592e-21  3.6549e-25  8.7559e-21  6.4070e-25  1.6024e-20
      5.10  5.8495e-27  4.2753e-23  5.8621e-27  4.3108e-23  5.8848e-27  4.3741e-23  5.9260e-27  4.4867e-23  6.0015e-27  4.6868e-23  6.1364e-27  5.0427e-23  6.3850e-27  5.6756e-23  6.8504e-27  6.8011e-23  7.6602e-27  8.8031e-23  9.0671e-27  1.2364e-22  1.1510e-26  1.8701e-22  1.5754e-26  2.9980e-22  2.3132e-26  5.0074e-22  3.5996e-26  8.5921e-22  5.8564e-26  1.5003e-21  9.8272e-26  2.6517e-21  1.6856e-25  4.7353e-21  2.9349e-25  8.5546e-21  5.1568e-25  1.5707e-20
      5.15  3.7735e-27  3.4068e-23  3.7846e-27  3.4422e-23  3.8050e-27  3.5051e-23  3.8432e-27  3.6171e-23  3.9124e-27  3.8161e-23  4.0396e-27  4.1700e-23  4.2828e-27  4.7994e-23  4.7224e-27  5.9187e-23  5.4743e-27  7.9096e-23  6.7546e-27  1.1451e-22  8.9243e-27  1.7753e-22  1.2633e-26  2.8972e-22  1.9013e-26  4.8961e-22  3.0063e-26  8.4628e-22  4.9154e-26  1.4844e-21  8.2974e-26  2.6313e-21  1.4303e-25  4.7093e-21  2.4982e-25  8.5261e-21  4.3986e-25  1.5698e-20
      5.20  2.5872e-27  2.7570e-23  2.5976e-27  2.7935e-23  2.6175e-27  2.8584e-23  2.6562e-27  2.9737e-23  2.7253e-27  3.1790e-23  2.8593e-27  3.5439e-23  3.1212e-27  4.1928e-23  3.5453e-27  5.3470e-23  4.2621e-27  7.3999e-23  5.4685e-27  1.1052e-22  7.4678e-27  1.7550e-22  1.0824e-26  2.9120e-22  1.6518e-26  4.9736e-22  2.6110e-26  8.6530e-22  4.3085e-26  1.5238e-21  7.3225e-26  2.7081e-21  1.2681e-25  4.8560e-21  2.2216e-25  8.8082e-21  3.9197e-25  1.6256e-20
      5.25  1.8600e-27  2.2702e-23  1.8703e-27  2.3079e-23  1.8911e-27  2.3748e-23  1.9327e-27  2.4937e-23  2.0115e-27  2.7053e-23  2.1521e-27  3.0815e-23  2.4136e-27  3.7505e-23  2.8289e-27  4.9404e-23  3.5057e-27  7.0568e-23  4.6281e-27  1.0822e-22  6.4696e-27  1.7522e-22  9.5180e-27  2.9451e-22  1.4406e-26  5.0711e-22  2.3032e-26  8.8661e-22  3.8326e-26  1.5660e-21  6.5489e-26  2.7887e-21  1.1377e-25  5.0087e-21  1.9970e-25  9.1012e-21  3.5292e-25  1.6836e-20
      5.30  1.3872e-27  1.9024e-23  1.3983e-27  1.9407e-23  1.4225e-27  2.0087e-23  1.4751e-27  2.1298e-23  1.5525e-27  2.3450e-23  1.6932e-27  2.7278e-23  1.9454e-27  3.4084e-23  2.3373e-27  4.6191e-23  2.9784e-27  6.7725e-23  3.9968e-27  1.0603e-22  5.6989e-27  1.7421e-22  8.2844e-27  2.9560e-22  1.2679e-26  5.1197e-22  2.0347e-26  8.9829e-22  3.3888e-26  1.5902e-21  5.7928e-26  2.8362e-21  1.0054e-25  5.1013e-21  1.7644e-25  9.2851e-21  3.1187e-25  1.7218e-20
      5.35  1.0655e-27  1.6226e-23  1.0789e-27  1.6616e-23  1.1109e-27  1.7309e-23  1.1627e-27  1.8541e-23  1.2408e-27  2.0733e-23  1.3750e-27  2.4630e-23  1.6158e-27  3.1561e-23  1.9843e-27  4.3888e-23  2.5752e-27  6.5815e-23  3.5636e-27  1.0482e-22  5.0807e-27  1.7425e-22  7.3065e-27  2.9787e-22  1.1190e-26  5.1824e-22  1.8009e-26  9.1181e-22  3.0057e-26  1.6170e-21  5.1336e-26  2.8878e-21  8.9204e-26  5.2007e-21  1.5666e-25  9.4814e-21  2.7711e-25  1.7624e-20
      5.40  8.3733e-28  1.4050e-23  8.5275e-28  1.4429e-23  8.8643e-28  1.5104e-23  9.3196e-28  1.6304e-23  1.0084e-27  1.8439e-23  1.1298e-27  2.2234e-23  1.3447e-27  2.8985e-23  1.7189e-27  4.0990e-23  2.2781e-27  6.2346e-23  3.2409e-27  1.0034e-22  4.4637e-27  1.6796e-22  6.4453e-27  2.8839e-22  9.9059e-27  5.0309e-22  1.5962e-26  8.8663e-22  2.6650e-26  1.5742e-21  4.5482e-26  2.8142e-21  7.8907e-26  5.0744e-21  1.3850e-25  9.2676e-21  2.4500e-25  1.7275e-20
      5.45  6.6783e-28  1.2292e-23  6.7988e-28  1.2610e-23  7.0920e-28  1.3175e-23  7.4748e-28  1.4181e-23  8.1039e-28  1.5970e-23  9.2135e-28  1.9151e-23  1.1094e-27  2.4808e-23  1.4297e-27  3.4870e-23  1.9961e-27  5.2767e-23  2.9022e-27  8.4608e-23  3.9203e-27  1.4128e-22  5.6254e-27  2.4223e-22  8.5877e-27  4.2223e-22  1.3646e-26  7.4391e-22  2.2523e-26  1.3209e-21  3.8178e-26  2.3628e-21  6.5949e-26  4.2656e-21  1.1545e-25  7.8071e-21  2.0405e-25  1.4604e-20
      5.50  5.3914e-28  1.0837e-23  5.4566e-28  1.1066e-23  5.6052e-28  1.1474e-23  5.9593e-28  1.2200e-23  6.4952e-28  1.3490e-23  7.4205e-28  1.5784e-23  9.0958e-28  1.9863e-23  1.2056e-27  2.7119e-23  1.7131e-27  4.0024e-23  2.5006e-27  6.2986e-23  3.4555e-27  1.0386e-22  4.9353e-27  1.7666e-22  7.2447e-27  3.0653e-22  1.1252e-26  5.3868e-22  1.8171e-26  9.5539e-22  3.0377e-26  1.7087e-21  5.2046e-26  3.0869e-21  9.0665e-26  5.6603e-21  1.5978e-25  1.0624e-20
      5.55  4.4200e-28  9.7166e-24  4.4621e-28  9.8892e-24  4.5528e-28  1.0196e-23  4.7612e-28  1.0742e-23  5.2280e-28  1.1712e-23  6.1341e-28  1.3438e-23  7.7743e-28  1.6508e-23  1.0696e-27  2.1966e-23  1.5647e-27  3.1676e-23  2.2516e-27  4.8953e-23  3.1250e-27  7.9708e-23  4.3447e-27  1.3450e-22  6.2426e-27  2.3224e-22  9.4231e-27  4.0701e-22  1.4986e-26  7.2085e-22  2.4760e-26  1.2886e-21  4.2124e-26  2.3286e-21  7.3088e-26  4.2745e-21  1.2846e-25  8.0393e-21
      5.60  3.6739e-28  8.8709e-24  3.7137e-28  9.0207e-24  3.7986e-28  9.2872e-24  4.0022e-28  9.7611e-24  4.3824e-28  1.0604e-23  5.2165e-28  1.2102e-23  6.9576e-28  1.4767e-23  9.9500e-28  1.9506e-23  1.5175e-27  2.7936e-23  2.0822e-27  4.2938e-23  2.8597e-27  6.9642e-23  3.8342e-27  1.1722e-22  5.4123e-27  2.0210e-22  8.1168e-27  3.5390e-22  1.2849e-26  6.2656e-22  2.1166e-26  1.1200e-21  3.5927e-26  2.0246e-21  6.2244e-26  3.7191e-21  1.0929e-25  7.0036e-21
      5.65  3.0934e-28  8.3104e-24  3.1298e-28  8.3712e-24  3.2249e-28  8.6256e-24  3.4523e-28  9.0779e-24  3.8850e-28  9.8824e-24  4.7294e-28  1.1313e-23  6.4036e-28  1.3857e-23  9.5076e-28  1.8382e-23  1.4773e-27  2.6430e-23  1.9730e-27  4.0752e-23  2.6361e-27  6.6249e-23  3.4530e-27  1.1168e-22  4.8471e-27  1.9272e-22  7.2332e-27  3.3768e-22  1.1438e-26  5.9810e-22  1.8824e-26  1.0695e-21  3.1943e-26  1.9343e-21  5.5330e-26  3.5554e-21  9.7169e-26  6.7020e-21
      5.70  2.6240e-28  7.7349e-24  2.6671e-28  7.8749e-24  2.7722e-28  8.1239e-24  3.0395e-28  8.5667e-24  3.4866e-28  9.3540e-24  4.3950e-28  1.0754e-23  6.1976e-28  1.3244e-23  9.5384e-28  1.7672e-23  1.3866e-27  2.5550e-23  1.8031e-27  3.9569e-23  2.3479e-27  6.4526e-23  3.0984e-27  1.0899e-22  4.3438e-27  1.8833e-22  6.4893e-27  3.3024e-22  1.0278e-26  5.8522e-22  1.6966e-26  1.0470e-21  2.8841e-26  1.8943e-21  5.0025e-26  3.4842e-21  8.7970e-26  6.5739e-21
      5.75  2.2470e-28  7.2992e-24  2.2947e-28  7.5068e-24  2.3969e-28  7.6696e-24  2.6550e-28  8.0911e-24  3.1553e-28  8.8408e-24  4.1360e-28  1.0174e-23  6.1296e-28  1.2544e-23  9.3266e-28  1.6761e-23  1.2207e-27  2.4263e-23  1.5636e-27  3.7612e-23  1.9944e-27  6.1378e-23  2.6758e-27  1.0372e-22  3.7924e-27  1.7927e-22  5.7316e-27  3.1444e-22  9.1370e-27  5.5734e-22  1.5155e-26  9.9735e-22  2.5865e-26  1.8053e-21  4.4998e-26  3.3226e-21  7.9341e-26  6.2757e-21
      5.80  1.9394e-28  6.9883e-24  1.9803e-28  7.1108e-24  2.0811e-28  7.3285e-24  2.3316e-28  7.7157e-24  2.8583e-28  8.4041e-24  3.9705e-28  9.6283e-24  5.8444e-28  1.1805e-23  8.2571e-28  1.5678e-23  1.0490e-27  2.2568e-23  1.3396e-27  3.4830e-23  1.7014e-27  5.6658e-23  2.3271e-27  9.5551e-23  3.3364e-27  1.6495e-22  5.0704e-27  2.8913e-22  8.1303e-27  5.1234e-22  1.3549e-26  9.1683e-22  2.3198e-26  1.6600e-21  4.0481e-26  3.0573e-21  7.1618e-26  5.7812e-21
      5.85  1.6896e-28  6.7806e-24  1.7369e-28  6.9649e-24  1.8370e-28  7.1012e-24  2.0900e-28  7.4662e-24  2.6797e-28  8.1151e-24  3.8791e-28  9.2690e-24  5.3039e-28  1.1322e-23  7.2477e-28  1.4973e-23  9.1657e-28  2.1469e-23  1.1888e-27  3.3029e-23  1.5371e-27  5.3608e-23  2.0797e-27  9.0278e-23  3.0005e-27  1.5572e-22  4.5855e-27  2.7282e-22  7.3884e-27  4.8335e-22  1.2356e-26  8.6502e-22  2.1226e-26  1.5668e-21  3.7159e-26  2.8874e-21  6.6017e-26  5.4661e-21
      5.90  1.4846e-28  6.6644e-24  1.5323e-28  6.7796e-24  1.6496e-28  6.9845e-24  1.9304e-28  7.3488e-24  2.5641e-28  7.9966e-24  3.6841e-28  9.1486e-24  5.0700e-28  1.1198e-23  6.4860e-28  1.4843e-23  8.4732e-28  2.1328e-23  1.0872e-27  3.2869e-23  1.4052e-27  5.3415e-23  1.9022e-27  9.0026e-23  2.7652e-27  1.5536e-22  4.2719e-27  2.7230e-22  6.9237e-27  4.8257e-22  1.1642e-26  8.6391e-22  2.0094e-26  1.5654e-21  3.5345e-26  2.8870e-21  6.3183e-26  5.4712e-21
      5.95  1.3133e-28  6.6222e-24  1.3634e-28  6.7398e-24  1.4886e-28  6.9489e-24  1.7913e-28  7.3208e-24  2.4720e-28  7.9819e-24  3.5927e-28  9.1577e-24  4.9137e-28  1.1249e-23  6.3199e-28  1.4970e-23  7.9352e-28  2.1589e-23  1.0044e-27  3.3367e-23  1.3213e-27  5.4338e-23  1.7911e-27  9.1707e-23  2.6019e-27  1.5840e-22  4.0352e-27  2.7778e-22  6.5733e-27  4.9250e-22  1.1094e-26  8.8203e-22  1.9220e-26  1.5991e-21  3.3958e-26  2.9514e-21  6.1083e-26  5.5996e-21
      6.00  1.1669e-28  6.6392e-24  1.2139e-28  6.7572e-24  1.3339e-28  6.9670e-24  1.6308e-28  7.3401e-24  2.3081e-28  8.0035e-24  3.5544e-28  9.1831e-24  4.8479e-28  1.1282e-23  6.1640e-28  1.5015e-23  7.7057e-28  2.1656e-23  9.7644e-28  3.3474e-23  1.2732e-27  5.4516e-23  1.7486e-27  9.2014e-23  2.5585e-27  1.5895e-22  3.9899e-27  2.7876e-22  6.5367e-27  4.9431e-22  1.1101e-26  8.8551e-22  1.9336e-26  1.6061e-21  3.4374e-26  2.9664e-21  6.2372e-26  5.6348e-21
      6.05  1.0412e-28  6.7239e-24  1.0807e-28  6.8386e-24  1.1835e-28  7.0425e-24  1.4457e-28  7.4050e-24  2.0821e-28  8.0495e-24  3.4122e-28  9.1956e-24  4.7586e-28  1.1234e-23  6.0717e-28  1.4861e-23  7.5704e-28  2.1314e-23  9.5037e-28  3.2797e-23  1.2273e-27  5.3242e-23  1.6951e-27  8.9677e-23  2.5057e-27  1.5472e-22  3.9409e-27  2.7116e-22  6.5025e-27  4.8072e-22  1.1104e-26  8.6120e-22  1.9439e-26  1.5626e-21  3.4765e-26  2.8883e-21  6.3614e-26  5.4938e-21
      6.10  9.3526e-29  6.8577e-24  9.6784e-29  6.9664e-24  1.0520e-28  7.1598e-24  1.2692e-28  7.5035e-24  1.8028e-28  8.1147e-24  2.9853e-28  9.2015e-24  4.3962e-28  1.1134e-23  5.7963e-28  1.4573e-23  7.1447e-28  2.0692e-23  8.8498e-28  3.1580e-23  1.1629e-27  5.0967e-23  1.6257e-27  8.5519e-23  2.4389e-27  1.4720e-22  3.8869e-27  2.5765e-22  6.4728e-27  4.5648e-22  1.1127e-26  8.1766e-22  1.9595e-26  1.4840e-21  3.5261e-26  2.7451e-21  6.5050e-26  5.2286e-21
      6.15  8.4781e-29  7.0382e-24  8.7788e-29  7.1391e-24  9.4988e-29  7.3184e-24  1.1358e-28  7.6373e-24  1.5656e-28  8.2042e-24  2.4000e-28  9.2123e-24  3.4500e-28  1.1005e-23  4.9090e-28  1.4195e-23  6.1997e-28  1.9870e-23  7.8876e-28  2.9968e-23  1.0621e-27  4.7950e-23  1.5176e-27  7.9999e-23  2.3260e-27  1.3722e-22  3.7643e-27  2.3970e-22  6.3428e-27  4.2422e-22  1.0993e-26  7.5959e-22  1.9480e-26  1.3788e-21  3.5267e-26  2.5523e-21  6.5548e-26  4.8679e-21
      6.20  7.7404e-29  7.2624e-24  8.0189e-29  7.3525e-24  8.6949e-29  7.5127e-24  1.0240e-28  7.7976e-24  1.3346e-28  8.3040e-24  1.9107e-28  9.2046e-24  2.6563e-28  1.0806e-23  3.6600e-28  1.3655e-23  4.9253e-28  1.8724e-23  6.6232e-28  2.7744e-23  9.2088e-28  4.3805e-23  1.3662e-27  7.2433e-23  2.1448e-27  1.2355e-22  3.5357e-27  2.1512e-22  6.0298e-27  3.8004e-22  1.0537e-26  6.7993e-22  1.8787e-26  1.2342e-21  3.4206e-26  2.2860e-21  6.3995e-26  4.3657e-21
      6.25  7.0783e-29  7.5288e-24  7.3256e-29  7.6046e-24  7.8885e-29  7.7394e-24  9.0149e-29  7.9792e-24  1.1228e-28  8.4054e-24  1.5260e-28  9.1633e-24  2.0269e-28  1.0511e-23  2.7575e-28  1.2908e-23  3.7710e-28  1.7173e-23  5.2751e-28  2.4763e-23  7.6780e-28  3.8277e-23  1.1818e-27  6.2367e-23  1.9081e-27  1.0539e-22  3.2009e-27  1.8246e-22  5.5180e-27  3.2132e-22  9.7127e-27  5.7397e-22  1.7410e-26  1.0413e-21  3.1854e-26  1.9296e-21  5.9934e-26  3.6901e-21
      6.30  6.4866e-29  7.8639e-24  6.6789e-29  7.9244e-24  7.0655e-29  8.0320e-24  7.9107e-29  8.2232e-24  9.3985e-29  8.5633e-24  1.2164e-28  9.1680e-24  1.5248e-28  1.0243e-23  2.0669e-28  1.2156e-23  2.9069e-28  1.5558e-23  4.1443e-28  2.1612e-23  6.2880e-28  3.2393e-23  9.9571e-28  5.1611e-23  1.6456e-27  8.5933e-23  2.7995e-27  1.4744e-22  4.8708e-27  2.5829e-22  8.6248e-27  4.6010e-22  1.5528e-26  8.3379e-22  2.8529e-26  1.5452e-21  5.3942e-26  2.9586e-21
      6.35  6.0052e-29  8.3354e-24  6.1094e-29  8.3007e-24  6.3886e-29  8.3858e-24  6.9352e-29  8.5371e-24  8.0537e-29  8.8060e-24  1.0040e-28  9.2843e-24  1.1933e-28  1.0135e-23  1.5441e-28  1.1648e-23  2.1823e-28  1.4339e-23  3.3028e-28  1.9128e-23  5.1334e-28  2.7655e-23  8.3722e-28  4.2856e-23  1.4059e-27  7.0008e-23  2.4190e-27  1.1867e-22  4.2428e-27  2.0641e-22  7.5530e-27  3.6625e-22  1.3653e-26  6.6252e-22  2.5178e-26  1.2274e-21  4.7820e-26  2.3523e-21
      6.40  5.5296e-29  8.6986e-24  5.6419e-29  8.7374e-24  5.8558e-29  8.8063e-24  6.2406e-29  8.9290e-24  6.9701e-29  9.1471e-24  8.4883e-29  9.5348e-24  9.9191e-29  1.0224e-23  1.2448e-28  1.1451e-23  1.7306e-28  1.3632e-23  2.6569e-28  1.7514e-23  4.3241e-28  2.4427e-23  7.2649e-28  3.6752e-23  1.2459e-27  5.8767e-23  2.1742e-27  9.8232e-23  3.8492e-27  1.6941e-22  6.8939e-27  2.9915e-22  1.2517e-26  5.3988e-22  2.3180e-26  9.9960e-22  4.4235e-26  1.9172e-21
      6.45  5.1434e-29  9.2020e-24  5.2442e-29  9.2339e-24  5.4096e-29  9.2908e-24  5.7153e-29  9.3919e-24  6.2460e-29  9.5716e-24  7.3024e-29  9.8911e-24  8.7817e-29  1.0459e-23  1.0961e-28  1.1470e-23  1.5222e-28  1.3268e-23  2.3424e-28  1.6467e-23  3.8786e-28  2.2163e-23  6.6592e-28  3.2318e-23  1.1640e-27  5.0461e-23  2.0614e-27  8.2990e-23  3.6778e-27  1.4168e-22  6.6225e-27  2.4871e-22  1.2074e-26  4.4748e-22  2.2446e-26  8.2764e-22  4.3081e-26  1.5906e-21
      6.50  4.7983e-29  9.7659e-24  4.8913e-29  9.7927e-24  5.0206e-29  9.8402e-24  5.2642e-29  9.9248e-24  5.6801e-29  1.0075e-23  6.4850e-29  1.0342e-23  7.6233e-29  1.0818e-23  9.5060e-29  1.1663e-23  1.3085e-28  1.3167e-23  2.0034e-28  1.5843e-23  3.3349e-28  2.0608e-23  5.8254e-28  2.9103e-23  1.0355e-27  4.4280e-23  1.8541e-27  7.1496e-23  3.3359e-27  1.2061e-22  6.0404e-27  2.1023e-22  1.1057e-26  3.7685e-22  2.0623e-26  6.9582e-22  3.9670e-26  1.3350e-21
      6.55  4.4989e-29  1.0425e-23  4.5786e-29  1.0447e-23  4.6794e-29  1.0487e-23  4.8673e-29  1.0559e-23  5.2224e-29  1.0686e-23  5.9039e-29  1.0913e-23  6.8584e-29  1.1315e-23  8.4308e-29  1.2031e-23  1.1591e-28  1.3305e-23  1.7787e-28  1.5571e-23  2.9847e-28  1.9607e-23  5.2775e-28  2.6801e-23  9.5273e-28  3.9656e-23  1.7277e-27  6.2710e-23  3.1347e-27  1.0432e-22  5.7078e-27  1.8027e-22  1.0491e-26  3.2153e-22  1.9634e-26  5.9224e-22  3.7890e-26  1.1354e-21
      6.60  4.2393e-29  1.1156e-23  4.3031e-29  1.1175e-23  4.4174e-29  1.1323e-23  4.5699e-29  1.1386e-23  4.8408e-29  1.1385e-23  5.4464e-29  1.1584e-23  6.3338e-29  1.1937e-23  7.7574e-29  1.2565e-23  1.0686e-28  1.3682e-23  1.6585e-28  1.5670e-23  2.8167e-28  1.9210e-23  5.0425e-28  2.5521e-23  9.2149e-28  3.6798e-23  1.6899e-27  5.7025e-23  3.0942e-27  9.3539e-23  5.6683e-27  1.6020e-22  1.0462e-26  2.8422e-22  1.9643e-26  5.2209e-22  3.8021e-26  9.9984e-22
      6.65  4.0131e-29  1.1964e-23  4.0609e-29  1.1982e-23  4.1351e-29  1.2015e-23  4.2573e-29  1.2072e-23  4.5068e-29  1.2174e-23  5.0565e-29  1.2355e-23  5.8619e-29  1.2677e-23  7.2114e-29  1.3250e-23  9.9807e-29  1.4269e-23  1.5700e-28  1.6082e-23  2.7037e-28  1.9311e-23  4.8998e-28  2.5068e-23  9.0543e-28  3.5356e-23  1.6775e-27  5.3809e-23  3.0969e-27  8.7126e-23  5.7092e-27  1.4821e-22  1.0581e-26  2.6165e-22  1.9927e-26  4.7933e-22  3.8674e-26  9.1690e-22
      6.70  3.8153e-29  1.2857e-23  3.8487e-29  1.2875e-23  3.9078e-29  1.2905e-23  4.0183e-29  1.2959e-23  4.2422e-29  1.3056e-23  4.7800e-29  1.3227e-23  5.6877e-29  1.3532e-23  7.2183e-29  1.4074e-23  1.0457e-28  1.5039e-23  1.7069e-28  1.6756e-23  3.0103e-28  1.9814e-23  5.5267e-28  2.5266e-23  1.0292e-27  3.5008e-23  1.9160e-27  5.2484e-23  3.5511e-27  8.4041e-23  6.5658e-27  1.4168e-22  1.2198e-26  2.4897e-22  2.3021e-26  4.5497e-22  4.4771e-26  8.6936e-22
      6.75  3.6422e-29  1.3842e-23  3.6647e-29  1.3859e-23  3.7164e-29  1.3888e-23  3.8121e-29  1.3941e-23  4.0403e-29  1.4035e-23  4.6213e-29  1.4201e-23  5.6433e-29  1.4497e-23  7.4674e-29  1.5023e-23  1.1307e-28  1.5959e-23  1.9060e-28  1.7625e-23  3.4148e-28  2.0593e-23  6.3178e-28  2.5883e-23  1.1795e-27  3.5338e-23  2.1994e-27  5.2299e-23  4.0818e-27  8.2928e-23  7.5587e-27  1.3888e-22  1.4065e-26  2.4307e-22  2.6582e-26  4.4318e-22  5.1775e-26  8.4598e-22
      6.80  3.4905e-29  1.4967e-23  3.5056e-29  1.4983e-23  3.5486e-29  1.5013e-23  3.6405e-29  1.5065e-23  3.8644e-29  1.5158e-23  4.4273e-29  1.5322e-23  5.5743e-29  1.5616e-23  7.5564e-29  1.6137e-23  1.1740e-28  1.7065e-23  2.0055e-28  1.8716e-23  3.6143e-28  2.1656e-23  6.7034e-28  2.6899e-23  1.2537e-27  3.6269e-23  2.3407e-27  5.3078e-23  4.3516e-27  8.3435e-23  8.0744e-27  1.3890e-22  1.5053e-26  2.4220e-22  2.8495e-26  4.4069e-22  5.5584e-26  8.4043e-22
      6.85  3.3575e-29  1.6207e-23  3.3679e-29  1.6223e-23  3.3990e-29  1.6253e-23  3.4829e-29  1.6305e-23  3.6877e-29  1.6399e-23  4.2560e-29  1.6565e-23  5.5605e-29  1.6860e-23  7.7893e-29  1.7385e-23  1.2541e-28  1.8319e-23  2.1786e-28  1.9982e-23  3.9770e-28  2.2944e-23  7.4132e-28  2.8224e-23  1.3898e-27  3.7662e-23  2.5972e-27  5.4593e-23  4.8308e-27  8.5173e-23  8.9699e-27  1.4105e-22  1.6737e-26  2.4515e-22  3.1717e-26  4.4523e-22  6.1940e-26  8.4837e-22
      6.90  3.2653e-29  1.7748e-23  3.2490e-29  1.7589e-23  3.2731e-29  1.7619e-23  3.3419e-29  1.7672e-23  3.5492e-29  1.7767e-23  4.1565e-29  1.7935e-23  5.6281e-29  1.8234e-23  8.2139e-29  1.8766e-23  1.3743e-28  1.9712e-23  2.4405e-28  2.1396e-23  4.5331e-28  2.4396e-23  8.5592e-28  2.9744e-23  1.6131e-27  3.9303e-23  3.0180e-27  5.6452e-23  5.6110e-27  8.7429e-23  1.0413e-26  1.4404e-22  1.9428e-26  2.4952e-22  3.6826e-26  4.5232e-22  7.1962e-26  8.6113e-22
      6.95  3.1383e-29  1.9076e-23  3.1458e-29  1.9093e-23  3.1678e-29  1.9123e-23  3.2358e-29  1.9177e-23  3.4440e-29  1.9272e-23  4.0452e-29  1.9441e-23  5.5835e-29  1.9742e-23  8.2635e-29  2.0276e-23  1.3782e-28  2.1228e-23  2.4502e-28  2.2921e-23  4.6084e-28  2.5935e-23  8.7781e-28  3.1311e-23  1.6620e-27  4.0920e-23  3.1173e-27  5.8158e-23  5.8050e-27  8.9299e-23  1.0784e-26  1.4621e-22  2.0139e-26  2.5228e-22  3.8209e-26  4.5628e-22  7.4736e-26  8.6767e-22
      7.00  3.0477e-29  2.0734e-23  3.0549e-29  2.0750e-23  3.0763e-29  2.0780e-23  3.1418e-29  2.0833e-23  3.3378e-29  2.0926e-23  3.9117e-29  2.1093e-23  5.5246e-29  2.1389e-23  8.2318e-29  2.1916e-23  1.3496e-28  2.2854e-23  2.4302e-28  2.4522e-23  4.6209e-28  2.7493e-23  8.8716e-28  3.2790e-23  1.6906e-27  4.2258e-23  3.1874e-27  5.9246e-23  5.9558e-27  8.9934e-23  1.1089e-26  1.4603e-22  2.0739e-26  2.5059e-22  3.9393e-26  4.5174e-22  7.7135e-26  8.5755e-22
      7.05  2.9662e-29  2.2610e-23  2.9730e-29  2.2626e-23  2.9933e-29  2.2655e-23  3.0536e-29  2.2705e-23  3.2341e-29  2.2795e-23  3.7694e-29  2.2954e-23  5.3489e-29  2.3237e-23  8.0970e-29  2.3741e-23  1.3412e-28  2.4637e-23  2.4333e-28  2.6231e-23  4.6682e-28  2.9070e-23  9.0651e-28  3.4132e-23  1.7512e-27  4.3179e-23  3.3338e-27  5.9412e-23  6.2691e-27  8.8737e-23  1.1718e-26  1.4234e-22  2.1967e-26  2.4229e-22  4.1793e-26  4.3460e-22  8.1934e-26  8.2273e-22
      7.10  2.8937e-29  2.4681e-23  2.8994e-29  2.4695e-23  2.9175e-29  2.4721e-23  2.9713e-29  2.4767e-23  3.1345e-29  2.4850e-23  3.6337e-29  2.4996e-23  5.0794e-29  2.5256e-23  7.9780e-29  2.5719e-23  1.3466e-28  2.6542e-23  2.4474e-28  2.8006e-23  4.7059e-28  3.0613e-23  9.3268e-28  3.5261e-23  1.8346e-27  4.3567e-23  3.5410e-27  5.8469e-23  6.7184e-27  8.5393e-23  1.2628e-26  1.3461e-22  2.3753e-26  2.2639e-22  4.5287e-26  4.0302e-22  8.8916e-26  7.5961e-22
      7.15  2.8295e-29  2.6965e-23  2.8346e-29  2.6978e-23  2.8502e-29  2.7001e-23  2.8978e-29  2.7042e-23  3.0443e-29  2.7114e-23  3.4725e-29  2.7243e-23  4.6972e-29  2.7471e-23  7.4207e-29  2.7878e-23  1.2124e-28  2.8602e-23  2.1467e-28  2.9889e-23  4.1486e-28  3.2181e-23  8.3342e-28  3.6266e-23  1.6704e-27  4.3565e-23  3.2809e-27  5.6661e-23  6.3107e-27  8.0319e-23  1.1976e-26  1.2357e-22  2.2672e-26  2.0422e-22  4.3404e-26  3.5947e-22  8.5451e-26  6.7295e-22
      7.20  2.7725e-29  2.9488e-23  2.7768e-29  2.9499e-23  2.7900e-29  2.9518e-23  2.8303e-29  2.9553e-23  2.9485e-29  2.9614e-23  3.2913e-29  2.9723e-23  4.2603e-29  2.9917e-23  6.5798e-29  3.0262e-23  1.0106e-28  3.0876e-23  1.7799e-28  3.1967e-23  3.4489e-28  3.3909e-23  7.0235e-28  3.7370e-23  1.4401e-27  4.3553e-23  2.8954e-27  5.4645e-23  5.6792e-27  7.4682e-23  1.0935e-26  1.1131e-22  2.0909e-26  1.7961e-22  4.0293e-26  3.1109e-22  7.9664e-26  5.7659e-22
      7.25  2.7219e-29  3.2276e-23  2.7254e-29  3.2285e-23  2.7360e-29  3.2301e-23  2.7672e-29  3.2330e-23  2.8844e-29  3.2705e-23  3.1155e-29  3.2472e-23  3.8112e-29  3.2633e-23  5.4691e-29  3.2921e-23  8.1940e-29  3.3432e-23  1.3939e-28  3.4341e-23  2.6702e-28  3.5959e-23  5.5181e-28  3.8843e-23  1.1596e-27  4.3993e-23  2.4000e-27  5.3230e-23  4.8275e-27  6.9913e-23  9.4767e-27  1.0041e-22  1.8370e-26  1.5727e-22  3.5724e-26  2.6671e-22  7.1049e-26  4.8766e-22
      7.30  2.6771e-29  3.5422e-23  2.6798e-29  3.5429e-23  2.6879e-29  3.5443e-23  2.7116e-29  3.5467e-23  2.7807e-29  3.5510e-23  2.9686e-29  3.5586e-23  3.4691e-29  3.5722e-23  4.6516e-29  3.5962e-23  6.8011e-29  3.6391e-23  1.1095e-28  3.7153e-23  2.0506e-28  3.8510e-23  4.2662e-28  4.0928e-23  9.2426e-28  4.5246e-23  1.9807e-27  5.2989e-23  4.1138e-27  6.6971e-23  8.2818e-27  9.2523e-23  1.6348e-26  1.4015e-22  3.2184e-26  2.3180e-22  6.4519e-26  4.1677e-22
      7.35  2.6374e-29  3.8904e-23  2.6394e-29  3.8910e-23  2.6455e-29  3.8922e-23  2.6633e-29  3.8942e-23  2.7144e-29  3.8979e-23  2.8499e-29  3.9044e-23  3.2151e-29  3.9160e-23  4.1065e-29  3.9367e-23  5.8796e-29  3.9734e-23  9.1729e-29  4.0386e-23  1.6521e-28  4.1549e-23  3.4310e-28  4.3620e-23  7.6309e-28  4.7318e-23  1.6910e-27  5.3949e-23  3.6171e-27  6.5921e-23  7.4601e-27  8.7795e-23  1.4993e-26  1.2856e-22  2.9886e-26  2.0696e-22  6.0402e-26  3.6508e-22
      7.40  2.6256e-29  4.3186e-23  2.6272e-29  4.3192e-23  2.6083e-29  4.2775e-23  2.6220e-29  4.2793e-23  2.6616e-29  4.2825e-23  2.7640e-29  4.2882e-23  3.0375e-29  4.2984e-23  3.7672e-29  4.3166e-23  5.3512e-29  4.3488e-23  8.0210e-29  4.4062e-23  1.4084e-28  4.5084e-23  2.9095e-28  4.6906e-23  6.5338e-28  5.0159e-23  1.4817e-27  5.5991e-23  3.2548e-27  6.6519e-23  6.8661e-27  8.5750e-23  1.4036e-26  1.2157e-22  2.8317e-26  1.9043e-22  5.7687e-26  3.2921e-22
      7.45  2.5944e-29  4.7499e-23  2.5722e-29  4.7034e-23  2.5757e-29  4.7043e-23  2.5864e-29  4.7059e-23  2.6176e-29  4.7088e-23  2.6985e-29  4.7140e-23  2.9151e-29  4.7232e-23  3.4944e-29  4.7396e-23  4.7421e-29  4.7688e-23  6.7712e-29  4.8206e-23  1.1360e-28  4.9130e-23  2.3000e-28  5.0776e-23  5.1908e-28  5.3716e-23  1.2035e-27  5.8988e-23  2.7211e-27  6.8503e-23  5.8984e-27  8.5878e-23  1.2322e-26  1.1823e-22  2.5250e-26  1.8038e-22  5.1988e-26  3.0552e-22
      7.50  2.5433e-29  5.1760e-23  2.5443e-29  5.1765e-23  2.5473e-29  5.1773e-23  2.5561e-29  5.1788e-23  2.5823e-29  5.1815e-23  2.6480e-29  5.1863e-23  2.8582e-29  5.2468e-23  3.3118e-29  5.2101e-23  4.3397e-29  5.2371e-23  6.0131e-29  5.2851e-23  9.6556e-29  5.3707e-23  1.9055e-28  5.5233e-23  4.2883e-28  5.7959e-23  1.0099e-27  6.2846e-23  2.3423e-27  7.1666e-23  5.2129e-27  8.7768e-23  1.1133e-26  1.1774e-22  2.3190e-26  1.7527e-22  4.8282e-26  2.9100e-22
      7.55  2.5188e-29  5.7087e-23  2.5197e-29  5.7091e-23  2.5224e-29  5.7100e-23  2.5299e-29  5.7114e-23  2.5529e-29  5.7140e-23  2.6111e-29  5.7185e-23  2.7702e-29  5.7266e-23  3.1996e-29  5.7410e-23  4.0439e-29  5.7667e-23  5.4956e-29  5.8123e-23  8.5705e-29  5.8936e-23  1.6418e-28  6.0385e-23  3.6528e-28  6.2973e-23  8.6711e-28  6.7613e-23  2.0538e-27  7.5987e-23  4.6906e-27  9.1272e-23  1.0261e-26  1.1971e-22  2.1780e-26  1.7425e-22  4.5954e-26  2.8386e-22
      7.60  2.4971e-29  6.2998e-23  2.4979e-29  6.3002e-23  2.5003e-29  6.3010e-23  2.5075e-29  6.3024e-23  2.5285e-29  6.3049e-23  2.5831e-29  6.3093e-23  2.7344e-29  6.3172e-23  3.1301e-29  6.3311e-23  3.8236e-29  6.3560e-23  5.1336e-29  6.4002e-23  7.6834e-29  6.4790e-23  1.4077e-28  6.6194e-23  3.0362e-28  6.8703e-23  7.1393e-28  7.3201e-23  1.7062e-27  8.1317e-23  3.9707e-27  9.6129e-23  8.8693e-27  1.2367e-22  1.9169e-26  1.7647e-22  4.0993e-26  2.8245e-22
      7.65  2.4777e-29  6.9559e-23  2.4785e-29  6.9564e-23  2.4809e-29  6.9572e-23  2.4876e-29  6.9585e-23  2.5071e-29  6.9610e-23  2.5608e-29  6.9653e-23  2.7028e-29  6.9731e-23  3.0752e-29  6.9869e-23  3.6539e-29  7.0114e-23  4.8122e-29  7.0550e-23  7.0232e-29  7.1327e-23  1.2323e-28  7.2711e-23  2.5615e-28  7.5185e-23  5.9134e-28  7.9621e-23  1.4149e-27  8.7624e-23  3.3402e-27  1.0223e-22  7.6069e-27  1.2937e-22  1.6746e-26  1.8136e-22  3.6336e-26  2.8562e-22
      7.70  2.4606e-29  7.6846e-23  2.4613e-29  7.6851e-23  2.4636e-29  7.6858e-23  2.4700e-29  7.6872e-23  2.4888e-29  7.6897e-23  2.5396e-29  7.6940e-23  2.6764e-29  7.7018e-23  3.0336e-29  7.7155e-23  3.5333e-29  7.7400e-23  4.5467e-29  7.7837e-23  6.4864e-29  7.8613e-23  1.0899e-28  7.9997e-23  2.1839e-28  8.2471e-23  4.9194e-28  8.6905e-23  1.1705e-27  9.4906e-23  2.7901e-27  1.0950e-22  6.4661e-27  1.3661e-22  1.4501e-26  1.8852e-22  3.1963e-26  2.9250e-22
      7.75  2.4687e-29  8.5792e-23  2.4461e-29  8.4947e-23  2.4482e-29  8.4954e-23  2.4545e-29  8.4968e-23  2.4720e-29  8.4993e-23  2.5214e-29  8.5037e-23  2.6554e-29  8.5115e-23  2.9745e-29  8.5254e-23  3.4185e-29  8.5502e-23  4.3133e-29  8.5942e-23  6.0799e-29  8.6726e-23  9.8331e-29  8.8124e-23  1.8856e-28  9.0622e-23  4.1203e-28  9.5100e-23  9.6809e-28  1.0318e-22  2.3171e-27  1.1791e-22  5.4491e-27  1.4527e-22  1.2444e-26  1.9761e-22  2.7888e-26  3.0235e-22
      7.80  2.4319e-29  9.4045e-23  2.4325e-29  9.4049e-23  2.4346e-29  9.4057e-23  2.4405e-29  9.4071e-23  2.4574e-29  9.4096e-23  2.5045e-29  9.4141e-23  2.6601e-29  9.5163e-23  2.9579e-29  9.5306e-23  3.3330e-29  9.4614e-23  4.1218e-29  9.5063e-23  5.6734e-29  9.5861e-23  8.9268e-29  9.7285e-23  1.6450e-28  9.9828e-23  3.4757e-28  1.0439e-22  8.0193e-28  1.1261e-22  1.9174e-27  1.2761e-22  4.5620e-27  1.5544e-22  1.0603e-26  2.0865e-22  2.4182e-26  3.1503e-22
      7.85  2.4199e-29  1.0417e-22  2.4205e-29  1.0417e-22  2.4224e-29  1.0418e-22  2.4280e-29  1.0420e-22  2.4435e-29  1.0422e-22  2.4884e-29  1.0427e-22  2.6087e-29  1.0435e-22  2.8766e-29  1.0449e-22  3.2417e-29  1.0475e-22  3.9459e-29  1.0521e-22  5.3290e-29  1.0603e-22  8.1227e-29  1.0748e-22  1.4442e-28  1.1008e-22  2.9352e-28  1.1474e-22  6.6536e-28  1.2314e-22  1.5823e-27  1.3846e-22  3.7974e-27  1.6688e-22  8.9750e-27  2.2116e-22  2.0851e-26  3.2957e-22
      7.90  2.4092e-29  1.1543e-22  2.4097e-29  1.1544e-22  2.4115e-29  1.1545e-22  2.4165e-29  1.1546e-22  2.4307e-29  1.1549e-22  2.4707e-29  1.1554e-22  2.6082e-29  1.1678e-22  2.7997e-29  1.1577e-22  3.1294e-29  1.1603e-22  3.7245e-29  1.1650e-22  4.8964e-29  1.1733e-22  7.2376e-29  1.1882e-22  1.2355e-28  1.2148e-22  2.4305e-28  1.2625e-22  5.3528e-28  1.3484e-22  1.2624e-27  1.5050e-22  3.0512e-27  1.7954e-22  7.3347e-27  2.3497e-22  1.7390e-26  3.4553e-22
      7.95  2.3997e-29  1.2798e-22  2.4002e-29  1.2798e-22  2.4018e-29  1.2799e-22  2.4062e-29  1.2800e-22  2.4189e-29  1.2803e-22  2.4546e-29  1.2808e-22  2.5543e-29  1.2816e-22  2.7318e-29  1.2831e-22  3.0047e-29  1.2858e-22  3.5086e-29  1.2906e-22  4.4792e-29  1.2992e-22  6.4030e-29  1.3144e-22  1.0494e-28  1.3415e-22  1.9855e-28  1.3902e-22  4.2476e-28  1.4779e-22  9.8804e-28  1.6377e-22  2.3925e-27  1.9339e-22  5.8282e-27  2.4989e-22  1.4077e-26  3.6241e-22
      8.00  2.4146e-29  1.4336e-22  2.3917e-29  1.4194e-22  2.4164e-29  1.4337e-22  2.3969e-29  1.4197e-22  2.4078e-29  1.4199e-22  2.4384e-29  1.4204e-22  2.5218e-29  1.4213e-22  2.6679e-29  1.4228e-22  2.8894e-29  1.4256e-22  3.3089e-29  1.4305e-22  4.0990e-29  1.4392e-22  5.6598e-29  1.4547e-22  8.8960e-29  1.4823e-22  1.6161e-28  1.5319e-22  3.3478e-28  1.6213e-22  7.6477e-28  1.7840e-22  1.8466e-27  2.0855e-22  4.5413e-27  2.6598e-22  1.1147e-26  3.8021e-22
      8.05  2.3839e-29  1.5763e-22  2.4075e-29  1.5921e-22  2.4086e-29  1.5922e-22  2.3886e-29  1.5766e-22  2.4211e-29  1.5926e-22  2.4231e-29  1.5773e-22  2.4936e-29  1.5782e-22  2.6091e-29  1.5798e-22  2.8240e-29  1.5984e-22  3.1210e-29  1.5876e-22  3.7488e-29  1.5964e-22  5.0034e-29  1.6122e-22  7.5450e-29  1.6404e-22  1.3147e-28  1.6909e-22  2.6337e-28  1.7819e-22  5.8958e-28  1.9476e-22  1.4158e-27  2.2544e-22  3.5060e-27  2.8381e-22  8.7331e-27  3.9971e-22
      8.10  2.3772e-29  1.7511e-22  2.3775e-29  1.7511e-22  2.3784e-29  1.7512e-22  2.4044e-29  1.7689e-22  2.3883e-29  1.7517e-22  2.4090e-29  1.7522e-22  2.4662e-29  1.7531e-22  2.5570e-29  1.7547e-22  2.7001e-29  1.7575e-22  2.9634e-29  1.7626e-22  3.4778e-29  1.7716e-22  4.4406e-29  1.7877e-22  6.4122e-29  1.8164e-22  1.0690e-28  1.8678e-22  2.0651e-28  1.9604e-22  4.5173e-28  2.1289e-22  1.0756e-27  2.4405e-22  2.6748e-27  3.0328e-22  6.7123e-27  4.2064e-22
      8.15  2.3714e-29  1.9460e-22  2.3949e-29  1.9655e-22  2.3723e-29  1.9462e-22  2.3743e-29  1.9463e-22  2.3801e-29  1.9466e-22  2.3962e-29  1.9471e-22  2.4419e-29  1.9481e-22  2.5121e-29  1.9497e-22  2.6243e-29  1.9526e-22  2.8340e-29  1.9577e-22  3.2133e-29  1.9669e-22  3.9675e-29  1.9833e-22  5.4700e-29  2.0125e-22  8.6992e-29  2.0648e-22  1.6113e-28  2.1590e-22  3.4248e-28  2.3302e-22  8.0470e-28  2.6468e-22  2.0021e-27  3.2475e-22  5.1015e-27  4.4354e-22
      8.20  2.3894e-29  2.1850e-22  2.3663e-29  2.1635e-22  2.3669e-29  2.1635e-22  2.3685e-29  2.1637e-22  2.3729e-29  2.1640e-22  2.3856e-29  2.1645e-22  2.4210e-29  2.1655e-22  2.4759e-29  2.1671e-22  2.5616e-29  2.1701e-22  2.7197e-29  2.1753e-22  3.0142e-29  2.1847e-22  3.5900e-29  2.2014e-22  4.7322e-29  2.2311e-22  7.1587e-29  2.2844e-22  1.2644e-28  2.3803e-22  2.6128e-28  2.5547e-22  6.0454e-28  2.8765e-22  1.5018e-27  3.4864e-22  3.8582e-27  4.6895e-22
      8.25  2.3615e-29  2.4059e-22  2.3850e-29  2.4300e-22  2.3621e-29  2.4060e-22  2.3633e-29  2.4062e-22  2.3667e-29  2.4065e-22  2.3765e-29  2.4070e-22  2.4032e-29  2.4080e-22  2.4447e-29  2.4097e-22  2.5110e-29  2.4127e-22  2.6319e-29  2.4181e-22  2.8563e-29  2.4276e-22  3.2934e-29  2.4447e-22  4.1558e-29  2.4750e-22  5.9793e-29  2.5295e-22  1.0104e-28  2.6274e-22  2.0110e-28  2.8053e-22  4.5702e-28  3.1333e-22  1.1312e-27  3.7539e-22  2.9246e-27  4.9750e-22
      8.30  2.3575e-29  2.6781e-22  2.3576e-29  2.6781e-22  2.3579e-29  2.6782e-22  2.3821e-29  2.7052e-22  2.3614e-29  2.6787e-22  2.3687e-29  2.6792e-22  2.3894e-29  2.6802e-22  2.4214e-29  2.6820e-22  2.4723e-29  2.6851e-22  2.5652e-29  2.6906e-22  2.7372e-29  2.7004e-22  3.0648e-29  2.7179e-22  3.7158e-29  2.7492e-22  5.0862e-29  2.8051e-22  8.1780e-29  2.9057e-22  1.5660e-28  3.0882e-22  3.4834e-28  3.4246e-22  8.5700e-28  4.0597e-22  2.2256e-27  5.3063e-22
      8.35  2.3771e-29  3.0117e-22  2.3539e-29  2.9819e-22  2.3542e-29  2.9820e-22  2.3548e-29  2.9822e-22  2.3568e-29  2.9825e-22  2.3621e-29  2.9830e-22  2.3776e-29  2.9841e-22  2.4014e-29  2.9859e-22  2.4393e-29  2.9891e-22  2.5084e-29  2.9948e-22  2.6363e-29  3.0049e-22  2.8799e-29  3.0230e-22  3.3636e-29  3.0552e-22  4.3817e-29  3.1129e-22  6.6806e-29  3.2166e-22  1.2255e-28  3.4048e-22  2.6607e-28  3.7511e-22  6.4988e-28  4.4039e-22  1.6942e-27  5.6816e-22
      8.40  2.3506e-29  3.3208e-22  2.3507e-29  3.3208e-22  2.3741e-29  3.3542e-22  2.3514e-29  3.3211e-22  2.3528e-29  3.3215e-22  2.3567e-29  3.3221e-22  2.3677e-29  3.3231e-22  2.3854e-29  3.3250e-22  2.4130e-29  3.3283e-22  2.4634e-29  3.3343e-22  2.5569e-29  3.3448e-22  2.7352e-29  3.3635e-22  3.0900e-29  3.3969e-22  3.8388e-29  3.4567e-22  5.5367e-29  3.5642e-22  9.6778e-29  3.7590e-22  2.0413e-28  4.1171e-22  4.9384e-28  4.7910e-22  1.2910e-27  6.1061e-22
      8.45  2.3478e-29  3.6991e-22  2.3478e-29  3.6991e-22  2.3713e-29  3.7363e-22  2.3483e-29  3.6994e-22  2.3494e-29  3.6998e-22  2.3523e-29  3.7004e-22  2.3604e-29  3.7015e-22  2.3732e-29  3.7035e-22  2.3938e-29  3.7069e-22  2.4310e-29  3.7131e-22  2.5001e-29  3.7241e-22  2.6319e-29  3.7436e-22  2.8947e-29  3.7783e-22  3.4508e-29  3.8406e-22  4.7164e-29  3.9524e-22  7.8178e-29  4.1550e-22  1.5907e-28  4.5270e-22  3.7908e-28  5.2255e-22  9.9035e-28  6.5851e-22
      8.50  2.3686e-29  4.1624e-22  2.3453e-29  4.1212e-22  2.3454e-29  4.1213e-22  2.3457e-29  4.1215e-22  2.3465e-29  4.1219e-22  2.3486e-29  4.1225e-22  2.3547e-29  4.1237e-22  2.3642e-29  4.1258e-22  2.3796e-29  4.1294e-22  2.4074e-29  4.1359e-22  2.4590e-29  4.1473e-22  2.5576e-29  4.1677e-22  2.7544e-29  4.2041e-22  3.1717e-29  4.2691e-22  4.1237e-29  4.3860e-22  6.4649e-29  4.5975e-22  1.2602e-28  4.9854e-22  2.9401e-28  5.7125e-22  7.6462e-28  7.1234e-22
