# This was generated using Cloudy10 and the columns are ordered 
# as log10 of the fraction of the metallicity to the solar metallicity
# 'h_*_Z' and 'c_*_Z' stands for cooling and heating respectively 
# at * metalicity
#
# NOTE: This was generated separately from loop_coolingcurve_w_UV.py
#       using Output_metals_w_redshift.py.
#
# Redshift = 5.0
# hden = -6.5
#
#     temp   h_-3.00_Z   c_-3.00_Z   h_-2.75_Z   c_-2.75_Z   h_-2.50_Z   c_-2.50_Z   h_-2.25_Z   c_-2.25_Z   h_-2.00_Z   c_-2.00_Z   h_-1.75_Z   c_-1.75_Z   h_-1.50_Z   c_-1.50_Z   h_-1.25_Z   c_-1.25_Z   h_-1.00_Z   c_-1.00_Z   h_-0.75_Z   c_-0.75_Z   h_-0.50_Z   c_-0.50_Z   h_-0.25_Z   c_-0.25_Z    h_0.00_Z    c_0.00_Z    h_0.25_Z    c_0.25_Z    h_0.50_Z    c_0.50_Z    h_0.75_Z    c_0.75_Z    h_1.00_Z    c_1.00_Z    h_1.25_Z    c_1.25_Z    h_1.50_Z    c_1.50_Z 
      4.00  1.0343e-23  2.6730e-22  1.0367e-23  2.6730e-22  1.0409e-23  2.6731e-22  1.0484e-23  2.6732e-22  1.0617e-23  2.6733e-22  1.0854e-23  2.6736e-22  1.1276e-23  2.6740e-22  1.2025e-23  2.6748e-22  1.3355e-23  2.6762e-22  1.5715e-23  2.6787e-22  1.9897e-23  2.6831e-22  2.7293e-23  2.6910e-22  4.0342e-23  2.7050e-22  6.3444e-23  2.7301e-22  1.0489e-22  2.7751e-22  1.7993e-22  2.8560e-22  3.1641e-22  3.0030e-22  5.6844e-22  3.2741e-22  1.0452e-21  3.7850e-22
      4.05  9.5972e-24  2.9984e-22  9.6201e-24  2.9984e-22  9.6607e-24  2.9984e-22  9.7328e-24  2.9985e-22  9.8611e-24  2.9987e-22  1.0089e-23  2.9990e-22  1.0494e-23  2.9994e-22  1.1215e-23  3.0003e-22  1.2494e-23  3.0019e-22  1.4765e-23  3.0046e-22  1.8789e-23  3.0095e-22  2.5909e-23  3.0183e-22  3.8474e-23  3.0338e-22  6.0707e-23  3.0616e-22  1.0065e-22  3.1113e-22  1.7293e-22  3.2009e-22  3.0441e-22  3.3636e-22  5.4728e-22  3.6634e-22  1.0066e-21  4.2286e-22
      4.10  8.9049e-24  3.3634e-22  8.9269e-24  3.3634e-22  8.9659e-24  3.3634e-22  9.0353e-24  3.3635e-22  9.1587e-24  3.3637e-22  9.3781e-24  3.3640e-22  9.7680e-24  3.3646e-22  1.0461e-23  3.3655e-22  1.1692e-23  3.3672e-22  1.3877e-23  3.3703e-22  1.7750e-23  3.3757e-22  2.4603e-23  3.3853e-22  3.6703e-23  3.4025e-22  5.8100e-23  3.4331e-22  9.6600e-23  3.4880e-22  1.6622e-22  3.5868e-22  2.9288e-22  3.7663e-22  5.2691e-22  4.0969e-22  9.6966e-22  4.7200e-22
      4.15  8.2624e-24  3.7729e-22  8.2835e-24  3.7729e-22  8.3210e-24  3.7729e-22  8.3878e-24  3.7731e-22  8.5065e-24  3.7732e-22  8.7176e-24  3.7736e-22  9.0927e-24  3.7742e-22  9.7594e-24  3.7752e-22  1.0944e-23  3.7771e-22  1.3046e-23  3.7805e-22  1.6774e-23  3.7864e-22  2.3371e-23  3.7970e-22  3.5022e-23  3.8159e-22  5.5617e-23  3.8496e-22  9.2738e-23  3.9101e-22  1.5981e-22  4.0188e-22  2.8185e-22  4.2161e-22  5.0736e-22  4.5796e-22  9.3407e-22  5.2641e-22
      4.20  7.6661e-24  4.2323e-22  7.6865e-24  4.2323e-22  7.7226e-24  4.2324e-22  7.7868e-24  4.2325e-22  7.9009e-24  4.2327e-22  8.1039e-24  4.2331e-22  8.4648e-24  4.2337e-22  9.1061e-24  4.2349e-22  1.0245e-23  4.2370e-22  1.2268e-23  4.2406e-22  1.5855e-23  4.2472e-22  2.2205e-23  4.2588e-22  3.3423e-23  4.2796e-22  5.3241e-23  4.3166e-22  8.9027e-23  4.3829e-22  1.5364e-22  4.5022e-22  2.7123e-22  4.7188e-22  4.8858e-22  5.1173e-22  8.9996e-22  5.8673e-22
      4.25  7.1131e-24  4.7477e-22  7.1326e-24  4.7477e-22  7.1673e-24  4.7478e-22  7.2290e-24  4.7479e-22  7.3387e-24  4.7482e-22  7.5339e-24  4.7486e-22  7.8807e-24  4.7493e-22  8.4972e-24  4.7506e-22  9.5925e-24  4.7528e-22  1.1537e-23  4.7569e-22  1.4986e-23  4.7640e-22  2.1095e-23  4.7768e-22  3.1889e-23  4.7995e-22  5.0953e-23  4.8401e-22  8.5432e-23  4.9128e-22  1.4765e-22  5.0435e-22  2.6092e-22  5.2806e-22  4.7037e-22  5.7167e-22  8.6695e-22  6.5367e-22
      4.30  6.6003e-24  5.3260e-22  6.6190e-24  5.3260e-22  6.6523e-24  5.3261e-22  6.7116e-24  5.3263e-22  6.8169e-24  5.3266e-22  7.0042e-24  5.3270e-22  7.3373e-24  5.3277e-22  7.9292e-24  5.3292e-22  8.9809e-24  5.3316e-22  1.0848e-23  5.3360e-22  1.4162e-23  5.3439e-22  2.0031e-23  5.3579e-22  3.0407e-23  5.3827e-22  4.8727e-23  5.4272e-22  8.1913e-23  5.5068e-22  1.4178e-22  5.6498e-22  2.5081e-22  5.9091e-22  4.5257e-22  6.3857e-22  8.3481e-22  7.2811e-22
      4.35  6.1248e-24  5.9748e-22  6.1428e-24  5.9749e-22  6.1747e-24  5.9750e-22  6.2315e-24  5.9751e-22  6.3324e-24  5.9754e-22  6.5119e-24  5.9759e-22  6.8310e-24  5.9767e-22  7.3983e-24  5.9783e-22  8.4062e-24  5.9810e-22  1.0196e-23  5.9858e-22  1.3373e-23  5.9944e-22  1.9002e-23  6.0097e-22  2.8960e-23  6.0369e-22  4.6557e-23  6.0855e-22  7.8432e-23  6.1726e-22  1.3595e-22  6.3290e-22  2.4079e-22  6.6124e-22  4.3499e-22  7.1331e-22  8.0329e-22  8.1105e-22
      4.40  5.6841e-24  6.7028e-22  5.7012e-24  6.7028e-22  5.7318e-24  6.7029e-22  5.7860e-24  6.7031e-22  5.8825e-24  6.7034e-22  6.0540e-24  6.7039e-22  6.3589e-24  6.7048e-22  6.9010e-24  6.7065e-22  7.8644e-24  6.7095e-22  9.5757e-24  6.7147e-22  1.2613e-23  6.7241e-22  1.7999e-23  6.7409e-22  2.7533e-23  6.7707e-22  4.4425e-23  6.8239e-22  7.4984e-23  6.9191e-22  1.3016e-22  7.0902e-22  2.3081e-22  7.4001e-22  4.1751e-22  7.9691e-22  7.7213e-22  9.0367e-22
      4.45  5.2757e-24  7.5195e-22  5.2920e-24  7.5195e-22  5.3210e-24  7.5196e-22  5.3727e-24  7.5198e-22  5.4645e-24  7.5201e-22  5.6278e-24  7.5207e-22  5.9182e-24  7.5218e-22  6.4343e-24  7.5236e-22  7.3517e-24  7.5268e-22  8.9818e-24  7.5326e-22  1.1876e-23  7.5429e-22  1.7011e-23  7.5612e-22  2.6109e-23  7.5938e-22  4.2277e-23  7.6521e-22  7.1492e-23  7.7564e-22  1.2429e-22  7.9437e-22  2.2077e-22  8.2829e-22  4.0004e-22  8.9054e-22  7.4127e-22  1.0073e-21
      4.50  4.8973e-24  8.4358e-22  4.9128e-24  8.4358e-22  4.9403e-24  8.4359e-22  4.9892e-24  8.4361e-22  5.0762e-24  8.4365e-22  5.2310e-24  8.4371e-22  5.5061e-24  8.4382e-22  5.9952e-24  8.4402e-22  6.8647e-24  8.4438e-22  8.4101e-24  8.4501e-22  1.1155e-23  8.4614e-22  1.6030e-23  8.4815e-22  2.4677e-23  8.5173e-22  4.0086e-23  8.5812e-22  6.7906e-23  8.6955e-22  1.1825e-22  8.9008e-22  2.1045e-22  9.2725e-22  3.8229e-22  9.9548e-22  7.1037e-22  1.1234e-21
      4.55  4.5469e-24  9.4638e-22  4.5615e-24  9.4639e-22  4.5874e-24  9.4640e-22  4.6335e-24  9.4642e-22  4.7155e-24  9.4646e-22  4.8612e-24  9.4653e-22  5.1203e-24  9.4666e-22  5.5811e-24  9.4688e-22  6.4004e-24  9.4727e-22  7.8571e-24  9.4796e-22  1.0447e-23  9.4920e-22  1.5049e-23  9.5140e-22  2.3227e-23  9.5533e-22  3.7836e-23  9.6235e-22  6.4196e-23  9.7490e-22  1.1199e-22  9.9743e-22  1.9976e-22  1.0382e-21  3.6400e-22  1.1131e-21  6.7909e-22  1.2537e-21
      4.60  4.2225e-24  1.0617e-21  4.2362e-24  1.0617e-21  4.2604e-24  1.0618e-21  4.3035e-24  1.0618e-21  4.3802e-24  1.0618e-21  4.5165e-24  1.0619e-21  4.7589e-24  1.0620e-21  5.1899e-24  1.0623e-21  5.9566e-24  1.0627e-21  7.3204e-24  1.0635e-21  9.7469e-24  1.0648e-21  1.4066e-23  1.0672e-21  2.1756e-23  1.0716e-21  3.5520e-23  1.0793e-21  6.0352e-23  1.0931e-21  1.0547e-22  1.1179e-21  1.8863e-22  1.1627e-21  3.4502e-22  1.2451e-21  6.4699e-22  1.3998e-21
      4.65  3.9222e-24  1.1911e-21  3.9349e-24  1.1912e-21  3.9574e-24  1.1912e-21  3.9974e-24  1.1912e-21  4.0686e-24  1.1912e-21  4.1951e-24  1.1913e-21  4.4201e-24  1.1915e-21  4.8203e-24  1.1917e-21  5.5325e-24  1.1922e-21  6.7999e-24  1.1931e-21  9.0574e-24  1.1946e-21  1.3082e-23  1.1972e-21  2.0268e-23  1.2020e-21  3.3147e-23  1.2105e-21  5.6386e-23  1.2258e-21  9.8722e-23  1.2532e-21  1.7706e-22  1.3028e-21  3.2533e-22  1.3940e-21  6.1388e-22  1.5655e-21
      4.70  3.6444e-24  1.3363e-21  3.6561e-24  1.3364e-21  3.6768e-24  1.3364e-21  3.7137e-24  1.3364e-21  3.7792e-24  1.3364e-21  3.8958e-24  1.3365e-21  4.1031e-24  1.3367e-21  4.4720e-24  1.3370e-21  5.1286e-24  1.3375e-21  6.2980e-24  1.3384e-21  8.3835e-24  1.3401e-21  1.2109e-23  1.3430e-21  1.8782e-23  1.3483e-21  3.0745e-23  1.3577e-21  5.2348e-23  1.3745e-21  9.1813e-23  1.4046e-21  1.6518e-22  1.4593e-21  3.0502e-22  1.5597e-21  5.7975e-22  1.7488e-21
      4.75  3.3875e-24  1.4993e-21  3.3982e-24  1.4993e-21  3.4171e-24  1.4993e-21  3.4509e-24  1.4993e-21  3.5109e-24  1.4994e-21  3.6176e-24  1.4995e-21  3.8075e-24  1.4997e-21  4.1454e-24  1.5000e-21  4.7471e-24  1.5006e-21  5.8197e-24  1.5016e-21  7.7350e-24  1.5034e-21  1.1164e-23  1.5066e-21  1.7327e-23  1.5124e-21  2.8368e-23  1.5228e-21  4.8329e-23  1.5414e-21  8.4899e-23  1.5747e-21  1.5321e-22  1.6350e-21  2.8439e-22  1.7460e-21  5.4485e-22  1.9548e-21
      4.80  3.1500e-24  1.6820e-21  3.1598e-24  1.6821e-21  3.1771e-24  1.6821e-21  3.2079e-24  1.6821e-21  3.2626e-24  1.6822e-21  3.3600e-24  1.6823e-21  3.5332e-24  1.6825e-21  3.8416e-24  1.6828e-21  4.3910e-24  1.6835e-21  5.3712e-24  1.6846e-21  7.1239e-24  1.6866e-21  1.0269e-23  1.6902e-21  1.5940e-23  1.6967e-21  2.6081e-23  1.7082e-21  4.4445e-23  1.7287e-21  7.8181e-23  1.7655e-21  1.4148e-22  1.8324e-21  2.6395e-22  1.9552e-21  5.0981e-22  2.1867e-21
      4.85  2.9306e-24  1.8871e-21  2.9395e-24  1.8871e-21  2.9553e-24  1.8872e-21  2.9833e-24  1.8872e-21  3.0333e-24  1.8873e-21  3.1220e-24  1.8874e-21  3.2800e-24  1.8876e-21  3.5614e-24  1.8880e-21  4.0628e-24  1.8887e-21  4.9579e-24  1.8900e-21  6.5606e-24  1.8922e-21  9.4423e-24  1.8962e-21  1.4655e-23  1.9034e-21  2.3949e-23  1.9162e-21  4.0813e-23  1.9390e-21  7.1863e-23  1.9799e-21  1.3036e-22  2.0541e-21  2.4429e-22  2.1906e-21  4.7548e-22  2.4478e-21
      4.90  2.7279e-24  2.1172e-21  2.7360e-24  2.1173e-21  2.7504e-24  2.1173e-21  2.7760e-24  2.1173e-21  2.8217e-24  2.1174e-21  2.9028e-24  2.1175e-21  3.0472e-24  2.1178e-21  3.3045e-24  2.1182e-21  3.7631e-24  2.1190e-21  4.5824e-24  2.1204e-21  6.0507e-24  2.1229e-21  8.6954e-24  2.1274e-21  1.3484e-23  2.1354e-21  2.2014e-23  2.1496e-21  3.7510e-23  2.1751e-21  6.6093e-23  2.2207e-21  1.2012e-22  2.3034e-21  2.2594e-22  2.4555e-21  4.4276e-22  2.7421e-21
      4.95  2.5403e-24  2.3754e-21  2.5478e-24  2.3755e-21  2.5610e-24  2.3755e-21  2.5846e-24  2.3755e-21  2.6264e-24  2.3756e-21  2.7009e-24  2.3758e-21  2.8335e-24  2.3761e-21  3.0697e-24  2.3766e-21  3.4909e-24  2.3774e-21  4.2438e-24  2.3790e-21  5.5942e-24  2.3818e-21  8.0298e-24  2.3868e-21  1.2437e-23  2.3957e-21  2.0290e-23  2.4117e-21  3.4566e-23  2.4401e-21  6.0934e-23  2.4912e-21  1.1089e-22  2.5837e-21  2.0920e-22  2.7537e-21  4.1227e-22  3.0740e-21
      5.00  2.3666e-24  2.6651e-21  2.3735e-24  2.6652e-21  2.3857e-24  2.6652e-21  2.4074e-24  2.6652e-21  2.4460e-24  2.6653e-21  2.5148e-24  2.6655e-21  2.6371e-24  2.6658e-21  2.8550e-24  2.6664e-21  3.2437e-24  2.6674e-21  3.9387e-24  2.6691e-21  5.1862e-24  2.6723e-21  7.4384e-24  2.6779e-21  1.1508e-23  2.6879e-21  1.8765e-23  2.7058e-21  3.1963e-23  2.7378e-21  5.6361e-23  2.7950e-21  1.0267e-22  2.8988e-21  1.9413e-22  3.0894e-21  3.8433e-22  3.4484e-21
      5.05  2.2053e-24  2.9902e-21  2.2116e-24  2.9902e-21  2.2230e-24  2.9902e-21  2.2431e-24  2.9903e-21  2.2789e-24  2.9904e-21  2.3425e-24  2.9906e-21  2.4559e-24  2.9910e-21  2.6578e-24  2.9916e-21  3.0180e-24  2.9927e-21  3.6623e-24  2.9947e-21  4.8193e-24  2.9982e-21  6.9098e-24  3.0045e-21  1.0680e-23  3.0158e-21  1.7408e-23  3.0360e-21  2.9651e-23  3.0719e-21  5.2297e-23  3.1362e-21  9.5338e-23  3.2528e-21  1.8058e-22  3.4671e-21  3.5886e-22  3.8706e-21
      5.10  2.0548e-24  3.3549e-21  2.0607e-24  3.3549e-21  2.0712e-24  3.3550e-21  2.0899e-24  3.3550e-21  2.1232e-24  3.3552e-21  2.1824e-24  3.3554e-21  2.2877e-24  3.3558e-21  2.4754e-24  3.3565e-21  2.8102e-24  3.3577e-21  3.4093e-24  3.3600e-21  4.4854e-24  3.3639e-21  6.4311e-24  3.3710e-21  9.9310e-24  3.3838e-21  1.6186e-23  3.4064e-21  2.7569e-23  3.4468e-21  4.8637e-23  3.5192e-21  8.8723e-23  3.6504e-21  1.6829e-22  3.8914e-21  3.3555e-22  4.3454e-21
      5.15  1.9139e-24  3.7641e-21  1.9194e-24  3.7641e-21  1.9292e-24  3.7642e-21  1.9466e-24  3.7643e-21  1.9775e-24  3.7644e-21  2.0326e-24  3.7646e-21  2.1306e-24  3.7651e-21  2.3053e-24  3.7659e-21  2.6170e-24  3.7673e-21  3.1747e-24  3.7698e-21  4.1768e-24  3.7743e-21  5.9898e-24  3.7822e-21  9.2419e-24  3.7966e-21  1.5062e-23  3.8221e-21  2.5658e-23  3.8675e-21  4.5277e-23  3.9489e-21  8.2642e-23  4.0964e-21  1.5697e-22  4.3674e-21  3.1394e-22  4.8781e-21
      5.20  1.7813e-24  4.2232e-21  1.7864e-24  4.2232e-21  1.7955e-24  4.2233e-21  1.8117e-24  4.2234e-21  1.8405e-24  4.2235e-21  1.8917e-24  4.2238e-21  1.9829e-24  4.2243e-21  2.1454e-24  4.2252e-21  2.4354e-24  4.2268e-21  2.9544e-24  4.2296e-21  3.8872e-24  4.2346e-21  5.5756e-24  4.2436e-21  8.5947e-24  4.2598e-21  1.4007e-23  4.2884e-21  2.3862e-23  4.3394e-21  4.2119e-23  4.4308e-21  7.6921e-23  4.5964e-21  1.4630e-22  4.9006e-21  2.9349e-22  5.4741e-21
      5.25  1.6562e-24  4.7383e-21  1.6610e-24  4.7383e-21  1.6694e-24  4.7384e-21  1.6844e-24  4.7385e-21  1.7112e-24  4.7387e-21  1.7587e-24  4.7390e-21  1.8434e-24  4.7395e-21  1.9942e-24  4.7405e-21  2.2635e-24  4.7423e-21  2.7454e-24  4.7455e-21  3.6117e-24  4.7511e-21  5.1805e-24  4.7611e-21  7.9760e-24  4.7793e-21  1.2997e-23  4.8114e-21  2.2141e-23  4.8685e-21  3.9087e-23  4.9709e-21  7.1421e-23  5.1563e-21  1.3601e-22  5.4970e-21  2.7369e-22  6.1391e-21
      5.30  1.5382e-24  5.3162e-21  1.5426e-24  5.3162e-21  1.5504e-24  5.3163e-21  1.5643e-24  5.3164e-21  1.5890e-24  5.3166e-21  1.6330e-24  5.3169e-21  1.7113e-24  5.3176e-21  1.8509e-24  5.3187e-21  2.0999e-24  5.3207e-21  2.5457e-24  5.3242e-21  3.3473e-24  5.3305e-21  4.7994e-24  5.3417e-21  7.3772e-24  5.3621e-21  1.2017e-23  5.3980e-21  2.0467e-23  5.4619e-21  3.6132e-23  5.5764e-21  6.6044e-23  5.7836e-21  1.2591e-22  6.1641e-21  2.5412e-22  6.8813e-21
      5.35  1.4273e-24  5.9645e-21  1.4313e-24  5.9645e-21  1.4385e-24  5.9646e-21  1.4513e-24  5.9647e-21  1.4741e-24  5.9649e-21  1.5146e-24  5.9653e-21  1.5867e-24  5.9660e-21  1.7151e-24  5.9673e-21  1.9445e-24  5.9695e-21  2.3549e-24  5.9734e-21  3.0931e-24  5.9804e-21  4.4291e-24  5.9930e-21  6.7952e-24  6.0158e-21  1.1060e-23  6.0558e-21  1.8829e-23  6.1269e-21  3.3231e-23  6.2544e-21  6.0745e-23  6.4849e-21  1.1589e-22  6.9079e-21  2.3449e-22  7.7043e-21
      5.40  1.3237e-24  6.6918e-21  1.3274e-24  6.6918e-21  1.3340e-24  6.6919e-21  1.3457e-24  6.6921e-21  1.3666e-24  6.6923e-21  1.4037e-24  6.6927e-21  1.4697e-24  6.6935e-21  1.5874e-24  6.6949e-21  1.7975e-24  6.6974e-21  2.1735e-24  6.7017e-21  2.8497e-24  6.7095e-21  4.0686e-24  6.7236e-21  6.2321e-24  6.7490e-21  1.0131e-23  6.7935e-21  1.7232e-23  6.8725e-21  3.0394e-23  7.0139e-21  5.5535e-23  7.2696e-21  1.0596e-22  7.7380e-21  2.1475e-22  8.6183e-21
      5.45  1.2280e-24  7.5077e-21  1.2313e-24  7.5078e-21  1.2374e-24  7.5079e-21  1.2480e-24  7.5080e-21  1.2671e-24  7.5083e-21  1.3009e-24  7.5088e-21  1.3611e-24  7.5096e-21  1.4685e-24  7.5112e-21  1.6600e-24  7.5139e-21  2.0028e-24  7.5187e-21  2.6191e-24  7.5274e-21  3.7254e-24  7.5432e-21  5.6934e-24  7.5714e-21  9.2396e-24  7.6207e-21  1.5694e-23  7.7082e-21  2.7651e-23  7.8649e-21  5.0472e-23  8.1475e-21  9.6214e-23  8.6645e-21  1.9506e-22  9.6333e-21
      5.50  1.1406e-24  8.4230e-21  1.1437e-24  8.4231e-21  1.1491e-24  8.4232e-21  1.1589e-24  8.4234e-21  1.1761e-24  8.4237e-21  1.2069e-24  8.4242e-21  1.2616e-24  8.4251e-21  1.3591e-24  8.4268e-21  1.5331e-24  8.4299e-21  1.8444e-24  8.4352e-21  2.4037e-24  8.4448e-21  3.4038e-24  8.4627e-21  5.1866e-24  8.4940e-21  8.3978e-24  8.5487e-21  1.4239e-23  8.6456e-21  2.5048e-23  8.8189e-21  4.5642e-23  9.1313e-21  8.6838e-23  9.7011e-21  1.7577e-22  1.0765e-20
      5.55  1.0619e-24  9.4498e-21  1.0647e-24  9.4499e-21  1.0697e-24  9.4500e-21  1.0785e-24  9.4502e-21  1.0941e-24  9.4505e-21  1.1220e-24  9.4511e-21  1.1716e-24  9.4522e-21  1.2600e-24  9.4540e-21  1.4177e-24  9.4574e-21  1.6996e-24  9.4633e-21  2.2058e-24  9.4740e-21  3.1078e-24  9.4942e-21  4.7187e-24  9.5289e-21  7.6188e-24  9.5894e-21  1.2889e-23  9.6966e-21  2.2627e-23  9.8881e-21  4.1135e-23  1.0233e-20  7.8026e-23  1.0859e-20  1.5736e-22  1.2024e-20
      5.60  9.9195e-25  1.0602e-20  9.9447e-25  1.0602e-20  9.9896e-25  1.0602e-20  1.0069e-24  1.0602e-20  1.0211e-24  1.0602e-20  1.0464e-24  1.0603e-20  1.0913e-24  1.0604e-20  1.1714e-24  1.0606e-20  1.3141e-24  1.0610e-20  1.5692e-24  1.0617e-20  2.0268e-24  1.0628e-20  2.8400e-24  1.0651e-20  4.2944e-24  1.0690e-20  6.9112e-24  1.0757e-20  1.1662e-23  1.0875e-20  2.0423e-23  1.1087e-20  3.7023e-23  1.1467e-20  6.9950e-23  1.2156e-20  1.4030e-22  1.3430e-20
      5.65  9.3046e-25  1.1894e-20  9.3275e-25  1.1894e-20  9.3682e-25  1.1894e-20  9.4405e-25  1.1894e-20  9.5691e-25  1.1895e-20  9.7980e-25  1.1895e-20  1.0205e-24  1.1897e-20  1.0930e-24  1.1899e-20  1.2223e-24  1.1903e-20  1.4533e-24  1.1910e-20  1.8667e-24  1.1924e-20  2.6012e-24  1.1950e-20  3.9155e-24  1.1993e-20  6.2784e-24  1.2067e-20  1.0563e-23  1.2198e-20  1.8450e-23  1.2432e-20  3.3344e-23  1.2851e-20  6.2718e-23  1.3610e-20  1.2493e-22  1.5005e-20
      5.70  8.7695e-25  1.3343e-20  8.7903e-25  1.3343e-20  8.8272e-25  1.3343e-20  8.8929e-25  1.3343e-20  9.0097e-25  1.3344e-20  9.2175e-25  1.3345e-20  9.5872e-25  1.3346e-20  1.0245e-24  1.3349e-20  1.1419e-24  1.3353e-20  1.3513e-24  1.3361e-20  1.7252e-24  1.3377e-20  2.3906e-24  1.3406e-20  3.5806e-24  1.3454e-20  5.7190e-24  1.3536e-20  9.5926e-24  1.3682e-20  1.6709e-23  1.3941e-20  3.0101e-23  1.4404e-20  5.6359e-23  1.5241e-20  1.1142e-22  1.6770e-20
      5.75  8.3073e-25  1.4968e-20  8.3262e-25  1.4969e-20  8.3598e-25  1.4969e-20  8.4196e-25  1.4969e-20  8.5259e-25  1.4970e-20  8.7150e-25  1.4970e-20  9.0515e-25  1.4972e-20  9.6504e-25  1.4975e-20  1.0717e-24  1.4980e-20  1.2621e-24  1.4989e-20  1.6014e-24  1.5008e-20  2.2058e-24  1.5041e-20  3.2863e-24  1.5094e-20  5.2269e-24  1.5185e-20  8.7391e-24  1.5347e-20  1.5181e-23  1.5634e-20  2.7268e-23  1.6147e-20  5.0836e-23  1.7071e-20  9.9771e-23  1.8784e-20
      5.80  7.9101e-25  1.6792e-20  7.9273e-25  1.6792e-20  7.9580e-25  1.6792e-20  8.0126e-25  1.6792e-20  8.1096e-25  1.6793e-20  8.2822e-25  1.6794e-20  8.5892e-25  1.6796e-20  9.1357e-25  1.6799e-20  1.0109e-24  1.6804e-20  1.1845e-24  1.6814e-20  1.4935e-24  1.6839e-20  2.0443e-24  1.6875e-20  3.0287e-24  1.6934e-20  4.7960e-24  1.7035e-20  7.9919e-24  1.7215e-20  1.3845e-23  1.7534e-20  2.4801e-23  1.8111e-20  4.6063e-23  1.9141e-20  8.9829e-23  2.1010e-20
      5.85  7.5701e-25  1.8836e-20  7.5859e-25  1.8837e-20  7.6139e-25  1.8837e-20  7.6639e-25  1.8837e-20  7.7527e-25  1.8838e-20  7.9107e-25  1.8839e-20  8.1918e-25  1.8841e-20  8.6920e-25  1.8844e-20  9.5827e-25  1.8851e-20  1.1170e-24  1.8863e-20  1.3997e-24  1.8892e-20  1.9033e-24  1.8933e-20  2.8035e-24  1.8999e-20  4.4188e-24  1.9113e-20  7.3382e-24  1.9313e-20  1.2680e-23  1.9670e-20  2.2657e-23  2.0306e-20  4.1950e-23  2.1447e-20  8.1376e-23  2.3510e-20
      5.90  7.2796e-25  2.1130e-20  7.2941e-25  2.1130e-20  7.3199e-25  2.1130e-20  7.3658e-25  2.1130e-20  7.4474e-25  2.1131e-20  7.5926e-25  2.1132e-20  7.8508e-25  2.1134e-20  8.3104e-25  2.1138e-20  9.1284e-25  2.1145e-20  1.0587e-24  2.1163e-20  1.3182e-24  2.1196e-20  1.7807e-24  2.1242e-20  2.6071e-24  2.1315e-20  4.0896e-24  2.1442e-20  6.7679e-24  2.1666e-20  1.1664e-23  2.2062e-20  2.0797e-23  2.2770e-20  3.8409e-23  2.4036e-20  7.4201e-23  2.6320e-20
      5.95  7.0315e-25  2.3701e-20  7.0449e-25  2.3701e-20  7.0688e-25  2.3701e-20  7.1111e-25  2.3702e-20  7.1865e-25  2.3702e-20  7.3205e-25  2.3704e-20  7.5589e-25  2.3706e-20  7.9830e-25  2.3711e-20  8.7381e-25  2.3719e-20  1.0085e-24  2.3744e-20  1.2480e-24  2.3781e-20  1.6748e-24  2.3832e-20  2.4372e-24  2.3914e-20  3.8046e-24  2.4056e-20  6.2741e-24  2.4305e-20  1.0786e-23  2.4747e-20  1.9192e-23  2.5535e-20  3.5369e-23  2.6944e-20  6.8116e-23  2.9477e-20
      6.00  6.8196e-25  2.6584e-20  6.8321e-25  2.6584e-20  6.8542e-25  2.6584e-20  6.8936e-25  2.6585e-20  6.9636e-25  2.6586e-20  7.0881e-25  2.6587e-20  7.3095e-25  2.6590e-20  7.7035e-25  2.6595e-20  8.4047e-25  2.6604e-20  9.6568e-25  2.6639e-20  1.1882e-24  2.6681e-20  1.5845e-24  2.6739e-20  2.2923e-24  2.6831e-20  3.5617e-24  2.6989e-20  5.8532e-24  2.7267e-20  1.0037e-23  2.7760e-20  1.7824e-23  2.8639e-20  3.2783e-23  3.0208e-20  6.2975e-23  3.3024e-20
      6.05  6.6383e-25  2.9816e-20  6.6500e-25  2.9816e-20  6.6707e-25  2.9817e-20  6.7076e-25  2.9817e-20  6.7731e-25  2.9818e-20  6.8896e-25  2.9820e-20  7.0969e-25  2.9823e-20  7.4658e-25  2.9829e-20  8.1227e-25  2.9840e-20  9.2965e-25  2.9888e-20  1.1380e-24  2.9935e-20  1.5089e-24  3.0000e-20  2.1714e-24  3.0103e-20  3.3592e-24  3.0280e-20  5.5025e-24  3.0591e-20  9.4129e-24  3.1142e-20  1.6683e-23  3.2123e-20  3.0623e-23  3.3874e-20  5.8682e-23  3.7010e-20
      6.10  6.4830e-25  3.3440e-20  6.4940e-25  3.3440e-20  6.5135e-25  3.3440e-20  6.5484e-25  3.3441e-20  6.6103e-25  3.3442e-20  6.7203e-25  3.3444e-20  6.9162e-25  3.3447e-20  7.2646e-25  3.3453e-20  7.8871e-25  3.3479e-20  8.9963e-25  3.3533e-20  1.0964e-24  3.3587e-20  1.4468e-24  3.3659e-20  2.0725e-24  3.3775e-20  3.1939e-24  3.3973e-20  5.2165e-24  3.4320e-20  8.9041e-24  3.4937e-20  1.5751e-23  3.6034e-20  2.8854e-23  3.7989e-20  5.5146e-23  4.1488e-20
      6.15  6.3495e-25  3.7501e-20  6.3600e-25  3.7501e-20  6.3786e-25  3.7501e-20  6.4118e-25  3.7502e-20  6.4708e-25  3.7503e-20  6.5757e-25  3.7506e-20  6.7623e-25  3.7509e-20  7.0944e-25  3.7516e-20  7.6902e-25  3.7561e-20  8.7478e-25  3.7622e-20  1.0623e-24  3.7683e-20  1.3963e-24  3.7765e-20  1.9924e-24  3.7895e-20  3.0606e-24  3.8116e-20  4.9866e-24  3.8506e-20  8.4951e-24  3.9196e-20  1.5001e-23  4.0423e-20  2.7424e-23  4.2610e-20  5.2261e-23  4.6518e-20
      6.20  6.2344e-25  4.2052e-20  6.2445e-25  4.2052e-20  6.2624e-25  4.2053e-20  6.2942e-25  4.2054e-20  6.3509e-25  4.2055e-20  6.4517e-25  4.2057e-20  6.6309e-25  4.2062e-20  6.9497e-25  4.2069e-20  7.5250e-25  4.2140e-20  8.5409e-25  4.2211e-20  1.0342e-24  4.2280e-20  1.3549e-24  4.2372e-20  1.9272e-24  4.2517e-20  2.9526e-24  4.2766e-20  4.8004e-24  4.3202e-20  8.1641e-24  4.3975e-20  1.4393e-23  4.5350e-20  2.6259e-23  4.7798e-20  4.9884e-23  5.2168e-20
      6.25  6.1348e-25  4.7152e-20  6.1445e-25  4.7152e-20  6.1618e-25  4.7153e-20  6.1926e-25  4.7153e-20  6.2473e-25  4.7155e-20  6.3445e-25  4.7158e-20  6.5175e-25  4.7162e-20  6.8253e-25  4.7171e-20  7.3842e-25  4.7279e-20  8.3653e-25  4.7359e-20  1.0104e-24  4.7438e-20  1.3199e-24  4.7541e-20  1.8723e-24  4.7704e-20  2.8616e-24  4.7983e-20  4.6437e-24  4.8472e-20  7.8852e-24  4.9339e-20  1.3880e-23  5.0879e-20  2.5269e-23  5.3622e-20  4.7845e-23  5.8514e-20
      6.30  6.0482e-25  5.2865e-20  6.0576e-25  5.2865e-20  6.0743e-25  5.2866e-20  6.1041e-25  5.2867e-20  6.1570e-25  5.2868e-20  6.2511e-25  5.2871e-20  6.4184e-25  5.2877e-20  6.7195e-25  5.2919e-20  7.2608e-25  5.3044e-20  8.2101e-25  5.3135e-20  9.8923e-25  5.3224e-20  1.2886e-24  5.3341e-20  1.8227e-24  5.3524e-20  2.7792e-24  5.3837e-20  4.5012e-24  5.4386e-20  7.6309e-24  5.5358e-20  1.3410e-23  5.7086e-20  2.4360e-23  6.0160e-20  4.5957e-23  6.5642e-20
      6.35  5.9724e-25  5.9264e-20  5.9815e-25  5.9264e-20  5.9977e-25  5.9265e-20  6.0264e-25  5.9266e-20  6.0775e-25  5.9268e-20  6.1684e-25  5.9271e-20  6.3299e-25  5.9277e-20  6.6249e-25  5.9368e-20  7.1484e-25  5.9511e-20  8.0656e-25  5.9616e-20  9.6903e-25  5.9717e-20  1.2581e-24  5.9848e-20  1.7738e-24  6.0054e-20  2.6969e-24  6.0405e-20  4.3581e-24  6.1022e-20  7.3744e-24  6.2113e-20  1.2935e-23  6.4052e-20  2.3438e-23  6.7501e-20  4.4044e-23  7.3647e-20
      6.40  5.9058e-25  6.6429e-20  5.9145e-25  6.6429e-20  5.9300e-25  6.6430e-20  5.9577e-25  6.6431e-20  6.0068e-25  6.6433e-20  6.0940e-25  6.6437e-20  6.2491e-25  6.6444e-20  6.5377e-25  6.6602e-20  7.0416e-25  6.6767e-20  7.9233e-25  6.6887e-20  9.4847e-25  6.7001e-20  1.2262e-24  6.7149e-20  1.7216e-24  6.7381e-20  2.6081e-24  6.7776e-20  4.2024e-24  6.8468e-20  7.0941e-24  6.9693e-20  1.2415e-23  7.1870e-20  2.2433e-23  7.5741e-20  4.1972e-23  8.2637e-20
      6.45  5.8467e-25  7.4450e-20  5.8550e-25  7.4451e-20  5.8698e-25  7.4451e-20  5.8961e-25  7.4453e-20  5.9430e-25  7.4455e-20  6.0261e-25  7.4459e-20  6.1739e-25  7.4467e-20  6.4550e-25  7.4715e-20  6.9364e-25  7.4906e-20  7.7777e-25  7.5044e-20  9.2668e-25  7.5174e-20  1.1915e-24  7.5341e-20  1.6637e-24  7.5602e-20  2.5084e-24  7.6046e-20  4.0265e-24  7.6823e-20  6.7769e-24  7.8200e-20  1.1827e-23  8.0644e-20  2.1303e-23  8.4991e-20  3.9671e-23  9.2732e-20
      6.50  5.7938e-25  8.3427e-20  5.8016e-25  8.3428e-20  5.8156e-25  8.3428e-20  5.8405e-25  8.3430e-20  5.8846e-25  8.3433e-20  5.9630e-25  8.3438e-20  6.1029e-25  8.3454e-20  6.3746e-25  8.3813e-20  6.8300e-25  8.4035e-20  7.6244e-25  8.4194e-20  9.0296e-25  8.4343e-20  1.1528e-24  8.4532e-20  1.5982e-24  8.4826e-20  2.3945e-24  8.5325e-20  3.8247e-24  8.6199e-20  6.4127e-24  8.7746e-20  1.1155e-23  9.0492e-20  2.0019e-23  9.5376e-20  3.7093e-23  1.0407e-19
      6.55  5.7460e-25  9.3470e-20  5.7533e-25  9.3471e-20  5.7663e-25  9.3472e-20  5.7895e-25  9.3474e-20  5.8306e-25  9.3477e-20  5.9036e-25  9.3482e-20  6.0392e-25  9.3590e-20  6.2950e-25  9.4013e-20  6.7209e-25  9.4273e-20  7.4620e-25  9.4458e-20  8.7716e-25  9.4629e-20  1.1099e-24  9.4844e-20  1.5247e-24  9.5176e-20  2.2661e-24  9.5737e-20  3.5966e-24  9.6720e-20  6.0010e-24  9.8458e-20  1.0397e-23  1.0154e-19  1.8583e-23  1.0703e-19  3.4252e-23  1.1680e-19
      6.60  5.7023e-25  1.0470e-19  5.7091e-25  1.0470e-19  5.7210e-25  1.0470e-19  5.7422e-25  1.0471e-19  5.7799e-25  1.0471e-19  5.8469e-25  1.0472e-19  5.9773e-25  1.0494e-19  6.2158e-25  1.0544e-19  6.6089e-25  1.0575e-19  7.2906e-25  1.0597e-19  8.4939e-25  1.0617e-19  1.0631e-24  1.0641e-19  1.4439e-24  1.0679e-19  2.1242e-24  1.0742e-19  3.3442e-24  1.0852e-19  5.5461e-24  1.1048e-19  9.5628e-24  1.1395e-19  1.7015e-23  1.2012e-19  3.1189e-23  1.3110e-19
      6.65  5.6620e-25  1.1726e-19  5.6680e-25  1.1726e-19  5.6788e-25  1.1726e-19  5.6980e-25  1.1726e-19  5.7320e-25  1.1727e-19  5.7925e-25  1.1727e-19  5.9166e-25  1.1763e-19  6.1368e-25  1.1825e-19  6.4948e-25  1.1862e-19  7.1125e-25  1.1888e-19  8.2010e-25  1.1911e-19  1.0133e-24  1.1939e-19  1.3574e-24  1.1982e-19  1.9718e-24  1.2053e-19  3.0729e-24  1.2177e-19  5.0576e-24  1.2397e-19  8.6701e-24  1.2787e-19  1.5347e-23  1.3481e-19  2.7971e-23  1.4715e-19
      6.70  5.6241e-25  1.3129e-19  5.6295e-25  1.3129e-19  5.6391e-25  1.3129e-19  5.6561e-25  1.3129e-19  5.6863e-25  1.3130e-19  5.7399e-25  1.3130e-19  5.8564e-25  1.3181e-19  6.0582e-25  1.3258e-19  6.3798e-25  1.3304e-19  6.9306e-25  1.3335e-19  7.8987e-25  1.3363e-19  9.6158e-25  1.3395e-19  1.2672e-24  1.3443e-19  1.8127e-24  1.3523e-19  2.7895e-24  1.3663e-19  4.5478e-24  1.3911e-19  7.7410e-24  1.4349e-19  1.3621e-23  1.5129e-19  2.4670e-23  1.6517e-19
      6.75  5.5882e-25  1.4695e-19  5.5928e-25  1.4695e-19  5.6012e-25  1.4695e-19  5.6160e-25  1.4696e-19  5.6423e-25  1.4696e-19  5.6890e-25  1.4697e-19  5.7961e-25  1.4762e-19  5.9806e-25  1.4859e-19  6.2662e-25  1.4918e-19  6.7499e-25  1.4957e-19  7.5969e-25  1.4990e-19  9.0970e-25  1.5028e-19  1.1766e-24  1.5083e-19  1.6526e-24  1.5173e-19  2.5042e-24  1.5331e-19  4.0352e-24  1.5609e-19  6.8090e-24  1.6103e-19  1.1896e-23  1.6980e-19  2.1397e-23  1.8541e-19
      6.80  5.5534e-25  1.6444e-19  5.5574e-25  1.6444e-19  5.5646e-25  1.6444e-19  5.5773e-25  1.6444e-19  5.5998e-25  1.6445e-19  5.6398e-25  1.6446e-19  5.7406e-25  1.6535e-19  5.9082e-25  1.6656e-19  6.1588e-25  1.6729e-19  6.5775e-25  1.6777e-19  7.3071e-25  1.6817e-19  8.5973e-25  1.6860e-19  1.0891e-24  1.6922e-19  1.4979e-24  1.7025e-19  2.2288e-24  1.7202e-19  3.5409e-24  1.7516e-19  5.9122e-24  1.8071e-19  1.0244e-23  1.9058e-19  1.8280e-23  2.0813e-19
      6.85  5.5194e-25  1.8393e-19  5.5228e-25  1.8393e-19  5.5288e-25  1.8394e-19  5.5395e-25  1.8394e-19  5.5586e-25  1.8394e-19  5.5924e-25  1.8396e-19  5.6879e-25  1.8515e-19  5.8408e-25  1.8667e-19  6.0595e-25  1.8758e-19  6.4181e-25  1.8818e-19  7.0390e-25  1.8865e-19  8.1345e-25  1.8915e-19  1.0080e-24  1.8986e-19  1.3546e-24  1.9102e-19  1.9737e-24  1.9302e-19  3.0834e-24  1.9655e-19  5.0841e-24  2.0280e-19  8.7237e-24  2.1390e-19  1.5432e-23  2.3365e-19
      6.90  5.4855e-25  2.0566e-19  5.4883e-25  2.0566e-19  5.4934e-25  2.0566e-19  5.5023e-25  2.0566e-19  5.5183e-25  2.0567e-19  5.5466e-25  2.0568e-19  5.6383e-25  2.0725e-19  5.7791e-25  2.0916e-19  5.9701e-25  2.1030e-19  6.2757e-25  2.1104e-19  6.8000e-25  2.1161e-19  7.7223e-25  2.1220e-19  9.3583e-25  2.1302e-19  1.2271e-24  2.1433e-19  1.7468e-24  2.1658e-19  2.6771e-24  2.2055e-19  4.3503e-24  2.2759e-19  7.3821e-24  2.4009e-19  1.2934e-23  2.6231e-19
      6.95  5.4512e-25  2.2984e-19  5.4535e-25  2.2985e-19  5.4577e-25  2.2985e-19  5.4652e-25  2.2985e-19  5.4785e-25  2.2986e-19  5.5021e-25  2.2987e-19  5.5844e-25  2.3159e-19  5.7194e-25  2.3413e-19  5.8892e-25  2.3564e-19  6.1508e-25  2.3660e-19  6.5932e-25  2.3733e-19  7.3673e-25  2.3804e-19  8.7379e-25  2.3898e-19  1.1176e-24  2.4047e-19  1.5523e-24  2.4302e-19  2.3294e-24  2.4749e-19  3.7241e-24  2.5541e-19  6.2424e-24  2.6948e-19  1.0828e-23  2.9450e-19
      7.00  5.4159e-25  2.5674e-19  5.4179e-25  2.5674e-19  5.4213e-25  2.5674e-19  5.4276e-25  2.5675e-19  5.4386e-25  2.5676e-19  5.4582e-25  2.5677e-19  5.5300e-25  2.5854e-19  5.6640e-25  2.6194e-19  5.8181e-25  2.6396e-19  6.0440e-25  2.6522e-19  6.4180e-25  2.6614e-19  7.0679e-25  2.6700e-19  8.2160e-25  2.6810e-19  1.0256e-24  2.6980e-19  1.3891e-24  2.7268e-19  2.0382e-24  2.7772e-19  3.2016e-24  2.8664e-19  5.2965e-24  3.0249e-19  9.0947e-24  3.3067e-19
      7.05  5.3905e-25  2.8723e-19  5.3922e-25  2.8723e-19  5.3951e-25  2.8723e-19  5.4002e-25  2.8724e-19  5.4094e-25  2.8725e-19  5.4257e-25  2.8727e-19  5.4670e-25  2.8794e-19  5.6068e-25  2.9264e-19  5.7518e-25  2.9543e-19  5.9498e-25  2.9715e-19  6.2676e-25  2.9836e-19  6.8135e-25  2.9944e-19  7.7741e-25  3.0074e-19  9.4785e-25  3.0268e-19  1.2514e-24  3.0595e-19  1.7931e-24  3.1164e-19  2.7629e-24  3.2169e-19  4.5065e-24  3.3954e-19  7.6603e-24  3.7126e-19
      7.10  5.3821e-25  3.2228e-19  5.3834e-25  3.2228e-19  5.3858e-25  3.2228e-19  5.3901e-25  3.2229e-19  5.3977e-25  3.2230e-19  5.4113e-25  3.2232e-19  5.4353e-25  3.2235e-19  5.5458e-25  3.2643e-19  5.6878e-25  3.3035e-19  5.8646e-25  3.3276e-19  6.1357e-25  3.3439e-19  6.5929e-25  3.3576e-19  7.3926e-25  3.3731e-19  8.8088e-25  3.3956e-19  1.1329e-24  3.4327e-19  1.5824e-24  3.4969e-19  2.3869e-24  3.6103e-19  3.8323e-24  3.8113e-19  6.4435e-24  4.1686e-19
      7.15  5.3747e-25  3.6160e-19  5.3758e-25  3.6160e-19  5.3778e-25  3.6161e-19  5.3813e-25  3.6161e-19  5.3875e-25  3.6162e-19  5.3986e-25  3.6165e-19  5.4184e-25  3.6168e-19  5.4774e-25  3.6335e-19  5.6224e-25  3.6892e-19  5.7842e-25  3.7232e-19  6.0163e-25  3.7457e-19  6.3970e-25  3.7636e-19  7.0563e-25  3.7826e-19  8.2201e-25  3.8088e-19  1.0288e-24  3.8511e-19  1.3978e-24  3.9238e-19  2.0578e-24  4.0516e-19  3.2435e-24  4.2781e-19  5.3849e-24  4.6805e-19
      7.20  5.3683e-25  4.0572e-19  5.3692e-25  4.0572e-19  5.3708e-25  4.0573e-19  5.3736e-25  4.0573e-19  5.3787e-25  4.0575e-19  5.3877e-25  4.0577e-19  5.4036e-25  4.0582e-19  5.4320e-25  4.0589e-19  5.5488e-25  4.1097e-19  5.7047e-25  4.1600e-19  5.9070e-25  4.1924e-19  6.2237e-25  4.2168e-19  6.7625e-25  4.2406e-19  7.7078e-25  4.2716e-19  9.3849e-25  4.3201e-19  1.2375e-24  4.4025e-19  1.7723e-24  4.5467e-19  2.7329e-24  4.8018e-19  4.4677e-24  5.2549e-19
      7.25  5.3627e-25  4.5522e-19  5.3634e-25  4.5523e-19  5.3647e-25  4.5523e-19  5.3670e-25  4.5524e-19  5.3711e-25  4.5526e-19  5.3783e-25  4.5528e-19  5.3912e-25  4.5533e-19  5.4140e-25  4.5542e-19  5.4722e-25  4.5705e-19  5.6292e-25  4.6435e-19  5.8107e-25  4.6898e-19  6.0767e-25  4.7233e-19  6.5166e-25  4.7536e-19  7.2811e-25  4.7904e-19  8.6332e-25  4.8461e-19  1.1041e-24  4.9394e-19  1.5348e-24  5.1020e-19  2.3080e-24  5.3893e-19  3.7040e-24  5.8993e-19
      7.30  5.3579e-25  5.1077e-19  5.3585e-25  5.1077e-19  5.3595e-25  5.1078e-19  5.3614e-25  5.1079e-19  5.3646e-25  5.1081e-19  5.3705e-25  5.1084e-19  5.3808e-25  5.1089e-19  5.3993e-25  5.1099e-19  5.4320e-25  5.1116e-19  5.5572e-25  5.1774e-19  5.7278e-25  5.2435e-19  5.9560e-25  5.2887e-19  6.3191e-25  5.3272e-19  6.9413e-25  5.3713e-19  8.0370e-25  5.4354e-19  9.9855e-25  5.5413e-19  1.3468e-24  5.7247e-19  1.9718e-24  6.0482e-19  3.0994e-24  6.6218e-19
      7.35  5.3537e-25  5.7309e-19  5.3542e-25  5.7310e-19  5.3550e-25  5.7310e-19  5.3565e-25  5.7311e-19  5.3592e-25  5.7313e-19  5.3640e-25  5.7317e-19  5.3724e-25  5.7323e-19  5.3875e-25  5.7334e-19  5.4143e-25  5.7354e-19  5.4861e-25  5.7643e-19  5.6543e-25  5.8571e-19  5.8576e-25  5.9187e-19  6.1642e-25  5.9683e-19  6.6792e-25  6.0217e-19  7.5796e-25  6.0960e-19  9.1774e-25  6.2162e-19  1.2031e-24  6.4231e-19  1.7149e-24  6.7871e-19  2.6377e-24  7.4321e-19
      7.40  5.3501e-25  6.4302e-19  5.3505e-25  6.4302e-19  5.3512e-25  6.4303e-19  5.3524e-25  6.4304e-19  5.3547e-25  6.4306e-19  5.3586e-25  6.4310e-19  5.3657e-25  6.4317e-19  5.3782e-25  6.4330e-19  5.4004e-25  6.4352e-19  5.4400e-25  6.4391e-19  5.6004e-25  6.5518e-19  5.7860e-25  6.6314e-19  6.0500e-25  6.6923e-19  6.4831e-25  6.7545e-19  7.2352e-25  6.8391e-19  8.5672e-25  6.9746e-19  1.0945e-24  7.2073e-19  1.5208e-24  7.6163e-19  2.2891e-24  8.3411e-19
      7.45  5.3470e-25  7.2148e-19  5.3473e-25  7.2148e-19  5.3479e-25  7.2149e-19  5.3489e-25  7.2150e-19  5.3508e-25  7.2153e-19  5.3542e-25  7.2157e-19  5.3601e-25  7.2165e-19  5.3707e-25  7.2179e-19  5.3895e-25  7.2204e-19  5.4230e-25  7.2248e-19  5.5690e-25  7.3469e-19  5.7360e-25  7.4381e-19  5.9652e-25  7.5075e-19  6.3353e-25  7.5780e-19  6.9746e-25  7.6733e-19  8.1055e-25  7.8257e-19  1.0123e-24  8.0871e-19  1.3740e-24  8.5467e-19  2.0255e-24  9.3608e-19
      7.50  5.3442e-25  8.0951e-19  5.3445e-25  8.0952e-19  5.3450e-25  8.0952e-19  5.3460e-25  8.0954e-19  5.3476e-25  8.0957e-19  5.3505e-25  8.0962e-19  5.3556e-25  8.0971e-19  5.3647e-25  8.0986e-19  5.3809e-25  8.1014e-19  5.4098e-25  8.1063e-19  5.5439e-25  8.2383e-19  5.6971e-25  8.3428e-19  5.9001e-25  8.4220e-19  6.2224e-25  8.5018e-19  6.7762e-25  8.6092e-19  7.7544e-25  8.7806e-19  9.4998e-25  9.0743e-19  1.2629e-24  9.5904e-19  1.8263e-24  1.0505e-18
      7.55  5.3419e-25  9.0829e-19  5.3421e-25  9.0829e-19  5.3426e-25  9.0830e-19  5.3434e-25  9.0832e-19  5.3448e-25  9.0835e-19  5.3473e-25  9.0841e-19  5.3518e-25  9.0850e-19  5.3598e-25  9.0868e-19  5.3740e-25  9.0899e-19  5.3994e-25  9.0954e-19  5.5231e-25  9.2372e-19  5.6662e-25  9.3572e-19  5.8490e-25  9.4476e-19  6.1342e-25  9.5381e-19  6.6210e-25  9.6592e-19  7.4796e-25  9.8519e-19  9.0110e-25  1.0182e-18  1.1756e-24  1.0761e-18  1.6701e-24  1.1788e-18
      7.60  5.3398e-25  1.0191e-18  5.3401e-25  1.0191e-18  5.3405e-25  1.0191e-18  5.3412e-25  1.0191e-18  5.3424e-25  1.0192e-18  5.3447e-25  1.0192e-18  5.3487e-25  1.0194e-18  5.3558e-25  1.0196e-18  5.3684e-25  1.0199e-18  5.3909e-25  1.0205e-18  5.5051e-25  1.0356e-18  5.6407e-25  1.0494e-18  5.8080e-25  1.0598e-18  6.0640e-25  1.0700e-18  6.4979e-25  1.0837e-18  7.2614e-25  1.1054e-18  8.6227e-25  1.1424e-18  1.1063e-24  1.2075e-18  1.5457e-24  1.3228e-18
      7.65  5.3381e-25  1.1435e-18  5.3383e-25  1.1435e-18  5.3386e-25  1.1435e-18  5.3393e-25  1.1435e-18  5.3404e-25  1.1435e-18  5.3424e-25  1.1436e-18  5.3460e-25  1.1437e-18  5.3524e-25  1.1440e-18  5.3637e-25  1.1443e-18  5.3840e-25  1.1450e-18  5.4885e-25  1.1608e-18  5.6190e-25  1.1768e-18  5.7741e-25  1.1887e-18  6.0069e-25  1.2004e-18  6.3980e-25  1.2158e-18  7.0844e-25  1.2402e-18  8.3075e-25  1.2818e-18  1.0500e-24  1.3549e-18  1.4447e-24  1.4843e-18
      7.70  5.3365e-25  1.2830e-18  5.3367e-25  1.2830e-18  5.3370e-25  1.2830e-18  5.3376e-25  1.2830e-18  5.3386e-25  1.2831e-18  5.3405e-25  1.2832e-18  5.3437e-25  1.2833e-18  5.3495e-25  1.2835e-18  5.3598e-25  1.2840e-18  5.3782e-25  1.2848e-18  5.4723e-25  1.3008e-18  5.5995e-25  1.3195e-18  5.7452e-25  1.3332e-18  5.9590e-25  1.3466e-18  6.3148e-25  1.3640e-18  6.9373e-25  1.3915e-18  8.0454e-25  1.4382e-18  1.0031e-24  1.5203e-18  1.3607e-24  1.6655e-18
      7.75  5.3352e-25  1.4395e-18  5.3354e-25  1.4395e-18  5.3357e-25  1.4396e-18  5.3362e-25  1.4396e-18  5.3371e-25  1.4396e-18  5.3388e-25  1.4397e-18  5.3418e-25  1.4399e-18  5.3470e-25  1.4402e-18  5.3564e-25  1.4406e-18  5.3732e-25  1.4415e-18  5.4553e-25  1.4571e-18  5.5810e-25  1.4791e-18  5.7195e-25  1.4951e-18  5.9176e-25  1.5104e-18  6.2436e-25  1.5302e-18  6.8117e-25  1.5611e-18  7.8216e-25  1.6137e-18  9.6312e-25  1.7058e-18  1.2889e-24  1.8689e-18
      7.80  5.3340e-25  1.6152e-18  5.3342e-25  1.6152e-18  5.3345e-25  1.6152e-18  5.3349e-25  1.6152e-18  5.3358e-25  1.6153e-18  5.3373e-25  1.6154e-18  5.3401e-25  1.6156e-18  5.3449e-25  1.6159e-18  5.3535e-25  1.6164e-18  5.3688e-25  1.6174e-18  5.4363e-25  1.6312e-18  5.5625e-25  1.6574e-18  5.6957e-25  1.6763e-18  5.8806e-25  1.6941e-18  6.1810e-25  1.7166e-18  6.7017e-25  1.7514e-18  7.6257e-25  1.8105e-18  9.2807e-25  1.9140e-18  1.2260e-24  2.0971e-18
      7.85  5.3330e-25  1.8123e-18  5.3332e-25  1.8123e-18  5.3334e-25  1.8123e-18  5.3339e-25  1.8123e-18  5.3347e-25  1.8124e-18  5.3361e-25  1.8125e-18  5.3386e-25  1.8127e-18  5.3430e-25  1.8130e-18  5.3509e-25  1.8137e-18  5.3650e-25  1.8148e-18  5.4166e-25  1.8257e-18  5.5444e-25  1.8571e-18  5.6735e-25  1.8794e-18  5.8471e-25  1.8999e-18  6.1248e-25  1.9255e-18  6.6031e-25  1.9649e-18  7.4504e-25  2.0313e-18  8.9668e-25  2.1475e-18  1.1696e-24  2.3531e-18
      7.90  5.3322e-25  2.0334e-18  5.3323e-25  2.0334e-18  5.3325e-25  2.0334e-18  5.3329e-25  2.0335e-18  5.3337e-25  2.0335e-18  5.3349e-25  2.0337e-18  5.3372e-25  2.0339e-18  5.3413e-25  2.0343e-18  5.3486e-25  2.0350e-18  5.3615e-25  2.0362e-18  5.3999e-25  2.0442e-18  5.5286e-25  2.0812e-18  5.6537e-25  2.1073e-18  5.8168e-25  2.1310e-18  6.0736e-25  2.1601e-18  6.5133e-25  2.2044e-18  7.2901e-25  2.2791e-18  8.6793e-25  2.4096e-18  1.1179e-24  2.6404e-18
      7.95  5.3314e-25  2.2815e-18  5.3315e-25  2.2815e-18  5.3317e-25  2.2815e-18  5.3321e-25  2.2816e-18  5.3328e-25  2.2817e-18  5.3340e-25  2.2818e-18  5.3361e-25  2.2820e-18  5.3398e-25  2.2825e-18  5.3465e-25  2.2833e-18  5.3583e-25  2.2847e-18  5.3807e-25  2.2877e-18  5.5118e-25  2.3317e-18  5.6342e-25  2.3625e-18  5.7881e-25  2.3899e-18  6.0259e-25  2.4230e-18  6.4301e-25  2.4731e-18  7.1419e-25  2.5571e-18  8.4130e-25  2.7037e-18  1.0698e-24  2.9628e-18
      8.00  5.3307e-25  2.5599e-18  5.3309e-25  2.5599e-18  5.3310e-25  2.5599e-18  5.3314e-25  2.5600e-18  5.3320e-25  2.5601e-18  5.3331e-25  2.5602e-18  5.3350e-25  2.5605e-18  5.3385e-25  2.5610e-18  5.3446e-25  2.5619e-18  5.3554e-25  2.5634e-18  5.3748e-25  2.5662e-18  5.4937e-25  2.6113e-18  5.6146e-25  2.6480e-18  5.7606e-25  2.6799e-18  5.9814e-25  2.7178e-18  6.3529e-25  2.7744e-18  7.0049e-25  2.8689e-18  8.1671e-25  3.0336e-18  1.0254e-24  3.3245e-18
      8.05  5.3302e-25  2.8722e-18  5.3303e-25  2.8722e-18  5.3305e-25  2.8723e-18  5.3308e-25  2.8723e-18  5.3313e-25  2.8724e-18  5.3323e-25  2.8726e-18  5.3341e-25  2.8729e-18  5.3372e-25  2.8735e-18  5.3428e-25  2.8745e-18  5.3528e-25  2.8762e-18  5.3706e-25  2.8794e-18  5.4736e-25  2.9231e-18  5.5946e-25  2.9672e-18  5.7342e-25  3.0047e-18  5.9397e-25  3.0482e-18  6.2816e-25  3.1122e-18  6.8789e-25  3.2186e-18  7.9412e-25  3.4037e-18  9.8463e-25  3.7303e-18
      8.10  5.3297e-25  3.2227e-18  5.3298e-25  3.2227e-18  5.3299e-25  3.2227e-18  5.3302e-25  3.2228e-18  5.3307e-25  3.2229e-18  5.3317e-25  3.2231e-18  5.3333e-25  3.2235e-18  5.3362e-25  3.2241e-18  5.3413e-25  3.2252e-18  5.3504e-25  3.2272e-18  5.3667e-25  3.2307e-18  5.4513e-25  3.2704e-18  5.5741e-25  3.3238e-18  5.7088e-25  3.3683e-18  5.9009e-25  3.4184e-18  6.2161e-25  3.4910e-18  6.7637e-25  3.6109e-18  7.7353e-25  3.8189e-18  9.4753e-25  4.1857e-18
      8.15  5.3293e-25  3.6159e-18  5.3293e-25  3.6159e-18  5.3295e-25  3.6160e-18  5.3298e-25  3.6160e-18  5.3302e-25  3.6162e-18  5.3311e-25  3.6164e-18  5.3326e-25  3.6168e-18  5.3352e-25  3.6175e-18  5.3399e-25  3.6187e-18  5.3483e-25  3.6210e-18  5.3632e-25  3.6249e-18  5.4264e-25  3.6566e-18  5.5528e-25  3.7220e-18  5.6843e-25  3.7751e-18  5.8650e-25  3.8331e-18  6.1565e-25  3.9157e-18  6.6596e-25  4.0508e-18  7.5497e-25  4.2846e-18  9.1409e-25  4.6965e-18
      8.20  5.3289e-25  4.0571e-18  5.3290e-25  4.0571e-18  5.3291e-25  4.0572e-18  5.3293e-25  4.0573e-18  5.3298e-25  4.0574e-18  5.3306e-25  4.0577e-18  5.3319e-25  4.0581e-18  5.3344e-25  4.0589e-18  5.3387e-25  4.0603e-18  5.3464e-25  4.0628e-18  5.3601e-25  4.0672e-18  5.3985e-25  4.0856e-18  5.5304e-25  4.1663e-18  5.6605e-25  4.2300e-18  5.8318e-25  4.2976e-18  6.1028e-25  4.3917e-18  6.5666e-25  4.5441e-18  7.3847e-25  4.8070e-18  8.8443e-25  5.2697e-18
      8.25  5.3286e-25  4.5522e-18  5.3286e-25  4.5522e-18  5.3288e-25  4.5522e-18  5.3290e-25  4.5523e-18  5.3294e-25  4.5525e-18  5.3301e-25  4.5528e-18  5.3314e-25  4.5533e-18  5.3336e-25  4.5541e-18  5.3376e-25  4.5557e-18  5.3447e-25  4.5585e-18  5.3574e-25  4.5635e-18  5.3800e-25  4.5723e-18  5.5068e-25  4.6615e-18  5.6373e-25  4.7386e-18  5.8014e-25  4.8177e-18  6.0547e-25  4.9251e-18  6.4844e-25  5.0973e-18  7.2394e-25  5.3929e-18  8.5840e-25  5.9126e-18
      8.30  5.3283e-25  5.1076e-18  5.3284e-25  5.1076e-18  5.3285e-25  5.1077e-18  5.3287e-25  5.1078e-18  5.3291e-25  5.1080e-18  5.3297e-25  5.1083e-18  5.3309e-25  5.1088e-18  5.3330e-25  5.1098e-18  5.3367e-25  5.1116e-18  5.3433e-25  5.1147e-18  5.3551e-25  5.1203e-18  5.3760e-25  5.1302e-18  5.4816e-25  5.2130e-18  5.6143e-25  5.3069e-18  5.7732e-25  5.3999e-18  6.0119e-25  5.5229e-18  6.4123e-25  5.7175e-18  7.1126e-25  6.0500e-18  8.3573e-25  6.6337e-18
      8.35  5.3281e-25  5.7308e-18  5.3281e-25  5.7309e-18  5.3282e-25  5.7309e-18  5.3284e-25  5.7310e-18  5.3288e-25  5.7312e-18  5.3294e-25  5.7316e-18  5.3305e-25  5.7322e-18  5.3324e-25  5.7333e-18  5.3359e-25  5.7353e-18  5.3420e-25  5.7388e-18  5.3530e-25  5.7451e-18  5.3725e-25  5.7562e-18  5.4545e-25  5.8266e-18  5.5914e-25  5.9415e-18  5.7471e-25  6.0513e-18  5.9738e-25  6.1925e-18  6.3492e-25  6.4128e-18  7.0026e-25  6.7870e-18  8.1613e-25  7.4427e-18
      8.40  5.3279e-25  6.4301e-18  5.3279e-25  6.4301e-18  5.3280e-25  6.4302e-18  5.3282e-25  6.4303e-18  5.3285e-25  6.4306e-18  5.3291e-25  6.4309e-18  5.3301e-25  6.4317e-18  5.3319e-25  6.4329e-18  5.3352e-25  6.4351e-18  5.3410e-25  6.4391e-18  5.3512e-25  6.4461e-18  5.3695e-25  6.4586e-18  5.4251e-25  6.5085e-18  5.5681e-25  6.6497e-18  5.7225e-25  6.7801e-18  5.9398e-25  6.9426e-18  6.2942e-25  7.1921e-18  6.9075e-25  7.6135e-18  7.9924e-25  8.3501e-18
      8.45  5.3277e-25  7.2147e-18  5.3277e-25  7.2147e-18  5.3278e-25  7.2148e-18  5.3280e-25  7.2150e-18  5.3283e-25  7.2152e-18  5.3288e-25  7.2156e-18  5.3298e-25  7.2164e-18  5.3315e-25  7.2178e-18  5.3346e-25  7.2203e-18  5.3400e-25  7.2248e-18  5.3497e-25  7.2326e-18  5.3669e-25  7.2467e-18  5.3975e-25  7.2716e-18  5.5441e-25  7.4396e-18  5.6991e-25  7.5950e-18  5.9093e-25  7.7827e-18  6.2462e-25  8.0657e-18  6.8254e-25  8.5402e-18  7.8474e-25  9.3679e-18
      8.50  5.3275e-25  8.0950e-18  5.3276e-25  8.0951e-18  5.3277e-25  8.0951e-18  5.3278e-25  8.0953e-18  5.3281e-25  8.0956e-18  5.3286e-25  8.0961e-18  5.3296e-25  8.0970e-18  5.3312e-25  8.0985e-18  5.3341e-25  8.1013e-18  5.3392e-25  8.1063e-18  5.3484e-25  8.1152e-18  5.3647e-25  8.1309e-18  5.3937e-25  8.1589e-18  5.5191e-25  8.3198e-18  5.6764e-25  8.5059e-18  5.8816e-25  8.7232e-18  6.2041e-25  9.0446e-18  6.7545e-25  9.5793e-18  7.7227e-25  1.0509e-17
