# This was generated using Cloudy10 and the columns are ordered 
# as log10 of the fraction of the metallicity to the solar metallicity
# 'h_*_Z' and 'c_*_Z' stands for cooling and heating respectively 
# at * metalicity
#
# NOTE: This was generated separately from loop_coolingcurve_w_UV.py
#       using Output_metals_w_redshift.py.
#
# Redshift = 8.0
# hden = 1.5
#
#     temp   h_-3.00_Z   c_-3.00_Z   h_-2.75_Z   c_-2.75_Z   h_-2.50_Z   c_-2.50_Z   h_-2.25_Z   c_-2.25_Z   h_-2.00_Z   c_-2.00_Z   h_-1.75_Z   c_-1.75_Z   h_-1.50_Z   c_-1.50_Z   h_-1.25_Z   c_-1.25_Z   h_-1.00_Z   c_-1.00_Z   h_-0.75_Z   c_-0.75_Z   h_-0.50_Z   c_-0.50_Z   h_-0.25_Z   c_-0.25_Z    h_0.00_Z    c_0.00_Z    h_0.25_Z    c_0.25_Z    h_0.50_Z    c_0.50_Z    h_0.75_Z    c_0.75_Z    h_1.00_Z    c_1.00_Z    h_1.25_Z    c_1.25_Z    h_1.50_Z    c_1.50_Z 
      4.00  5.2843e-26  5.2233e-25  5.2844e-26  5.2321e-25  5.2846e-26  5.2477e-25  5.2850e-26  5.2755e-25  5.2856e-26  5.3249e-25  5.2867e-26  5.4128e-25  5.2886e-26  5.5691e-25  5.2920e-26  5.8469e-25  5.2979e-26  6.3410e-25  5.3086e-26  7.2192e-25  5.3274e-26  8.7806e-25  5.3609e-26  1.1557e-24  5.4205e-26  1.6492e-24  5.5264e-26  2.5264e-24  5.7145e-26  4.0851e-24  6.0484e-26  6.8522e-24  6.6401e-26  1.1758e-23  7.6864e-26  2.0457e-23  9.5390e-26  3.5980e-23
      4.05  5.2473e-26  1.9631e-24  5.2475e-26  1.9643e-24  5.2477e-26  1.9664e-24  5.2480e-26  1.9703e-24  5.2486e-26  1.9771e-24  5.2498e-26  1.9892e-24  5.2518e-26  2.0106e-24  5.2553e-26  2.0489e-24  5.2616e-26  2.1167e-24  5.2728e-26  2.2373e-24  5.2926e-26  2.4516e-24  5.3278e-26  2.8323e-24  5.3904e-26  3.5086e-24  5.5015e-26  4.7091e-24  5.6988e-26  6.8374e-24  6.0484e-26  1.0600e-23  6.6657e-26  1.7223e-23  7.7510e-26  2.8830e-23  9.6515e-26  4.9112e-23
      4.10  5.1061e-26  7.0467e-24  5.1062e-26  7.0486e-24  5.1065e-26  7.0519e-24  5.1069e-26  7.0578e-24  5.1075e-26  7.0682e-24  5.1088e-26  7.0868e-24  5.1109e-26  7.1198e-24  5.1148e-26  7.1784e-24  5.1217e-26  7.2825e-24  5.1339e-26  7.4674e-24  5.1555e-26  7.7958e-24  5.1941e-26  8.3790e-24  5.2625e-26  9.4142e-24  5.3841e-26  1.1250e-23  5.5996e-26  1.4498e-23  5.9810e-26  2.0221e-23  6.6527e-26  3.0236e-23  7.8275e-26  4.7587e-23  9.8659e-26  7.7368e-23
      4.15  4.5009e-26  2.7586e-23  4.5011e-26  2.7590e-23  4.5014e-26  2.7597e-23  4.5019e-26  2.7609e-23  4.5027e-26  2.7631e-23  4.5043e-26  2.7670e-23  4.5071e-26  2.7738e-23  4.5121e-26  2.7860e-23  4.5209e-26  2.8077e-23  4.5365e-26  2.8462e-23  4.5644e-26  2.9146e-23  4.6139e-26  3.0362e-23  4.7019e-26  3.2521e-23  4.8582e-26  3.6352e-23  5.1354e-26  4.3139e-23  5.6263e-26  5.5117e-23  6.4923e-26  7.6136e-23  8.0097e-26  1.1265e-22  1.0642e-25  1.7526e-22
      4.20  2.9966e-26  8.6103e-23  2.9968e-26  8.6112e-23  2.9972e-26  8.6129e-23  2.9979e-26  8.6159e-23  2.9991e-26  8.6212e-23  3.0013e-26  8.6306e-23  3.0051e-26  8.6474e-23  3.0119e-26  8.6772e-23  3.0241e-26  8.7303e-23  3.0457e-26  8.8246e-23  3.0841e-26  8.9923e-23  3.1524e-26  9.2905e-23  3.2738e-26  9.8209e-23  3.4897e-26  1.0764e-22  3.8736e-26  1.2442e-22  4.5558e-26  1.5427e-22  5.7685e-26  2.0738e-22  7.9227e-26  3.0187e-22  1.1744e-25  4.7001e-22
      4.25  1.5512e-26  1.2912e-22  1.5514e-26  1.2913e-22  1.5518e-26  1.2916e-22  1.5525e-26  1.2921e-22  1.5537e-26  1.2929e-22  1.5560e-26  1.2945e-22  1.5600e-26  1.2972e-22  1.5670e-26  1.3020e-22  1.5796e-26  1.3106e-22  1.6020e-26  1.3259e-22  1.6417e-26  1.3531e-22  1.7124e-26  1.4016e-22  1.8382e-26  1.4877e-22  2.0620e-26  1.6411e-22  2.4604e-26  1.9143e-22  3.1701e-26  2.4017e-22  4.4359e-26  3.2737e-22  6.6978e-26  4.8407e-22  1.0757e-25  7.6784e-22
      4.30  8.3709e-27  1.2042e-22  8.3726e-27  1.2044e-22  8.3756e-27  1.2048e-22  8.3810e-27  1.2054e-22  8.3906e-27  1.2064e-22  8.4076e-27  1.2083e-22  8.4379e-27  1.2116e-22  8.4917e-27  1.2175e-22  8.5875e-27  1.2280e-22  8.7964e-27  1.2466e-22  9.2110e-27  1.2798e-22  9.9485e-27  1.3388e-22  1.1261e-26  1.4437e-22  1.3596e-26  1.6306e-22  1.7754e-26  1.9637e-22  2.5166e-26  2.5584e-22  3.8397e-26  3.6232e-22  6.2077e-26  5.5397e-22  1.0464e-25  9.0213e-22
      4.35  5.5737e-27  9.5591e-23  5.5745e-27  9.5613e-23  5.5761e-27  9.5653e-23  5.5789e-27  9.5724e-23  5.5839e-27  9.5849e-23  5.5927e-27  9.6073e-23  5.6084e-27  9.6470e-23  5.6363e-27  9.7176e-23  5.7581e-27  9.8432e-23  5.9905e-27  1.0067e-22  6.4037e-27  1.0464e-22  7.1388e-27  1.1171e-22  8.4472e-27  1.2428e-22  1.0777e-26  1.4668e-22  1.4929e-26  1.8660e-22  2.2339e-26  2.5786e-22  3.5592e-26  3.8550e-22  5.9363e-26  6.1537e-22  1.0212e-25  1.0333e-21
      4.40  4.1966e-27  7.4454e-23  4.1967e-27  7.4482e-23  4.1967e-27  7.4531e-23  4.1968e-27  7.4619e-23  4.1970e-27  7.4775e-23  4.1973e-27  7.5052e-23  4.1979e-27  7.5545e-23  4.1988e-27  7.6421e-23  4.3095e-27  7.7980e-23  4.5362e-27  8.0752e-23  4.9395e-27  8.5682e-23  5.6573e-27  9.4453e-23  6.9356e-27  1.1006e-22  9.2145e-27  1.3785e-22  1.3283e-26  1.8738e-22  2.0564e-26  2.7580e-22  3.3623e-26  4.3415e-22  5.6934e-26  7.1930e-22  9.8733e-26  1.2377e-21
      4.45  2.8465e-27  5.9985e-23  2.8457e-27  6.0020e-23  2.8443e-27  6.0083e-23  2.8419e-27  6.0195e-23  2.8375e-27  6.0394e-23  2.8298e-27  6.0747e-23  2.8160e-27  6.1376e-23  2.7914e-27  6.2493e-23  2.8744e-27  6.4481e-23  3.0908e-27  6.8017e-23  3.4759e-27  7.4305e-23  4.1624e-27  8.5491e-23  5.3874e-27  1.0540e-22  7.5782e-27  1.4083e-22  1.1508e-26  2.0397e-22  1.8544e-26  3.1666e-22  3.1057e-26  5.1839e-22  5.3389e-26  8.8135e-22  9.3524e-26  1.5404e-21
      4.50  1.5274e-27  4.9064e-23  1.5259e-27  4.9109e-23  1.5232e-27  4.9190e-23  1.5184e-27  4.9335e-23  1.5099e-27  4.9591e-23  1.4948e-27  5.0047e-23  1.4679e-27  5.0858e-23  1.4227e-27  5.2300e-23  1.5340e-27  5.4865e-23  1.7323e-27  5.9427e-23  2.0865e-27  6.7540e-23  2.7207e-27  8.1972e-23  3.8610e-27  1.0765e-22  5.9214e-27  1.5336e-22  9.5990e-27  2.3481e-22  1.6112e-26  3.8017e-22  2.7725e-26  6.4032e-22  4.8394e-26  1.1082e-21  8.5393e-26  1.9575e-21
      4.55  7.3348e-28  3.9699e-23  7.3143e-28  3.9758e-23  7.2779e-28  3.9862e-23  7.2132e-28  4.0048e-23  7.0981e-28  4.0379e-23  6.8936e-28  4.0966e-23  6.5302e-28  4.2011e-23  6.6542e-28  4.3870e-23  7.6202e-28  4.7175e-23  9.3479e-28  5.3053e-23  1.2450e-27  6.3507e-23  1.8051e-27  8.2105e-23  2.8243e-27  1.1520e-22  4.6373e-27  1.7411e-22  7.8528e-27  2.7912e-22  1.3579e-26  4.6656e-22  2.3688e-26  8.0218e-22  4.1751e-26  1.4063e-21  7.4306e-26  2.5041e-21
      4.60  3.7008e-28  3.2194e-23  3.6786e-28  3.2269e-23  3.6391e-28  3.2404e-23  3.5688e-28  3.2642e-23  3.4440e-28  3.3066e-23  3.2221e-28  3.3819e-23  2.8999e-28  3.5160e-23  3.3470e-28  3.7544e-23  4.1467e-28  4.1783e-23  5.5827e-28  4.9322e-23  8.1787e-28  6.2733e-23  1.2918e-27  8.6589e-23  2.1378e-27  1.2904e-22  3.6506e-27  2.0464e-22  6.3305e-27  3.3941e-22  1.1091e-26  5.8008e-22  1.9533e-26  1.0113e-21  3.4569e-26  1.7885e-21  6.1674e-26  3.2035e-21
      4.65  2.1060e-28  2.7287e-23  2.0859e-28  2.7384e-23  2.0500e-28  2.7555e-23  1.9861e-28  2.7859e-23  1.8727e-28  2.8400e-23  1.6711e-28  2.9363e-23  1.5744e-28  3.1074e-23  1.9327e-28  3.4117e-23  2.5756e-28  3.9530e-23  3.7364e-28  4.9156e-23  5.8538e-28  6.6279e-23  9.6888e-28  9.6742e-23  1.6571e-27  1.5096e-22  2.8816e-27  2.4751e-22  5.0825e-27  4.1967e-22  8.9686e-27  7.2725e-22  1.5825e-26  1.2788e-21  2.8028e-26  2.2740e-21  4.9993e-26  4.0899e-21
      4.70  1.3726e-28  2.5978e-23  1.3568e-28  2.6101e-23  1.3287e-28  2.6318e-23  1.2787e-28  2.6706e-23  1.1900e-28  2.7395e-23  1.0323e-28  2.8620e-23  1.0040e-28  3.0799e-23  1.2911e-28  3.4673e-23  1.8083e-28  4.1564e-23  2.7486e-28  5.3819e-23  4.4833e-28  7.5619e-23  7.6159e-28  1.1441e-22  1.3303e-27  1.8344e-22  2.3499e-27  3.0641e-22  4.1482e-27  5.2573e-22  7.3092e-27  9.1777e-22  1.2920e-26  1.6214e-21  2.2906e-26  2.8930e-21  4.0873e-26  5.2194e-21
      4.75  1.0153e-28  3.0549e-23  1.0046e-28  3.0704e-23  9.8559e-29  3.0980e-23  9.5185e-29  3.1470e-23  8.9193e-29  3.2341e-23  7.8565e-29  3.3891e-23  7.5756e-29  3.6646e-23  9.9462e-29  4.1547e-23  1.4247e-28  5.0262e-23  2.2163e-28  6.5763e-23  3.7019e-28  9.3338e-23  6.3844e-28  1.4240e-22  1.1177e-27  2.2974e-22  1.9695e-27  3.8535e-22  3.4799e-27  6.6298e-22  6.1515e-27  1.1596e-21  1.0882e-26  2.0519e-21  1.9312e-26  3.6676e-21  3.4545e-26  6.6328e-21
      4.80  8.2154e-29  4.4091e-23  8.1360e-29  4.4285e-23  8.0362e-29  4.4629e-23  7.8825e-29  4.5241e-23  7.5690e-29  4.6330e-23  7.0159e-29  4.8267e-23  6.6220e-29  5.1711e-23  8.6851e-29  5.7835e-23  1.2486e-28  6.8727e-23  1.9661e-28  8.8100e-23  3.3022e-28  1.2256e-22  5.6391e-28  1.8389e-22  9.8399e-28  2.9307e-22  1.7358e-27  4.8764e-22  3.0627e-27  8.3493e-22  5.4099e-27  1.4566e-21  9.5905e-27  2.5748e-21  1.7062e-26  4.6037e-21  3.0638e-26  8.3388e-21
      4.85  6.7124e-29  6.5286e-23  6.7339e-29  6.5524e-23  6.6942e-29  6.5947e-23  6.6743e-29  6.6698e-23  6.6706e-29  6.8035e-23  6.6207e-29  7.0412e-23  6.5552e-29  7.4640e-23  8.1654e-29  8.2158e-23  1.1818e-28  9.5529e-23  1.8699e-28  1.1931e-22  3.1071e-28  1.6162e-22  5.3049e-28  2.3692e-22  9.2420e-28  3.7098e-22  1.6216e-27  6.0995e-22  2.8535e-27  1.0366e-21  5.0324e-27  1.8009e-21  8.8991e-27  3.1773e-21  1.5778e-26  5.6791e-21  2.8286e-26  1.0298e-20
      4.90  5.2190e-29  8.0983e-23  5.2609e-29  8.1266e-23  5.3062e-29  8.1770e-23  5.4711e-29  8.2665e-23  5.6855e-29  8.4257e-23  6.1355e-29  8.7089e-23  6.9839e-29  9.2124e-23  8.6851e-29  1.0108e-22  1.2001e-28  1.1701e-22  1.8657e-28  1.4533e-22  3.1116e-28  1.9573e-22  5.3362e-28  2.8542e-22  9.3219e-28  4.4513e-22  1.6270e-27  7.2982e-22  2.8336e-27  1.2383e-21  4.9345e-27  2.1493e-21  8.6210e-27  3.7909e-21  1.5101e-26  6.7783e-21  2.6870e-26  1.2305e-20
      4.95  3.8227e-29  7.9762e-23  3.8981e-29  8.0086e-23  4.0066e-29  8.0664e-23  4.2774e-29  8.1691e-23  4.7224e-29  8.3517e-23  5.5192e-29  8.6764e-23  7.1319e-29  9.2540e-23  1.0277e-28  1.0281e-22  1.6299e-28  1.2108e-22  2.7166e-28  1.5357e-22  4.6439e-28  2.1137e-22  8.0594e-28  3.1424e-22  1.3962e-27  4.9743e-22  2.4084e-27  8.2398e-22  4.1418e-27  1.4072e-21  7.1169e-27  2.4524e-21  1.2253e-26  4.3365e-21  2.1316e-26  7.7670e-21  3.7692e-26  1.4121e-20
      5.00  2.8350e-29  6.7703e-23  2.8992e-29  6.8061e-23  3.0552e-29  6.8697e-23  3.3648e-29  6.9828e-23  3.9047e-29  7.1839e-23  4.9559e-29  7.5416e-23  7.0921e-29  8.1776e-23  1.1461e-28  9.3087e-23  1.9802e-28  1.1320e-22  3.4967e-28  1.4899e-22  6.0466e-28  2.1265e-22  1.0394e-27  3.2595e-22  1.7709e-27  5.2774e-22  2.9841e-27  8.8751e-22  4.9929e-27  1.5303e-21  8.3653e-27  2.6828e-21  1.4118e-26  4.7621e-21  2.4224e-26  8.5544e-21  4.2284e-26  1.5597e-20
      5.05  2.2396e-29  5.4129e-23  2.3072e-29  5.4496e-23  2.4872e-29  5.5149e-23  2.8012e-29  5.6311e-23  3.4447e-29  5.8376e-23  4.7781e-29  6.2049e-23  7.4752e-29  6.8582e-23  1.3525e-28  8.0198e-23  2.5721e-28  1.0086e-22  4.4464e-28  1.3761e-22  7.5414e-28  2.0300e-22  1.2552e-27  3.1939e-22  2.0554e-27  5.2670e-22  3.3025e-27  8.9641e-22  5.2860e-27  1.5573e-21  8.5332e-27  2.7431e-21  1.4070e-26  4.8856e-21  2.3754e-26  8.8024e-21  4.0599e-26  1.6105e-20
      5.10  1.9026e-29  4.2714e-23  1.9907e-29  4.3071e-23  2.1562e-29  4.3706e-23  2.5764e-29  4.4836e-23  3.4940e-29  4.6846e-23  5.2701e-29  5.0419e-23  9.2583e-29  5.6773e-23  1.8741e-28  6.8074e-23  3.3840e-28  8.8173e-23  5.7356e-28  1.2393e-22  9.3334e-28  1.8754e-22  1.4754e-27  3.0078e-22  2.2788e-27  5.0252e-22  3.4653e-27  8.6240e-22  5.2971e-27  1.5060e-21  8.1377e-27  2.6618e-21  1.2836e-26  4.7532e-21  2.1133e-26  8.5861e-21  3.5964e-26  1.5762e-20
      5.15  1.7002e-29  3.3961e-23  1.8196e-29  3.4316e-23  2.0710e-29  3.4947e-23  2.7181e-29  3.6069e-23  3.9972e-29  3.8065e-23  6.6343e-29  4.1615e-23  1.3090e-28  4.7927e-23  2.5335e-28  5.9153e-23  4.4536e-28  7.9120e-23  7.2600e-28  1.1464e-22  1.1190e-27  1.7784e-22  1.6727e-27  2.9036e-22  2.4528e-27  4.9082e-22  3.5693e-27  8.4852e-22  4.9677e-27  1.4885e-21  7.3290e-27  2.6386e-21  1.1436e-26  4.7223e-21  1.8741e-26  8.5490e-21  3.1889e-26  1.5738e-20
      5.20  1.6154e-29  2.7419e-23  1.7633e-29  2.7785e-23  2.1616e-29  2.8435e-23  3.2080e-29  2.9592e-23  5.0880e-29  3.1650e-23  9.5564e-29  3.5308e-23  1.9951e-28  4.1814e-23  3.4218e-28  5.3386e-23  5.5855e-28  7.3968e-23  8.7601e-28  1.1058e-22  1.2966e-27  1.7573e-22  1.8535e-27  2.9173e-22  2.5838e-27  4.9842e-22  3.3226e-27  8.6730e-22  4.5540e-27  1.5275e-21  6.6993e-27  2.7147e-21  1.0505e-26  4.8678e-21  1.7334e-26  8.8292e-21  2.9742e-26  1.6293e-20
      5.25  1.5755e-29  2.2517e-23  1.7896e-29  2.2894e-23  2.4590e-29  2.3564e-23  4.0969e-29  2.4756e-23  7.4893e-29  2.6876e-23  1.3489e-28  3.0645e-23  2.5422e-28  3.7349e-23  4.2128e-28  4.9271e-23  6.5174e-28  7.0478e-23  9.8274e-28  1.0820e-22  1.4220e-27  1.7534e-22  1.9878e-27  2.9486e-22  2.4422e-27  5.0788e-22  3.1853e-27  8.8813e-22  4.4630e-27  1.5689e-21  6.6961e-27  2.7939e-21  1.0642e-26  5.0180e-21  1.7741e-26  9.1176e-21  3.0787e-26  1.6865e-20
      5.30  1.5988e-29  1.8806e-23  1.9944e-29  1.9189e-23  3.1337e-29  1.9871e-23  6.1952e-29  2.1083e-23  9.9786e-29  2.3237e-23  1.7008e-28  2.7069e-23  2.9767e-28  3.3884e-23  4.6800e-28  4.6004e-23  7.1611e-28  6.7562e-23  1.0388e-27  1.0592e-22  1.5144e-27  1.7417e-22  1.9096e-27  2.9569e-22  2.4023e-27  5.1230e-22  3.1327e-27  8.9905e-22  4.3364e-27  1.5917e-21  6.4368e-27  2.8391e-21  1.0032e-26  5.1065e-21  1.6558e-26  9.2943e-21  2.8625e-26  1.7234e-20
      5.35  1.7076e-29  1.5976e-23  2.4215e-29  1.6366e-23  4.5047e-29  1.7060e-23  7.7124e-29  1.8293e-23  1.1991e-28  2.0487e-23  1.9155e-28  2.4387e-23  3.1817e-28  3.1324e-23  4.9340e-28  4.3661e-23  7.3721e-28  6.5606e-23  1.1151e-27  1.0465e-22  1.5508e-27  1.7413e-22  1.8404e-27  2.9786e-22  2.2800e-27  5.1841e-22  2.9740e-27  9.1229e-22  4.1302e-27  1.6180e-21  6.0403e-27  2.8898e-21  9.4663e-27  5.2044e-21  1.5673e-26  9.4882e-21  2.7203e-26  1.7636e-20
      5.40  1.8032e-29  1.3766e-23  2.7953e-29  1.4146e-23  5.1953e-29  1.4821e-23  8.0097e-29  1.6023e-23  1.2568e-28  1.8160e-23  1.9241e-28  2.1960e-23  3.0743e-28  2.8718e-23  5.0891e-28  4.0737e-23  7.7232e-28  6.2117e-23  1.2089e-27  1.0015e-22  1.4865e-27  1.6785e-22  1.7841e-27  2.8841e-22  2.2503e-27  5.0335e-22  2.9815e-27  8.8731e-22  4.1984e-27  1.5756e-21  6.1915e-27  2.8170e-21  9.6695e-27  5.0794e-21  1.6011e-26  9.2767e-21  2.7803e-26  1.7290e-20
      5.45  1.6374e-29  1.1971e-23  2.3978e-29  1.2289e-23  4.5013e-29  1.2856e-23  6.9022e-29  1.3863e-23  1.0659e-28  1.5654e-23  1.7424e-28  1.8840e-23  2.8387e-28  2.4505e-23  4.6562e-28  3.4581e-23  7.8863e-28  5.2504e-23  1.2667e-27  8.4389e-23  1.4993e-27  1.4115e-22  1.8476e-27  2.4223e-22  2.3728e-27  4.2249e-22  3.0962e-27  7.4462e-22  4.2654e-27  1.3224e-21  6.2135e-27  2.3658e-21  9.6105e-27  4.2710e-21  1.5767e-26  7.8168e-21  2.7292e-26  1.4621e-20
      5.50  1.3564e-29  1.0475e-23  1.6653e-29  1.0705e-23  2.5480e-29  1.1113e-23  4.9718e-29  1.1839e-23  8.3917e-29  1.3131e-23  1.4338e-28  1.5427e-23  2.5080e-28  1.9512e-23  4.4043e-28  2.6777e-23  7.6025e-28  3.9698e-23  1.2139e-27  6.2687e-23  1.5724e-27  1.0361e-22  1.9736e-27  1.7651e-22  2.4162e-27  3.0652e-22  3.0718e-27  5.3896e-22  4.0302e-27  9.5616e-22  5.6363e-27  1.7103e-21  8.4573e-27  3.0901e-21  1.3559e-26  5.6662e-21  2.3076e-26  1.0634e-20
      5.55  1.2117e-29  9.3086e-24  1.3705e-29  9.4813e-24  1.7807e-29  9.7884e-24  2.9957e-29  1.0335e-23  6.1130e-29  1.1306e-23  1.2531e-28  1.3033e-23  2.4130e-28  1.6104e-23  4.4838e-28  2.1567e-23  7.9254e-28  3.1283e-23  1.2100e-27  4.8571e-23  1.6190e-27  7.9346e-23  1.9705e-27  1.3417e-22  2.3518e-27  2.3198e-22  2.8354e-27  4.0686e-22  3.6027e-27  7.2091e-22  4.8480e-27  1.2890e-21  7.0451e-27  2.3297e-21  1.1039e-26  4.2766e-21  1.8446e-26  8.0433e-21
      5.60  1.1650e-29  8.4120e-24  1.3212e-29  8.5619e-24  1.7698e-29  8.8284e-24  3.0749e-29  9.3024e-24  5.5805e-29  1.0145e-23  1.1504e-28  1.1644e-23  2.4939e-28  1.4310e-23  4.7601e-28  1.9051e-23  8.6954e-28  2.7484e-23  1.2033e-27  4.2490e-23  1.5707e-27  6.9204e-23  1.8167e-27  1.1680e-22  2.0987e-27  2.0171e-22  2.4985e-27  3.5356e-22  3.1326e-27  6.2630e-22  4.1610e-27  1.1199e-21  5.9622e-27  2.0248e-21  9.2310e-27  3.7197e-21  1.5292e-26  7.0050e-21
      5.65  1.1259e-29  7.7124e-24  1.3277e-29  7.8555e-24  1.8986e-29  8.1099e-24  3.5448e-29  8.5624e-24  6.6633e-29  9.3671e-24  1.3006e-28  1.0798e-23  2.6259e-28  1.3343e-23  5.0869e-28  1.7868e-23  9.2056e-28  2.5918e-23  1.2123e-27  4.0243e-23  1.5128e-27  6.5746e-23  1.6849e-27  1.1118e-22  1.9325e-27  1.9225e-22  2.2798e-27  3.3724e-22  2.8592e-27  5.9771e-22  3.7973e-27  1.0692e-21  5.4512e-27  1.9341e-21  8.4489e-27  3.5555e-21  1.4028e-26  6.7025e-21
      5.70  1.0886e-29  7.1557e-24  1.3371e-29  7.2958e-24  2.0447e-29  7.5448e-24  4.1208e-29  7.9877e-24  7.5373e-29  8.7752e-24  1.4874e-28  1.0176e-23  2.9669e-28  1.2666e-23  5.7330e-28  1.7095e-23  9.0229e-28  2.4975e-23  1.1362e-27  3.8997e-23  1.3566e-27  6.3961e-23  1.5305e-27  1.0844e-22  1.7508e-27  1.8779e-22  2.0735e-27  3.2974e-22  2.6209e-27  5.8478e-22  3.5454e-27  1.0466e-21  5.1702e-27  1.8942e-21  8.1274e-27  3.4843e-21  1.3657e-26  6.5745e-21
      5.75  1.0256e-29  6.6488e-24  1.2960e-29  6.7822e-24  2.0580e-29  7.0194e-24  4.1487e-29  7.4411e-24  8.1673e-29  8.1909e-24  1.6282e-28  9.5244e-24  3.3518e-28  1.1896e-23  6.0436e-28  1.6113e-23  8.0045e-28  2.3617e-23  9.8205e-28  3.6971e-23  1.1264e-27  6.0744e-23  1.2983e-27  1.0310e-22  1.5092e-27  1.7868e-22  1.8381e-27  3.1388e-22  2.3800e-27  5.5685e-22  3.3055e-27  9.9698e-22  4.9605e-27  1.8051e-21  7.9893e-27  3.3228e-21  1.3692e-26  6.2764e-21
      5.80  9.5831e-30  6.2583e-24  1.2274e-29  6.3808e-24  1.9672e-29  6.5986e-24  4.0094e-29  6.9858e-24  8.5298e-29  7.6745e-24  1.8255e-28  8.8990e-24  3.4520e-28  1.1077e-23  5.4155e-28  1.4951e-23  6.8599e-28  2.1843e-23  8.3656e-28  3.4107e-23  9.4950e-28  5.5942e-23  1.1328e-27  9.4846e-23  1.3557e-27  1.6427e-22  1.6914e-27  2.8848e-22  2.2648e-27  5.1175e-22  3.2621e-27  9.1634e-22  5.0482e-27  1.6597e-21  8.3473e-27  3.0573e-21  1.4615e-26  5.7817e-21
      5.85  9.1045e-30  5.9611e-24  1.2250e-29  6.0766e-24  2.0365e-29  6.2819e-24  4.1620e-29  6.6469e-24  9.3273e-29  7.2959e-24  2.0209e-28  8.4501e-24  3.2317e-28  1.0503e-23  4.7880e-28  1.4155e-23  6.0249e-28  2.0652e-23  7.5368e-28  3.2214e-23  8.8699e-28  5.2798e-23  1.0475e-27  8.9475e-23  1.2890e-27  1.5493e-22  1.6660e-27  2.7205e-22  2.3208e-27  4.8262e-22  3.4682e-27  8.6436e-22  5.5462e-27  1.5662e-21  9.3992e-27  2.8870e-21  1.6773e-26  5.4660e-21
      5.90  8.9207e-30  5.7447e-24  1.2635e-29  5.8600e-24  2.2496e-29  6.0649e-24  4.6809e-29  6.4292e-24  1.0474e-28  7.0771e-24  2.0630e-28  8.2293e-24  3.2322e-28  1.0279e-23  4.3498e-28  1.3925e-23  5.7495e-28  2.0411e-23  7.1042e-28  3.1953e-23  8.4269e-28  5.2502e-23  1.0094e-27  8.9118e-23  1.2850e-27  1.5447e-22  1.7472e-27  2.7142e-22  2.5416e-27  4.8172e-22  3.9572e-27  8.6311e-22  6.5348e-27  1.5647e-21  1.1341e-26  2.8864e-21  2.0602e-26  5.4708e-21
      5.95  8.5435e-30  5.5902e-24  1.2654e-29  5.7078e-24  2.3570e-29  5.9170e-24  5.0505e-29  6.2889e-24  1.1291e-28  6.9501e-24  2.1502e-28  8.1261e-24  3.3000e-28  1.0218e-23  4.4551e-28  1.3939e-23  5.5658e-28  2.0560e-23  6.7776e-28  3.2341e-23  8.3500e-28  5.3315e-23  1.0210e-27  9.0692e-23  1.3271e-27  1.5740e-22  1.8630e-27  2.7680e-22  2.8051e-27  4.9156e-22  4.4880e-27  8.8116e-22  7.5665e-27  1.5983e-21  1.3327e-26  2.9506e-21  2.4488e-26  5.5989e-21
      6.00  7.8924e-30  5.4811e-24  1.1838e-29  5.5991e-24  2.2478e-29  5.8089e-24  4.9291e-29  6.1821e-24  1.1323e-28  6.8455e-24  2.3030e-28  8.0252e-24  3.4612e-28  1.0124e-23  4.5369e-28  1.3857e-23  5.6512e-28  2.0499e-23  6.9505e-28  3.2319e-23  8.5671e-28  5.3362e-23  1.0919e-27  9.0863e-23  1.4746e-27  1.5780e-22  2.1463e-27  2.7762e-22  3.3422e-27  4.9319e-22  5.5044e-27  8.8442e-22  9.4675e-27  1.6051e-21  1.6908e-26  2.9655e-21  3.1396e-26  5.6340e-21
      6.05  7.0081e-30  5.4244e-24  1.0300e-29  5.5390e-24  1.9374e-29  5.7429e-24  4.3799e-29  6.1055e-24  1.0293e-28  6.7501e-24  2.3069e-28  7.8962e-24  3.5411e-28  9.9351e-24  4.6554e-28  1.3562e-23  5.8012e-28  2.0015e-23  7.1063e-28  3.1499e-23  8.7590e-28  5.1945e-23  1.1452e-27  8.8384e-23  1.6027e-27  1.5343e-22  2.4100e-27  2.6988e-22  3.8550e-27  4.7945e-22  6.4707e-27  8.5996e-22  1.1275e-26  1.5614e-21  2.0322e-26  2.8872e-21  3.8004e-26  5.4928e-21
      6.10  6.3894e-30  5.3994e-24  9.1371e-30  5.5082e-24  1.6647e-29  5.7015e-24  3.6753e-29  6.0453e-24  8.7284e-29  6.6565e-24  2.0041e-28  7.7433e-24  3.3246e-28  9.6765e-24  4.5632e-28  1.3115e-23  5.6249e-28  1.9234e-23  6.8203e-28  3.0123e-23  8.6933e-28  4.9511e-23  1.1709e-27  8.4065e-23  1.6975e-27  1.4575e-22  2.6358e-27  2.5621e-22  4.3153e-27  4.5504e-22  7.3575e-27  8.1624e-22  1.2959e-26  1.4826e-21  2.3528e-26  2.7438e-21  4.4252e-26  5.2273e-21
      6.15  6.0442e-30  5.4019e-24  8.5635e-30  5.5028e-24  1.4978e-29  5.6821e-24  3.2120e-29  6.0010e-24  7.3143e-29  6.5680e-24  1.5252e-28  7.5761e-24  2.5031e-28  9.3691e-24  3.8334e-28  1.2559e-23  4.8954e-28  1.8234e-23  6.1765e-28  2.8333e-23  8.1864e-28  4.6315e-23  1.1456e-27  7.8365e-23  1.7253e-27  1.3559e-22  2.7570e-27  2.3807e-22  4.6123e-27  4.2260e-22  7.9768e-27  7.5797e-22  1.4176e-26  1.3772e-21  2.5897e-26  2.5508e-21  4.8946e-26  4.8664e-21
      6.20  5.8208e-30  5.4264e-24  8.2894e-30  5.5165e-24  1.4352e-29  5.6767e-24  2.8954e-29  5.9616e-24  5.8252e-29  6.4681e-24  1.1270e-28  7.3686e-24  1.8168e-28  8.9704e-24  2.7208e-28  1.1819e-23  3.8086e-28  1.6888e-23  5.1911e-28  2.5909e-23  7.2157e-28  4.1970e-23  1.0672e-27  7.0599e-23  1.6683e-27  1.2172e-22  2.7438e-27  2.1329e-22  4.6769e-27  3.7821e-22  8.1869e-27  6.7812e-22  1.4663e-26  1.2324e-21  2.6927e-26  2.2842e-21  5.1106e-26  4.3640e-21
      6.25  5.3247e-30  5.4687e-24  7.5611e-30  5.5445e-24  1.2649e-29  5.6793e-24  2.3075e-29  5.9191e-24  4.4106e-29  6.3453e-24  8.2064e-29  7.1032e-24  1.2797e-28  8.4511e-24  1.9357e-28  1.0849e-23  2.8165e-28  1.5114e-23  4.0844e-28  2.2703e-23  6.0674e-28  3.6219e-23  9.4605e-28  6.0309e-23  1.5396e-27  1.0333e-22  2.5962e-27  1.8040e-22  4.4934e-27  3.1927e-22  7.9413e-27  5.7194e-22  1.4310e-26  1.0393e-21  2.6393e-26  1.9277e-21  5.0273e-26  3.6883e-21
      6.30  4.6613e-30  5.5524e-24  6.4124e-30  5.6129e-24  9.9733e-30  5.7205e-24  1.7885e-29  5.9118e-24  3.1814e-29  6.2519e-24  5.7808e-29  6.8567e-24  8.5585e-29  7.9322e-24  1.3441e-28  9.8450e-24  2.0880e-28  1.3248e-23  3.1548e-28  1.9303e-23  4.9948e-28  3.0086e-23  8.1239e-28  4.9307e-23  1.3663e-27  8.3635e-23  2.3495e-27  1.4515e-22  4.1171e-27  2.5602e-22  7.3312e-27  4.5786e-22  1.3275e-26  8.3162e-22  2.4568e-26  1.5431e-21  4.6944e-26  2.9566e-21
      6.35  4.0600e-30  5.6592e-24  5.2897e-30  5.7071e-24  7.8649e-30  5.7923e-24  1.2949e-29  5.9436e-24  2.3465e-29  6.2128e-24  4.2145e-29  6.6914e-24  5.8941e-29  7.5426e-24  9.0240e-29  9.0563e-24  1.4732e-28  1.1749e-23  2.4738e-28  1.6541e-23  4.0910e-28  2.5074e-23  6.9503e-28  4.0285e-23  1.1963e-27  6.7454e-23  2.0894e-27  1.1615e-22  3.6998e-27  2.0395e-22  6.6307e-27  3.6388e-22  1.2056e-26  6.6034e-22  2.2382e-26  1.2256e-21  4.2894e-26  2.3513e-21
      6.40  3.5185e-30  5.7885e-24  4.5547e-30  5.8274e-24  6.4807e-30  5.8966e-24  1.0030e-29  6.0195e-24  1.6802e-29  6.2380e-24  3.1351e-29  6.6267e-24  4.4211e-29  7.3178e-24  6.6912e-29  8.5470e-24  1.1089e-28  1.0733e-23  1.9535e-28  1.4624e-23  3.4753e-28  2.1553e-23  6.1576e-28  3.3905e-23  1.0892e-27  5.5970e-23  1.9358e-27  9.5524e-23  3.4655e-27  1.6687e-22  6.2521e-27  2.9690e-22  1.1417e-26  5.3818e-22  2.1267e-26  9.9897e-22  4.0885e-26  1.9187e-21
      6.45  3.0385e-30  5.9370e-24  3.9865e-30  5.9691e-24  5.5378e-30  6.0263e-24  8.4182e-30  6.1280e-24  1.3431e-29  6.3088e-24  2.3521e-29  6.6302e-24  3.7456e-29  7.2019e-24  5.7653e-29  8.2186e-24  9.7431e-29  1.0027e-23  1.7441e-28  1.3245e-23  3.1907e-28  1.8975e-23  5.8121e-28  2.9191e-23  1.0510e-27  4.7443e-23  1.8982e-27  8.0166e-23  3.4256e-27  1.3921e-22  6.2127e-27  2.4688e-22  1.1387e-26  4.4685e-22  2.1272e-26  8.2929e-22  4.1010e-26  1.5943e-21
      6.50  2.5290e-30  6.1022e-24  3.4151e-30  6.1289e-24  4.6286e-30  6.1765e-24  6.9259e-30  6.2610e-24  1.0840e-29  6.4113e-24  1.8461e-29  6.6785e-24  2.9082e-29  7.1537e-24  4.6538e-29  7.9988e-24  7.9904e-29  9.5021e-24  1.4506e-28  1.2177e-23  2.7051e-28  1.6940e-23  5.0586e-28  2.5433e-23  9.3452e-28  4.0605e-23  1.7097e-27  6.7812e-23  3.1145e-27  1.1691e-22  5.6822e-27  2.0650e-22  1.0455e-26  3.7300e-22  1.9588e-26  6.9184e-22  3.7865e-26  1.3307e-21
      6.55  2.1033e-30  6.3137e-24  2.8670e-30  6.3364e-24  3.8157e-30  6.3766e-24  5.5904e-30  6.4482e-24  8.9588e-30  6.5754e-24  1.5322e-29  6.8017e-24  2.4435e-29  7.2041e-24  3.9136e-29  7.9197e-24  6.8919e-29  9.1927e-24  1.2766e-28  1.1458e-23  2.4252e-28  1.5491e-23  4.6159e-28  2.2683e-23  8.6842e-28  3.5532e-23  1.6111e-27  5.8575e-23  2.9607e-27  1.0017e-22  5.4317e-27  1.7609e-22  1.0033e-26  3.1727e-22  1.8854e-26  5.8788e-22  3.6536e-26  1.1309e-21
      6.60  1.7558e-30  6.5431e-24  2.3676e-30  6.5630e-24  3.1732e-30  6.5983e-24  4.5499e-30  6.6610e-24  7.4805e-30  6.7727e-24  1.3296e-29  6.9711e-24  2.1742e-29  7.3241e-24  3.5202e-29  7.9519e-24  6.3109e-29  9.0686e-24  1.1965e-28  1.1056e-23  2.3111e-28  1.4595e-23  4.4595e-28  2.0904e-23  8.4941e-28  3.2178e-23  1.5934e-27  5.2398e-23  2.9541e-27  8.8901e-23  5.4507e-27  1.5555e-22  1.0107e-26  2.7954e-22  1.9043e-26  5.1738e-22  3.6986e-26  9.9513e-22
      6.65  1.4680e-30  6.7892e-24  1.9258e-30  6.8073e-24  2.6335e-30  6.8395e-24  3.8653e-30  6.9657e-24  6.1828e-30  6.9986e-24  1.1498e-29  7.1797e-24  1.9227e-29  7.5018e-24  3.1899e-29  8.0747e-24  5.8770e-29  9.0939e-24  1.1411e-28  1.0908e-23  2.2417e-28  1.4137e-23  4.3789e-28  1.9896e-23  8.4287e-28  3.0186e-23  1.5963e-27  4.8644e-23  2.9826e-27  8.1970e-23  5.5342e-27  1.4283e-22  1.0300e-26  2.5610e-22  1.9457e-26  4.7349e-22  3.7869e-26  9.1055e-22
      6.70  1.2276e-30  7.0507e-24  1.5462e-30  7.0679e-24  2.1312e-30  7.0983e-24  3.1692e-30  7.1524e-24  5.4221e-30  7.3211e-24  1.0565e-29  7.4198e-24  1.9534e-29  7.7241e-24  3.4231e-29  8.2654e-24  6.5824e-29  9.2283e-24  1.3051e-28  1.0942e-23  2.5831e-28  1.3994e-23  5.0542e-28  1.9435e-23  9.7390e-28  2.9159e-23  1.8464e-27  4.6602e-23  3.4561e-27  7.8100e-23  6.4254e-27  1.3563e-22  1.1978e-26  2.4274e-22  2.2657e-26  4.4841e-22  4.4153e-26  8.6222e-22
      6.75  1.0288e-30  7.3268e-24  1.2428e-30  7.3435e-24  1.7411e-30  7.3730e-24  2.6877e-30  7.4255e-24  4.8853e-30  7.5188e-24  1.0592e-29  7.6848e-24  2.0769e-29  7.9800e-24  3.8533e-29  8.5051e-24  7.6331e-29  9.4393e-24  1.5280e-28  1.1102e-23  3.0180e-28  1.4062e-23  5.8877e-28  1.9341e-23  1.1305e-27  2.8775e-23  2.1399e-27  4.5698e-23  4.0035e-27  7.6261e-23  7.4470e-27  1.3209e-22  1.3894e-26  2.3607e-22  2.6305e-26  4.3582e-22  5.1310e-26  8.3795e-22
      6.80  8.6708e-31  7.6567e-24  1.0100e-30  7.6731e-24  1.4256e-30  7.7023e-24  2.3206e-30  7.7544e-24  4.4792e-30  7.8468e-24  1.0068e-29  8.0113e-24  2.1412e-29  8.3037e-24  4.0995e-29  8.8239e-24  8.2408e-29  9.7492e-24  1.6481e-28  1.1396e-23  3.2436e-28  1.4329e-23  6.3091e-28  1.9559e-23  1.2100e-27  2.8904e-23  2.2896e-27  4.5671e-23  4.2872e-27  7.5954e-23  7.9863e-27  1.3128e-22  1.4922e-26  2.3435e-22  2.8290e-26  4.3242e-22  5.5246e-26  8.3141e-22
      6.85  7.3630e-31  8.0043e-24  8.3490e-31  8.0208e-24  1.1362e-30  8.0503e-24  1.9598e-30  8.1026e-24  3.9488e-30  8.1957e-24  9.6110e-30  8.3613e-24  2.2568e-29  8.6557e-24  4.4696e-29  9.1794e-24  9.1931e-29  1.0111e-23  1.8388e-28  1.1769e-23  3.6282e-28  1.4722e-23  7.0485e-28  1.9988e-23  1.3505e-27  2.9398e-23  2.5528e-27  4.6282e-23  4.7776e-27  7.6777e-23  8.9007e-27  1.3250e-22  1.6640e-26  2.3633e-22  3.1569e-26  4.3594e-22  6.1703e-26  8.3823e-22
      6.90  6.3226e-31  8.3690e-24  7.1032e-31  8.3858e-24  9.4528e-31  8.4156e-24  1.6364e-30  8.4687e-24  3.6772e-30  8.5629e-24  9.6520e-30  8.7306e-24  2.4379e-29  9.0287e-24  5.0135e-29  9.5590e-24  1.0525e-28  1.0502e-23  2.1154e-28  1.2181e-23  4.2023e-28  1.5171e-23  8.2184e-28  2.0502e-23  1.5772e-27  3.0031e-23  2.9789e-27  4.7126e-23  5.5662e-27  7.8008e-23  1.0358e-26  1.3445e-22  1.9355e-26  2.3962e-22  3.6721e-26  4.4189e-22  7.1800e-26  8.4975e-22
      6.95  5.4894e-31  8.7503e-24  6.2189e-31  8.7672e-24  8.3811e-31  8.7972e-24  1.5119e-30  8.8504e-24  3.5829e-30  8.9452e-24  9.5772e-30  9.1136e-24  2.4923e-29  9.4132e-24  5.1662e-29  9.9460e-24  1.0674e-28  1.0894e-23  2.1375e-28  1.2581e-23  4.2922e-28  1.5585e-23  8.4557e-28  2.0942e-23  1.6287e-27  3.0516e-23  3.0821e-27  4.7694e-23  5.7662e-27  7.8727e-23  1.0739e-26  1.3545e-22  2.0083e-26  2.4118e-22  3.8133e-26  4.4457e-22  7.4626e-26  8.5489e-22
      7.00  4.7925e-31  9.1475e-24  5.5020e-31  9.1641e-24  7.6854e-31  9.1936e-24  1.4246e-30  9.2461e-24  3.3663e-30  9.3394e-24  9.1614e-30  9.5053e-24  2.5198e-29  9.8004e-24  5.2236e-29  1.0325e-23  1.0481e-28  1.1259e-23  2.1276e-28  1.2920e-23  4.3161e-28  1.5879e-23  8.5631e-28  2.1155e-23  1.6591e-27  3.0584e-23  3.1547e-27  4.7504e-23  5.9210e-27  7.8071e-23  1.1051e-26  1.3395e-22  2.0693e-26  2.3812e-22  3.9336e-26  4.3859e-22  7.7057e-26  8.4319e-22
      7.05  4.0768e-31  9.6105e-24  4.7523e-31  9.6264e-24  6.7697e-31  9.6546e-24  1.2771e-30  9.7047e-24  3.0776e-30  9.7938e-24  8.4228e-30  9.9523e-24  2.4026e-29  1.0234e-23  5.1662e-29  1.0735e-23  1.0477e-28  1.1627e-23  2.1390e-28  1.3214e-23  4.3726e-28  1.6039e-23  8.7671e-28  2.1077e-23  1.7210e-27  3.0080e-23  3.3028e-27  4.6236e-23  6.2368e-27  7.5425e-23  1.1683e-26  1.2879e-22  2.1928e-26  2.2830e-22  4.1746e-26  4.1984e-22  8.1874e-26  8.0660e-22
      7.10  3.4415e-31  1.0095e-23  4.0399e-31  1.0109e-23  5.7598e-31  1.0135e-23  1.1362e-30  1.0283e-23  2.7420e-30  1.0263e-23  7.6132e-30  1.0408e-23  2.2182e-29  1.0667e-23  5.1150e-29  1.1127e-23  1.0600e-28  1.1945e-23  2.1603e-28  1.3400e-23  4.4179e-28  1.5992e-23  9.0371e-28  2.0612e-23  1.8054e-27  2.8870e-23  3.5112e-27  4.3686e-23  6.6876e-27  7.0455e-23  1.2595e-26  1.1940e-22  2.3718e-26  2.1069e-22  4.5246e-26  3.8646e-22  8.8866e-26  7.4151e-22
      7.15  2.9103e-31  1.0599e-23  3.4244e-31  1.0612e-23  4.9287e-31  1.0635e-23  9.7174e-31  1.0675e-23  2.4348e-30  1.0747e-23  6.7131e-30  1.0875e-23  1.9098e-29  1.1102e-23  4.6177e-29  1.1506e-23  9.3185e-29  1.2224e-23  1.8658e-28  1.3501e-23  3.8671e-28  1.5776e-23  8.0515e-28  1.9830e-23  1.6420e-27  2.7075e-23  3.2520e-27  4.0074e-23  6.2811e-27  6.3560e-23  1.1945e-26  1.0650e-22  2.2639e-26  1.8661e-22  4.3367e-26  3.4089e-22  8.5408e-26  6.5265e-22
      7.20  2.4577e-31  1.1125e-23  2.8883e-31  1.1136e-23  4.1986e-31  1.1155e-23  8.2172e-31  1.1189e-23  2.0026e-30  1.1250e-23  5.4274e-30  1.1358e-23  1.4994e-29  1.1550e-23  3.8304e-29  1.1892e-23  7.3553e-29  1.2499e-23  1.5046e-28  1.3579e-23  3.1732e-28  1.5502e-23  6.7472e-28  1.8930e-23  1.4123e-27  2.5052e-23  2.8675e-27  3.6036e-23  5.6510e-27  5.5882e-23  1.0906e-26  9.2171e-23  2.0879e-26  1.5987e-22  4.0261e-26  2.9028e-22  7.9630e-26  5.5388e-22
      7.25  2.0760e-31  1.1672e-23  2.4228e-31  1.1681e-23  3.4739e-31  1.1697e-23  6.5873e-31  1.1726e-23  1.5700e-30  1.1776e-23  4.2112e-30  1.1984e-23  1.1098e-29  1.2025e-23  2.7686e-29  1.2309e-23  5.4944e-29  1.2813e-23  1.1240e-28  1.3711e-23  2.4006e-28  1.5308e-23  5.2490e-28  1.8154e-23  1.1328e-27  2.3238e-23  2.3734e-27  3.2356e-23  4.8012e-27  4.8830e-23  9.4511e-27  7.8952e-23  1.8345e-26  1.3515e-22  3.5702e-26  2.4342e-22  7.1034e-26  4.6230e-22
      7.30  1.7567e-31  1.2305e-23  2.0270e-31  1.2312e-23  2.8262e-31  1.2325e-23  5.1994e-31  1.2349e-23  1.2106e-30  1.2391e-23  3.0914e-30  1.2466e-23  8.1047e-30  1.2599e-23  1.9802e-29  1.2836e-23  4.1508e-29  1.3257e-23  8.4526e-29  1.4007e-23  1.7877e-28  1.5341e-23  4.0059e-28  1.7718e-23  8.9869e-28  2.1963e-23  1.9560e-27  2.9577e-23  4.0907e-27  4.3329e-23  8.2616e-27  6.8475e-23  1.6333e-26  1.1539e-22  3.2181e-26  2.0577e-22  6.4538e-26  3.8850e-22
      7.35  1.4955e-31  1.2966e-23  1.6987e-31  1.2972e-23  2.2998e-31  1.2983e-23  4.0832e-31  1.3004e-23  9.2810e-31  1.3040e-23  2.3001e-30  1.3103e-23  5.9489e-30  1.3217e-23  1.4917e-29  1.3419e-23  3.2773e-29  1.3778e-23  6.5867e-29  1.4416e-23  1.3965e-28  1.5554e-23  3.1808e-28  1.7580e-23  7.3907e-28  2.1200e-23  1.6688e-27  2.7690e-23  3.5982e-27  3.9413e-23  7.4473e-27  6.0845e-23  1.4991e-26  1.0083e-22  2.9907e-26  1.7785e-22  6.0468e-26  3.3358e-22
      7.40  1.2831e-31  1.3656e-23  1.4382e-31  1.3661e-23  1.8975e-31  1.3671e-23  3.2624e-31  1.3689e-23  7.2503e-31  1.3720e-23  1.7567e-30  1.3776e-23  4.5176e-30  1.3875e-23  1.1797e-29  1.4052e-23  2.7948e-29  1.4366e-23  5.4901e-29  1.4924e-23  1.1542e-28  1.5919e-23  2.6692e-28  1.7692e-23  6.3082e-28  2.0859e-23  1.4618e-27  2.6537e-23  3.2397e-27  3.6793e-23  6.8598e-27  5.5541e-23  1.4046e-26  9.0512e-23  2.8359e-26  1.5788e-22  5.7795e-26  2.9407e-22
      7.45  1.1113e-31  1.4375e-23  1.2342e-31  1.4380e-23  1.5863e-31  1.4388e-23  2.6604e-31  1.4404e-23  5.8090e-31  1.4433e-23  1.4007e-30  1.4483e-23  3.6001e-30  1.4572e-23  9.4930e-30  1.4730e-23  2.2211e-29  1.5012e-23  4.2806e-29  1.5514e-23  8.9232e-29  1.6407e-23  2.0660e-28  1.8000e-23  4.9741e-28  2.0845e-23  1.1849e-27  2.5947e-23  2.7082e-27  3.5162e-23  5.8958e-27  5.2007e-23  1.2339e-26  8.3426e-23  2.5304e-26  1.4394e-22  5.2119e-26  2.6627e-22
      7.50  9.6660e-32  1.5122e-23  1.0744e-31  1.5126e-23  1.3688e-31  1.5134e-23  2.2742e-31  1.5149e-23  4.8767e-31  1.5175e-23  1.1609e-30  1.5221e-23  3.0185e-30  1.5303e-23  7.9549e-30  1.5449e-23  1.8480e-29  1.5708e-23  3.5322e-29  1.6170e-23  7.2207e-29  1.6993e-23  1.6759e-28  1.8459e-23  4.0773e-28  2.1079e-23  9.9217e-28  2.5779e-23  2.3306e-27  3.4266e-23  5.2123e-27  4.9780e-23  1.1153e-26  7.8713e-23  2.3251e-26  1.3443e-22  4.8424e-26  2.4705e-22
      7.55  8.6058e-32  1.5978e-23  9.4965e-32  1.5982e-23  1.2089e-31  1.5990e-23  1.9862e-31  1.6004e-23  4.3219e-31  1.6028e-23  1.0274e-30  1.6072e-23  2.6605e-30  1.6149e-23  7.0819e-30  1.6286e-23  1.5758e-29  1.6531e-23  3.0603e-29  1.6966e-23  6.1937e-29  1.7741e-23  1.4146e-28  1.9124e-23  3.4442e-28  2.1593e-23  8.4960e-28  2.6023e-23  2.0424e-27  3.4025e-23  4.6903e-27  4.8651e-23  1.0281e-26  7.5925e-23  2.1841e-26  1.2845e-22  4.6097e-26  2.3457e-22
      7.60  7.7016e-32  1.6873e-23  8.5205e-32  1.6877e-23  1.0997e-31  1.6885e-23  1.8278e-31  1.6898e-23  3.9649e-31  1.6921e-23  9.6544e-31  1.6963e-23  2.4911e-30  1.7037e-23  6.5440e-30  1.7169e-23  1.3720e-29  1.7405e-23  2.6965e-29  1.7823e-23  5.3206e-29  1.8568e-23  1.1813e-28  1.9897e-23  2.8275e-28  2.2272e-23  6.9624e-28  2.6533e-23  1.6942e-27  3.4228e-23  3.9692e-27  4.8295e-23  8.8876e-27  7.4526e-23  1.9225e-26  1.2503e-22  4.1127e-26  2.2707e-22
      7.65  6.9647e-32  1.7807e-23  7.7372e-32  1.7811e-23  1.0092e-31  1.7818e-23  1.6991e-31  1.7831e-23  3.7122e-31  1.7854e-23  9.1927e-31  1.7895e-23  2.3803e-30  1.7967e-23  6.2302e-30  1.8096e-23  1.2187e-29  1.8326e-23  2.4054e-29  1.8735e-23  4.6663e-29  1.9464e-23  1.0056e-28  2.0763e-23  2.3507e-28  2.3085e-23  5.7312e-28  2.7250e-23  1.4018e-27  3.4775e-23  3.3366e-27  4.8529e-23  7.6210e-27  7.4177e-23  1.6794e-26  1.2356e-22  3.6455e-26  2.2330e-22
      7.70  6.3490e-32  1.8779e-23  7.0828e-32  1.8783e-23  9.3367e-32  1.8790e-23  1.5908e-31  1.8803e-23  3.4985e-31  1.8825e-23  8.7851e-31  1.8866e-23  2.2980e-30  1.8938e-23  6.0198e-30  1.9066e-23  1.1100e-29  1.9293e-23  2.1346e-29  1.9698e-23  4.1300e-29  2.0420e-23  8.6525e-29  2.1706e-23  1.9696e-28  2.4006e-23  4.7297e-28  2.8132e-23  1.1560e-27  3.5585e-23  2.7837e-27  4.9210e-23  6.4750e-27  7.4614e-23  1.4540e-26  1.2352e-22  3.2062e-26  2.2230e-22
      7.75  5.8526e-32  1.9789e-23  6.5527e-32  1.9793e-23  8.7169e-32  1.9800e-23  1.5015e-31  1.9813e-23  3.3161e-31  1.9836e-23  8.3270e-31  1.9876e-23  2.2071e-30  1.9948e-23  5.5410e-30  2.0076e-23  1.0129e-29  2.0304e-23  1.9187e-29  2.0708e-23  3.6932e-29  2.1430e-23  7.5360e-29  2.2716e-23  1.6670e-28  2.5014e-23  3.9219e-28  2.9138e-23  9.5188e-28  3.6589e-23  2.3075e-27  5.0209e-23  5.4520e-27  7.5605e-23  1.2472e-26  1.2449e-22  2.7965e-26  2.2323e-22
      7.80  5.4408e-32  2.0942e-23  6.1030e-32  2.0946e-23  8.1678e-32  2.0953e-23  1.4151e-31  2.0966e-23  3.1311e-31  2.0989e-23  7.9946e-31  2.1029e-23  2.1051e-30  2.1102e-23  5.0526e-30  2.1231e-23  9.2612e-30  2.1460e-23  1.7324e-29  2.1867e-23  3.3355e-29  2.2594e-23  6.5922e-29  2.3889e-23  1.4221e-28  2.6204e-23  3.2684e-28  3.0357e-23  7.8402e-28  3.7862e-23  1.9046e-27  5.1581e-23  4.5590e-27  7.7160e-23  1.0619e-26  1.2640e-22  2.4236e-26  2.2583e-22
      7.85  5.0936e-32  2.2146e-23  5.7089e-32  2.2151e-23  7.6403e-32  2.2158e-23  1.3128e-31  2.2171e-23  2.8925e-31  2.2194e-23  7.3788e-31  2.2235e-23  1.9502e-30  2.2308e-23  4.6565e-30  2.2438e-23  8.4087e-30  2.2669e-23  1.5567e-29  2.3081e-23  2.9598e-29  2.3814e-23  5.8031e-29  2.5122e-23  1.2172e-28  2.7460e-23  2.7320e-28  3.1654e-23  6.4589e-28  3.9231e-23  1.5666e-27  5.3084e-23  3.7889e-27  7.8913e-23  8.9804e-27  1.2863e-22  2.0885e-26  2.2902e-22
      7.90  4.8006e-32  2.3404e-23  5.3468e-32  2.3408e-23  7.0906e-32  2.3416e-23  1.2092e-31  2.3429e-23  2.6606e-31  2.3452e-23  6.7453e-31  2.3493e-23  1.7920e-30  2.3567e-23  4.0055e-30  2.3698e-23  7.2806e-30  2.3932e-23  1.3368e-29  2.4348e-23  2.5250e-29  2.5088e-23  4.8862e-29  2.6408e-23  1.0045e-28  2.8767e-23  2.2071e-28  3.3001e-23  5.1428e-28  4.0651e-23  1.2439e-27  5.4635e-23  3.0373e-27  8.0709e-23  7.3300e-27  1.3089e-22  1.7404e-26  2.3221e-22
      7.95  4.5522e-32  2.4715e-23  5.0304e-32  2.4719e-23  6.5704e-32  2.4726e-23  1.1060e-31  2.4740e-23  2.3768e-31  2.4763e-23  5.9683e-31  2.4805e-23  1.5738e-30  2.4879e-23  3.3965e-30  2.5011e-23  6.1530e-30  2.5246e-23  1.1240e-29  2.5664e-23  2.1015e-29  2.6409e-23  4.0390e-29  2.7737e-23  8.1547e-29  3.0112e-23  1.7559e-28  3.4372e-23  4.0260e-28  4.2069e-23  9.6735e-28  5.6141e-23  2.3746e-27  8.2377e-23  5.8158e-27  1.3287e-22  1.4076e-26  2.3480e-22
      8.00  4.3414e-32  2.6079e-23  4.7468e-32  2.6083e-23  6.0648e-32  2.6090e-23  9.9211e-32  2.6103e-23  2.0779e-31  2.6127e-23  5.1478e-31  2.6169e-23  1.3929e-30  2.6506e-23  2.8239e-30  2.6376e-23  5.0505e-30  2.6611e-23  9.2669e-30  2.7030e-23  1.7206e-29  2.7777e-23  3.2880e-29  2.9108e-23  6.5363e-29  3.1487e-23  1.3823e-28  3.5757e-23  3.1179e-28  4.3472e-23  7.4253e-28  5.7574e-23  1.8258e-27  8.3866e-23  4.5233e-27  1.3446e-22  1.1136e-26  2.3659e-22
      8.05  4.1636e-32  2.7629e-23  4.4962e-32  2.7633e-23  5.5895e-32  2.7640e-23  8.7934e-32  2.7653e-23  1.7942e-31  2.7677e-23  4.3278e-31  2.7719e-23  1.1298e-30  2.7793e-23  2.3435e-30  2.7926e-23  4.1009e-30  2.8161e-23  7.4969e-30  2.8581e-23  1.3840e-29  2.9327e-23  2.6283e-29  3.0659e-23  5.1737e-29  3.3040e-23  1.0782e-28  3.7312e-23  2.3985e-28  4.5029e-23  5.6631e-28  5.9137e-23  1.3930e-27  8.5438e-23  3.4843e-27  1.3605e-22  8.7140e-27  2.3818e-22
      8.10  4.0153e-32  2.9251e-23  4.2798e-32  2.9255e-23  5.1488e-32  2.9262e-23  7.7071e-32  2.9276e-23  1.4990e-31  2.9299e-23  3.5577e-31  2.9341e-23  9.2850e-31  2.9415e-23  1.8530e-30  2.9547e-23  3.2653e-30  2.9782e-23  5.8947e-30  3.0200e-23  1.0936e-29  3.0944e-23  2.0627e-29  3.2272e-23  4.0354e-29  3.4645e-23  8.3111e-29  3.8904e-23  1.8268e-28  4.6597e-23  4.2784e-28  6.0660e-23  1.0516e-27  8.6875e-23  2.6508e-27  1.3731e-22  6.7233e-27  2.3908e-22
      8.15  3.8931e-32  3.0945e-23  4.0983e-32  3.0949e-23  4.7795e-32  3.0957e-23  6.7661e-32  3.0970e-23  1.2524e-31  3.0993e-23  2.8762e-31  3.1035e-23  7.4085e-31  3.1109e-23  1.4398e-30  3.1240e-23  2.5824e-30  3.1473e-23  4.6024e-30  3.1889e-23  8.4247e-30  3.2630e-23  1.5941e-29  3.3950e-23  3.0976e-29  3.6311e-23  6.3131e-29  4.0546e-23  1.3712e-28  4.8197e-23  3.1823e-28  6.2182e-23  7.8002e-28  8.8250e-23  1.9767e-27  1.3840e-22  5.0751e-27  2.3955e-22
      8.20  3.7974e-32  3.2711e-23  3.9497e-32  3.2715e-23  4.4722e-32  3.2723e-23  6.0015e-32  3.2736e-23  1.0406e-31  3.2759e-23  2.2993e-31  3.2800e-23  5.8155e-31  3.2873e-23  1.1163e-30  3.3004e-23  1.9966e-30  3.3236e-23  3.5816e-30  3.3649e-23  6.5328e-30  3.4385e-23  1.2195e-29  3.5697e-23  2.3553e-29  3.8041e-23  4.7705e-29  4.2249e-23  1.0274e-28  4.9850e-23  2.3685e-28  6.3742e-23  5.7950e-28  8.9633e-23  1.4757e-27  1.3943e-22  3.8303e-27  2.3986e-22
      8.25  3.7108e-32  3.4546e-23  3.8276e-32  3.4550e-23  4.1939e-32  3.4558e-23  5.3829e-32  3.4570e-23  8.7284e-32  3.4593e-23  1.8321e-31  3.4634e-23  4.5237e-31  3.4707e-23  8.6740e-31  3.4837e-23  1.5294e-30  3.5067e-23  2.7113e-30  3.5478e-23  4.9323e-30  3.6209e-23  9.2625e-30  3.7512e-23  1.7814e-29  3.9842e-23  3.5920e-29  4.4023e-23  7.6941e-29  5.1574e-23  1.7660e-28  6.5376e-23  4.3180e-28  9.1094e-23  1.1047e-27  1.4055e-22  2.8960e-27  2.4027e-22
      8.30  3.6475e-32  3.6617e-23  3.7314e-32  3.6621e-23  4.0027e-32  3.6628e-23  4.8627e-32  3.6641e-23  7.3825e-32  3.6664e-23  1.4609e-31  3.6705e-23  3.5088e-31  3.6778e-23  6.6600e-31  3.6907e-23  1.1674e-30  3.7137e-23  2.0823e-30  3.7547e-23  3.7774e-30  3.8277e-23  7.0101e-30  3.9578e-23  1.3443e-29  4.1903e-23  2.7010e-29  4.6076e-23  5.7684e-29  5.3613e-23  1.3207e-28  6.7385e-23  3.2304e-28  9.3049e-23  8.3035e-28  1.4239e-22  2.1965e-27  2.4184e-22
      8.35  3.5967e-32  3.8769e-23  3.6600e-32  3.8773e-23  3.8607e-32  3.8780e-23  4.4869e-32  3.8793e-23  6.3106e-32  3.8816e-23  1.1569e-31  3.8857e-23  2.6773e-31  3.8930e-23  5.0155e-31  3.9059e-23  8.7223e-31  3.9290e-23  1.5486e-30  3.9699e-23  2.8028e-30  4.0429e-23  5.1937e-30  4.1731e-23  9.9515e-30  4.4057e-23  1.9991e-29  4.8231e-23  4.2728e-29  5.5770e-23  9.8025e-29  6.9546e-23  2.4075e-28  9.5211e-23  6.2316e-28  1.4455e-22  1.6649e-27  2.4396e-22
      8.40  3.5928e-32  4.1404e-23  3.6017e-32  4.0995e-23  3.7437e-32  4.1002e-23  4.1982e-32  4.1015e-23  5.5985e-32  4.1451e-23  9.3027e-32  4.1079e-23  2.0086e-31  4.1152e-23  3.7237e-31  4.1282e-23  6.4056e-31  4.1513e-23  1.1303e-30  4.1924e-23  2.0398e-30  4.2656e-23  3.7771e-30  4.3961e-23  7.2438e-30  4.6294e-23  1.4589e-29  5.0480e-23  3.1312e-29  5.8040e-23  7.2269e-29  7.1853e-23  1.7881e-28  9.7585e-23  4.6710e-28  1.4704e-22  1.2617e-27  2.4666e-22
      8.45  3.5245e-32  4.3267e-23  3.5575e-32  4.3271e-23  3.6615e-32  4.3278e-23  3.9666e-32  4.3291e-23  4.9389e-32  4.3315e-23  7.6969e-32  4.3356e-23  1.5517e-31  4.3429e-23  2.8084e-31  4.3560e-23  4.7645e-31  4.3792e-23  8.3390e-31  4.4205e-23  1.4987e-30  4.4941e-23  2.7713e-30  4.6253e-23  5.3178e-30  4.8598e-23  1.0735e-29  5.2806e-23  2.3133e-29  6.0406e-23  5.3690e-29  7.4290e-23  1.3377e-28  1.0015e-22  3.4997e-28  1.4984e-22  9.6104e-28  2.4991e-22
      8.50  3.4995e-32  4.5577e-23  3.5237e-32  4.5582e-23  3.6030e-32  4.5589e-23  3.8290e-32  4.5602e-23  4.5288e-32  4.5625e-23  6.5417e-32  4.5667e-23  1.2307e-31  4.5741e-23  2.1388e-31  4.5872e-23  3.5648e-31  4.6106e-23  6.2288e-31  4.6522e-23  1.1130e-30  4.7264e-23  2.0531e-30  4.8585e-23  3.9396e-30  5.0948e-23  7.9675e-30  5.5186e-23  1.7230e-29  6.2840e-23  4.0184e-29  7.6824e-23  1.0074e-28  1.0287e-22  2.6728e-28  1.5289e-22  7.3531e-28  2.5361e-22
