# This was generated using Cloudy10 and the columns are ordered 
# as log10 of the fraction of the metallicity to the solar metallicity
# 'h_*_Z' and 'c_*_Z' stands for cooling and heating respectively 
# at * metalicity
#
# NOTE: This was generated separately from loop_coolingcurve_w_UV.py
#       using Output_metals_w_redshift.py.
#
# Redshift = 1.5
# hden = -4.0
#
#     temp   h_-3.00_Z   c_-3.00_Z   h_-2.75_Z   c_-2.75_Z   h_-2.50_Z   c_-2.50_Z   h_-2.25_Z   c_-2.25_Z   h_-2.00_Z   c_-2.00_Z   h_-1.75_Z   c_-1.75_Z   h_-1.50_Z   c_-1.50_Z   h_-1.25_Z   c_-1.25_Z   h_-1.00_Z   c_-1.00_Z   h_-0.75_Z   c_-0.75_Z   h_-0.50_Z   c_-0.50_Z   h_-0.25_Z   c_-0.25_Z    h_0.00_Z    c_0.00_Z    h_0.25_Z    c_0.25_Z    h_0.50_Z    c_0.50_Z    h_0.75_Z    c_0.75_Z    h_1.00_Z    c_1.00_Z    h_1.25_Z    c_1.25_Z    h_1.50_Z    c_1.50_Z 
      4.00  8.5431e-24  1.0360e-24  8.5474e-24  1.0398e-24  8.5551e-24  1.0466e-24  8.5687e-24  1.0586e-24  8.5929e-24  1.0800e-24  8.6359e-24  1.1180e-24  8.7123e-24  1.1856e-24  8.8482e-24  1.3059e-24  9.0896e-24  1.5199e-24  9.5184e-24  1.9007e-24  1.0280e-23  2.5787e-24  1.1629e-23  3.7872e-24  1.4018e-23  5.9448e-24  1.8243e-23  9.8074e-24  2.5764e-23  1.6750e-23  3.9226e-23  2.9325e-23  6.3540e-23  5.2404e-23  1.0791e-22  9.5705e-23  1.9006e-22  1.7981e-22
      4.05  7.8991e-24  1.0791e-24  7.9032e-24  1.0828e-24  7.9107e-24  1.0894e-24  7.9239e-24  1.1011e-24  7.9474e-24  1.1220e-24  7.9893e-24  1.1590e-24  8.0636e-24  1.2249e-24  8.1958e-24  1.3422e-24  8.4306e-24  1.5507e-24  8.8477e-24  1.9219e-24  9.5880e-24  2.5829e-24  1.0900e-23  3.7610e-24  1.3224e-23  5.8645e-24  1.7333e-23  9.6311e-24  2.4652e-23  1.6403e-23  3.7753e-23  2.8676e-23  6.1435e-23  5.1219e-23  1.0465e-22  9.3575e-23  1.8469e-22  1.7603e-22
      4.10  7.3001e-24  1.1242e-24  7.3042e-24  1.1279e-24  7.3114e-24  1.1344e-24  7.3243e-24  1.1460e-24  7.3472e-24  1.1666e-24  7.3878e-24  1.2032e-24  7.4601e-24  1.2683e-24  7.5886e-24  1.3841e-24  7.8169e-24  1.5901e-24  8.2225e-24  1.9567e-24  8.9423e-24  2.6097e-24  1.0218e-23  3.7735e-24  1.2478e-23  5.8518e-24  1.6473e-23  9.5741e-24  2.3592e-23  1.6270e-23  3.6339e-23  2.8412e-23  5.9394e-23  5.0736e-23  1.0147e-22  9.2754e-23  1.7944e-22  1.7478e-22
      4.15  6.7434e-24  1.1723e-24  6.7473e-24  1.1760e-24  6.7544e-24  1.1825e-24  6.7669e-24  1.1942e-24  6.7891e-24  1.2150e-24  6.8286e-24  1.2519e-24  6.8989e-24  1.3175e-24  7.0238e-24  1.4343e-24  7.2458e-24  1.6420e-24  7.6401e-24  2.0117e-24  8.3398e-24  2.6700e-24  9.5804e-24  3.8437e-24  1.1777e-23  5.9400e-24  1.5661e-23  9.6956e-24  2.2584e-23  1.6455e-23  3.4984e-23  2.8725e-23  5.7425e-23  5.1307e-23  9.8379e-23  9.3901e-23  1.7432e-22  1.7733e-22
      4.20  6.2260e-24  1.2248e-24  6.2299e-24  1.2286e-24  6.2367e-24  1.2355e-24  6.2489e-24  1.2476e-24  6.2705e-24  1.2692e-24  6.3089e-24  1.3076e-24  6.3773e-24  1.3758e-24  6.4988e-24  1.4972e-24  6.7147e-24  1.7133e-24  7.0980e-24  2.0977e-24  7.7786e-24  2.7825e-24  8.9851e-24  4.0034e-24  1.1121e-23  6.1846e-24  1.4899e-23  1.0094e-23  2.1635e-23  1.7135e-23  3.3702e-23  2.9931e-23  5.5553e-23  5.3511e-23  9.5436e-23  9.8100e-23  1.6944e-22  1.8579e-22
      4.25  5.7454e-24  1.2841e-24  5.7492e-24  1.2883e-24  5.7558e-24  1.2957e-24  5.7677e-24  1.3088e-24  5.7887e-24  1.3322e-24  5.8262e-24  1.3739e-24  5.8927e-24  1.4480e-24  6.0110e-24  1.5797e-24  6.2213e-24  1.8141e-24  6.5947e-24  2.2313e-24  7.2574e-24  2.9744e-24  8.4324e-24  4.2997e-24  1.0513e-23  6.6678e-24  1.4192e-23  1.0915e-23  2.0755e-23  1.8569e-23  3.2514e-23  3.2500e-23  5.3820e-23  5.8202e-23  9.2713e-23  1.0694e-22  1.6493e-22  2.0322e-22
      4.30  5.2992e-24  1.3556e-24  5.3028e-24  1.3604e-24  5.3093e-24  1.3688e-24  5.3209e-24  1.3838e-24  5.3414e-24  1.4106e-24  5.3780e-24  1.4581e-24  5.4430e-24  1.5426e-24  5.5585e-24  1.6929e-24  5.7637e-24  1.9604e-24  6.1283e-24  2.4365e-24  6.7753e-24  3.2847e-24  7.9225e-24  4.7975e-24  9.9535e-24  7.5019e-24  1.3546e-23  1.2354e-23  1.9956e-23  2.1108e-23  3.1448e-23  3.7056e-23  5.2271e-23  6.6522e-23  9.0298e-23  1.2255e-22  1.6096e-22  2.3368e-22
      4.35  4.8847e-24  1.4412e-24  4.8883e-24  1.4469e-24  4.8946e-24  1.4571e-24  4.9060e-24  1.4751e-24  4.9261e-24  1.5072e-24  4.9619e-24  1.5642e-24  5.0256e-24  1.6656e-24  5.1388e-24  1.8460e-24  5.3399e-24  2.1669e-24  5.6970e-24  2.7383e-24  6.3310e-24  3.7562e-24  7.4548e-24  5.5722e-24  9.4448e-24  8.8196e-24  1.2965e-23  1.4649e-23  1.9250e-23  2.5175e-23  3.0521e-23  4.4366e-23  5.0943e-23  7.9867e-23  8.8258e-23  1.4752e-22  1.5764e-22  2.8216e-22
      4.40  4.4993e-24  1.5453e-24  4.5031e-24  1.5524e-24  4.5093e-24  1.5651e-24  4.5205e-24  1.5876e-24  4.5403e-24  1.6277e-24  4.5755e-24  1.6990e-24  4.6382e-24  1.8257e-24  4.7495e-24  2.0512e-24  4.9474e-24  2.4524e-24  5.2988e-24  3.1667e-24  5.9224e-24  4.4393e-24  7.0281e-24  6.7102e-24  8.9857e-24  1.0772e-23  1.2449e-23  1.8068e-23  1.8637e-23  3.1249e-23  2.9738e-23  5.5290e-23  4.9853e-23  9.9804e-23  8.6625e-23  1.8476e-22  1.5506e-22  3.5422e-22
      4.45  4.1414e-24  1.6720e-24  4.1449e-24  1.6811e-24  4.1511e-24  1.6974e-24  4.1621e-24  1.7263e-24  4.1817e-24  1.7777e-24  4.2165e-24  1.8691e-24  4.2784e-24  2.0316e-24  4.3884e-24  2.3208e-24  4.5838e-24  2.8354e-24  4.9309e-24  3.7515e-24  5.5469e-24  5.3839e-24  6.6389e-24  8.2973e-24  8.5724e-24  1.3510e-23  1.1993e-23  2.2875e-23  1.8111e-23  3.9805e-23  2.9092e-23  7.0679e-23  4.8987e-23  1.2789e-22  8.5375e-23  2.3718e-22  1.5314e-22  4.5548e-22
      4.50  3.8080e-24  1.8247e-24  3.8115e-24  1.8367e-24  3.8176e-24  1.8580e-24  3.8285e-24  1.8958e-24  3.8479e-24  1.9631e-24  3.8824e-24  2.0828e-24  3.9438e-24  2.2956e-24  4.0528e-24  2.6743e-24  4.2465e-24  3.3481e-24  4.5905e-24  4.5478e-24  5.2010e-24  6.6860e-24  6.2831e-24  1.0502e-23  8.1990e-24  1.7331e-23  1.1589e-23  2.9606e-23  1.7659e-23  5.1808e-23  2.8558e-23  9.2280e-23  4.8302e-23  1.6733e-22  8.4432e-23  3.1079e-22  1.5177e-22  5.9765e-22
      4.55  3.4972e-24  2.0079e-24  3.5006e-24  2.0234e-24  3.5067e-24  2.0511e-24  3.5175e-24  2.1002e-24  3.5368e-24  2.1875e-24  3.5711e-24  2.3428e-24  3.6321e-24  2.6191e-24  3.7404e-24  3.1106e-24  3.9328e-24  3.9853e-24  4.2746e-24  5.5426e-24  4.8811e-24  8.3180e-24  5.9560e-24  1.3272e-23  7.8591e-24  2.2140e-23  1.1229e-23  3.8081e-23  1.7265e-23  6.6930e-23  2.8108e-23  1.1949e-22  4.7752e-23  2.1701e-22  8.3716e-23  4.0353e-22  1.5080e-22  7.7672e-22
      4.60  3.2068e-24  2.2172e-24  3.2102e-24  2.2372e-24  3.2162e-24  2.2727e-24  3.2270e-24  2.3360e-24  3.2462e-24  2.4484e-24  3.2803e-24  2.6484e-24  3.3410e-24  3.0042e-24  3.4488e-24  3.6371e-24  3.6403e-24  4.7633e-24  3.9804e-24  6.7687e-24  4.5838e-24  1.0343e-23  5.6534e-24  1.6724e-23  7.5467e-24  2.8146e-23  1.0903e-23  4.8685e-23  1.6914e-23  8.5876e-23  2.7719e-23  1.5360e-22  4.7296e-23  2.7934e-22  8.3157e-23  5.2001e-22  1.5010e-22  1.0020e-21
      4.65  2.9350e-24  2.4539e-24  2.9383e-24  2.4794e-24  2.9444e-24  2.5248e-24  2.9552e-24  2.6056e-24  2.9743e-24  2.7493e-24  3.0083e-24  3.0048e-24  3.0687e-24  3.4593e-24  3.1761e-24  4.2679e-24  3.3668e-24  5.7070e-24  3.7055e-24  8.2693e-24  4.3065e-24  1.2837e-23  5.3717e-24  2.0991e-23  7.2572e-24  3.5592e-23  1.0604e-23  6.1851e-23  1.6595e-23  1.0941e-22  2.7374e-23  1.9602e-22  4.6904e-23  3.5692e-22  8.2703e-23  6.6514e-22  1.4960e-22  1.2831e-21
      4.70  2.6804e-24  2.7202e-24  2.6838e-24  2.7525e-24  2.6898e-24  2.8098e-24  2.7005e-24  2.9118e-24  2.7196e-24  3.0932e-24  2.7534e-24  3.4159e-24  2.8136e-24  3.9898e-24  2.9206e-24  5.0107e-24  3.1107e-24  6.8278e-24  3.4481e-24  1.0063e-23  4.0469e-24  1.5831e-23  5.1082e-24  2.6131e-23  6.9871e-24  4.4577e-23  1.0324e-23  7.7759e-23  1.6301e-23  1.3786e-22  2.7057e-23  2.4737e-22  4.6551e-23  4.5094e-22  8.2312e-23  8.4129e-22  1.4922e-22  1.6249e-21
      4.75  2.4419e-24  3.0244e-24  2.4453e-24  3.0646e-24  2.4513e-24  3.1360e-24  2.4619e-24  3.2631e-24  2.4809e-24  3.4890e-24  2.5146e-24  3.8909e-24  2.5746e-24  4.6058e-24  2.6811e-24  5.8776e-24  2.8704e-24  8.1412e-24  3.2066e-24  1.2172e-23  3.8031e-24  1.9359e-23  4.8605e-24  3.2194e-23  6.7327e-24  5.5187e-23  1.0060e-23  9.6556e-23  1.6021e-23  1.7150e-22  2.6755e-23  3.0805e-22  4.6215e-23  5.6216e-22  8.1945e-23  1.0500e-21  1.4889e-22  2.0313e-21
      4.80  2.2186e-24  3.3835e-24  2.2219e-24  3.4328e-24  2.2279e-24  3.5205e-24  2.2385e-24  3.6764e-24  2.2574e-24  3.9536e-24  2.2909e-24  4.4467e-24  2.3506e-24  5.3238e-24  2.4566e-24  6.8843e-24  2.6450e-24  9.6618e-24  2.9796e-24  1.4608e-23  3.5733e-24  2.3428e-23  4.6258e-24  3.9184e-23  6.4900e-24  6.7416e-23  9.8046e-24  1.1823e-22  1.5745e-23  2.1027e-22  2.6448e-23  3.7800e-22  4.5857e-23  6.9056e-22  8.1531e-23  1.2916e-21  1.4848e-22  2.5032e-21
      4.85  2.0094e-24  3.8245e-24  2.0127e-24  3.8840e-24  2.0187e-24  3.9897e-24  2.0292e-24  4.1778e-24  2.0479e-24  4.5123e-24  2.0813e-24  5.1072e-24  2.1405e-24  6.1655e-24  2.2458e-24  8.0484e-24  2.4329e-24  1.1400e-23  2.7653e-24  1.7369e-23  3.3551e-24  2.8013e-23  4.4010e-24  4.7033e-23  6.2542e-24  8.1123e-23  9.5495e-24  1.4249e-22  1.5460e-23  2.5361e-22  2.6110e-23  4.5633e-22  4.5435e-23  8.3450e-22  8.0992e-23  1.5630e-21  1.4783e-22  3.0355e-21
      4.90  1.8129e-24  4.3881e-24  1.8162e-24  4.4586e-24  1.8221e-24  4.5839e-24  1.8325e-24  4.8067e-24  1.8511e-24  5.2030e-24  1.8841e-24  5.9078e-24  1.9428e-24  7.1615e-24  2.0470e-24  9.3921e-24  2.2323e-24  1.3363e-23  2.5615e-24  2.0435e-23  3.1457e-24  3.3049e-23  4.1820e-24  5.5593e-23  6.0191e-24  9.6012e-23  9.2857e-24  1.6881e-22  1.5149e-23  3.0054e-22  2.5715e-23  5.4115e-22  4.4899e-23  9.9056e-22  8.0236e-23  1.8580e-21  1.4677e-22  3.6167e-21
      4.95  1.6269e-24  5.1151e-24  1.6302e-24  5.1970e-24  1.6359e-24  5.3425e-24  1.6462e-24  5.6014e-24  1.6645e-24  6.0618e-24  1.6971e-24  6.8806e-24  1.7549e-24  8.3371e-24  1.8578e-24  1.0929e-23  2.0406e-24  1.5542e-23  2.3652e-24  2.3760e-23  2.9416e-24  3.8419e-23  3.9643e-24  6.4624e-23  5.7781e-24  1.1162e-22  9.0031e-24  1.9631e-22  1.4796e-23  3.4949e-22  2.5235e-23  6.2960e-22  4.4202e-23  1.1535e-21  7.9174e-23  2.1669e-21  1.4514e-22  4.2282e-21
      5.00  1.4481e-24  6.0305e-24  1.4513e-24  6.1237e-24  1.4570e-24  6.2894e-24  1.4671e-24  6.5840e-24  1.4850e-24  7.1080e-24  1.5170e-24  8.0401e-24  1.5737e-24  9.6980e-24  1.6746e-24  1.2648e-23  1.8540e-24  1.7900e-23  2.1727e-24  2.7256e-23  2.7385e-24  4.3948e-23  3.7427e-24  7.3794e-23  5.5245e-24  1.2734e-22  8.6924e-24  2.2389e-22  1.4386e-23  3.9841e-22  2.4648e-23  7.1794e-22  4.3301e-23  1.3164e-21  7.7729e-23  2.4767e-21  1.4277e-22  4.8452e-21
      5.05  1.2729e-24  7.1240e-24  1.2760e-24  7.2279e-24  1.2816e-24  7.4126e-24  1.2914e-24  7.7411e-24  1.3090e-24  8.3254e-24  1.3401e-24  9.3641e-24  1.3955e-24  1.1212e-23  1.4940e-24  1.4501e-23  1.6690e-24  2.0355e-23  1.9799e-24  3.0787e-23  2.5321e-24  4.9401e-23  3.5124e-24  8.2691e-23  5.2522e-24  1.4244e-22  8.3460e-24  2.5023e-22  1.3909e-23  4.4495e-22  2.3935e-23  8.0190e-22  4.2168e-23  1.4714e-21  7.5845e-23  2.7725e-21  1.3955e-22  5.4382e-21
      5.10  1.0990e-24  8.3003e-24  1.1020e-24  8.4137e-24  1.1074e-24  8.6153e-24  1.1169e-24  8.9739e-24  1.1339e-24  9.6117e-24  1.1641e-24  1.0746e-23  1.2178e-24  1.2764e-23  1.3133e-24  1.6354e-23  1.4829e-24  2.2747e-23  1.7844e-24  3.4138e-23  2.3198e-24  5.4450e-23  3.2705e-24  9.0805e-23  4.9581e-24  1.5609e-22  7.9600e-24  2.7392e-22  1.3360e-23  4.8654e-22  2.3090e-23  8.7686e-22  4.0790e-23  1.6100e-21  7.3494e-23  3.0380e-21  1.3540e-22  5.9745e-21
      5.15  9.2703e-25  9.4148e-24  9.2994e-25  9.5361e-24  9.3511e-25  9.7518e-24  9.4431e-25  1.0135e-23  9.6066e-25  1.0817e-23  9.8974e-25  1.2031e-23  1.0414e-24  1.4186e-23  1.1334e-24  1.8025e-23  1.2967e-24  2.4859e-23  1.5870e-24  3.7040e-23  2.1027e-24  5.8774e-23  3.0182e-24  9.7678e-23  4.6437e-24  1.6745e-22  7.5378e-24  2.9338e-22  1.2741e-23  5.2072e-22  2.2117e-23  9.3843e-22  3.9170e-23  1.7239e-21  7.0679e-23  3.2571e-21  1.3033e-22  6.4206e-21
      5.20  7.6200e-25  1.0293e-23  7.6478e-25  1.0421e-23  7.6972e-25  1.0646e-23  7.7852e-25  1.1048e-23  7.9416e-25  1.1763e-23  8.2197e-25  1.3034e-23  8.7141e-25  1.5294e-23  9.5931e-25  1.9318e-23  1.1155e-24  2.6482e-23  1.3932e-24  3.9228e-23  1.8862e-24  6.2003e-23  2.7617e-24  1.0277e-22  4.3160e-24  1.7606e-22  7.0909e-24  3.0779e-22  1.2070e-23  5.4608e-22  2.1039e-23  9.8409e-22  3.7346e-23  1.8086e-21  6.7456e-23  3.4203e-21  1.2440e-22  6.7550e-21
      5.25  6.1145e-25  1.0805e-23  6.1409e-25  1.0936e-23  6.1879e-25  1.1168e-23  6.2714e-25  1.1581e-23  6.4199e-25  1.2315e-23  6.6840e-25  1.3621e-23  7.1536e-25  1.5945e-23  7.9884e-25  2.0081e-23  9.4721e-25  2.7446e-23  1.2108e-24  4.0576e-23  1.6791e-24  6.4024e-23  2.5102e-24  1.0591e-22  3.9855e-24  1.8134e-22  6.6269e-24  3.1644e-22  1.1358e-23  5.6125e-22  1.9875e-23  1.0113e-21  3.5347e-23  1.8585e-21  6.3873e-23  3.5192e-21  1.1770e-22  6.9556e-21
      5.30  4.8200e-25  1.0926e-23  4.8449e-25  1.1058e-23  4.8892e-25  1.1293e-23  4.9680e-25  1.1709e-23  5.1081e-25  1.2450e-23  5.3572e-25  1.3769e-23  5.8001e-25  1.6114e-23  6.5875e-25  2.0287e-23  7.9867e-25  2.7721e-23  1.0473e-24  4.0914e-23  1.4888e-24  6.4539e-23  2.2723e-24  1.0685e-22  3.6661e-24  1.8272e-22  6.1587e-24  3.1872e-22  1.0620e-23  5.6517e-22  1.8646e-23  1.0181e-21  3.3206e-23  1.8703e-21  5.9989e-23  3.5360e-21  1.1034e-22  6.9854e-21
      5.35  3.7658e-25  1.0728e-23  3.7891e-25  1.0858e-23  3.8306e-25  1.1090e-23  3.9044e-25  1.1503e-23  4.0357e-25  1.2238e-23  4.2690e-25  1.3544e-23  4.6840e-25  1.5867e-23  5.4217e-25  2.0003e-23  6.7325e-25  2.7369e-23  9.0613e-25  4.0502e-23  1.3196e-24  6.3958e-23  2.0533e-24  1.0595e-22  3.3613e-24  1.8098e-22  5.6968e-24  3.1568e-22  9.8748e-24  5.5963e-22  1.7382e-23  1.0076e-21  3.0977e-23  1.8491e-21  5.5905e-23  3.4908e-21  1.0253e-22  6.8775e-21
      5.40  2.9418e-25  1.0321e-23  2.9636e-25  1.0448e-23  3.0022e-25  1.0674e-23  3.0709e-25  1.1077e-23  3.1932e-25  1.1792e-23  3.4105e-25  1.3065e-23  3.7970e-25  1.5330e-23  4.4839e-25  1.9360e-23  5.7047e-25  2.6536e-23  7.8731e-25  3.9330e-23  1.1723e-24  6.2176e-23  1.8559e-24  1.0302e-22  3.0756e-24  1.7590e-22  5.2506e-24  3.0681e-22  9.1389e-24  5.4370e-22  1.6118e-23  9.7800e-22  2.8729e-23  1.7918e-21  5.1771e-23  3.3723e-21  9.4603e-23  6.6129e-21
      5.45  2.3142e-25  9.8203e-24  2.3343e-25  9.9430e-24  2.3701e-25  1.0161e-23  2.4338e-25  1.0549e-23  2.5472e-25  1.1239e-23  2.7487e-25  1.2467e-23  3.1071e-25  1.4650e-23  3.7440e-25  1.8536e-23  4.8759e-25  2.5454e-23  6.8865e-25  3.7782e-23  1.0455e-24  5.9786e-23  1.6805e-24  9.9016e-23  2.8117e-24  1.6910e-22  4.8283e-24  2.9492e-22  8.4310e-24  5.2235e-22  1.4890e-23  9.3855e-22  2.6537e-23  1.7160e-21  4.7741e-23  3.2177e-21  8.6912e-23  6.2697e-21
      5.50  1.8417e-25  9.2914e-24  1.8604e-25  9.4095e-24  1.8935e-25  9.6195e-24  1.9524e-25  9.9929e-24  2.0573e-25  1.0657e-23  2.2438e-25  1.1838e-23  2.5754e-25  1.3939e-23  3.1648e-25  1.7678e-23  4.2122e-25  2.4333e-23  6.0725e-25  3.6187e-23  9.3754e-25  5.7323e-23  1.5256e-24  9.4981e-23  2.5723e-24  1.6229e-22  4.4379e-24  2.8303e-22  7.7690e-24  5.0110e-22  1.3735e-23  8.9949e-22  2.4476e-23  1.6415e-21  4.3975e-23  3.0672e-21  7.9811e-23  5.9404e-21
      5.55  1.4866e-25  8.8118e-24  1.5039e-25  8.9263e-24  1.5345e-25  9.1298e-24  1.5890e-25  9.4918e-24  1.6859e-25  1.0135e-23  1.8583e-25  1.1280e-23  2.1650e-25  1.3316e-23  2.7101e-25  1.6939e-23  3.6786e-25  2.3386e-23  5.3985e-25  3.4866e-23  8.4542e-25  5.5252e-23  1.3891e-24  9.1773e-23  2.3567e-24  1.5692e-22  4.0811e-24  2.7376e-22  7.1591e-24  4.8465e-22  1.2669e-23  8.6954e-22  2.2577e-23  1.5852e-21  4.0530e-23  2.9561e-21  7.3421e-23  5.7041e-21
      5.60  1.2184e-25  8.4045e-24  1.2343e-25  8.5158e-24  1.2625e-25  8.7138e-24  1.3129e-25  9.0658e-24  1.4023e-25  9.6919e-24  1.5615e-25  1.0805e-23  1.8445e-25  1.2786e-23  2.3476e-25  1.6309e-23  3.2416e-25  2.2579e-23  4.8276e-25  3.3744e-23  7.6481e-25  5.3623e-23  1.2663e-24  8.9072e-23  2.1591e-24  1.5241e-22  3.7498e-24  2.6600e-22  6.5887e-24  4.7101e-22  1.1669e-23  8.4507e-22  2.0799e-23  1.5406e-21  3.7328e-23  2.8732e-21  6.7559e-23  5.5390e-21
      5.65  1.0138e-25  8.0782e-24  1.0284e-25  8.1862e-24  1.0544e-25  8.3784e-24  1.1006e-25  8.7202e-24  1.1829e-25  9.3280e-24  1.3292e-25  1.0409e-23  1.5893e-25  1.2331e-23  2.0518e-25  1.5751e-23  2.8727e-25  2.1838e-23  4.3292e-25  3.2674e-23  6.9195e-25  5.1971e-23  1.1526e-24  8.6381e-23  1.9726e-24  1.4786e-22  3.4334e-24  2.5812e-22  6.0402e-24  4.5712e-22  1.0704e-23  8.2023e-22  1.9082e-23  1.4956e-21  3.4237e-23  2.7891e-21  6.1928e-23  5.3807e-21
      5.70  8.5601e-26  7.8328e-24  8.6937e-26  7.9375e-24  8.9315e-26  8.1235e-24  9.3546e-26  8.4543e-24  1.0107e-25  9.0425e-24  1.1446e-25  1.0089e-23  1.3827e-25  1.1949e-23  1.8055e-25  1.5259e-23  2.5547e-25  2.1151e-23  3.8860e-25  3.1637e-23  6.2530e-25  5.0311e-23  1.0463e-24  8.3608e-23  1.7956e-24  1.4310e-22  3.1304e-24  2.4977e-22  5.5116e-24  4.4226e-22  9.7698e-24  7.9336e-22  1.7415e-23  1.4456e-21  3.1229e-23  2.6937e-21  5.6428e-23  5.1918e-21
      5.75  7.3294e-26  7.6160e-24  7.4515e-26  7.7176e-24  7.6689e-26  7.8982e-24  8.0558e-26  8.2195e-24  8.7443e-26  8.7907e-24  9.9688e-26  9.8066e-24  1.2145e-25  1.1613e-23  1.6000e-25  1.4828e-23  2.2835e-25  2.0548e-23  3.4993e-25  3.0728e-23  5.6602e-25  4.8859e-23  9.5040e-25  8.1182e-23  1.6344e-24  1.3892e-22  2.8526e-24  2.4242e-22  5.0251e-24  4.2907e-22  8.9076e-24  7.6919e-22  1.5871e-23  1.4000e-21  2.8430e-23  2.6039e-21  5.1279e-23  5.0064e-21
      5.80  6.3587e-26  7.5062e-24  6.4710e-26  7.6067e-24  6.6708e-26  7.7854e-24  7.0263e-26  8.1030e-24  7.6599e-26  8.6680e-24  8.7858e-26  9.6725e-24  1.0782e-25  1.1459e-23  1.4316e-25  1.4638e-23  2.0591e-25  2.0294e-23  3.1751e-25  3.0360e-23  5.1585e-25  4.8285e-23  8.6862e-25  8.0239e-23  1.4964e-24  1.3731e-22  2.6141e-24  2.3957e-22  4.6068e-24  4.2386e-22  8.1654e-24  7.5931e-22  1.4541e-23  1.3818e-21  2.6018e-23  2.5646e-21  4.6835e-23  4.9142e-21
      5.85  5.5854e-26  7.4847e-24  5.6895e-26  7.5867e-24  5.8747e-26  7.7679e-24  6.2045e-26  8.0902e-24  6.7915e-26  8.6633e-24  7.8353e-26  9.6823e-24  9.6797e-26  1.1495e-23  1.2946e-25  1.4720e-23  1.8759e-25  2.0457e-23  2.9087e-25  3.0668e-23  4.7441e-25  4.8850e-23  8.0084e-25  8.1262e-23  1.3817e-24  1.3914e-22  2.4159e-24  2.4283e-22  4.2589e-24  4.2964e-22  7.5490e-24  7.6948e-22  1.3438e-23  1.3979e-21  2.4026e-23  2.5915e-21  4.3185e-23  4.9562e-21
      5.90  4.9627e-26  7.5433e-24  5.0595e-26  7.6478e-24  5.2319e-26  7.8336e-24  5.5389e-26  8.1639e-24  6.0854e-26  8.7514e-24  7.0557e-26  9.7960e-24  8.7703e-26  1.1654e-23  1.1810e-25  1.4960e-23  1.7215e-25  2.0841e-23  2.6817e-25  3.1309e-23  4.3885e-25  4.9949e-23  7.4239e-25  8.3175e-23  1.2825e-24  1.4251e-22  2.2440e-24  2.4881e-22  3.9573e-24  4.4031e-22  7.0150e-24  7.8871e-22  1.2486e-23  1.4331e-21  2.2313e-23  2.6573e-21  4.0072e-23  5.0788e-21
      5.95  4.4558e-26  7.6737e-24  4.5456e-26  7.7799e-24  4.7056e-26  7.9687e-24  4.9906e-26  8.3043e-24  5.4980e-26  8.9012e-24  6.3991e-26  9.9626e-24  7.9915e-26  1.1851e-23  1.0818e-25  1.5209e-23  1.5834e-25  2.1185e-23  2.4747e-25  3.1821e-23  4.0592e-25  5.0761e-23  6.8769e-25  8.4522e-23  1.1890e-24  1.4481e-22  2.0816e-24  2.5284e-22  3.6718e-24  4.4749e-22  6.5093e-24  8.0169e-22  1.1584e-23  1.4602e-21  2.0697e-23  2.7098e-21  3.7150e-23  5.2212e-21
      6.00  4.0390e-26  7.8719e-24  4.1217e-26  7.9786e-24  4.2690e-26  8.1685e-24  4.5316e-26  8.5060e-24  4.9995e-26  9.1062e-24  5.8321e-26  1.0173e-23  7.3038e-26  1.2072e-23  9.9110e-26  1.5449e-23  1.4539e-25  2.1458e-23  2.2759e-25  3.2153e-23  3.7372e-25  5.1197e-23  6.3361e-25  8.5147e-23  1.0960e-24  1.4578e-22  1.9191e-24  2.5443e-22  3.3855e-24  4.5023e-22  6.0016e-24  8.0666e-22  1.0679e-23  1.4680e-21  1.9072e-23  2.7246e-21  3.4212e-23  5.2235e-21
      6.05  3.6933e-26  8.1496e-24  3.7689e-26  8.2533e-24  3.9036e-26  8.4377e-24  4.1436e-26  8.7656e-24  4.5716e-26  9.3485e-24  5.3340e-26  1.0385e-23  6.6864e-26  1.2228e-23  9.0754e-26  1.5508e-23  1.3313e-25  2.1344e-23  2.0839e-25  3.1730e-23  3.4221e-25  5.0227e-23  5.8020e-25  8.3199e-23  1.0036e-24  1.4209e-22  1.7573e-24  2.4763e-22  3.0999e-24  4.3786e-22  5.4944e-24  7.8425e-22  9.7741e-24  1.4258e-21  1.7448e-23  2.6477e-21  3.1276e-23  5.1033e-21
      6.10  3.4048e-26  8.4932e-24  3.4735e-26  8.5920e-24  3.5957e-26  8.7677e-24  3.8136e-26  9.0801e-24  4.2022e-26  9.6356e-24  4.8945e-26  1.0623e-23  6.1244e-26  1.2380e-23  8.2998e-26  1.5505e-23  1.2151e-25  2.1066e-23  1.8994e-25  3.0969e-23  3.1162e-25  4.8599e-23  5.2801e-25  8.0029e-23  9.1301e-25  1.3618e-22  1.5983e-24  2.3681e-22  2.8189e-24  4.1825e-22  4.9955e-24  7.5189e-22  8.8848e-24  1.3670e-21  1.5856e-23  2.5416e-21  2.8406e-23  4.8768e-21
      6.15  3.1621e-26  8.9014e-24  3.2238e-26  8.9922e-24  3.3338e-26  9.1537e-24  3.5295e-26  9.4409e-24  3.8782e-26  9.9515e-24  4.4997e-26  1.0859e-23  5.6027e-26  1.2474e-23  7.5584e-26  1.5347e-23  1.1024e-25  2.0458e-23  1.7181e-25  2.9555e-23  2.8125e-25  4.5755e-23  4.7591e-25  7.4639e-23  8.2223e-25  1.2624e-22  1.4387e-24  2.1874e-22  2.5366e-24  3.8566e-22  4.4946e-24  6.8989e-22  7.9933e-24  1.2544e-21  1.4264e-23  2.3323e-21  2.5552e-23  4.4830e-21
      6.20  2.9561e-26  9.3749e-24  3.0106e-26  9.4538e-24  3.1077e-26  9.5940e-24  3.2803e-26  9.8434e-24  3.5876e-26  1.0287e-23  4.1349e-26  1.1075e-23  5.1060e-26  1.2478e-23  6.8290e-26  1.4972e-23  9.8887e-26  1.9410e-23  1.5325e-25  2.7308e-23  2.4988e-25  4.1375e-23  4.2176e-25  6.6457e-23  7.2754e-25  1.1127e-22  1.2718e-24  1.9166e-22  2.2414e-24  3.3673e-22  3.9707e-24  6.0150e-22  7.0614e-24  1.0935e-21  1.2603e-23  2.0356e-21  2.2582e-23  3.9322e-21
      6.25  2.7800e-26  9.9189e-24  2.8269e-26  9.9834e-24  2.9104e-26  1.0098e-23  3.0589e-26  1.0302e-23  3.3229e-26  1.0665e-23  3.7927e-26  1.1310e-23  4.6265e-26  1.2457e-23  6.1081e-26  1.4497e-23  8.7394e-26  1.8126e-23  1.3417e-25  2.4586e-23  2.1733e-25  3.6090e-23  3.6525e-25  5.6606e-23  6.2843e-25  9.3270e-23  1.0969e-24  1.5904e-22  1.9315e-24  2.7781e-22  3.4202e-24  4.9475e-22  6.0817e-24  8.9882e-22  1.0855e-23  1.6743e-21  1.9457e-23  3.2361e-21
      6.30  2.6288e-26  1.0564e-23  2.6683e-26  1.0615e-23  2.7385e-26  1.0704e-23  2.8633e-26  1.0864e-23  3.0848e-26  1.1148e-23  3.4785e-26  1.1652e-23  4.1779e-26  1.2550e-23  5.4212e-26  1.4146e-23  7.6324e-26  1.6985e-23  1.1562e-25  2.2038e-23  1.8550e-25  3.1038e-23  3.0979e-25  4.7087e-23  5.3093e-25  7.5800e-23  9.2459e-25  1.2729e-22  1.6259e-24  2.2037e-22  2.8769e-24  3.9043e-22  5.1134e-24  7.0753e-22  9.1252e-24  1.3210e-21  1.6354e-23  2.5563e-21
      6.35  2.4993e-26  1.1300e-23  2.5320e-26  1.1340e-23  2.5902e-26  1.1411e-23  2.6935e-26  1.1537e-23  2.8769e-26  1.1762e-23  3.2023e-26  1.2163e-23  3.7807e-26  1.2874e-23  4.8097e-26  1.4140e-23  6.6396e-26  1.6391e-23  9.8943e-26  2.0397e-23  1.5682e-25  2.7533e-23  2.5976e-25  4.0258e-23  4.4291e-25  6.3003e-23  7.6892e-25  1.0382e-22  1.3497e-24  1.7756e-22  2.3854e-24  3.1236e-22  4.2366e-24  5.6379e-22  7.5553e-24  1.0476e-21  1.3531e-23  2.0247e-21
      6.40  2.3882e-26  1.2132e-23  2.4152e-26  1.2164e-23  2.4631e-26  1.2222e-23  2.5481e-26  1.2325e-23  2.6990e-26  1.2508e-23  2.9664e-26  1.2834e-23  3.4417e-26  1.3414e-23  4.2877e-26  1.4444e-23  5.7924e-26  1.6277e-23  8.4688e-26  1.9538e-23  1.3229e-25  2.5348e-23  2.1697e-25  3.5707e-23  3.6761e-25  5.4225e-23  6.3573e-25  8.7455e-23  1.1133e-24  1.4752e-22  1.9647e-24  2.5731e-22  3.4856e-24  4.6211e-22  6.2101e-24  8.5663e-22  1.1110e-23  1.6636e-21
      6.45  2.2928e-26  1.3066e-23  2.3150e-26  1.3093e-23  2.3543e-26  1.3141e-23  2.4242e-26  1.3226e-23  2.5481e-26  1.3377e-23  2.7676e-26  1.3647e-23  3.1572e-26  1.4127e-23  3.8514e-26  1.4979e-23  5.0862e-26  1.6496e-23  7.2825e-26  1.9194e-23  1.1189e-25  2.4001e-23  1.8138e-25  3.2573e-23  3.0502e-25  4.7894e-23  5.2504e-25  7.5390e-23  9.1682e-25  1.2508e-22  1.6151e-24  2.1610e-22  2.8618e-24  3.8946e-22  5.0929e-24  7.2236e-22  9.0994e-24  1.3927e-21
      6.50  2.2108e-26  1.4111e-23  2.2291e-26  1.4134e-23  2.2615e-26  1.4174e-23  2.3192e-26  1.4245e-23  2.4214e-26  1.4372e-23  2.6023e-26  1.4598e-23  2.9237e-26  1.5000e-23  3.4964e-26  1.5714e-23  4.5150e-26  1.6985e-23  6.3269e-26  1.9247e-23  9.5500e-26  2.3274e-23  1.5284e-25  3.0457e-23  2.5484e-25  4.3294e-23  4.3636e-25  6.6333e-23  7.5951e-25  1.0800e-22  1.3353e-24  1.8418e-22  2.3627e-24  3.2679e-22  4.1996e-24  6.0163e-22  7.4934e-24  1.1660e-21
      6.55  2.1401e-26  1.5308e-23  2.1554e-26  1.5327e-23  2.1826e-26  1.5360e-23  2.2308e-26  1.5420e-23  2.3163e-26  1.5526e-23  2.4676e-26  1.5715e-23  2.7363e-26  1.6050e-23  3.2154e-26  1.6647e-23  4.0675e-26  1.7709e-23  5.5834e-26  1.9598e-23  8.2801e-26  2.2962e-23  1.3078e-25  2.8961e-23  2.1613e-25  3.9683e-23  3.6800e-25  5.8926e-23  6.3834e-25  9.3700e-23  1.1199e-24  1.5736e-22  1.9787e-24  2.7623e-22  3.5130e-24  5.0746e-22  6.2608e-24  9.7550e-22
      6.60  2.0791e-26  1.6641e-23  2.0921e-26  1.6657e-23  2.1152e-26  1.6686e-23  2.1561e-26  1.6736e-23  2.2288e-26  1.6827e-23  2.3574e-26  1.6987e-23  2.5859e-26  1.7273e-23  2.9932e-26  1.7780e-23  3.7179e-26  1.8684e-23  5.0073e-26  2.0291e-23  7.3012e-26  2.3153e-23  1.1382e-25  2.8257e-23  1.8643e-25  3.7381e-23  3.1563e-25  5.3752e-23  5.4559e-25  8.3486e-23  9.5513e-25  1.3792e-22  1.6852e-24  2.3934e-22  2.9887e-24  4.3508e-22  5.3212e-24  8.3096e-22
      6.65  2.0261e-26  1.8124e-23  2.0373e-26  1.8138e-23  2.0572e-26  1.8163e-23  2.0924e-26  1.8208e-23  2.1549e-26  1.8286e-23  2.2656e-26  1.8426e-23  2.4624e-26  1.8675e-23  2.8132e-26  1.9118e-23  3.4375e-26  1.9906e-23  4.5483e-26  2.1308e-23  6.5249e-26  2.3804e-23  1.0042e-25  2.8256e-23  1.6299e-25  3.6212e-23  2.7434e-25  5.0488e-23  4.7251e-25  7.6287e-23  8.2539e-25  1.2350e-22  1.4543e-24  2.1165e-22  2.5767e-24  3.8163e-22  4.5838e-24  7.4512e-22
      6.70  1.9800e-26  1.9773e-23  1.9897e-26  1.9786e-23  2.0069e-26  1.9808e-23  2.0374e-26  1.9847e-23  2.0916e-26  1.9917e-23  2.1876e-26  2.0041e-23  2.3583e-26  2.0263e-23  2.6626e-26  2.0656e-23  3.2042e-26  2.1356e-23  4.1682e-26  2.2600e-23  5.8837e-26  2.4817e-23  8.9366e-26  2.8769e-23  1.4369e-25  3.5834e-23  2.4036e-25  4.8510e-23  4.1241e-25  7.1416e-23  7.1879e-25  1.1665e-22  1.2647e-24  1.9770e-22  2.2389e-24  3.5396e-22  3.9809e-24  6.9335e-22
      6.75  1.9398e-26  2.1606e-23  1.9481e-26  2.1618e-23  1.9631e-26  2.1639e-23  1.9896e-26  2.1676e-23  2.0367e-26  2.1742e-23  2.1203e-26  2.1859e-23  2.2690e-26  2.2068e-23  2.5339e-26  2.2438e-23  3.0056e-26  2.3098e-23  3.8452e-26  2.4271e-23  5.3397e-26  2.6361e-23  8.0000e-26  3.0450e-23  1.2734e-25  3.7393e-23  2.1159e-25  4.9853e-23  3.6153e-25  7.2366e-23  6.2851e-25  1.1353e-22  1.1042e-24  1.9032e-22  1.9529e-24  3.3815e-22  3.4698e-24  6.3698e-22
      6.80  1.9045e-26  2.3682e-23  1.9118e-26  2.3693e-23  1.9248e-26  2.3713e-23  1.9479e-26  2.3749e-23  1.9890e-26  2.3813e-23  2.0620e-26  2.3926e-23  2.1920e-26  2.4127e-23  2.4235e-26  2.4485e-23  2.8359e-26  2.5121e-23  3.5702e-26  2.6253e-23  4.8773e-26  2.8269e-23  7.2042e-26  3.1864e-23  1.1346e-25  3.8289e-23  1.8717e-25  4.9819e-23  3.1837e-25  7.0652e-23  5.5197e-25  1.0873e-22  9.6819e-25  1.7977e-22  1.7107e-24  3.1739e-22  3.0375e-24  5.9524e-22
      6.85  1.8736e-26  2.5988e-23  1.8800e-26  2.5998e-23  1.8913e-26  2.6017e-23  1.9116e-26  2.6051e-23  1.9475e-26  2.6110e-23  2.0116e-26  2.6217e-23  2.1257e-26  2.6406e-23  2.3290e-26  2.6742e-23  2.6914e-26  2.7340e-23  3.3367e-26  2.8403e-23  4.4861e-26  3.0297e-23  6.5326e-26  3.3673e-23  1.0176e-25  3.9710e-23  1.6662e-25  5.0540e-23  2.8208e-25  7.0282e-23  4.8768e-25  1.0622e-22  8.5408e-25  1.7320e-22  1.5079e-24  3.0250e-22  2.6763e-24  5.6538e-22
      6.90  1.8465e-26  2.8549e-23  1.8521e-26  2.8559e-23  1.8620e-26  2.8578e-23  1.8798e-26  2.8610e-23  1.9113e-26  2.8667e-23  1.9677e-26  2.8769e-23  2.0681e-26  2.8951e-23  2.2469e-26  2.9274e-23  2.5658e-26  2.9848e-23  3.1336e-26  3.0870e-23  4.1454e-26  3.2689e-23  5.9478e-26  3.5933e-23  9.1573e-26  4.1733e-23  1.4871e-25  5.2137e-23  2.5044e-25  7.0933e-23  4.3161e-25  1.0533e-22  7.5450e-25  1.7008e-22  1.3307e-24  2.9421e-22  2.3615e-24  5.4834e-22
      6.95  1.8226e-26  3.1396e-23  1.8275e-26  3.1406e-23  1.8363e-26  3.1423e-23  1.8519e-26  3.1455e-23  1.8796e-26  3.1511e-23  1.9292e-26  3.1610e-23  2.0176e-26  3.1787e-23  2.1751e-26  3.2103e-23  2.4558e-26  3.2663e-23  2.9559e-26  3.3659e-23  3.8477e-26  3.5435e-23  5.4369e-26  3.8599e-23  8.2675e-26  4.4255e-23  1.3308e-25  5.4402e-23  2.2283e-25  7.2734e-23  3.8268e-25  1.0625e-22  6.6763e-25  1.6917e-22  1.1763e-24  2.9131e-22  2.0865e-24  5.3736e-22
      7.00  1.8016e-26  3.4559e-23  1.8059e-26  3.4568e-23  1.8136e-26  3.4586e-23  1.8273e-26  3.4616e-23  1.8517e-26  3.4671e-23  1.8952e-26  3.4768e-23  1.9731e-26  3.4941e-23  2.1117e-26  3.5249e-23  2.3586e-26  3.5796e-23  2.7990e-26  3.6770e-23  3.5849e-26  3.8502e-23  4.9862e-26  4.1608e-23  7.4830e-26  4.7142e-23  1.1930e-25  5.7072e-23  1.9851e-25  7.5021e-23  3.3962e-25  1.0835e-22  5.9121e-25  1.7017e-22  1.0405e-24  2.8948e-22  1.8449e-24  5.3063e-22
      7.05  1.7831e-26  3.8126e-23  1.7869e-26  3.8135e-23  1.7936e-26  3.8152e-23  1.8056e-26  3.8182e-23  1.8270e-26  3.8236e-23  1.8651e-26  3.8332e-23  1.9334e-26  3.8502e-23  2.0551e-26  3.8805e-23  2.2719e-26  3.9344e-23  2.6590e-26  4.0301e-23  3.3503e-26  4.2005e-23  4.5842e-26  4.5043e-23  6.7852e-26  5.0473e-23  1.0708e-25  6.0222e-23  1.7697e-25  7.7835e-23  3.0151e-25  1.1002e-22  5.2366e-25  1.7005e-22  9.2059e-25  2.8580e-22  1.6321e-24  5.2144e-22
      7.10  1.7668e-26  4.2092e-23  1.7700e-26  4.2101e-23  1.7759e-26  4.2117e-23  1.7863e-26  4.2146e-23  1.8049e-26  4.2197e-23  1.8380e-26  4.2288e-23  1.8974e-26  4.2450e-23  2.0033e-26  4.2739e-23  2.1922e-26  4.3252e-23  2.5290e-26  4.4163e-23  3.1309e-26  4.5786e-23  4.2073e-26  4.8678e-23  6.1294e-26  5.3845e-23  9.5581e-26  6.3117e-23  1.5670e-25  7.9867e-23  2.6569e-25  1.1050e-22  4.6021e-25  1.6780e-22  8.0811e-25  2.7854e-22  1.4327e-24  5.0349e-22
      7.15  1.7523e-26  4.6504e-23  1.7551e-26  4.6513e-23  1.7601e-26  4.6528e-23  1.7690e-26  4.6554e-23  1.7849e-26  4.6602e-23  1.8132e-26  4.6686e-23  1.8639e-26  4.6835e-23  1.9546e-26  4.7102e-23  2.1158e-26  4.7577e-23  2.4033e-26  4.8420e-23  2.9179e-26  4.9919e-23  3.8388e-26  5.2591e-23  5.4856e-26  5.7366e-23  8.4265e-26  6.5958e-23  1.3674e-25  8.1455e-23  2.3035e-25  1.0985e-22  3.9752e-25  1.6299e-22  6.9675e-25  2.6561e-22  1.2346e-24  4.7457e-22
      7.20  1.7395e-26  5.1414e-23  1.7418e-26  5.1421e-23  1.7460e-26  5.1435e-23  1.7535e-26  5.1459e-23  1.7667e-26  5.1502e-23  1.7904e-26  5.1578e-23  1.8328e-26  5.1713e-23  1.9085e-26  5.1953e-23  2.0430e-26  5.2383e-23  2.2832e-26  5.3145e-23  2.7131e-26  5.4499e-23  3.4831e-26  5.6912e-23  4.8624e-26  6.1227e-23  7.3294e-26  6.9001e-23  1.1736e-25  8.3006e-23  1.9606e-25  1.0869e-22  3.3672e-25  1.5654e-22  5.8869e-25  2.4874e-22  1.0422e-24  4.3581e-22
      7.25  1.7282e-26  5.6879e-23  1.7301e-26  5.6885e-23  1.7335e-26  5.6898e-23  1.7397e-26  5.6919e-23  1.7506e-26  5.6957e-23  1.7700e-26  5.7025e-23  1.8047e-26  5.7145e-23  1.8667e-26  5.7359e-23  1.9769e-26  5.7743e-23  2.1737e-26  5.8423e-23  2.5258e-26  5.9631e-23  3.1573e-26  6.1782e-23  4.2899e-26  6.5624e-23  6.3197e-26  7.2519e-23  9.9515e-26  8.4969e-23  1.6445e-25  1.0772e-22  2.8062e-25  1.5014e-22  4.8893e-25  2.3203e-22  8.6428e-25  3.9745e-22
      7.30  1.7182e-26  6.3028e-23  1.7198e-26  6.3034e-23  1.7226e-26  6.3045e-23  1.7276e-26  6.3064e-23  1.7365e-26  6.3098e-23  1.7523e-26  6.3158e-23  1.7806e-26  6.3265e-23  1.8310e-26  6.3455e-23  1.9207e-26  6.3797e-23  2.0808e-26  6.4403e-23  2.3671e-26  6.5478e-23  2.8811e-26  6.7392e-23  3.8050e-26  7.0809e-23  5.4643e-26  7.6937e-23  8.4405e-26  8.7999e-23  1.3772e-25  1.0822e-22  2.3323e-25  1.4586e-22  4.0471e-25  2.1848e-22  7.1420e-25  3.6565e-22
      7.35  1.7095e-26  6.9879e-23  1.7108e-26  6.9884e-23  1.7130e-26  6.9894e-23  1.7171e-26  6.9911e-23  1.7244e-26  6.9941e-23  1.7374e-26  6.9996e-23  1.7605e-26  7.0092e-23  1.8018e-26  7.0264e-23  1.8752e-26  7.0571e-23  2.0063e-26  7.1119e-23  2.2406e-26  7.2088e-23  2.6617e-26  7.3814e-23  3.4202e-26  7.6894e-23  4.7865e-26  8.2414e-23  7.2437e-26  9.2378e-23  1.1656e-25  1.1057e-22  1.9575e-25  1.4446e-22  3.3819e-25  2.0977e-22  5.9579e-25  3.4164e-22
      7.40  1.7018e-26  7.7513e-23  1.7029e-26  7.7518e-23  1.7048e-26  7.7526e-23  1.7082e-26  7.7542e-23  1.7142e-26  7.7570e-23  1.7249e-26  7.7620e-23  1.7441e-26  7.7709e-23  1.7784e-26  7.7866e-23  1.8394e-26  7.8147e-23  1.9483e-26  7.8652e-23  2.1430e-26  7.9544e-23  2.4930e-26  8.1129e-23  3.1246e-26  8.3957e-23  4.2653e-26  8.9025e-23  6.3234e-26  9.8174e-23  1.0029e-25  1.1491e-22  1.6696e-25  1.4598e-22  2.8714e-25  2.0594e-22  5.0502e-25  3.2602e-22
      7.45  1.6951e-26  8.6022e-23  1.6960e-26  8.6026e-23  1.6976e-26  8.6035e-23  1.7004e-26  8.6049e-23  1.7055e-26  8.6076e-23  1.7146e-26  8.6122e-23  1.7308e-26  8.6205e-23  1.7597e-26  8.6353e-23  1.8113e-26  8.6619e-23  1.9033e-26  8.7094e-23  2.0674e-26  8.7931e-23  2.3626e-26  8.9421e-23  2.8954e-26  9.2076e-23  3.8592e-26  9.6834e-23  5.6028e-26  1.0542e-22  8.7514e-26  1.2107e-22  1.4430e-25  1.5016e-22  2.4684e-25  2.0620e-22  4.3309e-25  3.1814e-22
      7.50  1.6891e-26  9.5509e-23  1.6899e-26  9.5513e-23  1.6913e-26  9.5521e-23  1.6938e-26  9.5535e-23  1.6981e-26  9.5561e-23  1.7060e-26  9.5605e-23  1.7199e-26  9.5685e-23  1.7448e-26  9.5827e-23  1.7893e-26  9.6084e-23  1.8684e-26  9.6541e-23  2.0097e-26  9.7344e-23  2.2635e-26  9.8770e-23  2.7217e-26  1.0131e-22  3.5519e-26  1.0587e-22  5.0581e-26  1.1408e-22  7.7869e-26  1.2906e-22  1.2723e-25  1.5703e-22  2.1660e-25  2.1035e-22  3.7928e-25  3.1697e-22
      7.55  1.6839e-26  1.0617e-22  1.6846e-26  1.0618e-22  1.6858e-26  1.0618e-22  1.6880e-26  1.0620e-22  1.6918e-26  1.0622e-22  1.6987e-26  1.0627e-22  1.7109e-26  1.0634e-22  1.7327e-26  1.0648e-22  1.7717e-26  1.0674e-22  1.8411e-26  1.0719e-22  1.9647e-26  1.0797e-22  2.1867e-26  1.0937e-22  2.5874e-26  1.1185e-22  3.3138e-26  1.1631e-22  4.6345e-26  1.2434e-22  7.0354e-26  1.3906e-22  1.1393e-25  1.6627e-22  1.9308e-25  2.1825e-22  3.3761e-25  3.2198e-22
      7.60  1.6794e-26  1.1807e-22  1.6800e-26  1.1807e-22  1.6810e-26  1.1808e-22  1.6830e-26  1.1809e-22  1.6864e-26  1.1812e-22  1.6924e-26  1.1816e-22  1.7033e-26  1.1824e-22  1.7227e-26  1.1838e-22  1.7575e-26  1.1864e-22  1.8192e-26  1.1908e-22  1.9289e-26  1.1987e-22  2.1258e-26  1.2126e-22  2.4805e-26  1.2374e-22  3.1230e-26  1.2817e-22  4.2913e-26  1.3617e-22  6.4184e-26  1.5081e-22  1.0288e-25  1.7787e-22  1.7332e-25  2.2947e-22  3.0214e-25  3.3226e-22
      7.65  1.6753e-26  1.3134e-22  1.6759e-26  1.3135e-22  1.6768e-26  1.3135e-22  1.6786e-26  1.3137e-22  1.6816e-26  1.3139e-22  1.6871e-26  1.3144e-22  1.6968e-26  1.3152e-22  1.7143e-26  1.3165e-22  1.7456e-26  1.3192e-22  1.8011e-26  1.3238e-22  1.8998e-26  1.3317e-22  2.0764e-26  1.3458e-22  2.3941e-26  1.3708e-22  2.9687e-26  1.4157e-22  4.0128e-26  1.4966e-22  5.9152e-26  1.6444e-22  9.3825e-26  1.9175e-22  1.5705e-25  2.4376e-22  2.7289e-25  3.4719e-22
      7.70  1.6718e-26  1.4616e-22  1.6722e-26  1.4616e-22  1.6731e-26  1.4617e-22  1.6747e-26  1.4619e-22  1.6775e-26  1.4621e-22  1.6824e-26  1.4626e-22  1.6913e-26  1.4634e-22  1.7071e-26  1.4648e-22  1.7356e-26  1.4676e-22  1.7859e-26  1.4723e-22  1.8753e-26  1.4804e-22  2.0351e-26  1.4948e-22  2.3221e-26  1.5205e-22  2.8403e-26  1.5664e-22  3.7805e-26  1.6490e-22  5.4934e-26  1.8001e-22  8.6191e-26  2.0790e-22  1.4329e-25  2.6095e-22  2.4805e-25  3.6626e-22
      7.75  1.6686e-26  1.6270e-22  1.6691e-26  1.6271e-22  1.6699e-26  1.6272e-22  1.6713e-26  1.6273e-22  1.6738e-26  1.6276e-22  1.6783e-26  1.6280e-22  1.6864e-26  1.6289e-22  1.7009e-26  1.6304e-22  1.7269e-26  1.6334e-22  1.7728e-26  1.6382e-22  1.8542e-26  1.6466e-22  1.9996e-26  1.6615e-22  2.2603e-26  1.6879e-22  2.7300e-26  1.7353e-22  3.5809e-26  1.8205e-22  5.1297e-26  1.9756e-22  7.9572e-26  2.2633e-22  1.3129e-25  2.8089e-22  2.2632e-25  3.8902e-22
      7.80  1.6658e-26  1.8128e-22  1.6662e-26  1.8129e-22  1.6669e-26  1.8129e-22  1.6682e-26  1.8131e-22  1.6706e-26  1.8134e-22  1.6747e-26  1.8139e-22  1.6821e-26  1.8147e-22  1.6954e-26  1.8164e-22  1.7192e-26  1.8195e-22  1.7611e-26  1.8246e-22  1.8354e-26  1.8333e-22  1.9680e-26  1.8488e-22  2.2053e-26  1.8762e-22  2.6323e-26  1.9254e-22  3.4039e-26  2.0139e-22  4.8068e-26  2.1748e-22  7.3678e-26  2.4729e-22  1.2057e-25  3.0379e-22  2.0684e-25  4.1554e-22
      7.85  1.6633e-26  2.0203e-22  1.6637e-26  2.0204e-22  1.6644e-26  2.0205e-22  1.6655e-26  2.0206e-22  1.6677e-26  2.0209e-22  1.6714e-26  2.0214e-22  1.6782e-26  2.0223e-22  1.6904e-26  2.0242e-22  1.7122e-26  2.0275e-22  1.7504e-26  2.0328e-22  1.8182e-26  2.0419e-22  1.9390e-26  2.0580e-22  2.1550e-26  2.0866e-22  2.5427e-26  2.1377e-22  3.2425e-26  2.2298e-22  4.5124e-26  2.3972e-22  6.8292e-26  2.7062e-22  1.1074e-25  3.2932e-22  1.8894e-25  4.4508e-22
      7.90  1.6611e-26  2.2522e-22  1.6614e-26  2.2523e-22  1.6621e-26  2.2524e-22  1.6631e-26  2.2525e-22  1.6650e-26  2.2528e-22  1.6685e-26  2.2533e-22  1.6746e-26  2.2543e-22  1.6858e-26  2.2563e-22  1.7057e-26  2.2599e-22  1.7405e-26  2.2654e-22  1.8021e-26  2.2750e-22  1.9117e-26  2.2917e-22  2.1074e-26  2.3215e-22  2.4583e-26  2.3747e-22  3.0902e-26  2.4706e-22  4.2346e-26  2.6446e-22  6.3194e-26  2.9659e-22  1.0138e-25  3.5749e-22  1.7177e-25  4.7739e-22
      7.95  1.6591e-26  2.5113e-22  1.6594e-26  2.5114e-22  1.6600e-26  2.5115e-22  1.6609e-26  2.5116e-22  1.6627e-26  2.5119e-22  1.6658e-26  2.5125e-22  1.6713e-26  2.5134e-22  1.6816e-26  2.5158e-22  1.6996e-26  2.5196e-22  1.7311e-26  2.5254e-22  1.7867e-26  2.5353e-22  1.8857e-26  2.5528e-22  2.0622e-26  2.5837e-22  2.3781e-26  2.6390e-22  2.9458e-26  2.7386e-22  3.9714e-26  2.9193e-22  5.8357e-26  3.2525e-22  9.2457e-26  3.8824e-22  1.5527e-25  5.1222e-22
      8.00  1.6573e-26  2.8009e-22  1.6576e-26  2.8009e-22  1.6581e-26  2.8010e-22  1.6590e-26  2.8012e-22  1.6605e-26  2.8015e-22  1.6633e-26  2.8021e-22  1.6682e-26  2.8031e-22  1.6777e-26  2.8058e-22  1.6939e-26  2.8098e-22  1.7222e-26  2.8159e-22  1.7721e-26  2.8263e-22  1.8609e-26  2.8444e-22  2.0191e-26  2.8765e-22  2.3018e-26  2.9339e-22  2.8090e-26  3.0371e-22  3.7229e-26  3.2243e-22  5.3802e-26  3.5692e-22  8.4054e-26  4.2201e-22  1.3970e-25  5.4979e-22
      8.05  1.6557e-26  3.1259e-22  1.6559e-26  3.1259e-22  1.6564e-26  3.1260e-22  1.6572e-26  3.1262e-22  1.6585e-26  3.1265e-22  1.6610e-26  3.1271e-22  1.6654e-26  3.1282e-22  1.6740e-26  3.1313e-22  1.6886e-26  3.1356e-22  1.7139e-26  3.1421e-22  1.7584e-26  3.1528e-22  1.8375e-26  3.1716e-22  1.9783e-26  3.2050e-22  2.2297e-26  3.2645e-22  2.6800e-26  3.3715e-22  3.4901e-26  3.5655e-22  4.9549e-26  3.9225e-22  7.6234e-26  4.5951e-22  1.2523e-25  5.9116e-22
      8.10  1.6542e-26  3.4892e-22  1.6544e-26  3.4893e-22  1.6548e-26  3.4894e-22  1.6555e-26  3.4896e-22  1.6567e-26  3.4899e-22  1.6589e-26  3.4905e-22  1.6628e-26  3.4916e-22  1.6707e-26  3.4952e-22  1.6837e-26  3.4999e-22  1.7061e-26  3.5067e-22  1.7456e-26  3.5180e-22  1.8156e-26  3.5375e-22  1.9401e-26  3.5721e-22  2.1624e-26  3.6339e-22  2.5598e-26  3.7447e-22  3.2737e-26  3.9456e-22  4.5618e-26  4.3148e-22  6.9027e-26  5.0091e-22  1.1191e-25  6.3633e-22
      8.15  1.6528e-26  3.8955e-22  1.6530e-26  3.8956e-22  1.6534e-26  3.8957e-22  1.6540e-26  3.8959e-22  1.6550e-26  3.8963e-22  1.6570e-26  3.8969e-22  1.6604e-26  3.8980e-22  1.6676e-26  3.9022e-22  1.6792e-26  3.9074e-22  1.6991e-26  3.9146e-22  1.7339e-26  3.9264e-22  1.7955e-26  3.9467e-22  1.9051e-26  3.9826e-22  2.1006e-26  4.0467e-22  2.4498e-26  4.1617e-22  3.0758e-26  4.3698e-22  4.2032e-26  4.7519e-22  6.2466e-26  5.4689e-22  9.9802e-26  6.8629e-22
      8.20  1.6515e-26  4.3499e-22  1.6517e-26  4.3500e-22  1.6520e-26  4.3501e-22  1.6525e-26  4.3503e-22  1.6535e-26  4.3506e-22  1.6552e-26  4.3513e-22  1.6582e-26  4.3525e-22  1.6647e-26  4.3574e-22  1.6752e-26  4.3632e-22  1.6927e-26  4.3709e-22  1.7232e-26  4.3832e-22  1.7774e-26  4.4044e-22  1.8735e-26  4.4418e-22  2.0448e-26  4.5084e-22  2.3506e-26  4.6279e-22  2.8981e-26  4.8440e-22  3.8826e-26  5.2401e-22  5.6622e-26  5.9819e-22  8.9059e-26  7.4191e-22
      8.25  1.6503e-26  4.8580e-22  1.6504e-26  4.8581e-22  1.6507e-26  4.8582e-22  1.6512e-26  4.8584e-22  1.6520e-26  4.8588e-22  1.6535e-26  4.8595e-22  1.6561e-26  4.8607e-22  1.6622e-26  4.8666e-22  1.6715e-26  4.8731e-22  1.6870e-26  4.8814e-22  1.7138e-26  4.8944e-22  1.7612e-26  4.9166e-22  1.8454e-26  4.9557e-22  1.9952e-26  5.0251e-22  2.2626e-26  5.1497e-22  2.7408e-26  5.3748e-22  3.5990e-26  5.7867e-22  5.1480e-26  6.5564e-22  7.9640e-26  8.0423e-22
      8.30  1.6491e-26  5.4280e-22  1.6492e-26  5.4281e-22  1.6495e-26  5.4282e-22  1.6499e-26  5.4285e-22  1.6506e-26  5.4289e-22  1.6519e-26  5.4296e-22  1.6542e-26  5.4309e-22  1.6598e-26  5.4379e-22  1.6683e-26  5.4453e-22  1.6819e-26  5.4544e-22  1.7055e-26  5.4682e-22  1.7470e-26  5.4916e-22  1.8207e-26  5.5327e-22  1.9517e-26  5.6056e-22  2.1854e-26  5.7362e-22  2.6029e-26  5.9720e-22  3.3515e-26  6.4030e-22  4.7000e-26  7.2064e-22  7.1464e-26  8.7520e-22
      8.35  1.6479e-26  6.0657e-22  1.6480e-26  6.0657e-22  1.6482e-26  6.0659e-22  1.6486e-26  6.0661e-22  1.6492e-26  6.0665e-22  1.6504e-26  6.0673e-22  1.6524e-26  6.0686e-22  1.6577e-26  6.0771e-22  1.6654e-26  6.0857e-22  1.6775e-26  6.0957e-22  1.6983e-26  6.1105e-22  1.7346e-26  6.1354e-22  1.7991e-26  6.1787e-22  1.9138e-26  6.2556e-22  2.1182e-26  6.3932e-22  2.4832e-26  6.6414e-22  3.1369e-26  7.0944e-22  4.3126e-26  7.9369e-22  6.4418e-26  9.5519e-22
      8.40  1.6467e-26  6.7789e-22  1.6468e-26  6.7790e-22  1.6470e-26  6.7791e-22  1.6473e-26  6.7794e-22  1.6479e-26  6.7798e-22  1.6489e-26  6.7806e-22  1.6506e-26  6.7820e-22  1.6558e-26  6.7924e-22  1.6629e-26  6.8024e-22  1.6737e-26  6.8135e-22  1.6920e-26  6.8296e-22  1.7239e-26  6.8561e-22  1.7805e-26  6.9020e-22  1.8811e-26  6.9835e-22  2.0603e-26  7.1292e-22  2.3800e-26  7.3917e-22  2.9521e-26  7.8701e-22  3.9797e-26  8.7578e-22  5.8367e-26  1.0454e-21
      8.45  1.6455e-26  7.5767e-22  1.6456e-26  7.5768e-22  1.6458e-26  7.5770e-22  1.6460e-26  7.5772e-22  1.6465e-26  7.5777e-22  1.6474e-26  7.5786e-22  1.6489e-26  7.5801e-22  1.6540e-26  7.5927e-22  1.6606e-26  7.6046e-22  1.6703e-26  7.6172e-22  1.6865e-26  7.6346e-22  1.7147e-26  7.6630e-22  1.7646e-26  7.7121e-22  1.8530e-26  7.7988e-22  2.0105e-26  7.9537e-22  2.2915e-26  8.2326e-22  2.7937e-26  8.7403e-22  3.6950e-26  9.6801e-22  5.3207e-26  1.1469e-21
      8.50  1.6443e-26  8.4691e-22  1.6443e-26  8.4692e-22  1.6445e-26  8.4694e-22  1.6447e-26  8.4697e-22  1.6452e-26  8.4702e-22  1.6459e-26  8.4711e-22  1.6473e-26  8.4727e-22  1.6523e-26  8.4884e-22  1.6586e-26  8.5026e-22  1.6674e-26  8.5169e-22  1.6819e-26  8.5361e-22  1.7068e-26  8.5667e-22  1.7508e-26  8.6192e-22  1.8289e-26  8.7120e-22  1.9679e-26  8.8774e-22  2.2156e-26  9.1751e-22  2.6583e-26  9.7162e-22  3.4516e-26  1.0716e-21  4.8806e-26  1.2612e-21
