# This was generated using Cloudy10 and the columns are ordered 
# as log10 of the fraction of the metallicity to the solar metallicity
# 'h_*_Z' and 'c_*_Z' stands for cooling and heating respectively 
# at * metalicity
#
# NOTE: This was generated separately from loop_coolingcurve_w_UV.py
#       using Output_metals_w_redshift.py.
#
# Redshift = 4.0
# hden = -10.0
#
#     temp   h_-3.00_Z   c_-3.00_Z   h_-2.75_Z   c_-2.75_Z   h_-2.50_Z   c_-2.50_Z   h_-2.25_Z   c_-2.25_Z   h_-2.00_Z   c_-2.00_Z   h_-1.75_Z   c_-1.75_Z   h_-1.50_Z   c_-1.50_Z   h_-1.25_Z   c_-1.25_Z   h_-1.00_Z   c_-1.00_Z   h_-0.75_Z   c_-0.75_Z   h_-0.50_Z   c_-0.50_Z   h_-0.25_Z   c_-0.25_Z    h_0.00_Z    c_0.00_Z    h_0.25_Z    c_0.25_Z    h_0.50_Z    c_0.50_Z    h_0.75_Z    c_0.75_Z    h_1.00_Z    c_1.00_Z    h_1.25_Z    c_1.25_Z    h_1.50_Z    c_1.50_Z 
      4.00  1.0063e-20  3.9045e-19  1.0063e-20  3.9045e-19  1.0064e-20  3.9045e-19  1.0065e-20  3.9046e-19  1.0066e-20  3.9047e-19  1.0068e-20  3.9050e-19  1.0073e-20  3.9054e-19  1.0080e-20  3.9062e-19  1.0094e-20  3.9075e-19  1.0118e-20  3.9099e-19  1.0161e-20  3.9142e-19  1.0237e-20  3.9218e-19  1.0374e-20  3.9353e-19  1.0619e-20  3.9593e-19  1.1059e-20  4.0020e-19  1.1858e-20  4.0779e-19  1.3333e-20  4.2129e-19  1.6121e-20  4.4530e-19  2.1600e-20  4.8798e-19
      4.05  1.0063e-20  4.3809e-19  1.0063e-20  4.3809e-19  1.0063e-20  4.3809e-19  1.0064e-20  4.3810e-19  1.0065e-20  4.3812e-19  1.0067e-20  4.3814e-19  1.0072e-20  4.3819e-19  1.0079e-20  4.3828e-19  1.0092e-20  4.3843e-19  1.0115e-20  4.3870e-19  1.0155e-20  4.3918e-19  1.0228e-20  4.4003e-19  1.0358e-20  4.4154e-19  1.0591e-20  4.4424e-19  1.1010e-20  4.4903e-19  1.1770e-20  4.5755e-19  1.3171e-20  4.7270e-19  1.5819e-20  4.9963e-19  2.1016e-20  5.4753e-19
      4.10  1.0062e-20  4.9154e-19  1.0062e-20  4.9154e-19  1.0062e-20  4.9155e-19  1.0063e-20  4.9156e-19  1.0064e-20  4.9158e-19  1.0067e-20  4.9161e-19  1.0070e-20  4.9166e-19  1.0077e-20  4.9176e-19  1.0090e-20  4.9193e-19  1.0111e-20  4.9223e-19  1.0150e-20  4.9277e-19  1.0220e-20  4.9372e-19  1.0343e-20  4.9542e-19  1.0565e-20  4.9844e-19  1.0964e-20  5.0382e-19  1.1687e-20  5.1338e-19  1.3020e-20  5.3038e-19  1.5536e-20  5.6060e-19  2.0468e-20  6.1435e-19
      4.15  1.0061e-20  5.5152e-19  1.0061e-20  5.5152e-19  1.0062e-20  5.5153e-19  1.0062e-20  5.5154e-19  1.0064e-20  5.5156e-19  1.0066e-20  5.5159e-19  1.0069e-20  5.5165e-19  1.0076e-20  5.5176e-19  1.0088e-20  5.5195e-19  1.0109e-20  5.5229e-19  1.0146e-20  5.5289e-19  1.0212e-20  5.5396e-19  1.0330e-20  5.5587e-19  1.0541e-20  5.5926e-19  1.0920e-20  5.6530e-19  1.1609e-20  5.7602e-19  1.2878e-20  5.9509e-19  1.5270e-20  6.2901e-19  1.9953e-20  6.8931e-19
      4.20  1.0061e-20  6.1881e-19  1.0061e-20  6.1882e-19  1.0061e-20  6.1882e-19  1.0062e-20  6.1884e-19  1.0063e-20  6.1886e-19  1.0065e-20  6.1890e-19  1.0068e-20  6.1896e-19  1.0075e-20  6.1908e-19  1.0086e-20  6.1930e-19  1.0106e-20  6.1968e-19  1.0141e-20  6.2036e-19  1.0204e-20  6.2156e-19  1.0317e-20  6.2370e-19  1.0518e-20  6.2750e-19  1.0880e-20  6.3427e-19  1.1536e-20  6.4631e-19  1.2744e-20  6.6771e-19  1.5020e-20  7.0576e-19  1.9470e-20  7.7343e-19
      4.25  1.0060e-20  6.9432e-19  1.0060e-20  6.9432e-19  1.0061e-20  6.9433e-19  1.0061e-20  6.9435e-19  1.0062e-20  6.9437e-19  1.0064e-20  6.9441e-19  1.0068e-20  6.9449e-19  1.0074e-20  6.9462e-19  1.0084e-20  6.9486e-19  1.0103e-20  6.9529e-19  1.0137e-20  6.9605e-19  1.0197e-20  6.9740e-19  1.0304e-20  6.9980e-19  1.0497e-20  7.0407e-19  1.0842e-20  7.1167e-19  1.1468e-20  7.2517e-19  1.2619e-20  7.4918e-19  1.4786e-20  7.9188e-19  1.9016e-20  8.6781e-19
      4.30  1.0060e-20  7.7904e-19  1.0060e-20  7.7904e-19  1.0060e-20  7.7905e-19  1.0061e-20  7.7907e-19  1.0062e-20  7.7910e-19  1.0064e-20  7.7914e-19  1.0067e-20  7.7923e-19  1.0072e-20  7.7938e-19  1.0083e-20  7.7965e-19  1.0101e-20  7.8013e-19  1.0133e-20  7.8098e-19  1.0190e-20  7.8250e-19  1.0293e-20  7.8519e-19  1.0476e-20  7.8998e-19  1.0806e-20  7.9850e-19  1.1404e-20  8.1365e-19  1.2502e-20  8.4060e-19  1.4567e-20  8.8851e-19  1.8591e-20  9.7370e-19
      4.35  1.0059e-20  8.7410e-19  1.0059e-20  8.7410e-19  1.0060e-20  8.7411e-19  1.0060e-20  8.7413e-19  1.0061e-20  8.7416e-19  1.0063e-20  8.7421e-19  1.0066e-20  8.7431e-19  1.0071e-20  8.7448e-19  1.0081e-20  8.7478e-19  1.0099e-20  8.7532e-19  1.0129e-20  8.7627e-19  1.0184e-20  8.7797e-19  1.0282e-20  8.8100e-19  1.0458e-20  8.8637e-19  1.0773e-20  8.9594e-19  1.1344e-20  9.1294e-19  1.2392e-20  9.4317e-19  1.4362e-20  9.9693e-19  1.8192e-20  1.0925e-18
      4.40  1.0059e-20  9.8075e-19  1.0059e-20  9.8076e-19  1.0059e-20  9.8077e-19  1.0060e-20  9.8079e-19  1.0061e-20  9.8082e-19  1.0062e-20  9.8088e-19  1.0065e-20  9.8099e-19  1.0071e-20  9.8118e-19  1.0080e-20  9.8152e-19  1.0096e-20  9.8212e-19  1.0126e-20  9.8320e-19  1.0179e-20  9.8510e-19  1.0272e-20  9.8850e-19  1.0440e-20  9.9453e-19  1.0742e-20  1.0053e-18  1.1288e-20  1.0243e-18  1.2290e-20  1.0583e-18  1.4169e-20  1.1186e-18  1.7819e-20  1.2258e-18
      4.45  1.0058e-20  1.1004e-18  1.0059e-20  1.1004e-18  1.0059e-20  1.1004e-18  1.0059e-20  1.1005e-18  1.0060e-20  1.1005e-18  1.0062e-20  1.1006e-18  1.0065e-20  1.1007e-18  1.0070e-20  1.1009e-18  1.0079e-20  1.1013e-18  1.0094e-20  1.1020e-18  1.0123e-20  1.1032e-18  1.0173e-20  1.1053e-18  1.0263e-20  1.1091e-18  1.0424e-20  1.1159e-18  1.0712e-20  1.1279e-18  1.1235e-20  1.1493e-18  1.2193e-20  1.1874e-18  1.3989e-20  1.2551e-18  1.7469e-20  1.3754e-18
      4.50  1.0058e-20  1.2347e-18  1.0058e-20  1.2347e-18  1.0058e-20  1.2347e-18  1.0059e-20  1.2347e-18  1.0060e-20  1.2348e-18  1.0061e-20  1.2349e-18  1.0064e-20  1.2350e-18  1.0069e-20  1.2352e-18  1.0077e-20  1.2357e-18  1.0093e-20  1.2364e-18  1.0120e-20  1.2378e-18  1.0168e-20  1.2402e-18  1.0254e-20  1.2444e-18  1.0408e-20  1.2520e-18  1.0685e-20  1.2655e-18  1.1186e-20  1.2896e-18  1.2103e-20  1.3323e-18  1.3820e-20  1.4082e-18  1.7141e-20  1.5433e-18
      4.55  1.0058e-20  1.3854e-18  1.0058e-20  1.3854e-18  1.0058e-20  1.3854e-18  1.0059e-20  1.3854e-18  1.0059e-20  1.3854e-18  1.0061e-20  1.3855e-18  1.0063e-20  1.3857e-18  1.0068e-20  1.3860e-18  1.0076e-20  1.3864e-18  1.0091e-20  1.3873e-18  1.0117e-20  1.3888e-18  1.0163e-20  1.3915e-18  1.0246e-20  1.3963e-18  1.0394e-20  1.4048e-18  1.0659e-20  1.4200e-18  1.1140e-20  1.4469e-18  1.2019e-20  1.4948e-18  1.3662e-20  1.5800e-18  1.6834e-20  1.7316e-18
      4.60  1.0057e-20  1.5544e-18  1.0057e-20  1.5544e-18  1.0058e-20  1.5544e-18  1.0058e-20  1.5544e-18  1.0059e-20  1.5545e-18  1.0060e-20  1.5546e-18  1.0063e-20  1.5548e-18  1.0067e-20  1.5551e-18  1.0075e-20  1.5556e-18  1.0089e-20  1.5566e-18  1.0114e-20  1.5583e-18  1.0159e-20  1.5613e-18  1.0238e-20  1.5667e-18  1.0380e-20  1.5762e-18  1.0635e-20  1.5932e-18  1.1096e-20  1.6235e-18  1.1940e-20  1.6772e-18  1.3514e-20  1.7728e-18  1.6547e-20  1.9429e-18
      4.65  1.0057e-20  1.7441e-18  1.0057e-20  1.7441e-18  1.0057e-20  1.7441e-18  1.0058e-20  1.7441e-18  1.0059e-20  1.7442e-18  1.0060e-20  1.7443e-18  1.0062e-20  1.7445e-18  1.0067e-20  1.7448e-18  1.0074e-20  1.7454e-18  1.0088e-20  1.7465e-18  1.0112e-20  1.7484e-18  1.0155e-20  1.7518e-18  1.0231e-20  1.7578e-18  1.0368e-20  1.7686e-18  1.0613e-20  1.7876e-18  1.1056e-20  1.8216e-18  1.1866e-20  1.8819e-18  1.3375e-20  1.9892e-18  1.6278e-20  2.1799e-18
      4.70  1.0057e-20  1.9569e-18  1.0057e-20  1.9569e-18  1.0057e-20  1.9569e-18  1.0058e-20  1.9569e-18  1.0058e-20  1.9570e-18  1.0060e-20  1.9571e-18  1.0062e-20  1.9573e-18  1.0066e-20  1.9577e-18  1.0073e-20  1.9584e-18  1.0086e-20  1.9596e-18  1.0110e-20  1.9617e-18  1.0151e-20  1.9655e-18  1.0224e-20  1.9723e-18  1.0356e-20  1.9843e-18  1.0592e-20  2.0058e-18  1.1018e-20  2.0438e-18  1.1797e-20  2.1115e-18  1.3246e-20  2.2319e-18  1.6027e-20  2.4459e-18
      4.75  1.0057e-20  2.1956e-18  1.0057e-20  2.1956e-18  1.0057e-20  2.1957e-18  1.0057e-20  2.1957e-18  1.0058e-20  2.1958e-18  1.0059e-20  2.1959e-18  1.0061e-20  2.1962e-18  1.0065e-20  2.1966e-18  1.0073e-20  2.1973e-18  1.0085e-20  2.1987e-18  1.0107e-20  2.2011e-18  1.0147e-20  2.2054e-18  1.0218e-20  2.2130e-18  1.0345e-20  2.2265e-18  1.0573e-20  2.2505e-18  1.0983e-20  2.2932e-18  1.1732e-20  2.3692e-18  1.3125e-20  2.5042e-18  1.5792e-20  2.7444e-18
      4.80  1.0056e-20  2.4635e-18  1.0056e-20  2.4636e-18  1.0057e-20  2.4636e-18  1.0057e-20  2.4636e-18  1.0058e-20  2.4637e-18  1.0059e-20  2.4639e-18  1.0061e-20  2.4641e-18  1.0065e-20  2.4646e-18  1.0072e-20  2.4655e-18  1.0084e-20  2.4670e-18  1.0105e-20  2.4697e-18  1.0144e-20  2.4745e-18  1.0212e-20  2.4830e-18  1.0335e-20  2.4981e-18  1.0554e-20  2.5251e-18  1.0950e-20  2.5730e-18  1.1672e-20  2.6582e-18  1.3012e-20  2.8098e-18  1.5572e-20  3.0793e-18
      4.85  1.0056e-20  2.7641e-18  1.0056e-20  2.7642e-18  1.0056e-20  2.7642e-18  1.0057e-20  2.7642e-18  1.0057e-20  2.7643e-18  1.0059e-20  2.7645e-18  1.0061e-20  2.7648e-18  1.0064e-20  2.7653e-18  1.0071e-20  2.7663e-18  1.0083e-20  2.7680e-18  1.0104e-20  2.7710e-18  1.0141e-20  2.7764e-18  1.0207e-20  2.7860e-18  1.0325e-20  2.8030e-18  1.0537e-20  2.8332e-18  1.0919e-20  2.8870e-18  1.1615e-20  2.9826e-18  1.2906e-20  3.1526e-18  1.5366e-20  3.4550e-18
      4.90  1.0056e-20  3.1014e-18  1.0056e-20  3.1014e-18  1.0056e-20  3.1015e-18  1.0057e-20  3.1015e-18  1.0057e-20  3.1016e-18  1.0058e-20  3.1018e-18  1.0060e-20  3.1022e-18  1.0064e-20  3.1028e-18  1.0070e-20  3.1038e-18  1.0082e-20  3.1057e-18  1.0102e-20  3.1091e-18  1.0138e-20  3.1152e-18  1.0202e-20  3.1259e-18  1.0316e-20  3.1450e-18  1.0521e-20  3.1789e-18  1.0890e-20  3.2392e-18  1.1563e-20  3.3465e-18  1.2807e-20  3.5373e-18  1.5174e-20  3.8766e-18
      4.95  1.0056e-20  3.4798e-18  1.0056e-20  3.4799e-18  1.0056e-20  3.4799e-18  1.0056e-20  3.4800e-18  1.0057e-20  3.4801e-18  1.0058e-20  3.4803e-18  1.0060e-20  3.4807e-18  1.0064e-20  3.4814e-18  1.0070e-20  3.4826e-18  1.0081e-20  3.4847e-18  1.0100e-20  3.4885e-18  1.0135e-20  3.4953e-18  1.0197e-20  3.5073e-18  1.0308e-20  3.5287e-18  1.0506e-20  3.5668e-18  1.0864e-20  3.6345e-18  1.1513e-20  3.7549e-18  1.2715e-20  3.9690e-18  1.4994e-20  4.3496e-18
      5.00  1.0056e-20  3.9044e-18  1.0056e-20  3.9045e-18  1.0056e-20  3.9045e-18  1.0056e-20  3.9046e-18  1.0057e-20  3.9047e-18  1.0058e-20  3.9050e-18  1.0060e-20  3.9054e-18  1.0063e-20  3.9061e-18  1.0069e-20  3.9075e-18  1.0080e-20  3.9099e-18  1.0099e-20  3.9142e-18  1.0132e-20  3.9218e-18  1.0193e-20  3.9353e-18  1.0300e-20  3.9593e-18  1.0492e-20  4.0020e-18  1.0838e-20  4.0780e-18  1.1467e-20  4.2131e-18  1.2628e-20  4.4533e-18  1.4827e-20  4.8804e-18
      5.05  1.0055e-20  4.3809e-18  1.0056e-20  4.3809e-18  1.0056e-20  4.3809e-18  1.0056e-20  4.3810e-18  1.0057e-20  4.3812e-18  1.0058e-20  4.3814e-18  1.0059e-20  4.3819e-18  1.0063e-20  4.3828e-18  1.0069e-20  4.3843e-18  1.0079e-20  4.3870e-18  1.0097e-20  4.3918e-18  1.0130e-20  4.4003e-18  1.0188e-20  4.4155e-18  1.0293e-20  4.4424e-18  1.0479e-20  4.4903e-18  1.0815e-20  4.5756e-18  1.1424e-20  4.7271e-18  1.2548e-20  4.9966e-18  1.4670e-20  5.4759e-18
      5.10  1.0055e-20  4.9154e-18  1.0055e-20  4.9154e-18  1.0056e-20  4.9155e-18  1.0056e-20  4.9156e-18  1.0056e-20  4.9158e-18  1.0057e-20  4.9161e-18  1.0059e-20  4.9166e-18  1.0062e-20  4.9176e-18  1.0068e-20  4.9193e-18  1.0078e-20  4.9223e-18  1.0096e-20  4.9277e-18  1.0128e-20  4.9372e-18  1.0185e-20  4.9542e-18  1.0286e-20  4.9845e-18  1.0467e-20  5.0382e-18  1.0793e-20  5.1339e-18  1.1384e-20  5.3039e-18  1.2473e-20  5.6063e-18  1.4524e-20  6.1441e-18
      5.15  1.0055e-20  5.5152e-18  1.0055e-20  5.5152e-18  1.0055e-20  5.5153e-18  1.0056e-20  5.5154e-18  1.0056e-20  5.5156e-18  1.0057e-20  5.5159e-18  1.0059e-20  5.5165e-18  1.0062e-20  5.5176e-18  1.0068e-20  5.5195e-18  1.0077e-20  5.5229e-18  1.0095e-20  5.5289e-18  1.0126e-20  5.5396e-18  1.0181e-20  5.5587e-18  1.0279e-20  5.5927e-18  1.0456e-20  5.6530e-18  1.0773e-20  5.7603e-18  1.1347e-20  5.9511e-18  1.2402e-20  6.2904e-18  1.4387e-20  6.8938e-18
      5.20  1.0055e-20  6.1881e-18  1.0055e-20  6.1882e-18  1.0055e-20  6.1882e-18  1.0056e-20  6.1884e-18  1.0056e-20  6.1886e-18  1.0057e-20  6.1889e-18  1.0059e-20  6.1896e-18  1.0062e-20  6.1908e-18  1.0067e-20  6.1930e-18  1.0077e-20  6.1968e-18  1.0094e-20  6.2035e-18  1.0124e-20  6.2156e-18  1.0178e-20  6.2370e-18  1.0274e-20  6.2751e-18  1.0445e-20  6.3428e-18  1.0753e-20  6.4632e-18  1.1312e-20  6.6773e-18  1.2337e-20  7.0580e-18  1.4260e-20  7.7350e-18
      5.25  1.0055e-20  6.9432e-18  1.0055e-20  6.9432e-18  1.0055e-20  6.9433e-18  1.0055e-20  6.9434e-18  1.0056e-20  6.9437e-18  1.0057e-20  6.9441e-18  1.0059e-20  6.9449e-18  1.0062e-20  6.9462e-18  1.0067e-20  6.9486e-18  1.0076e-20  6.9529e-18  1.0093e-20  6.9605e-18  1.0122e-20  6.9740e-18  1.0174e-20  6.9980e-18  1.0268e-20  7.0407e-18  1.0435e-20  7.1167e-18  1.0736e-20  7.2518e-18  1.1279e-20  7.4920e-18  1.2276e-20  7.9192e-18  1.4141e-20  8.6788e-18
      5.30  1.0055e-20  7.7904e-18  1.0055e-20  7.7904e-18  1.0055e-20  7.7905e-18  1.0055e-20  7.7907e-18  1.0056e-20  7.7909e-18  1.0057e-20  7.7914e-18  1.0058e-20  7.7923e-18  1.0061e-20  7.7938e-18  1.0066e-20  7.7965e-18  1.0075e-20  7.8013e-18  1.0092e-20  7.8098e-18  1.0120e-20  7.8250e-18  1.0172e-20  7.8519e-18  1.0263e-20  7.8998e-18  1.0426e-20  7.9851e-18  1.0719e-20  8.1367e-18  1.1249e-20  8.4062e-18  1.2219e-20  8.8855e-18  1.4030e-20  9.7378e-18
      5.35  1.0055e-20  8.7410e-18  1.0055e-20  8.7410e-18  1.0055e-20  8.7411e-18  1.0055e-20  8.7413e-18  1.0056e-20  8.7416e-18  1.0057e-20  8.7421e-18  1.0058e-20  8.7431e-18  1.0061e-20  8.7448e-18  1.0066e-20  8.7478e-18  1.0075e-20  8.7532e-18  1.0091e-20  8.7627e-18  1.0119e-20  8.7798e-18  1.0169e-20  8.8100e-18  1.0258e-20  8.8638e-18  1.0417e-20  8.9594e-18  1.0704e-20  9.1295e-18  1.1221e-20  9.4319e-18  1.2165e-20  9.9697e-18  1.3927e-20  1.0926e-17
      5.40  1.0055e-20  9.8075e-18  1.0055e-20  9.8076e-18  1.0055e-20  9.8077e-18  1.0055e-20  9.8079e-18  1.0056e-20  9.8082e-18  1.0057e-20  9.8088e-18  1.0058e-20  9.8099e-18  1.0061e-20  9.8118e-18  1.0066e-20  9.8152e-18  1.0074e-20  9.8212e-18  1.0090e-20  9.8320e-18  1.0117e-20  9.8510e-18  1.0166e-20  9.8850e-18  1.0254e-20  9.9453e-18  1.0409e-20  1.0053e-17  1.0689e-20  1.0243e-17  1.1194e-20  1.0583e-17  1.2116e-20  1.1186e-17  1.3830e-20  1.2259e-17
      5.45  1.0055e-20  1.1004e-17  1.0055e-20  1.1004e-17  1.0055e-20  1.1004e-17  1.0055e-20  1.1005e-17  1.0056e-20  1.1005e-17  1.0056e-20  1.1006e-17  1.0058e-20  1.1007e-17  1.0061e-20  1.1009e-17  1.0065e-20  1.1013e-17  1.0074e-20  1.1020e-17  1.0089e-20  1.1032e-17  1.0116e-20  1.1053e-17  1.0164e-20  1.1091e-17  1.0249e-20  1.1159e-17  1.0402e-20  1.1279e-17  1.0676e-20  1.1493e-17  1.1170e-20  1.1874e-17  1.2070e-20  1.2551e-17  1.3740e-20  1.3755e-17
      5.50  1.0054e-20  1.2347e-17  1.0055e-20  1.2347e-17  1.0055e-20  1.2347e-17  1.0055e-20  1.2347e-17  1.0055e-20  1.2348e-17  1.0056e-20  1.2349e-17  1.0058e-20  1.2350e-17  1.0060e-20  1.2352e-17  1.0065e-20  1.2357e-17  1.0073e-20  1.2364e-17  1.0088e-20  1.2378e-17  1.0115e-20  1.2402e-17  1.0162e-20  1.2444e-17  1.0245e-20  1.2520e-17  1.0395e-20  1.2656e-17  1.0663e-20  1.2896e-17  1.1147e-20  1.3323e-17  1.2027e-20  1.4083e-17  1.3656e-20  1.5433e-17
      5.55  1.0054e-20  1.3853e-17  1.0055e-20  1.3854e-17  1.0055e-20  1.3854e-17  1.0055e-20  1.3854e-17  1.0055e-20  1.3854e-17  1.0056e-20  1.3855e-17  1.0058e-20  1.3857e-17  1.0060e-20  1.3860e-17  1.0065e-20  1.3864e-17  1.0073e-20  1.3873e-17  1.0088e-20  1.3888e-17  1.0113e-20  1.3915e-17  1.0160e-20  1.3963e-17  1.0242e-20  1.4048e-17  1.0389e-20  1.4200e-17  1.0652e-20  1.4469e-17  1.1125e-20  1.4949e-17  1.1986e-20  1.5801e-17  1.3578e-20  1.7317e-17
      5.60  1.0054e-20  1.5544e-17  1.0054e-20  1.5544e-17  1.0055e-20  1.5544e-17  1.0055e-20  1.5544e-17  1.0055e-20  1.5545e-17  1.0056e-20  1.5546e-17  1.0058e-20  1.5548e-17  1.0060e-20  1.5551e-17  1.0065e-20  1.5556e-17  1.0073e-20  1.5566e-17  1.0087e-20  1.5583e-17  1.0112e-20  1.5613e-17  1.0158e-20  1.5667e-17  1.0238e-20  1.5762e-17  1.0383e-20  1.5932e-17  1.0641e-20  1.6235e-17  1.1105e-20  1.6773e-17  1.1949e-20  1.7729e-17  1.3505e-20  1.9430e-17
      5.65  1.0054e-20  1.7441e-17  1.0054e-20  1.7441e-17  1.0055e-20  1.7441e-17  1.0055e-20  1.7441e-17  1.0055e-20  1.7442e-17  1.0056e-20  1.7443e-17  1.0057e-20  1.7445e-17  1.0060e-20  1.7448e-17  1.0064e-20  1.7454e-17  1.0072e-20  1.7465e-17  1.0086e-20  1.7484e-17  1.0111e-20  1.7518e-17  1.0156e-20  1.7578e-17  1.0235e-20  1.7686e-17  1.0377e-20  1.7876e-17  1.0631e-20  1.8216e-17  1.1087e-20  1.8819e-17  1.1914e-20  1.9892e-17  1.3438e-20  2.1800e-17
      5.70  1.0054e-20  1.9569e-17  1.0054e-20  1.9569e-17  1.0054e-20  1.9569e-17  1.0055e-20  1.9569e-17  1.0055e-20  1.9570e-17  1.0056e-20  1.9571e-17  1.0057e-20  1.9573e-17  1.0060e-20  1.9577e-17  1.0064e-20  1.9584e-17  1.0072e-20  1.9596e-17  1.0086e-20  1.9617e-17  1.0110e-20  1.9655e-17  1.0154e-20  1.9723e-17  1.0232e-20  1.9844e-17  1.0372e-20  2.0058e-17  1.0621e-20  2.0438e-17  1.1069e-20  2.1115e-17  1.1882e-20  2.2319e-17  1.3374e-20  2.4461e-17
      5.75  1.0054e-20  2.1956e-17  1.0054e-20  2.1956e-17  1.0054e-20  2.1957e-17  1.0055e-20  2.1957e-17  1.0055e-20  2.1958e-17  1.0056e-20  2.1959e-17  1.0057e-20  2.1962e-17  1.0060e-20  2.1966e-17  1.0064e-20  2.1973e-17  1.0072e-20  2.1987e-17  1.0085e-20  2.2011e-17  1.0110e-20  2.2054e-17  1.0153e-20  2.2130e-17  1.0230e-20  2.2265e-17  1.0367e-20  2.2505e-17  1.0612e-20  2.2932e-17  1.1053e-20  2.3692e-17  1.1851e-20  2.5043e-17  1.3316e-20  2.7445e-17
      5.80  1.0054e-20  2.4635e-17  1.0054e-20  2.4636e-17  1.0054e-20  2.4636e-17  1.0055e-20  2.4636e-17  1.0055e-20  2.4637e-17  1.0056e-20  2.4639e-17  1.0057e-20  2.4641e-17  1.0060e-20  2.4646e-17  1.0064e-20  2.4655e-17  1.0071e-20  2.4670e-17  1.0085e-20  2.4697e-17  1.0109e-20  2.4745e-17  1.0151e-20  2.4830e-17  1.0227e-20  2.4982e-17  1.0362e-20  2.5251e-17  1.0604e-20  2.5730e-17  1.1038e-20  2.6583e-17  1.1823e-20  2.8099e-17  1.3261e-20  3.0794e-17
      5.85  1.0054e-20  2.7641e-17  1.0054e-20  2.7642e-17  1.0054e-20  2.7642e-17  1.0055e-20  2.7642e-17  1.0055e-20  2.7643e-17  1.0056e-20  2.7645e-17  1.0057e-20  2.7648e-17  1.0059e-20  2.7653e-17  1.0064e-20  2.7663e-17  1.0071e-20  2.7680e-17  1.0084e-20  2.7710e-17  1.0108e-20  2.7764e-17  1.0150e-20  2.7860e-17  1.0225e-20  2.8030e-17  1.0358e-20  2.8332e-17  1.0597e-20  2.8870e-17  1.1024e-20  2.9826e-17  1.1797e-20  3.1527e-17  1.3210e-20  3.4552e-17
      5.90  1.0054e-20  3.1014e-17  1.0054e-20  3.1014e-17  1.0054e-20  3.1015e-17  1.0055e-20  3.1015e-17  1.0055e-20  3.1016e-17  1.0056e-20  3.1018e-17  1.0057e-20  3.1022e-17  1.0059e-20  3.1028e-17  1.0063e-20  3.1038e-17  1.0071e-20  3.1057e-17  1.0084e-20  3.1091e-17  1.0107e-20  3.1152e-17  1.0149e-20  3.1259e-17  1.0223e-20  3.1450e-17  1.0354e-20  3.1789e-17  1.0589e-20  3.2393e-17  1.1011e-20  3.3466e-17  1.1773e-20  3.5374e-17  1.3163e-20  3.8767e-17
      5.95  1.0054e-20  3.4798e-17  1.0054e-20  3.4799e-17  1.0054e-20  3.4799e-17  1.0055e-20  3.4800e-17  1.0055e-20  3.4801e-17  1.0056e-20  3.4803e-17  1.0057e-20  3.4807e-17  1.0059e-20  3.4814e-17  1.0063e-20  3.4826e-17  1.0071e-20  3.4847e-17  1.0084e-20  3.4885e-17  1.0107e-20  3.4953e-17  1.0148e-20  3.5073e-17  1.0220e-20  3.5287e-17  1.0351e-20  3.5668e-17  1.0583e-20  3.6345e-17  1.0999e-20  3.7549e-17  1.1750e-20  3.9690e-17  1.3119e-20  4.3498e-17
      6.00  1.0054e-20  3.9044e-17  1.0054e-20  3.9045e-17  1.0054e-20  3.9045e-17  1.0054e-20  3.9046e-17  1.0055e-20  3.9047e-17  1.0056e-20  3.9050e-17  1.0057e-20  3.9054e-17  1.0059e-20  3.9061e-17  1.0063e-20  3.9075e-17  1.0070e-20  3.9099e-17  1.0083e-20  3.9142e-17  1.0106e-20  3.9218e-17  1.0146e-20  3.9353e-17  1.0219e-20  3.9593e-17  1.0347e-20  4.0020e-17  1.0577e-20  4.0780e-17  1.0988e-20  4.2131e-17  1.1729e-20  4.4533e-17  1.3078e-20  4.8805e-17
      6.05  1.0054e-20  4.3809e-17  1.0054e-20  4.3809e-17  1.0054e-20  4.3809e-17  1.0054e-20  4.3810e-17  1.0055e-20  4.3812e-17  1.0056e-20  4.3814e-17  1.0057e-20  4.3819e-17  1.0059e-20  4.3828e-17  1.0063e-20  4.3843e-17  1.0070e-20  4.3870e-17  1.0083e-20  4.3918e-17  1.0105e-20  4.4003e-17  1.0145e-20  4.4155e-17  1.0217e-20  4.4424e-17  1.0344e-20  4.4903e-17  1.0571e-20  4.5756e-17  1.0978e-20  4.7272e-17  1.1710e-20  4.9967e-17  1.3039e-20  5.4761e-17
      6.10  1.0054e-20  4.9154e-17  1.0054e-20  4.9154e-17  1.0054e-20  4.9155e-17  1.0054e-20  4.9156e-17  1.0055e-20  4.9158e-17  1.0056e-20  4.9161e-17  1.0057e-20  4.9166e-17  1.0059e-20  4.9175e-17  1.0063e-20  4.9192e-17  1.0070e-20  4.9223e-17  1.0083e-20  4.9277e-17  1.0105e-20  4.9372e-17  1.0145e-20  4.9542e-17  1.0215e-20  4.9845e-17  1.0341e-20  5.0383e-17  1.0566e-20  5.1339e-17  1.0968e-20  5.3040e-17  1.1691e-20  5.6064e-17  1.3004e-20  6.1442e-17
      6.15  1.0054e-20  5.5152e-17  1.0054e-20  5.5152e-17  1.0054e-20  5.5153e-17  1.0054e-20  5.5154e-17  1.0055e-20  5.5156e-17  1.0055e-20  5.5159e-17  1.0057e-20  5.5165e-17  1.0059e-20  5.5176e-17  1.0063e-20  5.5195e-17  1.0070e-20  5.5229e-17  1.0082e-20  5.5289e-17  1.0104e-20  5.5396e-17  1.0144e-20  5.5587e-17  1.0214e-20  5.5927e-17  1.0338e-20  5.6530e-17  1.0561e-20  5.7603e-17  1.0959e-20  5.9512e-17  1.1675e-20  6.2905e-17  1.2971e-20  6.8940e-17
      6.20  1.0054e-20  6.1881e-17  1.0054e-20  6.1882e-17  1.0054e-20  6.1882e-17  1.0054e-20  6.1884e-17  1.0055e-20  6.1886e-17  1.0055e-20  6.1889e-17  1.0057e-20  6.1896e-17  1.0059e-20  6.1908e-17  1.0063e-20  6.1930e-17  1.0070e-20  6.1968e-17  1.0082e-20  6.2035e-17  1.0104e-20  6.2156e-17  1.0143e-20  6.2370e-17  1.0212e-20  6.2751e-17  1.0336e-20  6.3428e-17  1.0556e-20  6.4632e-17  1.0951e-20  6.6773e-17  1.1659e-20  7.0581e-17  1.2941e-20  7.7352e-17
      6.25  1.0054e-20  6.9432e-17  1.0054e-20  6.9432e-17  1.0054e-20  6.9433e-17  1.0054e-20  6.9434e-17  1.0055e-20  6.9437e-17  1.0055e-20  6.9441e-17  1.0057e-20  6.9449e-17  1.0059e-20  6.9462e-17  1.0063e-20  6.9486e-17  1.0070e-20  6.9529e-17  1.0082e-20  6.9605e-17  1.0103e-20  6.9740e-17  1.0142e-20  6.9980e-17  1.0211e-20  7.0408e-17  1.0333e-20  7.1167e-17  1.0552e-20  7.2518e-17  1.0943e-20  7.4921e-17  1.1644e-20  7.9193e-17  1.2912e-20  8.6790e-17
      6.30  1.0054e-20  7.7904e-17  1.0054e-20  7.7904e-17  1.0054e-20  7.7905e-17  1.0054e-20  7.7907e-17  1.0055e-20  7.7909e-17  1.0055e-20  7.7914e-17  1.0057e-20  7.7923e-17  1.0059e-20  7.7938e-17  1.0063e-20  7.7965e-17  1.0069e-20  7.8013e-17  1.0082e-20  7.8098e-17  1.0103e-20  7.8250e-17  1.0141e-20  7.8519e-17  1.0210e-20  7.8999e-17  1.0331e-20  7.9851e-17  1.0548e-20  8.1367e-17  1.0936e-20  8.4062e-17  1.1631e-20  8.8856e-17  1.2886e-20  9.7380e-17
      6.35  1.0054e-20  8.7410e-17  1.0054e-20  8.7410e-17  1.0054e-20  8.7411e-17  1.0054e-20  8.7413e-17  1.0055e-20  8.7416e-17  1.0055e-20  8.7421e-17  1.0057e-20  8.7431e-17  1.0059e-20  8.7448e-17  1.0063e-20  8.7478e-17  1.0069e-20  8.7532e-17  1.0081e-20  8.7627e-17  1.0103e-20  8.7798e-17  1.0141e-20  8.8100e-17  1.0209e-20  8.8638e-17  1.0329e-20  8.9594e-17  1.0545e-20  9.1295e-17  1.0929e-20  9.4320e-17  1.1618e-20  9.9698e-17  1.2861e-20  1.0926e-16
      6.40  1.0054e-20  9.8075e-17  1.0054e-20  9.8076e-17  1.0054e-20  9.8077e-17  1.0054e-20  9.8079e-17  1.0055e-20  9.8082e-17  1.0055e-20  9.8088e-17  1.0057e-20  9.8099e-17  1.0059e-20  9.8118e-17  1.0062e-20  9.8152e-17  1.0069e-20  9.8212e-17  1.0081e-20  9.8320e-17  1.0102e-20  9.8510e-17  1.0140e-20  9.8850e-17  1.0208e-20  9.9453e-17  1.0327e-20  1.0053e-16  1.0541e-20  1.0243e-16  1.0923e-20  1.0583e-16  1.1607e-20  1.1186e-16  1.2839e-20  1.2259e-16
      6.45  1.0054e-20  1.1004e-16  1.0054e-20  1.1004e-16  1.0054e-20  1.1004e-16  1.0054e-20  1.1005e-16  1.0055e-20  1.1005e-16  1.0055e-20  1.1006e-16  1.0057e-20  1.1007e-16  1.0059e-20  1.1009e-16  1.0062e-20  1.1013e-16  1.0069e-20  1.1020e-16  1.0081e-20  1.1032e-16  1.0102e-20  1.1053e-16  1.0140e-20  1.1091e-16  1.0207e-20  1.1159e-16  1.0326e-20  1.1279e-16  1.0538e-20  1.1493e-16  1.0917e-20  1.1874e-16  1.1596e-20  1.2551e-16  1.2818e-20  1.3755e-16
      6.50  1.0054e-20  1.2347e-16  1.0054e-20  1.2347e-16  1.0054e-20  1.2347e-16  1.0054e-20  1.2347e-16  1.0055e-20  1.2348e-16  1.0055e-20  1.2349e-16  1.0056e-20  1.2350e-16  1.0059e-20  1.2352e-16  1.0062e-20  1.2357e-16  1.0069e-20  1.2364e-16  1.0081e-20  1.2378e-16  1.0102e-20  1.2402e-16  1.0139e-20  1.2444e-16  1.0206e-20  1.2520e-16  1.0324e-20  1.2656e-16  1.0535e-20  1.2896e-16  1.0912e-20  1.3323e-16  1.1586e-20  1.4083e-16  1.2798e-20  1.5434e-16
      6.55  1.0054e-20  1.3853e-16  1.0054e-20  1.3854e-16  1.0054e-20  1.3854e-16  1.0054e-20  1.3854e-16  1.0055e-20  1.3854e-16  1.0055e-20  1.3855e-16  1.0056e-20  1.3857e-16  1.0059e-20  1.3860e-16  1.0062e-20  1.3864e-16  1.0069e-20  1.3873e-16  1.0081e-20  1.3888e-16  1.0102e-20  1.3915e-16  1.0139e-20  1.3963e-16  1.0205e-20  1.4048e-16  1.0323e-20  1.4200e-16  1.0532e-20  1.4469e-16  1.0907e-20  1.4949e-16  1.1576e-20  1.5801e-16  1.2780e-20  1.7317e-16
      6.60  1.0054e-20  1.5544e-16  1.0054e-20  1.5544e-16  1.0054e-20  1.5544e-16  1.0054e-20  1.5544e-16  1.0055e-20  1.5545e-16  1.0055e-20  1.5546e-16  1.0056e-20  1.5548e-16  1.0059e-20  1.5551e-16  1.0062e-20  1.5556e-16  1.0069e-20  1.5566e-16  1.0080e-20  1.5583e-16  1.0101e-20  1.5613e-16  1.0138e-20  1.5667e-16  1.0204e-20  1.5762e-16  1.0321e-20  1.5932e-16  1.0530e-20  1.6235e-16  1.0902e-20  1.6773e-16  1.1568e-20  1.7729e-16  1.2763e-20  1.9430e-16
      6.65  1.0054e-20  1.7441e-16  1.0054e-20  1.7441e-16  1.0054e-20  1.7441e-16  1.0054e-20  1.7441e-16  1.0055e-20  1.7442e-16  1.0055e-20  1.7443e-16  1.0056e-20  1.7445e-16  1.0059e-20  1.7448e-16  1.0062e-20  1.7454e-16  1.0069e-20  1.7465e-16  1.0080e-20  1.7484e-16  1.0101e-20  1.7518e-16  1.0138e-20  1.7578e-16  1.0203e-20  1.7686e-16  1.0320e-20  1.7876e-16  1.0528e-20  1.8216e-16  1.0898e-20  1.8819e-16  1.1560e-20  1.9892e-16  1.2748e-20  2.1801e-16
      6.70  1.0054e-20  1.9569e-16  1.0054e-20  1.9569e-16  1.0054e-20  1.9569e-16  1.0054e-20  1.9569e-16  1.0055e-20  1.9570e-16  1.0055e-20  1.9571e-16  1.0056e-20  1.9573e-16  1.0058e-20  1.9577e-16  1.0062e-20  1.9584e-16  1.0069e-20  1.9596e-16  1.0080e-20  1.9617e-16  1.0101e-20  1.9655e-16  1.0137e-20  1.9723e-16  1.0203e-20  1.9844e-16  1.0319e-20  2.0058e-16  1.0525e-20  2.0438e-16  1.0894e-20  2.1116e-16  1.1552e-20  2.2320e-16  1.2733e-20  2.4461e-16
      6.75  1.0054e-20  2.1956e-16  1.0054e-20  2.1956e-16  1.0054e-20  2.1957e-16  1.0054e-20  2.1957e-16  1.0055e-20  2.1958e-16  1.0055e-20  2.1959e-16  1.0056e-20  2.1962e-16  1.0058e-20  2.1966e-16  1.0062e-20  2.1973e-16  1.0069e-20  2.1987e-16  1.0080e-20  2.2011e-16  1.0101e-20  2.2054e-16  1.0137e-20  2.2130e-16  1.0202e-20  2.2265e-16  1.0318e-20  2.2505e-16  1.0523e-20  2.2932e-16  1.0890e-20  2.3692e-16  1.1546e-20  2.5043e-16  1.2720e-20  2.7445e-16
      6.80  1.0054e-20  2.4635e-16  1.0054e-20  2.4636e-16  1.0054e-20  2.4636e-16  1.0054e-20  2.4636e-16  1.0055e-20  2.4637e-16  1.0055e-20  2.4639e-16  1.0056e-20  2.4641e-16  1.0058e-20  2.4646e-16  1.0062e-20  2.4655e-16  1.0069e-20  2.4670e-16  1.0080e-20  2.4697e-16  1.0100e-20  2.4745e-16  1.0137e-20  2.4830e-16  1.0202e-20  2.4982e-16  1.0317e-20  2.5251e-16  1.0522e-20  2.5730e-16  1.0887e-20  2.6583e-16  1.1539e-20  2.8099e-16  1.2708e-20  3.0794e-16
      6.85  1.0054e-20  2.7641e-16  1.0054e-20  2.7642e-16  1.0054e-20  2.7642e-16  1.0054e-20  2.7642e-16  1.0055e-20  2.7643e-16  1.0055e-20  2.7645e-16  1.0056e-20  2.7648e-16  1.0058e-20  2.7653e-16  1.0062e-20  2.7663e-16  1.0068e-20  2.7680e-16  1.0080e-20  2.7710e-16  1.0100e-20  2.7764e-16  1.0137e-20  2.7860e-16  1.0201e-20  2.8030e-16  1.0316e-20  2.8332e-16  1.0520e-20  2.8870e-16  1.0884e-20  2.9826e-16  1.1533e-20  3.1527e-16  1.2696e-20  3.4552e-16
      6.90  1.0054e-20  3.1014e-16  1.0054e-20  3.1014e-16  1.0054e-20  3.1015e-16  1.0054e-20  3.1015e-16  1.0055e-20  3.1016e-16  1.0055e-20  3.1018e-16  1.0056e-20  3.1022e-16  1.0058e-20  3.1028e-16  1.0062e-20  3.1038e-16  1.0068e-20  3.1057e-16  1.0080e-20  3.1091e-16  1.0100e-20  3.1152e-16  1.0136e-20  3.1259e-16  1.0200e-20  3.1450e-16  1.0315e-20  3.1789e-16  1.0518e-20  3.2393e-16  1.0881e-20  3.3466e-16  1.1528e-20  3.5374e-16  1.2686e-20  3.8768e-16
      6.95  1.0054e-20  3.4798e-16  1.0054e-20  3.4799e-16  1.0054e-20  3.4799e-16  1.0054e-20  3.4800e-16  1.0055e-20  3.4801e-16  1.0055e-20  3.4803e-16  1.0056e-20  3.4807e-16  1.0058e-20  3.4814e-16  1.0062e-20  3.4826e-16  1.0068e-20  3.4847e-16  1.0080e-20  3.4885e-16  1.0100e-20  3.4953e-16  1.0136e-20  3.5073e-16  1.0200e-20  3.5287e-16  1.0314e-20  3.5668e-16  1.0517e-20  3.6345e-16  1.0878e-20  3.7549e-16  1.1523e-20  3.9691e-16  1.2676e-20  4.3498e-16
      7.00  1.0054e-20  3.9044e-16  1.0054e-20  3.9045e-16  1.0054e-20  3.9045e-16  1.0054e-20  3.9046e-16  1.0055e-20  3.9047e-16  1.0055e-20  3.9050e-16  1.0056e-20  3.9054e-16  1.0058e-20  3.9061e-16  1.0062e-20  3.9075e-16  1.0068e-20  3.9099e-16  1.0080e-20  3.9142e-16  1.0100e-20  3.9218e-16  1.0136e-20  3.9353e-16  1.0200e-20  3.9593e-16  1.0313e-20  4.0020e-16  1.0516e-20  4.0780e-16  1.0876e-20  4.2131e-16  1.1518e-20  4.4534e-16  1.2667e-20  4.8806e-16
      7.05  1.0054e-20  4.3809e-16  1.0054e-20  4.3809e-16  1.0054e-20  4.3809e-16  1.0054e-20  4.3810e-16  1.0055e-20  4.3812e-16  1.0055e-20  4.3814e-16  1.0056e-20  4.3819e-16  1.0058e-20  4.3828e-16  1.0062e-20  4.3843e-16  1.0068e-20  4.3870e-16  1.0080e-20  4.3918e-16  1.0100e-20  4.4003e-16  1.0136e-20  4.4155e-16  1.0199e-20  4.4424e-16  1.0313e-20  4.4904e-16  1.0514e-20  4.5756e-16  1.0873e-20  4.7272e-16  1.1514e-20  4.9967e-16  1.2658e-20  5.4761e-16
      7.10  1.0054e-20  4.9154e-16  1.0054e-20  4.9154e-16  1.0054e-20  4.9155e-16  1.0054e-20  4.9156e-16  1.0055e-20  4.9158e-16  1.0055e-20  4.9161e-16  1.0056e-20  4.9166e-16  1.0058e-20  4.9175e-16  1.0062e-20  4.9192e-16  1.0068e-20  4.9223e-16  1.0080e-20  4.9277e-16  1.0100e-20  4.9372e-16  1.0135e-20  4.9542e-16  1.0199e-20  4.9845e-16  1.0312e-20  5.0383e-16  1.0513e-20  5.1339e-16  1.0871e-20  5.3040e-16  1.1510e-20  5.6064e-16  1.2651e-20  6.1443e-16
      7.15  1.0054e-20  5.5152e-16  1.0054e-20  5.5152e-16  1.0054e-20  5.5153e-16  1.0054e-20  5.5154e-16  1.0055e-20  5.5156e-16  1.0055e-20  5.5159e-16  1.0056e-20  5.5165e-16  1.0058e-20  5.5176e-16  1.0062e-20  5.5195e-16  1.0068e-20  5.5229e-16  1.0079e-20  5.5289e-16  1.0100e-20  5.5396e-16  1.0135e-20  5.5587e-16  1.0199e-20  5.5927e-16  1.0311e-20  5.6530e-16  1.0512e-20  5.7603e-16  1.0869e-20  5.9512e-16  1.1506e-20  6.2905e-16  1.2644e-20  6.8940e-16
      7.20  1.0054e-20  6.1881e-16  1.0054e-20  6.1882e-16  1.0054e-20  6.1882e-16  1.0054e-20  6.1884e-16  1.0055e-20  6.1886e-16  1.0055e-20  6.1889e-16  1.0056e-20  6.1896e-16  1.0058e-20  6.1908e-16  1.0062e-20  6.1930e-16  1.0068e-20  6.1968e-16  1.0079e-20  6.2035e-16  1.0099e-20  6.2156e-16  1.0135e-20  6.2370e-16  1.0198e-20  6.2751e-16  1.0311e-20  6.3428e-16  1.0511e-20  6.4632e-16  1.0868e-20  6.6773e-16  1.1503e-20  7.0581e-16  1.2637e-20  7.7352e-16
      7.25  1.0054e-20  6.9432e-16  1.0054e-20  6.9432e-16  1.0054e-20  6.9433e-16  1.0054e-20  6.9434e-16  1.0055e-20  6.9437e-16  1.0055e-20  6.9441e-16  1.0056e-20  6.9449e-16  1.0058e-20  6.9462e-16  1.0062e-20  6.9486e-16  1.0068e-20  6.9529e-16  1.0079e-20  6.9605e-16  1.0099e-20  6.9740e-16  1.0135e-20  6.9980e-16  1.0198e-20  7.0408e-16  1.0310e-20  7.1167e-16  1.0510e-20  7.2518e-16  1.0866e-20  7.4921e-16  1.1500e-20  7.9193e-16  1.2631e-20  8.6790e-16
      7.30  1.0054e-20  7.7904e-16  1.0054e-20  7.7904e-16  1.0054e-20  7.7905e-16  1.0054e-20  7.7907e-16  1.0055e-20  7.7909e-16  1.0055e-20  7.7914e-16  1.0056e-20  7.7923e-16  1.0058e-20  7.7938e-16  1.0062e-20  7.7965e-16  1.0068e-20  7.8013e-16  1.0079e-20  7.8098e-16  1.0099e-20  7.8250e-16  1.0135e-20  7.8519e-16  1.0198e-20  7.8999e-16  1.0310e-20  7.9851e-16  1.0509e-20  8.1367e-16  1.0864e-20  8.4062e-16  1.1497e-20  8.8856e-16  1.2625e-20  9.7380e-16
      7.35  1.0054e-20  8.7410e-16  1.0054e-20  8.7410e-16  1.0054e-20  8.7411e-16  1.0054e-20  8.7413e-16  1.0055e-20  8.7416e-16  1.0055e-20  8.7421e-16  1.0056e-20  8.7431e-16  1.0058e-20  8.7448e-16  1.0062e-20  8.7478e-16  1.0068e-20  8.7532e-16  1.0079e-20  8.7627e-16  1.0099e-20  8.7798e-16  1.0135e-20  8.8100e-16  1.0198e-20  8.8638e-16  1.0309e-20  8.9594e-16  1.0509e-20  9.1295e-16  1.0863e-20  9.4320e-16  1.1494e-20  9.9698e-16  1.2620e-20  1.0926e-15
      7.40  1.0054e-20  9.8075e-16  1.0054e-20  9.8076e-16  1.0054e-20  9.8077e-16  1.0054e-20  9.8079e-16  1.0055e-20  9.8082e-16  1.0055e-20  9.8088e-16  1.0056e-20  9.8099e-16  1.0058e-20  9.8118e-16  1.0062e-20  9.8152e-16  1.0068e-20  9.8212e-16  1.0079e-20  9.8320e-16  1.0099e-20  9.8510e-16  1.0134e-20  9.8850e-16  1.0197e-20  9.9453e-16  1.0309e-20  1.0053e-15  1.0508e-20  1.0243e-15  1.0862e-20  1.0583e-15  1.1492e-20  1.1186e-15  1.2616e-20  1.2259e-15
      7.45  1.0054e-20  1.1004e-15  1.0054e-20  1.1004e-15  1.0054e-20  1.1004e-15  1.0054e-20  1.1005e-15  1.0055e-20  1.1005e-15  1.0055e-20  1.1006e-15  1.0056e-20  1.1007e-15  1.0058e-20  1.1009e-15  1.0062e-20  1.1013e-15  1.0068e-20  1.1020e-15  1.0079e-20  1.1032e-15  1.0099e-20  1.1053e-15  1.0134e-20  1.1091e-15  1.0197e-20  1.1159e-15  1.0309e-20  1.1279e-15  1.0507e-20  1.1493e-15  1.0861e-20  1.1874e-15  1.1490e-20  1.2551e-15  1.2611e-20  1.3755e-15
      7.50  1.0054e-20  1.2347e-15  1.0054e-20  1.2347e-15  1.0054e-20  1.2347e-15  1.0054e-20  1.2347e-15  1.0055e-20  1.2348e-15  1.0055e-20  1.2349e-15  1.0056e-20  1.2350e-15  1.0058e-20  1.2352e-15  1.0062e-20  1.2357e-15  1.0068e-20  1.2364e-15  1.0079e-20  1.2378e-15  1.0099e-20  1.2402e-15  1.0134e-20  1.2444e-15  1.0197e-20  1.2520e-15  1.0308e-20  1.2656e-15  1.0507e-20  1.2896e-15  1.0860e-20  1.3323e-15  1.1488e-20  1.4083e-15  1.2607e-20  1.5434e-15
      7.55  1.0054e-20  1.3853e-15  1.0054e-20  1.3854e-15  1.0054e-20  1.3854e-15  1.0054e-20  1.3854e-15  1.0055e-20  1.3854e-15  1.0055e-20  1.3855e-15  1.0056e-20  1.3857e-15  1.0058e-20  1.3860e-15  1.0062e-20  1.3864e-15  1.0068e-20  1.3873e-15  1.0079e-20  1.3888e-15  1.0099e-20  1.3915e-15  1.0134e-20  1.3963e-15  1.0197e-20  1.4048e-15  1.0308e-20  1.4200e-15  1.0506e-20  1.4469e-15  1.0859e-20  1.4949e-15  1.1486e-20  1.5801e-15  1.2604e-20  1.7317e-15
      7.60  1.0054e-20  1.5544e-15  1.0054e-20  1.5544e-15  1.0054e-20  1.5544e-15  1.0054e-20  1.5544e-15  1.0055e-20  1.5545e-15  1.0055e-20  1.5546e-15  1.0056e-20  1.5548e-15  1.0058e-20  1.5551e-15  1.0062e-20  1.5556e-15  1.0068e-20  1.5566e-15  1.0079e-20  1.5583e-15  1.0099e-20  1.5613e-15  1.0134e-20  1.5667e-15  1.0197e-20  1.5762e-15  1.0308e-20  1.5932e-15  1.0506e-20  1.6235e-15  1.0858e-20  1.6773e-15  1.1484e-20  1.7729e-15  1.2600e-20  1.9430e-15
      7.65  1.0054e-20  1.7441e-15  1.0054e-20  1.7441e-15  1.0054e-20  1.7441e-15  1.0054e-20  1.7441e-15  1.0055e-20  1.7442e-15  1.0055e-20  1.7443e-15  1.0056e-20  1.7445e-15  1.0058e-20  1.7448e-15  1.0062e-20  1.7454e-15  1.0068e-20  1.7465e-15  1.0079e-20  1.7484e-15  1.0099e-20  1.7518e-15  1.0134e-20  1.7578e-15  1.0196e-20  1.7686e-15  1.0308e-20  1.7876e-15  1.0505e-20  1.8216e-15  1.0857e-20  1.8819e-15  1.1483e-20  1.9892e-15  1.2597e-20  2.1801e-15
      7.70  1.0054e-20  1.9569e-15  1.0054e-20  1.9569e-15  1.0054e-20  1.9569e-15  1.0054e-20  1.9569e-15  1.0055e-20  1.9570e-15  1.0055e-20  1.9571e-15  1.0056e-20  1.9573e-15  1.0058e-20  1.9577e-15  1.0062e-20  1.9584e-15  1.0068e-20  1.9596e-15  1.0079e-20  1.9617e-15  1.0099e-20  1.9655e-15  1.0134e-20  1.9723e-15  1.0196e-20  1.9844e-15  1.0307e-20  2.0058e-15  1.0505e-20  2.0438e-15  1.0856e-20  2.1116e-15  1.1481e-20  2.2320e-15  1.2594e-20  2.4461e-15
      7.75  1.0054e-20  2.1956e-15  1.0054e-20  2.1956e-15  1.0054e-20  2.1957e-15  1.0054e-20  2.1957e-15  1.0055e-20  2.1958e-15  1.0055e-20  2.1959e-15  1.0056e-20  2.1962e-15  1.0058e-20  2.1966e-15  1.0062e-20  2.1973e-15  1.0068e-20  2.1987e-15  1.0079e-20  2.2011e-15  1.0099e-20  2.2054e-15  1.0134e-20  2.2130e-15  1.0196e-20  2.2265e-15  1.0307e-20  2.2505e-15  1.0504e-20  2.2932e-15  1.0855e-20  2.3692e-15  1.1480e-20  2.5043e-15  1.2592e-20  2.7446e-15
      7.80  1.0054e-20  2.4635e-15  1.0054e-20  2.4636e-15  1.0054e-20  2.4636e-15  1.0054e-20  2.4636e-15  1.0055e-20  2.4637e-15  1.0055e-20  2.4639e-15  1.0056e-20  2.4641e-15  1.0058e-20  2.4646e-15  1.0062e-20  2.4655e-15  1.0068e-20  2.4670e-15  1.0079e-20  2.4697e-15  1.0099e-20  2.4745e-15  1.0134e-20  2.4830e-15  1.0196e-20  2.4982e-15  1.0307e-20  2.5251e-15  1.0504e-20  2.5730e-15  1.0855e-20  2.6583e-15  1.1479e-20  2.8099e-15  1.2590e-20  3.0794e-15
      7.85  1.0054e-20  2.7641e-15  1.0054e-20  2.7642e-15  1.0054e-20  2.7642e-15  1.0054e-20  2.7642e-15  1.0055e-20  2.7643e-15  1.0055e-20  2.7645e-15  1.0056e-20  2.7648e-15  1.0058e-20  2.7653e-15  1.0062e-20  2.7663e-15  1.0068e-20  2.7680e-15  1.0079e-20  2.7710e-15  1.0099e-20  2.7764e-15  1.0134e-20  2.7860e-15  1.0196e-20  2.8030e-15  1.0307e-20  2.8332e-15  1.0504e-20  2.8870e-15  1.0854e-20  2.9827e-15  1.1478e-20  3.1527e-15  1.2587e-20  3.4552e-15
      7.90  1.0054e-20  3.1014e-15  1.0054e-20  3.1014e-15  1.0054e-20  3.1015e-15  1.0054e-20  3.1015e-15  1.0055e-20  3.1016e-15  1.0055e-20  3.1018e-15  1.0056e-20  3.1022e-15  1.0058e-20  3.1028e-15  1.0062e-20  3.1038e-15  1.0068e-20  3.1057e-15  1.0079e-20  3.1091e-15  1.0099e-20  3.1152e-15  1.0134e-20  3.1259e-15  1.0196e-20  3.1450e-15  1.0307e-20  3.1789e-15  1.0503e-20  3.2393e-15  1.0854e-20  3.3466e-15  1.1476e-20  3.5374e-15  1.2585e-20  3.8768e-15
      7.95  1.0054e-20  3.4798e-15  1.0054e-20  3.4799e-15  1.0054e-20  3.4799e-15  1.0054e-20  3.4800e-15  1.0055e-20  3.4801e-15  1.0055e-20  3.4803e-15  1.0056e-20  3.4807e-15  1.0058e-20  3.4814e-15  1.0062e-20  3.4826e-15  1.0068e-20  3.4847e-15  1.0079e-20  3.4885e-15  1.0099e-20  3.4953e-15  1.0134e-20  3.5073e-15  1.0196e-20  3.5287e-15  1.0306e-20  3.5668e-15  1.0503e-20  3.6345e-15  1.0853e-20  3.7549e-15  1.1476e-20  3.9691e-15  1.2584e-20  4.3498e-15
      8.00  1.0054e-20  3.9044e-15  1.0054e-20  3.9045e-15  1.0054e-20  3.9045e-15  1.0054e-20  3.9046e-15  1.0055e-20  3.9047e-15  1.0055e-20  3.9050e-15  1.0056e-20  3.9054e-15  1.0058e-20  3.9061e-15  1.0062e-20  3.9075e-15  1.0068e-20  3.9099e-15  1.0079e-20  3.9142e-15  1.0099e-20  3.9218e-15  1.0134e-20  3.9353e-15  1.0196e-20  3.9593e-15  1.0306e-20  4.0020e-15  1.0503e-20  4.0780e-15  1.0853e-20  4.2131e-15  1.1475e-20  4.4534e-15  1.2582e-20  4.8806e-15
      8.05  1.0054e-20  4.3809e-15  1.0054e-20  4.3809e-15  1.0054e-20  4.3809e-15  1.0054e-20  4.3810e-15  1.0055e-20  4.3812e-15  1.0055e-20  4.3814e-15  1.0056e-20  4.3819e-15  1.0058e-20  4.3828e-15  1.0062e-20  4.3843e-15  1.0068e-20  4.3870e-15  1.0079e-20  4.3918e-15  1.0099e-20  4.4003e-15  1.0134e-20  4.4155e-15  1.0196e-20  4.4424e-15  1.0306e-20  4.4904e-15  1.0503e-20  4.5756e-15  1.0852e-20  4.7272e-15  1.1474e-20  4.9967e-15  1.2580e-20  5.4761e-15
      8.10  1.0054e-20  4.9154e-15  1.0054e-20  4.9154e-15  1.0054e-20  4.9155e-15  1.0054e-20  4.9156e-15  1.0055e-20  4.9158e-15  1.0055e-20  4.9161e-15  1.0056e-20  4.9166e-15  1.0058e-20  4.9175e-15  1.0062e-20  4.9192e-15  1.0068e-20  4.9223e-15  1.0079e-20  4.9277e-15  1.0099e-20  4.9372e-15  1.0134e-20  4.9542e-15  1.0196e-20  4.9845e-15  1.0306e-20  5.0383e-15  1.0502e-20  5.1339e-15  1.0852e-20  5.3040e-15  1.1473e-20  5.6064e-15  1.2579e-20  6.1443e-15
      8.15  1.0054e-20  5.5152e-15  1.0054e-20  5.5152e-15  1.0054e-20  5.5153e-15  1.0054e-20  5.5154e-15  1.0055e-20  5.5156e-15  1.0055e-20  5.5159e-15  1.0056e-20  5.5165e-15  1.0058e-20  5.5176e-15  1.0062e-20  5.5195e-15  1.0068e-20  5.5229e-15  1.0079e-20  5.5289e-15  1.0099e-20  5.5396e-15  1.0133e-20  5.5587e-15  1.0196e-20  5.5927e-15  1.0306e-20  5.6530e-15  1.0502e-20  5.7603e-15  1.0851e-20  5.9512e-15  1.1473e-20  6.2905e-15  1.2578e-20  6.8940e-15
      8.20  1.0054e-20  6.1881e-15  1.0054e-20  6.1882e-15  1.0054e-20  6.1882e-15  1.0054e-20  6.1884e-15  1.0055e-20  6.1886e-15  1.0055e-20  6.1889e-15  1.0056e-20  6.1896e-15  1.0058e-20  6.1908e-15  1.0062e-20  6.1930e-15  1.0068e-20  6.1968e-15  1.0079e-20  6.2035e-15  1.0099e-20  6.2156e-15  1.0133e-20  6.2370e-15  1.0196e-20  6.2751e-15  1.0306e-20  6.3428e-15  1.0502e-20  6.4632e-15  1.0851e-20  6.6773e-15  1.1472e-20  7.0581e-15  1.2577e-20  7.7352e-15
      8.25  1.0054e-20  6.9432e-15  1.0054e-20  6.9432e-15  1.0054e-20  6.9433e-15  1.0054e-20  6.9434e-15  1.0055e-20  6.9437e-15  1.0055e-20  6.9441e-15  1.0056e-20  6.9449e-15  1.0058e-20  6.9462e-15  1.0062e-20  6.9486e-15  1.0068e-20  6.9529e-15  1.0079e-20  6.9605e-15  1.0099e-20  6.9740e-15  1.0133e-20  6.9980e-15  1.0195e-20  7.0408e-15  1.0306e-20  7.1167e-15  1.0502e-20  7.2518e-15  1.0851e-20  7.4921e-15  1.1472e-20  7.9193e-15  1.2576e-20  8.6790e-15
      8.30  1.0054e-20  7.7904e-15  1.0054e-20  7.7904e-15  1.0054e-20  7.7905e-15  1.0054e-20  7.7907e-15  1.0055e-20  7.7909e-15  1.0055e-20  7.7914e-15  1.0056e-20  7.7923e-15  1.0058e-20  7.7938e-15  1.0062e-20  7.7965e-15  1.0068e-20  7.8013e-15  1.0079e-20  7.8098e-15  1.0099e-20  7.8250e-15  1.0133e-20  7.8519e-15  1.0195e-20  7.8999e-15  1.0306e-20  7.9851e-15  1.0502e-20  8.1367e-15  1.0851e-20  8.4063e-15  1.1471e-20  8.8856e-15  1.2575e-20  9.7381e-15
      8.35  1.0054e-20  8.7410e-15  1.0054e-20  8.7410e-15  1.0054e-20  8.7411e-15  1.0054e-20  8.7413e-15  1.0055e-20  8.7416e-15  1.0055e-20  8.7421e-15  1.0056e-20  8.7431e-15  1.0058e-20  8.7448e-15  1.0062e-20  8.7478e-15  1.0068e-20  8.7532e-15  1.0079e-20  8.7627e-15  1.0099e-20  8.7798e-15  1.0133e-20  8.8100e-15  1.0195e-20  8.8638e-15  1.0306e-20  8.9594e-15  1.0502e-20  9.1295e-15  1.0850e-20  9.4320e-15  1.1471e-20  9.9698e-15  1.2574e-20  1.0926e-14
      8.40  1.0054e-20  9.8075e-15  1.0054e-20  9.8076e-15  1.0054e-20  9.8077e-15  1.0054e-20  9.8079e-15  1.0055e-20  9.8082e-15  1.0055e-20  9.8088e-15  1.0056e-20  9.8099e-15  1.0058e-20  9.8118e-15  1.0062e-20  9.8152e-15  1.0068e-20  9.8212e-15  1.0079e-20  9.8320e-15  1.0099e-20  9.8510e-15  1.0133e-20  9.8850e-15  1.0195e-20  9.9453e-15  1.0306e-20  1.0053e-14  1.0502e-20  1.0243e-14  1.0850e-20  1.0583e-14  1.1470e-20  1.1186e-14  1.2573e-20  1.2259e-14
      8.45  1.0054e-20  1.1004e-14  1.0054e-20  1.1004e-14  1.0054e-20  1.1004e-14  1.0054e-20  1.1005e-14  1.0055e-20  1.1005e-14  1.0055e-20  1.1006e-14  1.0056e-20  1.1007e-14  1.0058e-20  1.1009e-14  1.0062e-20  1.1013e-14  1.0068e-20  1.1020e-14  1.0079e-20  1.1032e-14  1.0099e-20  1.1053e-14  1.0133e-20  1.1091e-14  1.0195e-20  1.1159e-14  1.0306e-20  1.1279e-14  1.0502e-20  1.1493e-14  1.0850e-20  1.1874e-14  1.1470e-20  1.2551e-14  1.2573e-20  1.3755e-14
      8.50  1.0054e-20  1.2347e-14  1.0054e-20  1.2347e-14  1.0054e-20  1.2347e-14  1.0054e-20  1.2347e-14  1.0055e-20  1.2348e-14  1.0055e-20  1.2349e-14  1.0056e-20  1.2350e-14  1.0058e-20  1.2352e-14  1.0062e-20  1.2357e-14  1.0068e-20  1.2364e-14  1.0079e-20  1.2378e-14  1.0098e-20  1.2402e-14  1.0133e-20  1.2444e-14  1.0195e-20  1.2520e-14  1.0305e-20  1.2656e-14  1.0501e-20  1.2896e-14  1.0850e-20  1.3323e-14  1.1470e-20  1.4083e-14  1.2572e-20  1.5434e-14
