# This was generated using Cloudy10 and the columns are ordered 
# as log10 of the fraction of the metallicity to the solar metallicity
# 'h_*_Z' and 'c_*_Z' stands for cooling and heating respectively 
# at * metalicity
#
# Redshift = 6.0
# hden = 6.0
#     temp   h_-3.00_Z   c_-3.00_Z   h_-2.75_Z   c_-2.75_Z   h_-2.50_Z   c_-2.50_Z   h_-2.25_Z   c_-2.25_Z   h_-2.00_Z   c_-2.00_Z   h_-1.75_Z   c_-1.75_Z   h_-1.50_Z   c_-1.50_Z   h_-1.25_Z   c_-1.25_Z   h_-1.00_Z   c_-1.00_Z   h_-0.75_Z   c_-0.75_Z   h_-0.50_Z   c_-0.50_Z   h_-0.25_Z   c_-0.25_Z    h_0.00_Z    c_0.00_Z    h_0.25_Z    c_0.25_Z    h_0.50_Z    c_0.50_Z    h_0.75_Z    c_0.75_Z    h_1.00_Z    c_1.00_Z    h_1.25_Z    c_1.25_Z    h_1.50_Z    c_1.50_Z 
      4.00  3.5966e-30  4.5854e-27  3.5969e-30  4.5916e-27  3.5974e-30  4.6024e-27  3.5983e-30  4.6215e-27  3.5998e-30  4.6555e-27  3.6026e-30  4.7157e-27  3.6074e-30  4.8231e-27  3.6163e-30  5.0137e-27  3.6328e-30  5.3518e-27  3.6659e-30  5.9482e-27  3.7361e-30  6.9882e-27  3.8917e-30  8.7727e-27  4.2502e-30  1.177e-26  5.1493e-30  1.6754e-26  7.4183e-30  2.551e-26  1.2003e-29  4.4001e-26  2.1197e-29  9.1717e-26  3.8776e-29  2.2354e-25  7.3956e-29  5.9673e-25
      4.05  3.5354e-30  1.0895e-25  3.5407e-30  1.0899e-25  3.5502e-30  1.0906e-25  3.5671e-30  1.0918e-25  3.5971e-30  1.0939e-25  3.6504e-30  1.0976e-25  3.7447e-30  1.1043e-25  3.9116e-30  1.1161e-25  4.2053e-30  1.137e-25  4.7188e-30  1.1738e-25  5.6053e-30  1.2378e-25  7.1017e-30  1.3464e-25  9.5241e-30  1.5217e-25  1.3135e-29  1.7782e-25  1.7688e-29  2.0853e-25  2.1741e-29  2.3372e-25  2.5198e-29  2.798e-25  3.2093e-29  4.7823e-25  4.5828e-29  1.1054e-24
      4.10  3.3692e-30  2.507e-24  3.4165e-30  2.5074e-24  3.5006e-30  2.508e-24   3.65e-30  2.5093e-24  3.9157e-30  2.5115e-24  4.3881e-30  2.5154e-24  5.2276e-30  2.5223e-24  6.7188e-30  2.5346e-24  9.3651e-30  2.5565e-24  1.4054e-29  2.5954e-24  2.234e-29  2.6643e-24  3.6911e-29  2.7858e-24  6.2308e-29  2.9991e-24  1.0589e-28  3.3687e-24  1.7851e-28  3.9937e-24  2.9292e-28  5.0015e-24  4.5275e-28  6.4684e-24  6.1663e-28  8.1187e-24  6.3531e-28  8.6857e-24
      4.15  4.2177e-30  2.3538e-23  4.4156e-30  2.354e-23  4.7674e-30  2.3544e-23  5.393e-30  2.3551e-23  6.5055e-30  2.3563e-23  8.4836e-30  2.3584e-23  1.2001e-29  2.3623e-23  1.8254e-29  2.3691e-23  2.9369e-29  2.3812e-23  4.9119e-29  2.4028e-23  8.4193e-29  2.4411e-23  1.4641e-28  2.5092e-23  2.5658e-28  2.6299e-23  4.5102e-28  2.8436e-23  7.9211e-28  3.2206e-23  1.3841e-27  3.881e-23  2.3921e-27  5.0234e-23  4.0484e-27  6.9551e-23  6.5875e-27  1.0081e-22
      4.20  1.3217e-29  8.5974e-23  1.3636e-29  8.598e-23  1.438e-29  8.5991e-23  1.5704e-29  8.6012e-23  1.8058e-29  8.6048e-23  2.2245e-29  8.6111e-23  2.969e-29  8.6225e-23  4.2928e-29  8.6427e-23  6.6469e-29  8.6787e-23  1.0833e-28  8.7427e-23  1.8275e-28  8.8564e-23  3.1505e-28  9.0587e-23  5.5022e-28  9.4184e-23  9.6808e-28  1.0058e-22  1.7099e-27  1.1196e-22  3.0256e-27  1.322e-22  5.3546e-27  1.6821e-22  9.4585e-27  2.3225e-22  1.6638e-26  3.4619e-22
      4.25  5.0354e-29  1.2856e-22  5.0904e-29  1.2857e-22  5.1883e-29  1.2859e-22  5.3623e-29  1.2862e-22  5.6718e-29  1.2868e-22  6.2222e-29  1.2877e-22  7.2009e-29  1.2895e-22  8.9415e-29  1.2926e-22  1.2037e-28  1.2982e-22  1.7543e-28  1.3081e-22  2.7337e-28  1.3258e-22  4.4763e-28  1.3571e-22  7.5785e-28  1.4129e-22  1.3105e-27  1.5123e-22  2.2964e-27  1.6893e-22  4.0593e-27  2.0051e-22  7.225e-27  2.5701e-22  1.295e-26  3.5856e-22  2.3428e-26  5.426e-22
      4.30  1.4368e-28  1.1944e-22  1.4388e-28  1.1945e-22  1.4424e-28  1.1947e-22  1.4487e-28  1.1951e-22   1.46e-28  1.1957e-22   1.48e-28  1.1969e-22  1.5157e-28  1.1989e-22  1.579e-28  1.2025e-22  1.6918e-28  1.2089e-22  2.0094e-28  1.2202e-22  3.5152e-28  1.2404e-22  6.1948e-28  1.2763e-22  1.0966e-27  1.3402e-22  1.947e-27  1.4539e-22  3.4651e-27  1.6566e-22  6.1823e-27  2.0185e-22  1.1067e-26  2.6665e-22  1.9909e-26  3.833e-22  3.6103e-26  5.9521e-22
      4.35  3.1182e-28  9.5447e-23  3.1137e-28  9.5461e-23  3.1055e-28  9.5485e-23  3.0912e-28  9.5528e-23  3.0655e-28  9.5605e-23   3.02e-28  9.5741e-23  2.939e-28  9.5983e-23  2.795e-28  9.6414e-23  2.539e-28  9.7179e-23  2.4022e-28  9.8541e-23  4.1687e-28  1.0096e-22  7.3139e-28  1.0527e-22  1.2919e-27  1.1294e-22  2.2921e-27  1.266e-22  4.0812e-27  1.5093e-22  7.293e-27  1.9436e-22  1.3089e-26  2.7214e-22  2.363e-26  4.1214e-22  4.2953e-26  6.6649e-22
      4.40  4.672e-28  7.5225e-23  4.6613e-28  7.5243e-23  4.6421e-28  7.5274e-23  4.608e-28  7.5331e-23  4.5475e-28  7.5432e-23  4.4398e-28  7.5611e-23  4.2483e-28  7.593e-23  3.9079e-28  7.6497e-23  3.3029e-28  7.7506e-23  2.8143e-28   7.93e-23  4.8452e-28  8.2491e-23  8.4651e-28  8.8168e-23  1.4928e-27  9.8268e-23  2.6495e-27  1.1625e-22  4.727e-27  1.4829e-22  8.4748e-27  2.0546e-22  1.5266e-26  3.0777e-22  2.7434e-26  4.9183e-22  4.9501e-26  8.2586e-22
      4.45  4.5224e-28  5.9648e-23  4.5069e-28  5.9672e-23  4.4792e-28  5.9716e-23   4.43e-28  5.9793e-23  4.3426e-28  5.9931e-23  4.1871e-28  6.0176e-23  3.9107e-28  6.0611e-23  3.4195e-28  6.1386e-23  2.547e-28  6.2763e-23  3.3307e-28  6.5213e-23  5.7108e-28  6.9569e-23  9.9704e-28  7.7319e-23  1.7621e-27  9.1107e-23  3.1425e-27  1.1565e-22  5.6443e-27  1.5938e-22  1.0136e-26  2.374e-22  1.8075e-26  3.7703e-22  3.2205e-26  6.281e-22  5.7692e-26  1.0834e-21
      4.50  3.325e-28  4.7063e-23  3.3059e-28  4.7097e-23  3.2719e-28  4.7156e-23  3.2116e-28  4.7262e-23  3.1044e-28  4.745e-23  2.9137e-28  4.7784e-23  2.5748e-28  4.8378e-23  1.9729e-28  4.9435e-23  2.1902e-28  5.1315e-23  3.6978e-28  5.4658e-23  6.3975e-28  6.0604e-23  1.1253e-27  7.118e-23  2.0033e-27  8.9999e-23  3.6011e-27  1.235e-22  6.4473e-27  1.8319e-22  1.1462e-26  2.8975e-22  2.0386e-26  4.8049e-22  3.6246e-26  8.2364e-22  6.4947e-26  1.4464e-21
      4.55  2.2402e-28  3.7344e-23  2.2193e-28  3.739e-23  2.1823e-28  3.7471e-23  2.1163e-28  3.7614e-23  1.9991e-28  3.787e-23  1.7891e-28  3.8705e-23  1.4207e-28  3.9131e-23  1.3176e-28  4.0567e-23  2.207e-28  4.3121e-23  3.7986e-28  4.7663e-23  6.6585e-28  5.5742e-23  1.183e-27  7.0112e-23  2.1259e-27  9.5683e-23  3.803e-27  1.4121e-22  6.7773e-27  2.2236e-22  1.2076e-26  3.6724e-22  2.1424e-26  6.2671e-22  3.8152e-26  1.0939e-21  6.8453e-26  1.9429e-21
      4.60  1.5181e-28  3.018e-23  1.4982e-28  3.0241e-23  1.4633e-28  3.0653e-23  1.3997e-28  3.0544e-23  1.2877e-28  3.0889e-23  1.0886e-28  3.1503e-23  7.3946e-29  3.2593e-23  1.2291e-28  3.4533e-23  2.1044e-28  3.7982e-23  3.6749e-28  4.4117e-23  6.5098e-28  5.5029e-23  1.1673e-27  7.4441e-23  2.0896e-27  1.0899e-22  3.7386e-27  1.705e-22  6.6615e-27  2.8015e-22  1.1852e-26  4.7596e-22  2.108e-26  8.2676e-22  3.7612e-26  1.4589e-21  6.7599e-26  2.6094e-21
      4.65  1.0748e-28  2.5703e-23  1.0586e-28  2.5786e-23  1.0299e-28  2.5932e-23  9.7889e-29  2.6192e-23  8.8817e-29  2.6655e-23  7.2703e-29  2.7478e-23  6.737e-29  2.8941e-23  1.1403e-28  3.1543e-23  1.9758e-28  3.6171e-23  3.4789e-28  4.4402e-23  6.2046e-28  5.9043e-23  1.1127e-27  8.5089e-23  1.9949e-27  1.3144e-22  3.5642e-27   2.14e-22  6.3775e-27  3.6117e-22  1.1367e-26  6.2407e-22  2.0225e-26  1.0954e-21  3.6121e-26  1.9454e-21  6.5009e-26  3.4952e-21
      4.70  8.0951e-29  2.4745e-23  7.9935e-29  2.4854e-23  7.813e-29  2.5049e-23  7.4921e-29  2.5396e-23  6.9222e-29  2.6012e-23  5.9108e-29  2.7107e-23  6.5382e-29  2.9056e-23  1.1108e-28  3.2521e-23   1.93e-28  3.8684e-23  3.4075e-28  4.9644e-23  6.098e-28  6.9141e-23  1.0938e-27  1.0383e-22  1.966e-27  1.6557e-22  3.5205e-27  2.7554e-22  6.2773e-27  4.7165e-22  1.1166e-26  8.2218e-22  1.9904e-26  1.4512e-21  3.5612e-26  2.5875e-21  6.4231e-26  4.665e-21
      4.75  6.4648e-29  2.956e-23  6.4341e-29  2.9704e-23  6.3797e-29  2.996e-23  6.2832e-29  3.0414e-23  6.1125e-29  3.1223e-23  5.8119e-29  3.266e-23  6.8682e-29  3.5217e-23  1.1614e-28  3.9764e-23  2.0139e-28  4.785e-23  3.5572e-28  6.2233e-23  6.3814e-28  8.7817e-23  1.1446e-27  1.3334e-22  2.046e-27  2.1438e-22  3.6481e-27  3.5875e-22  6.4982e-27  6.1632e-22  1.1571e-26  1.077e-21  2.064e-26  1.9047e-21  3.6982e-26  3.403e-21  6.6899e-26  6.1516e-21
      4.80  5.3289e-29  4.3264e-23  5.371e-29  4.3448e-23  5.4459e-29  4.3777e-23  5.5797e-29  4.436e-23  5.819e-29  4.5399e-23  6.2488e-29  4.7245e-23  7.5992e-29  5.0529e-23  1.2751e-28  5.6368e-23  2.2047e-28  6.6754e-23  3.8999e-28  8.5226e-23  6.9755e-28  1.1809e-22  1.2409e-27  1.7656e-22  2.2078e-27  2.8067e-22  3.9334e-27  4.6618e-22  7.004e-27  7.9728e-22  1.2477e-26  1.3899e-21  2.2296e-26  2.4558e-21  4.0054e-26  4.3893e-21  7.2732e-26  7.9476e-21
      4.85  4.2711e-29  6.4599e-23  4.387e-29  6.483e-23  4.5934e-29  6.5241e-23  4.9611e-29  6.5972e-23  5.6176e-29  6.7271e-23  6.7928e-29  6.9581e-23  8.9071e-29  7.369e-23  1.4355e-28  8.0997e-23  2.4865e-28  9.3993e-23  4.3946e-28  1.1711e-22  7.7951e-28  1.5823e-22  1.3822e-27  2.3141e-22  2.4584e-27  3.6171e-22  4.3729e-27  5.9394e-22  7.781e-27  1.0086e-21  1.3861e-26  1.7511e-21  2.477e-26  3.0881e-21  4.4535e-26  5.5176e-21  8.1074e-26  1.0001e-20
      4.90  3.2024e-29  8.0457e-23  3.3977e-29  8.0736e-23  3.7453e-29  8.1232e-23  4.3652e-29  8.2114e-23  5.4726e-29  8.3683e-23  7.458e-29  8.6473e-23  1.1039e-28  9.1434e-23  1.7561e-28  1.0026e-22  2.9516e-28  1.1595e-22  5.1348e-28  1.4386e-22  9.0803e-28  1.9351e-22  1.6118e-27  2.8187e-22  2.8668e-27  4.3921e-22  5.0888e-27  7.1967e-22  9.0307e-27  1.2205e-21  1.605e-26  2.1177e-21  2.8648e-26  3.7342e-21  5.151e-26  6.6747e-21  9.4107e-26  1.2112e-20
      4.95  2.4057e-29  7.9406e-23  2.6842e-29  7.9729e-23  3.1805e-29  8.0303e-23  4.0668e-29  8.1325e-23  5.6551e-29  8.3142e-23  8.5168e-29  8.6372e-23  1.3716e-28  9.2117e-23  2.3313e-28  1.0233e-22  4.0709e-28  1.2051e-22  7.1751e-28  1.5283e-22  1.2703e-27  2.1033e-22  2.2509e-27  3.1266e-22  3.9799e-27  4.9489e-22  7.0273e-27  8.1974e-22  1.2409e-26  1.3999e-21  2.1962e-26  2.4396e-21  3.908e-26  4.3134e-21  7.0348e-26  7.7247e-21  1.2906e-25  1.4041e-20
      5.00  2.0257e-29  6.7483e-23  2.3974e-29  6.784e-23  3.0615e-29  6.8476e-23  4.2523e-29  6.9606e-23  6.4003e-29  7.1616e-23  1.0309e-28  7.5191e-23  1.7545e-28  8.1548e-23  3.0925e-28  9.2854e-23  5.5207e-28  1.1296e-22  9.8834e-28  1.4873e-22  1.7475e-27  2.1236e-22  3.0804e-27  3.2561e-22  5.4154e-27  5.273e-22  9.4959e-27  8.869e-22  1.6652e-26  1.5294e-21  2.9335e-26  2.6812e-21  5.2133e-26  4.7594e-21  9.4088e-26  8.5491e-21  1.7361e-25  1.5586e-20
      5.05  1.9331e-29  5.3987e-23  2.4167e-29  5.4354e-23  3.2856e-29  5.5007e-23  4.8587e-29  5.6168e-23  7.7389e-29  5.8233e-23  1.3085e-28  6.1906e-23  2.291e-28  6.8436e-23  4.1465e-28  8.005e-23  7.5846e-28  1.0071e-22  1.3411e-27  1.3745e-22  2.353e-27  2.0282e-22  4.1077e-27  3.1918e-22  7.1445e-27  5.2643e-22  1.2395e-26  8.9604e-22  2.158e-26  1.5567e-21  3.7886e-26  2.7422e-21  6.7429e-26  4.8839e-21  1.2229e-25  8.7989e-21  2.276e-25  1.6097e-20
      5.10  1.9988e-29  4.2621e-23  2.5997e-29  4.2978e-23  3.694e-29  4.3612e-23  5.7197e-29  4.4739e-23  9.5425e-29  4.6744e-23  1.643e-28  5.0308e-23  2.9571e-28  5.6648e-23  5.5142e-28  6.7922e-23  9.8988e-28  8.7974e-23  1.7336e-27  1.2364e-22  3.0011e-27  1.8711e-22  5.162e-27  3.0009e-22  8.8544e-27  5.0135e-22  1.5217e-26  8.6039e-22  2.6371e-26  1.5024e-21  4.6249e-26  2.6555e-21  8.2255e-26  4.7418e-21  1.4974e-25  8.565e-21  2.8097e-25  1.5722e-20
      5.15  2.0971e-29  3.3899e-23  2.7979e-29  3.4252e-23  4.1087e-29  3.4881e-23  6.6408e-29  3.5999e-23  1.1264e-28  3.7987e-23  1.9916e-28  4.1523e-23  3.7044e-28  4.781e-23  6.8092e-28  5.8993e-23  1.2042e-27  7.8882e-23  2.077e-27  1.1426e-22  3.5259e-27  1.7722e-22  5.9624e-27  2.8929e-22  1.0107e-26  4.8897e-22  1.7252e-26  8.4526e-22  2.9581e-26  1.4827e-21  5.1748e-26  2.6282e-21  9.2446e-26  4.7035e-21  1.6917e-25  8.5146e-21  3.1953e-25  1.5673e-20
      5.20  2.1551e-29  2.7376e-23  2.9212e-29  2.774e-23  4.4192e-29  2.8388e-23  7.4189e-29  2.954e-23  1.2772e-28  3.1589e-23  2.3422e-28  3.5231e-23  4.4784e-28  4.1709e-23  7.8478e-28  5.3231e-23  1.3476e-27  7.3724e-23  2.2811e-27  1.1018e-22  3.7977e-27  1.7505e-22  6.3108e-27  2.9054e-22  1.0561e-26  4.9633e-22  1.7587e-26  8.6361e-22  3.0147e-26  1.5209e-21  5.2908e-26  2.7029e-21  9.4869e-26  4.8465e-21  1.7428e-25  8.7899e-21  3.3076e-25  1.6219e-20
      5.25  2.1415e-29  2.2487e-23  2.9395e-29  2.2862e-23  4.6071e-29  2.353e-23  8.0416e-29  2.4717e-23  1.4634e-28  2.6827e-23  2.6432e-28  3.0581e-23  4.8566e-28  3.7256e-23  8.2978e-28  4.9128e-23  1.3787e-27  7.0244e-23  2.276e-27  1.0781e-22  3.7249e-27  1.7466e-22  6.1057e-27  2.9368e-22  9.795e-27  5.0579e-22  1.6333e-26  8.8442e-22  2.8058e-26  1.5623e-21  4.9324e-26  2.782e-21  8.856e-26  4.9965e-21  1.6301e-25  9.0779e-21  3.1036e-25  1.679e-20
      5.30  2.0868e-29  1.8784e-23  2.9431e-29  1.9166e-23  4.9288e-29  1.9844e-23  9.4062e-29  2.105e-23  1.5771e-28  2.3196e-23  2.7391e-28  2.7011e-23  4.8289e-28  3.3796e-23  7.9832e-28  4.5863e-23  1.3026e-27  6.7326e-23  2.0839e-27  1.0551e-22  3.3765e-27  1.7346e-22  5.242e-27  2.9446e-22  8.3502e-27  5.1011e-22  1.3772e-26  8.9516e-22  2.3437e-26  1.5848e-21  4.0999e-26  2.8266e-21  7.3367e-26  5.0838e-21  1.3496e-25  9.2524e-21  2.5742e-25  1.7154e-20
      5.35  2.0574e-29  1.5959e-23  3.0926e-29  1.6347e-23  5.7477e-29  1.7037e-23  9.9548e-29  1.8265e-23  1.6032e-28  2.0448e-23  2.6403e-28  2.4329e-23  4.5075e-28  3.1233e-23  7.2295e-28  4.3511e-23  1.1451e-27  6.535e-23  1.8429e-27  1.042e-22  2.8529e-27  1.7335e-22  4.1641e-27  2.9648e-22  6.431e-27  5.1597e-22   1.04e-26  9.0795e-22  1.7487e-26  1.6103e-21  3.0225e-26  2.8758e-21  5.3826e-26  5.179e-21  9.8856e-26  9.4412e-21  1.8866e-25  1.7547e-20
      5.40  2.0016e-29  1.3752e-23  3.1763e-29  1.413e-23  5.8919e-29  1.4803e-23  9.2804e-29  1.5998e-23  1.4859e-28  1.8125e-23  2.3354e-28  2.1906e-23  3.8381e-28  2.8631e-23  6.3842e-28  4.0591e-23  1.0027e-27  6.1865e-23  1.6197e-27  9.9712e-23  2.2251e-27  1.6707e-22  3.1026e-27  2.8704e-22  4.6096e-27  5.0091e-22  7.2061e-27  8.8297e-22  1.1802e-26  1.5678e-21  1.9959e-26  2.803e-21  3.4983e-26  5.054e-21  6.3637e-26  9.2295e-21  1.2074e-25  1.7201e-20
      5.45  1.7126e-29  1.196e-23  2.5485e-29  1.2277e-23  4.8291e-29  1.2841e-23  7.4777e-29  1.3844e-23  1.1696e-28  1.5627e-23  1.9111e-28  1.8799e-23  3.1298e-28  2.4439e-23  5.1776e-28  3.447e-23  8.8204e-28  5.2313e-23  1.4323e-27  8.4056e-23  1.7962e-27  1.4056e-22  2.3828e-27  2.4119e-22  3.3284e-27  4.2065e-22  4.8112e-27  7.4133e-22  7.3517e-27  1.3166e-21  1.1822e-26  2.3551e-21  1.995e-26  4.2516e-21  3.5325e-26  7.7808e-21  6.576e-26  1.4552e-20
      5.50  1.3713e-29  1.0467e-23  1.7012e-29  1.0696e-23  2.6227e-29  1.1103e-23  5.1652e-29  1.1826e-23  8.7307e-29  1.3113e-23  1.4783e-28  1.5401e-23  2.5811e-28  1.9469e-23  4.5385e-28  2.6706e-23  7.851e-28  3.9578e-23  1.2572e-27  6.2478e-23  1.6518e-27  1.0324e-22  2.1145e-27  1.7586e-22  2.6705e-27  3.0537e-22  3.5307e-27  5.369e-22  4.8559e-27  9.5249e-22  7.1348e-27  1.7037e-21  1.1231e-26  3.078e-21  1.8836e-26  5.6437e-21  3.3554e-26  1.0591e-20
      5.55  1.2201e-29  9.3026e-24  1.3742e-29  9.4747e-24  1.8077e-29  9.7808e-24  3.0526e-29  1.0325e-23  6.2138e-29  1.1293e-23  1.2597e-28  1.3014e-23  2.4229e-28  1.6075e-23  4.5008e-28  2.1519e-23  7.9609e-28  3.1201e-23  1.2189e-27  4.843e-23  1.6195e-27  7.9099e-23  1.9972e-27  1.3374e-22  2.3996e-27  2.312e-22  2.9231e-27  4.0549e-22  3.7614e-27  7.1844e-22  5.1362e-27  1.2845e-21  7.5771e-27  2.3216e-21  1.2052e-26  4.2615e-21  2.0484e-26  8.0144e-21
      5.60  1.1651e-29  8.4072e-24  1.3223e-29  8.5566e-24  1.7705e-29  8.8224e-24  3.0807e-29  9.2949e-24  5.568e-29  1.0135e-23  1.161e-28  1.163e-23  2.4921e-28  1.4287e-23  4.7498e-28  1.9013e-23  8.6893e-28  2.742e-23  1.2045e-27  4.2379e-23  1.5728e-27  6.901e-23  1.8201e-27  1.1646e-22  2.1047e-27  2.011e-22  2.5104e-27  3.5248e-22  3.1529e-27  6.2437e-22  4.1939e-27  1.1164e-21  6.0227e-27  2.0184e-21  9.3452e-27  3.7079e-21  1.5531e-26  6.9823e-21
      5.65  1.1237e-29  7.7084e-24  1.3256e-29  7.8511e-24  1.916e-29  8.1048e-24  3.5356e-29  8.556e-24  6.6978e-29  9.3583e-24  1.3074e-28  1.0785e-23  2.6201e-28  1.3322e-23  5.0787e-28  1.7834e-23  9.1983e-28  2.5861e-23  1.2126e-27  4.0144e-23  1.513e-27  6.5572e-23  1.6848e-27  1.1088e-22  1.9307e-27  1.917e-22  2.2769e-27  3.3627e-22  2.8526e-27  5.9597e-22  3.7821e-27  1.0661e-21  5.4179e-27  1.9284e-21  8.3865e-27  3.5449e-21  1.3912e-26  6.6822e-21
      5.70  1.0868e-29  7.1523e-24  1.3355e-29  7.292e-24  2.0621e-29  7.5403e-24  4.1612e-29  7.9819e-24  7.584e-29  8.7673e-24  1.4811e-28  1.0164e-23  2.9601e-28  1.2647e-23  5.728e-28  1.7064e-23  9.0182e-28  2.4921e-23  1.1355e-27  3.8904e-23  1.3559e-27  6.3798e-23  1.5283e-27  1.0815e-22  1.7468e-27  1.8728e-22  2.0664e-27  3.2883e-22  2.6083e-27  5.8315e-22  3.5197e-27  1.0437e-21  5.1221e-27  1.8888e-21  8.0349e-27  3.4743e-21  1.3484e-26  6.5553e-21
      5.75  1.0238e-29  6.6459e-24  1.296e-29  6.7789e-24  2.076e-29  7.0154e-24  4.1449e-29  7.436e-24   8.23e-29  8.1838e-24  1.6408e-28  9.5137e-24  3.3425e-28  1.1878e-23  6.0408e-28  1.6085e-23  8.0057e-28  2.3569e-23  9.809e-28  3.6886e-23  1.1247e-27  6.0595e-23  1.2952e-27  1.0284e-22  1.5042e-27  1.7821e-22  1.8294e-27  3.1304e-22  2.3664e-27  5.5536e-22  3.2809e-27  9.9429e-22  4.9141e-27  1.8002e-21  7.9019e-27  3.3137e-21  1.353e-26  6.2589e-21
      5.80  9.5615e-30  6.2557e-24  1.2254e-29  6.3779e-24  1.9853e-29  6.5952e-24  4.0497e-29  6.9815e-24  8.5248e-29  7.6685e-24  1.8249e-28  8.8902e-24  3.4484e-28  1.1063e-23  5.4104e-28  1.4928e-23  6.8511e-28  2.1804e-23  8.3522e-28  3.4039e-23  9.4736e-28  5.5823e-23  1.1297e-27  9.4636e-23  1.3505e-27  1.6389e-22  1.6824e-27  2.8781e-22  2.2499e-27  5.1055e-22  3.2377e-27  9.1419e-22  5.0053e-27  1.6558e-21  8.2694e-27   3.05e-21  1.4469e-26  5.7677e-21
      5.85  9.1585e-30  5.9588e-24  1.2224e-29  6.0741e-24  2.0544e-29  6.2791e-24  4.2019e-29  6.6435e-24  9.4209e-29  7.2916e-24  2.0203e-28  8.4439e-24  3.1991e-28  1.0494e-23  4.7852e-28  1.414e-23  6.0174e-28  2.0627e-23  7.5274e-28  3.217e-23  8.8531e-28  5.2722e-23  1.045e-27  8.9341e-23  1.285e-27  1.5469e-22  1.6593e-27  2.7163e-22  2.3095e-27  4.8187e-22  3.4519e-27   8.63e-22  5.5179e-27  1.5637e-21  9.3472e-27  2.8824e-21  1.6675e-26  5.4571e-21
      5.90  8.8942e-30  5.7426e-24  1.2608e-29  5.8578e-24  2.2471e-29  6.0625e-24  4.8157e-29  6.4909e-24  1.0677e-28  7.1447e-24  2.0626e-28  8.2252e-24  3.2635e-28  1.0273e-23  4.3061e-28  1.3916e-23  5.6915e-28  2.0397e-23  7.0996e-28  3.1929e-23  8.4176e-28  5.2462e-23  1.0078e-27  8.9049e-23  1.2824e-27  1.5434e-22  1.7428e-27  2.712e-22  2.5337e-27  4.8133e-22  3.944e-27  8.6241e-22  6.5118e-27  1.5635e-21  1.1299e-26  2.8841e-21  2.0522e-26  5.4663e-21
      5.95  8.5146e-30  5.5882e-24  1.2625e-29  5.7058e-24  2.3543e-29  5.9149e-24  5.098e-29  6.2867e-24   1.14e-28  6.9478e-24  2.1497e-28  8.1236e-24  3.3325e-28  1.0215e-23  4.455e-28  1.3935e-23  5.5649e-28  2.0554e-23  6.7765e-28  3.2333e-23  8.3481e-28  5.3302e-23  1.0206e-27  9.067e-23  1.3264e-27  1.5736e-22  1.8587e-27  2.7674e-22  2.7968e-27  4.9144e-22  4.4737e-27  8.8096e-22  7.5409e-27  1.598e-21  1.328e-26   2.95e-21  2.4398e-26  5.5976e-21
      6.00  7.8624e-30  5.4792e-24  1.181e-29  5.5972e-24  2.2462e-29  5.8071e-24  4.9763e-29  6.1803e-24  1.1324e-28  6.8439e-24  2.3032e-28  8.024e-24  3.4622e-28  1.0123e-23  4.5392e-28  1.3857e-23  5.6549e-28  2.0501e-23  6.9565e-28  3.2323e-23  8.5756e-28  5.3372e-23  1.0928e-27  9.0883e-23  1.4732e-27  1.5784e-22  2.1424e-27  2.7769e-22  3.3337e-27  4.9331e-22  5.4887e-27  8.8464e-22  9.4387e-27  1.6055e-21  1.6854e-26  2.9663e-21  3.1291e-26  5.6356e-21
      6.05  7.0423e-30  5.4225e-24  1.0375e-29  5.5372e-24  1.9548e-29  5.7413e-24  4.3816e-29  6.104e-24  1.0298e-28  6.7491e-24  2.3085e-28  7.8959e-24  3.5435e-28  9.9362e-24  4.6599e-28  1.3566e-23  5.808e-28  2.0023e-23  7.1186e-28  3.1514e-23  8.8642e-28  5.1974e-23  1.1451e-27  8.8437e-23  1.601e-27  1.5353e-22  2.4058e-27  2.7006e-22  3.846e-27  4.7977e-22  6.4524e-27  8.6053e-22  1.1242e-26  1.5625e-21  2.0258e-26  2.8892e-21  3.7881e-26  5.4967e-21
      6.10   6.36e-30  5.3975e-24  9.1117e-30  5.5063e-24  1.6632e-29  5.6998e-24  3.6776e-29  6.0439e-24  8.7328e-29  6.6557e-24  2.0059e-28  7.7435e-24  3.3282e-28  9.6785e-24  4.568e-28  1.3121e-23  5.6328e-28  1.9245e-23  6.8339e-28  3.0144e-23  8.6952e-28  4.955e-23  1.1701e-27  8.4136e-23  1.6952e-27  1.4588e-22  2.6303e-27  2.5644e-22  4.3039e-27  4.5546e-22  7.3356e-27   8.17e-22  1.2918e-26  1.484e-21  2.3449e-26  2.7464e-21  4.4099e-26  5.2324e-21
      6.15  6.125e-30  5.4538e-24  8.5353e-30  5.5008e-24  1.5099e-29  5.6803e-24  3.2129e-29  5.9994e-24  7.3166e-29  6.5669e-24  1.5262e-28  7.5759e-24  2.5048e-28  9.3706e-24  3.8361e-28  1.2563e-23  4.8994e-28  1.8243e-23  6.1827e-28  2.8351e-23  8.1812e-28  4.6349e-23  1.1443e-27  7.8428e-23  1.7218e-27  1.357e-22  2.7496e-27  2.3827e-22  4.5983e-27  4.2297e-22  7.9504e-27  7.5864e-22  1.4127e-26  1.3785e-21  2.5804e-26  2.5531e-21  4.8762e-26  4.8709e-21
      6.20  5.7874e-30  5.4241e-24  8.2607e-30  5.5142e-24  1.4593e-29  5.7312e-24  2.8913e-29  5.9595e-24  5.8217e-29  6.4662e-24  1.1271e-28  7.3672e-24  1.816e-28  8.9697e-24  2.7192e-28  1.182e-23  3.8055e-28  1.6891e-23  5.1857e-28  2.5916e-23  7.2054e-28  4.1985e-23  1.0648e-27  7.0628e-23  1.6637e-27  1.2177e-22  2.7351e-27  2.1338e-22  4.6608e-27  3.7839e-22  8.1572e-27  6.7843e-22  1.4607e-26  1.233e-21  2.6822e-26  2.2853e-21   5.09e-26  4.3661e-21
      6.25  5.2843e-30  5.466e-24  7.5201e-30  5.5418e-24  1.2726e-29  5.6767e-24  2.3233e-29  5.9164e-24  4.4018e-29  6.3425e-24  8.1922e-29  7.1003e-24  1.2769e-28  8.4479e-24  1.9307e-28  1.0845e-23  2.8075e-28  1.5109e-23  4.0677e-28  2.2698e-23  6.0497e-28  3.621e-23  9.4278e-28  6.0296e-23  1.5339e-27  1.0331e-22  2.5861e-27  1.8037e-22  4.4747e-27  3.1921e-22  7.9073e-27  5.7182e-22  1.4248e-26  1.0391e-21  2.6274e-26  1.9273e-21  5.0039e-26  3.6874e-21
      6.30  4.6209e-30  5.5495e-24  6.3726e-30  5.6099e-24  9.9281e-30  5.7174e-24  1.7829e-29  5.9086e-24  3.172e-29  6.2484e-24   5.76e-29  6.8527e-24  8.5292e-29  7.9275e-24  1.3389e-28  9.8388e-24  2.0786e-28  1.3239e-23  3.1375e-28  1.929e-23  4.974e-28  3.0064e-23  8.0925e-28  4.927e-23  1.3605e-27  8.3572e-23  2.3393e-27  1.4504e-22  4.099e-27  2.5582e-22  7.2984e-27  4.5751e-22  1.3214e-26  8.3096e-22  2.4453e-26  1.5419e-21  4.6717e-26  2.9541e-21
      6.35  4.0193e-30  5.656e-24  5.2482e-30  5.7039e-24  7.971e-30  5.8468e-24   1.29e-29  5.9402e-24  2.3393e-29  6.2091e-24  4.2056e-29  6.6873e-24  5.8759e-29  7.5377e-24  8.9924e-29  9.0501e-24  1.4674e-28  1.174e-23  2.463e-28  1.6528e-23  4.0707e-28  2.5053e-23  6.9204e-28  4.0251e-23  1.1912e-27  6.7396e-23  2.0805e-27  1.1605e-22  3.6841e-27  2.0377e-22  6.6023e-27  3.6356e-22  1.2004e-26  6.5974e-22  2.2282e-26  1.2245e-21  4.2694e-26  2.349e-21
      6.40  3.4785e-30  5.785e-24  4.5156e-30  5.8239e-24  6.5007e-30  5.893e-24  1.0085e-29  6.0158e-24  1.6918e-29  6.2342e-24  3.1281e-29  6.6226e-24  4.4114e-29  7.3134e-24  6.6756e-29  8.5418e-24  1.1061e-28  1.0727e-23  1.9481e-28  1.4616e-23  3.4649e-28  2.154e-23  6.1347e-28  3.3885e-23  1.0853e-27  5.5937e-23  1.9294e-27  9.5468e-23  3.4541e-27  1.6677e-22  6.2312e-27  2.9672e-22  1.1379e-26  5.3785e-22  2.1192e-26  9.9834e-22  4.0733e-26  1.9174e-21
      6.45  3.0006e-30  5.9331e-24  3.948e-30  5.9652e-24  5.4979e-30  6.0224e-24  8.3769e-30  6.124e-24  1.3388e-29  6.3048e-24  2.3478e-29  6.6261e-24  3.7394e-29  7.1976e-24  5.7555e-29  8.2141e-24  9.7255e-29  1.0022e-23  1.7408e-28  1.3239e-23  3.1845e-28  1.8968e-23  5.8005e-28  2.9182e-23  1.0488e-27  4.7428e-23  1.8943e-27  8.0143e-23  3.4184e-27  1.3917e-22  6.1997e-27  2.4681e-22  1.1362e-26  4.4672e-22  2.1224e-26  8.2906e-22  4.091e-26  1.5938e-21
      6.50  2.4914e-30  6.0978e-24  3.3766e-30  6.1246e-24  4.5898e-30  6.1721e-24  7.016e-30  6.3192e-24  1.0801e-29  6.4069e-24  1.826e-29  6.6741e-24  2.8801e-29  7.1493e-24  4.6479e-29  7.9943e-24  7.9808e-29  9.4975e-24  1.4491e-28  1.2172e-23  2.7023e-28  1.6935e-23  5.0536e-28  2.5427e-23  9.3366e-28  4.0598e-23  1.7081e-27  6.7803e-23  3.1116e-27  1.169e-22  5.6767e-27  2.0648e-22  1.0444e-26  3.7297e-22  1.9567e-26  6.9178e-22  3.7819e-26  1.3306e-21
      6.55  2.0662e-30  6.3089e-24  2.8295e-30  6.3315e-24  3.7782e-30  6.3718e-24  5.5534e-30  6.4433e-24  8.9223e-30  6.5706e-24  1.5286e-29  6.7968e-24  2.4396e-29  7.1992e-24  3.9093e-29  7.9148e-24  6.8865e-29  9.1878e-24  1.2758e-28  1.1453e-23  2.4241e-28  1.5486e-23  4.614e-28  2.2678e-23  8.6809e-28  3.5526e-23  1.6106e-27  5.8569e-23  2.9597e-27  1.0016e-22  5.4299e-27  1.7608e-22  1.003e-26  3.1726e-22  1.8846e-26  5.8786e-22  3.6518e-26  1.1309e-21
      6.60  1.719e-30  6.5377e-24  2.331e-30  6.5576e-24  3.1365e-30  6.5929e-24  4.5567e-30  6.6556e-24  7.4457e-30  6.7672e-24  1.3262e-29  6.9657e-24  2.1708e-29  7.3187e-24  3.5165e-29  7.9465e-24  6.3068e-29  9.0632e-24  1.196e-28  1.105e-23  2.3105e-28  1.4589e-23  4.4587e-28  2.0899e-23  8.4929e-28  3.2173e-23  1.5932e-27  5.2393e-23  2.9538e-27  8.8897e-23  5.4502e-27  1.5554e-22  1.0106e-26  2.7954e-22  1.904e-26  5.1738e-22  3.698e-26  9.9514e-22
      6.65  1.4314e-30  6.7831e-24  1.8898e-30  6.8012e-24  2.5971e-30  6.8334e-24  3.7583e-30  6.8907e-24  6.148e-30  6.9926e-24  1.1464e-29  7.1737e-24  1.9193e-29  7.4958e-24  3.1863e-29  8.0687e-24  5.8732e-29  9.0879e-24  1.1407e-28  1.0902e-23  2.2413e-28  1.4131e-23  4.3784e-28  1.989e-23  8.4281e-28  3.0181e-23  1.5962e-27  4.8638e-23  2.9825e-27  8.1965e-23  5.5341e-27  1.4282e-22   1.03e-26  2.561e-22  1.9457e-26  4.7349e-22  3.7867e-26  9.1055e-22
      6.70  1.1911e-30  7.0439e-24  1.5102e-30  7.0611e-24  2.0951e-30  7.0915e-24  3.1333e-30  7.1456e-24  5.2915e-30  7.2419e-24  1.053e-29  7.413e-24  1.9355e-29  7.7173e-24  3.4195e-29  8.2586e-24  6.5785e-29  9.2216e-24  1.3047e-28  1.0935e-23  2.5827e-28  1.3987e-23  5.0577e-28  1.9429e-23  9.7385e-28  2.9153e-23  1.8463e-27  4.6596e-23  3.456e-27  7.8094e-23  6.4254e-27  1.3563e-22  1.1977e-26  2.4274e-22  2.2657e-26  4.4841e-22  4.4153e-26  8.6222e-22
      6.75  9.9243e-31  7.3192e-24  1.2066e-30  7.3358e-24  1.705e-30  7.3654e-24  2.6518e-30  7.4179e-24  4.8961e-30  7.5112e-24  1.0557e-29  7.6772e-24  2.059e-29  7.9724e-24  3.8496e-29  8.4975e-24  7.6292e-29  9.4317e-24  1.5276e-28  1.1094e-23  3.0176e-28  1.4055e-23  5.8873e-28  1.9334e-23  1.1305e-27  2.8767e-23  2.1398e-27  4.5691e-23  4.0034e-27  7.6254e-23  7.447e-27  1.3209e-22  1.3894e-26  2.3607e-22  2.6305e-26  4.3581e-22  5.131e-26  8.3795e-22
      6.80  8.3084e-31  7.6481e-24  9.7389e-31  7.6646e-24  1.3902e-30  7.6938e-24  2.2847e-30  7.7458e-24   4.48e-30  7.8383e-24  1.0033e-29  8.0027e-24  2.1376e-29  8.2952e-24  4.0958e-29  8.8153e-24  8.2371e-29  9.7407e-24  1.6477e-28  1.1387e-23  3.2432e-28  1.432e-23  6.3087e-28  1.955e-23   1.21e-27  2.8896e-23  2.2896e-27  4.5663e-23  4.2872e-27  7.5946e-23  7.9863e-27  1.3127e-22  1.4922e-26  2.3434e-22  2.829e-26  4.3241e-22  5.5246e-26  8.3141e-22
      6.85  7.0022e-31  7.9947e-24  7.9888e-31  8.0112e-24  1.1003e-30  8.0407e-24  1.9234e-30  8.0931e-24  3.912e-30  8.1862e-24  9.5069e-30  8.3517e-24  2.2532e-29  8.6462e-24  4.466e-29  9.1699e-24  9.1893e-29  1.0102e-23  1.8384e-28  1.176e-23  3.6278e-28  1.4713e-23  7.0481e-28  1.9978e-23  1.3504e-27  2.9389e-23  2.5528e-27  4.6272e-23  4.7775e-27  7.6768e-23  8.9007e-27  1.3249e-22  1.664e-26  2.3632e-22  3.1569e-26  4.3593e-22  6.1703e-26  8.3822e-22
      6.90  5.9634e-31  8.3583e-24  6.7443e-31  8.3751e-24  9.0945e-31  8.4049e-24  1.6007e-30  8.4579e-24  3.6416e-30  8.5522e-24  9.6167e-30  8.7199e-24  2.4343e-29  9.018e-24  5.0098e-29  9.5482e-24  1.0521e-28  1.0492e-23  2.1151e-28  1.217e-23  4.2019e-28  1.516e-23  8.218e-28  2.0492e-23  1.5772e-27  3.002e-23  2.9789e-27  4.7116e-23  5.5662e-27  7.7997e-23  1.0358e-26  1.3444e-22  1.9355e-26  2.3961e-22  3.6721e-26  4.4188e-22  7.1801e-26  8.4974e-22
      6.95  5.1316e-31  8.7383e-24  5.8612e-31  8.7552e-24  8.0239e-31  8.7851e-24  1.4761e-30  8.8384e-24  3.5474e-30  8.9331e-24  9.6085e-30  9.1016e-24  2.4893e-29  9.4012e-24  5.1625e-29  9.934e-24  1.067e-28  1.0882e-23  2.1371e-28  1.2569e-23  4.2918e-28  1.5573e-23  8.4553e-28  2.093e-23  1.6286e-27  3.0504e-23  3.082e-27  4.7682e-23  5.7662e-27  7.8715e-23  1.0739e-26  1.3544e-22  2.0083e-26  2.4117e-22  3.8133e-26  4.4456e-22  7.4626e-26  8.5487e-22
      7.00  4.4361e-31  9.134e-24  5.1457e-31  9.1506e-24  7.3294e-31  9.1801e-24  1.3911e-30  9.2326e-24  3.3309e-30  9.3259e-24  9.0586e-30  9.4918e-24  2.5163e-29  9.7869e-24   5.22e-29  1.0312e-23  1.0477e-28  1.1245e-23  2.1272e-28  1.2907e-23  4.3157e-28  1.5865e-23  8.5628e-28  2.1141e-23  1.659e-27  3.0571e-23  3.1547e-27  4.749e-23  5.921e-27  7.8057e-23  1.1051e-26  1.3393e-22  2.0693e-26  2.3811e-22  3.9336e-26  4.3858e-22  7.7057e-26  8.4318e-22
      7.05  3.7222e-31  9.5954e-24  4.3978e-31  9.6112e-24  6.4153e-31  9.6394e-24  1.2417e-30  9.6896e-24  3.0423e-30  9.7787e-24  8.3877e-30  9.9372e-24  2.3992e-29  1.0219e-23  5.1626e-29  1.072e-23  1.0473e-28  1.1612e-23  2.1386e-28  1.3199e-23  4.3722e-28  1.6024e-23  8.7668e-28  2.1062e-23  1.721e-27  3.0065e-23  3.3028e-27  4.6221e-23  6.2368e-27  7.541e-23  1.1683e-26  1.2877e-22  2.1928e-26  2.2828e-22  4.1746e-26  4.1983e-22  8.1875e-26  8.0659e-22
      7.10  3.087e-31  1.0078e-23  3.6855e-31  1.0092e-23  5.4546e-31  1.0118e-23  1.0819e-30  1.0164e-23  2.7154e-30  1.0246e-23  7.6381e-30  1.0391e-23  2.2146e-29  1.065e-23  5.1114e-29  1.111e-23  1.0596e-28  1.1928e-23  2.1599e-28  1.3383e-23  4.4175e-28  1.5975e-23  9.0368e-28  2.0595e-23  1.8054e-27  2.8853e-23  3.5112e-27  4.3669e-23  6.6876e-27  7.0438e-23  1.2595e-26  1.1938e-22  2.3718e-26  2.1067e-22  4.5247e-26  3.8644e-22  8.8866e-26  7.4149e-22
      7.15  2.5559e-31  1.058e-23  3.0701e-31  1.0593e-23  4.6164e-31  1.0616e-23  9.3635e-31  1.0656e-23  2.3995e-30  1.0728e-23  6.6779e-30  1.0856e-23  1.8917e-29  1.1083e-23  4.6141e-29  1.1487e-23  9.3149e-29  1.2205e-23  1.8654e-28  1.3482e-23  3.8667e-28  1.5757e-23  8.0511e-28  1.9811e-23  1.6419e-27  2.7056e-23  3.252e-27  4.0055e-23  6.2811e-27  6.3541e-23  1.1945e-26  1.0649e-22  2.2639e-26  1.8659e-22  4.3367e-26  3.4087e-22  8.5409e-26  6.5264e-22
      7.20  2.1037e-31  1.1104e-23  2.5343e-31  1.1115e-23  3.8447e-31  1.1134e-23  7.8635e-31  1.1168e-23  1.9673e-30  1.1229e-23  5.3923e-30  1.1337e-23  1.4959e-29  1.1529e-23  3.7982e-29  1.187e-23  7.4006e-29  1.2478e-23  1.5042e-28  1.3558e-23  3.1729e-28  1.5481e-23  6.747e-28  1.8908e-23  1.4123e-27  2.5031e-23  2.8675e-27  3.6015e-23  5.651e-27  5.586e-23  1.0906e-26  9.2149e-23  2.0879e-26  1.5985e-22  4.0262e-26  2.9026e-22  7.9631e-26  5.5386e-22
      7.25  1.7224e-31  1.1648e-23  2.0692e-31  1.1657e-23  3.1221e-31  1.1673e-23  6.2339e-31  1.1702e-23  1.5347e-30  1.1752e-23  4.1053e-30  1.1842e-23  1.1063e-29  1.2001e-23  2.765e-29  1.2285e-23  5.4908e-29  1.2789e-23  1.1236e-28  1.3687e-23  2.4003e-28  1.5284e-23  5.2487e-28  1.813e-23  1.1328e-27  2.3214e-23  2.3734e-27  3.2332e-23  4.8012e-27  4.8806e-23  9.4511e-27  7.8928e-23  1.8346e-26  1.3513e-22  3.5703e-26  2.4339e-22  7.1035e-26  4.6228e-22
      7.30  1.4035e-31  1.2278e-23  1.6739e-31  1.2285e-23  2.4731e-31  1.2298e-23  4.8464e-31  1.2322e-23  1.1753e-30  1.2364e-23  3.0562e-30  1.2439e-23  8.138e-30  1.2572e-23  1.9767e-29  1.2809e-23  4.1472e-29  1.323e-23  8.4491e-29  1.398e-23  1.7874e-28  1.5314e-23  4.0056e-28  1.7691e-23  8.9867e-28  2.1936e-23  1.956e-27  2.955e-23  4.0907e-27  4.3302e-23  8.2617e-27  6.8448e-23  1.6333e-26  1.1536e-22  3.2181e-26  2.0574e-22  6.4539e-26  3.8847e-22
      7.35  1.1429e-31  1.2936e-23  1.3461e-31  1.2942e-23  1.9473e-31  1.2953e-23  3.7307e-31  1.2973e-23  8.8477e-31  1.3009e-23  2.2649e-30  1.3073e-23  5.9138e-30  1.3187e-23  1.4882e-29  1.3389e-23  3.2738e-29  1.3748e-23  6.5831e-29  1.4386e-23  1.3961e-28  1.5523e-23  3.1805e-28  1.755e-23  7.3905e-28  2.1169e-23  1.6688e-27  2.766e-23  3.5982e-27  3.9382e-23  7.4473e-27  6.0814e-23  1.4992e-26  1.0079e-22  2.9908e-26  1.7782e-22  6.0469e-26  3.3355e-22
      7.40  9.3121e-32  1.3622e-23  1.0864e-31  1.3628e-23  1.5456e-31  1.3637e-23  2.9106e-31  1.3655e-23  6.8355e-31  1.3687e-23  1.7215e-30  1.3742e-23  4.4435e-30  1.3842e-23  1.1762e-29  1.4018e-23  2.7912e-29  1.4332e-23  5.4866e-29  1.4891e-23  1.1596e-28  1.5885e-23  2.6689e-28  1.7658e-23  6.3079e-28  2.0825e-23  1.4618e-27  2.6503e-23  3.2397e-27  3.6758e-23  6.8598e-27  5.5506e-23  1.4047e-26  9.0476e-23  2.8359e-26  1.5784e-22  5.7796e-26  2.9403e-22
      7.45  7.602e-32  1.4337e-23  8.8325e-32  1.4342e-23  1.2471e-31  1.435e-23  2.3318e-31  1.4366e-23  5.458e-31  1.4395e-23  1.3656e-30  1.4445e-23  3.565e-30  1.4534e-23  9.458e-30  1.4692e-23  2.2177e-29  1.4974e-23  4.2771e-29  1.5476e-23  8.9198e-29  1.6369e-23  2.0657e-28  1.7962e-23  4.9739e-28  2.0807e-23  1.1849e-27  2.5909e-23  2.7082e-27  3.5124e-23  5.8958e-27  5.1968e-23  1.2339e-26  8.3385e-23  2.5305e-26  1.439e-22  5.2119e-26  2.6622e-22
      7.50  6.2234e-32  1.5079e-23  7.2419e-32  1.5084e-23  1.0282e-31  1.5092e-23  1.9247e-31  1.5106e-23  4.5709e-31  1.5132e-23  1.1259e-30  1.5178e-23  2.9573e-30  1.526e-23  7.9199e-30  1.5406e-23  1.8445e-29  1.5666e-23  3.5286e-29  1.6128e-23  7.2514e-29  1.695e-23  1.6755e-28  1.8416e-23  4.077e-28  2.1036e-23  9.9214e-28  2.5735e-23  2.3306e-27  3.4222e-23  5.2123e-27  4.9735e-23  1.1154e-26  7.8667e-23  2.3251e-26  1.3439e-22  4.8424e-26   2.47e-22
      7.55  5.1136e-32  1.593e-23  6.0042e-32  1.5935e-23  8.6779e-32  1.5942e-23  1.6528e-31  1.5956e-23  3.9727e-31  1.598e-23  9.9247e-31  1.6024e-23  2.6255e-30  1.6101e-23  7.047e-30  1.6239e-23  1.5723e-29  1.6483e-23  3.0568e-29  1.6918e-23  6.1902e-29  1.7693e-23  1.4142e-28  1.9076e-23  3.4439e-28  2.1545e-23  8.4958e-28  2.5975e-23  2.0424e-27  3.3976e-23  4.6903e-27  4.8601e-23  1.0281e-26  7.5873e-23  2.1841e-26  1.2839e-22  4.6097e-26  2.3451e-22
      7.60  4.2197e-32  1.6819e-23  5.0386e-32  1.6823e-23  7.5166e-32  1.6831e-23  1.4796e-31  1.6844e-23  3.618e-31  1.6868e-23  9.3059e-31  1.6909e-23  2.4563e-30  1.6984e-23  6.5091e-30  1.7116e-23  1.3595e-29  1.7351e-23  2.6929e-29  1.7769e-23  5.3171e-29  1.8515e-23  1.181e-28  1.9843e-23  2.8272e-28  2.2218e-23  6.9621e-28  2.6478e-23  1.6942e-27  3.4174e-23  3.9692e-27  4.8239e-23  8.8876e-27  7.4468e-23  1.9225e-26  1.2497e-22  4.1128e-26   2.27e-22
      7.65  3.4936e-32  1.7746e-23  4.266e-32  1.775e-23  6.6204e-32  1.7758e-23  1.3519e-31  1.7771e-23  3.3651e-31  1.7794e-23  8.8453e-31  1.7834e-23  2.3671e-30  1.7907e-23  6.2512e-30  1.8036e-23  1.2153e-29  1.8266e-23  2.3918e-29  1.8675e-23  4.6629e-29  1.9403e-23  1.0052e-28  2.0702e-23  2.3504e-28  2.3024e-23  5.7309e-28  2.7189e-23  1.4018e-27  3.4713e-23  3.3366e-27  4.8467e-23  7.621e-27  7.4112e-23  1.6794e-26  1.2349e-22  3.6455e-26  2.2323e-22
      7.70  2.889e-32  1.8711e-23  3.6228e-32  1.8715e-23  5.8766e-32  1.8722e-23  1.2448e-31  1.8735e-23  3.1525e-31  1.8758e-23  8.4389e-31  1.8798e-23  2.3052e-30  1.9059e-23  5.9306e-30  1.8998e-23  1.0968e-29  1.9226e-23  2.1273e-29  1.9631e-23  4.1558e-29  2.0352e-23  8.649e-29  2.1639e-23  1.9693e-28  2.3938e-23  4.7293e-28  2.8063e-23  1.156e-27  3.5516e-23  2.7837e-27  4.9139e-23  6.475e-27  7.4541e-23  1.454e-26  1.2344e-22  3.2062e-26  2.2222e-22
      7.75  2.404e-32  1.9713e-23  3.1043e-32  1.9717e-23  5.2682e-32  1.9725e-23  1.1566e-31  1.9737e-23  2.9712e-31  1.976e-23  7.982e-31  1.9801e-23  2.1522e-30  1.9872e-23  5.5064e-30      2e-23  1.0095e-29  2.0228e-23  1.9153e-29  2.0633e-23  3.6898e-29  2.1354e-23  7.5326e-29  2.2639e-23  1.6667e-28  2.4938e-23  3.9216e-28  2.9061e-23  9.5185e-28  3.6511e-23  2.3075e-27  5.013e-23  5.452e-27  7.5524e-23  1.2472e-26  1.2441e-22  2.7965e-26  2.2313e-22
      7.80  2.0035e-32  2.0857e-23  2.6657e-32  2.0861e-23  4.7304e-32  2.0868e-23  1.0714e-31  2.0881e-23  2.7873e-31  2.0904e-23  7.6507e-31  2.0944e-23  2.0707e-30  2.1017e-23  5.0657e-30  2.1145e-23  9.2337e-30  2.1374e-23  1.7249e-29  2.1782e-23  3.3056e-29  2.2508e-23  6.6075e-29  2.3803e-23  1.4217e-28  2.6118e-23  3.268e-28  3.0271e-23  7.8399e-28  3.7775e-23  1.9046e-27  5.1492e-23  4.559e-27  7.7069e-23  1.0619e-26  1.263e-22  2.4236e-26  2.2572e-22
      7.85  1.6673e-32  2.2051e-23  2.2825e-32  2.2055e-23  4.2139e-32  2.2062e-23  9.7954e-32  2.2075e-23  2.5749e-31  2.2098e-23  7.1057e-31  2.214e-23  1.916e-30  2.2213e-23  4.6664e-30  2.2343e-23  8.3786e-30  2.2574e-23  1.5533e-29  2.2986e-23  2.9564e-29  2.3719e-23  5.7858e-29  2.5026e-23  1.217e-28  2.7363e-23  2.7315e-28  3.1557e-23  6.4586e-28  3.9134e-23  1.5666e-27  5.2984e-23  3.7889e-27  7.881e-23  8.9803e-27  1.2852e-22  2.0885e-26  2.289e-22
      7.90  1.3845e-32  2.3297e-23  1.9306e-32  2.3301e-23  3.6744e-32  2.3308e-23  8.7596e-32  2.3322e-23  2.3192e-31  2.3345e-23  6.4037e-31  2.3386e-23  1.7582e-30  2.346e-23  4.0096e-30  2.3591e-23  7.2428e-30  2.3825e-23  1.3335e-29  2.424e-23  2.5215e-29  2.498e-23  4.8828e-29   2.63e-23  1.0042e-28  2.8659e-23  2.2067e-28  3.2893e-23  5.1425e-28  4.0541e-23  1.2438e-27  5.4523e-23  3.0373e-27  8.0594e-23   7.33e-27  1.3077e-22  1.7404e-26  2.3208e-22
      7.95  1.1451e-32  2.4595e-23  1.6233e-32  2.4599e-23  3.1633e-32  2.4606e-23  7.6532e-32  2.4619e-23  2.0361e-31  2.4643e-23  5.6282e-31  2.4685e-23  1.5551e-30  2.4759e-23  3.3959e-30  2.4891e-23  6.1189e-30  2.5126e-23  1.1191e-29  2.5544e-23  2.098e-29  2.6289e-23  4.0355e-29  2.7617e-23  8.1287e-29  2.999e-23  1.7489e-28  3.425e-23  4.0256e-28  4.1946e-23  9.6732e-28  5.6015e-23  2.3745e-27  8.2247e-23  5.8158e-27  1.3273e-22  1.4076e-26  2.3465e-22
      8.00  9.4211e-33  2.5944e-23  1.3475e-32  2.5948e-23  2.6654e-32  2.5955e-23  6.5217e-32  2.5969e-23  1.7381e-31  2.5992e-23  4.8078e-31  2.6034e-23  1.3328e-30  2.6108e-23  2.7899e-30  2.6241e-23  5.1132e-30  2.6476e-23  9.2329e-30  2.6895e-23  1.7172e-29  2.7642e-23  3.2846e-29  2.8973e-23  6.5329e-29  3.1352e-23  1.3819e-28  3.5621e-23  3.1176e-28  4.3334e-23  7.4249e-28  5.7433e-23  1.8258e-27  8.3721e-23  4.5232e-27  1.3431e-22  1.1135e-26  2.3643e-22
      8.05  7.7066e-33  2.7478e-23  1.1032e-32  2.7482e-23  2.1965e-32  2.7489e-23  5.4003e-32  2.7502e-23  1.4408e-31  2.7526e-23  3.9889e-31  2.7568e-23  1.1067e-30  2.7642e-23  2.2651e-30  2.7775e-23  4.1063e-30  2.801e-23  7.463e-30  2.8429e-23  1.3806e-29  2.9176e-23  2.6249e-29  3.0508e-23  5.1703e-29  3.2888e-23  1.0779e-28  3.7159e-23  2.3981e-28  4.4875e-23  5.6628e-28  5.898e-23  1.3929e-27  8.5275e-23  3.4843e-27  1.3587e-22  8.714e-27  2.3799e-22
      8.10  6.2723e-33  2.9082e-23  8.9177e-33  2.9086e-23  1.7607e-32  2.9093e-23  4.3191e-32  2.9107e-23  1.1601e-31  2.913e-23  3.2189e-31  2.9172e-23  8.9461e-31  2.9246e-23  1.8014e-30  2.9378e-23  3.2628e-30  2.9613e-23  5.8608e-30  3.0031e-23  1.0893e-29  3.0775e-23  2.0593e-29  3.2102e-23  4.0319e-29  3.4475e-23  8.3077e-29  3.8733e-23  1.8264e-28  4.6424e-23  4.278e-28  6.0484e-23  1.0516e-27  8.6694e-23  2.6508e-27  1.3712e-22  6.7233e-27  2.3887e-22
      8.15  5.0882e-33  3.0757e-23  7.1399e-33  3.0761e-23  1.3951e-32  3.0768e-23  3.3817e-32  3.0781e-23  9.1395e-32  3.0805e-23  2.5377e-31  3.0846e-23  7.0701e-31  3.092e-23  1.4198e-30  3.1051e-23  2.5485e-30  3.1285e-23  4.5685e-30   3.17e-23  8.3908e-30  3.2441e-23  1.5769e-29  3.3761e-23  3.1001e-29  3.6121e-23  6.3096e-29  4.0355e-23  1.3709e-28  4.8005e-23  3.1819e-28  6.1987e-23  7.7999e-28  8.8049e-23  1.9767e-27  1.3819e-22  5.0751e-27  2.3933e-22
      8.20  4.1219e-33  3.2502e-23  5.6805e-33  3.2506e-23  1.0906e-32  3.2514e-23  2.6198e-32  3.2527e-23  7.0244e-32  3.255e-23  1.9611e-31  3.2591e-23  5.4773e-31  3.2664e-23  1.0825e-30  3.2795e-23  1.9438e-30  3.3027e-23  3.514e-30  3.344e-23  6.4989e-30  3.4175e-23  1.2053e-29  3.5487e-23  2.3519e-29  3.7832e-23  4.7671e-29  4.2038e-23  1.0271e-28  4.9638e-23  2.3681e-28  6.3527e-23  5.7946e-28  8.9414e-23  1.4756e-27  1.392e-22  3.8302e-27  2.3962e-22
      8.25  3.3112e-33  3.4317e-23  4.4794e-33  3.4321e-23  8.1415e-33  3.4328e-23  2.0031e-32  3.4341e-23  5.3485e-32  3.4364e-23  1.4941e-31  3.4405e-23  4.1857e-31  3.4478e-23  8.2545e-31  3.4607e-23  1.4956e-30  3.4838e-23  2.6775e-30  3.5248e-23  4.8984e-30  3.5979e-23  9.1467e-30  3.7283e-23  1.8073e-29  4.001e-23  3.5886e-29  4.3792e-23  7.6906e-29  5.1343e-23  1.7656e-28  6.5143e-23  4.3176e-28  9.0861e-23  1.1047e-27  1.4032e-22  2.8959e-27  2.4003e-22
      8.30  2.6925e-33  3.6369e-23  3.5621e-33  3.6373e-23  6.3002e-33  3.638e-23  1.4985e-32  3.6393e-23  4.0432e-32  3.6416e-23  1.1231e-31  3.6457e-23  3.1709e-31  3.653e-23  6.3221e-31  3.6659e-23  1.1336e-30  3.6889e-23  2.0485e-30  3.7299e-23  3.7435e-30  3.8029e-23  6.9762e-30  3.933e-23  1.3408e-29  4.1656e-23  2.6975e-29  4.5828e-23  5.7648e-29  5.3366e-23  1.3141e-28  6.7141e-23   3.23e-28  9.2807e-23  8.2517e-28  1.4216e-22  2.1965e-27  2.4163e-22
      8.35  2.1941e-33  3.8506e-23  2.8272e-33  3.851e-23  4.8332e-33  3.8517e-23  1.1199e-32  3.853e-23  2.9617e-32  3.8553e-23  8.2721e-32  3.8594e-23  2.3395e-31  3.8667e-23  4.6776e-31  3.8796e-23  8.3843e-31  3.9027e-23  1.5148e-30  3.9437e-23  2.769e-30  4.0167e-23  5.1598e-30  4.1469e-23  9.9174e-30  4.3796e-23  1.9957e-29  4.7972e-23  4.2693e-29  5.5515e-23  9.799e-29  6.9297e-23  2.4071e-28  9.4975e-23  6.2311e-28  1.4433e-22  1.6541e-27  2.438e-22
      8.40  1.7967e-33  4.0719e-23  2.2509e-33  4.0723e-23  3.7665e-33  4.1141e-23  8.291e-33  4.0743e-23  2.1469e-32  4.0767e-23  5.984e-32  4.0808e-23  1.6876e-31  4.0881e-23  3.3859e-31  4.1011e-23  6.0676e-31  4.1242e-23  1.0965e-30  4.1653e-23  2.006e-30  4.2386e-23  3.7432e-30  4.3693e-23  7.2098e-30  4.6028e-23  1.4555e-29  5.0218e-23  3.1278e-29  5.7786e-23  7.2233e-29  7.1613e-23  1.7878e-28  9.7372e-23  4.6706e-28  1.4688e-22  1.2616e-27  2.4661e-22
      8.45  1.4842e-33  4.2996e-23  1.8135e-33    4.3e-23  2.8773e-33  4.3007e-23  5.9576e-33  4.3021e-23  1.5775e-32  4.3044e-23  4.3629e-32  4.3085e-23  1.2261e-31  4.3159e-23  2.471e-31  4.3289e-23  4.4266e-31  4.3522e-23  8.0009e-31  4.3936e-23  1.4648e-30  4.4673e-23  2.7374e-30  4.5988e-23  5.2837e-30  4.8337e-23  1.0701e-29  5.2553e-23  2.3099e-29  6.0166e-23  5.3655e-29  7.4076e-23  1.3373e-28  9.9985e-23  3.523e-28  1.4977e-22   9.61e-28  2.5003e-22
      8.50  1.2378e-33  4.5319e-23   1.48e-33  4.5323e-23  2.2725e-33  4.5331e-23  4.5315e-33  4.5344e-23  1.1638e-32  4.5367e-23  3.1966e-32  4.5409e-23  9.0198e-32  4.5483e-23  1.8191e-31  4.5615e-23  3.2591e-31  4.5849e-23  5.8907e-31  4.6267e-23  1.0792e-30  4.701e-23  2.0192e-30  4.8336e-23  3.9056e-30  5.0705e-23  7.9332e-30  5.4956e-23  1.7195e-29  6.2633e-23  4.0149e-29  7.6658e-23  1.007e-28  1.0278e-22  2.6724e-28  1.5296e-22  7.3527e-28  2.5399e-22
