# This was generated using Cloudy10 and the columns are ordered 
# as log10 of the fraction of the metallicity to the solar metallicity
# 'h_*_Z' and 'c_*_Z' stands for cooling and heating respectively 
# at * metalicity
#
# NOTE: This was generated separately from loop_coolingcurve_w_UV.py
#       using Output_metals_w_redshift.py.
#
# Redshift = 3.5
# hden = -6.5
#
#     temp   h_-3.00_Z   c_-3.00_Z   h_-2.75_Z   c_-2.75_Z   h_-2.50_Z   c_-2.50_Z   h_-2.25_Z   c_-2.25_Z   h_-2.00_Z   c_-2.00_Z   h_-1.75_Z   c_-1.75_Z   h_-1.50_Z   c_-1.50_Z   h_-1.25_Z   c_-1.25_Z   h_-1.00_Z   c_-1.00_Z   h_-0.75_Z   c_-0.75_Z   h_-0.50_Z   c_-0.50_Z   h_-0.25_Z   c_-0.25_Z    h_0.00_Z    c_0.00_Z    h_0.25_Z    c_0.25_Z    h_0.50_Z    c_0.50_Z    h_0.75_Z    c_0.75_Z    h_1.00_Z    c_1.00_Z    h_1.25_Z    c_1.25_Z    h_1.50_Z    c_1.50_Z 
      4.00  1.3227e-23  8.5293e-23  1.3268e-23  8.5294e-23  1.3341e-23  8.5295e-23  1.3470e-23  8.5297e-23  1.3700e-23  8.5301e-23  1.4110e-23  8.5307e-23  1.4838e-23  8.5319e-23  1.6133e-23  8.5340e-23  1.8438e-23  8.5377e-23  2.2543e-23  8.5443e-23  2.9860e-23  8.5561e-23  4.2928e-23  8.5772e-23  6.6332e-23  8.6152e-23  1.0821e-22  8.6833e-23  1.8364e-22  8.8055e-23  3.2103e-22  9.0277e-23  5.7590e-22  9.4403e-23  1.0644e-21  1.0237e-22  2.0561e-21  1.1896e-22
      4.05  1.2543e-23  9.5615e-23  1.2582e-23  9.5616e-23  1.2651e-23  9.5617e-23  1.2774e-23  9.5620e-23  1.2993e-23  9.5624e-23  1.3382e-23  9.5631e-23  1.4074e-23  9.5644e-23  1.5305e-23  9.5666e-23  1.7495e-23  9.5706e-23  2.1394e-23  9.5778e-23  2.8341e-23  9.5906e-23  4.0737e-23  9.6135e-23  6.2919e-23  9.6546e-23  1.0260e-22  9.7283e-23  1.7404e-22  9.8603e-23  3.0400e-22  1.0100e-22  5.4453e-22  1.0542e-22  1.0036e-21  1.1389e-22  1.9285e-21  1.3132e-22
      4.10  1.1908e-23  1.0719e-22  1.1945e-23  1.0719e-22  1.2011e-23  1.0720e-22  1.2128e-23  1.0720e-22  1.2337e-23  1.0720e-22  1.2707e-23  1.0721e-22  1.3366e-23  1.0722e-22  1.4537e-23  1.0725e-22  1.6621e-23  1.0729e-22  2.0331e-23  1.0737e-22  2.6938e-23  1.0751e-22  3.8719e-23  1.0776e-22  5.9778e-23  1.0820e-22  9.7460e-23  1.0900e-22  1.6528e-22  1.1043e-22  2.8849e-22  1.1302e-22  5.1606e-22  1.1777e-22  9.4869e-22  1.2680e-22  1.8141e-21  1.4510e-22
      4.15  1.1319e-23  1.2018e-22  1.1355e-23  1.2018e-22  1.1417e-23  1.2018e-22  1.1529e-23  1.2019e-22  1.1727e-23  1.2019e-22  1.2080e-23  1.2020e-22  1.2708e-23  1.2021e-22  1.3825e-23  1.2024e-22  1.5811e-23  1.2029e-22  1.9345e-23  1.2037e-22  2.5638e-23  1.2052e-22  3.6853e-23  1.2079e-22  5.6881e-23  1.2128e-22  9.2728e-23  1.2215e-22  1.5721e-22  1.2370e-22  2.7427e-22  1.2650e-22  4.9008e-22  1.3162e-22  8.9892e-22  1.4127e-22  1.7112e-21  1.6054e-22
      4.20  1.0773e-23  1.3475e-22  1.0806e-23  1.3475e-22  1.0866e-23  1.3475e-22  1.0973e-23  1.3475e-22  1.1162e-23  1.3476e-22  1.1499e-23  1.3477e-22  1.2098e-23  1.3478e-22  1.3163e-23  1.3481e-22  1.5058e-23  1.3486e-22  1.8428e-23  1.3496e-22  2.4429e-23  1.3512e-22  3.5118e-23  1.3542e-22  5.4195e-23  1.3595e-22  8.8338e-23  1.3690e-22  1.4974e-22  1.3859e-22  2.6110e-22  1.4163e-22  4.6612e-22  1.4717e-22  8.5339e-22  1.5752e-22  1.6183e-21  1.7788e-22
      4.25  1.0266e-23  1.5109e-22  1.0298e-23  1.5109e-22  1.0355e-23  1.5109e-22  1.0457e-23  1.5109e-22  1.0638e-23  1.5110e-22  1.0959e-23  1.5111e-22  1.1531e-23  1.5113e-22  1.2548e-23  1.5116e-22  1.4357e-23  1.5122e-22  1.7574e-23  1.5132e-22  2.3301e-23  1.5150e-22  3.3499e-23  1.5182e-22  5.1690e-23  1.5240e-22  8.4249e-23  1.5344e-22  1.4278e-22  1.5529e-22  2.4888e-22  1.5860e-22  4.4396e-22  1.6462e-22  8.1151e-22  1.7577e-22  1.5336e-21  1.9739e-22
      4.30  9.7963e-24  1.6942e-22  9.8270e-24  1.6942e-22  9.8816e-24  1.6942e-22  9.9787e-24  1.6942e-22  1.0151e-23  1.6943e-22  1.0459e-23  1.6944e-22  1.1005e-23  1.6946e-22  1.1976e-23  1.6950e-22  1.3703e-23  1.6956e-22  1.6776e-23  1.6967e-22  2.2245e-23  1.6987e-22  3.1982e-23  1.7023e-22  4.9342e-23  1.7086e-22  8.0418e-23  1.7200e-22  1.3627e-22  1.7403e-22  2.3745e-22  1.7766e-22  4.2330e-22  1.8422e-22  7.7276e-22  1.9631e-22  1.4563e-21  2.1941e-22
      4.35  9.3609e-24  1.8998e-22  9.3902e-24  1.8998e-22  9.4424e-24  1.8998e-22  9.5352e-24  1.8999e-22  9.7002e-24  1.8999e-22  9.9936e-24  1.9001e-22  1.0515e-23  1.9003e-22  1.1443e-23  1.9007e-22  1.3094e-23  1.9014e-22  1.6030e-23  1.9026e-22  2.1254e-23  1.9048e-22  3.0555e-23  1.9087e-22  4.7132e-23  1.9157e-22  7.6810e-23  1.9283e-22  1.3014e-22  1.9507e-22  2.2670e-22  1.9906e-22  4.0393e-22  2.0625e-22  7.3663e-22  2.1941e-22  1.3850e-21  2.4426e-22
      4.40  8.9574e-24  2.1304e-22  8.9855e-24  2.1305e-22  9.0353e-24  2.1305e-22  9.1240e-24  2.1305e-22  9.2817e-24  2.1306e-22  9.5621e-24  2.1307e-22  1.0061e-23  2.1310e-22  1.0948e-23  2.1314e-22  1.2525e-23  2.1322e-22  1.5331e-23  2.1336e-22  2.0323e-23  2.1360e-22  2.9210e-23  2.1403e-22  4.5047e-23  2.1481e-22  7.3401e-23  2.1620e-22  1.2434e-22  2.1867e-22  2.1655e-22  2.2308e-22  3.8567e-22  2.3099e-22  7.0274e-22  2.4541e-22  1.3188e-21  2.7234e-22
      4.45  8.5837e-24  2.3892e-22  8.6105e-24  2.3892e-22  8.6581e-24  2.3892e-22  8.7429e-24  2.3893e-22  8.8936e-24  2.3894e-22  9.1617e-24  2.3895e-22  9.6384e-24  2.3898e-22  1.0486e-23  2.3903e-22  1.1994e-23  2.3911e-22  1.4676e-23  2.3926e-22  1.9447e-23  2.3954e-22  2.7941e-23  2.4002e-22  4.3076e-23  2.4088e-22  7.0174e-23  2.4243e-22  1.1885e-22  2.4517e-22  2.0693e-22  2.5005e-22  3.6840e-22  2.5880e-22  6.7081e-22  2.7467e-22  1.2571e-21  3.0407e-22
      4.50  8.2375e-24  2.6794e-22  8.2631e-24  2.6795e-22  8.3087e-24  2.6795e-22  8.3898e-24  2.6795e-22  8.5339e-24  2.6796e-22  8.7901e-24  2.6798e-22  9.2458e-24  2.6801e-22  1.0056e-23  2.6806e-22  1.1498e-23  2.6816e-22  1.4062e-23  2.6833e-22  1.8623e-23  2.6863e-22  2.6743e-23  2.6917e-22  4.1212e-23  2.7013e-22  6.7115e-23  2.7186e-22  1.1364e-22  2.7490e-22  1.9781e-22  2.8033e-22  3.5205e-22  2.9005e-22  6.4066e-22  3.0761e-22  1.1992e-21  3.3992e-22
      4.55  7.9172e-24  3.0051e-22  7.9417e-24  3.0051e-22  7.9852e-24  3.0051e-22  8.0627e-24  3.0052e-22  8.2005e-24  3.0053e-22  8.4456e-24  3.0055e-22  8.8813e-24  3.0058e-22  9.6563e-24  3.0064e-22  1.1035e-23  3.0075e-22  1.3486e-23  3.0094e-22  1.7848e-23  3.0128e-22  2.5612e-23  3.0188e-22  3.9448e-23  3.0295e-22  6.4216e-23  3.0488e-22  1.0869e-22  3.0829e-22  1.8915e-22  3.1434e-22  3.3654e-22  3.2517e-22  6.1215e-22  3.4470e-22  1.1447e-21  3.8044e-22
      4.60  7.6207e-24  3.3704e-22  7.6441e-24  3.3704e-22  7.6858e-24  3.3704e-22  7.7599e-24  3.3705e-22  7.8917e-24  3.3706e-22  8.1261e-24  3.3708e-22  8.5428e-24  3.3712e-22  9.2841e-24  3.3719e-22  1.0602e-23  3.3731e-22  1.2947e-23  3.3752e-22  1.7119e-23  3.3790e-22  2.4545e-23  3.3857e-22  3.7780e-23  3.3977e-22  6.1468e-23  3.4194e-22  1.0400e-22  3.4575e-22  1.8094e-22  3.5253e-22  3.2183e-22  3.6464e-22  5.8516e-22  3.8645e-22  1.0934e-21  4.2622e-22
      4.65  7.3464e-24  3.7802e-22  7.3688e-24  3.7802e-22  7.4087e-24  3.7803e-22  7.4796e-24  3.7803e-22  7.6057e-24  3.7805e-22  7.8299e-24  3.7807e-22  8.2287e-24  3.7811e-22  8.9378e-24  3.7819e-22  1.0199e-23  3.7832e-22  1.2442e-23  3.7856e-22  1.6434e-23  3.7898e-22  2.3539e-23  3.7974e-22  3.6202e-23  3.8109e-22  5.8865e-23  3.8353e-22  9.9556e-23  3.8781e-22  1.7315e-22  3.9542e-22  3.0789e-22  4.0902e-22  5.5961e-22  4.3348e-22  1.0450e-21  4.7802e-22
      4.70  7.0928e-24  4.2399e-22  7.1142e-24  4.2399e-22  7.1524e-24  4.2400e-22  7.2202e-24  4.2401e-22  7.3409e-24  4.2402e-22  7.5555e-24  4.2405e-22  7.9371e-24  4.2410e-22  8.6158e-24  4.2418e-22  9.8228e-24  4.2433e-22  1.1970e-23  4.2460e-22  1.5790e-23  4.2508e-22  2.2590e-23  4.2593e-22  3.4710e-23  4.2745e-22  5.6401e-23  4.3019e-22  9.5343e-23  4.3501e-22  1.6576e-22  4.4357e-22  2.9467e-22  4.5885e-22  5.3542e-22  4.8633e-22  9.9936e-22  5.3632e-22
      4.75  6.8583e-24  4.7556e-22  6.8788e-24  4.7557e-22  6.9154e-24  4.7557e-22  6.9803e-24  4.7558e-22  7.0959e-24  4.7560e-22  7.3013e-24  4.7563e-22  7.6667e-24  4.7568e-22  8.3165e-24  4.7578e-22  9.4722e-24  4.7595e-22  1.1528e-23  4.7625e-22  1.5185e-23  4.7679e-22  2.1696e-23  4.7774e-22  3.3302e-23  4.7946e-22  5.4069e-23  4.8256e-22  9.1352e-23  4.8799e-22  1.5877e-22  4.9763e-22  2.8215e-22  5.1484e-22  5.1251e-22  5.4580e-22  9.5619e-22  6.0209e-22
      4.80  6.6417e-24  5.3343e-22  6.6614e-24  5.3343e-22  6.6963e-24  5.3344e-22  6.7586e-24  5.3345e-22  6.8692e-24  5.3347e-22  7.0660e-24  5.3350e-22  7.4160e-24  5.3356e-22  8.0384e-24  5.3367e-22  9.1453e-24  5.3386e-22  1.1114e-23  5.3420e-22  1.4618e-23  5.3481e-22  2.0854e-23  5.3588e-22  3.1971e-23  5.3783e-22  5.1862e-23  5.4132e-22  8.7571e-23  5.4745e-22  1.5213e-22  5.5832e-22  2.7027e-22  5.7774e-22  4.9079e-22  6.1267e-22  9.1531e-22  6.7624e-22
      4.85  6.4416e-24  5.9834e-22  6.4604e-24  5.9834e-22  6.4940e-24  5.9835e-22  6.5536e-24  5.9836e-22  6.6596e-24  5.9838e-22  6.8482e-24  5.9842e-22  7.1835e-24  5.9849e-22  7.7798e-24  5.9861e-22  8.8405e-24  5.9883e-22  1.0727e-23  5.9921e-22  1.4084e-23  5.9989e-22  2.0059e-23  6.0111e-22  3.0712e-23  6.0331e-22  4.9772e-23  6.0726e-22  8.3985e-23  6.1417e-22  1.4584e-22  6.2644e-22  2.5900e-22  6.4837e-22  4.7017e-22  6.8783e-22  8.7654e-22  7.5971e-22
      4.90  6.2568e-24  6.7116e-22  6.2749e-24  6.7117e-22  6.3070e-24  6.7117e-22  6.3642e-24  6.7119e-22  6.4658e-24  6.7121e-22  6.6465e-24  6.7125e-22  6.9679e-24  6.7133e-22  7.5395e-24  6.7147e-22  8.5561e-24  6.7171e-22  1.0364e-23  6.7214e-22  1.3582e-23  6.7291e-22  1.9309e-23  6.7428e-22  2.9521e-23  6.7679e-22  4.7789e-23  6.8124e-22  8.0580e-23  6.8904e-22  1.3985e-22  7.0289e-22  2.4828e-22  7.2764e-22  4.5056e-22  7.7223e-22  8.3967e-22  8.5355e-22
      4.95  6.0863e-24  7.5286e-22  6.1036e-24  7.5286e-22  6.1344e-24  7.5287e-22  6.1892e-24  7.5289e-22  6.2866e-24  7.5291e-22  6.4599e-24  7.5296e-22  6.7680e-24  7.5305e-22  7.3160e-24  7.5320e-22  8.2906e-24  7.5348e-22  1.0024e-23  7.5397e-22  1.3109e-23  7.5483e-22  1.8599e-23  7.5638e-22  2.8390e-23  7.5922e-22  4.5904e-23  7.6425e-22  7.7339e-23  7.7305e-22  1.3416e-22  7.8866e-22  2.3807e-22  8.1660e-22  4.3188e-22  8.6695e-22  8.0451e-22  9.5891e-22
      5.00  5.9288e-24  8.4451e-22  5.9454e-24  8.4452e-22  5.9750e-24  8.4453e-22  6.0275e-24  8.4454e-22  6.1209e-24  8.4457e-22  6.2871e-24  8.4463e-22  6.5825e-24  8.4473e-22  7.1079e-24  8.4490e-22  8.0424e-24  8.4521e-22  9.7047e-24  8.4576e-22  1.2662e-23  8.4674e-22  1.7926e-23  8.4848e-22  2.7316e-23  8.5170e-22  4.4109e-23  8.5737e-22  7.4247e-23  8.6729e-22  1.2872e-22  8.8488e-22  2.2832e-22  9.1637e-22  4.1403e-22  9.7317e-22  7.7092e-22  1.0771e-21
      5.05  5.7835e-24  9.4734e-22  5.7994e-24  9.4734e-22  5.8277e-24  9.4735e-22  5.8781e-24  9.4737e-22  5.9677e-24  9.4741e-22  6.1270e-24  9.4747e-22  6.4103e-24  9.4758e-22  6.9142e-24  9.4778e-22  7.8103e-24  9.4812e-22  9.4042e-24  9.4874e-22  1.2240e-23  9.4984e-22  1.7288e-23  9.5180e-22  2.6293e-23  9.5546e-22  4.2395e-23  9.6185e-22  7.1293e-23  9.7301e-22  1.2351e-22  9.9281e-22  2.1898e-22  1.0283e-21  3.9693e-22  1.0922e-21  7.3875e-22  1.2094e-21
      5.10  5.6493e-24  1.0627e-21  5.6646e-24  1.0627e-21  5.6917e-24  1.0627e-21  5.7400e-24  1.0627e-21  5.8259e-24  1.0628e-21  5.9787e-24  1.0628e-21  6.2504e-24  1.0630e-21  6.7335e-24  1.0632e-21  7.5928e-24  1.0636e-21  9.1213e-24  1.0643e-21  1.1841e-23  1.0655e-21  1.6681e-23  1.0677e-21  2.5317e-23  1.0719e-21  4.0758e-23  1.0790e-21  6.8466e-23  1.0916e-21  1.1853e-22  1.1138e-21  2.1004e-22  1.1537e-21  3.8054e-22  1.2256e-21  7.0787e-22  1.3574e-21
      5.15  5.5253e-24  1.1921e-21  5.5399e-24  1.1921e-21  5.5660e-24  1.1921e-21  5.6123e-24  1.1921e-21  5.6947e-24  1.1922e-21  5.8412e-24  1.1923e-21  6.1017e-24  1.1924e-21  6.5650e-24  1.1927e-21  7.3890e-24  1.1931e-21  8.8547e-24  1.1939e-21  1.1462e-23  1.1953e-21  1.6103e-23  1.1977e-21  2.4386e-23  1.2024e-21  3.9192e-23  1.2105e-21  6.5759e-23  1.2246e-21  1.1375e-22  1.2496e-21  2.0146e-22  1.2942e-21  3.6482e-22  1.3750e-21  6.7823e-22  1.5229e-21
      5.20  5.4107e-24  1.3373e-21  5.4247e-24  1.3373e-21  5.4497e-24  1.3373e-21  5.4941e-24  1.3373e-21  5.5731e-24  1.3374e-21  5.7136e-24  1.3375e-21  5.9634e-24  1.3376e-21  6.4077e-24  1.3379e-21  7.1979e-24  1.3384e-21  8.6033e-24  1.3393e-21  1.1104e-23  1.3408e-21  1.5553e-23  1.3436e-21  2.3497e-23  1.3489e-21  3.7694e-23  1.3580e-21  6.3166e-23  1.3737e-21  1.0918e-22  1.4017e-21  1.9324e-22  1.4518e-21  3.4973e-22  1.5421e-21  6.4979e-22  1.7077e-21
      5.25  5.3047e-24  1.5001e-21  5.3181e-24  1.5001e-21  5.3421e-24  1.5002e-21  5.3847e-24  1.5002e-21  5.4604e-24  1.5002e-21  5.5951e-24  1.5003e-21  5.8347e-24  1.5005e-21  6.2607e-24  1.5008e-21  7.0184e-24  1.5014e-21  8.3661e-24  1.5023e-21  1.0764e-23  1.5041e-21  1.5030e-23  1.5072e-21  2.2648e-23  1.5133e-21  3.6261e-23  1.5234e-21  6.0684e-23  1.5410e-21  1.0479e-22  1.5723e-21  1.8536e-22  1.6282e-21  3.3527e-22  1.7292e-21  6.2250e-22  1.9142e-21
      5.30  5.2066e-24  1.6828e-21  5.2195e-24  1.6828e-21  5.2425e-24  1.6828e-21  5.2833e-24  1.6829e-21  5.3560e-24  1.6829e-21  5.4852e-24  1.6830e-21  5.7149e-24  1.6832e-21  6.1234e-24  1.6836e-21  6.8500e-24  1.6842e-21  8.1424e-24  1.6853e-21  1.0441e-23  1.6872e-21  1.4532e-23  1.6907e-21  2.1838e-23  1.6976e-21  3.4892e-23  1.7089e-21  5.8309e-23  1.7286e-21  1.0059e-22  1.7636e-21  1.7781e-22  1.8260e-21  3.2142e-22  1.9386e-21  5.9637e-22  2.1447e-21
      5.35  5.1159e-24  1.8877e-21  5.1282e-24  1.8877e-21  5.1503e-24  1.8878e-21  5.1895e-24  1.8878e-21  5.2591e-24  1.8879e-21  5.3830e-24  1.8880e-21  5.6033e-24  1.8882e-21  5.9952e-24  1.8886e-21  6.6920e-24  1.8893e-21  7.9313e-24  1.8905e-21  1.0136e-23  1.8927e-21  1.4060e-23  1.8967e-21  2.1066e-23  1.9044e-21  3.3584e-23  1.9171e-21  5.6038e-23  1.9391e-21  9.6578e-23  1.9780e-21  1.7059e-22  2.0477e-21  3.0818e-22  2.1731e-21  5.7137e-22  2.4022e-21
      5.40  5.0320e-24  2.1176e-21  5.0439e-24  2.1176e-21  5.0650e-24  2.1176e-21  5.1026e-24  2.1177e-21  5.1694e-24  2.1177e-21  5.2882e-24  2.1179e-21  5.4996e-24  2.1181e-21  5.8754e-24  2.1185e-21  6.5437e-24  2.1193e-21  7.7322e-24  2.1207e-21  9.8463e-24  2.1231e-21  1.3610e-23  2.1277e-21  2.0330e-23  2.1364e-21  3.2335e-23  2.1505e-21  5.3868e-23  2.1751e-21  9.2739e-23  2.2185e-21  1.6369e-22  2.2961e-21  2.9552e-22  2.4357e-21  5.4749e-22  2.6900e-21
      5.45  4.9546e-24  2.3754e-21  4.9660e-24  2.3754e-21  4.9862e-24  2.3754e-21  5.0223e-24  2.3755e-21  5.0864e-24  2.3756e-21  5.2004e-24  2.3757e-21  5.4031e-24  2.3760e-21  5.7635e-24  2.3765e-21  6.4046e-24  2.3773e-21  7.5446e-24  2.3788e-21  9.5721e-24  2.3815e-21  1.3183e-23  2.3869e-21  1.9628e-23  2.3966e-21  3.1143e-23  2.4124e-21  5.1795e-23  2.4398e-21  8.9071e-23  2.4882e-21  1.5709e-22  2.5746e-21  2.8343e-22  2.7298e-21  5.2471e-22  3.0120e-21
      5.50  4.8832e-24  2.6645e-21  4.8941e-24  2.6646e-21  4.9136e-24  2.6646e-21  4.9482e-24  2.6646e-21  5.0097e-24  2.6647e-21  5.1190e-24  2.6649e-21  5.3135e-24  2.6652e-21  5.6593e-24  2.6657e-21  6.2742e-24  2.6667e-21  7.3677e-24  2.6684e-21  9.3123e-24  2.6714e-21  1.2777e-23  2.6776e-21  1.8960e-23  2.6885e-21  3.0005e-23  2.7062e-21  4.9814e-23  2.7368e-21  8.5565e-23  2.7907e-21  1.5079e-22  2.8869e-21  2.7189e-22  3.0594e-21  5.0298e-22  3.3738e-21
      5.55  4.8176e-24  2.9888e-21  4.8281e-24  2.9889e-21  4.8468e-24  2.9889e-21  4.8799e-24  2.9890e-21  4.9389e-24  2.9891e-21  5.0438e-24  2.9893e-21  5.2304e-24  2.9896e-21  5.5621e-24  2.9902e-21  6.1520e-24  2.9912e-21  7.2008e-24  2.9931e-21  9.0659e-24  2.9965e-21  1.2390e-23  3.0037e-21  1.8321e-23  3.0161e-21  2.8917e-23  3.0359e-21  4.7918e-23  3.0701e-21  8.2208e-23  3.1304e-21  1.4476e-22  3.2378e-21  2.6085e-22  3.4303e-21  4.8224e-22  3.7785e-21
      5.60  4.7575e-24  3.3525e-21  4.7675e-24  3.3526e-21  4.7854e-24  3.3526e-21  4.8173e-24  3.3527e-21  4.8738e-24  3.3528e-21  4.9745e-24  3.3530e-21  5.1534e-24  3.3534e-21  5.4716e-24  3.3540e-21  6.0374e-24  3.3552e-21  7.0433e-24  3.3573e-21  8.8319e-24  3.3611e-21  1.2021e-23  3.3696e-21  1.7711e-23  3.3835e-21  2.7874e-23  3.4058e-21  4.6099e-23  3.4440e-21  7.8987e-23  3.5113e-21  1.3897e-22  3.6311e-21  2.5028e-22  3.8454e-21  4.6241e-22  4.2321e-21
      5.65  4.7025e-24  3.7604e-21  4.7122e-24  3.7604e-21  4.7293e-24  3.7605e-21  4.7598e-24  3.7605e-21  4.8141e-24  3.7607e-21  4.9106e-24  3.7609e-21  5.0822e-24  3.7613e-21  5.3873e-24  3.7621e-21  5.9298e-24  3.7634e-21  6.8943e-24  3.7657e-21  8.6089e-24  3.7699e-21  1.1669e-23  3.7801e-21  1.7125e-23  3.7958e-21  2.6871e-23  3.8207e-21  4.4348e-23  3.8634e-21  7.5887e-23  3.9386e-21  1.3341e-22  4.0722e-21  2.4012e-22  4.3109e-21  4.4341e-22  4.7407e-21
      5.70  4.6524e-24  4.2177e-21  4.6617e-24  4.2178e-21  4.6781e-24  4.2178e-21  4.7074e-24  4.2179e-21  4.7594e-24  4.2180e-21  4.8519e-24  4.2183e-21  5.0163e-24  4.2188e-21  5.3088e-24  4.2196e-21  5.8287e-24  4.2211e-21  6.7529e-24  4.2237e-21  8.3957e-24  4.2284e-21  1.1330e-23  4.2406e-21  1.6560e-23  4.2583e-21  2.5902e-23  4.2862e-21  4.2654e-23  4.3340e-21  7.2887e-23  4.4179e-21  1.2803e-22  4.5670e-21  2.3033e-22  4.8333e-21  4.2515e-22  5.3114e-21
      5.75  4.6069e-24  4.7305e-21  4.6157e-24  4.7305e-21  4.6315e-24  4.7306e-21  4.6595e-24  4.7307e-21  4.7093e-24  4.7308e-21  4.7979e-24  4.7311e-21  4.9554e-24  4.7317e-21  5.2354e-24  4.7326e-21  5.7332e-24  4.7342e-21  6.6181e-24  4.7372e-21  8.1907e-24  4.7424e-21  1.1002e-23  4.7572e-21  1.6011e-23  4.7771e-21  2.4959e-23  4.8085e-21  4.1004e-23  4.8619e-21  6.9966e-23  4.9558e-21  1.2280e-22  5.1224e-21  2.2084e-22  5.4194e-21  4.0753e-22  5.9520e-21
      5.80  4.5655e-24  5.3054e-21  4.5740e-24  5.3054e-21  4.5891e-24  5.3055e-21  4.6159e-24  5.3056e-21  4.6635e-24  5.3058e-21  4.7482e-24  5.3061e-21  4.8989e-24  5.3067e-21  5.1667e-24  5.3077e-21  5.6428e-24  5.3096e-21  6.4889e-24  5.3129e-21  7.9927e-24  5.3190e-21  1.0684e-23  5.3366e-21  1.5475e-23  5.3592e-21  2.4034e-23  5.3944e-21  3.9386e-23  5.4543e-21  6.7102e-23  5.5593e-21  1.1768e-22  5.7455e-21  2.1158e-22  6.0773e-21  3.9045e-22  6.6717e-21
      5.85  4.5281e-24  5.9498e-21  4.5362e-24  5.9499e-21  4.5506e-24  5.9499e-21  4.5761e-24  5.9500e-21  4.6216e-24  5.9502e-21  4.7025e-24  5.9506e-21  4.8463e-24  5.9513e-21  5.1020e-24  5.9524e-21  5.5565e-24  5.9545e-21  6.3642e-24  5.9582e-21  7.8009e-24  5.9661e-21  1.0371e-23  5.9865e-21  1.4947e-23  6.0121e-21  2.3121e-23  6.0518e-21  3.7786e-23  6.1189e-21  6.4273e-23  6.2365e-21  1.1264e-22  6.4449e-21  2.0250e-22  6.8159e-21  3.7379e-22  7.4795e-21
      5.90  4.4941e-24  6.6721e-21  4.5018e-24  6.6722e-21  4.5155e-24  6.6722e-21  4.5399e-24  6.6724e-21  4.5833e-24  6.6726e-21  4.6603e-24  6.6730e-21  4.7973e-24  6.6737e-21  5.0409e-24  6.6751e-21  5.4738e-24  6.6774e-21  6.2430e-24  6.6815e-21  7.6126e-24  6.6917e-21  1.0062e-23  6.7154e-21  1.4422e-23  6.7446e-21  2.2212e-23  6.7893e-21  3.6192e-23  6.8647e-21  6.1457e-23  6.9964e-21  1.0763e-22  7.2297e-21  1.9352e-22  7.6446e-21  3.5747e-22  8.3859e-21
      5.95  4.4633e-24  7.4816e-21  4.4707e-24  7.4817e-21  4.4837e-24  7.4817e-21  4.5068e-24  7.4819e-21  4.5480e-24  7.4821e-21  4.6212e-24  7.4826e-21  4.7513e-24  7.4834e-21  4.9827e-24  7.4849e-21  5.3938e-24  7.4875e-21  6.1243e-24  7.4921e-21  7.4263e-24  7.5051e-21  9.7539e-24  7.5328e-21  1.3897e-23  7.5662e-21  2.1301e-23  7.6167e-21  3.4593e-23  7.7013e-21  5.8632e-23  7.8490e-21  1.0262e-22  8.1102e-21  1.8459e-22  8.5747e-21  3.4138e-22  9.4137e-21
      6.00  4.4353e-24  8.3886e-21  4.4423e-24  8.3887e-21  4.4546e-24  8.3888e-21  4.4765e-24  8.3889e-21  4.5155e-24  8.3892e-21  4.5847e-24  8.3897e-21  4.7079e-24  8.3906e-21  4.9269e-24  8.3923e-21  5.3160e-24  8.3952e-21  6.0073e-24  8.4004e-21  7.2413e-24  8.4173e-21  9.4458e-24  8.4497e-21  1.3369e-23  8.4880e-21  2.0382e-23  8.5449e-21  3.2980e-23  8.6400e-21  5.5785e-23  8.8056e-21  9.7582e-23  9.0982e-21  1.7565e-22  9.6243e-21  3.2541e-22  1.0571e-20
      6.05  4.4098e-24  9.4047e-21  4.4163e-24  9.4048e-21  4.4279e-24  9.4049e-21  4.4486e-24  9.4051e-21  4.4853e-24  9.4054e-21  4.5506e-24  9.4060e-21  4.6667e-24  9.4070e-21  4.8731e-24  9.4088e-21  5.2398e-24  9.4121e-21  5.8914e-24  9.4179e-21  7.0570e-24  9.4404e-21  9.1366e-24  9.4783e-21  1.2837e-23  9.5221e-21  1.9454e-23  9.5864e-21  3.1348e-23  9.6932e-21  5.2906e-23  9.8789e-21  9.2494e-23  1.0210e-20  1.6666e-22  1.0805e-20  3.0948e-22  1.1868e-20
      6.10  4.3863e-24  1.0543e-20  4.3924e-24  1.0543e-20  4.4033e-24  1.0543e-20  4.4227e-24  1.0543e-20  4.4571e-24  1.0544e-20  4.5184e-24  1.0544e-20  4.6273e-24  1.0545e-20  4.8210e-24  1.0547e-20  5.1651e-24  1.0551e-20  5.7764e-24  1.0558e-20  6.8726e-24  1.0587e-20  8.8256e-24  1.0632e-20  1.2300e-23  1.0682e-20  1.8515e-23  1.0755e-20  2.9695e-23  1.0875e-20  4.9989e-23  1.1088e-20  8.7346e-23  1.1460e-20  1.5758e-22  1.2120e-20  2.9351e-22  1.3339e-20
      6.15  4.3646e-24  1.1817e-20  4.3703e-24  1.1817e-20  4.3804e-24  1.1817e-20  4.3985e-24  1.1818e-20  4.4307e-24  1.1818e-20  4.4879e-24  1.1819e-20  4.5896e-24  1.1820e-20  4.7704e-24  1.1822e-20  5.0917e-24  1.1826e-20  5.6626e-24  1.1834e-20  6.6888e-24  1.1872e-20  8.5140e-24  1.1925e-20  1.1760e-23  1.1984e-20  1.7569e-23  1.2067e-20  2.8028e-23  1.2203e-20  4.7044e-23  1.2439e-20  8.2144e-23  1.2856e-20  1.4842e-22  1.3617e-20  2.7747e-22  1.4957e-20
      6.20  4.3443e-24  1.3244e-20  4.3496e-24  1.3244e-20  4.3590e-24  1.3244e-20  4.3759e-24  1.3244e-20  4.4057e-24  1.3245e-20  4.4589e-24  1.3245e-20  4.5533e-24  1.3247e-20  4.7213e-24  1.3249e-20  5.0198e-24  1.3254e-20  5.5502e-24  1.3262e-20  6.5065e-24  1.3312e-20  8.2043e-24  1.3375e-20  1.1222e-23  1.3442e-20  1.6624e-23  1.3537e-20  2.6360e-23  1.3690e-20  4.4092e-23  1.3955e-20  7.6919e-23  1.4422e-20  1.3920e-22  1.5272e-20  2.6133e-22  1.6770e-20
      6.25  4.3252e-24  1.4840e-20  4.3301e-24  1.4840e-20  4.3388e-24  1.4840e-20  4.3544e-24  1.4840e-20  4.3820e-24  1.4841e-20  4.4311e-24  1.4842e-20  4.5185e-24  1.4844e-20  4.6738e-24  1.4846e-20  4.9498e-24  1.4852e-20  5.4404e-24  1.4861e-20  6.3277e-24  1.4924e-20  7.8999e-24  1.4999e-20  1.0693e-23  1.5078e-20  1.5693e-23  1.5186e-20  2.4713e-23  1.5359e-20  4.1168e-23  1.5656e-20  7.1725e-23  1.6190e-20  1.2999e-22  1.7128e-20  2.4514e-22  1.8803e-20
      6.30  4.3069e-24  1.6626e-20  4.3114e-24  1.6626e-20  4.3195e-24  1.6626e-20  4.3338e-24  1.6626e-20  4.3592e-24  1.6627e-20  4.4044e-24  1.6628e-20  4.4849e-24  1.6630e-20  4.6279e-24  1.6633e-20  4.8822e-24  1.6639e-20  5.3342e-24  1.6649e-20  6.1547e-24  1.6729e-20  7.6051e-24  1.6820e-20  1.0179e-23  1.6912e-20  1.4788e-23  1.7035e-20  2.3109e-23  1.7230e-20  3.8313e-23  1.7564e-20  6.6630e-23  1.8160e-20  1.2090e-22  1.9210e-20  2.2903e-22  2.1083e-20
      6.35  4.2892e-24  1.8622e-20  4.2933e-24  1.8623e-20  4.3007e-24  1.8623e-20  4.3138e-24  1.8623e-20  4.3372e-24  1.8624e-20  4.3787e-24  1.8625e-20  4.4526e-24  1.8627e-20  4.5839e-24  1.8631e-20  4.8173e-24  1.8637e-20  5.2324e-24  1.8649e-20  5.9892e-24  1.8749e-20  7.3236e-24  1.8860e-20  9.6886e-24  1.8968e-20  1.3922e-23  1.9108e-20  2.1571e-23  1.9329e-20  3.5568e-23  1.9704e-20  6.1704e-23  2.0371e-20  1.1204e-22  2.1546e-20  2.1313e-22  2.3640e-20
      6.40  4.2718e-24  2.0854e-20  4.2756e-24  2.0854e-20  4.2823e-24  2.0854e-20  4.2944e-24  2.0855e-20  4.3157e-24  2.0856e-20  4.3538e-24  2.0857e-20  4.4214e-24  2.0859e-20  4.5416e-24  2.0863e-20  4.7555e-24  2.0871e-20  5.1357e-24  2.0883e-20  5.8330e-24  2.1010e-20  7.0585e-24  2.1145e-20  9.2262e-24  2.1273e-20  1.3106e-23  2.1434e-20  2.0117e-23  2.1683e-20  3.2964e-23  2.2106e-20  5.7007e-23  2.2852e-20  1.0350e-22  2.4167e-20  1.9761e-22  2.6509e-20
      6.45  4.2544e-24  2.3347e-20  4.2578e-24  2.3347e-20  4.2640e-24  2.3347e-20  4.2750e-24  2.3348e-20  4.2946e-24  2.3349e-20  4.3293e-24  2.3350e-20  4.3912e-24  2.3353e-20  4.5011e-24  2.3357e-20  4.6966e-24  2.3365e-20  5.0444e-24  2.3380e-20  5.6871e-24  2.3541e-20  6.8112e-24  2.3707e-20  8.7950e-24  2.3857e-20  1.2343e-23  2.4043e-20  1.8758e-23  2.4325e-20  3.0522e-23  2.4800e-20  5.2578e-23  2.5635e-20  9.5382e-23  2.7107e-20  1.8261e-22  2.9728e-20
      6.50  4.2367e-24  2.6130e-20  4.2399e-24  2.6130e-20  4.2455e-24  2.6130e-20  4.2555e-24  2.6131e-20  4.2734e-24  2.6131e-20  4.3051e-24  2.6133e-20  4.3616e-24  2.6136e-20  4.4620e-24  2.6141e-20  4.6405e-24  2.6150e-20  4.9582e-24  2.6166e-20  5.5511e-24  2.6372e-20  6.5817e-24  2.6575e-20  8.3953e-24  2.6754e-20  1.1636e-23  2.6968e-20  1.7496e-23  2.7287e-20  2.8247e-23  2.7821e-20  4.8431e-23  2.8752e-20  8.7710e-23  3.0407e-20  1.6821e-22  3.3341e-20
      6.55  4.2184e-24  2.9234e-20  4.2213e-24  2.9234e-20  4.2265e-24  2.9234e-20  4.2356e-24  2.9235e-20  4.2519e-24  2.9236e-20  4.2809e-24  2.9238e-20  4.3324e-24  2.9241e-20  4.4239e-24  2.9247e-20  4.5868e-24  2.9257e-20  4.8766e-24  2.9275e-20  5.4242e-24  2.9537e-20  6.3691e-24  2.9787e-20  8.0258e-24  3.0000e-20  1.0983e-23  3.0247e-20  1.6328e-23  3.0610e-20  2.6137e-23  3.1211e-20  4.4565e-23  3.2256e-20  8.0493e-23  3.4110e-20  1.5444e-22  3.7396e-20
      6.60  4.1993e-24  3.2694e-20  4.2020e-24  3.2694e-20  4.2067e-24  3.2694e-20  4.2150e-24  3.2695e-20  4.2298e-24  3.2696e-20  4.2562e-24  3.2698e-20  4.3031e-24  3.2702e-20  4.3866e-24  3.2708e-20  4.5349e-24  3.2720e-20  4.7990e-24  3.2740e-20  5.3055e-24  3.3072e-20  6.1722e-24  3.3381e-20  7.6844e-24  3.3637e-20  1.0380e-23  3.3924e-20  1.5248e-23  3.4336e-20  2.4181e-23  3.5014e-20  4.0968e-23  3.6187e-20  7.3721e-23  3.8255e-20  1.4131e-22  4.1946e-20
      6.65  4.1791e-24  3.6547e-20  4.1815e-24  3.6547e-20  4.1857e-24  3.6547e-20  4.1933e-24  3.6548e-20  4.2068e-24  3.6549e-20  4.2308e-24  3.6551e-20  4.2735e-24  3.6555e-20  4.3494e-24  3.6563e-20  4.4844e-24  3.6576e-20  4.7246e-24  3.6598e-20  5.1940e-24  3.7018e-20  5.9894e-24  3.7401e-20  7.3690e-24  3.7710e-20  9.8224e-24  3.8045e-20  1.4250e-23  3.8515e-20  2.2371e-23  3.9279e-20  3.7625e-23  4.0597e-20  6.7382e-23  4.2918e-20  1.2885e-22  4.7052e-20
      6.70  4.1573e-24  4.0832e-20  4.1595e-24  4.0832e-20  4.1634e-24  4.0833e-20  4.1703e-24  4.0834e-20  4.1825e-24  4.0835e-20  4.2043e-24  4.0838e-20  4.2431e-24  4.0842e-20  4.3120e-24  4.0850e-20  4.4347e-24  4.0865e-20  4.6529e-24  4.0890e-20  5.0887e-24  4.1415e-20  5.8196e-24  4.1895e-20  7.0776e-24  4.2271e-20  9.3086e-24  4.2663e-20  1.3330e-23  4.3201e-20  2.0700e-23  4.4064e-20  3.4528e-23  4.5545e-20  6.1471e-23  4.8150e-20  1.1708e-22  5.2783e-20
      6.75  4.1337e-24  4.5593e-20  4.1357e-24  4.5594e-20  4.1392e-24  4.5594e-20  4.1455e-24  4.5595e-20  4.1566e-24  4.5597e-20  4.1764e-24  4.5600e-20  4.2115e-24  4.5605e-20  4.2740e-24  4.5614e-20  4.3853e-24  4.5630e-20  4.5832e-24  4.5658e-20  4.9888e-24  4.6309e-20  5.6618e-24  4.6914e-20  6.8090e-24  4.7375e-20  8.8362e-24  4.7838e-20  1.2484e-23  4.8455e-20  1.9161e-23  4.9430e-20  3.1671e-23  5.1096e-20  5.5992e-23  5.4019e-20  1.0605e-22  5.9200e-20
      6.80  4.1282e-24  5.1127e-20  4.1299e-24  5.1127e-20  4.1331e-24  5.1128e-20  4.1388e-24  5.1129e-20  4.1488e-24  5.1131e-20  4.1667e-24  5.1134e-20  4.1986e-24  5.1139e-20  4.2552e-24  5.1149e-20  4.3559e-24  5.1167e-20  4.5351e-24  5.1198e-20  4.8959e-24  5.1777e-20  5.5171e-24  5.2538e-20  6.5635e-24  5.3099e-20  8.4045e-24  5.3643e-20  1.1712e-23  5.4348e-20  1.7755e-23  5.5450e-20  2.9055e-23  5.7324e-20  5.0958e-23  6.0606e-20  9.5843e-23  6.6418e-20
      6.85  4.1253e-24  5.7365e-20  4.1269e-24  5.7365e-20  4.1298e-24  5.7366e-20  4.1349e-24  5.7367e-20  4.1441e-24  5.7369e-20  4.1603e-24  5.7373e-20  4.1891e-24  5.7379e-20  4.2403e-24  5.7390e-20  4.3315e-24  5.7410e-20  4.4938e-24  5.7445e-20  4.8095e-24  5.7881e-20  5.3846e-24  5.8830e-20  6.3404e-24  5.9517e-20  8.0129e-24  6.0157e-20  1.1010e-23  6.0962e-20  1.6478e-23  6.2206e-20  2.6679e-23  6.4311e-20  4.6379e-23  6.7996e-20  8.6521e-23  7.4518e-20
      6.90  4.1228e-24  6.4364e-20  4.1243e-24  6.4364e-20  4.1269e-24  6.4365e-20  4.1315e-24  6.4366e-20  4.1398e-24  6.4369e-20  4.1545e-24  6.4373e-20  4.1806e-24  6.4380e-20  4.2270e-24  6.4392e-20  4.3097e-24  6.4414e-20  4.4567e-24  6.4454e-20  4.7406e-24  6.4869e-20  5.2705e-24  6.5971e-20  6.1420e-24  6.6758e-20  7.6615e-24  6.7485e-20  1.0380e-23  6.8393e-20  1.5330e-23  6.9792e-20  2.4542e-23  7.2155e-20  4.2260e-23  7.6289e-20  7.8123e-23  8.3604e-20
      6.95  4.1206e-24  7.2217e-20  4.1220e-24  7.2217e-20  4.1244e-24  7.2218e-20  4.1286e-24  7.2220e-20  4.1361e-24  7.2222e-20  4.1494e-24  7.2227e-20  4.1731e-24  7.2234e-20  4.2152e-24  7.2248e-20  4.2902e-24  7.2273e-20  4.4236e-24  7.2318e-20  4.6790e-24  7.2707e-20  5.1681e-24  7.3976e-20  5.9644e-24  7.4878e-20  7.3472e-24  7.5705e-20  9.8160e-24  7.6730e-20  1.4304e-23  7.8303e-20  2.2635e-23  8.0956e-20  3.8591e-23  8.5597e-20  7.0659e-23  9.3804e-20
      7.00  4.1187e-24  8.1028e-20  4.1200e-24  8.1029e-20  4.1221e-24  8.1030e-20  4.1259e-24  8.1031e-20  4.1328e-24  8.1034e-20  4.1449e-24  8.1039e-20  4.1664e-24  8.1048e-20  4.2047e-24  8.1063e-20  4.2729e-24  8.1091e-20  4.3942e-24  8.1141e-20  4.6234e-24  8.1485e-20  5.0767e-24  8.2949e-20  5.8063e-24  8.3984e-20  7.0676e-24  8.4924e-20  9.3148e-24  8.6083e-20  1.3393e-23  8.7851e-20  2.0944e-23  9.0832e-20  3.5347e-23  9.6039e-20  6.4090e-23  1.0525e-19
      7.05  4.1171e-24  9.0914e-20  4.1182e-24  9.0915e-20  4.1202e-24  9.0916e-20  4.1236e-24  9.0918e-20  4.1299e-24  9.0921e-20  4.1409e-24  9.0926e-20  4.1606e-24  9.0936e-20  4.1955e-24  9.0954e-20  4.2576e-24  9.0985e-20  4.3682e-24  9.1041e-20  4.5733e-24  9.1317e-20  4.9951e-24  9.3006e-20  5.6658e-24  9.4195e-20  6.8196e-24  9.5266e-20  8.8708e-24  9.6574e-20  1.2587e-23  9.8564e-20  1.9452e-23  1.0191e-19  3.2494e-23  1.0776e-19  5.8346e-23  1.1809e-19
      7.10  4.1156e-24  1.0201e-19  4.1166e-24  1.0201e-19  4.1184e-24  1.0201e-19  4.1216e-24  1.0201e-19  4.1273e-24  1.0201e-19  4.1374e-24  1.0202e-19  4.1554e-24  1.0203e-19  4.1873e-24  1.0205e-19  4.2442e-24  1.0209e-19  4.3453e-24  1.0215e-19  4.5281e-24  1.0233e-19  4.9224e-24  1.0428e-19  5.5412e-24  1.0564e-19  6.6000e-24  1.0686e-19  8.4781e-24  1.0834e-19  1.1875e-23  1.1058e-19  1.8136e-23  1.1434e-19  2.9991e-23  1.2090e-19  5.3343e-23  1.3250e-19
      7.15  4.1144e-24  1.1445e-19  4.1153e-24  1.1445e-19  4.1169e-24  1.1446e-19  4.1199e-24  1.1446e-19  4.1251e-24  1.1446e-19  4.1344e-24  1.1447e-19  4.1508e-24  1.1448e-19  4.1801e-24  1.1450e-19  4.2323e-24  1.1454e-19  4.3251e-24  1.1461e-19  4.4903e-24  1.1474e-19  4.8574e-24  1.1691e-19  5.4304e-24  1.1848e-19  6.4052e-24  1.1987e-19  8.1301e-24  1.2155e-19  1.1245e-23  1.2407e-19  1.6976e-23  1.2829e-19  2.7792e-23  1.3565e-19  4.8982e-23  1.4867e-19
      7.20  4.1133e-24  1.2842e-19  4.1141e-24  1.2842e-19  4.1156e-24  1.2842e-19  4.1183e-24  1.2842e-19  4.1231e-24  1.2843e-19  4.1316e-24  1.2843e-19  4.1468e-24  1.2845e-19  4.1738e-24  1.2847e-19  4.2218e-24  1.2852e-19  4.3071e-24  1.2860e-19  4.4591e-24  1.2874e-19  4.7991e-24  1.3106e-19  5.3315e-24  1.3288e-19  6.2318e-24  1.3446e-19  7.8207e-24  1.3636e-19  1.0686e-23  1.3919e-19  1.5949e-23  1.4394e-19  2.5855e-23  1.5220e-19  4.5169e-23  1.6681e-19
      7.25  4.1123e-24  1.4409e-19  4.1131e-24  1.4409e-19  4.1145e-24  1.4409e-19  4.1170e-24  1.4409e-19  4.1214e-24  1.4410e-19  4.1293e-24  1.4411e-19  4.1432e-24  1.4412e-19  4.1681e-24  1.4415e-19  4.2124e-24  1.4420e-19  4.2911e-24  1.4429e-19  4.4313e-24  1.4444e-19  4.7463e-24  1.4692e-19  5.2428e-24  1.4901e-19  6.0765e-24  1.5083e-19  7.5441e-24  1.5297e-19  1.0187e-23  1.5616e-19  1.5034e-23  1.6149e-19  2.4138e-23  1.7077e-19  4.1817e-23  1.8716e-19
      7.30  4.1114e-24  1.6167e-19  4.1122e-24  1.6167e-19  4.1135e-24  1.6167e-19  4.1158e-24  1.6167e-19  4.1199e-24  1.6168e-19  4.1271e-24  1.6169e-19  4.1401e-24  1.6171e-19  4.1631e-24  1.6174e-19  4.2040e-24  1.6179e-19  4.2768e-24  1.6189e-19  4.4064e-24  1.6207e-19  4.6982e-24  1.6469e-19  5.1625e-24  1.6710e-19  5.9365e-24  1.6918e-19  7.2952e-24  1.7161e-19  9.7384e-24  1.7520e-19  1.4214e-23  1.8119e-19  2.2605e-23  1.9161e-19  3.8848e-23  2.1000e-19
      7.35  4.1107e-24  1.8139e-19  4.1114e-24  1.8139e-19  4.1126e-24  1.8140e-19  4.1147e-24  1.8140e-19  4.1185e-24  1.8141e-19  4.1252e-24  1.8142e-19  4.1372e-24  1.8144e-19  4.1585e-24  1.8147e-19  4.1964e-24  1.8153e-19  4.2638e-24  1.8164e-19  4.3838e-24  1.8184e-19  4.6538e-24  1.8459e-19  5.0893e-24  1.8738e-19  5.8093e-24  1.8976e-19  7.0692e-24  1.9251e-19  9.3320e-24  1.9656e-19  1.3473e-23  2.0329e-19  2.1225e-23  2.1498e-19  3.6194e-23  2.3563e-19
      7.40  4.1101e-24  2.0352e-19  4.1107e-24  2.0353e-19  4.1118e-24  2.0353e-19  4.1138e-24  2.0353e-19  4.1173e-24  2.0354e-19  4.1235e-24  2.0355e-19  4.1346e-24  2.0357e-19  4.1544e-24  2.0361e-19  4.1895e-24  2.0368e-19  4.2520e-24  2.0381e-19  4.3632e-24  2.0403e-19  4.6123e-24  2.0686e-19  5.0217e-24  2.1010e-19  5.6925e-24  2.1283e-19  6.8623e-24  2.1595e-19  8.9602e-24  2.2052e-19  1.2797e-23  2.2808e-19  1.9970e-23  2.4121e-19  3.3796e-23  2.6438e-19
      7.45  4.1095e-24  2.2836e-19  4.1101e-24  2.2836e-19  4.1111e-24  2.2836e-19  4.1129e-24  2.2837e-19  4.1162e-24  2.2837e-19  4.1220e-24  2.2839e-19  4.1323e-24  2.2841e-19  4.1506e-24  2.2846e-19  4.1831e-24  2.2854e-19  4.2410e-24  2.2868e-19  4.3442e-24  2.2892e-19  4.5731e-24  2.3180e-19  4.9588e-24  2.3557e-19  5.5842e-24  2.3870e-19  6.6708e-24  2.4225e-19  8.6169e-24  2.4740e-19  1.2173e-23  2.5589e-19  1.8818e-23  2.7064e-19  3.1606e-23  2.9664e-19
      7.50  4.1090e-24  2.5622e-19  4.1095e-24  2.5622e-19  4.1105e-24  2.5622e-19  4.1122e-24  2.5623e-19  4.1152e-24  2.5624e-19  4.1206e-24  2.5625e-19  4.1301e-24  2.5628e-19  4.1471e-24  2.5633e-19  4.1772e-24  2.5642e-19  4.2309e-24  2.5658e-19  4.3265e-24  2.5686e-19  4.5355e-24  2.5970e-19  4.8995e-24  2.6409e-19  5.4829e-24  2.6770e-19  6.4922e-24  2.7174e-19  8.2969e-24  2.7754e-19  1.1593e-23  2.8710e-19  1.7748e-23  3.0365e-19  2.9584e-23  3.3284e-19
      7.55  4.1086e-24  2.8748e-19  4.1091e-24  2.8748e-19  4.1099e-24  2.8749e-19  4.1115e-24  2.8749e-19  4.1143e-24  2.8750e-19  4.1193e-24  2.8752e-19  4.1281e-24  2.8755e-19  4.1438e-24  2.8761e-19  4.1717e-24  2.8771e-19  4.2215e-24  2.8788e-19  4.3099e-24  2.8820e-19  4.4991e-24  2.9090e-19  4.8432e-24  2.9603e-19  5.3875e-24  3.0021e-19  6.3243e-24  3.0480e-19  7.9967e-24  3.1136e-19  1.1049e-23  3.2210e-19  1.6747e-23  3.4069e-19  2.7700e-23  3.7346e-19
      7.60  4.1082e-24  3.2256e-19  4.1086e-24  3.2256e-19  4.1095e-24  3.2257e-19  4.1109e-24  3.2257e-19  4.1135e-24  3.2258e-19  4.1181e-24  3.2260e-19  4.1262e-24  3.2264e-19  4.1408e-24  3.2270e-19  4.1666e-24  3.2281e-19  4.2125e-24  3.2301e-19  4.2943e-24  3.2336e-19  4.4632e-24  3.2576e-19  4.7892e-24  3.3179e-19  5.2968e-24  3.3663e-19  6.1653e-24  3.4188e-19  7.7127e-24  3.4929e-19  1.0535e-23  3.6137e-19  1.5803e-23  3.8225e-19  2.5928e-23  4.1903e-19
      7.65  4.1079e-24  3.6192e-19  4.1083e-24  3.6192e-19  4.1090e-24  3.6192e-19  4.1104e-24  3.6193e-19  4.1127e-24  3.6194e-19  4.1170e-24  3.6196e-19  4.1245e-24  3.6200e-19  4.1379e-24  3.6207e-19  4.1617e-24  3.6220e-19  4.2041e-24  3.6242e-19  4.2795e-24  3.6282e-19  4.4275e-24  3.6469e-19  4.7368e-24  3.7180e-19  5.2100e-24  3.7744e-19  6.0139e-24  3.8344e-19  7.4425e-24  3.9182e-19  1.0047e-23  4.0542e-19  1.4906e-23  4.2887e-19  2.4247e-23  4.7015e-19
      7.70  4.1076e-24  4.0608e-19  4.1079e-24  4.0608e-19  4.1086e-24  4.0608e-19  4.1099e-24  4.0609e-19  4.1121e-24  4.0611e-19  4.1160e-24  4.0613e-19  4.1229e-24  4.0617e-19  4.1352e-24  4.0625e-19  4.1571e-24  4.0639e-19  4.1960e-24  4.0664e-19  4.2654e-24  4.0709e-19  4.3916e-24  4.0813e-19  4.6859e-24  4.1656e-19  5.1267e-24  4.2315e-19  5.8691e-24  4.3003e-19  7.1848e-24  4.3952e-19  9.5807e-24  4.5483e-19  1.4051e-23  4.8118e-19  2.2645e-23  5.2752e-19
      7.75  4.1073e-24  4.5562e-19  4.1077e-24  4.5563e-19  4.1083e-24  4.5563e-19  4.1094e-24  4.5564e-19  4.1114e-24  4.5566e-19  4.1150e-24  4.5568e-19  4.1213e-24  4.5573e-19  4.1326e-24  4.5582e-19  4.1527e-24  4.5598e-19  4.1884e-24  4.5626e-19  4.2520e-24  4.5676e-19  4.3652e-24  4.5764e-19  4.6360e-24  4.6658e-19  5.0465e-24  4.7432e-19  5.7308e-24  4.8225e-19  6.9389e-24  4.9301e-19  9.1363e-24  5.1025e-19  1.3236e-23  5.3985e-19  2.1116e-23  5.9188e-19
      7.80  4.1071e-24  5.1122e-19  4.1074e-24  5.1122e-19  4.1080e-24  5.1123e-19  4.1090e-24  5.1124e-19  4.1108e-24  5.1125e-19  4.1141e-24  5.1128e-19  4.1199e-24  5.1134e-19  4.1302e-24  5.1144e-19  4.1485e-24  5.1162e-19  4.1812e-24  5.1193e-19  4.2392e-24  5.1249e-19  4.3427e-24  5.1348e-19  4.5871e-24  5.2247e-19  4.9695e-24  5.3160e-19  5.5988e-24  5.4075e-19  6.7049e-24  5.5297e-19  8.7136e-24  5.7241e-19  1.2459e-23  6.0568e-19  1.9659e-23  6.6409e-19
      7.85  4.1069e-24  5.7359e-19  4.1072e-24  5.7360e-19  4.1077e-24  5.7360e-19  4.1086e-24  5.7361e-19  4.1103e-24  5.7363e-19  4.1133e-24  5.7367e-19  4.1186e-24  5.7373e-19  4.1279e-24  5.7384e-19  4.1446e-24  5.7404e-19  4.1743e-24  5.7439e-19  4.2272e-24  5.7502e-19  4.3214e-24  5.7613e-19  4.5391e-24  5.8485e-19  4.8957e-24  5.9568e-19  5.4736e-24  6.0629e-19  6.4835e-24  6.2020e-19  8.3140e-24  6.4212e-19  1.1725e-23  6.7951e-19  1.8278e-23  7.4510e-19
      7.90  4.1067e-24  6.4358e-19  4.1070e-24  6.4359e-19  4.1075e-24  6.4359e-19  4.1083e-24  6.4360e-19  4.1098e-24  6.4363e-19  4.1125e-24  6.4367e-19  4.1173e-24  6.4374e-19  4.1258e-24  6.4386e-19  4.1410e-24  6.4408e-19  4.1680e-24  6.4448e-19  4.2160e-24  6.4518e-19  4.3015e-24  6.4643e-19  4.4918e-24  6.5442e-19  4.8252e-24  6.6734e-19  5.3553e-24  6.7968e-19  6.2751e-24  6.9554e-19  7.9381e-24  7.2029e-19  1.1033e-23  7.6233e-19  1.6976e-23  8.3598e-19
      7.95  4.1065e-24  7.2211e-19  4.1068e-24  7.2211e-19  4.1072e-24  7.2212e-19  4.1080e-24  7.2213e-19  4.1094e-24  7.2216e-19  4.1118e-24  7.2220e-19  4.1161e-24  7.2228e-19  4.1239e-24  7.2242e-19  4.1376e-24  7.2267e-19  4.1620e-24  7.2312e-19  4.2055e-24  7.2391e-19  4.2829e-24  7.2531e-19  4.4451e-24  7.3194e-19  4.7579e-24  7.4742e-19  5.2442e-24  7.6185e-19  6.0805e-24  7.7998e-19  7.5873e-24  8.0794e-19  1.0388e-23  8.5522e-19  1.5759e-23  9.3793e-19
      8.00  4.1064e-24  8.1022e-19  4.1066e-24  8.1022e-19  4.1070e-24  8.1023e-19  4.1077e-24  8.1025e-19  4.1090e-24  8.1027e-19  4.1112e-24  8.1032e-19  4.1151e-24  8.1041e-19  4.1221e-24  8.1057e-19  4.1345e-24  8.1085e-19  4.1565e-24  8.1135e-19  4.1958e-24  8.1223e-19  4.2657e-24  8.1381e-19  4.3989e-24  8.1823e-19  4.6940e-24  8.3688e-19  5.1405e-24  8.5382e-19  5.8999e-24  8.7459e-19  7.2626e-24  9.0620e-19  9.7901e-24  9.5941e-19  1.4631e-23  1.0523e-18
      8.05  4.1063e-24  9.0908e-19  4.1065e-24  9.0908e-19  4.1069e-24  9.0909e-19  4.1075e-24  9.0911e-19  4.1086e-24  9.0914e-19  4.1106e-24  9.0920e-19  4.1141e-24  9.0930e-19  4.1204e-24  9.0947e-19  4.1316e-24  9.0979e-19  4.1515e-24  9.1035e-19  4.1869e-24  9.1134e-19  4.2500e-24  9.1311e-19  4.3626e-24  9.1625e-19  4.6333e-24  9.3674e-19  5.0443e-24  9.5671e-19  5.7338e-24  9.8057e-19  6.9645e-24  1.0164e-18  9.2416e-24  1.0762e-18  1.3595e-23  1.1806e-18
      8.10  4.1062e-24  1.0200e-18  4.1064e-24  1.0200e-18  4.1067e-24  1.0200e-18  4.1073e-24  1.0200e-18  4.1083e-24  1.0201e-18  4.1101e-24  1.0201e-18  4.1132e-24  1.0202e-18  4.1189e-24  1.0204e-18  4.1290e-24  1.0208e-18  4.1469e-24  1.0214e-18  4.1788e-24  1.0225e-18  4.2357e-24  1.0245e-18  4.3371e-24  1.0280e-18  4.5757e-24  1.0481e-18  4.9554e-24  1.0718e-18  5.5819e-24  1.0993e-18  6.6929e-24  1.1398e-18  8.7425e-24  1.2073e-18  1.2652e-23  1.3245e-18
      8.15  4.1061e-24  1.1445e-18  4.1063e-24  1.1445e-18  4.1066e-24  1.1445e-18  4.1071e-24  1.1445e-18  4.1080e-24  1.1445e-18  4.1096e-24  1.1446e-18  4.1125e-24  1.1447e-18  4.1176e-24  1.1450e-18  4.1267e-24  1.1454e-18  4.1428e-24  1.1461e-18  4.1716e-24  1.1473e-18  4.2228e-24  1.1495e-18  4.3142e-24  1.1535e-18  4.5208e-24  1.1723e-18  4.8735e-24  1.2004e-18  5.4439e-24  1.2322e-18  6.4474e-24  1.2782e-18  8.2919e-24  1.3542e-18  1.1801e-23  1.4859e-18
      8.20  4.1060e-24  1.2841e-18  4.1062e-24  1.2841e-18  4.1064e-24  1.2841e-18  4.1069e-24  1.2841e-18  4.1077e-24  1.2842e-18  4.1092e-24  1.2843e-18  4.1118e-24  1.2844e-18  4.1164e-24  1.2847e-18  4.1246e-24  1.2851e-18  4.1391e-24  1.2859e-18  4.1651e-24  1.2873e-18  4.2113e-24  1.2898e-18  4.2936e-24  1.2942e-18  4.4683e-24  1.3105e-18  4.7981e-24  1.3441e-18  5.3190e-24  1.3809e-18  6.2266e-24  1.4333e-18  7.8874e-24  1.5189e-18  1.1037e-23  1.6670e-18
      8.25  4.1060e-24  1.4408e-18  4.1061e-24  1.4408e-18  4.1063e-24  1.4408e-18  4.1067e-24  1.4408e-18  4.1075e-24  1.4409e-18  4.1088e-24  1.4410e-18  4.1111e-24  1.4411e-18  4.1153e-24  1.4414e-18  4.1227e-24  1.4419e-18  4.1358e-24  1.4428e-18  4.1592e-24  1.4444e-18  4.2009e-24  1.4472e-18  4.2753e-24  1.4522e-18  4.4176e-24  1.4643e-18  4.7286e-24  1.5045e-18  5.2063e-24  1.5474e-18  6.0287e-24  1.6070e-18  7.5262e-24  1.7036e-18  1.0357e-23  1.8700e-18
      8.30  4.1059e-24  1.6166e-18  4.1060e-24  1.6166e-18  4.1062e-24  1.6166e-18  4.1066e-24  1.6166e-18  4.1073e-24  1.6167e-18  4.1085e-24  1.6168e-18  4.1106e-24  1.6170e-18  4.1143e-24  1.6173e-18  4.1210e-24  1.6178e-18  4.1329e-24  1.6188e-18  4.1541e-24  1.6206e-18  4.1918e-24  1.6238e-18  4.2590e-24  1.6293e-18  4.3790e-24  1.6393e-18  4.6643e-24  1.6836e-18  5.1046e-24  1.7336e-18  5.8521e-24  1.8016e-18  7.2048e-24  1.9106e-18  9.7519e-24  2.0977e-18
      8.35  4.1059e-24  1.8138e-18  4.1060e-24  1.8138e-18  4.1062e-24  1.8139e-18  4.1065e-24  1.8139e-18  4.1071e-24  1.8140e-18  4.1082e-24  1.8141e-18  4.1101e-24  1.8143e-18  4.1135e-24  1.8146e-18  4.1196e-24  1.8152e-18  4.1303e-24  1.8164e-18  4.1495e-24  1.8183e-18  4.1836e-24  1.8219e-18  4.2445e-24  1.8281e-18  4.3533e-24  1.8393e-18  4.6044e-24  1.8832e-18  5.0128e-24  1.9418e-18  5.6946e-24  2.0195e-18  6.9197e-24  2.1427e-18  9.2169e-24  2.3530e-18
      8.40  4.1058e-24  2.0351e-18  4.1059e-24  2.0352e-18  4.1061e-24  2.0352e-18  4.1064e-24  2.0352e-18  4.1069e-24  2.0353e-18  4.1079e-24  2.0354e-18  4.1097e-24  2.0356e-18  4.1128e-24  2.0360e-18  4.1183e-24  2.0367e-18  4.1280e-24  2.0380e-18  4.1455e-24  2.0402e-18  4.1765e-24  2.0442e-18  4.2317e-24  2.0512e-18  4.3305e-24  2.0637e-18  4.5482e-24  2.1057e-18  4.9298e-24  2.1745e-18  5.5545e-24  2.2635e-18  6.6674e-24  2.4027e-18  8.7446e-24  2.6394e-18
      8.45  4.1058e-24  2.2835e-18  4.1059e-24  2.2835e-18  4.1060e-24  2.2835e-18  4.1063e-24  2.2836e-18  4.1068e-24  2.2836e-18  4.1077e-24  2.2838e-18  4.1093e-24  2.2840e-18  4.1121e-24  2.2845e-18  4.1171e-24  2.2853e-18  4.1260e-24  2.2867e-18  4.1419e-24  2.2892e-18  4.1701e-24  2.2936e-18  4.2205e-24  2.3015e-18  4.3104e-24  2.3155e-18  4.4949e-24  2.3533e-18  4.8544e-24  2.4344e-18  5.4296e-24  2.5366e-18  6.4444e-24  2.6941e-18  8.3284e-24  2.9604e-18
      8.50  4.1057e-24  2.5621e-18  4.1058e-24  2.5621e-18  4.1060e-24  2.5621e-18  4.1062e-24  2.5622e-18  4.1067e-24  2.5623e-18  4.1075e-24  2.5624e-18  4.1089e-24  2.5627e-18  4.1115e-24  2.5632e-18  4.1161e-24  2.5641e-18  4.1242e-24  2.5657e-18  4.1387e-24  2.5685e-18  4.1646e-24  2.5735e-18  4.2106e-24  2.5823e-18  4.2927e-24  2.5981e-18  4.4437e-24  2.6285e-18  4.7855e-24  2.7246e-18  5.3182e-24  2.8421e-18  6.2471e-24  3.0205e-18  7.9619e-24  3.3203e-18
