# This was generated using Cloudy10 and the columns are ordered 
# as log10 of the fraction of the metallicity to the solar metallicity
# 'h_*_Z' and 'c_*_Z' stands for cooling and heating respectively 
# at * metalicity
#
# NOTE: This was generated separately from loop_coolingcurve_w_UV.py
#       using Output_metals_w_redshift.py.
#
# Redshift = 3.0
# hden = -8.5
#
#     temp   h_-3.00_Z   c_-3.00_Z   h_-2.75_Z   c_-2.75_Z   h_-2.50_Z   c_-2.50_Z   h_-2.25_Z   c_-2.25_Z   h_-2.00_Z   c_-2.00_Z   h_-1.75_Z   c_-1.75_Z   h_-1.50_Z   c_-1.50_Z   h_-1.25_Z   c_-1.25_Z   h_-1.00_Z   c_-1.00_Z   h_-0.75_Z   c_-0.75_Z   h_-0.50_Z   c_-0.50_Z   h_-0.25_Z   c_-0.25_Z    h_0.00_Z    c_0.00_Z    h_0.25_Z    c_0.25_Z    h_0.50_Z    c_0.50_Z    h_0.75_Z    c_0.75_Z    h_1.00_Z    c_1.00_Z    h_1.25_Z    c_1.25_Z    h_1.50_Z    c_1.50_Z 
      4.00  4.8182e-22  5.0600e-21  4.8196e-22  5.0601e-21  4.8219e-22  5.0601e-21  4.8262e-22  5.0602e-21  4.8337e-22  5.0604e-21  4.8471e-22  5.0607e-21  4.8709e-22  5.0612e-21  4.9133e-22  5.0622e-21  4.9886e-22  5.0640e-21  5.1227e-22  5.0671e-21  5.3616e-22  5.0726e-21  5.7872e-22  5.0824e-21  6.5473e-22  5.0998e-21  7.9090e-22  5.1308e-21  1.0362e-21  5.1859e-21  1.4826e-21  5.2839e-21  2.3085e-21  5.4582e-21  3.8813e-21  5.7681e-21  7.0189e-21  6.3680e-21
      4.05  4.8115e-22  5.6774e-21  4.8127e-22  5.6774e-21  4.8150e-22  5.6775e-21  4.8190e-22  5.6776e-21  4.8261e-22  5.6778e-21  4.8388e-22  5.6781e-21  4.8613e-22  5.6787e-21  4.9014e-22  5.6798e-21  4.9728e-22  5.6818e-21  5.0997e-22  5.6853e-21  5.3257e-22  5.6914e-21  5.7285e-22  5.7024e-21  6.4478e-22  5.7220e-21  7.7365e-22  5.7568e-21  1.0058e-21  5.8186e-21  1.4283e-21  5.9286e-21  2.2097e-21  6.1242e-21  3.6968e-21  6.4719e-21  6.6583e-21  7.1283e-21
      4.10  4.8052e-22  6.3700e-21  4.8064e-22  6.3701e-21  4.8086e-22  6.3701e-21  4.8124e-22  6.3702e-21  4.8191e-22  6.3705e-21  4.8311e-22  6.3709e-21  4.8524e-22  6.3716e-21  4.8904e-22  6.3728e-21  4.9579e-22  6.3750e-21  5.0780e-22  6.3789e-21  5.2920e-22  6.3858e-21  5.6733e-22  6.3982e-21  6.3543e-22  6.4201e-21  7.5744e-22  6.4591e-21  9.7726e-22  6.5286e-21  1.3772e-21  6.6520e-21  2.1170e-21  6.8714e-21  3.5239e-21  7.2616e-21  6.3211e-21  7.9779e-21
      4.15  4.7994e-22  7.1472e-21  4.8006e-22  7.1472e-21  4.8026e-22  7.1473e-21  4.8062e-22  7.1474e-21  4.8126e-22  7.1477e-21  4.8239e-22  7.1481e-21  4.8441e-22  7.1489e-21  4.8800e-22  7.1503e-21  4.9440e-22  7.1528e-21  5.0577e-22  7.1571e-21  5.2603e-22  7.1649e-21  5.6214e-22  7.1788e-21  6.2662e-22  7.2034e-21  7.4214e-22  7.2472e-21  9.5031e-22  7.3251e-21  1.3291e-21  7.4636e-21  2.0297e-21  7.7098e-21  3.3616e-21  8.1477e-21  6.0053e-21  8.9297e-21
      4.20  4.7940e-22  8.0192e-21  4.7951e-22  8.0192e-21  4.7970e-22  8.0193e-21  4.8004e-22  8.0195e-21  4.8065e-22  8.0197e-21  4.8172e-22  8.0202e-21  4.8364e-22  8.0211e-21  4.8704e-22  8.0227e-21  4.9309e-22  8.0254e-21  5.0386e-22  8.0303e-21  5.2304e-22  8.0391e-21  5.5723e-22  8.0546e-21  6.1829e-22  8.0823e-21  7.2768e-22  8.1314e-21  9.2481e-22  8.2188e-21  1.2835e-21  8.3742e-21  1.9472e-21  8.6506e-21  3.2087e-21  9.1419e-21  5.7107e-21  1.0015e-20
      4.25  4.7890e-22  8.9976e-21  4.7901e-22  8.9976e-21  4.7919e-22  8.9977e-21  4.7951e-22  8.9979e-21  4.8008e-22  8.9982e-21  4.8110e-22  8.9988e-21  4.8291e-22  8.9997e-21  4.8613e-22  9.0015e-21  4.9186e-22  9.0046e-21  5.0206e-22  9.0101e-21  5.2022e-22  9.0199e-21  5.5258e-22  9.0373e-21  6.1039e-22  9.0684e-21  7.1397e-22  9.1235e-21  9.0062e-22  9.2216e-21  1.2403e-21  9.3960e-21  1.8689e-21  9.7061e-21  3.0637e-21  1.0257e-20  5.4327e-21  1.1238e-20
      4.30  4.7844e-22  1.0095e-20  4.7854e-22  1.0095e-20  4.7871e-22  1.0095e-20  4.7901e-22  1.0096e-20  4.7955e-22  1.0096e-20  4.8052e-22  1.0097e-20  4.8223e-22  1.0098e-20  4.8528e-22  1.0100e-20  4.9070e-22  1.0103e-20  5.0035e-22  1.0109e-20  5.1754e-22  1.0120e-20  5.4817e-22  1.0140e-20  6.0288e-22  1.0175e-20  7.0092e-22  1.0237e-20  8.7760e-22  1.0347e-20  1.1992e-21  1.0542e-20  1.7943e-21  1.0890e-20  2.9258e-21  1.1509e-20  5.1686e-21  1.2609e-20
      4.35  4.7801e-22  1.1327e-20  4.7810e-22  1.1327e-20  4.7826e-22  1.1327e-20  4.7855e-22  1.1327e-20  4.7907e-22  1.1328e-20  4.7998e-22  1.1329e-20  4.8160e-22  1.1330e-20  4.8448e-22  1.1332e-20  4.8961e-22  1.1336e-20  4.9874e-22  1.1343e-20  5.1500e-22  1.1355e-20  5.4398e-22  1.1377e-20  5.9574e-22  1.1416e-20  6.8848e-22  1.1486e-20  8.5565e-22  1.1609e-20  1.1600e-21  1.1829e-20  1.7232e-21  1.2219e-20  2.7943e-21  1.2913e-20  4.9174e-21  1.4148e-20
      4.40  4.7761e-22  1.2709e-20  4.7770e-22  1.2709e-20  4.7785e-22  1.2709e-20  4.7813e-22  1.2709e-20  4.7861e-22  1.2710e-20  4.7947e-22  1.2711e-20  4.8100e-22  1.2712e-20  4.8373e-22  1.2715e-20  4.8858e-22  1.2719e-20  4.9721e-22  1.2727e-20  5.1258e-22  1.2741e-20  5.3998e-22  1.2765e-20  5.8892e-22  1.2809e-20  6.7662e-22  1.2887e-20  8.3470e-22  1.3026e-20  1.1225e-21  1.3272e-20  1.6553e-21  1.3710e-20  2.6686e-21  1.4489e-20  4.6774e-21  1.5874e-20
      4.45  4.7724e-22  1.4260e-20  4.7733e-22  1.4260e-20  4.7747e-22  1.4260e-20  4.7773e-22  1.4260e-20  4.7819e-22  1.4261e-20  4.7900e-22  1.4262e-20  4.8045e-22  1.4263e-20  4.8302e-22  1.4266e-20  4.8761e-22  1.4271e-20  4.9576e-22  1.4280e-20  5.1029e-22  1.4295e-20  5.3618e-22  1.4323e-20  5.8243e-22  1.4372e-20  6.6530e-22  1.4459e-20  8.1469e-22  1.4615e-20  1.0867e-21  1.4891e-20  1.5903e-21  1.5383e-20  2.5485e-21  1.6257e-20  4.4479e-21  1.7812e-20
      4.50  4.7690e-22  1.5999e-20  4.7698e-22  1.6000e-20  4.7712e-22  1.6000e-20  4.7736e-22  1.6000e-20  4.7779e-22  1.6001e-20  4.7856e-22  1.6002e-20  4.7993e-22  1.6003e-20  4.8236e-22  1.6006e-20  4.8669e-22  1.6012e-20  4.9439e-22  1.6022e-20  5.0811e-22  1.6039e-20  5.3256e-22  1.6070e-20  5.7624e-22  1.6125e-20  6.5451e-22  1.6224e-20  7.9561e-22  1.6398e-20  1.0525e-21  1.6708e-20  1.5283e-21  1.7260e-20  2.4336e-21  1.8241e-20  4.2286e-21  1.9985e-20
      4.55  4.7659e-22  1.7952e-20  4.7666e-22  1.7952e-20  4.7679e-22  1.7952e-20  4.7702e-22  1.7952e-20  4.7743e-22  1.7953e-20  4.7815e-22  1.7954e-20  4.7944e-22  1.7956e-20  4.8174e-22  1.7959e-20  4.8582e-22  1.7966e-20  4.9310e-22  1.7977e-20  5.0604e-22  1.7996e-20  5.2912e-22  1.8031e-20  5.7035e-22  1.8093e-20  6.4423e-22  1.8203e-20  7.7743e-22  1.8399e-20  1.0200e-21  1.8747e-20  1.4692e-21  1.9366e-20  2.3241e-21  2.0467e-20  4.0193e-21  2.2424e-20
      4.60  4.7629e-22  2.0142e-20  4.7636e-22  2.0142e-20  4.7648e-22  2.0142e-20  4.7670e-22  2.0143e-20  4.7709e-22  2.0143e-20  4.7777e-22  2.0145e-20  4.7899e-22  2.0147e-20  4.8115e-22  2.0151e-20  4.8501e-22  2.0158e-20  4.9187e-22  2.0170e-20  5.0408e-22  2.0192e-20  5.2586e-22  2.0231e-20  5.6475e-22  2.0301e-20  6.3446e-22  2.0424e-20  7.6012e-22  2.0644e-20  9.8897e-22  2.1035e-20  1.4128e-21  2.1729e-20  2.2196e-21  2.2965e-20  3.8197e-21  2.5161e-20
      4.65  4.7602e-22  2.2599e-20  4.7609e-22  2.2600e-20  4.7620e-22  2.2600e-20  4.7641e-22  2.2600e-20  4.7677e-22  2.2601e-20  4.7741e-22  2.2602e-20  4.7856e-22  2.2605e-20  4.8061e-22  2.2609e-20  4.8424e-22  2.2617e-20  4.9071e-22  2.2631e-20  5.0223e-22  2.2656e-20  5.2276e-22  2.2699e-20  5.5944e-22  2.2777e-20  6.2517e-22  2.2916e-20  7.4368e-22  2.3163e-20  9.5951e-22  2.3601e-20  1.3593e-21  2.4381e-20  2.1203e-21  2.5767e-20  3.6298e-21  2.8232e-20
      4.70  4.7577e-22  2.5357e-20  4.7583e-22  2.5357e-20  4.7594e-22  2.5357e-20  4.7613e-22  2.5358e-20  4.7648e-22  2.5359e-20  4.7708e-22  2.5360e-20  4.7817e-22  2.5363e-20  4.8009e-22  2.5368e-20  4.8352e-22  2.5377e-20  4.8962e-22  2.5392e-20  5.0047e-22  2.5420e-20  5.1983e-22  2.5469e-20  5.5440e-22  2.5557e-20  6.1637e-22  2.5712e-20  7.2808e-22  2.5989e-20  9.3154e-22  2.6481e-20  1.3084e-21  2.7356e-20  2.0260e-21  2.8912e-20  3.4493e-21  3.1677e-20
      4.75  4.7554e-22  2.8451e-20  4.7560e-22  2.8451e-20  4.7570e-22  2.8451e-20  4.7588e-22  2.8452e-20  4.7620e-22  2.8453e-20  4.7678e-22  2.8454e-20  4.7780e-22  2.8458e-20  4.7961e-22  2.8463e-20  4.8284e-22  2.8473e-20  4.8859e-22  2.8490e-20  4.9882e-22  2.8521e-20  5.1706e-22  2.8577e-20  5.4963e-22  2.8675e-20  6.0802e-22  2.8849e-20  7.1329e-22  2.9160e-20  9.0502e-22  2.9712e-20  1.2602e-21  3.0694e-20  1.9365e-21  3.2440e-20  3.2780e-21  3.5543e-20
      4.80  4.7533e-22  3.1922e-20  4.7538e-22  3.1922e-20  4.7548e-22  3.1923e-20  4.7565e-22  3.1923e-20  4.7595e-22  3.1924e-20  4.7649e-22  3.1926e-20  4.7745e-22  3.1930e-20  4.7916e-22  3.1936e-20  4.8220e-22  3.1947e-20  4.8761e-22  3.1967e-20  4.9725e-22  3.2001e-20  5.1443e-22  3.2063e-20  5.4512e-22  3.2174e-20  6.0013e-22  3.2370e-20  6.9929e-22  3.2718e-20  8.7991e-22  3.3338e-20  1.2145e-21  3.4439e-20  1.8517e-21  3.6398e-20  3.1157e-21  3.9881e-20
      4.85  4.7513e-22  3.5817e-20  4.7518e-22  3.5817e-20  4.7527e-22  3.5818e-20  4.7543e-22  3.5818e-20  4.7572e-22  3.5819e-20  4.7623e-22  3.5822e-20  4.7713e-22  3.5826e-20  4.7874e-22  3.5833e-20  4.8160e-22  3.5845e-20  4.8670e-22  3.5867e-20  4.9578e-22  3.5906e-20  5.1196e-22  3.5976e-20  5.4086e-22  3.6099e-20  5.9266e-22  3.6319e-20  6.8605e-22  3.6710e-20  8.5615e-22  3.7405e-20  1.1713e-21  3.8642e-20  1.7714e-21  4.0840e-20  2.9620e-21  4.4748e-20
      4.90  4.7495e-22  4.0187e-20  4.7499e-22  4.0187e-20  4.7508e-22  4.0188e-20  4.7523e-22  4.0189e-20  4.7550e-22  4.0190e-20  4.7598e-22  4.0192e-20  4.7683e-22  4.0197e-20  4.7835e-22  4.0205e-20  4.8104e-22  4.0218e-20  4.8584e-22  4.0243e-20  4.9439e-22  4.0287e-20  5.0962e-22  4.0365e-20  5.3683e-22  4.0504e-20  5.8560e-22  4.0751e-20  6.7353e-22  4.1189e-20  8.3368e-22  4.1970e-20  1.1304e-21  4.3357e-20  1.6955e-21  4.5824e-20  2.8166e-21  5.0209e-20
      4.95  4.7478e-22  4.5091e-20  4.7482e-22  4.5091e-20  4.7490e-22  4.5091e-20  4.7505e-22  4.5092e-20  4.7530e-22  4.5094e-20  4.7575e-22  4.5096e-20  4.7655e-22  4.5101e-20  4.7798e-22  4.5110e-20  4.8052e-22  4.5126e-20  4.8503e-22  4.5153e-20  4.9308e-22  4.5203e-20  5.0741e-22  4.5290e-20  5.3303e-22  4.5446e-20  5.7893e-22  4.5723e-20  6.6170e-22  4.6215e-20  8.1245e-22  4.7091e-20  1.0918e-21  4.8648e-20  1.6237e-21  5.1416e-20  2.6792e-21  5.6337e-20
      5.00  4.7462e-22  5.0592e-20  4.7466e-22  5.0593e-20  4.7474e-22  5.0593e-20  4.7487e-22  5.0594e-20  4.7511e-22  5.0596e-20  4.7554e-22  5.0599e-20  4.7629e-22  5.0604e-20  4.7763e-22  5.0614e-20  4.8002e-22  5.0632e-20  4.8427e-22  5.0663e-20  4.9184e-22  5.0718e-20  5.0534e-22  5.0816e-20  5.2944e-22  5.0991e-20  5.7264e-22  5.1302e-20  6.5053e-22  5.1854e-20  7.9240e-22  5.2837e-20  1.0553e-21  5.4584e-20  1.5559e-21  5.7690e-20  2.5493e-21  6.3212e-20
      5.05  4.7448e-22  5.6765e-20  4.7452e-22  5.6766e-20  4.7459e-22  5.6766e-20  4.7472e-22  5.6767e-20  4.7494e-22  5.6769e-20  4.7534e-22  5.6773e-20  4.7605e-22  5.6779e-20  4.7731e-22  5.6790e-20  4.7956e-22  5.6810e-20  4.8356e-22  5.6844e-20  4.9068e-22  5.6906e-20  5.0338e-22  5.7017e-20  5.2606e-22  5.7213e-20  5.6670e-22  5.7561e-20  6.3999e-22  5.8181e-20  7.7348e-22  5.9284e-20  1.0208e-21  6.1244e-20  1.4919e-21  6.4730e-20  2.4267e-21  7.0927e-20
      5.10  4.7435e-22  6.3691e-20  4.7438e-22  6.3692e-20  4.7445e-22  6.3693e-20  4.7457e-22  6.3694e-20  4.7478e-22  6.3696e-20  4.7516e-22  6.3700e-20  4.7582e-22  6.3707e-20  4.7701e-22  6.3719e-20  4.7913e-22  6.3741e-20  4.8289e-22  6.3780e-20  4.8959e-22  6.3850e-20  5.0153e-22  6.3974e-20  5.2287e-22  6.4194e-20  5.6110e-22  6.4585e-20  6.3005e-22  6.5281e-20  7.5563e-22  6.6518e-20  9.8832e-22  6.8717e-20  1.4315e-21  7.2629e-20  2.3109e-21  7.9583e-20
      5.15  4.7423e-22  7.1463e-20  4.7426e-22  7.1463e-20  4.7432e-22  7.1464e-20  4.7444e-22  7.1465e-20  4.7463e-22  7.1468e-20  4.7499e-22  7.1472e-20  4.7562e-22  7.1480e-20  4.7673e-22  7.1494e-20  4.7872e-22  7.1519e-20  4.8226e-22  7.1563e-20  4.8856e-22  7.1641e-20  4.9980e-22  7.1779e-20  5.1986e-22  7.2026e-20  5.5583e-22  7.2465e-20  6.2068e-22  7.3246e-20  7.3879e-22  7.4634e-20  9.5765e-22  7.7103e-20  1.3745e-21  8.1492e-20  2.2017e-21  8.9295e-20
      5.20  4.7411e-22  8.0182e-20  4.7415e-22  8.0183e-20  4.7421e-22  8.0184e-20  4.7431e-22  8.0185e-20  4.7450e-22  8.0188e-20  4.7483e-22  8.0193e-20  4.7542e-22  8.0202e-20  4.7647e-22  8.0217e-20  4.7834e-22  8.0245e-20  4.8167e-22  8.0294e-20  4.8760e-22  8.0382e-20  4.9816e-22  8.0538e-20  5.1703e-22  8.0815e-20  5.5086e-22  8.1307e-20  6.1184e-22  8.2183e-20  7.2293e-22  8.3741e-20  9.2875e-22  8.6511e-20  1.3207e-21  9.1436e-20  2.0987e-21  1.0019e-19
      5.25  4.7401e-22  8.9966e-20  4.7404e-22  8.9966e-20  4.7410e-22  8.9967e-20  4.7420e-22  8.9969e-20  4.7437e-22  8.9972e-20  4.7468e-22  8.9978e-20  4.7524e-22  8.9988e-20  4.7623e-22  9.0005e-20  4.7799e-22  9.0036e-20  4.8112e-22  9.0091e-20  4.8669e-22  9.0190e-20  4.9663e-22  9.0365e-20  5.1437e-22  9.0675e-20  5.4618e-22  9.1228e-20  6.0353e-22  9.2211e-20  7.0798e-22  9.3959e-20  9.0151e-22  9.7067e-20  1.2701e-21  1.0259e-19  2.0015e-21  1.1242e-19
      5.30  4.7392e-22  1.0094e-19  4.7395e-22  1.0094e-19  4.7400e-22  1.0094e-19  4.7409e-22  1.0095e-19  4.7426e-22  1.0095e-19  4.7455e-22  1.0096e-19  4.7507e-22  1.0097e-19  4.7600e-22  1.0099e-19  4.7766e-22  1.0102e-19  4.8060e-22  1.0108e-19  4.8584e-22  1.0119e-19  4.9518e-22  1.0139e-19  5.1187e-22  1.0174e-19  5.4178e-22  1.0236e-19  5.9570e-22  1.0346e-19  6.9391e-22  1.0542e-19  8.7586e-22  1.0891e-19  1.2224e-21  1.1511e-19  1.9100e-21  1.2614e-19
      5.35  4.7383e-22  1.1326e-19  4.7386e-22  1.1326e-19  4.7391e-22  1.1326e-19  4.7399e-22  1.1326e-19  4.7415e-22  1.1327e-19  4.7443e-22  1.1327e-19  4.7492e-22  1.1329e-19  4.7579e-22  1.1331e-19  4.7735e-22  1.1335e-19  4.8011e-22  1.1342e-19  4.8504e-22  1.1354e-19  4.9382e-22  1.1376e-19  5.0952e-22  1.1415e-19  5.3764e-22  1.1485e-19  5.8833e-22  1.1609e-19  6.8067e-22  1.1829e-19  8.5172e-22  1.2220e-19  1.1774e-21  1.2916e-19  1.8237e-21  1.4153e-19
      5.40  4.7375e-22  1.2708e-19  4.7378e-22  1.2708e-19  4.7382e-22  1.2708e-19  4.7390e-22  1.2708e-19  4.7405e-22  1.2709e-19  4.7431e-22  1.2710e-19  4.7477e-22  1.2711e-19  4.7559e-22  1.2713e-19  4.7706e-22  1.2718e-19  4.7966e-22  1.2726e-19  4.8429e-22  1.2740e-19  4.9255e-22  1.2764e-19  5.0730e-22  1.2808e-19  5.3374e-22  1.2886e-19  5.8141e-22  1.3025e-19  6.6821e-22  1.3272e-19  8.2901e-22  1.3711e-19  1.1351e-21  1.4492e-19  1.7425e-21  1.5880e-19
      5.45  4.7368e-22  1.4259e-19  4.7370e-22  1.4259e-19  4.7375e-22  1.4259e-19  4.7382e-22  1.4259e-19  4.7396e-22  1.4260e-19  4.7420e-22  1.4260e-19  4.7464e-22  1.4262e-19  4.7541e-22  1.4265e-19  4.7679e-22  1.4270e-19  4.7923e-22  1.4278e-19  4.8359e-22  1.4294e-19  4.9136e-22  1.4322e-19  5.0523e-22  1.4371e-19  5.3009e-22  1.4459e-19  5.7490e-22  1.4614e-19  6.5650e-22  1.4892e-19  8.0765e-22  1.5384e-19  1.0953e-21  1.6261e-19  1.6660e-21  1.7818e-19
      5.50  4.7361e-22  1.5998e-19  4.7363e-22  1.5998e-19  4.7367e-22  1.5999e-19  4.7375e-22  1.5999e-19  4.7388e-22  1.5999e-19  4.7411e-22  1.6000e-19  4.7451e-22  1.6002e-19  4.7524e-22  1.6005e-19  4.7653e-22  1.6011e-19  4.7883e-22  1.6021e-19  4.8293e-22  1.6038e-19  4.9023e-22  1.6069e-19  5.0328e-22  1.6125e-19  5.2665e-22  1.6223e-19  5.6879e-22  1.6398e-19  6.4550e-22  1.6709e-19  7.8758e-22  1.7262e-19  1.0580e-21  1.8245e-19  1.5941e-21  1.9993e-19
      5.55  4.7355e-22  1.7950e-19  4.7357e-22  1.7950e-19  4.7361e-22  1.7951e-19  4.7368e-22  1.7951e-19  4.7380e-22  1.7952e-19  4.7402e-22  1.7953e-19  4.7440e-22  1.7955e-19  4.7508e-22  1.7958e-19  4.7630e-22  1.7964e-19  4.7846e-22  1.7975e-19  4.8231e-22  1.7995e-19  4.8918e-22  1.8030e-19  5.0145e-22  1.8092e-19  5.2343e-22  1.8202e-19  5.6305e-22  1.8399e-19  6.3518e-22  1.8747e-19  7.6873e-22  1.9368e-19  1.0228e-21  2.0471e-19  1.5265e-21  2.2433e-19
      5.60  4.7349e-22  2.0141e-19  4.7351e-22  2.0141e-19  4.7355e-22  2.0141e-19  4.7361e-22  2.0141e-19  4.7373e-22  2.0142e-19  4.7393e-22  2.0143e-19  4.7429e-22  2.0145e-19  4.7494e-22  2.0149e-19  4.7608e-22  2.0156e-19  4.7811e-22  2.0169e-19  4.8174e-22  2.0191e-19  4.8820e-22  2.0230e-19  4.9973e-22  2.0300e-19  5.2041e-22  2.0423e-19  5.5767e-22  2.0644e-19  6.2549e-22  2.1035e-19  7.5104e-22  2.1731e-19  9.8984e-22  2.2969e-19  1.4630e-21  2.5170e-19
      5.65  4.7344e-22  2.2598e-19  4.7346e-22  2.2598e-19  4.7350e-22  2.2598e-19  4.7356e-22  2.2599e-19  4.7366e-22  2.2600e-19  4.7386e-22  2.2601e-19  4.7420e-22  2.2604e-19  4.7480e-22  2.2608e-19  4.7588e-22  2.2616e-19  4.7779e-22  2.2630e-19  4.8120e-22  2.2654e-19  4.8728e-22  2.2698e-19  4.9813e-22  2.2776e-19  5.1757e-22  2.2915e-19  5.5262e-22  2.3162e-19  6.1640e-22  2.3602e-19  7.3445e-22  2.4383e-19  9.5889e-22  2.5772e-19  1.4034e-21  2.8242e-19
      5.70  4.7340e-22  2.5355e-19  4.7342e-22  2.5356e-19  4.7345e-22  2.5356e-19  4.7350e-22  2.5356e-19  4.7361e-22  2.5357e-19  4.7378e-22  2.5359e-19  4.7410e-22  2.5362e-19  4.7467e-22  2.5367e-19  4.7569e-22  2.5375e-19  4.7749e-22  2.5391e-19  4.8070e-22  2.5419e-19  4.8641e-22  2.5468e-19  4.9662e-22  2.5556e-19  5.1492e-22  2.5711e-19  5.4789e-22  2.5989e-19  6.0789e-22  2.6482e-19  7.1890e-22  2.7358e-19  9.2987e-22  2.8917e-19  1.3475e-21  3.1688e-19
      5.75  4.7335e-22  2.8449e-19  4.7337e-22  2.8449e-19  4.7340e-22  2.8450e-19  4.7346e-22  2.8450e-19  4.7355e-22  2.8451e-19  4.7372e-22  2.8453e-19  4.7402e-22  2.8456e-19  4.7456e-22  2.8462e-19  4.7551e-22  2.8472e-19  4.7720e-22  2.8489e-19  4.8022e-22  2.8520e-19  4.8561e-22  2.8575e-19  4.9522e-22  2.8674e-19  5.1244e-22  2.8849e-19  5.4346e-22  2.9160e-19  5.9991e-22  2.9713e-19  7.0432e-22  3.0697e-19  9.0266e-22  3.2446e-19  1.2950e-21  3.5555e-19
      5.80  4.7332e-22  3.1921e-19  4.7333e-22  3.1921e-19  4.7336e-22  3.1921e-19  4.7341e-22  3.1922e-19  4.7350e-22  3.1923e-19  4.7366e-22  3.1925e-19  4.7394e-22  3.1928e-19  4.7445e-22  3.1935e-19  4.7535e-22  3.1946e-19  4.7694e-22  3.1965e-19  4.7978e-22  3.2000e-19  4.8485e-22  3.2062e-19  4.9390e-22  3.2173e-19  5.1011e-22  3.2369e-19  5.3932e-22  3.2718e-19  5.9245e-22  3.3338e-19  6.9068e-22  3.4442e-19  8.7718e-22  3.6405e-19  1.2459e-21  3.9894e-19
      5.85  4.7328e-22  3.5815e-19  4.7330e-22  3.5816e-19  4.7332e-22  3.5816e-19  4.7337e-22  3.5817e-19  4.7346e-22  3.5818e-19  4.7361e-22  3.5820e-19  4.7387e-22  3.5824e-19  4.7435e-22  3.5831e-19  4.7519e-22  3.5843e-19  4.7670e-22  3.5865e-19  4.7937e-22  3.5905e-19  4.8415e-22  3.5974e-19  4.9267e-22  3.6098e-19  5.0794e-22  3.6318e-19  5.3544e-22  3.6710e-19  5.8546e-22  3.7406e-19  6.7791e-22  3.8645e-19  8.5333e-22  4.0847e-19  1.1998e-21  4.4762e-19
      5.90  4.7325e-22  4.0186e-19  4.7326e-22  4.0186e-19  4.7329e-22  4.0186e-19  4.7333e-22  4.0187e-19  4.7341e-22  4.0188e-19  4.7355e-22  4.0191e-19  4.7381e-22  4.0195e-19  4.7425e-22  4.0203e-19  4.7505e-22  4.0217e-19  4.7647e-22  4.0242e-19  4.7899e-22  4.0286e-19  4.8349e-22  4.0364e-19  4.9152e-22  4.0503e-19  5.0591e-22  4.0750e-19  5.3182e-22  4.1189e-19  5.7893e-22  4.1971e-19  6.6597e-22  4.3360e-19  8.3102e-22  4.5831e-19  1.1567e-21  5.0225e-19
      5.95  4.7322e-22  4.5089e-19  4.7323e-22  4.5089e-19  4.7326e-22  4.5090e-19  4.7330e-22  4.5091e-19  4.7338e-22  4.5092e-19  4.7351e-22  4.5095e-19  4.7375e-22  4.5100e-19  4.7417e-22  4.5109e-19  4.7492e-22  4.5124e-19  4.7626e-22  4.5152e-19  4.7864e-22  4.5201e-19  4.8288e-22  4.5289e-19  4.9045e-22  4.5445e-19  5.0401e-22  4.5722e-19  5.2844e-22  4.6215e-19  5.7283e-22  4.7092e-19  6.5481e-22  4.8651e-19  8.1015e-22  5.1424e-19  1.1164e-21  5.6354e-19
      6.00  4.7320e-22  5.0591e-19  4.7321e-22  5.0591e-19  4.7323e-22  5.0591e-19  4.7327e-22  5.0592e-19  4.7334e-22  5.0594e-19  4.7347e-22  5.0597e-19  4.7369e-22  5.0603e-19  4.7409e-22  5.0613e-19  4.7480e-22  5.0630e-19  4.7606e-22  5.0661e-19  4.7830e-22  5.0717e-19  4.8230e-22  5.0815e-19  4.8945e-22  5.0990e-19  5.0224e-22  5.1301e-19  5.2527e-22  5.1854e-19  5.6713e-22  5.2838e-19  6.4438e-22  5.4588e-19  7.9065e-22  5.7699e-19  1.0787e-21  6.3230e-19
      6.05  4.7317e-22  5.6763e-19  4.7318e-22  5.6764e-19  4.7320e-22  5.6764e-19  4.7324e-22  5.6766e-19  4.7331e-22  5.6768e-19  4.7343e-22  5.6771e-19  4.7364e-22  5.6777e-19  4.7402e-22  5.6788e-19  4.7468e-22  5.6808e-19  4.7587e-22  5.6843e-19  4.7799e-22  5.6905e-19  4.8177e-22  5.7015e-19  4.8851e-22  5.7212e-19  5.0059e-22  5.7561e-19  5.2232e-22  5.8182e-19  5.6181e-22  5.9285e-19  6.3464e-22  6.1249e-19  7.7244e-22  6.4739e-19  1.0435e-21  7.0946e-19
      6.10  4.7315e-22  6.3690e-19  4.7316e-22  6.3690e-19  4.7318e-22  6.3691e-19  4.7322e-22  6.3692e-19  4.7328e-22  6.3694e-19  4.7339e-22  6.3698e-19  4.7359e-22  6.3705e-19  4.7395e-22  6.3717e-19  4.7458e-22  6.3739e-19  4.7570e-22  6.3779e-19  4.7771e-22  6.3848e-19  4.8127e-22  6.3972e-19  4.8764e-22  6.4192e-19  4.9905e-22  6.4584e-19  5.1959e-22  6.5281e-19  5.5684e-22  6.6519e-19  6.2556e-22  6.8722e-19  7.5544e-22  7.2639e-19  1.0106e-21  7.9604e-19
      6.15  4.7313e-22  7.1461e-19  4.7314e-22  7.1461e-19  4.7316e-22  7.1462e-19  4.7319e-22  7.1464e-19  4.7325e-22  7.1466e-19  4.7336e-22  7.1470e-19  4.7355e-22  7.1478e-19  4.7388e-22  7.1492e-19  4.7448e-22  7.1517e-19  4.7555e-22  7.1561e-19  4.7744e-22  7.1639e-19  4.8081e-22  7.1778e-19  4.8683e-22  7.2025e-19  4.9761e-22  7.2465e-19  5.1702e-22  7.3246e-19  5.5221e-22  7.4636e-19  6.1708e-22  7.7108e-19  7.3958e-22  8.1503e-19  9.7986e-22  8.9317e-19
      6.20  4.7311e-22  8.0180e-19  4.7312e-22  8.0181e-19  4.7314e-22  8.0182e-19  4.7317e-22  8.0183e-19  4.7323e-22  8.0186e-19  4.7333e-22  8.0191e-19  4.7351e-22  8.0200e-19  4.7383e-22  8.0215e-19  4.7439e-22  8.0243e-19  4.7540e-22  8.0293e-19  4.7719e-22  8.0380e-19  4.8038e-22  8.0536e-19  4.8608e-22  8.0813e-19  4.9627e-22  8.1307e-19  5.1461e-22  8.2184e-19  5.4791e-22  8.3743e-19  6.0918e-22  8.6516e-19  7.2478e-22  9.1448e-19  9.5120e-22  1.0022e-18
      6.25  4.7310e-22  8.9964e-19  4.7311e-22  8.9964e-19  4.7312e-22  8.9965e-19  4.7316e-22  8.9967e-19  4.7321e-22  8.9970e-19  4.7330e-22  8.9976e-19  4.7347e-22  8.9986e-19  4.7377e-22  9.0003e-19  4.7431e-22  9.0034e-19  4.7526e-22  9.0090e-19  4.7696e-22  9.0188e-19  4.7998e-22  9.0363e-19  4.8537e-22  9.0674e-19  4.9502e-22  9.1228e-19  5.1238e-22  9.2212e-19  5.4387e-22  9.3961e-19  6.0181e-22  9.7073e-19  7.1099e-22  1.0261e-18  9.2449e-22  1.1245e-18
      6.30  4.7308e-22  1.0094e-18  4.7309e-22  1.0094e-18  4.7311e-22  1.0094e-18  4.7314e-22  1.0094e-18  4.7319e-22  1.0095e-18  4.7328e-22  1.0095e-18  4.7344e-22  1.0097e-18  4.7372e-22  1.0099e-18  4.7423e-22  1.0102e-18  4.7513e-22  1.0108e-18  4.7674e-22  1.0119e-18  4.7961e-22  1.0139e-18  4.8472e-22  1.0174e-18  4.9386e-22  1.0236e-18  5.1031e-22  1.0346e-18  5.4013e-22  1.0543e-18  5.9495e-22  1.0892e-18  6.9815e-22  1.1513e-18  8.9959e-22  1.2617e-18
      6.35  4.7307e-22  1.1326e-18  4.7308e-22  1.1326e-18  4.7310e-22  1.1326e-18  4.7312e-22  1.1326e-18  4.7317e-22  1.1327e-18  4.7326e-22  1.1327e-18  4.7341e-22  1.1329e-18  4.7368e-22  1.1331e-18  4.7416e-22  1.1335e-18  4.7502e-22  1.1342e-18  4.7654e-22  1.1354e-18  4.7926e-22  1.1376e-18  4.8411e-22  1.1415e-18  4.9278e-22  1.1485e-18  5.0838e-22  1.1609e-18  5.3664e-22  1.1829e-18  5.8857e-22  1.2221e-18  6.8619e-22  1.2917e-18  8.7640e-22  1.4156e-18
      6.40  4.7306e-22  1.2708e-18  4.7307e-22  1.2708e-18  4.7308e-22  1.2708e-18  4.7311e-22  1.2708e-18  4.7316e-22  1.2709e-18  4.7324e-22  1.2709e-18  4.7338e-22  1.2711e-18  4.7364e-22  1.2713e-18  4.7410e-22  1.2718e-18  4.7491e-22  1.2725e-18  4.7636e-22  1.2739e-18  4.7894e-22  1.2764e-18  4.8354e-22  1.2808e-18  4.9178e-22  1.2886e-18  5.0658e-22  1.3025e-18  5.3340e-22  1.3272e-18  5.8263e-22  1.3712e-18  6.7506e-22  1.4494e-18  8.5481e-22  1.5884e-18
      6.45  4.7305e-22  1.4258e-18  4.7306e-22  1.4258e-18  4.7307e-22  1.4259e-18  4.7310e-22  1.4259e-18  4.7314e-22  1.4259e-18  4.7322e-22  1.4260e-18  4.7336e-22  1.4262e-18  4.7360e-22  1.4265e-18  4.7403e-22  1.4269e-18  4.7481e-22  1.4278e-18  4.7619e-22  1.4294e-18  4.7864e-22  1.4322e-18  4.8302e-22  1.4371e-18  4.9085e-22  1.4459e-18  5.0491e-22  1.4615e-18  5.3038e-22  1.4892e-18  5.7710e-22  1.5385e-18  6.6470e-22  1.6262e-18  8.3471e-22  1.7822e-18
      6.50  4.7304e-22  1.5998e-18  4.7305e-22  1.5998e-18  4.7306e-22  1.5998e-18  4.7309e-22  1.5999e-18  4.7313e-22  1.5999e-18  4.7320e-22  1.6000e-18  4.7333e-22  1.6002e-18  4.7356e-22  1.6005e-18  4.7398e-22  1.6011e-18  4.7471e-22  1.6020e-18  4.7603e-22  1.6038e-18  4.7836e-22  1.6069e-18  4.8253e-22  1.6124e-18  4.8998e-22  1.6223e-18  5.0336e-22  1.6398e-18  5.2758e-22  1.6709e-18  5.7196e-22  1.7262e-18  6.5507e-22  1.8247e-18  8.1602e-22  1.9997e-18
      6.55  4.7303e-22  1.7950e-18  4.7304e-22  1.7950e-18  4.7305e-22  1.7950e-18  4.7308e-22  1.7951e-18  4.7312e-22  1.7951e-18  4.7319e-22  1.7953e-18  4.7331e-22  1.7954e-18  4.7353e-22  1.7958e-18  4.7393e-22  1.7964e-18  4.7463e-22  1.7975e-18  4.7588e-22  1.7995e-18  4.7810e-22  1.8030e-18  4.8207e-22  1.8092e-18  4.8917e-22  1.8202e-18  5.0192e-22  1.8399e-18  5.2497e-22  1.8748e-18  5.6719e-22  1.9369e-18  6.4613e-22  2.0473e-18  7.9865e-22  2.2437e-18
      6.60  4.7303e-22  2.0140e-18  4.7303e-22  2.0140e-18  4.7305e-22  2.0141e-18  4.7307e-22  2.0141e-18  4.7310e-22  2.0142e-18  4.7317e-22  2.0143e-18  4.7329e-22  2.0145e-18  4.7350e-22  2.0149e-18  4.7388e-22  2.0156e-18  4.7455e-22  2.0169e-18  4.7574e-22  2.0191e-18  4.7786e-22  2.0230e-18  4.8165e-22  2.0299e-18  4.8843e-22  2.0423e-18  5.0058e-22  2.0644e-18  5.2255e-22  2.1035e-18  5.6276e-22  2.1732e-18  6.3781e-22  2.2971e-18  7.8251e-22  2.5174e-18
      6.65  4.7302e-22  2.2598e-18  4.7303e-22  2.2598e-18  4.7304e-22  2.2598e-18  4.7306e-22  2.2599e-18  4.7309e-22  2.2599e-18  4.7316e-22  2.2601e-18  4.7327e-22  2.2603e-18  4.7347e-22  2.2608e-18  4.7383e-22  2.2616e-18  4.7447e-22  2.2629e-18  4.7561e-22  2.2654e-18  4.7764e-22  2.2698e-18  4.8126e-22  2.2776e-18  4.8773e-22  2.2915e-18  4.9934e-22  2.3163e-18  5.2031e-22  2.3602e-18  5.5864e-22  2.4384e-18  6.3010e-22  2.5774e-18  7.6752e-22  2.8246e-18
      6.70  4.7302e-22  2.5355e-18  4.7302e-22  2.5355e-18  4.7303e-22  2.5356e-18  4.7305e-22  2.5356e-18  4.7309e-22  2.5357e-18  4.7315e-22  2.5359e-18  4.7326e-22  2.5361e-18  4.7345e-22  2.5366e-18  4.7379e-22  2.5375e-18  4.7441e-22  2.5391e-18  4.7550e-22  2.5418e-18  4.7744e-22  2.5468e-18  4.8090e-22  2.5555e-18  4.8709e-22  2.5711e-18  4.9819e-22  2.5989e-18  5.1823e-22  2.6482e-18  5.5482e-22  2.7359e-18  6.2293e-22  2.8919e-18  7.5361e-22  3.1693e-18
      6.75  4.7301e-22  2.8449e-18  4.7302e-22  2.8449e-18  4.7303e-22  2.8449e-18  4.7305e-22  2.8450e-18  4.7308e-22  2.8451e-18  4.7314e-22  2.8453e-18  4.7324e-22  2.8456e-18  4.7343e-22  2.8461e-18  4.7376e-22  2.8471e-18  4.7434e-22  2.8489e-18  4.7539e-22  2.8520e-18  4.7725e-22  2.8575e-18  4.8056e-22  2.8674e-18  4.8649e-22  2.8849e-18  4.9712e-22  2.9160e-18  5.1629e-22  2.9713e-18  5.5128e-22  3.0698e-18  6.1629e-22  3.2448e-18  7.4070e-22  3.5560e-18
      6.80  4.7301e-22  3.1920e-18  4.7301e-22  3.1921e-18  4.7302e-22  3.1921e-18  4.7304e-22  3.1921e-18  4.7307e-22  3.1923e-18  4.7313e-22  3.1925e-18  4.7323e-22  3.1928e-18  4.7341e-22  3.1934e-18  4.7372e-22  3.1945e-18  4.7429e-22  3.1965e-18  4.7529e-22  3.2000e-18  4.7707e-22  3.2062e-18  4.8025e-22  3.2172e-18  4.8594e-22  3.2369e-18  4.9613e-22  3.2718e-18  5.1450e-22  3.3339e-18  5.4800e-22  3.4443e-18  6.1013e-22  3.6407e-18  7.2873e-22  3.9899e-18
      6.85  4.7300e-22  3.5815e-18  4.7301e-22  3.5815e-18  4.7302e-22  3.5816e-18  4.7303e-22  3.5816e-18  4.7306e-22  3.5818e-18  4.7312e-22  3.5820e-18  4.7321e-22  3.5824e-18  4.7339e-22  3.5831e-18  4.7369e-22  3.5843e-18  4.7423e-22  3.5865e-18  4.7519e-22  3.5904e-18  4.7691e-22  3.5974e-18  4.7997e-22  3.6098e-18  4.8543e-22  3.6318e-18  4.9521e-22  3.6710e-18  5.1285e-22  3.7407e-18  5.4496e-22  3.8646e-18  6.0442e-22  4.0850e-18  7.1763e-22  4.4768e-18
      6.90  4.7300e-22  4.0185e-18  4.7300e-22  4.0186e-18  4.7301e-22  4.0186e-18  4.7303e-22  4.0187e-18  4.7306e-22  4.0188e-18  4.7311e-22  4.0191e-18  4.7320e-22  4.0195e-18  4.7337e-22  4.0203e-18  4.7366e-22  4.0217e-18  4.7418e-22  4.0241e-18  4.7511e-22  4.0285e-18  4.7676e-22  4.0364e-18  4.7970e-22  4.0503e-18  4.8495e-22  4.0750e-18  4.9436e-22  4.1190e-18  5.1131e-22  4.1971e-18  5.4214e-22  4.3362e-18  5.9914e-22  4.5834e-18  7.0736e-22  5.0230e-18
      6.95  4.7300e-22  4.5089e-18  4.7300e-22  4.5089e-18  4.7301e-22  4.5089e-18  4.7303e-22  4.5090e-18  4.7305e-22  4.5092e-18  4.7310e-22  4.5095e-18  4.7319e-22  4.5100e-18  4.7335e-22  4.5108e-18  4.7363e-22  4.5124e-18  4.7414e-22  4.5152e-18  4.7503e-22  4.5201e-18  4.7662e-22  4.5289e-18  4.7945e-22  4.5445e-18  4.8451e-22  4.5722e-18  4.9358e-22  4.6215e-18  5.0989e-22  4.7093e-18  5.3953e-22  4.8653e-18  5.9424e-22  5.1427e-18  6.9784e-22  5.6359e-18
      7.00  4.7299e-22  5.0590e-18  4.7300e-22  5.0591e-18  4.7301e-22  5.0591e-18  4.7302e-22  5.0592e-18  4.7305e-22  5.0594e-18  4.7310e-22  5.0597e-18  4.7318e-22  5.0602e-18  4.7334e-22  5.0612e-18  4.7361e-22  5.0630e-18  4.7409e-22  5.0661e-18  4.7496e-22  5.0716e-18  4.7649e-22  5.0815e-18  4.7923e-22  5.0990e-18  4.8411e-22  5.1301e-18  4.9285e-22  5.1855e-18  5.0857e-22  5.2839e-18  5.3712e-22  5.4589e-18  5.8972e-22  5.7702e-18  6.8904e-22  6.3237e-18
      7.05  4.7299e-22  5.6763e-18  4.7300e-22  5.6764e-18  4.7300e-22  5.6764e-18  4.7302e-22  5.6765e-18  4.7305e-22  5.6767e-18  4.7309e-22  5.6771e-18  4.7318e-22  5.6777e-18  4.7332e-22  5.6788e-18  4.7359e-22  5.6808e-18  4.7405e-22  5.6843e-18  4.7489e-22  5.6905e-18  4.7637e-22  5.7015e-18  4.7902e-22  5.7211e-18  4.8373e-22  5.7561e-18  4.9218e-22  5.8182e-18  5.0736e-22  5.9286e-18  5.3489e-22  6.1250e-18  5.8553e-22  6.4742e-18  6.8090e-22  7.0953e-18
      7.10  4.7299e-22  6.3689e-18  4.7299e-22  6.3690e-18  4.7300e-22  6.3690e-18  4.7302e-22  6.3692e-18  4.7304e-22  6.3694e-18  4.7309e-22  6.3698e-18  4.7317e-22  6.3705e-18  4.7331e-22  6.3717e-18  4.7357e-22  6.3739e-18  4.7402e-22  6.3778e-18  4.7483e-22  6.3848e-18  4.7626e-22  6.3972e-18  4.7882e-22  6.4192e-18  4.8339e-22  6.4584e-18  4.9156e-22  6.5281e-18  5.0624e-22  6.6520e-18  5.3283e-22  6.8724e-18  5.8167e-22  7.2642e-18  6.7338e-22  7.9610e-18
      7.15  4.7299e-22  7.1461e-18  4.7299e-22  7.1461e-18  4.7300e-22  7.1462e-18  4.7301e-22  7.1463e-18  4.7304e-22  7.1466e-18  4.7308e-22  7.1470e-18  4.7316e-22  7.1478e-18  4.7330e-22  7.1492e-18  4.7355e-22  7.1517e-18  4.7399e-22  7.1560e-18  4.7477e-22  7.1639e-18  4.7616e-22  7.1778e-18  4.7864e-22  7.2025e-18  4.8307e-22  7.2465e-18  4.9098e-22  7.3247e-18  5.0520e-22  7.4637e-18  5.3093e-22  7.7109e-18  5.7809e-22  8.1506e-18  6.6643e-22  8.9325e-18
      7.20  4.7299e-22  8.0180e-18  4.7299e-22  8.0181e-18  4.7300e-22  8.0181e-18  4.7301e-22  8.0183e-18  4.7303e-22  8.0186e-18  4.7308e-22  8.0191e-18  4.7315e-22  8.0200e-18  4.7329e-22  8.0215e-18  4.7353e-22  8.0243e-18  4.7396e-22  8.0292e-18  4.7472e-22  8.0380e-18  4.7607e-22  8.0536e-18  4.7848e-22  8.0813e-18  4.8277e-22  8.1307e-18  4.9045e-22  8.2184e-18  5.0424e-22  8.3744e-18  5.2917e-22  8.6518e-18  5.7480e-22  9.1451e-18  6.6001e-22  1.0022e-17
      7.25  4.7298e-22  8.9964e-18  4.7299e-22  8.9964e-18  4.7300e-22  8.9965e-18  4.7301e-22  8.9967e-18  4.7303e-22  8.9970e-18  4.7307e-22  8.9975e-18  4.7315e-22  8.9985e-18  4.7328e-22  9.0003e-18  4.7351e-22  9.0034e-18  4.7393e-22  9.0089e-18  4.7467e-22  9.0188e-18  4.7598e-22  9.0363e-18  4.7832e-22  9.0674e-18  4.8250e-22  9.1228e-18  4.8997e-22  9.2212e-18  5.0336e-22  9.3962e-18  5.2755e-22  9.7075e-18  5.7175e-22  1.0261e-17  6.5409e-22  1.1245e-17
      7.30  4.7298e-22  1.0094e-17  4.7299e-22  1.0094e-17  4.7299e-22  1.0094e-17  4.7301e-22  1.0094e-17  4.7303e-22  1.0095e-17  4.7307e-22  1.0095e-17  4.7314e-22  1.0097e-17  4.7327e-22  1.0098e-17  4.7350e-22  1.0102e-17  4.7390e-22  1.0108e-17  4.7462e-22  1.0119e-17  4.7590e-22  1.0139e-17  4.7818e-22  1.0174e-17  4.8225e-22  1.0236e-17  4.8952e-22  1.0346e-17  5.0255e-22  1.0543e-17  5.2606e-22  1.0892e-17  5.6895e-22  1.1513e-17  6.4864e-22  1.2617e-17
      7.35  4.7298e-22  1.1326e-17  4.7299e-22  1.1326e-17  4.7299e-22  1.1326e-17  4.7301e-22  1.1326e-17  4.7303e-22  1.1327e-17  4.7307e-22  1.1327e-17  4.7314e-22  1.1328e-17  4.7326e-22  1.1331e-17  4.7348e-22  1.1335e-17  4.7388e-22  1.1342e-17  4.7458e-22  1.1354e-17  4.7583e-22  1.1376e-17  4.7805e-22  1.1415e-17  4.8202e-22  1.1485e-17  4.8910e-22  1.1609e-17  5.0180e-22  1.1829e-17  5.2468e-22  1.2221e-17  5.6637e-22  1.2918e-17  6.4361e-22  1.4157e-17
      7.40  4.7298e-22  1.2708e-17  4.7298e-22  1.2708e-17  4.7299e-22  1.2708e-17  4.7300e-22  1.2708e-17  4.7303e-22  1.2709e-17  4.7306e-22  1.2709e-17  4.7313e-22  1.2711e-17  4.7325e-22  1.2713e-17  4.7347e-22  1.2718e-17  4.7386e-22  1.2725e-17  4.7454e-22  1.2739e-17  4.7576e-22  1.2764e-17  4.7793e-22  1.2808e-17  4.8181e-22  1.2886e-17  4.8872e-22  1.3025e-17  5.0111e-22  1.3273e-17  5.2341e-22  1.3712e-17  5.6399e-22  1.4494e-17  6.3897e-22  1.5885e-17
      7.45  4.7298e-22  1.4258e-17  4.7298e-22  1.4258e-17  4.7299e-22  1.4259e-17  4.7300e-22  1.4259e-17  4.7302e-22  1.4259e-17  4.7306e-22  1.4260e-17  4.7313e-22  1.4262e-17  4.7325e-22  1.4264e-17  4.7346e-22  1.4269e-17  4.7384e-22  1.4278e-17  4.7451e-22  1.4294e-17  4.7570e-22  1.4322e-17  4.7782e-22  1.4371e-17  4.8161e-22  1.4459e-17  4.8837e-22  1.4615e-17  5.0047e-22  1.4892e-17  5.2225e-22  1.5385e-17  5.6179e-22  1.6263e-17  6.3471e-22  1.7823e-17
      7.50  4.7298e-22  1.5998e-17  4.7298e-22  1.5998e-17  4.7299e-22  1.5998e-17  4.7300e-22  1.5999e-17  4.7302e-22  1.5999e-17  4.7306e-22  1.6000e-17  4.7312e-22  1.6002e-17  4.7324e-22  1.6005e-17  4.7345e-22  1.6011e-17  4.7382e-22  1.6020e-17  4.7447e-22  1.6038e-17  4.7564e-22  1.6069e-17  4.7772e-22  1.6124e-17  4.8143e-22  1.6223e-17  4.8805e-22  1.6398e-17  4.9989e-22  1.6709e-17  5.2117e-22  1.7263e-17  5.5978e-22  1.8247e-17  6.3078e-22  1.9997e-17
      7.55  4.7298e-22  1.7950e-17  4.7298e-22  1.7950e-17  4.7299e-22  1.7950e-17  4.7300e-22  1.7951e-17  4.7302e-22  1.7951e-17  4.7306e-22  1.7952e-17  4.7312e-22  1.7954e-17  4.7324e-22  1.7958e-17  4.7344e-22  1.7964e-17  4.7380e-22  1.7975e-17  4.7445e-22  1.7995e-17  4.7559e-22  1.8030e-17  4.7763e-22  1.8092e-17  4.8127e-22  1.8202e-17  4.8775e-22  1.8399e-17  4.9935e-22  1.8748e-17  5.2019e-22  1.9369e-17  5.5793e-22  2.0474e-17  6.2718e-22  2.2438e-17
      7.60  4.7298e-22  2.0140e-17  4.7298e-22  2.0140e-17  4.7299e-22  2.0141e-17  4.7300e-22  2.0141e-17  4.7302e-22  2.0142e-17  4.7305e-22  2.0143e-17  4.7312e-22  2.0145e-17  4.7323e-22  2.0149e-17  4.7343e-22  2.0156e-17  4.7379e-22  2.0168e-17  4.7442e-22  2.0191e-17  4.7554e-22  2.0230e-17  4.7755e-22  2.0299e-17  4.8111e-22  2.0423e-17  4.8748e-22  2.0644e-17  4.9886e-22  2.1036e-17  5.1928e-22  2.1732e-17  5.5623e-22  2.2972e-17  6.2386e-22  2.5175e-17
      7.65  4.7298e-22  2.2598e-17  4.7298e-22  2.2598e-17  4.7299e-22  2.2598e-17  4.7300e-22  2.2599e-17  4.7302e-22  2.2599e-17  4.7305e-22  2.2601e-17  4.7312e-22  2.2603e-17  4.7323e-22  2.2608e-17  4.7342e-22  2.2615e-17  4.7377e-22  2.2629e-17  4.7439e-22  2.2654e-17  4.7550e-22  2.2698e-17  4.7747e-22  2.2776e-17  4.8097e-22  2.2915e-17  4.8723e-22  2.3163e-17  4.9840e-22  2.3602e-17  5.1845e-22  2.4384e-17  5.5466e-22  2.5775e-17  6.2082e-22  2.8247e-17
      7.70  4.7298e-22  2.5355e-17  4.7298e-22  2.5355e-17  4.7299e-22  2.5356e-17  4.7300e-22  2.5356e-17  4.7302e-22  2.5357e-17  4.7305e-22  2.5359e-17  4.7311e-22  2.5361e-17  4.7322e-22  2.5366e-17  4.7341e-22  2.5375e-17  4.7376e-22  2.5391e-17  4.7437e-22  2.5418e-17  4.7546e-22  2.5468e-17  4.7740e-22  2.5555e-17  4.8085e-22  2.5711e-17  4.8700e-22  2.5989e-17  4.9799e-22  2.6482e-17  5.1769e-22  2.7360e-17  5.5323e-22  2.8920e-17  6.1804e-22  3.1694e-17
      7.75  4.7298e-22  2.8449e-17  4.7298e-22  2.8449e-17  4.7299e-22  2.8449e-17  4.7300e-22  2.8450e-17  4.7302e-22  2.8451e-17  4.7305e-22  2.8453e-17  4.7311e-22  2.8456e-17  4.7322e-22  2.8461e-17  4.7341e-22  2.8471e-17  4.7375e-22  2.8489e-17  4.7435e-22  2.8520e-17  4.7542e-22  2.8575e-17  4.7733e-22  2.8674e-17  4.8073e-22  2.8849e-17  4.8679e-22  2.9160e-17  4.9761e-22  2.9714e-17  5.1699e-22  3.0698e-17  5.5192e-22  3.2448e-17  6.1549e-22  3.5561e-17
      7.80  4.7298e-22  3.1920e-17  4.7298e-22  3.1920e-17  4.7299e-22  3.1921e-17  4.7300e-22  3.1921e-17  4.7302e-22  3.1923e-17  4.7305e-22  3.1924e-17  4.7311e-22  3.1928e-17  4.7321e-22  3.1934e-17  4.7340e-22  3.1945e-17  4.7374e-22  3.1965e-17  4.7433e-22  3.2000e-17  4.7539e-22  3.2062e-17  4.7727e-22  3.2172e-17  4.8062e-22  3.2369e-17  4.8660e-22  3.2718e-17  4.9726e-22  3.3339e-17  5.1636e-22  3.4444e-17  5.5073e-22  3.6408e-17  6.1315e-22  3.9900e-17
      7.85  4.7298e-22  3.5815e-17  4.7298e-22  3.5815e-17  4.7299e-22  3.5816e-17  4.7300e-22  3.5816e-17  4.7301e-22  3.5818e-17  4.7305e-22  3.5820e-17  4.7311e-22  3.5824e-17  4.7321e-22  3.5831e-17  4.7340e-22  3.5843e-17  4.7373e-22  3.5865e-17  4.7431e-22  3.5904e-17  4.7536e-22  3.5974e-17  4.7722e-22  3.6098e-17  4.8053e-22  3.6318e-17  4.8642e-22  3.6710e-17  4.9694e-22  3.7407e-17  5.1577e-22  3.8646e-17  5.4963e-22  4.0850e-17  6.1102e-22  4.4769e-17
      7.90  4.7298e-22  4.0185e-17  4.7298e-22  4.0185e-17  4.7299e-22  4.0186e-17  4.7300e-22  4.0187e-17  4.7301e-22  4.0188e-17  4.7305e-22  4.0191e-17  4.7310e-22  4.0195e-17  4.7321e-22  4.0203e-17  4.7339e-22  4.0217e-17  4.7372e-22  4.0241e-17  4.7430e-22  4.0285e-17  4.7533e-22  4.0364e-17  4.7717e-22  4.0503e-17  4.8044e-22  4.0750e-17  4.8626e-22  4.1190e-17  4.9665e-22  4.1971e-17  5.1524e-22  4.3362e-17  5.4863e-22  4.5835e-17  6.0907e-22  5.0232e-17
      7.95  4.7298e-22  4.5089e-17  4.7298e-22  4.5089e-17  4.7299e-22  4.5089e-17  4.7300e-22  4.5090e-17  4.7301e-22  4.5092e-17  4.7305e-22  4.5095e-17  4.7310e-22  4.5099e-17  4.7321e-22  4.5108e-17  4.7339e-22  4.5124e-17  4.7371e-22  4.5152e-17  4.7428e-22  4.5201e-17  4.7530e-22  4.5289e-17  4.7712e-22  4.5445e-17  4.8036e-22  4.5722e-17  4.8612e-22  4.6215e-17  4.9639e-22  4.7093e-17  5.1476e-22  4.8653e-17  5.4772e-22  5.1427e-17  6.0729e-22  5.6361e-17
      8.00  4.7298e-22  5.0590e-17  4.7298e-22  5.0590e-17  4.7298e-22  5.0591e-17  4.7299e-22  5.0592e-17  4.7301e-22  5.0594e-17  4.7304e-22  5.0597e-17  4.7310e-22  5.0602e-17  4.7320e-22  5.0612e-17  4.7338e-22  5.0630e-17  4.7370e-22  5.0661e-17  4.7427e-22  5.0716e-17  4.7528e-22  5.0815e-17  4.7708e-22  5.0990e-17  4.8028e-22  5.1301e-17  4.8598e-22  5.1855e-17  4.9615e-22  5.2839e-17  5.1431e-22  5.4589e-17  5.4689e-22  5.7702e-17  6.0567e-22  6.3238e-17
      8.05  4.7298e-22  5.6763e-17  4.7298e-22  5.6763e-17  4.7298e-22  5.6764e-17  4.7299e-22  5.6765e-17  4.7301e-22  5.6767e-17  4.7304e-22  5.6771e-17  4.7310e-22  5.6777e-17  4.7320e-22  5.6788e-17  4.7338e-22  5.6808e-17  4.7370e-22  5.6842e-17  4.7426e-22  5.6905e-17  4.7526e-22  5.7015e-17  4.7704e-22  5.7211e-17  4.8021e-22  5.7561e-17  4.8586e-22  5.8182e-17  4.9593e-22  5.9286e-17  5.1391e-22  6.1250e-17  5.4613e-22  6.4743e-17  6.0420e-22  7.0954e-17
      8.10  4.7298e-22  6.3689e-17  4.7298e-22  6.3690e-17  4.7298e-22  6.3690e-17  4.7299e-22  6.3692e-17  4.7301e-22  6.3694e-17  4.7304e-22  6.3698e-17  4.7310e-22  6.3705e-17  4.7320e-22  6.3717e-17  4.7338e-22  6.3739e-17  4.7369e-22  6.3778e-17  4.7425e-22  6.3848e-17  4.7524e-22  6.3972e-17  4.7701e-22  6.4192e-17  4.8015e-22  6.4584e-17  4.8575e-22  6.5281e-17  4.9573e-22  6.6520e-17  5.1355e-22  6.8724e-17  5.4545e-22  7.2643e-17  6.0286e-22  7.9612e-17
      8.15  4.7298e-22  7.1461e-17  4.7298e-22  7.1461e-17  4.7298e-22  7.1462e-17  4.7299e-22  7.1463e-17  4.7301e-22  7.1466e-17  4.7304e-22  7.1470e-17  4.7310e-22  7.1478e-17  4.7320e-22  7.1492e-17  4.7337e-22  7.1516e-17  4.7368e-22  7.1560e-17  4.7424e-22  7.1639e-17  4.7522e-22  7.1778e-17  4.7698e-22  7.2025e-17  4.8010e-22  7.2465e-17  4.8565e-22  7.3247e-17  4.9555e-22  7.4637e-17  5.1321e-22  7.7110e-17  5.4482e-22  8.1507e-17  6.0165e-22  8.9326e-17
      8.20  4.7298e-22  8.0180e-17  4.7298e-22  8.0181e-17  4.7298e-22  8.0181e-17  4.7299e-22  8.0183e-17  4.7301e-22  8.0186e-17  4.7304e-22  8.0191e-17  4.7310e-22  8.0199e-17  4.7320e-22  8.0215e-17  4.7337e-22  8.0243e-17  4.7368e-22  8.0292e-17  4.7423e-22  8.0380e-17  4.7521e-22  8.0536e-17  4.7695e-22  8.0813e-17  4.8005e-22  8.1307e-17  4.8556e-22  8.2184e-17  4.9539e-22  8.3744e-17  5.1291e-22  8.6519e-17  5.4426e-22  9.1452e-17  6.0055e-22  1.0023e-16
      8.25  4.7298e-22  8.9963e-17  4.7298e-22  8.9964e-17  4.7298e-22  8.9965e-17  4.7299e-22  8.9967e-17  4.7301e-22  8.9970e-17  4.7304e-22  8.9975e-17  4.7310e-22  8.9985e-17  4.7319e-22  9.0003e-17  4.7337e-22  9.0034e-17  4.7367e-22  9.0089e-17  4.7422e-22  9.0188e-17  4.7519e-22  9.0363e-17  4.7692e-22  9.0674e-17  4.8000e-22  9.1228e-17  4.8548e-22  9.2212e-17  4.9524e-22  9.3962e-17  5.1264e-22  9.7075e-17  5.4375e-22  1.0261e-16  5.9956e-22  1.1245e-16
      8.30  4.7298e-22  1.0094e-16  4.7298e-22  1.0094e-16  4.7298e-22  1.0094e-16  4.7299e-22  1.0094e-16  4.7301e-22  1.0095e-16  4.7304e-22  1.0095e-16  4.7310e-22  1.0097e-16  4.7319e-22  1.0098e-16  4.7336e-22  1.0102e-16  4.7367e-22  1.0108e-16  4.7421e-22  1.0119e-16  4.7518e-22  1.0139e-16  4.7690e-22  1.0174e-16  4.7996e-22  1.0236e-16  4.8541e-22  1.0346e-16  4.9511e-22  1.0543e-16  5.1240e-22  1.0892e-16  5.4329e-22  1.1513e-16  5.9866e-22  1.2618e-16
      8.35  4.7298e-22  1.1326e-16  4.7298e-22  1.1326e-16  4.7298e-22  1.1326e-16  4.7299e-22  1.1326e-16  4.7301e-22  1.1327e-16  4.7304e-22  1.1327e-16  4.7309e-22  1.1328e-16  4.7319e-22  1.1331e-16  4.7336e-22  1.1335e-16  4.7367e-22  1.1342e-16  4.7421e-22  1.1354e-16  4.7517e-22  1.1376e-16  4.7688e-22  1.1415e-16  4.7992e-22  1.1485e-16  4.8534e-22  1.1609e-16  4.9498e-22  1.1829e-16  5.1218e-22  1.2221e-16  5.4287e-22  1.2918e-16  5.9785e-22  1.4157e-16
      8.40  4.7298e-22  1.2708e-16  4.7298e-22  1.2708e-16  4.7298e-22  1.2708e-16  4.7299e-22  1.2708e-16  4.7301e-22  1.2709e-16  4.7304e-22  1.2709e-16  4.7309e-22  1.2711e-16  4.7319e-22  1.2713e-16  4.7336e-22  1.2718e-16  4.7366e-22  1.2725e-16  4.7420e-22  1.2739e-16  4.7516e-22  1.2764e-16  4.7686e-22  1.2808e-16  4.7989e-22  1.2886e-16  4.8528e-22  1.3025e-16  4.9488e-22  1.3273e-16  5.1198e-22  1.3712e-16  5.4249e-22  1.4494e-16  5.9712e-22  1.5885e-16
      8.45  4.7298e-22  1.4258e-16  4.7298e-22  1.4258e-16  4.7298e-22  1.4258e-16  4.7299e-22  1.4259e-16  4.7301e-22  1.4259e-16  4.7304e-22  1.4260e-16  4.7309e-22  1.4262e-16  4.7319e-22  1.4264e-16  4.7336e-22  1.4269e-16  4.7366e-22  1.4278e-16  4.7420e-22  1.4294e-16  4.7515e-22  1.4322e-16  4.7684e-22  1.4371e-16  4.7986e-22  1.4459e-16  4.8523e-22  1.4615e-16  4.9478e-22  1.4892e-16  5.1180e-22  1.5385e-16  5.4216e-22  1.6263e-16  5.9646e-22  1.7823e-16
      8.50  4.7298e-22  1.5998e-16  4.7298e-22  1.5998e-16  4.7298e-22  1.5998e-16  4.7299e-22  1.5999e-16  4.7301e-22  1.5999e-16  4.7304e-22  1.6000e-16  4.7309e-22  1.6002e-16  4.7319e-22  1.6005e-16  4.7336e-22  1.6011e-16  4.7366e-22  1.6020e-16  4.7419e-22  1.6038e-16  4.7514e-22  1.6069e-16  4.7683e-22  1.6124e-16  4.7983e-22  1.6223e-16  4.8518e-22  1.6398e-16  4.9469e-22  1.6709e-16  5.1163e-22  1.7263e-16  5.4185e-22  1.8247e-16  5.9587e-22  1.9998e-16
