# This was generated using Cloudy10 and the columns are ordered 
# as log10 of the fraction of the metallicity to the solar metallicity
# 'h_*_Z' and 'c_*_Z' stands for cooling and heating respectively 
# at * metalicity
#
# NOTE: This was generated separately from loop_coolingcurve_w_UV.py
#       using Output_metals_w_redshift.py.
#
# Redshift = 2.0
# hden = -10.0
#
#     temp   h_-3.00_Z   c_-3.00_Z   h_-2.75_Z   c_-2.75_Z   h_-2.50_Z   c_-2.50_Z   h_-2.25_Z   c_-2.25_Z   h_-2.00_Z   c_-2.00_Z   h_-1.75_Z   c_-1.75_Z   h_-1.50_Z   c_-1.50_Z   h_-1.25_Z   c_-1.25_Z   h_-1.00_Z   c_-1.00_Z   h_-0.75_Z   c_-0.75_Z   h_-0.50_Z   c_-0.50_Z   h_-0.25_Z   c_-0.25_Z    h_0.00_Z    c_0.00_Z    h_0.25_Z    c_0.25_Z    h_0.50_Z    c_0.50_Z    h_0.75_Z    c_0.75_Z    h_1.00_Z    c_1.00_Z    h_1.25_Z    c_1.25_Z    h_1.50_Z    c_1.50_Z 
      4.00  1.6795e-20  5.0664e-20  1.6796e-20  5.0664e-20  1.6796e-20  5.0665e-20  1.6797e-20  5.0666e-20  1.6799e-20  5.0667e-20  1.6801e-20  5.0671e-20  1.6806e-20  5.0676e-20  1.6815e-20  5.0686e-20  1.6831e-20  5.0703e-20  1.6860e-20  5.0735e-20  1.6910e-20  5.0790e-20  1.6999e-20  5.0889e-20  1.7159e-20  5.1064e-20  1.7445e-20  5.1376e-20  1.7959e-20  5.1930e-20  1.8891e-20  5.2916e-20  2.0600e-20  5.4669e-20  2.3808e-20  5.7787e-20  3.0048e-20  6.3331e-20
      4.05  1.6795e-20  5.6846e-20  1.6795e-20  5.6846e-20  1.6795e-20  5.6847e-20  1.6796e-20  5.6848e-20  1.6798e-20  5.6850e-20  1.6801e-20  5.6853e-20  1.6805e-20  5.6859e-20  1.6814e-20  5.6870e-20  1.6829e-20  5.6890e-20  1.6856e-20  5.6925e-20  1.6904e-20  5.6987e-20  1.6990e-20  5.7098e-20  1.7143e-20  5.7295e-20  1.7417e-20  5.7644e-20  1.7910e-20  5.8266e-20  1.8801e-20  5.9373e-20  2.0436e-20  6.1340e-20  2.3502e-20  6.4838e-20  2.9452e-20  7.1058e-20
      4.10  1.6794e-20  6.3782e-20  1.6794e-20  6.3782e-20  1.6795e-20  6.3783e-20  1.6796e-20  6.3784e-20  1.6797e-20  6.3786e-20  1.6800e-20  6.3790e-20  1.6804e-20  6.3797e-20  1.6812e-20  6.3810e-20  1.6827e-20  6.3832e-20  1.6853e-20  6.3871e-20  1.6899e-20  6.3941e-20  1.6982e-20  6.4065e-20  1.7129e-20  6.4286e-20  1.7391e-20  6.4678e-20  1.7863e-20  6.5376e-20  1.8717e-20  6.6617e-20  2.0283e-20  6.8824e-20  2.3214e-20  7.2749e-20  2.8894e-20  7.9728e-20
      4.15  1.6793e-20  7.1564e-20  1.6794e-20  7.1565e-20  1.6794e-20  7.1565e-20  1.6795e-20  7.1567e-20  1.6796e-20  7.1569e-20  1.6799e-20  7.1574e-20  1.6803e-20  7.1582e-20  1.6811e-20  7.1595e-20  1.6825e-20  7.1620e-20  1.6850e-20  7.1664e-20  1.6894e-20  7.1743e-20  1.6974e-20  7.1882e-20  1.7115e-20  7.2129e-20  1.7367e-20  7.2570e-20  1.7820e-20  7.3353e-20  1.8639e-20  7.4745e-20  2.0139e-20  7.7222e-20  2.2945e-20  8.1625e-20  2.8371e-20  8.9456e-20
      4.20  1.6793e-20  8.0296e-20  1.6793e-20  8.0297e-20  1.6794e-20  8.0298e-20  1.6794e-20  8.0299e-20  1.6796e-20  8.0302e-20  1.6798e-20  8.0307e-20  1.6802e-20  8.0316e-20  1.6810e-20  8.0331e-20  1.6823e-20  8.0359e-20  1.6847e-20  8.0409e-20  1.6890e-20  8.0496e-20  1.6966e-20  8.0653e-20  1.7102e-20  8.0931e-20  1.7344e-20  8.1425e-20  1.7779e-20  8.2303e-20  1.8565e-20  8.3866e-20  2.0004e-20  8.6644e-20  2.2693e-20  9.1585e-20  2.7881e-20  1.0037e-19
      4.25  1.6792e-20  9.0094e-20  1.6793e-20  9.0094e-20  1.6793e-20  9.0095e-20  1.6794e-20  9.0097e-20  1.6795e-20  9.0100e-20  1.6797e-20  9.0106e-20  1.6802e-20  9.0116e-20  1.6809e-20  9.0133e-20  1.6822e-20  9.0164e-20  1.6845e-20  9.0220e-20  1.6886e-20  9.0318e-20  1.6959e-20  9.0494e-20  1.7089e-20  9.0805e-20  1.7322e-20  9.1360e-20  1.7740e-20  9.2346e-20  1.8496e-20  9.4099e-20  1.9878e-20  9.7216e-20  2.2457e-20  1.0276e-19  2.7423e-20  1.1262e-19
      4.30  1.6792e-20  1.0109e-19  1.6792e-20  1.0109e-19  1.6793e-20  1.0109e-19  1.6793e-20  1.0109e-19  1.6795e-20  1.0109e-19  1.6797e-20  1.0110e-19  1.6801e-20  1.0111e-19  1.6808e-20  1.0113e-19  1.6820e-20  1.0117e-19  1.6842e-20  1.0123e-19  1.6882e-20  1.0134e-19  1.6952e-20  1.0154e-19  1.7078e-20  1.0189e-19  1.7302e-20  1.0251e-19  1.7705e-20  1.0361e-19  1.8432e-20  1.0558e-19  1.9760e-20  1.0908e-19  2.2236e-20  1.1530e-19  2.6993e-20  1.2636e-19
      4.35  1.6792e-20  1.1342e-19  1.6792e-20  1.1342e-19  1.6792e-20  1.1342e-19  1.6793e-20  1.1343e-19  1.6794e-20  1.1343e-19  1.6796e-20  1.1344e-19  1.6800e-20  1.1345e-19  1.6807e-20  1.1347e-19  1.6819e-20  1.1351e-19  1.6840e-20  1.1358e-19  1.6878e-20  1.1370e-19  1.6946e-20  1.1392e-19  1.7067e-20  1.1432e-19  1.7283e-20  1.1501e-19  1.7671e-20  1.1626e-19  1.8372e-20  1.1846e-19  1.9650e-20  1.2239e-19  2.2029e-20  1.2937e-19  2.6591e-20  1.4178e-19
      4.40  1.6791e-20  1.2726e-19  1.6791e-20  1.2726e-19  1.6792e-20  1.2726e-19  1.6792e-20  1.2727e-19  1.6794e-20  1.2727e-19  1.6796e-20  1.2728e-19  1.6799e-20  1.2729e-19  1.6806e-20  1.2732e-19  1.6817e-20  1.2736e-19  1.6838e-20  1.2744e-19  1.6875e-20  1.2758e-19  1.6940e-20  1.2783e-19  1.7057e-20  1.2827e-19  1.7266e-20  1.2905e-19  1.7640e-20  1.3044e-19  1.8315e-20  1.3292e-19  1.9547e-20  1.3732e-19  2.1835e-20  1.4515e-19  2.6215e-20  1.5908e-19
      4.45  1.6791e-20  1.4279e-19  1.6791e-20  1.4279e-19  1.6791e-20  1.4279e-19  1.6792e-20  1.4279e-19  1.6793e-20  1.4280e-19  1.6795e-20  1.4281e-19  1.6799e-20  1.4282e-19  1.6805e-20  1.4285e-19  1.6816e-20  1.4290e-19  1.6836e-20  1.4299e-19  1.6872e-20  1.4314e-19  1.6935e-20  1.4342e-19  1.7048e-20  1.4392e-19  1.7249e-20  1.4479e-19  1.7611e-20  1.4636e-19  1.8262e-20  1.4914e-19  1.9450e-20  1.5408e-19  2.1654e-20  1.6286e-19  2.5863e-20  1.7849e-19
      4.50  1.6790e-20  1.6021e-19  1.6791e-20  1.6021e-19  1.6791e-20  1.6021e-19  1.6792e-20  1.6022e-19  1.6793e-20  1.6022e-19  1.6795e-20  1.6023e-19  1.6798e-20  1.6025e-19  1.6804e-20  1.6028e-19  1.6815e-20  1.6034e-19  1.6834e-20  1.6044e-19  1.6869e-20  1.6061e-19  1.6930e-20  1.6092e-19  1.7039e-20  1.6148e-19  1.7234e-20  1.6246e-19  1.7583e-20  1.6422e-19  1.8213e-20  1.6733e-19  1.9360e-20  1.7288e-19  2.1485e-20  1.8274e-19  2.5534e-20  2.0027e-19
      4.55  1.6790e-20  1.7976e-19  1.6790e-20  1.7976e-19  1.6791e-20  1.7976e-19  1.6791e-20  1.7977e-19  1.6792e-20  1.7977e-19  1.6794e-20  1.7978e-19  1.6797e-20  1.7980e-19  1.6803e-20  1.7984e-19  1.6814e-20  1.7990e-19  1.6833e-20  1.8001e-19  1.6866e-20  1.8021e-19  1.6925e-20  1.8056e-19  1.7031e-20  1.8118e-19  1.7220e-20  1.8229e-19  1.7558e-20  1.8425e-19  1.8167e-20  1.8775e-19  1.9276e-20  1.9397e-19  2.1327e-20  2.0503e-19  2.5226e-20  2.2470e-19
      4.60  1.6790e-20  2.0169e-19  1.6790e-20  2.0170e-19  1.6790e-20  2.0170e-19  1.6791e-20  2.0170e-19  1.6792e-20  2.0171e-19  1.6794e-20  2.0172e-19  1.6797e-20  2.0174e-19  1.6803e-20  2.0178e-19  1.6813e-20  2.0185e-19  1.6831e-20  2.0198e-19  1.6863e-20  2.0220e-19  1.6921e-20  2.0259e-19  1.7023e-20  2.0329e-19  1.7206e-20  2.0453e-19  1.7534e-20  2.0673e-19  1.8124e-20  2.1066e-19  1.9197e-20  2.1764e-19  2.1179e-20  2.3005e-19  2.4938e-20  2.5212e-19
      4.65  1.6790e-20  2.2630e-19  1.6790e-20  2.2631e-19  1.6790e-20  2.2631e-19  1.6791e-20  2.2631e-19  1.6792e-20  2.2632e-19  1.6793e-20  2.2633e-19  1.6797e-20  2.2636e-19  1.6802e-20  2.2640e-19  1.6812e-20  2.2648e-19  1.6830e-20  2.2662e-19  1.6861e-20  2.2687e-19  1.6917e-20  2.2731e-19  1.7016e-20  2.2809e-19  1.7194e-20  2.2948e-19  1.7511e-20  2.3196e-19  1.8084e-20  2.3636e-19  1.9123e-20  2.4419e-19  2.1040e-20  2.5812e-19  2.4669e-20  2.8288e-19
      4.70  1.6789e-20  2.5392e-19  1.6790e-20  2.5392e-19  1.6790e-20  2.5392e-19  1.6790e-20  2.5393e-19  1.6791e-20  2.5394e-19  1.6793e-20  2.5395e-19  1.6796e-20  2.5398e-19  1.6801e-20  2.5403e-19  1.6811e-20  2.5412e-19  1.6828e-20  2.5427e-19  1.6859e-20  2.5455e-19  1.6913e-20  2.5504e-19  1.7009e-20  2.5592e-19  1.7182e-20  2.5749e-19  1.7491e-20  2.6026e-19  1.8046e-20  2.6520e-19  1.9054e-20  2.7399e-19  2.0911e-20  2.8961e-19  2.4418e-20  3.1740e-19
      4.75  1.6789e-20  2.8490e-19  1.6789e-20  2.8490e-19  1.6790e-20  2.8490e-19  1.6790e-20  2.8491e-19  1.6791e-20  2.8492e-19  1.6793e-20  2.8494e-19  1.6796e-20  2.8497e-19  1.6801e-20  2.8502e-19  1.6810e-20  2.8512e-19  1.6827e-20  2.8530e-19  1.6857e-20  2.8561e-19  1.6909e-20  2.8616e-19  1.7003e-20  2.8715e-19  1.7171e-20  2.8890e-19  1.7471e-20  2.9202e-19  1.8011e-20  2.9756e-19  1.8990e-20  3.0742e-19  2.0790e-20  3.2495e-19  2.4183e-20  3.5613e-19
      4.80  1.6789e-20  3.1966e-19  1.6789e-20  3.1966e-19  1.6789e-20  3.1967e-19  1.6790e-20  3.1967e-19  1.6791e-20  3.1969e-19  1.6792e-20  3.1970e-19  1.6795e-20  3.1974e-19  1.6800e-20  3.1980e-19  1.6810e-20  3.1991e-19  1.6826e-20  3.2011e-19  1.6855e-20  3.2046e-19  1.6906e-20  3.2108e-19  1.6997e-20  3.2219e-19  1.7161e-20  3.2415e-19  1.7453e-20  3.2765e-19  1.7978e-20  3.3387e-19  1.8929e-20  3.4493e-19  2.0677e-20  3.6460e-19  2.3963e-20  3.9958e-19
      4.85  1.6789e-20  3.5867e-19  1.6789e-20  3.5867e-19  1.6789e-20  3.5867e-19  1.6790e-20  3.5868e-19  1.6791e-20  3.5869e-19  1.6792e-20  3.5871e-19  1.6795e-20  3.5875e-19  1.6800e-20  3.5882e-19  1.6809e-20  3.5895e-19  1.6825e-20  3.5917e-19  1.6853e-20  3.5956e-19  1.6903e-20  3.6026e-19  1.6992e-20  3.6150e-19  1.7151e-20  3.6371e-19  1.7436e-20  3.6763e-19  1.7947e-20  3.7461e-19  1.8873e-20  3.8702e-19  2.0572e-20  4.0909e-19  2.3758e-20  4.4834e-19
      4.90  1.6789e-20  4.0243e-19  1.6789e-20  4.0243e-19  1.6789e-20  4.0244e-19  1.6789e-20  4.0245e-19  1.6790e-20  4.0246e-19  1.6792e-20  4.0248e-19  1.6795e-20  4.0253e-19  1.6799e-20  4.0261e-19  1.6808e-20  4.0275e-19  1.6824e-20  4.0299e-19  1.6851e-20  4.0343e-19  1.6900e-20  4.0422e-19  1.6987e-20  4.0561e-19  1.7142e-20  4.0809e-19  1.7420e-20  4.1249e-19  1.7919e-20  4.2032e-19  1.8821e-20  4.3424e-19  2.0474e-20  4.5901e-19  2.3567e-20  5.0304e-19
      4.95  1.6788e-20  4.5153e-19  1.6788e-20  4.5154e-19  1.6789e-20  4.5154e-19  1.6789e-20  4.5155e-19  1.6790e-20  4.5157e-19  1.6792e-20  4.5159e-19  1.6794e-20  4.5164e-19  1.6799e-20  4.5173e-19  1.6808e-20  4.5189e-19  1.6823e-20  4.5217e-19  1.6849e-20  4.5266e-19  1.6897e-20  4.5354e-19  1.6982e-20  4.5510e-19  1.7134e-20  4.5788e-19  1.7405e-20  4.6282e-19  1.7892e-20  4.7161e-19  1.8772e-20  4.8723e-19  2.0382e-20  5.1501e-19  2.3388e-20  5.6442e-19
      5.00  1.6788e-20  5.0663e-19  1.6788e-20  5.0663e-19  1.6789e-20  5.0664e-19  1.6789e-20  5.0665e-19  1.6790e-20  5.0667e-19  1.6791e-20  5.0670e-19  1.6794e-20  5.0675e-19  1.6799e-20  5.0685e-19  1.6807e-20  5.0703e-19  1.6822e-20  5.0734e-19  1.6848e-20  5.0789e-19  1.6895e-20  5.0888e-19  1.6978e-20  5.1063e-19  1.7126e-20  5.1375e-19  1.7391e-20  5.1929e-19  1.7867e-20  5.2915e-19  1.8726e-20  5.4668e-19  2.0296e-20  5.7786e-19  2.3221e-20  6.3329e-19
      5.05  1.6788e-20  5.6845e-19  1.6788e-20  5.6845e-19  1.6788e-20  5.6846e-19  1.6789e-20  5.6847e-19  1.6790e-20  5.6849e-19  1.6791e-20  5.6852e-19  1.6794e-20  5.6859e-19  1.6798e-20  5.6870e-19  1.6806e-20  5.6889e-19  1.6821e-20  5.6924e-19  1.6847e-20  5.6986e-19  1.6892e-20  5.7097e-19  1.6974e-20  5.7294e-19  1.7119e-20  5.7644e-19  1.7378e-20  5.8266e-19  1.7844e-20  5.9372e-19  1.8683e-20  6.1339e-19  2.0216e-20  6.4836e-19  2.3065e-20  7.1057e-19
      5.10  1.6788e-20  6.3781e-19  1.6788e-20  6.3781e-19  1.6788e-20  6.3782e-19  1.6789e-20  6.3783e-19  1.6790e-20  6.3785e-19  1.6791e-20  6.3789e-19  1.6793e-20  6.3796e-19  1.6798e-20  6.3809e-19  1.6806e-20  6.3831e-19  1.6820e-20  6.3870e-19  1.6845e-20  6.3940e-19  1.6890e-20  6.4064e-19  1.6970e-20  6.4285e-19  1.7112e-20  6.4677e-19  1.7366e-20  6.5375e-19  1.7822e-20  6.6616e-19  1.8643e-20  6.8823e-19  2.0141e-20  7.2748e-19  2.2920e-20  7.9727e-19
      5.15  1.6788e-20  7.1563e-19  1.6788e-20  7.1564e-19  1.6788e-20  7.1565e-19  1.6789e-20  7.1566e-19  1.6789e-20  7.1568e-19  1.6791e-20  7.1573e-19  1.6793e-20  7.1581e-19  1.6798e-20  7.1595e-19  1.6805e-20  7.1619e-19  1.6819e-20  7.1663e-19  1.6844e-20  7.1742e-19  1.6888e-20  7.1881e-19  1.6966e-20  7.2129e-19  1.7106e-20  7.2569e-19  1.7355e-20  7.3352e-19  1.7802e-20  7.4744e-19  1.8606e-20  7.7221e-19  2.0071e-20  8.1624e-19  2.2784e-20  8.9455e-19
      5.20  1.6788e-20  8.0295e-19  1.6788e-20  8.0296e-19  1.6788e-20  8.0297e-19  1.6788e-20  8.0298e-19  1.6789e-20  8.0301e-19  1.6791e-20  8.0306e-19  1.6793e-20  8.0315e-19  1.6797e-20  8.0330e-19  1.6805e-20  8.0358e-19  1.6819e-20  8.0408e-19  1.6843e-20  8.0495e-19  1.6886e-20  8.0652e-19  1.6963e-20  8.0930e-19  1.7100e-20  8.1424e-19  1.7344e-20  8.2302e-19  1.7783e-20  8.3865e-19  1.8572e-20  8.6643e-19  2.0006e-20  9.1584e-19  2.2658e-20  1.0037e-18
      5.25  1.6788e-20  9.0093e-19  1.6788e-20  9.0093e-19  1.6788e-20  9.0094e-19  1.6788e-20  9.0096e-19  1.6789e-20  9.0099e-19  1.6790e-20  9.0105e-19  1.6793e-20  9.0115e-19  1.6797e-20  9.0132e-19  1.6805e-20  9.0163e-19  1.6818e-20  9.0219e-19  1.6842e-20  9.0317e-19  1.6884e-20  9.0493e-19  1.6960e-20  9.0804e-19  1.7094e-20  9.1359e-19  1.7335e-20  9.2345e-19  1.7765e-20  9.4098e-19  1.8539e-20  9.7215e-19  1.9946e-20  1.0276e-18  2.2540e-20  1.1262e-18
      5.30  1.6787e-20  1.0109e-18  1.6788e-20  1.0109e-18  1.6788e-20  1.0109e-18  1.6788e-20  1.0109e-18  1.6789e-20  1.0109e-18  1.6790e-20  1.0110e-18  1.6793e-20  1.0111e-18  1.6797e-20  1.0113e-18  1.6804e-20  1.0116e-18  1.6817e-20  1.0123e-18  1.6841e-20  1.0134e-18  1.6883e-20  1.0153e-18  1.6957e-20  1.0188e-18  1.7089e-20  1.0251e-18  1.7326e-20  1.0361e-18  1.7749e-20  1.0558e-18  1.8509e-20  1.0908e-18  1.9889e-20  1.1530e-18  2.2430e-20  1.2636e-18
      5.35  1.6787e-20  1.1342e-18  1.6788e-20  1.1342e-18  1.6788e-20  1.1342e-18  1.6788e-20  1.1342e-18  1.6789e-20  1.1343e-18  1.6790e-20  1.1344e-18  1.6793e-20  1.1345e-18  1.6797e-20  1.1347e-18  1.6804e-20  1.1351e-18  1.6817e-20  1.1358e-18  1.6840e-20  1.1370e-18  1.6881e-20  1.1392e-18  1.6954e-20  1.1432e-18  1.7085e-20  1.1501e-18  1.7317e-20  1.1625e-18  1.7733e-20  1.1846e-18  1.8481e-20  1.2239e-18  1.9837e-20  1.2937e-18  2.2327e-20  1.4178e-18
      5.40  1.6787e-20  1.2726e-18  1.6787e-20  1.2726e-18  1.6788e-20  1.2726e-18  1.6788e-20  1.2726e-18  1.6789e-20  1.2727e-18  1.6790e-20  1.2728e-18  1.6792e-20  1.2729e-18  1.6796e-20  1.2732e-18  1.6804e-20  1.2736e-18  1.6816e-20  1.2744e-18  1.6839e-20  1.2758e-18  1.6880e-20  1.2782e-18  1.6952e-20  1.2826e-18  1.7080e-20  1.2905e-18  1.7309e-20  1.3044e-18  1.7719e-20  1.3292e-18  1.8455e-20  1.3732e-18  1.9787e-20  1.4515e-18  2.2231e-20  1.5908e-18
      5.45  1.6787e-20  1.4279e-18  1.6787e-20  1.4279e-18  1.6788e-20  1.4279e-18  1.6788e-20  1.4279e-18  1.6789e-20  1.4280e-18  1.6790e-20  1.4281e-18  1.6792e-20  1.4282e-18  1.6796e-20  1.4285e-18  1.6803e-20  1.4290e-18  1.6816e-20  1.4299e-18  1.6838e-20  1.4314e-18  1.6878e-20  1.4342e-18  1.6949e-20  1.4392e-18  1.7076e-20  1.4479e-18  1.7302e-20  1.4636e-18  1.7706e-20  1.4913e-18  1.8431e-20  1.5408e-18  1.9742e-20  1.6286e-18  2.2142e-20  1.7849e-18
      5.50  1.6787e-20  1.6021e-18  1.6787e-20  1.6021e-18  1.6788e-20  1.6021e-18  1.6788e-20  1.6022e-18  1.6789e-20  1.6022e-18  1.6790e-20  1.6023e-18  1.6792e-20  1.6025e-18  1.6796e-20  1.6028e-18  1.6803e-20  1.6034e-18  1.6815e-20  1.6043e-18  1.6838e-20  1.6061e-18  1.6877e-20  1.6092e-18  1.6947e-20  1.6148e-18  1.7072e-20  1.6246e-18  1.7295e-20  1.6421e-18  1.7693e-20  1.6733e-18  1.8408e-20  1.7288e-18  1.9699e-20  1.8273e-18  2.2059e-20  2.0026e-18
      5.55  1.6787e-20  1.7976e-18  1.6787e-20  1.7976e-18  1.6787e-20  1.7976e-18  1.6788e-20  1.7977e-18  1.6789e-20  1.7977e-18  1.6790e-20  1.7978e-18  1.6792e-20  1.7980e-18  1.6796e-20  1.7984e-18  1.6803e-20  1.7990e-18  1.6815e-20  1.8001e-18  1.6837e-20  1.8021e-18  1.6876e-20  1.8056e-18  1.6945e-20  1.8118e-18  1.7069e-20  1.8228e-18  1.7289e-20  1.8425e-18  1.7682e-20  1.8775e-18  1.8387e-20  1.9397e-18  1.9659e-20  2.0503e-18  2.1982e-20  2.2470e-18
      5.60  1.6787e-20  2.0169e-18  1.6787e-20  2.0169e-18  1.6787e-20  2.0170e-18  1.6788e-20  2.0170e-18  1.6788e-20  2.0171e-18  1.6790e-20  2.0172e-18  1.6792e-20  2.0174e-18  1.6796e-20  2.0178e-18  1.6803e-20  2.0185e-18  1.6815e-20  2.0197e-18  1.6836e-20  2.0220e-18  1.6875e-20  2.0259e-18  1.6943e-20  2.0329e-18  1.7065e-20  2.0453e-18  1.7283e-20  2.0673e-18  1.7671e-20  2.1066e-18  1.8367e-20  2.1764e-18  1.9622e-20  2.3005e-18  2.1910e-20  2.5212e-18
      5.65  1.6787e-20  2.2630e-18  1.6787e-20  2.2630e-18  1.6787e-20  2.2631e-18  1.6788e-20  2.2631e-18  1.6788e-20  2.2632e-18  1.6790e-20  2.2633e-18  1.6792e-20  2.2636e-18  1.6796e-20  2.2640e-18  1.6802e-20  2.2648e-18  1.6814e-20  2.2662e-18  1.6836e-20  2.2687e-18  1.6874e-20  2.2731e-18  1.6941e-20  2.2809e-18  1.7062e-20  2.2948e-18  1.7277e-20  2.3196e-18  1.7661e-20  2.3636e-18  1.8349e-20  2.4419e-18  1.9588e-20  2.5812e-18  2.1843e-20  2.8288e-18
      5.70  1.6787e-20  2.5392e-18  1.6787e-20  2.5392e-18  1.6787e-20  2.5392e-18  1.6788e-20  2.5393e-18  1.6788e-20  2.5393e-18  1.6790e-20  2.5395e-18  1.6792e-20  2.5398e-18  1.6795e-20  2.5403e-18  1.6802e-20  2.5411e-18  1.6814e-20  2.5427e-18  1.6835e-20  2.5455e-18  1.6873e-20  2.5504e-18  1.6940e-20  2.5592e-18  1.7059e-20  2.5748e-18  1.7272e-20  2.6026e-18  1.7652e-20  2.6520e-18  1.8331e-20  2.7399e-18  1.9556e-20  2.8961e-18  2.1780e-20  3.1740e-18
      5.75  1.6787e-20  2.8490e-18  1.6787e-20  2.8490e-18  1.6787e-20  2.8490e-18  1.6788e-20  2.8491e-18  1.6788e-20  2.8492e-18  1.6789e-20  2.8494e-18  1.6792e-20  2.8497e-18  1.6795e-20  2.8502e-18  1.6802e-20  2.8512e-18  1.6814e-20  2.8530e-18  1.6835e-20  2.8561e-18  1.6872e-20  2.8616e-18  1.6938e-20  2.8715e-18  1.7056e-20  2.8890e-18  1.7267e-20  2.9202e-18  1.7643e-20  2.9756e-18  1.8316e-20  3.0742e-18  1.9526e-20  3.2495e-18  2.1722e-20  3.5613e-18
      5.80  1.6787e-20  3.1966e-18  1.6787e-20  3.1966e-18  1.6787e-20  3.1967e-18  1.6788e-20  3.1967e-18  1.6788e-20  3.1968e-18  1.6789e-20  3.1970e-18  1.6791e-20  3.1974e-18  1.6795e-20  3.1980e-18  1.6802e-20  3.1991e-18  1.6813e-20  3.2011e-18  1.6834e-20  3.2046e-18  1.6871e-20  3.2108e-18  1.6937e-20  3.2219e-18  1.7054e-20  3.2415e-18  1.7263e-20  3.2765e-18  1.7635e-20  3.3387e-18  1.8301e-20  3.4493e-18  1.9498e-20  3.6460e-18  2.1668e-20  3.9958e-18
      5.85  1.6787e-20  3.5867e-18  1.6787e-20  3.5867e-18  1.6787e-20  3.5867e-18  1.6788e-20  3.5868e-18  1.6788e-20  3.5869e-18  1.6789e-20  3.5871e-18  1.6791e-20  3.5875e-18  1.6795e-20  3.5882e-18  1.6802e-20  3.5895e-18  1.6813e-20  3.5917e-18  1.6834e-20  3.5956e-18  1.6870e-20  3.6026e-18  1.6936e-20  3.6150e-18  1.7052e-20  3.6371e-18  1.7258e-20  3.6763e-18  1.7627e-20  3.7461e-18  1.8287e-20  3.8702e-18  1.9472e-20  4.0909e-18  2.1617e-20  4.4833e-18
      5.90  1.6787e-20  4.0243e-18  1.6787e-20  4.0243e-18  1.6787e-20  4.0244e-18  1.6788e-20  4.0244e-18  1.6788e-20  4.0246e-18  1.6789e-20  4.0248e-18  1.6791e-20  4.0253e-18  1.6795e-20  4.0260e-18  1.6801e-20  4.0274e-18  1.6813e-20  4.0299e-18  1.6833e-20  4.0343e-18  1.6870e-20  4.0422e-18  1.6934e-20  4.0561e-18  1.7049e-20  4.0808e-18  1.7255e-20  4.1249e-18  1.7620e-20  4.2032e-18  1.8274e-20  4.3424e-18  1.9448e-20  4.5901e-18  2.1571e-20  5.0304e-18
      5.95  1.6787e-20  4.5153e-18  1.6787e-20  4.5154e-18  1.6787e-20  4.5154e-18  1.6787e-20  4.5155e-18  1.6788e-20  4.5157e-18  1.6789e-20  4.5159e-18  1.6791e-20  4.5164e-18  1.6795e-20  4.5173e-18  1.6801e-20  4.5189e-18  1.6813e-20  4.5216e-18  1.6833e-20  4.5266e-18  1.6869e-20  4.5354e-18  1.6933e-20  4.5510e-18  1.7047e-20  4.5788e-18  1.7251e-20  4.6282e-18  1.7614e-20  4.7160e-18  1.8262e-20  4.8723e-18  1.9426e-20  5.1501e-18  2.1527e-20  5.6442e-18
      6.00  1.6787e-20  5.0663e-18  1.6787e-20  5.0663e-18  1.6787e-20  5.0664e-18  1.6787e-20  5.0665e-18  1.6788e-20  5.0666e-18  1.6789e-20  5.0670e-18  1.6791e-20  5.0675e-18  1.6795e-20  5.0685e-18  1.6801e-20  5.0702e-18  1.6812e-20  5.0734e-18  1.6833e-20  5.0789e-18  1.6868e-20  5.0888e-18  1.6932e-20  5.1063e-18  1.7046e-20  5.1375e-18  1.7248e-20  5.1929e-18  1.7608e-20  5.2915e-18  1.8251e-20  5.4668e-18  1.9405e-20  5.7785e-18  2.1487e-20  6.3329e-18
      6.05  1.6787e-20  5.6845e-18  1.6787e-20  5.6845e-18  1.6787e-20  5.6846e-18  1.6787e-20  5.6847e-18  1.6788e-20  5.6849e-18  1.6789e-20  5.6852e-18  1.6791e-20  5.6858e-18  1.6795e-20  5.6869e-18  1.6801e-20  5.6889e-18  1.6812e-20  5.6924e-18  1.6832e-20  5.6986e-18  1.6868e-20  5.7097e-18  1.6931e-20  5.7294e-18  1.7044e-20  5.7643e-18  1.7244e-20  5.8265e-18  1.7602e-20  5.9371e-18  1.8241e-20  6.1338e-18  1.9386e-20  6.4836e-18  2.1449e-20  7.1056e-18
      6.10  1.6787e-20  6.3781e-18  1.6787e-20  6.3781e-18  1.6787e-20  6.3782e-18  1.6787e-20  6.3783e-18  1.6788e-20  6.3785e-18  1.6789e-20  6.3789e-18  1.6791e-20  6.3796e-18  1.6795e-20  6.3809e-18  1.6801e-20  6.3831e-18  1.6812e-20  6.3870e-18  1.6832e-20  6.3940e-18  1.6867e-20  6.4064e-18  1.6930e-20  6.4284e-18  1.7042e-20  6.4677e-18  1.7242e-20  6.5375e-18  1.7597e-20  6.6616e-18  1.8231e-20  6.8823e-18  1.9368e-20  7.2747e-18  2.1414e-20  7.9726e-18
      6.15  1.6787e-20  7.1563e-18  1.6787e-20  7.1564e-18  1.6787e-20  7.1564e-18  1.6787e-20  7.1566e-18  1.6788e-20  7.1568e-18  1.6789e-20  7.1573e-18  1.6791e-20  7.1580e-18  1.6795e-20  7.1594e-18  1.6801e-20  7.1619e-18  1.6812e-20  7.1663e-18  1.6832e-20  7.1741e-18  1.6867e-20  7.1881e-18  1.6929e-20  7.2128e-18  1.7041e-20  7.2569e-18  1.7239e-20  7.3352e-18  1.7592e-20  7.4744e-18  1.8222e-20  7.7221e-18  1.9351e-20  8.1624e-18  2.1381e-20  8.9455e-18
      6.20  1.6787e-20  8.0295e-18  1.6787e-20  8.0296e-18  1.6787e-20  8.0297e-18  1.6787e-20  8.0298e-18  1.6788e-20  8.0301e-18  1.6789e-20  8.0306e-18  1.6791e-20  8.0315e-18  1.6795e-20  8.0330e-18  1.6801e-20  8.0358e-18  1.6812e-20  8.0407e-18  1.6831e-20  8.0495e-18  1.6866e-20  8.0652e-18  1.6929e-20  8.0929e-18  1.7039e-20  8.1423e-18  1.7236e-20  8.2302e-18  1.7588e-20  8.3864e-18  1.8214e-20  8.6643e-18  1.9335e-20  9.1584e-18  2.1351e-20  1.0037e-17
      6.25  1.6787e-20  9.0093e-18  1.6787e-20  9.0093e-18  1.6787e-20  9.0094e-18  1.6787e-20  9.0096e-18  1.6788e-20  9.0099e-18  1.6789e-20  9.0105e-18  1.6791e-20  9.0114e-18  1.6794e-20  9.0132e-18  1.6801e-20  9.0163e-18  1.6812e-20  9.0219e-18  1.6831e-20  9.0317e-18  1.6866e-20  9.0492e-18  1.6928e-20  9.0804e-18  1.7038e-20  9.1359e-18  1.7234e-20  9.2344e-18  1.7583e-20  9.4097e-18  1.8206e-20  9.7215e-18  1.9321e-20  1.0276e-17  2.1323e-20  1.1262e-17
      6.30  1.6787e-20  1.0109e-17  1.6787e-20  1.0109e-17  1.6787e-20  1.0109e-17  1.6787e-20  1.0109e-17  1.6788e-20  1.0109e-17  1.6789e-20  1.0110e-17  1.6791e-20  1.0111e-17  1.6794e-20  1.0113e-17  1.6801e-20  1.0116e-17  1.6812e-20  1.0123e-17  1.6831e-20  1.0134e-17  1.6866e-20  1.0153e-17  1.6927e-20  1.0188e-17  1.7037e-20  1.0251e-17  1.7232e-20  1.0361e-17  1.7579e-20  1.0558e-17  1.8199e-20  1.0908e-17  1.9308e-20  1.1530e-17  2.1297e-20  1.2636e-17
      6.35  1.6787e-20  1.1342e-17  1.6787e-20  1.1342e-17  1.6787e-20  1.1342e-17  1.6787e-20  1.1342e-17  1.6788e-20  1.1343e-17  1.6789e-20  1.1343e-17  1.6791e-20  1.1345e-17  1.6794e-20  1.1347e-17  1.6801e-20  1.1351e-17  1.6811e-20  1.1358e-17  1.6831e-20  1.1370e-17  1.6865e-20  1.1392e-17  1.6927e-20  1.1432e-17  1.7036e-20  1.1501e-17  1.7230e-20  1.1625e-17  1.7576e-20  1.1846e-17  1.8193e-20  1.2239e-17  1.9295e-20  1.2937e-17  2.1273e-20  1.4178e-17
      6.40  1.6787e-20  1.2726e-17  1.6787e-20  1.2726e-17  1.6787e-20  1.2726e-17  1.6787e-20  1.2726e-17  1.6788e-20  1.2727e-17  1.6789e-20  1.2728e-17  1.6791e-20  1.2729e-17  1.6794e-20  1.2731e-17  1.6800e-20  1.2736e-17  1.6811e-20  1.2744e-17  1.6831e-20  1.2758e-17  1.6865e-20  1.2782e-17  1.6926e-20  1.2826e-17  1.7035e-20  1.2905e-17  1.7228e-20  1.3044e-17  1.7573e-20  1.3292e-17  1.8187e-20  1.3732e-17  1.9284e-20  1.4515e-17  2.1251e-20  1.5908e-17
      6.45  1.6787e-20  1.4279e-17  1.6787e-20  1.4279e-17  1.6787e-20  1.4279e-17  1.6787e-20  1.4279e-17  1.6788e-20  1.4280e-17  1.6789e-20  1.4281e-17  1.6791e-20  1.4282e-17  1.6794e-20  1.4285e-17  1.6800e-20  1.4290e-17  1.6811e-20  1.4299e-17  1.6830e-20  1.4314e-17  1.6865e-20  1.4342e-17  1.6925e-20  1.4391e-17  1.7034e-20  1.4479e-17  1.7226e-20  1.4636e-17  1.7569e-20  1.4913e-17  1.8181e-20  1.5408e-17  1.9273e-20  1.6286e-17  2.1230e-20  1.7849e-17
      6.50  1.6787e-20  1.6021e-17  1.6787e-20  1.6021e-17  1.6787e-20  1.6021e-17  1.6787e-20  1.6022e-17  1.6788e-20  1.6022e-17  1.6789e-20  1.6023e-17  1.6791e-20  1.6025e-17  1.6794e-20  1.6028e-17  1.6800e-20  1.6034e-17  1.6811e-20  1.6043e-17  1.6830e-20  1.6061e-17  1.6864e-20  1.6092e-17  1.6925e-20  1.6148e-17  1.7033e-20  1.6246e-17  1.7225e-20  1.6421e-17  1.7567e-20  1.6733e-17  1.8176e-20  1.7288e-17  1.9263e-20  1.8273e-17  2.1211e-20  2.0026e-17
      6.55  1.6787e-20  1.7976e-17  1.6787e-20  1.7976e-17  1.6787e-20  1.7976e-17  1.6787e-20  1.7977e-17  1.6788e-20  1.7977e-17  1.6789e-20  1.7978e-17  1.6791e-20  1.7980e-17  1.6794e-20  1.7984e-17  1.6800e-20  1.7990e-17  1.6811e-20  1.8001e-17  1.6830e-20  1.8021e-17  1.6864e-20  1.8056e-17  1.6925e-20  1.8118e-17  1.7032e-20  1.8228e-17  1.7223e-20  1.8425e-17  1.7564e-20  1.8775e-17  1.8171e-20  1.9397e-17  1.9254e-20  2.0503e-17  2.1193e-20  2.2470e-17
      6.60  1.6787e-20  2.0169e-17  1.6787e-20  2.0169e-17  1.6787e-20  2.0170e-17  1.6787e-20  2.0170e-17  1.6788e-20  2.0171e-17  1.6789e-20  2.0172e-17  1.6791e-20  2.0174e-17  1.6794e-20  2.0178e-17  1.6800e-20  2.0185e-17  1.6811e-20  2.0197e-17  1.6830e-20  2.0219e-17  1.6864e-20  2.0259e-17  1.6924e-20  2.0329e-17  1.7031e-20  2.0453e-17  1.7222e-20  2.0673e-17  1.7561e-20  2.1066e-17  1.8166e-20  2.1764e-17  1.9246e-20  2.3005e-17  2.1176e-20  2.5212e-17
      6.65  1.6787e-20  2.2630e-17  1.6787e-20  2.2630e-17  1.6787e-20  2.2631e-17  1.6787e-20  2.2631e-17  1.6788e-20  2.2632e-17  1.6789e-20  2.2633e-17  1.6791e-20  2.2636e-17  1.6794e-20  2.2640e-17  1.6800e-20  2.2648e-17  1.6811e-20  2.2662e-17  1.6830e-20  2.2687e-17  1.6864e-20  2.2731e-17  1.6924e-20  2.2809e-17  1.7031e-20  2.2948e-17  1.7221e-20  2.3196e-17  1.7559e-20  2.3636e-17  1.8162e-20  2.4419e-17  1.9238e-20  2.5812e-17  2.1161e-20  2.8288e-17
      6.70  1.6787e-20  2.5392e-17  1.6787e-20  2.5392e-17  1.6787e-20  2.5392e-17  1.6787e-20  2.5392e-17  1.6788e-20  2.5393e-17  1.6789e-20  2.5395e-17  1.6791e-20  2.5398e-17  1.6794e-20  2.5403e-17  1.6800e-20  2.5411e-17  1.6811e-20  2.5427e-17  1.6830e-20  2.5455e-17  1.6863e-20  2.5504e-17  1.6923e-20  2.5592e-17  1.7030e-20  2.5748e-17  1.7220e-20  2.6026e-17  1.7557e-20  2.6520e-17  1.8158e-20  2.7399e-17  1.9230e-20  2.8961e-17  2.1147e-20  3.1740e-17
      6.75  1.6787e-20  2.8490e-17  1.6787e-20  2.8490e-17  1.6787e-20  2.8490e-17  1.6787e-20  2.8491e-17  1.6788e-20  2.8492e-17  1.6789e-20  2.8494e-17  1.6791e-20  2.8497e-17  1.6794e-20  2.8502e-17  1.6800e-20  2.8512e-17  1.6811e-20  2.8530e-17  1.6830e-20  2.8561e-17  1.6863e-20  2.8616e-17  1.6923e-20  2.8715e-17  1.7029e-20  2.8890e-17  1.7218e-20  2.9202e-17  1.7555e-20  2.9756e-17  1.8155e-20  3.0742e-17  1.9224e-20  3.2495e-17  2.1134e-20  3.5612e-17
      6.80  1.6787e-20  3.1966e-17  1.6787e-20  3.1966e-17  1.6787e-20  3.1967e-17  1.6787e-20  3.1967e-17  1.6788e-20  3.1968e-17  1.6789e-20  3.1970e-17  1.6791e-20  3.1974e-17  1.6794e-20  3.1980e-17  1.6800e-20  3.1991e-17  1.6811e-20  3.2011e-17  1.6830e-20  3.2046e-17  1.6863e-20  3.2108e-17  1.6923e-20  3.2219e-17  1.7029e-20  3.2415e-17  1.7217e-20  3.2765e-17  1.7553e-20  3.3387e-17  1.8151e-20  3.4493e-17  1.9217e-20  3.6460e-17  2.1121e-20  3.9958e-17
      6.85  1.6787e-20  3.5867e-17  1.6787e-20  3.5867e-17  1.6787e-20  3.5867e-17  1.6787e-20  3.5868e-17  1.6788e-20  3.5869e-17  1.6789e-20  3.5871e-17  1.6791e-20  3.5875e-17  1.6794e-20  3.5882e-17  1.6800e-20  3.5895e-17  1.6811e-20  3.5917e-17  1.6829e-20  3.5956e-17  1.6863e-20  3.6026e-17  1.6922e-20  3.6150e-17  1.7028e-20  3.6370e-17  1.7217e-20  3.6763e-17  1.7552e-20  3.7461e-17  1.8148e-20  3.8702e-17  1.9212e-20  4.0909e-17  2.1110e-20  4.4833e-17
      6.90  1.6787e-20  4.0243e-17  1.6787e-20  4.0243e-17  1.6787e-20  4.0244e-17  1.6787e-20  4.0244e-17  1.6788e-20  4.0246e-17  1.6789e-20  4.0248e-17  1.6791e-20  4.0253e-17  1.6794e-20  4.0260e-17  1.6800e-20  4.0274e-17  1.6811e-20  4.0299e-17  1.6829e-20  4.0343e-17  1.6863e-20  4.0421e-17  1.6922e-20  4.0561e-17  1.7028e-20  4.0808e-17  1.7216e-20  4.1249e-17  1.7550e-20  4.2032e-17  1.8145e-20  4.3424e-17  1.9206e-20  4.5901e-17  2.1100e-20  5.0304e-17
      6.95  1.6787e-20  4.5153e-17  1.6787e-20  4.5154e-17  1.6787e-20  4.5154e-17  1.6787e-20  4.5155e-17  1.6788e-20  4.5156e-17  1.6789e-20  4.5159e-17  1.6791e-20  4.5164e-17  1.6794e-20  4.5173e-17  1.6800e-20  4.5189e-17  1.6811e-20  4.5216e-17  1.6829e-20  4.5266e-17  1.6863e-20  4.5354e-17  1.6922e-20  4.5510e-17  1.7027e-20  4.5788e-17  1.7215e-20  4.6282e-17  1.7549e-20  4.7160e-17  1.8143e-20  4.8723e-17  1.9201e-20  5.1501e-17  2.1090e-20  5.6442e-17
      7.00  1.6787e-20  5.0663e-17  1.6787e-20  5.0663e-17  1.6787e-20  5.0664e-17  1.6787e-20  5.0665e-17  1.6788e-20  5.0666e-17  1.6789e-20  5.0670e-17  1.6791e-20  5.0675e-17  1.6794e-20  5.0685e-17  1.6800e-20  5.0702e-17  1.6810e-20  5.0734e-17  1.6829e-20  5.0789e-17  1.6862e-20  5.0888e-17  1.6922e-20  5.1063e-17  1.7027e-20  5.1375e-17  1.7214e-20  5.1929e-17  1.7547e-20  5.2915e-17  1.8140e-20  5.4668e-17  1.9197e-20  5.7785e-17  2.1081e-20  6.3329e-17
      7.05  1.6787e-20  5.6845e-17  1.6787e-20  5.6845e-17  1.6787e-20  5.6846e-17  1.6787e-20  5.6847e-17  1.6788e-20  5.6849e-17  1.6789e-20  5.6852e-17  1.6791e-20  5.6858e-17  1.6794e-20  5.6869e-17  1.6800e-20  5.6889e-17  1.6810e-20  5.6924e-17  1.6829e-20  5.6986e-17  1.6862e-20  5.7097e-17  1.6921e-20  5.7294e-17  1.7027e-20  5.7643e-17  1.7213e-20  5.8265e-17  1.7546e-20  5.9371e-17  1.8138e-20  6.1338e-17  1.9193e-20  6.4836e-17  2.1073e-20  7.1056e-17
      7.10  1.6787e-20  6.3781e-17  1.6787e-20  6.3781e-17  1.6787e-20  6.3782e-17  1.6787e-20  6.3783e-17  1.6788e-20  6.3785e-17  1.6789e-20  6.3789e-17  1.6791e-20  6.3796e-17  1.6794e-20  6.3809e-17  1.6800e-20  6.3831e-17  1.6810e-20  6.3870e-17  1.6829e-20  6.3940e-17  1.6862e-20  6.4064e-17  1.6921e-20  6.4284e-17  1.7026e-20  6.4677e-17  1.7213e-20  6.5375e-17  1.7545e-20  6.6616e-17  1.8136e-20  6.8823e-17  1.9189e-20  7.2747e-17  2.1065e-20  7.9726e-17
      7.15  1.6787e-20  7.1563e-17  1.6787e-20  7.1564e-17  1.6787e-20  7.1564e-17  1.6787e-20  7.1566e-17  1.6788e-20  7.1568e-17  1.6789e-20  7.1573e-17  1.6791e-20  7.1580e-17  1.6794e-20  7.1594e-17  1.6800e-20  7.1619e-17  1.6810e-20  7.1663e-17  1.6829e-20  7.1741e-17  1.6862e-20  7.1881e-17  1.6921e-20  7.2128e-17  1.7026e-20  7.2569e-17  1.7212e-20  7.3352e-17  1.7544e-20  7.4744e-17  1.8134e-20  7.7220e-17  1.9185e-20  8.1624e-17  2.1058e-20  8.9455e-17
      7.20  1.6787e-20  8.0295e-17  1.6787e-20  8.0296e-17  1.6787e-20  8.0296e-17  1.6787e-20  8.0298e-17  1.6788e-20  8.0301e-17  1.6789e-20  8.0306e-17  1.6791e-20  8.0315e-17  1.6794e-20  8.0330e-17  1.6800e-20  8.0358e-17  1.6810e-20  8.0407e-17  1.6829e-20  8.0495e-17  1.6862e-20  8.0651e-17  1.6921e-20  8.0929e-17  1.7026e-20  8.1423e-17  1.7212e-20  8.2302e-17  1.7543e-20  8.3864e-17  1.8132e-20  8.6643e-17  1.9182e-20  9.1584e-17  2.1052e-20  1.0037e-16
      7.25  1.6787e-20  9.0093e-17  1.6787e-20  9.0093e-17  1.6787e-20  9.0094e-17  1.6787e-20  9.0096e-17  1.6788e-20  9.0099e-17  1.6789e-20  9.0105e-17  1.6791e-20  9.0114e-17  1.6794e-20  9.0132e-17  1.6800e-20  9.0163e-17  1.6810e-20  9.0219e-17  1.6829e-20  9.0317e-17  1.6862e-20  9.0492e-17  1.6921e-20  9.0804e-17  1.7025e-20  9.1359e-17  1.7211e-20  9.2344e-17  1.7542e-20  9.4097e-17  1.8131e-20  9.7215e-17  1.9179e-20  1.0276e-16  2.1046e-20  1.1262e-16
      7.30  1.6787e-20  1.0109e-16  1.6787e-20  1.0109e-16  1.6787e-20  1.0109e-16  1.6787e-20  1.0109e-16  1.6788e-20  1.0109e-16  1.6789e-20  1.0110e-16  1.6791e-20  1.0111e-16  1.6794e-20  1.0113e-16  1.6800e-20  1.0116e-16  1.6810e-20  1.0123e-16  1.6829e-20  1.0134e-16  1.6862e-20  1.0153e-16  1.6921e-20  1.0188e-16  1.7025e-20  1.0251e-16  1.7211e-20  1.0361e-16  1.7541e-20  1.0558e-16  1.8129e-20  1.0908e-16  1.9176e-20  1.1530e-16  2.1041e-20  1.2636e-16
      7.35  1.6787e-20  1.1342e-16  1.6787e-20  1.1342e-16  1.6787e-20  1.1342e-16  1.6787e-20  1.1342e-16  1.6788e-20  1.1343e-16  1.6789e-20  1.1343e-16  1.6791e-20  1.1345e-16  1.6794e-20  1.1347e-16  1.6800e-20  1.1351e-16  1.6810e-20  1.1358e-16  1.6829e-20  1.1370e-16  1.6862e-20  1.1392e-16  1.6920e-20  1.1432e-16  1.7025e-20  1.1501e-16  1.7210e-20  1.1625e-16  1.7541e-20  1.1846e-16  1.8128e-20  1.2239e-16  1.9173e-20  1.2937e-16  2.1035e-20  1.4178e-16
      7.40  1.6787e-20  1.2726e-16  1.6787e-20  1.2726e-16  1.6787e-20  1.2726e-16  1.6787e-20  1.2726e-16  1.6788e-20  1.2727e-16  1.6789e-20  1.2728e-16  1.6791e-20  1.2729e-16  1.6794e-20  1.2731e-16  1.6800e-20  1.2736e-16  1.6810e-20  1.2744e-16  1.6829e-20  1.2758e-16  1.6862e-20  1.2782e-16  1.6920e-20  1.2826e-16  1.7025e-20  1.2905e-16  1.7210e-20  1.3044e-16  1.7540e-20  1.3292e-16  1.8127e-20  1.3732e-16  1.9171e-20  1.4515e-16  2.1031e-20  1.5908e-16
      7.45  1.6787e-20  1.4279e-16  1.6787e-20  1.4279e-16  1.6787e-20  1.4279e-16  1.6787e-20  1.4279e-16  1.6788e-20  1.4280e-16  1.6789e-20  1.4281e-16  1.6791e-20  1.4282e-16  1.6794e-20  1.4285e-16  1.6800e-20  1.4290e-16  1.6810e-20  1.4299e-16  1.6829e-20  1.4314e-16  1.6862e-20  1.4342e-16  1.6920e-20  1.4391e-16  1.7024e-20  1.4479e-16  1.7210e-20  1.4636e-16  1.7539e-20  1.4913e-16  1.8125e-20  1.5408e-16  1.9169e-20  1.6286e-16  2.1027e-20  1.7849e-16
      7.50  1.6787e-20  1.6021e-16  1.6787e-20  1.6021e-16  1.6787e-20  1.6021e-16  1.6787e-20  1.6022e-16  1.6788e-20  1.6022e-16  1.6789e-20  1.6023e-16  1.6791e-20  1.6025e-16  1.6794e-20  1.6028e-16  1.6800e-20  1.6034e-16  1.6810e-20  1.6043e-16  1.6829e-20  1.6061e-16  1.6862e-20  1.6092e-16  1.6920e-20  1.6148e-16  1.7024e-20  1.6246e-16  1.7209e-20  1.6421e-16  1.7539e-20  1.6733e-16  1.8124e-20  1.7288e-16  1.9167e-20  1.8273e-16  2.1023e-20  2.0026e-16
      7.55  1.6787e-20  1.7976e-16  1.6787e-20  1.7976e-16  1.6787e-20  1.7976e-16  1.6787e-20  1.7976e-16  1.6788e-20  1.7977e-16  1.6789e-20  1.7978e-16  1.6791e-20  1.7980e-16  1.6794e-20  1.7984e-16  1.6800e-20  1.7990e-16  1.6810e-20  1.8001e-16  1.6829e-20  1.8021e-16  1.6862e-20  1.8056e-16  1.6920e-20  1.8118e-16  1.7024e-20  1.8228e-16  1.7209e-20  1.8425e-16  1.7538e-20  1.8775e-16  1.8123e-20  1.9397e-16  1.9165e-20  2.0503e-16  2.1019e-20  2.2470e-16
      7.60  1.6787e-20  2.0169e-16  1.6787e-20  2.0169e-16  1.6787e-20  2.0170e-16  1.6787e-20  2.0170e-16  1.6788e-20  2.0171e-16  1.6789e-20  2.0172e-16  1.6791e-20  2.0174e-16  1.6794e-20  2.0178e-16  1.6800e-20  2.0185e-16  1.6810e-20  2.0197e-16  1.6829e-20  2.0219e-16  1.6862e-20  2.0259e-16  1.6920e-20  2.0329e-16  1.7024e-20  2.0453e-16  1.7209e-20  2.0673e-16  1.7538e-20  2.1066e-16  1.8122e-20  2.1764e-16  1.9163e-20  2.3005e-16  2.1016e-20  2.5212e-16
      7.65  1.6787e-20  2.2630e-16  1.6787e-20  2.2630e-16  1.6787e-20  2.2631e-16  1.6787e-20  2.2631e-16  1.6788e-20  2.2632e-16  1.6789e-20  2.2633e-16  1.6791e-20  2.2636e-16  1.6794e-20  2.2640e-16  1.6800e-20  2.2648e-16  1.6810e-20  2.2662e-16  1.6829e-20  2.2687e-16  1.6861e-20  2.2731e-16  1.6920e-20  2.2809e-16  1.7024e-20  2.2948e-16  1.7209e-20  2.3196e-16  1.7537e-20  2.3636e-16  1.8122e-20  2.4419e-16  1.9162e-20  2.5812e-16  2.1013e-20  2.8288e-16
      7.70  1.6787e-20  2.5392e-16  1.6787e-20  2.5392e-16  1.6787e-20  2.5392e-16  1.6787e-20  2.5392e-16  1.6788e-20  2.5393e-16  1.6789e-20  2.5395e-16  1.6791e-20  2.5398e-16  1.6794e-20  2.5403e-16  1.6800e-20  2.5411e-16  1.6810e-20  2.5427e-16  1.6829e-20  2.5455e-16  1.6861e-20  2.5504e-16  1.6920e-20  2.5592e-16  1.7024e-20  2.5748e-16  1.7208e-20  2.6026e-16  1.7537e-20  2.6520e-16  1.8121e-20  2.7399e-16  1.9160e-20  2.8961e-16  2.1010e-20  3.1740e-16
      7.75  1.6787e-20  2.8490e-16  1.6787e-20  2.8490e-16  1.6787e-20  2.8490e-16  1.6787e-20  2.8491e-16  1.6788e-20  2.8492e-16  1.6789e-20  2.8494e-16  1.6791e-20  2.8497e-16  1.6794e-20  2.8502e-16  1.6800e-20  2.8512e-16  1.6810e-20  2.8530e-16  1.6829e-20  2.8561e-16  1.6861e-20  2.8616e-16  1.6920e-20  2.8715e-16  1.7024e-20  2.8890e-16  1.7208e-20  2.9202e-16  1.7536e-20  2.9756e-16  1.8120e-20  3.0742e-16  1.9159e-20  3.2495e-16  2.1007e-20  3.5612e-16
      7.80  1.6787e-20  3.1966e-16  1.6787e-20  3.1966e-16  1.6787e-20  3.1967e-16  1.6787e-20  3.1967e-16  1.6788e-20  3.1968e-16  1.6789e-20  3.1970e-16  1.6791e-20  3.1974e-16  1.6794e-20  3.1980e-16  1.6800e-20  3.1991e-16  1.6810e-20  3.2011e-16  1.6829e-20  3.2046e-16  1.6861e-20  3.2108e-16  1.6920e-20  3.2219e-16  1.7023e-20  3.2415e-16  1.7208e-20  3.2765e-16  1.7536e-20  3.3387e-16  1.8120e-20  3.4493e-16  1.9158e-20  3.6460e-16  2.1005e-20  3.9958e-16
      7.85  1.6787e-20  3.5867e-16  1.6787e-20  3.5867e-16  1.6787e-20  3.5867e-16  1.6787e-20  3.5868e-16  1.6788e-20  3.5869e-16  1.6789e-20  3.5871e-16  1.6791e-20  3.5875e-16  1.6794e-20  3.5882e-16  1.6800e-20  3.5895e-16  1.6810e-20  3.5917e-16  1.6829e-20  3.5956e-16  1.6861e-20  3.6026e-16  1.6920e-20  3.6150e-16  1.7023e-20  3.6370e-16  1.7208e-20  3.6763e-16  1.7536e-20  3.7461e-16  1.8119e-20  3.8702e-16  1.9157e-20  4.0909e-16  2.1003e-20  4.4833e-16
      7.90  1.6787e-20  4.0243e-16  1.6787e-20  4.0243e-16  1.6787e-20  4.0244e-16  1.6787e-20  4.0244e-16  1.6788e-20  4.0246e-16  1.6789e-20  4.0248e-16  1.6791e-20  4.0253e-16  1.6794e-20  4.0260e-16  1.6800e-20  4.0274e-16  1.6810e-20  4.0299e-16  1.6829e-20  4.0343e-16  1.6861e-20  4.0421e-16  1.6920e-20  4.0561e-16  1.7023e-20  4.0808e-16  1.7208e-20  4.1249e-16  1.7535e-20  4.2032e-16  1.8118e-20  4.3424e-16  1.9156e-20  4.5901e-16  2.1001e-20  5.0304e-16
      7.95  1.6787e-20  4.5153e-16  1.6787e-20  4.5154e-16  1.6787e-20  4.5154e-16  1.6787e-20  4.5155e-16  1.6788e-20  4.5156e-16  1.6789e-20  4.5159e-16  1.6791e-20  4.5164e-16  1.6794e-20  4.5173e-16  1.6800e-20  4.5189e-16  1.6810e-20  4.5216e-16  1.6829e-20  4.5266e-16  1.6861e-20  4.5354e-16  1.6920e-20  4.5510e-16  1.7023e-20  4.5788e-16  1.7207e-20  4.6282e-16  1.7535e-20  4.7160e-16  1.8118e-20  4.8723e-16  1.9155e-20  5.1501e-16  2.0999e-20  5.6442e-16
      8.00  1.6787e-20  5.0663e-16  1.6787e-20  5.0663e-16  1.6787e-20  5.0664e-16  1.6787e-20  5.0665e-16  1.6788e-20  5.0666e-16  1.6789e-20  5.0670e-16  1.6791e-20  5.0675e-16  1.6794e-20  5.0685e-16  1.6800e-20  5.0702e-16  1.6810e-20  5.0734e-16  1.6829e-20  5.0789e-16  1.6861e-20  5.0888e-16  1.6920e-20  5.1063e-16  1.7023e-20  5.1375e-16  1.7207e-20  5.1929e-16  1.7535e-20  5.2915e-16  1.8118e-20  5.4668e-16  1.9154e-20  5.7785e-16  2.0998e-20  6.3329e-16
      8.05  1.6787e-20  5.6845e-16  1.6787e-20  5.6845e-16  1.6787e-20  5.6846e-16  1.6787e-20  5.6847e-16  1.6788e-20  5.6849e-16  1.6789e-20  5.6852e-16  1.6791e-20  5.6858e-16  1.6794e-20  5.6869e-16  1.6800e-20  5.6889e-16  1.6810e-20  5.6924e-16  1.6828e-20  5.6986e-16  1.6861e-20  5.7097e-16  1.6919e-20  5.7294e-16  1.7023e-20  5.7643e-16  1.7207e-20  5.8265e-16  1.7535e-20  5.9371e-16  1.8117e-20  6.1338e-16  1.9153e-20  6.4836e-16  2.0996e-20  7.1056e-16
      8.10  1.6787e-20  6.3781e-16  1.6787e-20  6.3781e-16  1.6787e-20  6.3782e-16  1.6787e-20  6.3783e-16  1.6788e-20  6.3785e-16  1.6789e-20  6.3789e-16  1.6791e-20  6.3796e-16  1.6794e-20  6.3809e-16  1.6800e-20  6.3831e-16  1.6810e-20  6.3870e-16  1.6828e-20  6.3940e-16  1.6861e-20  6.4064e-16  1.6919e-20  6.4284e-16  1.7023e-20  6.4677e-16  1.7207e-20  6.5375e-16  1.7534e-20  6.6616e-16  1.8117e-20  6.8823e-16  1.9152e-20  7.2747e-16  2.0995e-20  7.9726e-16
      8.15  1.6787e-20  7.1563e-16  1.6787e-20  7.1564e-16  1.6787e-20  7.1564e-16  1.6787e-20  7.1566e-16  1.6788e-20  7.1568e-16  1.6789e-20  7.1573e-16  1.6791e-20  7.1580e-16  1.6794e-20  7.1594e-16  1.6800e-20  7.1619e-16  1.6810e-20  7.1663e-16  1.6828e-20  7.1741e-16  1.6861e-20  7.1881e-16  1.6919e-20  7.2128e-16  1.7023e-20  7.2569e-16  1.7207e-20  7.3352e-16  1.7534e-20  7.4744e-16  1.8116e-20  7.7220e-16  1.9152e-20  8.1624e-16  2.0994e-20  8.9455e-16
      8.20  1.6787e-20  8.0295e-16  1.6787e-20  8.0296e-16  1.6787e-20  8.0296e-16  1.6787e-20  8.0298e-16  1.6788e-20  8.0301e-16  1.6789e-20  8.0306e-16  1.6791e-20  8.0315e-16  1.6794e-20  8.0330e-16  1.6800e-20  8.0358e-16  1.6810e-20  8.0407e-16  1.6828e-20  8.0495e-16  1.6861e-20  8.0651e-16  1.6919e-20  8.0929e-16  1.7023e-20  8.1423e-16  1.7207e-20  8.2302e-16  1.7534e-20  8.3864e-16  1.8116e-20  8.6643e-16  1.9151e-20  9.1584e-16  2.0993e-20  1.0037e-15
      8.25  1.6787e-20  9.0093e-16  1.6787e-20  9.0093e-16  1.6787e-20  9.0094e-16  1.6787e-20  9.0096e-16  1.6788e-20  9.0099e-16  1.6789e-20  9.0105e-16  1.6791e-20  9.0114e-16  1.6794e-20  9.0132e-16  1.6800e-20  9.0163e-16  1.6810e-20  9.0219e-16  1.6828e-20  9.0317e-16  1.6861e-20  9.0492e-16  1.6919e-20  9.0804e-16  1.7023e-20  9.1359e-16  1.7207e-20  9.2344e-16  1.7534e-20  9.4097e-16  1.8116e-20  9.7215e-16  1.9151e-20  1.0276e-15  2.0992e-20  1.1262e-15
      8.30  1.6787e-20  1.0109e-15  1.6787e-20  1.0109e-15  1.6787e-20  1.0109e-15  1.6787e-20  1.0109e-15  1.6788e-20  1.0109e-15  1.6789e-20  1.0110e-15  1.6791e-20  1.0111e-15  1.6794e-20  1.0113e-15  1.6800e-20  1.0116e-15  1.6810e-20  1.0123e-15  1.6828e-20  1.0134e-15  1.6861e-20  1.0153e-15  1.6919e-20  1.0188e-15  1.7023e-20  1.0251e-15  1.7207e-20  1.0361e-15  1.7534e-20  1.0558e-15  1.8116e-20  1.0908e-15  1.9150e-20  1.1530e-15  2.0991e-20  1.2636e-15
      8.35  1.6787e-20  1.1342e-15  1.6952e-20  1.1454e-15  1.6787e-20  1.1342e-15  1.6787e-20  1.1342e-15  1.6788e-20  1.1343e-15  1.6789e-20  1.1343e-15  1.6791e-20  1.1345e-15  1.6794e-20  1.1347e-15  1.6800e-20  1.1351e-15  1.6810e-20  1.1358e-15  1.6828e-20  1.1370e-15  1.6861e-20  1.1392e-15  1.6919e-20  1.1432e-15  1.7023e-20  1.1501e-15  1.7207e-20  1.1625e-15  1.7534e-20  1.1846e-15  1.8115e-20  1.2239e-15  1.9150e-20  1.2937e-15  2.0990e-20  1.4178e-15
      8.40  1.6952e-20  1.2852e-15  1.6787e-20  1.2726e-15  1.6953e-20  1.2852e-15  1.6787e-20  1.2726e-15  1.6788e-20  1.2727e-15  1.6789e-20  1.2728e-15  1.6791e-20  1.2729e-15  1.6794e-20  1.2731e-15  1.6800e-20  1.2736e-15  1.6810e-20  1.2744e-15  1.6828e-20  1.2758e-15  1.6861e-20  1.2782e-15  1.6919e-20  1.2826e-15  1.7023e-20  1.2905e-15  1.7207e-20  1.3044e-15  1.7534e-20  1.3292e-15  1.8115e-20  1.3732e-15  1.9339e-20  1.4658e-15  2.0989e-20  1.5908e-15
      8.45  1.6787e-20  1.4279e-15  1.6787e-20  1.4279e-15  1.6787e-20  1.4279e-15  1.6787e-20  1.4279e-15  1.6788e-20  1.4280e-15  1.6789e-20  1.4281e-15  1.6791e-20  1.4282e-15  1.6794e-20  1.4285e-15  1.6800e-20  1.4290e-15  1.6810e-20  1.4299e-15  1.6828e-20  1.4314e-15  1.6861e-20  1.4342e-15  1.6919e-20  1.4391e-15  1.7361e-20  1.4767e-15  1.7376e-20  1.4780e-15  1.7534e-20  1.4913e-15  1.8294e-20  1.5560e-15  1.9149e-20  1.6286e-15  2.0989e-20  1.7849e-15
      8.50  1.6787e-20  1.6021e-15  1.6787e-20  1.6021e-15  1.6787e-20  1.6021e-15  1.7206e-20  1.6422e-15  1.6788e-20  1.6022e-15  1.6789e-20  1.6023e-15  1.6791e-20  1.6025e-15  1.6794e-20  1.6028e-15  1.6800e-20  1.6034e-15  1.6810e-20  1.6043e-15  1.6828e-20  1.6061e-15  1.6861e-20  1.6092e-15  1.6919e-20  1.6148e-15  1.7023e-20  1.6246e-15  1.7206e-20  1.6421e-15  1.7533e-20  1.6733e-15  1.8115e-20  1.7288e-15  1.9530e-20  1.8637e-15  2.0988e-20  2.0026e-15
