# This was generated using Cloudy10 and the columns are ordered 
# as log10 of the fraction of the metallicity to the solar metallicity
# 'h_*_Z' and 'c_*_Z' stands for cooling and heating respectively 
# at * metalicity
#
# Redshift = 3.0
# hden = 2.5
#     temp   h_-3.00_Z   c_-3.00_Z   h_-2.75_Z   c_-2.75_Z   h_-2.50_Z   c_-2.50_Z   h_-2.25_Z   c_-2.25_Z   h_-2.00_Z   c_-2.00_Z   h_-1.75_Z   c_-1.75_Z   h_-1.50_Z   c_-1.50_Z   h_-1.25_Z   c_-1.25_Z   h_-1.00_Z   c_-1.00_Z   h_-0.75_Z   c_-0.75_Z   h_-0.50_Z   c_-0.50_Z   h_-0.25_Z   c_-0.25_Z    h_0.00_Z    c_0.00_Z    h_0.25_Z    c_0.25_Z    h_0.50_Z    c_0.50_Z    h_0.75_Z    c_0.75_Z    h_1.00_Z    c_1.00_Z    h_1.25_Z    c_1.25_Z    h_1.50_Z    c_1.50_Z 
      4.00  2.6895e-26  3.7425e-25  2.6895e-26  3.7489e-25  2.6895e-26  3.7601e-25  2.6896e-26   3.78e-25  2.6897e-26  3.8155e-25  2.6899e-26  3.8786e-25  2.6903e-26  3.9908e-25  2.691e-26  4.1902e-25  2.6922e-26  4.5449e-25  2.6943e-26  5.1755e-25  2.6981e-26  6.2968e-25  2.7048e-26  8.2913e-25  2.7167e-26  1.184e-24  2.7377e-26  1.8151e-24  2.7751e-26  2.9366e-24  2.8413e-26  4.9245e-24  2.9578e-26  8.4329e-24  3.1626e-26  1.4591e-23  3.5222e-26  2.5358e-23
      4.05  2.6781e-26  1.4391e-24  2.6781e-26   1.44e-24  2.6782e-26  1.4416e-24  2.6783e-26  1.4443e-24  2.6784e-26  1.4493e-24  2.6786e-26  1.4581e-24  2.6791e-26  1.4738e-24  2.6798e-26  1.5016e-24  2.6811e-26  1.551e-24  2.6834e-26  1.6388e-24  2.6876e-26  1.7949e-24  2.695e-26  2.0722e-24  2.708e-26  2.565e-24  2.7312e-26  3.4396e-24  2.7724e-26  4.9881e-24  2.8451e-26  7.7152e-24  2.9727e-26  1.2481e-23  3.1954e-26  2.0693e-23  3.5824e-26  3.4661e-23
      4.10  2.6064e-26  5.5609e-24  2.6064e-26  5.5623e-24  2.6064e-26  5.5649e-24  2.6065e-26  5.5694e-24  2.6067e-26  5.5775e-24  2.6069e-26  5.5918e-24  2.6074e-26  5.6173e-24  2.6083e-26  5.6626e-24  2.6098e-26  5.743e-24  2.6124e-26  5.8857e-24  2.6172e-26  6.1392e-24  2.6256e-26  6.5893e-24  2.6405e-26  7.3881e-24  2.6671e-26  8.8031e-24  2.7141e-26  1.1301e-23  2.797e-26  1.5676e-23  2.9424e-26  2.3248e-23  3.1945e-26  3.6096e-23  3.6266e-26  5.7365e-23
      4.15  2.2668e-26  2.5735e-23  2.2668e-26  2.5738e-23  2.2669e-26  2.5744e-23  2.267e-26  2.5755e-23  2.2672e-26  2.5775e-23  2.2675e-26  2.581e-23  2.2682e-26  2.5873e-23  2.2693e-26  2.5983e-23  2.2713e-26  2.618e-23  2.2748e-26  2.6531e-23  2.2811e-26  2.7153e-23  2.2922e-26  2.8259e-23  2.312e-26  3.0223e-23  2.3471e-26  3.3705e-23  2.4093e-26  3.9866e-23  2.5193e-26  5.0715e-23  2.7127e-26  6.9662e-23  3.0489e-26  1.0227e-22  3.6232e-26  1.5699e-22
      4.20  1.4923e-26  8.6112e-23  1.4924e-26  8.6121e-23  1.4924e-26  8.6137e-23  1.4925e-26  8.6167e-23  1.4928e-26  8.6219e-23  1.4932e-26  8.6311e-23  1.4939e-26  8.6476e-23  1.4951e-26  8.6769e-23  1.4973e-26  8.7291e-23  1.5012e-26  8.8218e-23  1.5082e-26  8.9866e-23  1.5206e-26  9.2797e-23  1.5427e-26  9.8012e-23  1.5819e-26  1.0728e-22  1.6516e-26  1.2377e-22  1.7754e-26  1.531e-22  1.9953e-26  2.0526e-22  2.3849e-26  2.9799e-22  3.0729e-26  4.6273e-22
      4.25  7.909e-27  1.2943e-22  7.909e-27  1.2945e-22  7.9092e-27  1.2947e-22  7.9094e-27  1.2952e-22  7.9099e-27  1.2961e-22  7.9106e-27  1.2976e-22  7.912e-27  1.3003e-22  7.9144e-27  1.305e-22  7.9187e-27  1.3135e-22  7.9264e-27  1.3286e-22  7.9401e-27  1.3554e-22  7.9645e-27  1.403e-22  8.0079e-27  1.4879e-22  8.0854e-27  1.6389e-22  8.2239e-27  1.9079e-22  8.4728e-27  2.3879e-22  8.923e-27  3.2462e-22  9.7466e-27  4.7881e-22  1.1285e-26  7.5786e-22
      4.30  4.5049e-27  1.2055e-22  4.5043e-27  1.2057e-22  4.5032e-27  1.206e-22  4.5014e-27  1.2066e-22  4.4981e-27  1.2076e-22  4.4923e-27  1.2094e-22  4.4819e-27  1.2127e-22  4.4635e-27  1.2185e-22  4.4307e-27  1.2288e-22  4.4351e-27  1.2471e-22  4.4439e-27  1.2798e-22  4.4596e-27  1.3378e-22  4.4878e-27  1.441e-22  4.5383e-27  1.6249e-22  4.6298e-27  1.9525e-22  4.7965e-27  2.5374e-22  5.1028e-27  3.5844e-22  5.6691e-27  5.4686e-22  6.7188e-27   8.89e-22
      4.35  3.176e-27  9.5708e-23  3.1746e-27  9.573e-23  3.1721e-27  9.5769e-23  3.1677e-27  9.5839e-23  3.1598e-27  9.5962e-23  3.1457e-27  9.6182e-23  3.1208e-27  9.6574e-23  3.0763e-27  9.727e-23  3.0615e-27  9.8508e-23  3.0653e-27  1.0071e-22  3.0722e-27  1.0462e-22  3.0847e-27  1.1159e-22  3.1074e-27  1.2399e-22  3.1493e-27  1.4606e-22  3.2286e-27  1.8539e-22  3.3814e-27  2.5562e-22  3.6817e-27  3.8138e-22  4.2753e-27  6.078e-22  5.3623e-27  1.0193e-21
      4.40  2.4633e-27  7.4693e-23  2.4611e-27  7.472e-23  2.4572e-27  7.4769e-23  2.4502e-27  7.4856e-23  2.4379e-27  7.501e-23  2.4159e-27  7.5284e-23  2.3768e-27  7.5772e-23  2.3072e-27  7.664e-23  2.2575e-27  7.8183e-23  2.261e-27  8.0927e-23  2.2673e-27  8.5808e-23  2.279e-27  9.4491e-23  2.3013e-27  1.0994e-22  2.3453e-27  1.3745e-22  2.4352e-27  1.8648e-22  2.6252e-27  2.7399e-22  3.0289e-27  4.3069e-22  3.6787e-27  7.1277e-22  4.7008e-27  1.2253e-21
      4.45  1.6715e-27  6.0068e-23  1.6686e-27  6.0103e-23  1.6634e-27  6.0166e-23  1.6543e-27  6.0277e-23  1.638e-27  6.0475e-23  1.609e-27  6.0826e-23  1.5576e-27  6.1451e-23  1.466e-27  6.2562e-23  1.392e-27  6.4538e-23  1.3957e-27  6.8053e-23  1.4027e-27  7.4305e-23  1.4166e-27  8.5426e-23  1.4455e-27  1.0521e-22  1.5088e-27  1.4044e-22  1.6523e-27  2.0321e-22  1.9396e-27  3.1521e-22  2.3942e-27  5.1569e-22  3.1146e-27  8.763e-22  4.3204e-27  1.5307e-21
      4.50   9.25e-28  4.8665e-23  9.2157e-28  4.871e-23  9.1546e-28  4.8791e-23  9.0459e-28  4.8934e-23  8.8528e-28  4.9189e-23  8.5094e-28  4.9643e-23  7.8989e-28  5.0449e-23  6.8138e-28  5.1884e-23  6.6801e-28  5.4435e-23  6.726e-28  5.8972e-23  6.8245e-28  6.7042e-23  7.0494e-28  8.1396e-23  7.5851e-28  1.0694e-22  8.8807e-28  1.524e-22  1.1238e-27  2.3341e-22  1.4836e-27   3.78e-22  2.0617e-27  6.3675e-22  2.8881e-27  1.1022e-21  4.2139e-27  1.9467e-21
      4.55  4.8861e-28  3.9105e-23  4.8492e-28  3.9163e-23  4.7834e-28  3.9267e-23  4.6665e-28  3.9452e-23  4.4586e-28  3.9781e-23  4.0891e-28  4.0365e-23  3.4322e-28  4.1404e-23  2.9667e-28  4.3251e-23  2.9904e-28  4.6537e-23  3.0423e-28  5.238e-23  3.1637e-28  6.2773e-23  3.463e-28  8.126e-23  4.2215e-28  1.1416e-22  5.5592e-28  1.7273e-22  7.7961e-28  2.7712e-22  1.1679e-27  4.6347e-22  1.728e-27  7.9717e-22  2.639e-27  1.3979e-21  4.151e-27  2.4895e-21
      4.60  2.8199e-28  3.1657e-23  2.7842e-28  3.1732e-23  2.7207e-28  3.1865e-23  2.6077e-28  3.2102e-23  2.407e-28  3.2523e-23   2.05e-28  3.3273e-23  1.4638e-28  3.4606e-23  1.4755e-28  3.6976e-23  1.5007e-28  4.1192e-23  1.5595e-28  4.869e-23  1.7058e-28  6.2025e-23  2.0871e-28  8.5749e-23  2.7965e-28  1.2797e-22  4.1276e-28  2.0315e-22  6.3489e-28  3.3716e-22  1.0117e-27  5.765e-22  1.6031e-27  1.0053e-21  2.5561e-27  1.7782e-21  4.1799e-27  3.1854e-21
      4.65  1.8457e-28  2.6861e-23  1.8148e-28  2.6957e-23  1.7598e-28  2.7127e-23  1.6619e-28  2.743e-23  1.4881e-28  2.7969e-23  1.1791e-28  2.8927e-23  8.7967e-29  3.063e-23  8.9202e-29  3.366e-23  9.1963e-29  3.9048e-23  9.8614e-29  4.863e-23  1.1572e-28  6.5675e-23  1.532e-28  9.5998e-23  2.2587e-28  1.4997e-22  3.5528e-28  2.4608e-22  6.0599e-28  4.1745e-22  1.0084e-27  7.2362e-22  1.6479e-27  1.2726e-21  2.7033e-27  2.2633e-21  4.5216e-27  4.0706e-21
      4.70  1.3635e-28  2.5648e-23  1.3391e-28  2.577e-23  1.2959e-28  2.5987e-23  1.219e-28  2.6374e-23  1.0823e-28  2.706e-23  8.3939e-29  2.8281e-23  6.5426e-29  3.0453e-23  6.6873e-29  3.4314e-23  7.0102e-29  4.1182e-23  7.7885e-29  5.3397e-23  9.7979e-29  7.5125e-23  1.3863e-28  1.1378e-22  2.2249e-28  1.8259e-22  3.7874e-28  3.0515e-22   6.35e-28  5.2374e-22  1.0528e-27  9.1449e-22  1.7643e-27  1.6158e-21  2.9622e-27  2.8833e-21  5.0414e-27  5.2018e-21
      4.75  1.1073e-28  3.0291e-23  1.0898e-28  3.0446e-23  1.0586e-28  3.0721e-23  1.0033e-28  3.121e-23  9.0501e-29  3.2079e-23  7.3047e-29  3.3625e-23  5.7865e-29  3.6375e-23  5.9834e-29  4.1264e-23  6.4191e-29  4.996e-23  7.4607e-29  6.5427e-23  1.0096e-28  9.294e-23  1.518e-28  1.419e-22  2.4426e-28  2.2904e-22  4.0531e-28  3.843e-22  6.8756e-28  6.6132e-22  1.1633e-27  1.1568e-21  1.9692e-27  2.0472e-21  3.342e-27  3.6594e-21  5.7641e-27  6.6182e-21
      4.80  9.4087e-29  4.3886e-23  9.297e-29  4.4079e-23  9.0984e-29  4.4423e-23  8.7458e-29  4.5034e-23  8.1201e-29  4.6122e-23  7.0117e-29  4.8055e-23  5.6158e-29  5.1494e-23  5.9126e-29  5.7609e-23  6.5723e-29  6.8485e-23  8.1608e-29  8.7829e-23  1.1588e-28  1.2224e-22  1.7289e-28  1.8348e-22  2.7869e-28  2.925e-22  4.6692e-28  4.8678e-22  7.9242e-28  8.3354e-22  1.3498e-27  1.4542e-21  2.3214e-27  2.5708e-21  4.0025e-27  4.5967e-21  7.0076e-27  8.3264e-21
      4.85  7.7204e-29  6.5129e-23  7.6679e-29  6.5366e-23  7.5749e-29  6.5789e-23  7.4101e-29  6.6539e-23  7.1196e-29  6.7875e-23  6.6103e-29  7.0249e-23  5.7288e-29  7.4472e-23  5.8629e-29  8.1981e-23  6.9161e-29  9.5337e-23  9.1754e-29  1.1909e-22  1.332e-28  1.6136e-22  2.0593e-28  2.3656e-22  3.3835e-28  3.7048e-22  5.6931e-28  6.0917e-22  9.6966e-28  1.0354e-21  1.6621e-27  1.7987e-21  2.8541e-27  3.1734e-21  4.8964e-27  5.6722e-21  8.5327e-27  1.0286e-20
      4.90  5.7145e-29  8.0876e-23  5.7184e-29  8.1159e-23  5.7258e-29  8.1662e-23  5.7405e-29  8.2556e-23  5.7716e-29  8.4147e-23  5.8422e-29  8.6976e-23  6.0167e-29  9.2007e-23  6.4792e-29  1.0095e-22  7.6531e-29  1.1687e-22  1.045e-28  1.4517e-22  1.6027e-28  1.9552e-22  2.6082e-28  2.8513e-22  4.4179e-28  4.4469e-22  7.4907e-28  7.2913e-22  1.2639e-27  1.2371e-21  2.1283e-27  2.1472e-21  3.5912e-27  3.7872e-21  6.0386e-27  6.7714e-21  1.0385e-26  1.2292e-20
      4.95  3.8938e-29  7.9698e-23  3.9598e-29  8.0023e-23  4.0404e-29   8.06e-23  4.1873e-29  8.1626e-23  4.4601e-29  8.3451e-23  4.9809e-29  8.6697e-23  6.0192e-29  9.2469e-23  8.1952e-29  1.0273e-22  1.2508e-28  1.2099e-22  2.0256e-28  1.5346e-22  3.4024e-28  2.1124e-22  5.8423e-28  3.1405e-22  9.9923e-28  4.9713e-22  1.7007e-27  8.2351e-22  2.8788e-27  1.4064e-21  4.8612e-27  2.4511e-21  8.2107e-27  4.334e-21  1.4027e-26  7.7625e-21  2.4413e-26  1.4112e-20
      5.00  2.782e-29  6.8345e-23  2.7922e-29  6.8026e-23  2.9259e-29  6.8661e-23  3.1404e-29  6.9792e-23  3.5513e-29  7.1803e-23  4.373e-29  7.5378e-23  6.102e-29  8.1736e-23  9.7583e-29  9.3044e-23  1.6769e-28  1.1316e-22  2.9606e-28  1.4893e-22  5.094e-28  2.1257e-22  8.7001e-28  3.2584e-22  1.4696e-27  5.2757e-22  2.4483e-27  8.8724e-22  4.0388e-27  1.5298e-21  6.6626e-27  2.682e-21  1.1067e-26  4.7608e-21  1.8716e-26  8.5519e-21  3.2221e-26  1.5593e-20
      5.05  2.1419e-29  5.4651e-23  2.1822e-29  5.4477e-23  2.3159e-29  5.513e-23  2.5812e-29  5.6291e-23  3.1177e-29  5.8357e-23  4.3451e-29  6.2029e-23  6.7448e-29  6.856e-23  1.2366e-28  8.0175e-23  2.3586e-28  1.0083e-22  4.0763e-28  1.3758e-22  6.8807e-28  2.0296e-22  1.1385e-27  3.1933e-22  1.8486e-27  5.266e-22  2.9356e-27  8.9627e-22  4.6337e-27  1.557e-21  7.3695e-27  2.7427e-21  1.1984e-26  4.8849e-21  1.9981e-26  8.801e-21  3.3687e-26  1.6103e-20
      5.10  1.7841e-29  4.2703e-23  1.8625e-29  4.3061e-23  2.0277e-29  4.3696e-23  2.3831e-29  4.4826e-23  3.2879e-29  4.6835e-23  4.9437e-29  5.0408e-23  8.7688e-29  5.6761e-23  1.7924e-28  6.8061e-23  3.2469e-28  8.8158e-23  5.494e-28  1.2391e-22  8.9117e-28  1.8752e-22  1.4014e-27  3.0075e-22  2.148e-27  5.0247e-22  3.2337e-27  8.6231e-22  4.8868e-27  1.5058e-21  7.4067e-27  2.6615e-21  1.1526e-26  4.7528e-21  1.8761e-26  8.5854e-21  3.1605e-26  1.5761e-20
      5.15  1.618e-29  3.3955e-23  1.7177e-29  3.4309e-23  1.9441e-29  3.4941e-23  2.5883e-29  3.6063e-23  3.8352e-29  3.8059e-23  6.4705e-29  4.1608e-23  1.2889e-28  4.792e-23  2.5045e-28  5.9145e-23  4.3693e-28  7.9111e-23  7.1134e-28  1.1463e-22  1.0937e-27  1.7783e-22  1.6286e-27  2.9033e-22  2.3756e-27  4.9079e-22  3.4327e-27  8.4846e-22  4.7265e-27  1.4884e-21  6.9006e-27  2.6384e-21  1.0668e-26  4.722e-21  1.7349e-26  8.5485e-21  2.9323e-26  1.5737e-20
      5.20  1.5296e-29  2.7415e-23  1.6862e-29  2.7781e-23  2.0788e-29  2.8431e-23  3.1156e-29  2.9588e-23  4.9348e-29  3.1646e-23  9.4149e-29  3.5304e-23  1.9756e-28  4.181e-23  3.3911e-28  5.3381e-23  5.5359e-28  7.3961e-23  8.6779e-28  1.1057e-22  1.2823e-27  1.7572e-22  1.8287e-27  2.9171e-22  2.5402e-27  4.9838e-22  3.2468e-27  8.6724e-22  4.4211e-27  1.5274e-21  6.4633e-27  2.7145e-21  1.0082e-26  4.8675e-21  1.6567e-26  8.8287e-21  2.8324e-26  1.6292e-20
      5.25  1.5202e-29  2.2515e-23  1.7469e-29  2.2892e-23  2.399e-29  2.3562e-23  4.0315e-29  2.4754e-23  7.4153e-29  2.6873e-23  1.3399e-28  3.0643e-23  2.5303e-28  3.7346e-23  4.196e-28  4.9267e-23  6.4906e-28  7.0472e-23  9.7797e-28  1.082e-22  1.414e-27  1.7532e-22  1.9741e-27  2.9484e-22  2.4195e-27  5.0784e-22  3.1463e-27  8.8806e-22  4.3949e-27  1.5688e-21  6.5756e-27  2.7937e-21  1.0425e-26  5.0177e-21  1.7347e-26  9.117e-21  3.0058e-26  1.6864e-20
      5.30  1.5577e-29  1.8805e-23  1.9367e-29  1.9188e-23  3.1177e-29  1.9869e-23  6.1492e-29  2.1081e-23  9.9282e-29  2.3235e-23  1.6951e-28  2.7067e-23  2.9695e-28  3.3881e-23  4.6708e-28    4.6e-23  7.1462e-28  6.7557e-23  1.0361e-27  1.0591e-22   1.51e-27  1.7415e-22  1.9027e-27  2.9567e-22  2.3908e-27  5.1226e-22  3.1135e-27  8.9897e-22  4.3033e-27  1.5916e-21  6.378e-27  2.8388e-21  9.9269e-27  5.106e-21  1.6367e-26  9.2935e-21  2.827e-26  1.7233e-20
      5.35  1.6777e-29  1.5975e-23  2.3913e-29  1.6365e-23  4.4738e-29  1.7059e-23  7.6804e-29  1.8292e-23  1.1958e-28  2.0485e-23  1.9121e-28  2.4385e-23  3.209e-28  3.1321e-23  4.9275e-28  4.3657e-23  7.3605e-28   6.56e-23  1.1137e-27  1.0464e-22  1.5483e-27  1.7411e-22  1.837e-27  2.9782e-22  2.2751e-27  5.1835e-22  2.9659e-27  9.122e-22  4.1164e-27  1.6179e-21  6.0164e-27  2.8895e-21  9.4238e-27  5.2039e-21  1.5596e-26  9.4872e-21  2.7058e-26  1.7634e-20
      5.40  1.7665e-29  1.3765e-23  2.7726e-29  1.4145e-23  5.1722e-29  1.482e-23  7.9868e-29  1.6022e-23  1.2546e-28  1.8158e-23  1.922e-28  2.1958e-23  3.102e-28  2.8715e-23  5.0854e-28  4.0733e-23  7.716e-28  6.2111e-23  1.2076e-27  1.0014e-22  1.4854e-27  1.6783e-22  1.7825e-27  2.8838e-22  2.2484e-27  5.0329e-22  2.9788e-27  8.8721e-22  4.1941e-27  1.5754e-21  6.1825e-27  2.8167e-21  9.6536e-27  5.0789e-21  1.5982e-26  9.2757e-21  2.7746e-26  1.7289e-20
      5.45  1.6202e-29  1.197e-23  2.3805e-29  1.2288e-23  4.5254e-29  1.2855e-23  6.9507e-29  1.3862e-23  1.0645e-28  1.5653e-23  1.7414e-28  1.8839e-23  2.8364e-28  2.4503e-23  4.6534e-28  3.4579e-23  7.883e-28  5.2499e-23  1.266e-27  8.4382e-23  1.4983e-27  1.4113e-22  1.8469e-27  2.4221e-22  2.3717e-27  4.2245e-22  3.095e-27  7.4455e-22  4.2633e-27  1.3223e-21  6.2098e-27  2.3655e-21  9.6034e-27  4.2706e-21  1.5754e-26  7.816e-21  2.7265e-26  1.462e-20
      5.50  1.3428e-29  1.0474e-23  1.6517e-29  1.0704e-23  2.5346e-29  1.1112e-23  4.9596e-29  1.1838e-23  8.3825e-29  1.313e-23  1.4328e-28  1.5426e-23  2.5061e-28  1.9511e-23  4.4023e-28  2.6775e-23    7.6e-28  3.9695e-23  1.2134e-27  6.2682e-23  1.5719e-27  1.036e-22  1.9728e-27  1.7649e-22  2.4154e-27  3.065e-22  3.0708e-27  5.3891e-22  4.0284e-27  9.5608e-22  5.6329e-27  1.7102e-21  8.4512e-27  3.0898e-21  1.3548e-26  5.6657e-21  2.3052e-26  1.0633e-20
      5.55  1.2097e-29  9.308e-24  1.3594e-29  9.4807e-24  1.7698e-29  9.7877e-24  3.0123e-29  1.0334e-23  6.1591e-29  1.1305e-23  1.252e-28  1.3032e-23  2.4115e-28  1.6103e-23  4.4817e-28  2.1565e-23  7.9224e-28  3.1281e-23  1.2097e-27  4.8567e-23  1.6187e-27  7.934e-23  1.9701e-27  1.3416e-22  2.3512e-27  2.3196e-22  2.8346e-27  4.0683e-22  3.6015e-27  7.2085e-22  4.8461e-27  1.2889e-21  7.0413e-27  2.3295e-21  1.1031e-26  4.2762e-21  1.843e-26  8.0425e-21
      5.60  1.1554e-29  8.4113e-24  1.3118e-29  8.5612e-24  1.7609e-29  8.8278e-24  3.0674e-29  9.3018e-24  5.5199e-29  1.0145e-23  1.1606e-28  1.1644e-23  2.4927e-28  1.4309e-23  4.7578e-28  1.905e-23  8.6927e-28  2.7482e-23  1.2031e-27  4.2488e-23  1.5705e-27   6.92e-23  1.8164e-27  1.1679e-22  2.0985e-27  2.0169e-22  2.4983e-27  3.5354e-22  3.1323e-27  6.2626e-22  4.1605e-27  1.1198e-21  5.9613e-27  2.0246e-21  9.2288e-27  3.7194e-21  1.5286e-26  7.0045e-21
      5.65  1.1085e-29  7.7117e-24  1.3085e-29  7.8548e-24  1.8908e-29  8.1093e-24  3.504e-29  8.5617e-24  6.7179e-29  9.3663e-24  1.3124e-28  1.0797e-23  2.6248e-28  1.3342e-23  5.0855e-28  1.7867e-23  9.2033e-28  2.5916e-23  1.2121e-27  4.0241e-23  1.5127e-27  6.5743e-23  1.6848e-27  1.1118e-22  1.9324e-27  1.9224e-22  2.2799e-27  3.3723e-22  2.8594e-27  5.9769e-22  3.7979e-27  1.0692e-21  5.4521e-27  1.934e-21  8.4501e-27  3.5554e-21  1.4028e-26  6.7022e-21
      5.70  1.0809e-29  7.155e-24  1.3296e-29  7.295e-24  2.056e-29  7.5441e-24  4.1542e-29  7.9869e-24  7.6022e-29  8.7745e-24  1.4867e-28  1.0175e-23  2.966e-28  1.2665e-23  5.732e-28  1.7094e-23  9.0216e-28  2.4974e-23  1.136e-27  3.8996e-23  1.3565e-27  6.3959e-23  1.5305e-27  1.0844e-22  1.7508e-27  1.8779e-22  2.0738e-27  3.2973e-22  2.6215e-27  5.8477e-22  3.5466e-27  1.0466e-21  5.1725e-27  1.8941e-21  8.131e-27  3.4842e-21  1.3663e-26  6.5743e-21
      5.75  1.0185e-29  6.6481e-24  1.2891e-29  6.7814e-24  2.0702e-29  7.0186e-24  4.1029e-29  7.4403e-24  8.1602e-29  8.1902e-24  1.6436e-28  9.5236e-24  3.3511e-28  1.1895e-23  6.0426e-28  1.6112e-23  8.0037e-28  2.3617e-23  9.8198e-28  3.697e-23  1.1264e-27  6.0743e-23  1.2984e-27  1.031e-22  1.5094e-27  1.7868e-22  1.8385e-27  3.1388e-22  2.3808e-27  5.5685e-22  3.3071e-27  9.9698e-22  4.9634e-27  1.8051e-21  7.9944e-27  3.3228e-21  1.3701e-26  6.2764e-21
      5.80  9.4356e-30  6.2574e-24  1.2101e-29  6.3799e-24  1.9609e-29  6.5977e-24  4.0035e-29  6.985e-24  8.5237e-29  7.6736e-24  1.825e-28  8.8981e-24  3.4513e-28  1.1076e-23  5.4148e-28  1.495e-23  6.8593e-28  2.1842e-23  8.3652e-28  3.4107e-23  9.495e-28  5.5942e-23  1.1329e-27  9.4846e-23  1.3559e-27  1.6427e-22  1.6919e-27  2.8848e-22  2.2658e-27  5.1175e-22  3.2638e-27  9.1635e-22  5.0513e-27  1.6597e-21  8.3527e-27  3.0573e-21  1.4625e-26  5.7817e-21
      5.85  9.1223e-30  5.9602e-24  1.2188e-29  6.0756e-24  2.0495e-29  6.2809e-24  4.1963e-29  6.6459e-24  9.3219e-29  7.295e-24  2.0203e-28  8.4491e-24  3.2312e-28  1.0502e-23  4.7873e-28  1.4154e-23  6.0243e-28  2.0652e-23  7.5365e-28  3.2213e-23   8.87e-28  5.2797e-23  1.0476e-27  8.9474e-23  1.2892e-27  1.5493e-22  1.6665e-27  2.7205e-22  2.3217e-27  4.8262e-22  3.4698e-27  8.6436e-22  5.5492e-27  1.5662e-21  9.4045e-27  2.8871e-21  1.6782e-26  5.466e-21
      5.90  8.8632e-30  5.7436e-24  1.2578e-29  5.8589e-24  2.244e-29  6.0638e-24  4.6754e-29  6.4282e-24  1.0469e-28  7.076e-24  2.0625e-28  8.2282e-24  3.2636e-28  1.0278e-23  4.3492e-28  1.3924e-23  5.7491e-28  2.041e-23  7.104e-28  3.1952e-23  8.4271e-28  5.2501e-23  1.0095e-27  8.9118e-23  1.2852e-27  1.5447e-22  1.7477e-27  2.7142e-22  2.5425e-27  4.8172e-22  3.9588e-27  8.6312e-22  6.5376e-27  1.5647e-21  1.1346e-26  2.8864e-21  2.0611e-26  5.4709e-21
      5.95  8.413e-30  5.589e-24   1.26e-29  5.7066e-24  2.3293e-29  5.9158e-24  5.0947e-29  6.2877e-24  1.1396e-28  6.9489e-24  2.1495e-28  8.125e-24  3.3322e-28  1.0217e-23  4.4547e-28  1.3938e-23  5.5655e-28  2.0559e-23  6.7775e-28  3.234e-23  8.3502e-28  5.3314e-23  1.0211e-27  9.0691e-23  1.3273e-27  1.574e-22  1.8634e-27  2.768e-22  2.8059e-27  4.9156e-22  4.4895e-27  8.8116e-22  7.5692e-27  1.5983e-21  1.3332e-26  2.9506e-21  2.4496e-26  5.5989e-21
      6.00  7.8422e-30  5.4797e-24  1.1788e-29  5.5978e-24  2.2437e-29  5.8076e-24  4.9724e-29  6.1807e-24  1.132e-28  6.8441e-24  2.3025e-28  8.0239e-24  3.4607e-28  1.0123e-23  4.5365e-28  1.3856e-23  5.6509e-28  2.0498e-23  6.9504e-28  3.2317e-23  8.5673e-28  5.3361e-23  1.0919e-27  9.0862e-23  1.4748e-27  1.578e-22  2.1467e-27  2.7762e-22  3.343e-27  4.9319e-22  5.5058e-27  8.8442e-22  9.4699e-27  1.6051e-21  1.6912e-26  2.9655e-21  3.1403e-26  5.634e-21
      6.05  7.0254e-30  5.4228e-24  1.0253e-29  5.5375e-24  1.9327e-29  5.7414e-24  4.3754e-29  6.104e-24  1.0288e-28  6.7486e-24  2.3065e-28  7.8947e-24  3.5407e-28  9.9336e-24  4.655e-28  1.3561e-23  5.8009e-28  2.0014e-23  7.1062e-28  3.1497e-23  8.7593e-28  5.1944e-23  1.1453e-27  8.8382e-23  1.6028e-27  1.5343e-22  2.4104e-27  2.6988e-22  3.8557e-27  4.7945e-22  6.472e-27  8.5996e-22  1.1278e-26  1.5614e-21  2.0326e-26  2.8872e-21  3.8011e-26  5.4928e-21
      6.10  6.3453e-30  5.3977e-24  9.0932e-30  5.5065e-24  1.6604e-29  5.6998e-24  3.671e-29  6.0436e-24  8.7218e-29  6.6548e-24  2.0037e-28  7.7416e-24  3.3242e-28  9.6748e-24  4.5629e-28  1.3114e-23  5.6247e-28  1.9233e-23  6.8202e-28  3.0122e-23  8.6935e-28  4.951e-23  1.171e-27  8.4063e-23  1.6977e-27  1.4575e-22  2.6361e-27  2.5621e-22  4.3159e-27  4.5504e-22  7.3587e-27  8.1624e-22  1.2961e-26  1.4826e-21  2.3531e-26  2.7438e-21  4.4258e-26  5.2273e-21
      6.15  6.0026e-30    5.4e-24  8.5221e-30  5.5009e-24  1.5079e-29  5.6802e-24  3.208e-29  5.9991e-24  7.3103e-29  6.5661e-24  1.5248e-28  7.5742e-24  2.5027e-28  9.3673e-24  3.8331e-28  1.2557e-23  4.8951e-28  1.8232e-23  6.1764e-28  2.8331e-23  8.1867e-28  4.6313e-23  1.1457e-27  7.8364e-23  1.7255e-27  1.3559e-22  2.7573e-27  2.3807e-22  4.6129e-27  4.226e-22  7.9779e-27  7.5797e-22  1.4178e-26  1.3772e-21  2.5901e-26  2.5508e-21  4.8952e-26  4.8664e-21
      6.20  5.7813e-30  5.4243e-24  8.2501e-30  5.5144e-24  1.4313e-29  5.6746e-24  2.8915e-29  5.9595e-24  5.8237e-29  6.4659e-24  1.1266e-28  7.3665e-24  1.8164e-28  8.9682e-24  2.7205e-28  1.1817e-23  3.8084e-28  1.6886e-23  5.1911e-28  2.5906e-23  7.2159e-28  4.1968e-23  1.0672e-27  7.0597e-23  1.6685e-27  1.2172e-22  2.7441e-27  2.1328e-22  4.6774e-27  3.7821e-22  8.1879e-27  6.7812e-22  1.4664e-26  1.2324e-21  2.693e-26  2.2842e-21  5.1112e-26  4.364e-21
      6.25  5.2813e-30  5.4663e-24  7.5179e-30  5.5421e-24  1.2727e-29  5.6769e-24  2.3253e-29  5.9167e-24  4.4083e-29  6.3429e-24  8.2025e-29  7.1008e-24  1.2793e-28  8.4488e-24  1.9354e-28  1.0846e-23  2.8163e-28  1.5111e-23  4.0843e-28  2.2701e-23  6.0675e-28  3.6216e-23  9.4611e-28  6.0307e-23  1.5397e-27  1.0333e-22  2.5965e-27  1.804e-22  4.4939e-27  3.1927e-22  7.9422e-27  5.7194e-22  1.4312e-26  1.0393e-21  2.6396e-26  1.9277e-21  5.0278e-26  3.6883e-21
      6.30  4.6197e-30  5.5497e-24  6.3709e-30  5.6102e-24  9.8374e-30  5.7178e-24  1.7844e-29  5.9091e-24  3.1773e-29  6.2492e-24  5.7769e-29  6.854e-24  8.5551e-29  7.9295e-24  1.3438e-28  9.8423e-24  2.0878e-28  1.3245e-23  3.1546e-28   1.93e-23  4.9949e-28  3.0083e-23  8.1244e-28  4.9304e-23  1.3664e-27  8.3632e-23  2.3497e-27  1.4515e-22  4.1176e-27  2.5602e-22  7.332e-27  4.5786e-22  1.3276e-26  8.3162e-22  2.457e-26  1.5431e-21  4.6949e-26  2.9566e-21
      6.35   4.02e-30  5.6562e-24  5.2498e-30  5.7041e-24  7.8252e-30  5.7893e-24  1.291e-29  5.9406e-24  2.3427e-29  6.2098e-24  4.2108e-29  6.6884e-24  5.8967e-29  7.5396e-24  9.021e-29  9.0533e-24  1.4729e-28  1.1746e-23  2.4736e-28  1.6538e-23  4.091e-28  2.5071e-23  6.9507e-28  4.0282e-23  1.1964e-27  6.7451e-23  2.0896e-27  1.1615e-22  3.7002e-27  2.0394e-22  6.6314e-27  3.6388e-22  1.2057e-26  6.6034e-22  2.2385e-26  1.2256e-21  4.2898e-26  2.3513e-21
      6.40   3.48e-30  5.7852e-24  4.5162e-30  5.8241e-24  6.4425e-30  5.8932e-24  9.992e-30  6.0161e-24  1.6922e-29  6.2347e-24  3.1315e-29  6.6233e-24  4.4178e-29  7.3144e-24  6.6882e-29  8.5436e-24  1.1087e-28  1.073e-23  1.9534e-28  1.4621e-23  3.4753e-28  2.155e-23  6.1579e-28  3.3902e-23  1.0893e-27  5.5967e-23  1.936e-27  9.5521e-23  3.4658e-27  1.6686e-22  6.2527e-27  2.969e-22  1.1418e-26  5.3818e-22  2.1269e-26  9.9896e-22  4.0888e-26  1.9187e-21
      6.45  3.0013e-30  5.9332e-24  3.9494e-30  5.9653e-24  5.4482e-30  6.0225e-24  8.3814e-30  6.1242e-24  1.3394e-29  6.305e-24  2.3279e-29  6.6264e-24  3.7477e-29  7.1981e-24  5.7623e-29  8.2148e-24  9.7405e-29  1.0023e-23  1.7439e-28  1.3241e-23  3.1907e-28  1.8972e-23  5.8123e-28  2.9188e-23  1.0511e-27  4.7439e-23  1.8983e-27  8.0163e-23  3.4259e-27  1.392e-22  6.2132e-27  2.4688e-22  1.1388e-26  4.4684e-22  2.1274e-26  8.2929e-22  4.1013e-26  1.5943e-21
      6.50  2.4929e-30  6.0979e-24  3.3791e-30  6.1247e-24  4.5926e-30  6.1722e-24  6.8901e-30  6.2567e-24  1.0804e-29  6.407e-24  1.8426e-29  6.6742e-24  2.905e-29  7.1494e-24  4.6509e-29  7.9946e-24  7.9877e-29  9.4979e-24  1.4504e-28  1.2173e-23  2.705e-28  1.6936e-23  5.0588e-28  2.5428e-23  9.3457e-28  4.0601e-23  1.7099e-27  6.7808e-23  3.1148e-27  1.1691e-22  5.6826e-27  2.065e-22  1.0455e-26   3.73e-22  1.959e-26  6.9184e-22  3.7868e-26  1.3307e-21
      6.55  2.0681e-30  6.309e-24  2.8318e-30  6.3316e-24  3.7806e-30  6.3718e-24  5.5555e-30  6.4434e-24  8.8428e-30  6.5707e-24  1.5288e-29  6.7969e-24  2.4402e-29  7.1993e-24  3.9107e-29  7.9149e-24  6.8893e-29  9.1879e-24  1.2763e-28  1.1453e-23  2.4251e-28  1.5487e-23  4.616e-28  2.2678e-23  8.6846e-28  3.5527e-23  1.6112e-27  5.857e-23  2.961e-27  1.0016e-22  5.4322e-27  1.7608e-22  1.0034e-26  3.1727e-22  1.8855e-26  5.8787e-22  3.6538e-26  1.1309e-21
      6.60  1.7215e-30  6.5378e-24  2.311e-30  6.5576e-24  3.139e-30  6.5929e-24  4.5158e-30  6.6557e-24  7.4466e-30  6.7673e-24  1.3379e-29  6.9658e-24  2.1889e-29  7.3187e-24  3.5172e-29  7.9465e-24  6.3082e-29  9.0632e-24  1.1963e-28  1.1051e-23  2.311e-28  1.4589e-23  4.4595e-28  2.0899e-23  8.4945e-28  3.2172e-23  1.5934e-27  5.2392e-23  2.9543e-27  8.8896e-23  5.4511e-27  1.5554e-22  1.0107e-26  2.7954e-22  1.9044e-26  5.1737e-22  3.6988e-26  9.9513e-22
      6.65  1.4344e-30  6.7832e-24  1.8922e-30  6.8013e-24  2.5752e-30  6.8335e-24  3.7254e-30  6.8908e-24  6.1497e-30  6.9926e-24  1.1466e-29  7.1737e-24  1.9196e-29  7.4958e-24  3.1869e-29  8.0687e-24  5.8743e-29  9.0879e-24  1.1409e-28  1.0902e-23  2.2416e-28  1.4131e-23  4.3789e-28  1.989e-23  8.429e-28  3.018e-23  1.5964e-27  4.8638e-23  2.9828e-27  8.1964e-23  5.5346e-27  1.4282e-22  1.0301e-26  2.5609e-22  1.9459e-26  4.7348e-22  3.7871e-26  9.1054e-22
      6.70  1.2176e-30  7.1144e-24  1.5133e-30  7.0611e-24  2.0983e-30  7.0915e-24  3.1365e-30  7.1457e-24  5.2467e-30  7.2419e-24  1.0619e-29  7.413e-24  1.936e-29  7.7174e-24  3.4202e-29  8.2587e-24  6.5797e-29  9.2216e-24  1.3049e-28  1.0935e-23  2.5829e-28  1.3987e-23  5.0542e-28  1.9429e-23  9.7393e-28  2.9153e-23  1.8465e-27  4.6595e-23  3.4563e-27  7.8093e-23  6.4258e-27  1.3562e-22  1.1978e-26  2.4274e-22  2.2658e-26  4.4841e-22  4.4155e-26  8.6221e-22
      6.75  9.9641e-31  7.3193e-24  1.2104e-30  7.3359e-24  1.7088e-30  7.3654e-24  2.6554e-30  7.4179e-24  4.8946e-30  7.5113e-24  1.056e-29  7.6773e-24  2.0596e-29  7.9725e-24  3.8504e-29  8.4976e-24  7.6304e-29  9.4317e-24  1.5278e-28  1.1094e-23  3.0179e-28  1.4055e-23  5.8877e-28  1.9334e-23  1.1306e-27  2.8767e-23  2.1399e-27  4.5691e-23  4.0037e-27  7.6253e-23  7.4474e-27  1.3209e-22  1.3895e-26  2.3606e-22  2.6306e-26  4.3581e-22  5.1312e-26  8.3794e-22
      6.80  8.3519e-31  7.6482e-24  9.7816e-31  7.6646e-24  1.3938e-30  7.6939e-24  2.2889e-30  7.7459e-24  4.484e-30  7.8383e-24  1.0037e-29  8.0028e-24  2.1382e-29  8.2952e-24  4.0967e-29  8.8154e-24  8.2382e-29  9.7407e-24  1.6478e-28  1.1387e-23  3.2434e-28  1.432e-23  6.3091e-28  1.955e-23   1.21e-27  2.8896e-23  2.2897e-27  4.5663e-23  4.2873e-27  7.5945e-23  7.9866e-27  1.3127e-22  1.4923e-26  2.3434e-22  2.8291e-26  4.3241e-22  5.5248e-26  8.314e-22
      6.85  7.0482e-31  7.9947e-24  8.0347e-31  8.0113e-24  1.1048e-30  8.0407e-24  1.9281e-30  8.0931e-24  3.9165e-30  8.1862e-24   9.58e-30  8.3518e-24  2.2538e-29  8.6462e-24  4.4668e-29  9.1699e-24  9.1904e-29  1.0102e-23  1.8386e-28  1.176e-23  3.6281e-28  1.4713e-23  7.0485e-28  1.9978e-23  1.3505e-27  2.9389e-23  2.5529e-27  4.6272e-23  4.7777e-27  7.6768e-23  8.9011e-27  1.3249e-22  1.6641e-26  2.3632e-22  3.1571e-26  4.3593e-22  6.1705e-26  8.3822e-22
      6.90  6.0114e-31  8.3583e-24  6.7288e-31  8.3751e-24  9.142e-31  8.4049e-24  1.6052e-30  8.458e-24  3.6463e-30  8.5522e-24  9.6214e-30  8.7199e-24  2.4349e-29  9.018e-24  5.0106e-29  9.5482e-24  1.0522e-28  1.0492e-23  2.1152e-28  1.217e-23  4.2022e-28  1.516e-23  8.2184e-28  2.0492e-23  1.5772e-27  3.002e-23  2.979e-27  4.7116e-23  5.5664e-27  7.7997e-23  1.0358e-26  1.3444e-22  1.9355e-26  2.3961e-22  3.6722e-26  4.4188e-22  7.1803e-26  8.4974e-22
      6.95  5.1813e-31  8.7383e-24  5.9107e-31  8.7552e-24  8.0733e-31  8.7851e-24  1.4811e-30  8.8384e-24  3.5523e-30  8.9332e-24  9.545e-30  9.1016e-24  2.5066e-29  9.4012e-24  5.1633e-29  9.934e-24  1.0672e-28  1.0882e-23  2.1372e-28  1.2569e-23  4.2921e-28  1.5573e-23  8.4557e-28  2.093e-23  1.6287e-27  3.0504e-23  3.0821e-27  4.7682e-23  5.7664e-27  7.8715e-23  1.074e-26  1.3544e-22  2.0083e-26  2.4117e-22  3.8135e-26  4.4456e-22  7.4628e-26  8.5487e-22
      7.00  4.487e-31  9.134e-24  5.1966e-31  9.1506e-24  7.3803e-31  9.1801e-24  1.3941e-30  9.2326e-24  3.336e-30  9.3259e-24  9.1312e-30  9.4919e-24  2.5169e-29  9.7869e-24  5.2216e-29  1.0312e-23  1.0478e-28  1.1245e-23  2.1273e-28  1.2907e-23  4.3159e-28  1.5865e-23  8.5631e-28  2.1141e-23  1.6591e-27  3.0571e-23  3.1548e-27  4.749e-23  5.9212e-27  7.8057e-23  1.1051e-26  1.3393e-22  2.0694e-26  2.3811e-22  3.9337e-26  4.3858e-22  7.7059e-26  8.4317e-22
      7.05  3.774e-31  9.5954e-24  4.4496e-31  9.6113e-24  6.4672e-31  9.6394e-24  1.2469e-30  9.6896e-24  3.0229e-30  9.7787e-24  8.3929e-30  9.9372e-24  2.4175e-29  1.0219e-23  5.1634e-29  1.072e-23  1.0474e-28  1.1612e-23  2.1388e-28  1.3199e-23  4.3724e-28  1.6024e-23  8.7671e-28  2.1062e-23  1.721e-27  3.0065e-23  3.3029e-27  4.6221e-23  6.237e-27  7.541e-23  1.1684e-26  1.2877e-22  2.1929e-26  2.2828e-22  4.1747e-26  4.1983e-22  8.1877e-26  8.0659e-22
      7.10  3.1409e-31  1.0078e-23  3.7395e-31  1.0092e-23  5.4596e-31  1.0118e-23  1.0873e-30  1.0164e-23  2.7386e-30  1.0246e-23  7.6435e-30  1.0391e-23  2.2151e-29  1.065e-23  5.1122e-29  1.111e-23  1.0597e-28  1.1928e-23  2.1601e-28  1.3383e-23  4.4177e-28  1.5975e-23  9.0371e-28  2.0595e-23  1.8054e-27  2.8853e-23  3.5113e-27  4.3668e-23  6.6878e-27  7.0438e-23  1.2596e-26  1.1938e-22  2.3719e-26  2.1067e-22  4.5248e-26  3.8644e-22  8.8868e-26  7.4149e-22
      7.15  2.6161e-31  1.058e-23  3.1303e-31  1.0593e-23  4.6767e-31  1.0616e-23  9.4238e-31  1.0656e-23  2.4055e-30  1.0728e-23  6.684e-30  1.0856e-23  1.8923e-29  1.1083e-23  4.6148e-29  1.1487e-23  9.3158e-29  1.2205e-23  1.8655e-28  1.3482e-23  3.8669e-28  1.5757e-23  8.0514e-28  1.9811e-23  1.642e-27  2.7056e-23  3.2521e-27  4.0054e-23  6.2813e-27  6.354e-23  1.1946e-26  1.0649e-22  2.2639e-26  1.8659e-22  4.3368e-26  3.4087e-22  8.5411e-26  6.5263e-22
      7.20  2.164e-31  1.1104e-23  2.5946e-31  1.1115e-23  3.9051e-31  1.1134e-23  7.9239e-31  1.1168e-23  1.9733e-30  1.1229e-23  5.3983e-30  1.1337e-23  1.4965e-29  1.1529e-23  3.7989e-29  1.187e-23  7.3525e-29  1.2478e-23  1.5043e-28  1.3558e-23  3.173e-28  1.5481e-23  6.7471e-28  1.8908e-23  1.4123e-27  2.5031e-23  2.8676e-27  3.6015e-23  5.6511e-27  5.586e-23  1.0907e-26  9.2148e-23  2.088e-26  1.5985e-22  4.0262e-26  2.9025e-22  7.9632e-26  5.5385e-22
      7.25  1.7826e-31  1.1648e-23  2.1295e-31  1.1657e-23  3.1807e-31  1.1673e-23  6.2942e-31  1.1702e-23  1.5407e-30  1.1752e-23  4.1113e-30  1.1842e-23  1.1069e-29  1.2001e-23  2.787e-29  1.2285e-23  5.5286e-29  1.2789e-23  1.1237e-28  1.3687e-23  2.4004e-28  1.5284e-23  5.2488e-28  1.813e-23  1.1328e-27  2.3213e-23  2.3734e-27  3.2332e-23  4.8013e-27  4.8805e-23  9.4513e-27  7.8927e-23  1.8346e-26  1.3512e-22  3.5703e-26  2.4339e-22  7.1036e-26  4.6227e-22
      7.30  1.4635e-31  1.2278e-23  1.7338e-31  1.2285e-23  2.5331e-31  1.2298e-23  4.9065e-31  1.2322e-23  1.1813e-30  1.2364e-23  3.0355e-30  1.2439e-23  8.0756e-30  1.2572e-23  1.9773e-29  1.2809e-23  4.1479e-29  1.323e-23  8.4499e-29  1.398e-23  1.7874e-28  1.5314e-23  4.0057e-28  1.7691e-23  8.9869e-28  2.1936e-23  1.956e-27  2.9549e-23  4.0908e-27  4.3302e-23  8.2618e-27  6.8447e-23  1.6333e-26  1.1536e-22  3.2182e-26  2.0574e-22  6.454e-26  3.8847e-22
      7.35  1.2024e-31  1.2935e-23  1.4056e-31  1.2942e-23  2.0068e-31  1.2953e-23  3.8245e-31  1.2973e-23  8.9883e-31  1.3009e-23  2.2508e-30  1.3073e-23  5.9198e-30  1.3187e-23  1.5008e-29  1.3388e-23  3.2977e-29  1.3747e-23  6.5839e-29  1.4386e-23  1.3962e-28  1.5523e-23  3.1806e-28  1.755e-23  7.3906e-28  2.1169e-23  1.6688e-27  2.7659e-23  3.5983e-27  3.9382e-23  7.4475e-27  6.0813e-23  1.4992e-26  1.0079e-22  2.9908e-26  1.7782e-22  6.047e-26  3.3354e-22
      7.40  9.8997e-32  1.3622e-23  1.1451e-31  1.3627e-23  1.6044e-31  1.3637e-23  2.9427e-31  1.3655e-23  6.9575e-31  1.3686e-23  1.7275e-30  1.3742e-23  4.4884e-30  1.3841e-23  1.1768e-29  1.4018e-23  2.7919e-29  1.4332e-23  5.4874e-29  1.489e-23  1.1597e-28  1.5885e-23  2.669e-28  1.7658e-23  6.3081e-28  2.0824e-23  1.4618e-27  2.6503e-23  3.2398e-27  3.6758e-23  6.8599e-27  5.5505e-23  1.4047e-26  9.0475e-23  2.8359e-26  1.5784e-22  5.7796e-26  2.9403e-22
      7.45  8.1079e-32  1.4336e-23  9.4096e-32  1.4341e-23  1.2931e-31  1.435e-23  2.3673e-31  1.4366e-23  5.5161e-31  1.4394e-23  1.3715e-30  1.4444e-23  3.5709e-30  1.4533e-23  9.464e-30  1.4692e-23  2.2183e-29  1.4974e-23  4.3042e-29  1.5475e-23  8.9206e-29  1.6369e-23  2.0658e-28  1.7961e-23  4.974e-28  2.0806e-23  1.1849e-27  2.5908e-23  2.7082e-27  3.5123e-23  5.8959e-27  5.1967e-23  1.2339e-26  8.3384e-23  2.5305e-26  1.439e-22  5.212e-26  2.6622e-22
      7.50  6.7913e-32  1.5079e-23  7.7417e-32  1.5083e-23  1.0754e-31  1.5091e-23  1.9632e-31  1.5106e-23  4.5836e-31  1.5132e-23  1.1317e-30  1.5178e-23  2.9632e-30  1.526e-23  7.9258e-30  1.5406e-23  1.8451e-29  1.5665e-23  3.5293e-29  1.6127e-23  7.218e-29  1.695e-23  1.6756e-28  1.8416e-23  4.0771e-28  2.1036e-23  9.9217e-28  2.5735e-23  2.3306e-27  3.4222e-23  5.2124e-27  4.9734e-23  1.1154e-26  7.8665e-23  2.3251e-26  1.3438e-22  4.8425e-26  2.4699e-22
      7.55  5.621e-32  1.593e-23  6.5606e-32  1.5934e-23  9.2346e-32  1.5942e-23  1.6927e-31  1.5955e-23  3.9918e-31  1.598e-23  9.9813e-31  1.6023e-23  2.6312e-30  1.6101e-23  6.9933e-30  1.6238e-23  1.5729e-29  1.6483e-23  3.0575e-29  1.6918e-23  6.191e-29  1.7693e-23  1.4143e-28  1.9075e-23  3.4441e-28  2.1544e-23  8.496e-28  2.5974e-23  2.0424e-27  3.3975e-23  4.6904e-27   4.86e-23  1.0282e-26  7.5872e-23  2.1841e-26  1.2839e-22  4.6098e-26  2.3451e-22
      7.60  4.7237e-32  1.6818e-23  5.5355e-32  1.6823e-23  8.0599e-32  1.683e-23  1.5341e-31  1.6843e-23  3.6714e-31  1.6867e-23  9.2755e-31  1.6908e-23  2.4841e-30  1.6983e-23  6.572e-30  1.7115e-23  1.3602e-29  1.735e-23  2.6936e-29  1.7768e-23  5.3178e-29  1.8514e-23  1.1811e-28  1.9842e-23  2.8273e-28  2.2217e-23  6.9623e-28  2.6477e-23  1.6942e-27  3.4172e-23  3.9693e-27  4.8238e-23  8.8878e-27  7.4466e-23  1.9226e-26  1.2497e-22  4.1128e-26   2.27e-22
      7.65  4.0262e-32  1.7745e-23  4.7988e-32  1.7749e-23  7.1535e-32  1.7756e-23  1.4053e-31  1.7769e-23  3.4186e-31  1.7792e-23  8.8994e-31  1.7833e-23  2.3726e-30  1.7906e-23  6.2011e-30  1.8035e-23  1.2366e-29  1.8265e-23  2.3973e-29  1.8674e-23  4.6636e-29  1.9402e-23  1.0053e-28  2.0701e-23  2.3505e-28  2.3023e-23  5.7311e-28  2.7188e-23  1.4019e-27  3.4712e-23  3.3367e-27  4.8465e-23  7.6212e-27  7.4109e-23  1.6795e-26  1.2348e-22  3.6456e-26  2.2322e-22
      7.70  3.4113e-32  1.871e-23  4.1453e-32  1.8714e-23  6.3994e-32  1.8721e-23  1.2971e-31  1.8734e-23  3.205e-31  1.8756e-23  8.4919e-31  1.8797e-23  2.2899e-30  1.8869e-23  5.9907e-30  1.8997e-23  1.0974e-29  1.9224e-23  2.1318e-29  1.9629e-23  4.1565e-29  2.0351e-23   8.65e-29  2.1637e-23  1.9694e-28  2.3936e-23  4.7296e-28  2.8061e-23  1.156e-27  3.5514e-23  2.7838e-27  4.9136e-23  6.4752e-27  7.4538e-23  1.454e-26  1.2344e-22  3.2063e-26  2.2221e-22
      7.75  2.9176e-32  1.9712e-23  3.6178e-32  1.9716e-23  5.7328e-32  1.9723e-23  1.2081e-31  1.9736e-23  3.0228e-31  1.9758e-23  8.1105e-31  1.9799e-23  2.1779e-30  1.9871e-23  5.5096e-30  1.9998e-23  1.0101e-29  2.0226e-23  1.9132e-29  2.0631e-23  3.6905e-29  2.1352e-23  7.5335e-29  2.2637e-23  1.6668e-28  2.4936e-23  3.9218e-28  2.9059e-23  9.5188e-28  3.6509e-23  2.3076e-27  5.0127e-23  5.4521e-27  7.5519e-23  1.2472e-26  1.244e-22  2.7966e-26  2.2312e-22
      7.80  2.5102e-32  2.0854e-23  3.1726e-32  2.0858e-23  5.2376e-32  2.0866e-23  1.1222e-31  2.0879e-23  2.8383e-31  2.0901e-23  7.7021e-31  2.0942e-23  2.076e-30  2.1014e-23  5.0712e-30  2.1143e-23  9.2395e-30  2.1372e-23  1.7296e-29  2.178e-23  3.2803e-29  2.2506e-23  6.5628e-29  2.3801e-23  1.4219e-28  2.6115e-23  3.2682e-28  3.0269e-23  7.8403e-28  3.7772e-23  1.9047e-27  5.1488e-23  4.5591e-27  7.7064e-23  1.0619e-26  1.2629e-22  2.4237e-26  2.2571e-22
      7.85  2.1689e-32  2.2048e-23  2.7629e-32  2.2052e-23  4.716e-32  2.206e-23  1.0298e-31  2.2073e-23  2.6003e-31  2.2096e-23  7.0869e-31  2.2137e-23  1.9212e-30  2.221e-23  4.6276e-30  2.234e-23  8.3843e-30  2.2571e-23  1.5539e-29  2.2983e-23  2.9571e-29  2.3716e-23  5.8006e-29  2.5023e-23  1.217e-28  2.736e-23  2.7317e-28  3.1554e-23  6.4589e-28  3.913e-23  1.5666e-27  5.298e-23  3.789e-27  7.8804e-23  8.9806e-27  1.2851e-22  2.0885e-26  2.2888e-22
      7.90  1.8697e-32  2.3294e-23  2.4108e-32  2.3298e-23  4.1729e-32  2.3305e-23  9.2587e-32  2.3318e-23  2.369e-31  2.3342e-23  6.3922e-31  2.3383e-23  1.7627e-30  2.3457e-23  3.9767e-30  2.3588e-23  7.2484e-30  2.3822e-23  1.334e-29  2.4237e-23  2.5223e-29  2.4977e-23  4.8837e-29  2.6297e-23  1.0043e-28  2.8656e-23  2.2069e-28  3.2889e-23  5.1428e-28  4.0537e-23  1.2439e-27  5.4518e-23  3.0374e-27  8.0586e-23  7.3302e-27  1.3076e-22  1.7404e-26  2.3206e-22
      7.95  1.6408e-32  2.4591e-23  2.1192e-32  2.4595e-23  3.6594e-32  2.4603e-23  8.0765e-32  2.4616e-23  2.0859e-31  2.4639e-23  5.6777e-31  2.4681e-23  1.5449e-30  2.4755e-23  3.4003e-30  2.4887e-23  6.1245e-30  2.5122e-23  1.1205e-29  2.554e-23  2.0987e-29  2.6285e-23  4.0364e-29  2.7613e-23  8.152e-29  2.9986e-23  1.7557e-28  3.4246e-23  4.007e-28  4.1941e-23  9.6737e-28  5.6009e-23  2.3746e-27  8.2239e-23  5.816e-27  1.3272e-22  1.4076e-26  2.3463e-22
      8.00  1.4364e-32  2.594e-23  1.8419e-32  2.5944e-23   3.16e-32  2.5951e-23  7.0169e-32  2.5965e-23  1.7876e-31  2.5988e-23  4.811e-31  2.603e-23  1.3507e-30  2.6104e-23  2.8219e-30  2.6237e-23  5.0221e-30  2.6472e-23  9.2389e-30  2.6891e-23  1.7179e-29  2.7637e-23  3.2803e-29  2.8968e-23  6.534e-29  3.1347e-23  1.3821e-28  3.5616e-23  3.104e-28  4.3328e-23  7.4254e-28  5.7426e-23  1.8258e-27  8.3712e-23  4.5234e-27  1.343e-22  1.1136e-26  2.364e-22
      8.05  1.2641e-32  2.7473e-23  1.5967e-32  2.7477e-23  2.6902e-32  2.7485e-23  5.8945e-32  2.7498e-23  1.4903e-31  2.7521e-23  4.0384e-31  2.7563e-23  1.1226e-30  2.7638e-23  2.2703e-30  2.777e-23  4.0724e-30  2.8005e-23  7.4689e-30  2.8425e-23  1.3825e-29  2.9171e-23  2.6257e-29  3.0503e-23  5.1713e-29  3.2883e-23  1.0781e-28  3.7153e-23  2.3984e-28  4.4868e-23  5.6633e-28  5.8972e-23  1.393e-27  8.5265e-23  3.4844e-27  1.3586e-22  8.7144e-27  2.3797e-22
      8.10  1.1202e-32  2.9077e-23  1.3848e-32  2.9081e-23  2.2539e-32  2.9089e-23  4.8126e-32  2.9102e-23  1.2096e-31  2.9125e-23  3.2372e-31  2.9167e-23  8.9966e-31  2.9241e-23  1.8243e-30  2.9373e-23  3.2683e-30  2.9608e-23  5.8665e-30  3.0026e-23  1.0809e-29  3.077e-23  2.0601e-29  3.2097e-23  4.0329e-29  3.447e-23  8.3091e-29  3.8727e-23  1.8266e-28  4.6418e-23  4.2784e-28  6.0476e-23  1.0516e-27  8.6684e-23  2.6509e-27  1.3711e-22  6.7236e-27  2.3885e-22
      8.15  1.0015e-32  3.0753e-23  1.2068e-32  3.0757e-23  1.888e-32  3.0764e-23  3.8751e-32  3.0777e-23  9.6338e-32   3.08e-23  2.5874e-31  3.0842e-23  7.1204e-31  3.0916e-23  1.4249e-30  3.1047e-23  2.5539e-30  3.1281e-23  4.6179e-30  3.1696e-23  8.397e-30  3.2436e-23  1.5776e-29  3.3757e-23  3.0951e-29  3.6116e-23  6.311e-29  4.035e-23  1.3711e-28  4.7999e-23  3.1822e-28  6.198e-23  7.8006e-28  8.8041e-23  1.9768e-27  1.3817e-22  5.0754e-27  2.3931e-22
      8.20  9.0481e-33   3.25e-23  1.0607e-32  3.2505e-23  1.5834e-32  3.2512e-23  3.1129e-32  3.2525e-23  7.5184e-32  3.2548e-23  2.0108e-31  3.2589e-23  5.4738e-31  3.2663e-23  1.0876e-30  3.2793e-23  1.9681e-30  3.3025e-23  3.5196e-30  3.3438e-23  6.505e-30  3.4174e-23  1.206e-29  3.5485e-23  2.3527e-29  3.783e-23  4.7682e-29  4.2036e-23  1.0273e-28  4.9636e-23  2.3684e-28  6.3525e-23  5.7952e-28  8.9411e-23  1.4757e-27  1.392e-22  3.8305e-27  2.3962e-22
      8.25  8.2373e-33  3.4322e-23  9.4061e-33  3.4326e-23  1.307e-32  3.4333e-23  2.4962e-32  3.4346e-23  5.8424e-32  3.4369e-23  1.5291e-31  3.441e-23  4.2358e-31  3.4483e-23  8.3055e-31  3.4612e-23  1.4864e-30  3.4843e-23  2.683e-30  3.5253e-23  4.9043e-30  3.5984e-23  9.2352e-30  3.7288e-23  1.7789e-29  3.9618e-23  3.5897e-29  4.3799e-23  7.6642e-29  5.1351e-23  1.7659e-28  6.5153e-23  4.3181e-28  9.0874e-23  1.1048e-27  1.4034e-22  2.8961e-27  2.4007e-22
      8.30  7.6187e-33  3.6389e-23  8.4887e-33  3.6393e-23  1.1228e-32   3.64e-23  1.9774e-32  3.6413e-23  4.4977e-32  3.6436e-23  1.1726e-31  3.6477e-23  3.2209e-31  3.655e-23  6.3729e-31  3.6679e-23  1.1388e-30  3.691e-23  2.0539e-30  3.7319e-23  3.7494e-30  3.8049e-23  6.9827e-30  3.9351e-23  1.3416e-29  4.1678e-23  2.6986e-29  4.5853e-23  5.7663e-29  5.3395e-23  1.3205e-28  6.7177e-23  3.2304e-28  9.2857e-23  8.3039e-28  1.4223e-22  2.1966e-27  2.4176e-22
      8.35  7.1205e-33  3.8557e-23  7.7539e-33  3.8561e-23  9.7608e-33  3.8568e-23  1.6024e-32  3.8581e-23  3.4267e-32  3.8604e-23  8.686e-32  3.8645e-23  2.3894e-31  3.8718e-23  4.7283e-31  3.8848e-23  8.436e-31  3.9078e-23  1.5201e-30  3.9489e-23  2.7747e-30  4.022e-23  5.1661e-30  4.1524e-23  9.9248e-30  4.3854e-23  1.9966e-29  4.8035e-23  4.2706e-29  5.5587e-23  9.801e-29  6.9387e-23  2.4075e-28  9.5097e-23  6.2318e-28  1.4452e-22  1.665e-27  2.4411e-22
      8.40  6.7232e-33  4.0828e-23  7.1777e-33  4.0832e-23  8.5982e-33  4.084e-23  1.3221e-32  4.0853e-23  2.6198e-32  4.0876e-23  6.4204e-32  4.0917e-23  1.7207e-31  4.099e-23  3.4363e-31  4.112e-23  6.119e-31  4.1352e-23  1.1018e-30  4.1765e-23  2.0116e-30  4.2499e-23  3.7493e-30  4.3809e-23  7.2168e-30  4.6151e-23  1.4563e-29  5.0351e-23  3.129e-29  5.7938e-23  7.2252e-29  7.1801e-23  1.7881e-28  9.7626e-23  4.6711e-28  1.4726e-22  1.2532e-27  2.4725e-22
      8.45  6.4108e-33  4.3206e-23  6.7404e-33  4.321e-23  7.8049e-33  4.3217e-23  1.0887e-32  4.323e-23  2.0559e-32  4.3254e-23  4.8995e-32  4.3295e-23  1.2637e-31  4.3369e-23  2.4968e-31   4.35e-23  4.4777e-31  4.3734e-23  8.0534e-31  4.415e-23  1.4703e-30  4.4891e-23  2.7433e-30  4.6211e-23  5.2905e-30  4.8572e-23  1.0709e-29  5.2808e-23  2.311e-29  6.0457e-23  5.3671e-29  7.4433e-23  1.3376e-28  1.0046e-22  3.5235e-28  1.5048e-22  9.611e-28  2.5122e-22
      8.50  6.1643e-33  4.5693e-23  6.4068e-33  4.5697e-23    7.2e-33  4.5704e-23  9.4605e-33  4.5718e-23  1.6462e-32  4.5741e-23  3.6597e-32  4.5783e-23  9.4278e-32  4.5858e-23  1.8512e-31  4.5991e-23  3.3093e-31  4.6227e-23  5.9428e-31  4.6648e-23  1.0846e-30  4.7398e-23  2.025e-30  4.8734e-23  3.9121e-30  5.1123e-23  7.941e-30  5.5408e-23  1.7205e-29  6.3148e-23  4.0164e-29  7.7287e-23  1.0072e-28  1.0362e-22  2.6728e-28  1.5421e-22  7.3536e-28  2.5607e-22
