# This was generated using Cloudy10 and the columns are ordered 
# as log10 of the fraction of the metallicity to the solar metallicity
# 'h_*_Z' and 'c_*_Z' stands for cooling and heating respectively 
# at * metalicity
#
# NOTE: This was generated separately from loop_coolingcurve_w_UV.py
#       using Output_metals_w_redshift.py.
#
# Redshift = 6.5
# hden = -6.5
#
#     temp   h_-3.00_Z   c_-3.00_Z   h_-2.75_Z   c_-2.75_Z   h_-2.50_Z   c_-2.50_Z   h_-2.25_Z   c_-2.25_Z   h_-2.00_Z   c_-2.00_Z   h_-1.75_Z   c_-1.75_Z   h_-1.50_Z   c_-1.50_Z   h_-1.25_Z   c_-1.25_Z   h_-1.00_Z   c_-1.00_Z   h_-0.75_Z   c_-0.75_Z   h_-0.50_Z   c_-0.50_Z   h_-0.25_Z   c_-0.25_Z    h_0.00_Z    c_0.00_Z    h_0.25_Z    c_0.25_Z    h_0.50_Z    c_0.50_Z    h_0.75_Z    c_0.75_Z    h_1.00_Z    c_1.00_Z    h_1.25_Z    c_1.25_Z    h_1.50_Z    c_1.50_Z 
      4.00  1.1721e-23  6.5089e-22  1.1737e-23  6.5090e-22  1.1765e-23  6.5091e-22  1.1816e-23  6.5092e-22  1.1905e-23  6.5094e-22  1.2065e-23  6.5098e-22  1.2349e-23  6.5106e-22  1.2854e-23  6.5119e-22  1.3750e-23  6.5142e-22  1.5343e-23  6.5183e-22  1.8169e-23  6.5257e-22  2.3176e-23  6.5387e-22  3.2032e-23  6.5620e-22  4.7659e-23  6.6034e-22  7.5393e-23  6.6773e-22  1.2524e-22  6.8095e-22  2.1669e-22  7.0472e-22  3.8585e-22  7.4788e-22  7.0684e-22  8.2762e-22
      4.05  1.0938e-23  7.3025e-22  1.0954e-23  7.3026e-22  1.0981e-23  7.3026e-22  1.1029e-23  7.3028e-22  1.1116e-23  7.3030e-22  1.1269e-23  7.3035e-22  1.1541e-23  7.3043e-22  1.2025e-23  7.3058e-22  1.2886e-23  7.3083e-22  1.4414e-23  7.3129e-22  1.7126e-23  7.3210e-22  2.1932e-23  7.3355e-22  3.0433e-23  7.3612e-22  4.5442e-23  7.4070e-22  7.2058e-23  7.4887e-22  1.1996e-22  7.6347e-22  2.0778e-22  7.8968e-22  3.7023e-22  8.3709e-22  6.7851e-22  9.2412e-22
      4.10  1.0212e-23  8.1929e-22  1.0226e-23  8.1929e-22  1.0253e-23  8.1930e-22  1.0299e-23  8.1932e-22  1.0382e-23  8.1935e-22  1.0529e-23  8.1940e-22  1.0790e-23  8.1949e-22  1.1254e-23  8.1965e-22  1.2080e-23  8.1993e-22  1.3546e-23  8.2044e-22  1.6148e-23  8.2134e-22  2.0759e-23  8.2295e-22  2.8919e-23  8.2580e-22  4.3329e-23  8.3088e-22  6.8869e-23  8.3993e-22  1.1493e-22  8.5610e-22  1.9929e-22  8.8509e-22  3.5533e-22  9.3738e-22  6.5138e-22  1.0329e-21
      4.15  9.5370e-24  9.1919e-22  9.5512e-24  9.1919e-22  9.5763e-24  9.1920e-22  9.6209e-24  9.1922e-22  9.7001e-24  9.1925e-22  9.8411e-24  9.1931e-22  1.0092e-23  9.1941e-22  1.0537e-23  9.1959e-22  1.1329e-23  9.1990e-22  1.2735e-23  9.2047e-22  1.5230e-23  9.2147e-22  1.9654e-23  9.2325e-22  2.7483e-23  9.2642e-22  4.1314e-23  9.3206e-22  6.5815e-23  9.4211e-22  1.1008e-22  9.6005e-22  1.9109e-22  9.9218e-22  3.4097e-22  1.0500e-21  6.2538e-22  1.1553e-21
      4.20  8.9108e-24  1.0313e-21  8.9243e-24  1.0313e-21  8.9484e-24  1.0313e-21  8.9911e-24  1.0313e-21  9.0671e-24  1.0313e-21  9.2022e-24  1.0314e-21  9.4425e-24  1.0315e-21  9.8695e-24  1.0317e-21  1.0628e-23  1.0321e-21  1.1976e-23  1.0327e-21  1.4369e-23  1.0338e-21  1.8611e-23  1.0358e-21  2.6121e-23  1.0393e-21  3.9391e-23  1.0456e-21  6.2904e-23  1.0568e-21  1.0542e-22  1.0767e-21  1.8319e-22  1.1124e-21  3.2710e-22  1.1765e-21  6.0024e-22  1.2929e-21
      4.25  8.3296e-24  1.1570e-21  8.3426e-24  1.1570e-21  8.3657e-24  1.1571e-21  8.4067e-24  1.1571e-21  8.4795e-24  1.1571e-21  8.6090e-24  1.1572e-21  8.8392e-24  1.1573e-21  9.2485e-24  1.1575e-21  9.9759e-24  1.1579e-21  1.1268e-23  1.1586e-21  1.3562e-23  1.1599e-21  1.7629e-23  1.1621e-21  2.4830e-23  1.1660e-21  3.7559e-23  1.1730e-21  6.0126e-23  1.1854e-21  1.0093e-22  1.2076e-21  1.7558e-22  1.2473e-21  3.1372e-22  1.3187e-21  5.7602e-22  1.4479e-21
      4.30  7.7907e-24  1.2981e-21  7.8031e-24  1.2981e-21  7.8252e-24  1.2982e-21  7.8645e-24  1.2982e-21  7.9343e-24  1.2982e-21  8.0584e-24  1.2983e-21  8.2790e-24  1.2984e-21  8.6712e-24  1.2987e-21  9.3683e-24  1.2991e-21  1.0607e-23  1.2999e-21  1.2805e-23  1.3013e-21  1.6704e-23  1.3037e-21  2.3608e-23  1.3081e-21  3.5816e-23  1.3159e-21  5.7468e-23  1.3298e-21  9.6644e-23  1.3546e-21  1.6827e-22  1.3989e-21  3.0087e-22  1.4784e-21  5.5272e-22  1.6225e-21
      4.35  7.2908e-24  1.4564e-21  7.3027e-24  1.4565e-21  7.3239e-24  1.4565e-21  7.3615e-24  1.4565e-21  7.4284e-24  1.4565e-21  7.5473e-24  1.4566e-21  7.7588e-24  1.4568e-21  8.1346e-24  1.4571e-21  8.8027e-24  1.4576e-21  9.9894e-24  1.4584e-21  1.2096e-23  1.4600e-21  1.5833e-23  1.4627e-21  2.2452e-23  1.4676e-21  3.4159e-23  1.4763e-21  5.4932e-23  1.4918e-21  9.2588e-23  1.5195e-21  1.6135e-22  1.5691e-21  2.8862e-22  1.6581e-21  5.3034e-22  1.8194e-21
      4.40  6.8274e-24  1.6341e-21  6.8388e-24  1.6341e-21  6.8591e-24  1.6341e-21  6.8951e-24  1.6341e-21  6.9592e-24  1.6342e-21  7.0732e-24  1.6343e-21  7.2758e-24  1.6345e-21  7.6360e-24  1.6348e-21  8.2763e-24  1.6353e-21  9.4137e-24  1.6363e-21  1.1433e-23  1.6380e-21  1.5015e-23  1.6411e-21  2.1361e-23  1.6466e-21  3.2589e-23  1.6563e-21  5.2517e-23  1.6737e-21  8.8710e-23  1.7048e-21  1.5473e-22  1.7603e-21  2.7698e-22  1.8602e-21  5.0925e-22  2.0416e-21
      4.45  6.3978e-24  1.8334e-21  6.4088e-24  1.8334e-21  6.4283e-24  1.8334e-21  6.4628e-24  1.8334e-21  6.5243e-24  1.8335e-21  6.6335e-24  1.8336e-21  6.8277e-24  1.8338e-21  7.1730e-24  1.8342e-21  7.7867e-24  1.8348e-21  8.8770e-24  1.8359e-21  1.0813e-23  1.8378e-21  1.4248e-23  1.8413e-21  2.0333e-23  1.8474e-21  3.1103e-23  1.8584e-21  5.0222e-23  1.8779e-21  8.5007e-23  1.9128e-21  1.4841e-22  1.9752e-21  2.6584e-22  2.0877e-21  4.8908e-22  2.2924e-21
      4.50  5.9999e-24  2.0570e-21  6.0104e-24  2.0570e-21  6.0291e-24  2.0570e-21  6.0622e-24  2.0571e-21  6.1211e-24  2.0571e-21  6.2258e-24  2.0573e-21  6.4121e-24  2.0575e-21  6.7431e-24  2.0579e-21  7.3315e-24  2.0585e-21  8.3771e-24  2.0598e-21  1.0234e-23  2.0620e-21  1.3528e-23  2.0658e-21  1.9365e-23  2.0728e-21  2.9699e-23  2.0851e-21  4.8057e-23  2.1071e-21  8.1480e-23  2.1463e-21  1.4237e-22  2.2167e-21  2.5520e-22  2.3436e-21  4.6981e-22  2.5754e-21
      4.55  5.6315e-24  2.3079e-21  5.6415e-24  2.3079e-21  5.6594e-24  2.3079e-21  5.6912e-24  2.3080e-21  5.7477e-24  2.3080e-21  5.8482e-24  2.3082e-21  6.0268e-24  2.3084e-21  6.3443e-24  2.3089e-21  6.9088e-24  2.3096e-21  7.9117e-24  2.3110e-21  9.6928e-24  2.3135e-21  1.2853e-23  2.3178e-21  1.8455e-23  2.3256e-21  2.8375e-23  2.3395e-21  4.6023e-23  2.3643e-21  7.8128e-23  2.4085e-21  1.3663e-22  2.4879e-21  2.4507e-22  2.6313e-21  4.5146e-22  2.8942e-21
      4.60  5.2903e-24  2.5894e-21  5.3000e-24  2.5894e-21  5.3171e-24  2.5894e-21  5.3476e-24  2.5895e-21  5.4019e-24  2.5896e-21  5.4983e-24  2.5897e-21  5.6697e-24  2.5900e-21  5.9744e-24  2.5905e-21  6.5161e-24  2.5914e-21  7.4785e-24  2.5929e-21  9.1880e-24  2.5957e-21  1.2222e-23  2.6006e-21  1.7600e-23  2.6094e-21  2.7125e-23  2.6250e-21  4.4095e-23  2.6529e-21  7.4944e-23  2.7028e-21  1.3117e-22  2.7923e-21  2.3543e-22  2.9545e-21  4.3399e-22  3.2527e-21
      4.65  4.9746e-24  2.9052e-21  4.9838e-24  2.9053e-21  5.0003e-24  2.9053e-21  5.0296e-24  2.9053e-21  5.0816e-24  2.9054e-21  5.1742e-24  2.9056e-21  5.3387e-24  2.9059e-21  5.6313e-24  2.9065e-21  6.1513e-24  2.9075e-21  7.0753e-24  2.9092e-21  8.7167e-24  2.9124e-21  1.1630e-23  2.9179e-21  1.6795e-23  2.9278e-21  2.5946e-23  2.9455e-21  4.2266e-23  2.9770e-21  7.1920e-23  3.0333e-21  1.2598e-22  3.1347e-21  2.2626e-22  3.3185e-21  4.1736e-22  3.6575e-21
      4.70  4.6824e-24  3.2596e-21  4.6913e-24  3.2596e-21  4.7071e-24  3.2597e-21  4.7353e-24  3.2597e-21  4.7852e-24  3.2599e-21  4.8741e-24  3.2601e-21  5.0321e-24  3.2604e-21  5.3130e-24  3.2610e-21  5.8124e-24  3.2621e-21  6.6998e-24  3.2641e-21  8.2762e-24  3.2676e-21  1.1074e-23  3.2739e-21  1.6037e-23  3.2850e-21  2.4831e-23  3.3048e-21  4.0539e-23  3.3403e-21  6.9055e-23  3.4037e-21  1.2105e-22  3.5177e-21  2.1752e-22  3.7249e-21  4.0151e-22  4.1081e-21
      4.75  4.4122e-24  3.6573e-21  4.4207e-24  3.6573e-21  4.4359e-24  3.6573e-21  4.4629e-24  3.6574e-21  4.5109e-24  3.6575e-21  4.5963e-24  3.6577e-21  4.7481e-24  3.6581e-21  5.0179e-24  3.6588e-21  5.4975e-24  3.6601e-21  6.3499e-24  3.6623e-21  7.8641e-24  3.6662e-21  1.0552e-23  3.6733e-21  1.5321e-23  3.6858e-21  2.3773e-23  3.7081e-21  3.8898e-23  3.7479e-21  6.6332e-23  3.8192e-21  1.1637e-22  3.9474e-21  2.0925e-22  4.1807e-21  3.8645e-22  4.6130e-21
      4.80  4.1623e-24  4.1034e-21  4.1705e-24  4.1034e-21  4.1851e-24  4.1035e-21  4.2110e-24  4.1036e-21  4.2571e-24  4.1037e-21  4.3391e-24  4.1040e-21  4.4849e-24  4.1044e-21  4.7440e-24  4.1052e-21  5.2047e-24  4.1066e-21  6.0234e-24  4.1091e-21  7.4780e-24  4.1135e-21  1.0061e-23  4.1214e-21  1.4643e-23  4.1354e-21  2.2768e-23  4.1605e-21  3.7330e-23  4.2052e-21  6.3725e-23  4.2853e-21  1.1189e-22  4.4294e-21  2.0133e-22  4.6917e-21  3.7210e-22  5.1784e-21
      4.85  3.9310e-24  4.6040e-21  3.9389e-24  4.6041e-21  3.9529e-24  4.6041e-21  3.9778e-24  4.6042e-21  4.0221e-24  4.6044e-21  4.1008e-24  4.6046e-21  4.2407e-24  4.6051e-21  4.4896e-24  4.6060e-21  4.9320e-24  4.6076e-21  5.7184e-24  4.6104e-21  7.1155e-24  4.6154e-21  9.5967e-24  4.6242e-21  1.4000e-23  4.6400e-21  2.1809e-23  4.6681e-21  3.5828e-23  4.7183e-21  6.1223e-23  4.8081e-21  1.0758e-22  4.9699e-21  1.9373e-22  5.2645e-21  3.5835e-22  5.8113e-21
      4.90  3.7165e-24  5.1658e-21  3.7240e-24  5.1658e-21  3.7375e-24  5.1658e-21  3.7614e-24  5.1659e-21  3.8039e-24  5.1661e-21  3.8795e-24  5.1664e-21  4.0139e-24  5.1670e-21  4.2529e-24  5.1680e-21  4.6777e-24  5.1697e-21  5.4328e-24  5.1729e-21  6.7746e-24  5.1785e-21  9.1580e-24  5.1884e-21  1.3389e-23  5.2061e-21  2.0894e-23  5.2376e-21  3.4388e-23  5.2939e-21  5.8820e-23  5.3947e-21  1.0344e-22  5.5762e-21  1.8644e-22  5.9066e-21  3.4519e-22  6.5200e-21
      4.95  3.5168e-24  5.7961e-21  3.5240e-24  5.7961e-21  3.5370e-24  5.7962e-21  3.5599e-24  5.7963e-21  3.6007e-24  5.7965e-21  3.6733e-24  5.7968e-21  3.8023e-24  5.7974e-21  4.0318e-24  5.7985e-21  4.4397e-24  5.8005e-21  5.1647e-24  5.8040e-21  6.4533e-24  5.8103e-21  8.7425e-24  5.8214e-21  1.2807e-23  5.8413e-21  2.0021e-23  5.8766e-21  3.3008e-23  5.9398e-21  5.6514e-23  6.0529e-21  9.9474e-23  6.2564e-21  1.7945e-22  6.6266e-21  3.3259e-22  7.3136e-21
      5.00  3.3296e-24  6.5033e-21  3.3366e-24  6.5033e-21  3.3490e-24  6.5034e-21  3.3710e-24  6.5035e-21  3.4102e-24  6.5037e-21  3.4799e-24  6.5041e-21  3.6038e-24  6.5048e-21  3.8241e-24  6.5061e-21  4.2158e-24  6.5083e-21  4.9121e-24  6.5123e-21  6.1497e-24  6.5193e-21  8.3487e-24  6.5318e-21  1.2254e-23  6.5540e-21  1.9188e-23  6.5937e-21  3.1688e-23  6.6645e-21  5.4307e-23  6.7913e-21  9.5677e-23  7.0194e-21  1.7277e-22  7.4340e-21  3.2058e-22  8.2026e-21
      5.05  3.1525e-24  7.2969e-21  3.1592e-24  7.2969e-21  3.1711e-24  7.2970e-21  3.1923e-24  7.2971e-21  3.2299e-24  7.2974e-21  3.2969e-24  7.2978e-21  3.4159e-24  7.2986e-21  3.6275e-24  7.3000e-21  4.0038e-24  7.3025e-21  4.6728e-24  7.3069e-21  5.8619e-24  7.3148e-21  7.9750e-24  7.3288e-21  1.1729e-23  7.3538e-21  1.8397e-23  7.3983e-21  3.0439e-23  7.4778e-21  5.2217e-23  7.6199e-21  9.2076e-23  7.8756e-21  1.6643e-22  8.3399e-21  3.0919e-22  9.1994e-21
      5.10  2.9829e-24  8.1873e-21  2.9894e-24  8.1873e-21  3.0008e-24  8.1874e-21  3.0212e-24  8.1876e-21  3.0574e-24  8.1879e-21  3.1217e-24  8.1884e-21  3.2362e-24  8.1892e-21  3.4396e-24  8.1908e-21  3.8014e-24  8.1936e-21  4.4445e-24  8.1986e-21  5.5878e-24  8.2074e-21  7.6198e-24  8.2231e-21  1.1230e-23  8.2512e-21  1.7657e-23  8.3011e-21  2.9254e-23  8.3903e-21  5.0238e-23  8.5496e-21  8.8679e-23  8.8361e-21  1.6047e-22  9.3559e-21  2.9845e-22  1.0316e-20
      5.15  2.8190e-24  9.1863e-21  2.8252e-24  9.1864e-21  2.8362e-24  9.1865e-21  2.8558e-24  9.1867e-21  2.8906e-24  9.1870e-21  2.9525e-24  9.1875e-21  3.0626e-24  9.1885e-21  3.2584e-24  9.1903e-21  3.6065e-24  9.1934e-21  4.2254e-24  9.1990e-21  5.3256e-24  9.2089e-21  7.2813e-24  9.2266e-21  1.0757e-23  9.2580e-21  1.6956e-23  9.3140e-21  2.8134e-23  9.4140e-21  4.8373e-23  9.5927e-21  8.5480e-23  9.9135e-21  1.5487e-22  1.0495e-20  2.8847e-22  1.1567e-20
      5.20  2.6596e-24  1.0307e-20  2.6656e-24  1.0307e-20  2.6762e-24  1.0307e-20  2.6951e-24  1.0308e-20  2.7286e-24  1.0308e-20  2.7882e-24  1.0309e-20  2.8943e-24  1.0310e-20  3.0829e-24  1.0312e-20  3.4181e-24  1.0315e-20  4.0143e-24  1.0321e-20  5.0741e-24  1.0333e-20  6.9580e-24  1.0352e-20  1.0306e-23  1.0388e-20  1.6291e-23  1.0450e-20  2.7076e-23  1.0563e-20  4.6614e-23  1.0763e-20  8.2473e-23  1.1122e-20  1.4963e-22  1.1772e-20  2.7913e-22  1.2968e-20
      5.25  2.5054e-24  1.1565e-20  2.5111e-24  1.1565e-20  2.5214e-24  1.1565e-20  2.5395e-24  1.1565e-20  2.5719e-24  1.1566e-20  2.6293e-24  1.1566e-20  2.7316e-24  1.1568e-20  2.9133e-24  1.1570e-20  3.2365e-24  1.1574e-20  3.8110e-24  1.1581e-20  4.8326e-24  1.1593e-20  6.6485e-24  1.1615e-20  9.8761e-24  1.1655e-20  1.5658e-23  1.1725e-20  2.6070e-23  1.1851e-20  4.4947e-23  1.2075e-20  7.9628e-23  1.2477e-20  1.4468e-22  1.3203e-20  2.7037e-22  1.4535e-20
      5.30  2.3582e-24  1.2976e-20  2.3638e-24  1.2976e-20  2.3736e-24  1.2976e-20  2.3912e-24  1.2976e-20  2.4223e-24  1.2977e-20  2.4777e-24  1.2977e-20  2.5762e-24  1.2979e-20  2.7514e-24  1.2981e-20  3.0628e-24  1.2986e-20  3.6165e-24  1.2994e-20  4.6010e-24  1.3007e-20  6.3510e-24  1.3032e-20  9.4617e-24  1.3076e-20  1.5048e-23  1.3155e-20  2.5100e-23  1.3296e-20  4.3339e-23  1.3546e-20  7.6890e-23  1.3996e-20  1.3993e-22  1.4806e-20  2.6201e-22  1.6289e-20
      5.35  2.2212e-24  1.4559e-20  2.2265e-24  1.4559e-20  2.2360e-24  1.4559e-20  2.2528e-24  1.4559e-20  2.2828e-24  1.4560e-20  2.3361e-24  1.4560e-20  2.4309e-24  1.4562e-20  2.5995e-24  1.4565e-20  2.8992e-24  1.4570e-20  3.4321e-24  1.4578e-20  4.3795e-24  1.4594e-20  6.0637e-24  1.4622e-20  9.0627e-24  1.4671e-20  1.4448e-23  1.4760e-20  2.4141e-23  1.4917e-20  4.1745e-23  1.5197e-20  7.4178e-23  1.5698e-20  1.3525e-22  1.6602e-20  2.5382e-22  1.8251e-20
      5.40  2.0970e-24  1.6334e-20  2.1021e-24  1.6334e-20  2.1112e-24  1.6334e-20  2.1274e-24  1.6335e-20  2.1561e-24  1.6335e-20  2.2073e-24  1.6336e-20  2.2982e-24  1.6338e-20  2.4599e-24  1.6341e-20  2.7474e-24  1.6347e-20  3.2586e-24  1.6357e-20  4.1675e-24  1.6374e-20  5.7834e-24  1.6405e-20  8.6673e-24  1.6461e-20  1.3842e-23  1.6559e-20  2.3163e-23  1.6735e-20  4.0110e-23  1.7048e-20  7.1390e-23  1.7607e-20  1.3045e-22  1.8614e-20  2.4549e-22  2.0450e-20
      5.45  1.9877e-24  1.8326e-20  1.9926e-24  1.8326e-20  2.0012e-24  1.8327e-20  2.0167e-24  1.8327e-20  2.0441e-24  1.8328e-20  2.0929e-24  1.8329e-20  2.1796e-24  1.8331e-20  2.3339e-24  1.8334e-20  2.6082e-24  1.8340e-20  3.0959e-24  1.8351e-20  3.9632e-24  1.8371e-20  5.5057e-24  1.8405e-20  8.2643e-24  1.8468e-20  1.3211e-23  1.8578e-20  2.2130e-23  1.8774e-20  3.8369e-23  1.9123e-20  6.8411e-23  1.9748e-20  1.2532e-22  2.0870e-20  2.3664e-22  2.2906e-20
      5.50  1.8939e-24  2.0561e-20  1.8985e-24  2.0561e-20  1.9067e-24  2.0562e-20  1.9213e-24  2.0562e-20  1.9472e-24  2.0563e-20  1.9934e-24  2.0564e-20  2.0754e-24  2.0566e-20  2.2214e-24  2.0570e-20  2.4809e-24  2.0577e-20  2.9425e-24  2.0589e-20  3.7637e-24  2.0611e-20  5.2260e-24  2.0650e-20  7.8423e-24  2.0720e-20  1.2535e-23  2.0843e-20  2.1005e-23  2.1061e-20  3.6455e-23  2.1451e-20  6.5120e-23  2.2146e-20  1.1966e-22  2.3395e-20  2.2692e-22  2.5656e-20
      5.55  1.8149e-24  2.3068e-20  1.8192e-24  2.3069e-20  1.8269e-24  2.3069e-20  1.8405e-24  2.3069e-20  1.8648e-24  2.3070e-20  1.9079e-24  2.3071e-20  1.9847e-24  2.3074e-20  2.1212e-24  2.3078e-20  2.3640e-24  2.3086e-20  2.7960e-24  2.3099e-20  3.5653e-24  2.3124e-20  4.9369e-24  2.3168e-20  7.3899e-24  2.3246e-20  1.1793e-23  2.3384e-20  1.9751e-23  2.3627e-20  3.4303e-23  2.4061e-20  6.1402e-23  2.4836e-20  1.1325e-22  2.6226e-20  2.1595e-22  2.8736e-20
      5.60  1.7493e-24  2.5881e-20  1.7532e-24  2.5881e-20  1.7603e-24  2.5881e-20  1.7729e-24  2.5882e-20  1.7952e-24  2.5883e-20  1.8349e-24  2.5884e-20  1.9056e-24  2.5887e-20  2.0314e-24  2.5892e-20  2.2552e-24  2.5900e-20  2.6537e-24  2.5916e-20  3.3643e-24  2.5943e-20  4.6316e-24  2.5993e-20  6.8980e-24  2.6081e-20  1.0970e-23  2.6234e-20  1.8343e-23  2.6505e-20  3.1864e-23  2.6989e-20  5.7162e-23  2.7852e-20  1.0591e-22  2.9398e-20  2.0338e-22  3.2186e-20
      5.65  1.6951e-24  2.9036e-20  1.6987e-24  2.9036e-20  1.7051e-24  2.9037e-20  1.7164e-24  2.9037e-20  1.7366e-24  2.9038e-20  1.7725e-24  2.9040e-20  1.8364e-24  2.9043e-20  1.9501e-24  2.9048e-20  2.1526e-24  2.9058e-20  2.5138e-24  2.9075e-20  3.1586e-24  2.9106e-20  4.3073e-24  2.9163e-20  6.3632e-24  2.9260e-20  1.0061e-23  2.9431e-20  1.6771e-23  2.9734e-20  2.9117e-23  3.0272e-20  5.2351e-23  3.1233e-20  9.7516e-23  3.2955e-20  1.8893e-22  3.6055e-20
      5.70  1.6505e-24  3.2576e-20  1.6537e-24  3.2576e-20  1.6593e-24  3.2576e-20  1.6693e-24  3.2577e-20  1.6872e-24  3.2578e-20  1.7189e-24  3.2580e-20  1.7754e-24  3.2583e-20  1.8760e-24  3.2589e-20  2.0554e-24  3.2600e-20  2.3761e-24  3.2619e-20  2.9482e-24  3.2655e-20  3.9671e-24  3.2720e-20  5.7922e-24  3.2828e-20  9.0793e-24  3.3018e-20  1.5056e-23  3.3355e-20  2.6097e-23  3.3955e-20  4.7009e-23  3.5026e-20  8.8082e-23  3.6942e-20  1.7247e-22  4.0389e-20
      5.75  1.6137e-24  3.6546e-20  1.6164e-24  3.6546e-20  1.6213e-24  3.6547e-20  1.6300e-24  3.6547e-20  1.6454e-24  3.6549e-20  1.6728e-24  3.6551e-20  1.7216e-24  3.6554e-20  1.8086e-24  3.6561e-20  1.9641e-24  3.6573e-20  2.2428e-24  3.6594e-20  2.7382e-24  3.6638e-20  3.6216e-24  3.6710e-20  5.2047e-24  3.6831e-20  8.0596e-24  3.7043e-20  1.3262e-23  3.7418e-20  2.2908e-23  3.8086e-20  4.1298e-23  3.9277e-20  7.7820e-23  4.1410e-20  1.5416e-22  4.5244e-20
      5.80  1.5833e-24  4.0999e-20  1.5856e-24  4.1000e-20  1.5897e-24  4.1000e-20  1.5970e-24  4.1001e-20  1.6100e-24  4.1002e-20  1.6332e-24  4.1005e-20  1.6746e-24  4.1009e-20  1.7484e-24  4.1016e-20  1.8805e-24  4.1029e-20  2.1177e-24  4.1054e-20  2.5376e-24  4.1107e-20  3.2874e-24  4.1187e-20  4.6319e-24  4.1322e-20  7.0586e-24  4.1558e-20  1.1488e-23  4.1976e-20  1.9726e-23  4.2719e-20  3.5520e-23  4.4045e-20  6.7203e-23  4.6418e-20  1.3459e-22  5.0684e-20
      5.85  1.5579e-24  4.5994e-20  1.5599e-24  4.5995e-20  1.5633e-24  4.5995e-20  1.5694e-24  4.5996e-20  1.5803e-24  4.5998e-20  1.5997e-24  4.6000e-20  1.6342e-24  4.6005e-20  1.6960e-24  4.6013e-20  1.8068e-24  4.6028e-20  2.0051e-24  4.6061e-20  2.3563e-24  4.6120e-20  2.9835e-24  4.6210e-20  4.1083e-24  4.6360e-20  6.1394e-24  4.6623e-20  9.8497e-24  4.7089e-20  1.6762e-23  4.7917e-20  3.0058e-23  4.9393e-20  5.6917e-23  5.2033e-20  1.1486e-22  5.6824e-20
      5.90  1.5368e-24  5.1597e-20  1.5384e-24  5.1597e-20  1.5412e-24  5.1597e-20  1.5463e-24  5.1598e-20  1.5554e-24  5.1600e-20  1.5715e-24  5.1603e-20  1.6003e-24  5.1608e-20  1.6519e-24  5.1617e-20  1.7444e-24  5.1633e-20  1.9093e-24  5.1679e-20  2.2019e-24  5.1746e-20  2.7241e-24  5.1846e-20  3.6604e-24  5.2014e-20  5.3509e-24  5.2307e-20  8.4385e-24  5.2826e-20  1.4190e-23  5.3748e-20  2.5257e-23  5.5392e-20  4.7664e-23  5.8330e-20  9.6387e-23  6.3654e-20
      5.95  1.5190e-24  5.7879e-20  1.5203e-24  5.7879e-20  1.5227e-24  5.7880e-20  1.5270e-24  5.7881e-20  1.5346e-24  5.7883e-20  1.5482e-24  5.7886e-20  1.5723e-24  5.7892e-20  1.6156e-24  5.7902e-20  1.6935e-24  5.7920e-20  1.8316e-24  5.7982e-20  2.0769e-24  5.8057e-20  2.5145e-24  5.8170e-20  3.2988e-24  5.8357e-20  4.7139e-24  5.8685e-20  7.2956e-24  5.9264e-20  1.2096e-23  6.0293e-20  2.1311e-23  6.2125e-20  3.9918e-23  6.5397e-20  8.0361e-23  7.1314e-20
      6.00  1.5039e-24  6.4924e-20  1.5051e-24  6.4924e-20  1.5071e-24  6.4925e-20  1.5108e-24  6.4926e-20  1.5173e-24  6.4928e-20  1.5288e-24  6.4932e-20  1.5494e-24  6.4938e-20  1.5864e-24  6.4950e-20  1.6528e-24  6.4982e-20  1.7704e-24  6.5054e-20  1.9792e-24  6.5139e-20  2.3515e-24  6.5265e-20  3.0183e-24  6.5475e-20  4.2203e-24  6.5841e-20  6.4096e-24  6.6488e-20  1.0470e-23  6.7637e-20  1.8229e-23  6.9683e-20  3.3794e-23  7.3357e-20  6.7368e-23  7.9913e-20
      6.05  1.4911e-24  7.2823e-20  1.4921e-24  7.2824e-20  1.4939e-24  7.2824e-20  1.4971e-24  7.2826e-20  1.5027e-24  7.2828e-20  1.5127e-24  7.2832e-20  1.5307e-24  7.2839e-20  1.5628e-24  7.2852e-20  1.6206e-24  7.2906e-20  1.7228e-24  7.2989e-20  1.9040e-24  7.3085e-20  2.2268e-24  7.3226e-20  2.8046e-24  7.3462e-20  3.8450e-24  7.3872e-20  5.7368e-24  7.4596e-20  9.2343e-24  7.5881e-20  1.5884e-23  7.8167e-20  2.9112e-23  8.2266e-20  5.7293e-23  8.9572e-20
      6.10  1.4801e-24  8.1680e-20  1.4810e-24  8.1680e-20  1.4825e-24  8.1681e-20  1.4854e-24  8.1682e-20  1.4903e-24  8.1685e-20  1.4992e-24  8.1689e-20  1.5151e-24  8.1697e-20  1.5435e-24  8.1712e-20  1.5950e-24  8.1796e-20  1.6854e-24  8.1892e-20  1.8455e-24  8.2000e-20  2.1305e-24  8.2160e-20  2.6405e-24  8.2424e-20  3.5578e-24  8.2883e-20  5.2228e-24  8.3694e-20  8.2921e-24  8.5133e-20  1.4097e-23  8.7691e-20  2.5543e-23  9.2272e-20  4.9585e-23  1.0043e-19
      6.15  1.4705e-24  9.1608e-20  1.4713e-24  9.1608e-20  1.4728e-24  9.1609e-20  1.4753e-24  9.1611e-20  1.4798e-24  9.1614e-20  1.4877e-24  9.1619e-20  1.5020e-24  9.1628e-20  1.5275e-24  9.1644e-20  1.5741e-24  9.1773e-20  1.6553e-24  9.1881e-20  1.7988e-24  9.2004e-20  2.0542e-24  9.2183e-20  2.5108e-24  9.2480e-20  3.3313e-24  9.2995e-20  4.8184e-24  9.3904e-20  7.5517e-24  9.5517e-20  1.2696e-23  9.8383e-20  2.2757e-23  1.0351e-19  4.3588e-23  1.1262e-19
      6.20  1.4622e-24  1.0274e-19  1.4629e-24  1.0274e-19  1.4642e-24  1.0274e-19  1.4665e-24  1.0274e-19  1.4706e-24  1.0274e-19  1.4778e-24  1.0275e-19  1.4907e-24  1.0276e-19  1.5142e-24  1.0282e-19  1.5567e-24  1.0297e-19  1.6302e-24  1.0309e-19  1.7600e-24  1.0323e-19  1.9910e-24  1.0343e-19  2.4036e-24  1.0376e-19  3.1445e-24  1.0434e-19  4.4852e-24  1.0536e-19  6.9430e-24  1.0717e-19  1.1548e-23  1.1039e-19  2.0480e-23  1.1613e-19  3.8733e-23  1.2633e-19
      6.25  1.4548e-24  1.1521e-19  1.4555e-24  1.1521e-19  1.4567e-24  1.1521e-19  1.4587e-24  1.1521e-19  1.4624e-24  1.1521e-19  1.4690e-24  1.1522e-19  1.4807e-24  1.1523e-19  1.5028e-24  1.1535e-19  1.5415e-24  1.1552e-19  1.6084e-24  1.1566e-19  1.7263e-24  1.1582e-19  1.9359e-24  1.1605e-19  2.3102e-24  1.1642e-19  2.9817e-24  1.1707e-19  4.1950e-24  1.1822e-19  6.4137e-24  1.2025e-19  1.0552e-23  1.2386e-19  1.8519e-23  1.3030e-19  3.4595e-23  1.4175e-19
      6.30  1.4483e-24  1.2918e-19  1.4489e-24  1.2918e-19  1.4499e-24  1.2918e-19  1.4518e-24  1.2919e-19  1.4552e-24  1.2919e-19  1.4612e-24  1.2920e-19  1.4718e-24  1.2921e-19  1.4926e-24  1.2941e-19  1.5279e-24  1.2961e-19  1.5887e-24  1.2977e-19  1.6956e-24  1.2995e-19  1.8856e-24  1.3021e-19  2.2246e-24  1.3063e-19  2.8323e-24  1.3136e-19  3.9288e-24  1.3265e-19  5.9288e-24  1.3493e-19  9.6433e-24  1.3899e-19  1.6743e-23  1.4622e-19  3.0896e-23  1.5908e-19
      6.35  1.4424e-24  1.4484e-19  1.4429e-24  1.4484e-19  1.4439e-24  1.4484e-19  1.4456e-24  1.4484e-19  1.4486e-24  1.4485e-19  1.4540e-24  1.4486e-19  1.4635e-24  1.4487e-19  1.4834e-24  1.4518e-19  1.5154e-24  1.4542e-19  1.5703e-24  1.4560e-19  1.6668e-24  1.4581e-19  1.8380e-24  1.4610e-19  2.1433e-24  1.4657e-19  2.6902e-24  1.4739e-19  3.6754e-24  1.4884e-19  5.4679e-24  1.5141e-19  8.7829e-24  1.5598e-19  1.5073e-23  1.6410e-19  2.7466e-23  1.7857e-19
      6.40  1.4370e-24  1.6238e-19  1.4374e-24  1.6238e-19  1.4383e-24  1.6238e-19  1.4398e-24  1.6238e-19  1.4425e-24  1.6239e-19  1.4474e-24  1.6240e-19  1.4562e-24  1.6245e-19  1.4748e-24  1.6287e-19  1.5038e-24  1.6314e-19  1.5530e-24  1.6336e-19  1.6393e-24  1.6359e-19  1.7923e-24  1.6392e-19  2.0650e-24  1.6446e-19  2.5530e-24  1.6538e-19  3.4309e-24  1.6702e-19  5.0242e-24  1.6991e-19  7.9581e-24  1.7506e-19  1.3486e-23  1.8420e-19  2.4250e-23  2.0049e-19
      6.45  1.4320e-24  1.8202e-19  1.4324e-24  1.8202e-19  1.4332e-24  1.8202e-19  1.4345e-24  1.8202e-19  1.4369e-24  1.8203e-19  1.4412e-24  1.8204e-19  1.4498e-24  1.8220e-19  1.4669e-24  1.8270e-19  1.4929e-24  1.8303e-19  1.5367e-24  1.8328e-19  1.6132e-24  1.8355e-19  1.7487e-24  1.8392e-19  1.9900e-24  1.8453e-19  2.4215e-24  1.8557e-19  3.1965e-24  1.8741e-19  4.5999e-24  1.9068e-19  7.1738e-24  1.9647e-19  1.1990e-23  2.0678e-19  2.1268e-23  2.2512e-19
      6.50  1.4273e-24  2.0401e-19  1.4276e-24  2.0401e-19  1.4283e-24  2.0401e-19  1.4295e-24  2.0401e-19  1.4316e-24  2.0402e-19  1.4353e-24  2.0403e-19  1.4438e-24  2.0432e-19  1.4595e-24  2.0493e-19  1.4828e-24  2.0532e-19  1.5213e-24  2.0562e-19  1.5884e-24  2.0593e-19  1.7071e-24  2.0636e-19  1.9182e-24  2.0705e-19  2.2954e-24  2.0823e-19  2.9721e-24  2.1030e-19  4.1949e-24  2.1398e-19  6.4295e-24  2.2051e-19  1.0586e-23  2.3213e-19  1.8516e-23  2.5280e-19
      6.55  1.4228e-24  2.2862e-19  1.4231e-24  2.2862e-19  1.4237e-24  2.2862e-19  1.4247e-24  2.2863e-19  1.4265e-24  2.2863e-19  1.4298e-24  2.2865e-19  1.4381e-24  2.2910e-19  1.4527e-24  2.2985e-19  1.4733e-24  2.3033e-19  1.5069e-24  2.3069e-19  1.5651e-24  2.3105e-19  1.6677e-24  2.3153e-19  1.8501e-24  2.3231e-19  2.1757e-24  2.3364e-19  2.7593e-24  2.3598e-19  3.8119e-24  2.4013e-19  5.7296e-24  2.4750e-19  9.2785e-24  2.6060e-19  1.5994e-23  2.8391e-19
      6.60  1.4184e-24  2.5616e-19  1.4187e-24  2.5616e-19  1.4192e-24  2.5616e-19  1.4201e-24  2.5617e-19  1.4216e-24  2.5618e-19  1.4244e-24  2.5619e-19  1.4329e-24  2.5689e-19  1.4464e-24  2.5781e-19  1.4645e-24  2.5838e-19  1.4934e-24  2.5881e-19  1.5431e-24  2.5923e-19  1.6306e-24  2.5978e-19  1.7859e-24  2.6066e-19  2.0628e-24  2.6216e-19  2.5587e-24  2.6481e-19  3.4519e-24  2.6948e-19  5.0752e-24  2.7779e-19  8.0670e-24  2.9256e-19  1.3691e-23  3.1883e-19
      6.65  1.4142e-24  2.8697e-19  1.4144e-24  2.8697e-19  1.4148e-24  2.8697e-19  1.4155e-24  2.8698e-19  1.4168e-24  2.8699e-19  1.4191e-24  2.8700e-19  1.4278e-24  2.8799e-19  1.4404e-24  2.8913e-19  1.4562e-24  2.8983e-19  1.4808e-24  2.9034e-19  1.5225e-24  2.9083e-19  1.5957e-24  2.9147e-19  1.7253e-24  2.9247e-19  1.9563e-24  2.9417e-19  2.3697e-24  2.9715e-19  3.1133e-24  3.0242e-19  4.4620e-24  3.1178e-19  6.9392e-24  3.2844e-19  1.1571e-23  3.5806e-19
      6.70  1.4099e-24  3.2141e-19  1.4101e-24  3.2142e-19  1.4104e-24  3.2142e-19  1.4110e-24  3.2142e-19  1.4120e-24  3.2144e-19  1.4139e-24  3.2145e-19  1.4227e-24  3.2275e-19  1.4346e-24  3.2419e-19  1.4485e-24  3.2507e-19  1.4690e-24  3.2570e-19  1.5032e-24  3.2629e-19  1.5628e-24  3.2702e-19  1.6683e-24  3.2815e-19  1.8562e-24  3.3007e-19  2.1920e-24  3.3343e-19  2.7955e-24  3.3938e-19  3.8882e-24  3.4994e-19  5.8897e-24  3.6871e-19  9.6157e-24  4.0211e-19
      6.75  1.4055e-24  3.5991e-19  1.4057e-24  3.5992e-19  1.4059e-24  3.5992e-19  1.4064e-24  3.5993e-19  1.4072e-24  3.5994e-19  1.4087e-24  3.5996e-19  1.4173e-24  3.6154e-19  1.4289e-24  3.6341e-19  1.4411e-24  3.6455e-19  1.4580e-24  3.6534e-19  1.4853e-24  3.6604e-19  1.5324e-24  3.6689e-19  1.6155e-24  3.6819e-19  1.7633e-24  3.7036e-19  2.0272e-24  3.7415e-19  2.5010e-24  3.8086e-19  3.3575e-24  3.9276e-19  4.9223e-24  4.1392e-19  7.8238e-24  4.5157e-19
      6.80  1.4010e-24  4.0292e-19  1.4011e-24  4.0292e-19  1.4013e-24  4.0293e-19  1.4017e-24  4.0294e-19  1.4023e-24  4.0295e-19  1.4034e-24  4.0297e-19  1.4112e-24  4.0471e-19  1.4231e-24  4.0721e-19  1.4341e-24  4.0872e-19  1.4479e-24  4.0974e-19  1.4691e-24  4.1061e-19  1.5051e-24  4.1161e-19  1.5681e-24  4.1309e-19  1.6800e-24  4.1555e-19  1.8795e-24  4.1984e-19  2.2374e-24  4.2740e-19  2.8832e-24  4.4082e-19  4.0601e-24  4.6467e-19  6.2336e-24  5.0708e-19
      6.85  1.3963e-24  4.5094e-19  1.3964e-24  4.5094e-19  1.3965e-24  4.5095e-19  1.3968e-24  4.5096e-19  1.3972e-24  4.5097e-19  1.3980e-24  4.5100e-19  1.4055e-24  4.5300e-19  1.4178e-24  4.5627e-19  1.4279e-24  4.5824e-19  1.4392e-24  4.5954e-19  1.4553e-24  4.6060e-19  1.4818e-24  4.6178e-19  1.5279e-24  4.6347e-19  1.6093e-24  4.6626e-19  1.7543e-24  4.7110e-19  2.0141e-24  4.7962e-19  2.4820e-24  4.9475e-19  3.3325e-24  5.2162e-19  4.8968e-24  5.6941e-19
      6.90  1.3913e-24  5.0452e-19  1.3914e-24  5.0452e-19  1.3915e-24  5.0452e-19  1.3916e-24  5.0453e-19  1.3920e-24  5.0455e-19  1.3925e-24  5.0458e-19  1.4000e-24  5.0702e-19  1.4131e-24  5.1123e-19  1.4228e-24  5.1374e-19  1.4321e-24  5.1538e-19  1.4442e-24  5.1667e-19  1.4633e-24  5.1806e-19  1.4960e-24  5.2000e-19  1.5534e-24  5.2316e-19  1.6554e-24  5.2862e-19  1.8379e-24  5.3823e-19  2.1660e-24  5.5527e-19  2.7606e-24  5.8555e-19  3.8496e-24  6.3940e-19
      6.95  1.3860e-24  5.6425e-19  1.3860e-24  5.6426e-19  1.3861e-24  5.6426e-19  1.3862e-24  5.6427e-19  1.3864e-24  5.6429e-19  1.3868e-24  5.6433e-19  1.3941e-24  5.6710e-19  1.4085e-24  5.7256e-19  1.4182e-24  5.7582e-19  1.4264e-24  5.7792e-19  1.4358e-24  5.7952e-19  1.4496e-24  5.8117e-19  1.4726e-24  5.8340e-19  1.5127e-24  5.8699e-19  1.5836e-24  5.9316e-19  1.7102e-24  6.0400e-19  1.9374e-24  6.2321e-19  2.3477e-24  6.5733e-19  3.0958e-24  7.1800e-19
      7.00  1.3802e-24  6.3080e-19  1.3802e-24  6.3081e-19  1.3803e-24  6.3081e-19  1.3803e-24  6.3083e-19  1.3805e-24  6.3085e-19  1.3808e-24  6.3088e-19  1.3862e-24  6.3320e-19  1.4030e-24  6.4063e-19  1.4137e-24  6.4505e-19  1.4217e-24  6.4784e-19  1.4297e-24  6.4990e-19  1.4403e-24  6.5190e-19  1.4571e-24  6.5450e-19  1.4859e-24  6.5859e-19  1.5366e-24  6.6557e-19  1.6270e-24  6.7780e-19  1.7887e-24  6.9945e-19  2.0801e-24  7.3791e-19  2.6094e-24  8.0629e-19
      7.05  1.3739e-24  7.0487e-19  1.3739e-24  7.0488e-19  1.3740e-24  7.0489e-19  1.3740e-24  7.0490e-19  1.3741e-24  7.0492e-19  1.3743e-24  7.0497e-19  1.3765e-24  7.0597e-19  1.3967e-24  7.1618e-19  1.4092e-24  7.2223e-19  1.4178e-24  7.2601e-19  1.4253e-24  7.2869e-19  1.4342e-24  7.3116e-19  1.4474e-24  7.3422e-19  1.4696e-24  7.3890e-19  1.5084e-24  7.4680e-19  1.5773e-24  7.6061e-19  1.7005e-24  7.8502e-19  1.9220e-24  8.2837e-19  2.3235e-24  9.0543e-19
      7.10  1.3670e-24  7.8723e-19  1.3670e-24  7.8723e-19  1.3671e-24  7.8724e-19  1.3671e-24  7.8726e-19  1.3672e-24  7.8728e-19  1.3673e-24  7.8733e-19  1.3676e-24  7.8741e-19  1.3883e-24  7.9921e-19  1.4037e-24  8.0778e-19  1.4137e-24  8.1310e-19  1.4216e-24  8.1675e-19  1.4299e-24  8.1989e-19  1.4414e-24  8.2354e-19  1.4599e-24  8.2894e-19  1.4920e-24  8.3792e-19  1.5488e-24  8.5352e-19  1.6502e-24  8.8106e-19  1.8326e-24  9.2992e-19  2.1633e-24  1.0168e-18
      7.15  1.3656e-24  8.8269e-19  1.3656e-24  8.8270e-19  1.3656e-24  8.8271e-19  1.3657e-24  8.8273e-19  1.3658e-24  8.8276e-19  1.3659e-24  8.8281e-19  1.3661e-24  8.8290e-19  1.3784e-24  8.9070e-19  1.3974e-24  9.0280e-19  1.4094e-24  9.1020e-19  1.4182e-24  9.1515e-19  1.4265e-24  9.1920e-19  1.4370e-24  9.2362e-19  1.4535e-24  9.2989e-19  1.4815e-24  9.4011e-19  1.5307e-24  9.5775e-19  1.6185e-24  9.8881e-19  1.7764e-24  1.0439e-18  2.0626e-24  1.1418e-18
      7.20  1.3652e-24  9.9040e-19  1.3652e-24  9.9041e-19  1.3652e-24  9.9042e-19  1.3653e-24  9.9043e-19  1.3653e-24  9.9047e-19  1.3654e-24  9.9053e-19  1.3657e-24  9.9063e-19  1.3660e-24  9.9082e-19  1.3882e-24  1.0067e-18  1.4034e-24  1.0175e-18  1.4140e-24  1.0245e-18  1.4230e-24  1.0300e-18  1.4335e-24  1.0355e-18  1.4488e-24  1.0429e-18  1.4743e-24  1.0546e-18  1.5188e-24  1.0746e-18  1.5979e-24  1.1097e-18  1.7401e-24  1.1718e-18  1.9978e-24  1.2821e-18
      7.25  1.3648e-24  1.1112e-18  1.3648e-24  1.1113e-18  1.3649e-24  1.1113e-18  1.3649e-24  1.1113e-18  1.3650e-24  1.1113e-18  1.3651e-24  1.1114e-18  1.3653e-24  1.1115e-18  1.3656e-24  1.1117e-18  1.3763e-24  1.1203e-18  1.3962e-24  1.1362e-18  1.4092e-24  1.1464e-18  1.4196e-24  1.1538e-18  1.4304e-24  1.1609e-18  1.4451e-24  1.1696e-18  1.4690e-24  1.1831e-18  1.5102e-24  1.2057e-18  1.5833e-24  1.2453e-18  1.7144e-24  1.3152e-18  1.9519e-24  1.4394e-18
      7.30  1.3645e-24  1.2468e-18  1.3645e-24  1.2468e-18  1.3645e-24  1.2469e-18  1.3646e-24  1.2469e-18  1.3646e-24  1.2469e-18  1.3647e-24  1.2470e-18  1.3649e-24  1.2471e-18  1.3653e-24  1.2474e-18  1.3659e-24  1.2478e-18  1.3873e-24  1.2672e-18  1.4039e-24  1.2819e-18  1.4160e-24  1.2921e-18  1.4274e-24  1.3011e-18  1.4421e-24  1.3115e-18  1.4649e-24  1.3270e-18  1.5040e-24  1.3527e-18  1.5730e-24  1.3973e-18  1.6965e-24  1.4761e-18  1.9202e-24  1.6159e-18
      7.35  1.3642e-24  1.3990e-18  1.3642e-24  1.3990e-18  1.3643e-24  1.3990e-18  1.3643e-24  1.3990e-18  1.3644e-24  1.3991e-18  1.3645e-24  1.3992e-18  1.3646e-24  1.3993e-18  1.3649e-24  1.3996e-18  1.3655e-24  1.4001e-18  1.3768e-24  1.4115e-18  1.3975e-24  1.4323e-18  1.4118e-24  1.4463e-18  1.4244e-24  1.4578e-18  1.4394e-24  1.4704e-18  1.4618e-24  1.4883e-18  1.4995e-24  1.5175e-18  1.5657e-24  1.5679e-18  1.6841e-24  1.6565e-18  1.8984e-24  1.8138e-18
      7.40  1.3640e-24  1.5697e-18  1.3640e-24  1.5697e-18  1.3640e-24  1.5697e-18  1.3641e-24  1.5697e-18  1.3641e-24  1.5698e-18  1.3642e-24  1.5699e-18  1.3644e-24  1.5700e-18  1.3647e-24  1.5703e-18  1.3652e-24  1.5709e-18  1.3662e-24  1.5718e-18  1.3910e-24  1.6000e-18  1.4082e-24  1.6191e-18  1.4221e-24  1.6338e-18  1.4374e-24  1.6489e-18  1.4595e-24  1.6695e-18  1.4962e-24  1.7025e-18  1.5604e-24  1.7592e-18  1.6752e-24  1.8590e-18  1.8829e-24  2.0357e-18
      7.45  1.3638e-24  1.7612e-18  1.3638e-24  1.7612e-18  1.3638e-24  1.7612e-18  1.3639e-24  1.7613e-18  1.3639e-24  1.7613e-18  1.3640e-24  1.7614e-18  1.3642e-24  1.7616e-18  1.3645e-24  1.7620e-18  1.3650e-24  1.7626e-18  1.3660e-24  1.7636e-18  1.3899e-24  1.7942e-18  1.4073e-24  1.8161e-18  1.4212e-24  1.8329e-18  1.4363e-24  1.8500e-18  1.4578e-24  1.8732e-18  1.4933e-24  1.9103e-18  1.5555e-24  1.9741e-18  1.6667e-24  2.0861e-18  1.8677e-24  2.2847e-18
      7.50  1.3636e-24  1.9761e-18  1.3636e-24  1.9761e-18  1.3636e-24  1.9761e-18  1.3637e-24  1.9762e-18  1.3637e-24  1.9762e-18  1.3638e-24  1.9764e-18  1.3640e-24  1.9766e-18  1.3643e-24  1.9770e-18  1.3648e-24  1.9776e-18  1.3657e-24  1.9788e-18  1.3888e-24  2.0120e-18  1.4065e-24  2.0371e-18  1.4205e-24  2.0562e-18  1.4354e-24  2.0755e-18  1.4564e-24  2.1017e-18  1.4912e-24  2.1434e-18  1.5519e-24  2.2150e-18  1.6605e-24  2.3409e-18  1.8567e-24  2.5639e-18
      7.55  1.3635e-24  2.2172e-18  1.3635e-24  2.2172e-18  1.3635e-24  2.2173e-18  1.3635e-24  2.2173e-18  1.3636e-24  2.2174e-18  1.3637e-24  2.2175e-18  1.3638e-24  2.2178e-18  1.3641e-24  2.2182e-18  1.3646e-24  2.2189e-18  1.3656e-24  2.2203e-18  1.3877e-24  2.2560e-18  1.4057e-24  2.2848e-18  1.4198e-24  2.3066e-18  1.4346e-24  2.3285e-18  1.4553e-24  2.3580e-18  1.4894e-24  2.4049e-18  1.5490e-24  2.4854e-18  1.6557e-24  2.6268e-18  1.8485e-24  2.8772e-18
      7.60  1.3633e-24  2.4878e-18  1.3633e-24  2.4878e-18  1.3634e-24  2.4878e-18  1.3634e-24  2.4878e-18  1.3634e-24  2.4879e-18  1.3635e-24  2.4881e-18  1.3637e-24  2.4884e-18  1.3640e-24  2.4888e-18  1.3645e-24  2.4897e-18  1.3654e-24  2.4912e-18  1.3865e-24  2.5294e-18  1.4049e-24  2.5625e-18  1.4191e-24  2.5875e-18  1.4339e-24  2.6123e-18  1.4543e-24  2.6455e-18  1.4877e-24  2.6984e-18  1.5460e-24  2.7887e-18  1.6503e-24  2.9475e-18  1.8388e-24  3.2287e-18
      7.65  1.3632e-24  2.7913e-18  1.3632e-24  2.7913e-18  1.3632e-24  2.7914e-18  1.3633e-24  2.7914e-18  1.3633e-24  2.7915e-18  1.3634e-24  2.7917e-18  1.3636e-24  2.7920e-18  1.3639e-24  2.7925e-18  1.3644e-24  2.7935e-18  1.3653e-24  2.7952e-18  1.3850e-24  2.8354e-18  1.4040e-24  2.8737e-18  1.4184e-24  2.9023e-18  1.4332e-24  2.9306e-18  1.4534e-24  2.9681e-18  1.4862e-24  3.0275e-18  1.5434e-24  3.1291e-18  1.6456e-24  3.3073e-18  1.8302e-24  3.6230e-18
      7.70  1.3631e-24  3.1319e-18  1.3631e-24  3.1319e-18  1.3631e-24  3.1320e-18  1.3632e-24  3.1320e-18  1.3632e-24  3.1321e-18  1.3633e-24  3.1323e-18  1.3635e-24  3.1327e-18  1.3637e-24  3.1333e-18  1.3642e-24  3.1343e-18  1.3651e-24  3.1362e-18  1.3832e-24  3.1776e-18  1.4029e-24  3.2222e-18  1.4176e-24  3.2552e-18  1.4325e-24  3.2875e-18  1.4525e-24  3.3299e-18  1.4849e-24  3.3968e-18  1.5411e-24  3.5108e-18  1.6415e-24  3.7110e-18  1.8225e-24  4.0654e-18
      7.75  1.3630e-24  3.5141e-18  1.3630e-24  3.5141e-18  1.3631e-24  3.5141e-18  1.3631e-24  3.5142e-18  1.3631e-24  3.5143e-18  1.3632e-24  3.5145e-18  1.3634e-24  3.5149e-18  1.3637e-24  3.5156e-18  1.3642e-24  3.5168e-18  1.3650e-24  3.5189e-18  1.3810e-24  3.5597e-18  1.4015e-24  3.6122e-18  1.4167e-24  3.6506e-18  1.4318e-24  3.6877e-18  1.4517e-24  3.7357e-18  1.4837e-24  3.8110e-18  1.5391e-24  3.9392e-18  1.6378e-24  4.1639e-18  1.8157e-24  4.5618e-18
      7.80  1.3630e-24  3.9428e-18  1.3630e-24  3.9429e-18  1.3630e-24  3.9429e-18  1.3630e-24  3.9430e-18  1.3631e-24  3.9431e-18  1.3631e-24  3.9433e-18  1.3633e-24  3.9438e-18  1.3636e-24  3.9445e-18  1.3641e-24  3.9459e-18  1.3650e-24  3.9483e-18  1.3780e-24  3.9858e-18  1.3997e-24  4.0482e-18  1.4156e-24  4.0934e-18  1.4310e-24  4.1361e-18  1.4510e-24  4.1907e-18  1.4827e-24  4.2755e-18  1.5373e-24  4.4197e-18  1.6346e-24  4.6721e-18  1.8096e-24  5.1188e-18
      7.85  1.3629e-24  4.4239e-18  1.3629e-24  4.4240e-18  1.3629e-24  4.4240e-18  1.3629e-24  4.4241e-18  1.3630e-24  4.4242e-18  1.3631e-24  4.4245e-18  1.3632e-24  4.4250e-18  1.3635e-24  4.4258e-18  1.3640e-24  4.4274e-18  1.3649e-24  4.4301e-18  1.3741e-24  4.4596e-18  1.3974e-24  4.5349e-18  1.4142e-24  4.5887e-18  1.4300e-24  4.6385e-18  1.4502e-24  4.7007e-18  1.4817e-24  4.7966e-18  1.5358e-24  4.9587e-18  1.6317e-24  5.2422e-18  1.8043e-24  5.7438e-18
      7.90  1.3628e-24  4.9637e-18  1.3629e-24  4.9638e-18  1.3629e-24  4.9638e-18  1.3629e-24  4.9639e-18  1.3629e-24  4.9641e-18  1.3630e-24  4.9644e-18  1.3632e-24  4.9649e-18  1.3635e-24  4.9659e-18  1.3639e-24  4.9676e-18  1.3648e-24  4.9706e-18  1.3712e-24  4.9936e-18  1.3957e-24  5.0824e-18  1.4132e-24  5.1453e-18  1.4293e-24  5.2026e-18  1.4495e-24  5.2733e-18  1.4809e-24  5.3813e-18  1.5344e-24  5.5636e-18  1.6291e-24  5.8820e-18  1.7991e-24  6.4451e-18
      7.95  1.3628e-24  5.5694e-18  1.3628e-24  5.5694e-18  1.3628e-24  5.5695e-18  1.3628e-24  5.5696e-18  1.3629e-24  5.5698e-18  1.3630e-24  5.5701e-18  1.3631e-24  5.5707e-18  1.3634e-24  5.5718e-18  1.3639e-24  5.5737e-18  1.3648e-24  5.5771e-18  1.3677e-24  5.5888e-18  1.3936e-24  5.6944e-18  1.4119e-24  5.7685e-18  1.4285e-24  5.8348e-18  1.4489e-24  5.9153e-18  1.4801e-24  6.0372e-18  1.5331e-24  6.2422e-18  1.6267e-24  6.5998e-18  1.7944e-24  7.2321e-18
      8.00  1.3628e-24  6.2490e-18  1.3628e-24  6.2490e-18  1.3628e-24  6.2491e-18  1.3628e-24  6.2492e-18  1.3629e-24  6.2494e-18  1.3629e-24  6.2498e-18  1.3631e-24  6.2505e-18  1.3634e-24  6.2517e-18  1.3638e-24  6.2538e-18  1.3647e-24  6.2576e-18  1.3662e-24  6.2644e-18  1.3910e-24  6.3777e-18  1.4104e-24  6.4658e-18  1.4275e-24  6.5430e-18  1.4482e-24  6.6350e-18  1.4794e-24  6.7728e-18  1.5320e-24  7.0033e-18  1.6246e-24  7.4052e-18  1.7902e-24  8.1151e-18
      8.05  1.3627e-24  7.0114e-18  1.3627e-24  7.0115e-18  1.3627e-24  7.0116e-18  1.3628e-24  7.0117e-18  1.3628e-24  7.0119e-18  1.3629e-24  7.0124e-18  1.3631e-24  7.0131e-18  1.3633e-24  7.0145e-18  1.3638e-24  7.0169e-18  1.3647e-24  7.0212e-18  1.3662e-24  7.0288e-18  1.3878e-24  7.1397e-18  1.4085e-24  7.2455e-18  1.4264e-24  7.3361e-18  1.4474e-24  7.4416e-18  1.4786e-24  7.5976e-18  1.5310e-24  7.8572e-18  1.6229e-24  8.3086e-18  1.7867e-24  9.1058e-18
      8.10  1.3627e-24  7.8670e-18  1.3627e-24  7.8670e-18  1.3627e-24  7.8671e-18  1.3627e-24  7.8673e-18  1.3628e-24  7.8675e-18  1.3629e-24  7.8680e-18  1.3630e-24  7.8689e-18  1.3633e-24  7.8704e-18  1.3638e-24  7.8731e-18  1.3646e-24  7.8779e-18  1.3661e-24  7.8865e-18  1.3839e-24  7.9886e-18  1.4062e-24  8.1168e-18  1.4250e-24  8.2240e-18  1.4465e-24  8.3455e-18  1.4779e-24  8.5224e-18  1.5302e-24  8.8148e-18  1.6214e-24  9.3222e-18  1.7837e-24  1.0217e-17
      8.15  1.3627e-24  8.8269e-18  1.3627e-24  8.8269e-18  1.3627e-24  8.8270e-18  1.3627e-24  8.8272e-18  1.3628e-24  8.8275e-18  1.3628e-24  8.8280e-18  1.3630e-24  8.8290e-18  1.3633e-24  8.8307e-18  1.3637e-24  8.8338e-18  1.3646e-24  8.8392e-18  1.3661e-24  8.8488e-18  1.3791e-24  8.9329e-18  1.4035e-24  9.0897e-18  1.4234e-24  9.2175e-18  1.4454e-24  9.3582e-18  1.4771e-24  9.5592e-18  1.5293e-24  9.8888e-18  1.6201e-24  1.0459e-17  1.7812e-24  1.1464e-17
      8.20  1.3626e-24  9.9039e-18  1.3626e-24  9.9040e-18  1.3627e-24  9.9041e-18  1.3627e-24  9.9043e-18  1.3627e-24  9.9046e-18  1.3628e-24  9.9052e-18  1.3630e-24  9.9063e-18  1.3632e-24  9.9082e-18  1.3637e-24  9.9116e-18  1.3646e-24  9.9177e-18  1.3661e-24  9.9285e-18  1.3735e-24  9.9819e-18  1.4002e-24  1.0175e-17  1.4214e-24  1.0329e-17  1.4443e-24  1.0492e-17  1.4763e-24  1.0721e-17  1.5286e-24  1.1093e-17  1.6191e-24  1.1734e-17  1.7792e-24  1.2864e-17
      8.25  1.3626e-24  1.1112e-17  1.3626e-24  1.1112e-17  1.3626e-24  1.1113e-17  1.3627e-24  1.1113e-17  1.3627e-24  1.1113e-17  1.3628e-24  1.1114e-17  1.3630e-24  1.1115e-17  1.3632e-24  1.1117e-17  1.3637e-24  1.1121e-17  1.3645e-24  1.1128e-17  1.3661e-24  1.1140e-17  1.3687e-24  1.1162e-17  1.3963e-24  1.1385e-17  1.4192e-24  1.1571e-17  1.4429e-24  1.1763e-17  1.4754e-24  1.2024e-17  1.5278e-24  1.2444e-17  1.6181e-24  1.3165e-17  1.7776e-24  1.4433e-17
      8.30  1.3626e-24  1.2468e-17  1.3626e-24  1.2468e-17  1.3626e-24  1.2468e-17  1.3627e-24  1.2469e-17  1.3627e-24  1.2469e-17  1.3628e-24  1.2470e-17  1.3629e-24  1.2471e-17  1.3632e-24  1.2474e-17  1.3637e-24  1.2478e-17  1.3645e-24  1.2486e-17  1.3660e-24  1.2499e-17  1.3687e-24  1.2523e-17  1.3917e-24  1.2733e-17  1.4165e-24  1.2959e-17  1.4413e-24  1.3184e-17  1.4744e-24  1.3483e-17  1.5270e-24  1.3958e-17  1.6173e-24  1.4769e-17  1.7762e-24  1.6194e-17
      8.35  1.3626e-24  1.3990e-17  1.3626e-24  1.3990e-17  1.3626e-24  1.3990e-17  1.3626e-24  1.3990e-17  1.3627e-24  1.3991e-17  1.3628e-24  1.3991e-17  1.3629e-24  1.3993e-17  1.3632e-24  1.3996e-17  1.3637e-24  1.4001e-17  1.3645e-24  1.4009e-17  1.3660e-24  1.4024e-17  1.3687e-24  1.4052e-17  1.3864e-24  1.4233e-17  1.4134e-24  1.4509e-17  1.4395e-24  1.4775e-17  1.4733e-24  1.5118e-17  1.5262e-24  1.5655e-17  1.6165e-24  1.6568e-17  1.7750e-24  1.8168e-17
      8.40  1.3626e-24  1.5697e-17  1.3626e-24  1.5697e-17  1.3626e-24  1.5697e-17  1.3626e-24  1.5697e-17  1.3627e-24  1.5698e-17  1.3628e-24  1.5699e-17  1.3629e-24  1.5700e-17  1.3632e-24  1.5703e-17  1.3637e-24  1.5709e-17  1.3645e-24  1.5719e-17  1.3660e-24  1.5736e-17  1.3687e-24  1.5766e-17  1.3804e-24  1.5900e-17  1.4099e-24  1.6240e-17  1.4374e-24  1.6555e-17  1.4720e-24  1.6950e-17  1.5254e-24  1.7558e-17  1.6157e-24  1.8586e-17  1.7740e-24  2.0384e-17
      8.45  1.3626e-24  1.7612e-17  1.3626e-24  1.7612e-17  1.3626e-24  1.7612e-17  1.3626e-24  1.7613e-17  1.3627e-24  1.7613e-17  1.3627e-24  1.7614e-17  1.3629e-24  1.7616e-17  1.3632e-24  1.7620e-17  1.3636e-24  1.7626e-17  1.3645e-24  1.7636e-17  1.3660e-24  1.7656e-17  1.3687e-24  1.7690e-17  1.3734e-24  1.7751e-17  1.4059e-24  1.8170e-17  1.4351e-24  1.8545e-17  1.4706e-24  1.9001e-17  1.5244e-24  1.9691e-17  1.6149e-24  2.0848e-17  1.7731e-24  2.2868e-17
      8.50  1.3626e-24  1.9761e-17  1.3626e-24  1.9761e-17  1.3626e-24  1.9761e-17  1.3626e-24  1.9762e-17  1.3627e-24  1.9762e-17  1.3627e-24  1.9764e-17  1.3629e-24  1.9766e-17  1.3632e-24  1.9770e-17  1.3636e-24  1.9776e-17  1.3645e-24  1.9788e-17  1.3660e-24  1.9810e-17  1.3686e-24  1.9848e-17  1.3734e-24  1.9917e-17  1.4013e-24  2.0321e-17  1.4324e-24  2.0770e-17  1.4690e-24  2.1298e-17  1.5234e-24  2.2081e-17  1.6141e-24  2.3385e-17  1.7722e-24  2.5655e-17
