# This was generated using Cloudy10 and the columns are ordered 
# as log10 of the fraction of the metallicity to the solar metallicity
# 'h_*_Z' and 'c_*_Z' stands for cooling and heating respectively 
# at * metalicity
#
# NOTE: This was generated separately from loop_coolingcurve_w_UV.py
#       using Output_metals_w_redshift.py.
#
# Redshift = 8.0
# hden = -4.0
#
#     temp   h_-3.00_Z   c_-3.00_Z   h_-2.75_Z   c_-2.75_Z   h_-2.50_Z   c_-2.50_Z   h_-2.25_Z   c_-2.25_Z   h_-2.00_Z   c_-2.00_Z   h_-1.75_Z   c_-1.75_Z   h_-1.50_Z   c_-1.50_Z   h_-1.25_Z   c_-1.25_Z   h_-1.00_Z   c_-1.00_Z   h_-0.75_Z   c_-0.75_Z   h_-0.50_Z   c_-0.50_Z   h_-0.25_Z   c_-0.25_Z    h_0.00_Z    c_0.00_Z    h_0.25_Z    c_0.25_Z    h_0.50_Z    c_0.50_Z    h_0.75_Z    c_0.75_Z    h_1.00_Z    c_1.00_Z    h_1.25_Z    c_1.25_Z    h_1.50_Z    c_1.50_Z 
      1.00  2.6642e-22  5.6752e-26  2.6643e-22  5.6753e-26  2.6643e-22  5.6753e-26  2.6644e-22  5.6754e-26  2.6646e-22  5.6756e-26  2.6649e-22  5.6759e-26  2.6655e-22  5.6765e-26  2.6664e-22  5.6774e-26  2.6682e-22  5.6792e-26  2.6713e-22  5.6823e-26  2.6768e-22  5.6879e-26  2.6865e-22  5.6977e-26  2.7038e-22  5.7153e-26  2.7347e-22  5.7466e-26  2.7896e-22  5.8024e-26  2.8877e-22  5.9021e-26  3.0632e-22  6.0809e-26  3.3795e-22  6.4037e-26  3.9548e-22  6.9929e-26
      1.05  2.4951e-22  5.9816e-26  2.4952e-22  5.9816e-26  2.4952e-22  5.9817e-26  2.4953e-22  5.9819e-26  2.4955e-22  5.9822e-26  2.4958e-22  5.9827e-26  2.4963e-22  5.9836e-26  2.4972e-22  5.9852e-26  2.4988e-22  5.9880e-26  2.5017e-22  5.9930e-26  2.5069e-22  6.0019e-26  2.5161e-22  6.0178e-26  2.5323e-22  6.0461e-26  2.5613e-22  6.0965e-26  2.6130e-22  6.1866e-26  2.7051e-22  6.3480e-26  2.8700e-22  6.6388e-26  3.1672e-22  7.1683e-26  3.7079e-22  8.1488e-26
      1.10  2.3362e-22  6.3043e-26  2.3362e-22  6.3043e-26  2.3363e-22  6.3045e-26  2.3364e-22  6.3047e-26  2.3365e-22  6.3052e-26  2.3368e-22  6.3060e-26  2.3373e-22  6.3074e-26  2.3382e-22  6.3100e-26  2.3397e-22  6.3145e-26  2.3425e-22  6.3226e-26  2.3474e-22  6.3369e-26  2.3561e-22  6.3624e-26  2.3715e-22  6.4079e-26  2.3990e-22  6.4890e-26  2.4480e-22  6.6340e-26  2.5353e-22  6.8943e-26  2.6918e-22  7.3648e-26  2.9736e-22  8.2260e-26  3.4863e-22  9.8357e-26
      1.15  2.1869e-22  6.6443e-26  2.1869e-22  6.6444e-26  2.1870e-22  6.6446e-26  2.1871e-22  6.6450e-26  2.1872e-22  6.6458e-26  2.1875e-22  6.6471e-26  2.1880e-22  6.6494e-26  2.1888e-22  6.6534e-26  2.1903e-22  6.6607e-26  2.1929e-22  6.6737e-26  2.1976e-22  6.6967e-26  2.2059e-22  6.7377e-26  2.2207e-22  6.8108e-26  2.2469e-22  6.9412e-26  2.2938e-22  7.1744e-26  2.3773e-22  7.5935e-26  2.5269e-22  8.3526e-26  2.7963e-22  9.7463e-26  3.2865e-22  1.2365e-25
      1.20  2.0467e-22  7.0027e-26  2.0467e-22  7.0030e-26  2.0468e-22  7.0033e-26  2.0469e-22  7.0040e-26  2.0470e-22  7.0052e-26  2.0473e-22  7.0072e-26  2.0477e-22  7.0109e-26  2.0485e-22  7.0175e-26  2.0499e-22  7.0292e-26  2.0525e-22  7.0501e-26  2.0570e-22  7.0872e-26  2.0650e-22  7.1532e-26  2.0792e-22  7.2708e-26  2.1045e-22  7.4807e-26  2.1496e-22  7.8562e-26  2.2299e-22  8.5313e-26  2.3739e-22  9.7549e-26  2.6332e-22  1.2005e-25  3.1048e-22  1.6242e-25
      1.25  1.9151e-22  7.3810e-26  1.9151e-22  7.3813e-26  1.9152e-22  7.3819e-26  1.9153e-22  7.3830e-26  1.9154e-22  7.3848e-26  1.9156e-22  7.3882e-26  1.9161e-22  7.3942e-26  1.9169e-22  7.4049e-26  1.9182e-22  7.4238e-26  1.9207e-22  7.4576e-26  1.9250e-22  7.5176e-26  1.9328e-22  7.6244e-26  1.9465e-22  7.8148e-26  1.9710e-22  8.1545e-26  2.0146e-22  8.7624e-26  2.0923e-22  9.8550e-26  2.2315e-22  1.1835e-25  2.4822e-22  1.5475e-25  2.9382e-22  2.2328e-25
      1.30  1.7916e-22  7.7803e-26  1.7917e-22  7.7809e-26  1.7917e-22  7.7819e-26  1.7918e-22  7.7836e-26  1.7919e-22  7.7867e-26  1.7921e-22  7.7922e-26  1.7926e-22  7.8020e-26  1.7933e-22  7.8194e-26  1.7947e-22  7.8503e-26  1.7970e-22  7.9054e-26  1.8013e-22  8.0034e-26  1.8088e-22  8.1778e-26  1.8221e-22  8.4886e-26  1.8458e-22  9.0430e-26  1.8881e-22  1.0035e-25  1.9635e-22  1.1817e-25  2.0985e-22  1.5044e-25  2.3417e-22  2.0967e-25  2.7840e-22  3.2093e-25
      1.35  1.6758e-22  8.2024e-26  1.6758e-22  8.2033e-26  1.6759e-22  8.2049e-26  1.6759e-22  8.2077e-26  1.6761e-22  8.2128e-26  1.6763e-22  8.2218e-26  1.6767e-22  8.2379e-26  1.6774e-22  8.2665e-26  1.6787e-22  8.3173e-26  1.6810e-22  8.4078e-26  1.6851e-22  8.5687e-26  1.6924e-22  8.8551e-26  1.7054e-22  9.3653e-26  1.7285e-22  1.0275e-25  1.7695e-22  1.1903e-25  1.8428e-22  1.4825e-25  1.9739e-22  2.0110e-25  2.2102e-22  2.9791e-25  2.6398e-22  4.7909e-25
      1.40  1.5672e-22  8.6808e-26  1.5672e-22  8.6823e-26  1.5672e-22  8.6849e-26  1.5673e-22  8.6896e-26  1.5674e-22  8.6979e-26  1.5676e-22  8.7127e-26  1.5680e-22  8.7391e-26  1.5687e-22  8.7859e-26  1.5700e-22  8.8693e-26  1.5722e-22  9.0175e-26  1.5761e-22  9.2806e-26  1.5833e-22  9.7507e-26  1.5959e-22  1.0587e-25  1.6183e-22  1.2078e-25  1.6582e-22  1.4743e-25  1.7294e-22  1.9525e-25  1.8568e-22  2.8163e-25  2.0864e-22  4.3949e-25  2.5037e-22  7.3375e-25
      1.45  1.4653e-22  9.3039e-26  1.4653e-22  9.3063e-26  1.4654e-22  9.3106e-26  1.4654e-22  9.3182e-26  1.4656e-22  9.3317e-26  1.4658e-22  9.3557e-26  1.4662e-22  9.3984e-26  1.4669e-22  9.4743e-26  1.4681e-22  9.6093e-26  1.4703e-22  9.8494e-26  1.4741e-22  1.0277e-25  1.4810e-22  1.1037e-25  1.4932e-22  1.2391e-25  1.5150e-22  1.4805e-25  1.5537e-22  1.9119e-25  1.6228e-22  2.6852e-25  1.7464e-22  4.0804e-25  1.9692e-22  6.6248e-25  2.3741e-22  1.1350e-24
      1.50  1.3699e-22  9.9480e-26  1.3699e-22  9.9518e-26  1.3699e-22  9.9586e-26  1.3700e-22  9.9706e-26  1.3701e-22  9.9920e-26  1.3703e-22  1.0030e-25  1.3707e-22  1.0098e-25  1.3714e-22  1.0218e-25  1.3725e-22  1.0432e-25  1.3746e-22  1.0812e-25  1.3784e-22  1.1490e-25  1.3851e-22  1.2694e-25  1.3969e-22  1.4840e-25  1.4180e-22  1.8665e-25  1.4554e-22  2.5496e-25  1.5224e-22  3.7736e-25  1.6421e-22  5.9798e-25  1.8577e-22  9.9958e-25  2.2499e-22  1.7432e-24
      1.55  1.2804e-22  1.0617e-25  1.2804e-22  1.0623e-25  1.2804e-22  1.0633e-25  1.2805e-22  1.0652e-25  1.2807e-22  1.0685e-25  1.2809e-22  1.0744e-25  1.2812e-22  1.0848e-25  1.2819e-22  1.1033e-25  1.2830e-22  1.1363e-25  1.2850e-22  1.1949e-25  1.2887e-22  1.2992e-25  1.2951e-22  1.4848e-25  1.3065e-22  1.8153e-25  1.3269e-22  2.4043e-25  1.3631e-22  3.4561e-25  1.4277e-22  5.3400e-25  1.5433e-22  8.7327e-25  1.7516e-22  1.4901e-24  2.1302e-22  2.6294e-24
      1.60  1.1966e-22  1.1315e-25  1.1967e-22  1.1323e-25  1.1967e-22  1.1339e-25  1.1968e-22  1.1367e-25  1.1969e-22  1.1416e-25  1.1971e-22  1.1503e-25  1.1974e-22  1.1659e-25  1.1980e-22  1.1935e-25  1.1991e-22  1.2427e-25  1.2011e-22  1.3302e-25  1.2046e-22  1.4858e-25  1.2108e-22  1.7627e-25  1.2218e-22  2.2558e-25  1.2414e-22  3.1345e-25  1.2762e-22  4.7033e-25  1.3384e-22  7.5124e-25  1.4498e-22  1.2569e-24  1.6502e-22  2.1753e-24  2.0148e-22  3.8689e-24
      1.65  1.1182e-22  1.2044e-25  1.1182e-22  1.2057e-25  1.1182e-22  1.2079e-25  1.1183e-22  1.2119e-25  1.1184e-22  1.2190e-25  1.1186e-22  1.2316e-25  1.1189e-22  1.2541e-25  1.1195e-22  1.2940e-25  1.1206e-22  1.3650e-25  1.1224e-22  1.4913e-25  1.1258e-22  1.7160e-25  1.1317e-22  2.1158e-25  1.1423e-22  2.8276e-25  1.1611e-22  4.0962e-25  1.1946e-22  6.3607e-25  1.2543e-22  1.0415e-24  1.3611e-22  1.7710e-24  1.5535e-22  3.0951e-24  1.9034e-22  5.5346e-24
      1.70  1.0447e-22  1.2810e-25  1.0447e-22  1.2827e-25  1.0447e-22  1.2859e-25  1.0448e-22  1.2915e-25  1.0449e-22  1.3014e-25  1.0451e-22  1.3190e-25  1.0454e-22  1.3504e-25  1.0460e-22  1.4063e-25  1.0470e-22  1.5055e-25  1.0488e-22  1.6821e-25  1.0520e-22  1.9963e-25  1.0577e-22  2.5553e-25  1.0678e-22  3.5506e-25  1.0858e-22  5.3242e-25  1.1178e-22  8.4902e-25  1.1749e-22  1.4157e-24  1.2772e-22  2.4353e-24  1.4613e-22  4.2856e-24  1.7961e-22  7.6922e-24
      1.75  9.7591e-23  1.3616e-25  9.7592e-23  1.3640e-25  9.7596e-23  1.3682e-25  9.7601e-23  1.3758e-25  9.7611e-23  1.3893e-25  9.7628e-23  1.4132e-25  9.7658e-23  1.4558e-25  9.7713e-23  1.5316e-25  9.7809e-23  1.6663e-25  9.7981e-23  1.9059e-25  9.8287e-23  2.3322e-25  9.8830e-23  3.0907e-25  9.9796e-23  4.4412e-25  1.0151e-22  6.8478e-25  1.0457e-22  1.1143e-24  1.1002e-22  1.8833e-24  1.1978e-22  3.2666e-24  1.3735e-22  5.7767e-24  1.6931e-22  1.0398e-23
      1.80  9.1153e-23  1.4469e-25  9.1155e-23  1.4501e-25  9.1153e-23  1.4556e-25  9.1163e-23  1.4657e-25  9.1172e-23  1.4835e-25  9.1189e-23  1.5151e-25  9.1218e-23  1.5713e-25  9.1270e-23  1.6713e-25  9.1362e-23  1.8492e-25  9.1525e-23  2.1655e-25  9.1817e-23  2.7283e-25  9.2334e-23  3.7297e-25  9.3254e-23  5.5127e-25  9.4889e-23  8.6900e-25  9.7799e-23  1.4362e-24  1.0299e-22  2.4514e-24  1.1228e-22  4.2780e-24  1.2900e-22  7.5927e-24  1.5943e-22  1.3696e-23
      1.85  8.5130e-23  1.5373e-25  8.5131e-23  1.5414e-25  8.5134e-23  1.5486e-25  8.5139e-23  1.5615e-25  8.5148e-23  1.5844e-25  8.5163e-23  1.6251e-25  8.5191e-23  1.6975e-25  8.5240e-23  1.8264e-25  8.5328e-23  2.0555e-25  8.5483e-23  2.4629e-25  8.5760e-23  3.1878e-25  8.6252e-23  4.4778e-25  8.7126e-23  6.7745e-25  8.8681e-23  1.0868e-24  9.1447e-23  1.8174e-24  9.6378e-23  3.1254e-24  1.0521e-22  5.4790e-24  1.2110e-22  9.7512e-24  1.5001e-22  1.7620e-23
      1.90  7.9495e-23  1.6332e-25  7.9496e-23  1.6383e-25  7.9499e-23  1.6475e-25  7.9503e-23  1.6637e-25  7.9512e-23  1.6926e-25  7.9526e-23  1.7439e-25  7.9553e-23  1.8351e-25  7.9599e-23  1.9974e-25  7.9683e-23  2.2861e-25  7.9830e-23  2.7995e-25  8.0093e-23  3.7128e-25  8.0560e-23  5.3382e-25  8.1389e-23  8.2320e-25  8.2865e-23  1.3389e-24  8.5489e-23  2.2596e-24  9.0168e-23  3.9081e-24  9.8545e-23  6.8750e-24  1.1362e-22  1.2262e-23  1.4105e-22  2.2191e-23
      1.95  7.4224e-23  1.7353e-25  7.4225e-23  1.7416e-25  7.4228e-23  1.7529e-25  7.4232e-23  1.7730e-25  7.4240e-23  1.8086e-25  7.4254e-23  1.8720e-25  7.4279e-23  1.9847e-25  7.4323e-23  2.1851e-25  7.4402e-23  2.5416e-25  7.4542e-23  3.1756e-25  7.4791e-23  4.3036e-25  7.5233e-23  6.3109e-25  7.6020e-23  9.8849e-25  7.7419e-23  1.6255e-24  7.9907e-23  2.7627e-24  8.4340e-23  4.7993e-24  9.2280e-23  8.4655e-24  1.0656e-22  1.5126e-23  1.3256e-22  2.7411e-23
      2.00  6.9295e-23  1.8442e-25  6.9296e-23  1.8519e-25  6.9298e-23  1.8655e-25  6.9303e-23  1.8898e-25  6.9310e-23  1.9330e-25  6.9323e-23  2.0099e-25  6.9347e-23  2.1465e-25  6.9389e-23  2.3895e-25  6.9463e-23  2.8217e-25  6.9596e-23  3.5904e-25  6.9832e-23  4.9580e-25  7.0251e-23  7.3917e-25  7.0996e-23  1.1725e-24  7.2321e-23  1.9449e-24  7.4677e-23  3.3240e-24  7.8874e-23  5.7941e-24  8.6391e-23  1.0242e-23  9.9914e-23  1.8327e-23  1.2452e-22  3.3253e-23
      2.05  6.4683e-23  1.9609e-25  6.4688e-23  1.9701e-25  6.4690e-23  1.9864e-25  6.4694e-23  2.0154e-25  6.4701e-23  2.0669e-25  6.4714e-23  2.1584e-25  6.4736e-23  2.3212e-25  6.4776e-23  2.6108e-25  6.4846e-23  3.1257e-25  6.4972e-23  4.0417e-25  6.5195e-23  5.6712e-25  6.5592e-23  8.5712e-25  6.6297e-23  1.3735e-24  6.7551e-23  2.2939e-24  6.9781e-23  3.9376e-24  7.3752e-23  6.8820e-24  8.0863e-23  1.2186e-23  9.3657e-23  2.1833e-23  1.1693e-22  3.9659e-23
      2.10  6.0379e-23  2.0860e-25  6.0380e-23  2.0968e-25  6.0382e-23  2.1159e-25  6.0386e-23  2.1498e-25  6.0392e-23  2.2101e-25  6.0404e-23  2.3174e-25  6.0426e-23  2.5083e-25  6.0463e-23  2.8476e-25  6.0530e-23  3.4512e-25  6.0649e-23  4.5248e-25  6.0860e-23  6.4348e-25  6.1235e-23  9.8338e-25  6.1903e-23  1.5887e-24  6.3089e-23  2.6676e-24  6.5199e-23  4.5946e-24  6.8956e-23  8.0472e-24  7.5681e-23  1.4269e-23  8.7780e-23  2.5591e-23  1.0978e-22  4.6536e-23
      2.15  5.6353e-23  2.2202e-25  5.6354e-23  2.2326e-25  5.6356e-23  2.2546e-25  5.6360e-23  2.2937e-25  5.6366e-23  2.3633e-25  5.6377e-23  2.4871e-25  5.6397e-23  2.7073e-25  5.6433e-23  3.0988e-25  5.6496e-23  3.7951e-25  5.6608e-23  5.0337e-25  5.6808e-23  7.2371e-25  5.7163e-23  1.1159e-24  5.7795e-23  1.8142e-24  5.8917e-23  3.0591e-24  6.0913e-23  5.2827e-24  6.4467e-23  9.2676e-24  7.0825e-23  1.6451e-23  8.2266e-23  2.9531e-23  1.0306e-22  5.3754e-23
      2.20  5.2591e-23  2.3643e-25  5.2592e-23  2.3784e-25  5.2594e-23  2.4034e-25  5.2597e-23  2.4479e-25  5.2603e-23  2.5270e-25  5.2614e-23  2.6676e-25  5.2633e-23  2.9178e-25  5.2667e-23  3.3626e-25  5.2726e-23  4.1538e-25  5.2833e-23  5.5611e-25  5.3022e-23  8.0649e-25  5.3358e-23  1.2521e-24  5.3955e-23  2.0456e-24  5.5017e-23  3.4603e-24  5.6905e-23  5.9875e-24  6.0267e-23  1.0517e-23  6.6278e-23  1.8686e-23  7.7095e-23  3.3569e-23  9.6750e-23  6.1157e-23
      2.25  4.9077e-23  2.5195e-25  4.9078e-23  2.5353e-25  4.9080e-23  2.5633e-25  4.9083e-23  2.6131e-25  4.9088e-23  2.7017e-25  4.9098e-23  2.8592e-25  4.9116e-23  3.1393e-25  4.9148e-23  3.6376e-25  4.9205e-23  4.5237e-25  4.9305e-23  6.0998e-25  4.9484e-23  8.9040e-25  4.9802e-23  1.3895e-24  5.0367e-23  2.2783e-24  5.1372e-23  3.8629e-24  5.3159e-23  6.6939e-24  5.6339e-23  1.1769e-23  6.2023e-23  2.0925e-23  7.2251e-23  3.7614e-23  9.0828e-23  6.8582e-23
      2.30  4.5794e-23  2.6875e-25  4.5795e-23  2.7050e-25  4.5797e-23  2.7359e-25  4.5800e-23  2.7909e-25  4.5805e-23  2.8888e-25  4.5815e-23  3.0629e-25  4.5832e-23  3.3724e-25  4.5862e-23  3.9230e-25  4.5915e-23  4.9021e-25  4.6011e-23  6.6437e-25  4.6180e-23  9.7423e-25  4.6481e-23  1.5257e-24  4.7016e-23  2.5079e-24  4.7967e-23  4.2590e-24  4.9658e-23  7.3878e-24  5.2668e-23  1.2998e-23  5.8044e-23  2.3121e-23  6.7718e-23  4.1585e-23  8.5279e-23  7.5873e-23
      2.35  4.2729e-23  2.8690e-25  4.2730e-23  2.8880e-25  4.2731e-23  2.9218e-25  4.2734e-23  2.9819e-25  4.2739e-23  3.0887e-25  4.2748e-23  3.2787e-25  4.2764e-23  3.6165e-25  4.2793e-23  4.2174e-25  4.2844e-23  5.2860e-25  4.2934e-23  7.1868e-25  4.3094e-23  1.0569e-24  4.3379e-23  1.6588e-24  4.3886e-23  2.7307e-24  4.4787e-23  4.6421e-24  4.6388e-23  8.0575e-24  4.9238e-23  1.4182e-23  5.4325e-23  2.5237e-23  6.3479e-23  4.5409e-23  8.0089e-23  8.2899e-23
      2.40  3.9865e-23  3.0652e-25  3.9868e-23  3.0859e-25  3.9869e-23  3.1223e-25  3.9872e-23  3.1872e-25  3.9877e-23  3.3025e-25  3.9885e-23  3.5075e-25  3.9901e-23  3.8722e-25  3.9928e-23  4.5207e-25  3.9976e-23  5.6742e-25  4.0061e-23  7.7258e-25  4.0213e-23  1.1376e-24  4.0483e-23  1.7873e-24  4.0964e-23  2.9444e-24  4.1817e-23  5.0077e-24  4.3335e-23  8.6947e-24  4.6035e-23  1.5308e-23  5.0852e-23  2.7245e-23  5.9520e-23  4.9037e-23  7.5241e-23  8.9563e-23
      2.45  3.7195e-23  3.2781e-25  3.7196e-23  3.3000e-25  3.7197e-23  3.3390e-25  3.7200e-23  3.4083e-25  3.7205e-23  3.5316e-25  3.7213e-23  3.7508e-25  3.7227e-23  4.1406e-25  3.7253e-23  4.8338e-25  3.7298e-23  6.0668e-25  3.7379e-23  8.2599e-25  3.7524e-23  1.2162e-24  3.7780e-23  1.9107e-24  3.8236e-23  3.1476e-24  3.9046e-23  5.3533e-24  4.0485e-23  9.2949e-24  4.3047e-23  1.6365e-23  4.7614e-23  2.9131e-23  5.5824e-23  5.2437e-23  7.0720e-23  9.5811e-23
      2.50  3.4702e-23  3.5091e-25  3.4702e-23  3.5323e-25  3.4704e-23  3.5736e-25  3.4706e-23  3.6471e-25  3.4710e-23  3.7778e-25  3.4718e-23  4.0101e-25  3.4732e-23  4.4233e-25  3.4756e-23  5.1582e-25  3.4800e-23  6.4651e-25  3.4877e-23  8.7900e-25  3.5014e-23  1.2926e-24  3.5257e-23  2.0288e-24  3.5690e-23  3.3400e-24  3.6459e-23  5.6782e-24  3.7827e-23  9.8568e-24  4.0260e-23  1.7353e-23  4.4596e-23  3.0888e-23  5.2388e-23  5.5608e-23  6.6512e-23  1.0162e-22
      2.55  3.2375e-23  3.7614e-25  3.2375e-23  3.7859e-25  3.2377e-23  3.8295e-25  3.2379e-23  3.9069e-25  3.2383e-23  4.0446e-25  3.2391e-23  4.2895e-25  3.2404e-23  4.7250e-25  3.2427e-23  5.4996e-25  3.2468e-23  6.8772e-25  3.2541e-23  9.3276e-25  3.2672e-23  1.3687e-24  3.2904e-23  2.1447e-24  3.3316e-23  3.5268e-24  3.4047e-23  5.9911e-24  3.5351e-23  1.0396e-23  3.7667e-23  1.8297e-23  4.1795e-23  3.2566e-23  4.9204e-23  5.8628e-23  6.2631e-23  1.0715e-22
      2.60  3.0204e-23  4.0361e-25  3.0204e-23  4.0618e-25  3.0206e-23  4.1074e-25  3.0208e-23  4.1886e-25  3.0212e-23  4.3329e-25  3.0219e-23  4.5896e-25  3.0231e-23  5.0460e-25  3.0253e-23  5.8578e-25  3.0293e-23  7.3015e-25  3.0363e-23  9.8696e-25  3.0487e-23  1.4439e-24  3.0709e-23  2.2571e-24  3.1102e-23  3.7055e-24  3.1802e-23  6.2885e-24  3.3044e-23  1.0905e-23  3.5255e-23  1.9186e-23  3.9193e-23  3.4140e-23  4.6254e-23  6.1457e-23  5.9048e-23  1.1232e-22
      2.65  2.8179e-23  4.3356e-25  2.8179e-23  4.3624e-25  2.8180e-23  4.4100e-25  2.8183e-23  4.4946e-25  2.8186e-23  4.6451e-25  2.8193e-23  4.9127e-25  2.8205e-23  5.3886e-25  2.8226e-23  6.2350e-25  2.8264e-23  7.7403e-25  2.8331e-23  1.0418e-24  2.8450e-23  1.5182e-24  2.8662e-23  2.3661e-24  2.9039e-23  3.8764e-24  2.9708e-23  6.5695e-24  3.0897e-23  1.1383e-23  3.3012e-23  2.0017e-23  3.6779e-23  3.5609e-23  4.3528e-23  6.4090e-23  5.5751e-23  1.1712e-22
      2.70  2.6290e-23  4.6626e-25  2.6290e-23  4.6904e-25  2.6292e-23  4.7398e-25  2.6294e-23  4.8276e-25  2.6297e-23  4.9838e-25  2.6304e-23  5.2615e-25  2.6315e-23  5.7554e-25  2.6335e-23  6.6339e-25  2.6372e-23  8.1962e-25  2.6436e-23  1.0975e-24  2.6550e-23  1.5919e-24  2.6754e-23  2.4720e-24  2.7115e-23  4.0393e-24  2.7758e-23  6.8343e-24  2.8900e-23  1.1829e-23  3.0930e-23  2.0790e-23  3.4545e-23  3.6970e-23  4.1014e-23  6.6524e-23  5.2728e-23  1.2154e-22
      2.75  2.4528e-23  5.0201e-25  2.4529e-23  5.0488e-25  2.4530e-23  5.0998e-25  2.4532e-23  5.1906e-25  2.4536e-23  5.3520e-25  2.4542e-23  5.6389e-25  2.4553e-23  6.1493e-25  2.4572e-23  7.0570e-25  2.4607e-23  8.6713e-25  2.4669e-23  1.1543e-24  2.4779e-23  1.6652e-24  2.4975e-23  2.5745e-24  2.5324e-23  4.1941e-24  2.5941e-23  7.0818e-24  2.7042e-23  1.2243e-23  2.8997e-23  2.1501e-23  3.2478e-23  3.8218e-23  3.8702e-23  6.8747e-23  4.9966e-23  1.2557e-22
      2.80  2.2886e-23  5.4132e-25  2.2887e-23  5.4427e-25  2.2888e-23  5.4952e-25  2.2890e-23  5.5886e-25  2.2893e-23  5.7546e-25  2.2899e-23  6.0499e-25  2.2910e-23  6.5750e-25  2.2929e-23  7.5090e-25  2.2963e-23  9.1700e-25  2.3023e-23  1.2125e-24  2.3129e-23  1.7381e-24  2.3318e-23  2.6737e-24  2.3655e-23  4.3401e-24  2.4253e-23  7.3115e-24  2.5316e-23  1.2622e-23  2.7206e-23  2.2146e-23  3.0569e-23  3.9343e-23  3.6580e-23  7.0745e-23  4.7447e-23  1.2918e-22
      2.85  2.1356e-23  5.8439e-25  2.1356e-23  5.8741e-25  2.1357e-23  5.9279e-25  2.1359e-23  6.0236e-25  2.1362e-23  6.1937e-25  2.1368e-23  6.4963e-25  2.1378e-23  7.0343e-25  2.1397e-23  7.9912e-25  2.1430e-23  9.6931e-25  2.1488e-23  1.2720e-24  2.1591e-23  1.8106e-24  2.1775e-23  2.7693e-24  2.2101e-23  4.4766e-24  2.2682e-23  7.5210e-24  2.3712e-23  1.2961e-23  2.5545e-23  2.2719e-23  2.8806e-23  4.0336e-23  3.4632e-23  7.2498e-23  4.5153e-23  1.3233e-22
      2.90  1.9929e-23  6.3165e-25  1.9929e-23  6.3474e-25  1.9930e-23  6.4023e-25  1.9932e-23  6.4999e-25  1.9935e-23  6.6735e-25  1.9941e-23  6.9822e-25  1.9951e-23  7.5312e-25  1.9969e-23  8.5076e-25  2.0001e-23  1.0244e-24  2.0057e-23  1.3333e-24  2.0158e-23  1.8829e-24  2.0337e-23  2.8610e-24  2.0654e-23  4.6031e-24  2.1219e-23  7.7094e-24  2.2222e-23  1.3260e-23  2.4004e-23  2.3215e-23  2.7176e-23  4.1186e-23  3.2840e-23  7.3991e-23  4.3059e-23  1.3500e-22
      2.95  1.8599e-23  6.8360e-25  1.8600e-23  6.8674e-25  1.8601e-23  6.9231e-25  1.8602e-23  7.0223e-25  1.8606e-23  7.1988e-25  1.8611e-23  7.5125e-25  1.8621e-23  8.0704e-25  1.8638e-23  9.0626e-25  1.8669e-23  1.0827e-24  1.8725e-23  1.3966e-24  1.8823e-23  1.9551e-24  1.8997e-23  2.9491e-24  1.9307e-23  4.7193e-24  1.9858e-23  7.8759e-24  2.0836e-23  1.3516e-23  2.2574e-23  2.3632e-23  2.5667e-23  4.1890e-23  3.1189e-23  7.5213e-23  4.1142e-23  1.3717e-22
      3.00  1.7360e-23  7.4080e-25  1.7361e-23  7.4398e-25  1.7362e-23  7.4963e-25  1.7364e-23  7.5967e-25  1.7367e-23  7.7752e-25  1.7372e-23  8.0928e-25  1.7382e-23  8.6575e-25  1.7399e-23  9.6619e-25  1.7429e-23  1.1448e-24  1.7483e-23  1.4625e-24  1.7579e-23  2.0278e-24  1.7749e-23  3.0339e-24  1.8052e-23  4.8258e-24  1.8590e-23  8.0208e-24  1.9546e-23  1.3729e-23  2.1245e-23  2.3967e-23  2.4268e-23  4.2444e-23  2.9663e-23  7.6162e-23  3.9376e-23  1.3883e-22
      3.05  1.6206e-23  8.0418e-25  1.6207e-23  8.0738e-25  1.6208e-23  8.1307e-25  1.6209e-23  8.2320e-25  1.6212e-23  8.4120e-25  1.6218e-23  8.7323e-25  1.6227e-23  9.3017e-25  1.6244e-23  1.0314e-24  1.6273e-23  1.2116e-24  1.6326e-23  1.5319e-24  1.6420e-23  2.1019e-24  1.6587e-23  3.1164e-24  1.6883e-23  4.9232e-24  1.7410e-23  8.1447e-24  1.8346e-23  1.3901e-23  2.0009e-23  2.4223e-23  2.2968e-23  4.2850e-23  2.8247e-23  7.6837e-23  3.7744e-23  1.3999e-22
      3.10  1.5131e-23  8.7389e-25  1.5132e-23  8.7711e-25  1.5132e-23  8.8283e-25  1.5134e-23  8.9300e-25  1.5137e-23  9.1110e-25  1.5142e-23  9.4327e-25  1.5151e-23  1.0005e-24  1.5168e-23  1.1022e-24  1.5197e-23  1.2832e-24  1.5249e-23  1.6052e-24  1.5340e-23  2.1779e-24  1.5504e-23  3.1973e-24  1.5794e-23  5.0127e-24  1.6311e-23  8.2496e-24  1.7228e-23  1.4033e-23  1.8858e-23  2.4403e-23  2.1756e-23  4.3117e-23  2.6928e-23  7.7255e-23  3.6222e-23  1.4068e-22
      3.15  1.4130e-23  9.5117e-25  1.4130e-23  9.5439e-25  1.4131e-23  9.6012e-25  1.4133e-23  9.7031e-25  1.4135e-23  9.8843e-25  1.4140e-23  1.0207e-24  1.4149e-23  1.0780e-24  1.4166e-23  1.1799e-24  1.4194e-23  1.3612e-24  1.4245e-23  1.6836e-24  1.4335e-23  2.2572e-24  1.4495e-23  3.2782e-24  1.4780e-23  5.0965e-24  1.5286e-23  8.3384e-24  1.6185e-23  1.4131e-23  1.7783e-23  2.4516e-23  2.0625e-23  4.3256e-23  2.5694e-23  7.7437e-23  3.4795e-23  1.4093e-22
      3.20  1.3197e-23  1.0367e-24  1.3197e-23  1.0400e-24  1.3198e-23  1.0457e-24  1.3200e-23  1.0559e-24  1.3203e-23  1.0740e-24  1.3208e-23  1.1061e-24  1.3216e-23  1.1634e-24  1.3232e-23  1.2651e-24  1.3260e-23  1.4462e-24  1.3310e-23  1.7682e-24  1.3398e-23  2.3410e-24  1.3555e-23  3.3606e-24  1.3834e-23  5.1763e-24  1.4331e-23  8.4138e-24  1.5213e-23  1.4198e-23  1.6780e-23  2.4568e-23  1.9566e-23  4.3279e-23  2.4537e-23  7.7404e-23  3.3457e-23  1.4077e-22
      3.25  1.2328e-23  1.1313e-24  1.2329e-23  1.1345e-24  1.2329e-23  1.1402e-24  1.2331e-23  1.1504e-24  1.2334e-23  1.1684e-24  1.2339e-23  1.2005e-24  1.2347e-23  1.2575e-24  1.2363e-23  1.3588e-24  1.2390e-23  1.5391e-24  1.2439e-23  1.8598e-24  1.2526e-23  2.4304e-24  1.2680e-23  3.4458e-24  1.2953e-23  5.2542e-24  1.3440e-23  8.4785e-24  1.4305e-23  1.4239e-23  1.5842e-23  2.4567e-23  1.8575e-23  4.3199e-23  2.3448e-23  7.7176e-23  3.2192e-23  1.4026e-22
      3.30  1.1519e-23  1.2364e-24  1.1520e-23  1.2396e-24  1.1521e-23  1.2453e-24  1.1522e-23  1.2554e-24  1.1525e-23  1.2733e-24  1.1530e-23  1.3051e-24  1.1538e-23  1.3617e-24  1.1553e-23  1.4624e-24  1.1580e-23  1.6416e-24  1.1628e-23  1.9602e-24  1.1713e-23  2.5270e-24  1.1864e-23  3.5359e-24  1.2132e-23  5.3325e-24  1.2610e-23  8.5358e-24  1.3458e-23  1.4258e-23  1.4965e-23  2.4518e-23  1.7645e-23  4.3027e-23  2.2424e-23  7.6774e-23  3.0994e-23  1.3942e-22
      3.35  1.0766e-23  1.3528e-24  1.0767e-23  1.3560e-24  1.0767e-23  1.3616e-24  1.0769e-23  1.3716e-24  1.0771e-23  1.3893e-24  1.0776e-23  1.4209e-24  1.0785e-23  1.4770e-24  1.0799e-23  1.5769e-24  1.0826e-23  1.7544e-24  1.0873e-23  2.0702e-24  1.0956e-23  2.6321e-24  1.1104e-23  3.6321e-24  1.1367e-23  5.4129e-24  1.1835e-23  8.5880e-24  1.2667e-23  1.4260e-23  1.4145e-23  2.4429e-23  1.6773e-23  4.2773e-23  2.1459e-23  7.6216e-23  2.9859e-23  1.3828e-22
      3.40  1.0065e-23  1.4818e-24  1.0065e-23  1.4850e-24  1.0066e-23  1.4905e-24  1.0067e-23  1.5004e-24  1.0070e-23  1.5179e-24  1.0075e-23  1.5492e-24  1.0083e-23  1.6047e-24  1.0097e-23  1.7034e-24  1.0123e-23  1.8790e-24  1.0169e-23  2.1914e-24  1.0251e-23  2.7471e-24  1.0396e-23  3.7361e-24  1.0654e-23  5.4974e-24  1.1113e-23  8.6376e-24  1.1929e-23  1.4247e-23  1.3378e-23  2.4304e-23  1.5955e-23  4.2445e-23  2.0550e-23  7.5515e-23  2.8784e-23  1.3688e-22
      3.45  9.4116e-24  1.6250e-24  9.4121e-24  1.6281e-24  9.4129e-24  1.6335e-24  9.4143e-24  1.6433e-24  9.4168e-24  1.6606e-24  9.4213e-24  1.6914e-24  9.4294e-24  1.7462e-24  9.4436e-24  1.8437e-24  9.4689e-24  2.0170e-24  9.5140e-24  2.3254e-24  9.5941e-24  2.8739e-24  9.7365e-24  3.8501e-24  9.9897e-24  5.5887e-24  1.0440e-23  8.6883e-24  1.1240e-23  1.4225e-23  1.2661e-23  2.4152e-23  1.5189e-23  4.2057e-23  1.9694e-23  7.4695e-23  2.7767e-23  1.3525e-22
      3.50  8.8035e-24  1.7839e-24  8.8039e-24  1.7870e-24  8.8047e-24  1.7924e-24  8.8061e-24  1.8020e-24  8.8086e-24  1.8190e-24  8.8130e-24  1.8494e-24  8.8209e-24  1.9034e-24  8.8348e-24  1.9995e-24  8.8597e-24  2.1703e-24  8.9039e-24  2.4742e-24  8.9824e-24  3.0148e-24  9.1222e-24  3.9769e-24  9.3705e-24  5.6904e-24  9.8120e-24  8.7452e-24  1.0597e-23  1.4202e-23  1.1991e-23  2.3985e-23  1.4471e-23  4.1631e-23  1.8890e-23  7.3794e-23  2.6807e-23  1.3347e-22
      3.55  8.2372e-24  1.9612e-24  8.2376e-24  1.9642e-24  8.2384e-24  1.9695e-24  8.2397e-24  1.9789e-24  8.2422e-24  1.9958e-24  8.2465e-24  2.0257e-24  8.2542e-24  2.0789e-24  8.2680e-24  2.1735e-24  8.2923e-24  2.3418e-24  8.3357e-24  2.6411e-24  8.4128e-24  3.1736e-24  8.5499e-24  4.1213e-24  8.7936e-24  5.8091e-24  9.2268e-24  8.8182e-24  9.9967e-24  1.4194e-23  1.1365e-23  2.3830e-23  1.3799e-23  4.1211e-23  1.8136e-23  7.2892e-23  2.5902e-23  1.3167e-22
      3.60  7.7098e-24  2.1582e-24  7.7102e-24  2.1612e-24  7.7109e-24  2.1664e-24  7.7123e-24  2.1758e-24  7.7147e-24  2.1924e-24  7.7189e-24  2.2219e-24  7.7265e-24  2.2743e-24  7.7400e-24  2.3677e-24  7.7639e-24  2.5336e-24  7.8065e-24  2.8289e-24  7.8822e-24  3.3541e-24  8.0167e-24  4.2888e-24  8.2559e-24  5.9535e-24  8.6812e-24  8.9215e-24  9.4371e-24  1.4223e-23  1.0780e-23  2.3728e-23  1.3170e-23  4.0872e-23  1.7427e-23  7.2123e-23  2.5050e-23  1.3010e-22
      3.65  7.2185e-24  2.3776e-24  7.2189e-24  2.3805e-24  7.2197e-24  2.3857e-24  7.2210e-24  2.3949e-24  7.2233e-24  2.4114e-24  7.2275e-24  2.4406e-24  7.2349e-24  2.4926e-24  7.2482e-24  2.5850e-24  7.2717e-24  2.7495e-24  7.3135e-24  3.0419e-24  7.3878e-24  3.5623e-24  7.5199e-24  4.4883e-24  7.7549e-24  6.1375e-24  8.1725e-24  9.0779e-24  8.9149e-24  1.4331e-23  1.0234e-23  2.3748e-23  1.2581e-23  4.0734e-23  1.6763e-23  7.1700e-23  2.4248e-23  1.2916e-22
      3.70  6.7608e-24  2.6218e-24  6.7612e-24  2.6247e-24  6.7619e-24  2.6299e-24  6.7632e-24  2.6392e-24  6.7655e-24  2.6556e-24  6.7697e-24  2.6849e-24  6.7770e-24  2.7369e-24  6.7899e-24  2.8295e-24  6.8130e-24  2.9941e-24  6.8541e-24  3.2869e-24  6.9271e-24  3.8077e-24  7.0569e-24  4.7348e-24  7.2878e-24  6.3858e-24  7.6981e-24  9.3294e-24  8.4275e-24  1.4588e-23  9.7240e-24  2.4016e-23  1.2030e-23  4.1025e-23  1.6139e-23  7.2038e-23  2.3493e-23  1.2960e-22
      3.75  6.3343e-24  2.8939e-24  6.3347e-24  2.8969e-24  6.3354e-24  2.9022e-24  6.3367e-24  2.9115e-24  6.3390e-24  2.9282e-24  6.3430e-24  2.9578e-24  6.3502e-24  3.0105e-24  6.3630e-24  3.1042e-24  6.3857e-24  3.2708e-24  6.4260e-24  3.5671e-24  6.4978e-24  4.0943e-24  6.6254e-24  5.0327e-24  6.8522e-24  6.7038e-24  7.2556e-24  9.6834e-24  7.9725e-24  1.5007e-23  9.2471e-24  2.4551e-23  1.1514e-23  4.1772e-23  1.5553e-23  7.3176e-23  2.2782e-23  1.3149e-22
      3.80  5.9368e-24  3.1983e-24  5.9372e-24  3.2014e-24  5.9379e-24  3.2068e-24  5.9392e-24  3.2165e-24  5.9414e-24  3.2337e-24  5.9454e-24  3.2643e-24  5.9525e-24  3.3186e-24  5.9650e-24  3.4153e-24  5.9873e-24  3.5872e-24  6.0270e-24  3.8931e-24  6.0976e-24  4.4373e-24  6.2230e-24  5.4058e-24  6.4461e-24  7.1306e-24  6.8427e-24  1.0206e-23  7.5477e-24  1.5701e-23  8.8010e-24  2.5554e-23  1.1030e-23  4.3334e-23  1.5003e-23  7.5769e-23  2.2111e-23  1.3602e-22
      3.85  5.5662e-24  3.5379e-24  5.5666e-24  3.5411e-24  5.5673e-24  3.5469e-24  5.5686e-24  3.5571e-24  5.5708e-24  3.5753e-24  5.5747e-24  3.6076e-24  5.5816e-24  3.6650e-24  5.5940e-24  3.7672e-24  5.6159e-24  3.9489e-24  5.6549e-24  4.2721e-24  5.7243e-24  4.8471e-24  5.8477e-24  5.8706e-24  6.0671e-24  7.6934e-24  6.4572e-24  1.0944e-23  7.1507e-24  1.6751e-23  8.3836e-24  2.7166e-23  1.0577e-23  4.5964e-23  1.4485e-23  8.0268e-23  2.1478e-23  1.4403e-22
      3.90  5.2206e-24  3.9169e-24  5.2210e-24  3.9204e-24  5.2216e-24  3.9267e-24  5.2229e-24  3.9377e-24  5.2250e-24  3.9574e-24  5.2289e-24  3.9925e-24  5.2357e-24  4.0547e-24  5.2478e-24  4.1655e-24  5.2694e-24  4.3624e-24  5.3078e-24  4.7128e-24  5.3761e-24  5.3361e-24  5.4975e-24  6.4456e-24  5.7134e-24  8.4216e-24  6.0971e-24  1.1945e-23  6.7795e-24  1.8241e-23  7.9927e-24  2.9535e-23  1.0151e-23  4.9924e-23  1.3997e-23  8.7146e-23  2.0879e-23  1.5638e-22
      3.95  4.8980e-24  4.3404e-24  4.8984e-24  4.3443e-24  4.8991e-24  4.3512e-24  4.9002e-24  4.3635e-24  4.9024e-24  4.3854e-24  4.9062e-24  4.4243e-24  4.9129e-24  4.4935e-24  4.9248e-24  4.6166e-24  4.9461e-24  4.8356e-24  4.9839e-24  5.2251e-24  5.0511e-24  5.9180e-24  5.1705e-24  7.1514e-24  5.3830e-24  9.3481e-24  5.7607e-24  1.3265e-23  6.4323e-24  2.0266e-23  7.6266e-24  3.2826e-23  9.7513e-24  5.5506e-23  1.3538e-23  9.6931e-23  2.0312e-23  1.7404e-22
