# This was generated using Cloudy10 and the columns are ordered 
# as log10 of the fraction of the metallicity to the solar metallicity
# 'h_*_Z' and 'c_*_Z' stands for cooling and heating respectively 
# at * metalicity
#
# NOTE: This was generated separately from loop_coolingcurve_w_UV.py
#       using Output_metals_w_redshift.py.
#
# Redshift = 7.5
# hden = -4.0
#
#     temp   h_-3.00_Z   c_-3.00_Z   h_-2.75_Z   c_-2.75_Z   h_-2.50_Z   c_-2.50_Z   h_-2.25_Z   c_-2.25_Z   h_-2.00_Z   c_-2.00_Z   h_-1.75_Z   c_-1.75_Z   h_-1.50_Z   c_-1.50_Z   h_-1.25_Z   c_-1.25_Z   h_-1.00_Z   c_-1.00_Z   h_-0.75_Z   c_-0.75_Z   h_-0.50_Z   c_-0.50_Z   h_-0.25_Z   c_-0.25_Z    h_0.00_Z    c_0.00_Z    h_0.25_Z    c_0.25_Z    h_0.50_Z    c_0.50_Z    h_0.75_Z    c_0.75_Z    h_1.00_Z    c_1.00_Z    h_1.25_Z    c_1.25_Z    h_1.50_Z    c_1.50_Z 
      1.00  2.6950e-22  5.6139e-26  2.6951e-22  5.6139e-26  2.6951e-22  5.6140e-26  2.6952e-22  5.6141e-26  2.6954e-22  5.6143e-26  2.6957e-22  5.6146e-26  2.6963e-22  5.6152e-26  2.6974e-22  5.6163e-26  2.6992e-22  5.6183e-26  2.7025e-22  5.6217e-26  2.7084e-22  5.6279e-26  2.7187e-22  5.6389e-26  2.7372e-22  5.6584e-26  2.7700e-22  5.6931e-26  2.8284e-22  5.7552e-26  2.9327e-22  5.8661e-26  3.1195e-22  6.0653e-26  3.4560e-22  6.4258e-26  4.0683e-22  7.0867e-26
      1.05  2.5238e-22  5.9104e-26  2.5238e-22  5.9104e-26  2.5239e-22  5.9105e-26  2.5240e-22  5.9107e-26  2.5242e-22  5.9110e-26  2.5245e-22  5.9115e-26  2.5250e-22  5.9124e-26  2.5260e-22  5.9140e-26  2.5277e-22  5.9169e-26  2.5308e-22  5.9221e-26  2.5363e-22  5.9312e-26  2.5461e-22  5.9475e-26  2.5634e-22  5.9765e-26  2.5943e-22  6.0281e-26  2.6492e-22  6.1204e-26  2.7472e-22  6.2858e-26  2.9228e-22  6.5841e-26  3.2391e-22  7.1275e-26  3.8146e-22  8.1355e-26
      1.10  2.3629e-22  6.2220e-26  2.3630e-22  6.2221e-26  2.3630e-22  6.2222e-26  2.3631e-22  6.2225e-26  2.3633e-22  6.2229e-26  2.3636e-22  6.2237e-26  2.3641e-22  6.2251e-26  2.3650e-22  6.2276e-26  2.3667e-22  6.2320e-26  2.3696e-22  6.2398e-26  2.3748e-22  6.2538e-26  2.3841e-22  6.2787e-26  2.4005e-22  6.3230e-26  2.4298e-22  6.4021e-26  2.4820e-22  6.5434e-26  2.5750e-22  6.7971e-26  2.7416e-22  7.2559e-26  3.0418e-22  8.0961e-26  3.5879e-22  9.6676e-26
      1.15  2.2119e-22  6.5496e-26  2.2119e-22  6.5498e-26  2.2119e-22  6.5500e-26  2.2120e-22  6.5504e-26  2.2122e-22  6.5511e-26  2.2125e-22  6.5523e-26  2.2130e-22  6.5545e-26  2.2139e-22  6.5583e-26  2.2154e-22  6.5652e-26  2.2182e-22  6.5775e-26  2.2232e-22  6.5993e-26  2.2321e-22  6.6382e-26  2.2479e-22  6.7074e-26  2.2759e-22  6.8309e-26  2.3258e-22  7.0518e-26  2.4148e-22  7.4488e-26  2.5743e-22  8.1680e-26  2.8615e-22  9.4891e-26  3.3841e-22  1.1973e-25
      1.20  2.0700e-22  6.8943e-26  2.0701e-22  6.8945e-26  2.0701e-22  6.8948e-26  2.0702e-22  6.8954e-26  2.0704e-22  6.8965e-26  2.0706e-22  6.8985e-26  2.0711e-22  6.9019e-26  2.0720e-22  6.9081e-26  2.0735e-22  6.9190e-26  2.0762e-22  6.9385e-26  2.0810e-22  6.9732e-26  2.0895e-22  7.0349e-26  2.1047e-22  7.1449e-26  2.1317e-22  7.3411e-26  2.1798e-22  7.6922e-26  2.2656e-22  8.3236e-26  2.4192e-22  9.4682e-26  2.6959e-22  1.1573e-25  3.1993e-22  1.5541e-25
      1.25  1.9370e-22  7.2569e-26  1.9370e-22  7.2573e-26  1.9370e-22  7.2578e-26  1.9371e-22  7.2588e-26  1.9373e-22  7.2606e-26  1.9375e-22  7.2637e-26  1.9380e-22  7.2693e-26  1.9388e-22  7.2793e-26  1.9403e-22  7.2970e-26  1.9429e-22  7.3285e-26  1.9476e-22  7.3846e-26  1.9558e-22  7.4844e-26  1.9705e-22  7.6623e-26  1.9967e-22  7.9798e-26  2.0432e-22  8.5477e-26  2.1263e-22  9.5688e-26  2.2750e-22  1.1420e-25  2.5428e-22  1.4823e-25  3.0300e-22  2.1233e-25
      1.30  1.8120e-22  7.6383e-26  1.8122e-22  7.6394e-26  1.8122e-22  7.6404e-26  1.8123e-22  7.6420e-26  1.8124e-22  7.6449e-26  1.8127e-22  7.6501e-26  1.8131e-22  7.6593e-26  1.8139e-22  7.6757e-26  1.8154e-22  7.7049e-26  1.8179e-22  7.7568e-26  1.8224e-22  7.8491e-26  1.8305e-22  8.0134e-26  1.8448e-22  8.3062e-26  1.8701e-22  8.8285e-26  1.9154e-22  9.7629e-26  1.9960e-22  1.1442e-25  2.1404e-22  1.4483e-25  2.4005e-22  2.0065e-25  2.8736e-22  3.0553e-25
      1.35  1.6951e-22  8.0415e-26  1.6951e-22  8.0423e-26  1.6951e-22  8.0439e-26  1.6952e-22  8.0466e-26  1.6953e-22  8.0514e-26  1.6956e-22  8.0601e-26  1.6960e-22  8.0754e-26  1.6968e-22  8.1027e-26  1.6982e-22  8.1512e-26  1.7007e-22  8.2376e-26  1.7051e-22  8.3912e-26  1.7129e-22  8.6647e-26  1.7268e-22  9.1518e-26  1.7515e-22  1.0021e-25  1.7955e-22  1.1574e-25  1.8739e-22  1.4364e-25  2.0143e-22  1.9410e-25  2.2673e-22  2.8654e-25  2.7274e-22  4.5955e-25
      1.40  1.5853e-22  8.5708e-26  1.5853e-22  8.5723e-26  1.5854e-22  8.5748e-26  1.5854e-22  8.5794e-26  1.5856e-22  8.5874e-26  1.5858e-22  8.6018e-26  1.5862e-22  8.6273e-26  1.5870e-22  8.6728e-26  1.5884e-22  8.7535e-26  1.5908e-22  8.8972e-26  1.5951e-22  9.1528e-26  1.6027e-22  9.6078e-26  1.6162e-22  1.0418e-25  1.6402e-22  1.1863e-25  1.6830e-22  1.4446e-25  1.7593e-22  1.9081e-25  1.8959e-22  2.7452e-25  2.1419e-22  4.2751e-25  2.5893e-22  7.1269e-25
      1.45  1.4824e-22  9.1617e-26  1.4825e-22  9.1641e-26  1.4825e-22  9.1683e-26  1.4826e-22  9.1757e-26  1.4827e-22  9.1890e-26  1.4829e-22  9.2126e-26  1.4833e-22  9.2545e-26  1.4841e-22  9.3290e-26  1.4854e-22  9.4616e-26  1.4877e-22  9.6975e-26  1.4919e-22  1.0117e-25  1.4993e-22  1.0864e-25  1.5124e-22  1.2194e-25  1.5358e-22  1.4565e-25  1.5773e-22  1.8802e-25  1.6515e-22  2.6399e-25  1.7841e-22  4.0104e-25  2.0231e-22  6.5099e-25  2.4577e-22  1.1152e-24
      1.50  1.3859e-22  9.7707e-26  1.3861e-22  9.7751e-26  1.3861e-22  9.7819e-26  1.3862e-22  9.7938e-26  1.3863e-22  9.8150e-26  1.3865e-22  9.8528e-26  1.3869e-22  9.9200e-26  1.3876e-22  1.0039e-25  1.3889e-22  1.0252e-25  1.3912e-22  1.0630e-25  1.3952e-22  1.1302e-25  1.4024e-22  1.2499e-25  1.4151e-22  1.4629e-25  1.4377e-22  1.8428e-25  1.4780e-22  2.5212e-25  1.5499e-22  3.7369e-25  1.6785e-22  5.9282e-25  1.9102e-22  9.9178e-25  2.3315e-22  1.7306e-24
      1.55  1.2957e-22  1.0404e-25  1.2957e-22  1.0409e-25  1.2958e-22  1.0420e-25  1.2959e-22  1.0438e-25  1.2960e-22  1.0471e-25  1.2962e-22  1.0530e-25  1.2966e-22  1.0634e-25  1.2973e-22  1.0820e-25  1.2985e-22  1.1150e-25  1.3007e-22  1.1737e-25  1.3046e-22  1.2781e-25  1.3115e-22  1.4640e-25  1.3238e-22  1.7949e-25  1.3457e-22  2.3847e-25  1.3847e-22  3.4379e-25  1.4542e-22  5.3246e-25  1.5785e-22  8.7229e-25  1.8025e-22  1.4903e-24  2.2097e-22  2.6322e-24
      1.60  1.2111e-22  1.1061e-25  1.2112e-22  1.1070e-25  1.2112e-22  1.1085e-25  1.2113e-22  1.1113e-25  1.2114e-22  1.1163e-25  1.2116e-22  1.1251e-25  1.2120e-22  1.1407e-25  1.2126e-22  1.1686e-25  1.2138e-22  1.2181e-25  1.2160e-22  1.3062e-25  1.2197e-22  1.4629e-25  1.2264e-22  1.7418e-25  1.2383e-22  2.2383e-25  1.2594e-22  3.1234e-25  1.2969e-22  4.7035e-25  1.3639e-22  7.5331e-25  1.4838e-22  1.2628e-24  1.6996e-22  2.1884e-24  2.0921e-22  3.8965e-24
      1.65  1.1319e-22  1.1747e-25  1.1320e-22  1.1759e-25  1.1320e-22  1.1782e-25  1.1321e-22  1.1822e-25  1.1322e-22  1.1894e-25  1.1324e-22  1.2022e-25  1.1327e-22  1.2249e-25  1.1334e-22  1.2652e-25  1.1345e-22  1.3370e-25  1.1366e-22  1.4646e-25  1.1402e-22  1.6917e-25  1.1466e-22  2.0958e-25  1.1580e-22  2.8154e-25  1.1783e-22  4.0977e-25  1.2144e-22  6.3870e-25  1.2787e-22  1.0486e-24  1.3939e-22  1.7864e-24  1.6013e-22  3.1262e-24  1.9785e-22  5.5963e-24
      1.70  1.0578e-22  1.2464e-25  1.0578e-22  1.2482e-25  1.0579e-22  1.2514e-25  1.0579e-22  1.2571e-25  1.0580e-22  1.2671e-25  1.0582e-22  1.2850e-25  1.0586e-22  1.3168e-25  1.0592e-22  1.3733e-25  1.0603e-22  1.4739e-25  1.0622e-22  1.6527e-25  1.0657e-22  1.9708e-25  1.0718e-22  2.5370e-25  1.0828e-22  3.5450e-25  1.1022e-22  5.3415e-25  1.1368e-22  8.5485e-25  1.1985e-22  1.4290e-24  1.3088e-22  2.4623e-24  1.5075e-22  4.3385e-24  1.8689e-22  7.7957e-24
      1.75  9.8840e-23  1.3218e-25  9.8842e-23  1.3242e-25  9.8845e-23  1.3285e-25  9.8851e-23  1.3362e-25  9.8862e-23  1.3498e-25  9.8880e-23  1.3741e-25  9.8913e-23  1.4173e-25  9.8972e-23  1.4940e-25  9.9077e-23  1.6306e-25  9.9263e-23  1.8734e-25  9.9594e-23  2.3053e-25  1.0018e-22  3.0740e-25  1.0123e-22  4.4426e-25  1.0309e-22  6.8817e-25  1.0639e-22  1.1236e-24  1.1229e-22  1.9032e-24  1.2284e-22  3.3061e-24  1.4182e-22  5.8532e-24  1.7636e-22  1.0547e-23
      1.80  9.2346e-23  1.4013e-25  9.2348e-23  1.4045e-25  9.2351e-23  1.4102e-25  9.2357e-23  1.4203e-25  9.2367e-23  1.4384e-25  9.2384e-23  1.4704e-25  9.2416e-23  1.5273e-25  9.2472e-23  1.6286e-25  9.2572e-23  1.8088e-25  9.2750e-23  2.1292e-25  9.3065e-23  2.6992e-25  9.3626e-23  3.7135e-25  9.4624e-23  5.5196e-25  9.6397e-23  8.7383e-25  9.9549e-23  1.4484e-24  1.0517e-22  2.4773e-24  1.1523e-22  4.3289e-24  1.3333e-22  7.6911e-24  1.6626e-22  1.3888e-23
      1.85  8.6270e-23  1.4853e-25  8.6272e-23  1.4894e-25  8.6275e-23  1.4967e-25  8.6280e-23  1.5097e-25  8.6290e-23  1.5329e-25  8.6306e-23  1.5741e-25  8.6337e-23  1.6474e-25  8.6390e-23  1.7777e-25  8.6485e-23  2.0094e-25  8.6654e-23  2.4215e-25  8.6955e-23  3.1548e-25  8.7489e-23  4.4596e-25  8.8439e-23  6.7828e-25  9.0127e-23  1.0923e-24  9.3129e-23  1.8316e-24  9.8480e-23  3.1552e-24  1.0806e-22  5.5379e-24  1.2528e-22  9.8657e-24  1.5663e-22  1.7846e-23
      1.90  8.0586e-23  1.5741e-25  8.0588e-23  1.5792e-25  8.0591e-23  1.5885e-25  8.0596e-23  1.6048e-25  8.0605e-23  1.6340e-25  8.0621e-23  1.6858e-25  8.0650e-23  1.7779e-25  8.0701e-23  1.9417e-25  8.0791e-23  2.2330e-25  8.0952e-23  2.7512e-25  8.1238e-23  3.6731e-25  8.1746e-23  5.3137e-25  8.2649e-23  8.2348e-25  8.4255e-23  1.3441e-24  8.7109e-23  2.2737e-24  9.2195e-23  3.9384e-24  1.0130e-22  6.9357e-24  1.1767e-22  1.2382e-23  1.4746e-22  2.2431e-23
      1.95  7.5271e-23  1.6682e-25  7.5272e-23  1.6746e-25  7.5275e-23  1.6859e-25  7.5280e-23  1.7061e-25  7.5289e-23  1.7420e-25  7.5304e-23  1.8058e-25  7.5331e-23  1.9192e-25  7.5379e-23  2.1210e-25  7.5465e-23  2.4798e-25  7.5618e-23  3.1181e-25  7.5890e-23  4.2536e-25  7.6373e-23  6.2743e-25  7.7231e-23  9.8724e-25  7.8756e-23  1.6286e-24  8.1468e-23  2.7737e-24  8.6297e-23  4.8249e-24  9.4943e-23  8.5189e-24  1.1049e-22  1.5234e-23  1.3877e-22  2.7635e-23
      2.00  7.0301e-23  1.7682e-25  7.0302e-23  1.7759e-25  7.0305e-23  1.7897e-25  7.0309e-23  1.8140e-25  7.0317e-23  1.8574e-25  7.0332e-23  1.9345e-25  7.0358e-23  2.0716e-25  7.0404e-23  2.3155e-25  7.0485e-23  2.7492e-25  7.0630e-23  3.5207e-25  7.0888e-23  4.8931e-25  7.1347e-23  7.3355e-25  7.2161e-23  1.1685e-24  7.3606e-23  1.9436e-24  7.6184e-23  3.3281e-24  8.0766e-23  5.8083e-24  8.8970e-23  1.0276e-23  1.0372e-22  1.8403e-23  1.3054e-22  3.3423e-23
      2.05  6.5654e-23  1.8751e-25  6.5656e-23  1.8843e-25  6.5658e-23  1.9006e-25  6.5662e-23  1.9295e-25  6.5670e-23  1.9810e-25  6.5684e-23  2.0726e-25  6.5708e-23  2.2354e-25  6.5752e-23  2.5250e-25  6.5829e-23  3.0401e-25  6.5967e-23  3.9563e-25  6.6209e-23  5.5859e-25  6.6647e-23  8.4868e-25  6.7420e-23  1.3652e-24  6.8794e-23  2.2860e-24  7.1237e-23  3.9304e-24  7.5584e-23  6.8770e-24  8.3365e-23  1.2187e-23  9.7352e-23  2.1851e-23  1.2278e-22  3.9731e-23
      2.10  6.1311e-23  1.9891e-25  6.1312e-23  1.9998e-25  6.1315e-23  2.0189e-25  6.1319e-23  2.0527e-25  6.1326e-23  2.1128e-25  6.1339e-23  2.2198e-25  6.1363e-23  2.4100e-25  6.1404e-23  2.7482e-25  6.1477e-23  3.3499e-25  6.1608e-23  4.4200e-25  6.1840e-23  6.3238e-25  6.2253e-23  9.7120e-25  6.2987e-23  1.5746e-24  6.4291e-23  2.6502e-24  6.6608e-23  4.5715e-24  7.0733e-23  8.0148e-24  7.8110e-23  1.4222e-23  9.1373e-23  2.5526e-23  1.1547e-22  4.6461e-23
      2.15  5.7252e-23  2.1109e-25  5.7254e-23  2.1232e-25  5.7256e-23  2.1451e-25  5.7260e-23  2.1840e-25  5.7267e-23  2.2531e-25  5.7279e-23  2.3761e-25  5.7301e-23  2.5948e-25  5.7340e-23  2.9837e-25  5.7410e-23  3.6754e-25  5.7534e-23  4.9057e-25  5.7754e-23  7.0947e-25  5.8146e-23  1.0990e-24  5.8843e-23  1.7928e-24  6.0080e-23  3.0297e-24  6.2279e-23  5.2391e-24  6.6192e-23  9.1997e-24  7.3187e-23  1.6342e-23  8.5760e-23  2.9355e-23  1.0861e-22  5.3483e-23
      2.20  5.3460e-23  2.2412e-25  5.3461e-23  2.2551e-25  5.3463e-23  2.2799e-25  5.3467e-23  2.3239e-25  5.3474e-23  2.4022e-25  5.3486e-23  2.5415e-25  5.3507e-23  2.7892e-25  5.3544e-23  3.2297e-25  5.3610e-23  4.0131e-25  5.3728e-23  5.4066e-25  5.3937e-23  7.8857e-25  5.4309e-23  1.2298e-24  5.4970e-23  2.0156e-24  5.6144e-23  3.4166e-24  5.8231e-23  5.9196e-24  6.1945e-23  1.0407e-23  6.8579e-23  1.8503e-23  8.0507e-23  3.3262e-23  1.0216e-22  6.0651e-23
      2.25  4.9918e-23  2.3809e-25  4.9919e-23  2.3964e-25  4.9921e-23  2.4241e-25  4.9924e-23  2.4732e-25  4.9930e-23  2.5607e-25  4.9942e-23  2.7162e-25  4.9962e-23  2.9928e-25  4.9997e-23  3.4846e-25  5.0060e-23  4.3595e-25  5.0171e-23  5.9155e-25  5.0370e-23  8.6839e-25  5.0723e-23  1.3611e-24  5.1351e-23  2.2386e-24  5.2466e-23  3.8033e-24  5.4448e-23  6.5989e-24  5.7974e-23  1.1612e-23  6.4268e-23  2.0658e-23  7.5585e-23  3.7159e-23  9.6116e-23  6.7809e-23
      2.30  4.6609e-23  2.5315e-25  4.6610e-23  2.5487e-25  4.6612e-23  2.5792e-25  4.6615e-23  2.6334e-25  4.6621e-23  2.7297e-25  4.6632e-23  2.9011e-25  4.6651e-23  3.2060e-25  4.6684e-23  3.7481e-25  4.6744e-23  4.7122e-25  4.6850e-23  6.4272e-25  4.7039e-23  9.4784e-25  4.7374e-23  1.4909e-24  4.7968e-23  2.4580e-24  4.9028e-23  4.1826e-24  5.0913e-23  7.2644e-24  5.4263e-23  1.2791e-23  6.0237e-23  2.2767e-23  7.0980e-23  4.0974e-23  9.0456e-23  7.4819e-23
      2.35  4.3519e-23  2.6936e-25  4.3520e-23  2.7122e-25  4.3522e-23  2.7454e-25  4.3525e-23  2.8045e-25  4.3530e-23  2.9094e-25  4.3541e-23  3.0961e-25  4.3559e-23  3.4281e-25  4.3590e-23  4.0185e-25  4.3647e-23  5.0685e-25  4.3748e-23  6.9363e-25  4.3928e-23  1.0259e-24  4.4247e-23  1.6174e-24  4.4814e-23  2.6708e-24  4.5822e-23  4.5493e-24  4.7612e-23  7.9061e-24  5.0796e-23  1.3927e-23  5.6473e-23  2.4798e-23  6.6675e-23  4.4642e-23  8.5167e-23  8.1566e-23
      2.40  4.0634e-23  2.8681e-25  4.0635e-23  2.8882e-25  4.0636e-23  2.9240e-25  4.0639e-23  2.9876e-25  4.0645e-23  3.1008e-25  4.0654e-23  3.3019e-25  4.0672e-23  3.6597e-25  4.0702e-23  4.2959e-25  4.0756e-23  5.4275e-25  4.0852e-23  7.4404e-25  4.1023e-23  1.1022e-24  4.1327e-23  1.7396e-24  4.1867e-23  2.8748e-24  4.2826e-23  4.8993e-24  4.4530e-23  8.5173e-24  4.7561e-23  1.5007e-23  5.2960e-23  2.6727e-23  6.2663e-23  4.8132e-23  8.0235e-23  8.7972e-23
      2.45  3.7940e-23  3.0565e-25  3.7941e-23  3.0780e-25  3.7943e-23  3.1162e-25  3.7946e-23  3.1841e-25  3.7951e-23  3.3049e-25  3.7960e-23  3.5197e-25  3.7977e-23  3.9017e-25  3.8006e-23  4.5811e-25  3.8057e-23  5.7895e-25  3.8149e-23  7.9389e-25  3.8312e-23  1.1763e-24  3.8601e-23  1.8569e-24  3.9116e-23  3.0693e-24  4.0030e-23  5.2312e-24  4.1655e-23  9.0949e-24  4.4542e-23  1.6027e-23  4.9686e-23  2.8545e-23  5.8921e-23  5.1414e-23  7.5641e-23  9.3999e-23
      2.50  3.5427e-23  3.2601e-25  3.5428e-23  3.2829e-25  3.5429e-23  3.3233e-25  3.5432e-23  3.3953e-25  3.5437e-23  3.5233e-25  3.5446e-23  3.7509e-25  3.5461e-23  4.1556e-25  3.5489e-23  4.8755e-25  3.5538e-23  6.1557e-25  3.5625e-23  8.4330e-25  3.5781e-23  1.2485e-24  3.6057e-23  1.9696e-24  3.6549e-23  3.2541e-24  3.7422e-23  5.5447e-24  3.8972e-23  9.6386e-24  4.1728e-23  1.6983e-23  4.6636e-23  3.0250e-23  5.5440e-23  5.4488e-23  7.1371e-23  9.9636e-23
      2.55  3.3081e-23  3.4818e-25  3.3082e-23  3.5058e-25  3.3083e-23  3.5484e-25  3.3086e-23  3.6243e-25  3.3091e-23  3.7592e-25  3.3099e-23  3.9991e-25  3.3114e-23  4.4257e-25  3.3140e-23  5.1844e-25  3.3187e-23  6.5338e-25  3.3271e-23  8.9342e-25  3.3420e-23  1.3205e-24  3.3685e-23  2.0806e-24  3.4155e-23  3.4345e-24  3.4990e-23  5.8489e-24  3.6474e-23  1.0164e-23  3.9111e-23  1.7906e-23  4.3806e-23  3.1891e-23  5.2219e-23  5.7444e-23  6.7438e-23  1.0505e-22
      2.60  3.0892e-23  3.7221e-25  3.0893e-23  3.7473e-25  3.0894e-23  3.7920e-25  3.0897e-23  3.8716e-25  3.0901e-23  4.0130e-25  3.0909e-23  4.2645e-25  3.0924e-23  4.7118e-25  3.0949e-23  5.5073e-25  3.0994e-23  6.9222e-25  3.1075e-23  9.4390e-25  3.1217e-23  1.3917e-24  3.1471e-23  2.1887e-24  3.1922e-23  3.6082e-24  3.2724e-23  6.1397e-24  3.4148e-23  1.0664e-23  3.6677e-23  1.8782e-23  4.1180e-23  3.3445e-23  4.9238e-23  6.0238e-23  6.3812e-23  1.1015e-22
      2.65  2.8850e-23  3.9831e-25  2.8851e-23  4.0094e-25  2.8852e-23  4.0560e-25  2.8855e-23  4.1390e-25  2.8859e-23  4.2866e-25  2.8867e-23  4.5491e-25  2.8881e-23  5.0159e-25  2.8905e-23  5.8461e-25  2.8948e-23  7.3225e-25  2.9026e-23  9.9489e-25  2.9163e-23  1.4622e-24  2.9407e-23  2.2938e-24  2.9841e-23  3.7752e-24  3.0612e-23  6.4169e-24  3.1982e-23  1.1138e-23  3.4415e-23  1.9609e-23  3.8745e-23  3.4910e-23  4.6486e-23  6.2867e-23  6.0481e-23  1.1495e-22
      2.70  2.6945e-23  4.2669e-25  2.6946e-23  4.2942e-25  2.6947e-23  4.3427e-25  2.6950e-23  4.4289e-25  2.6954e-23  4.5823e-25  2.6961e-23  4.8550e-25  2.6975e-23  5.3400e-25  2.6998e-23  6.2025e-25  2.7040e-23  7.7366e-25  2.7115e-23  1.0465e-24  2.7247e-23  1.5320e-24  2.7483e-23  2.3962e-24  2.7902e-23  3.9353e-24  2.8646e-23  6.6800e-24  2.9967e-23  1.1585e-23  3.2315e-23  2.0386e-23  3.6491e-23  3.6281e-23  4.3951e-23  6.5323e-23  5.7431e-23  1.1942e-22
      2.75  2.5169e-23  4.5759e-25  2.5170e-23  4.6041e-25  2.5171e-23  4.6543e-25  2.5173e-23  4.7435e-25  2.5177e-23  4.9022e-25  2.5184e-23  5.1844e-25  2.5197e-23  5.6862e-25  2.5220e-23  6.5786e-25  2.5261e-23  8.1659e-25  2.5333e-23  1.0989e-24  2.5461e-23  1.6013e-24  2.5689e-23  2.4954e-24  2.6095e-23  4.0878e-24  2.6815e-23  6.9277e-24  2.8094e-23  1.2003e-23  3.0367e-23  2.1108e-23  3.4408e-23  3.7552e-23  4.1622e-23  6.7592e-23  5.4648e-23  1.2353e-22
      2.80  2.3512e-23  4.9146e-25  2.3513e-23  4.9436e-25  2.3514e-23  4.9954e-25  2.3517e-23  5.0873e-25  2.3520e-23  5.2508e-25  2.3528e-23  5.5416e-25  2.3540e-23  6.0587e-25  2.3562e-23  6.9783e-25  2.3602e-23  8.6139e-25  2.3672e-23  1.1523e-24  2.3796e-23  1.6700e-24  2.4018e-23  2.5913e-24  2.4412e-23  4.2322e-24  2.5111e-23  7.1584e-24  2.6354e-23  1.2388e-23  2.8561e-23  2.1769e-23  3.2485e-23  3.8710e-23  3.9487e-23  6.9654e-23  5.2115e-23  1.2726e-22
      2.85  2.1968e-23  5.2842e-25  2.1969e-23  5.3141e-25  2.1970e-23  5.3671e-25  2.1972e-23  5.4615e-25  2.1976e-23  5.6293e-25  2.1983e-23  5.9277e-25  2.1995e-23  6.4584e-25  2.2016e-23  7.4021e-25  2.2055e-23  9.0806e-25  2.2123e-23  1.2066e-24  2.2245e-23  1.7378e-24  2.2460e-23  2.6833e-24  2.2844e-23  4.3672e-24  2.3526e-23  7.3700e-24  2.4736e-23  1.2736e-23  2.6886e-23  2.2362e-23  3.0708e-23  3.9744e-23  3.7526e-23  7.1487e-23  4.9810e-23  1.3057e-22
      2.90  2.0528e-23  5.6884e-25  2.0529e-23  5.7189e-25  2.0530e-23  5.7731e-25  2.0532e-23  5.8696e-25  2.0536e-23  6.0411e-25  2.0542e-23  6.3460e-25  2.0554e-23  6.8884e-25  2.0575e-23  7.8529e-25  2.0613e-23  9.5684e-25  2.0680e-23  1.2620e-24  2.0798e-23  1.8049e-24  2.1009e-23  2.7712e-24  2.1384e-23  4.4921e-24  2.2050e-23  7.5610e-24  2.3233e-23  1.3045e-23  2.5333e-23  2.2882e-23  2.9067e-23  4.0642e-23  3.5725e-23  7.3072e-23  4.7708e-23  1.3341e-22
      2.95  1.9186e-23  6.1310e-25  1.9186e-23  6.1621e-25  1.9188e-23  6.2173e-25  1.9190e-23  6.3154e-25  1.9193e-23  6.4900e-25  1.9200e-23  6.8004e-25  1.9211e-23  7.3525e-25  1.9232e-23  8.3343e-25  1.9269e-23  1.0081e-24  1.9334e-23  1.3187e-24  1.9450e-23  1.8713e-24  1.9657e-23  2.8549e-24  2.0024e-23  4.6066e-24  2.0676e-23  7.7303e-24  2.1834e-23  1.3312e-23  2.3891e-23  2.3324e-23  2.7547e-23  4.1398e-23  3.4064e-23  7.4396e-23  4.5778e-23  1.3576e-22
      3.00  1.7935e-23  6.6168e-25  1.7935e-23  6.6483e-25  1.7936e-23  6.7043e-25  1.7938e-23  6.8038e-25  1.7942e-23  6.9808e-25  1.7948e-23  7.2956e-25  1.7960e-23  7.8553e-25  1.7980e-23  8.8508e-25  1.8016e-23  1.0621e-24  1.8080e-23  1.3771e-24  1.8194e-23  1.9374e-24  1.8397e-23  2.9347e-24  1.8757e-23  4.7108e-24  1.9397e-23  7.8779e-24  2.0533e-23  1.3537e-23  2.2550e-23  2.3687e-23  2.6136e-23  4.2010e-23  3.2527e-23  7.5454e-23  4.4008e-23  1.3765e-22
      3.05  1.6769e-23  7.1538e-25  1.6769e-23  7.1855e-25  1.6770e-23  7.2421e-25  1.6772e-23  7.3426e-25  1.6776e-23  7.5214e-25  1.6782e-23  7.8393e-25  1.6793e-23  8.4048e-25  1.6813e-23  9.4103e-25  1.6849e-23  1.1199e-24  1.6912e-23  1.4380e-24  1.7024e-23  2.0040e-24  1.7223e-23  3.0113e-24  1.7576e-23  4.8054e-24  1.8204e-23  8.0043e-24  1.9320e-23  1.3720e-23  2.1302e-23  2.3972e-23  2.4824e-23  4.2475e-23  3.1100e-23  7.6245e-23  4.2364e-23  1.3903e-22
      3.10  1.5682e-23  7.7422e-25  1.5682e-23  7.7742e-25  1.5684e-23  7.8311e-25  1.5686e-23  7.9323e-25  1.5689e-23  8.1123e-25  1.5695e-23  8.4323e-25  1.5706e-23  9.0015e-25  1.5726e-23  1.0014e-24  1.5761e-23  1.1814e-24  1.5822e-23  1.5016e-24  1.5932e-23  2.0713e-24  1.6128e-23  3.0853e-24  1.6476e-23  4.8912e-24  1.7093e-23  8.1112e-24  1.8190e-23  1.3865e-23  2.0138e-23  2.4182e-23  2.3600e-23  4.2804e-23  2.9768e-23  7.6785e-23  4.0829e-23  1.3995e-22
      3.15  1.4665e-23  8.3926e-25  1.4670e-23  8.4252e-25  1.4671e-23  8.4823e-25  1.4673e-23  8.5838e-25  1.4676e-23  8.7644e-25  1.4682e-23  9.0855e-25  1.4693e-23  9.6566e-25  1.4712e-23  1.0672e-24  1.4746e-23  1.2479e-24  1.4807e-23  1.5692e-24  1.4915e-23  2.1408e-24  1.5108e-23  3.1583e-24  1.5450e-23  4.9703e-24  1.6057e-23  8.2011e-24  1.7136e-23  1.3974e-23  1.9051e-23  2.4326e-23  2.2455e-23  4.3008e-23  2.8520e-23  7.7093e-23  3.9388e-23  1.4043e-22
      3.20  1.3725e-23  9.1118e-25  1.3726e-23  9.1440e-25  1.3727e-23  9.2011e-25  1.3729e-23  9.3027e-25  1.3732e-23  9.4834e-25  1.3738e-23  9.8047e-25  1.3749e-23  1.0376e-24  1.3768e-23  1.1392e-24  1.3801e-23  1.3200e-24  1.3861e-23  1.6414e-24  1.3968e-23  2.2134e-24  1.4157e-23  3.2313e-24  1.4493e-23  5.0442e-24  1.5090e-23  8.2767e-24  1.6151e-23  1.4052e-23  1.8035e-23  2.4408e-23  2.1383e-23  4.3097e-23  2.7347e-23  7.7189e-23  3.8032e-23  1.4053e-22
      3.25  1.2846e-23  9.9042e-25  1.2846e-23  9.9362e-25  1.2847e-23  9.9933e-25  1.2849e-23  1.0095e-24  1.2852e-23  1.0275e-24  1.2858e-23  1.0596e-24  1.2869e-23  1.1166e-24  1.2887e-23  1.2180e-24  1.2920e-23  1.3983e-24  1.2979e-23  1.7191e-24  1.3084e-23  2.2899e-24  1.3270e-23  3.3057e-24  1.3600e-23  5.1147e-24  1.4188e-23  8.3403e-24  1.5231e-23  1.4103e-23  1.7084e-23  2.4437e-23  2.0376e-23  4.3082e-23  2.6242e-23  7.7093e-23  3.6746e-23  1.4027e-22
      3.30  1.2026e-23  1.0783e-24  1.2027e-23  1.0815e-24  1.2028e-23  1.0871e-24  1.2029e-23  1.0972e-24  1.2033e-23  1.1152e-24  1.2038e-23  1.1471e-24  1.2049e-23  1.2039e-24  1.2067e-23  1.3048e-24  1.2100e-23  1.4843e-24  1.2157e-23  1.8037e-24  1.2260e-23  2.3718e-24  1.2443e-23  3.3830e-24  1.2768e-23  5.1838e-24  1.3345e-23  8.3947e-24  1.4371e-23  1.4131e-23  1.6193e-23  2.4417e-23  1.9431e-23  4.2975e-23  2.5198e-23  7.6822e-23  3.5524e-23  1.3968e-22
      3.35  1.1262e-23  1.1753e-24  1.1263e-23  1.1785e-24  1.1264e-23  1.1841e-24  1.1265e-23  1.1941e-24  1.1269e-23  1.2120e-24  1.1274e-23  1.2437e-24  1.1284e-23  1.3000e-24  1.1302e-23  1.4003e-24  1.1334e-23  1.5786e-24  1.1391e-23  1.8957e-24  1.1492e-23  2.4600e-24  1.1672e-23  3.4643e-24  1.1991e-23  5.2528e-24  1.2559e-23  8.4416e-24  1.3568e-23  1.4139e-23  1.5359e-23  2.4353e-23  1.8543e-23  4.2782e-23  2.4213e-23  7.6389e-23  3.4363e-23  1.3879e-22
      3.40  1.0550e-23  1.2826e-24  1.0550e-23  1.2857e-24  1.0551e-23  1.2913e-24  1.0553e-23  1.3012e-24  1.0556e-23  1.3189e-24  1.0562e-23  1.3503e-24  1.0572e-23  1.4062e-24  1.0590e-23  1.5055e-24  1.0621e-23  1.6822e-24  1.0677e-23  1.9965e-24  1.0776e-23  2.5556e-24  1.0953e-23  3.5508e-24  1.1267e-23  5.3230e-24  1.1825e-23  8.4827e-24  1.2816e-23  1.4128e-23  1.4578e-23  2.4249e-23  1.7708e-23  4.2508e-23  2.3283e-23  7.5802e-23  3.3260e-23  1.3761e-22
      3.45  9.8861e-24  1.4013e-24  9.8867e-24  1.4044e-24  9.8877e-24  1.4099e-24  9.8894e-24  1.4198e-24  9.8925e-24  1.4372e-24  9.8980e-24  1.4683e-24  9.9077e-24  1.5235e-24  9.9251e-24  1.6217e-24  9.9560e-24  1.7965e-24  1.0011e-23  2.1072e-24  1.0109e-23  2.6601e-24  1.0282e-23  3.6441e-24  1.0591e-23  5.3964e-24  1.1140e-23  8.5208e-24  1.2114e-23  1.4102e-23  1.3846e-23  2.4110e-23  1.6924e-23  4.2163e-23  2.2406e-23  7.5079e-23  3.2214e-23  1.3618e-22
      3.50  9.2672e-24  1.5328e-24  9.2677e-24  1.5359e-24  9.2687e-24  1.5414e-24  9.2704e-24  1.5511e-24  9.2734e-24  1.5683e-24  9.2789e-24  1.5990e-24  9.2885e-24  1.6535e-24  9.3055e-24  1.7504e-24  9.3359e-24  1.9229e-24  9.3899e-24  2.2296e-24  9.4860e-24  2.7753e-24  9.6567e-24  3.7466e-24  9.9602e-24  5.4763e-24  1.0500e-23  8.5601e-24  1.1458e-23  1.4069e-23  1.3161e-23  2.3947e-23  1.6188e-23  4.1765e-23  2.1579e-23  7.4252e-23  3.1223e-23  1.3455e-22
      3.55  8.6901e-24  1.6793e-24  8.6906e-24  1.6823e-24  8.6916e-24  1.6877e-24  8.6933e-24  1.6973e-24  8.6962e-24  1.7143e-24  8.7016e-24  1.7445e-24  8.7110e-24  1.7983e-24  8.7278e-24  1.8939e-24  8.7577e-24  2.0640e-24  8.8108e-24  2.3665e-24  8.9052e-24  2.9046e-24  9.0731e-24  3.8625e-24  9.3716e-24  5.5682e-24  9.9022e-24  8.6095e-24  1.0845e-23  1.4043e-23  1.2520e-23  2.3783e-23  1.5498e-23  4.1355e-23  2.0801e-23  7.3392e-23  3.0286e-23  1.3285e-22
      3.60  8.1518e-24  1.8418e-24  8.1523e-24  1.8448e-24  8.1532e-24  1.8501e-24  8.1549e-24  1.8596e-24  8.1578e-24  1.8764e-24  8.1630e-24  1.9062e-24  8.1723e-24  1.9593e-24  8.1889e-24  2.0536e-24  8.2182e-24  2.2215e-24  8.2705e-24  2.5201e-24  8.3634e-24  3.0513e-24  8.5286e-24  3.9967e-24  8.8222e-24  5.6804e-24  9.3442e-24  8.6822e-24  1.0272e-23  1.4045e-23  1.1920e-23  2.3660e-23  1.4850e-23  4.1005e-23  2.0069e-23  7.2629e-23  2.9401e-23  1.3133e-22
      3.65  7.6494e-24  2.0224e-24  7.6500e-24  2.0253e-24  7.6509e-24  2.0306e-24  7.6525e-24  2.0399e-24  7.6554e-24  2.0566e-24  7.6605e-24  2.0861e-24  7.6697e-24  2.1387e-24  7.6859e-24  2.2322e-24  7.7149e-24  2.3986e-24  7.7663e-24  2.6944e-24  7.8577e-24  3.2207e-24  8.0202e-24  4.1575e-24  8.3092e-24  5.8258e-24  8.8229e-24  8.8002e-24  9.7358e-24  1.4114e-23  1.1358e-23  2.3642e-23  1.4242e-23  4.0830e-23  1.9379e-23  7.2172e-23  2.8564e-23  1.3035e-22
      3.70  7.1806e-24  2.2230e-24  7.1811e-24  2.2260e-24  7.1820e-24  2.2312e-24  7.1836e-24  2.2406e-24  7.1864e-24  2.2572e-24  7.1915e-24  2.2868e-24  7.2005e-24  2.3394e-24  7.2165e-24  2.4329e-24  7.2449e-24  2.5993e-24  7.2955e-24  2.8952e-24  7.3855e-24  3.4217e-24  7.5455e-24  4.3587e-24  7.8300e-24  6.0274e-24  8.3357e-24  9.0027e-24  9.2344e-24  1.4318e-23  1.0832e-23  2.3849e-23  1.3671e-23  4.1046e-23  1.8729e-23  7.2410e-23  2.7772e-23  1.3065e-22
      3.75  6.7427e-24  2.4463e-24  6.7432e-24  2.4493e-24  6.7441e-24  2.4546e-24  6.7457e-24  2.4640e-24  6.7485e-24  2.4808e-24  6.7534e-24  2.5107e-24  6.7623e-24  2.5639e-24  6.7781e-24  2.6585e-24  6.8061e-24  2.8267e-24  6.8559e-24  3.1258e-24  6.9445e-24  3.6581e-24  7.1021e-24  4.6054e-24  7.3821e-24  6.2924e-24  7.8800e-24  9.3005e-24  8.7650e-24  1.4675e-23  1.0338e-23  2.4312e-23  1.3135e-23  4.1703e-23  1.8116e-23  7.3427e-23  2.7022e-23  1.3236e-22
      3.80  6.3337e-24  2.6957e-24  6.3342e-24  2.6988e-24  6.3351e-24  2.7043e-24  6.3366e-24  2.7140e-24  6.3394e-24  2.7313e-24  6.3443e-24  2.7621e-24  6.3530e-24  2.8169e-24  6.3685e-24  2.9143e-24  6.3961e-24  3.0875e-24  6.4452e-24  3.3956e-24  6.5324e-24  3.9438e-24  6.6876e-24  4.9194e-24  6.9634e-24  6.6570e-24  7.4537e-24  9.7552e-24  8.3253e-24  1.5291e-23  9.8746e-24  2.5219e-23  1.2630e-23  4.3137e-23  1.7537e-23  7.5834e-23  2.6310e-23  1.3660e-22
      3.85  5.9514e-24  2.9736e-24  5.9519e-24  2.9768e-24  5.9527e-24  2.9826e-24  5.9542e-24  2.9929e-24  5.9570e-24  3.0111e-24  5.9618e-24  3.0435e-24  5.9704e-24  3.1012e-24  5.9857e-24  3.2038e-24  6.0129e-24  3.3863e-24  6.0612e-24  3.7109e-24  6.1471e-24  4.2884e-24  6.2999e-24  5.3162e-24  6.5716e-24  7.1467e-24  7.0546e-24  1.0411e-23  7.9131e-24  1.6244e-23  9.4394e-24  2.6706e-23  1.2154e-23  4.5593e-23  1.6989e-23  8.0071e-23  2.5633e-23  1.4419e-22
      3.90  5.5938e-24  3.2833e-24  5.5942e-24  3.2868e-24  5.5951e-24  3.2931e-24  5.5966e-24  3.3041e-24  5.5993e-24  3.3238e-24  5.6040e-24  3.3589e-24  5.6125e-24  3.4211e-24  5.6276e-24  3.5319e-24  5.6543e-24  3.7289e-24  5.7019e-24  4.0794e-24  5.7866e-24  4.7029e-24  5.9371e-24  5.8127e-24  6.2047e-24  7.7894e-24  6.6805e-24  1.1314e-23  7.5264e-24  1.7614e-23  9.0301e-24  2.8914e-23  1.1705e-23  4.9321e-23  1.6469e-23  8.6594e-23  2.4989e-23  1.5597e-22
      3.95  5.2591e-24  3.6289e-24  5.2595e-24  3.6327e-24  5.2604e-24  3.6396e-24  5.2618e-24  3.6519e-24  5.2645e-24  3.6737e-24  5.2692e-24  3.7125e-24  5.2775e-24  3.7814e-24  5.2924e-24  3.9040e-24  5.3187e-24  4.1220e-24  5.3656e-24  4.5099e-24  5.4490e-24  5.1999e-24  5.5973e-24  6.4281e-24  5.8610e-24  8.6158e-24  6.3298e-24  1.2517e-23  7.1633e-24  1.9490e-23  8.6452e-24  3.2002e-23  1.1281e-23  5.4604e-23  1.5977e-23  9.5908e-23  2.4375e-23  1.7286e-22
