# This was generated using Cloudy10 and the columns are ordered 
# as log10 of the fraction of the metallicity to the solar metallicity
# 'h_*_Z' and 'c_*_Z' stands for cooling and heating respectively 
# at * metalicity
#
# Redshift = 0.5
# hden = 2.0
#     temp   h_-3.00_Z   c_-3.00_Z   h_-2.75_Z   c_-2.75_Z   h_-2.50_Z   c_-2.50_Z   h_-2.25_Z   c_-2.25_Z   h_-2.00_Z   c_-2.00_Z   h_-1.75_Z   c_-1.75_Z   h_-1.50_Z   c_-1.50_Z   h_-1.25_Z   c_-1.25_Z   h_-1.00_Z   c_-1.00_Z   h_-0.75_Z   c_-0.75_Z   h_-0.50_Z   c_-0.50_Z   h_-0.25_Z   c_-0.25_Z    h_0.00_Z    c_0.00_Z    h_0.25_Z    c_0.25_Z    h_0.50_Z    c_0.50_Z    h_0.75_Z    c_0.75_Z    h_1.00_Z    c_1.00_Z    h_1.25_Z    c_1.25_Z    h_1.50_Z    c_1.50_Z 
      4.00  2.3268e-26  3.7772e-25  2.3269e-26  3.7838e-25  2.3269e-26  3.7955e-25  2.327e-26  3.8164e-25  2.3271e-26  3.8535e-25  2.3272e-26  3.9194e-25  2.3275e-26  4.0367e-25  2.3281e-26  4.2453e-25  2.329e-26  4.6163e-25  2.3307e-26  5.2763e-25  2.3337e-26  6.4509e-25  2.3391e-26  8.5428e-25  2.3486e-26  1.227e-24  2.3654e-26  1.8911e-24  2.3952e-26  3.0722e-24  2.4479e-26  5.1642e-24  2.5406e-26  8.8422e-24  2.7033e-26  1.5236e-23  2.9894e-26  2.621e-23
      4.05  2.3145e-26  1.4512e-24  2.3145e-26  1.4522e-24  2.3145e-26  1.4538e-24  2.3146e-26  1.4567e-24  2.3147e-26  1.4618e-24  2.3149e-26  1.471e-24  2.3152e-26  1.4873e-24  2.3158e-26  1.5163e-24  2.3169e-26  1.5677e-24  2.3188e-26  1.6592e-24  2.3222e-26  1.8218e-24  2.3282e-26  2.111e-24  2.3388e-26  2.6255e-24  2.3577e-26   3.54e-24  2.3911e-26  5.1604e-24  2.4501e-26  8.0129e-24  2.5534e-26  1.2978e-23  2.7336e-26  2.1464e-23  3.0458e-26  3.565e-23
      4.10  2.2494e-26  5.5924e-24  2.2495e-26  5.5938e-24  2.2495e-26  5.5965e-24  2.2496e-26  5.6012e-24  2.2497e-26  5.6095e-24  2.2499e-26  5.6243e-24  2.2503e-26  5.6506e-24  2.251e-26  5.6973e-24  2.2523e-26  5.7802e-24  2.2545e-26  5.9274e-24  2.2584e-26  6.1889e-24  2.2654e-26  6.6535e-24  2.2778e-26  7.4784e-24  2.2998e-26  8.9406e-24  2.3387e-26  1.1523e-23  2.4073e-26  1.6047e-23  2.5273e-26  2.3866e-23  2.7348e-26  3.7078e-23  3.0871e-26  5.8655e-23
      4.15  1.9491e-26  2.5744e-23  1.9492e-26  2.5748e-23  1.9492e-26  2.5754e-23  1.9493e-26  2.5765e-23  1.9495e-26  2.5785e-23  1.9498e-26  2.5821e-23  1.9503e-26  2.5884e-23  1.9513e-26  2.5997e-23  1.953e-26  2.6197e-23  1.956e-26  2.6553e-23  1.9615e-26  2.7186e-23  1.9711e-26  2.8309e-23  1.9882e-26  3.0304e-23  2.0185e-26  3.3843e-23  2.0722e-26  4.0103e-23  2.167e-26  5.1129e-23  2.3331e-26  7.0382e-23  2.6204e-26  1.0349e-22  3.1062e-26  1.5892e-22
      4.20  1.2572e-26  8.6051e-23  1.2572e-26  8.606e-23  1.2573e-26  8.6077e-23  1.2574e-26  8.6106e-23  1.2576e-26  8.6159e-23  1.2579e-26  8.6253e-23  1.2586e-26  8.642e-23  1.2597e-26  8.6716e-23  1.2616e-26  8.7243e-23  1.2652e-26  8.8181e-23  1.2714e-26  8.9849e-23  1.2825e-26  9.2814e-23  1.3023e-26  9.8088e-23  1.3374e-26  1.0747e-22  1.3998e-26  1.2415e-22  1.5106e-26  1.5381e-22  1.7072e-26  2.0656e-22  2.0553e-26  3.0034e-22  2.6688e-26  4.6691e-22
      4.25  6.2707e-27  1.2937e-22  6.2707e-27  1.2939e-22  6.2708e-27  1.2942e-22  6.2709e-27  1.2946e-22  6.2712e-27  1.2955e-22  6.2716e-27  1.297e-22  6.2725e-27  1.2997e-22  6.2739e-27  1.3046e-22  6.2765e-27  1.3131e-22  6.281e-27  1.3284e-22  6.2892e-27  1.3555e-22  6.3037e-27  1.4038e-22  6.3295e-27  1.4897e-22  6.3759e-27  1.6426e-22  6.4591e-27  1.9151e-22  6.6094e-27  2.4011e-22  6.8841e-27  3.2703e-22  7.3946e-27  4.8323e-22  8.3748e-27   7.66e-22
      4.30  3.2158e-27  1.2049e-22  3.2152e-27  1.2051e-22  3.2141e-27  1.2054e-22  3.2122e-27  1.206e-22  3.2088e-27  1.207e-22  3.2027e-27  1.2089e-22  3.1919e-27  1.2122e-22  3.1727e-27  1.2181e-22  3.159e-27  1.2285e-22  3.1619e-27  1.2471e-22  3.1672e-27  1.2801e-22  3.1766e-27  1.3389e-22  3.1935e-27  1.4435e-22  3.2241e-27  1.6298e-22   3.28e-27  1.9617e-22  3.3835e-27  2.5542e-22  3.5773e-27  3.6151e-22  3.9432e-27  5.5245e-22  4.6363e-27  8.9924e-22
      4.35  2.0602e-27  9.5601e-23  2.0587e-27  9.5623e-23  2.0562e-27  9.5663e-23  2.0517e-27  9.5733e-23  2.0437e-27  9.5859e-23  2.0294e-27  9.6081e-23  2.0041e-27  9.6477e-23  1.9661e-27  9.7182e-23  1.9673e-27  9.8434e-23  1.9695e-27  1.0066e-22  1.9735e-27  1.0462e-22  1.9807e-27  1.1167e-22  1.9941e-27  1.2422e-22  2.0196e-27  1.4655e-22  2.0696e-27  1.8635e-22  2.1702e-27  2.5742e-22  2.3775e-27  3.847e-22  2.8056e-27  6.1389e-22  3.5987e-27  1.0306e-21
      4.40  1.5658e-27  7.4507e-23  1.5636e-27  7.4535e-23  1.5597e-27  7.4584e-23  1.5526e-27  7.4672e-23  1.5401e-27  7.4827e-23  1.5179e-27  7.5104e-23  1.4785e-27  7.5596e-23  1.4082e-27  7.6472e-23  1.3907e-27  7.8028e-23  1.3927e-27  8.0797e-23  1.3963e-27  8.5722e-23  1.4032e-27  9.4483e-23  1.4169e-27  1.1007e-22  1.4453e-27  1.3783e-22  1.5074e-27  1.873e-22  1.6473e-27  2.7561e-22  1.9613e-27  4.3376e-22  2.4552e-27  7.1852e-22  3.2057e-27  1.2361e-21
      4.45  1.139e-27  6.002e-23  1.1361e-27  6.0056e-23  1.1309e-27  6.0119e-23  1.1217e-27  6.023e-23  1.1052e-27  6.0429e-23  1.076e-27  6.0783e-23  1.0241e-27  6.1412e-23  9.3184e-28  6.253e-23  8.8581e-28  6.4519e-23  8.8792e-28  6.8056e-23  8.9212e-28  7.4346e-23  9.0091e-28  8.5537e-23  9.2048e-28  1.0545e-22  9.6636e-28  1.409e-22  1.0772e-27  2.0406e-22  1.3065e-27  3.1679e-22  1.6643e-27  5.1858e-22  2.2222e-27  8.8162e-22  3.1489e-27  1.5407e-21
      4.50  7.0411e-28  4.8956e-23  7.0065e-28  4.9002e-23  6.9448e-28  4.9083e-23  6.8353e-28  4.9227e-23  6.6404e-28  4.9484e-23  6.294e-28  4.994e-23  5.678e-28  5.0752e-23  4.5833e-28  5.2195e-23  4.5727e-28  5.4761e-23  4.6022e-28  5.9325e-23   4.67e-28  6.7444e-23  4.8346e-28  8.1885e-23  5.2505e-28  1.0758e-22  6.3079e-28  1.5332e-22  8.2627e-28  2.3482e-22  1.1269e-27  3.8027e-22  1.6333e-27  6.4058e-22  2.3505e-27  1.1088e-21  3.3771e-27  1.9584e-21
      4.55  4.1319e-28  3.952e-23  4.0946e-28  3.9579e-23  4.0283e-28  3.9684e-23  3.9103e-28  3.9869e-23  3.7006e-28   4.02e-23  3.3279e-28  4.0788e-23  2.6653e-28  4.1833e-23  2.2381e-28  4.3691e-23  2.2547e-28  4.6997e-23  2.294e-28  5.2876e-23  2.3928e-28  6.3331e-23  2.652e-28  8.1931e-23  3.339e-28  1.1503e-22  4.5486e-28  1.7395e-22  6.5587e-28  2.7897e-22  1.004e-27  4.6645e-22  1.4927e-27  8.0213e-22  2.2777e-27  1.4064e-21  3.5773e-27  2.5044e-21
      4.60  2.5959e-28  3.2028e-23  2.5599e-28  3.2103e-23  2.4958e-28  3.2237e-23  2.3819e-28  3.2475e-23  2.1794e-28  3.2899e-23  1.8195e-28  3.3652e-23  1.2449e-28  3.4992e-23  1.2532e-28  3.7376e-23  1.2726e-28  4.1614e-23  1.3209e-28  4.9151e-23  1.4486e-28  6.2558e-23  1.797e-28  8.6409e-23  2.446e-28  1.2885e-22  3.6702e-28  2.0443e-22  5.7008e-28  3.3916e-22  9.1272e-28  5.7978e-22  1.4515e-27  1.0109e-21  2.2987e-27  1.7879e-21  3.7331e-27  3.2026e-21
      4.65  1.8164e-28  2.7154e-23  1.7853e-28  2.725e-23  1.7298e-28  2.7421e-23  1.6313e-28  2.7725e-23  1.4562e-28  2.8266e-23  1.1449e-28  2.9228e-23  8.4982e-29  3.0939e-23  8.5952e-29  3.3981e-23  8.8243e-29  3.9391e-23  9.4064e-29  4.9014e-23  1.0971e-28  6.6129e-23  1.4447e-28  9.6578e-23  2.1229e-28  1.5077e-22  3.3285e-28  2.4728e-22  5.6821e-28  4.1937e-22  9.4744e-28  7.2681e-22  1.5417e-27  1.2781e-21  2.514e-27  2.2729e-21  4.1836e-27  4.0879e-21
      4.70  1.4107e-28  2.5875e-23  1.3862e-28  2.5997e-23  1.3427e-28  2.6215e-23  1.2654e-28  2.6602e-23  1.1279e-28  2.7291e-23  8.8374e-29  2.8515e-23  6.9995e-29  3.0693e-23  7.1245e-29  3.4566e-23  7.4125e-29  4.1453e-23  8.1293e-29  5.3703e-23  1.0029e-28  7.5493e-23  1.3885e-28  1.1426e-22  2.189e-28  1.8327e-22  3.6884e-28  3.0618e-22  6.1695e-28  5.254e-22  1.0165e-27  9.1727e-22  1.6949e-27  1.6206e-21  2.8338e-27  2.8917e-21  4.8068e-27  5.217e-21
      4.75  1.188e-28  3.0468e-23  1.1704e-28  3.0623e-23  1.1391e-28  3.0899e-23  1.0836e-28  3.1388e-23  9.8487e-29  3.2259e-23  8.0961e-29  3.3808e-23  6.5807e-29  3.6563e-23  6.7644e-29  4.1461e-23  7.1768e-29  5.0173e-23  8.1764e-29  6.5668e-23  1.0733e-28  9.3232e-23  1.5678e-28  1.4228e-22  2.4679e-28  2.2958e-22  4.0493e-28  3.8513e-22  6.8035e-28  6.6265e-22  1.1471e-27  1.1591e-21  1.9341e-27  2.051e-21  3.2734e-27  3.6661e-21  5.6356e-27  6.6303e-21
      4.80  1.0358e-28  4.4026e-23  1.0246e-28  4.422e-23  1.0046e-28  4.4564e-23  9.6922e-29  4.5176e-23  9.064e-29  4.6265e-23  7.9508e-29  4.8201e-23  6.5561e-29  5.1643e-23  6.845e-29  5.7766e-23  7.4901e-29  6.8654e-23  9.0524e-29  8.8021e-23  1.2432e-28  1.2247e-22  1.8043e-28  1.8378e-22  2.8452e-28  2.9293e-22  4.7246e-28  4.8743e-22  7.9499e-28  8.3459e-22  1.3477e-27  1.456e-21  2.3109e-27  2.5739e-21  3.9772e-27  4.6021e-21  6.9568e-27  8.336e-21
      4.85  8.6332e-29  6.5236e-23  8.5803e-29  6.5474e-23  8.4866e-29  6.5896e-23  8.3206e-29  6.6648e-23  8.028e-29  6.7984e-23  7.5153e-29  7.0361e-23  6.6272e-29  7.4587e-23  6.7661e-29  8.2102e-23  7.8102e-29  9.5469e-23  1.0052e-28  1.1924e-22  1.417e-28  1.6154e-22  2.1445e-28  2.3681e-22  3.4659e-28  3.7084e-22  5.7754e-28  6.0972e-22  9.7772e-28  1.0363e-21  1.6693e-27  1.8003e-21  2.863e-27  3.1762e-21  4.9058e-27  5.6772e-21  8.5442e-27  1.0295e-20
      4.90  6.4043e-29  8.0949e-23  6.4354e-29  8.1232e-23  6.4424e-29  8.1735e-23  6.4562e-29  8.263e-23  6.4858e-29  8.4222e-23  6.5541e-29  8.7053e-23  6.7236e-29  9.2086e-23  7.177e-29  1.0104e-22  8.3364e-29  1.1696e-22  1.1139e-28  1.4528e-22  1.6742e-28  1.9566e-22  2.6803e-28  2.8532e-22  4.4951e-28  4.4499e-22  7.5779e-28  7.296e-22  1.2739e-27  1.2379e-21  2.1399e-27  2.1486e-21  3.6054e-27  3.7897e-21  6.057e-27  6.7761e-21  1.0412e-26  1.2301e-20
      4.95  4.3729e-29  7.9741e-23  4.442e-29  8.0066e-23  4.5224e-29  8.0643e-23  4.669e-29  8.167e-23  4.9409e-29  8.3496e-23  5.4603e-29  8.6743e-23  6.4952e-29  9.2516e-23  8.6663e-29  1.0278e-22  1.296e-28  1.2105e-22  2.0731e-28  1.5353e-22  3.4507e-28  2.1132e-22  5.8894e-28  3.1417e-22  1.0048e-27  4.9732e-22  1.7068e-27  8.2381e-22  2.8859e-27  1.4069e-21  4.869e-27  2.4519e-21  8.219e-27  4.3355e-21  1.4035e-26  7.7653e-21  2.4419e-26  1.4117e-20
      5.00  3.0502e-29  6.7692e-23  3.1134e-29  6.805e-23  3.2286e-29  6.8686e-23  3.4212e-29  6.9816e-23  3.853e-29  7.1827e-23  4.6738e-29  7.5403e-23  6.3998e-29  8.1762e-23  1.0043e-28  9.3072e-23  1.7075e-28  1.1319e-22  2.9922e-28  1.4896e-22  5.1299e-28  2.1262e-22  8.7423e-28  3.2591e-22  1.4748e-27  5.2766e-22  2.4548e-27  8.8739e-22  4.0474e-27  1.5301e-21  6.6742e-27  2.6824e-21  1.1082e-26  4.7615e-21  1.8739e-26  8.5532e-21  3.2258e-26  1.5595e-20
      5.05  2.3006e-29  5.4123e-23  2.3709e-29  5.449e-23  2.5047e-29  5.5143e-23  2.7503e-29  5.6304e-23  3.3032e-29  5.837e-23  4.5317e-29  6.2042e-23  6.9681e-29  6.8574e-23  1.2557e-28  8.019e-23  2.3783e-28  1.0085e-22  4.0957e-28  1.376e-22  6.908e-28  2.0298e-22  1.1419e-27  3.1936e-22  1.853e-27  5.2665e-22  2.9415e-27  8.9633e-22  4.642e-27  1.5571e-21  7.3813e-27  2.7428e-21  1.2001e-26  4.8851e-21  2.0008e-26  8.8015e-21  3.373e-26  1.6104e-20
      5.10  1.9057e-29  4.271e-23  1.9842e-29  4.3068e-23  2.149e-29  4.3703e-23  2.5216e-29  4.4833e-23  3.4092e-29  4.6842e-23  5.0632e-29  5.0415e-23  8.8807e-29  5.6769e-23  1.8048e-28  6.8068e-23  3.2596e-28  8.8166e-23  5.5112e-28  1.2392e-22  8.933e-28  1.8753e-22  1.4041e-27  3.0076e-22  2.1517e-27  5.0248e-22  3.2391e-27  8.6233e-22  4.894e-27  1.5058e-21  7.4168e-27  2.6616e-21  1.154e-26  4.7528e-21  1.8783e-26  8.5855e-21  3.164e-26  1.5761e-20
      5.15  1.6851e-29  3.3959e-23  1.7843e-29  3.4313e-23  2.024e-29  3.4945e-23  2.7099e-29  3.6428e-23  3.885e-29  3.8063e-23  6.4969e-29  4.1612e-23  1.2963e-28  4.7924e-23  2.5131e-28  5.9149e-23  4.379e-28  7.9115e-23  7.1266e-28  1.1463e-22  1.0953e-27  1.7783e-22  1.6308e-27  2.9034e-22  2.3785e-27  4.9079e-22  3.4371e-27  8.4847e-22  4.7323e-27  1.4884e-21  6.9085e-27  2.6384e-21  1.0679e-26  4.722e-21  1.7367e-26  8.5485e-21  2.9352e-26  1.5737e-20
      5.20  1.596e-29  2.7417e-23  1.7408e-29  2.7783e-23  2.1335e-29  2.8434e-23  3.1702e-29  2.9591e-23  5.0325e-29  3.1648e-23  9.3861e-29  3.5306e-23  1.9629e-28  4.1812e-23  3.3974e-28  5.3383e-23  5.5433e-28  7.3964e-23  8.6869e-28  1.1058e-22  1.2835e-27  1.7573e-22  1.8305e-27  2.9171e-22  2.5429e-27  4.9839e-22  3.2503e-27  8.6725e-22  4.4256e-27  1.5274e-21  6.4699e-27  2.7145e-21  1.0092e-26  4.8675e-21  1.6583e-26  8.8287e-21  2.8351e-26  1.6292e-20
      5.25  1.5574e-29  2.2516e-23  1.8123e-29  2.3122e-23  2.4163e-29  2.3563e-23  4.0693e-29  2.4755e-23  7.4531e-29  2.6875e-23  1.3437e-28  3.0644e-23  2.5583e-28  3.7347e-23  4.1999e-28  4.9269e-23  6.4957e-28  7.0475e-23  9.7885e-28  1.082e-22  1.4153e-27  1.7533e-22  1.976e-27  2.9485e-22  2.4216e-27  5.0785e-22  3.149e-27  8.8808e-22  4.3987e-27  1.5688e-21  6.5813e-27  2.7938e-21  1.0435e-26  5.0178e-21  1.7363e-26  9.1172e-21  3.0085e-26  1.6864e-20
      5.30  1.5832e-29  1.8806e-23  1.962e-29  1.9189e-23  3.1435e-29  1.987e-23  6.1185e-29  2.1082e-23  9.8614e-29  2.3237e-23  1.6817e-28  2.7068e-23  2.9725e-28  3.3883e-23  4.6738e-28  4.6002e-23  7.1509e-28  6.7559e-23  1.0369e-27  1.0591e-22  1.5112e-27  1.7416e-22  1.9042e-27  2.9568e-22  2.393e-27  5.1228e-22  3.1164e-27  8.9901e-22  4.3077e-27  1.5917e-21  6.3854e-27  2.839e-21  9.9394e-27  5.1062e-21  1.6388e-26  9.2939e-21  2.8308e-26  1.7233e-20
      5.35  1.6948e-29  1.5976e-23  2.4084e-29  1.6366e-23  4.4501e-29  1.7059e-23  7.6978e-29  1.8293e-23  1.1861e-28  2.0486e-23  1.8954e-28  2.4386e-23  3.2107e-28  3.1323e-23  4.9307e-28  4.366e-23  7.3662e-28  6.5604e-23  1.1143e-27  1.0464e-22  1.5494e-27  1.7412e-22  1.8383e-27  2.9784e-22  2.2766e-27  5.1839e-22  2.9682e-27  9.1226e-22  4.1199e-27  1.618e-21  6.022e-27  2.8897e-21  9.4333e-27  5.2042e-21  1.5612e-26  9.4878e-21  2.7087e-26  1.7636e-20
      5.40  1.7924e-29  1.3765e-23  2.7843e-29  1.4145e-23  5.184e-29  1.4821e-23  7.9986e-29  1.6022e-23  1.2438e-28  1.8159e-23  1.9231e-28  2.1959e-23  3.1033e-28  2.8717e-23  5.0878e-28  4.0736e-23  7.7209e-28  6.2115e-23  1.2084e-27  1.0015e-22  1.4861e-27  1.6784e-22  1.7836e-27  2.884e-22  2.2496e-27  5.0333e-22  2.9805e-27  8.8728e-22  4.1968e-27  1.5756e-21  6.1882e-27  2.8169e-21  9.6635e-27  5.0793e-21  1.5999e-26  9.2764e-21  2.7778e-26  1.729e-20
      5.45  1.6281e-29  1.197e-23  2.3681e-29  1.2289e-23  4.6162e-29  1.2984e-23  6.8933e-29  1.3862e-23  1.0652e-28  1.5654e-23  1.7251e-28  1.8839e-23  2.8379e-28  2.4505e-23  4.6554e-28  3.4581e-23  7.8857e-28  5.2503e-23  1.2665e-27  8.4388e-23  1.4991e-27  1.4114e-22  1.8477e-27  2.4223e-22  2.373e-27  4.2248e-22  3.0969e-27  7.4461e-22  4.2666e-27  1.3224e-21  6.2156e-27  2.3657e-21  9.614e-27  4.2709e-21  1.5773e-26  7.8167e-21  2.7301e-26  1.4621e-20
      5.50  1.3482e-29  1.0474e-23  1.6572e-29  1.0704e-23  2.5182e-29  1.1112e-23  4.9642e-29  1.1839e-23  8.3855e-29  1.313e-23  1.4332e-28  1.5427e-23  2.5073e-28  1.9512e-23  4.4037e-28  2.6776e-23  7.602e-28  3.9698e-23  1.2139e-27  6.2687e-23  1.5724e-27  1.0361e-22  1.9737e-27  1.7651e-22  2.4167e-27  3.0652e-22  3.0727e-27  5.3896e-22  4.0319e-27  9.5616e-22  5.6393e-27  1.7103e-21  8.4626e-27  3.0901e-21  1.3569e-26  5.6662e-21  2.3091e-26  1.0634e-20
      5.55  1.2137e-29  9.3081e-24  1.3633e-29  9.4808e-24  1.7735e-29  9.7879e-24  2.989e-29  1.0334e-23  6.1061e-29  1.1305e-23  1.2524e-28  1.3032e-23  2.4124e-28  1.6104e-23  4.4831e-28  2.1566e-23  7.9247e-28  3.1283e-23   1.21e-27  4.8571e-23  1.6038e-27  7.9346e-23  1.9707e-27  1.3417e-22  2.3523e-27  2.3198e-22  2.8364e-27  4.0686e-22  3.6045e-27  7.2091e-22  4.8513e-27  1.289e-21  7.0509e-27  2.3297e-21  1.1049e-26  4.2766e-21  1.8464e-26  8.0433e-21
      5.60  1.1582e-29  8.4114e-24  1.3146e-29  8.5613e-24  1.7634e-29  8.8279e-24  3.0417e-29  9.3019e-24  5.5742e-29  1.0145e-23  1.1609e-28  1.1644e-23  2.4933e-28  1.431e-23  4.7595e-28  1.9051e-23  8.6949e-28  2.7483e-23  1.2033e-27  4.249e-23  1.5708e-27  6.9204e-23  1.8169e-27  1.168e-22  2.0993e-27  2.0171e-22  2.4996e-27  3.5356e-22  3.1345e-27  6.263e-22  4.1644e-27  1.1199e-21  5.9684e-27  2.0248e-21  9.2418e-27  3.7197e-21  1.5311e-26  7.005e-21
      5.65  1.1197e-29  7.7118e-24  1.3214e-29  7.8549e-24  1.9091e-29  8.1093e-24  3.5387e-29  8.5618e-24  6.6573e-29  9.3664e-24  1.3127e-28  1.0797e-23  2.6254e-28  1.3342e-23  5.0864e-28  1.7867e-23  9.2052e-28  2.5917e-23  1.2123e-27  4.0243e-23  1.5129e-27  6.5745e-23  1.6852e-27  1.1118e-22  1.933e-27  1.9225e-22  2.2809e-27  3.3724e-22  2.8611e-27  5.9771e-22  3.8008e-27  1.0692e-21  5.4574e-27  1.9341e-21   8.46e-27  3.5555e-21  1.4047e-26  6.7025e-21
      5.70  1.0827e-29  7.155e-24  1.3312e-29  7.2951e-24  2.0574e-29  7.5441e-24  4.1547e-29  7.987e-24  7.5318e-29  8.7745e-24  1.4869e-28  1.0175e-23  2.9664e-28  1.2665e-23  5.7326e-28  1.7095e-23  9.0227e-28  2.4974e-23  1.1362e-27  3.8997e-23  1.3567e-27  6.396e-23  1.5308e-27  1.0844e-22  1.7513e-27  1.8779e-22  2.0745e-27  3.2974e-22  2.6228e-27  5.8478e-22  3.5488e-27  1.0466e-21  5.1763e-27  1.8942e-21  8.1382e-27  3.4843e-21  1.3676e-26  6.5745e-21
      5.75   1.02e-29  6.6481e-24  1.2905e-29  6.7814e-24  2.0714e-29  7.0186e-24  4.1043e-29  7.4403e-24  8.1621e-29  8.1902e-24  1.6438e-28  9.5236e-24  3.3514e-28  1.1895e-23  6.0432e-28  1.6113e-23  8.0044e-28  2.3617e-23  9.8208e-28  3.697e-23  1.1265e-27  6.0743e-23  1.2986e-27  1.031e-22  1.5097e-27  1.7868e-22  1.8391e-27  3.1388e-22  2.3817e-27  5.5685e-22  3.3087e-27  9.9699e-22  4.9662e-27  1.8051e-21  7.9994e-27  3.3228e-21  1.371e-26  6.2764e-21
      5.80  9.5305e-30  6.2574e-24  1.2115e-29  6.3799e-24  1.9621e-29  6.5977e-24  4.0045e-29  6.985e-24  8.5251e-29  7.6736e-24  1.8251e-28  8.8981e-24  3.4516e-28  1.1076e-23  5.4152e-28  1.495e-23  6.8598e-28  2.1842e-23  8.3659e-28  3.4107e-23  9.496e-28  5.5942e-23  1.133e-27  9.4846e-23  1.3561e-27  1.6427e-22  1.6923e-27  2.8848e-22  2.2664e-27  5.1175e-22  3.265e-27  9.1634e-22  5.0534e-27  1.6597e-21  8.3565e-27  3.0573e-21  1.4632e-26  5.7817e-21
      5.85  9.0551e-30  5.9602e-24  1.2201e-29  6.0756e-24  2.0508e-29  6.2809e-24  4.1573e-29  6.6459e-24  9.4147e-29  7.295e-24  2.0204e-28  8.4491e-24  3.2314e-28  1.0502e-23  4.7876e-28  1.4154e-23  6.0248e-28  2.0652e-23  7.5371e-28  3.2213e-23  8.8708e-28  5.2797e-23  1.0477e-27  8.9474e-23  1.2894e-27  1.5493e-22  1.6668e-27  2.7205e-22  2.3223e-27  4.8262e-22  3.4709e-27  8.6436e-22  5.5509e-27  1.5662e-21  9.4076e-27  2.887e-21  1.6788e-26  5.466e-21
      5.90  8.7955e-30  5.7436e-24  1.2474e-29  5.8589e-24  2.2239e-29  6.0638e-24  4.7221e-29  6.4282e-24  1.0471e-28  7.076e-24  2.0626e-28  8.2282e-24  3.2639e-28  1.0278e-23  4.3495e-28  1.3924e-23  5.7495e-28  2.041e-23  7.1045e-28  3.1952e-23  8.4278e-28  5.2501e-23  1.0096e-27  8.9117e-23  1.2854e-27  1.5447e-22  1.748e-27  2.7141e-22  2.543e-27  4.8172e-22  3.9597e-27  8.6311e-22  6.5392e-27  1.5647e-21  1.1348e-26  2.8864e-21  2.0616e-26  5.4709e-21
      5.95  8.4234e-30  5.589e-24  1.2611e-29  5.7066e-24  2.3527e-29  5.9158e-24  5.0463e-29  6.2876e-24  1.1397e-28  6.9489e-24  2.1499e-28  8.1249e-24  3.2997e-28  1.0217e-23  4.4549e-28  1.3938e-23  5.5658e-28  2.0559e-23  6.7779e-28  3.234e-23  8.3508e-28  5.3314e-23  1.0212e-27  9.0691e-23  1.3275e-27  1.574e-22  1.8637e-27  2.768e-22  2.8064e-27  4.9156e-22  4.4903e-27  8.8116e-22  7.5707e-27  1.5983e-21  1.3334e-26  2.9506e-21  2.4501e-26  5.5989e-21
      6.00  7.8516e-30  5.4797e-24  1.1798e-29  5.5977e-24  2.2446e-29  5.8076e-24  4.9734e-29  6.1807e-24  1.1323e-28  6.8441e-24  2.3026e-28  8.0239e-24  3.4608e-28  1.0123e-23  4.5367e-28  1.3856e-23  5.6512e-28  2.0498e-23  6.9507e-28  3.2317e-23  8.5679e-28  5.3361e-23  1.092e-27  9.0862e-23  1.475e-27  1.578e-22  2.147e-27  2.7762e-22  3.3434e-27  4.9319e-22  5.5066e-27  8.8442e-22  9.4714e-27  1.6051e-21  1.6915e-26  2.9655e-21  3.1408e-26  5.634e-21
      6.05  7.0339e-30  5.4228e-24  1.0262e-29  5.5375e-24  1.9336e-29  5.7414e-24  4.3763e-29  6.104e-24  1.0289e-28  6.7485e-24  2.307e-28  7.8947e-24  3.5409e-28  9.9336e-24  4.6552e-28  1.3561e-23  5.8011e-28  2.0014e-23  7.1066e-28  3.1497e-23  8.7598e-28  5.1944e-23  1.1453e-27  8.8382e-23  1.603e-27  1.5343e-22  2.4106e-27  2.6988e-22  3.8562e-27  4.7945e-22  6.4727e-27  8.5996e-22  1.1279e-26  1.5614e-21  2.0328e-26  2.8872e-21  3.8015e-26  5.4928e-21
      6.10  6.3528e-30  5.3977e-24  9.2698e-30  5.5615e-24  1.6611e-29  5.6998e-24  3.6718e-29  6.0436e-24  8.7251e-29  6.6548e-24  2.0038e-28  7.7416e-24  3.3243e-28  9.6748e-24  4.5631e-28  1.3114e-23  5.6249e-28  1.9233e-23  6.8206e-28  3.0122e-23  8.694e-28  4.951e-23  1.171e-27  8.4063e-23  1.6978e-27  1.4575e-22  2.6363e-27  2.5621e-22  4.3163e-27  4.5504e-22  7.3594e-27  8.1624e-22  1.2962e-26  1.4826e-21  2.3534e-26  2.7438e-21  4.4262e-26  5.2273e-21
      6.15  6.0093e-30    5.4e-24  8.5288e-30  5.5009e-24  1.537e-29  5.737e-24  3.2087e-29  5.9991e-24  7.3111e-29  6.566e-24  1.5249e-28  7.5742e-24  2.5028e-28  9.3672e-24  3.8333e-28  1.2557e-23  4.8953e-28  1.8232e-23  6.1768e-28  2.8331e-23  8.1872e-28  4.6313e-23  1.1458e-27  7.8364e-23  1.7256e-27  1.3559e-22  2.7575e-27  2.3807e-22  4.6133e-27  4.226e-22  7.9786e-27  7.5797e-22  1.4179e-26  1.3772e-21  2.5903e-26  2.5508e-21  4.8956e-26  4.8664e-21
      6.20  5.7872e-30  5.4243e-24  8.1783e-30  5.5144e-24  1.4319e-29  5.6746e-24  2.8922e-29  5.9594e-24  5.8221e-29  6.4659e-24  1.1267e-28  7.3665e-24  1.8165e-28  8.9682e-24  2.7207e-28  1.1817e-23  3.8086e-28  1.6886e-23  5.1914e-28  2.5906e-23  7.2164e-28  4.1968e-23  1.0673e-27  7.0597e-23  1.6686e-27  1.2172e-22  2.7443e-27  2.1328e-22  4.6778e-27  3.7821e-22  8.1886e-27  6.7811e-22  1.4666e-26  1.2324e-21  2.6932e-26  2.2842e-21  5.1115e-26  4.364e-21
      6.25  5.2865e-30  5.4663e-24  7.4518e-30  5.5421e-24  1.2975e-29  5.7337e-24  2.3259e-29  5.9167e-24  4.407e-29  6.3429e-24  8.2033e-29  7.1008e-24  1.2794e-28  8.4488e-24  1.9355e-28  1.0846e-23  2.8165e-28  1.5111e-23  4.0846e-28  2.2701e-23  6.068e-28  3.6216e-23  9.4618e-28  6.0307e-23  1.5398e-27  1.0333e-22  2.5967e-27  1.804e-22  4.4943e-27  3.1927e-22  7.9428e-27  5.7194e-22  1.4313e-26  1.0393e-21  2.6398e-26  1.9277e-21  5.0282e-26  3.6883e-21
      6.30  4.6242e-30  5.5497e-24  6.3755e-30  5.6102e-24  9.9367e-30  5.7178e-24  1.7849e-29  5.9091e-24  3.1779e-29  6.2492e-24  5.7741e-29  6.854e-24  8.5561e-29  7.9295e-24  1.3439e-28  9.8423e-24  2.0881e-28  1.3245e-23  3.1549e-28   1.93e-23  4.9953e-28  3.0083e-23  8.1251e-28  4.9304e-23  1.3665e-27  8.3632e-23  2.3499e-27  1.4515e-22  4.1179e-27  2.5602e-22  7.3326e-27  4.5786e-22  1.3277e-26  8.3162e-22  2.4572e-26  1.5431e-21  4.6952e-26  2.9566e-21
      6.35  4.0241e-30  5.6562e-24  5.254e-30  5.7041e-24  7.7549e-30  5.7892e-24  1.2914e-29  5.9406e-24  2.3431e-29  6.2098e-24  4.2114e-29  6.6884e-24  5.8975e-29  7.5395e-24  9.0221e-29  9.0533e-24  1.4731e-28  1.1746e-23  2.4739e-28  1.6538e-23  4.0914e-28  2.5071e-23  6.9512e-28  4.0282e-23  1.1965e-27  6.7451e-23  2.0897e-27  1.1615e-22  3.7005e-27  2.0394e-22  6.6319e-27  3.6388e-22  1.2058e-26  6.6034e-22  2.2386e-26  1.2256e-21  4.2901e-26  2.3513e-21
      6.40  3.4504e-30  5.7852e-24  4.4767e-30  5.824e-24  6.4462e-30  5.8932e-24  1.0092e-29  6.0161e-24  1.6769e-29  6.2347e-24  3.132e-29  6.6233e-24  4.4185e-29  7.3144e-24  6.6891e-29  8.5436e-24  1.1088e-28  1.073e-23  1.9536e-28  1.4621e-23  3.4756e-28  2.155e-23  6.1583e-28  3.3902e-23  1.0894e-27  5.5967e-23  1.9361e-27  9.5521e-23  3.4661e-27  1.6686e-22  6.2531e-27  2.969e-22  1.1419e-26  5.3818e-22  2.127e-26  9.9896e-22  4.0891e-26  1.9187e-21
      6.45  3.0044e-30  5.9332e-24  3.9526e-30  5.9653e-24  5.504e-30  6.0225e-24  8.3848e-30  6.1242e-24  1.3398e-29  6.305e-24  2.349e-29  6.6264e-24  3.7429e-29  7.1981e-24  5.7631e-29  8.2148e-24  9.7416e-29  1.0023e-23  1.7441e-28  1.3241e-23  3.1909e-28  1.8972e-23  5.8127e-28  2.9188e-23  1.0511e-27  4.7439e-23  1.8984e-27  8.0163e-23  3.426e-27  1.392e-22  6.2136e-27  2.4688e-22  1.1388e-26  4.4684e-22  2.1275e-26  8.2929e-22  4.1015e-26  1.5943e-21
      6.50  2.4957e-30  6.0979e-24  3.3819e-30  6.1247e-24  4.5955e-30  6.1722e-24  6.8932e-30  6.2567e-24  1.0807e-29  6.407e-24  1.843e-29  6.6742e-24  2.9054e-29  7.1494e-24  4.6515e-29  7.9946e-24  7.9886e-29  9.4979e-24  1.4505e-28  1.2173e-23  2.7052e-28  1.6936e-23  5.0591e-28  2.5428e-23  9.3462e-28  4.0601e-23   1.71e-27  6.7808e-23  3.1149e-27  1.1691e-22  5.6829e-27  2.065e-22  1.0456e-26   3.73e-22  1.959e-26  6.9184e-22  3.7869e-26  1.3307e-21
      6.55  2.0707e-30  6.309e-24  2.8345e-30  6.3316e-24  3.7833e-30  6.3718e-24  5.5582e-30  6.4434e-24  8.9271e-30  6.5706e-24  1.5425e-29  6.7969e-24  2.4406e-29  7.1993e-24  3.9112e-29  7.9149e-24   6.89e-29  9.1879e-24  1.2764e-28  1.1453e-23  2.4253e-28  1.5487e-23  4.6162e-28  2.2678e-23  8.685e-28  3.5527e-23  1.6113e-27  5.857e-23  2.9611e-27  1.0016e-22  5.4324e-27  1.7608e-22  1.0035e-26  3.1727e-22  1.8856e-26  5.8787e-22  3.654e-26  1.1309e-21
      6.60  1.7238e-30  6.5377e-24  2.3357e-30  6.5576e-24  3.1115e-30  6.5929e-24  4.5612e-30  6.6557e-24  7.3811e-30  6.7673e-24  1.3265e-29  6.9658e-24  2.1715e-29  7.3187e-24  3.5177e-29  7.9465e-24  6.3094e-29  9.0632e-24  1.1964e-28  1.105e-23  2.3111e-28  1.4589e-23  4.4597e-28  2.0899e-23  8.4949e-28  3.2172e-23  1.5935e-27  5.2392e-23  2.9544e-27  8.8896e-23  5.4513e-27  1.5554e-22  1.0108e-26  2.7954e-22  1.9045e-26  5.1737e-22  3.6989e-26  9.9513e-22
      6.65  1.4367e-30  6.7831e-24  1.8944e-30  6.8012e-24  2.6022e-30  6.8335e-24  3.7631e-30  6.8907e-24  6.1521e-30  6.9926e-24  1.1468e-29  7.1737e-24  1.9201e-29  7.4958e-24  3.1874e-29  8.0687e-24  5.8749e-29  9.0879e-24  1.141e-28  1.0902e-23  2.2417e-28  1.4131e-23  4.3791e-28  1.989e-23  8.4293e-28  3.018e-23  1.5964e-27  4.8638e-23  2.9829e-27  8.1964e-23  5.5348e-27  1.4282e-22  1.0301e-26  2.5609e-22  1.9459e-26  4.7348e-22  3.7872e-26  9.1054e-22
      6.70  1.1991e-30  7.044e-24  1.5033e-30  7.0611e-24  2.1028e-30  7.0915e-24  3.141e-30  7.1456e-24  5.2986e-30  7.2419e-24  1.054e-29  7.413e-24  1.9364e-29  7.7173e-24  3.4206e-29  8.2586e-24  6.5802e-29  9.2216e-24  1.305e-28  1.0935e-23  2.583e-28  1.3987e-23  5.0544e-28  1.9429e-23  9.7475e-28  2.9153e-23  1.8465e-27  4.6595e-23  3.4563e-27  7.8093e-23  6.4259e-27  1.3562e-22  1.1978e-26  2.4273e-22  2.2659e-26  4.4841e-22  4.4156e-26  8.6221e-22
      6.75  1.0005e-30  7.3192e-24  1.2142e-30  7.3359e-24  1.7129e-30  7.3654e-24  2.6581e-30  7.4179e-24  4.8981e-30  7.5112e-24  1.0564e-29  7.6772e-24   2.06e-29  7.9724e-24  3.8508e-29  8.4975e-24  7.6309e-29  9.4317e-24  1.5279e-28  1.1094e-23  3.018e-28  1.4055e-23  5.8879e-28  1.9334e-23  1.1306e-27  2.8767e-23   2.14e-27  4.5691e-23  4.0037e-27  7.6253e-23  7.4475e-27  1.3209e-22  1.3895e-26  2.3606e-22  2.6307e-26  4.3581e-22  5.1313e-26  8.3794e-22
      6.80  8.3886e-31  7.6481e-24  9.8184e-31  7.6646e-24  1.3975e-30  7.6938e-24  2.2926e-30  7.7458e-24  4.4878e-30  7.8383e-24  1.004e-29  8.0027e-24  2.1385e-29  8.2952e-24  4.097e-29  8.8153e-24  8.2386e-29  9.7407e-24  1.6479e-28  1.1387e-23  3.2435e-28  1.432e-23  6.3092e-28  1.955e-23  1.2101e-27  2.8896e-23  2.2897e-27  4.5663e-23  4.2874e-27  7.5945e-23  7.9867e-27  1.3127e-22  1.4923e-26  2.3434e-22  2.8291e-26  4.3241e-22  5.5249e-26  8.314e-22
      6.85  7.0819e-31  7.9947e-24  8.0682e-31  8.0112e-24  1.1082e-30  8.0407e-24  1.9315e-30  8.093e-24  3.9211e-30  8.1862e-24  9.6565e-30  8.4352e-24  2.2541e-29  8.6461e-24  4.4671e-29  9.1699e-24  9.1908e-29  1.0102e-23  1.8386e-28  1.176e-23  3.6281e-28  1.4712e-23  7.0486e-28  1.9978e-23  1.3505e-27  2.9389e-23  2.5529e-27  4.6272e-23  4.7778e-27  7.6768e-23  8.9012e-27  1.3249e-22  1.6641e-26  2.3632e-22  3.1571e-26  4.3593e-22  6.1706e-26  8.3822e-22
      6.90  6.0424e-31  8.3583e-24  6.8233e-31  8.3751e-24  9.1733e-31  8.4049e-24  1.5952e-30  8.4579e-24  3.6495e-30  8.5522e-24  9.6247e-30  8.7198e-24  2.4352e-29  9.0179e-24  5.0109e-29  9.5482e-24  1.0523e-28  1.0492e-23  2.1153e-28  1.217e-23  4.2022e-28  1.516e-23  8.2185e-28  2.0492e-23  1.5772e-27  3.002e-23  2.979e-27  4.7116e-23  5.5664e-27  7.7997e-23  1.0358e-26  1.3444e-22  1.9356e-26  2.3961e-22  3.6723e-26  4.4188e-22  7.1803e-26  8.4974e-22
      6.95  5.2101e-31  8.7383e-24  5.9396e-31  8.7551e-24  8.1024e-31  8.7851e-24  1.4839e-30  8.8384e-24  3.5553e-30  8.9331e-24  9.6164e-30  9.1016e-24  2.4897e-29  9.4011e-24  5.1636e-29  9.934e-24  1.0672e-28  1.0882e-23  2.1373e-28  1.2569e-23  4.2921e-28  1.5573e-23  8.4557e-28  2.093e-23  1.6287e-27  3.0504e-23  3.0822e-27  4.7682e-23  5.7664e-27  7.8715e-23  1.074e-26  1.3544e-22  2.0084e-26  2.4117e-22  3.8135e-26  4.4456e-22  7.4628e-26  8.5487e-22
      7.00  4.5138e-31  9.1339e-24  5.1752e-31  9.1505e-24  7.3423e-31  9.1801e-24  1.3968e-30  9.2325e-24  3.3387e-30  9.3259e-24  9.0665e-30  9.4918e-24  2.5172e-29  9.7869e-24  5.2211e-29  1.0312e-23  1.0478e-28  1.1245e-23  2.1274e-28  1.2907e-23  4.316e-28  1.5865e-23  8.5632e-28  2.1141e-23  1.6591e-27  3.0571e-23  3.1548e-27  4.749e-23  5.9212e-27  7.8057e-23  1.1051e-26  1.3393e-22  2.0694e-26  2.3811e-22  3.9337e-26  4.3858e-22  7.706e-26  8.4317e-22
      7.05  3.7988e-31  9.5953e-24  4.4745e-31  9.6112e-24  6.4922e-31  9.6394e-24  1.2495e-30  9.6895e-24  3.0255e-30  9.7787e-24  8.3955e-30  9.9372e-24    2.4e-29  1.0219e-23  5.1636e-29  1.072e-23  1.0475e-28  1.1612e-23  2.1388e-28  1.3199e-23  4.3725e-28  1.6024e-23  8.7672e-28  2.1062e-23  1.721e-27  3.0065e-23  3.3029e-27  4.6221e-23  6.237e-27  7.541e-23  1.1684e-26  1.2877e-22  2.1929e-26  2.2828e-22  4.1748e-26  4.1983e-22  8.1877e-26  8.0659e-22
      7.10  3.164e-31  1.0077e-23  3.7626e-31  1.0092e-23  5.4828e-31  1.0118e-23  1.0803e-30  1.0164e-23  2.7188e-30  1.0246e-23  7.5859e-30  1.0391e-23  2.2319e-29  1.065e-23  5.1124e-29  1.111e-23  1.0597e-28  1.1928e-23  2.1601e-28  1.3383e-23  4.4177e-28  1.5975e-23  9.0371e-28  2.0595e-23  1.8054e-27  2.8852e-23  3.5113e-27  4.3668e-23  6.6878e-27  7.0438e-23  1.2596e-26  1.1938e-22  2.3719e-26  2.1067e-22  4.5248e-26  3.8644e-22  8.8869e-26  7.4149e-22
      7.15  2.6332e-31  1.058e-23  3.1475e-31  1.0593e-23  4.694e-31  1.0616e-23  9.4412e-31  1.0656e-23  2.4073e-30  1.0728e-23  6.6858e-30  1.0856e-23  1.8925e-29  1.1083e-23  4.615e-29  1.1487e-23  9.316e-29  1.2205e-23  1.8656e-28  1.3482e-23  3.8669e-28  1.5757e-23  8.0515e-28  1.9811e-23  1.642e-27  2.7056e-23  3.2521e-27  4.0054e-23  6.2813e-27  6.354e-23  1.1946e-26  1.0648e-22  2.2639e-26  1.8659e-22  4.3368e-26  3.4087e-22  8.5411e-26  6.5263e-22
      7.20  2.1811e-31  1.1104e-23  2.6118e-31  1.1115e-23  3.9223e-31  1.1134e-23  7.9413e-31  1.1168e-23  1.9751e-30  1.1229e-23  5.4001e-30  1.1337e-23  1.4967e-29  1.1529e-23  3.7991e-29  1.187e-23  7.3528e-29  1.2478e-23  1.5044e-28  1.3558e-23  3.1731e-28  1.5481e-23  6.7472e-28  1.8908e-23  1.4123e-27  2.5031e-23  2.8676e-27  3.6015e-23  5.6511e-27  5.586e-23  1.0907e-26  9.2148e-23  2.088e-26  1.5985e-22  4.0263e-26  2.9025e-22  7.9632e-26  5.5385e-22
      7.25  1.7998e-31  1.1648e-23  2.1271e-31  1.1657e-23  3.1979e-31  1.1673e-23  6.3116e-31  1.1701e-23  1.5425e-30  1.1752e-23  4.1131e-30  1.1842e-23  1.1071e-29  1.2001e-23  2.7658e-29  1.2285e-23  5.4918e-29  1.2789e-23  1.1238e-28  1.3687e-23  2.4004e-28  1.5284e-23  5.2489e-28  1.813e-23  1.1328e-27  2.3213e-23  2.3735e-27  3.2332e-23  4.8013e-27  4.8805e-23  9.4513e-27  7.8927e-23  1.8346e-26  1.3512e-22  3.5703e-26  2.4339e-22  7.1036e-26  4.6227e-22
      7.30  1.4807e-31  1.2277e-23  1.7511e-31  1.2285e-23  2.5504e-31  1.2298e-23  4.9239e-31  1.2322e-23  1.1831e-30  1.2364e-23  3.064e-30  1.2439e-23  8.0775e-30  1.2572e-23  1.9775e-29  1.2809e-23  4.1482e-29  1.323e-23  8.4502e-29  1.398e-23  1.7875e-28  1.5314e-23  4.0058e-28  1.7691e-23  8.987e-28  2.1936e-23  1.956e-27  2.9549e-23  4.0908e-27  4.3302e-23  8.2619e-27  6.8447e-23  1.6333e-26  1.1536e-22  3.2182e-26  2.0574e-22  6.454e-26  3.8847e-22
      7.35  1.2197e-31  1.2935e-23  1.4229e-31  1.2942e-23  2.0242e-31  1.2953e-23  3.8077e-31  1.2973e-23  9.0059e-31  1.3009e-23  2.2526e-30  1.3073e-23  5.9217e-30  1.3186e-23  1.489e-29  1.3388e-23  3.2747e-29  1.3747e-23  6.5842e-29  1.4386e-23  1.3962e-28  1.5523e-23  3.1807e-28  1.755e-23  7.3907e-28  2.1169e-23  1.6688e-27  2.7659e-23  3.5983e-27  3.9382e-23  7.4475e-27  6.0813e-23  1.4992e-26  1.0079e-22  2.9908e-26  1.7782e-22  6.047e-26  3.3354e-22
      7.40  1.0075e-31  1.3622e-23  1.1627e-31  1.3627e-23  1.622e-31  1.3637e-23  2.9871e-31  1.3655e-23  6.9123e-31  1.3686e-23  1.7293e-30  1.3742e-23  4.4903e-30  1.3841e-23  1.1673e-29  1.4018e-23  2.7921e-29  1.4332e-23  5.4876e-29  1.489e-23  1.1597e-28  1.5885e-23  2.6691e-28  1.7658e-23  6.3081e-28  2.0824e-23  1.4618e-27  2.6502e-23  3.2398e-27  3.6758e-23   6.86e-27  5.5505e-23  1.4047e-26  9.0475e-23  2.8359e-26  1.5784e-22  5.7797e-26  2.9403e-22
      7.45  8.2849e-32  1.4336e-23  9.5868e-32  1.4341e-23  1.3108e-31  1.435e-23  2.3851e-31  1.4366e-23  5.534e-31  1.4394e-23  1.3733e-30  1.4444e-23  3.5728e-30  1.4533e-23  9.4659e-30  1.4692e-23  2.2185e-29  1.4974e-23  4.2781e-29  1.5475e-23  8.9208e-29  1.6369e-23  2.0658e-28  1.7961e-23  4.974e-28  2.0806e-23  1.185e-27  2.5908e-23  2.7082e-27  3.5123e-23  5.8959e-27  5.1967e-23  1.2339e-26  8.3384e-23  2.5305e-26  1.439e-22  5.212e-26  2.6622e-22
      7.50  6.9704e-32  1.5078e-23  7.9209e-32  1.5083e-23  1.103e-31  1.5091e-23  1.9812e-31  1.5106e-23  4.6017e-31  1.5132e-23  1.1335e-30  1.5178e-23  2.965e-30  1.526e-23  7.9941e-30  1.5406e-23  1.8453e-29  1.5665e-23  3.5296e-29  1.6127e-23  7.2524e-29  1.6949e-23  1.6663e-28  1.8416e-23  4.0771e-28  2.1036e-23  9.9218e-28  2.5735e-23  2.3307e-27  3.4221e-23  5.2124e-27  4.9734e-23  1.1154e-26  7.8665e-23  2.3251e-26  1.3438e-22  4.8426e-26  2.4699e-22
      7.55  5.802e-32  1.5929e-23  6.7417e-32  1.5934e-23  9.335e-32  1.5941e-23  1.7108e-31  1.5955e-23  4.0468e-31  1.598e-23  9.9997e-31  1.6023e-23  2.6565e-30   1.61e-23  6.9952e-30  1.6238e-23  1.5731e-29  1.6482e-23  3.0577e-29  1.6918e-23  6.1912e-29  1.7693e-23  1.4144e-28  1.9075e-23  3.4441e-28  2.1544e-23  8.4961e-28  2.5974e-23  2.0424e-27  3.3975e-23  4.6904e-27  4.8599e-23  1.0282e-26  7.5871e-23  2.1841e-26  1.2839e-22  4.6098e-26  2.3451e-22
      7.60  4.9059e-32  1.6818e-23  5.7652e-32  1.6822e-23  8.2424e-32  1.683e-23  1.5524e-31  1.6843e-23  3.656e-31  1.6867e-23  9.294e-31  1.6908e-23  2.4859e-30  1.6983e-23  6.5672e-30  1.7115e-23  1.3694e-29  1.735e-23  2.6938e-29  1.7768e-23  5.3181e-29  1.8513e-23  1.1811e-28  1.9842e-23  2.8274e-28  2.2217e-23  6.9624e-28  2.6477e-23  1.6942e-27  3.4172e-23  3.9693e-27  4.8237e-23  8.8878e-27  7.4466e-23  1.9226e-26  1.2497e-22  4.1128e-26   2.27e-22
      7.65  4.2084e-32  1.7745e-23  4.9811e-32  1.7749e-23  7.3359e-32  1.7756e-23  1.4109e-31  1.7769e-23  3.4369e-31  1.7792e-23  8.9178e-31  1.7833e-23  2.3529e-30  1.7906e-23  6.203e-30  1.8035e-23  1.2368e-29  1.8265e-23  2.4028e-29  1.8674e-23  4.6638e-29  1.9402e-23  1.0054e-28  2.0701e-23  2.3505e-28  2.3023e-23  5.7312e-28  2.7188e-23  1.4019e-27  3.4711e-23  3.3367e-27  4.8464e-23  7.6212e-27  7.4109e-23  1.6795e-26  1.2348e-22  3.6456e-26  2.2322e-22
      7.70  3.5922e-32  1.8709e-23  4.3262e-32  1.8713e-23  6.5805e-32  1.8721e-23  1.3153e-31  1.8733e-23  3.2232e-31  1.8756e-23  8.5102e-31  1.8797e-23  2.2706e-30  1.8868e-23  6.1018e-30  1.9186e-23  1.1169e-29  1.9224e-23  2.132e-29  1.9629e-23  4.1567e-29  2.035e-23  8.6165e-29  2.1637e-23  1.9694e-28  2.3936e-23  4.7296e-28  2.8061e-23  1.156e-27  3.5514e-23  2.7838e-27  4.9136e-23  6.4752e-27  7.4537e-23  1.454e-26  1.2344e-22  3.2063e-26  2.2221e-22
      7.75  3.0959e-32  1.9711e-23  3.7962e-32  1.9715e-23  5.9608e-32  1.9723e-23  1.2485e-31  1.9933e-23  3.0125e-31  1.9758e-23  8.1285e-31  1.9799e-23  2.1593e-30  1.987e-23  5.4628e-30  1.9998e-23  1.0013e-29  2.0226e-23  1.9106e-29  2.063e-23  3.6907e-29  2.1351e-23  7.5337e-29  2.2637e-23  1.6668e-28  2.4935e-23  3.9218e-28  2.9059e-23  9.5189e-28  3.6509e-23  2.3076e-27  5.0127e-23  5.4522e-27  7.5519e-23  1.2472e-26  1.244e-22  2.7966e-26  2.2312e-22
      7.80  2.6851e-32  2.0854e-23  3.3476e-32  2.0858e-23  5.4127e-32  2.0865e-23  1.1397e-31  2.0878e-23  2.8558e-31  2.0901e-23  7.7198e-31  2.0942e-23  2.0777e-30  2.1014e-23  5.073e-30  2.1143e-23  9.2413e-30  2.1372e-23  1.7257e-29  2.178e-23  3.3066e-29  2.2506e-23  6.6087e-29  2.3801e-23  1.4219e-28  2.6115e-23  3.2683e-28  3.0268e-23  7.8403e-28  3.7771e-23  1.9047e-27  5.1488e-23  4.5591e-27  7.7063e-23  1.0619e-26  1.2629e-22  2.4237e-26  2.2571e-22
      7.85  2.3399e-32  2.2048e-23  2.9554e-32  2.2052e-23  4.8872e-32  2.2059e-23  1.0376e-31  2.2072e-23  2.6174e-31  2.2096e-23  7.1042e-31  2.2137e-23  1.9414e-30  2.221e-23  4.6294e-30  2.234e-23  8.3912e-30  2.2571e-23  1.5541e-29  2.2982e-23  2.9573e-29  2.3716e-23  5.8008e-29  2.5023e-23  1.2171e-28  2.736e-23  2.7318e-28  3.1553e-23  6.459e-28  3.913e-23  1.5666e-27  5.298e-23  3.789e-27  7.8804e-23  8.9807e-27  1.2851e-22  2.0886e-26  2.2888e-22
      7.90  2.0498e-32  2.3294e-23  2.5962e-32  2.3298e-23  4.3403e-32  2.3305e-23  9.3424e-32  2.3318e-23  2.3634e-31  2.3341e-23  6.409e-31  2.3383e-23  1.7646e-30  2.3457e-23  3.9784e-30  2.3588e-23  7.2501e-30  2.3821e-23  1.3342e-29  2.4237e-23  2.5192e-29  2.4977e-23  4.8839e-29  2.6297e-23  1.0043e-28  2.8656e-23  2.2069e-28  3.2889e-23  5.143e-28  4.0537e-23  1.2439e-27  5.4518e-23  3.0374e-27  8.0586e-23  7.3303e-27  1.3076e-22  1.7404e-26  2.3206e-22
      7.95  1.7941e-32  2.4591e-23  2.268e-32  2.4595e-23  3.7936e-32  2.4602e-23  8.2407e-32  2.4615e-23  2.1023e-31  2.4639e-23  5.6942e-31  2.4681e-23  1.5465e-30  2.4755e-23  3.3694e-30  2.4887e-23  6.1818e-30  2.5122e-23  1.1206e-29  2.554e-23  2.0989e-29  2.6284e-23  4.0369e-29  2.7612e-23  8.1523e-29  2.9986e-23  1.7558e-28  3.4245e-23  4.0071e-28  4.1941e-23  9.6738e-28  5.6009e-23  2.3747e-27  8.2239e-23  5.816e-27  1.3272e-22  1.4076e-26  2.3463e-22
      8.00  1.5975e-32  2.5939e-23  2.0031e-32  2.5944e-23  3.3213e-32  2.5951e-23  7.1157e-32  2.5964e-23  1.7869e-31  2.5988e-23  4.874e-31  2.6029e-23  1.3524e-30  2.6104e-23  2.7968e-30  2.6236e-23  5.0237e-30  2.6472e-23  9.2406e-30  2.6891e-23  1.7181e-29  2.7637e-23  3.2856e-29  2.8968e-23  6.5184e-29  3.1347e-23  1.3821e-28  3.5615e-23  3.118e-28  4.3328e-23  7.4255e-28  5.7426e-23  1.8259e-27  8.3712e-23  4.5235e-27  1.343e-22  1.1136e-26  2.364e-22
      8.05  1.4231e-32  2.7473e-23  1.7558e-32  2.7477e-23  2.8493e-32  2.7484e-23  6.0538e-32  2.7497e-23  1.5063e-31  2.7521e-23  4.0544e-31  2.7563e-23  1.1026e-30  2.7637e-23  2.2719e-30  2.777e-23  4.0741e-30  2.8005e-23  7.4745e-30  2.8424e-23  1.3815e-29  2.9171e-23  2.6259e-29  3.0502e-23  5.1715e-29  3.2882e-23  1.0781e-28  3.7153e-23  2.3882e-28  4.4868e-23  5.6632e-28  5.8972e-23  1.393e-27  8.5265e-23  3.4845e-27  1.3586e-22  8.7144e-27  2.3797e-22
      8.10  1.2777e-32  2.9077e-23  1.5423e-32  2.9081e-23  2.4115e-32  2.9088e-23  4.9703e-32  2.9101e-23  1.2254e-31  2.9125e-23  3.2531e-31  2.9166e-23  9.0125e-31  2.9241e-23  1.8259e-30  2.9373e-23  3.2698e-30  2.9607e-23  5.8682e-30  3.0025e-23  1.081e-29  3.077e-23  2.063e-29  3.2097e-23  4.0331e-29  3.4469e-23  8.2845e-29  3.8726e-23  1.8192e-28  4.6417e-23  4.2785e-28  6.0476e-23  1.0516e-27  8.6683e-23  2.6509e-27  1.3711e-22  6.7236e-27  2.3885e-22
      8.15  1.158e-32  3.0752e-23  1.3632e-32  3.0756e-23  2.0446e-32  3.0764e-23  4.0317e-32  3.0777e-23  9.7907e-32   3.08e-23  2.6031e-31  3.0841e-23  7.067e-31  3.0915e-23  1.4265e-30  3.1047e-23  2.5801e-30  3.128e-23  4.5758e-30  3.1696e-23  8.3987e-30  3.2436e-23  1.5778e-29  3.3756e-23  3.0953e-29  3.6116e-23  6.3111e-29  4.035e-23  1.3711e-28  4.7999e-23  3.1823e-28  6.198e-23  7.8006e-28  8.804e-23  1.9768e-27  1.3817e-22  5.0754e-27  2.3931e-22
      8.20  1.0605e-32   3.25e-23  1.2165e-32  3.2504e-23  1.7392e-32  3.2511e-23  3.2439e-32  3.2524e-23  7.6063e-32  3.2548e-23  2.0072e-31  3.2589e-23  5.5432e-31  3.2662e-23  1.0998e-30  3.2793e-23  1.9697e-30  3.3025e-23  3.555e-30  3.3437e-23  6.4465e-30  3.4173e-23  1.2062e-29  3.5485e-23  2.3338e-29  3.7829e-23  4.7685e-29  4.2036e-23  1.0273e-28  4.9635e-23  2.3685e-28  6.3524e-23  5.7952e-28  8.9411e-23  1.4757e-27  1.392e-22  3.8305e-27  2.3962e-22
      8.25  9.7898e-33  3.4321e-23  1.0959e-32  3.4325e-23  1.4623e-32  3.4332e-23  2.6516e-32  3.4345e-23  5.9979e-32  3.4368e-23  1.5593e-31  3.4409e-23  4.2104e-31  3.4482e-23  8.3212e-31  3.4612e-23  1.5024e-30  3.4842e-23  2.6846e-30  3.5253e-23  4.906e-30  3.5984e-23  9.237e-30  3.7287e-23  1.779e-29  3.9617e-23  3.5899e-29  4.3798e-23  7.6925e-29  5.135e-23  1.7659e-28  6.5152e-23  4.3181e-28  9.0874e-23  1.1048e-27  1.4034e-22  2.8962e-27  2.4007e-22
      8.30  9.1458e-33  3.6388e-23  1.0039e-32  3.6392e-23  1.2721e-32  3.6399e-23  2.1325e-32  3.6412e-23  4.6529e-32  3.6435e-23  1.1881e-31  3.6476e-23  3.2365e-31  3.6549e-23  6.3885e-31  3.6679e-23  1.1404e-30  3.6909e-23  2.0555e-30  3.7319e-23  3.751e-30  3.8049e-23  6.9844e-30  3.9351e-23  1.3418e-29  4.1678e-23  2.6988e-29  4.5853e-23  5.7665e-29  5.3394e-23  1.3206e-28  6.7176e-23  3.2305e-28  9.2856e-23  8.3039e-28  1.4223e-22  2.1966e-27  2.4176e-22
      8.35  8.6682e-33  3.8556e-23  9.3018e-33  3.856e-23  1.1266e-32  3.8567e-23  1.7573e-32  3.858e-23  3.5817e-32  3.8603e-23  8.8412e-32  3.8644e-23  2.405e-31  3.8717e-23  4.7439e-31  3.8847e-23  8.4517e-31  3.9077e-23  1.5217e-30  3.9488e-23  2.7763e-30  4.0219e-23  5.1678e-30  4.1523e-23  9.9266e-30  4.3853e-23  1.9968e-29  4.8034e-23  4.2709e-29  5.5586e-23  9.8013e-29  6.9386e-23  2.4075e-28  9.5096e-23  6.2319e-28  1.4452e-22  1.665e-27  2.4411e-22
      8.40  8.2698e-33  4.0827e-23  8.7246e-33  4.0831e-23  1.0177e-32  4.0839e-23  1.4692e-32  4.0852e-23  2.7746e-32  4.0875e-23  6.5755e-32  4.0916e-23  1.7363e-31  4.0989e-23  3.4519e-31  4.1119e-23  6.1347e-31  4.1351e-23  1.1034e-30  4.1764e-23  2.0132e-30  4.2498e-23  3.751e-30  4.3808e-23  7.2186e-30  4.615e-23  1.4565e-29  5.035e-23  3.1292e-29  5.7938e-23  7.2255e-29  7.1801e-23  1.7881e-28  9.7626e-23  4.6712e-28  1.4726e-22  1.2618e-27  2.4725e-22
      8.45  7.9568e-33  4.3205e-23  8.2865e-33  4.3209e-23  9.3513e-33  4.3216e-23  1.2434e-32  4.3229e-23  2.2107e-32  4.3253e-23  4.9697e-32  4.3294e-23  1.2793e-31  4.3368e-23  2.5365e-31  4.3499e-23  4.4933e-31  4.3733e-23  8.0692e-31  4.4149e-23  1.4719e-30  4.489e-23  2.745e-30  4.621e-23  5.2922e-30  4.8571e-23  1.0711e-29  5.2807e-23  2.3112e-29  6.0456e-23  5.3674e-29  7.4432e-23  1.3376e-28  1.0046e-22  3.5236e-28  1.5048e-22  9.6111e-28  2.5122e-22
      8.50  7.7099e-33  4.5691e-23  7.9526e-33  4.5696e-23  8.746e-33  4.5703e-23  1.0967e-32  4.5716e-23  1.8118e-32  4.574e-23  3.8146e-32  4.5782e-23  9.5829e-32  4.5857e-23  1.8668e-31  4.599e-23  3.3249e-31  4.6226e-23  5.9585e-31  4.6647e-23  1.0862e-30  4.7396e-23  2.0267e-30  4.8733e-23  3.9138e-30  5.1122e-23  7.9429e-30  5.5407e-23  1.7207e-29  6.3147e-23  4.0166e-29  7.7286e-23  1.0073e-28  1.0362e-22  2.6729e-28  1.5421e-22  7.3536e-28  2.5607e-22
