# This was generated using Cloudy10 and the columns are ordered 
# as log10 of the fraction of the metallicity to the solar metallicity
# 'h_*_Z' and 'c_*_Z' stands for cooling and heating respectively 
# at * metalicity
#
# Redshift = 4.5
# hden = 2.0
#     temp   h_-3.00_Z   c_-3.00_Z   h_-2.75_Z   c_-2.75_Z   h_-2.50_Z   c_-2.50_Z   h_-2.25_Z   c_-2.25_Z   h_-2.00_Z   c_-2.00_Z   h_-1.75_Z   c_-1.75_Z   h_-1.50_Z   c_-1.50_Z   h_-1.25_Z   c_-1.25_Z   h_-1.00_Z   c_-1.00_Z   h_-0.75_Z   c_-0.75_Z   h_-0.50_Z   c_-0.50_Z   h_-0.25_Z   c_-0.25_Z    h_0.00_Z    c_0.00_Z    h_0.25_Z    c_0.25_Z    h_0.50_Z    c_0.50_Z    h_0.75_Z    c_0.75_Z    h_1.00_Z    c_1.00_Z    h_1.25_Z    c_1.25_Z    h_1.50_Z    c_1.50_Z 
      1.00  5.2594e-26  1.0211e-29  5.2595e-26  1.022e-29  5.2596e-26  1.0236e-29  5.2597e-26  1.0264e-29   5.26e-26  1.0314e-29  5.2604e-26  1.0402e-29  5.2613e-26  1.056e-29  5.2627e-26  1.084e-29  5.2653e-26  1.1339e-29   5.27e-26  1.2226e-29  5.2782e-26  1.3805e-29  5.2928e-26  1.662e-29  5.319e-26  2.1644e-29  5.3656e-26  3.0639e-29  5.4491e-26  4.6817e-29  5.5992e-26  7.6134e-29  5.8712e-26  1.2985e-28  6.3693e-26  2.2968e-28  7.2942e-26  4.1784e-28
      1.05  5.257e-26  1.1441e-29  5.257e-26  1.1456e-29  5.2571e-26  1.1482e-29  5.2572e-26  1.153e-29  5.2575e-26  1.1614e-29  5.258e-26  1.1763e-29  5.2588e-26  1.2029e-29  5.2602e-26  1.2502e-29  5.2628e-26  1.3343e-29  5.2674e-26  1.484e-29  5.2756e-26  1.7503e-29  5.2901e-26  2.2248e-29  5.3161e-26  3.0712e-29  5.3624e-26  4.5842e-29  5.4453e-26  7.2989e-29  5.5943e-26  1.2199e-28  5.8643e-26  2.112e-28  6.3586e-26  3.7547e-28  7.2767e-26  6.813e-28
      1.10  5.2544e-26  1.2819e-29  5.2545e-26  1.2844e-29  5.2545e-26  1.2887e-29  5.2547e-26  1.2964e-29  5.2549e-26  1.3101e-29  5.2554e-26  1.3345e-29  5.2562e-26  1.3778e-29  5.2577e-26  1.4548e-29  5.2602e-26  1.5919e-29  5.2648e-26  1.8357e-29  5.2729e-26  2.2696e-29  5.2874e-26  3.042e-29  5.3132e-26  4.4183e-29  5.3592e-26  6.8741e-29  5.4417e-26  1.1267e-28  5.5899e-26  1.9155e-28  5.8584e-26  3.3401e-28   6.35e-26  5.9311e-28  7.2631e-26  1.0676e-27
      1.15  5.2518e-26  1.4366e-29  5.2518e-26  1.4405e-29  5.2519e-26  1.4475e-29  5.252e-26  1.4599e-29  5.2523e-26  1.482e-29  5.2528e-26  1.5213e-29  5.2536e-26  1.5913e-29  5.255e-26  1.7156e-29  5.2575e-26  1.9367e-29  5.2621e-26  2.3299e-29  5.2702e-26  3.0293e-29  5.2846e-26  4.2736e-29  5.3102e-26  6.4882e-29  5.356e-26  1.0432e-28  5.4379e-26  1.7461e-28  5.5852e-26  3.001e-28  5.8522e-26  5.2456e-28  6.341e-26  9.2695e-28  7.2491e-26  1.6492e-27
      1.20  5.249e-26  1.6259e-29  5.2491e-26  1.6322e-29  5.2492e-26  1.6435e-29  5.2493e-26  1.6635e-29  5.2496e-26  1.699e-29   5.25e-26  1.7621e-29  5.2508e-26  1.8745e-29  5.2522e-26  2.0742e-29  5.2548e-26  2.4294e-29  5.2593e-26  3.061e-29  5.2673e-26  4.184e-29  5.2816e-26  6.1807e-29  5.3071e-26  9.7299e-29  5.3526e-26  1.6027e-28  5.434e-26  2.723e-28  5.5804e-26  4.7107e-28  5.8457e-26  8.2311e-28  6.3317e-26  1.4445e-27  7.2348e-26  2.5353e-27
      1.25  5.2462e-26  1.8556e-29  5.2463e-26  1.8657e-29  5.2464e-26  1.8836e-29  5.2465e-26  1.9154e-29  5.2467e-26  1.972e-29  5.2472e-26  2.0727e-29  5.248e-26  2.2517e-29  5.2494e-26   2.57e-29  5.2519e-26  3.1359e-29  5.2564e-26  4.1421e-29  5.2644e-26  5.9304e-29  5.2786e-26  9.108e-29  5.3039e-26  1.4751e-28  5.3491e-26  2.4759e-28  5.4299e-26  4.2477e-28  5.5754e-26  7.3726e-28  5.8391e-26  1.2857e-27  6.3222e-26  2.2394e-27  7.2203e-26  3.8766e-27
      1.30  5.2433e-26  2.1133e-29  5.2434e-26  2.1291e-29  5.2434e-26  2.1571e-29  5.2436e-26  2.2071e-29  5.2438e-26  2.2958e-29  5.2443e-26  2.4536e-29  5.2451e-26  2.7343e-29  5.2465e-26  3.2332e-29  5.249e-26  4.1203e-29  5.2534e-26  5.6972e-29  5.2613e-26  8.4992e-29  5.2754e-26  1.3475e-28  5.3006e-26  2.2303e-28  5.3454e-26  3.7937e-28  5.4258e-26  6.5536e-28  5.5703e-26  1.1398e-27  5.8323e-26  1.9831e-27  6.3126e-26  3.4298e-27  7.2057e-26  5.8627e-27
      1.35  5.2403e-26  2.4028e-29  5.2403e-26  2.427e-29  5.2404e-26  2.4699e-29  5.2406e-26  2.5463e-29  5.2408e-26  2.6822e-29  5.2412e-26  2.9239e-29  5.242e-26  3.3535e-29  5.2434e-26  4.1174e-29  5.2459e-26  5.4754e-29  5.2503e-26  7.889e-29  5.2582e-26  1.2177e-28  5.2722e-26  1.9789e-28  5.2971e-26  3.3282e-28  5.3417e-26  5.7148e-28  5.4215e-26  9.9182e-28  5.565e-26  1.7268e-27  5.8254e-26  2.9974e-27  6.3028e-26  5.1527e-27  7.1911e-26  8.7125e-27
      1.40  5.2372e-26  2.7284e-29  5.2372e-26  2.7644e-29  5.2373e-26  2.8283e-29  5.2374e-26  2.942e-29  5.2377e-26  3.1442e-29  5.2381e-26  3.5036e-29  5.2389e-26  4.1428e-29  5.2403e-26  5.2792e-29  5.2427e-26  7.2994e-29  5.2471e-26  1.0889e-28  5.2549e-26  1.7266e-28  5.2688e-26  2.8582e-28  5.2936e-26  4.8631e-28  5.3378e-26  8.4053e-28  5.4171e-26  1.4633e-27  5.5597e-26  2.5489e-27  5.8183e-26  4.4152e-27  6.2929e-26  7.552e-27  7.1763e-26  1.2655e-26
      1.45  5.2339e-26  3.0948e-29  5.234e-26  3.1466e-29  5.234e-26  3.2388e-29  5.2342e-26  3.4027e-29  5.2344e-26  3.6941e-29  5.2349e-26  4.2124e-29  5.2356e-26  5.1338e-29  5.237e-26  6.772e-29  5.2394e-26  9.684e-29  5.2438e-26  1.4858e-28  5.2515e-26  2.4048e-28  5.2653e-26  4.0352e-28  5.2899e-26  6.9225e-28  5.3339e-26  1.202e-27  5.4125e-26  2.0969e-27  5.5541e-26  3.6529e-27  5.8111e-26  6.3165e-27  6.2827e-26  1.076e-26  7.1612e-26   1.79e-26
      1.50  5.2305e-26  3.5069e-29  5.2306e-26  3.5794e-29  5.2307e-26  3.7081e-29  5.2308e-26  3.9371e-29  5.231e-26  4.3444e-29  5.2315e-26  5.0685e-29  5.2322e-26  6.3559e-29  5.2336e-26  8.6448e-29  5.236e-26  1.2713e-28  5.2404e-26  1.9942e-28  5.248e-26  3.2779e-28  5.2617e-26  5.555e-28  5.2861e-26  9.5862e-28  5.3297e-26  1.6699e-27  5.4078e-26  2.917e-27  5.5484e-26  5.082e-27  5.8035e-26  8.7751e-27  6.2722e-26   1.49e-26  7.1456e-26  2.4643e-26
      1.55  5.2271e-26  3.9707e-29  5.2271e-26  4.0689e-29  5.2272e-26  4.2436e-29  5.2273e-26  4.5542e-29  5.2276e-26  5.1066e-29  5.228e-26  6.0887e-29  5.2287e-26  7.835e-29  5.2301e-26  1.0939e-28  5.2325e-26  1.6458e-28  5.2368e-26  2.6262e-28  5.2444e-26  4.3671e-28  5.258e-26  7.4546e-28  5.2822e-26  1.2919e-27  5.3255e-26  2.2556e-27  5.403e-26  3.9439e-27  5.5426e-26  6.8705e-27  5.7961e-26  1.1849e-26  6.2618e-26  2.0069e-26  7.1305e-26  3.304e-26
      1.60  5.2234e-26  4.4914e-29  5.2235e-26  4.621e-29  5.2236e-26  4.8514e-29  5.2237e-26  5.2612e-29  5.2239e-26  5.9899e-29  5.2244e-26  7.2855e-29  5.2251e-26  9.5892e-29  5.2265e-26  1.3685e-28  5.2288e-26  2.0964e-28  5.2331e-26  3.3897e-28  5.2407e-26  5.686e-28  5.2541e-26  9.7581e-28  5.2782e-26  1.6964e-27  5.3211e-26  2.9667e-27  5.398e-26  5.1908e-27  5.5366e-26  9.0418e-27  5.7884e-26  1.558e-26  6.2513e-26  2.6337e-26  7.1152e-26  4.3209e-26
      1.65  5.2197e-26  5.0753e-29  5.2197e-26  5.2421e-29  5.2198e-26  5.5388e-29  5.2199e-26  6.0663e-29  5.2202e-26  7.0045e-29  5.2206e-26  8.6725e-29  5.2213e-26  1.1638e-28  5.2227e-26  1.6911e-28  5.2251e-26  2.6282e-28  5.2293e-26  4.2932e-28  5.2368e-26  7.2492e-28  5.2501e-26  1.2491e-27  5.274e-26  2.1765e-27  5.3166e-26  3.811e-27  5.3929e-26  6.6716e-27  5.5304e-26  1.1621e-26  5.7804e-26  2.0013e-26  6.2403e-26  3.3785e-26  7.0994e-26  5.5296e-26
      1.70  5.2158e-26  5.7296e-29  5.2158e-26  5.9401e-29  5.2159e-26  6.3145e-29  5.216e-26  6.9801e-29  5.2163e-26  8.1638e-29  5.2167e-26  1.0268e-28  5.2174e-26  1.4011e-28  5.2188e-26  2.0663e-28  5.2211e-26  3.2487e-28  5.2253e-26  5.3494e-28  5.2327e-26  9.079e-28  5.246e-26  1.5692e-27  5.2696e-26  2.7392e-27  5.3119e-26  4.8009e-27  5.3876e-26  8.4087e-27  5.524e-26  1.4648e-26  5.7722e-26  2.522e-26  6.2291e-26  4.255e-26  7.0832e-26  6.9564e-26
      1.75  5.2118e-26  6.4632e-29  5.2118e-26  6.7248e-29  5.2119e-26   7.19e-29  5.212e-26  8.0172e-29  5.2122e-26  9.4883e-29  5.2127e-26  1.2104e-28  5.2134e-26  1.6755e-28  5.2147e-26  2.5022e-28  5.217e-26  3.9717e-28  5.2212e-26  6.5824e-28  5.2286e-26  1.1218e-27  5.2417e-26  1.9436e-27  5.2651e-26  3.3977e-27  5.307e-26  5.9602e-27  5.382e-26  1.0444e-26  5.5174e-26   1.82e-26  5.7637e-26  3.1344e-26  6.2174e-26  5.2895e-26  7.0665e-26  8.6513e-26
      1.80  5.2076e-26  7.288e-29  5.2076e-26   7.61e-29  5.2077e-26  8.1825e-29  5.2078e-26  9.2006e-29  5.2081e-26  1.1011e-28  5.2085e-26  1.423e-28  5.2092e-26  1.9954e-28  5.2105e-26  3.0129e-28  5.2128e-26  4.8214e-28  5.2169e-26  8.0346e-28  5.2242e-26  1.3739e-27  5.2372e-26  2.3856e-27  5.2605e-26  4.1756e-27  5.3019e-26  7.3307e-27  5.3763e-26  1.2854e-26  5.5106e-26  2.2413e-26  5.7549e-26  3.8632e-26  6.2054e-26  6.5284e-26  7.0493e-26  1.0702e-25
      1.85  5.2032e-26  8.2158e-29  5.2033e-26  8.6102e-29  5.2034e-26  9.3116e-29  5.2035e-26  1.0559e-28  5.2037e-26  1.2777e-28  5.2041e-26  1.672e-28  5.2048e-26  2.3732e-28  5.2061e-26  3.6198e-28  5.2084e-26  5.8355e-28  5.2125e-26  9.7722e-28  5.2197e-26  1.6762e-27  5.2326e-26  2.9159e-27  5.2556e-26  5.1099e-27  5.2967e-26  8.9787e-27  5.3704e-26  1.5756e-26  5.5035e-26  2.7502e-26  5.7458e-26  4.7477e-26  6.193e-26  8.0437e-26  7.0316e-26  1.3244e-25
      1.90  5.1987e-26  9.2613e-29  5.1988e-26  9.7436e-29  5.1989e-26  1.0601e-28  5.199e-26  1.2127e-28  5.1992e-26  1.4839e-28  5.1996e-26  1.9662e-28  5.2003e-26  2.8238e-28  5.2016e-26  4.3483e-28  5.2039e-26  7.0582e-28  5.2079e-26  1.1873e-27  5.2151e-26  2.0424e-27  5.2278e-26  3.5591e-27  5.2506e-26  6.2442e-27  5.2914e-26  1.0981e-26  5.3645e-26  1.929e-26  5.4964e-26  3.3713e-26  5.737e-26  5.8322e-26  6.1813e-26  9.9166e-26  7.0155e-26  1.643e-25
      1.95  5.1941e-26  1.0436e-28  5.1941e-26  1.1023e-28  5.1942e-26  1.2065e-28  5.1943e-26  1.3918e-28  5.1945e-26  1.7214e-28  5.1949e-26  2.3074e-28  5.1957e-26  3.3494e-28  5.1969e-26  5.2019e-28  5.1992e-26  8.4948e-28  5.2032e-26  1.4346e-27  5.2104e-26  2.4737e-27  5.2231e-26  4.3172e-27  5.2459e-26  7.5816e-27  5.2865e-26  1.3343e-26  5.3595e-26  2.3457e-26  5.4914e-26  4.104e-26  5.7319e-26  7.1125e-26  6.1768e-26  1.2133e-25  7.013e-26  2.0223e-25
      2.00  5.1892e-26  1.1774e-28  5.1893e-26  1.2495e-28  5.1893e-26  1.3777e-28  5.1895e-26  1.6057e-28  5.1897e-26  2.0111e-28  5.1901e-26  2.732e-28  5.1908e-26  4.0138e-28  5.1921e-26  6.2927e-28  5.1943e-26  1.0344e-27  5.1983e-26  1.7543e-27  5.2054e-26  3.033e-27  5.218e-26  5.3021e-27  5.2405e-26  9.3224e-27  5.2808e-26  1.6424e-26  5.3531e-26  2.8911e-26  5.4839e-26  5.0682e-26  5.7225e-26  8.8119e-26  6.1643e-26  1.5114e-25  6.9959e-26  2.5421e-25
      2.05  5.1842e-26  1.3295e-28  5.1842e-26  1.4185e-28  5.1843e-26  1.5766e-28  5.1844e-26  1.8579e-28  5.1847e-26  2.358e-28  5.185e-26  3.2473e-28  5.1857e-26  4.8285e-28  5.187e-26  7.6398e-28  5.1892e-26  1.2638e-27  5.1931e-26  2.152e-27  5.2001e-26   3.73e-27  5.2126e-26  6.5312e-27  5.2349e-26  1.1497e-26  5.2747e-26  2.0278e-26  5.3463e-26  3.5746e-26  5.4757e-26  6.2799e-26  5.712e-26  1.0958e-25   6.15e-26  1.8907e-25  6.9756e-26  3.211e-25
      2.10  5.179e-26  1.5019e-28  5.179e-26  1.6114e-28  5.1791e-26  1.8061e-28  5.1792e-26  2.1524e-28  5.1794e-26  2.7681e-28  5.1798e-26  3.8631e-28  5.1805e-26   5.81e-28  5.1817e-26  9.2717e-28  5.1839e-26  1.5426e-27  5.1878e-26  2.6365e-27  5.1947e-26  4.5802e-27  5.2071e-26  8.0316e-27  5.2291e-26  1.4154e-26  5.2685e-26  2.499e-26  5.3393e-26  4.4113e-26  5.4673e-26  7.7663e-26  5.7013e-26  1.3599e-25  6.1355e-26  2.3599e-25  6.955e-26  4.0453e-25
      2.15  5.1736e-26  1.6967e-28  5.1736e-26  1.8309e-28  5.1737e-26  2.0694e-28  5.1738e-26  2.4936e-28  5.174e-26  3.2479e-28  5.1744e-26  4.5893e-28  5.1751e-26  6.9744e-28  5.1763e-26  1.1215e-27  5.1784e-26  1.8755e-27  5.1823e-26  3.2158e-27  5.1891e-26  5.5978e-27  5.2013e-26  9.8288e-27  5.2231e-26  1.7338e-26  5.2621e-26  3.0641e-26  5.3321e-26  5.4157e-26  5.4587e-26  9.5533e-26  5.6905e-26  1.6782e-25  6.1209e-26  2.9277e-25  6.9344e-26  5.061e-25
      2.20  5.1679e-26  1.9164e-28  5.168e-26  2.0794e-28  5.168e-26  2.3694e-28  5.1682e-26  2.8849e-28  5.1684e-26  3.8017e-28  5.1688e-26  5.432e-28  5.1694e-26  8.3309e-28  5.1706e-26  1.3486e-27  5.1728e-26  2.265e-27  5.1766e-26  3.8944e-27  5.1833e-26  6.7904e-27  5.1954e-26  1.1936e-26  5.2169e-26  2.1072e-26  5.2554e-26  3.7273e-26  5.3247e-26  6.5952e-26   5.45e-26  1.1654e-25  5.6795e-26  2.0531e-25  6.1061e-26  3.5988e-25  6.9137e-26  6.2668e-25
      2.25  5.1621e-26  2.1632e-28  5.1621e-26  2.3593e-28  5.1622e-26  2.7081e-28  5.1623e-26  3.3284e-28  5.1625e-26  4.4314e-28  5.1629e-26  6.3928e-28  5.1636e-26  9.8806e-28  5.1648e-26  1.6083e-27  5.1669e-26  2.711e-27  5.1706e-26  4.6716e-27  5.1773e-26  8.1569e-27  5.1893e-26  1.4351e-26  5.2105e-26  2.5353e-26  5.2486e-26  4.4878e-26  5.3171e-26  7.9485e-26  5.4412e-26  1.4067e-25  5.6686e-26  2.4844e-25  6.0918e-26  4.3723e-25  6.8939e-26  7.6618e-25
      2.30  5.156e-26  2.4402e-28  5.1561e-26  2.6735e-28  5.1561e-26  3.0882e-28  5.1563e-26  3.8258e-28  5.1565e-26  5.1374e-28  5.1568e-26  7.4697e-28  5.1575e-26  1.1617e-27  5.1587e-26  1.8992e-27  5.1608e-26  3.2106e-27  5.1645e-26  5.5423e-27  5.1711e-26  9.6877e-27  5.1829e-26  1.7056e-26  5.204e-26  3.015e-26  5.2417e-26  5.3401e-26  5.3095e-26  9.4658e-26  5.4323e-26  1.6774e-25  5.6577e-26  2.9687e-25  6.0776e-26  5.2428e-25  6.8747e-26  9.2359e-25
      2.35  5.1497e-26  2.7493e-28  5.1498e-26  3.0232e-28  5.1498e-26  3.5103e-28   5.15e-26  4.3764e-28  5.1502e-26  5.9168e-28  5.1505e-26  8.6558e-28  5.1512e-26  1.3527e-27  5.1524e-26  2.2188e-27  5.1544e-26  3.759e-27  5.1581e-26  6.4976e-27  5.1647e-26  1.1367e-26  5.1763e-26  2.0024e-26  5.1972e-26  3.5408e-26  5.2345e-26  6.2749e-26  5.3017e-26  1.113e-25  5.4234e-26  1.9745e-25  5.6469e-26  3.5007e-25  6.0637e-26  6.1998e-25  6.8563e-26  1.0969e-24
      2.40  5.1432e-26  3.0928e-28  5.1432e-26  3.4104e-28  5.1433e-26  3.9751e-28  5.1434e-26  4.9793e-28  5.1436e-26  6.7651e-28  5.144e-26  9.9407e-28  5.1446e-26  1.5588e-27  5.1458e-26  2.563e-27  5.1478e-26  4.3487e-27  5.1515e-26  7.5241e-27  5.158e-26  1.317e-26  5.1695e-26  2.321e-26  5.1902e-26  4.1056e-26  5.2272e-26  7.2787e-26  5.2937e-26  1.2918e-25  5.4144e-26  2.2936e-25  5.636e-26  4.0723e-25  6.0498e-26  7.2291e-25  6.8378e-26  1.2836e-24
      2.45  5.1364e-26  3.4737e-28  5.1365e-26  3.8372e-28  5.1365e-26  4.4836e-28  5.1366e-26  5.6331e-28  5.1368e-26  7.6772e-28  5.1372e-26  1.1312e-27  5.1378e-26  1.7776e-27  5.139e-26  2.9271e-27  5.141e-26  4.9713e-27  5.1446e-26  8.6063e-27  5.151e-26  1.507e-26  5.1625e-26  2.6565e-26  5.183e-26  4.7003e-26  5.2196e-26  8.3354e-26  5.2855e-26   1.48e-25  5.4051e-26  2.6296e-25  5.6249e-26  4.6745e-25  6.0358e-26  8.314e-25  6.8194e-26  1.4805e-24
      2.50  5.1294e-26  3.8952e-28  5.1294e-26  4.3063e-28  5.1295e-26  5.0374e-28  5.1296e-26  6.3375e-28  5.1298e-26  8.6493e-28  5.1301e-26  1.276e-27  5.1308e-26  2.0071e-27  5.1319e-26  3.3072e-27  5.1339e-26  5.6191e-27  5.1375e-26  9.7305e-27  5.1439e-26  1.7042e-26  5.1552e-26  3.0046e-26  5.1755e-26  5.3168e-26  5.2118e-26  9.4308e-26  5.2771e-26  1.6751e-25  5.3957e-26  2.978e-25  5.6138e-26  5.299e-25  6.0219e-26  9.4395e-25  6.8011e-26  1.6849e-24
      2.55  5.1221e-26  4.3632e-28  5.1221e-26  4.8229e-28  5.1222e-26  5.6404e-28  5.1223e-26  7.0942e-28  5.1225e-26  9.6794e-28  5.1228e-26  1.4277e-27  5.1234e-26  2.2452e-27  5.1246e-26  3.699e-27  5.1266e-26  6.2844e-27  5.1301e-26  1.0882e-26  5.1364e-26  1.9059e-26  5.1477e-26  3.3603e-26  5.1677e-26  5.9473e-26  5.2037e-26  1.055e-25  5.2685e-26  1.8743e-25  5.3861e-26  3.3338e-25  5.6025e-26  5.9368e-25  6.0079e-26  1.0589e-24  6.783e-26  1.8938e-24
      2.60  5.1145e-26  4.8803e-28  5.1145e-26  5.389e-28  5.1145e-26  6.2937e-28  5.1147e-26  7.9024e-28  5.1149e-26  1.0763e-27  5.1152e-26  1.5851e-27  5.1158e-26  2.4897e-27  5.1169e-26  4.0986e-27  5.1189e-26  6.9596e-27  5.1224e-26  1.2048e-26  5.1287e-26  2.1097e-26  5.1398e-26  3.7193e-26  5.1597e-26  6.5829e-26  5.1954e-26  1.1678e-25  5.2597e-26  2.0752e-25  5.3763e-26  3.6925e-25  5.5911e-26  6.5799e-25  5.9938e-26  1.1749e-24  6.7647e-26  2.1045e-24
      2.65  5.1066e-26  5.4517e-28  5.1066e-26  6.0094e-28  5.1066e-26  7.0011e-28  5.1068e-26  8.7646e-28  5.107e-26  1.1901e-27  5.1073e-26  1.7478e-27  5.1079e-26  2.7395e-27  5.109e-26  4.5032e-27  5.111e-26  7.6396e-27  5.1145e-26  1.3218e-26  5.1207e-26  2.3138e-26  5.1317e-26  4.0786e-26  5.1515e-26  7.2183e-26  5.1868e-26  1.2806e-25  5.2506e-26  2.276e-25  5.3663e-26  4.0509e-25  5.5795e-26  7.2222e-25  5.9795e-26  1.2907e-24  6.7464e-26  2.315e-24
      2.70  5.0983e-26  6.0834e-28  5.0984e-26  6.6897e-28  5.0984e-26  7.7677e-28  5.0985e-26  9.6849e-28  5.0987e-26  1.3094e-27  5.0991e-26  1.9157e-27  5.0997e-26  2.9938e-27  5.1008e-26  4.9111e-27  5.1027e-26  8.3207e-27  5.1062e-26  1.4385e-26  5.1123e-26  2.517e-26  5.1233e-26  4.4356e-26  5.1429e-26  7.8494e-26  5.178e-26  1.3925e-25  5.2412e-26  2.4752e-25  5.3561e-26  4.4065e-25  5.5677e-26  7.8594e-25  5.9651e-26  1.4055e-24  6.7279e-26  2.5236e-24
      2.75  5.0898e-26  6.7822e-28  5.0898e-26  7.4362e-28  5.0899e-26  8.5993e-28   5.09e-26  1.0668e-27  5.0902e-26  1.4346e-27  5.0906e-26  2.0886e-27  5.0912e-26  3.2518e-27  5.0922e-26  5.3202e-27  5.0942e-26  8.9988e-27  5.0976e-26  1.5541e-26  5.1037e-26  2.7177e-26  5.1146e-26  4.7877e-26  5.1341e-26  8.4712e-26  5.169e-26  1.5028e-25  5.2318e-26  2.6712e-25  5.346e-26  4.7562e-25  5.5564e-26  8.4855e-25  5.9519e-26  1.5182e-24  6.7119e-26  2.728e-24
      2.80  5.0809e-26  7.5605e-28  5.081e-26  8.2617e-28  5.081e-26  9.5087e-28  5.0812e-26  1.1726e-27  5.0813e-26  1.567e-27  5.0817e-26  2.2682e-27  5.0823e-26  3.5153e-27  5.0834e-26  5.733e-27  5.0853e-26  9.677e-27  5.0887e-26  1.6691e-26  5.0948e-26  2.9168e-26  5.1056e-26  5.1363e-26  5.125e-26  9.0858e-26  5.1596e-26  1.6116e-25  5.2221e-26  2.8647e-25  5.3357e-26  5.1012e-25  5.545e-26  9.1031e-25  5.9386e-26  1.6293e-24  6.6957e-26  2.9295e-24
      2.85  5.0717e-26  8.4239e-28  5.0718e-26  9.1718e-28  5.0718e-26  1.0502e-27  5.0719e-26  1.2867e-27  5.0721e-26  1.7073e-27  5.0725e-26  2.4553e-27  5.0731e-26  3.7854e-27  5.0741e-26  6.1509e-27  5.076e-26  1.0358e-26  5.0794e-26  1.7839e-26  5.0855e-26  3.1147e-26  5.0963e-26  5.4821e-26  5.1155e-26  9.6951e-26   5.15e-26  1.7195e-25  5.2121e-26  3.0563e-25  5.3251e-26  5.4427e-25  5.5333e-26  9.714e-25  5.925e-26  1.7392e-24  6.6793e-26  3.1284e-24
      2.90  5.0622e-26  9.383e-28  5.0622e-26  1.0177e-27  5.0623e-26  1.159e-27  5.0624e-26  1.4102e-27  5.0625e-26  1.8569e-27  5.0629e-26  2.6514e-27  5.0635e-26  4.0641e-27  5.0646e-26  6.5764e-27  5.0665e-26  1.1044e-26  5.0698e-26  1.8991e-26  5.0758e-26  3.3125e-26  5.0866e-26  5.827e-26  5.1057e-26  1.0302e-25   5.14e-26  1.8268e-25  5.2018e-26  3.2469e-25  5.3141e-26  5.7822e-25  5.5213e-26  1.0321e-24  5.911e-26  1.8483e-24  6.6622e-26  3.326e-24
      2.95  5.0522e-26  1.045e-27  5.0522e-26  1.1291e-27  5.0523e-26  1.2786e-27  5.0524e-26  1.5445e-27  5.0526e-26  2.0173e-27  5.0529e-26  2.8581e-27  5.0535e-26  4.3534e-27  5.0546e-26  7.0125e-27  5.0565e-26  1.1742e-26  5.0598e-26  2.0152e-26  5.0658e-26  3.5112e-26  5.0765e-26  6.1727e-26  5.0955e-26  1.0909e-25  5.1296e-26  1.9341e-25  5.1911e-26  3.4374e-25  5.3028e-26  6.1215e-25  5.5088e-26  1.0927e-24  5.8965e-26  1.9572e-24  6.6441e-26  3.5233e-24
      3.00  5.0419e-26  1.1639e-27  5.0419e-26  1.2526e-27  5.0419e-26  1.4105e-27  5.0421e-26  1.6911e-27  5.0422e-26  2.1901e-27  5.0426e-26  3.0776e-27  5.0432e-26  4.6558e-27  5.0442e-26  7.4624e-27  5.0461e-26  1.2454e-26  5.0494e-26  2.1331e-26  5.0554e-26  3.7121e-26  5.066e-26  6.5212e-26  5.0849e-26  1.1521e-25  5.1189e-26  2.0423e-25   5.18e-26  3.6289e-25  5.2911e-26  6.4625e-25  5.4959e-26  1.1537e-24  5.8812e-26  2.0668e-24  6.6246e-26  3.7216e-24
      3.05  5.0311e-26  1.2976e-27  5.0311e-26  1.3909e-27  5.0312e-26  1.557e-27  5.0313e-26  1.8523e-27  5.0315e-26  2.3774e-27  5.0318e-26  3.3113e-27  5.0324e-26  4.972e-27  5.0334e-26  7.9252e-27  5.0353e-26  1.3177e-26  5.0386e-26  2.2519e-26  5.0446e-26  3.9134e-26  5.0551e-26  6.8694e-26  5.0739e-26  1.213e-25  5.1077e-26  2.1498e-25  5.1684e-26  3.8195e-25  5.2789e-26  6.8018e-25  5.4823e-26  1.2143e-24  5.865e-26  2.1757e-24  6.6034e-26  3.919e-24
      3.10  5.0199e-26  1.4461e-27  5.0199e-26  1.5442e-27   5.02e-26  1.7186e-27  5.0201e-26  2.0288e-27  5.0203e-26  2.5804e-27  5.0206e-26  3.5613e-27  5.0212e-26  5.3058e-27  5.0222e-26  8.408e-27  5.0241e-26  1.3925e-26  5.0274e-26  2.3737e-26  5.0333e-26  4.1191e-26  5.0438e-26  7.2242e-26  5.0625e-26  1.275e-25  5.0961e-26  2.2592e-25  5.1564e-26  4.0133e-25  5.2661e-26  7.1466e-25  5.4681e-26  1.276e-24  5.8478e-26  2.2866e-24  6.5802e-26   4.12e-24
      3.15  5.0082e-26  1.6131e-27  5.0083e-26  1.716e-27  5.0083e-26  1.8991e-27  5.0084e-26  2.2245e-27  5.0086e-26  2.8033e-27  5.0089e-26  3.8326e-27  5.0095e-26  5.663e-27  5.0106e-26  8.9181e-27  5.0124e-26  1.4707e-26  5.0157e-26  2.5003e-26  5.0216e-26  4.3317e-26  5.032e-26  7.5899e-26  5.0506e-26  1.3389e-25  5.084e-26  2.3716e-25  5.144e-26  4.2123e-25  5.2529e-26  7.5009e-25  5.4533e-26  1.3394e-24  5.8294e-26  2.4006e-24  6.5544e-26  4.3273e-24
      3.20  4.9961e-26  1.8006e-27  4.9961e-26  1.9086e-27  4.9962e-26  2.1006e-27  4.9963e-26  2.442e-27  4.9965e-26  3.0492e-27  4.9968e-26  4.129e-27  4.9974e-26  6.0492e-27  4.9984e-26  9.464e-27  5.0003e-26  1.5537e-26  5.0035e-26  2.6338e-26  5.0094e-26  4.5551e-26  5.0197e-26  7.9733e-26  5.0383e-26  1.4057e-25  5.0714e-26  2.4892e-25  5.131e-26  4.4205e-25  5.2391e-26  7.8716e-25  5.4377e-26  1.4057e-24  5.8098e-26  2.5202e-24  6.5259e-26  4.5449e-24
      3.25  4.9835e-26  2.0103e-27  4.9835e-26  2.1236e-27  4.9836e-26  2.3253e-27  4.9837e-26  2.6838e-27  4.9839e-26  3.3215e-27  4.9842e-26  4.4554e-27  4.9848e-26  6.4718e-27  4.9858e-26  1.0058e-26  4.9876e-26  1.6435e-26  4.9909e-26  2.7778e-26  4.9967e-26  4.7954e-26  5.007e-26  8.385e-26  5.0254e-26  1.4774e-25  5.0583e-26  2.6153e-25  5.1175e-26  4.6438e-25  5.2247e-26  8.2692e-25  5.4213e-26  1.4769e-24  5.7888e-26  2.6487e-24  6.4942e-26  4.7795e-24
      3.30  4.9704e-26  2.2471e-27  4.9704e-26  2.3665e-27  4.9705e-26  2.5788e-27  4.9706e-26  2.9563e-27  4.9708e-26  3.6276e-27  4.9711e-26  4.8214e-27  4.9717e-26  6.9444e-27  4.9727e-26  1.072e-26  4.9745e-26  1.7434e-26  4.9777e-26  2.9376e-26  4.9835e-26  5.0619e-26  4.9938e-26  8.8413e-26  5.0121e-26  1.5568e-25  5.0448e-26  2.755e-25  5.1036e-26  4.8912e-25  5.2098e-26  8.7098e-25  5.4042e-26  1.5558e-24  5.7665e-26  2.7914e-24  6.4595e-26  5.0407e-24
      3.35  4.9567e-26  2.5128e-27  4.9568e-26  2.6391e-27  4.9568e-26  2.8637e-27  4.9569e-26  3.2632e-27  4.9571e-26  3.9735e-27  4.9574e-26  5.2367e-27  4.958e-26  7.4832e-27  4.959e-26  1.1478e-26  4.9608e-26  1.8583e-26  4.964e-26  3.122e-26  4.9698e-26  5.3698e-26   4.98e-26  9.3692e-26  4.9982e-26  1.6488e-25  5.0307e-26  2.9168e-25  5.0891e-26  5.1784e-25  5.1944e-26  9.2203e-25  5.3866e-26  1.6474e-24  5.7432e-26  2.9568e-24  6.4222e-26  5.3441e-24
      3.40  4.9425e-26  2.8109e-27  4.9425e-26  2.9454e-27  4.9426e-26  3.1847e-27  4.9427e-26  3.6101e-27  4.9429e-26  4.3665e-27  4.9432e-26  5.7118e-27  4.9438e-26  8.1041e-27  4.9448e-26  1.2359e-26  4.9466e-26  1.9925e-26  4.9498e-26  3.3382e-26  4.9555e-26  5.7321e-26  4.9657e-26  9.9914e-26  4.9838e-26  1.7573e-25  5.0161e-26  3.1079e-25  5.0741e-26  5.517e-25  5.1785e-26  9.8235e-25  5.3684e-26  1.7555e-24  5.7191e-26  3.1524e-24  6.3831e-26  5.703e-24
      3.45  4.9277e-26  3.1458e-27  4.9277e-26  3.2902e-27  4.9278e-26  3.5471e-27  4.9279e-26  4.0039e-27  4.9281e-26  4.8161e-27  4.9284e-26  6.2606e-27  4.929e-26  8.8293e-27   4.93e-26  1.3397e-26  4.9318e-26  2.1522e-26  4.935e-26  3.5972e-26  4.9407e-26  6.1676e-26  4.9508e-26  1.0741e-25  4.9688e-26  1.8882e-25  5.001e-26  3.3386e-25  5.0586e-26  5.926e-25  5.1621e-26  1.0552e-24  5.3499e-26  1.886e-24  5.6949e-26  3.3885e-24  6.3435e-26  6.1359e-24
      3.50  4.9123e-26  3.5222e-27  4.9123e-26  3.6788e-27  4.9124e-26  3.9573e-27  4.9125e-26  4.4526e-27  4.9127e-26  5.3333e-27  4.913e-26  6.8996e-27  4.9135e-26  9.6848e-27  4.9146e-26  1.4638e-26  4.9163e-26  2.3447e-26  4.9195e-26  3.9115e-26  4.9252e-26  6.6987e-26  4.9353e-26  1.1658e-25  4.9533e-26  2.0486e-25  4.9853e-26  3.6214e-25  5.0426e-26  6.4275e-25  5.1454e-26  1.1445e-24  5.3312e-26  2.0461e-24  5.6709e-26  3.6775e-24  6.3049e-26  6.6653e-24
      3.55  4.8962e-26  3.9502e-27  4.8963e-26  4.1219e-27  4.8963e-26  4.4273e-27  4.8964e-26  4.9703e-27  4.8966e-26  5.9361e-27  4.8969e-26  7.6535e-27  4.8975e-26  1.0708e-26  4.8985e-26  1.6139e-26  4.9003e-26  2.5798e-26  4.9035e-26  4.2979e-26  4.9091e-26  7.3541e-26  4.9192e-26  1.2792e-25  4.9371e-26  2.2473e-25  4.9691e-26  3.972e-25  5.0261e-26  7.0494e-25  5.1283e-26  1.2553e-24  5.3125e-26  2.2444e-24  5.6477e-26  4.0351e-24  6.2688e-26  7.3187e-24
      3.60  4.8795e-26  4.4319e-27  4.8796e-26  4.6223e-27  4.8796e-26  4.961e-27  4.8797e-26  5.5632e-27  4.8799e-26  6.6341e-27  4.8802e-26  8.5385e-27  4.8808e-26  1.1925e-26  4.8818e-26  1.7948e-26  4.8836e-26  2.8659e-26  4.8867e-26  4.7711e-26  4.8924e-26  8.1601e-26  4.9024e-26  1.419e-25  4.9203e-26  2.4925e-25  4.9522e-26  4.4052e-25  5.0091e-26  7.8178e-25  5.1109e-26  1.3921e-24  5.2938e-26  2.4892e-24  5.6256e-26  4.4762e-24  6.2364e-26  8.1226e-24
      3.65  4.8621e-26  4.9748e-27  4.8621e-26  5.1886e-27  4.8622e-26  5.5687e-27  4.8623e-26  6.2447e-27  4.8625e-26  7.4467e-27  4.8628e-26  9.5844e-27  4.8634e-26  1.3386e-26  4.8644e-26  2.0146e-26  4.8662e-26  3.217e-26  4.8693e-26  5.3555e-26  4.875e-26  9.1596e-26  4.885e-26  1.5929e-25  4.9029e-26  2.7978e-25  4.9348e-26  4.9447e-25  4.9916e-26  8.7754e-25  5.0932e-26  1.5626e-24  5.2755e-26  2.7941e-24  5.6051e-26  5.0245e-24  6.209e-26  9.1189e-24
      3.70  4.844e-26  5.5906e-27  4.844e-26  5.8338e-27  4.8441e-26  6.2664e-27  4.8442e-26  7.0355e-27  4.8444e-26  8.4032e-27  4.8447e-26  1.0835e-26  4.8452e-26  1.5161e-26  4.8463e-26  2.2853e-26  4.848e-26  3.6533e-26  4.8512e-26  6.0865e-26  4.8569e-26  1.0415e-25  4.867e-26  1.8116e-25  4.8849e-26  3.1826e-25  4.9168e-26  5.6252e-25  4.9738e-26  9.983e-25  5.0755e-26  1.7776e-24  5.258e-26  3.1781e-24  5.5874e-26  5.714e-24  6.1892e-26  1.0367e-23
      3.75  4.8251e-26  6.3244e-27  4.8252e-26  6.6057e-27  4.8252e-26  7.1059e-27  4.8253e-26  7.9953e-27  4.8255e-26  9.577e-27  4.8258e-26  1.239e-26  4.8264e-26  1.7392e-26  4.8274e-26  2.6287e-26  4.8292e-26  4.2107e-26  4.8324e-26  7.0244e-26  4.8381e-26  1.203e-25  4.8483e-26  2.0935e-25  4.8664e-26  3.6788e-25  4.8985e-26  6.5028e-25  4.9559e-26  1.154e-24  5.0585e-26  2.0547e-24  5.2423e-26  3.6724e-24  5.5742e-26  6.599e-24  6.1804e-26  1.196e-23
      3.80  4.847e-26  7.5156e-27  4.8471e-26  7.8473e-27  4.8471e-26  8.4372e-27  4.8472e-26  9.4861e-27  4.8474e-26  1.1351e-26  4.8477e-26  1.4668e-26  4.8483e-26  2.0567e-26  4.8493e-26  3.1057e-26  4.8512e-26  4.9714e-26  4.8544e-26  8.2895e-26  4.8602e-26  1.4192e-25  4.8704e-26  2.4693e-25  4.8886e-26  4.3384e-25  4.9211e-26  7.6675e-25  4.979e-26  1.3604e-24  5.0825e-26  2.4212e-24  5.2683e-26  4.3248e-24  5.604e-26  7.7627e-24  6.2188e-26  1.4041e-23
      3.85  4.8335e-26  1.1409e-26  4.8335e-26  1.181e-26  4.8336e-26  1.2523e-26  4.8337e-26  1.3791e-26  4.8339e-26  1.6046e-26  4.8342e-26  2.0056e-26  4.8348e-26  2.7186e-26  4.8359e-26  3.9867e-26  4.8377e-26  6.2419e-26  4.8411e-26  1.0253e-25  4.847e-26  1.7387e-25  4.8575e-26  3.0078e-25  4.8763e-26  5.2663e-25  4.9098e-26  9.2876e-25  4.9694e-26  1.6455e-24  5.0761e-26  2.9247e-24  5.2677e-26  5.216e-24  5.6146e-26   9.34e-24  6.2513e-26  1.6827e-23
      3.90  4.8205e-26  3.0468e-26  4.8205e-26  3.0969e-26  4.8206e-26  3.1859e-26  4.8207e-26  3.3443e-26  4.8209e-26  3.626e-26  4.8212e-26  4.1268e-26  4.8219e-26  5.0174e-26  4.823e-26  6.6012e-26  4.8249e-26  9.4178e-26  4.8284e-26  1.4427e-25  4.8346e-26  2.3335e-25  4.8457e-26  3.9181e-25  4.8653e-26  6.7369e-25  4.9004e-26  1.1753e-24  4.9629e-26  2.0683e-24  5.0747e-26  3.6594e-24  5.2757e-26  6.4999e-24  5.6398e-26  1.1583e-23  6.3091e-26  2.0716e-23
      3.95  4.8082e-26  1.2102e-25  4.8083e-26  1.2167e-25  4.8083e-26  1.2281e-25  4.8085e-26  1.2484e-25  4.8087e-26  1.2845e-25  4.809e-26  1.3488e-25  4.8097e-26  1.4631e-25  4.8109e-26  1.6663e-25  4.813e-26  2.0277e-25  4.8167e-26  2.6702e-25  4.8233e-26  3.8129e-25  4.8351e-26  5.8446e-25  4.8561e-26  9.4572e-25  4.8934e-26  1.588e-24  4.9601e-26  2.7296e-24  5.0792e-26  4.7576e-24  5.2932e-26  8.3596e-24  5.6804e-26  1.4747e-23  6.3905e-26  2.6043e-23
