# This was generated using Cloudy10 and the columns are ordered 
# as log10 of the fraction of the metallicity to the solar metallicity
# 'h_*_Z' and 'c_*_Z' stands for cooling and heating respectively 
# at * metalicity
#
# Redshift = 4.5
# hden = 5.0
#     temp   h_-3.00_Z   c_-3.00_Z   h_-2.75_Z   c_-2.75_Z   h_-2.50_Z   c_-2.50_Z   h_-2.25_Z   c_-2.25_Z   h_-2.00_Z   c_-2.00_Z   h_-1.75_Z   c_-1.75_Z   h_-1.50_Z   c_-1.50_Z   h_-1.25_Z   c_-1.25_Z   h_-1.00_Z   c_-1.00_Z   h_-0.75_Z   c_-0.75_Z   h_-0.50_Z   c_-0.50_Z   h_-0.25_Z   c_-0.25_Z    h_0.00_Z    c_0.00_Z    h_0.25_Z    c_0.25_Z    h_0.50_Z    c_0.50_Z    h_0.75_Z    c_0.75_Z    h_1.00_Z    c_1.00_Z    h_1.25_Z    c_1.25_Z    h_1.50_Z    c_1.50_Z 
      4.00  5.8965e-29  1.4517e-26  5.8966e-29  1.4541e-26  5.8967e-29  1.4584e-26  5.897e-29  1.4661e-26  5.8975e-29  1.4796e-26  5.8983e-29  1.5035e-26  5.8998e-29  1.5461e-26  5.9024e-29  1.622e-26  5.907e-29  1.7572e-26  5.9149e-29  1.9979e-26  5.929e-29  2.4247e-26  5.9551e-29  3.1737e-26  6.0081e-29  4.4705e-26  6.1265e-29  6.665e-26  6.3834e-29  1.0263e-25  6.8705e-29  1.605e-25  7.7549e-29  2.5744e-25  9.5132e-29  4.5908e-25  1.3089e-28  9.7938e-25
      4.05  5.8068e-29  1.3732e-25  5.8074e-29  1.3738e-25  5.8084e-29  1.375e-25  5.8103e-29  1.3769e-25  5.8137e-29  1.3804e-25  5.8196e-29  1.3869e-25  5.8302e-29  1.3982e-25  5.849e-29  1.4182e-25  5.8822e-29  1.4538e-25  5.9408e-29  1.5169e-25  6.0437e-29  1.628e-25  6.2228e-29  1.8211e-25  6.5288e-29  2.1482e-25  7.0308e-29  2.6763e-25  7.7836e-29  3.4576e-25  8.7379e-29  4.4662e-25  9.7422e-29  5.7014e-25  1.1082e-28  8.1681e-25  1.3622e-28  1.5658e-24
      4.10  5.365e-29  2.5116e-24  5.3697e-29  2.512e-24  5.378e-29  2.5129e-24  5.3929e-29  2.5143e-24  5.4192e-29  2.517e-24  5.4661e-29  2.5217e-24  5.5494e-29  2.5301e-24  5.6973e-29  2.5449e-24   5.96e-29  2.5713e-24  6.4256e-29  2.6182e-24  7.2488e-29  2.7013e-24  8.698e-29  2.8482e-24  1.1229e-28  3.1065e-24  1.5583e-28  3.5552e-24  2.2875e-28  4.3176e-24  3.4455e-28  5.5559e-24  5.0912e-28  7.3859e-24  6.8599e-28  9.526e-24  7.3059e-28  1.0527e-23
      4.15  4.5223e-29  2.3423e-23  4.5401e-29  2.3426e-23  4.5718e-29  2.343e-23  4.6281e-29  2.3438e-23  4.7282e-29  2.3451e-23  4.9063e-29  2.3476e-23  5.223e-29  2.3519e-23  5.786e-29  2.3596e-23  6.7866e-29  2.3732e-23  8.5648e-29  2.3975e-23  1.1723e-28  2.4406e-23  1.7325e-28  2.5172e-23  2.7245e-28  2.653e-23  4.4754e-28  2.8937e-23  7.547e-28  3.3182e-23  1.2877e-27  4.0624e-23  2.1945e-27  5.351e-23  3.6808e-27  7.5325e-23  5.9498e-27  1.1075e-22
      4.20  3.8976e-29  8.6024e-23  3.9344e-29  8.6031e-23  3.9996e-29  8.6043e-23  4.1157e-29  8.6066e-23  4.3222e-29  8.6105e-23  4.6893e-29  8.6176e-23  5.3421e-29  8.6302e-23  6.503e-29  8.6526e-23  8.5672e-29  8.6924e-23  1.2238e-28  8.7632e-23  1.8763e-28  8.889e-23  3.0365e-28  9.1129e-23  5.0986e-28  9.511e-23  8.7627e-28  1.0219e-22  1.5268e-27  1.1478e-22  2.6806e-27  1.3718e-22  4.7232e-27  1.7701e-22  8.324e-27  2.4787e-22  1.4627e-26  3.7387e-22
      4.25  6.2396e-29  1.2937e-22  6.2667e-29  1.2939e-22  6.3148e-29  1.2941e-22  6.4003e-29  1.2944e-22  6.5524e-29  1.295e-22  6.8228e-29  1.2961e-22  7.3037e-29  1.2981e-22  8.159e-29  1.3015e-22  9.6801e-29  1.3077e-22  1.2386e-28  1.3187e-22  1.7198e-28  1.3383e-22  2.5762e-28  1.373e-22  4.1007e-28  1.4349e-22  6.8168e-28  1.545e-22  1.1663e-27  1.7412e-22  2.033e-27  2.0913e-22  3.5896e-27  2.7176e-22  6.4052e-27  3.8431e-22  1.156e-26  5.8821e-22
      4.30  1.4782e-28  1.2045e-22  1.4766e-28  1.2046e-22  1.4737e-28  1.2048e-22  1.4684e-28  1.2052e-22  1.4592e-28  1.2059e-22  1.4427e-28  1.2072e-22  1.4134e-28  1.2095e-22  1.3614e-28  1.2135e-22  1.2688e-28  1.2206e-22  1.2344e-28  1.2333e-22  2.0804e-28  1.2559e-22  3.5862e-28  1.296e-22  6.2674e-28  1.3674e-22  1.1046e-27  1.4946e-22  1.9578e-27  1.7212e-22  3.4848e-27  2.1257e-22  6.2279e-27  2.8499e-22  1.1184e-26  4.1533e-22  2.0221e-26  6.5203e-22
      4.35  3.1154e-28  9.6255e-23  3.1079e-28  9.627e-23  3.0945e-28  9.6297e-23  3.0707e-28  9.6345e-23  3.0285e-28  9.6431e-23  2.9533e-28  9.6583e-23  2.8197e-28  9.6853e-23  2.5821e-28  9.7334e-23  2.1597e-28  9.8188e-23  1.7535e-28  9.9708e-23  2.9809e-28  1.0241e-22  5.1666e-28  1.0722e-22  9.0621e-28  1.1578e-22  1.6016e-27  1.3102e-22  2.8458e-27  1.5817e-22  5.0796e-27  2.0664e-22  9.1085e-27  2.9341e-22  1.642e-26  4.4958e-22  2.9726e-26  7.3323e-22
      4.40  4.665e-28  7.5819e-23  4.6521e-28  7.5839e-23  4.629e-28  7.5874e-23  4.588e-28  7.5936e-23  4.5152e-28  7.6047e-23  4.3856e-28  7.6245e-23  4.1552e-28  7.6596e-23  3.7456e-28  7.7221e-23  3.0175e-28  7.8333e-23  2.324e-28  8.0309e-23  3.9557e-28  8.3825e-23  6.865e-28  9.008e-23  1.2062e-27  1.0121e-22  2.1369e-27  1.2102e-22   3.81e-27  1.5632e-22  6.8312e-27  2.1931e-22  1.2309e-26  3.3203e-22  2.2064e-26  5.3479e-22  3.9597e-26  9.0266e-22
      4.45  4.5326e-28  6.011e-23  4.5151e-28  6.0137e-23  4.4839e-28  6.0184e-23  4.4284e-28  6.0268e-23  4.3298e-28  6.0417e-23  4.1545e-28  6.0683e-23  3.8429e-28  6.1155e-23  3.2889e-28  6.1994e-23  2.3048e-28  6.3487e-23  2.8732e-28  6.6143e-23  4.8934e-28  7.0866e-23  8.5121e-28  7.9267e-23  1.5021e-27  9.4215e-23  2.6787e-27  1.2082e-22  4.8166e-27  1.6823e-22  8.659e-27  2.5281e-22  1.5428e-26  4.0418e-22  2.7437e-26  6.7635e-22  4.8965e-26  1.1699e-21
      4.50  3.3385e-28  4.742e-23  3.3172e-28  4.7455e-23  3.2795e-28  4.7519e-23  3.2123e-28  4.7632e-23  3.0929e-28  4.7832e-23  2.8807e-28  4.8189e-23  2.5035e-28  4.8824e-23  1.8334e-28  4.9953e-23  1.9095e-28  5.196e-23  3.1989e-28  5.553e-23  5.5107e-28  6.1879e-23  9.6761e-28  7.3173e-23  1.723e-27  9.3268e-23  3.1027e-27  1.2904e-22  5.5624e-27  1.9279e-22  9.8896e-27  3.0658e-22  1.759e-26  5.1026e-22  3.1269e-26  8.7669e-22  5.6068e-26  1.5418e-21
      4.55  2.2489e-28  3.7613e-23  2.2257e-28  3.7661e-23  2.1845e-28  3.7746e-23  2.1111e-28  3.7898e-23  1.9807e-28  3.8167e-23  1.749e-28  3.8646e-23  1.3371e-28  3.9498e-23  1.1455e-28  4.1013e-23  1.9021e-28  4.3706e-23  3.2576e-28  4.8497e-23  5.6978e-28  5.7018e-23  1.0123e-27  7.2176e-23  1.8226e-27  9.9148e-23  3.2648e-27  1.4717e-22  5.8218e-27  2.3276e-22  1.0381e-26  3.8558e-22  1.8419e-26  6.5923e-22  3.2834e-26  1.1519e-21  5.907e-26  2.0473e-21
      4.60  1.5225e-28  3.0383e-23  1.502e-28  3.075e-23  1.4618e-28  3.0866e-23  1.389e-28  3.0763e-23  1.2632e-28  3.1434e-23  1.0374e-28  3.2082e-23  6.3924e-29  3.2905e-23  1.0426e-28  3.4932e-23  1.7739e-28  3.8537e-23  3.0882e-28  4.495e-23  5.4674e-28  5.6354e-23  9.8208e-28  7.6643e-23  1.7608e-27  1.1275e-22  3.1545e-27  1.7704e-22  5.6241e-27  2.9163e-22  1.0011e-26  4.9625e-22  1.7813e-26  8.628e-22  3.1826e-26  1.5232e-21  5.7379e-26  2.7249e-21
      4.65  1.0758e-28  2.586e-23  1.0567e-28  2.5946e-23  1.0228e-28  2.6097e-23  9.6261e-29  2.6368e-23  8.5556e-29  2.6848e-23  6.6538e-29  2.7702e-23  5.5327e-29  2.9221e-23  9.2725e-29  3.1923e-23  1.5979e-28  3.6728e-23  2.8081e-28  4.5273e-23  5.013e-28  6.0473e-23  9.0108e-28  8.7514e-23  1.6188e-27  1.3564e-22  2.8961e-27  2.2134e-22  5.1902e-27  3.7411e-22  9.2582e-27  6.4701e-22  1.6482e-26  1.1361e-21  2.9482e-26  2.0182e-21  5.3257e-26  3.6259e-21
      4.70  8.0729e-29  2.487e-23  7.9368e-29  2.4983e-23  7.6948e-29  2.5184e-23  7.2647e-29  2.5542e-23  6.5006e-29  2.6178e-23  5.1439e-29  2.7309e-23  5.1018e-29  2.932e-23  8.5692e-29  3.2897e-23  1.4801e-28  3.9259e-23  2.6091e-28  5.0573e-23  4.6799e-28  7.0698e-23  8.4189e-28  1.065e-22  1.5185e-27  1.7024e-22  2.7254e-27  2.8375e-22  4.8644e-27  4.8618e-22  8.6552e-27  8.4799e-22  1.5443e-26  1.4972e-21  2.7691e-26  2.6699e-21  5.0182e-26  4.8135e-21
      4.75  6.4209e-29  2.9674e-23  6.3494e-29  2.9822e-23  6.2222e-29  3.0084e-23  5.9964e-29  3.0551e-23  5.5957e-29  3.1381e-23  4.886e-29  3.2856e-23  5.1726e-29  3.548e-23  8.615e-29  4.0146e-23  1.4826e-28  4.8445e-23  2.6137e-28  6.3205e-23  4.7056e-28  8.9461e-23  8.4684e-28  1.3618e-22  1.517e-27  2.1934e-22  2.7081e-27  3.675e-22  4.8273e-27  6.3184e-22  8.6008e-27  1.1046e-21  1.5362e-26  1.954e-21  2.7604e-26  3.4918e-21  5.0244e-26  6.3129e-21
      4.80  5.2784e-29  4.3383e-23  5.2736e-29  4.3571e-23  5.2654e-29  4.3906e-23  5.2512e-29  4.4501e-23  5.2273e-29  4.556e-23  5.1891e-29  4.7444e-23  5.6757e-29  5.0793e-23  9.339e-29  5.6749e-23  1.5988e-28  6.7342e-23  2.8234e-28  8.6182e-23  5.0629e-28  1.197e-22  9.0117e-28  1.7934e-22  1.6039e-27  2.8552e-22  2.8596e-27  4.7474e-22  5.0942e-27  8.1246e-22  9.0793e-27  1.4169e-21  1.6249e-26  2.5042e-21  2.9278e-26  4.4768e-21  5.3498e-26  8.1078e-21
      4.85  4.2311e-29  6.4732e-23  4.292e-29  6.4966e-23  4.4005e-29  6.5382e-23  4.5943e-29  6.6123e-23  4.9413e-29  6.744e-23  5.5663e-29  6.9783e-23  6.7019e-29  7.3948e-23  1.038e-28  8.1357e-23  1.7783e-28  9.4532e-23  3.1342e-28  1.1797e-22  5.5549e-28  1.5966e-22  9.8373e-28  2.3385e-22  1.7496e-27  3.6595e-22  3.1117e-27  6.0141e-22  5.5354e-27  1.0218e-21  9.8593e-27  1.7747e-21  1.7623e-26  3.1305e-21  3.1726e-26  5.5944e-21  5.7972e-26  1.0143e-20
      4.90  3.1574e-29  8.0595e-23  3.2779e-29  8.0876e-23  3.4925e-29  8.1377e-23  3.8758e-29  8.2266e-23  4.5626e-29  8.3848e-23  5.7998e-29  8.6662e-23  8.0501e-29  9.1665e-23  1.2206e-28  1.0056e-22  1.9952e-28  1.1639e-22  3.4276e-28  1.4454e-22  6.0409e-28  1.9461e-22  1.071e-27  2.8373e-22  1.9044e-27  4.4242e-22  3.3739e-27  7.2528e-22  5.9713e-27  1.2304e-21  1.0579e-26  2.1354e-21  1.882e-26  3.766e-21  3.371e-26  6.7326e-21  6.1412e-26  1.2219e-20
      4.95  2.2997e-29  7.9525e-23  2.4549e-29  7.9849e-23  2.7323e-29  8.0426e-23  3.2292e-29  8.1452e-23  4.1247e-29  8.3277e-23  5.7544e-29  8.6522e-23  8.7627e-29  9.2294e-23  1.446e-28  1.0256e-22  2.4953e-28  1.2081e-22   4.37e-28  1.5328e-22  7.7084e-28  2.1104e-22  1.3625e-27  3.1384e-22  2.3978e-27  4.969e-22  4.206e-27  8.2323e-22  7.3667e-27  1.4061e-21  1.2914e-26  2.4505e-21  2.2728e-26  4.3332e-21  4.0425e-26  7.7611e-21  7.3163e-26  1.411e-20
      5.00  1.7797e-29  6.757e-23  1.9372e-29  6.7928e-23  2.2203e-29  6.8565e-23  2.7336e-29  6.9699e-23  3.6768e-29  7.1714e-23  5.4426e-29  7.5298e-23  8.8658e-29  8.1671e-23  1.5488e-28  9.3006e-23  2.7743e-28  1.1316e-22  4.9969e-28  1.4902e-22  8.786e-28  2.1282e-22  1.5341e-27  3.2636e-22  2.6607e-27  5.2856e-22  4.5808e-27  8.8909e-22  7.8572e-27  1.5332e-21  1.3516e-26  2.6881e-21  2.3432e-26  4.7719e-21  4.1232e-26  8.5724e-21  7.3897e-26  1.5631e-20
      5.05   1.52e-29  5.4052e-23  1.6622e-29  5.4421e-23  1.924e-29  5.5076e-23  2.4174e-29  5.624e-23  3.3784e-29  5.8311e-23  5.3106e-29  6.1994e-23  9.0595e-29  6.8542e-23  1.6849e-28  8.0189e-23  3.2068e-28  1.009e-22  5.628e-28  1.3775e-22  9.6857e-28  2.0331e-22  1.643e-27    3.2e-22  2.7524e-27  5.2784e-22  4.5537e-27  8.9851e-22  7.5333e-27  1.5611e-21  1.2579e-26   2.75e-21  2.1396e-26  4.8981e-21  3.7171e-26  8.8251e-21  6.5679e-26  1.6147e-20
      5.10  1.4041e-29  4.2669e-23  1.532e-29  4.3027e-23  1.7853e-29  4.3664e-23  2.3152e-29  4.4796e-23  3.4804e-29  4.681e-23  5.6384e-29  5.039e-23  1.0372e-28  5.6758e-23  2.1023e-28  6.8082e-23  3.8323e-28  8.8223e-23  6.5522e-28  1.2405e-22  1.0827e-27  1.878e-22  1.7462e-27  3.0128e-22  2.7657e-27  5.0343e-22  4.3406e-27  8.6405e-22  6.8726e-27  1.509e-21  1.0997e-26  2.6672e-21  1.8025e-26  4.7629e-21  3.0653e-26  8.6037e-21  5.3778e-26  1.5794e-20
      5.15  1.3634e-29  3.3934e-23  1.4941e-29  3.429e-23  1.7911e-29  3.4922e-23  2.5197e-29  3.6046e-23  3.9403e-29  3.8045e-23  6.8923e-29   4.16e-23  1.3884e-28  4.7923e-23  2.6962e-28  5.9167e-23  4.7301e-28  7.9166e-23  7.7697e-28  1.1474e-22  1.213e-27  1.7805e-22  1.8434e-27  2.9074e-22  2.7624e-27  4.9153e-22  4.1292e-27  8.498e-22  5.9858e-27  1.4908e-21  9.1706e-27  2.6427e-21  1.4781e-26  4.7296e-21  2.4889e-26  8.5623e-21  4.3423e-26  1.5762e-20
      5.20  1.3657e-29  2.7402e-23  1.5275e-29  2.7769e-23  1.9511e-29  2.842e-23  3.042e-29  2.9579e-23  4.9998e-29  3.1639e-23  9.6115e-29  3.5302e-23  2.0259e-28  4.1817e-23  3.4909e-28  5.3405e-23  5.7284e-28  7.4014e-23  9.0345e-28  1.1068e-22  1.3465e-27  1.7592e-22  1.945e-27  2.9207e-22  2.7544e-27  4.9903e-22  3.6348e-27  8.6841e-22  5.121e-27  1.5295e-21  7.7259e-27  2.7182e-21  1.2372e-26  4.8741e-21  2.077e-26  8.8405e-21  3.6204e-26  1.6313e-20
      5.25  1.3959e-29  2.2507e-23  1.6303e-29  2.2884e-23  2.2958e-29  2.3555e-23  3.9511e-29  2.4748e-23  7.3771e-29  2.687e-23  1.3555e-28  3.0644e-23  2.5701e-28  3.7355e-23  4.2344e-28  4.9291e-23  6.5651e-28  7.0521e-23  9.9138e-28  1.0829e-22  1.439e-27  1.755e-22  2.0229e-27  2.9515e-22  2.5114e-27  5.0841e-22  3.3138e-27  8.8907e-22  4.698e-27  1.5706e-21  7.123e-27  2.7969e-21  1.1416e-26  5.0234e-21  1.9169e-26  9.1272e-21  3.3483e-26  1.6882e-20
      5.30  1.4703e-29  1.8799e-23  1.8673e-29  1.9183e-23  3.0365e-29  1.9865e-23  6.0722e-29  2.1077e-23  9.8617e-29  2.3233e-23  1.6902e-28  2.7068e-23  2.9673e-28  3.3887e-23  4.6738e-28  4.6015e-23  7.1476e-28  6.7587e-23  1.0376e-27  1.0596e-22  1.5141e-27  1.7426e-22  1.9146e-27  2.9587e-22  2.4141e-27  5.1261e-22  3.1589e-27  8.9961e-22  4.3864e-27  1.5927e-21  6.5354e-27  2.8408e-21  1.0215e-26  5.1096e-21  1.6901e-26  9.2998e-21  2.9283e-26  1.7243e-20
      5.35  1.6183e-29  1.5971e-23  2.3321e-29  1.6361e-23  4.4153e-29  1.7055e-23  7.6198e-29  1.8288e-23  1.1899e-28  2.0481e-23  1.9067e-28  2.4382e-23  3.2039e-28  3.1318e-23  4.9166e-28  4.3655e-23  7.3405e-28   6.56e-23  1.1117e-27  1.0464e-22  1.5466e-27  1.7412e-22  1.836e-27  2.9784e-22  2.2761e-27  5.1839e-22  2.9697e-27  9.1226e-22  4.1271e-27  1.618e-21  6.0384e-27  2.8897e-21  9.4655e-27  5.2041e-21  1.5679e-26  9.4874e-21  2.7221e-26  1.7634e-20
      5.40  1.7418e-29  1.3762e-23  2.7334e-29  1.4142e-23  5.1341e-29  1.4817e-23  7.9451e-29  1.6018e-23  1.2505e-28  1.8153e-23  1.9179e-28  2.1951e-23  3.0969e-28  2.8705e-23  5.0725e-28  4.0717e-23  7.6935e-28  6.2084e-23  1.2043e-27  1.001e-22  1.4835e-27  1.6775e-22  1.7789e-27  2.8824e-22  2.2457e-27  5.0305e-22  2.9759e-27  8.8677e-22  4.1914e-27  1.5746e-21  6.1685e-27  2.8152e-21  9.6311e-27  5.0762e-21  1.5943e-26  9.2706e-21  2.7671e-26  1.7279e-20
      5.45  1.5942e-29  1.1968e-23  2.355e-29  1.2286e-23  4.5013e-29  1.2852e-23  6.9243e-29  1.3858e-23  1.0725e-28  1.5648e-23   1.74e-28  1.8831e-23  2.8294e-28  2.4491e-23  4.6442e-28  3.4558e-23  7.872e-28  5.2463e-23  1.2637e-27  8.4319e-23  1.4949e-27  1.4102e-22  1.8443e-27  2.4202e-22  2.3667e-27  4.2211e-22  3.0879e-27  7.4394e-22  4.2505e-27  1.3212e-21  6.1874e-27  2.3636e-21  9.5597e-27  4.267e-21  1.5676e-26  7.8092e-21  2.712e-26  1.4607e-20
      5.50  1.3255e-29  1.0472e-23  1.6347e-29  1.0702e-23  2.516e-29  1.111e-23  4.9937e-29  1.1835e-23  8.4531e-29  1.3125e-23  1.4313e-28  1.5419e-23    2.5e-28  1.9499e-23  4.3951e-28  2.6755e-23  7.594e-28  3.9661e-23  1.2118e-27  6.2623e-23  1.5704e-27  1.035e-22  1.969e-27  1.7631e-22  2.4097e-27  3.0617e-22  3.0624e-27  5.3833e-22  4.0118e-27  9.5503e-22  5.5992e-27  1.7083e-21  8.389e-27  3.0864e-21  1.3431e-26  5.6593e-21  2.2833e-26  1.0621e-20
      5.55  1.1979e-29  9.3066e-24  1.3502e-29  9.4791e-24  1.7731e-29  9.7858e-24  3.0032e-29  1.0331e-23  6.1436e-29  1.1301e-23  1.2495e-28  1.3026e-23  2.4064e-28  1.6093e-23  4.4743e-28  2.1548e-23  7.9125e-28  3.125e-23  1.2094e-27  4.8514e-23  1.6025e-27  7.9247e-23  1.9673e-27   1.34e-22  2.3457e-27  2.3166e-22  2.8257e-27  4.0631e-22  3.5851e-27  7.1991e-22  4.8154e-27  1.2872e-21  6.981e-27  2.3264e-21  1.0914e-26  4.2705e-21  1.8208e-26  8.0316e-21
      5.60  1.1475e-29  8.4103e-24  1.3039e-29  8.5599e-24  1.7554e-29  8.8261e-24  3.0606e-29  9.2995e-24  5.5536e-29  1.0141e-23  1.1476e-28  1.1638e-23  2.4892e-28   1.43e-23  4.702e-28  1.9034e-23  8.684e-28  2.7455e-23  1.2029e-27  4.2439e-23  1.5699e-27  6.9115e-23  1.8147e-27  1.1664e-22  2.095e-27  2.0143e-22  2.4925e-27  3.5305e-22  3.1204e-27  6.254e-22  4.1353e-27  1.1183e-21  5.9137e-27  2.0218e-21  9.1369e-27  3.7142e-21  1.5109e-26  6.9945e-21
      5.65  1.112e-29  7.7109e-24  1.3138e-29  7.8537e-24  1.9018e-29  8.1078e-24  3.5249e-29  8.5596e-24  6.6942e-29  9.3631e-24  1.3087e-28  1.0792e-23  2.5958e-28  1.3333e-23  5.0306e-28  1.7852e-23  9.1989e-28  2.589e-23  1.2123e-27  4.0194e-23  1.5126e-27  6.5659e-23  1.6841e-27  1.1103e-22  1.9298e-27  1.9198e-22  2.275e-27  3.3675e-22  2.8491e-27  5.9684e-22  3.7762e-27  1.0677e-21  5.4081e-27  1.9313e-21  8.3669e-27  3.5502e-21  1.3869e-26  6.6924e-21
      5.70  1.0773e-29  7.1543e-24  1.3259e-29  7.2941e-24  2.0525e-29  7.5428e-24  4.1515e-29  7.985e-24  7.5831e-29  8.7714e-24  1.4825e-28  1.017e-23  2.9621e-28  1.2656e-23  5.7295e-28  1.7079e-23  9.1972e-28  2.5196e-23  1.1358e-27  3.8948e-23  1.3564e-27  6.3875e-23  1.5291e-27  1.0829e-22  1.748e-27  1.8752e-22  2.0683e-27  3.2926e-22  2.6113e-27  5.8392e-22  3.5256e-27  1.0451e-21  5.1325e-27  1.8913e-21  8.0553e-27  3.4791e-21  1.3518e-26  6.5644e-21
      5.75  1.016e-29  6.6475e-24  1.2866e-29  6.7806e-24  2.068e-29  7.0174e-24  4.1376e-29  7.4385e-24  8.1495e-29  8.1873e-24  1.6252e-28  9.5187e-24  3.3121e-28  1.1886e-23  6.0419e-28  1.6098e-23  8.0057e-28  2.3591e-23  9.8145e-28  3.6924e-23  1.1254e-27  6.0662e-23  1.2965e-27  1.0295e-22  1.5061e-27  1.7842e-22  1.8325e-27  3.1342e-22  2.3708e-27  5.5603e-22  3.2886e-27  9.955e-22  4.9288e-27  1.8024e-21  7.9289e-27  3.3178e-21  1.3576e-26  6.2667e-21
      5.80  9.5112e-30  6.257e-24  1.219e-29  6.3793e-24  1.9787e-29  6.5968e-24  4.0426e-29  6.9835e-24  8.4377e-29  7.6712e-24  1.8245e-28  8.8941e-24  3.4494e-28  1.1069e-23  5.4127e-28  1.4938e-23  6.8557e-28  2.1821e-23  8.3586e-28  3.4069e-23  9.4831e-28  5.5875e-23  1.131e-27  9.4727e-23  1.3526e-27  1.6406e-22  1.6859e-27  2.881e-22  2.2558e-27  5.1107e-22  3.2463e-27  9.1512e-22  5.0201e-27  1.6575e-21  8.2957e-27  3.0532e-21  1.4518e-26  5.7737e-21
      5.85  9.1079e-30  5.9598e-24  1.2174e-29  6.0752e-24  2.0481e-29  6.2803e-24  4.1964e-29  6.645e-24  9.3217e-29  7.2934e-24  2.0001e-28  8.4466e-24  3.1991e-28  1.0498e-23  4.7863e-28  1.4147e-23  6.0206e-28  2.0638e-23  7.5315e-28  3.2189e-23  8.8607e-28  5.2754e-23  1.0461e-27  8.9398e-23  1.2867e-27  1.5479e-22  1.662e-27  2.7181e-22  2.3139e-27  4.8219e-22  3.4578e-27  8.6358e-22  5.5282e-27  1.5648e-21  9.3658e-27  2.8844e-21  1.671e-26  5.4609e-21
      5.90  8.8524e-30  5.7434e-24  1.2567e-29  5.8586e-24  2.2429e-29  6.0634e-24   4.72e-29  6.4276e-24  1.0468e-28  7.0751e-24  2.0623e-28  8.2268e-24  3.2633e-28  1.0275e-23  4.3489e-28  1.392e-23  5.7483e-28  2.0402e-23  7.0331e-28  3.1939e-23  8.4215e-28  5.2478e-23  1.0085e-27  8.9076e-23  1.2834e-27  1.5439e-22  1.7445e-27  2.7128e-22  2.5369e-27  4.8149e-22  3.9495e-27  8.6269e-22  6.5212e-27  1.564e-21  1.1316e-26  2.885e-21  2.0555e-26  5.4681e-21
      5.95  8.4805e-30  5.5888e-24  1.2591e-29  5.7064e-24  2.3516e-29  5.9155e-24  5.094e-29  6.2873e-24  1.1396e-28  6.9485e-24  2.1495e-28  8.1242e-24  3.2995e-28  1.0216e-23  4.411e-28  1.3936e-23  5.5648e-28  2.0555e-23  6.7763e-28  3.2334e-23  8.3476e-28  5.3304e-23  1.0206e-27  9.0673e-23  1.3263e-27  1.5737e-22  1.8605e-27  2.7674e-22  2.8006e-27  4.9146e-22   4.48e-27  8.8098e-22  7.5525e-27  1.598e-21  1.3301e-26   2.95e-21  2.4438e-26  5.5977e-21
      6.00  7.834e-30  5.4796e-24  1.178e-29  5.5976e-24  2.243e-29  5.8075e-24  4.9722e-29  6.1806e-24  1.132e-28  6.844e-24  2.3025e-28  8.0238e-24  3.4272e-28  1.0122e-23  4.5373e-28  1.3856e-23  5.5971e-28  2.0498e-23  6.9517e-28  3.2317e-23  8.5684e-28  5.3361e-23  1.0921e-27  9.0862e-23  1.4737e-27  1.578e-22  2.1442e-27  2.7762e-22  3.3379e-27  4.9319e-22  5.4966e-27  8.8442e-22  9.4534e-27  1.6051e-21  1.6882e-26  2.9655e-21  3.1345e-26  5.6341e-21
      6.05  7.0231e-30  5.4228e-24  1.0348e-29  5.5375e-24  1.9508e-29  5.7414e-24  4.3769e-29  6.104e-24  1.0289e-28  6.7487e-24  2.3069e-28  7.895e-24  3.5415e-28  9.9343e-24  4.6564e-28  1.3562e-23  5.8029e-28  2.0016e-23  7.1098e-28  3.1502e-23  8.7648e-28  5.1952e-23  1.145e-27  8.8396e-23  1.6018e-27  1.5345e-22  2.408e-27  2.6993e-22  3.851e-27  4.7953e-22  6.4626e-27  8.601e-22  1.1261e-26  1.5617e-21  2.0294e-26  2.8877e-21  3.7948e-26  5.4939e-21
      6.10  6.3387e-30  5.3977e-24  9.0876e-30  5.5065e-24  1.6601e-29  5.6999e-24  3.6715e-29  6.0437e-24  8.7242e-29  6.6551e-24  2.0043e-28  7.7422e-24  3.3252e-28  9.6759e-24  4.653e-28  1.3247e-23  5.6273e-28  1.9236e-23  6.8246e-28  3.0128e-23  8.6934e-28  4.9521e-23  1.1705e-27  8.4084e-23  1.6965e-27  1.4579e-22  2.6338e-27  2.5628e-22  4.311e-27  4.5516e-22  7.3492e-27  8.1646e-22  1.2943e-26  1.483e-21  2.3498e-26  2.7446e-21  4.4192e-26  5.229e-21
      6.15  5.9958e-30    5.4e-24  8.516e-30  5.5009e-24  1.5075e-29  5.6803e-24  3.2082e-29  5.9992e-24  7.3115e-29  6.5664e-24  1.5252e-28  7.5748e-24  2.5034e-28  9.3684e-24  3.8343e-28  1.2559e-23  4.897e-28  1.8235e-23  6.1795e-28  2.8338e-23  8.1851e-28  4.6325e-23  1.1452e-27  7.8384e-23  1.7243e-27  1.3562e-22  2.7548e-27  2.3814e-22  4.6081e-27  4.2272e-22  7.9687e-27  7.5819e-22  1.4161e-26  1.3776e-21  2.5867e-26  2.5516e-21  4.8885e-26  4.868e-21
      6.20  5.7741e-30  5.4243e-24  8.2434e-30  5.5144e-24  1.4308e-29  5.6746e-24  2.8634e-29  5.9596e-24  5.8216e-29  6.4661e-24  1.1268e-28  7.3669e-24  1.8167e-28  8.969e-24  2.7209e-28  1.1819e-23  3.8091e-28  1.6889e-23  5.1906e-28  2.5911e-23  7.214e-28  4.1977e-23  1.0667e-27  7.0612e-23  1.6673e-27  1.2174e-22  2.7418e-27  2.1333e-22  4.6732e-27  3.783e-22  8.1799e-27  6.7827e-22  1.4649e-26  1.2327e-21   2.69e-26  2.2847e-21  5.1052e-26  4.3651e-21
      6.25  5.274e-30  5.4662e-24  7.5108e-30  5.5421e-24  1.2599e-29  5.6769e-24  2.3244e-29  5.9167e-24  4.4057e-29  6.343e-24  8.2023e-29  7.101e-24  1.2792e-28  8.4491e-24  1.9352e-28  1.0847e-23  2.816e-28  1.5112e-23  4.0836e-28  2.2703e-23  6.0654e-28  3.6221e-23  9.4558e-28  6.0315e-23  1.5387e-27  1.0334e-22  2.5945e-27  1.8043e-22  4.4903e-27  3.1932e-22  7.9354e-27  5.7202e-22  1.4299e-26  1.0395e-21  2.637e-26  1.928e-21  5.0226e-26  3.6888e-21
      6.30  4.6124e-30  5.5497e-24  6.3634e-30  5.6102e-24  9.9246e-30  5.7178e-24  1.7836e-29  5.9091e-24  3.1763e-29  6.2492e-24  5.7721e-29  6.854e-24  8.5531e-29  7.9297e-24  1.3435e-28  9.8426e-24  2.0872e-28  1.3246e-23  3.1537e-28  1.9301e-23  4.9932e-28  3.0085e-23  8.1209e-28  4.9307e-23  1.3658e-27  8.3638e-23  2.3484e-27  1.4516e-22  4.1152e-27  2.5603e-22  7.3276e-27  4.5789e-22  1.3268e-26  8.3167e-22  2.4553e-26  1.5432e-21  4.6913e-26  2.9568e-21
      6.35  4.0125e-30  5.6562e-24  5.2422e-30  5.7041e-24  7.8175e-30  5.7892e-24  1.2902e-29  5.9406e-24  2.3416e-29  6.2098e-24  4.2867e-29  6.7553e-24  5.889e-29  7.5396e-24  9.0302e-29  9.0534e-24  1.4725e-28  1.1746e-23  2.473e-28  1.6538e-23  4.0899e-28  2.5071e-23  6.9486e-28  4.0283e-23  1.196e-27  6.7453e-23  2.0888e-27  1.1615e-22  3.6989e-27  2.0395e-22  6.6289e-27  3.6389e-22  1.2053e-26  6.6036e-22  2.2375e-26  1.2256e-21  4.2878e-26  2.3513e-21
      6.40  3.4725e-30  5.7851e-24  4.4654e-30  5.824e-24  6.4345e-30  5.8932e-24  1.008e-29  6.0161e-24  1.6913e-29  6.2347e-24  3.1304e-29  6.6233e-24  4.4163e-29  7.3144e-24  6.6864e-29  8.5437e-24  1.1084e-28  1.073e-23  1.953e-28  1.4621e-23  3.4747e-28  2.155e-23  6.1568e-28  3.3902e-23  1.0891e-27  5.5968e-23  1.9356e-27  9.5523e-23  3.4652e-27  1.6687e-22  6.2516e-27  2.9691e-22  1.1416e-26  5.3819e-22  2.1265e-26  9.9898e-22  4.0878e-26  1.9187e-21
      6.45  2.9942e-30  5.9331e-24  3.9421e-30  5.9653e-24  5.4932e-30  6.0225e-24  8.3734e-30  6.1242e-24  1.3386e-29  6.305e-24  2.3477e-29  6.6264e-24  3.7413e-29  7.1981e-24  5.7608e-29  8.2148e-24  9.7385e-29  1.0023e-23  1.7436e-28  1.3241e-23  3.1903e-28  1.8972e-23  5.8117e-28  2.9188e-23  1.051e-27  4.744e-23  1.8981e-27  8.0165e-23  3.4256e-27  1.3921e-22  6.2127e-27  2.4688e-22  1.1387e-26  4.4685e-22  2.1272e-26  8.2931e-22  4.1009e-26  1.5943e-21
      6.50  2.4858e-30  6.0979e-24  3.3718e-30  6.1246e-24  4.5853e-30  6.1722e-24  6.8827e-30  6.2567e-24  1.0797e-29  6.407e-24  1.8419e-29  6.6742e-24  2.904e-29  7.1494e-24  4.6497e-29  7.9946e-24  7.9861e-29  9.4979e-24  1.4502e-28  1.2173e-23  2.7047e-28  1.6936e-23  5.0583e-28  2.5429e-23  9.3451e-28  4.0601e-23  1.7098e-27  6.7809e-23  3.1146e-27  1.1691e-22  5.6823e-27  2.065e-22  1.0455e-26  3.7301e-22  1.9588e-26  6.9185e-22  3.7866e-26  1.3308e-21
      6.55  2.0414e-30  6.3089e-24  2.8249e-30  6.3316e-24  3.7738e-30  6.3718e-24  5.5489e-30  6.4434e-24  8.9177e-30  6.5706e-24  1.5416e-29  6.7969e-24  2.4395e-29  7.1993e-24  3.9097e-29  7.9149e-24  6.8881e-29  9.1879e-24  1.2763e-28  1.1453e-23  2.4249e-28  1.5487e-23  4.6156e-28  2.2678e-23  8.6841e-28  3.5527e-23  1.6112e-27  5.8571e-23  2.9608e-27  1.0017e-22  5.4319e-27  1.7609e-22  1.0034e-26  3.1727e-22  1.8854e-26  5.8789e-22  3.6537e-26  1.1309e-21
      6.60  1.7146e-30  6.5377e-24  2.3266e-30  6.5576e-24  3.1324e-30  6.5929e-24  4.5524e-30  6.6557e-24  7.5775e-30  6.835e-24  1.3257e-29  6.9658e-24  2.1705e-29  7.3187e-24  3.5165e-29  7.9465e-24  6.3072e-29  9.0633e-24  1.1962e-28  1.1051e-23  2.3108e-28  1.4589e-23  4.4592e-28  2.0899e-23  8.494e-28  3.2173e-23  1.5934e-27  5.2393e-23  2.9542e-27  8.8897e-23  5.4509e-27  1.5554e-22  1.0107e-26  2.7954e-22  1.9043e-26  5.1738e-22  3.6987e-26  9.9515e-22
      6.65  1.428e-30  6.7831e-24  1.8674e-30  6.8012e-24  2.5934e-30  6.8335e-24  3.7191e-30  6.8907e-24  6.0876e-30  6.9926e-24  1.146e-29  7.1737e-24  1.9191e-29  7.4958e-24  3.1862e-29  8.0687e-24  5.8734e-29  9.0879e-24  1.1408e-28  1.0902e-23  2.2414e-28  1.4131e-23  4.3787e-28  1.989e-23  8.4286e-28  3.0181e-23  1.5963e-27  4.8638e-23  2.9827e-27  8.1965e-23  5.5344e-27  1.4282e-22   1.03e-26  2.561e-22  1.9458e-26  4.7349e-22  3.787e-26  9.1055e-22
      6.70  1.1878e-30  7.044e-24  1.507e-30  7.0611e-24  2.0917e-30  7.0915e-24   3.13e-30  7.1456e-24  5.2881e-30  7.2419e-24  1.0614e-29  7.413e-24  1.9498e-29  7.7173e-24  3.4194e-29  8.2586e-24  6.5787e-29  9.2216e-24  1.3048e-28  1.0935e-23  2.5828e-28  1.3987e-23  5.054e-28  1.9429e-23  9.7389e-28  2.9153e-23  1.8464e-27  4.6596e-23  3.4561e-27  7.8094e-23  6.4256e-27  1.3562e-22  1.1978e-26  2.4274e-22  2.2658e-26  4.4841e-22  4.4154e-26  8.6222e-22
      6.75  9.8956e-31  7.3192e-24  1.2036e-30  7.3358e-24  1.7021e-30  7.3654e-24  2.6489e-30  7.4179e-24  4.8883e-30  7.5112e-24  1.0558e-29  7.6772e-24  2.0589e-29  7.9725e-24  3.8496e-29  8.4975e-24  7.6294e-29  9.4317e-24  1.5277e-28  1.1094e-23  3.0177e-28  1.4055e-23  5.8875e-28  1.9334e-23  1.1305e-27  2.8767e-23  2.1399e-27  4.5691e-23  4.0036e-27  7.6254e-23  7.4472e-27  1.3209e-22  1.3894e-26  2.3606e-22  2.6306e-26  4.3581e-22  5.1312e-26  8.3795e-22
      6.80  8.2836e-31  7.6481e-24  9.7136e-31  7.6646e-24  1.387e-30  7.6938e-24  2.2822e-30  7.7458e-24  4.4774e-30  7.8383e-24  1.0034e-29  8.0027e-24  2.1375e-29  8.2952e-24  4.0958e-29  8.8153e-24  8.2372e-29  9.7407e-24  1.6477e-28  1.1387e-23  3.2433e-28  1.432e-23  6.3089e-28  1.955e-23   1.21e-27  2.8896e-23  2.2897e-27  4.5663e-23  4.2873e-27  7.5945e-23  7.9865e-27  1.3127e-22  1.4923e-26  2.3434e-22  2.829e-26  4.3241e-22  5.5247e-26  8.314e-22
      6.85  6.9806e-31  7.9947e-24  7.9695e-31  8.0112e-24  1.0981e-30  8.0407e-24  1.9211e-30  8.093e-24  3.9098e-30  8.1862e-24  9.5046e-30  8.3517e-24  2.2531e-29  8.6461e-24  4.466e-29  9.1699e-24  9.1895e-29  1.0102e-23  1.8385e-28  1.176e-23  3.6279e-28  1.4712e-23  7.0483e-28  1.9978e-23  1.3505e-27  2.9389e-23  2.5529e-27  4.6272e-23  4.7777e-27  7.6768e-23  8.901e-27  1.3249e-22  1.664e-26  2.3632e-22  3.157e-26  4.3593e-22  6.1705e-26  8.3822e-22
      6.90  5.9445e-31  8.3583e-24  6.7253e-31  8.3751e-24  9.2381e-31  8.4889e-24  1.5987e-30  8.4579e-24  3.6397e-30  8.5522e-24  9.6147e-30  8.7198e-24  2.435e-29  9.0179e-24  5.0098e-29  9.5482e-24  1.0521e-28  1.0492e-23  2.1151e-28  1.217e-23  4.202e-28  1.516e-23  8.2182e-28  2.0492e-23  1.5772e-27  3.002e-23  2.979e-27  4.7116e-23  5.5663e-27  7.7997e-23  1.0358e-26  1.3444e-22  1.9355e-26  2.3961e-22  3.6722e-26  4.4188e-22  7.1802e-26  8.4974e-22
      6.95  5.1151e-31  8.7383e-24  5.8445e-31  8.7551e-24  8.0071e-31  8.7851e-24  1.4743e-30  8.8384e-24  3.5457e-30  8.9331e-24  9.6067e-30  9.1016e-24  2.4887e-29  9.4011e-24  5.1625e-29  9.934e-24  1.0671e-28  1.0882e-23  2.1371e-28  1.2569e-23  4.2919e-28  1.5573e-23  8.4555e-28  2.093e-23  1.6287e-27  3.0504e-23  3.0821e-27  4.7682e-23  5.7663e-27  7.8715e-23  1.074e-26  1.3544e-22  2.0083e-26  2.4117e-22  3.8134e-26  4.4456e-22  7.4628e-26  8.5487e-22
      7.00  4.4215e-31  9.1339e-24  5.1311e-31  9.1505e-24  7.3147e-31  9.1801e-24  1.3761e-30  9.2325e-24  3.3294e-30  9.3259e-24  9.057e-30  9.4918e-24  2.5162e-29  9.7869e-24   5.22e-29  1.0312e-23  1.0477e-28  1.1245e-23  2.1272e-28  1.2907e-23  4.3158e-28  1.5865e-23  8.563e-28  2.1141e-23  1.6591e-27  3.0571e-23  3.1548e-27  4.749e-23  5.9212e-27  7.8057e-23  1.1051e-26  1.3393e-22  2.0694e-26  2.3811e-22  3.9337e-26  4.3858e-22  7.7059e-26  8.4317e-22
      7.05  3.7089e-31  9.5953e-24  4.3844e-31  9.6112e-24  6.4019e-31  9.6394e-24  1.2299e-30  9.6895e-24  3.0163e-30  9.7787e-24  8.4511e-30  9.9372e-24  2.399e-29  1.0219e-23  5.1626e-29  1.072e-23  1.0474e-28  1.1612e-23  2.1387e-28  1.3199e-23  4.3723e-28  1.6024e-23  8.767e-28  2.1062e-23  1.721e-27  3.0065e-23  3.3029e-27  4.6221e-23  6.237e-27  7.541e-23  1.1684e-26  1.2877e-22  2.1929e-26  2.2828e-22  4.1747e-26  4.1983e-22  8.1877e-26  8.0659e-22
      7.10  3.0759e-31  1.0077e-23  3.6744e-31  1.0092e-23  5.4435e-31  1.0118e-23  1.0807e-30  1.0164e-23  2.6876e-30  1.0246e-23  7.6966e-30  1.0391e-23  2.2145e-29  1.065e-23  5.1114e-29  1.111e-23  1.0596e-28  1.1928e-23   2.16e-28  1.3383e-23  4.4176e-28  1.5975e-23  9.037e-28  2.0595e-23  1.8054e-27  2.8853e-23  3.5113e-27  4.3668e-23  6.6878e-27  7.0438e-23  1.2596e-26  1.1938e-22  2.3719e-26  2.1067e-22  4.5248e-26  3.8644e-22  8.8868e-26  7.4149e-22
      7.15  2.5468e-31  1.058e-23  3.0609e-31  1.0593e-23  4.6072e-31  1.0616e-23  9.2727e-31  1.0656e-23  2.3787e-30  1.0728e-23  6.677e-30  1.0856e-23  1.8916e-29  1.1083e-23  4.6141e-29  1.1487e-23  9.315e-29  1.2205e-23  1.8654e-28  1.3482e-23  3.8668e-28  1.5757e-23  8.0513e-28  1.9811e-23  1.642e-27  2.7056e-23  3.2521e-27  4.0054e-23  6.2813e-27  6.354e-23  1.1946e-26  1.0649e-22  2.2639e-26  1.8659e-22  4.3368e-26  3.4087e-22  8.5411e-26  6.5264e-22
      7.20  2.0961e-31  1.1104e-23  2.5266e-31  1.1115e-23  3.837e-31  1.1134e-23  7.8557e-31  1.1168e-23  1.9665e-30  1.1229e-23  5.3914e-30  1.1337e-23  1.5078e-29  1.1529e-23  3.7982e-29  1.187e-23  7.3518e-29  1.2478e-23  1.5043e-28  1.3558e-23  3.173e-28  1.5481e-23  6.7471e-28  1.8908e-23  1.4123e-27  2.5031e-23  2.8675e-27  3.6015e-23  5.6511e-27  5.586e-23  1.0907e-26  9.2149e-23  2.088e-26  1.5985e-22  4.0262e-26  2.9025e-22  7.9632e-26  5.5385e-22
      7.25  1.7161e-31  1.1648e-23  2.0629e-31  1.1657e-23  3.114e-31  1.1673e-23  6.2275e-31  1.1701e-23  1.534e-30  1.1752e-23  4.1046e-30  1.1842e-23  1.1063e-29  1.2001e-23  2.765e-29  1.2285e-23  5.4909e-29  1.2789e-23  1.1237e-28  1.3687e-23  2.4003e-28  1.5284e-23  5.2488e-28  1.813e-23  1.1328e-27  2.3213e-23  2.3734e-27  3.2332e-23  4.8013e-27  4.8805e-23  9.4513e-27  7.8928e-23  1.8346e-26  1.3512e-22  3.5703e-26  2.4339e-22  7.1036e-26  4.6227e-22
      7.30  1.3982e-31  1.2277e-23  1.6685e-31  1.2285e-23  2.4678e-31  1.2298e-23  4.8411e-31  1.2322e-23  1.1748e-30  1.2364e-23  3.0557e-30  1.2439e-23  8.206e-30  1.2698e-23  1.9767e-29  1.2809e-23  4.1473e-29  1.323e-23  8.4493e-29  1.398e-23  1.7874e-28  1.5314e-23  4.0057e-28  1.7691e-23  8.9869e-28  2.1936e-23  1.956e-27  2.9549e-23  4.0908e-27  4.3302e-23  8.2619e-27  6.8447e-23  1.6333e-26  1.1536e-22  3.2182e-26  2.0574e-22  6.454e-26  3.8847e-22
      7.35  1.1385e-31  1.2935e-23  1.3417e-31  1.2942e-23  1.9428e-31  1.2953e-23  3.7262e-31  1.2973e-23  8.9242e-31  1.3009e-23  2.2645e-30  1.3073e-23  5.9134e-30  1.3186e-23  1.4761e-29  1.3388e-23  3.2738e-29  1.3747e-23  6.5833e-29  1.4386e-23  1.3962e-28  1.5523e-23  3.1806e-28  1.755e-23  7.3906e-28  2.1169e-23  1.6688e-27  2.7659e-23  3.5983e-27  3.9382e-23  7.4475e-27  6.0813e-23  1.4992e-26  1.0079e-22  2.9908e-26  1.7782e-22  6.047e-26  3.3354e-22
      7.40  9.2753e-32  1.3622e-23  1.0827e-31  1.3627e-23  1.5419e-31  1.3637e-23  2.9069e-31  1.3655e-23  6.8948e-31  1.3686e-23  1.7212e-30  1.3742e-23  4.4821e-30  1.3841e-23  1.1761e-29  1.4018e-23  2.8114e-29  1.4332e-23  5.4867e-29  1.489e-23  1.1596e-28  1.5885e-23  2.669e-28  1.7658e-23  6.308e-28  2.0824e-23  1.4618e-27  2.6503e-23  3.2398e-27  3.6758e-23   6.86e-27  5.5505e-23  1.4047e-26  9.0475e-23  2.836e-26  1.5784e-22  5.7797e-26  2.9403e-22
      7.45  7.5712e-32  1.4336e-23  8.8017e-32  1.4341e-23  1.2441e-31  1.435e-23  2.3062e-31  1.4366e-23  5.4549e-31  1.4394e-23  1.3653e-30  1.4444e-23  3.5648e-30  1.4533e-23  9.458e-30  1.4692e-23  2.2176e-29  1.4974e-23  4.2772e-29  1.5475e-23  8.9199e-29  1.6369e-23  2.0657e-28  1.7961e-23  4.974e-28  2.0806e-23  1.1849e-27  2.5908e-23  2.7082e-27  3.5123e-23  5.8959e-27  5.1967e-23  1.2339e-26  8.3384e-23  2.5305e-26  1.439e-22  5.212e-26  2.6622e-22
      7.50  6.1986e-32  1.5078e-23  7.2163e-32  1.5083e-23  1.0259e-31  1.5091e-23  1.9037e-31  1.5106e-23  4.524e-31  1.5132e-23  1.1257e-30  1.5178e-23  2.9833e-30  1.526e-23  7.9198e-30  1.5406e-23  1.8445e-29  1.5665e-23  3.5287e-29  1.6127e-23  7.2174e-29  1.6949e-23  1.6756e-28  1.8416e-23  4.077e-28  2.1036e-23  9.9217e-28  2.5735e-23  2.3306e-27  3.4221e-23  5.2124e-27  4.9734e-23  1.1154e-26  7.8665e-23  2.3251e-26  1.3438e-22  4.8426e-26  2.4699e-22
      7.55  5.0922e-32  1.5929e-23  5.9829e-32  1.5934e-23  8.6566e-32  1.5941e-23  1.6348e-31  1.5955e-23  3.9338e-31  1.598e-23  9.9231e-31  1.6023e-23  2.6254e-30   1.61e-23  6.9874e-30  1.6238e-23  1.5725e-29  1.6482e-23  3.0569e-29  1.6918e-23  6.1904e-29  1.7693e-23  1.4143e-28  1.9075e-23  3.444e-28  2.1544e-23  8.496e-28  2.5974e-23  2.0424e-27  3.3975e-23  4.6904e-27  4.8599e-23  1.0282e-26  7.5871e-23  2.1841e-26  1.2839e-22  4.6098e-26  2.3451e-22
      7.60  4.202e-32  1.6818e-23  5.0209e-32  1.6822e-23  7.4976e-32  1.683e-23  1.4778e-31  1.6843e-23  3.5813e-31  1.6867e-23  9.3046e-31  1.6908e-23  2.4784e-30  1.6983e-23  6.5662e-30  1.7115e-23  1.3686e-29  1.735e-23  2.6932e-29  1.7768e-23  5.3176e-29  1.8513e-23  1.181e-28  1.9842e-23  2.8273e-28  2.2217e-23  6.9623e-28  2.6477e-23  1.6942e-27  3.4172e-23  3.9693e-27  4.8238e-23  8.8878e-27  7.4466e-23  1.9226e-26  1.2497e-22  4.1128e-26   2.27e-22
      7.65  3.479e-32  1.7745e-23  4.2514e-32  1.7749e-23  6.6058e-32  1.7756e-23  1.3505e-31  1.7769e-23  3.3637e-31  1.7792e-23  8.8443e-31  1.7833e-23  2.3455e-30  1.7906e-23  6.1955e-30  1.8035e-23  1.2153e-29  1.8264e-23  2.3968e-29  1.8673e-23  4.663e-29  1.9402e-23  1.0053e-28  2.0701e-23  2.3504e-28  2.3022e-23  5.7311e-28  2.7188e-23  1.4019e-27  3.4711e-23  3.3367e-27  4.8464e-23  7.6212e-27  7.4109e-23  1.6795e-26  1.2348e-22  3.6456e-26  2.2322e-22
      7.70  2.877e-32  1.8709e-23  3.6108e-32  1.8713e-23  5.8647e-32  1.8721e-23  1.2436e-31  1.8733e-23  3.1514e-31  1.8756e-23  8.3588e-31  1.8797e-23  2.2633e-30  1.8868e-23  6.0406e-30  1.8996e-23  1.1257e-29  1.9416e-23  2.1312e-29  1.9629e-23  4.1267e-29  2.035e-23  8.6494e-29  2.1637e-23  1.9693e-28  2.3936e-23  4.7295e-28  2.8061e-23  1.156e-27  3.5513e-23  2.7838e-27  4.9136e-23  6.4751e-27  7.4537e-23  1.454e-26  1.2344e-22  3.2063e-26  2.2221e-22
      7.75  2.3941e-32  1.9711e-23  3.0942e-32  1.9715e-23  5.2585e-32  1.9723e-23  1.1557e-31  1.9735e-23  2.9703e-31  1.9758e-23  8.0579e-31  1.9798e-23  2.1726e-30  1.987e-23  5.5066e-30  1.9998e-23  1.0095e-29  2.0226e-23  1.9127e-29  2.063e-23  3.7179e-29  2.1351e-23  7.5329e-29  2.2637e-23  1.6667e-28  2.4935e-23  3.9217e-28  2.9059e-23  9.5188e-28  3.6508e-23  2.3075e-27  5.0127e-23  5.4521e-27  7.5519e-23  1.2472e-26  1.244e-22  2.7966e-26  2.2312e-22
      7.80  1.9955e-32  2.0854e-23  2.6577e-32  2.0858e-23  4.7226e-32  2.0865e-23  1.0706e-31  2.0878e-23  2.7867e-31  2.0901e-23  7.6504e-31  2.0942e-23  2.0708e-30  2.1014e-23  5.066e-30  2.1143e-23  9.2273e-30  2.1372e-23  1.729e-29  2.178e-23  3.3322e-29  2.2506e-23  6.6079e-29  2.3801e-23  1.4218e-28  2.6115e-23  3.2683e-28  3.0268e-23  7.8402e-28  3.7771e-23  1.9047e-27  5.1488e-23  4.5591e-27  7.7063e-23  1.0619e-26  1.2629e-22  2.4237e-26  2.2571e-22
      7.85  1.6608e-32  2.2048e-23  2.2761e-32  2.2052e-23  4.2079e-32  2.2059e-23  9.7894e-32  2.2072e-23  2.5493e-31  2.2095e-23  7.1732e-31  2.2137e-23  1.916e-30  2.221e-23  4.6225e-30  2.234e-23  8.3791e-30  2.2571e-23  1.5534e-29  2.2982e-23  2.9565e-29  2.3716e-23  5.8001e-29  2.5023e-23  1.2128e-28  2.736e-23  2.7317e-28  3.1553e-23  6.4588e-28  3.9129e-23  1.5666e-27  5.2979e-23  3.789e-27  7.8804e-23  8.9806e-27  1.2851e-22  2.0885e-26  2.2888e-22
      7.90  1.3793e-32  2.3293e-23  1.9256e-32  2.3298e-23  3.6696e-32  2.3305e-23  8.7554e-32  2.3318e-23  2.3186e-31  2.3341e-23  6.3416e-31  2.3383e-23  1.7409e-30  2.3457e-23  4.0098e-30  2.3588e-23  7.2433e-30  2.3821e-23  1.3335e-29  2.4237e-23  2.5217e-29  2.4977e-23  4.8831e-29  2.6296e-23  1.0042e-28  2.8655e-23  2.2069e-28  3.2889e-23  5.1427e-28  4.0536e-23  1.2439e-27  5.4517e-23  3.0374e-27  8.0586e-23  7.3302e-27  1.3076e-22  1.7404e-26  2.3206e-22
      7.95  1.1409e-32  2.459e-23  1.6192e-32  2.4595e-23  3.1595e-32  2.4602e-23  7.6495e-32  2.4615e-23  2.0161e-31  2.4639e-23  5.5729e-31  2.468e-23  1.5398e-30  2.4755e-23  3.3627e-30  2.4887e-23  6.1194e-30  2.5122e-23  1.1199e-29  2.554e-23  2.0982e-29  2.6284e-23  4.1006e-29  2.7889e-23  8.1292e-29  2.9986e-23  1.749e-28  3.4245e-23  4.0258e-28  4.1941e-23  9.6736e-28  5.6009e-23  2.3746e-27  8.2238e-23  5.816e-27  1.3272e-22  1.4076e-26  2.3463e-22
      8.00  9.3879e-33  2.5939e-23  1.3442e-32  2.5943e-23  2.6622e-32  2.5951e-23  6.5188e-32  2.5964e-23  1.7209e-31  2.5987e-23  4.7611e-31  2.6029e-23  1.3198e-30  2.6104e-23  2.7901e-30  2.6236e-23  5.017e-30  2.6471e-23  9.2337e-30  2.689e-23  1.7175e-29  2.7637e-23  3.2849e-29  2.8968e-23  6.5334e-29  3.1346e-23  1.382e-28  3.5615e-23  3.1178e-28  4.3327e-23  7.4253e-28  5.7426e-23  1.8258e-27  8.3711e-23  4.5234e-27  1.343e-22  1.1136e-26  2.364e-22
      8.05  7.6805e-33  2.7472e-23  1.1006e-32  2.7477e-23  2.194e-32  2.7484e-23  5.3981e-32  2.7497e-23  1.4406e-31  2.7521e-23  3.9886e-31  2.7563e-23  1.096e-30  2.7637e-23  2.2653e-30  2.7769e-23  4.0674e-30  2.8005e-23  7.3939e-30  2.8424e-23  1.3808e-29  2.9171e-23  2.6252e-29  3.0502e-23  5.1707e-29  3.2882e-23  1.078e-28  3.7152e-23  2.3983e-28  4.4868e-23  5.6631e-28  5.8971e-23  1.393e-27  8.5265e-23  3.4844e-27  1.3586e-22  8.7143e-27  2.3797e-22
      8.10  6.2521e-33  2.9076e-23  8.8977e-33  2.908e-23  1.7588e-32  2.9088e-23  4.3175e-32  2.9101e-23  1.1601e-31  2.9124e-23  3.219e-31  2.9166e-23  8.9469e-31  2.924e-23  1.8016e-30  2.9372e-23  3.2318e-30  2.9607e-23  5.8614e-30  3.0025e-23  1.0803e-29  3.0769e-23  2.0596e-29  3.2097e-23  4.0323e-29  3.4469e-23  8.2836e-29  3.8726e-23  1.8266e-28  4.6417e-23  4.2783e-28  6.0476e-23  1.0516e-27  8.6683e-23  2.6509e-27  1.371e-22  6.7236e-27  2.3885e-22
      8.15  5.0728e-33  3.0752e-23  7.1247e-33  3.0756e-23  1.3936e-32  3.0763e-23  3.3805e-32  3.0776e-23  9.139e-32   3.08e-23  2.5379e-31  3.0841e-23  7.0016e-31  3.0915e-23  1.4198e-30  3.1046e-23  2.5243e-30  3.128e-23  4.6128e-30  3.1695e-23  8.3919e-30  3.2436e-23  1.5909e-29  3.3756e-23  3.0889e-29  3.6115e-23  6.3103e-29  4.0349e-23  1.371e-28  4.7998e-23  3.1822e-28  6.1979e-23  7.8004e-28  8.804e-23  1.9768e-27  1.3817e-22  5.0753e-27  2.3931e-22
      8.20  4.1105e-33   3.25e-23  5.6693e-33  3.2504e-23  1.0895e-32  3.2511e-23  2.6189e-32  3.2524e-23  7.0241e-32  3.2547e-23  1.9613e-31  3.2588e-23  5.4243e-31  3.2662e-23  1.0826e-30  3.2792e-23  1.9631e-30  3.3024e-23  3.5145e-30  3.3437e-23  6.4998e-30  3.4173e-23  1.2162e-29  3.5484e-23  2.333e-29  3.7829e-23  4.7676e-29  4.2035e-23  1.0272e-28  4.9635e-23  2.3683e-28  6.3524e-23  5.7951e-28  8.941e-23  1.4757e-27  1.392e-22  3.8084e-27  2.3962e-22
      8.25  3.303e-33  3.4321e-23  4.4714e-33  3.4325e-23  8.1341e-33  3.4332e-23  2.0026e-32  3.4345e-23  5.3485e-32  3.4368e-23  1.4943e-31  3.4409e-23  4.1863e-31  3.4482e-23  8.3373e-31  3.4611e-23  1.4814e-30  3.4842e-23  2.6779e-30  3.5252e-23  4.8992e-30  3.5983e-23   9.23e-30  3.7287e-23  1.7754e-29  3.9617e-23  3.5628e-29  4.3798e-23  7.7876e-29  5.1865e-23  1.7658e-28  6.5152e-23  4.2937e-28  9.0873e-23  1.1048e-27  1.4034e-22  2.8961e-27  2.4007e-22
      8.30  2.6871e-33  3.6388e-23  3.5566e-33  3.6392e-23  6.2953e-33  3.6399e-23  1.4981e-32  3.6412e-23  4.0433e-32  3.6435e-23  1.1232e-31  3.6476e-23  3.1715e-31  3.6549e-23  6.3233e-31  3.6678e-23  1.1338e-30  3.6908e-23  2.0489e-30  3.7318e-23  3.7443e-30  3.8048e-23  6.9775e-30  3.935e-23  1.3411e-29  4.1677e-23  2.698e-29  4.5852e-23  5.7656e-29  5.3394e-23  1.3205e-28  6.7176e-23  3.2121e-28  9.2856e-23  8.3037e-28  1.4223e-22  2.1966e-27  2.4175e-22
      8.35  2.1907e-33  3.8556e-23  2.8239e-33  3.856e-23  4.8303e-33  3.8567e-23  1.1198e-32  3.858e-23  2.9619e-32  3.8603e-23  8.2735e-32  3.8644e-23   2.34e-31  3.8717e-23  4.6787e-31  3.8846e-23  8.3863e-31  3.9077e-23  1.5296e-30  3.9487e-23  2.7696e-30  4.0219e-23  5.1609e-30  4.1522e-23  9.9195e-30  4.3853e-23  1.996e-29  4.8034e-23   4.27e-29  5.5586e-23  9.8003e-29  6.9385e-23  2.4074e-28  9.5095e-23  6.2317e-28  1.4452e-22  1.665e-27  2.4411e-22
      8.40  1.795e-33  4.0827e-23  2.2494e-33  4.0831e-23  3.7013e-33  4.0838e-23  8.444e-33  4.1263e-23  2.1472e-32  4.0874e-23  5.9855e-32  4.0915e-23  1.6713e-31  4.0989e-23  3.3868e-31  4.1119e-23  6.0693e-31  4.1351e-23  1.0968e-30  4.1763e-23  2.0065e-30  4.2498e-23  3.7442e-30  4.3808e-23  7.2115e-30  4.6149e-23  1.4558e-29  5.035e-23  3.1283e-29  5.7937e-23  7.2245e-29   7.18e-23  1.788e-28  9.7625e-23  4.6404e-28  1.4726e-22  1.2617e-27  2.4724e-22
      8.45  1.484e-33  4.3204e-23  1.8133e-33  4.3208e-23  2.8775e-33  4.3216e-23  5.9588e-33  4.3229e-23  1.578e-32  4.3252e-23  4.3642e-32  4.3294e-23  1.2144e-31  4.3367e-23  2.4715e-31  4.3499e-23  4.428e-31  4.3732e-23  8.0035e-31  4.4148e-23  1.4653e-30  4.4889e-23  2.7382e-30  4.621e-23  5.2852e-30  4.8571e-23  1.0703e-29  5.2806e-23  2.3104e-29  6.0455e-23  5.3664e-29  7.4431e-23  1.3375e-28  1.0046e-22  3.5234e-28  1.5048e-22  9.6108e-28  2.5122e-22
      8.50  1.2387e-33  4.5691e-23  1.481e-33  4.5695e-23  2.2738e-33  4.5703e-23  4.5338e-33  4.5716e-23  1.1643e-32  4.5739e-23  3.1978e-32  4.5781e-23  9.0232e-32  4.5856e-23  1.8193e-31  4.5989e-23  3.2597e-31  4.6225e-23  5.893e-31  4.6646e-23  1.0796e-30  4.7396e-23  2.0199e-30  4.8732e-23  3.9069e-30  5.1121e-23  7.9356e-30  5.5406e-23  1.7199e-29  6.3146e-23  4.0157e-29  7.7285e-23  1.0072e-28  1.0362e-22  2.6727e-28  1.5421e-22  7.3534e-28  2.5606e-22
