# This was generated using Cloudy10 and the columns are ordered 
# as log10 of the fraction of the metallicity to the solar metallicity
# 'h_*_Z' and 'c_*_Z' stands for cooling and heating respectively 
# at * metalicity
#
# NOTE: This was generated separately from loop_coolingcurve_w_UV.py
#       using Output_metals_w_redshift.py.
#
# Redshift = 0.5
# hden = 0.0
#
#     temp   h_-3.00_Z   c_-3.00_Z   h_-2.75_Z   c_-2.75_Z   h_-2.50_Z   c_-2.50_Z   h_-2.25_Z   c_-2.25_Z   h_-2.00_Z   c_-2.00_Z   h_-1.75_Z   c_-1.75_Z   h_-1.50_Z   c_-1.50_Z   h_-1.25_Z   c_-1.25_Z   h_-1.00_Z   c_-1.00_Z   h_-0.75_Z   c_-0.75_Z   h_-0.50_Z   c_-0.50_Z   h_-0.25_Z   c_-0.25_Z    h_0.00_Z    c_0.00_Z    h_0.25_Z    c_0.25_Z    h_0.50_Z    c_0.50_Z    h_0.75_Z    c_0.75_Z    h_1.00_Z    c_1.00_Z    h_1.25_Z    c_1.25_Z    h_1.50_Z    c_1.50_Z 
      1.00  2.2543e-24  5.5348e-28  2.2543e-24  5.5352e-28  2.2543e-24  5.5358e-28  2.2543e-24  5.5369e-28  2.2544e-24  5.5388e-28  2.2545e-24  5.5423e-28  2.2547e-24  5.5484e-28  2.2551e-24  5.5593e-28  2.2558e-24  5.5787e-28  2.2570e-24  5.6133e-28  2.2591e-24  5.6747e-28  2.2629e-24  5.7839e-28  2.2696e-24  5.9783e-28  2.2816e-24  6.3242e-28  2.3029e-24  6.9405e-28  2.3408e-24  8.0398e-28  2.4084e-24  1.0004e-27  2.5288e-24  1.3527e-27  2.7439e-24  1.9876e-27
      1.05  2.2463e-24  6.2079e-28  2.2463e-24  6.2085e-28  2.2463e-24  6.2096e-28  2.2463e-24  6.2116e-28  2.2464e-24  6.2152e-28  2.2465e-24  6.2215e-28  2.2467e-24  6.2328e-28  2.2471e-24  6.2528e-28  2.2478e-24  6.2884e-28  2.2490e-24  6.3516e-28  2.2511e-24  6.4642e-28  2.2549e-24  6.6643e-28  2.2616e-24  7.0203e-28  2.2735e-24  7.6538e-28  2.2947e-24  8.7815e-28  2.3325e-24  1.0791e-27  2.3998e-24  1.4375e-27  2.5198e-24  2.0787e-27  2.7342e-24  3.2303e-27
      1.10  2.2380e-24  6.9572e-28  2.2380e-24  6.9584e-28  2.2380e-24  6.9605e-28  2.2381e-24  6.9643e-28  2.2381e-24  6.9710e-28  2.2383e-24  6.9830e-28  2.2385e-24  7.0043e-28  2.2388e-24  7.0421e-28  2.2395e-24  7.1093e-28  2.2407e-24  7.2289e-28  2.2428e-24  7.4416e-28  2.2466e-24  7.8198e-28  2.2533e-24  8.4925e-28  2.2651e-24  9.6889e-28  2.2863e-24  1.1818e-27  2.3240e-24  1.5607e-27  2.3910e-24  2.2358e-27  2.5106e-24  3.4408e-27  2.7242e-24  5.5998e-27
      1.15  2.2295e-24  7.7917e-28  2.2295e-24  7.7940e-28  2.2295e-24  7.7980e-28  2.2295e-24  7.8051e-28  2.2296e-24  7.8178e-28  2.2297e-24  7.8404e-28  2.2299e-24  7.8806e-28  2.2303e-24  7.9520e-28  2.2310e-24  8.0789e-28  2.2322e-24  8.3048e-28  2.2343e-24  8.7063e-28  2.2380e-24  9.4204e-28  2.2447e-24  1.0690e-27  2.2565e-24  1.2948e-27  2.2776e-24  1.6965e-27  2.3151e-24  2.4109e-27  2.3819e-24  3.6825e-27  2.5010e-24  5.9495e-27  2.7137e-24  1.0004e-26
      1.20  2.2207e-24  8.7212e-28  2.2207e-24  8.7254e-28  2.2207e-24  8.7327e-28  2.2207e-24  8.7459e-28  2.2208e-24  8.7693e-28  2.2209e-24  8.8109e-28  2.2211e-24  8.8848e-28  2.2215e-24  9.0164e-28  2.2222e-24  9.2502e-28  2.2233e-24  9.6661e-28  2.2254e-24  1.0406e-27  2.2292e-24  1.1721e-27  2.2358e-24  1.4059e-27  2.2476e-24  1.8217e-27  2.2685e-24  2.5609e-27  2.3059e-24  3.8754e-27  2.3723e-24  6.2138e-27  2.4909e-24  1.0379e-26  2.7026e-24  1.7822e-26
      1.25  2.2116e-24  9.7568e-28  2.2116e-24  9.7641e-28  2.2116e-24  9.7772e-28  2.2116e-24  9.8005e-28  2.2117e-24  9.8420e-28  2.2118e-24  9.9157e-28  2.2120e-24  1.0047e-27  2.2124e-24  1.0280e-27  2.2131e-24  1.0694e-27  2.2142e-24  1.1431e-27  2.2163e-24  1.2741e-27  2.2200e-24  1.5071e-27  2.2266e-24  1.9213e-27  2.2383e-24  2.6578e-27  2.2592e-24  3.9671e-27  2.2963e-24  6.2947e-27  2.3625e-24  1.0434e-26  2.4804e-24  1.7804e-26  2.6911e-24  3.0969e-26
      1.30  2.2022e-24  1.0912e-27  2.2022e-24  1.0925e-27  2.2022e-24  1.0947e-27  2.2023e-24  1.0986e-27  2.2023e-24  1.1057e-27  2.2024e-24  1.1182e-27  2.2026e-24  1.1404e-27  2.2030e-24  1.1798e-27  2.2037e-24  1.2500e-27  2.2048e-24  1.3749e-27  2.2069e-24  1.5969e-27  2.2106e-24  1.9916e-27  2.2171e-24  2.6934e-27  2.2288e-24  3.9411e-27  2.2496e-24  6.1590e-27  2.2865e-24  1.0101e-26  2.3523e-24  1.7111e-26  2.4696e-24  2.9590e-26  2.6791e-24  5.1881e-26
      1.35  2.1925e-24  1.2200e-27  2.1925e-24  1.2220e-27  2.1925e-24  1.2256e-27  2.1926e-24  1.2320e-27  2.1926e-24  1.2434e-27  2.1927e-24  1.2636e-27  2.1929e-24  1.2995e-27  2.1933e-24  1.3634e-27  2.1940e-24  1.4770e-27  2.1951e-24  1.6791e-27  2.1972e-24  2.0383e-27  2.2008e-24  2.6771e-27  2.2074e-24  3.8128e-27  2.2190e-24  5.8318e-27  2.2396e-24  9.4207e-27  2.2763e-24  1.5800e-26  2.3417e-24  2.7141e-26  2.4584e-24  4.7333e-26  2.6668e-24  8.3407e-26
      1.40  2.1825e-24  1.3636e-27  2.1825e-24  1.3667e-27  2.1825e-24  1.3722e-27  2.1825e-24  1.3821e-27  2.1826e-24  1.3997e-27  2.1827e-24  1.4310e-27  2.1829e-24  1.4866e-27  2.1833e-24  1.5855e-27  2.1839e-24  1.7614e-27  2.1851e-24  2.0741e-27  2.1871e-24  2.6302e-27  2.1908e-24  3.6189e-27  2.1973e-24  5.3768e-27  2.2088e-24  8.5019e-27  2.2293e-24  1.4057e-26  2.2658e-24  2.3930e-26  2.3309e-24  4.1484e-26  2.4468e-24  7.2742e-26  2.6540e-24  1.2861e-25
      1.45  2.1721e-24  1.5235e-27  2.1722e-24  1.5281e-27  2.1722e-24  1.5364e-27  2.1722e-24  1.5511e-27  2.1723e-24  1.5772e-27  2.1724e-24  1.6236e-27  2.1726e-24  1.7061e-27  2.1730e-24  1.8528e-27  2.1736e-24  2.1138e-27  2.1747e-24  2.5778e-27  2.1768e-24  3.4028e-27  2.1804e-24  4.8699e-27  2.1868e-24  7.4781e-27  2.1983e-24  1.2115e-26  2.2187e-24  2.0357e-26  2.2550e-24  3.5006e-26  2.3196e-24  6.1055e-26  2.4349e-24  1.0745e-25  2.6408e-24  1.9039e-25
      1.50  2.1615e-24  1.7017e-27  2.1615e-24  1.7083e-27  2.1615e-24  1.7201e-27  2.1616e-24  1.7411e-27  2.1616e-24  1.7784e-27  2.1617e-24  1.8447e-27  2.1619e-24  1.9626e-27  2.1623e-24  2.1724e-27  2.1629e-24  2.5453e-27  2.1641e-24  3.2085e-27  2.1661e-24  4.3877e-27  2.1697e-24  6.4844e-27  2.1761e-24  1.0212e-26  2.1875e-24  1.6839e-26  2.2077e-24  2.8619e-26  2.2438e-24  4.9559e-26  2.3081e-24  8.6796e-26  2.4226e-24  1.5313e-25  2.6273e-24  2.7180e-25
      1.55  2.1505e-24  1.9004e-27  2.1505e-24  1.9096e-27  2.1505e-24  1.9259e-27  2.1505e-24  1.9549e-27  2.1506e-24  2.0064e-27  2.1507e-24  2.0980e-27  2.1509e-24  2.2609e-27  2.1513e-24  2.5506e-27  2.1519e-24  3.0657e-27  2.1530e-24  3.9818e-27  2.1551e-24  5.6106e-27  2.1586e-24  8.5068e-27  2.1650e-24  1.3656e-26  2.1763e-24  2.2811e-26  2.1964e-24  3.9083e-26  2.2323e-24  6.8010e-26  2.2961e-24  1.1946e-25  2.4099e-24  2.1114e-25  2.6133e-24  3.7524e-25
      1.60  2.1391e-24  2.1216e-27  2.1391e-24  2.1339e-27  2.1392e-24  2.1557e-27  2.1392e-24  2.1945e-27  2.1393e-24  2.2636e-27  2.1394e-24  2.3863e-27  2.1396e-24  2.6046e-27  2.1399e-24  2.9928e-27  2.1406e-24  3.6831e-27  2.1417e-24  4.9106e-27  2.1437e-24  7.0933e-27  2.1472e-24  1.0974e-26  2.1535e-24  1.7875e-26  2.1648e-24  3.0142e-26  2.1848e-24  5.1949e-26  2.2204e-24  9.0718e-26  2.2838e-24  1.5969e-25  2.3968e-24  2.8263e-25  2.5988e-24  5.0282e-25
      1.65  2.1274e-24  2.3676e-27  2.1274e-24  2.3836e-27  2.1274e-24  2.4121e-27  2.1275e-24  2.4628e-27  2.1275e-24  2.5529e-27  2.1277e-24  2.7131e-27  2.1278e-24  2.9980e-27  2.1282e-24  3.5047e-27  2.1288e-24  4.4056e-27  2.1299e-24  6.0077e-27  2.1319e-24  8.8564e-27  2.1355e-24  1.3922e-26  2.1417e-24  2.2928e-26  2.1529e-24  3.8940e-26  2.1727e-24  6.7405e-26  2.2081e-24  1.1802e-25  2.2710e-24  2.0807e-25  2.3833e-24  3.6866e-25  2.5838e-24  6.5648e-25
      1.70  2.1153e-24  2.6411e-27  2.1153e-24  2.6615e-27  2.1154e-24  2.6979e-27  2.1154e-24  2.7626e-27  2.1154e-24  2.8776e-27  2.1156e-24  3.0821e-27  2.1158e-24  3.4458e-27  2.1161e-24  4.0926e-27  2.1167e-24  5.2427e-27  2.1178e-24  7.2878e-27  2.1198e-24  1.0924e-26  2.1233e-24  1.7391e-26  2.1295e-24  2.8888e-26  2.1406e-24  4.9330e-26  2.1603e-24  8.5674e-26  2.1954e-24  1.5030e-25  2.2579e-24  2.6532e-25  2.3693e-24  4.7054e-25  2.5683e-24  8.3860e-25
      1.75  2.1029e-24  2.9450e-27  2.1029e-24  2.9706e-27  2.1029e-24  3.0162e-27  2.1029e-24  3.0973e-27  2.1030e-24  3.2416e-27  2.1031e-24  3.4981e-27  2.1033e-24  3.9542e-27  2.1036e-24  4.7652e-27  2.1042e-24  6.2076e-27  2.1053e-24  8.7723e-27  2.1073e-24  1.3333e-26  2.1108e-24  2.1443e-26  2.1169e-24  3.5862e-26  2.1279e-24  6.1500e-26  2.1475e-24  1.0709e-25  2.1823e-24  1.8816e-25  2.2442e-24  3.3251e-25  2.3547e-24  5.9017e-25  2.5521e-24  1.0527e-24
      1.80  2.0900e-24  3.2834e-27  2.0900e-24  3.3151e-27  2.0900e-24  3.3716e-27  2.0901e-24  3.4719e-27  2.0901e-24  3.6504e-27  2.0902e-24  3.9678e-27  2.0904e-24  4.5321e-27  2.0908e-24  5.5357e-27  2.0914e-24  7.3203e-27  2.0925e-24  1.0494e-26  2.0944e-24  1.6137e-26  2.0978e-24  2.6172e-26  2.1040e-24  4.4015e-26  2.1148e-24  7.5743e-26  2.1342e-24  1.3216e-25  2.1687e-24  2.3253e-25  2.2301e-24  4.1129e-25  2.3396e-24  7.3058e-25  2.5353e-24  1.3043e-24
      1.85  2.0767e-24  3.6594e-27  2.0767e-24  3.6983e-27  2.0768e-24  3.7675e-27  2.0768e-24  3.8905e-27  2.0769e-24  4.1092e-27  2.0770e-24  4.4983e-27  2.0772e-24  5.1901e-27  2.0775e-24  6.4202e-27  2.0781e-24  8.6079e-27  2.0792e-24  1.2498e-26  2.0811e-24  1.9416e-26  2.0845e-24  3.1717e-26  2.0906e-24  5.3591e-26  2.1013e-24  9.2490e-26  2.1205e-24  1.6167e-25  2.1547e-24  2.8478e-25  2.2155e-24  5.0412e-25  2.3240e-24  8.9619e-25  2.5177e-24  1.6015e-24
      1.90  2.0631e-24  4.0770e-27  2.0631e-24  4.1244e-27  2.0631e-24  4.2086e-27  2.0631e-24  4.3584e-27  2.0632e-24  4.6248e-27  2.0633e-24  5.0985e-27  2.0635e-24  5.9409e-27  2.0638e-24  7.4388e-27  2.0644e-24  1.0103e-26  2.0655e-24  1.4840e-26  2.0674e-24  2.3263e-26  2.0707e-24  3.8243e-26  2.0767e-24  6.4881e-26  2.0874e-24  1.1226e-25  2.1064e-24  1.9653e-25  2.1402e-24  3.4653e-25  2.2004e-24  6.1392e-25  2.3078e-24  1.0923e-24  2.4995e-24  1.9539e-24
      1.95  2.0490e-24  4.5406e-27  2.0490e-24  4.5978e-27  2.0490e-24  4.6994e-27  2.0490e-24  4.8802e-27  2.0491e-24  5.2018e-27  2.0492e-24  5.7735e-27  2.0494e-24  6.7902e-27  2.0497e-24  8.5981e-27  2.0503e-24  1.1813e-26  2.0514e-24  1.7531e-26  2.0532e-24  2.7698e-26  2.0566e-24  4.5778e-26  2.0625e-24  7.7933e-26  2.0731e-24  1.3512e-25  2.0919e-24  2.3686e-25  2.1254e-24  4.1799e-25  2.1851e-24  7.4100e-25  2.2915e-24  1.3192e-24  2.4817e-24  2.3615e-24
      2.00  2.0344e-24  5.0560e-27  2.0344e-24  5.1252e-27  2.0345e-24  5.2482e-27  2.0345e-24  5.4671e-27  2.0345e-24  5.8562e-27  2.0347e-24  6.5482e-27  2.0348e-24  7.7787e-27  2.0352e-24  9.9670e-27  2.0358e-24  1.3858e-26  2.0368e-24  2.0779e-26  2.0387e-24  3.3085e-26  2.0420e-24  5.4971e-26  2.0478e-24  9.3895e-26  2.0583e-24  1.6313e-25  2.0769e-24  2.8634e-25  2.1100e-24  5.0575e-25  2.1689e-24  8.9726e-25  2.2741e-24  1.5987e-24  2.4619e-24  2.8652e-24
      2.05  2.0194e-24  5.6302e-27  2.0195e-24  5.7138e-27  2.0195e-24  5.8625e-27  2.0195e-24  6.1268e-27  2.0196e-24  6.5968e-27  2.0197e-24  7.4327e-27  2.0199e-24  8.9192e-27  2.0202e-24  1.1563e-26  2.0208e-24  1.6263e-26  2.0218e-24  2.4623e-26  2.0236e-24  3.9489e-26  2.0269e-24  6.5928e-26  2.0327e-24  1.1295e-25  2.0430e-24  1.9662e-25  2.0613e-24  3.4552e-25  2.0940e-24  6.1081e-25  2.1521e-24  1.0845e-24  2.2558e-24  1.9340e-24  2.4411e-24  3.4702e-24
      2.10  2.0040e-24  6.2678e-27  2.0040e-24  6.3684e-27  2.0040e-24  6.5472e-27  2.0041e-24  6.8651e-27  2.0041e-24  7.4305e-27  2.0042e-24  8.4359e-27  2.0044e-24  1.0224e-26  2.0047e-24  1.3403e-26  2.0053e-24  1.9058e-26  2.0063e-24  2.9113e-26  2.0081e-24  4.6995e-26  2.0113e-24  7.8800e-26  2.0170e-24  1.3538e-25  2.0272e-24  2.3604e-25  2.0453e-24  4.1524e-25  2.0774e-24  7.3463e-25  2.1348e-24  1.3052e-24  2.2370e-24  2.3296e-24  2.4196e-24  4.1848e-24
      2.15  1.9881e-24  6.9753e-27  1.9881e-24  7.0955e-27  1.9881e-24  7.3093e-27  1.9882e-24  7.6895e-27  1.9882e-24  8.3656e-27  1.9883e-24  9.5678e-27  1.9885e-24  1.1706e-26  1.9888e-24  1.5508e-26  1.9894e-24  2.2269e-26  1.9904e-24  3.4293e-26  1.9922e-24  5.5677e-26  1.9953e-24  9.3712e-26  2.0009e-24  1.6137e-25  2.0109e-24  2.8178e-25  2.0287e-24  4.9617e-25  2.0604e-24  8.7841e-25  2.1169e-24  1.5617e-24  2.2176e-24  2.7895e-24  2.3974e-24  5.0161e-24
      2.20  1.9717e-24  7.7597e-27  1.9717e-24  7.9024e-27  1.9718e-24  8.1561e-27  1.9718e-24  8.6073e-27  1.9718e-24  9.4096e-27  1.9719e-24  1.0836e-26  1.9721e-24  1.3374e-26  1.9724e-24  1.7886e-26  1.9730e-24  2.5910e-26  1.9740e-24  4.0179e-26  1.9757e-24  6.5559e-26  1.9788e-24  1.1070e-25  1.9844e-24  1.9101e-25  1.9942e-24  3.3394e-25  2.0117e-24  5.8849e-25  2.0429e-24  1.0425e-24  2.0985e-24  1.8545e-24  2.1976e-24  3.3147e-24  2.3745e-24  5.9659e-24
      2.25  1.9549e-24  8.6286e-27  1.9549e-24  8.7963e-27  1.9549e-24  9.0947e-27  1.9549e-24  9.6253e-27  1.9550e-24  1.0569e-26  1.9551e-24  1.2247e-26  1.9553e-24  1.5231e-26  1.9556e-24  2.0537e-26  1.9561e-24  2.9974e-26  1.9571e-24  4.6756e-26  1.9588e-24  7.6604e-26  1.9619e-24  1.2970e-25  1.9673e-24  2.2416e-25  1.9770e-24  3.9228e-25  1.9942e-24  6.9177e-25  2.0249e-24  1.2261e-24  2.0795e-24  2.1821e-24  2.1770e-24  3.9027e-24  2.3511e-24  7.0298e-24
      2.30  1.9375e-24  9.5938e-27  1.9375e-24  9.7892e-27  1.9375e-24  1.0137e-26  1.9376e-24  1.0754e-26  1.9376e-24  1.1853e-26  1.9377e-24  1.3806e-26  1.9379e-24  1.7280e-26  1.9382e-24  2.3457e-26  1.9387e-24  3.4443e-26  1.9397e-24  5.3981e-26  1.9414e-24  8.8731e-26  1.9444e-24  1.5054e-25  1.9497e-24  2.6052e-25  1.9592e-24  4.5629e-25  1.9761e-24  8.0508e-25  2.0062e-24  1.4275e-24  2.0598e-24  2.5416e-24  2.1555e-24  4.5479e-24  2.3263e-24  8.1976e-24
      2.35  1.9196e-24  1.0661e-26  1.9196e-24  1.0886e-26  1.9197e-24  1.1286e-26  1.9197e-24  1.1998e-26  1.9197e-24  1.3263e-26  1.9198e-24  1.5513e-26  1.9200e-24  1.9513e-26  1.9203e-24  2.6628e-26  1.9208e-24  3.9281e-26  1.9218e-24  6.1784e-26  1.9234e-24  1.0181e-25  1.9264e-24  1.7300e-25  1.9316e-24  2.9968e-25  1.9410e-24  5.2520e-25  1.9577e-24  9.2703e-25  1.9873e-24  1.6443e-24  2.0402e-24  2.9286e-24  2.1344e-24  5.2425e-24  2.3027e-24  9.4552e-24
      2.40  1.9012e-24  1.1840e-26  1.9012e-24  1.2096e-26  1.9013e-24  1.2552e-26  1.9013e-24  1.3362e-26  1.9013e-24  1.4803e-26  1.9014e-24  1.7366e-26  1.9016e-24  2.1923e-26  1.9019e-24  3.0027e-26  1.9024e-24  4.4439e-26  1.9033e-24  7.0070e-26  1.9050e-24  1.1566e-25  1.9079e-24  1.9676e-25  1.9131e-24  3.4106e-25  1.9223e-24  5.9797e-25  1.9387e-24  1.0558e-24  1.9679e-24  1.8731e-24  2.0200e-24  3.3372e-24  2.1128e-24  5.9760e-24  2.2785e-24  1.0783e-23
      2.45  1.8823e-24  1.3141e-26  1.8823e-24  1.3430e-26  1.8823e-24  1.3943e-26  1.8824e-24  1.4856e-26  1.8824e-24  1.6480e-26  1.8825e-24  1.9367e-26  1.8827e-24  2.4501e-26  1.8830e-24  3.3630e-26  1.8835e-24  4.9867e-26  1.8844e-24  7.8743e-26  1.8860e-24  1.3010e-25  1.8889e-24  2.2147e-25  1.8940e-24  3.8406e-25  1.9031e-24  6.7353e-25  1.9192e-24  1.1894e-24  1.9480e-24  2.1106e-24  1.9993e-24  3.7611e-24  2.0907e-24  6.7370e-24  2.2539e-24  1.2161e-23
      2.50  1.8629e-24  1.4576e-26  1.8629e-24  1.4898e-26  1.8629e-24  1.5471e-26  1.8629e-24  1.6488e-26  1.8630e-24  1.8298e-26  1.8631e-24  2.1516e-26  1.8632e-24  2.7239e-26  1.8635e-24  3.7416e-26  1.8640e-24  5.5515e-26  1.8649e-24  8.7703e-26  1.8665e-24  1.4496e-25  1.8693e-24  2.4681e-25  1.8743e-24  4.2806e-25  1.8833e-24  7.5077e-25  1.8992e-24  1.3260e-24  1.9276e-24  2.3531e-24  1.9780e-24  4.1940e-24  2.0680e-24  7.5141e-24  2.2288e-24  1.3569e-23
      2.55  1.8429e-24  1.6166e-26  1.8429e-24  1.6521e-26  1.8429e-24  1.7153e-26  1.8429e-24  1.8275e-26  1.8430e-24  2.0272e-26  1.8430e-24  2.3824e-26  1.8432e-24  3.0139e-26  1.8435e-24  4.1369e-26  1.8440e-24  6.1341e-26  1.8449e-24  9.6862e-26  1.8464e-24  1.6004e-25  1.8492e-24  2.7244e-25  1.8542e-24  4.7246e-25  1.8630e-24  8.2861e-25  1.8787e-24  1.4635e-24  1.9066e-24  2.5973e-24  1.9562e-24  4.6296e-24  2.0449e-24  8.2960e-24  2.2031e-24  1.4984e-23
      2.60  1.8223e-24  1.7917e-26  1.8223e-24  1.8305e-26  1.8223e-24  1.8995e-26  1.8223e-24  2.0223e-26  1.8224e-24  2.2406e-26  1.8225e-24  2.6288e-26  1.8226e-24  3.3191e-26  1.8229e-24  4.5467e-26  1.8234e-24  6.7299e-26  1.8243e-24  1.0613e-25  1.8258e-24  1.7519e-25  1.8286e-24  2.9806e-25  1.8334e-24  5.1671e-25  1.8421e-24  9.0606e-25  1.8575e-24  1.6001e-24  1.8850e-24  2.8398e-24  1.9339e-24  5.0623e-24  2.0212e-24  9.0725e-24  2.1770e-24  1.6390e-23
      2.65  1.8012e-24  1.9844e-26  1.8012e-24  2.0265e-26  1.8012e-24  2.1013e-26  1.8012e-24  2.2344e-26  1.8013e-24  2.4709e-26  1.8014e-24  2.8916e-26  1.8015e-24  3.6398e-26  1.8018e-24  4.9703e-26  1.8023e-24  7.3364e-26  1.8031e-24  1.1545e-25  1.8046e-24  1.9030e-25  1.8073e-24  3.2346e-25  1.8121e-24  5.6045e-25  1.8207e-24  9.8245e-25  1.8359e-24  1.7348e-24  1.8629e-24  3.0786e-24  1.9111e-24  5.4881e-24  1.9969e-24  9.8366e-24  2.1503e-24  1.7773e-23
      2.70  1.7795e-24  2.1965e-26  1.7795e-24  2.2418e-26  1.7795e-24  2.3222e-26  1.7795e-24  2.4653e-26  1.7796e-24  2.7197e-26  1.7797e-24  3.1722e-26  1.7798e-24  3.9768e-26  1.7801e-24  5.4077e-26  1.7805e-24  7.9525e-26  1.7814e-24  1.2478e-25  1.7829e-24  2.0529e-25  1.7855e-24  3.4851e-25  1.7903e-24  6.0339e-25  1.7987e-24  1.0573e-24  1.8136e-24  1.8665e-24  1.8403e-24  3.3120e-24  1.8877e-24  5.9041e-24  1.9722e-24  1.0583e-23  2.1231e-24  1.9123e-23
      2.75  1.7572e-24  2.4297e-26  1.7572e-24  2.4780e-26  1.7572e-24  2.5640e-26  1.7573e-24  2.7168e-26  1.7573e-24  2.9885e-26  1.7574e-24  3.4717e-26  1.7575e-24  4.3311e-26  1.7578e-24  5.8593e-26  1.7583e-24  8.5770e-26  1.7591e-24  1.3411e-25  1.7606e-24  2.2008e-25  1.7632e-24  3.7304e-25  1.7678e-24  6.4526e-25  1.7761e-24  1.1300e-24  1.7908e-24  1.9943e-24  1.8171e-24  3.5384e-24  1.8637e-24  6.3072e-24  1.9469e-24  1.1305e-23  2.0956e-24  2.0429e-23
      2.80  1.7344e-24  2.6876e-26  1.7344e-24  2.7389e-26  1.7344e-24  2.8302e-26  1.7344e-24  2.9924e-26  1.7345e-24  3.2809e-26  1.7345e-24  3.7940e-26  1.7347e-24  4.7063e-26  1.7349e-24  6.3288e-26  1.7354e-24  9.2144e-26  1.7362e-24  1.4346e-25  1.7377e-24  2.3475e-25  1.7402e-24  3.9715e-25  1.7448e-24  6.8618e-25  1.7530e-24  1.2009e-24  1.7675e-24  2.1186e-24  1.7933e-24  3.7581e-24  1.8393e-24  6.6982e-24  1.9212e-24  1.2005e-23  2.0675e-24  2.1694e-23
      2.85  1.7109e-24  2.9710e-26  1.7109e-24  3.0252e-26  1.7109e-24  3.1216e-26  1.7110e-24  3.2930e-26  1.7110e-24  3.5977e-26  1.7111e-24  4.1397e-26  1.7112e-24  5.1036e-26  1.7115e-24  6.8176e-26  1.7119e-24  9.8658e-26  1.7127e-24  1.5287e-25  1.7142e-24  2.4931e-25  1.7167e-24  4.2087e-25  1.7212e-24  7.2620e-25  1.7293e-24  1.2700e-24  1.7435e-24  2.2394e-24  1.7690e-24  3.9715e-24  1.8142e-24  7.0777e-24  1.8949e-24  1.2685e-23  2.0389e-24  2.2921e-23
      2.90  1.6869e-24  3.2823e-26  1.6869e-24  3.3393e-26  1.6869e-24  3.4407e-26  1.6869e-24  3.6209e-26  1.6870e-24  3.9415e-26  1.6871e-24  4.5116e-26  1.6872e-24  5.5255e-26  1.6874e-24  7.3284e-26  1.6879e-24  1.0535e-25  1.6887e-24  1.6238e-25  1.6901e-24  2.6381e-25  1.6926e-24  4.4428e-25  1.6970e-24  7.6546e-25  1.7049e-24  1.3375e-24  1.7190e-24  2.3573e-24  1.7440e-24  4.1794e-24  1.7886e-24  7.4469e-24  1.8680e-24  1.3345e-23  2.0098e-24  2.4112e-23
      2.95  1.6623e-24  3.6249e-26  1.6623e-24  3.6846e-26  1.6623e-24  3.7909e-26  1.6623e-24  3.9798e-26  1.6623e-24  4.3158e-26  1.6624e-24  4.9133e-26  1.6626e-24  5.9759e-26  1.6628e-24  7.8655e-26  1.6632e-24  1.1226e-25  1.6640e-24  1.7203e-25  1.6654e-24  2.7834e-25  1.6679e-24  4.6749e-25  1.6723e-24  8.0411e-25  1.6800e-24  1.4036e-24  1.6939e-24  2.4725e-24  1.7185e-24  4.3822e-24  1.7624e-24  7.8071e-24  1.8405e-24  1.3989e-23  1.9801e-24  2.5273e-23
      3.00  1.6370e-24  4.0015e-26  1.6370e-24  4.0639e-26  1.6371e-24  4.1749e-26  1.6371e-24  4.3723e-26  1.6371e-24  4.7234e-26  1.6372e-24  5.3477e-26  1.6373e-24  6.4578e-26  1.6376e-24  8.4321e-26  1.6380e-24  1.1943e-25  1.6388e-24  1.8188e-25  1.6401e-24  2.9295e-25  1.6426e-24  4.9057e-25  1.6469e-24  8.4228e-25  1.6545e-24  1.4686e-24  1.6682e-24  2.5854e-24  1.6924e-24  4.5808e-24  1.7356e-24  8.1592e-24  1.8125e-24  1.4618e-23  1.9499e-24  2.6406e-23
      3.05  1.6112e-24  4.4190e-26  1.6112e-24  4.4840e-26  1.6112e-24  4.5996e-26  1.6113e-24  4.8052e-26  1.6113e-24  5.1707e-26  1.6114e-24  5.8208e-26  1.6115e-24  6.9767e-26  1.6118e-24  9.0325e-26  1.6122e-24  1.2689e-25  1.6129e-24  1.9191e-25  1.6143e-24  3.0757e-25  1.6167e-24  5.1334e-25  1.6209e-24  8.7958e-25  1.6284e-24  1.5318e-24  1.6419e-24  2.6947e-24  1.6657e-24  4.7725e-24  1.7082e-24  8.4985e-24  1.7839e-24  1.5223e-23  1.9191e-24  2.7496e-23
      3.10  1.5848e-24  4.8747e-26  1.5848e-24  4.9422e-26  1.5848e-24  5.0623e-26  1.5848e-24  5.2758e-26  1.5849e-24  5.6556e-26  1.5850e-24  6.3309e-26  1.5851e-24  7.5319e-26  1.5853e-24  9.6677e-26  1.5857e-24  1.3466e-25  1.5865e-24  2.0221e-25  1.5878e-24  3.2238e-25  1.5902e-24  5.3616e-25  1.5943e-24  9.1665e-25  1.6018e-24  1.5943e-24  1.6150e-24  2.8025e-24  1.6384e-24  4.9611e-24  1.6802e-24  8.8321e-24  1.7548e-24  1.5818e-23  1.8878e-24  2.8566e-23
      3.15  1.5578e-24  5.3783e-26  1.5578e-24  5.4483e-26  1.5578e-24  5.5729e-26  1.5578e-24  5.7944e-26  1.5579e-24  6.1882e-26  1.5579e-24  6.8887e-26  1.5581e-24  8.1342e-26  1.5583e-24  1.0349e-25  1.5587e-24  1.4289e-25  1.5594e-24  2.1295e-25  1.5607e-24  3.3758e-25  1.5631e-24  5.5930e-25  1.5672e-24  9.5392e-25  1.5745e-24  1.6567e-24  1.5875e-24  2.9098e-24  1.6106e-24  5.1486e-24  1.6517e-24  9.1634e-24  1.7250e-24  1.6408e-23  1.8559e-24  2.9628e-23
      3.20  1.5302e-24  5.9326e-26  1.5302e-24  6.0051e-26  1.5302e-24  6.1342e-26  1.5302e-24  6.3637e-26  1.5303e-24  6.7718e-26  1.5303e-24  7.4976e-26  1.5305e-24  8.7882e-26  1.5307e-24  1.1084e-25  1.5311e-24  1.5165e-25  1.5318e-24  2.2425e-25  1.5331e-24  3.5339e-25  1.5354e-24  5.8314e-25  1.5394e-24  9.9205e-25  1.5466e-24  1.7203e-24  1.5594e-24  3.0187e-24  1.5821e-24  5.3386e-24  1.6226e-24  9.4985e-24  1.6947e-24  1.7005e-23  1.8235e-24  3.0700e-23
      3.25  1.5020e-24  6.5386e-26  1.5020e-24  6.6138e-26  1.5020e-24  6.7476e-26  1.5020e-24  6.9855e-26  1.5021e-24  7.4084e-26  1.5021e-24  8.1606e-26  1.5023e-24  9.4983e-26  1.5025e-24  1.1877e-25  1.5029e-24  1.6108e-25  1.5036e-24  2.3632e-25  1.5049e-24  3.7016e-25  1.5071e-24  6.0828e-25  1.5111e-24  1.0321e-24  1.5181e-24  1.7868e-24  1.5307e-24  3.1326e-24  1.5531e-24  5.5370e-24  1.5929e-24  9.8482e-24  1.6639e-24  1.7627e-23  1.7905e-24  3.1817e-23
      3.30  1.4732e-24  7.2074e-26  1.4732e-24  7.2855e-26  1.4732e-24  7.4244e-26  1.4733e-24  7.6713e-26  1.4733e-24  8.1104e-26  1.4734e-24  8.8914e-26  1.4735e-24  1.0280e-25  1.4737e-24  1.2750e-25  1.4741e-24  1.7142e-25  1.4748e-24  2.4954e-25  1.4760e-24  3.8849e-25  1.4782e-24  6.3570e-25  1.4822e-24  1.0757e-24  1.4891e-24  1.8593e-24  1.5015e-24  3.2564e-24  1.5235e-24  5.7526e-24  1.5626e-24  1.0228e-23  1.6324e-24  1.8304e-23  1.7570e-24  3.3032e-23
      3.35  1.4439e-24  7.9380e-26  1.4439e-24  8.0194e-26  1.4439e-24  8.1641e-26  1.4439e-24  8.4214e-26  1.4440e-24  8.8789e-26  1.4440e-24  9.6926e-26  1.4442e-24  1.1140e-25  1.4444e-24  1.3713e-25  1.4448e-24  1.8289e-25  1.4454e-24  2.6428e-25  1.4467e-24  4.0906e-25  1.4488e-24  6.6663e-25  1.4527e-24  1.1251e-24  1.4595e-24  1.9415e-24  1.4717e-24  3.3972e-24  1.4933e-24  5.9980e-24  1.5318e-24  1.0661e-23  1.6005e-24  1.9075e-23  1.7229e-24  3.4417e-23
      3.40  1.4140e-24  8.7357e-26  1.4140e-24  8.8209e-26  1.4140e-24  8.9725e-26  1.4140e-24  9.2420e-26  1.4141e-24  9.7213e-26  1.4141e-24  1.0574e-25  1.4143e-24  1.2090e-25  1.4145e-24  1.4785e-25  1.4148e-24  1.9580e-25  1.4150e-24  2.8091e-25  1.4167e-24  4.3274e-25  1.4189e-24  7.0258e-25  1.4226e-24  1.1828e-24  1.4294e-24  2.0382e-24  1.4413e-24  3.5632e-24  1.4626e-24  6.2880e-24  1.5005e-24  1.1173e-23  1.5679e-24  1.9987e-23  1.6884e-24  3.6057e-23
      3.45  1.3836e-24  9.6056e-26  1.3836e-24  9.6956e-26  1.3836e-24  9.8556e-26  1.3836e-24  1.0140e-25  1.3836e-24  1.0646e-25  1.3837e-24  1.1546e-25  1.3838e-24  1.3145e-25  1.3840e-24  1.5991e-25  1.3844e-24  2.1051e-25  1.3851e-24  3.0050e-25  1.3862e-24  4.6058e-25  1.3883e-24  7.4538e-25  1.3921e-24  1.2523e-24  1.3987e-24  2.1550e-24  1.4104e-24  3.7646e-24  1.4313e-24  6.6404e-24  1.4685e-24  1.1796e-23  1.5349e-24  2.1098e-23  1.6533e-24  3.8057e-23
      3.50  1.3526e-24  1.0554e-25  1.3526e-24  1.0649e-25  1.3526e-24  1.0820e-25  1.3526e-24  1.1123e-25  1.3527e-24  1.1662e-25  1.3527e-24  1.2620e-25  1.3528e-24  1.4324e-25  1.3530e-24  1.7355e-25  1.3534e-24  2.2745e-25  1.3541e-24  3.2332e-25  1.3552e-24  4.9384e-25  1.3573e-24  7.9722e-25  1.3609e-24  1.3372e-24  1.3674e-24  2.2988e-24  1.3790e-24  4.0135e-24  1.3995e-24  7.0769e-24  1.4361e-24  1.2569e-23  1.5013e-24  2.2478e-23  1.6176e-24  4.0540e-23
      3.55  1.3211e-24  1.1598e-25  1.3211e-24  1.1701e-25  1.3211e-24  1.1885e-25  1.3212e-24  1.2211e-25  1.3212e-24  1.2792e-25  1.3213e-24  1.3824e-25  1.3214e-24  1.5659e-25  1.3216e-24  1.8923e-25  1.3219e-24  2.4728e-25  1.3226e-24  3.5052e-25  1.3237e-24  5.3417e-25  1.3257e-24  8.6090e-25  1.3293e-24  1.4424e-24  1.3357e-24  2.4781e-24  1.3470e-24  4.3248e-24  1.3672e-24  7.6240e-24  1.4032e-24  1.3539e-23  1.4672e-24  2.4210e-23  1.5815e-24  4.3661e-23
      3.60  1.2892e-24  1.2734e-25  1.2892e-24  1.2847e-25  1.2892e-24  1.3047e-25  1.2892e-24  1.3402e-25  1.2892e-24  1.4035e-25  1.2893e-24  1.5159e-25  1.2894e-24  1.7159e-25  1.2896e-24  2.0715e-25  1.2900e-24  2.7040e-25  1.2906e-24  3.8289e-25  1.2917e-24  5.8298e-25  1.2937e-24  9.3897e-25  1.2972e-24  1.5726e-24  1.3035e-24  2.7010e-24  1.3146e-24  4.7131e-24  1.3344e-24  8.3078e-24  1.3697e-24  1.4753e-23  1.4326e-24  2.6380e-23  1.5450e-24  4.7570e-23
      3.65  1.2567e-24  1.3968e-25  1.2567e-24  1.4092e-25  1.2567e-24  1.4312e-25  1.2567e-24  1.4705e-25  1.2568e-24  1.5402e-25  1.2568e-24  1.6643e-25  1.2569e-24  1.8850e-25  1.2571e-24  2.2774e-25  1.2575e-24  2.9753e-25  1.2581e-24  4.2173e-25  1.2592e-24  6.4258e-25  1.2611e-24  1.0355e-24  1.2646e-24  1.7348e-24  1.2707e-24  2.9804e-24  1.2816e-24  5.2013e-24  1.3011e-24  9.1692e-24  1.3354e-24  1.6296e-23  1.3966e-24  2.9146e-23  1.5075e-24  5.2531e-23
      3.70  1.2238e-24  1.5307e-25  1.2238e-24  1.5446e-25  1.2238e-24  1.5693e-25  1.2238e-24  1.6133e-25  1.2239e-24  1.6915e-25  1.2239e-24  1.8305e-25  1.2240e-24  2.0777e-25  1.2242e-24  2.5174e-25  1.2246e-24  3.2993e-25  1.2252e-24  4.6899e-25  1.2263e-24  7.1636e-25  1.2282e-24  1.1567e-24  1.2316e-24  1.9401e-24  1.2376e-24  3.3355e-24  1.2483e-24  5.8236e-24  1.2674e-24  1.0269e-23  1.3014e-24  1.8239e-23  1.3612e-24  3.2652e-23  1.4684e-24  5.8897e-23
      3.75  1.1905e-24  1.6770e-25  1.1905e-24  1.6928e-25  1.1905e-24  1.7210e-25  1.1905e-24  1.7710e-25  1.1906e-24  1.8601e-25  1.1906e-24  2.0185e-25  1.1907e-24  2.3001e-25  1.1909e-24  2.8009e-25  1.1913e-24  3.6916e-25  1.1918e-24  5.2757e-25  1.1929e-24  8.0935e-25  1.1948e-24  1.3107e-24  1.1981e-24  2.2033e-24  1.2040e-24  3.7927e-24  1.2146e-24  6.6268e-24  1.2334e-24  1.1690e-23  1.2668e-24  2.0769e-23  1.3257e-24  3.7190e-23  1.4315e-24  6.7064e-23
      3.80  1.1579e-24  1.8470e-25  1.1579e-24  1.8655e-25  1.1579e-24  1.8982e-25  1.1579e-24  1.9564e-25  1.1580e-24  2.0600e-25  1.1580e-24  2.2441e-25  1.1581e-24  2.5715e-25  1.1583e-24  3.1538e-25  1.1587e-24  4.1894e-25  1.1593e-24  6.0312e-25  1.1603e-24  9.3074e-25  1.1622e-24  1.5136e-24  1.1654e-24  2.5513e-24  1.1713e-24  4.3992e-24  1.1817e-24  7.6941e-24  1.2002e-24  1.3580e-23  1.2332e-24  2.4134e-23  1.2913e-24  4.3227e-23  1.3959e-24  7.7934e-23
      3.85  1.1240e-24  2.0962e-25  1.1240e-24  2.1181e-25  1.1240e-24  2.1571e-25  1.1241e-24  2.2265e-25  1.1241e-24  2.3499e-25  1.1242e-24  2.5694e-25  1.1243e-24  2.9596e-25  1.1244e-24  3.6536e-25  1.1248e-24  4.8878e-25  1.1254e-24  7.0828e-25  1.1264e-24  1.0987e-24  1.1282e-24  1.7934e-24  1.1315e-24  3.0298e-24  1.1373e-24  5.2321e-24  1.1476e-24  9.1583e-24  1.1660e-24  1.6172e-23  1.1988e-24  2.8744e-23  1.2564e-24  5.1490e-23  1.3603e-24  9.2795e-23
      3.90  1.0899e-24  2.7229e-25  1.0899e-24  2.7499e-25  1.0899e-24  2.7979e-25  1.0899e-24  2.8831e-25  1.0899e-24  3.0348e-25  1.0900e-24  3.3044e-25  1.0901e-24  3.7839e-25  1.0903e-24  4.6367e-25  1.0906e-24  6.1533e-25  1.0912e-24  8.8507e-25  1.0922e-24  1.3649e-24  1.0941e-24  2.2185e-24  1.0973e-24  3.7376e-24  1.1031e-24  6.4436e-24  1.1134e-24  1.1267e-23  1.1319e-24  1.9882e-23  1.1647e-24  3.5319e-23  1.2225e-24  6.3237e-23  1.3267e-24  1.1386e-22
      3.95  1.0554e-24  5.0056e-25  1.0554e-24  5.0396e-25  1.0554e-24  5.1000e-25  1.0554e-24  5.2075e-25  1.0555e-24  5.3985e-25  1.0555e-24  5.7383e-25  1.0556e-24  6.3426e-25  1.0558e-24  7.4172e-25  1.0562e-24  9.3282e-25  1.0567e-24  1.2727e-24  1.0578e-24  1.8773e-24  1.0596e-24  2.9528e-24  1.0630e-24  4.8669e-24  1.0688e-24  8.2757e-24  1.0792e-24  1.4351e-23  1.0979e-24  2.5199e-23  1.1311e-24  4.4628e-23  1.1905e-24  7.9608e-23  1.2974e-24  1.4310e-22
