# This was generated using Cloudy10 and the columns are ordered 
# as log10 of the fraction of the metallicity to the solar metallicity
# 'h_*_Z' and 'c_*_Z' stands for cooling and heating respectively 
# at * metalicity
#
# NOTE: This was generated separately from loop_coolingcurve_w_UV.py
#       using Output_metals_w_redshift.py.
#
# Redshift = 5.0
# hden = -4.0
#
#     temp   h_-3.00_Z   c_-3.00_Z   h_-2.75_Z   c_-2.75_Z   h_-2.50_Z   c_-2.50_Z   h_-2.25_Z   c_-2.25_Z   h_-2.00_Z   c_-2.00_Z   h_-1.75_Z   c_-1.75_Z   h_-1.50_Z   c_-1.50_Z   h_-1.25_Z   c_-1.25_Z   h_-1.00_Z   c_-1.00_Z   h_-0.75_Z   c_-0.75_Z   h_-0.50_Z   c_-0.50_Z   h_-0.25_Z   c_-0.25_Z    h_0.00_Z    c_0.00_Z    h_0.25_Z    c_0.25_Z    h_0.50_Z    c_0.50_Z    h_0.75_Z    c_0.75_Z    h_1.00_Z    c_1.00_Z    h_1.25_Z    c_1.25_Z    h_1.50_Z    c_1.50_Z 
      1.00  2.9108e-22  5.4892e-26  2.9108e-22  5.4892e-26  2.9109e-22  5.4893e-26  2.9111e-22  5.4894e-26  2.9114e-22  5.4896e-26  2.9119e-22  5.4899e-26  2.9129e-22  5.4906e-26  2.9145e-22  5.4918e-26  2.9175e-22  5.4938e-26  2.9228e-22  5.4975e-26  2.9322e-22  5.5041e-26  2.9489e-22  5.5157e-26  2.9785e-22  5.5365e-26  3.0311e-22  5.5734e-26  3.1247e-22  5.6394e-26  3.2914e-22  5.7574e-26  3.5898e-22  5.9696e-26  4.1269e-22  6.3542e-26  5.1013e-22  7.0615e-26
      1.05  2.7292e-22  5.7604e-26  2.7293e-22  5.7604e-26  2.7294e-22  5.7605e-26  2.7295e-22  5.7606e-26  2.7298e-22  5.7609e-26  2.7303e-22  5.7614e-26  2.7312e-22  5.7622e-26  2.7328e-22  5.7636e-26  2.7356e-22  5.7661e-26  2.7407e-22  5.7707e-26  2.7496e-22  5.7787e-26  2.7655e-22  5.7931e-26  2.7937e-22  5.8187e-26  2.8436e-22  5.8643e-26  2.9326e-22  5.9457e-26  3.0909e-22  6.0915e-26  3.3745e-22  6.3543e-26  3.8846e-22  6.8327e-26  4.8096e-22  7.7189e-26
      1.10  2.5589e-22  6.0437e-26  2.5589e-22  6.0438e-26  2.5590e-22  6.0439e-26  2.5592e-22  6.0441e-26  2.5595e-22  6.0444e-26  2.5599e-22  6.0450e-26  2.5608e-22  6.0461e-26  2.5623e-22  6.0479e-26  2.5651e-22  6.0513e-26  2.5699e-22  6.0572e-26  2.5785e-22  6.0678e-26  2.5937e-22  6.0865e-26  2.6207e-22  6.1200e-26  2.6686e-22  6.1796e-26  2.7539e-22  6.2862e-26  2.9058e-22  6.4775e-26  3.1776e-22  6.8231e-26  3.6663e-22  7.4550e-26  4.5524e-22  8.6340e-26
      1.15  2.3992e-22  6.3397e-26  2.3992e-22  6.3398e-26  2.3993e-22  6.3400e-26  2.3994e-22  6.3402e-26  2.3997e-22  6.3407e-26  2.4002e-22  6.3415e-26  2.4010e-22  6.3430e-26  2.4025e-22  6.3456e-26  2.4051e-22  6.3503e-26  2.4098e-22  6.3586e-26  2.4181e-22  6.3735e-26  2.4328e-22  6.3998e-26  2.4589e-22  6.4468e-26  2.5052e-22  6.5305e-26  2.5876e-22  6.6803e-26  2.7343e-22  6.9494e-26  2.9967e-22  7.4366e-26  3.4686e-22  8.3305e-26  4.3238e-22  1.0008e-25
      1.20  2.2494e-22  6.6490e-26  2.2495e-22  6.6491e-26  2.2493e-22  6.6489e-26  2.2497e-22  6.6497e-26  2.2499e-22  6.6504e-26  2.2504e-22  6.6517e-26  2.2512e-22  6.6540e-26  2.2524e-22  6.6575e-26  2.2552e-22  6.6651e-26  2.2597e-22  6.6778e-26  2.2678e-22  6.7003e-26  2.2821e-22  6.7404e-26  2.3075e-22  6.8119e-26  2.3524e-22  6.9395e-26  2.4325e-22  7.1677e-26  2.5749e-22  7.5779e-26  2.8298e-22  8.3214e-26  3.2879e-22  9.6881e-26  4.1180e-22  1.2261e-25
      1.25  2.1090e-22  7.0641e-26  2.1091e-22  7.0643e-26  2.1092e-22  7.0647e-26  2.1093e-22  7.0654e-26  2.1095e-22  7.0666e-26  2.1100e-22  7.0687e-26  2.1108e-22  7.0724e-26  2.1122e-22  7.0790e-26  2.1147e-22  7.0908e-26  2.1191e-22  7.1118e-26  2.1270e-22  7.1491e-26  2.1409e-22  7.2156e-26  2.1657e-22  7.3341e-26  2.2095e-22  7.5455e-26  2.2875e-22  7.9236e-26  2.4264e-22  8.6034e-26  2.6747e-22  9.8352e-26  3.1211e-22  1.2099e-25  3.9300e-22  1.6359e-25
      1.30  1.9775e-22  7.5228e-26  1.9775e-22  7.5232e-26  1.9776e-22  7.5239e-26  1.9778e-22  7.5250e-26  1.9780e-22  7.5271e-26  1.9784e-22  7.5308e-26  1.9792e-22  7.5374e-26  1.9806e-22  7.5491e-26  1.9830e-22  7.5699e-26  1.9873e-22  7.6069e-26  1.9950e-22  7.6727e-26  2.0087e-22  7.7898e-26  2.0328e-22  7.9986e-26  2.0755e-22  8.3706e-26  2.1520e-22  9.0372e-26  2.2877e-22  1.0234e-25  2.5302e-22  1.2401e-25  2.9663e-22  1.6377e-25  3.7565e-22  2.3838e-25
      1.35  1.8542e-22  7.9913e-26  1.8543e-22  7.9920e-26  1.8544e-22  7.9931e-26  1.8545e-22  7.9953e-26  1.8547e-22  7.9990e-26  1.8552e-22  8.0057e-26  1.8559e-22  8.0176e-26  1.8573e-22  8.0388e-26  1.8596e-22  8.0765e-26  1.8639e-22  8.1435e-26  1.8714e-22  8.2627e-26  1.8847e-22  8.4749e-26  1.9084e-22  8.8529e-26  1.9504e-22  9.5272e-26  2.0249e-22  1.0733e-25  2.1577e-22  1.2898e-25  2.3949e-22  1.6813e-25  2.8214e-22  2.3983e-25  3.5942e-22  3.7392e-25
      1.40  1.7388e-22  8.4711e-26  1.7388e-22  8.4723e-26  1.7389e-22  8.4745e-26  1.7388e-22  8.4777e-26  1.7393e-22  8.4850e-26  1.7397e-22  8.4971e-26  1.7404e-22  8.5186e-26  1.7417e-22  8.5567e-26  1.7441e-22  8.6245e-26  1.7482e-22  8.7452e-26  1.7556e-22  8.9598e-26  1.7686e-22  9.3420e-26  1.7918e-22  1.0023e-25  1.8329e-22  1.1237e-25  1.9058e-22  1.3407e-25  2.0357e-22  1.7301e-25  2.2677e-22  2.4337e-25  2.6848e-22  3.7200e-25  3.4408e-22  6.1186e-25
      1.45  1.6306e-22  8.9640e-26  1.6305e-22  8.9655e-26  1.6307e-22  8.9699e-26  1.6309e-22  8.9765e-26  1.6311e-22  8.9884e-26  1.6315e-22  9.0095e-26  1.6322e-22  9.0470e-26  1.6335e-22  9.1137e-26  1.6358e-22  9.2324e-26  1.6398e-22  9.4436e-26  1.6470e-22  9.8192e-26  1.6598e-22  1.0488e-25  1.6825e-22  1.1679e-25  1.7226e-22  1.3802e-25  1.7939e-22  1.7598e-25  1.9210e-22  2.4406e-25  2.1477e-22  3.6699e-25  2.5554e-22  5.9144e-25  3.2942e-22  1.0091e-24
      1.50  1.5293e-22  9.4718e-26  1.5294e-22  9.4753e-26  1.5294e-22  9.4816e-26  1.5296e-22  9.4928e-26  1.5298e-22  9.5127e-26  1.5302e-22  9.5482e-26  1.5309e-22  9.6112e-26  1.5321e-22  9.7232e-26  1.5344e-22  9.9226e-26  1.5383e-22  1.0277e-25  1.5453e-22  1.0908e-25  1.5578e-22  1.2031e-25  1.5799e-22  1.4030e-25  1.6192e-22  1.7596e-25  1.6888e-22  2.3967e-25  1.8128e-22  3.5394e-25  2.0341e-22  5.6016e-25  2.4320e-22  9.3637e-25  3.1531e-22  1.6353e-24
      1.55  1.4345e-22  9.9976e-26  1.4345e-22  1.0003e-25  1.4346e-22  1.0013e-25  1.4347e-22  1.0031e-25  1.4349e-22  1.0063e-25  1.4353e-22  1.0120e-25  1.4360e-22  1.0221e-25  1.4372e-22  1.0401e-25  1.4394e-22  1.0721e-25  1.4432e-22  1.1289e-25  1.4501e-22  1.2301e-25  1.4623e-22  1.4102e-25  1.4838e-22  1.7308e-25  1.5221e-22  2.3027e-25  1.5899e-22  3.3244e-25  1.7107e-22  5.1563e-25  1.9265e-22  8.4622e-25  2.3142e-22  1.4490e-24  3.0167e-22  2.5679e-24
      1.60  1.3455e-22  1.0541e-25  1.3457e-22  1.0551e-25  1.3458e-22  1.0566e-25  1.3459e-22  1.0594e-25  1.3461e-22  1.0643e-25  1.3465e-22  1.0730e-25  1.3471e-22  1.0885e-25  1.3483e-22  1.1160e-25  1.3504e-22  1.1650e-25  1.3542e-22  1.2520e-25  1.3609e-22  1.4070e-25  1.3727e-22  1.6828e-25  1.3937e-22  2.1739e-25  1.4310e-22  3.0497e-25  1.4970e-22  4.6145e-25  1.6146e-22  7.4201e-25  1.8244e-22  1.2482e-24  2.2014e-22  2.1709e-24  2.8847e-22  3.8829e-24
      1.65  1.2625e-22  1.1107e-25  1.2626e-22  1.1120e-25  1.2626e-22  1.1143e-25  1.2627e-22  1.1183e-25  1.2629e-22  1.1255e-25  1.2633e-22  1.1383e-25  1.2640e-22  1.1609e-25  1.2651e-22  1.2013e-25  1.2672e-22  1.2731e-25  1.2708e-22  1.4007e-25  1.2773e-22  1.6278e-25  1.2888e-22  2.0320e-25  1.3092e-22  2.7519e-25  1.3454e-22  4.0356e-25  1.4096e-22  6.3290e-25  1.5238e-22  1.0441e-24  1.7275e-22  1.7860e-24  2.0935e-22  3.1383e-24  2.7567e-22  5.6471e-24
      1.70  1.1847e-22  1.1695e-25  1.1847e-22  1.1713e-25  1.1848e-22  1.1745e-25  1.1849e-22  1.1802e-25  1.1851e-22  1.1903e-25  1.1854e-22  1.2082e-25  1.1861e-22  1.2402e-25  1.1872e-22  1.2970e-25  1.1892e-22  1.3980e-25  1.1927e-22  1.5776e-25  1.1990e-22  1.8972e-25  1.2102e-22  2.4661e-25  1.2300e-22  3.4792e-25  1.2651e-22  5.2857e-25  1.3274e-22  8.5134e-25  1.4381e-22  1.4301e-24  1.6357e-22  2.4742e-24  1.9904e-22  4.3778e-24  2.6331e-22  7.9097e-24
      1.75  1.1118e-22  1.2308e-25  1.1118e-22  1.2332e-25  1.1119e-22  1.2375e-25  1.1120e-22  1.2452e-25  1.1122e-22  1.2589e-25  1.1126e-22  1.2833e-25  1.1132e-22  1.3266e-25  1.1143e-22  1.4036e-25  1.1162e-22  1.5406e-25  1.1196e-22  1.7843e-25  1.1257e-22  2.2178e-25  1.1365e-22  2.9894e-25  1.1557e-22  4.3636e-25  1.1898e-22  6.8140e-25  1.2501e-22  1.1192e-24  1.3573e-22  1.9043e-24  1.5487e-22  3.3209e-24  1.8920e-22  5.9040e-24  2.5140e-22  1.0698e-23
      1.80  1.0436e-22  1.2949e-25  1.0437e-22  1.2981e-25  1.0435e-22  1.3037e-25  1.0438e-22  1.3139e-25  1.0440e-22  1.3319e-25  1.0443e-22  1.3639e-25  1.0449e-22  1.4207e-25  1.0460e-22  1.5218e-25  1.0478e-22  1.7015e-25  1.0512e-22  2.0213e-25  1.0571e-22  2.5902e-25  1.0675e-22  3.6028e-25  1.0861e-22  5.4063e-25  1.1191e-22  8.6221e-25  1.1775e-22  1.4368e-24  1.2812e-22  2.4674e-24  1.4664e-22  4.3271e-24  1.7983e-22  7.7193e-24  2.3996e-22  1.4018e-23
      1.85  9.7979e-23  1.3620e-25  9.7982e-23  1.3661e-25  9.7987e-23  1.3733e-25  9.7998e-23  1.3862e-25  9.8016e-23  1.4091e-25  9.8048e-23  1.4498e-25  9.8105e-23  1.5222e-25  9.8207e-23  1.6510e-25  9.8387e-23  1.8801e-25  9.8708e-23  2.2877e-25  9.9279e-23  3.0127e-25  1.0029e-22  4.3032e-25  1.0209e-22  6.6016e-25  1.0528e-22  1.0700e-24  1.1093e-22  1.8024e-24  1.2096e-22  3.1161e-24  1.3886e-22  5.4873e-24  1.7093e-22  9.8140e-24  2.2902e-22  1.7853e-23
      1.90  9.2004e-23  1.4321e-25  9.2007e-23  1.4372e-25  9.2013e-23  1.4461e-25  9.2023e-23  1.4621e-25  9.2040e-23  1.4906e-25  9.2071e-23  1.5412e-25  9.2127e-23  1.6311e-25  9.2225e-23  1.7910e-25  9.2400e-23  2.0755e-25  9.2710e-23  2.5816e-25  9.3262e-23  3.4819e-25  9.4242e-23  5.0844e-25  9.5982e-23  7.9386e-25  9.9068e-23  1.3029e-24  1.0454e-22  2.2125e-24  1.1423e-22  3.8442e-24  1.3153e-22  6.7903e-24  1.6251e-22  1.2168e-23  2.1861e-22  2.2168e-23
      1.95  8.6413e-23  1.5055e-25  8.6416e-23  1.5117e-25  8.6421e-23  1.5226e-25  8.6431e-23  1.5420e-25  8.6447e-23  1.5765e-25  8.6478e-23  1.6379e-25  8.6531e-23  1.7470e-25  8.6626e-23  1.9411e-25  8.6795e-23  2.2863e-25  8.7095e-23  2.9004e-25  8.7629e-23  3.9930e-25  8.8578e-23  5.9377e-25  9.0261e-23  9.4016e-25  9.3246e-23  1.5579e-24  9.8537e-23  2.6620e-24  1.0791e-22  4.6428e-24  1.2463e-22  8.2203e-24  1.5455e-22  1.4754e-23  2.0871e-22  2.6912e-23
      2.00  8.1179e-23  1.5825e-25  8.1182e-23  1.5898e-25  8.1187e-23  1.6027e-25  8.1197e-23  1.6258e-25  8.1213e-23  1.6668e-25  8.1242e-23  1.7398e-25  8.1294e-23  1.8696e-25  8.1386e-23  2.1004e-25  8.1549e-23  2.5108e-25  8.1840e-23  3.2409e-25  8.2357e-23  4.5400e-25  8.3274e-23  6.8522e-25  8.4903e-23  1.0971e-24  8.7792e-23  1.8316e-24  9.2911e-23  3.1446e-24  1.0198e-22  5.5006e-24  1.1814e-22  9.7567e-24  1.4705e-22  1.7534e-23  1.9936e-22  3.2019e-23
      2.05  7.6257e-23  1.6635e-25  7.6284e-23  1.6722e-25  7.6289e-23  1.6873e-25  7.6298e-23  1.7143e-25  7.6314e-23  1.7622e-25  7.6342e-23  1.8473e-25  7.6392e-23  1.9988e-25  7.6481e-23  2.2682e-25  7.6639e-23  2.7474e-25  7.6921e-23  3.5997e-25  7.7421e-23  5.1161e-25  7.8309e-23  7.8153e-25  7.9886e-23  1.2623e-24  8.2683e-23  2.1199e-24  8.7640e-23  3.6529e-24  9.6421e-23  6.4041e-24  1.1204e-22  1.1376e-23  1.3999e-22  2.0466e-23  1.9053e-22  3.7408e-23
      2.10  7.1671e-23  1.7488e-25  7.1699e-23  1.7587e-25  7.1704e-23  1.7761e-25  7.1713e-23  1.8071e-25  7.1728e-23  1.8621e-25  7.1755e-23  1.9599e-25  7.1804e-23  2.1338e-25  7.1890e-23  2.4432e-25  7.2044e-23  2.9934e-25  7.2316e-23  3.9721e-25  7.2801e-23  5.7135e-25  7.3662e-23  8.8131e-25  7.5190e-23  1.4335e-24  7.7900e-23  2.4183e-24  8.2703e-23  4.1790e-24  9.1212e-23  7.3394e-24  1.0633e-22  1.3052e-23  1.3337e-22  2.3502e-23  1.8224e-22  4.2996e-23
      2.15  6.7405e-23  1.8386e-25  6.7408e-23  1.8497e-25  6.7412e-23  1.8693e-25  6.7421e-23  1.9043e-25  6.7436e-23  1.9666e-25  6.7462e-23  2.0772e-25  6.7509e-23  2.2740e-25  6.7593e-23  2.6240e-25  6.7742e-23  3.2466e-25  6.8006e-23  4.3539e-25  6.8476e-23  6.3242e-25  6.9311e-23  9.8313e-25  7.0793e-23  1.6079e-24  7.3422e-23  2.7223e-24  7.8082e-23  4.7147e-24  8.6334e-23  8.2917e-24  1.0099e-22  1.4759e-23  1.2718e-22  2.6594e-23  1.7446e-22  4.8691e-23
      2.20  6.3387e-23  1.9329e-25  6.3390e-23  1.9453e-25  6.3394e-23  1.9673e-25  6.3403e-23  2.0063e-25  6.3417e-23  2.0758e-25  6.3443e-23  2.1993e-25  6.3488e-23  2.4191e-25  6.3570e-23  2.8098e-25  6.3714e-23  3.5048e-25  6.3971e-23  4.7412e-25  6.4427e-23  6.9409e-25  6.5238e-23  1.0856e-24  6.6678e-23  1.7832e-24  6.9231e-23  3.0274e-24  7.3756e-23  5.2522e-24  8.1769e-23  9.2469e-24  9.5982e-23  1.6471e-23  1.2139e-22  2.9696e-23  1.6719e-22  5.4405e-23
      2.25  5.9626e-23  2.0323e-25  5.9628e-23  2.0459e-25  5.9633e-23  2.0702e-25  5.9640e-23  2.1133e-25  5.9655e-23  2.1899e-25  5.9680e-23  2.3262e-25  5.9724e-23  2.5686e-25  5.9803e-23  2.9997e-25  5.9943e-23  3.7665e-25  6.0193e-23  5.1305e-25  6.0637e-23  7.5573e-25  6.1425e-23  1.1877e-24  6.2825e-23  1.9573e-24  6.5307e-23  3.3301e-24  6.9707e-23  5.7849e-24  7.7499e-23  1.0193e-23  9.1308e-23  1.8166e-23  1.1598e-22  3.2768e-23  1.6041e-22  6.0064e-23
      2.30  5.6103e-23  2.1379e-25  5.6106e-23  2.1528e-25  5.6110e-23  2.1792e-25  5.6118e-23  2.2263e-25  5.6131e-23  2.3100e-25  5.6156e-23  2.4588e-25  5.6199e-23  2.7234e-25  5.6276e-23  3.1941e-25  5.6413e-23  4.0313e-25  5.6656e-23  5.5204e-25  5.7088e-23  8.1700e-25  5.7855e-23  1.2886e-24  5.9218e-23  2.1289e-24  6.1635e-23  3.6277e-24  6.5919e-23  6.3081e-24  7.3504e-23  1.1122e-23  8.6946e-23  1.9830e-23  1.1093e-22  3.5781e-23  1.5409e-22  6.5614e-23
      2.35  5.2804e-23  2.2494e-25  5.2807e-23  2.2655e-25  5.2811e-23  2.2941e-25  5.2818e-23  2.3450e-25  5.2832e-23  2.4356e-25  5.2855e-23  2.5966e-25  5.2898e-23  2.8830e-25  5.2972e-23  3.3922e-25  5.3106e-23  4.2980e-25  5.3343e-23  5.9093e-25  5.3764e-23  8.7763e-25  5.4512e-23  1.3880e-24  5.5840e-23  2.2971e-24  5.8197e-23  3.9190e-24  6.2373e-23  6.8195e-24  6.9768e-23  1.2028e-23  8.2870e-23  2.1453e-23  1.0622e-22  3.8720e-23  1.4821e-22  7.1026e-23
      2.40  4.9714e-23  2.3672e-25  4.9716e-23  2.3845e-25  4.9720e-23  2.4152e-25  4.9727e-23  2.4699e-25  4.9740e-23  2.5672e-25  4.9764e-23  2.7401e-25  4.9805e-23  3.0476e-25  4.9878e-23  3.5946e-25  5.0008e-23  4.5674e-25  5.0239e-23  6.2978e-25  5.0650e-23  9.3768e-25  5.1381e-23  1.4858e-24  5.2677e-23  2.4622e-24  5.4978e-23  4.2041e-24  5.9055e-23  7.3191e-24  6.6274e-23  1.2914e-23  7.9063e-23  2.3037e-23  1.0183e-22  4.1586e-23  1.4273e-22  7.6298e-23
      2.45  4.6818e-23  2.4919e-25  4.6820e-23  2.5104e-25  4.6824e-23  2.5432e-25  4.6831e-23  2.6016e-25  4.6844e-23  2.7054e-25  4.6867e-23  2.8899e-25  4.6907e-23  3.2182e-25  4.6978e-23  3.8020e-25  4.7106e-23  4.8404e-25  4.7331e-23  6.6876e-25  4.7733e-23  9.9742e-25  4.8447e-23  1.5825e-24  4.9714e-23  2.6247e-24  5.1963e-23  4.4840e-24  5.5948e-23  7.8092e-24  6.3006e-23  1.3781e-23  7.5506e-23  2.4587e-23  9.7737e-23  4.4389e-23  1.3764e-22  8.1450e-23
      2.50  4.4104e-23  2.6240e-25  4.4106e-23  2.6436e-25  4.4110e-23  2.6785e-25  4.4117e-23  2.7405e-25  4.4129e-23  2.8508e-25  4.4151e-23  3.0468e-25  4.4191e-23  3.3956e-25  4.4261e-23  4.0157e-25  4.4385e-23  5.1187e-25  4.4606e-23  7.0808e-25  4.4999e-23  1.0572e-24  4.5698e-23  1.6787e-24  4.6938e-23  2.7858e-24  4.9139e-23  4.7608e-24  5.3041e-23  8.2929e-24  5.9949e-23  1.4637e-23  7.2185e-23  2.6115e-23  9.3922e-23  4.7149e-23  1.3292e-22  8.6515e-23
      2.55  4.1559e-23  2.7654e-25  4.1561e-23  2.7862e-25  4.1565e-23  2.8231e-25  4.1572e-23  2.8888e-25  4.1584e-23  3.0055e-25  4.1606e-23  3.2132e-25  4.1644e-23  3.5825e-25  4.1713e-23  4.2394e-25  4.1835e-23  5.4077e-25  4.2052e-23  7.4858e-25  4.2437e-23  1.1183e-24  4.3122e-23  1.7766e-24  4.4338e-23  2.9492e-24  4.6495e-23  5.0410e-24  5.0320e-23  8.7819e-24  5.7094e-23  1.5500e-23  6.9090e-23  2.7657e-23  9.0385e-23  4.9932e-23  1.2857e-22  9.1619e-23
      2.60  3.9172e-23  2.9154e-25  3.9174e-23  2.9373e-25  3.9178e-23  2.9763e-25  3.9185e-23  3.0457e-25  3.9197e-23  3.1690e-25  3.9218e-23  3.3883e-25  3.9256e-23  3.7784e-25  3.9323e-23  4.4720e-25  3.9443e-23  5.7058e-25  3.9656e-23  7.9004e-25  4.0034e-23  1.1805e-24  4.0706e-23  1.8756e-24  4.1900e-23  3.1139e-24  4.4018e-23  5.3229e-24  4.7774e-23  9.2732e-24  5.4425e-23  1.6368e-23  6.6204e-23  2.9203e-23  8.7111e-23  5.2721e-23  1.2456e-22  9.6728e-23
      2.65  3.6932e-23  3.0748e-25  3.6934e-23  3.0979e-25  3.6938e-23  3.1389e-25  3.6945e-23  3.2120e-25  3.6957e-23  3.3419e-25  3.6978e-23  3.5729e-25  3.7015e-23  3.9836e-25  3.7081e-23  4.7142e-25  3.7199e-23  6.0135e-25  3.7408e-23  8.3249e-25  3.7780e-23  1.2437e-24  3.8441e-23  1.9758e-24  3.9614e-23  3.2799e-24  4.1698e-23  5.6063e-24  4.5391e-23  9.7664e-24  5.1933e-23  1.7237e-23  6.3519e-23  3.0753e-23  8.4079e-23  5.5514e-23  1.2087e-22  1.0184e-22
      2.70  3.4830e-23  3.2442e-25  3.4832e-23  3.2684e-25  3.4836e-23  3.3116e-25  3.4842e-23  3.3883e-25  3.4854e-23  3.5247e-25  3.4874e-23  3.7674e-25  3.4911e-23  4.1989e-25  3.4976e-23  4.9662e-25  3.5092e-23  6.3311e-25  3.5298e-23  8.7590e-25  3.5664e-23  1.3079e-24  3.6315e-23  2.0768e-24  3.7471e-23  3.4467e-24  3.9523e-23  5.8902e-24  4.3161e-23  1.0260e-23  4.9605e-23  1.8106e-23  6.1020e-23  3.2299e-23  8.1274e-23  5.8298e-23  1.1749e-22  1.0692e-22
      2.75  3.2855e-23  3.4244e-25  3.2857e-23  3.4498e-25  3.2861e-23  3.4950e-25  3.2867e-23  3.5754e-25  3.2879e-23  3.7183e-25  3.2899e-23  3.9725e-25  3.2935e-23  4.4245e-25  3.2999e-23  5.2283e-25  3.3114e-23  6.6581e-25  3.3317e-23  9.2014e-25  3.3678e-23  1.3727e-24  3.4320e-23  2.1782e-24  3.5460e-23  3.6131e-24  3.7484e-23  6.1727e-24  4.1074e-23  1.0749e-23  4.7432e-23  1.8967e-23  5.8696e-23  3.3831e-23  7.8683e-23  6.1051e-23  1.1439e-22  1.1194e-22
      2.80  3.0999e-23  3.6181e-25  3.1001e-23  3.6447e-25  3.1005e-23  3.6919e-25  3.1011e-23  3.7758e-25  3.1023e-23  3.9251e-25  3.1043e-23  4.1906e-25  3.1078e-23  4.6627e-25  3.1142e-23  5.5023e-25  3.1255e-23  6.9955e-25  3.1455e-23  9.6518e-25  3.1812e-23  1.4378e-24  3.2446e-23  2.2791e-24  3.3573e-23  3.7777e-24  3.5573e-23  6.4509e-24  3.9119e-23  1.1231e-23  4.5403e-23  1.9812e-23  5.6535e-23  3.5331e-23  7.6288e-23  6.3745e-23  1.1156e-22  1.1685e-22
      2.85  2.9254e-23  3.8245e-25  2.9256e-23  3.8522e-25  2.9260e-23  3.9013e-25  2.9266e-23  3.9887e-25  2.9277e-23  4.1441e-25  2.9297e-23  4.4205e-25  2.9333e-23  4.9120e-25  2.9395e-23  5.7861e-25  2.9507e-23  7.3408e-25  2.9706e-23  1.0106e-24  3.0059e-23  1.5027e-24  3.0686e-23  2.3785e-24  3.1800e-23  3.9387e-24  3.3778e-23  6.7217e-24  3.7287e-23  1.1697e-23  4.3504e-23  2.0630e-23  5.4520e-23  3.6781e-23  7.4068e-23  6.6346e-23  1.0897e-22  1.2158e-22
      2.90  2.7613e-23  4.0447e-25  2.7615e-23  4.0734e-25  2.7618e-23  4.1244e-25  2.7624e-23  4.2151e-25  2.7635e-23  4.3763e-25  2.7655e-23  4.6631e-25  2.7690e-23  5.1731e-25  2.7752e-23  6.0802e-25  2.7863e-23  7.6934e-25  2.8059e-23  1.0563e-24  2.8409e-23  1.5669e-24  2.9030e-23  2.4757e-24  3.0133e-23  4.0946e-24  3.2092e-23  6.9821e-24  3.5566e-23  1.2144e-23  4.1723e-23  2.1411e-23  5.2634e-23  3.8165e-23  7.1999e-23  6.8825e-23  1.0656e-22  1.2608e-22
      2.95  2.6067e-23  4.2800e-25  2.6069e-23  4.3096e-25  2.6072e-23  4.3624e-25  2.6079e-23  4.4562e-25  2.6090e-23  4.6229e-25  2.6109e-23  4.9195e-25  2.6144e-23  5.4469e-25  2.6205e-23  6.3849e-25  2.6315e-23  8.0532e-25  2.6509e-23  1.1021e-24  2.6856e-23  1.6301e-24  2.7471e-23  2.5699e-24  2.8564e-23  4.2440e-24  3.0504e-23  7.2299e-24  3.3946e-23  1.2568e-23  4.0048e-23  2.2149e-23  5.0862e-23  3.9469e-23  7.0055e-23  7.1155e-23  1.0431e-22  1.3030e-22
      3.00  2.4611e-23  4.5321e-25  2.4613e-23  4.5626e-25  2.4616e-23  4.6170e-25  2.4622e-23  4.7137e-25  2.4633e-23  4.8855e-25  2.4653e-23  5.1912e-25  2.4687e-23  5.7348e-25  2.4748e-23  6.7016e-25  2.4856e-23  8.4210e-25  2.5049e-23  1.1480e-24  2.5392e-23  1.6922e-24  2.6002e-23  2.6608e-24  2.7085e-23  4.3862e-24  2.9007e-23  7.4635e-24  3.2419e-23  1.2965e-23  3.8466e-23  2.2838e-23  4.9185e-23  4.0683e-23  6.8213e-23  7.3321e-23  1.0216e-22  1.3422e-22
      3.05  2.3238e-23  4.8057e-25  2.3240e-23  4.8371e-25  2.3243e-23  4.8930e-25  2.3250e-23  4.9923e-25  2.3260e-23  5.1689e-25  2.3279e-23  5.4829e-25  2.3313e-23  6.0413e-25  2.3374e-23  7.0345e-25  2.3481e-23  8.8009e-25  2.3672e-23  1.1943e-24  2.4012e-23  1.7533e-24  2.4616e-23  2.7484e-24  2.5689e-23  4.5208e-24  2.7594e-23  7.6820e-24  3.0974e-23  1.3333e-23  3.6967e-23  2.3474e-23  4.7591e-23  4.1799e-23  6.6453e-23  7.5310e-23  1.0010e-22  1.3781e-22
      3.10  2.1943e-23  5.0973e-25  2.1945e-23  5.1295e-25  2.1948e-23  5.1867e-25  2.1954e-23  5.2884e-25  2.1965e-23  5.4692e-25  2.1984e-23  5.7909e-25  2.2018e-23  6.3628e-25  2.2077e-23  7.3800e-25  2.2184e-23  9.1892e-25  2.2373e-23  1.2407e-24  2.2710e-23  1.8133e-24  2.3307e-23  2.8325e-24  2.4370e-23  4.6478e-24  2.6257e-23  7.8853e-24  2.9605e-23  1.3672e-23  3.5541e-23  2.4057e-23  4.6067e-23  4.2821e-23  6.4757e-23  7.7125e-23  9.8092e-23  1.4107e-22
      3.15  2.0720e-23  5.4135e-25  2.0722e-23  5.4463e-25  2.0726e-23  5.5048e-25  2.0731e-23  5.6086e-25  2.0742e-23  5.7934e-25  2.0761e-23  6.1219e-25  2.0794e-23  6.7061e-25  2.0853e-23  7.7451e-25  2.0959e-23  9.5929e-25  2.1146e-23  1.2880e-24  2.1479e-23  1.8728e-24  2.2071e-23  2.9137e-24  2.3122e-23  4.7678e-24  2.4990e-23  8.0744e-24  2.8304e-23  1.3985e-23  3.4181e-23  2.4590e-23  4.4603e-23  4.3750e-23  6.3111e-23  7.8770e-23  9.6128e-23  1.4403e-22
      3.20  1.9565e-23  5.7550e-25  1.9567e-23  5.7884e-25  1.9570e-23  5.8479e-25  1.9576e-23  5.9538e-25  1.9587e-23  6.1420e-25  1.9605e-23  6.4766e-25  1.9638e-23  7.0718e-25  1.9697e-23  8.1302e-25  1.9801e-23  1.0013e-24  1.9986e-23  1.3361e-24  2.0315e-23  1.9319e-24  2.0900e-23  2.9923e-24  2.1940e-23  4.8811e-24  2.3787e-23  8.2496e-24  2.7066e-23  1.4270e-23  3.2880e-23  2.5073e-23  4.3192e-23  4.4587e-23  6.1509e-23  8.0247e-23  9.4187e-23  1.4668e-22
      3.25  1.8473e-23  6.1218e-25  1.8475e-23  6.1558e-25  1.8478e-23  6.2163e-25  1.8484e-23  6.3239e-25  1.8494e-23  6.5151e-25  1.8512e-23  6.8552e-25  1.8545e-23  7.4600e-25  1.8603e-23  8.5355e-25  1.8706e-23  1.0449e-24  1.8889e-23  1.3851e-24  1.9214e-23  1.9906e-24  1.9792e-23  3.0681e-24  2.0820e-23  4.9874e-24  2.2646e-23  8.4103e-24  2.5886e-23  1.4528e-23  3.1634e-23  2.5504e-23  4.1830e-23  4.5329e-23  5.9943e-23  8.1552e-23  9.2265e-23  1.4901e-22
      3.30  1.7439e-23  6.5208e-25  1.7441e-23  6.5553e-25  1.7444e-23  6.6166e-25  1.7450e-23  6.7256e-25  1.7460e-23  6.9194e-25  1.7478e-23  7.2641e-25  1.7511e-23  7.8771e-25  1.7568e-23  8.9672e-25  1.7669e-23  1.0906e-24  1.7850e-23  1.4355e-24  1.8171e-23  2.0491e-24  1.8743e-23  3.1413e-24  1.9758e-23  5.0866e-24  2.1561e-23  8.5557e-24  2.4761e-23  1.4756e-23  3.0440e-23  2.5879e-23  4.0513e-23  4.5970e-23  5.8413e-23  8.2671e-23  9.0360e-23  1.5100e-22
      3.35  1.6461e-23  6.9502e-25  1.6463e-23  6.9851e-25  1.6466e-23  7.0470e-25  1.6472e-23  7.1572e-25  1.6482e-23  7.3531e-25  1.6499e-23  7.7015e-25  1.6531e-23  8.3211e-25  1.6588e-23  9.4229e-25  1.6688e-23  1.1383e-24  1.6866e-23  1.4869e-24  1.7183e-23  2.1071e-24  1.7747e-23  3.2109e-24  1.8749e-23  5.1771e-24  2.0528e-23  8.6833e-24  2.3688e-23  1.4950e-23  2.9294e-23  2.6191e-23  3.9241e-23  4.6494e-23  5.6919e-23  8.3578e-23  8.8477e-23  1.5260e-22
      3.40  1.5534e-23  7.4131e-25  1.5536e-23  7.4482e-25  1.5539e-23  7.5106e-25  1.5544e-23  7.6216e-25  1.5554e-23  7.8189e-25  1.5572e-23  8.1699e-25  1.5603e-23  8.7941e-25  1.5659e-23  9.9042e-25  1.5758e-23  1.1879e-24  1.5934e-23  1.5390e-24  1.6247e-23  2.1639e-24  1.6803e-23  3.2760e-24  1.7791e-23  5.2568e-24  1.9547e-23  8.7892e-24  2.2665e-23  1.5102e-23  2.8198e-23  2.6427e-23  3.8018e-23  4.6879e-23  5.5472e-23  8.4232e-23  8.6638e-23  1.5374e-22
      3.45  1.4655e-23  7.9125e-25  1.4657e-23  7.9477e-25  1.4660e-23  8.0104e-25  1.4666e-23  8.1218e-25  1.4675e-23  8.3200e-25  1.4693e-23  8.6724e-25  1.4724e-23  9.2991e-25  1.4778e-23  1.0414e-24  1.4876e-23  1.2396e-24  1.5050e-23  1.5922e-24  1.5358e-23  2.2196e-24  1.5907e-23  3.3362e-24  1.6882e-23  5.3249e-24  1.8614e-23  8.8715e-24  2.1690e-23  1.5210e-23  2.7149e-23  2.6580e-23  3.6840e-23  4.7112e-23  5.4069e-23  8.4609e-23  8.4841e-23  1.5438e-22
      3.50  1.3822e-23  8.4521e-25  1.3823e-23  8.4873e-25  1.3826e-23  8.5500e-25  1.3832e-23  8.6615e-25  1.3841e-23  8.8598e-25  1.3859e-23  9.2124e-25  1.3889e-23  9.8395e-25  1.3943e-23  1.0955e-24  1.4039e-23  1.2938e-24  1.4211e-23  1.6466e-24  1.4515e-23  2.2744e-24  1.5056e-23  3.3916e-24  1.6018e-23  5.3816e-24  1.7726e-23  8.9302e-24  2.0760e-23  1.5272e-23  2.6146e-23  2.6648e-23  3.5708e-23  4.7191e-23  5.2712e-23  8.4705e-23  8.3091e-23  1.5450e-22
      3.55  1.3031e-23  9.0425e-25  1.3033e-23  9.0777e-25  1.3036e-23  9.1402e-25  1.3041e-23  9.2514e-25  1.3050e-23  9.4492e-25  1.3067e-23  9.8010e-25  1.3097e-23  1.0427e-24  1.3151e-23  1.1539e-24  1.3246e-23  1.3518e-24  1.3414e-23  1.7037e-24  1.3714e-23  2.3299e-24  1.4248e-23  3.4444e-24  1.5196e-23  5.4295e-24  1.6881e-23  8.9695e-24  1.9874e-23  1.5296e-23  2.5186e-23  2.6644e-23  3.4621e-23  4.7136e-23  5.1402e-23  8.4555e-23  8.1393e-23  1.5416e-22
      3.60  1.2280e-23  9.6820e-25  1.2282e-23  9.7170e-25  1.2285e-23  9.7793e-25  1.2290e-23  9.8900e-25  1.2299e-23  1.0087e-24  1.2316e-23  1.0437e-24  1.2346e-23  1.1060e-24  1.2398e-23  1.2167e-24  1.2492e-23  1.4137e-24  1.2658e-23  1.7641e-24  1.2954e-23  2.3875e-24  1.3480e-23  3.4971e-24  1.4415e-23  5.4734e-24  1.6077e-23  8.9976e-24  1.9028e-23  1.5296e-23  2.4268e-23  2.6594e-23  3.3576e-23  4.6995e-23  5.0137e-23  8.4247e-23  7.9744e-23  1.5354e-22
      3.65  1.1567e-23  1.0376e-24  1.1569e-23  1.0411e-24  1.1572e-23  1.0473e-24  1.1577e-23  1.0583e-24  1.1586e-23  1.0779e-24  1.1602e-23  1.1128e-24  1.1632e-23  1.1747e-24  1.1684e-23  1.2850e-24  1.1776e-23  1.4811e-24  1.1940e-23  1.8298e-24  1.2232e-23  2.4504e-24  1.2750e-23  3.5548e-24  1.3672e-23  5.5220e-24  1.5310e-23  9.0300e-24  1.8221e-23  1.5299e-23  2.3389e-23  2.6546e-23  3.2571e-23  4.6854e-23  4.8914e-23  8.3937e-23  7.8142e-23  1.5292e-22
      3.70  1.0890e-23  1.1129e-24  1.0891e-23  1.1164e-24  1.0894e-23  1.1226e-24  1.0899e-23  1.1336e-24  1.0908e-23  1.1531e-24  1.0925e-23  1.1879e-24  1.0953e-23  1.2498e-24  1.1005e-23  1.3598e-24  1.1096e-23  1.5555e-24  1.1257e-23  1.9035e-24  1.1545e-23  2.5228e-24  1.2056e-23  3.6250e-24  1.2965e-23  5.5881e-24  1.4580e-23  9.0890e-24  1.7450e-23  1.5346e-23  2.2547e-23  2.6570e-23  3.1603e-23  4.6841e-23  4.7728e-23  8.3861e-23  7.6577e-23  1.5274e-22
      3.75  1.0246e-23  1.1949e-24  1.0248e-23  1.1984e-24  1.0251e-23  1.2046e-24  1.0256e-23  1.2156e-24  1.0265e-23  1.2352e-24  1.0281e-23  1.2701e-24  1.0309e-23  1.3321e-24  1.0359e-23  1.4424e-24  1.0449e-23  1.6386e-24  1.0609e-23  1.9876e-24  1.0892e-23  2.6085e-24  1.1396e-23  3.7137e-24  1.2292e-23  5.6821e-24  1.3884e-23  9.1925e-24  1.6712e-23  1.5467e-23  2.1737e-23  2.6723e-23  3.0668e-23  4.7055e-23  4.6574e-23  8.4196e-23  7.5044e-23  1.5333e-22
      3.80  9.6351e-24  1.2853e-24  9.6367e-24  1.2888e-24  9.6395e-24  1.2951e-24  9.6445e-24  1.3062e-24  9.6533e-24  1.3260e-24  9.6690e-24  1.3613e-24  9.6969e-24  1.4240e-24  9.7466e-24  1.5356e-24  9.8349e-24  1.7340e-24  9.9920e-24  2.0869e-24  1.0271e-23  2.7148e-24  1.0768e-23  3.8325e-24  1.1650e-23  5.8232e-24  1.3219e-23  9.3735e-24  1.6007e-23  1.5720e-23  2.0959e-23  2.7107e-23  2.9763e-23  4.7681e-23  4.5448e-23  8.5282e-23  7.3534e-23  1.5532e-22
      3.85  9.0544e-24  1.3838e-24  9.0560e-24  1.3874e-24  9.0587e-24  1.3938e-24  9.0636e-24  1.4052e-24  9.0723e-24  1.4255e-24  9.0878e-24  1.4616e-24  9.1153e-24  1.5258e-24  9.1642e-24  1.6399e-24  9.2512e-24  1.8428e-24  9.4059e-24  2.2038e-24  9.6810e-24  2.8461e-24  1.0170e-23  3.9894e-24  1.1039e-23  6.0259e-24  1.2584e-23  9.6582e-24  1.5330e-23  1.6152e-23  2.0210e-23  2.7807e-23  2.8886e-23  4.8873e-23  4.4347e-23  8.7401e-23  7.2043e-23  1.5925e-22
      3.90  8.5028e-24  1.4914e-24  8.5043e-24  1.4951e-24  8.5070e-24  1.5018e-24  8.5118e-24  1.5136e-24  8.5204e-24  1.5346e-24  8.5356e-24  1.5721e-24  8.5627e-24  1.6386e-24  8.6109e-24  1.7569e-24  8.6966e-24  1.9674e-24  8.8488e-24  2.3417e-24  9.1196e-24  3.0078e-24  9.6011e-24  4.1935e-24  1.0457e-23  6.3056e-24  1.1978e-23  1.0073e-23  1.4682e-23  1.6810e-23  1.9488e-23  2.8906e-23  2.8034e-23  5.0781e-23  4.3267e-23  9.0830e-23  7.0567e-23  1.6564e-22
      3.95  7.9789e-24  1.6090e-24  7.9804e-24  1.6130e-24  7.9830e-24  1.6200e-24  7.9878e-24  1.6324e-24  7.9962e-24  1.6546e-24  8.0112e-24  1.6940e-24  8.0379e-24  1.7640e-24  8.0853e-24  1.8886e-24  8.1696e-24  2.1103e-24  8.3195e-24  2.5045e-24  8.5860e-24  3.2060e-24  9.0599e-24  4.4547e-24  9.9023e-24  6.6792e-24  1.1400e-23  1.0648e-23  1.4061e-23  1.7746e-23  1.8792e-23  3.0497e-23  2.7207e-23  5.3575e-23  4.2210e-23  9.5879e-23  6.9108e-23  1.7507e-22
