# This was generated using Cloudy10 and the columns are ordered 
# as log10 of the fraction of the metallicity to the solar metallicity
# 'h_*_Z' and 'c_*_Z' stands for cooling and heating respectively 
# at * metalicity
#
# NOTE: This was generated separately from loop_coolingcurve_w_UV.py
#       using Output_metals_w_redshift.py.
#
# Redshift = 0.5
# hden = 0.5
#
#     temp   h_-3.00_Z   c_-3.00_Z   h_-2.75_Z   c_-2.75_Z   h_-2.50_Z   c_-2.50_Z   h_-2.25_Z   c_-2.25_Z   h_-2.00_Z   c_-2.00_Z   h_-1.75_Z   c_-1.75_Z   h_-1.50_Z   c_-1.50_Z   h_-1.25_Z   c_-1.25_Z   h_-1.00_Z   c_-1.00_Z   h_-0.75_Z   c_-0.75_Z   h_-0.50_Z   c_-0.50_Z   h_-0.25_Z   c_-0.25_Z    h_0.00_Z    c_0.00_Z    h_0.25_Z    c_0.25_Z    h_0.50_Z    c_0.50_Z    h_0.75_Z    c_0.75_Z    h_1.00_Z    c_1.00_Z    h_1.25_Z    c_1.25_Z    h_1.50_Z    c_1.50_Z 
      4.00  4.7282e-25  1.2195e-24  4.7282e-25  1.2225e-24  4.7282e-25  1.2278e-24  4.7283e-25  1.2373e-24  4.7285e-25  1.2541e-24  4.7288e-25  1.2840e-24  4.7292e-25  1.3371e-24  4.7301e-25  1.4316e-24  4.7316e-25  1.5996e-24  4.7343e-25  1.8985e-24  4.7391e-25  2.4301e-24  4.7475e-25  3.3757e-24  4.7624e-25  5.0582e-24  4.7890e-25  8.0530e-24  4.8365e-25  1.3387e-23  4.9210e-25  2.2901e-23  5.0720e-25  3.9902e-23  5.3430e-25  7.0358e-23  5.8328e-25  1.2507e-22
      4.05  4.6178e-25  4.1451e-24  4.6178e-25  4.1491e-24  4.6179e-25  4.1562e-24  4.6180e-25  4.1688e-24  4.6181e-25  4.1911e-24  4.6184e-25  4.2308e-24  4.6189e-25  4.3015e-24  4.6198e-25  4.4271e-24  4.6214e-25  4.6506e-24  4.6241e-25  5.0479e-24  4.6290e-25  5.7546e-24  4.6378e-25  7.0115e-24  4.6532e-25  9.2475e-24  4.6808e-25  1.3226e-23  4.7299e-25  2.0308e-23  4.8175e-25  3.2927e-23  4.9741e-25  5.5432e-23  5.2554e-25  9.5620e-23  5.7639e-25  1.6741e-22
      4.10  4.4455e-25  1.2880e-23  4.4455e-25  1.2886e-23  4.4455e-25  1.2895e-23  4.4456e-25  1.2912e-23  4.4458e-25  1.2942e-23  4.4461e-25  1.2996e-23  4.4466e-25  1.3091e-23  4.4475e-25  1.3261e-23  4.4491e-25  1.3563e-23  4.4519e-25  1.4099e-23  4.4569e-25  1.5053e-23  4.4656e-25  1.6750e-23  4.4813e-25  1.9767e-23  4.5093e-25  2.5135e-23  4.5592e-25  3.4686e-23  4.6482e-25  5.1687e-23  4.8073e-25  8.1965e-23  5.0932e-25  1.3589e-22  5.6100e-25  2.3182e-22
      4.15  4.0414e-25  3.5736e-23  4.0414e-25  3.5744e-23  4.0414e-25  3.5757e-23  4.0415e-25  3.5781e-23  4.0417e-25  3.5824e-23  4.0419e-25  3.5899e-23  4.0424e-25  3.6034e-23  4.0433e-25  3.6273e-23  4.0448e-25  3.6697e-23  4.0475e-25  3.7453e-23  4.0522e-25  3.8796e-23  4.0607e-25  4.1184e-23  4.0758e-25  4.5432e-23  4.1028e-25  5.2988e-23  4.1508e-25  6.6433e-23  4.2364e-25  9.0367e-23  4.3894e-25  1.3300e-22  4.6663e-25  2.0876e-22  5.1653e-25  3.4369e-22
      4.20  3.0663e-25  8.1762e-23  3.0663e-25  8.1773e-23  3.0664e-25  8.1793e-23  3.0664e-25  8.1829e-23  3.0666e-25  8.1893e-23  3.0668e-25  8.2007e-23  3.0672e-25  8.2210e-23  3.0679e-25  8.2570e-23  3.0691e-25  8.3210e-23  3.0714e-25  8.4349e-23  3.0754e-25  8.6374e-23  3.0824e-25  8.9977e-23  3.0951e-25  9.6385e-23  3.1176e-25  1.0779e-22  3.1576e-25  1.2810e-22  3.2289e-25  1.6429e-22  3.3564e-25  2.2888e-22  3.5849e-25  3.4448e-22  3.9981e-25  5.5211e-22
      4.25  1.7456e-25  1.2136e-22  1.7456e-25  1.2138e-22  1.7456e-25  1.2140e-22  1.7457e-25  1.2145e-22  1.7458e-25  1.2154e-22  1.7459e-25  1.2170e-22  1.7461e-25  1.2198e-22  1.7465e-25  1.2248e-22  1.7473e-25  1.2337e-22  1.7486e-25  1.2495e-22  1.7510e-25  1.2776e-22  1.7552e-25  1.3276e-22  1.7627e-25  1.4166e-22  1.7760e-25  1.5750e-22  1.7997e-25  1.8572e-22  1.8420e-25  2.3609e-22  1.9173e-25  3.2621e-22  2.0519e-25  4.8819e-22  2.2934e-25  7.8187e-22
      4.30  9.1358e-26  1.1774e-22  9.1359e-26  1.1776e-22  9.1359e-26  1.1780e-22  9.1360e-26  1.1786e-22  9.1362e-26  1.1796e-22  9.1365e-26  1.1815e-22  9.1370e-26  1.1849e-22  9.1380e-26  1.1908e-22  9.1397e-26  1.2014e-22  9.1427e-26  1.2203e-22  9.1481e-26  1.2539e-22  9.1576e-26  1.3137e-22  9.1746e-26  1.4200e-22  9.2531e-26  1.6093e-22  9.4026e-26  1.9467e-22  9.6691e-26  2.5490e-22  1.0145e-25  3.6274e-22  1.0996e-25  5.5681e-22  1.2517e-25  9.0928e-22
      4.35  5.5613e-26  9.5221e-23  5.5613e-26  9.5243e-23  5.5611e-26  9.5283e-23  5.5609e-26  9.5354e-23  5.5605e-26  9.5481e-23  5.5598e-26  9.5706e-23  5.5586e-26  9.6107e-23  5.5563e-26  9.6819e-23  5.5523e-26  9.8086e-23  5.5452e-26  1.0034e-22  5.5457e-26  1.0435e-22  5.5660e-26  1.1148e-22  5.6023e-26  1.2416e-22  5.6670e-26  1.4676e-22  5.7826e-26  1.8702e-22  5.9894e-26  2.5889e-22  6.3602e-26  3.8759e-22  7.0261e-26  6.1929e-22  8.2141e-26  1.0403e-21
      4.40  3.9002e-26  7.4402e-23  3.9000e-26  7.4429e-23  3.8997e-26  7.4479e-23  3.8992e-26  7.4567e-23  3.8983e-26  7.4724e-23  3.8967e-26  7.5002e-23  3.8938e-26  7.5497e-23  3.8887e-26  7.6378e-23  3.8797e-26  7.7944e-23  3.8824e-26  8.0729e-23  3.8923e-26  8.5683e-23  3.9099e-26  9.4497e-23  3.9414e-26  1.1018e-22  3.9979e-26  1.3810e-22  4.0996e-26  1.8786e-22  4.2834e-26  2.7669e-22  4.6167e-26  4.3575e-22  5.2012e-26  7.2210e-22  6.2251e-26  1.2424e-21
      4.45  2.5995e-26  5.9668e-23  2.5993e-26  5.9703e-23  2.5989e-26  5.9766e-23  2.5981e-26  5.9877e-23  2.5968e-26  6.0076e-23  2.5944e-26  6.0429e-23  2.5902e-26  6.1057e-23  2.5828e-26  6.2174e-23  2.5782e-26  6.4160e-23  2.5836e-26  6.7693e-23  2.5931e-26  7.3977e-23  2.6103e-26  8.5154e-23  2.6412e-26  1.0504e-22  2.6973e-26  1.4045e-22  2.8000e-26  2.0355e-22  2.9853e-26  3.1615e-22  3.3085e-26  5.1774e-22  3.8716e-26  8.8046e-22  4.8579e-26  1.5391e-21
      4.50  1.4115e-26  4.8806e-23  1.4112e-26  4.8851e-23  1.4107e-26  4.8932e-23  1.4098e-26  4.9076e-23  1.4081e-26  4.9331e-23  1.4052e-26  4.9785e-23  1.4000e-26  5.0593e-23  1.3907e-26  5.2029e-23  1.3934e-26  5.4584e-23  1.3987e-26  5.9127e-23  1.4084e-26  6.7207e-23  1.4260e-26  8.1581e-23  1.4585e-26  1.0716e-22  1.5194e-26  1.5269e-22  1.6283e-26  2.3381e-22  1.8165e-26  3.7860e-22  2.1467e-26  6.3775e-22  2.7103e-26  1.1039e-21  3.6740e-26  1.9501e-21
      4.55  6.8908e-27  3.9636e-23  6.8876e-27  3.9695e-23  6.8818e-27  3.9799e-23  6.8715e-27  3.9984e-23  6.8533e-27  4.0313e-23  6.8209e-27  4.0898e-23  6.7632e-27  4.1939e-23  6.7362e-27  4.3790e-23  6.7640e-27  4.7083e-23  6.8145e-27  5.2938e-23  6.9070e-27  6.3352e-23  7.0799e-27  8.1877e-23  7.4095e-27  1.1484e-22  7.9939e-27  1.7353e-22  9.0173e-27  2.7813e-22  1.0822e-26  4.6485e-22  1.3884e-26  7.9920e-22  1.9201e-26  1.4011e-21  2.8450e-26  2.4949e-21
      4.60  3.6918e-27  3.2216e-23  3.6886e-27  3.2291e-23  3.6829e-27  3.2425e-23  3.6728e-27  3.2663e-23  3.6549e-27  3.3086e-23  3.6231e-27  3.3837e-23  3.5734e-27  3.5174e-23  3.5872e-27  3.7551e-23  3.6121e-27  4.1779e-23  3.6578e-27  4.9299e-23  3.7432e-27  6.2673e-23  3.9071e-27  8.6466e-23  4.2016e-27  1.2881e-22  4.7318e-27  2.0421e-22  5.6590e-27  3.3861e-22  7.2865e-27  5.7864e-22  1.0105e-26  1.0087e-21  1.4976e-26  1.7839e-21  2.3504e-26  3.1952e-21
      4.65  2.3901e-27  2.7328e-23  2.3874e-27  2.7424e-23  2.3825e-27  2.7595e-23  2.3737e-27  2.7899e-23  2.3582e-27  2.8439e-23  2.3307e-27  2.9400e-23  2.3077e-27  3.1109e-23  2.3198e-27  3.4147e-23  2.3421e-27  3.9552e-23  2.3833e-27  4.9163e-23  2.4619e-27  6.6260e-23  2.6087e-27  9.6676e-23  2.8755e-27  1.5081e-22  3.3500e-27  2.4722e-22  4.2142e-27  4.1911e-22  5.7141e-27  7.2622e-22  8.2922e-27  1.2769e-21  1.2782e-26  2.2706e-21  2.0683e-26  4.0838e-21
      4.70  1.8377e-27  2.6015e-23  1.8356e-27  2.6138e-23  1.8317e-27  2.6355e-23  1.8250e-27  2.6742e-23  1.8129e-27  2.7431e-23  1.7915e-27  2.8655e-23  1.7787e-27  3.0832e-23  1.7895e-27  3.4704e-23  1.8094e-27  4.1589e-23  1.8469e-27  5.3835e-23  1.9197e-27  7.5619e-23  2.0540e-27  1.1438e-22  2.3043e-27  1.8336e-22  2.7569e-27  3.0624e-22  3.5455e-27  5.2539e-22  4.9031e-27  9.1713e-22  7.2840e-27  1.6202e-21  1.1448e-26  2.8909e-21  1.8798e-26  5.2156e-21
      4.75  1.5644e-27  3.0576e-23  1.5629e-27  3.0731e-23  1.5602e-27  3.1006e-23  1.5555e-27  3.1496e-23  1.5470e-27  3.2367e-23  1.5321e-27  3.3916e-23  1.5215e-27  3.6671e-23  1.5315e-27  4.1570e-23  1.5500e-27  5.0282e-23  1.5857e-27  6.5778e-23  1.6569e-27  9.3344e-23  1.7874e-27  1.4239e-22  2.0216e-27  2.2970e-22  2.4371e-27  3.8526e-22  3.1690e-27  6.6280e-22  4.4492e-27  1.1592e-21  6.6809e-27  2.0512e-21  1.0589e-26  3.6665e-21  1.7521e-26  6.6308e-21
      4.80  1.3514e-27  4.4102e-23  1.3505e-27  4.4296e-23  1.3489e-27  4.4640e-23  1.3461e-27  4.5252e-23  1.3410e-27  4.6341e-23  1.3321e-27  4.8277e-23  1.3221e-27  5.1721e-23  1.3318e-27  5.7844e-23  1.3506e-27  6.8735e-23  1.3880e-27  8.8106e-23  1.4607e-27  1.2257e-22  1.5858e-27  1.8389e-22  1.8125e-27  2.9306e-22  2.2202e-27  4.8761e-22  2.9320e-27  8.3486e-22  4.1771e-27  1.4564e-21  6.3712e-27  2.5746e-21  1.0226e-26  4.6033e-21  1.7097e-26  8.3381e-21
      4.85  1.0629e-27  6.5281e-23  1.0626e-27  6.5518e-23  1.0619e-27  6.5941e-23  1.0609e-27  6.6693e-23  1.0590e-27  6.8030e-23  1.0558e-27  7.0407e-23  1.0502e-27  7.4634e-23  1.0576e-27  8.2152e-23  1.0787e-27  9.5523e-23  1.1200e-27  1.1931e-22  1.1948e-27  1.6162e-22  1.3274e-27  2.3691e-22  1.5661e-27  3.7098e-22  1.9870e-27  6.0994e-22  2.7245e-27  1.0366e-21  4.0151e-27  1.8009e-21  6.2759e-27  3.1773e-21  1.0213e-26  5.6793e-21  1.7222e-26  1.0299e-20
      4.90  6.9150e-28  8.0972e-23  6.9170e-28  8.1255e-23  6.9207e-28  8.1759e-23  6.9273e-28  8.2654e-23  6.9395e-28  8.4247e-23  6.9628e-28  8.7078e-23  7.0091e-28  9.2114e-23  7.1066e-28  1.0107e-22  7.3154e-28  1.1700e-22  7.7622e-28  1.4533e-22  8.6197e-28  1.9573e-22  1.0152e-27  2.8542e-22  1.2905e-27  4.4514e-22  1.7652e-27  7.2985e-22  2.5779e-27  1.2383e-21  3.9697e-27  2.1494e-21  6.3694e-27  3.7912e-21  1.0481e-26  6.7789e-21  1.7786e-26  1.2306e-20
      4.95  3.7782e-28  7.9756e-23  3.7841e-28  8.0081e-23  3.7947e-28  8.0658e-23  3.8140e-28  8.1685e-23  3.8495e-28  8.3511e-23  3.9160e-28  8.6759e-23  4.0455e-28  9.2535e-23  4.3089e-28  1.0281e-22  4.8201e-28  1.2107e-22  5.7456e-28  1.5357e-22  7.3859e-28  2.1137e-22  1.0289e-27  3.1425e-22  1.5281e-27  4.9745e-22  2.3772e-27  8.2403e-22  3.8188e-27  1.4073e-21  6.2672e-27  2.4526e-21  1.0443e-26  4.3368e-21  1.7726e-26  7.7675e-21  3.0714e-26  1.4122e-20
      5.00  1.9420e-28  6.7702e-23  1.9496e-28  6.8059e-23  1.9635e-28  6.8695e-23  1.9890e-28  6.9826e-23  2.0373e-28  7.1838e-23  2.1323e-28  7.5414e-23  2.3280e-28  8.1775e-23  2.7327e-28  9.3086e-23  3.5106e-28  1.1320e-22  4.9264e-28  1.4899e-22  7.2963e-28  2.1265e-22  1.1325e-27  3.2596e-22  1.8072e-27  5.2776e-22  2.9185e-27  8.8756e-22  4.7442e-27  1.5304e-21  7.7841e-27  2.6829e-21  1.2927e-26  4.7624e-21  2.1888e-26  8.5549e-21  3.7726e-26  1.5598e-20
      5.05  1.0404e-28  5.4129e-23  1.0486e-28  5.4496e-23  1.0640e-28  5.5149e-23  1.0940e-28  5.6311e-23  1.1560e-28  5.8376e-23  1.2880e-28  6.2050e-23  1.5516e-28  6.8582e-23  2.1473e-28  8.0199e-23  3.3343e-28  1.0086e-22  5.1657e-28  1.3762e-22  8.1863e-28  2.0301e-22  1.3063e-27  3.1940e-22  2.0824e-27  5.2672e-22  3.2863e-27  8.9645e-22  5.1910e-27  1.5573e-21  8.2933e-27  2.7432e-21  1.3558e-26  4.8858e-21  2.2712e-26  8.8028e-21  3.8472e-26  1.6106e-20
      5.10  6.1377e-29  4.2714e-23  6.2259e-29  4.3071e-23  6.4085e-29  4.3707e-23  6.8125e-29  4.4837e-23  7.7565e-29  4.6846e-23  9.5091e-29  5.0419e-23  1.3499e-28  5.6774e-23  2.2990e-28  6.8075e-23  3.8101e-28  8.8175e-23  6.1647e-28  1.2393e-22  9.7670e-28  1.8755e-22  1.5196e-27  3.0080e-22  2.3241e-27  5.0254e-22  3.5118e-27  8.6244e-22  5.3448e-27  1.5060e-21  8.1843e-27  2.6619e-21  1.2870e-26  4.7534e-21  2.1112e-26  8.5865e-21  3.5747e-26  1.5763e-20
      5.15  4.0626e-29  3.3961e-23  4.1713e-29  3.4316e-23  4.4284e-29  3.4947e-23  5.0858e-29  3.6069e-23  6.3831e-29  3.8066e-23  9.1054e-29  4.1615e-23  1.5674e-28  4.7928e-23  2.8132e-28  5.9155e-23  4.7295e-28  7.9123e-23  7.5692e-28  1.1464e-22  1.1556e-27  1.7785e-22  1.7195e-27  2.9037e-22  2.5176e-27  4.9085e-22  3.6657e-27  8.4857e-22  5.1194e-27  1.4885e-21  7.5770e-27  2.6387e-21  1.1848e-26  4.7225e-21  1.9426e-26  8.5496e-21  3.2993e-26  1.5739e-20
      5.20  3.0090e-29  2.7419e-23  3.1620e-29  2.7785e-23  3.5692e-29  2.8435e-23  4.6314e-29  2.9592e-23  6.5397e-29  3.1650e-23  1.1058e-28  3.5309e-23  2.1540e-28  4.1815e-23  3.5966e-28  5.3387e-23  5.7886e-28  7.3970e-23  9.0130e-28  1.1059e-22  1.3307e-27  1.7574e-22  1.9033e-27  2.9174e-22  2.6617e-27  4.9844e-22  3.4497e-27  8.6734e-22  4.7684e-27  1.5275e-21  7.0674e-27  2.7148e-21  1.1143e-26  4.8681e-21  1.8439e-26  8.8296e-21  3.1641e-26  1.6294e-20
      5.25  2.4563e-29  2.2517e-23  2.7196e-29  2.3123e-23  3.3560e-29  2.3564e-23  5.0119e-29  2.4756e-23  8.4363e-29  2.6876e-23  1.4619e-28  3.0646e-23  2.6768e-28  3.7349e-23  4.3412e-28  4.9272e-23  6.6782e-28  7.0479e-23  1.0046e-27  1.0821e-22  1.4540e-27  1.7534e-22  2.0379e-27  2.9487e-22  2.5244e-27  5.0790e-22  3.3243e-27  8.8816e-22  4.7027e-27  1.5689e-21  7.1142e-27  2.7940e-21  1.1376e-26  5.0182e-21  1.9029e-26  9.1180e-21  3.3039e-26  1.6865e-20
      5.30  2.1752e-29  1.8806e-23  2.5893e-29  1.9189e-23  3.7662e-29  1.9871e-23  6.8183e-29  2.1082e-23  1.0634e-28  2.3237e-23  1.7721e-28  2.7069e-23  3.0582e-28  3.3884e-23  4.7795e-28  4.6005e-23  7.2932e-28  6.7563e-23  1.0579e-27  1.0592e-22  1.5436e-27  1.7417e-22  1.9571e-27  2.9570e-22  2.4822e-27  5.1231e-22  3.2699e-27  8.9907e-22  4.5755e-27  1.5918e-21  6.8570e-27  2.8391e-21  1.0773e-26  5.1066e-21  1.7866e-26  9.2945e-21  3.0931e-26  1.7234e-20
      5.35  2.1078e-29  1.5976e-23  2.8407e-29  1.6366e-23  4.9335e-29  1.7060e-23  8.1582e-29  1.8293e-23  1.2353e-28  2.0486e-23  1.9686e-28  2.4387e-23  3.2754e-28  3.1324e-23  5.0143e-28  4.3662e-23  7.4835e-28  6.5607e-23  1.1317e-27  1.0465e-22  1.5772e-27  1.7413e-22  1.8840e-27  2.9786e-22  2.3543e-27  5.1842e-22  3.1028e-27  9.1231e-22  4.3559e-27  1.6181e-21  6.4381e-27  2.8899e-21  1.0170e-26  5.2045e-21  1.6919e-26  9.4883e-21  2.9409e-26  1.7637e-20
      5.40  2.1065e-29  1.3765e-23  3.1032e-29  1.4145e-23  5.5117e-29  1.4821e-23  8.2660e-29  1.6023e-23  1.2928e-28  1.8159e-23  1.9650e-28  2.1960e-23  3.1540e-28  2.8718e-23  5.1545e-28  4.0737e-23  7.8164e-28  6.2116e-23  1.2232e-27  1.0015e-22  1.5096e-27  1.6785e-22  1.8228e-27  2.8841e-22  2.3165e-27  5.0334e-22  3.0969e-27  8.8730e-22  4.4013e-27  1.5756e-21  6.5499e-27  2.8169e-21  1.0304e-26  5.0794e-21  1.7136e-26  9.2766e-21  2.9800e-26  1.7290e-20
      5.45  1.8676e-29  1.1970e-23  2.6318e-29  1.2289e-23  4.7835e-29  1.2855e-23  7.2212e-29  1.3862e-23  1.1038e-28  1.5654e-23  1.7741e-28  1.8839e-23  2.8780e-28  2.4505e-23  4.7085e-28  3.4580e-23  7.9618e-28  5.2502e-23  1.2784e-27  8.4387e-23  1.5183e-27  1.4114e-22  1.8796e-27  2.4222e-22  2.4279e-27  4.2248e-22  3.1924e-27  7.4460e-22  4.4347e-27  1.3224e-21  6.5127e-27  2.3657e-21  1.0141e-26  4.2708e-21  1.6708e-26  7.8166e-21  2.8964e-26  1.4621e-20
      5.50  1.5363e-29  1.0474e-23  1.8484e-29  1.0704e-23  2.7148e-29  1.1113e-23  5.2159e-29  1.1839e-23  8.6878e-29  1.3130e-23  1.4588e-28  1.5427e-23  2.5390e-28  1.9511e-23  4.4457e-28  2.6776e-23  7.6626e-28  3.9697e-23  1.2232e-27  6.2685e-23  1.5876e-27  1.0361e-22  1.9993e-27  1.7650e-22  2.4604e-27  3.0651e-22  3.1490e-27  5.3894e-22  4.1661e-27  9.5613e-22  5.8767e-27  1.7102e-21  8.8833e-27  3.0900e-21  1.4316e-26  5.6660e-21  2.4420e-26  1.0634e-20
      5.55  1.3654e-29  9.3081e-24  1.5070e-29  9.4808e-24  1.9325e-29  9.7879e-24  3.1821e-29  1.0334e-23  6.3453e-29  1.1305e-23  1.2734e-28  1.3032e-23  2.4383e-28  1.6103e-23  4.5180e-28  2.1566e-23  7.9752e-28  3.1282e-23  1.2178e-27  4.8569e-23  1.6164e-27  7.9344e-23  1.9920e-27  1.3417e-22  2.3888e-27  2.3197e-22  2.9002e-27  4.0685e-22  3.7169e-27  7.2089e-22  5.0500e-27  1.2890e-21  7.4033e-27  2.3296e-21  1.1675e-26  4.2765e-21  1.9576e-26  8.0431e-21
      5.60  1.2832e-29  8.4114e-24  1.4315e-29  8.5613e-24  1.8801e-29  8.8279e-24  3.1801e-29  9.3019e-24  5.7269e-29  1.0145e-23  1.1785e-28  1.1644e-23  2.5154e-28  1.4309e-23  4.7895e-28  1.9050e-23  8.7387e-28  2.7483e-23  1.2101e-27  4.2489e-23  1.5819e-27  6.9203e-23  1.8357e-27  1.1680e-22  2.1316e-27  2.0170e-22  2.5561e-27  3.5355e-22  3.2340e-27  6.2629e-22  4.3404e-27  1.1199e-21  6.2804e-27  2.0247e-21  9.7959e-27  3.7196e-21  1.6296e-26  7.0049e-21
      5.65  1.2156e-29  7.7118e-24  1.4285e-29  7.8549e-24  2.0034e-29  8.1093e-24  3.6568e-29  8.5618e-24  6.8515e-29  9.3664e-24  1.3280e-28  1.0797e-23  2.6447e-28  1.3342e-23  5.1128e-28  1.7867e-23  9.2443e-28  2.5917e-23  1.2185e-27  4.0242e-23  1.5230e-27  6.5745e-23  1.7022e-27  1.1118e-22  1.9624e-27  1.9224e-22  2.3323e-27  3.3723e-22  2.9517e-27  5.9770e-22  3.9611e-27  1.0692e-21  5.7418e-27  1.9341e-21  8.9649e-27  3.5555e-21  1.4944e-26  6.7024e-21
      5.70  1.1720e-29  7.1550e-24  1.4226e-29  7.2951e-24  2.1521e-29  7.5441e-24  4.2552e-29  7.9870e-24  7.7176e-29  8.7745e-24  1.5003e-28  1.0175e-23  2.9834e-28  1.2665e-23  5.7561e-28  1.7095e-23  9.0578e-28  2.4974e-23  1.1417e-27  3.8996e-23  1.3658e-27  6.3960e-23  1.5463e-27  1.0844e-22  1.7782e-27  1.8779e-22  2.1216e-27  3.2974e-22  2.7059e-27  5.8478e-22  3.6959e-27  1.0466e-21  5.4373e-27  1.8941e-21  8.6017e-27  3.4843e-21  1.4500e-26  6.5744e-21
      5.75  1.0972e-29  6.6481e-24  1.3695e-29  6.7814e-24  2.1348e-29  7.0186e-24  4.2315e-29  7.4403e-24  8.3403e-29  8.1902e-24  1.6555e-28  9.5236e-24  3.3664e-28  1.1895e-23  6.0642e-28  1.6112e-23  8.0357e-28  2.3616e-23  9.8706e-28  3.6970e-23  1.1348e-27  6.0742e-23  1.3126e-27  1.0310e-22  1.5341e-27  1.7867e-22  1.8818e-27  3.1387e-22  2.4572e-27  5.5685e-22  3.4423e-27  9.9697e-22  5.2032e-27  1.8051e-21  8.4202e-27  3.3228e-21  1.4458e-26  6.2763e-21
      5.80  1.0124e-29  6.2574e-24  1.2806e-29  6.3799e-24  2.0523e-29  6.5977e-24  4.1200e-29  6.9850e-24  8.6115e-29  7.6736e-24  1.8353e-28  8.8981e-24  3.4649e-28  1.1076e-23  5.4337e-28  1.4950e-23  6.8876e-28  2.1842e-23  8.4103e-28  3.4106e-23  9.5697e-28  5.5941e-23  1.1456e-27  9.4844e-23  1.3779e-27  1.6427e-22  1.7306e-27  2.8847e-22  2.3340e-27  5.1174e-22  3.3846e-27  9.1633e-22  5.2657e-27  1.6597e-21  8.7335e-27  3.0573e-21  1.5302e-26  5.7816e-21
      5.85  9.6527e-30  5.9602e-24  1.2813e-29  6.0756e-24  2.1146e-29  6.2809e-24  4.2660e-29  6.6459e-24  9.4914e-29  7.2950e-24  2.0296e-28  8.4491e-24  3.2431e-28  1.0502e-23  4.8042e-28  1.4154e-23  6.0499e-28  2.0651e-23  7.5769e-28  3.2213e-23  8.9371e-28  5.2796e-23  1.0591e-27  8.9473e-23  1.3093e-27  1.5492e-22  1.7013e-27  2.7204e-22  2.3832e-27  4.8262e-22  3.5788e-27  8.6435e-22  5.7424e-27  1.5662e-21  9.7476e-27  2.8870e-21  1.7392e-26  5.4659e-21
      5.90  9.4093e-30  5.7436e-24  1.3022e-29  5.8589e-24  2.3024e-29  6.0638e-24  4.7836e-29  6.4282e-24  1.0539e-28  7.0760e-24  2.0709e-28  8.2282e-24  3.2746e-28  1.0278e-23  4.3645e-28  1.3924e-23  5.7723e-28  2.0410e-23  7.1408e-28  3.1952e-23  8.4884e-28  5.2500e-23  1.0199e-27  8.9117e-23  1.3034e-27  1.5446e-22  1.7796e-27  2.7141e-22  2.5989e-27  4.8172e-22  4.0586e-27  8.6311e-22  6.7148e-27  1.5647e-21  1.1660e-26  2.8864e-21  2.1170e-26  5.4708e-21
      5.95  8.9843e-30  5.5890e-24  1.3107e-29  5.7066e-24  2.4046e-29  5.9158e-24  5.1516e-29  6.2877e-24  1.1461e-28  6.9489e-24  2.1574e-28  8.1249e-24  3.3421e-28  1.0217e-23  4.4687e-28  1.3938e-23  5.5867e-28  2.0558e-23  6.8114e-28  3.2339e-23  8.4068e-28  5.3314e-23  1.0308e-27  9.0691e-23  1.3441e-27  1.5740e-22  1.8930e-27  2.7680e-22  2.8581e-27  4.9156e-22  4.5818e-27  8.8116e-22  7.7330e-27  1.5983e-21  1.3623e-26  2.9506e-21  2.5013e-26  5.5989e-21
      6.00  8.2941e-30  5.4797e-24  1.2252e-29  5.5978e-24  2.2921e-29  5.8076e-24  5.0245e-29  6.1807e-24  1.1379e-28  6.8441e-24  2.3096e-28  8.0239e-24  3.4699e-28  1.0123e-23  4.5494e-28  1.3856e-23  5.6704e-28  2.0498e-23  6.9816e-28  3.2317e-23  8.6194e-28  5.3361e-23  1.1009e-27  9.0862e-23  1.4903e-27  1.5780e-22  2.1739e-27  2.7762e-22  3.3910e-27  4.9319e-22  5.5909e-27  8.8442e-22  9.6210e-27  1.6051e-21  1.7181e-26  2.9655e-21  3.1880e-26  5.6340e-21
      6.05  7.3773e-30  5.4229e-24  1.0776e-29  5.5375e-24  1.9958e-29  5.7414e-24  4.4233e-29  6.1040e-24  1.0342e-28  6.7486e-24  2.3130e-28  7.8947e-24  3.5491e-28  9.9336e-24  4.6668e-28  1.3561e-23  5.8752e-28  2.0014e-23  7.1348e-28  3.1497e-23  8.8069e-28  5.1944e-23  1.1534e-27  8.8382e-23  1.6170e-27  1.5343e-22  2.4353e-27  2.6988e-22  3.8997e-27  4.7945e-22  6.5498e-27  8.5995e-22  1.1416e-26  1.5614e-21  2.0571e-26  2.8872e-21  3.8447e-26  5.4928e-21
      6.10  6.7317e-30  5.3977e-24  9.4893e-30  5.5065e-24  1.7017e-29  5.6998e-24  3.7154e-29  6.0436e-24  8.7717e-29  6.6548e-24  2.0097e-28  7.7416e-24  3.3319e-28  9.6748e-24  4.5737e-28  1.3114e-23  5.6410e-28  1.9233e-23  6.8463e-28  3.0122e-23  8.7369e-28  4.9509e-23  1.1784e-27  8.4063e-23  1.7105e-27  1.4575e-22  2.6587e-27  2.5621e-22  4.3559e-27  4.5504e-22  7.4294e-27  8.1623e-22  1.3086e-26  1.4826e-21  2.3754e-26  2.7438e-21  4.4655e-26  5.2273e-21
      6.15  6.3639e-30  5.4000e-24  8.8126e-30  5.5009e-24  1.5465e-29  5.6802e-24  3.2493e-29  5.9991e-24  7.3568e-29  6.5661e-24  1.5303e-28  7.5742e-24  2.5098e-28  9.3672e-24  3.8430e-28  1.2557e-23  4.9100e-28  1.8232e-23  6.2002e-28  2.8331e-23  8.2262e-28  4.6313e-23  1.1524e-27  7.8363e-23  1.7372e-27  1.3559e-22  2.7779e-27  2.3807e-22  4.6493e-27  4.2260e-22  8.0422e-27  7.5797e-22  1.4292e-26  1.3772e-21  2.6103e-26  2.5508e-21  4.9312e-26  4.8663e-21
      6.20  6.1213e-30  5.4243e-24  8.5979e-30  5.5144e-24  1.4675e-29  5.6746e-24  2.9303e-29  5.9595e-24  5.8646e-29  6.4659e-24  1.1318e-28  7.3665e-24  1.8229e-28  8.9682e-24  2.7296e-28  1.1817e-23  3.8219e-28  1.6886e-23  5.2126e-28  2.5906e-23  7.2516e-28  4.1968e-23  1.0733e-27  7.0597e-23  1.6790e-27  1.2172e-22  2.7625e-27  2.1328e-22  4.7101e-27  3.7821e-22  8.2457e-27  6.7811e-22  1.4767e-26  1.2324e-21  2.7112e-26  2.2842e-21  5.1435e-26  4.3640e-21
      6.25  5.6029e-30  5.4663e-24  7.8464e-30  5.5421e-24  1.3068e-29  5.6769e-24  2.3616e-29  5.9167e-24  4.4466e-29  6.3429e-24  8.2496e-29  7.1008e-24  1.2853e-28  8.4488e-24  1.9436e-28  1.0846e-23  2.8284e-28  1.5111e-23  4.1034e-28  2.2701e-23  6.0990e-28  3.6216e-23  9.5146e-28  6.0307e-23  1.5490e-27  1.0333e-22  2.6127e-27  1.8040e-22  4.5225e-27  3.1927e-22  7.9928e-27  5.7194e-22  1.4402e-26  1.0393e-21  2.6555e-26  1.9277e-21  5.0562e-26  3.6882e-21
      6.30  4.9253e-30  5.5497e-24  6.6824e-30  5.6102e-24  1.0159e-29  5.7178e-24  1.8015e-29  5.9091e-24  3.2147e-29  6.2492e-24  5.8167e-29  6.8540e-24  8.6089e-29  7.9295e-24  1.3511e-28  9.8423e-24  2.0984e-28  1.3245e-23  3.1712e-28  1.9300e-23  5.0220e-28  3.0083e-23  8.1702e-28  4.9304e-23  1.3743e-27  8.3632e-23  2.3635e-27  1.4515e-22  4.1419e-27  2.5601e-22  7.3751e-27  4.5786e-22  1.3352e-26  8.3161e-22  2.4706e-26  1.5431e-21  4.7190e-26  2.9566e-21
      6.35  4.3118e-30  5.6562e-24  5.5466e-30  5.7041e-24  8.1283e-30  5.7893e-24  1.3231e-29  5.9406e-24  2.3775e-29  6.2098e-24  4.2505e-29  6.6884e-24  5.9391e-29  7.5396e-24  9.0849e-29  9.0533e-24  1.4821e-28  1.1746e-23  2.4877e-28  1.6538e-23  4.1138e-28  2.5071e-23  6.9890e-28  4.0282e-23  1.2030e-27  6.7451e-23  2.1010e-27  1.1615e-22  3.7204e-27  2.0394e-22  6.6671e-27  3.6388e-22  1.2121e-26  6.6034e-22  2.2497e-26  1.2256e-21  4.3098e-26  2.3513e-21
      6.40  3.7599e-30  5.7852e-24  4.8002e-30  5.8241e-24  6.7335e-30  5.8932e-24  1.0391e-29  6.0161e-24  1.7248e-29  6.2347e-24  3.1681e-29  6.6233e-24  4.4614e-29  7.3144e-24  6.7445e-29  8.5436e-24  1.1166e-28  1.0730e-23  1.9653e-28  1.4621e-23  3.4944e-28  2.1549e-23  6.1896e-28  3.3901e-23  1.0947e-27  5.5966e-23  1.9454e-27  9.5520e-23  3.4824e-27  1.6686e-22  6.2819e-27  2.9690e-22  1.1470e-26  5.3817e-22  2.1361e-26  9.9896e-22  4.1051e-26  1.9187e-21
      6.45  3.2709e-30  5.9332e-24  4.2212e-30  5.9653e-24  5.7794e-30  6.0225e-24  8.5918e-30  6.1242e-24  1.3702e-29  6.3050e-24  2.3825e-29  6.6265e-24  3.7821e-29  7.1981e-24  5.8122e-29  8.2148e-24  9.8087e-29  1.0023e-23  1.7540e-28  1.3241e-23  3.2066e-28  1.8971e-23  5.8385e-28  2.9188e-23  1.0555e-27  4.7439e-23  1.9060e-27  8.0162e-23  3.4393e-27  1.3920e-22  6.2369e-27  2.4688e-22  1.1430e-26  4.4684e-22  2.1348e-26  8.2929e-22  4.1145e-26  1.5943e-21
      6.50  2.7537e-30  6.0980e-24  3.6426e-30  6.1247e-24  4.8171e-30  6.1722e-24  7.1022e-30  6.2567e-24  1.1096e-29  6.4070e-24  1.8744e-29  6.6742e-24  2.9413e-29  7.1494e-24  4.6956e-29  7.9946e-24  8.0474e-29  9.4979e-24  1.4590e-28  1.2173e-23  2.7183e-28  1.6936e-23  5.0805e-28  2.5428e-23  9.3823e-28  4.0600e-23  1.7162e-27  6.7808e-23  3.1258e-27  1.1691e-22  5.7020e-27  2.0650e-22  1.0490e-26  3.7300e-22  1.9650e-26  6.9183e-22  3.7975e-26  1.3307e-21
      6.55  2.3214e-30  6.3090e-24  3.0602e-30  6.3316e-24  4.0401e-30  6.3719e-24  5.8219e-30  6.4434e-24  9.2028e-30  6.5707e-24  1.5588e-29  6.7969e-24  2.4741e-29  7.1993e-24  3.9514e-29  7.9149e-24  6.9424e-29  9.1879e-24  1.2839e-28  1.1453e-23  2.4365e-28  1.5487e-23  4.6343e-28  2.2678e-23  8.7153e-28  3.5527e-23  1.6165e-27  5.8570e-23  2.9701e-27  1.0016e-22  5.4483e-27  1.7608e-22  1.0063e-26  3.1727e-22  1.8905e-26  5.8787e-22  3.6628e-26  1.1309e-21
      6.60  1.9682e-30  6.5378e-24  2.5820e-30  6.5576e-24  3.3909e-30  6.5929e-24  4.8165e-30  6.6557e-24  7.6466e-30  6.7673e-24  1.3550e-29  6.9658e-24  2.2029e-29  7.3187e-24  3.5549e-29  7.9465e-24  6.3563e-29  9.0633e-24  1.2030e-28  1.1051e-23  2.3210e-28  1.4589e-23  4.4754e-28  2.0899e-23  8.5207e-28  3.2172e-23  1.5979e-27  5.2392e-23  2.9621e-27  8.8896e-23  5.4647e-27  1.5554e-22  1.0131e-26  2.7954e-22  1.9087e-26  5.1737e-22  3.7064e-26  9.9513e-22
      6.65  1.6756e-30  6.7832e-24  2.1349e-30  6.8013e-24  2.8455e-30  6.8335e-24  4.0114e-30  6.8908e-24  6.3529e-30  6.9926e-24  1.1741e-29  7.1737e-24  1.9653e-29  7.4958e-24  3.2222e-29  8.0687e-24  5.9185e-29  9.0879e-24  1.1469e-28  1.0902e-23  2.2504e-28  1.4131e-23  4.3928e-28  1.9890e-23  8.4517e-28  3.0180e-23  1.6003e-27  4.8638e-23  2.9895e-27  8.1964e-23  5.5463e-27  1.4282e-22  1.0321e-26  2.5609e-22  1.9495e-26  4.7348e-22  3.7936e-26  9.1054e-22
      6.70  1.4309e-30  7.0440e-24  1.7509e-30  7.0611e-24  2.3383e-30  7.0916e-24  3.3808e-30  7.1457e-24  5.5462e-30  7.2419e-24  1.0885e-29  7.4131e-24  1.9649e-29  7.7174e-24  3.4534e-29  8.2587e-24  6.6207e-29  9.2216e-24  1.3104e-28  1.0935e-23  2.5908e-28  1.3987e-23  5.0665e-28  1.9429e-23  9.7592e-28  2.9153e-23  1.8498e-27  4.6595e-23  3.4621e-27  7.8093e-23  6.4359e-27  1.3562e-22  1.1996e-26  2.4273e-22  2.2690e-26  4.4841e-22  4.4211e-26  8.6221e-22
      6.75  1.2284e-30  7.3193e-24  1.4436e-30  7.3359e-24  1.9441e-30  7.3654e-24  2.8944e-30  7.4179e-24  5.1403e-30  7.5113e-24  1.0822e-29  7.6773e-24  2.0874e-29  7.9725e-24  3.8819e-29  8.4976e-24  7.6686e-29  9.4317e-24  1.5328e-28  1.1094e-23  3.0250e-28  1.4055e-23  5.8986e-28  1.9334e-23  1.1323e-27  2.8767e-23  2.1429e-27  4.5691e-23  4.0087e-27  7.6253e-23  7.4562e-27  1.3209e-22  1.3910e-26  2.3606e-22  2.6334e-26  4.3581e-22  5.1361e-26  8.3794e-22
      6.80  1.0634e-30  7.6482e-24  1.2074e-30  7.6646e-24  1.6248e-30  7.6939e-24  2.5232e-30  7.7459e-24  4.7241e-30  7.8384e-24  1.0287e-29  8.0028e-24  2.1650e-29  8.2952e-24  4.1267e-29  8.8154e-24  8.2741e-29  9.7407e-24  1.6525e-28  1.1388e-23  3.2499e-28  1.4320e-23  6.3188e-28  1.9550e-23  1.2116e-27  2.8896e-23  2.2923e-27  4.5663e-23  4.2918e-27  7.5945e-23  7.9943e-27  1.3127e-22  1.4937e-26  2.3434e-22  2.8315e-26  4.3241e-22  5.5290e-26  8.3140e-22
      6.85  9.2969e-31  7.9948e-24  1.0292e-30  8.0113e-24  1.3322e-30  8.0408e-24  2.1583e-30  8.0931e-24  4.1820e-30  8.1862e-24  9.8244e-30  8.3518e-24  2.2798e-29  8.6462e-24  4.4956e-29  9.1699e-24  9.2244e-29  1.0102e-23  1.8429e-28  1.1760e-23  3.6340e-28  1.4713e-23  7.0573e-28  1.9978e-23  1.3519e-27  2.9389e-23  2.5552e-27  4.6272e-23  4.7816e-27  7.6768e-23  8.9079e-27  1.3249e-22  1.6652e-26  2.3632e-22  3.1591e-26  4.3593e-22  6.1742e-26  8.3822e-22
      6.90  8.2311e-31  8.3584e-24  9.0198e-31  8.3752e-24  1.1384e-30  8.4050e-24  1.8187e-30  8.4580e-24  3.8775e-30  8.5523e-24  9.8605e-30  8.7199e-24  2.4602e-29  9.0180e-24  5.0384e-29  9.5483e-24  1.0555e-28  1.0492e-23  2.1192e-28  1.2170e-23  4.2076e-28  1.5160e-23  8.2264e-28  2.0492e-23  1.5785e-27  3.0020e-23  2.9810e-27  4.7116e-23  5.5698e-27  7.7997e-23  1.0364e-26  1.3444e-22  1.9366e-26  2.3961e-22  3.6741e-26  4.4188e-22  7.1835e-26  8.4973e-22
      6.95  7.3755e-31  8.7384e-24  8.1119e-31  8.7552e-24  1.0287e-30  8.7852e-24  1.7045e-30  8.8385e-24  3.7798e-30  8.9332e-24  9.7813e-30  9.1017e-24  2.5312e-29  9.4012e-24  5.1902e-29  9.9340e-24  1.0702e-28  1.0882e-23  2.1410e-28  1.2569e-23  4.2971e-28  1.5573e-23  8.4629e-28  2.0930e-23  1.6298e-27  3.0504e-23  3.0840e-27  4.7682e-23  5.7694e-27  7.8715e-23  1.0745e-26  1.3544e-22  2.0093e-26  2.4117e-22  3.8151e-26  4.4456e-22  7.4657e-26  8.5487e-22
      7.00  6.6586e-31  9.1340e-24  7.3744e-31  9.1506e-24  9.5040e-31  9.1802e-24  1.6150e-30  9.2326e-24  3.5602e-30  9.3260e-24  9.2940e-30  9.4919e-24  2.5410e-29  9.7870e-24  5.2468e-29  1.0312e-23  1.0508e-28  1.1245e-23  2.1309e-28  1.2907e-23  4.3206e-28  1.5866e-23  8.5697e-28  2.1141e-23  1.6601e-27  3.0571e-23  3.1564e-27  4.7490e-23  5.9239e-27  7.8057e-23  1.1056e-26  1.3393e-22  2.0702e-26  2.3811e-22  3.9352e-26  4.3858e-22  7.7085e-26  8.4317e-22
      7.05  5.9253e-31  9.5955e-24  6.6063e-31  9.6113e-24  8.6335e-31  9.6395e-24  1.4653e-30  9.6896e-24  3.2688e-30  9.7788e-24  8.6844e-30  9.9373e-24  2.4233e-29  1.0219e-23  5.1887e-29  1.0720e-23  1.0503e-28  1.1612e-23  2.1422e-28  1.3199e-23  4.3768e-28  1.6024e-23  8.7732e-28  2.1062e-23  1.7219e-27  3.0065e-23  3.3044e-27  4.6221e-23  6.2394e-27  7.5410e-23  1.1688e-26  1.2877e-22  2.1936e-26  2.2828e-22  4.1760e-26  4.1983e-22  8.1899e-26  8.0658e-22
      7.10  5.2743e-31  1.0078e-23  5.8775e-31  1.0092e-23  7.6550e-31  1.0118e-23  1.3034e-30  1.0164e-23  2.9352e-30  1.0246e-23  7.8069e-30  1.0391e-23  2.2383e-29  1.0650e-23  5.1368e-29  1.1110e-23  1.0624e-28  1.1928e-23  2.1633e-28  1.3383e-23  4.4217e-28  1.5975e-23  9.0426e-28  2.0595e-23  1.8062e-27  2.8852e-23  3.5126e-27  4.3668e-23  6.6899e-27  7.0437e-23  1.2599e-26  1.1938e-22  2.3725e-26  2.1067e-22  4.5259e-26  3.8643e-22  8.8887e-26  7.4147e-22
      7.15  4.7290e-31  1.0580e-23  5.2472e-31  1.0593e-23  6.8007e-31  1.0616e-23  1.1560e-30  1.0656e-23  2.6214e-30  1.0728e-23  6.9038e-30  1.0856e-23  1.9296e-29  1.1083e-23  4.6389e-29  1.1487e-23  9.3418e-29  1.2205e-23  1.8685e-28  1.3482e-23  3.8706e-28  1.5757e-23  8.0563e-28  1.9811e-23  1.6427e-27  2.7055e-23  3.2532e-27  4.0052e-23  6.2831e-27  6.3537e-23  1.1949e-26  1.0648e-22  2.2644e-26  1.8658e-22  4.3377e-26  3.4085e-22  8.5427e-26  6.5263e-22
      7.20  4.2639e-31  1.1104e-23  4.6979e-31  1.1115e-23  6.0144e-31  1.1134e-23  1.0044e-30  1.1168e-23  2.1704e-30  1.1229e-23  5.5707e-30  1.1337e-23  1.5188e-29  1.1529e-23  3.8223e-29  1.1870e-23  7.3778e-29  1.2478e-23  1.5072e-28  1.3558e-23  3.1765e-28  1.5481e-23  6.7517e-28  1.8908e-23  1.4130e-27  2.5031e-23  2.8685e-27  3.6015e-23  5.6527e-27  5.5860e-23  1.0909e-26  9.2148e-23  2.0884e-26  1.5985e-22  4.0270e-26  2.9025e-22  7.9646e-26  5.5385e-22
      7.25  3.8711e-31  1.1648e-23  4.2207e-31  1.1657e-23  5.2769e-31  1.1673e-23  8.3992e-31  1.1702e-23  1.7528e-30  1.1752e-23  4.3261e-30  1.1842e-23  1.1289e-29  1.2001e-23  2.7886e-29  1.2285e-23  5.5160e-29  1.2789e-23  1.1265e-28  1.3687e-23  2.4036e-28  1.5284e-23  5.2529e-28  1.8130e-23  1.1334e-27  2.3214e-23  2.3743e-27  3.2332e-23  4.8026e-27  4.8805e-23  9.4535e-27  7.8927e-23  1.8350e-26  1.3512e-22  3.5710e-26  2.4339e-22  7.1047e-26  4.6227e-22
      7.30  3.5418e-31  1.2278e-23  3.8145e-31  1.2285e-23  4.6178e-31  1.2298e-23  6.9983e-31  1.2322e-23  1.3918e-30  1.2364e-23  3.2749e-30  1.2439e-23  8.2923e-30  1.2572e-23  1.9997e-29  1.2809e-23  4.2003e-29  1.3230e-23  8.4758e-29  1.3980e-23  1.7904e-28  1.5314e-23  4.0094e-28  1.7691e-23  8.9919e-28  2.1936e-23  1.9567e-27  2.9549e-23  4.0919e-27  4.3302e-23  8.2637e-27  6.8447e-23  1.6336e-26  1.1536e-22  3.2187e-26  2.0574e-22  6.4549e-26  3.8847e-22
      7.35  3.2719e-31  1.2936e-23  3.4769e-31  1.2942e-23  4.0815e-31  1.2953e-23  5.8708e-31  1.2973e-23  1.1079e-30  1.3009e-23  2.4617e-30  1.3073e-23  6.1340e-30  1.3187e-23  1.5108e-29  1.3389e-23  3.2975e-29  1.3747e-23  6.6085e-29  1.4386e-23  1.3990e-28  1.5523e-23  3.1840e-28  1.7550e-23  7.3951e-28  2.1169e-23  1.6694e-27  2.7659e-23  3.5992e-27  3.9382e-23  7.4490e-27  6.0813e-23  1.4994e-26  1.0079e-22  2.9912e-26  1.7782e-22  6.0478e-26  3.3354e-22
      7.40  3.0518e-31  1.3622e-23  3.1982e-31  1.3628e-23  3.6705e-31  1.3637e-23  5.0404e-31  1.3655e-23  9.0370e-31  1.3686e-23  1.9369e-30  1.3742e-23  4.7006e-30  1.3841e-23  1.1985e-29  1.4018e-23  2.8346e-29  1.4332e-23  5.5115e-29  1.4891e-23  1.1624e-28  1.5885e-23  2.6722e-28  1.7658e-23  6.3121e-28  2.0824e-23  1.4624e-27  2.6503e-23  3.2406e-27  3.6758e-23  6.8612e-27  5.5505e-23  1.4049e-26  9.0475e-23  2.8363e-26  1.5784e-22  5.7803e-26  2.9403e-22
      7.45  2.8732e-31  1.4336e-23  2.9974e-31  1.4341e-23  3.3518e-31  1.4350e-23  4.4301e-31  1.4366e-23  7.5861e-31  1.4394e-23  1.5798e-30  1.4444e-23  3.7815e-30  1.4534e-23  9.6786e-30  1.4692e-23  2.2405e-29  1.4974e-23  4.3277e-29  1.5476e-23  8.9464e-29  1.6369e-23  2.0687e-28  1.7961e-23  4.9777e-28  2.0806e-23  1.1854e-27  2.5909e-23  2.7089e-27  3.5123e-23  5.8971e-27  5.1967e-23  1.2341e-26  8.3384e-23  2.5308e-26  1.4390e-22  5.2125e-26  2.6622e-22
      7.50  2.7285e-31  1.5079e-23  2.8315e-31  1.5083e-23  3.1375e-31  1.5092e-23  4.0363e-31  1.5106e-23  6.6878e-31  1.5132e-23  1.3390e-30  1.5178e-23  3.1725e-30  1.5260e-23  8.1386e-30  1.5406e-23  1.8812e-29  1.5666e-23  3.5524e-29  1.6127e-23  7.2772e-29  1.6950e-23  1.6785e-28  1.8416e-23  4.0806e-28  2.1036e-23  9.9263e-28  2.5735e-23  2.3313e-27  3.4222e-23  5.2134e-27  4.9734e-23  1.1155e-26  7.8666e-23  2.3254e-26  1.3438e-22  4.8430e-26  2.4699e-22
      7.55  2.6113e-31  1.5930e-23  2.7014e-31  1.5934e-23  2.9624e-31  1.5942e-23  3.7581e-31  1.5956e-23  6.0473e-31  1.5980e-23  1.2138e-30  1.6023e-23  2.8394e-30  1.6101e-23  7.3243e-30  1.6238e-23  1.5946e-29  1.6483e-23  3.0801e-29  1.6918e-23  6.2154e-29  1.7693e-23  1.4171e-28  1.9075e-23  3.4473e-28  2.1545e-23  8.5003e-28  2.5974e-23  2.0430e-27  3.3975e-23  4.6913e-27  4.8600e-23  1.0283e-26  7.5872e-23  2.1844e-26  1.2839e-22  4.6102e-26  2.3451e-22
      7.60  2.5449e-31  1.6987e-23  2.5991e-31  1.6823e-23  2.8483e-31  1.6830e-23  3.5791e-31  1.6843e-23  5.7212e-31  1.6867e-23  1.1334e-30  1.6909e-23  2.6692e-30  1.6983e-23  6.8397e-30  1.7115e-23  1.3817e-29  1.7350e-23  2.7160e-29  1.7769e-23  5.3417e-29  1.8514e-23  1.1837e-28  1.9843e-23  2.8305e-28  2.2217e-23  6.9663e-28  2.6477e-23  1.6948e-27  3.4172e-23  3.9701e-27  4.8238e-23  8.8891e-27  7.4466e-23  1.9228e-26  1.2497e-22  4.1132e-26  2.2700e-22
      7.65  2.4386e-31  1.7745e-23  2.5166e-31  1.7749e-23  2.7535e-31  1.7757e-23  3.4458e-31  1.7770e-23  5.4319e-31  1.7793e-23  1.0952e-30  1.7833e-23  2.5792e-30  1.7906e-23  6.4101e-30  1.8035e-23  1.2372e-29  1.8265e-23  2.4247e-29  1.8674e-23  4.6871e-29  1.9402e-23  1.0079e-28  2.0701e-23  2.3535e-28  2.3023e-23  5.7349e-28  2.7188e-23  1.4024e-27  3.4712e-23  3.3374e-27  4.8465e-23  7.6224e-27  7.4110e-23  1.6797e-26  1.2348e-22  3.6459e-26  2.2322e-22
      7.70  2.3735e-31  1.8710e-23  2.4476e-31  1.8714e-23  2.6743e-31  1.8721e-23  3.3336e-31  1.8734e-23  5.2454e-31  1.8757e-23  1.0460e-30  1.8797e-23  2.4538e-30  1.8869e-23  6.1444e-30  1.8997e-23  1.1186e-29  1.9224e-23  2.1537e-29  1.9629e-23  4.1504e-29  2.0351e-23  8.6753e-29  2.1637e-23  1.9723e-28  2.3936e-23  4.7332e-28  2.8062e-23  1.1565e-27  3.5514e-23  2.7845e-27  4.9137e-23  6.4762e-27  7.4538e-23  1.4542e-26  1.2344e-22  3.2066e-26  2.2221e-22
      7.75  2.3209e-31  1.9712e-23  2.3915e-31  1.9716e-23  2.6041e-31  1.9723e-23  3.2409e-31  1.9736e-23  5.0592e-31  1.9759e-23  1.0077e-30  1.9799e-23  2.3833e-30  1.9871e-23  5.6684e-30  1.9999e-23  1.0222e-29  2.0226e-23  1.9376e-29  2.0631e-23  3.7134e-29  2.1352e-23  7.5583e-29  2.2638e-23  1.6696e-28  2.4936e-23  3.9252e-28  2.9059e-23  9.5234e-28  3.6509e-23  2.3082e-27  5.0127e-23  5.4532e-27  7.5520e-23  1.2474e-26  1.2440e-22  2.7968e-26  2.2312e-22
      7.80  2.2770e-31  2.0855e-23  2.3438e-31  2.0859e-23  2.5514e-31  2.0866e-23  3.1516e-31  2.0879e-23  4.8709e-31  2.0902e-23  9.7405e-31  2.0942e-23  2.2808e-30  2.1015e-23  5.2304e-30  2.1144e-23  9.4494e-30  2.1373e-23  1.7471e-29  2.1780e-23  3.3289e-29  2.2506e-23  6.6141e-29  2.3801e-23  1.4246e-28  2.6116e-23  3.2716e-28  3.0269e-23  7.8446e-28  3.7772e-23  1.9053e-27  5.1489e-23  4.5601e-27  7.7064e-23  1.0621e-26  1.2629e-22  2.4240e-26  2.2571e-22
      7.85  2.2399e-31  2.2049e-23  2.3020e-31  2.2053e-23  2.4961e-31  2.2060e-23  3.0466e-31  2.2073e-23  4.6294e-31  2.2096e-23  9.1212e-31  2.2137e-23  2.1255e-30  2.2210e-23  4.8336e-30  2.2340e-23  8.5933e-30  2.2572e-23  1.5753e-29  2.2983e-23  2.9794e-29  2.3716e-23  5.8246e-29  2.5024e-23  1.2197e-28  2.7361e-23  2.7349e-28  3.1554e-23  6.4631e-28  3.9130e-23  1.5672e-27  5.2980e-23  3.7899e-27  7.8805e-23  8.9820e-27  1.2851e-22  2.0888e-26  2.2888e-22
      7.90  2.2085e-31  2.3294e-23  2.2618e-31  2.3298e-23  2.4354e-31  2.3306e-23  2.9406e-31  2.3319e-23  4.3724e-31  2.3342e-23  8.4227e-31  2.3384e-23  1.9668e-30  2.3457e-23  4.2590e-30  2.3589e-23  7.4565e-30  2.3822e-23  1.3553e-29  2.4238e-23  2.5444e-29  2.4978e-23  4.9073e-29  2.6297e-23  1.0069e-28  2.8656e-23  2.2100e-28  3.2889e-23  5.1468e-28  4.0537e-23  1.2444e-27  5.4519e-23  3.0382e-27  8.0587e-23  7.3315e-27  1.3076e-22  1.7406e-26  2.3206e-22
      7.95  2.1817e-31  2.4592e-23  2.2299e-31  2.4596e-23  2.3847e-31  2.4603e-23  2.8278e-31  2.4616e-23  4.1084e-31  2.4640e-23  7.6499e-31  2.4681e-23  1.7483e-30  2.4756e-23  3.5725e-30  2.4888e-23  6.3291e-30  2.5123e-23  1.1415e-29  2.5541e-23  2.1208e-29  2.6285e-23  4.0597e-29  2.7613e-23  8.1777e-29  2.9987e-23  1.7587e-28  3.4246e-23  4.0297e-28  4.1942e-23  9.6788e-28  5.6010e-23  2.3754e-27  8.2240e-23  5.8172e-27  1.3272e-22  1.4078e-26  2.3463e-22
      8.00  2.1809e-31  2.6200e-23  2.1997e-31  2.5945e-23  2.3322e-31  2.5952e-23  2.7191e-31  2.5965e-23  3.8071e-31  2.5989e-23  6.8344e-31  2.6031e-23  1.5278e-30  2.6105e-23  2.9994e-30  2.6237e-23  5.2766e-30  2.6473e-23  9.4489e-30  2.6892e-23  1.7396e-29  2.7638e-23  3.3083e-29  2.8969e-23  6.5433e-29  3.1348e-23  1.3802e-28  3.5616e-23  3.1214e-28  4.3329e-23  7.3919e-28  5.7427e-23  1.8265e-27  8.3713e-23  4.5245e-27  1.3430e-22  1.1138e-26  2.3640e-22
      8.05  2.1391e-31  2.7474e-23  2.1727e-31  2.7478e-23  2.2827e-31  2.7485e-23  2.6042e-31  2.7499e-23  3.4930e-31  2.7522e-23  6.0585e-31  2.7564e-23  1.3144e-30  2.7638e-23  2.4962e-30  2.7771e-23  4.2780e-30  2.8006e-23  7.6777e-30  2.8425e-23  1.4028e-29  2.9172e-23  2.6483e-29  3.0503e-23  5.1958e-29  3.2883e-23  1.0809e-28  3.7154e-23  2.4018e-28  4.4869e-23  5.6389e-28  5.8973e-23  1.3937e-27  8.5266e-23  3.4854e-27  1.3586e-22  8.7160e-27  2.3797e-22
      8.10  2.1226e-31  2.9078e-23  2.1494e-31  2.9082e-23  2.2368e-31  2.9089e-23  2.4936e-31  2.9103e-23  3.2124e-31  2.9126e-23  5.2858e-31  2.9168e-23  1.1019e-30  2.9242e-23  2.0274e-30  2.9374e-23  3.4416e-30  2.9609e-23  6.0743e-30  3.0027e-23  1.1022e-29  3.0771e-23  2.0824e-29  3.2098e-23  4.0569e-29  3.4471e-23  8.3361e-29  3.8728e-23  1.8299e-28  4.6419e-23  4.2826e-28  6.0477e-23  1.0522e-27  8.6685e-23  2.6518e-27  1.3711e-22  6.7250e-27  2.3885e-22
      8.15  2.1088e-31  3.0753e-23  2.1295e-31  3.0758e-23  2.1981e-31  3.0765e-23  2.3977e-31  3.0778e-23  2.9751e-31  3.0801e-23  4.6018e-31  3.0843e-23  9.1395e-31  3.0917e-23  1.6276e-30  3.1048e-23  2.7335e-30  3.1281e-23  4.7810e-30  3.1697e-23  8.6086e-30  3.2437e-23  1.5996e-29  3.3758e-23  3.1186e-29  3.6117e-23  6.3371e-29  4.0351e-23  1.3742e-28  4.8000e-23  3.1862e-28  6.1981e-23  7.8059e-28  8.8042e-23  1.9776e-27  1.3817e-22  5.0767e-27  2.3931e-22
      8.20  2.0973e-31  3.2502e-23  2.1132e-31  3.2506e-23  2.1658e-31  3.2513e-23  2.3450e-31  3.2852e-23  2.7614e-31  3.2549e-23  4.0226e-31  3.2590e-23  7.5435e-31  3.2664e-23  1.2899e-30  3.2794e-23  2.1527e-30  3.3026e-23  3.7255e-30  3.3439e-23  6.7150e-30  3.4175e-23  1.2278e-29  3.5486e-23  2.3758e-29  3.7831e-23  4.7936e-29  4.2037e-23  1.0302e-28  4.9637e-23  2.3721e-28  6.3526e-23  5.8002e-28  8.9413e-23  1.4765e-27  1.3920e-22  3.8316e-27  2.3962e-22
      8.25  2.0877e-31  3.4323e-23  2.0996e-31  3.4327e-23  2.1366e-31  3.4334e-23  2.2562e-31  3.4347e-23  2.5919e-31  3.4370e-23  3.5534e-31  3.4411e-23  6.2492e-31  3.4484e-23  1.0406e-30  3.4613e-23  1.6895e-30  3.4844e-23  2.8881e-30  3.5254e-23  5.1131e-30  3.5985e-23  9.4505e-30  3.7289e-23  1.8015e-29  3.9619e-23  3.6144e-29  4.3800e-23  7.7206e-29  5.1352e-23  1.7694e-28  6.5154e-23  4.3227e-28  9.0876e-23  1.1054e-27  1.4034e-22  2.8972e-27  2.4007e-22
      8.30  2.0802e-31  3.6390e-23  2.0887e-31  3.6394e-23  2.1162e-31  3.6401e-23  2.2028e-31  3.6414e-23  2.4558e-31  3.6437e-23  3.1804e-31  3.6478e-23  5.2319e-31  3.6551e-23  8.3893e-31  3.6681e-23  1.3415e-30  3.6911e-23  2.2583e-30  3.7321e-23  3.9569e-30  3.8051e-23  7.1959e-30  3.9353e-23  1.3640e-29  4.1680e-23  2.7227e-29  4.5855e-23  5.7936e-29  5.3396e-23  1.3238e-28  6.7178e-23  3.2165e-28  9.2859e-23  8.3100e-28  1.4223e-22  2.1975e-27  2.4176e-22
      8.35  2.0740e-31  3.8558e-23  2.0803e-31  3.8562e-23  2.1009e-31  3.8570e-23  2.1640e-31  3.8583e-23  2.3473e-31  3.8606e-23  2.8748e-31  3.8647e-23  4.3984e-31  3.8719e-23  6.7420e-31  3.8849e-23  1.0458e-30  3.9080e-23  1.7239e-30  3.9490e-23  2.9813e-30  4.0221e-23  5.3777e-30  4.1525e-23  1.0145e-29  4.3856e-23  2.0202e-29  4.8037e-23  4.2970e-29  5.5589e-23  9.8324e-29  6.9388e-23  2.4115e-28  9.5099e-23  6.2374e-28  1.4452e-22  1.6550e-27  2.4411e-22
      8.40  2.0691e-31  4.0830e-23  2.0738e-31  4.0834e-23  2.0886e-31  4.0841e-23  2.1341e-31  4.0854e-23  2.2654e-31  4.0877e-23  2.6469e-31  4.0918e-23  3.7280e-31  4.0992e-23  5.4478e-31  4.1122e-23  8.1381e-31  4.1354e-23  1.3051e-30  4.1766e-23  2.2173e-30  4.2501e-23  3.9594e-30  4.3811e-23  7.4347e-30  4.6152e-23  1.4795e-29  5.0353e-23  3.1546e-29  5.7940e-23  7.2552e-29  7.1803e-23  1.7813e-28  9.7628e-23  4.6763e-28  1.4726e-22  1.2625e-27  2.4725e-22
      8.45  2.0651e-31  4.3207e-23  2.0684e-31  4.3212e-23  2.0794e-31  4.3219e-23  2.1106e-31  4.3232e-23  2.2080e-31  4.3255e-23  2.4851e-31  4.3297e-23  3.2695e-31  4.3371e-23  4.5304e-31  4.3502e-23  6.4939e-31  4.3736e-23  1.0082e-30  4.4152e-23  1.6753e-30  4.4892e-23  2.9521e-30  4.6213e-23  5.5061e-30  4.8574e-23  1.0937e-29  5.2809e-23  2.3359e-29  6.0459e-23  5.3959e-29  7.4435e-23  1.3412e-28  1.0047e-22  3.5283e-28  1.5049e-22  9.6179e-28  2.5123e-22
      8.50  2.0620e-31  4.5695e-23  2.0645e-31  4.5699e-23  2.0726e-31  4.5706e-23  2.0956e-31  4.5720e-23  2.1662e-31  4.5743e-23  2.3686e-31  4.5785e-23  2.9473e-31  4.5860e-23  3.8590e-31  4.5993e-23  5.3230e-31  4.6229e-23  7.9671e-31  4.6650e-23  1.2889e-30  4.7400e-23  2.2327e-30  4.8736e-23  4.1258e-30  5.1125e-23  8.1654e-30  5.5410e-23  1.7449e-29  6.3150e-23  4.0441e-29  7.7289e-23  1.0106e-28  1.0362e-22  2.6773e-28  1.5421e-22  7.3599e-28  2.5607e-22
