# This was generated using Cloudy10 and the columns are ordered 
# as log10 of the fraction of the metallicity to the solar metallicity
# 'h_*_Z' and 'c_*_Z' stands for cooling and heating respectively 
# at * metalicity
#
# Redshift = 8.0
# hden = 2.0
#     temp   h_-3.00_Z   c_-3.00_Z   h_-2.75_Z   c_-2.75_Z   h_-2.50_Z   c_-2.50_Z   h_-2.25_Z   c_-2.25_Z   h_-2.00_Z   c_-2.00_Z   h_-1.75_Z   c_-1.75_Z   h_-1.50_Z   c_-1.50_Z   h_-1.25_Z   c_-1.25_Z   h_-1.00_Z   c_-1.00_Z   h_-0.75_Z   c_-0.75_Z   h_-0.50_Z   c_-0.50_Z   h_-0.25_Z   c_-0.25_Z    h_0.00_Z    c_0.00_Z    h_0.25_Z    c_0.25_Z    h_0.50_Z    c_0.50_Z    h_0.75_Z    c_0.75_Z    h_1.00_Z    c_1.00_Z    h_1.25_Z    c_1.25_Z    h_1.50_Z    c_1.50_Z 
      4.00  1.7909e-26  3.1568e-25  1.7909e-26  3.162e-25  1.791e-26  3.1711e-25  1.7912e-26  3.1874e-25  1.7915e-26  3.2164e-25  1.792e-26  3.2679e-25  1.7929e-26  3.3594e-25  1.7946e-26  3.5222e-25  1.7975e-26  3.8114e-25  1.8027e-26  4.3254e-25  1.8119e-26  5.2389e-25  1.8283e-26  6.8624e-25  1.8574e-26  9.7462e-25  1.9091e-26  1.4865e-24  2.0007e-26  2.3938e-24  2.1626e-26  3.9988e-24  2.4481e-26  6.8348e-24  2.9506e-26  1.1859e-23  3.8391e-26  2.0918e-23
      4.05  1.7835e-26  1.229e-24  1.7836e-26  1.2297e-24  1.7837e-26  1.231e-24  1.7838e-26  1.2333e-24  1.7841e-26  1.2374e-24  1.7847e-26  1.2446e-24  1.7857e-26  1.2575e-24  1.7874e-26  1.2802e-24  1.7905e-26  1.3207e-24  1.7961e-26  1.3927e-24  1.8059e-26  1.5204e-24  1.8233e-26  1.7471e-24  1.8543e-26  2.1493e-24  1.9092e-26  2.8617e-24  2.0064e-26  4.1191e-24  2.1777e-26  6.3276e-24  2.4783e-26  1.0185e-23  3.0027e-26  1.6877e-23  3.917e-26  2.8602e-23
      4.10  1.7326e-26  4.9692e-24  1.7326e-26  4.9705e-24  1.7327e-26  4.9727e-24  1.7329e-26  4.9766e-24  1.7333e-26  4.9835e-24  1.7339e-26  4.9958e-24  1.7351e-26  5.0177e-24  1.7371e-26  5.0565e-24  1.7406e-26  5.1253e-24  1.747e-26  5.2476e-24  1.7582e-26  5.4646e-24  1.7783e-26  5.8497e-24  1.8138e-26  6.5322e-24  1.8768e-26  7.7387e-24  1.9882e-26  9.862e-24  2.1842e-26  1.3569e-23  2.5265e-26  1.9966e-23  3.1183e-26  3.0837e-23  4.1315e-26  4.9127e-23
      4.15  1.4916e-26  2.5088e-23  1.4917e-26  2.5091e-23  1.4918e-26  2.5097e-23  1.4921e-26  2.5108e-23  1.4926e-26  2.5126e-23  1.4935e-26  2.516e-23  1.4951e-26  2.5219e-23  1.498e-26  2.5325e-23  1.5031e-26  2.5512e-23  1.5122e-26  2.5846e-23  1.5283e-26  2.6438e-23  1.557e-26  2.7491e-23  1.608e-26  2.9359e-23  1.6984e-26  3.267e-23  1.8585e-26  3.8522e-23  2.1413e-26  4.8813e-23  2.6376e-26  6.6755e-23  3.5004e-26  9.7587e-23  4.9767e-26  1.4942e-22
      4.20  9.6442e-27  8.6068e-23  9.6455e-27  8.6077e-23  9.6477e-27  8.6094e-23  9.6516e-27  8.6123e-23  9.6586e-27  8.6175e-23  9.6709e-27  8.6268e-23  9.6929e-27  8.6433e-23  9.7321e-27  8.6727e-23  9.8017e-27  8.7249e-23  9.9255e-27  8.8177e-23  1.0146e-26  8.9827e-23  1.0537e-26  9.2762e-23  1.1232e-26  9.798e-23  1.2469e-26  1.0726e-22  1.4666e-26  1.2377e-22  1.8569e-26  1.5312e-22  2.5498e-26  2.0532e-22  3.7776e-26  2.9812e-22  5.947e-26   4.63e-22
      4.25  4.9507e-27  1.2948e-22  4.9518e-27  1.295e-22  4.9537e-27  1.2952e-22  4.9572e-27  1.2957e-22  4.9633e-27  1.2966e-22  4.9743e-27  1.2981e-22  4.9937e-27  1.3008e-22  5.0283e-27  1.3056e-22  5.0899e-27  1.3142e-22  5.1993e-27  1.3294e-22  5.394e-27  1.3565e-22  5.7401e-27  1.4047e-22  6.3559e-27  1.4905e-22  7.4512e-27  1.6431e-22  9.4006e-27  1.9151e-22  1.2871e-26  2.4004e-22  1.9057e-26  3.2682e-22  3.0094e-26  4.8278e-22  4.9849e-26  7.6513e-22
      4.30  2.6895e-27  1.2053e-22   2.69e-27  1.2055e-22  2.6908e-27  1.2058e-22  2.6924e-27  1.2064e-22  2.6952e-27  1.2074e-22  2.7002e-27  1.2093e-22  2.7091e-27  1.2126e-22  2.7248e-27  1.2185e-22  2.7781e-27  1.2289e-22  2.8916e-27  1.2475e-22  3.0935e-27  1.2805e-22  3.4527e-27  1.3393e-22  4.0916e-27  1.4438e-22  5.2287e-27   1.63e-22  7.2532e-27  1.9618e-22  1.086e-26  2.5542e-22  1.7294e-26  3.6147e-22  2.8787e-26  5.5235e-22  4.9359e-26  8.9904e-22
      4.35  1.8363e-27  9.561e-23  1.836e-27  9.5632e-23  1.8355e-27  9.5672e-23  1.8345e-27  9.5742e-23  1.8328e-27  9.5868e-23  1.8297e-27  9.609e-23  1.8243e-27  9.6486e-23  1.8239e-27  9.719e-23  1.888e-27  9.8443e-23  2.0021e-27  1.0067e-22  2.2052e-27  1.0463e-22  2.5664e-27  1.1168e-22  3.2094e-27  1.2422e-22  4.3549e-27  1.4655e-22  6.3976e-27  1.8635e-22  1.0045e-26  2.5742e-22  1.6572e-26  3.8468e-22  2.8273e-26  6.1386e-22  4.9223e-26  1.0305e-21
      4.40  1.4535e-27  7.451e-23  1.4524e-27  7.4537e-23  1.4504e-27  7.4587e-23  1.4469e-27  7.4674e-23  1.4407e-27  7.483e-23  1.4296e-27  7.5106e-23  1.4098e-27  7.5599e-23  1.3746e-27  7.6474e-23  1.4203e-27  7.8031e-23  1.5331e-27  8.0799e-23  1.7337e-27  8.5724e-23  2.0911e-27  9.4485e-23  2.7281e-27  1.1007e-22  3.8654e-27  1.3783e-22  5.9006e-27  1.873e-22  9.5533e-27  2.7561e-22  1.6127e-26  4.3376e-22  2.7791e-26  7.1852e-22  4.8526e-26  1.2361e-21
      4.45  1.0693e-27  6.0023e-23  1.0674e-27  6.0059e-23  1.0642e-27  6.0122e-23  1.0583e-27  6.0233e-23  1.0479e-27  6.0432e-23  1.0293e-27  6.0786e-23  9.964e-28  6.1415e-23  9.3783e-28  6.2533e-23  9.5198e-28  6.4522e-23  1.0607e-27  6.8059e-23  1.2546e-27  7.435e-23  1.6007e-27  8.5541e-23  2.2202e-27  1.0545e-22  3.3335e-27  1.4091e-22  5.3442e-27  2.0407e-22  8.9568e-27  3.168e-22  1.5347e-26  5.186e-22  2.6679e-26  8.8165e-22  4.6912e-26  1.5407e-21
      4.50  6.5158e-28  4.8958e-23  6.4909e-28  4.9004e-23  6.4467e-28  4.9085e-23  6.3682e-28  4.9229e-23  6.2285e-28  4.9486e-23  5.9802e-28  4.9942e-23  5.5388e-28  5.0754e-23  4.7543e-28  5.2197e-23  5.2956e-28  5.4763e-23  6.3064e-28  5.9328e-23  8.1193e-28  6.7447e-23  1.1388e-27  8.1888e-23  1.7326e-27  1.0758e-22  2.8211e-27  1.5333e-22  4.7663e-27  2.3483e-22  8.1853e-27  3.8029e-22  1.4258e-26  6.4061e-22  2.4938e-26  1.1088e-21  4.3867e-26  1.9585e-21
      4.55  3.6809e-28  3.9521e-23  3.6522e-28  3.958e-23  3.6012e-28  3.9684e-23  3.5105e-28  3.987e-23  3.3493e-28  4.0201e-23  3.0628e-28  4.0789e-23  2.5535e-28  4.1834e-23  2.3988e-28  4.3692e-23  2.9002e-28  4.6998e-23  3.8015e-28  5.2877e-23  5.4336e-28  6.3333e-23   8.42e-28  8.1934e-23  1.3959e-27  1.1503e-22  2.3804e-27  1.7396e-22  4.1192e-27  2.7898e-22  7.209e-27  4.6647e-22  1.2594e-26  8.0216e-22  2.2152e-26  1.4064e-21  3.9246e-26  2.5045e-21
      4.60  2.1791e-28  3.2028e-23  2.1504e-28  3.2103e-23  2.0993e-28  3.2237e-23  2.0085e-28  3.2476e-23  1.8471e-28  3.2899e-23  1.5602e-28  3.3653e-23  1.1155e-28  3.4993e-23  1.3548e-28  3.7376e-23  1.7849e-28  4.1615e-23  2.5637e-28  4.9152e-23  3.9906e-28  6.256e-23  6.6497e-28  8.6411e-23  1.1409e-27  1.2886e-22  1.9946e-27  2.0444e-22  3.4995e-27  3.3918e-22  6.1612e-27  5.798e-22  1.0838e-26  1.0109e-21  1.9088e-26  1.788e-21  3.3833e-26  3.2027e-21
      4.65  1.4163e-28  2.7154e-23  1.3913e-28  2.725e-23  1.3468e-28  2.7422e-23  1.2676e-28  2.7726e-23  1.1268e-28  2.8267e-23  8.7672e-29  2.9229e-23  6.903e-29  3.0939e-23  8.9335e-29  3.3981e-23  1.2601e-28  3.9392e-23  1.9297e-28  4.9014e-23  3.1735e-28  6.613e-23  5.4547e-28  9.658e-23  9.5713e-28  1.5077e-22  1.6892e-27  2.4729e-22  3.0122e-27  4.1938e-22  5.3266e-27  7.2683e-22  9.3664e-27  1.2781e-21  1.6485e-26  2.273e-21  2.9167e-26  4.088e-21
      4.70  1.0208e-28  2.5875e-23  1.0016e-28  2.5997e-23  9.673e-29  2.6215e-23  9.0642e-29  2.6602e-23  7.9823e-29  2.7291e-23  6.0605e-29  2.8515e-23  5.1474e-29  3.0693e-23  6.9173e-29  3.4566e-23  1.013e-28  4.1454e-23  1.6049e-28  5.3704e-23  2.7199e-28  7.5494e-23  4.7503e-28  1.1426e-22  8.4758e-28  1.8327e-22  1.5177e-27  3.0619e-22  2.6909e-27  5.2541e-22  4.7361e-27  9.1728e-22  8.3437e-27  1.6206e-21  1.4706e-26  2.8917e-21  2.6034e-26  5.2171e-21
      4.75  8.108e-29  3.0469e-23  7.9775e-29  3.0623e-23  7.7455e-29  3.0899e-23  7.3333e-29  3.1389e-23  6.5839e-29  3.226e-23  5.2843e-29  3.3809e-23  4.5925e-29  3.6563e-23   6.21e-29  4.1462e-23  9.172e-29  5.0174e-23  1.4706e-28  6.5669e-23  2.5326e-28  9.3233e-23  4.4613e-28  1.4228e-22  7.9124e-28  2.2958e-22  1.4032e-27  3.8513e-22  2.4865e-27  6.6266e-22  4.3921e-27  1.1591e-21  7.7462e-27  2.051e-21  1.368e-26  3.6662e-21  2.4314e-26  6.6303e-21
      4.80  6.8653e-29  4.4027e-23  6.8147e-29  4.422e-23  6.6651e-29  4.4565e-23  6.4379e-29  4.5177e-23  6.0351e-29  4.6265e-23  5.3455e-29  4.8201e-23  4.6646e-29  5.1644e-23  6.2231e-29  5.7766e-23  9.1261e-29  6.8655e-23  1.4704e-28  8.8021e-23  2.5225e-28  1.2247e-22  4.3541e-28  1.8378e-22  7.6556e-28  2.9293e-22  1.3559e-27  4.8743e-22  2.3954e-27  8.346e-22  4.2274e-27  1.456e-21  7.4796e-27  2.5739e-21  1.3261e-26  4.6021e-21  2.3704e-26  8.336e-21
      4.85  5.8394e-29  6.5237e-23  5.8223e-29  6.5475e-23  5.7657e-29  6.5897e-23  5.7125e-29  6.6649e-23  5.6202e-29  6.7985e-23  5.4637e-29  7.0361e-23  5.239e-29  7.4588e-23  6.5078e-29  8.2103e-23  9.5613e-29  9.547e-23  1.5377e-28  1.1925e-22  2.5851e-28  1.6154e-22  4.4435e-28  2.3681e-22  7.7776e-28  3.7084e-22  1.3672e-27  6.0972e-22  2.4064e-27  1.0363e-21  4.2398e-27  1.8003e-21  7.4811e-27  3.1762e-21  1.3219e-26  5.6772e-21  2.3597e-26  1.0295e-20
      4.90  4.6311e-29  8.095e-23  4.6661e-29  8.1233e-23  4.7289e-29  8.1736e-23  4.8977e-29  8.3457e-23  5.0189e-29  8.4223e-23  5.3994e-29  8.7054e-23  6.1236e-29  9.2087e-23  7.5618e-29  1.0104e-22  1.0526e-28  1.1696e-22  1.6468e-28  1.4528e-22  2.7652e-28  1.9566e-22  4.7646e-28  2.8533e-22  8.3472e-28  4.4499e-22  1.4579e-27  7.296e-22  2.5358e-27  1.2379e-21  4.4063e-27  2.1486e-21  7.6759e-27  3.7897e-21  1.3391e-26  6.7761e-21  2.3723e-26  1.2301e-20
      4.95  3.4567e-29  7.9742e-23  3.5276e-29  8.0066e-23  3.6298e-29  8.0644e-23  3.8846e-29  8.167e-23  4.3047e-29  8.3496e-23  5.0586e-29  8.6743e-23  6.5566e-29  9.2517e-23  9.5944e-29  1.0279e-22  1.537e-28  1.2105e-22  2.5774e-28  1.5353e-22  4.4237e-28  2.1132e-22  7.6962e-28  3.1417e-22  1.3339e-27  4.9732e-22  2.3004e-27  8.2381e-22  3.9515e-27  1.4069e-21  6.7791e-27  2.4519e-21  1.1648e-26  4.3355e-21  2.0217e-26  7.7653e-21  3.566e-26  1.4117e-20
      5.00  2.648e-29  6.8369e-23  2.6911e-29  6.805e-23  2.8427e-29  6.8686e-23    3.1e-29  6.9817e-23  3.6236e-29  7.1827e-23  4.6453e-29  7.5403e-23  6.7619e-29  8.1763e-23  1.1052e-28  9.3072e-23  1.9234e-28  1.1319e-22  3.4127e-28  1.4896e-22  5.9144e-28  2.1262e-22  1.0175e-27  3.2591e-22  1.7333e-27  5.2766e-22  2.9189e-27  8.8739e-22  4.8784e-27  1.5301e-21  8.1622e-27  2.6824e-21  1.3754e-26  4.7615e-21  2.356e-26  8.5532e-21  4.1045e-26  1.5595e-20
      5.05  2.0943e-29  5.4123e-23  2.1614e-29  5.449e-23  2.3381e-29  5.5143e-23  2.648e-29  5.6304e-23  3.2624e-29  5.837e-23  4.605e-29  6.2043e-23  7.3249e-29  6.8574e-23  1.3282e-28  8.019e-23  2.5397e-28  1.0085e-22  4.4004e-28  1.376e-22  7.4674e-28  2.0298e-22  1.2432e-27  3.1936e-22  2.0351e-27  5.2665e-22  3.2675e-27  8.9633e-22  5.225e-27  1.5571e-21  8.4251e-27  2.7428e-21  1.3876e-26  4.8852e-21  2.3398e-26  8.8015e-21  3.9928e-26  1.6104e-20
      5.10  1.7904e-29  4.271e-23  1.893e-29  4.3068e-23  2.0741e-29  4.3703e-23  2.4572e-29  4.4833e-23  3.3901e-29  4.6842e-23  5.1236e-29  5.0415e-23  9.1401e-29  5.6769e-23  1.8597e-28  6.8068e-23  3.3659e-28  8.8166e-23  5.7089e-28  1.2392e-22  9.2934e-28  1.8753e-22  1.4691e-27  3.0076e-22  2.2683e-27  5.0248e-22  3.4476e-27  8.6233e-22  5.2669e-27  1.5058e-21  8.0847e-27  2.6616e-21  1.2741e-26  4.7528e-21  2.0958e-26  8.5855e-21  3.5631e-26  1.5761e-20
      5.15  1.6465e-29  3.3959e-23  1.7376e-29  3.4314e-23  2.0027e-29  3.4945e-23  2.6488e-29  3.6067e-23  3.8954e-29  3.8063e-23  6.5612e-29  4.1612e-23  1.3014e-28  4.7924e-23  2.5462e-28  5.9149e-23  4.4424e-28  7.9115e-23  7.2439e-28  1.1463e-22  1.1167e-27  1.7783e-22  1.6692e-27  2.9034e-22  2.4473e-27  4.9079e-22  3.5602e-27  8.4847e-22  4.9526e-27  1.4884e-21  7.3032e-27  2.6384e-21  1.139e-26  4.722e-21  1.8656e-26  8.5485e-21  3.1725e-26  1.5737e-20
      5.20  1.567e-29  2.7417e-23  1.7148e-29  2.7783e-23  2.1127e-29  2.8434e-23  3.1324e-29  2.9591e-23  5.0376e-29  3.1648e-23  9.4207e-29  3.5307e-23  1.9897e-28  4.1812e-23  3.4154e-28  5.3383e-23  5.5779e-28  7.3964e-23  8.751e-28  1.1058e-22  1.2952e-27  1.7573e-22  1.8515e-27  2.9171e-22  2.5806e-27  4.9839e-22  3.3176e-27  8.6725e-22  4.5461e-27  1.5274e-21  6.6859e-27  2.7145e-21  1.0481e-26  4.8675e-21  1.729e-26  8.8287e-21  2.9658e-26  1.6292e-20
      5.25  1.5279e-29  2.2516e-23  1.7684e-29  2.2893e-23  2.4232e-29  2.3563e-23  4.0607e-29  2.4755e-23  7.3848e-29  2.6875e-23  1.3451e-28  3.0644e-23  2.5382e-28  3.7347e-23  4.2085e-28  4.9269e-23  6.5125e-28  7.0475e-23  9.8199e-28  1.082e-22  1.421e-27  1.7533e-22  1.9863e-27  2.9485e-22  2.4402e-27  5.0785e-22  3.1823e-27  8.8808e-22  4.4583e-27  1.5688e-21  6.6883e-27  2.7938e-21  1.0628e-26  5.0178e-21  1.7715e-26  9.1172e-21  3.0738e-26  1.6864e-20
      5.30  1.5599e-29  1.8806e-23  1.9517e-29  1.9189e-23  3.107e-29  1.987e-23  6.1112e-29  2.1082e-23  9.8575e-29  2.3237e-23  1.698e-28  2.7068e-23  2.9738e-28  3.3883e-23  4.6771e-28  4.6002e-23  7.1577e-28  6.756e-23  1.0382e-27  1.0591e-22  1.5136e-27  1.7416e-22  1.9086e-27  2.9568e-22  2.4008e-27  5.1228e-22  3.1305e-27  8.9901e-22  4.3329e-27  1.5917e-21  6.4308e-27  2.839e-21  1.0022e-26  5.1062e-21  1.6539e-26  9.2939e-21  2.859e-26  1.7233e-20
      5.35  1.674e-29  1.5976e-23  2.3809e-29  1.6366e-23  4.4433e-29  1.7059e-23  7.6916e-29  1.8293e-23  1.197e-28  2.0486e-23  1.9135e-28  2.4386e-23  3.2107e-28  3.1323e-23  4.9313e-28  4.366e-23  7.3677e-28  6.5604e-23  1.1147e-27  1.0464e-22  1.5501e-27  1.7412e-22  1.8395e-27  2.9784e-22  2.2789e-27  5.1839e-22  2.9723e-27  9.1226e-22  4.1273e-27  1.618e-21  6.0355e-27  2.8897e-21  9.4581e-27  5.2042e-21  1.5659e-26  9.4878e-21  2.7176e-26  1.7636e-20
      5.40  1.7729e-29  1.3765e-23  2.7793e-29  1.4145e-23  5.179e-29  1.4821e-23  7.9936e-29  1.6022e-23  1.2553e-28  1.8159e-23  1.9226e-28  2.1959e-23  3.0727e-28  2.8717e-23  5.038e-28  4.0736e-23  7.7201e-28  6.2115e-23  1.2083e-27  1.0015e-22  1.486e-27  1.6784e-22  1.7834e-27  2.884e-22  2.2493e-27  5.0333e-22   2.98e-27  8.8728e-22  4.196e-27  1.5756e-21  6.187e-27  2.8169e-21  9.6618e-27  5.0793e-21  1.5997e-26  9.2764e-21  2.7777e-26  1.729e-20
      5.45  1.6117e-29  1.197e-23  2.3849e-29  1.2289e-23  4.4882e-29  1.2855e-23  6.9546e-29  1.3863e-23  1.0647e-28  1.5654e-23  1.7246e-28  1.884e-23  2.8372e-28  2.4505e-23  4.6545e-28  3.4581e-23  7.8842e-28  5.2503e-23  1.2663e-27  8.4388e-23  1.4988e-27  1.4114e-22  1.847e-27  2.4223e-22  2.3719e-27  4.2248e-22  3.0949e-27  7.4461e-22  4.2631e-27  1.3224e-21  6.2095e-27  2.3657e-21  9.6033e-27  4.2709e-21  1.5754e-26  7.8167e-21  2.7269e-26  1.4621e-20
      5.50  1.343e-29  1.0475e-23  1.6547e-29  1.0704e-23  2.5155e-29  1.1113e-23  5.0071e-29  1.1839e-23  8.3821e-29  1.313e-23  1.4192e-28  1.5427e-23  2.5068e-28  1.9512e-23  4.4029e-28  2.6776e-23  7.6006e-28  3.9698e-23  1.2136e-27  6.2687e-23  1.572e-27  1.0361e-22  1.9731e-27  1.7651e-22  2.4155e-27  3.0652e-22  3.0707e-27  5.3896e-22  4.0282e-27  9.5617e-22  5.6328e-27  1.7103e-21  8.4512e-27  3.0901e-21  1.3548e-26  5.6662e-21  2.3056e-26  1.0634e-20
      5.55  1.212e-29  9.3082e-24  1.3615e-29  9.4809e-24  1.7861e-29  9.7881e-24  2.9868e-29  1.0334e-23  6.1035e-29  1.1305e-23  1.2521e-28  1.3032e-23  2.4119e-28  1.6104e-23  4.4824e-28  2.1566e-23  7.9235e-28  3.1283e-23  1.2098e-27  4.8571e-23  1.6034e-27  7.9346e-23  1.9701e-27  1.3417e-22  2.3512e-27  2.3198e-22  2.8345e-27  4.0687e-22  3.6012e-27  7.2091e-22  4.8455e-27  1.289e-21  7.0406e-27  2.3297e-21  1.1031e-26  4.2766e-21  1.8432e-26  8.0433e-21
      5.60  1.157e-29  8.4116e-24  1.3133e-29  8.5615e-24  1.762e-29  8.828e-24  3.0673e-29  9.3021e-24  5.5721e-29  1.0145e-23  1.1606e-28  1.1644e-23  2.4929e-28  1.431e-23  4.7126e-28  1.9051e-23  8.6938e-28  2.7484e-23  1.2032e-27  4.249e-23  1.5705e-27  6.9204e-23  1.8164e-27  1.168e-22  2.0983e-27  2.0171e-22  2.4979e-27  3.5356e-22  3.1316e-27  6.263e-22  4.1592e-27  1.1199e-21  5.9591e-27  2.0248e-21  9.2254e-27  3.7197e-21  1.5282e-26  7.005e-21
      5.65  1.1099e-29  7.712e-24  1.3205e-29  7.8551e-24  1.9081e-29  8.1095e-24  3.5375e-29  8.562e-24  6.6557e-29  9.3666e-24  1.2998e-28  1.0798e-23  2.5995e-28  1.3342e-23  5.0859e-28  1.7868e-23  9.2042e-28  2.5917e-23  1.2122e-27  4.0243e-23  1.5127e-27  6.5745e-23  1.6847e-27  1.1118e-22  1.9321e-27  1.9225e-22  2.2793e-27  3.3724e-22  2.8584e-27  5.9771e-22  3.796e-27  1.0692e-21  5.4489e-27  1.9341e-21  8.4449e-27  3.5555e-21  1.402e-26  6.7025e-21
      5.70  1.0821e-29  7.1552e-24  1.3306e-29  7.2953e-24  2.0566e-29  7.5443e-24  4.1537e-29  7.9872e-24  7.6033e-29  8.7748e-24  1.4723e-28  1.0175e-23  2.9371e-28  1.2666e-23  5.7321e-28  1.7095e-23  9.0219e-28  2.4974e-23  1.136e-27  3.8997e-23  1.3564e-27  6.396e-23  1.5304e-27  1.0844e-22  1.7505e-27  1.8779e-22  2.0731e-27  3.2974e-22  2.6203e-27  5.8478e-22  3.5444e-27  1.0466e-21  5.1685e-27  1.8942e-21  8.1243e-27  3.4843e-21  1.3651e-26  6.5745e-21
      5.75  1.0196e-29  6.6483e-24  1.2901e-29  6.7817e-24  2.0521e-29  7.0188e-24  4.1036e-29  7.4405e-24  8.1611e-29  8.1904e-24  1.6436e-28  9.5239e-24  3.3511e-28  1.1895e-23  6.0428e-28  1.6113e-23  8.0037e-28  2.3617e-23  9.8195e-28  3.697e-23  1.1263e-27  6.0743e-23  1.2982e-27  1.031e-22  1.509e-27  1.7868e-22  1.8378e-27  3.1388e-22  2.3795e-27  5.5685e-22  3.3047e-27  9.9699e-22  4.9591e-27  1.8051e-21  7.9868e-27  3.3228e-21  1.3688e-26  6.2764e-21
      5.80  9.4465e-30  6.2577e-24  1.2111e-29  6.3802e-24  1.9617e-29  6.598e-24  4.004e-29  6.9853e-24  8.4416e-29  7.6739e-24  1.8249e-28  8.8984e-24  3.4514e-28  1.1076e-23  5.4148e-28  1.495e-23  6.8592e-28  2.1842e-23  8.3648e-28  3.4107e-23  9.494e-28  5.5942e-23  1.1327e-27  9.4846e-23  1.3555e-27  1.6427e-22  1.6912e-27  2.8848e-22  2.2644e-27  5.1175e-22  3.2614e-27  9.1635e-22  5.0471e-27  1.6597e-21  8.3452e-27  3.0573e-21  1.4612e-26  5.7817e-21
      5.85  9.1333e-30  5.9605e-24  1.2199e-29  6.0759e-24  2.0505e-29  6.2812e-24  4.1569e-29  6.6462e-24  9.3223e-29  7.2953e-24  2.0203e-28  8.4494e-24  3.2312e-28  1.0503e-23  4.7873e-28  1.4155e-23  6.0242e-28  2.0652e-23  7.536e-28  3.2213e-23  8.869e-28  5.2797e-23  1.0474e-27  8.9474e-23  1.2889e-27  1.5493e-22  1.6658e-27  2.7205e-22  2.3205e-27  4.8262e-22  3.4676e-27  8.6436e-22  5.5452e-27  1.5662e-21  9.3974e-27  2.887e-21  1.677e-26  5.466e-21
      5.90  8.8738e-30  5.744e-24  1.2588e-29  5.8592e-24  2.2238e-29  6.0641e-24  4.6762e-29  6.4285e-24  1.0368e-28  7.0764e-24  2.0423e-28  8.2286e-24  3.2637e-28  1.0278e-23  4.3492e-28  1.3924e-23  5.749e-28  2.041e-23  7.1036e-28  3.1952e-23  8.4262e-28  5.2501e-23  1.0093e-27  8.9118e-23  1.2849e-27  1.5447e-22  1.747e-27  2.7142e-22  2.5413e-27  4.8172e-22  3.9567e-27  8.6311e-22  6.5339e-27  1.5647e-21  1.1339e-26  2.8864e-21   2.06e-26  5.4709e-21
      5.95  8.5003e-30  5.5894e-24  1.261e-29  5.707e-24  2.3526e-29  5.9161e-24  5.0461e-29  6.288e-24  1.1621e-28  7.0188e-24  2.1287e-28  8.1253e-24  3.332e-28  1.0217e-23  4.4546e-28  1.3939e-23  5.5653e-28  2.0559e-23  6.777e-28  3.234e-23  8.3493e-28  5.3315e-23  1.0209e-27  9.0691e-23  1.327e-27  1.574e-22  1.8629e-27  2.768e-22  2.8049e-27  4.9156e-22  4.4876e-27  8.8116e-22  7.5658e-27  1.5983e-21  1.3326e-26  2.9506e-21  2.4486e-26  5.5989e-21
      6.00  7.8524e-30  5.4802e-24  1.1798e-29  5.5982e-24  2.2446e-29  5.808e-24  4.9722e-29  6.1811e-24  1.1319e-28  6.8446e-24  2.3026e-28  8.0243e-24  3.4607e-28  1.0123e-23  4.4923e-28  1.3856e-23  5.596e-28  2.0498e-23  6.9499e-28  3.2318e-23  8.5665e-28  5.3361e-23  1.0918e-27  9.0862e-23  1.4745e-27  1.578e-22  2.1462e-27  2.7762e-22  3.342e-27  4.9319e-22  5.504e-27  8.8442e-22  9.4668e-27  1.6051e-21  1.6907e-26  2.9655e-21  3.1394e-26  5.634e-21
      6.05  7.0352e-30  5.4233e-24  1.0262e-29  5.538e-24  1.9336e-29  5.7419e-24  4.3341e-29  6.1044e-24  1.0289e-28  6.749e-24  2.3066e-28  7.8952e-24  3.5407e-28  9.9341e-24  4.6549e-28  1.3561e-23  5.8007e-28  2.0014e-23  7.1058e-28  3.1498e-23  8.7585e-28  5.1944e-23  1.1451e-27  8.8383e-23  1.6026e-27  1.5343e-22  2.4099e-27  2.6988e-22  3.8548e-27  4.7945e-22  6.4704e-27  8.5996e-22  1.1275e-26  1.5614e-21  2.0321e-26  2.8872e-21  3.8002e-26  5.4928e-21
      6.10  6.3545e-30  5.3983e-24  9.1022e-30  5.507e-24  1.6612e-29  5.7003e-24  3.6718e-29  6.0441e-24  8.7225e-29  6.6554e-24  2.0038e-28  7.7422e-24  3.3242e-28  9.6753e-24  4.5628e-28  1.3114e-23  5.5705e-28  1.9233e-23  6.8199e-28  3.0122e-23  8.6928e-28  4.951e-23  1.1708e-27  8.4064e-23  1.6974e-27  1.4575e-22  2.6357e-27  2.5621e-22  4.3151e-27  4.5504e-22  7.3572e-27  8.1624e-22  1.2958e-26  1.4826e-21  2.3527e-26  2.7438e-21  4.425e-26  5.2273e-21
      6.15  6.0113e-30  5.4006e-24  8.5306e-30  5.5015e-24  1.4945e-29  5.6808e-24  3.1782e-29  5.9997e-24  7.311e-29  6.5667e-24  1.5248e-28  7.5748e-24  2.5027e-28  9.3678e-24  3.8331e-28  1.2557e-23  4.895e-28  1.8232e-23  6.1761e-28  2.8332e-23  8.186e-28  4.6314e-23  1.1456e-27  7.8364e-23  1.7253e-27  1.3559e-22  2.7569e-27  2.3807e-22  4.6122e-27  4.226e-22  7.9766e-27  7.5797e-22  1.4176e-26  1.3772e-21  2.5897e-26  2.5508e-21  4.8945e-26  4.8664e-21
      6.20  5.7895e-30  5.4249e-24  8.2581e-30  5.515e-24  1.4321e-29  5.6753e-24  2.8923e-29  5.9601e-24  5.8244e-29  6.4666e-24  1.1272e-28  7.3672e-24  1.8164e-28  8.9689e-24  2.7205e-28  1.1818e-23  3.8083e-28  1.6887e-23  5.1908e-28  2.5907e-23  7.2153e-28  4.1969e-23  1.0671e-27  7.0598e-23  1.6683e-27  1.2172e-22  2.7437e-27  2.1328e-22  4.6768e-27  3.7821e-22  8.1868e-27  6.7812e-22  1.4662e-26  1.2324e-21  2.6926e-26  2.2842e-21  5.1105e-26  4.364e-21
      6.25  5.2891e-30  5.467e-24  7.5255e-30  5.5429e-24  1.2734e-29  5.6777e-24  2.326e-29  5.9174e-24  4.407e-29  6.3437e-24  8.203e-29  7.1016e-24  1.2793e-28  8.4495e-24  1.9354e-28  1.0847e-23  2.8162e-28  1.5112e-23  4.0841e-28  2.2702e-23  6.067e-28  3.6217e-23  9.4601e-28  6.0308e-23  1.5395e-27  1.0333e-22  2.5961e-27  1.804e-22  4.4933e-27  3.1927e-22  7.9411e-27  5.7194e-22  1.431e-26  1.0393e-21  2.6392e-26  1.9277e-21  5.0272e-26  3.6883e-21
      6.30  4.6271e-30  5.5505e-24  6.3759e-30  5.611e-24  9.939e-30  5.7186e-24  1.785e-29  5.9099e-24  3.1779e-29  6.2501e-24  5.7774e-29  6.8548e-24  8.5554e-29  7.9304e-24  1.3438e-28  9.8432e-24  2.0877e-28  1.3246e-23  3.1544e-28  1.9301e-23  4.9944e-28  3.0084e-23  8.1236e-28  4.9305e-23  1.3663e-27  8.3633e-23  2.3494e-27  1.4515e-22  4.1171e-27  2.5602e-22  7.3311e-27  4.5786e-22  1.3274e-26  8.3162e-22  2.4568e-26  1.5431e-21  4.6944e-26  2.9566e-21
      6.35  4.0271e-30  5.6572e-24  5.2568e-30  5.7051e-24  7.832e-30  5.7902e-24  1.2916e-29  5.9416e-24  2.3432e-29  6.2107e-24  4.2112e-29  6.6893e-24  5.8971e-29  7.5405e-24  9.021e-29  9.0543e-24  1.4729e-28  1.1747e-23  2.4735e-28  1.6539e-23  4.0906e-28  2.5072e-23  6.9499e-28  4.0283e-23  1.1962e-27  6.7452e-23  2.0893e-27  1.1615e-22  3.6997e-27  2.0395e-22  6.6306e-27  3.6388e-22  1.2056e-26  6.6034e-22  2.2382e-26  1.2256e-21  4.2894e-26  2.3513e-21
      6.40  3.4868e-30  5.7862e-24  4.5216e-30  5.8251e-24  6.5112e-30  5.8942e-24  9.9983e-30  6.0172e-24  1.677e-29  6.2357e-24  3.132e-29  6.6243e-24  4.4182e-29  7.3155e-24  6.6883e-29  8.5447e-24  1.1086e-28  1.0731e-23  1.9532e-28  1.4622e-23  3.475e-28  2.1551e-23  6.1572e-28  3.3903e-23  1.0892e-27  5.5968e-23  1.9358e-27  9.5522e-23  3.4655e-27  1.6686e-22  6.252e-27  2.969e-22  1.1417e-26  5.3818e-22  2.1267e-26  9.9896e-22  4.0884e-26  1.9187e-21
      6.45  3.0078e-30  5.9344e-24  3.9558e-30  5.9665e-24  5.507e-30  6.0237e-24  8.3875e-30  6.1254e-24   1.34e-29  6.3062e-24  2.349e-29  6.6276e-24  3.7428e-29  7.1993e-24  5.7625e-29  8.216e-24  9.7403e-29  1.0024e-23  1.7438e-28  1.3242e-23  3.1904e-28  1.8973e-23  5.8118e-28  2.9189e-23  1.051e-27  4.744e-23  1.8981e-27  8.0164e-23  3.4255e-27  1.392e-22  6.2126e-27  2.4688e-22  1.1387e-26  4.4684e-22  2.1272e-26  8.2929e-22  4.101e-26  1.5943e-21
      6.50  2.4991e-30  6.0993e-24  3.3853e-30  6.126e-24  4.5987e-30  6.1735e-24  6.896e-30  6.2581e-24  1.1006e-29  6.4724e-24  1.8431e-29  6.6756e-24  2.9054e-29  7.1508e-24  4.6511e-29  7.9959e-24  7.9876e-29  9.4992e-24  1.4503e-28  1.2174e-23  2.7048e-28  1.6937e-23  5.0583e-28  2.543e-23  9.3449e-28  4.0602e-23  1.7097e-27  6.7809e-23  3.1145e-27  1.1691e-22  5.6821e-27  2.065e-22  1.0455e-26   3.73e-22  1.9588e-26  6.9184e-22  3.7865e-26  1.3307e-21
      6.55  2.0743e-30  6.3105e-24  2.8379e-30  6.3331e-24  3.7866e-30  6.3734e-24  5.5613e-30  6.4449e-24  8.9299e-30  6.5722e-24  1.5426e-29  6.7984e-24  2.4407e-29  7.2008e-24  3.9109e-29  7.9164e-24  6.8892e-29  9.1894e-24  1.2763e-28  1.1455e-23  2.4249e-28  1.5488e-23  4.6156e-28  2.2679e-23  8.6839e-28  3.5528e-23  1.6111e-27  5.8571e-23  2.9607e-27  1.0017e-22  5.4317e-27  1.7608e-22  1.0033e-26  3.1727e-22  1.8854e-26  5.8787e-22  3.6536e-26  1.1309e-21
      6.60  1.7275e-30  6.5395e-24  2.3393e-30  6.5593e-24  3.1149e-30  6.5946e-24  4.5216e-30  6.6574e-24  7.4521e-30  6.769e-24  1.3268e-29  6.9675e-24  2.1716e-29  7.3204e-24  3.5175e-29  7.9482e-24  6.3083e-29  9.0649e-24  1.1962e-28  1.1052e-23  2.3109e-28  1.4591e-23  4.4592e-28   2.09e-23  8.4938e-28  3.2174e-23  1.5933e-27  5.2394e-23  2.9541e-27  8.8898e-23  5.4507e-27  1.5554e-22  1.0107e-26  2.7954e-22  1.9043e-26  5.1738e-22  3.6986e-26  9.9513e-22
      6.65  1.4404e-30  6.785e-24  1.8981e-30  6.8032e-24  2.6058e-30  6.8354e-24  3.7311e-30  6.8927e-24  6.1551e-30  6.9945e-24  1.1471e-29  7.1756e-24  1.9202e-29  7.4977e-24  3.1873e-29  8.0706e-24  5.8745e-29  9.0898e-24  1.1408e-28  1.0903e-23  2.2414e-28  1.4133e-23  4.3786e-28  1.9892e-23  8.4284e-28  3.0182e-23  1.5963e-27  4.864e-23  2.9826e-27  8.1966e-23  5.5342e-27  1.4282e-22   1.03e-26  2.5609e-22  1.9457e-26  4.7348e-22  3.7869e-26  9.1054e-22
      6.70  1.1914e-30  7.0461e-24  1.5215e-30  7.0632e-24  2.1064e-30  7.0937e-24  3.1445e-30  7.1478e-24  5.2545e-30  7.244e-24  1.054e-29  7.4152e-24  1.9366e-29  7.7195e-24  3.4206e-29  8.2608e-24  6.5799e-29  9.2237e-24  1.3049e-28  1.0937e-23  2.5828e-28  1.3989e-23  5.0539e-28  1.9431e-23  9.7387e-28  2.9155e-23  1.8464e-27  4.6598e-23  3.456e-27  7.8095e-23  6.4254e-27  1.3563e-22  1.1978e-26  2.4274e-22  2.2657e-26  4.4841e-22  4.4153e-26  8.6221e-22
      6.75  1.0043e-30  7.3217e-24  1.218e-30  7.3383e-24  1.7166e-30  7.3678e-24  2.7119e-30  7.4945e-24  4.9015e-30  7.5137e-24  1.0567e-29  7.6797e-24  2.0602e-29  7.9749e-24  3.8508e-29    8.5e-24  7.6306e-29  9.4341e-24  1.5278e-28  1.1096e-23  3.0178e-28  1.4057e-23  5.8874e-28  1.9336e-23  1.1305e-27  2.877e-23  2.1398e-27  4.5693e-23  4.0034e-27  7.6256e-23  7.447e-27  1.3209e-22  1.3894e-26  2.3607e-22  2.6305e-26  4.3581e-22  5.131e-26  8.3795e-22
      6.80  8.4272e-31  7.6508e-24  9.8566e-31  7.6673e-24  1.4012e-30  7.6965e-24  2.2963e-30  7.7485e-24  4.4912e-30  7.841e-24  1.0043e-29  8.0055e-24  2.1388e-29  8.2979e-24  4.0971e-29  8.818e-24  8.2384e-29  9.7434e-24  1.6478e-28  1.139e-23  3.2433e-28  1.4323e-23  6.3088e-28  1.9553e-23   1.21e-27  2.8899e-23  2.2896e-27  4.5665e-23  4.2871e-27  7.5948e-23  7.9863e-27  1.3128e-22  1.4922e-26  2.3434e-22  2.829e-26  4.3241e-22  5.5246e-26  8.314e-22
      6.85  7.1209e-31  7.9977e-24  8.1069e-31  8.0143e-24  1.112e-30  8.0437e-24  1.9352e-30  8.0961e-24  3.9246e-30  8.1892e-24  9.5213e-30  8.3548e-24  2.2544e-29  8.6492e-24  4.4672e-29  9.1729e-24  9.1906e-29  1.0105e-23  1.8386e-28  1.1763e-23  3.628e-28  1.4716e-23  7.0483e-28  1.9981e-23  1.3504e-27  2.9392e-23  2.5528e-27  4.6275e-23  4.7775e-27  7.6771e-23  8.9007e-27  1.325e-22  1.664e-26  2.3633e-22  3.1569e-26  4.3593e-22  6.1703e-26  8.3822e-22
      6.90  6.0818e-31  8.3617e-24  6.8624e-31  8.3785e-24  9.2119e-31  8.4083e-24  1.6126e-30  8.4613e-24  3.6531e-30  8.5556e-24  9.6279e-30  8.7233e-24  2.4355e-29  9.0214e-24  5.011e-29  9.5516e-24  1.0523e-28  1.0495e-23  2.1152e-28  1.2174e-23  4.2021e-28  1.5164e-23  8.2182e-28  2.0495e-23  1.5772e-27  3.0023e-23  2.9789e-27  4.7119e-23  5.5662e-27  7.8001e-23  1.0358e-26  1.3444e-22  1.9355e-26  2.3962e-22  3.6721e-26  4.4188e-22   7.18e-26  8.4974e-22
      6.95  5.2497e-31  8.7421e-24  5.979e-31  8.759e-24  8.1413e-31  8.7889e-24  1.4877e-30  8.8422e-24  3.5585e-30  8.937e-24  9.5532e-30  9.1054e-24  2.4899e-29  9.405e-24  5.1638e-29  9.9378e-24  1.0639e-28  1.0886e-23  2.1372e-28  1.2572e-23  4.292e-28  1.5576e-23  8.4554e-28  2.0933e-23  1.6286e-27  3.0507e-23  3.082e-27  4.7686e-23  5.7662e-27  7.8719e-23  1.0739e-26  1.3544e-22  2.0083e-26  2.4117e-22  3.8133e-26  4.4456e-22  7.4626e-26  8.5488e-22
      7.00  4.5538e-31  9.1382e-24  5.2149e-31  9.1548e-24  7.3817e-31  9.1844e-24  1.4007e-30  9.2368e-24  3.3428e-30  9.3302e-24  9.0699e-30  9.4961e-24  2.5174e-29  9.7912e-24  5.2212e-29  1.0316e-23  1.0478e-28  1.125e-23  2.1273e-28  1.2911e-23  4.3158e-28  1.587e-23  8.5629e-28  2.1146e-23  1.659e-27  3.0575e-23  3.1547e-27  4.7494e-23  5.921e-27  7.8061e-23  1.1051e-26  1.3394e-22  2.0693e-26  2.3811e-22  3.9336e-26  4.3858e-22  7.7057e-26  8.4318e-22
      7.05  3.839e-31  9.6002e-24  4.5145e-31  9.616e-24  6.5318e-31  9.6442e-24  1.2429e-30  9.6944e-24  3.0293e-30  9.7835e-24  8.3995e-30  9.942e-24  2.4181e-29  1.0224e-23  5.1638e-29  1.0725e-23  1.0475e-28  1.1617e-23  2.1388e-28  1.3203e-23  4.3723e-28  1.6029e-23  8.7669e-28  2.1067e-23  1.721e-27  3.007e-23  3.3028e-27  4.6225e-23  6.2368e-27  7.5414e-23  1.1683e-26  1.2878e-22  2.1928e-26  2.2829e-22  4.1746e-26  4.1983e-22  8.1874e-26  8.0659e-22
      7.10  3.2044e-31  1.0083e-23  3.7684e-31  1.0097e-23  5.5718e-31  1.0123e-23  1.0843e-30  1.0169e-23  2.7226e-30  1.0251e-23  7.6495e-30  1.0397e-23  2.2157e-29  1.0655e-23  5.1126e-29  1.1115e-23  1.0597e-28  1.1933e-23  2.1601e-28  1.3389e-23  4.4176e-28  1.598e-23  9.0369e-28  2.0601e-23  1.8054e-27  2.8858e-23  3.5112e-27  4.3674e-23  6.6876e-27  7.0443e-23  1.2595e-26  1.1939e-22  2.3718e-26  2.1068e-22  4.5246e-26  3.8644e-22  8.8866e-26  7.4149e-22
      7.15  2.6738e-31  1.0586e-23  3.1879e-31  1.0599e-23  4.7341e-31  1.0622e-23  9.4809e-31  1.0662e-23  2.3913e-30  1.0734e-23  6.6895e-30  1.0862e-23  1.8928e-29  1.1089e-23  4.6489e-29  1.1493e-23  9.3161e-29  1.2211e-23  1.8655e-28  1.3488e-23  3.8668e-28  1.5763e-23  8.0512e-28  1.9817e-23  1.6419e-27  2.7062e-23  3.252e-27  4.006e-23  6.2811e-27  6.3546e-23  1.1945e-26  1.0649e-22  2.2639e-26  1.866e-22  4.3367e-26  3.4088e-22  8.5408e-26  6.5264e-22
      7.20  2.2218e-31  1.1111e-23  2.6524e-31  1.1121e-23  3.9627e-31  1.1141e-23  7.9813e-31  1.1175e-23  1.979e-30  1.1236e-23  5.4038e-30  1.1344e-23  1.497e-29  1.1536e-23  3.7994e-29  1.1877e-23  7.3529e-29  1.2484e-23  1.5043e-28  1.3565e-23  3.173e-28  1.5488e-23  6.747e-28  1.8915e-23  1.4123e-27  2.5038e-23  2.8675e-27  3.6022e-23  5.651e-27  5.5867e-23  1.0906e-26  9.2155e-23  2.0879e-26  1.5985e-22  4.0261e-26  2.9026e-22  7.963e-26  5.5386e-22
      7.25  1.8407e-31  1.1656e-23  2.1874e-31  1.1665e-23  3.2386e-31  1.1681e-23  6.3519e-31  1.1709e-23  1.5464e-30  1.176e-23  4.117e-30  1.1849e-23  1.1075e-29  1.2009e-23  2.7661e-29  1.2292e-23  5.492e-29  1.2797e-23  1.1238e-28  1.3694e-23  2.4004e-28  1.5291e-23  5.2488e-28  1.8138e-23  1.1328e-27  2.3221e-23  2.3734e-27  3.234e-23  4.8012e-27  4.8813e-23  9.451e-27  7.8935e-23  1.8345e-26  1.3513e-22  3.5702e-26  2.434e-22  7.1034e-26  4.6228e-22
      7.30  1.5217e-31  1.2286e-23  1.792e-31  1.2294e-23  2.5912e-31  1.2307e-23  4.9645e-31  1.2331e-23  1.1871e-30  1.2373e-23  3.0679e-30  1.2448e-23  8.0812e-30  1.2581e-23  1.9779e-29  1.2818e-23  4.1484e-29  1.3239e-23  8.5001e-29  1.3988e-23  1.7874e-28  1.5322e-23  4.0057e-28  1.7699e-23  8.9867e-28  2.1944e-23  1.956e-27  2.9558e-23  4.0907e-27  4.3311e-23  8.2616e-27  6.8456e-23  1.6333e-26  1.1537e-22  3.2181e-26  2.0575e-22  6.4538e-26  3.8848e-22
      7.35  1.2609e-31  1.2945e-23  1.464e-31  1.2952e-23  2.0652e-31  1.2963e-23  3.8485e-31  1.2983e-23  9.0463e-31  1.3019e-23  2.2767e-30  1.3083e-23  5.9255e-30  1.3196e-23  1.4773e-29  1.3398e-23  3.275e-29  1.3757e-23  6.5843e-29  1.4396e-23  1.3962e-28  1.5533e-23  3.1806e-28  1.7559e-23  7.3905e-28  2.1179e-23  1.6688e-27  2.7669e-23  3.5982e-27  3.9392e-23  7.4472e-27  6.0823e-23  1.4991e-26  1.008e-22  2.9907e-26  1.7783e-22  6.0468e-26  3.3355e-22
      7.40  1.0487e-31  1.3633e-23  1.2039e-31  1.3638e-23  1.6631e-31  1.3648e-23  3.0012e-31  1.3666e-23  6.9529e-31  1.3697e-23  1.7333e-30  1.3753e-23  4.4941e-30  1.3852e-23  1.1773e-29  1.4029e-23  2.7924e-29  1.4343e-23  5.4878e-29  1.4901e-23  1.1597e-28  1.5896e-23  2.669e-28  1.7669e-23  6.3079e-28  2.0835e-23  1.4618e-27  2.6514e-23  3.2397e-27  3.6769e-23  6.8597e-27  5.5517e-23  1.4046e-26  9.0487e-23  2.8359e-26  1.5785e-22  5.7795e-26  2.9404e-22
      7.45  8.6983e-32  1.4349e-23  9.9998e-32  1.4354e-23  1.3521e-31  1.4363e-23  2.4262e-31  1.4378e-23  5.5748e-31  1.4407e-23  1.3773e-30  1.4457e-23  3.5767e-30  1.4546e-23  9.4695e-30  1.4704e-23  2.2353e-29  1.4986e-23  4.2783e-29  1.5488e-23  8.9209e-29  1.6381e-23  2.0657e-28  1.7974e-23  4.9739e-28  2.0819e-23  1.1849e-27  2.5921e-23  2.7081e-27  3.5136e-23  5.8958e-27  5.198e-23  1.2339e-26  8.3398e-23  2.5304e-26  1.4391e-22  5.2119e-26  2.6623e-22
      7.50  7.3847e-32  1.5092e-23  8.4032e-32  1.5097e-23  1.1443e-31  1.5105e-23  2.0224e-31  1.512e-23  4.6426e-31  1.5146e-23  1.1375e-30  1.5192e-23  2.969e-30  1.5274e-23  7.9978e-30  1.542e-23  1.8599e-29  1.5679e-23  3.5298e-29  1.6141e-23  7.2525e-29  1.6964e-23  1.6756e-28  1.843e-23  4.077e-28  2.105e-23  9.9214e-28  2.5749e-23  2.3306e-27  3.4236e-23  5.2123e-27  4.9749e-23  1.1153e-26  7.8681e-23  2.3251e-26  1.344e-22  4.8424e-26  2.4701e-22
      7.55  6.2169e-32  1.5945e-23  7.1563e-32  1.595e-23  9.7491e-32  1.5957e-23  1.7521e-31  1.5971e-23  4.0879e-31  1.5996e-23  1.004e-30  1.6039e-23  2.637e-30  1.6116e-23  6.9989e-30  1.6254e-23  1.5735e-29  1.6498e-23  3.0581e-29  1.6934e-23  6.1913e-29  1.7709e-23  1.4143e-28  1.9091e-23  3.444e-28  2.156e-23  8.4958e-28  2.599e-23  2.0424e-27  3.3992e-23  4.6903e-27  4.8616e-23  1.0281e-26  7.5889e-23  2.1841e-26  1.2841e-22  4.6097e-26  2.3453e-22
      7.60  5.3214e-32  1.6836e-23  6.1804e-32  1.684e-23  8.6571e-32  1.6848e-23  1.5937e-31  1.6861e-23  3.6972e-31  1.6885e-23  9.3347e-31  1.6926e-23  2.4899e-30  1.7001e-23  6.5206e-30  1.7133e-23  1.3607e-29  1.7368e-23  2.6941e-29  1.7786e-23  5.3182e-29  1.8532e-23  1.1811e-28  1.986e-23  2.8273e-28  2.2235e-23  6.9621e-28  2.6496e-23  1.6942e-27  3.4191e-23  3.9692e-27  4.8257e-23  8.8875e-27  7.4486e-23  1.9225e-26  1.2499e-22  4.1127e-26  2.2702e-22
      7.65  4.6244e-32  1.7765e-23  5.3969e-32  1.7769e-23  7.7512e-32  1.7777e-23  1.4524e-31  1.779e-23  3.4466e-31  1.7813e-23  8.9586e-31  1.7853e-23  2.3569e-30  1.7926e-23  6.2067e-30  1.8055e-23  1.2372e-29  1.8285e-23  2.403e-29  1.8694e-23  4.6945e-29  1.9422e-23  1.0053e-28  2.0722e-23  2.3505e-28  2.3043e-23  5.731e-28  2.7209e-23  1.4018e-27  3.4733e-23  3.3366e-27  4.8487e-23  7.621e-27  7.4133e-23  1.6794e-26  1.2351e-22  3.6455e-26  2.2325e-22
      7.70  4.0087e-32  1.8732e-23  4.7425e-32  1.8737e-23  6.9963e-32  1.8744e-23  1.345e-31  1.8756e-23  3.2645e-31  1.8779e-23  8.551e-31  1.882e-23  2.2746e-30  1.8892e-23  5.9964e-30  1.9019e-23  1.1268e-29  1.944e-23  2.1323e-29  1.9652e-23  4.1276e-29  2.0373e-23  8.6501e-29  2.166e-23  1.9694e-28  2.3959e-23  4.7294e-28  2.8085e-23  1.156e-27  3.5538e-23  2.7837e-27  4.9161e-23  6.475e-27  7.4564e-23  1.454e-26  1.2347e-22  3.2062e-26  2.2225e-22
      7.75  3.5128e-32  1.9737e-23  4.2128e-32  1.9741e-23  6.3771e-32  1.9749e-23  1.2675e-31  1.9761e-23  3.0539e-31  1.9784e-23  8.1694e-31  1.9825e-23  2.1633e-30  1.9896e-23  5.4666e-30  2.0024e-23  1.0197e-29  2.0252e-23  1.9164e-29  2.0657e-23  3.6633e-29  2.1378e-23  7.5336e-29  2.2663e-23  1.6668e-28  2.4962e-23  3.9217e-28  2.9086e-23  9.5185e-28  3.6536e-23  2.3075e-27  5.0155e-23  5.452e-27  7.555e-23  1.2471e-26  1.2443e-22  2.7965e-26  2.2316e-22
      7.80  3.1024e-32  2.0883e-23  3.7646e-32  2.0888e-23  5.8293e-32  2.0895e-23  1.1813e-31  2.0908e-23  2.8972e-31  2.0931e-23  7.7607e-31  2.0971e-23  2.0817e-30  2.1044e-23  5.0767e-30  2.1172e-23  9.2388e-30  2.1401e-23  1.7279e-29  2.1809e-23  3.2806e-29  2.2535e-23  6.6086e-29  2.383e-23  1.4218e-28  2.6145e-23  3.2681e-28  3.0299e-23   7.84e-28  3.7802e-23  1.9046e-27  5.152e-23  4.559e-27  7.7098e-23  1.0619e-26  1.2633e-22  2.4236e-26  2.2576e-22
      7.85  2.7575e-32  2.2081e-23  3.3728e-32  2.2085e-23  5.3042e-32  2.2093e-23  1.0792e-31  2.2106e-23  2.6589e-31  2.2129e-23  7.1451e-31  2.217e-23  1.9269e-30  2.2243e-23  4.6331e-30  2.2373e-23  8.3895e-30  2.2604e-23  1.5545e-29  2.3016e-23  2.9821e-29  2.3749e-23  5.7868e-29  2.5057e-23  1.217e-28  2.7394e-23  2.7316e-28  3.1588e-23  6.4587e-28  3.9165e-23  1.5666e-27  5.3016e-23  3.7889e-27  7.8843e-23  8.9803e-27  1.2855e-22  2.0885e-26  2.2893e-22
      7.90  2.4677e-32  2.3331e-23  3.0139e-32  2.3335e-23  4.7577e-32  2.3342e-23  9.7589e-32  2.3355e-23  2.4049e-31  2.3379e-23  6.4501e-31  2.342e-23  1.7686e-30  2.3494e-23  3.9822e-30  2.3625e-23  7.2536e-30  2.3859e-23  1.3345e-29  2.4274e-23  2.5226e-29  2.5014e-23  4.8738e-29  2.6334e-23  1.0043e-28  2.8694e-23  2.2069e-28  3.2927e-23  5.1426e-28  4.0576e-23  1.2438e-27  5.4559e-23  3.0373e-27  8.063e-23   7.33e-27  1.3081e-22  1.7404e-26  2.3212e-22
      7.95  2.2123e-32  2.4633e-23  2.686e-32  2.4637e-23  4.2112e-32  2.4644e-23  8.6576e-32  2.4657e-23  2.1439e-31  2.4681e-23  5.7353e-31  2.4723e-23  1.5505e-30  2.4797e-23  3.3732e-30  2.4929e-23  6.1297e-30  2.5164e-23  1.1209e-29  2.5582e-23  2.0991e-29  2.6327e-23  4.0366e-29  2.7655e-23  8.1519e-29  3.0029e-23  1.7557e-28  3.4289e-23  4.0257e-28  4.1985e-23  9.6733e-28  5.6055e-23  2.3745e-27  8.2288e-23  5.8158e-27  1.3278e-22  1.4076e-26  2.347e-22
      8.00  2.0159e-32  2.5986e-23  2.4213e-32  2.5991e-23  3.7392e-32  2.5998e-23  7.5328e-32  2.6011e-23  1.8285e-31  2.6035e-23  4.9152e-31  2.6077e-23  1.3304e-30  2.6151e-23  2.8006e-30  2.6283e-23  5.0273e-30  2.6519e-23  9.2436e-30  2.6938e-23  1.7183e-29  2.7684e-23  3.2857e-29  2.9015e-23  6.534e-29  3.1395e-23  1.3821e-28  3.5664e-23  3.1178e-28  4.3377e-23  7.4252e-28  5.7478e-23  1.8258e-27  8.3767e-23  4.5233e-27  1.3436e-22  1.1136e-26  2.3648e-22
      8.05  1.8417e-32  2.7525e-23  2.1742e-32  2.7529e-23  3.2675e-32  2.7537e-23  6.4713e-32  2.755e-23  1.5479e-31  2.7574e-23  4.0956e-31  2.7615e-23  1.1066e-30  2.769e-23  2.2758e-30  2.7822e-23  4.0777e-30  2.8058e-23  7.4039e-30  2.8477e-23  1.3817e-29  2.9224e-23  2.626e-29  3.0555e-23  5.1601e-29  3.2936e-23  1.0746e-28  3.7207e-23  2.3982e-28  4.4923e-23  5.663e-28  5.9029e-23  1.393e-27  8.5326e-23  3.4843e-27  1.3593e-22  8.714e-27  2.3805e-22
      8.10  1.6964e-32  2.9135e-23  1.961e-32  2.9139e-23  2.8299e-32  2.9146e-23  5.3881e-32  2.9159e-23  1.2671e-31  2.9183e-23  3.2944e-31  2.9225e-23  9.053e-31  2.9299e-23  1.8298e-30  2.9431e-23  3.2735e-30  2.9666e-23  5.8715e-30  3.0084e-23  1.0813e-29  3.0828e-23  2.0631e-29  3.2156e-23  4.0014e-29  3.4528e-23  8.3088e-29  3.8786e-23  1.8265e-28  4.6478e-23  4.2781e-28  6.0539e-23  1.0516e-27  8.675e-23  2.6508e-27  1.3718e-22  6.7233e-27  2.3893e-22
      8.15  1.5769e-32  3.0815e-23  1.782e-32  3.0819e-23  2.4631e-32  3.0827e-23  4.4822e-32  3.084e-23  1.0208e-31  3.0863e-23  2.6445e-31  3.0904e-23  7.1768e-31  3.0978e-23  1.4305e-30  3.111e-23  2.5347e-30  3.1343e-23  4.5792e-30  3.1759e-23  8.4015e-30  3.2499e-23  1.5779e-29  3.3819e-23  3.0953e-29  3.6179e-23  6.3107e-29  4.0414e-23  1.371e-28  4.8064e-23  3.182e-28  6.2046e-23  7.7567e-28  8.8109e-23  1.9767e-27  1.3825e-22  5.0751e-27  2.3939e-22
      8.20  1.4796e-32  3.2565e-23  1.6354e-32  3.2569e-23  2.158e-32  3.2577e-23  3.6622e-32  3.259e-23  8.0918e-32  3.2613e-23  2.0679e-31  3.2654e-23  5.584e-31  3.2727e-23  1.1038e-30  3.2858e-23  1.9735e-30  3.309e-23  3.5585e-30  3.3503e-23  6.5096e-30  3.4238e-23  1.2064e-29  3.555e-23  2.353e-29  3.7894e-23  4.7682e-29  4.2101e-23  1.0272e-28   4.97e-23  2.3682e-28  6.3589e-23  5.7948e-28  8.9475e-23  1.4756e-27  1.3926e-22  3.8303e-27  2.3968e-22
      8.25  1.4145e-32  3.4727e-23  1.515e-32  3.4386e-23  1.8812e-32  3.4394e-23  3.0702e-32  3.4407e-23  6.4156e-32  3.443e-23  1.6008e-31  3.4471e-23  4.2514e-31  3.4543e-23  8.3613e-31  3.4673e-23  1.5063e-30  3.4903e-23  2.6882e-30  3.5314e-23  4.955e-30  3.6045e-23  9.2393e-30  3.7348e-23  1.7791e-29  3.9677e-23  3.5897e-29  4.3857e-23  7.6917e-29  5.1406e-23  1.7657e-28  6.5204e-23  4.3177e-28  9.0918e-23  1.1047e-27  1.4036e-22  2.896e-27  2.4006e-22
      8.30  1.3361e-32  3.6433e-23  1.4231e-32  3.6437e-23  1.6912e-32  3.6444e-23  2.5512e-32  3.6457e-23  5.0709e-32  3.648e-23  1.2297e-31  3.6521e-23  3.2776e-31  3.6594e-23  6.4288e-31  3.6723e-23  1.1443e-30  3.6953e-23  2.0592e-30  3.7363e-23  3.7892e-30  3.8092e-23  6.9869e-30  3.9393e-23  1.3419e-29  4.1718e-23  2.6986e-29  4.5889e-23  5.7659e-29  5.3424e-23  1.3204e-28  6.7193e-23  3.2119e-28  9.285e-23  8.3032e-28  1.4218e-22  2.1827e-27  2.4161e-22
      8.35  1.2862e-32  3.8563e-23  1.3495e-32  3.8567e-23  1.5458e-32  3.8574e-23  2.1763e-32  3.8587e-23      4e-32  3.861e-23  9.2579e-32  3.8651e-23  2.4462e-31  3.8723e-23  4.7844e-31  3.8853e-23  8.4912e-31  3.9083e-23  1.5255e-30  3.9493e-23  2.7797e-30  4.0222e-23  5.1705e-30  4.1524e-23  9.9282e-30  4.3849e-23  1.9967e-29  4.8022e-23  4.2704e-29  5.5559e-23  9.8001e-29  6.933e-23  2.4072e-28  9.4989e-23  6.2313e-28  1.4431e-22  1.6649e-27  2.437e-22
      8.40  1.2464e-32  4.0759e-23  1.2919e-32  4.0763e-23  1.437e-32  4.0771e-23  1.8883e-32  4.0784e-23  3.1931e-32  4.0807e-23  6.9926e-32  4.0848e-23  1.7776e-31  4.0921e-23  3.4926e-31  4.105e-23  6.1745e-31  4.1281e-23  1.1072e-30  4.1692e-23  2.0167e-30  4.2424e-23  3.7539e-30  4.3729e-23  7.2206e-30  4.6061e-23  1.4566e-29  5.0245e-23  3.1289e-29  5.7803e-23  7.2245e-29  7.1612e-23  1.7879e-28  9.7336e-23  4.6707e-28  1.4677e-22  1.2616e-27  2.4637e-22
      8.45  1.2152e-32  4.3007e-23  1.2482e-32  4.3011e-23  1.3545e-32  4.3019e-23  1.6572e-32  4.3032e-23  2.6294e-32  4.3055e-23  5.3873e-32  4.3096e-23  1.3207e-31  4.3169e-23  2.5533e-31   4.33e-23  4.5334e-31  4.3532e-23  8.1078e-31  4.3945e-23  1.4755e-30  4.468e-23  2.7481e-30  4.5992e-23  5.2945e-30  4.8337e-23  1.0712e-29  5.2543e-23  2.311e-29  6.0139e-23  5.3666e-29  7.4018e-23  1.3374e-28  9.987e-23  3.5232e-28  1.4954e-22  9.6102e-28  2.4958e-22
      8.50  1.1906e-32  4.5286e-23  1.2148e-32  4.529e-23  1.2941e-32  4.5297e-23   1.52e-32  4.5311e-23  2.2307e-32  4.5334e-23  4.2634e-32  4.5375e-23  9.998e-32  4.5449e-23  1.9079e-31  4.5581e-23  3.3652e-31  4.5814e-23  5.9976e-31  4.623e-23  1.0899e-30  4.6971e-23  2.0299e-30  4.8293e-23  3.9163e-30  5.0654e-23  7.9441e-30  5.4891e-23  1.7206e-29  6.2542e-23  4.016e-29  7.6519e-23  1.0071e-28  1.0255e-22  2.6725e-28  1.5256e-22  7.3528e-28  2.5325e-22
