# This was generated using Cloudy10 and the columns are ordered 
# as log10 of the fraction of the metallicity to the solar metallicity
# 'h_*_Z' and 'c_*_Z' stands for cooling and heating respectively 
# at * metalicity
#
# NOTE: This was generated separately from loop_coolingcurve_w_UV.py
#       using Output_metals_w_redshift.py.
#
# Redshift = 0.5
# hden = -5.5
#
#     temp   h_-3.00_Z   c_-3.00_Z   h_-2.75_Z   c_-2.75_Z   h_-2.50_Z   c_-2.50_Z   h_-2.25_Z   c_-2.25_Z   h_-2.00_Z   c_-2.00_Z   h_-1.75_Z   c_-1.75_Z   h_-1.50_Z   c_-1.50_Z   h_-1.25_Z   c_-1.25_Z   h_-1.00_Z   c_-1.00_Z   h_-0.75_Z   c_-0.75_Z   h_-0.50_Z   c_-0.50_Z   h_-0.25_Z   c_-0.25_Z    h_0.00_Z    c_0.00_Z    h_0.25_Z    c_0.25_Z    h_0.50_Z    c_0.50_Z    h_0.75_Z    c_0.75_Z    h_1.00_Z    c_1.00_Z    h_1.25_Z    c_1.25_Z    h_1.50_Z    c_1.50_Z 
      4.00  9.8390e-24  1.1171e-24  9.8553e-24  1.1186e-24  9.8842e-24  1.1213e-24  9.9356e-24  1.1260e-24  1.0027e-23  1.1344e-24  1.0190e-23  1.1493e-24  1.0479e-23  1.1758e-24  1.0992e-23  1.2231e-24  1.1906e-23  1.3072e-24  1.3528e-23  1.4569e-24  1.6409e-23  1.7238e-24  2.1517e-23  2.2004e-24  3.0567e-23  3.0544e-24  4.6613e-23  4.5931e-24  7.5138e-23  7.3913e-24  1.2626e-22  1.2549e-23  2.1892e-22  2.2239e-23  3.8798e-22  4.1234e-23  7.0159e-22  8.0805e-23
      4.05  9.1086e-24  1.1694e-24  9.1244e-24  1.1709e-24  9.1525e-24  1.1734e-24  9.2026e-24  1.1780e-24  9.2916e-24  1.1862e-24  9.4497e-24  1.2008e-24  9.7310e-24  1.2266e-24  1.0231e-23  1.2726e-24  1.1120e-23  1.3545e-24  1.2698e-23  1.5002e-24  1.5501e-23  1.7600e-24  2.0473e-23  2.2238e-24  2.9282e-23  3.0543e-24  4.4893e-23  4.5492e-24  7.2645e-23  7.2640e-24  1.2244e-22  1.2255e-23  2.1264e-22  2.1615e-23  3.7720e-22  3.9891e-23  6.8246e-22  7.7764e-23
      4.10  8.4301e-24  1.2243e-24  8.4455e-24  1.2257e-24  8.4729e-24  1.2283e-24  8.5216e-24  1.2328e-24  8.6082e-24  1.2409e-24  8.7622e-24  1.2552e-24  9.0359e-24  1.2808e-24  9.5226e-24  1.3262e-24  1.0387e-23  1.4070e-24  1.1924e-23  1.5509e-24  1.4653e-23  1.8073e-24  1.9493e-23  2.2649e-24  2.8070e-23  3.0838e-24  4.3262e-23  4.5563e-24  7.0271e-23  7.2264e-24  1.1879e-22  1.2124e-23  2.0661e-22  2.1288e-23  3.6683e-22  3.9104e-23  6.6404e-22  7.5804e-23
      4.15  7.8001e-24  1.2820e-24  7.8151e-24  1.2835e-24  7.8418e-24  1.2860e-24  7.8892e-24  1.2906e-24  7.9735e-24  1.2987e-24  8.1234e-24  1.3131e-24  8.3899e-24  1.3387e-24  8.8636e-24  1.3842e-24  9.7057e-24  1.4653e-24  1.1202e-23  1.6095e-24  1.3858e-23  1.8665e-24  1.8571e-23  2.3250e-24  2.6924e-23  3.1449e-24  4.1713e-23  4.6177e-24  6.8011e-23  7.2848e-24  1.1529e-22  1.2166e-23  2.0082e-22  2.1280e-23  3.5686e-22  3.8922e-23  6.4626e-22  7.5042e-23
      4.20  7.2153e-24  1.3430e-24  7.2299e-24  1.3444e-24  7.2558e-24  1.3470e-24  7.3020e-24  1.3517e-24  7.3841e-24  1.3600e-24  7.5300e-24  1.3746e-24  7.7895e-24  1.4008e-24  8.2509e-24  1.4473e-24  9.0708e-24  1.5300e-24  1.0528e-23  1.6772e-24  1.3115e-23  1.9394e-24  1.7705e-23  2.4071e-24  2.5840e-23  3.2430e-24  4.0241e-23  4.7434e-24  6.5852e-23  7.4569e-24  1.1193e-22  1.2415e-23  1.9525e-22  2.1653e-23  3.4724e-22  3.9470e-23  6.2912e-22  7.5751e-23
      4.25  6.6725e-24  1.4076e-24  6.6868e-24  1.4091e-24  6.7120e-24  1.4119e-24  6.7570e-24  1.4167e-24  6.8369e-24  1.4253e-24  6.9791e-24  1.4406e-24  7.2318e-24  1.4679e-24  7.6811e-24  1.5164e-24  8.4797e-24  1.6026e-24  9.8986e-24  1.7562e-24  1.2418e-23  2.0296e-24  1.6889e-23  2.5171e-24  2.4814e-23  3.3882e-24  3.8844e-23  4.9509e-24  6.3788e-23  7.7748e-24  1.0872e-22  1.2928e-23  1.8992e-22  2.2518e-23  3.3802e-22  4.0965e-23  6.1263e-22  7.8393e-23
      4.30  6.1691e-24  1.4787e-24  6.1830e-24  1.4804e-24  6.2076e-24  1.4833e-24  6.2514e-24  1.4885e-24  6.3293e-24  1.4977e-24  6.4677e-24  1.5141e-24  6.7139e-24  1.5432e-24  7.1516e-24  1.5951e-24  7.9295e-24  1.6873e-24  9.3118e-24  1.8515e-24  1.1766e-23  2.1440e-24  1.6122e-23  2.6653e-24  2.3843e-23  3.5970e-24  3.7514e-23  5.2681e-24  6.1816e-23  8.2874e-24  1.0565e-22  1.3794e-23  1.8480e-22  2.4037e-23  3.2917e-22  4.3724e-23  5.9687e-22  8.3626e-23
      4.35  5.7022e-24  1.5549e-24  5.7157e-24  1.5567e-24  5.7397e-24  1.5599e-24  5.7824e-24  1.5656e-24  5.8583e-24  1.5758e-24  5.9932e-24  1.5938e-24  6.2330e-24  1.6259e-24  6.6595e-24  1.6829e-24  7.4175e-24  1.7843e-24  8.7643e-24  1.9649e-24  1.1156e-23  2.2865e-24  1.5401e-23  2.8601e-24  2.2925e-23  3.8852e-24  3.6249e-23  5.7248e-24  5.9938e-23  9.0505e-24  1.0270e-22  1.5115e-23  1.7988e-22  2.6407e-23  3.2067e-22  4.8136e-23  5.8176e-22  9.2269e-23
      4.40  5.2693e-24  1.6370e-24  5.2824e-24  1.6391e-24  5.3058e-24  1.6427e-24  5.3474e-24  1.6491e-24  5.4214e-24  1.6606e-24  5.5528e-24  1.6809e-24  5.7866e-24  1.7172e-24  6.2023e-24  1.7816e-24  6.9411e-24  1.8963e-24  8.2520e-24  2.1003e-24  1.0585e-23  2.4639e-24  1.4723e-23  3.1125e-24  2.2057e-23  4.2723e-24  3.5048e-23  6.3556e-24  5.8169e-23  1.0127e-23  9.9879e-23  1.7008e-23  1.7517e-22  2.9844e-23  3.1253e-22  5.4626e-23  5.6732e-22  1.0521e-22
      4.45  4.8679e-24  1.7258e-24  4.8807e-24  1.7281e-24  4.9035e-24  1.7323e-24  4.9441e-24  1.7398e-24  5.0162e-24  1.7530e-24  5.1444e-24  1.7765e-24  5.3720e-24  1.8184e-24  5.7770e-24  1.8928e-24  6.4980e-24  2.0253e-24  7.7781e-24  2.2611e-24  1.0051e-23  2.6813e-24  1.4086e-23  3.4312e-24  2.1238e-23  4.7732e-24  3.3908e-23  7.1867e-24  5.6484e-23  1.1564e-23  9.7186e-23  1.9558e-23  1.7067e-22  3.4514e-23  3.0475e-22  6.3520e-23  5.5355e-22  1.2315e-22
      4.50  4.4959e-24  1.8220e-24  4.5084e-24  1.8248e-24  4.5306e-24  1.8297e-24  4.5702e-24  1.8385e-24  4.6405e-24  1.8540e-24  4.7656e-24  1.8816e-24  4.9880e-24  1.9308e-24  5.3834e-24  2.0182e-24  6.0861e-24  2.1737e-24  7.3349e-24  2.4507e-24  9.5526e-24  2.9444e-24  1.3488e-23  3.8258e-24  2.0466e-23  5.4045e-24  3.2828e-23  8.2474e-24  5.4889e-23  1.3412e-23  9.4630e-23  2.2858e-23  1.6638e-22  4.0593e-23  2.9733e-22  7.5190e-23  5.4043e-22  1.4691e-22
      4.55  4.1512e-24  1.9296e-24  4.1634e-24  1.9329e-24  4.1851e-24  1.9387e-24  4.2237e-24  1.9490e-24  4.2924e-24  1.9673e-24  4.4145e-24  1.9999e-24  4.6315e-24  2.0580e-24  5.0174e-24  2.1612e-24  5.7033e-24  2.3448e-24  6.9221e-24  2.6719e-24  9.0866e-24  3.2550e-24  1.2928e-23  4.2966e-24  1.9739e-23  6.1634e-24  3.1809e-23  9.5296e-24  5.3374e-23  1.5648e-23  9.2198e-23  2.6863e-23  1.6231e-22  4.7990e-23  2.9030e-22  8.9433e-23  5.2801e-22  1.7608e-22
      4.60  3.8318e-24  2.0462e-24  3.8437e-24  2.0500e-24  3.8649e-24  2.0568e-24  3.9026e-24  2.0690e-24  3.9697e-24  2.0905e-24  4.0889e-24  2.1289e-24  4.3008e-24  2.1972e-24  4.6776e-24  2.3186e-24  5.3474e-24  2.5347e-24  6.5375e-24  2.9196e-24  8.6509e-24  3.6059e-24  1.2402e-23  4.8321e-24  1.9052e-23  7.0313e-24  3.0842e-23  1.1001e-23  5.1928e-23  1.8219e-23  8.9871e-23  3.1477e-23  1.5841e-22  5.6534e-23  2.8357e-22  1.0593e-22  5.1614e-22  2.0997e-22
      4.65  3.5359e-24  2.1731e-24  3.5475e-24  2.1777e-24  3.5683e-24  2.1857e-24  3.6051e-24  2.1999e-24  3.6706e-24  2.2253e-24  3.7870e-24  2.2704e-24  3.9941e-24  2.3506e-24  4.3621e-24  2.4934e-24  5.0164e-24  2.7474e-24  6.1788e-24  3.1999e-24  8.2433e-24  4.0068e-24  1.1907e-23  5.4489e-24  1.8403e-23  8.0363e-24  2.9924e-23  1.2711e-23  5.0546e-23  2.1210e-23  8.7639e-23  3.6855e-23  1.5465e-22  6.6503e-23  2.7708e-22  1.2521e-22  5.0471e-22  2.4965e-22
      4.70  3.2618e-24  2.3128e-24  3.2732e-24  2.3180e-24  3.2934e-24  2.3273e-24  3.3294e-24  2.3438e-24  3.3934e-24  2.3731e-24  3.5071e-24  2.4254e-24  3.7094e-24  2.5182e-24  4.0691e-24  2.6835e-24  4.7083e-24  2.9776e-24  5.8441e-24  3.5015e-24  7.8612e-24  4.4359e-24  1.1441e-23  6.1061e-24  1.7787e-23  9.1040e-24  2.9047e-23  1.4525e-23  4.9219e-23  2.4380e-23  8.5487e-23  4.2559e-23  1.5103e-22  7.7105e-23  2.7080e-22  1.4581e-22  4.9364e-22  2.9240e-22
      4.75  3.0079e-24  2.4692e-24  3.0190e-24  2.4752e-24  3.0388e-24  2.4858e-24  3.0739e-24  2.5047e-24  3.1365e-24  2.5383e-24  3.2476e-24  2.5981e-24  3.4453e-24  2.7044e-24  3.7968e-24  2.8935e-24  4.4215e-24  3.2302e-24  5.5314e-24  3.8299e-24  7.5024e-24  4.8995e-24  1.1000e-23  6.8119e-24  1.7202e-23  1.0245e-23  2.8208e-23  1.6456e-23  4.7938e-23  2.7749e-23  8.3403e-23  4.8620e-23  1.4750e-22  8.8377e-23  2.6469e-22  1.6775e-22  4.8283e-22  3.3806e-22
      4.80  2.7727e-24  2.6527e-24  2.7836e-24  2.6595e-24  2.8029e-24  2.6715e-24  2.8373e-24  2.6929e-24  2.8984e-24  2.7309e-24  3.0070e-24  2.7986e-24  3.2002e-24  2.9189e-24  3.5437e-24  3.1330e-24  4.1542e-24  3.5140e-24  5.2388e-24  4.1928e-24  7.1649e-24  5.4036e-24  1.0583e-23  7.5684e-24  1.6643e-23  1.1456e-23  2.7400e-23  1.8490e-23  4.6698e-23  3.1281e-23  8.1376e-23  5.4959e-23  1.4407e-22  1.0016e-22  2.5871e-22  1.9069e-22  4.7223e-22  3.8590e-22
      4.85  2.5547e-24  2.8690e-24  2.5654e-24  2.8766e-24  2.5842e-24  2.8901e-24  2.6178e-24  2.9140e-24  2.6775e-24  2.9567e-24  2.7837e-24  3.0324e-24  2.9725e-24  3.1672e-24  3.3082e-24  3.4071e-24  3.9047e-24  3.8340e-24  4.9646e-24  4.5945e-24  6.8467e-24  5.9511e-24  1.0186e-23  8.3767e-24  1.6108e-23  1.2733e-23  2.6622e-23  2.0617e-23  4.5495e-23  3.4953e-23  7.9400e-23  6.1530e-23  1.4070e-22  1.1235e-22  2.5285e-22  2.1441e-22  4.6179e-22  4.3539e-22
      4.90  2.3524e-24  3.1302e-24  2.3627e-24  3.1386e-24  2.3812e-24  3.1536e-24  2.4140e-24  3.1802e-24  2.4724e-24  3.2275e-24  2.5761e-24  3.3117e-24  2.7606e-24  3.4615e-24  3.0886e-24  3.7279e-24  3.6715e-24  4.2021e-24  4.7072e-24  5.0469e-24  6.5462e-24  6.5539e-24  9.8095e-24  9.2485e-24  1.5595e-23  1.4087e-23  2.5871e-23  2.2847e-23  4.4326e-23  3.8773e-23  7.7472e-23  6.8334e-23  1.3741e-22  1.2493e-22  2.4709e-22  2.3884e-22  4.5152e-22  4.8626e-22
      4.95  2.1638e-24  3.4491e-24  2.1739e-24  3.4584e-24  2.1920e-24  3.4749e-24  2.2240e-24  3.5043e-24  2.2811e-24  3.5565e-24  2.3825e-24  3.6494e-24  2.5627e-24  3.8147e-24  2.8832e-24  4.1087e-24  3.4528e-24  4.6320e-24  4.4648e-24  5.5642e-24  6.2618e-24  7.2270e-24  9.4502e-24  1.0200e-23  1.5103e-23  1.5539e-23  2.5147e-23  2.5203e-23  4.3191e-23  4.2776e-23  7.5594e-23  7.5418e-23  1.3420e-22  1.3797e-22  2.4145e-22  2.6406e-22  4.4141e-22  5.3853e-22
      5.00  1.9870e-24  3.8372e-24  1.9970e-24  3.8474e-24  2.0146e-24  3.8655e-24  2.0459e-24  3.8978e-24  2.1016e-24  3.9551e-24  2.2007e-24  4.0571e-24  2.3769e-24  4.2385e-24  2.6901e-24  4.5613e-24  3.2467e-24  5.1358e-24  4.2356e-24  6.1591e-24  5.9916e-24  7.9845e-24  9.1071e-24  1.1248e-23  1.4631e-23  1.7109e-23  2.4452e-23  2.7709e-23  4.2091e-23  4.6998e-23  7.3769e-23  8.2837e-23  1.3107e-22  1.5155e-22  2.3595e-22  2.9017e-22  4.3153e-22  5.9230e-22
      5.05  1.8199e-24  4.3065e-24  1.8296e-24  4.3177e-24  1.8468e-24  4.3376e-24  1.8775e-24  4.3729e-24  1.9319e-24  4.4358e-24  2.0288e-24  4.5475e-24  2.2010e-24  4.7463e-24  2.5071e-24  5.1000e-24  3.0511e-24  5.7296e-24  4.0176e-24  6.8510e-24  5.7338e-24  8.8512e-24  8.7786e-24  1.2427e-23  1.4177e-23  1.8830e-23  2.3783e-23  3.0421e-23  4.1028e-23  5.1522e-23  7.2001e-23  9.0731e-23  1.2803e-22  1.6591e-22  2.3060e-22  3.1756e-22  4.2191e-22  6.4817e-22
      5.10  1.6602e-24  4.8487e-24  1.6696e-24  4.8609e-24  1.6865e-24  4.8826e-24  1.7164e-24  4.9212e-24  1.7697e-24  4.9898e-24  1.8644e-24  5.1118e-24  2.0327e-24  5.3287e-24  2.3320e-24  5.7148e-24  2.8638e-24  6.4019e-24  3.8087e-24  7.6259e-24  5.4863e-24  9.8088e-24  8.4627e-24  1.3711e-23  1.3739e-23  2.0715e-23  2.3139e-23  3.3366e-23  4.0006e-23  5.6406e-23  7.0300e-23  9.9204e-23  1.2510e-22  1.8123e-22  2.2543e-22  3.4662e-22  4.1259e-22  7.0686e-22
      5.15  1.5060e-24  5.4512e-24  1.5152e-24  5.4645e-24  1.5317e-24  5.4881e-24  1.5610e-24  5.5301e-24  1.6131e-24  5.6047e-24  1.7057e-24  5.7375e-24  1.8703e-24  5.9736e-24  2.1630e-24  6.3938e-24  2.6831e-24  7.1416e-24  3.6071e-24  8.4735e-24  5.2475e-24  1.0849e-23  8.1575e-24  1.5094e-23  1.3316e-23  2.2713e-23  2.2519e-23  3.6463e-23  3.9020e-23  6.1506e-23  6.8660e-23  1.0801e-22  1.2229e-22  1.9706e-22  2.2047e-22  3.7639e-22  4.0361e-22  7.6633e-22
      5.20  1.3565e-24  6.0893e-24  1.3655e-24  6.1037e-24  1.3816e-24  6.1293e-24  1.4103e-24  6.1748e-24  1.4612e-24  6.2557e-24  1.5518e-24  6.3995e-24  1.7129e-24  6.6554e-24  1.9992e-24  7.1107e-24  2.5079e-24  7.9209e-24  3.4117e-24  9.3639e-24  5.0160e-24  1.1930e-23  7.8617e-24  1.6523e-23  1.2905e-23  2.4764e-23  2.1918e-23  3.9626e-23  3.8066e-23  6.6695e-23  6.7075e-23  1.1693e-22  1.1956e-22  2.1304e-22  2.1568e-22  4.0660e-22  3.9497e-22  8.2596e-22
      5.25  1.2120e-24  6.7287e-24  1.2208e-24  6.7441e-24  1.2366e-24  6.7717e-24  1.2646e-24  6.8207e-24  1.3145e-24  6.9077e-24  1.4031e-24  7.0626e-24  1.5607e-24  7.3381e-24  1.8407e-24  7.8282e-24  2.3384e-24  8.7005e-24  3.2224e-24  1.0254e-23  4.7915e-24  1.3024e-23  7.5741e-24  1.7973e-23  1.2505e-23  2.6851e-23  2.1334e-23  4.2849e-23  3.7139e-23  7.1985e-23  6.5533e-23  1.2601e-22  1.1692e-22  2.2924e-22  2.1103e-22  4.3637e-22  3.8658e-22  8.8427e-22
      5.30  1.0742e-24  7.3402e-24  1.0829e-24  7.3571e-24  1.0983e-24  7.3871e-24  1.1257e-24  7.4404e-24  1.1745e-24  7.5351e-24  1.2612e-24  7.7037e-24  1.4153e-24  8.0035e-24  1.6893e-24  8.5368e-24  2.1760e-24  9.4859e-24  3.0405e-24  1.1176e-23  4.5747e-24  1.4190e-23  7.2947e-24  1.9573e-23  1.2117e-23  2.9227e-23  2.0763e-23  4.6615e-23  3.6230e-23  7.8271e-23  6.4019e-23  1.3692e-22  1.1432e-22  2.4881e-22  2.0646e-22  4.7274e-22  3.7836e-22  9.5497e-22
      5.35  9.4583e-25  7.8904e-24  9.5430e-25  7.9084e-24  9.6938e-25  7.9404e-24  9.9619e-25  7.9972e-24  1.0439e-24  8.0984e-24  1.1286e-24  8.2782e-24  1.2793e-24  8.5981e-24  1.5471e-24  9.1671e-24  2.0229e-24  1.0180e-23  2.8678e-24  1.1983e-23  4.3668e-24  1.5198e-23  7.0238e-24  2.0940e-23  1.1745e-23  3.1208e-23  2.0201e-23  4.9726e-23  3.5329e-23  8.3423e-23  6.2514e-23  1.4580e-22  1.1173e-22  2.6467e-22  2.0192e-22  5.0280e-22  3.7021e-22  1.0132e-21
      5.40  8.2942e-25  8.3676e-24  8.3771e-25  8.3871e-24  8.5243e-25  8.4220e-24  8.7862e-25  8.4839e-24  9.2518e-25  8.5940e-24  1.0080e-24  8.7898e-24  1.1551e-24  9.1380e-24  1.4166e-24  9.7229e-24  1.8812e-24  1.0798e-23  2.7060e-24  1.2713e-23  4.1690e-24  1.6127e-23  6.7612e-24  2.2161e-23  1.1381e-23  3.3034e-23  1.9645e-23  5.2617e-23  3.4429e-23  8.8239e-23  6.1003e-23  1.5414e-22  1.0913e-22  2.8055e-22  1.9734e-22  5.3120e-22  3.6202e-22  1.0671e-21
      5.45  7.2689e-25  8.7770e-24  7.3496e-25  8.7978e-24  7.4932e-25  8.8349e-24  7.7486e-25  8.9007e-24  8.2025e-25  9.0179e-24  9.0096e-25  9.2262e-24  1.0444e-24  9.5967e-24  1.2994e-24  1.0256e-23  1.7522e-24  1.1428e-23  2.5560e-24  1.3366e-23  3.9813e-24  1.6971e-23  6.5059e-24  2.3377e-23  1.1020e-23  3.4933e-23  1.9082e-23  5.5687e-23  3.3510e-23  9.3414e-23  5.9448e-23  1.6322e-22  1.0644e-22  2.9576e-22  1.9263e-22  5.7265e-22  3.5359e-22  1.1430e-21
      5.50  6.3889e-25  9.1347e-24  6.4675e-25  9.1566e-24  6.6071e-25  9.1956e-24  6.8555e-25  9.2649e-24  7.2971e-25  9.3881e-24  8.0821e-25  9.6072e-24  9.4774e-25  9.9968e-24  1.1957e-24  1.0690e-23  1.6360e-24  1.1923e-23  2.4173e-24  1.4117e-23  3.8024e-24  1.8027e-23  6.2601e-24  2.5003e-23  1.0656e-23  3.7493e-23  1.8504e-23  5.9965e-23  3.2550e-23  1.0075e-22  5.7814e-23  1.7591e-22  1.0361e-22  3.1812e-22  1.8766e-22  5.9871e-22  3.4472e-22  1.1937e-21
      5.55  5.6493e-25  9.4811e-24  5.7254e-25  9.5041e-24  5.8608e-25  9.5449e-24  6.1015e-25  9.6174e-24  6.5296e-25  9.7464e-24  7.2905e-25  9.9757e-24  8.6429e-25  1.0384e-23  1.1046e-24  1.1109e-23  1.5312e-24  1.2400e-23  2.2881e-24  1.4696e-23  3.6295e-24  1.8786e-23  6.0168e-24  2.6086e-23  1.0281e-23  3.9153e-23  1.7895e-23  6.2653e-23  3.1528e-23  1.0532e-22  5.6060e-23  1.8381e-22  1.0057e-22  3.3194e-22  1.8232e-22  6.2507e-22  3.3522e-22  1.2388e-21
      5.60  5.0369e-25  9.8377e-24  5.1103e-25  9.8616e-24  5.2409e-25  9.9040e-24  5.4732e-25  9.9796e-24  5.8861e-25  1.0114e-23  6.6202e-25  1.0353e-23  7.9247e-25  1.0778e-23  1.0242e-24  1.1533e-23  1.4357e-24  1.2877e-23  2.1655e-24  1.5269e-23  3.4586e-24  1.9527e-23  5.7669e-24  2.7128e-23  9.8850e-24  4.0731e-23  1.7239e-23  6.5185e-23  3.0414e-23  1.0951e-22  5.4139e-23  1.9101e-22  9.7230e-23  3.4455e-22  1.7650e-22  6.4551e-22  3.2495e-22  1.2801e-21
      5.65  4.5343e-25  1.0230e-23  4.6047e-25  1.0255e-23  4.7299e-25  1.0299e-23  4.9525e-25  1.0378e-23  5.3482e-25  1.0517e-23  6.0518e-25  1.0765e-23  7.3021e-25  1.1206e-23  9.5231e-25  1.1990e-23  1.3466e-24  1.3385e-23  2.0459e-24  1.5866e-23  3.2862e-24  2.0284e-23  5.5028e-24  2.8173e-23  9.4550e-24  4.2287e-23  1.6516e-23  6.7651e-23  2.9174e-23  1.1365e-22  5.1996e-23  1.9812e-22  9.3516e-23  3.5709e-22  1.7007e-22  6.7633e-22  3.1374e-22  1.3277e-21
      5.70  4.1233e-25  1.0682e-23  4.1902e-25  1.0709e-23  4.3091e-25  1.0758e-23  4.5205e-25  1.0839e-23  4.8964e-25  1.0988e-23  5.5646e-25  1.1254e-23  6.7521e-25  1.1727e-23  8.8617e-25  1.2526e-23  1.2607e-24  1.3988e-23  1.9251e-24  1.6590e-23  3.1062e-24  2.1223e-23  5.2147e-24  2.9495e-23  8.9755e-24  4.4295e-23  1.5699e-23  7.0886e-23  2.7764e-23  1.1905e-22  4.9556e-23  2.0743e-22  8.9308e-23  3.7330e-22  1.6286e-22  7.3596e-22  3.0140e-22  1.4446e-21
      5.75  3.7871e-25  1.1170e-23  3.8498e-25  1.1202e-23  3.9613e-25  1.1244e-23  4.1596e-25  1.1333e-23  4.5121e-25  1.1492e-23  5.1388e-25  1.1773e-23  6.2526e-25  1.2274e-23  8.2317e-25  1.3165e-23  1.1746e-24  1.4749e-23  1.7984e-24  1.7568e-23  2.9096e-24  2.2593e-23  4.8913e-24  3.1562e-23  8.4277e-24  4.7611e-23  1.4756e-23  7.6467e-23  2.6130e-23  1.2896e-22  4.6725e-23  2.2525e-22  8.4443e-23  4.0630e-22  1.5461e-22  8.4325e-22  2.8760e-22  1.6417e-21
      5.80  3.5108e-25  1.1769e-23  3.5686e-25  1.1801e-23  3.6714e-25  1.1858e-23  3.8542e-25  1.1959e-23  4.1791e-25  1.2140e-23  4.7569e-25  1.2461e-23  5.7842e-25  1.3033e-23  7.6099e-25  1.3796e-23  1.0855e-24  1.5407e-23  1.6619e-24  1.8276e-23  2.6897e-24  2.3390e-23  4.5219e-24  3.2519e-23  7.7939e-24  4.8865e-23  1.3656e-23  8.6476e-23  2.4214e-23  1.4651e-22  4.3399e-23  2.5725e-22  7.8730e-23  4.6615e-22  1.4498e-22  8.7418e-22  2.7177e-22  1.7101e-21
      5.85  3.2826e-25  1.2480e-23  3.3348e-25  1.2512e-23  3.4275e-25  1.2569e-23  3.5925e-25  1.2670e-23  3.8859e-25  1.2850e-23  4.4077e-25  1.3170e-23  5.3355e-25  1.3738e-23  6.9859e-25  1.4751e-23  9.9218e-25  1.6556e-23  1.5147e-24  1.9773e-23  2.4453e-24  2.5504e-23  4.1048e-24  3.5744e-23  7.0707e-24  5.4104e-23  1.2392e-23  8.7229e-23  2.1999e-23  1.4762e-22  3.9528e-23  2.5972e-22  7.2031e-23  4.7321e-22  1.3364e-22  8.9589e-22  2.5318e-22  1.7801e-21
      5.90  3.0931e-25  1.3315e-23  3.1393e-25  1.3346e-23  3.2213e-25  1.3401e-23  3.3672e-25  1.3498e-23  3.6268e-25  1.3670e-23  4.0884e-25  1.3978e-23  4.9098e-25  1.4522e-23  6.3717e-25  1.5494e-23  8.9755e-25  1.7230e-23  1.3612e-24  2.0325e-23  2.1865e-24  2.5837e-23  3.6587e-24  3.5694e-23  6.2916e-24  5.3395e-23  1.1020e-23  8.5609e-23  1.9576e-23  1.4443e-22  3.5246e-23  2.5444e-22  6.4495e-23  4.6686e-22  1.2056e-22  8.9676e-22  2.3127e-22  1.9824e-21
      5.95  2.9354e-25  1.4284e-23  2.9757e-25  1.4313e-23  3.0474e-25  1.4363e-23  3.1749e-25  1.4452e-23  3.4017e-25  1.4612e-23  3.8051e-25  1.4895e-23  4.5231e-25  1.5399e-23  5.8019e-25  1.6299e-23  8.0821e-25  1.7909e-23  1.2139e-24  2.0774e-23  1.9361e-24  2.5880e-23  3.2245e-24  3.5017e-23  5.5293e-24  5.1450e-23  9.6708e-24  8.1253e-23  1.7171e-23  1.3612e-22  3.0933e-23  2.3952e-22  5.6723e-23  4.4189e-22  1.0657e-22  9.1646e-22  2.0660e-22  1.9702e-21
      6.00  2.8041e-25  1.5401e-23  2.8393e-25  1.5427e-23  2.9020e-25  1.5474e-23  3.0134e-25  1.5557e-23  3.2117e-25  1.5705e-23  3.5645e-25  1.5944e-23  4.1924e-25  1.6395e-23  5.3112e-25  1.7200e-23  7.3075e-25  1.8642e-23  1.0854e-24  2.1201e-23  1.7170e-24  2.5765e-23  2.8436e-24  3.3937e-23  4.8586e-24  4.8646e-23  8.4783e-24  7.5360e-23  1.5030e-23  1.2465e-22  2.7045e-23  2.1808e-22  4.9557e-23  4.1801e-22  9.3151e-23  8.3967e-22  1.8136e-22  2.0885e-21
      6.05  2.6945e-25  1.6693e-23  2.7257e-25  1.6716e-23  2.7811e-25  1.6757e-23  2.8796e-25  1.6829e-23  3.0549e-25  1.6957e-23  3.3667e-25  1.7186e-23  3.9219e-25  1.7595e-23  4.9113e-25  1.8295e-23  6.6758e-25  1.9527e-23  9.8091e-25  2.1762e-23  1.5390e-24  2.5922e-23  2.5343e-24  3.3200e-23  4.3134e-24  4.6304e-23  7.5068e-24  7.0152e-23  1.3279e-23  1.1419e-22  2.3840e-23  1.9787e-22  4.3558e-23  3.6484e-22  8.1584e-23  7.4756e-22  1.5837e-22  1.7181e-21
      6.10  2.6028e-25  1.8162e-23  2.6308e-25  1.8182e-23  2.6804e-25  1.8216e-23  2.7687e-25  1.8278e-23  2.9259e-25  1.8388e-23  3.2055e-25  1.8583e-23  3.7033e-25  1.8932e-23  4.5903e-25  1.9556e-23  6.1707e-25  2.0674e-23  8.9784e-25  2.2654e-23  1.3978e-24  2.6186e-23  2.2893e-24  3.2510e-23  3.8820e-24  4.3893e-23  6.7381e-24  6.4572e-23  1.1892e-23  1.0274e-22  2.1296e-23  1.7539e-22  3.8774e-23  3.2716e-22  7.2238e-23  6.4487e-22  1.3919e-22  1.3987e-21
      6.15  2.5256e-25  1.9826e-23  2.5510e-25  1.9843e-23  2.5960e-25  1.9873e-23  2.6761e-25  1.9927e-23  2.8186e-25  2.0023e-23  3.0722e-25  2.0194e-23  3.5236e-25  2.0500e-23  4.3279e-25  2.1047e-23  5.7597e-25  2.2007e-23  8.3045e-25  2.3726e-23  1.2836e-24  2.6800e-23  2.0913e-24  3.2386e-23  3.5337e-24  4.2339e-23  6.1182e-24  6.0398e-23  1.0776e-23  9.3657e-23  1.9253e-23  1.5675e-22  3.4940e-23  2.8098e-22  6.4759e-23  5.4380e-22  1.2375e-22  1.1577e-21
      6.20  2.4602e-25  2.1703e-23  2.4833e-25  2.1718e-23  2.5245e-25  2.1745e-23  2.5976e-25  2.1792e-23  2.7277e-25  2.1877e-23  2.9592e-25  2.2028e-23  3.3713e-25  2.2298e-23  4.1055e-25  2.2782e-23  5.4115e-25  2.3643e-23  7.7336e-25  2.5172e-23  1.1868e-24  2.7897e-23  1.9235e-24  3.2771e-23  3.2389e-24  4.1529e-23  5.5942e-24  5.7393e-23  9.8343e-24  8.6534e-23  1.7536e-23  1.4144e-22  3.1741e-23  2.4917e-22  5.8579e-23  4.7326e-22  1.1114e-22  9.8449e-22
      6.25  2.4045e-25  2.3816e-23  2.4256e-25  2.3829e-23  2.4633e-25  2.3853e-23  2.5302e-25  2.3896e-23  2.6493e-25  2.3973e-23  2.8611e-25  2.4109e-23  3.2382e-25  2.4353e-23  3.9098e-25  2.4789e-23  5.1042e-25  2.5565e-23  7.2283e-25  2.6943e-23  1.1009e-24  2.9399e-23  1.7747e-24  3.3788e-23  2.9772e-24  4.1670e-23  5.1295e-24  5.5933e-23  9.0007e-24  8.2078e-23  1.6022e-23  1.3112e-22  2.8936e-23  2.2659e-22  5.3221e-23  4.2325e-22  1.0039e-22  8.6412e-22
      6.30  2.3567e-25  2.6213e-23  2.3761e-25  2.6225e-23  2.4105e-25  2.6247e-23  2.4718e-25  2.6286e-23  2.5807e-25  2.6356e-23  2.7746e-25  2.6481e-23  3.1196e-25  2.6703e-23  3.7339e-25  2.7101e-23  4.8260e-25  2.7810e-23  6.7687e-25  2.9067e-23  1.0227e-24  3.1306e-23  1.6387e-24  3.5307e-23  2.7380e-24  4.2490e-23  4.7046e-24  5.5477e-23  8.2389e-24  7.9268e-23  1.4641e-23  1.2376e-22  2.6387e-23  2.1000e-22  4.8385e-23  3.8648e-22  9.0824e-23  7.7754e-22
      6.35  2.3156e-25  2.8902e-23  2.3334e-25  2.8913e-23  2.3649e-25  2.8934e-23  2.4209e-25  2.8970e-23  2.5206e-25  2.9034e-23  2.6979e-25  2.9148e-23  3.0133e-25  2.9352e-23  3.5746e-25  2.9719e-23  4.5730e-25  3.0370e-23  6.3488e-25  3.1524e-23  9.5093e-25  3.3579e-23  1.5139e-24  3.7250e-23  2.5182e-24  4.3837e-23  4.3139e-24  5.5739e-23  7.5384e-24  7.7510e-23  1.3370e-23  1.1816e-22  2.4042e-23  1.9670e-22  4.3944e-23  3.5669e-22  8.2083e-23  7.1358e-22
      6.40  2.2802e-25  3.1916e-23  2.2965e-25  3.1926e-23  2.3253e-25  3.1945e-23  2.3766e-25  3.1978e-23  2.4677e-25  3.2037e-23  2.6299e-25  3.2143e-23  2.9182e-25  3.2331e-23  3.4313e-25  3.2670e-23  4.3441e-25  3.3272e-23  5.9674e-25  3.4337e-23  8.8565e-25  3.6231e-23  1.4002e-24  3.9614e-23  2.3177e-24  4.5681e-23  3.9575e-24  5.6637e-23  6.8990e-24  7.6655e-23  1.2210e-23  1.1396e-22  2.1902e-23  1.8585e-22  3.9892e-23  3.3169e-22  7.4116e-23  6.5168e-22
      6.45  2.2497e-25  3.5291e-23  2.2645e-25  3.5301e-23  2.2909e-25  3.5318e-23  2.3378e-25  3.5349e-23  2.4213e-25  3.5404e-23  2.5697e-25  3.5502e-23  2.8334e-25  3.5678e-23  3.3029e-25  3.5995e-23  4.1380e-25  3.6555e-23  5.6233e-25  3.7545e-23  8.2662e-25  3.9306e-23  1.2972e-24  4.2449e-23  2.1362e-24  4.8082e-23  3.6347e-24  5.8248e-23  6.3204e-24  7.6796e-23  1.1161e-23  1.1131e-22  1.9971e-23  1.7752e-22  3.6245e-23  3.1102e-22  6.6971e-23  6.0009e-22
      6.50  2.2231e-25  3.9069e-23  2.2367e-25  3.9078e-23  2.2609e-25  3.9094e-23  2.3039e-25  3.9123e-23  2.3803e-25  3.9175e-23  2.5160e-25  3.9267e-23  2.7573e-25  3.9431e-23  3.1871e-25  3.9732e-23  3.9514e-25  4.0258e-23  5.3106e-25  4.1187e-23  7.7290e-25  4.2836e-23  1.2035e-24  4.5779e-23  1.9708e-24  5.1051e-23  3.3408e-24  6.0557e-23  5.7938e-24  7.7879e-23  1.0209e-23  1.1002e-22  1.8221e-23  1.7146e-22  3.2958e-23  2.9475e-22  6.0586e-23  5.5918e-22
      6.55  2.2001e-25  4.3327e-23  2.2125e-25  4.3336e-23  2.2346e-25  4.3351e-23  2.2740e-25  4.3379e-23  2.3439e-25  4.3427e-23  2.4682e-25  4.3514e-23  2.6889e-25  4.3670e-23  3.0825e-25  4.3957e-23  3.7821e-25  4.4457e-23  5.0261e-25  4.5336e-23  7.2393e-25  4.6895e-23  1.1179e-24  4.9680e-23  1.8199e-24  5.4663e-23  3.0726e-24  6.3638e-23  5.3139e-24  7.9972e-23  9.3422e-24  1.1021e-22  1.6637e-23  1.6780e-22  3.0000e-23  2.8247e-22  5.4898e-23  5.2640e-22
      6.60  2.1800e-25  4.8090e-23  2.1914e-25  4.8099e-23  2.2116e-25  4.8113e-23  2.2476e-25  4.8140e-23  2.3116e-25  4.8186e-23  2.4252e-25  4.8270e-23  2.6271e-25  4.8418e-23  2.9875e-25  4.8698e-23  3.6278e-25  4.9178e-23  4.7660e-25  5.0017e-23  6.7910e-25  5.1505e-23  1.0395e-24  5.4157e-23  1.6816e-24  5.8905e-23  2.8270e-24  6.7450e-23  4.8749e-24  8.2999e-23  8.5514e-24  1.1170e-22  1.5196e-23  1.6616e-22  2.7328e-23  2.7399e-22  4.9813e-23  5.0141e-22
      6.65  2.1624e-25  5.3418e-23  2.1728e-25  5.3426e-23  2.1913e-25  5.3440e-23  2.2242e-25  5.3466e-23  2.2827e-25  5.3511e-23  2.3865e-25  5.3591e-23  2.5710e-25  5.3733e-23  2.9008e-25  5.4011e-23  3.4862e-25  5.4475e-23  4.5268e-25  5.5286e-23  6.3779e-25  5.6720e-23  9.6725e-25  5.9275e-23  1.5540e-24  6.3844e-23  2.6004e-24  7.2064e-23  4.4704e-24  8.6987e-23  7.8242e-24  1.1453e-22  1.3875e-23  1.6659e-22  2.4894e-23  2.6913e-22  4.5226e-23  4.8379e-22
      6.70  2.1470e-25  5.9376e-23  2.1565e-25  5.9384e-23  2.1733e-25  5.9398e-23  2.2033e-25  5.9422e-23  2.2567e-25  5.9466e-23  2.3514e-25  5.9544e-23  2.5198e-25  5.9683e-23  2.8210e-25  5.9961e-23  3.3552e-25  6.0418e-23  4.3047e-25  6.1210e-23  5.9937e-25  6.2608e-23  8.9994e-25  6.5096e-23  1.4352e-24  6.9544e-23  2.3895e-24  7.7541e-23  4.0940e-24  9.2042e-23  7.1485e-24  1.1873e-22  1.2652e-23  1.6911e-22  2.2649e-23  2.6786e-22  4.1025e-23  4.7395e-22
      6.75  2.1334e-25  6.6039e-23  2.1421e-25  6.6046e-23  2.1574e-25  6.6060e-23  2.1847e-25  6.6084e-23  2.2332e-25  6.6128e-23  2.3195e-25  6.6205e-23  2.4728e-25  6.6343e-23  2.7473e-25  6.6627e-23  3.2338e-25  6.7083e-23  4.0984e-25  6.7868e-23  5.6360e-25  6.9251e-23  8.3723e-25  7.1709e-23  1.3244e-24  7.6101e-23  2.1928e-24  8.3992e-23  3.7433e-24  9.8287e-23  6.5196e-24  1.2455e-22  1.1515e-23  1.7394e-22  2.0571e-23  2.7044e-22  3.7160e-23  4.7031e-22
      6.80  2.1215e-25  7.3529e-23  2.1293e-25  7.3537e-23  2.1432e-25  7.3551e-23  2.1680e-25  7.3575e-23  2.2120e-25  7.3619e-23  2.2903e-25  7.3696e-23  2.4296e-25  7.3837e-23  2.6792e-25  7.4132e-23  3.1213e-25  7.4596e-23  3.9065e-25  7.5387e-23  5.3029e-25  7.6776e-23  7.7877e-25  7.9243e-23  1.2212e-24  8.3649e-23  2.0095e-24  9.1568e-23  3.4166e-24  1.0589e-22  5.9345e-24  1.3217e-22  1.0460e-23  1.8147e-22  1.8649e-23  2.7764e-22  3.3606e-23  4.7459e-22
      6.85  2.1109e-25  8.1906e-23  2.1180e-25  8.1913e-23  2.1306e-25  8.1927e-23  2.1530e-25  8.1952e-23  2.1928e-25  8.1997e-23  2.2637e-25  8.2076e-23  2.3899e-25  8.2223e-23  2.6162e-25  8.2535e-23  3.0165e-25  8.3014e-23  3.7274e-25  8.3824e-23  4.9916e-25  8.5241e-23  7.2409e-25  8.7755e-23  1.1245e-24  9.2242e-23  1.8380e-24  1.0030e-22  3.1110e-24  1.1486e-22  5.3880e-24  1.4155e-22  9.4769e-24  1.9156e-22  1.6865e-23  2.8862e-22  3.0328e-23  4.8666e-22
      6.90  2.1014e-25  9.1273e-23  2.1078e-25  9.1281e-23  2.1192e-25  9.1295e-23  2.1394e-25  9.1321e-23  2.1753e-25  9.1366e-23  2.2391e-25  9.1447e-23  2.3528e-25  9.1597e-23  2.5571e-25  9.1934e-23  2.9181e-25  9.2436e-23  3.5589e-25  9.3272e-23  4.6981e-25  9.4729e-23  6.7250e-25  9.7310e-23  1.0333e-24  1.0191e-22  1.6762e-24  1.1017e-22  2.8229e-24  1.2510e-22  4.8733e-24  1.5244e-22  8.5532e-24  2.0358e-22  1.5195e-23  3.0260e-22  2.7278e-23  5.0398e-22
      6.95  2.0930e-25  1.0175e-22  2.0987e-25  1.0176e-22  2.1089e-25  1.0177e-22  2.1270e-25  1.0180e-22  2.1591e-25  1.0184e-22  2.2162e-25  1.0193e-22  2.3179e-25  1.0207e-22  2.5013e-25  1.0244e-22  2.8248e-25  1.0296e-22  3.3987e-25  1.0383e-22  4.4189e-25  1.0532e-22  6.2338e-25  1.0796e-22  9.4644e-25  1.1267e-22  1.5220e-24  1.2111e-22  2.5487e-24  1.3637e-22  4.3841e-24  1.6430e-22  7.6772e-24  2.1655e-22  1.3618e-23  3.1749e-22  2.4415e-23  5.2253e-22
      7.00  2.0854e-25  1.1346e-22  2.0905e-25  1.1347e-22  2.0995e-25  1.1348e-22  2.1155e-25  1.1351e-22  2.1440e-25  1.1356e-22  2.1947e-25  1.1364e-22  2.2848e-25  1.1379e-22  2.4476e-25  1.1417e-22  2.7350e-25  1.1472e-22  3.2442e-25  1.1560e-22  4.1489e-25  1.1712e-22  5.7584e-25  1.1978e-22  8.6234e-25  1.2452e-22  1.3728e-24  1.3302e-22  2.2834e-24  1.4838e-22  3.9115e-24  1.7652e-22  6.8331e-24  2.2915e-22  1.2105e-23  3.3087e-22  2.1687e-23  5.3754e-22
      7.05  2.0785e-25  1.2661e-22  2.0829e-25  1.2662e-22  2.0908e-25  1.2663e-22  2.1048e-25  1.2666e-22  2.1297e-25  1.2670e-22  2.1740e-25  1.2679e-22  2.2527e-25  1.2693e-22  2.3948e-25  1.2730e-22  2.6467e-25  1.2789e-22  3.0921e-25  1.2878e-22  3.8829e-25  1.3028e-22  5.2894e-25  1.3290e-22  7.7934e-25  1.3756e-22  1.2255e-24  1.4591e-22  2.0217e-24  1.6100e-22  3.4458e-24  1.8864e-22  6.0031e-24  2.4038e-22  1.0622e-23  3.4051e-22  1.9029e-23  5.4414e-22
      7.10  2.0722e-25  1.4131e-22  2.0760e-25  1.4132e-22  2.0827e-25  1.4134e-22  2.0947e-25  1.4136e-22  2.1161e-25  1.4140e-22  2.1540e-25  1.4148e-22  2.2214e-25  1.4162e-22  2.3429e-25  1.4196e-22  2.5597e-25  1.4258e-22  2.9418e-25  1.4346e-22  3.6196e-25  1.4491e-22  4.8249e-25  1.4741e-22  6.9706e-25  1.5185e-22  1.0795e-24  1.5980e-22  1.7621e-24  1.7424e-22  2.9839e-24  2.0060e-22  5.1802e-24  2.4995e-22  9.1534e-24  3.4551e-22  1.6402e-23  5.4016e-22
      7.15  2.0663e-25  1.5776e-22  2.0695e-25  1.5777e-22  2.0752e-25  1.5778e-22  2.0852e-25  1.5780e-22  2.1032e-25  1.5784e-22  2.1350e-25  1.5791e-22  2.1916e-25  1.5804e-22  2.2924e-25  1.5828e-22  2.4757e-25  1.5896e-22  2.7970e-25  1.5982e-22  3.3661e-25  1.6118e-22  4.3775e-25  1.6360e-22  6.1778e-25  1.6775e-22  9.3868e-25  1.7518e-22  1.5117e-24  1.8858e-22  2.5378e-24  2.1311e-22  4.3840e-24  2.5908e-22  7.7289e-24  3.4795e-22  1.3845e-23  5.2888e-22
      7.20  2.0609e-25  1.7615e-22  2.0636e-25  1.7615e-22  2.0682e-25  1.7616e-22  2.0766e-25  1.7619e-22  2.0913e-25  1.7622e-22  2.1177e-25  1.7629e-22  2.1644e-25  1.7641e-22  2.2475e-25  1.7662e-22  2.3991e-25  1.7727e-22  2.6657e-25  1.7817e-22  3.1366e-25  1.7949e-22  3.9725e-25  1.8168e-22  5.4601e-25  1.8549e-22  8.1116e-25  1.9228e-22  1.2847e-24  2.0451e-22  2.1328e-24  2.2687e-22  3.6593e-24  2.6976e-22  6.4266e-24  3.5143e-22  1.1491e-23  5.1711e-22
      7.25  2.0559e-25  1.9671e-22  2.0581e-25  1.9671e-22  2.0619e-25  1.9672e-22  2.0688e-25  1.9674e-22  2.0809e-25  1.9678e-22  2.1025e-25  1.9684e-22  2.1409e-25  1.9695e-22  2.2092e-25  1.9715e-22  2.3334e-25  1.9774e-22  2.5541e-25  1.9871e-22  2.9420e-25  2.0002e-22  3.6297e-25  2.0210e-22  4.8529e-25  2.0569e-22  7.0328e-25  2.1204e-22  1.0925e-24  2.2345e-22  1.7896e-24  2.4429e-22  3.0439e-24  2.8309e-22  5.3166e-24  3.5891e-22  9.4739e-24  5.1078e-22
      7.30  2.0512e-25  2.1976e-22  2.0530e-25  2.1977e-22  2.0562e-25  2.1978e-22  2.0618e-25  2.1979e-22  2.0718e-25  2.1983e-22  2.0897e-25  2.1989e-22  2.1214e-25  2.1999e-22  2.1777e-25  2.2018e-22  2.2796e-25  2.2067e-22  2.4637e-25  2.2177e-22  2.7852e-25  2.2311e-22  3.3538e-25  2.2514e-22  4.3647e-25  2.2857e-22  6.1656e-25  2.3459e-22  9.3808e-25  2.4539e-22  1.5137e-24  2.6505e-22  2.5486e-24  3.0157e-22  4.4218e-24  3.7152e-22  7.8421e-24  5.1304e-22
      7.35  2.0468e-25  2.4553e-22  2.0482e-25  2.4554e-22  2.0509e-25  2.4555e-22  2.0556e-25  2.4557e-22  2.0640e-25  2.4560e-22  2.0789e-25  2.4565e-22  2.1053e-25  2.4575e-22  2.1524e-25  2.4593e-22  2.2362e-25  2.4628e-22  2.3922e-25  2.4758e-22  2.6621e-25  2.4900e-22  3.1381e-25  2.5103e-22  3.9833e-25  2.5438e-22  5.4887e-25  2.6020e-22  8.1755e-25  2.7060e-22  1.2983e-24  2.8947e-22  2.1620e-24  3.2443e-22  3.7230e-24  3.9108e-22  6.5674e-24  5.2449e-22
      7.40  2.0424e-25  2.7434e-22  2.0437e-25  2.7435e-22  2.0459e-25  2.7436e-22  2.0499e-25  2.7437e-22  2.0570e-25  2.7440e-22  2.0696e-25  2.7446e-22  2.0921e-25  2.7456e-22  2.1319e-25  2.7473e-22  2.2041e-25  2.7520e-22  2.3381e-25  2.7665e-22  2.5679e-25  2.7814e-22  2.9724e-25  2.8019e-22  3.6900e-25  2.8349e-22  4.9677e-25  2.8920e-22  7.2477e-25  2.9939e-22  1.1326e-24  3.1784e-22  1.8645e-24  3.5190e-22  3.1854e-24  4.1658e-22  5.5865e-24  5.4462e-22
      7.45  2.0382e-25  3.0654e-22  2.0392e-25  3.0654e-22  2.0412e-25  3.0655e-22  2.0446e-25  3.0657e-22  2.0507e-25  3.0660e-22  2.0616e-25  3.0666e-22  2.0809e-25  3.0675e-22  2.1152e-25  3.0693e-22  2.1795e-25  3.0767e-22  2.2962e-25  3.0926e-22  2.4951e-25  3.1083e-22  2.8443e-25  3.1292e-22  3.4634e-25  3.1624e-22  4.5655e-25  3.2195e-22  6.5317e-25  3.3211e-22  1.0047e-24  3.5046e-22  1.6353e-24  3.8427e-22  2.7718e-24  4.4818e-22  4.8333e-24  5.7393e-22
      7.50  2.0339e-25  3.4251e-22  2.0348e-25  3.4252e-22  2.0365e-25  3.4253e-22  2.0395e-25  3.4254e-22  2.0448e-25  3.4257e-22  2.0543e-25  3.4263e-22  2.0712e-25  3.4273e-22  2.1012e-25  3.4291e-22  2.1600e-25  3.4405e-22  2.2634e-25  3.4581e-22  2.4382e-25  3.4749e-22  2.7443e-25  3.4965e-22  3.2866e-25  3.5304e-22  4.2516e-25  3.5885e-22  5.9729e-25  3.6915e-22  9.0496e-25  3.8773e-22  1.4565e-24  4.2186e-22  2.4494e-24  4.8613e-22  4.2478e-24  6.1185e-22
      7.55  2.0294e-25  3.8277e-22  2.0303e-25  3.8278e-22  2.0318e-25  3.8279e-22  2.0344e-25  3.8281e-22  2.0392e-25  3.8284e-22  2.0476e-25  3.8290e-22  2.0625e-25  3.8300e-22  2.0891e-25  3.8318e-22  2.1443e-25  3.8487e-22  2.2372e-25  3.8684e-22  2.3930e-25  3.8866e-22  2.6650e-25  3.9093e-22  3.1464e-25  3.9446e-22  4.0028e-25  4.0046e-22  5.5300e-25  4.1106e-22  8.2593e-25  4.3016e-22  1.3149e-24  4.6518e-22  2.1946e-24  5.3088e-22  3.7855e-24  6.5874e-22
      7.60  2.0248e-25  4.2773e-22  2.0255e-25  4.2774e-22  2.0269e-25  4.2775e-22  2.0293e-25  4.2777e-22  2.0335e-25  4.2780e-22  2.0410e-25  4.2786e-22  2.0544e-25  4.2797e-22  2.0783e-25  4.2816e-22  2.1313e-25  4.3058e-22  2.2157e-25  4.3280e-22  2.3562e-25  4.3480e-22  2.6006e-25  4.3723e-22  3.0328e-25  4.4094e-22  3.8013e-25  4.4721e-22  5.1714e-25  4.5826e-22  7.6193e-25  4.7816e-22  1.2004e-24  5.1456e-22  1.9887e-24  5.8265e-22  3.4130e-24  7.1453e-22
      7.65  2.0198e-25  4.7792e-22  2.0205e-25  4.7792e-22  2.0217e-25  4.7794e-22  2.0239e-25  4.7796e-22  2.0277e-25  4.7799e-22  2.0345e-25  4.7805e-22  2.0466e-25  4.7817e-22  2.0681e-25  4.7837e-22  2.1202e-25  4.8174e-22  2.1977e-25  4.8429e-22  2.3254e-25  4.8650e-22  2.5470e-25  4.8912e-22  2.9382e-25  4.9306e-22  3.6336e-25  4.9969e-22  4.8730e-25  5.1135e-22  7.0870e-25  5.3228e-22  1.1052e-24  5.7050e-22  1.8178e-24  6.4185e-22  3.1043e-24  7.7944e-22
      7.70  2.0145e-25  5.3390e-22  2.0151e-25  5.3391e-22  2.0162e-25  5.3392e-22  2.0182e-25  5.3394e-22  2.0216e-25  5.3398e-22  2.0278e-25  5.3405e-22  2.0388e-25  5.3417e-22  2.0593e-25  5.3463e-22  2.1103e-25  5.3900e-22  2.1820e-25  5.4193e-22  2.2990e-25  5.4441e-22  2.5010e-25  5.4728e-22  2.8572e-25  5.5151e-22  3.4899e-25  5.5857e-22  4.6173e-25  5.7095e-22  6.6311e-25  5.9315e-22  1.0237e-24  6.3362e-22  1.6715e-24  7.0896e-22  2.8408e-24  8.5376e-22
      7.75  2.0087e-25  5.9633e-22  2.0092e-25  5.9634e-22  2.0102e-25  5.9635e-22  2.0120e-25  5.9637e-22  2.0152e-25  5.9641e-22  2.0208e-25  5.9648e-22  2.0308e-25  5.9661e-22  2.0522e-25  5.9785e-22  2.1011e-25  6.0303e-22  2.1679e-25  6.0647e-22  2.2754e-25  6.0928e-22  2.4602e-25  6.1244e-22  2.7854e-25  6.1701e-22  3.3628e-25  6.2457e-22  4.3913e-25  6.3780e-22  6.2280e-25  6.6147e-22  9.5166e-25  7.0457e-22  1.5425e-24  7.8460e-22  2.6087e-24  9.3787e-22
      7.80  2.0022e-25  6.6599e-22  2.0028e-25  6.6600e-22  2.0037e-25  6.6601e-22  2.0053e-25  6.6603e-22  2.0082e-25  6.6608e-22  2.0133e-25  6.6615e-22  2.0224e-25  6.6629e-22  2.0459e-25  6.6885e-22  2.0929e-25  6.7493e-22  2.1552e-25  6.7891e-22  2.2540e-25  6.8210e-22  2.4231e-25  6.8558e-22  2.7201e-25  6.9053e-22  3.2470e-25  6.9867e-22  4.1854e-25  7.1286e-22  5.8610e-25  7.3822e-22  8.8609e-25  7.8431e-22  1.4251e-24  8.6974e-22  2.3977e-24  1.0328e-21
      7.85  1.9951e-25  7.4355e-22  1.9956e-25  7.4356e-22  1.9964e-25  7.4357e-22  1.9979e-25  7.4360e-22  2.0005e-25  7.4364e-22  2.0051e-25  7.4372e-22  2.0134e-25  7.4387e-22  2.0398e-25  7.4829e-22  2.0851e-25  7.5543e-22  2.1433e-25  7.6006e-22  2.2341e-25  7.6369e-22  2.3885e-25  7.6753e-22  2.6592e-25  7.7292e-22  3.1391e-25  7.8169e-22  3.9935e-25  7.9694e-22  5.5188e-25  8.2417e-22  8.2496e-25  8.7357e-22  1.3156e-24  9.6494e-22  2.2012e-24  1.1388e-21
      7.90  1.9872e-25  8.2982e-22  1.9876e-25  8.2983e-22  1.9883e-25  8.2984e-22  1.9897e-25  8.2987e-22  1.9920e-25  8.2992e-22  1.9962e-25  8.3001e-22  2.0037e-25  8.3017e-22  2.0333e-25  8.3700e-22  2.0773e-25  8.4548e-22  2.1317e-25  8.5091e-22  2.2150e-25  8.5507e-22  2.3556e-25  8.5935e-22  2.6013e-25  8.6522e-22  3.0366e-25  8.7470e-22  3.8113e-25  8.9112e-22  5.1941e-25  9.2037e-22  7.6694e-25  9.7336e-22  1.2117e-24  1.0712e-21  2.0146e-24  1.2567e-21
      7.95  1.9783e-25  9.2568e-22  1.9786e-25  9.2569e-22  1.9793e-25  9.2571e-22  1.9805e-25  9.2574e-22  1.9826e-25  9.2579e-22  1.9864e-25  9.2588e-22  1.9931e-25  9.2605e-22  2.0264e-25  9.3598e-22  2.0695e-25  9.4614e-22  2.1205e-25  9.5258e-22  2.1967e-25  9.5740e-22  2.3241e-25  9.6220e-22  2.5461e-25  9.6862e-22  2.9387e-25  9.7887e-22  3.6373e-25  9.9655e-22  4.8838e-25  1.0280e-21  7.1149e-25  1.0848e-21  1.1123e-24  1.1896e-21  1.8360e-24  1.3875e-21
      8.00  1.9682e-25  1.0321e-21  1.9686e-25  1.0321e-21  1.9692e-25  1.0321e-21  1.9702e-25  1.0321e-21  1.9721e-25  1.0322e-21  1.9755e-25  1.0323e-21  1.9815e-25  1.0325e-21  2.0188e-25  1.0463e-21  2.0615e-25  1.0586e-21  2.1095e-25  1.0663e-21  2.1791e-25  1.0720e-21  2.2940e-25  1.0774e-21  2.4933e-25  1.0845e-21  2.8454e-25  1.0956e-21  3.4714e-25  1.1146e-21  4.5878e-25  1.1484e-21  6.5867e-25  1.2095e-21  1.0177e-24  1.3216e-21  1.6658e-24  1.5328e-21
      8.05  1.9679e-25  1.1564e-21  1.9682e-25  1.1564e-21  1.9687e-25  1.1564e-21  1.9696e-25  1.1564e-21  1.9713e-25  1.1565e-21  1.9743e-25  1.1566e-21  1.9796e-25  1.1568e-21  2.0105e-25  1.1693e-21  2.0532e-25  1.1844e-21  2.0987e-25  1.1937e-21  2.1623e-25  1.2004e-21  2.2655e-25  1.2066e-21  2.4435e-25  1.2144e-21  2.7573e-25  1.2265e-21  3.3148e-25  1.2471e-21  4.3091e-25  1.2835e-21  6.0881e-25  1.3491e-21  9.2836e-25  1.4694e-21  1.5052e-24  1.6951e-21
      8.10  1.9675e-25  1.2957e-21  1.9678e-25  1.2957e-21  1.9683e-25  1.2957e-21  1.9691e-25  1.2958e-21  1.9706e-25  1.2958e-21  1.9733e-25  1.2960e-21  1.9780e-25  1.2962e-21  2.0013e-25  1.3060e-21  2.0447e-25  1.3247e-21  2.0882e-25  1.3362e-21  2.1464e-25  1.3442e-21  2.2388e-25  1.3513e-21  2.3970e-25  1.3600e-21  2.6752e-25  1.3731e-21  3.1690e-25  1.3954e-21  4.0494e-25  1.4347e-21  5.6242e-25  1.5054e-21  8.4521e-25  1.6346e-21  1.3556e-24  1.8761e-21
      8.15  1.9673e-25  1.4519e-21  1.9675e-25  1.4519e-21  1.9679e-25  1.4520e-21  1.9687e-25  1.4520e-21  1.9700e-25  1.4521e-21  1.9723e-25  1.4522e-21  1.9765e-25  1.4524e-21  1.9910e-25  1.4579e-21  2.0359e-25  1.4812e-21  2.0780e-25  1.4954e-21  2.1314e-25  1.5051e-21  2.2141e-25  1.5134e-21  2.3543e-25  1.5231e-21  2.6000e-25  1.5375e-21  3.0355e-25  1.5617e-21  3.8116e-25  1.6042e-21  5.1994e-25  1.6805e-21  7.6908e-25  1.8196e-21  1.2185e-24  2.0786e-21
      8.20  1.9670e-25  1.6271e-21  1.9672e-25  1.6271e-21  1.9676e-25  1.6271e-21  1.9683e-25  1.6272e-21  1.9694e-25  1.6272e-21  1.9715e-25  1.6274e-21  1.9751e-25  1.6276e-21  1.9816e-25  1.6281e-21  2.0266e-25  1.6556e-21  2.0681e-25  1.6734e-21  2.1176e-25  1.6852e-21  2.1917e-25  1.6949e-21  2.3157e-25  1.7058e-21  2.5321e-25  1.7217e-21  2.9151e-25  1.7481e-21  3.5972e-25  1.7942e-21  4.8163e-25  1.8767e-21  7.0042e-25  2.0268e-21  1.0949e-24  2.3053e-21
      8.25  1.9668e-25  1.8235e-21  1.9670e-25  1.8235e-21  1.9673e-25  1.8235e-21  1.9679e-25  1.8236e-21  1.9689e-25  1.8236e-21  1.9707e-25  1.8238e-21  1.9739e-25  1.8241e-21  1.9796e-25  1.8245e-21  2.0169e-25  1.8498e-21  2.0584e-25  1.8721e-21  2.1048e-25  1.8866e-21  2.1715e-25  1.8982e-21  2.2812e-25  1.9106e-21  2.4716e-25  1.9282e-21  2.8079e-25  1.9571e-21  3.4063e-25  2.0072e-21  4.4758e-25  2.0968e-21  6.3937e-25  2.2593e-21  9.8508e-25  2.5597e-21
      8.30  1.9666e-25  2.0439e-21  1.9668e-25  2.0439e-21  1.9671e-25  2.0439e-21  1.9676e-25  2.0439e-21  1.9685e-25  2.0440e-21  1.9701e-25  2.0442e-21  1.9729e-25  2.0445e-21  1.9779e-25  2.0450e-21  2.0066e-25  2.0660e-21  2.0489e-25  2.0941e-21  2.0929e-25  2.1121e-21  2.1533e-25  2.1260e-21  2.2507e-25  2.1403e-21  2.4182e-25  2.1599e-21  2.7135e-25  2.1915e-21  3.2384e-25  2.2464e-21  4.1759e-25  2.3439e-21  5.8569e-25  2.5206e-21  8.8849e-25  2.8461e-21
      8.35  1.9665e-25  2.2910e-21  1.9666e-25  2.2910e-21  1.9669e-25  2.2910e-21  1.9673e-25  2.2911e-21  1.9681e-25  2.2912e-21  1.9695e-25  2.2914e-21  1.9720e-25  2.2917e-21  1.9763e-25  2.2922e-21  1.9956e-25  2.3062e-21  2.0394e-25  2.3417e-21  2.0819e-25  2.3643e-21  2.1371e-25  2.3810e-21  2.2238e-25  2.3976e-21  2.3716e-25  2.4195e-21  2.6312e-25  2.4544e-21  3.0920e-25  2.5145e-21  3.9147e-25  2.6212e-21  5.3890e-25  2.8138e-21  8.0433e-25  3.1676e-21
      8.40  1.9664e-25  2.5681e-21  1.9665e-25  2.5681e-21  1.9667e-25  2.5681e-21  1.9671e-25  2.5682e-21  1.9678e-25  2.5683e-21  1.9690e-25  2.5685e-21  1.9712e-25  2.5688e-21  1.9750e-25  2.5695e-21  1.9837e-25  2.5729e-21  2.0298e-25  2.6179e-21  2.0716e-25  2.6461e-21  2.1226e-25  2.6665e-21  2.2003e-25  2.6858e-21  2.3311e-25  2.7105e-21  2.5597e-25  2.7492e-21  2.9651e-25  2.8153e-21  3.6883e-25  2.9322e-21  4.9838e-25  3.1429e-21  7.3148e-25  3.5288e-21
      8.45  1.9662e-25  2.8788e-21  1.9663e-25  2.8788e-21  1.9665e-25  2.8789e-21  1.9669e-25  2.8790e-21  1.9675e-25  2.8791e-21  1.9686e-25  2.8793e-21  1.9705e-25  2.8797e-21  1.9739e-25  2.8803e-21  1.9799e-25  2.8816e-21  2.0200e-25  2.9256e-21  2.0618e-25  2.9610e-21  2.1096e-25  2.9860e-21  2.1797e-25  3.0087e-21  2.2959e-25  3.0367e-21  2.4980e-25  3.0797e-21  2.8556e-25  3.1526e-21  3.4930e-25  3.2811e-21  4.6342e-25  3.5122e-21  6.6866e-25  3.9342e-21
      8.50  1.9661e-25  3.2273e-21  1.9662e-25  3.2273e-21  1.9664e-25  3.2274e-21  1.9667e-25  3.2274e-21  1.9672e-25  3.2276e-21  1.9682e-25  3.2278e-21  1.9699e-25  3.2282e-21  1.9729e-25  3.2290e-21  1.9782e-25  3.2303e-21  2.0099e-25  3.2681e-21  2.0524e-25  3.3128e-21  2.0979e-25  3.3435e-21  2.1617e-25  3.3703e-21  2.2654e-25  3.4022e-21  2.4447e-25  3.4502e-21  2.7611e-25  3.5308e-21  3.3247e-25  3.6725e-21  4.3332e-25  3.9266e-21  6.1458e-25  4.3894e-21
