# This was generated using Cloudy10 and the columns are ordered 
# as log10 of the fraction of the metallicity to the solar metallicity
# 'h_*_Z' and 'c_*_Z' stands for cooling and heating respectively 
# at * metalicity
#
# NOTE: This was generated separately from loop_coolingcurve_w_UV.py
#       using Output_metals_w_redshift.py.
#
# Redshift = 2.0
# hden = 0.0
#
#     temp   h_-3.00_Z   c_-3.00_Z   h_-2.75_Z   c_-2.75_Z   h_-2.50_Z   c_-2.50_Z   h_-2.25_Z   c_-2.25_Z   h_-2.00_Z   c_-2.00_Z   h_-1.75_Z   c_-1.75_Z   h_-1.50_Z   c_-1.50_Z   h_-1.25_Z   c_-1.25_Z   h_-1.00_Z   c_-1.00_Z   h_-0.75_Z   c_-0.75_Z   h_-0.50_Z   c_-0.50_Z   h_-0.25_Z   c_-0.25_Z    h_0.00_Z    c_0.00_Z    h_0.25_Z    c_0.25_Z    h_0.50_Z    c_0.50_Z    h_0.75_Z    c_0.75_Z    h_1.00_Z    c_1.00_Z    h_1.25_Z    c_1.25_Z    h_1.50_Z    c_1.50_Z 
      4.00  2.2291e-24  1.1911e-24  2.2291e-24  1.1967e-24  2.2291e-24  1.2067e-24  2.2292e-24  1.2245e-24  2.2293e-24  1.2561e-24  2.2295e-24  1.3124e-24  2.2299e-24  1.4124e-24  2.2305e-24  1.5903e-24  2.2317e-24  1.9067e-24  2.2337e-24  2.4694e-24  2.2374e-24  3.4703e-24  2.2439e-24  5.2511e-24  2.2554e-24  8.4206e-24  2.2760e-24  1.4066e-23  2.3125e-24  2.4131e-23  2.3774e-24  4.2118e-23  2.4931e-24  7.4375e-23  2.6989e-24  1.3260e-22  3.0655e-24  2.3882e-22
      4.05  2.1069e-24  2.9687e-24  2.1069e-24  2.9758e-24  2.1069e-24  2.9885e-24  2.1070e-24  3.0111e-24  2.1071e-24  3.0512e-24  2.1073e-24  3.1227e-24  2.1077e-24  3.2497e-24  2.1083e-24  3.4755e-24  2.1095e-24  3.8772e-24  2.1115e-24  4.5917e-24  2.1151e-24  5.8624e-24  2.1215e-24  8.1233e-24  2.1330e-24  1.2147e-23  2.1533e-24  1.9314e-23  2.1895e-24  3.2092e-23  2.2538e-24  5.4924e-23  2.3685e-24  9.5864e-23  2.5726e-24  1.6974e-22  2.9368e-24  3.0446e-22
      4.10  1.9787e-24  7.8723e-24  1.9787e-24  7.8814e-24  1.9788e-24  7.8976e-24  1.9788e-24  7.9264e-24  1.9789e-24  7.9775e-24  1.9791e-24  8.0685e-24  1.9795e-24  8.2302e-24  1.9801e-24  8.5179e-24  1.9812e-24  9.0294e-24  1.9832e-24  9.9393e-24  1.9868e-24  1.1558e-23  1.9931e-24  1.4437e-23  2.0044e-24  1.9562e-23  2.0244e-24  2.8688e-23  2.0599e-24  4.4960e-23  2.1233e-24  7.4033e-23  2.2361e-24  1.2616e-22  2.4370e-24  2.2020e-22  2.7961e-24  3.9163e-22
      4.15  1.8207e-24  1.9535e-23  1.8207e-24  1.9546e-23  1.8208e-24  1.9567e-23  1.8208e-24  1.9603e-23  1.8209e-24  1.9668e-23  1.8211e-24  1.9783e-23  1.8215e-24  1.9987e-23  1.8221e-24  2.0351e-23  1.8232e-24  2.0997e-23  1.8251e-24  2.2147e-23  1.8286e-24  2.4192e-23  1.8347e-24  2.7831e-23  1.8456e-24  3.4308e-23  1.8649e-24  4.5841e-23  1.8993e-24  6.6405e-23  1.9607e-24  1.0314e-22  2.0699e-24  1.6901e-22  2.2645e-24  2.8781e-22  2.6117e-24  5.0435e-22
      4.20  1.5777e-24  4.2081e-23  1.5777e-24  4.2095e-23  1.5777e-24  4.2120e-23  1.5778e-24  4.2165e-23  1.5779e-24  4.2245e-23  1.5781e-24  4.2387e-23  1.5784e-24  4.2640e-23  1.5790e-24  4.3089e-23  1.5800e-24  4.3888e-23  1.5818e-24  4.5309e-23  1.5850e-24  4.7837e-23  1.5908e-24  5.2334e-23  1.6010e-24  6.0338e-23  1.6192e-24  7.4592e-23  1.6516e-24  1.0000e-22  1.7092e-24  1.4540e-22  1.8118e-24  2.2678e-22  1.9948e-24  3.7353e-22  2.3207e-24  6.4092e-22
      4.25  1.1978e-24  7.1648e-23  1.1978e-24  7.1665e-23  1.1978e-24  7.1695e-23  1.1979e-24  7.1748e-23  1.1980e-24  7.1843e-23  1.1982e-24  7.2012e-23  1.1984e-24  7.2313e-23  1.1990e-24  7.2847e-23  1.1999e-24  7.3797e-23  1.2015e-24  7.5487e-23  1.2044e-24  7.8493e-23  1.2096e-24  8.3841e-23  1.2189e-24  9.3358e-23  1.2353e-24  1.1031e-22  1.2645e-24  1.4052e-22  1.3164e-24  1.9448e-22  1.4087e-24  2.9118e-22  1.5728e-24  4.6550e-22  1.8648e-24  7.8290e-22
      4.30  7.7278e-25  8.9049e-23  7.7279e-25  8.9068e-23  7.7282e-25  8.9103e-23  7.7287e-25  8.9166e-23  7.7295e-25  8.9276e-23  7.7309e-25  8.9473e-23  7.7334e-25  8.9824e-23  7.7380e-25  9.0446e-23  7.7460e-25  9.1554e-23  7.7603e-25  9.3525e-23  7.7858e-25  9.7029e-23  7.8310e-25  1.0326e-22  7.9114e-25  1.1436e-22  8.0545e-25  1.3412e-22  8.3090e-25  1.6934e-22  8.7612e-25  2.3223e-22  9.5648e-25  3.4491e-22  1.0992e-24  5.4796e-22  1.3527e-24  9.1746e-22
      4.35  4.7364e-25  8.4936e-23  4.7365e-25  8.4959e-23  4.7367e-25  8.5001e-23  4.7371e-25  8.5076e-23  4.7378e-25  8.5208e-23  4.7390e-25  8.5444e-23  4.7412e-25  8.5863e-23  4.7450e-25  8.6608e-23  4.7519e-25  8.7933e-23  4.7640e-25  9.0290e-23  4.7857e-25  9.4482e-23  4.8242e-25  1.0194e-22  4.8928e-25  1.1521e-22  5.0146e-25  1.3884e-22  5.2312e-25  1.8096e-22  5.6165e-25  2.5618e-22  6.3013e-25  3.9094e-22  7.5181e-25  6.3376e-22  9.6789e-25  1.0757e-21
      4.40  3.1473e-25  7.0884e-23  3.1475e-25  7.0913e-23  3.1476e-25  7.0965e-23  3.1479e-25  7.1057e-23  3.1485e-25  7.1220e-23  3.1495e-25  7.1511e-23  3.1513e-25  7.2027e-23  3.1545e-25  7.2945e-23  3.1602e-25  7.4578e-23  3.1702e-25  7.7482e-23  3.1882e-25  8.2648e-23  3.2201e-25  9.1837e-23  3.2768e-25  1.0819e-22  3.3777e-25  1.3731e-22  3.5574e-25  1.8922e-22  3.8774e-25  2.8191e-22  4.4468e-25  4.4799e-22  5.4593e-25  7.4733e-22  7.2610e-25  1.2922e-21
      4.45  2.2716e-25  5.6930e-23  2.2717e-25  5.6967e-23  2.2719e-25  5.7032e-23  2.2721e-25  5.7147e-23  2.2726e-25  5.7351e-23  2.2734e-25  5.7715e-23  2.2749e-25  5.8362e-23  2.2775e-25  5.9512e-23  2.2821e-25  6.1558e-23  2.2903e-25  6.5197e-23  2.3050e-25  7.1668e-23  2.3346e-25  8.3182e-23  2.3874e-25  1.0367e-22  2.4815e-25  1.4016e-22  2.6492e-25  2.0519e-22  2.9478e-25  3.2134e-22  3.4785e-25  5.2950e-22  4.4227e-25  9.0472e-22  6.1066e-25  1.5878e-21
      4.50  1.6094e-25  4.6063e-23  1.6094e-25  4.6109e-23  1.6096e-25  4.6191e-23  1.6098e-25  4.6337e-23  1.6102e-25  4.6596e-23  1.6109e-25  4.7057e-23  1.6121e-25  4.7876e-23  1.6143e-25  4.9334e-23  1.6182e-25  5.1926e-23  1.6273e-25  5.6536e-23  1.6437e-25  6.4737e-23  1.6728e-25  7.9325e-23  1.7246e-25  1.0529e-22  1.8172e-25  1.5151e-22  1.9818e-25  2.3391e-22  2.2737e-25  3.8111e-22  2.7922e-25  6.4489e-22  3.7115e-25  1.1204e-21  5.3444e-25  1.9863e-21
      4.55  1.0340e-25  3.7865e-23  1.0341e-25  3.7924e-23  1.0342e-25  3.8029e-23  1.0344e-25  3.8215e-23  1.0347e-25  3.8547e-23  1.0353e-25  3.9136e-23  1.0364e-25  4.0184e-23  1.0384e-25  4.2049e-23  1.0434e-25  4.5364e-23  1.0524e-25  5.1260e-23  1.0684e-25  6.1747e-23  1.0968e-25  8.0404e-23  1.1476e-25  1.1360e-22  1.2380e-25  1.7273e-22  1.3983e-25  2.7813e-22  1.6828e-25  4.6640e-22  2.1862e-25  8.0383e-22  3.0771e-25  1.4122e-21  4.6531e-25  2.5205e-21
      4.60  6.3955e-26  3.1381e-23  6.3961e-26  3.1457e-23  6.3970e-26  3.1591e-23  6.3987e-26  3.1830e-23  6.4016e-26  3.2255e-23  6.4069e-26  3.3011e-23  6.4162e-26  3.4354e-23  6.4410e-26  3.6744e-23  6.4878e-26  4.0994e-23  6.5710e-26  4.8552e-23  6.7194e-26  6.1996e-23  6.9844e-26  8.5914e-23  7.4563e-26  1.2848e-22  8.2957e-26  2.0428e-22  9.7858e-26  3.3944e-22  1.2431e-25  5.8089e-22  1.7117e-25  1.0138e-21  2.5411e-25  1.7947e-21  4.0087e-25  3.2187e-21
      4.65  4.3220e-26  2.6957e-23  4.3224e-26  2.7054e-23  4.3232e-26  2.7225e-23  4.3246e-26  2.7531e-23  4.3272e-26  2.8073e-23  4.3317e-26  2.9039e-23  4.3412e-26  3.0756e-23  4.3644e-26  3.3809e-23  4.4057e-26  3.9239e-23  4.4794e-26  4.8897e-23  4.6108e-26  6.6076e-23  4.8454e-26  9.6639e-23  5.2633e-26  1.5104e-22  6.0067e-26  2.4792e-22  7.3306e-26  4.2068e-22  9.6788e-26  7.2942e-22  1.3842e-25  1.2832e-21  2.1233e-25  2.2832e-21  3.4362e-25  4.1096e-21
      4.70  3.3455e-26  2.5799e-23  3.3459e-26  2.5921e-23  3.3466e-26  2.6140e-23  3.3478e-26  2.6528e-23  3.3500e-26  2.7219e-23  3.3539e-26  2.8448e-23  3.3629e-26  3.0633e-23  3.3826e-26  3.4518e-23  3.4178e-26  4.1428e-23  3.4806e-26  5.3718e-23  3.5929e-26  7.5579e-23  3.7932e-26  1.1447e-22  4.1505e-26  1.8371e-22  4.7863e-26  3.0703e-22  5.9157e-26  5.2701e-22  7.9203e-26  9.2029e-22  1.1484e-25  1.6263e-21  1.7821e-25  2.9029e-21  2.9106e-25  5.2399e-21
      4.75  2.8468e-26  3.0324e-23  2.8472e-26  3.0479e-23  2.8478e-26  3.0755e-23  2.8489e-26  3.1246e-23  2.8508e-26  3.2118e-23  2.8542e-26  3.3670e-23  2.8618e-26  3.6430e-23  2.8781e-26  4.1338e-23  2.9073e-26  5.0067e-23  2.9595e-26  6.5592e-23  3.0532e-26  9.3210e-23  3.2201e-26  1.4235e-22  3.5170e-26  2.2983e-22  4.0450e-26  3.8569e-22  4.9833e-26  6.6380e-22  6.6503e-26  1.1613e-21  9.6126e-26  2.0554e-21  1.4881e-25  3.6748e-21  2.4268e-25  6.6480e-21
      4.80  2.4543e-26  4.3655e-23  2.4546e-26  4.3848e-23  2.4552e-26  4.4193e-23  2.4561e-26  4.4805e-23  2.4579e-26  4.5895e-23  2.4610e-26  4.7832e-23  2.4670e-26  5.1277e-23  2.4805e-26  5.7404e-23  2.5047e-26  6.8301e-23  2.5480e-26  8.7682e-23  2.6257e-26  1.2216e-22  2.7635e-26  1.8351e-22  3.0089e-26  2.9275e-22  3.4456e-26  4.8741e-22  4.2211e-26  8.3488e-22  5.5981e-26  1.4569e-21  8.0455e-26  2.5759e-21  1.2396e-25  4.6067e-21  2.0143e-25  8.3461e-21
      4.85  1.9212e-26  6.4608e-23  1.9215e-26  6.4846e-23  1.9220e-26  6.5268e-23  1.9230e-26  6.6020e-23  1.9246e-26  6.7356e-23  1.9276e-26  6.9732e-23  1.9328e-26  7.3958e-23  1.9438e-26  8.1473e-23  1.9642e-26  9.4838e-23  2.0008e-26  1.1861e-22  2.0661e-26  1.6091e-22  2.1821e-26  2.3617e-22  2.3888e-26  3.7019e-22  2.7558e-26  6.0906e-22  3.4072e-26  1.0356e-21  4.5634e-26  1.7996e-21  6.6155e-26  3.1757e-21  1.0257e-25  5.6773e-21  1.6737e-25  1.0297e-20
      4.90  1.2350e-26  8.0345e-23  1.2353e-26  8.0628e-23  1.2359e-26  8.1131e-23  1.2368e-26  8.2025e-23  1.2384e-26  8.3616e-23  1.2414e-26  8.6446e-23  1.2467e-26  9.1477e-23  1.2563e-26  1.0043e-22  1.2736e-26  1.1634e-22  1.3050e-26  1.4465e-22  1.3618e-26  1.9501e-22  1.4627e-26  2.8463e-22  1.6424e-26  4.4423e-22  1.9605e-26  7.2872e-22  2.5227e-26  1.2368e-21  3.5167e-26  2.1472e-21  5.2761e-26  3.7877e-21  8.3886e-26  6.7734e-21  1.3924e-25  1.2297e-20
      4.95  6.5641e-27  7.9393e-23  6.5670e-27  7.9718e-23  6.5722e-27  8.0295e-23  6.5813e-27  8.1321e-23  6.5977e-27  8.3146e-23  6.6273e-27  8.6391e-23  6.6809e-27  9.2163e-23  6.7797e-27  1.0243e-22  6.9595e-27  1.2068e-22  7.2810e-27  1.5315e-22  7.8521e-27  2.1092e-22  8.8661e-27  3.1372e-22  1.0652e-26  4.9679e-22  1.3787e-26  8.2314e-22  1.9292e-26  1.4060e-21  2.8960e-26  2.4506e-21  4.5967e-26  4.3335e-21  7.6051e-26  7.7621e-21  1.2958e-25  1.4113e-20
      5.00  3.2005e-27  6.7542e-23  3.2032e-27  6.7899e-23  3.2080e-27  6.8534e-23  3.2167e-27  6.9665e-23  3.2324e-27  7.1675e-23  3.2612e-27  7.5249e-23  3.3152e-27  8.1605e-23  3.4169e-27  9.2908e-23  3.6035e-27  1.1301e-22  3.9386e-27  1.4877e-22  4.5196e-27  2.1239e-22  5.5339e-27  3.2563e-22  7.2955e-27  5.2728e-22  1.0338e-26  8.8683e-22  1.5596e-26  1.5292e-21  2.4734e-26  2.6810e-21  4.0715e-26  4.7591e-21  6.8941e-26  8.5493e-21  1.1903e-25  1.5589e-20
      5.05  1.5700e-27  5.4063e-23  1.5725e-27  5.4430e-23  1.5769e-27  5.5083e-23  1.5850e-27  5.6244e-23  1.6003e-27  5.8308e-23  1.6297e-27  6.1979e-23  1.6848e-27  6.8507e-23  1.7956e-27  8.0117e-23  2.0053e-27  1.0077e-22  2.3502e-27  1.3750e-22  2.9398e-27  2.0284e-22  3.9387e-27  3.1916e-22  5.6234e-27  5.2634e-22  8.4416e-27  8.9584e-22  1.3215e-26  1.5563e-21  2.1415e-26  2.7414e-21  3.5741e-26  4.8828e-21  6.1006e-26  8.7974e-21  1.0542e-25  1.6097e-20
      5.10  8.1126e-28  4.2687e-23  8.1349e-28  4.3044e-23  8.1773e-28  4.3679e-23  8.2605e-28  4.4808e-23  8.4310e-28  4.6817e-23  8.7416e-28  5.0389e-23  9.3813e-28  5.6740e-23  1.0758e-27  6.8036e-23  1.3030e-27  8.8128e-23  1.6738e-27  1.2387e-22  2.2745e-27  1.8746e-22  3.2447e-27  3.0066e-22  4.8088e-27  5.0231e-22  7.3459e-27  8.6206e-22  1.1577e-26  1.5054e-21  1.8680e-26  2.6608e-21  3.0948e-26  4.7514e-21  5.2675e-26  8.5831e-21  9.1286e-26  1.5757e-20
      5.15  4.4905e-28  3.3949e-23  4.5130e-28  3.4303e-23  4.5594e-28  3.4935e-23  4.6618e-28  3.6057e-23  4.8569e-28  3.8052e-23  5.2452e-28  4.1601e-23  6.1086e-28  4.7912e-23  7.7213e-28  5.9135e-23  1.0290e-27  7.9098e-23  1.4289e-27  1.1461e-22  2.0338e-27  1.7780e-22  2.9639e-27  2.9029e-22  4.4126e-27  4.9071e-22  6.7163e-27  8.4833e-22  1.0226e-26  1.4881e-21  1.6340e-26  2.6380e-21  2.7114e-26  4.7213e-21  4.6254e-26  8.5474e-21  8.0382e-26  1.5735e-20
      5.20  2.6735e-28  2.7413e-23  2.6989e-28  2.7779e-23  2.7577e-28  2.8429e-23  2.8961e-28  2.9586e-23  3.1440e-28  3.1643e-23  3.6974e-28  3.5301e-23  4.9259e-28  4.1806e-23  6.6894e-28  5.3375e-23  9.4515e-28  7.3954e-23  1.3690e-27  1.1056e-22  1.9785e-27  1.7570e-22  2.8708e-27  2.9167e-22  4.1971e-27  4.9833e-22  5.9961e-27  8.6714e-22  9.1127e-27  1.5272e-21  1.4609e-26  2.7142e-21  2.4370e-26  4.8670e-21  4.1776e-26  8.8278e-21  7.2956e-26  1.6290e-20
      5.25  1.7098e-28  2.2514e-23  1.7420e-28  2.2891e-23  1.8243e-28  2.3561e-23  2.0178e-28  2.4753e-23  2.4100e-28  2.6872e-23  3.1163e-28  3.0641e-23  4.4877e-28  3.7344e-23  6.4306e-28  4.9264e-23  9.2631e-28  7.0467e-23  1.3511e-27  1.0819e-22  1.9566e-27  1.7531e-22  2.8177e-27  2.9482e-22  3.7979e-27  5.0780e-22  5.4756e-27  8.8799e-22  8.4151e-27  1.5686e-21  1.3603e-26  2.7935e-21  2.2801e-26  5.0173e-21  3.9232e-26  9.1164e-21  6.8852e-26  1.6863e-20
      5.30  1.1727e-28  1.8805e-23  1.2204e-28  1.9188e-23  1.3516e-28  1.9869e-23  1.6807e-28  2.1081e-23  2.1048e-28  2.3235e-23  2.8891e-28  2.7067e-23  4.3094e-28  3.3881e-23  6.2693e-28  4.6000e-23  9.2069e-28  6.7556e-23  1.3245e-27  1.0591e-22  1.9434e-27  1.7415e-22  2.5942e-27  2.9567e-22  3.5415e-27  5.1226e-22  5.0802e-27  8.9897e-22  7.7211e-27  1.5916e-21  1.2377e-26  2.8388e-21  2.0516e-26  5.1061e-21  3.5117e-26  9.2936e-21  6.1534e-26  1.7233e-20
      5.35  8.6407e-29  1.5975e-23  9.4250e-29  1.6365e-23  1.1633e-28  1.7059e-23  1.5063e-28  1.8292e-23  1.9737e-28  2.0485e-23  2.7603e-28  2.4385e-23  4.1821e-28  3.1322e-23  6.1254e-28  4.3658e-23  8.9567e-28  6.5601e-23  1.3431e-27  1.0464e-22  1.9024e-27  1.7411e-22  2.4120e-27  2.9783e-22  3.2431e-27  5.1837e-22  4.6332e-27  9.1222e-22  7.0271e-27  1.6179e-21  1.1138e-26  2.8896e-21  1.8478e-26  5.2041e-21  3.1643e-26  9.4875e-21  5.5540e-26  1.7635e-20
      5.40  6.7476e-29  1.3765e-23  7.7990e-29  1.4145e-23  1.0305e-28  1.4820e-23  1.3308e-28  1.6022e-23  1.8201e-28  1.8158e-23  2.5469e-28  2.1958e-23  3.8329e-28  2.8715e-23  6.0054e-28  4.0733e-23  8.9714e-28  6.2109e-23  1.3924e-27  1.0014e-22  1.7747e-27  1.6783e-22  2.2586e-27  2.8837e-22  3.0557e-27  5.0328e-22  4.3758e-27  8.8719e-22  6.6398e-27  1.5754e-21  1.0495e-26  2.8166e-21  1.7283e-26  5.0788e-21  2.9511e-26  9.2755e-21  5.1770e-26  1.7288e-20
      5.45  5.2862e-29  1.1970e-23  6.0936e-29  1.2288e-23  8.3219e-29  1.2855e-23  1.0897e-28  1.3862e-23  1.4958e-28  1.5653e-23  2.2096e-28  1.8838e-23  3.3904e-28  2.4502e-23  5.3573e-28  3.4576e-23  8.8521e-28  5.2495e-23  1.4101e-27  8.4374e-23  1.7265e-27  1.4112e-22  2.2236e-27  2.4219e-22  3.0132e-27  4.2241e-22  4.2071e-27  7.4447e-22  6.2128e-27  1.3222e-21  9.6485e-27  2.3653e-21  1.5691e-26  4.2702e-21  2.6551e-26  7.8154e-21  4.6440e-26  1.4619e-20
      5.50  4.1291e-29  1.0474e-23  4.4745e-29  1.0704e-23  5.4218e-29  1.1112e-23  8.0061e-29  1.1838e-23  1.1666e-28  1.3130e-23  1.7899e-28  1.5426e-23  2.9294e-28  1.9510e-23  4.9413e-28  2.6773e-23  8.3444e-28  3.9692e-23  1.3246e-27  6.2678e-23  1.7480e-27  1.0359e-22  2.2646e-27  1.7648e-22  2.9124e-27  3.0647e-22  3.9328e-27  5.3887e-22  5.5397e-27  9.5600e-22  8.2993e-27  1.7100e-21  1.3171e-26  3.0896e-21  2.1921e-26  5.6653e-21  3.7923e-26  1.0633e-20
      5.55  3.3846e-29  9.3081e-24  3.5639e-29  9.4808e-24  4.0415e-29  9.7879e-24  5.3621e-29  1.0334e-23  8.6771e-29  1.1305e-23  1.5336e-28  1.3032e-23  2.7466e-28  1.6103e-23  4.9117e-28  2.1565e-23  8.5204e-28  3.1280e-23  1.2993e-27  4.8567e-23  1.7460e-27  7.9339e-23  2.2069e-27  1.3416e-22  2.7556e-27  2.3195e-22  3.5369e-27  4.0682e-22  4.8337e-27  7.2084e-22  7.0205e-27  1.2889e-21  1.0892e-26  2.3294e-21  1.7863e-26  4.2762e-21  3.0565e-26  8.0426e-21
      5.60  2.9129e-29  8.4956e-24  3.0978e-29  8.6470e-24  3.5694e-29  8.8279e-24  4.9558e-29  9.3019e-24  7.6066e-29  1.0145e-23  1.3898e-28  1.1644e-23  2.7681e-28  1.4309e-23  5.1158e-28  1.9050e-23  9.1958e-28  2.7482e-23  1.2792e-27  4.2488e-23  1.6924e-27  6.9200e-23  2.0198e-27  1.1679e-22  2.4468e-27  2.0170e-22  3.1043e-27  3.5354e-22  4.1966e-27  6.2627e-22  6.0398e-27  1.1198e-21  9.2901e-27  2.0247e-21  1.5136e-26  3.7195e-21  2.5779e-26  7.0047e-21
      5.65  2.5343e-29  7.7119e-24  2.7590e-29  7.8550e-24  3.3873e-29  8.1095e-24  5.0899e-29  8.5619e-24  8.4013e-29  9.3665e-24  1.5037e-28  1.0797e-23  2.8572e-28  1.3342e-23  5.3908e-28  1.7867e-23  9.6391e-28  2.5917e-23  1.2787e-27  4.0242e-23  1.6201e-27  6.5743e-23  1.8648e-27  1.1118e-22  2.2416e-27  1.9224e-22  2.8188e-27  3.3723e-22  3.8068e-27  5.9769e-22  5.4717e-27  1.0692e-21  8.4179e-27  1.9340e-21  1.3714e-26  3.5554e-21  2.3379e-26  6.7023e-21
      5.70  2.2569e-29  7.1552e-24  2.5260e-29  7.2953e-24  3.3270e-29  7.6197e-24  5.4506e-29  7.9872e-24  9.0176e-29  8.7747e-24  1.6488e-28  1.0175e-23  3.1650e-28  1.2665e-23  5.9965e-28  1.7094e-23  9.4033e-28  2.4974e-23  1.1949e-27  3.8996e-23  1.4521e-27  6.3958e-23  1.6914e-27  1.0843e-22  2.0278e-27  1.8779e-22  2.5572e-27  3.2973e-22  3.4721e-27  5.8476e-22  5.0502e-27  1.0466e-21  7.8372e-27  1.8941e-21  1.2861e-26  3.4842e-21  2.2066e-26  6.5743e-21
      5.75  2.0099e-29  6.6483e-24  2.2987e-29  6.7817e-24  3.1121e-29  7.0188e-24  5.2423e-29  7.4405e-24  9.4442e-29  8.1903e-24  1.7824e-28  9.5237e-24  3.5227e-28  1.1895e-23  6.2724e-28  1.6112e-23  8.3376e-28  2.3616e-23  1.0338e-27  3.6969e-23  1.2109e-27  6.0741e-23  1.4410e-27  1.0310e-22  1.7553e-27  1.7867e-22  2.2682e-27  3.1386e-22  3.1572e-27  5.5683e-22  4.6446e-27  9.9694e-22  7.3343e-27  1.8051e-21  1.2203e-26  3.3227e-21  2.1177e-26  6.2762e-21
      5.80  1.7910e-29  6.2577e-24  2.0844e-29  6.3802e-24  2.8712e-29  6.5980e-24  4.9847e-29  6.9852e-24  9.5578e-29  7.6738e-24  1.9444e-28  8.8983e-24  3.5997e-28  1.1076e-23  5.6147e-28  1.4950e-23  7.1502e-28  2.1842e-23  8.8179e-28  3.4106e-23  1.0235e-27  5.5940e-23  1.2579e-27  9.4842e-23  1.5718e-27  1.6426e-22  2.0693e-27  2.8846e-22  2.9303e-27  5.1172e-22  4.4390e-27  9.1630e-22  7.1347e-27  1.6597e-21  1.2051e-26  3.0572e-21  2.1195e-26  5.7815e-21
      5.85  1.6462e-29  5.9605e-24  1.9671e-29  6.0760e-24  2.8233e-29  6.2812e-24  5.0152e-29  6.6462e-24  1.0313e-28  7.2953e-24  2.1245e-28  8.4494e-24  3.3608e-28  1.0502e-23  4.9626e-28  1.4154e-23  6.2802e-28  2.0651e-23  7.9354e-28  3.2213e-23  9.5232e-28  5.2796e-23  1.1581e-27  8.9472e-23  1.4801e-27  1.5492e-22  2.0003e-27  2.7204e-22  2.9096e-27  4.8261e-22  4.5097e-27  8.6433e-22  7.3927e-27  1.5662e-21  1.2677e-26  2.8870e-21  2.2596e-26  5.4658e-21
      5.90  1.5475e-29  5.8015e-24  1.9027e-29  5.8593e-24  2.9233e-29  6.0642e-24  5.4409e-29  6.4285e-24  1.1262e-28  7.0764e-24  2.1545e-28  8.2286e-24  3.3786e-28  1.0278e-23  4.5049e-28  1.3924e-23  5.9771e-28  2.0410e-23  7.4604e-28  3.1952e-23  9.0120e-28  5.2500e-23  1.1086e-27  8.9116e-23  1.4565e-27  1.5446e-22  2.0475e-27  2.7141e-22  3.0707e-27  4.8171e-22  4.8932e-27  8.6310e-22  8.1943e-27  1.5647e-21  1.4287e-26  2.8864e-21  2.5837e-26  5.4708e-21
      5.95  1.4368e-29  5.6453e-24  1.8423e-29  5.7071e-24  2.9547e-29  5.9162e-24  5.7344e-29  6.2881e-24  1.2102e-28  6.9493e-24  2.2319e-28  8.1254e-24  3.4350e-28  1.0217e-23  4.5944e-28  1.3938e-23  5.7705e-28  2.0559e-23  7.0988e-28  3.2340e-23  8.8783e-28  5.3314e-23  1.1107e-27  9.0690e-23  1.4822e-27  1.5740e-22  2.1346e-27  2.7680e-22  3.2837e-27  4.9155e-22  5.3348e-27  8.8115e-22  9.0680e-27  1.5983e-21  1.5993e-26  2.9506e-21  2.9224e-26  5.5988e-21
      6.00  1.2953e-29  5.4802e-24  1.7004e-29  5.5983e-24  2.7839e-29  5.8081e-24  5.5457e-29  6.1812e-24  1.1952e-28  6.8446e-24  2.3762e-28  8.0243e-24  3.5531e-28  1.0123e-23  4.6620e-28  1.3856e-23  5.8354e-28  2.0498e-23  7.2396e-28  3.2317e-23  9.0429e-28  5.3361e-23  1.1726e-27  9.0861e-23  1.6144e-27  1.5780e-22  2.3910e-27  2.7762e-22  3.7736e-27  4.9318e-22  6.2676e-27  8.8441e-22  1.0821e-26  1.6051e-21  1.9311e-26  2.9654e-21  3.5664e-26  5.6339e-21
      6.05  1.1581e-29  5.4234e-24  1.5063e-29  5.5381e-24  2.4392e-29  5.7420e-24  4.8929e-29  6.1045e-24  1.0858e-28  6.7491e-24  2.3728e-28  7.8952e-24  3.6237e-28  9.9341e-24  4.7676e-28  1.3561e-23  5.9661e-28  2.0014e-23  7.3650e-28  3.1498e-23  9.1843e-28  5.1944e-23  1.2173e-27  8.8382e-23  1.7275e-27  1.5343e-22  2.6286e-27  2.6988e-22  4.2402e-27  4.7944e-22  7.1521e-27  8.5995e-22  1.2484e-26  1.5614e-21  2.2467e-26  2.8872e-21  4.1815e-26  5.4927e-21
      6.10  1.0558e-29  5.3984e-24  1.3389e-29  5.5071e-24  2.1047e-29  5.7005e-24  4.1415e-29  6.0442e-24  9.2390e-29  6.6555e-24  2.0638e-28  7.7422e-24  3.3990e-28  9.6754e-24  4.6640e-28  1.3114e-23  5.7726e-28  1.9233e-23  7.0512e-28  3.0122e-23  9.0723e-28  4.9510e-23  1.2351e-27  8.4063e-23  1.8085e-27  1.4575e-22  2.8300e-27  2.5621e-22  4.6576e-27  4.5504e-22  7.9630e-27  8.1623e-22  1.4032e-26  1.4826e-21  2.5434e-26  2.7438e-21  4.7638e-26  5.2272e-21
      6.15  9.8743e-30  5.4007e-24  1.2468e-29  5.5016e-24  1.9156e-29  5.6809e-24  3.6389e-29  5.9998e-24  7.7827e-29  6.5668e-24  1.5794e-28  7.5749e-24  2.5705e-28  9.3679e-24  3.9242e-28  1.2557e-23  5.0277e-28  1.8232e-23  6.3829e-28  2.8331e-23  8.5243e-28  4.6314e-23  1.2028e-27  7.8363e-23  1.8241e-27  1.3559e-22  2.9296e-27  2.3807e-22  4.9164e-27  4.2259e-22  8.5147e-27  7.5796e-22  1.5130e-26  1.3772e-21  2.7590e-26  2.5507e-21  5.1953e-26  4.8663e-21
      6.20  9.3658e-30  5.4251e-24  1.1822e-29  5.5152e-24  1.8078e-29  5.6754e-24  3.2884e-29  5.9603e-24  6.2547e-29  6.4667e-24  1.1765e-28  7.3673e-24  1.8777e-28  8.9690e-24  2.8023e-28  1.1818e-23  3.9267e-28  1.6887e-23  5.3741e-28  2.5907e-23  7.5142e-28  4.1969e-23  1.1176e-27  7.0597e-23  1.7552e-27  1.2172e-22  2.8956e-27  2.1328e-22  4.9441e-27  3.7821e-22  8.6595e-27  6.7811e-22  1.5500e-26  1.2323e-21  2.8413e-26  2.2842e-21  5.3747e-26  4.3639e-21
      6.25  8.6214e-30  5.4672e-24  1.0914e-29  5.5430e-24  1.6222e-29  5.6779e-24  2.6924e-29  5.9176e-24  4.8047e-29  6.3438e-24  8.6565e-29  7.1017e-24  1.3346e-28  8.4496e-24  2.0083e-28  1.0847e-23  2.9205e-28  1.5112e-23  4.2441e-28  2.2702e-23  6.3263e-28  3.6217e-23  9.8957e-28  6.0307e-23  1.6145e-27  1.0333e-22  2.7268e-27  1.8040e-22  4.7232e-27  3.1927e-22  8.3473e-27  5.7193e-22  1.5030e-26  1.0393e-21  2.7670e-26  1.9277e-21  5.2541e-26  3.6882e-21
      6.30  7.7506e-30  5.5507e-24  9.5484e-30  5.6112e-24  1.3192e-29  5.7188e-24  2.1251e-29  5.9101e-24  3.5442e-29  6.2502e-24  6.1867e-29  6.8550e-24  9.0510e-29  7.9305e-24  1.4081e-28  9.8433e-24  2.1782e-28  1.3246e-23  3.2916e-28  1.9301e-23  5.2146e-28  3.0084e-23  8.4912e-28  4.9304e-23  1.4293e-27  8.3632e-23  2.4590e-27  1.4514e-22  4.3096e-27  2.5601e-22  7.6710e-27  4.5785e-22  1.3876e-26  8.3160e-22  2.5636e-26  1.5431e-21  4.8841e-26  2.9566e-21
      6.35  6.9715e-30  5.6574e-24  8.2396e-30  5.7053e-24  1.0808e-29  5.7904e-24  1.6088e-29  5.9418e-24  2.6819e-29  6.2110e-24  4.5879e-29  6.6895e-24  6.3353e-29  7.5407e-24  9.5859e-29  9.0544e-24  1.5508e-28  1.1747e-23  2.5896e-28  1.6539e-23  4.2746e-28  2.5071e-23  7.2545e-28  4.0282e-23  1.2481e-27  6.7451e-23  2.1794e-27  1.1615e-22  3.8576e-27  2.0394e-22  6.9091e-27  3.6388e-22  1.2549e-26  6.6033e-22  2.3257e-26  1.2256e-21  4.4446e-26  2.3512e-21
      6.40  6.2777e-30  5.7865e-24  7.3449e-30  5.8254e-24  9.3261e-30  5.8945e-24  1.3069e-29  6.0174e-24  2.0076e-29  6.2360e-24  3.4776e-29  6.6246e-24  4.8185e-29  7.3157e-24  7.1862e-29  8.5449e-24  1.1758e-28  1.0731e-23  2.0513e-28  1.4622e-23  3.6280e-28  2.1551e-23  6.4079e-28  3.3902e-23  1.1316e-27  5.5967e-23  2.0090e-27  9.5521e-23  3.5937e-27  1.6686e-22  6.4778e-27  2.9690e-22  1.1817e-26  5.3817e-22  2.1975e-26  9.9895e-22  4.2142e-26  1.9187e-21
      6.45  5.6670e-30  5.9346e-24  6.6401e-30  5.9668e-24  8.2358e-30  6.0240e-24  1.1195e-29  6.1257e-24  1.6348e-29  6.3065e-24  2.6685e-29  6.6279e-24  4.1062e-29  7.1995e-24  6.2044e-29  8.2162e-24  1.0322e-28  1.0025e-23  1.8268e-28  1.3243e-23  3.3176e-28  1.8973e-23  6.0175e-28  2.9189e-23  1.0855e-27  4.7440e-23  1.9575e-27  8.0163e-23  3.5290e-27  1.3920e-22  6.3946e-27  2.4688e-22  1.1708e-26  4.4684e-22  2.1842e-26  8.2928e-22  4.2021e-26  1.5943e-21
      6.50  5.0450e-30  6.0996e-24  5.9515e-30  6.1263e-24  7.2010e-30  6.1738e-24  9.5624e-30  6.2584e-24  1.3589e-29  6.4087e-24  2.1412e-29  6.6759e-24  3.2390e-29  7.1511e-24  5.0483e-29  7.9962e-24  8.4981e-29  9.4995e-24  1.5215e-28  1.2174e-23  2.8118e-28  1.6938e-23  5.2290e-28  2.5430e-23  9.6288e-28  4.0602e-23  1.7582e-27  6.7809e-23  3.1988e-27  1.1691e-22  5.8301e-27  2.0650e-22  1.0716e-26  3.7300e-22  2.0050e-26  6.9183e-22  3.8685e-26  1.3307e-21
      6.55  4.5225e-30  6.3108e-24  5.3029e-30  6.3335e-24  6.2454e-30  6.3737e-24  8.1089e-30  6.4453e-24  1.1571e-29  6.5725e-24  1.8100e-29  6.7988e-24  2.7507e-29  7.2011e-24  4.2734e-29  7.9167e-24  7.3451e-29  9.1897e-24  1.3385e-28  1.1455e-23  2.5167e-28  1.5488e-23  4.7599e-28  2.2680e-23  8.9215e-28  3.5528e-23  1.6515e-27  5.8571e-23  3.0306e-27  1.0016e-22  5.5541e-27  1.7608e-22  1.0249e-26  3.1727e-22  1.9235e-26  5.8787e-22  3.7213e-26  1.1309e-21
      6.60  4.0912e-30  6.5398e-24  4.7171e-30  6.5597e-24  5.5477e-30  6.5950e-24  7.0117e-30  6.6578e-24  9.9781e-30  6.7694e-24  1.5933e-29  6.9679e-24  2.4627e-29  7.3208e-24  3.8528e-29  7.9486e-24  6.7221e-29  9.0653e-24  1.2516e-28  1.1053e-23  2.3911e-28  1.4591e-23  4.5836e-28  2.0901e-23  8.6968e-28  3.2174e-23  1.6276e-27  5.2394e-23  3.0132e-27  8.8897e-23  5.5540e-27  1.5554e-22  1.0289e-26  2.7954e-22  1.9364e-26  5.1737e-22  3.7556e-26  9.9512e-22
      6.65  3.7306e-30  6.7855e-24  4.2004e-30  6.8036e-24  4.9966e-30  6.9042e-24  6.0926e-30  6.8931e-24  8.5837e-30  6.9949e-24  1.4018e-29  7.1761e-24  2.1959e-29  7.4981e-24  3.5007e-29  8.0710e-24  6.2550e-29  9.0902e-24  1.1908e-28  1.0904e-23  2.3127e-28  1.4134e-23  4.4876e-28  1.9892e-23  8.6044e-28  3.0182e-23  1.6258e-27  4.8640e-23  3.0334e-27  8.1966e-23  5.6227e-27  1.4282e-22  1.0455e-26  2.5609e-22  1.9732e-26  4.7348e-22  3.8356e-26  9.1054e-22
      6.70  3.4266e-30  7.0466e-24  3.7410e-30  7.0637e-24  4.3588e-30  7.0942e-24  5.4294e-30  7.1483e-24  7.6447e-30  7.2445e-24  1.2984e-29  7.4156e-24  2.1993e-29  7.7200e-24  3.7159e-29  8.2613e-24  6.9329e-29  9.2242e-24  1.3505e-28  1.0938e-23  2.6467e-28  1.3990e-23  5.1504e-28  1.9431e-23  9.8930e-28  2.9155e-23  1.8721e-27  4.6598e-23  3.5000e-27  7.8095e-23  6.5019e-27  1.3563e-22  1.2112e-26  2.4274e-22  2.2894e-26  4.4841e-22  4.4573e-26  8.6221e-22
      6.75  3.1720e-30  7.3222e-24  3.3949e-30  7.3388e-24  3.9091e-30  7.3683e-24  4.8837e-30  7.4208e-24  7.1727e-30  7.5142e-24  1.2926e-29  7.6802e-24  2.3118e-29  7.9754e-24  4.1306e-29  8.5005e-24  7.9602e-29  9.4346e-24  1.5696e-28  1.1097e-23  3.0754e-28  1.4058e-23  5.9732e-28  1.9337e-23  1.1441e-27  2.8770e-23  2.1623e-27  4.5693e-23  4.0417e-27  7.6256e-23  7.5133e-27  1.3209e-22  1.4010e-26  2.3607e-22  2.6510e-26  4.3581e-22  5.1673e-26  8.3794e-22
      6.80  2.9613e-30  7.6514e-24  3.1120e-30  7.6679e-24  3.5413e-30  7.6971e-24  4.4607e-30  7.7492e-24  6.6989e-30  7.8416e-24  1.2328e-29  8.0061e-24  2.3809e-29  8.2985e-24  4.3636e-29  8.8187e-24  8.5482e-29  9.7440e-24  1.6865e-28  1.1391e-23  3.2957e-28  1.4324e-23  6.3856e-28  1.9553e-23  1.2220e-27  2.8899e-23  2.3093e-27  4.5666e-23  4.3206e-27  7.5948e-23  8.0441e-27  1.3128e-22  1.5024e-26  2.3434e-22  2.8468e-26  4.3241e-22  5.5561e-26  8.3140e-22
      6.85  2.7874e-30  7.9984e-24  2.8927e-30  8.0150e-24  3.2060e-30  8.0444e-24  4.0504e-30  8.0968e-24  6.0764e-30  8.1899e-24  1.1741e-29  8.3555e-24  2.4883e-29  8.6499e-24  4.7224e-29  9.1736e-24  9.4837e-29  1.0105e-23  1.8746e-28  1.1763e-23  3.6760e-28  1.4716e-23  7.1176e-28  1.9982e-23  1.3612e-27  2.9392e-23  2.5703e-27  4.6276e-23  4.8070e-27  7.6771e-23  8.9515e-27  1.3250e-22  1.6729e-26  2.3633e-22  3.1725e-26  4.3593e-22  6.1979e-26  8.3822e-22
      6.90  2.6453e-30  8.3625e-24  2.7293e-30  8.3793e-24  2.9746e-30  8.4091e-24  3.6844e-30  8.4621e-24  5.7300e-30  8.5564e-24  1.1792e-29  8.7240e-24  2.6783e-29  9.0221e-24  5.2564e-29  9.5524e-24  1.0801e-28  1.0496e-23  2.1489e-28  1.2174e-23  4.2463e-28  1.5164e-23  8.2810e-28  2.0496e-23  1.5868e-27  3.0024e-23  2.9944e-27  4.7120e-23  5.5921e-27  7.8001e-23  1.0402e-26  1.3444e-22  1.9432e-26  2.3962e-22  3.6858e-26  4.4189e-22  7.2042e-26  8.4974e-22
      6.95  2.5284e-30  8.7430e-24  2.6065e-30  8.7598e-24  2.8318e-30  8.7898e-24  3.5217e-30  8.8431e-24  5.6218e-30  8.9378e-24  1.1666e-29  9.1063e-24  2.7105e-29  9.4058e-24  5.4006e-29  9.9387e-24  1.0938e-28  1.0886e-23  2.1690e-28  1.2573e-23  4.3329e-28  1.5577e-23  8.5127e-28  2.0934e-23  1.6373e-27  3.0508e-23  3.0958e-27  4.7687e-23  5.7892e-27  7.8720e-23  1.0779e-26  1.3544e-22  2.0151e-26  2.4117e-22  3.8253e-26  4.4456e-22  7.4838e-26  8.5488e-22
      7.00  2.4289e-30  9.1392e-24  2.5315e-30  9.2474e-24  2.7307e-30  9.1853e-24  3.3895e-30  9.2378e-24  5.3681e-30  9.3311e-24  1.1142e-29  9.4971e-24  2.7325e-29  9.7921e-24  5.4506e-29  1.0317e-23  1.0733e-28  1.1251e-23  2.1573e-28  1.2912e-23  4.3539e-28  1.5871e-23  8.6153e-28  2.1147e-23  1.6668e-27  3.0576e-23  3.1670e-27  4.7495e-23  5.9414e-27  7.8062e-23  1.1085e-26  1.3394e-22  2.0754e-26  2.3811e-22  3.9442e-26  4.3858e-22  7.7243e-26  8.4318e-22
      7.05  2.3310e-30  9.6013e-24  2.4025e-30  9.6171e-24  2.6055e-30  9.6453e-24  3.2238e-30  9.6954e-24  5.0464e-30  9.7846e-24  1.0431e-29  9.9431e-24  2.6107e-29  1.0225e-23  5.3865e-29  1.0726e-23  1.0720e-28  1.1618e-23  2.1672e-28  1.3204e-23  4.4078e-28  1.6030e-23  8.8150e-28  2.1068e-23  1.7280e-27  3.0071e-23  3.3138e-27  4.6226e-23  6.2549e-27  7.5415e-23  1.1714e-26  1.2878e-22  2.1981e-26  2.2829e-22  4.1839e-26  4.1983e-22  8.2038e-26  8.0659e-22
      7.10  2.2440e-30  1.0084e-23  2.3073e-30  1.0099e-23  2.4902e-30  1.0125e-23  3.0374e-30  1.0171e-23  4.6857e-30  1.0252e-23  9.6468e-30  1.0398e-23  2.4215e-29  1.0656e-23  5.3293e-29  1.1116e-23  1.0833e-28  1.1934e-23  2.1871e-28  1.3390e-23  4.4508e-28  1.5981e-23  9.0809e-28  2.0602e-23  1.8117e-27  2.8859e-23  3.5210e-27  4.3674e-23  6.7035e-27  7.0444e-23  1.2622e-26  1.1939e-22  2.3764e-26  2.1067e-22  4.5327e-26  3.8644e-22  8.9008e-26  7.4148e-22
      7.15  2.1700e-30  1.0588e-23  2.2243e-30  1.0600e-23  2.3841e-30  1.0623e-23  2.8681e-30  1.0664e-23  4.3476e-30  1.0735e-23  8.6550e-30  1.0863e-23  2.0945e-29  1.1090e-23  4.8262e-29  1.1494e-23  9.5434e-29  1.2212e-23  1.8912e-28  1.3490e-23  3.8977e-28  1.5764e-23  8.0913e-28  1.9818e-23  1.6476e-27  2.7062e-23  3.2606e-27  4.0060e-23  6.2949e-27  6.3544e-23  1.1968e-26  1.0649e-22  2.2678e-26  1.8659e-22  4.3436e-26  3.4086e-22  8.5529e-26  6.5260e-22
      7.20  2.1061e-30  1.1112e-23  2.1516e-30  1.1123e-23  2.2870e-30  1.1142e-23  2.6965e-30  1.1176e-23  3.8910e-30  1.1237e-23  7.3398e-30  1.1345e-23  1.6948e-29  1.1537e-23  4.0044e-29  1.1878e-23  7.5711e-29  1.2486e-23  1.5284e-28  1.3566e-23  3.2013e-28  1.5488e-23  6.7827e-28  1.8915e-23  1.4172e-27  2.5036e-23  2.8747e-27  3.6017e-23  5.6623e-27  5.5857e-23  1.0925e-26  9.2137e-23  2.0911e-26  1.5982e-22  4.0317e-26  2.9019e-22  7.9726e-26  5.5373e-22
      7.25  2.0514e-30  1.1658e-23  2.0881e-30  1.1667e-23  2.1967e-30  1.1682e-23  2.5142e-30  1.1711e-23  3.4362e-30  1.1761e-23  6.1128e-30  1.1969e-23  1.3013e-29  1.2010e-23  2.9646e-29  1.2294e-23  5.6994e-29  1.2798e-23  1.1461e-28  1.3695e-23  2.4256e-28  1.5291e-23  5.2789e-28  1.8135e-23  1.1367e-27  2.3215e-23  2.3789e-27  3.2328e-23  4.8094e-27  4.8790e-23  9.4642e-27  7.8893e-23  1.8367e-26  1.3505e-22  3.5739e-26  2.4325e-22  7.1096e-26  4.6199e-22
      7.30  2.0047e-30  1.2288e-23  2.0334e-30  1.2295e-23  2.1162e-30  1.2309e-23  2.3588e-30  1.2332e-23  3.0586e-30  1.2375e-23  4.9559e-30  1.2449e-23  9.9983e-30  1.2583e-23  2.1748e-29  1.2820e-23  4.3545e-29  1.3241e-23  8.6728e-29  1.3990e-23  1.8126e-28  1.5324e-23  4.0360e-28  1.7701e-23  9.0264e-28  2.1946e-23  1.9616e-27  2.9560e-23  4.0992e-27  4.3312e-23  8.2754e-27  6.8458e-23  1.6356e-26  1.1537e-22  3.2221e-26  2.0575e-22  6.4608e-26  3.8848e-22
      7.35  1.9656e-30  1.2947e-23  1.9872e-30  1.2954e-23  2.0497e-30  1.2965e-23  2.2323e-30  1.2985e-23  2.7596e-30  1.3021e-23  4.1450e-30  1.3085e-23  7.8177e-30  1.3198e-23  1.6828e-29  1.3400e-23  3.4760e-29  1.3759e-23  6.7988e-29  1.4398e-23  1.4201e-28  1.5535e-23  3.2087e-28  1.7561e-23  7.4262e-28  2.1181e-23  1.6737e-27  2.7671e-23  3.6055e-27  3.9394e-23  7.4589e-27  6.0825e-23  1.5011e-26  1.0081e-22  2.9940e-26  1.7783e-22  6.0526e-26  3.3355e-22
      7.40  1.9318e-30  1.3635e-23  1.9494e-30  1.3640e-23  1.9973e-30  1.3650e-23  2.1373e-30  1.3668e-23  2.5423e-30  1.3699e-23  3.5697e-30  1.3755e-23  6.3657e-30  1.3854e-23  1.3680e-29  1.4031e-23  2.9895e-29  1.4345e-23  5.6959e-29  1.4904e-23  1.1825e-28  1.5898e-23  2.6953e-28  1.7671e-23  6.3406e-28  2.0837e-23  1.4662e-27  2.6516e-23  3.2461e-27  3.6771e-23  6.8697e-27  5.5519e-23  1.4063e-26  9.0489e-23  2.8386e-26  1.5785e-22  5.7843e-26  2.9404e-22
      7.45  1.9046e-30  1.4351e-23  1.9185e-30  1.4356e-23  1.9566e-30  1.4365e-23  2.0679e-30  1.4381e-23  2.3859e-30  1.4409e-23  3.2151e-30  1.4459e-23  5.4001e-30  1.4548e-23  1.1354e-29  1.4707e-23  2.4290e-29  1.4988e-23  4.4814e-29  1.5490e-23  9.1407e-29  1.6384e-23  2.0907e-28  1.7976e-23  5.0042e-28  2.0821e-23  1.1889e-27  2.5923e-23  2.7138e-27  3.5138e-23  5.9045e-27  5.1982e-23  1.2353e-26  8.3400e-23  2.5328e-26  1.4391e-22  5.2160e-26  2.6623e-22
      7.50  1.9010e-30  1.5246e-23  1.8933e-30  1.5100e-23  1.9251e-30  1.5108e-23  2.0155e-30  1.5122e-23  2.2821e-30  1.5148e-23  2.9634e-30  1.5195e-23  4.8353e-30  1.5277e-23  9.7972e-30  1.5422e-23  2.0510e-29  1.5682e-23  3.7290e-29  1.6144e-23  7.4662e-29  1.6966e-23  1.6996e-28  1.8433e-23  4.1055e-28  2.1052e-23  9.9581e-28  2.5752e-23  2.3357e-27  3.4238e-23  5.2200e-27  4.9751e-23  1.1166e-26  7.8683e-23  2.3271e-26  1.3440e-22  4.8460e-26  2.4701e-22
      7.55  1.8630e-30  1.5948e-23  1.8721e-30  1.5952e-23  1.8998e-30  1.5960e-23  1.9813e-30  1.5974e-23  2.2173e-30  1.5998e-23  2.8196e-30  1.6042e-23  4.4652e-30  1.6119e-23  8.8494e-30  1.6257e-23  1.7625e-29  1.6501e-23  3.2541e-29  1.6936e-23  6.4001e-29  1.7711e-23  1.4375e-28  1.9093e-23  3.4711e-28  2.1563e-23  8.5301e-28  2.5993e-23  2.0471e-27  3.3994e-23  4.6973e-27  4.8619e-23  1.0292e-26  7.5891e-23  2.1859e-26  1.2841e-22  4.6128e-26  2.3453e-22
      7.60  1.8468e-30  1.6839e-23  1.8556e-30  1.6843e-23  1.8815e-30  1.6851e-23  1.9563e-30  1.6864e-23  2.1735e-30  1.6888e-23  2.7402e-30  1.6929e-23  4.3078e-30  1.7004e-23  8.4153e-30  1.7136e-23  1.5480e-29  1.7371e-23  2.8878e-29  1.7789e-23  5.5231e-29  1.8534e-23  1.2036e-28  1.9863e-23  2.8533e-28  2.2238e-23  6.9945e-28  2.6498e-23  1.6986e-27  3.4194e-23  3.9756e-27  4.8259e-23  8.8976e-27  7.4488e-23  1.9242e-26  1.2499e-22  4.1155e-26  2.2702e-22
      7.65  1.8331e-30  1.7768e-23  1.8414e-30  1.7773e-23  1.8659e-30  1.7780e-23  1.9367e-30  1.7793e-23  2.1412e-30  1.7816e-23  2.6866e-30  1.7857e-23  4.1874e-30  1.7929e-23  8.0337e-30  1.8058e-23  1.4126e-29  1.8288e-23  2.5894e-29  1.8697e-23  4.8962e-29  1.9426e-23  1.0273e-28  2.0725e-23  2.3756e-28  2.3046e-23  5.7618e-28  2.7211e-23  1.4059e-27  3.4736e-23  3.3425e-27  4.8489e-23  7.6302e-27  7.4134e-23  1.6809e-26  1.2351e-22  3.6480e-26  2.2325e-22
      7.70  1.8213e-30  1.8736e-23  1.8291e-30  1.8740e-23  1.8526e-30  1.8747e-23  1.9397e-30  1.8948e-23  2.1135e-30  1.8783e-23  2.6473e-30  1.8823e-23  4.0749e-30  1.8895e-23  7.8139e-30  1.9023e-23  1.2922e-29  1.9250e-23  2.3221e-29  1.9655e-23  4.3266e-29  2.0377e-23  8.8653e-29  2.1663e-23  1.9938e-28  2.3963e-23  4.7590e-28  2.8088e-23  1.1599e-27  3.5541e-23  2.7892e-27  4.9164e-23  6.4835e-27  7.4566e-23  1.4554e-26  1.2347e-22  3.2085e-26  2.2224e-22
      7.75  1.8113e-30  1.9741e-23  1.8188e-30  1.9745e-23  1.8412e-30  1.9752e-23  1.9057e-30  1.9765e-23  2.0898e-30  1.9788e-23  2.6031e-30  1.9828e-23  3.9782e-30  1.9900e-23  7.3269e-30  2.0028e-23  1.1942e-29  2.0255e-23  2.1046e-29  2.0660e-23  3.8875e-29  2.1381e-23  7.7451e-29  2.2667e-23  1.6906e-28  2.4965e-23  3.9502e-28  2.9089e-23  9.5554e-28  3.6539e-23  2.3127e-27  5.0158e-23  5.4599e-27  7.5551e-23  1.2484e-26  1.2443e-22  2.7986e-26  2.2316e-22
      7.80  1.8027e-30  2.0887e-23  1.8098e-30  2.0891e-23  1.8312e-30  2.0899e-23  1.8923e-30  2.0911e-23  2.0663e-30  2.0934e-23  2.5569e-30  2.0975e-23  3.8702e-30  2.1047e-23  6.9912e-30  2.1388e-23  1.1064e-29  2.1405e-23  1.9169e-29  2.1813e-23  3.5012e-29  2.2539e-23  6.8167e-29  2.3834e-23  1.4451e-28  2.6149e-23  3.2956e-28  3.0302e-23  7.8752e-28  3.7805e-23  1.9095e-27  5.1522e-23  4.5663e-27  7.7099e-23  1.0631e-26  1.2633e-22  2.4256e-26  2.2575e-22
      7.85  1.7953e-30  2.2085e-23  1.8018e-30  2.2089e-23  1.8218e-30  2.2097e-23  1.8789e-30  2.2110e-23  2.0381e-30  2.2133e-23  2.4906e-30  2.2174e-23  3.7099e-30  2.2247e-23  6.4728e-30  2.2377e-23  1.0207e-29  2.2608e-23  1.7400e-29  2.3020e-23  3.1500e-29  2.3753e-23  6.0058e-29  2.5060e-23  1.2397e-28  2.7398e-23  2.7583e-28  3.1591e-23  6.4923e-28  3.9168e-23  1.5712e-27  5.3018e-23  3.7957e-27  7.8844e-23  8.9912e-27  1.2855e-22  2.0903e-26  2.2893e-22
      7.90  1.7888e-30  2.3335e-23  1.7946e-30  2.3339e-23  1.8309e-30  2.3581e-23  1.8647e-30  2.3360e-23  2.0110e-30  2.3383e-23  2.4168e-30  2.3425e-23  3.5298e-30  2.3498e-23  5.7715e-30  2.3630e-23  9.0630e-30  2.3863e-23  1.5189e-29  2.4279e-23  2.7136e-29  2.5019e-23  5.0863e-29  2.6339e-23  1.0265e-28  2.8698e-23  2.2326e-28  3.2931e-23  5.1748e-28  4.0579e-23  1.2482e-27  5.4561e-23  3.0437e-27  8.0631e-23  7.3400e-27  1.3081e-22  1.7420e-26  2.3212e-22
      7.95  1.7832e-30  2.4637e-23  1.7883e-30  2.4642e-23  1.8043e-30  2.4649e-23  1.8502e-30  2.4662e-23  1.9790e-30  2.4686e-23  2.3359e-30  2.4727e-23  3.3241e-30  2.4802e-23  5.1570e-30  2.4934e-23  7.8712e-30  2.5169e-23  1.3042e-29  2.5587e-23  2.2907e-29  2.6331e-23  4.2359e-29  2.7659e-23  8.3693e-29  3.0033e-23  1.7806e-28  3.4293e-23  4.0565e-28  4.1989e-23  9.7143e-28  5.6058e-23  2.3805e-27  8.2289e-23  5.8250e-27  1.3277e-22  1.4091e-26  2.3469e-22
      8.00  1.7783e-30  2.5992e-23  1.7826e-30  2.5996e-23  1.7963e-30  2.6004e-23  1.8358e-30  2.6017e-23  1.9460e-30  2.6040e-23  2.2558e-30  2.6082e-23  3.0999e-30  2.6156e-23  4.6064e-30  2.6289e-23  6.9188e-30  2.6524e-23  1.1067e-29  2.6943e-23  1.9058e-29  2.7690e-23  3.4823e-29  2.9021e-23  6.7469e-29  3.1400e-23  1.4063e-28  3.5669e-23  3.1471e-28  4.3381e-23  7.4636e-28  5.7481e-23  1.8313e-27  8.3768e-23  4.5317e-27  1.3436e-22  1.1149e-26  2.3647e-22
      8.05  1.7740e-30  2.7532e-23  1.7776e-30  2.7536e-23  1.7890e-30  2.7543e-23  1.8218e-30  2.7556e-23  1.9133e-30  2.7580e-23  2.1668e-30  2.7622e-23  2.8723e-30  2.7696e-23  4.0718e-30  2.7829e-23  5.8660e-30  2.8064e-23  9.2179e-30  2.8483e-23  1.5677e-29  2.9230e-23  2.8202e-29  3.0562e-23  5.3802e-29  3.2942e-23  1.1015e-28  3.7212e-23  2.4263e-28  4.4928e-23  5.6992e-28  5.9033e-23  1.3980e-27  8.5329e-23  3.4920e-27  1.3593e-22  8.7264e-27  2.3804e-22
      8.10  1.7703e-30  2.9143e-23  1.7732e-30  2.9147e-23  1.7823e-30  2.9154e-23  1.8086e-30  2.9167e-23  1.8815e-30  2.9191e-23  2.0908e-30  2.9233e-23  2.6676e-30  2.9307e-23  3.5993e-30  2.9439e-23  5.0558e-30  2.9674e-23  7.6766e-30  3.0091e-23  1.2659e-29  3.0836e-23  2.2549e-29  3.2163e-23  4.2377e-29  3.4536e-23  8.5366e-29  3.8794e-23  1.8534e-28  4.6485e-23  4.3122e-28  6.0545e-23  1.0563e-27  8.6754e-23  2.6578e-27  1.3718e-22  6.7345e-27  2.3893e-22
      8.15  1.7671e-30  3.0826e-23  1.7693e-30  3.0830e-23  1.7765e-30  3.0838e-23  1.7970e-30  3.0851e-23  1.8557e-30  3.0874e-23  2.0201e-30  3.0916e-23  2.4769e-30  3.0990e-23  3.1960e-30  3.1121e-23  4.3355e-30  3.1354e-23  6.3762e-30  3.1770e-23  1.0234e-29  3.2510e-23  1.7815e-29  3.3831e-23  3.3478e-29  3.6553e-23  6.5144e-29  4.0425e-23  1.3967e-28  4.8075e-23  3.2142e-28  6.2057e-23  7.8436e-28  8.8120e-23  1.9831e-27  1.3826e-22  5.0852e-27  2.3940e-22
      8.20  1.7643e-30  3.2583e-23  1.7660e-30  3.2587e-23  1.7715e-30  3.2595e-23  1.7874e-30  3.2608e-23  1.8324e-30  3.2631e-23  1.9601e-30  3.2672e-23  2.3148e-30  3.2745e-23  2.8658e-30  3.2876e-23  3.7454e-30  3.3108e-23  5.3143e-30  3.3521e-23  8.3307e-30  3.4256e-23  1.4281e-29  3.5925e-23  2.5507e-29  3.7913e-23  4.9836e-29  4.2120e-23  1.0519e-28  4.9720e-23  2.3986e-28  6.3611e-23  5.8352e-28  8.9501e-23  1.4815e-27  1.3930e-22  3.8393e-27  2.3972e-22
      8.25  1.7619e-30  3.4414e-23  1.7632e-30  3.4418e-23  1.7671e-30  3.4426e-23  1.7795e-30  3.4439e-23  1.8138e-30  3.4462e-23  1.9113e-30  3.4503e-23  2.1832e-30  3.4576e-23  2.5950e-30  3.4705e-23  3.2594e-30  3.4936e-23  4.4970e-30  3.5346e-23  6.7198e-30  3.6077e-23  1.1099e-29  3.7381e-23  1.9739e-29  3.9712e-23  3.8000e-29  4.3893e-23  7.9298e-29  5.1446e-23  1.7945e-28  6.5250e-23  4.3553e-28  9.0975e-23  1.1100e-27  1.4044e-22  2.9041e-27  2.4019e-22
      8.30  1.7598e-30  3.6493e-23  1.7608e-30  3.6497e-23  1.7638e-30  3.6504e-23  1.7728e-30  3.6517e-23  1.7987e-30  3.6540e-23  1.8723e-30  3.6581e-23  2.0795e-30  3.6654e-23  2.3989e-30  3.6783e-23  2.9080e-30  3.7014e-23  3.8365e-30  3.7424e-23  5.5557e-30  3.8154e-23  8.8315e-30  3.9456e-23  1.5340e-29  4.1783e-23  2.9044e-29  4.5959e-23  5.9960e-29  5.3502e-23  1.3415e-28  6.7286e-23  3.2469e-28  9.2969e-23  8.3520e-28  1.4235e-22  2.2038e-27  2.4189e-22
      8.35  1.7581e-30  3.8674e-23  1.7588e-30  3.8678e-23  1.7610e-30  3.8685e-23  1.7677e-30  3.8698e-23  1.7866e-30  3.8721e-23  1.8403e-30  3.8762e-23  1.9945e-30  3.8835e-23  2.2320e-30  3.8965e-23  2.6094e-30  3.9195e-23  3.2977e-30  3.9606e-23  4.5731e-30  4.0337e-23  7.0017e-30  4.1641e-23  1.1827e-29  4.3972e-23  2.1985e-29  4.8154e-23  4.4935e-29  5.5707e-23  1.0061e-28  6.9509e-23  2.4401e-28  9.5223e-23  6.2762e-28  1.4465e-22  1.6716e-27  2.4426e-22
      8.40  1.7566e-30  4.0959e-23  1.7571e-30  4.0963e-23  1.7587e-30  4.0971e-23  1.7637e-30  4.0984e-23  1.7772e-30  4.1007e-23  1.8163e-30  4.1048e-23  1.9259e-30  4.1121e-23  2.1007e-30  4.1252e-23  2.3748e-30  4.1483e-23  2.8750e-30  4.1896e-23  3.8031e-30  4.2631e-23  5.5735e-30  4.3941e-23  9.1586e-30  4.6283e-23  1.6549e-29  5.0484e-23  3.3459e-29  5.8073e-23  7.4748e-29  7.1938e-23  1.8188e-28  9.7768e-23  4.7122e-28  1.4741e-22  1.2677e-27  2.4741e-22
      8.45  1.7553e-30  4.3353e-23  1.7557e-30  4.3357e-23  1.7569e-30  4.3364e-23  1.7603e-30  4.3377e-23  1.7706e-30  4.3401e-23  1.7989e-30  4.3442e-23  1.8788e-30  4.3516e-23  2.0073e-30  4.3648e-23  2.2081e-30  4.3881e-23  2.5748e-30  4.4297e-23  3.2559e-30  4.5038e-23  4.5577e-30  4.6359e-23  7.1560e-30  4.8721e-23  1.2665e-29  5.2957e-23  2.5228e-29  6.0608e-23  5.6077e-29  7.4587e-23  1.3668e-28  1.0062e-22  3.5618e-28  1.5065e-22  9.6654e-28  2.5141e-22
      8.50  1.7542e-30  4.5858e-23  1.7545e-30  4.5862e-23  1.7554e-30  4.5869e-23  1.7579e-30  4.5883e-23  1.7654e-30  4.5906e-23  1.7863e-30  4.5948e-23  1.8454e-30  4.6023e-23  1.9388e-30  4.6156e-23  2.0891e-30  4.6392e-23  2.3604e-30  4.6813e-23  2.8650e-30  4.7563e-23  3.8309e-30  4.8900e-23  5.7631e-30  5.1289e-23  9.8724e-30  5.5576e-23  1.9280e-29  6.3317e-23  4.2492e-29  7.7460e-23  1.0351e-28  1.0380e-22  2.7087e-28  1.5440e-22  7.4037e-28  2.5627e-22
