# This was generated using Cloudy10 and the columns are ordered 
# as log10 of the fraction of the metallicity to the solar metallicity
# 'h_*_Z' and 'c_*_Z' stands for cooling and heating respectively 
# at * metalicity
#
# NOTE: This was generated separately from loop_coolingcurve_w_UV.py
#       using Output_metals_w_redshift.py.
#
# Redshift = 0.5
# hden = -2.0
#
#     temp   h_-3.00_Z   c_-3.00_Z   h_-2.75_Z   c_-2.75_Z   h_-2.50_Z   c_-2.50_Z   h_-2.25_Z   c_-2.25_Z   h_-2.00_Z   c_-2.00_Z   h_-1.75_Z   c_-1.75_Z   h_-1.50_Z   c_-1.50_Z   h_-1.25_Z   c_-1.25_Z   h_-1.00_Z   c_-1.00_Z   h_-0.75_Z   c_-0.75_Z   h_-0.50_Z   c_-0.50_Z   h_-0.25_Z   c_-0.25_Z    h_0.00_Z    c_0.00_Z    h_0.25_Z    c_0.25_Z    h_0.50_Z    c_0.50_Z    h_0.75_Z    c_0.75_Z    h_1.00_Z    c_1.00_Z    h_1.25_Z    c_1.25_Z    h_1.50_Z    c_1.50_Z 
      1.00  9.3497e-23  2.2684e-26  9.3498e-23  2.2685e-26  9.3499e-23  2.2685e-26  9.3501e-23  2.2687e-26  9.3504e-23  2.2689e-26  9.3510e-23  2.2694e-26  9.3520e-23  2.2701e-26  9.3538e-23  2.2715e-26  9.3571e-23  2.2739e-26  9.3629e-23  2.2782e-26  9.3732e-23  2.2859e-26  9.3916e-23  2.2996e-26  9.4243e-23  2.3240e-26  9.4824e-23  2.3674e-26  9.5858e-23  2.4447e-26  9.7698e-23  2.5826e-26  1.0097e-22  2.8292e-26  1.0680e-22  3.2719e-26  1.1720e-22  4.0724e-26
      1.05  9.0644e-23  2.4744e-26  9.0645e-23  2.4745e-26  9.0646e-23  2.4747e-26  9.0648e-23  2.4750e-26  9.0651e-23  2.4755e-26  9.0657e-23  2.4764e-26  9.0667e-23  2.4781e-26  9.0685e-23  2.4810e-26  9.0717e-23  2.4862e-26  9.0774e-23  2.4955e-26  9.0876e-23  2.5120e-26  9.1056e-23  2.5414e-26  9.1378e-23  2.5936e-26  9.1950e-23  2.6866e-26  9.2967e-23  2.8523e-26  9.4776e-23  3.1481e-26  9.7996e-23  3.6770e-26  1.0373e-22  4.6273e-26  1.1395e-22  6.3478e-26
      1.10  8.7800e-23  2.6949e-26  8.7801e-23  2.6951e-26  8.7802e-23  2.6954e-26  8.7804e-23  2.6960e-26  8.7807e-23  2.6971e-26  8.7813e-23  2.6990e-26  8.7823e-23  2.7023e-26  8.7840e-23  2.7083e-26  8.7872e-23  2.7189e-26  8.7928e-23  2.7379e-26  8.8028e-23  2.7716e-26  8.8206e-23  2.8315e-26  8.8522e-23  2.9381e-26  8.9083e-23  3.1279e-26  9.0083e-23  3.4661e-26  9.1861e-23  4.0696e-26  9.5025e-23  5.1496e-26  1.0066e-22  7.0913e-26  1.1070e-22  1.0610e-25
      1.15  8.4969e-23  2.9306e-26  8.4970e-23  2.9310e-26  8.4971e-23  2.9316e-26  8.4972e-23  2.9328e-26  8.4976e-23  2.9348e-26  8.4981e-23  2.9384e-26  8.4991e-23  2.9449e-26  8.5008e-23  2.9564e-26  8.5039e-23  2.9769e-26  8.5094e-23  3.0133e-26  8.5193e-23  3.0781e-26  8.5367e-23  3.1933e-26  8.5677e-23  3.3983e-26  8.6228e-23  3.7632e-26  8.7209e-23  4.4137e-26  8.8954e-23  5.5746e-26  9.2059e-23  7.6527e-26  9.7588e-23  1.1391e-25  1.0744e-22  1.8171e-25
      1.20  8.2154e-23  3.1824e-26  8.2155e-23  3.1831e-26  8.2156e-23  3.1843e-26  8.2158e-23  3.1863e-26  8.2161e-23  3.1900e-26  8.2166e-23  3.1966e-26  8.2176e-23  3.2083e-26  8.2193e-23  3.2292e-26  8.2223e-23  3.2662e-26  8.2277e-23  3.3320e-26  8.2373e-23  3.4492e-26  8.2544e-23  3.6576e-26  8.2848e-23  4.0285e-26  8.3389e-23  4.6888e-26  8.4350e-23  5.8656e-26  8.6061e-23  7.9665e-26  8.9105e-23  1.1728e-25  9.4524e-23  1.8498e-25  1.0418e-22  3.0786e-25
      1.25  7.9359e-23  3.4512e-26  7.9360e-23  3.4524e-26  7.9361e-23  3.4544e-26  7.9362e-23  3.4579e-26  7.9365e-23  3.4642e-26  7.9371e-23  3.4755e-26  7.9380e-23  3.4954e-26  7.9397e-23  3.5309e-26  7.9426e-23  3.5941e-26  7.9479e-23  3.7064e-26  7.9574e-23  3.9063e-26  7.9741e-23  4.2617e-26  8.0039e-23  4.8943e-26  8.0568e-23  6.0206e-26  8.1510e-23  8.0282e-26  8.3185e-23  1.1613e-25  8.6166e-23  1.8032e-25  9.1473e-23  2.9589e-25  1.0093e-22  5.0586e-25
      1.30  7.6588e-23  3.7384e-26  7.6588e-23  3.7402e-26  7.6589e-23  3.7435e-26  7.6591e-23  3.7492e-26  7.6594e-23  3.7594e-26  7.6599e-23  3.7775e-26  7.6608e-23  3.8098e-26  7.6625e-23  3.8671e-26  7.6654e-23  3.9690e-26  7.6705e-23  4.1503e-26  7.6798e-23  4.4729e-26  7.6962e-23  5.0466e-26  7.7253e-23  6.0677e-26  7.7771e-23  7.8858e-26  7.8693e-23  1.1127e-25  8.0333e-23  1.6914e-25  8.3250e-23  2.7281e-25  8.8442e-23  4.5953e-25  9.7690e-23  7.9899e-25
      1.35  7.3843e-23  4.0444e-26  7.3844e-23  4.0472e-26  7.3845e-23  4.0521e-26  7.3846e-23  4.0609e-26  7.3849e-23  4.0766e-26  7.3854e-23  4.1044e-26  7.3863e-23  4.1538e-26  7.3879e-23  4.2417e-26  7.3908e-23  4.3981e-26  7.3958e-23  4.6763e-26  7.4049e-23  5.1711e-26  7.4209e-23  6.0512e-26  7.4494e-23  7.6177e-26  7.5001e-23  1.0407e-25  7.5902e-23  1.5379e-25  7.7506e-23  2.4260e-25  8.0359e-23  4.0171e-25  8.5436e-23  6.8840e-25  9.4477e-23  1.2100e-24
      1.40  7.1129e-23  4.3700e-26  7.1130e-23  4.3740e-26  7.1131e-23  4.3813e-26  7.1132e-23  4.3942e-26  7.1135e-23  4.4171e-26  7.1140e-23  4.4578e-26  7.1149e-23  4.5302e-26  7.1164e-23  4.6590e-26  7.1192e-23  4.8881e-26  7.1242e-23  5.2954e-26  7.1330e-23  6.0201e-26  7.1487e-23  7.3092e-26  7.1765e-23  9.6035e-26  7.2261e-23  1.3689e-25  7.3142e-23  2.0973e-25  7.4710e-23  3.3982e-25  7.7499e-23  5.7296e-25  8.2461e-23  9.9320e-25  9.1294e-23  1.7582e-24
      1.45  6.8449e-23  4.7160e-26  6.8449e-23  4.7217e-26  6.8450e-23  4.7319e-26  6.8452e-23  4.7500e-26  6.8455e-23  4.7821e-26  6.8459e-23  4.8393e-26  6.8468e-23  4.9411e-26  6.8483e-23  5.1220e-26  6.8510e-23  5.4437e-26  6.8559e-23  6.0159e-26  6.8645e-23  7.0336e-26  6.8798e-23  8.8444e-26  6.9071e-23  1.2067e-25  6.9555e-23  1.7806e-25  7.0416e-23  2.8037e-25  7.1948e-23  4.6314e-25  7.4673e-23  7.9075e-25  7.9520e-23  1.3815e-24  8.8146e-23  2.4574e-24
      1.50  6.5806e-23  5.0833e-26  6.5806e-23  5.0910e-26  6.5807e-23  5.1047e-26  6.5808e-23  5.1292e-26  6.5811e-23  5.1727e-26  6.5816e-23  5.2501e-26  6.5824e-23  5.3877e-26  6.5839e-23  5.6324e-26  6.5866e-23  6.0677e-26  6.5913e-23  6.8417e-26  6.5997e-23  8.2186e-26  6.6147e-23  1.0668e-25  6.6413e-23  1.5028e-25  6.6886e-23  2.2792e-25  6.7727e-23  3.6635e-25  6.9223e-23  6.1365e-25  7.1884e-23  1.0570e-24  7.6617e-23  1.8567e-24  8.5036e-23  3.3141e-24
      1.55  6.3203e-23  5.4736e-26  6.3203e-23  5.4837e-26  6.3204e-23  5.5017e-26  6.3206e-23  5.5337e-26  6.3208e-23  5.5906e-26  6.3213e-23  5.6919e-26  6.3221e-23  5.8719e-26  6.3236e-23  6.1920e-26  6.3262e-23  6.7614e-26  6.3308e-23  7.7741e-26  6.3390e-23  9.5753e-26  6.3536e-23  1.2780e-25  6.3796e-23  1.8484e-25  6.4258e-23  2.8642e-25  6.5079e-23  4.6754e-25  6.6539e-23  7.9114e-25  6.9136e-23  1.3714e-24  7.3753e-23  2.4183e-24  8.1966e-23  4.3272e-24
      1.60  6.0644e-23  5.8867e-26  6.0644e-23  5.8995e-26  6.0645e-23  5.9224e-26  6.0646e-23  5.9630e-26  6.0649e-23  6.0353e-26  6.0653e-23  6.1639e-26  6.0661e-23  6.3926e-26  6.0676e-23  6.7992e-26  6.0701e-23  7.5223e-26  6.0746e-23  8.8085e-26  6.0826e-23  1.1096e-25  6.0969e-23  1.5167e-25  6.1222e-23  2.2411e-25  6.1672e-23  3.5313e-25  6.2473e-23  5.8319e-25  6.3897e-23  9.9429e-25  6.6429e-23  1.7315e-24  7.0931e-23  3.0621e-24  7.8935e-23  5.4893e-24
      1.65  5.8131e-23  6.3233e-26  5.8131e-23  6.3392e-26  5.8132e-23  6.3675e-26  5.8133e-23  6.4178e-26  5.8136e-23  6.5073e-26  5.8140e-23  6.6664e-26  5.8148e-23  6.9494e-26  5.8162e-23  7.4526e-26  5.8186e-23  8.3476e-26  5.8230e-23  9.9394e-26  5.8308e-23  1.2771e-25  5.8447e-23  1.7808e-25  5.8694e-23  2.6775e-25  5.9133e-23  4.2744e-25  5.9913e-23  7.1221e-25  6.1300e-23  1.2211e-24  6.3766e-23  2.1338e-24  6.8149e-23  3.7816e-24  7.5939e-23  6.7888e-24
      1.70  5.5667e-23  6.7841e-26  5.5667e-23  6.8034e-26  5.5668e-23  6.8376e-26  5.5669e-23  6.8985e-26  5.5672e-23  7.0069e-26  5.5676e-23  7.1995e-26  5.5684e-23  7.5421e-26  5.5697e-23  8.1513e-26  5.5721e-23  9.2347e-26  5.5764e-23  1.1162e-25  5.5840e-23  1.4589e-25  5.5975e-23  2.0688e-25  5.6215e-23  3.1542e-25  5.6641e-23  5.0875e-25  5.7400e-23  8.5351e-25  5.8749e-23  1.4696e-24  6.1146e-23  2.5749e-24  6.5406e-23  4.5707e-24  7.2974e-23  8.2145e-24
      1.75  5.3255e-23  7.2699e-26  5.3255e-23  7.2928e-26  5.3256e-23  7.3335e-26  5.3257e-23  7.4059e-26  5.3260e-23  7.5346e-26  5.3264e-23  7.7636e-26  5.3271e-23  8.1708e-26  5.3284e-23  8.8949e-26  5.3307e-23  1.0183e-25  5.3349e-23  1.2473e-25  5.3422e-23  1.6547e-25  5.3553e-23  2.3796e-25  5.3786e-23  3.6697e-25  5.4200e-23  5.9677e-25  5.4936e-23  1.0066e-24  5.6244e-23  1.7390e-24  5.8570e-23  3.0531e-24  6.2701e-23  5.4265e-24  7.0037e-23  9.7611e-24
      1.80  5.0897e-23  7.7833e-26  5.0897e-23  7.8101e-26  5.0898e-23  7.8578e-26  5.0899e-23  7.9426e-26  5.0901e-23  8.0935e-26  5.0906e-23  8.3617e-26  5.0913e-23  8.8387e-26  5.0925e-23  9.6871e-26  5.0948e-23  1.1196e-25  5.0988e-23  1.3879e-25  5.1059e-23  1.8652e-25  5.1186e-23  2.7144e-25  5.1411e-23  4.2260e-25  5.1811e-23  6.9183e-25  5.2523e-23  1.1720e-24  5.3789e-23  2.0302e-24  5.6038e-23  3.5701e-24  6.0033e-23  6.3516e-24  6.7124e-23  1.1433e-23
      1.85  4.8595e-23  8.3233e-26  4.8596e-23  8.3544e-26  4.8597e-23  8.4097e-26  4.8598e-23  8.5080e-26  4.8600e-23  8.6829e-26  4.8604e-23  8.9938e-26  4.8611e-23  9.5468e-26  4.8623e-23  1.0530e-25  4.8645e-23  1.2279e-25  4.8683e-23  1.5389e-25  4.8752e-23  2.0922e-25  4.8874e-23  3.0767e-25  4.9091e-23  4.8289e-25  4.9477e-23  7.9499e-25  5.0164e-23  1.3516e-24  5.1384e-23  2.3465e-24  5.3552e-23  4.1318e-24  5.7403e-23  7.3572e-24  6.4236e-23  1.3251e-23
      1.90  4.6353e-23  8.8907e-26  4.6353e-23  8.9265e-26  4.6354e-23  8.9902e-26  4.6355e-23  9.1033e-26  4.6357e-23  9.3046e-26  4.6361e-23  9.6625e-26  4.6367e-23  1.0299e-25  4.6379e-23  1.1431e-25  4.6400e-23  1.3444e-25  4.6437e-23  1.7024e-25  4.6503e-23  2.3392e-25  4.6620e-23  3.4723e-25  4.6829e-23  5.4891e-25  4.7200e-23  9.0814e-25  4.7860e-23  1.5488e-24  4.9033e-23  2.6940e-24  5.1116e-23  4.7491e-24  5.4816e-23  8.4620e-24  6.1380e-23  1.5247e-23
      1.95  4.4170e-23  9.4865e-26  4.4170e-23  9.5275e-26  4.4171e-23  9.6004e-26  4.4172e-23  9.7301e-26  4.4174e-23  9.9607e-26  4.4177e-23  1.0371e-25  4.4184e-23  1.1100e-25  4.4195e-23  1.2397e-25  4.4215e-23  1.4703e-25  4.4251e-23  1.8806e-25  4.4314e-23  2.6103e-25  4.4427e-23  3.9085e-25  4.4627e-23  6.2194e-25  4.4983e-23  1.0336e-24  4.5617e-23  1.7676e-24  4.6742e-23  3.0798e-24  4.8742e-23  5.4345e-24  5.2293e-23  9.6886e-24  5.8593e-23  1.7463e-23
      2.00  4.2049e-23  1.0111e-25  4.2049e-23  1.0158e-25  4.2050e-23  1.0242e-25  4.2051e-23  1.0390e-25  4.2053e-23  1.0654e-25  4.2056e-23  1.1123e-25  4.2062e-23  1.1957e-25  4.2073e-23  1.3440e-25  4.2092e-23  1.6078e-25  4.2126e-23  2.0770e-25  4.2187e-23  2.9117e-25  4.2295e-23  4.3966e-25  4.2486e-23  7.0397e-25  4.2826e-23  1.1748e-24  4.3431e-23  2.0144e-24  4.4507e-23  3.5152e-24  4.6418e-23  6.2082e-24  4.9811e-23  1.1073e-23  5.5831e-23  1.9964e-23
      2.05  3.9991e-23  1.0770e-25  3.9992e-23  1.0824e-25  3.9992e-23  1.0919e-25  3.9993e-23  1.1088e-25  3.9995e-23  1.1390e-25  3.9998e-23  1.1925e-25  4.0004e-23  1.2878e-25  4.0014e-23  1.4573e-25  4.0033e-23  1.7587e-25  4.0065e-23  2.2947e-25  4.0123e-23  3.2482e-25  4.0226e-23  4.9446e-25  4.0408e-23  7.9641e-25  4.0733e-23  1.3342e-24  4.1309e-23  2.2934e-24  4.2335e-23  4.0078e-24  4.4157e-23  7.0839e-24  4.7392e-23  1.2641e-23  5.3133e-23  2.2793e-23
      2.10  3.7998e-23  1.1460e-25  3.7998e-23  1.1521e-25  3.7999e-23  1.1630e-25  3.8000e-23  1.1823e-25  3.8002e-23  1.2167e-25  3.8005e-23  1.2778e-25  3.8010e-23  1.3865e-25  3.8020e-23  1.5798e-25  3.8037e-23  1.9237e-25  3.8068e-23  2.5352e-25  3.8123e-23  3.6230e-25  3.8221e-23  5.5583e-25  3.8395e-23  9.0030e-25  3.8704e-23  1.5139e-24  3.9254e-23  2.6080e-24  4.0231e-23  4.5637e-24  4.1967e-23  8.0724e-24  4.5049e-23  1.4410e-23  5.0520e-23  2.5986e-23
      2.15  3.6070e-23  1.2182e-25  3.6070e-23  1.2251e-25  3.6071e-23  1.2375e-25  3.6072e-23  1.2595e-25  3.6074e-23  1.2986e-25  3.6076e-23  1.3682e-25  3.6082e-23  1.4920e-25  3.6091e-23  1.7120e-25  3.6108e-23  2.1034e-25  3.6137e-23  2.7995e-25  3.6189e-23  4.0377e-25  3.6283e-23  6.2407e-25  3.6448e-23  1.0162e-24  3.6743e-23  1.7145e-24  3.7266e-23  2.9600e-24  3.8197e-23  5.1858e-24  3.9851e-23  9.1789e-24  4.2789e-23  1.6390e-23  4.8015e-23  2.9558e-23
      2.20  3.4208e-23  1.2937e-25  3.4208e-23  1.3016e-25  3.4209e-23  1.3156e-25  3.4210e-23  1.3406e-25  3.4211e-23  1.3849e-25  3.4214e-23  1.4639e-25  3.4219e-23  1.6042e-25  3.4228e-23  1.8539e-25  3.4244e-23  2.2978e-25  3.4272e-23  3.0873e-25  3.4322e-23  4.4918e-25  3.4411e-23  6.9905e-25  3.4569e-23  1.1438e-24  3.4849e-23  1.9359e-24  3.5349e-23  3.3485e-24  3.6236e-23  5.8728e-24  3.7813e-23  1.0401e-23  4.0623e-23  1.8577e-23  4.5599e-23  3.3504e-23
      2.25  3.2412e-23  1.3726e-25  3.2413e-23  1.3815e-25  3.2413e-23  1.3973e-25  3.2414e-23  1.4255e-25  3.2415e-23  1.4756e-25  3.2418e-23  1.5647e-25  3.2423e-23  1.7231e-25  3.2431e-23  2.0048e-25  3.2446e-23  2.5059e-25  3.2473e-23  3.3971e-25  3.2521e-23  4.9823e-25  3.2606e-23  7.8026e-25  3.2757e-23  1.2822e-24  3.3025e-23  2.1763e-24  3.3501e-23  3.7705e-24  3.4349e-23  6.6194e-24  3.5855e-23  1.1729e-23  3.8538e-23  2.0954e-23  4.3291e-23  3.7791e-23
      2.30  3.0683e-23  1.4555e-25  3.0683e-23  1.4655e-25  3.0684e-23  1.4833e-25  3.0685e-23  1.5149e-25  3.0686e-23  1.5711e-25  3.0689e-23  1.6711e-25  3.0693e-23  1.8488e-25  3.0701e-23  2.1650e-25  3.0716e-23  2.7272e-25  3.0741e-23  3.7272e-25  3.0786e-23  5.5060e-25  3.0867e-23  8.6707e-25  3.1010e-23  1.4303e-24  3.1265e-23  2.4335e-24  3.1719e-23  4.2222e-24  3.2528e-23  7.4185e-24  3.3962e-23  1.3151e-23  3.6509e-23  2.3497e-23  4.1032e-23  4.2375e-23
      2.35  2.9022e-23  1.5420e-25  2.9022e-23  1.5531e-25  2.9023e-23  1.5729e-25  2.9023e-23  1.6081e-25  2.9025e-23  1.6707e-25  2.9027e-23  1.7819e-25  2.9032e-23  1.9798e-25  2.9039e-23  2.3317e-25  2.9053e-23  2.9576e-25  2.9078e-23  4.0707e-25  2.9121e-23  6.0506e-25  2.9199e-23  9.5732e-25  2.9337e-23  1.5843e-24  2.9583e-23  2.7009e-24  3.0020e-23  4.6919e-24  3.0797e-23  8.2494e-24  3.2178e-23  1.4629e-23  3.4631e-23  2.6143e-23  3.8987e-23  4.7147e-23
      2.40  2.7425e-23  1.6321e-25  2.7425e-23  1.6444e-25  2.7426e-23  1.6662e-25  2.7427e-23  1.7051e-25  2.7428e-23  1.7742e-25  2.7430e-23  1.8970e-25  2.7434e-23  2.1155e-25  2.7442e-23  2.5040e-25  2.7455e-23  3.1950e-25  2.7479e-23  4.4239e-25  2.7521e-23  6.6098e-25  2.7596e-23  1.0499e-24  2.7730e-23  1.7421e-24  2.7967e-23  2.9748e-24  2.8388e-23  5.1729e-24  2.9137e-23  9.1003e-24  3.0468e-23  1.6143e-23  3.2833e-23  2.8852e-23  3.7033e-23  5.2033e-23
      2.45  2.5894e-23  1.7259e-25  2.5894e-23  1.7394e-25  2.5895e-23  1.7633e-25  2.5896e-23  1.8058e-25  2.5897e-23  1.8815e-25  2.5899e-23  2.0160e-25  2.5903e-23  2.2553e-25  2.5910e-23  2.6809e-25  2.5923e-23  3.4376e-25  2.5946e-23  4.7836e-25  2.5987e-23  7.1777e-25  2.6059e-23  1.1437e-24  2.6188e-23  1.9018e-24  2.6417e-23  3.2520e-24  2.6823e-23  5.6593e-24  2.7546e-23  9.9606e-24  2.8831e-23  1.7673e-23  3.1112e-23  3.1591e-23  3.5164e-23  5.6972e-23
      2.50  2.4428e-23  1.8235e-25  2.4429e-23  1.8381e-25  2.4429e-23  1.8641e-25  2.4430e-23  1.9103e-25  2.4431e-23  1.9926e-25  2.4433e-23  2.1388e-25  2.4437e-23  2.3988e-25  2.4444e-23  2.8612e-25  2.4457e-23  3.6836e-25  2.4479e-23  5.1462e-25  2.4518e-23  7.7479e-25  2.4588e-23  1.2377e-24  2.4712e-23  2.0615e-24  2.4933e-23  3.5286e-24  2.5326e-23  6.1446e-24  2.6024e-23  1.0818e-23  2.7264e-23  1.9199e-23  2.9468e-23  3.4320e-23  3.3380e-23  6.1895e-23
      2.55  2.3027e-23  1.9258e-25  2.3027e-23  1.9416e-25  2.3028e-23  1.9696e-25  2.3028e-23  2.0194e-25  2.3029e-23  2.1081e-25  2.3032e-23  2.2657e-25  2.3035e-23  2.5460e-25  2.3042e-23  3.0444e-25  2.3054e-23  3.9309e-25  2.3075e-23  5.5075e-25  2.3114e-23  8.3119e-25  2.3181e-23  1.3301e-24  2.3301e-23  2.2181e-24  2.3515e-23  3.7996e-24  2.3894e-23  6.6194e-24  2.4569e-23  1.1657e-23  2.5768e-23  2.0691e-23  2.7898e-23  3.6989e-23  3.1680e-23  6.6707e-23
      2.60  2.1689e-23  2.0321e-25  2.1689e-23  2.0489e-25  2.1689e-23  2.0789e-25  2.1690e-23  2.1322e-25  2.1691e-23  2.2269e-25  2.1693e-23  2.3955e-25  2.1697e-23  2.6952e-25  2.1703e-23  3.2282e-25  2.1715e-23  4.1761e-25  2.1736e-23  5.8619e-25  2.1773e-23  8.8607e-25  2.1838e-23  1.4196e-24  2.1954e-23  2.3691e-24  2.2161e-23  4.0602e-24  2.2528e-23  7.0753e-24  2.3181e-23  1.2462e-23  2.4342e-23  2.2121e-23  2.6403e-23  3.9547e-23  3.0061e-23  7.1320e-23
      2.65  2.0413e-23  2.1422e-25  2.0413e-23  2.1601e-25  2.0413e-23  2.1920e-25  2.0414e-23  2.2486e-25  2.0415e-23  2.3492e-25  2.0417e-23  2.5282e-25  2.0420e-23  2.8466e-25  2.0427e-23  3.4126e-25  2.0438e-23  4.4194e-25  2.0458e-23  6.2099e-25  2.0494e-23  9.3949e-25  2.0557e-23  1.5061e-24  2.0670e-23  2.5146e-24  2.0870e-23  4.3107e-24  2.1226e-23  7.5130e-24  2.1859e-23  1.3234e-23  2.2983e-23  2.3493e-23  2.4979e-23  4.2000e-23  2.8523e-23  7.5742e-23
      2.70  1.9197e-23  2.2564e-25  1.9197e-23  2.2753e-25  1.9198e-23  2.3089e-25  1.9198e-23  2.3687e-25  1.9199e-23  2.4750e-25  1.9201e-23  2.6639e-25  1.9205e-23  2.9999e-25  1.9211e-23  3.5975e-25  1.9222e-23  4.6603e-25  1.9241e-23  6.5505e-25  1.9276e-23  9.9126e-25  1.9337e-23  1.5894e-24  1.9447e-23  2.6540e-24  1.9641e-23  4.5500e-24  1.9986e-23  7.9305e-24  2.0599e-23  1.3970e-23  2.1690e-23  2.4799e-23  2.3626e-23  4.4335e-23  2.7063e-23  7.9953e-23
      2.75  1.8041e-23  2.3747e-25  1.8041e-23  2.3945e-25  1.8042e-23  2.4298e-25  1.8042e-23  2.4925e-25  1.8043e-23  2.6041e-25  1.8045e-23  2.8025e-25  1.8049e-23  3.1552e-25  1.8055e-23  3.7826e-25  1.8065e-23  4.8983e-25  1.8084e-23  6.8827e-25  1.8118e-23  1.0412e-24  1.8177e-23  1.6692e-24  1.8283e-23  2.7869e-24  1.8472e-23  4.7774e-24  1.8807e-23  8.3264e-24  1.9403e-23  1.4667e-23  2.0462e-23  2.6036e-23  2.2342e-23  4.6546e-23  2.5679e-23  8.3939e-23
      2.80  1.6943e-23  2.4985e-25  1.6943e-23  2.5192e-25  1.6944e-23  2.5561e-25  1.6944e-23  2.6216e-25  1.6945e-23  2.7381e-25  1.6947e-23  2.9453e-25  1.6950e-23  3.3138e-25  1.6956e-23  3.9691e-25  1.6966e-23  5.1346e-25  1.6985e-23  7.2073e-25  1.7017e-23  1.0894e-24  1.7075e-23  1.7454e-24  1.7179e-23  2.9128e-24  1.7362e-23  4.9919e-24  1.7688e-23  8.6989e-24  1.8267e-23  1.5322e-23  1.9297e-23  2.7197e-23  2.1125e-23  4.8621e-23  2.4368e-23  8.7679e-23
      2.85  1.5901e-23  2.6265e-25  1.5901e-23  2.6481e-25  1.5901e-23  2.6864e-25  1.5902e-23  2.7545e-25  1.5903e-23  2.8756e-25  1.5905e-23  3.0910e-25  1.5908e-23  3.4740e-25  1.5914e-23  4.1552e-25  1.5924e-23  5.3667e-25  1.5942e-23  7.5213e-25  1.5973e-23  1.1354e-24  1.6030e-23  1.8172e-24  1.6130e-23  3.0307e-24  1.6309e-23  5.1920e-24  1.6626e-23  9.0454e-24  1.7190e-23  1.5930e-23  1.8192e-23  2.8274e-23  1.9971e-23  5.0545e-23  2.3128e-23  9.1149e-23
      2.90  1.4913e-23  2.7588e-25  1.4914e-23  2.7811e-25  1.4914e-23  2.8208e-25  1.4914e-23  2.8912e-25  1.4915e-23  3.0165e-25  1.4917e-23  3.2394e-25  1.4920e-23  3.6357e-25  1.4926e-23  4.3405e-25  1.4935e-23  5.5938e-25  1.4953e-23  7.8230e-25  1.4984e-23  1.1788e-24  1.5039e-23  1.8843e-24  1.5137e-23  3.1398e-24  1.5311e-23  5.3759e-24  1.5620e-23  9.3628e-24  1.6169e-23  1.6486e-23  1.7146e-23  2.9258e-23  1.8879e-23  5.2302e-23  2.1953e-23  9.4316e-23
      2.95  1.3978e-23  2.8957e-25  1.3979e-23  2.9186e-25  1.3979e-23  2.9594e-25  1.3979e-23  3.0320e-25  1.3980e-23  3.1611e-25  1.3982e-23  3.3906e-25  1.3985e-23  3.7987e-25  1.3990e-23  4.5245e-25  1.4000e-23  5.8153e-25  1.4017e-23  8.1110e-25  1.4047e-23  1.2195e-24  1.4101e-23  1.9460e-24  1.4196e-23  3.2390e-24  1.4366e-23  5.5418e-24  1.4667e-23  9.6478e-24  1.5203e-23  1.6984e-23  1.6155e-23  3.0138e-23  1.7845e-23  5.3872e-23  2.0841e-23  9.7148e-23
      3.00  1.3094e-23  3.0374e-25  1.3094e-23  3.0609e-25  1.3095e-23  3.1028e-25  1.3095e-23  3.1772e-25  1.3096e-23  3.3095e-25  1.3098e-23  3.5447e-25  1.3101e-23  3.9631e-25  1.3106e-23  4.7072e-25  1.3115e-23  6.0304e-25  1.3132e-23  8.3838e-25  1.3161e-23  1.2570e-24  1.3214e-23  2.0018e-24  1.3307e-23  3.3273e-24  1.3472e-23  5.6881e-24  1.3766e-23  9.8973e-24  1.4289e-23  1.7418e-23  1.5217e-23  3.0904e-23  1.6866e-23  5.5237e-23  1.9788e-23  9.9612e-23
      3.05  1.2259e-23  3.1870e-25  1.2259e-23  3.2111e-25  1.2259e-23  3.2538e-25  1.2260e-23  3.3299e-25  1.2261e-23  3.4651e-25  1.2263e-23  3.7056e-25  1.2265e-23  4.1332e-25  1.2271e-23  4.8937e-25  1.2280e-23  6.2463e-25  1.2296e-23  8.6518e-25  1.2325e-23  1.2931e-24  1.2376e-23  2.0543e-24  1.2467e-23  3.4092e-24  1.2629e-23  5.8223e-24  1.2916e-23  1.0125e-23  1.3427e-23  1.7812e-23  1.4335e-23  3.1598e-23  1.5946e-23  5.6472e-23  1.8801e-23  1.0184e-22
      3.10  1.1471e-23  3.3400e-25  1.1471e-23  3.3645e-25  1.1471e-23  3.4081e-25  1.1472e-23  3.4855e-25  1.1473e-23  3.6231e-25  1.1474e-23  3.8679e-25  1.1477e-23  4.3032e-25  1.1482e-23  5.0773e-25  1.1491e-23  6.4541e-25  1.1507e-23  8.9027e-25  1.1535e-23  1.3258e-24  1.1585e-23  2.1007e-24  1.1674e-23  3.4799e-24  1.1832e-23  5.9362e-24  1.2114e-23  1.0316e-23  1.2613e-23  1.8141e-23  1.3501e-23  3.2175e-23  1.5075e-23  5.7498e-23  1.7867e-23  1.0369e-22
      3.15  1.0728e-23  3.5009e-25  1.0728e-23  3.5258e-25  1.0728e-23  3.5699e-25  1.0729e-23  3.6484e-25  1.0730e-23  3.7879e-25  1.0731e-23  4.0361e-25  1.0734e-23  4.4775e-25  1.0739e-23  5.2624e-25  1.0748e-23  6.6584e-25  1.0763e-23  9.1411e-25  1.0791e-23  1.3557e-24  1.0840e-23  2.1414e-24  1.0927e-23  3.5398e-24  1.1081e-23  6.0304e-24  1.1356e-23  1.0471e-23  1.1845e-23  1.8406e-23  1.2713e-23  3.2636e-23  1.4252e-23  5.8316e-23  1.6981e-23  1.0516e-22
      3.20  1.0028e-23  3.6687e-25  1.0028e-23  3.6938e-25  1.0028e-23  3.7383e-25  1.0029e-23  3.8176e-25  1.0030e-23  3.9586e-25  1.0031e-23  4.2093e-25  1.0034e-23  4.6551e-25  1.0039e-23  5.4479e-25  1.0047e-23  6.8578e-25  1.0062e-23  9.3655e-25  1.0089e-23  1.3826e-24  1.0137e-23  2.1762e-24  1.0222e-23  3.5887e-24  1.0374e-23  6.1042e-24  1.0643e-23  1.0590e-23  1.1121e-23  1.8605e-23  1.1969e-23  3.2979e-23  1.3475e-23  5.8922e-23  1.6143e-23  1.0625e-22
      3.25  9.3694e-24  3.8416e-25  9.3696e-24  3.8668e-25  9.3698e-24  3.9117e-25  9.3703e-24  3.9914e-25  9.3711e-24  4.1333e-25  9.3726e-24  4.3856e-25  9.3753e-24  4.8342e-25  9.3799e-24  5.6320e-25  9.3883e-24  7.0508e-25  9.4031e-24  9.5742e-25  9.4295e-24  1.4063e-24  9.4763e-24  2.2049e-24  9.5597e-24  3.6262e-24  9.7078e-24  6.1577e-24  9.9710e-24  1.0672e-23  1.0439e-23  1.8738e-23  1.1269e-23  3.3204e-23  1.2741e-23  5.9316e-23  1.5351e-23  1.0696e-22
      3.30  8.7504e-24  4.0235e-25  8.7505e-24  4.0488e-25  8.7508e-24  4.0938e-25  8.7512e-24  4.1738e-25  8.7520e-24  4.3162e-25  8.7535e-24  4.5693e-25  8.7561e-24  5.0194e-25  8.7607e-24  5.8199e-25  8.7688e-24  7.2435e-25  8.7833e-24  9.7754e-25  8.8091e-24  1.4279e-24  8.8550e-24  2.2292e-24  8.9365e-24  3.6554e-24  9.0815e-24  6.1954e-24  9.3391e-24  1.0725e-23  9.7967e-24  1.8819e-23  1.0609e-23  3.3336e-23  1.2049e-23  5.9542e-23  1.4602e-23  1.0737e-22
      3.35  8.1688e-24  4.2108e-25  8.1690e-24  4.2361e-25  8.1692e-24  4.2812e-25  8.1697e-24  4.3613e-25  8.1705e-24  4.5039e-25  8.1719e-24  4.7573e-25  8.1744e-24  5.2079e-25  8.1789e-24  6.0094e-25  8.1869e-24  7.4347e-25  8.2011e-24  9.9698e-25  8.2264e-24  1.4479e-24  8.2713e-24  2.2502e-24  8.3511e-24  3.6781e-24  8.4930e-24  6.2213e-24  8.7452e-24  1.0756e-23  9.1931e-24  1.8861e-23  9.9879e-24  3.3398e-23  1.1397e-23  5.9642e-23  1.3894e-23  1.0755e-22
      3.40  7.6230e-24  4.4037e-25  7.6232e-24  4.4291e-25  7.6234e-24  4.4741e-25  7.6238e-24  4.5543e-25  7.6246e-24  4.6968e-25  7.6260e-24  4.9502e-25  7.6285e-24  5.4009e-25  7.6329e-24  6.2023e-25  7.6407e-24  7.6276e-25  7.6546e-24  1.0163e-24  7.6793e-24  1.4672e-24  7.7233e-24  2.2695e-24  7.8015e-24  3.6974e-24  7.9404e-24  6.2406e-24  8.1873e-24  1.0776e-23  8.6257e-24  1.8880e-23  9.4036e-24  3.3419e-23  1.0783e-23  5.9668e-23  1.3224e-23  1.0759e-22
      3.45  7.1111e-24  4.6024e-25  7.1113e-24  4.6277e-25  7.1115e-24  4.6728e-25  7.1119e-24  4.7529e-25  7.1127e-24  4.8954e-25  7.1141e-24  5.1488e-25  7.1165e-24  5.5993e-25  7.1208e-24  6.4006e-25  7.1285e-24  7.8257e-25  7.1421e-24  1.0360e-24  7.1663e-24  1.4869e-24  7.2093e-24  2.2890e-24  7.2859e-24  3.7167e-24  7.4219e-24  6.2595e-24  7.6636e-24  1.0794e-23  8.0928e-24  1.8897e-23  8.8542e-24  3.3434e-23  1.0204e-23  5.9681e-23  1.2592e-23  1.0761e-22
      3.50  6.6314e-24  4.8069e-25  6.6316e-24  4.8323e-25  6.6318e-24  4.8774e-25  6.6322e-24  4.9576e-25  6.6330e-24  5.1002e-25  6.6343e-24  5.3538e-25  6.6367e-24  5.8048e-25  6.6409e-24  6.6068e-25  6.6484e-24  8.0332e-25  6.6617e-24  1.0570e-24  6.6855e-24  1.5083e-24  6.7276e-24  2.3111e-24  6.8026e-24  3.7401e-24  6.9358e-24  6.2852e-24  7.1724e-24  1.0824e-23  7.5926e-24  1.8935e-23  8.3378e-24  3.3485e-23  9.6584e-24  5.9757e-23  1.1994e-23  1.0773e-22
      3.55  6.1823e-24  5.0231e-25  6.1824e-24  5.0485e-25  6.1827e-24  5.0938e-25  6.1831e-24  5.1743e-25  6.1838e-24  5.3174e-25  6.1851e-24  5.5719e-25  6.1875e-24  6.0245e-25  6.1916e-24  6.8294e-25  6.1989e-24  8.2608e-25  6.2120e-24  1.0807e-24  6.2352e-24  1.5335e-24  6.2765e-24  2.3392e-24  6.3499e-24  3.7733e-24  6.4803e-24  6.3274e-24  6.7121e-24  1.0882e-23  7.1234e-24  1.9021e-23  7.8529e-24  3.3622e-23  9.1450e-24  5.9985e-23  1.1429e-23  1.0812e-22
      3.60  5.7620e-24  5.2456e-25  5.7622e-24  5.2713e-25  5.7624e-24  5.3169e-25  5.7628e-24  5.3980e-25  5.7635e-24  5.5422e-25  5.7648e-24  5.7987e-25  5.7671e-24  6.2549e-25  5.7711e-24  7.0660e-25  5.7783e-24  8.5087e-25  5.7911e-24  1.1074e-24  5.8138e-24  1.5638e-24  5.8543e-24  2.3758e-24  5.9261e-24  3.8211e-24  6.0539e-24  6.3951e-24  6.2807e-24  1.0985e-23  6.6834e-24  1.9188e-23  7.3975e-24  3.3900e-23  8.6617e-24  6.0463e-23  1.0894e-23  1.0896e-22
      3.65  5.3690e-24  5.4748e-25  5.3691e-24  5.5008e-25  5.3693e-24  5.5470e-25  5.3697e-24  5.6293e-25  5.3704e-24  5.7756e-25  5.3717e-24  6.0357e-25  5.3739e-24  6.4983e-25  5.3778e-24  7.3210e-25  5.3849e-24  8.7840e-25  5.3974e-24  1.1386e-24  5.4197e-24  1.6015e-24  5.4593e-24  2.4250e-24  5.5296e-24  3.8907e-24  5.6547e-24  6.5011e-24  5.8768e-24  1.1156e-23  6.2710e-24  1.9474e-23  6.9697e-24  3.4392e-23  8.2063e-24  6.1323e-23  1.0389e-23  1.1049e-22
      3.70  5.0016e-24  5.7109e-25  5.0017e-24  5.7377e-25  5.0019e-24  5.7854e-25  5.0023e-24  5.8701e-25  5.0030e-24  6.0207e-25  5.0042e-24  6.2886e-25  5.0064e-24  6.7651e-25  5.0103e-24  7.6123e-25  5.0172e-24  9.1191e-25  5.0294e-24  1.1799e-24  5.0512e-24  1.6566e-24  5.0900e-24  2.5047e-24  5.1589e-24  4.0142e-24  5.2813e-24  6.7026e-24  5.4986e-24  1.1496e-23  5.8843e-24  2.0062e-23  6.5679e-24  3.5423e-23  7.7769e-24  6.3151e-23  9.9091e-24  1.1376e-22
      3.75  4.6585e-24  5.9538e-25  4.6586e-24  5.9815e-25  4.6588e-24  6.0306e-25  4.6592e-24  6.1180e-25  4.6599e-24  6.2733e-25  4.6611e-24  6.5496e-25  4.6632e-24  7.0409e-25  4.6670e-24  7.9147e-25  4.6737e-24  9.4686e-25  4.6857e-24  1.2232e-24  4.7071e-24  1.7148e-24  4.7450e-24  2.5894e-24  4.8124e-24  4.1461e-24  4.9321e-24  6.9184e-24  5.1448e-24  1.1862e-23  5.5220e-24  2.0694e-23  6.1904e-24  3.6535e-23  7.3720e-24  6.5128e-23  9.4544e-24  1.1732e-22
      3.80  4.3384e-24  6.2132e-25  4.3385e-24  6.2422e-25  4.3387e-24  6.2939e-25  4.3391e-24  6.3857e-25  4.3398e-24  6.5490e-25  4.3409e-24  6.8394e-25  4.3430e-24  7.3558e-25  4.3467e-24  8.2742e-25  4.3533e-24  9.9075e-25  4.3651e-24  1.2812e-24  4.3859e-24  1.7980e-24  4.4230e-24  2.7173e-24  4.4889e-24  4.3534e-24  4.6060e-24  7.2675e-24  4.8140e-24  1.2464e-23  5.1828e-24  2.1748e-23  5.8362e-24  3.8401e-23  6.9907e-24  6.8465e-23  9.0240e-24  1.2336e-22
      3.85  4.0397e-24  6.4846e-25  4.0398e-24  6.5159e-25  4.0400e-24  6.5717e-25  4.0404e-24  6.6708e-25  4.0410e-24  6.8471e-25  4.0422e-24  7.1605e-25  4.0442e-24  7.7180e-25  4.0479e-24  8.7093e-25  4.0543e-24  1.0472e-24  4.0658e-24  1.3608e-24  4.0862e-24  1.9186e-24  4.1225e-24  2.9110e-24  4.1868e-24  4.6772e-24  4.3014e-24  7.8231e-24  4.5048e-24  1.3433e-23  4.8655e-24  2.3458e-23  5.5042e-24  4.1442e-23  6.6324e-24  7.3923e-23  8.6183e-24  1.3328e-22
      3.90  3.7612e-24  6.7836e-25  3.7613e-24  6.8186e-25  3.7615e-24  6.8809e-25  3.7619e-24  6.9916e-25  3.7625e-24  7.1884e-25  3.7636e-24  7.5384e-25  3.7656e-24  8.1609e-25  3.7692e-24  9.2678e-25  3.7755e-24  1.1237e-24  3.7867e-24  1.4738e-24  3.8067e-24  2.0966e-24  3.8422e-24  3.2048e-24  3.9053e-24  5.1771e-24  4.0174e-24  8.6903e-24  4.2164e-24  1.4956e-23  4.5693e-24  2.6154e-23  5.1941e-24  4.6251e-23  6.2974e-24  8.2566e-23  8.2385e-24  1.4900e-22
      3.95  3.5017e-24  7.1707e-25  3.5018e-24  7.2112e-25  3.5020e-24  7.2832e-25  3.5023e-24  7.4113e-25  3.5030e-24  7.6389e-25  3.5041e-24  8.0438e-25  3.5060e-24  8.7638e-25  3.5095e-24  1.0044e-24  3.5157e-24  1.2321e-24  3.5267e-24  1.6371e-24  3.5463e-24  2.3576e-24  3.5810e-24  3.6394e-24  3.6428e-24  5.9210e-24  3.7527e-24  9.9853e-24  3.9476e-24  1.7234e-23  4.2933e-24  3.0194e-23  4.9053e-24  5.3460e-23  5.9855e-24  9.5532e-23  7.8854e-24  1.7259e-22
