# This was generated using Cloudy10 and the columns are ordered 
# as log10 of the fraction of the metallicity to the solar metallicity
# 'h_*_Z' and 'c_*_Z' stands for cooling and heating respectively 
# at * metalicity
#
# Redshift = 0.5
# hden = 4.5
#     temp   h_-3.00_Z   c_-3.00_Z   h_-2.75_Z   c_-2.75_Z   h_-2.50_Z   c_-2.50_Z   h_-2.25_Z   c_-2.25_Z   h_-2.00_Z   c_-2.00_Z   h_-1.75_Z   c_-1.75_Z   h_-1.50_Z   c_-1.50_Z   h_-1.25_Z   c_-1.25_Z   h_-1.00_Z   c_-1.00_Z   h_-0.75_Z   c_-0.75_Z   h_-0.50_Z   c_-0.50_Z   h_-0.25_Z   c_-0.25_Z    h_0.00_Z    c_0.00_Z    h_0.25_Z    c_0.25_Z    h_0.50_Z    c_0.50_Z    h_0.75_Z    c_0.75_Z    h_1.00_Z    c_1.00_Z    h_1.25_Z    c_1.25_Z    h_1.50_Z    c_1.50_Z 
      4.00  8.5341e-29  1.9618e-26  8.5342e-29  1.9656e-26  8.5343e-29  1.9723e-26  8.5346e-29  1.9841e-26  8.5351e-29  2.005e-26  8.5359e-29  2.0421e-26  8.5374e-29  2.108e-26  8.5401e-29  2.225e-26  8.5448e-29  2.4332e-26  8.5532e-29  2.8027e-26  8.5682e-29  3.4559e-26  8.5962e-29  4.6009e-26  8.6539e-29  6.5785e-26  8.7879e-29  9.9136e-26  9.0941e-29  1.5371e-25  9.6606e-29  2.4062e-25  1.0551e-28  3.8013e-25  1.1893e-28  6.2979e-25  1.4101e-28  1.2008e-24
      4.05   8.43e-29  1.545e-25  8.4306e-29  1.5458e-25  8.4317e-29  1.5473e-25  8.4337e-29  1.5498e-25  8.4372e-29  1.5545e-25  8.4435e-29  1.5626e-25  8.4546e-29  1.5771e-25  8.4744e-29  1.6027e-25  8.5095e-29  1.6483e-25  8.5717e-29  1.7291e-25  8.6812e-29  1.8717e-25  8.8731e-29  2.1204e-25  9.2049e-29  2.5449e-25  9.7593e-29  3.2405e-25  1.0612e-28  4.2959e-25  1.1736e-28  5.7337e-25  1.287e-28  7.5199e-25  1.3929e-28  1.0566e-24  1.5438e-28  1.8873e-24
      4.10  7.8486e-29  2.5222e-24  7.8533e-29  2.5227e-24  7.8616e-29  2.5236e-24  7.8764e-29  2.5253e-24  7.9027e-29  2.5282e-24  7.9495e-29  2.5333e-24  8.0326e-29  2.5424e-24  8.1802e-29  2.5586e-24  8.4422e-29  2.5874e-24  8.9067e-29  2.6384e-24  9.7282e-29  2.7291e-24  1.1174e-28  2.8894e-24   1.37e-28  3.1713e-24  1.8047e-28  3.6617e-24  2.5329e-28  4.4959e-24  3.6903e-28  5.8537e-24  5.3342e-28  7.8616e-24  7.1012e-28  1.0222e-23  7.5513e-28  1.1385e-23
      4.15  6.5355e-29  2.341e-23  6.5529e-29  2.3412e-23  6.5838e-29  2.3417e-23  6.6388e-29  2.3425e-23  6.7366e-29  2.344e-23  6.9105e-29  2.3466e-23  7.2197e-29  2.3512e-23  7.7695e-29  2.3595e-23  8.7467e-29  2.3741e-23  1.0483e-28  2.4001e-23  1.3568e-28  2.4463e-23  1.9041e-28  2.5285e-23  2.8737e-28  2.6742e-23  4.5862e-28  2.9323e-23  7.5944e-28  3.3879e-23  1.2826e-27  4.1867e-23  2.176e-27  5.5707e-23  3.6509e-27  7.9151e-23  5.9332e-27  1.1726e-22
      4.20  5.0272e-29  8.6033e-23  5.0577e-29  8.6041e-23  5.112e-29  8.6054e-23  5.2085e-29  8.6078e-23   5.38e-29  8.612e-23  5.685e-29  8.6196e-23  6.2275e-29  8.633e-23  7.1921e-29  8.6568e-23  8.9073e-29  8.6992e-23  1.1957e-28  8.7747e-23  1.7379e-28  8.9088e-23  2.7019e-28  9.1473e-23  4.4152e-28  9.5715e-23  7.4594e-28  1.0326e-22  1.2863e-27  1.1667e-22  2.2445e-27  1.4053e-22  3.9402e-27  1.8297e-22  6.9269e-27  2.5843e-22  1.2147e-26  3.9255e-22
      4.25  6.5027e-29  1.2957e-22  6.5228e-29  1.2958e-22  6.5585e-29  1.2961e-22  6.6221e-29  1.2964e-22  6.7352e-29  1.2971e-22  6.9363e-29  1.2983e-22  7.294e-29  1.3004e-22  7.9301e-29  1.3041e-22  9.0614e-29  1.3107e-22  1.1074e-28  1.3225e-22  1.4654e-28  1.3434e-22  2.1026e-28  1.3807e-22  3.2373e-28  1.4469e-22  5.2603e-28  1.5649e-22  8.8737e-28  1.7751e-22  1.535e-27  2.1501e-22  2.702e-27  2.8208e-22  4.825e-27  4.0258e-22  8.749e-27  6.2075e-22
      4.30  1.4363e-28  1.2069e-22  1.4339e-28  1.2071e-22  1.4297e-28  1.2073e-22  1.4223e-28  1.2077e-22  1.409e-28  1.2085e-22  1.3854e-28  1.2099e-22  1.3434e-28  1.2123e-22  1.2688e-28  1.2166e-22  1.1362e-28  1.2243e-22  1.0848e-28  1.238e-22  1.8017e-28  1.2624e-22  3.0778e-28  1.3058e-22  5.3507e-28  1.3829e-22  9.4037e-28  1.5203e-22  1.6644e-27  1.7651e-22  2.9618e-27  2.202e-22  5.2967e-27  2.9841e-22  9.5275e-27  4.3911e-22  1.7274e-26  6.9448e-22
      4.35  3.0167e-28  9.6422e-23  3.0085e-28  9.6438e-23  2.9938e-28  9.6467e-23  2.9677e-28  9.6519e-23  2.9214e-28  9.6612e-23  2.839e-28  9.6776e-23  2.6925e-28  9.7068e-23  2.432e-28  9.7587e-23  1.9688e-28  9.851e-23  1.5874e-28  1.0015e-22  2.6836e-28  1.0307e-22  4.6358e-28  1.0827e-22  8.1161e-28  1.1751e-22  1.4331e-27  1.3397e-22  2.546e-27  1.6329e-22  4.5462e-27  2.1564e-22  8.1599e-27  3.0933e-22  1.4733e-26  4.7791e-22  2.6728e-26  7.8392e-22
      4.40  4.5708e-28  7.5924e-23  4.5571e-28  7.5945e-23  4.5327e-28  7.5983e-23  4.4895e-28  7.6049e-23  4.4125e-28  7.6169e-23  4.2756e-28  7.638e-23  4.0322e-28  7.6757e-23  3.5994e-28  7.7426e-23   2.83e-28  7.8616e-23  2.1536e-28  8.0733e-23  3.6547e-28  8.4499e-23  6.3316e-28  9.1197e-23  1.1115e-27  1.0312e-22  1.9686e-27  1.2433e-22  3.5107e-27  1.6214e-22  6.2987e-27  2.2959e-22  1.1362e-26  3.5028e-22  2.0381e-26  5.6733e-22  3.661e-26  9.6097e-22
      4.45  4.4949e-28  6.0224e-23  4.4767e-28  6.0252e-23  4.4442e-28  6.0302e-23  4.3865e-28  6.0391e-23  4.2839e-28  6.0549e-23  4.1014e-28  6.083e-23  3.777e-28  6.133e-23  3.2005e-28  6.222e-23  2.1761e-28  6.3801e-23  2.7075e-28  6.6615e-23  4.6019e-28  7.1618e-23  7.9963e-28  8.0518e-23  1.4105e-27  9.6354e-23  2.5157e-27  1.2454e-22  4.5263e-27  1.7476e-22  8.1431e-27  2.6436e-22  1.4513e-26  4.2469e-22  2.5827e-26  7.1292e-22  4.6093e-26  1.2354e-21
      4.50  3.3329e-28  4.7532e-23  3.3108e-28  4.757e-23  3.2717e-28  4.7636e-23  3.202e-28  4.7755e-23  3.0782e-28  4.7965e-23  2.858e-28  4.8339e-23  2.4668e-28  4.9005e-23  1.7716e-28  5.0188e-23  1.8096e-28  5.2292e-23  3.0213e-28  5.6035e-23  5.1948e-28  6.2691e-23  9.1141e-28  7.4532e-23  1.6229e-27   9.56e-23  2.9244e-27  1.331e-22  5.2446e-27  1.9993e-22  9.3215e-27  3.1923e-22  1.657e-26  5.3275e-22  2.9422e-26  9.1683e-22  5.2677e-26  1.6138e-21
      4.55  2.2504e-28  3.7706e-23  2.2261e-28  3.7756e-23  2.1829e-28  3.7844e-23  2.1061e-28  3.8001e-23  1.9696e-28  3.8281e-23  1.7269e-28  3.8779e-23  1.2956e-28  3.9663e-23  1.0692e-28  4.1237e-23  1.7651e-28  4.4035e-23  3.0126e-28  4.9012e-23  5.2606e-28  5.7863e-23  9.3437e-28  7.3609e-23  1.6837e-27  1.0163e-22  3.0173e-27  1.5151e-22  5.3799e-27  2.4042e-22  9.5895e-27  3.9915e-22  1.6996e-26  6.8339e-22  3.0249e-26  1.1951e-21  5.4301e-26  2.125e-21
      4.60  1.5241e-28  3.0454e-23    1.5e-28  3.052e-23  1.4572e-28  3.0637e-23  1.381e-28  3.0846e-23  1.2456e-28  3.1218e-23  1.005e-28  3.1878e-23  5.7757e-29  3.3052e-23  9.2935e-29  3.5141e-23  1.5708e-28  3.8855e-23  2.7254e-28  4.5461e-23  4.8206e-28  5.7211e-23  8.6683e-28  7.8113e-23  1.5555e-27  1.1531e-22  2.7887e-27  1.8154e-22  4.9717e-27  2.996e-22  8.8436e-27  5.104e-22  1.5715e-26  8.8804e-22  2.8028e-26  1.5684e-21  5.0412e-26  2.8063e-21
      4.65  1.0775e-28  2.6174e-23  1.0559e-28  2.6262e-23  1.0165e-28  2.6158e-23  9.4872e-29  2.6434e-23  8.2813e-29  2.6925e-23  6.1387e-29  2.7799e-23  4.5788e-29  2.9352e-23  7.5587e-29  3.2115e-23  1.2914e-28  3.7028e-23  2.2611e-28  4.5766e-23  4.0383e-28  6.1307e-23  7.275e-28  8.8957e-23  1.3097e-27  1.3816e-22  2.3454e-27  2.2579e-22  4.2073e-27  3.8201e-22  7.4999e-27  6.6106e-22  1.3323e-26  1.1612e-21  2.3761e-26  2.0632e-21  4.2758e-26  3.7073e-21
      4.70  8.0564e-29  2.4914e-23  7.8837e-29  2.5029e-23  7.5767e-29  2.5233e-23  7.0308e-29  2.5596e-23  6.0609e-29  2.6242e-23  4.3383e-29  2.7391e-23  3.6361e-29  2.9434e-23  5.9458e-29  3.3067e-23  1.0119e-28  3.9528e-23  1.7746e-28  5.102e-23  3.1937e-28  7.1462e-23  5.7729e-28  1.0783e-22  1.0474e-27  1.7256e-22  1.8859e-27  2.8786e-22  3.366e-27  4.9348e-22  5.9735e-27  8.6098e-22  1.0621e-26  1.5204e-21  1.8947e-26  2.7116e-21   3.41e-26  4.8892e-21
      4.75  6.3862e-29  2.9713e-23  6.2612e-29  2.9862e-23  6.039e-29  3.0127e-23  5.644e-29  3.0598e-23  4.9426e-29  3.1436e-23  3.698e-29  3.2927e-23  3.0258e-29  3.5577e-23  4.7757e-29  4.0291e-23  7.9734e-29  4.8673e-23  1.3929e-28  6.3583e-23  2.532e-28  9.0106e-23  4.5988e-28  1.373e-22  8.2801e-28  2.213e-22  1.4801e-27  3.7097e-22  2.6351e-27  6.3799e-22  4.6759e-27  1.1156e-21  8.2984e-27  1.9737e-21  1.478e-26  3.5272e-21  2.6609e-26  6.3773e-21
      4.80  5.2221e-29  4.342e-23  5.1451e-29  4.3609e-23  5.0084e-29  4.3946e-23  4.7657e-29  4.4545e-23  4.3354e-29  4.5611e-23  3.5747e-29  4.7505e-23  2.7706e-29  5.0874e-23  4.1475e-29  5.6865e-23   6.73e-29  6.752e-23  1.1741e-28  8.6472e-23  2.1266e-28  1.2019e-22  3.7842e-28  1.8018e-22  6.7304e-28  2.8699e-22  1.2005e-27  4.7732e-22  2.1319e-27  8.1704e-22  3.7744e-27  1.4251e-21  6.6984e-27  2.5189e-21  1.1926e-26  4.5033e-21  2.1476e-26  8.1561e-21
      4.85  4.1627e-29  6.4769e-23  4.1342e-29  6.5004e-23  4.0837e-29  6.5422e-23  3.9948e-29  6.6165e-23  3.8391e-29  6.7485e-23  3.5701e-29  6.9834e-23  3.1158e-29  7.4012e-23  3.9623e-29  8.144e-23  6.3348e-29  9.4652e-23  1.0945e-28  1.1815e-22  1.9239e-28  1.5996e-22  3.3731e-28  2.3436e-22  5.983e-28  3.6683e-22  1.0596e-27  6.0293e-22  1.8712e-27  1.0245e-21  3.2974e-27  1.7795e-21  5.8084e-27  3.1391e-21  1.0255e-26   5.61e-21  1.8334e-26  1.0172e-20
      4.90  3.0775e-29  8.0629e-23  3.0974e-29  8.091e-23  3.1334e-29  8.1411e-23  3.1989e-29  8.2301e-23  3.3205e-29  8.3884e-23  3.5527e-29  8.6699e-23  4.0154e-29  9.1704e-23  4.992e-29  1.0061e-22  7.084e-29  1.1644e-22  1.1351e-28  1.446e-22  1.9591e-28  1.947e-22  3.443e-28  2.8386e-22  6.1031e-28  4.4262e-22  1.0672e-27  7.2562e-22  1.8525e-27  1.231e-21  3.2026e-27  2.1364e-21  5.5394e-27  3.7678e-21  9.5749e-27  6.736e-21  1.6856e-26  1.2226e-20
      4.95  2.2123e-29  7.955e-23  2.2669e-29  7.9874e-23  2.3651e-29  8.045e-23  2.5436e-29  8.1476e-23  2.8727e-29  8.3299e-23  3.495e-29  8.6541e-23  4.7118e-29  9.2306e-23  7.2216e-29  1.0256e-22  1.2056e-28  1.208e-22  2.0733e-28  1.5323e-22  3.6193e-28  2.1094e-22  6.3468e-28  3.1364e-22  1.1018e-27  4.9651e-22  1.8957e-27  8.2252e-22  3.253e-27  1.4048e-21  5.5975e-27  2.4482e-21  9.7129e-27  4.329e-21  1.727e-26  7.7536e-21  3.195e-26  1.4096e-20
      5.00  1.7019e-29  6.7586e-23  1.7762e-29  6.7944e-23  1.9115e-29  6.858e-23  2.1617e-29  6.9712e-23  2.6371e-29  7.1724e-23  3.5711e-29  7.5303e-23  5.5141e-29  8.1668e-23  9.5112e-29  9.2987e-23  1.7095e-28  1.1312e-22  3.1015e-28  1.4893e-22  5.415e-28  2.1263e-22  9.3468e-28  3.2602e-22  1.5945e-27  5.2795e-22  2.6847e-27  8.8798e-22  4.4853e-27  1.5312e-21  7.5191e-27  2.6846e-21  1.2764e-26  4.7655e-21  2.2252e-26  8.5608e-21  4.0118e-26  1.561e-20
      5.05  1.4632e-29  5.4064e-23  1.5436e-29  5.4432e-23  1.6954e-29  5.5086e-23  1.993e-29  5.625e-23  2.6061e-29  5.8319e-23  3.9193e-29  6.1998e-23  6.566e-29  6.8542e-23  1.2407e-28  8.0178e-23  2.4158e-28  1.0088e-22  4.2212e-28  1.3769e-22  7.1837e-28  2.0319e-22  1.1979e-27  3.1978e-22  1.961e-27  5.2745e-22  3.1461e-27  8.9781e-22  5.0295e-27  1.5598e-21  8.1255e-27  2.7477e-21  1.3473e-26  4.894e-21  2.3073e-26  8.8178e-21  4.053e-26  1.6134e-20
      5.10  1.3658e-29  4.2678e-23  1.4515e-29  4.3036e-23  1.6298e-29  4.3672e-23  2.0262e-29  4.4805e-23  2.9544e-29  4.6818e-23  4.6902e-29  5.0399e-23  8.6722e-29  5.6766e-23    1.8e-28  6.8091e-23  3.2942e-28  8.8232e-23  5.5963e-28  1.2406e-22  9.1272e-28  1.8781e-22  1.4437e-27  3.0129e-22  2.2279e-27  5.0345e-22  3.3837e-27  8.6408e-22  5.1702e-27  1.509e-21  7.9561e-27  2.6673e-21  1.2615e-26  4.7631e-21  2.1025e-26  8.6042e-21  3.6639e-26  1.5796e-20
      5.15  1.3393e-29  3.394e-23  1.4435e-29  3.4296e-23  1.6933e-29  3.4928e-23  2.3382e-29  3.6053e-23  3.6104e-29  3.8054e-23  6.2977e-29  4.1611e-23  1.2819e-28  4.7937e-23  2.5076e-28  5.9188e-23  4.3944e-28  7.9199e-23  7.1733e-28  1.148e-22  1.1069e-27  1.7814e-22  1.6547e-27  2.909e-22  2.4264e-27  4.9181e-22  3.5298e-27  8.503e-22  4.9137e-27  1.4917e-21  7.263e-27  2.6443e-21  1.1388e-26  4.7326e-21  1.885e-26  8.568e-21  3.2674e-26  1.5773e-20
      5.20  1.3518e-29  2.7407e-23  1.4988e-29  2.7773e-23  1.896e-29  2.8425e-23  2.9407e-29  2.9585e-23  4.8159e-29  3.1646e-23  9.2809e-29  3.5313e-23  1.9672e-28  4.1833e-23  3.3871e-28  5.3429e-23  5.5432e-28  7.4054e-23  8.7051e-28  1.1075e-22  1.2882e-27  1.7604e-22  1.8408e-27  2.9228e-22  2.5663e-27  4.994e-22  3.2994e-27  8.6907e-22  4.5243e-27  1.5306e-21  6.6646e-27  2.7204e-21  1.0485e-26  4.8781e-21  1.7413e-26  8.8479e-21  3.0233e-26  1.6328e-20
      5.25  1.3889e-29  2.251e-23  1.6167e-29  2.2887e-23  2.2706e-29  2.3559e-23  3.9057e-29  2.4753e-23  7.2952e-29  2.6877e-23  1.3411e-28  3.0653e-23  2.5447e-28  3.7369e-23  4.1896e-28  4.9313e-23  6.4853e-28  7.0558e-23  9.7727e-28  1.0835e-22  1.4138e-27  1.7561e-22  1.9764e-27  2.9535e-22  2.428e-27  5.0876e-22  3.1653e-27  8.897e-22  4.434e-27  1.5717e-21  6.6541e-27  2.799e-21  1.0584e-26  5.0272e-21  1.7692e-26  9.1343e-21  3.0859e-26  1.6896e-20
      5.30  1.4667e-29  1.8802e-23  1.8616e-29  1.9185e-23  3.0272e-29  1.9867e-23  6.0582e-29  2.1081e-23  9.8376e-29  2.3238e-23  1.686e-28  2.7075e-23  2.9602e-28  3.3898e-23  4.6614e-28  4.6034e-23  7.1273e-28  6.762e-23  1.0337e-27  1.0602e-22  1.5069e-27  1.7436e-22  1.9004e-27  2.9604e-22  2.3887e-27  5.1293e-22  3.1134e-27  9.0017e-22  4.3061e-27  1.5937e-21  6.3879e-27  2.8427e-21  9.9532e-27  5.113e-21  1.6436e-26  9.3063e-21  2.8456e-26  1.7256e-20
      5.35  1.6157e-29  1.5973e-23  2.329e-29  1.6363e-23  4.4114e-29  1.7057e-23  7.6167e-29  1.8291e-23  1.1894e-28  2.0486e-23  1.906e-28  2.4389e-23  3.2027e-28  3.1329e-23  4.9155e-28  4.3674e-23  7.3395e-28  6.5632e-23  1.1114e-27  1.0469e-22  1.5452e-27  1.7421e-22  1.8333e-27  2.9801e-22  2.2708e-27  5.187e-22  2.9601e-27  9.1281e-22  4.1085e-27  1.619e-21  6.0051e-27  2.8915e-21  9.4066e-27  5.2075e-21  1.5572e-26  9.4937e-21  2.7033e-26  1.7647e-20
      5.40  1.7392e-29  1.3763e-23  2.7306e-29  1.4143e-23  5.1294e-29  1.4819e-23  7.9437e-29  1.602e-23  1.2504e-28  1.8157e-23  1.9179e-28  2.1957e-23  3.0969e-28  2.8715e-23  5.0741e-28  4.0734e-23  7.6966e-28  6.2113e-23  1.2047e-27  1.0015e-22  1.4834e-27  1.6784e-22  1.7788e-27  2.884e-22  2.2449e-27  5.0334e-22  2.9743e-27  8.8729e-22  4.1877e-27  1.5756e-21  6.164e-27  2.8169e-21  9.6226e-27  5.0794e-21  1.5929e-26  9.2765e-21  2.7647e-26  1.729e-20
      5.45  1.5916e-29  1.1969e-23  2.3493e-29  1.2287e-23  4.498e-29  1.2853e-23  6.9227e-29  1.386e-23  1.0723e-28  1.5651e-23  1.7398e-28  1.8835e-23  2.8301e-28  2.4499e-23  4.6453e-28  3.4571e-23  7.8735e-28  5.2486e-23  1.264e-27  8.436e-23  1.4953e-27  1.4109e-22  1.8446e-27  2.4214e-22  2.3672e-27  4.2233e-22  3.0885e-27  7.4434e-22  4.2517e-27  1.3219e-21  6.1892e-27  2.3649e-21  9.5637e-27  4.2693e-21  1.5683e-26  7.8137e-21  2.7134e-26  1.4615e-20
      5.50  1.323e-29  1.0473e-23  1.6321e-29  1.0703e-23  2.5159e-29  1.1111e-23  4.9899e-29  1.1837e-23  8.4506e-29  1.3127e-23  1.4313e-28  1.5422e-23  2.5006e-28  1.9504e-23  4.3961e-28  2.6764e-23  7.5943e-28  3.9676e-23  1.212e-27  6.265e-23  1.5706e-27  1.0354e-22  1.9695e-27  1.7639e-22  2.4106e-27  3.0632e-22  3.0636e-27  5.3859e-22  4.0142e-27  9.5551e-22  5.6045e-27  1.7091e-21  8.3991e-27  3.088e-21  1.345e-26  5.6622e-21  2.2869e-26  1.0627e-20
      5.55  1.1957e-29  9.3072e-24  1.3454e-29  9.4797e-24  1.7564e-29  9.7866e-24  2.9747e-29  1.0332e-23  6.1423e-29  1.1302e-23  1.2496e-28  1.3028e-23  2.407e-28  1.6096e-23  4.4756e-28  2.1554e-23  8.0679e-28  3.1573e-23  1.2094e-27  4.8533e-23  1.6026e-27  7.928e-23  1.9677e-27  1.3406e-22  2.3466e-27  2.3177e-22  2.8272e-27  4.0649e-22  3.5877e-27  7.2024e-22  4.821e-27  1.2878e-21  6.9913e-27  2.3275e-21  1.0934e-26  4.2726e-21  1.8247e-26  8.0356e-21
      5.60  1.1455e-29  8.4107e-24  1.302e-29  8.5605e-24  1.7513e-29  8.8268e-24  3.0591e-29  9.3003e-24  5.5011e-29  1.0142e-23  1.1477e-28  1.164e-23  2.4896e-28  1.4303e-23  4.7035e-28  1.9039e-23  8.6852e-28  2.7463e-23  1.2029e-27  4.2455e-23  1.5698e-27  6.9141e-23  1.8149e-27  1.1669e-22  2.0955e-27  2.0151e-22  2.4934e-27  3.5321e-22  3.1222e-27  6.2567e-22  4.1394e-27  1.1188e-21  5.9218e-27  2.0227e-21  9.1529e-27  3.7159e-21  1.5141e-26  6.9977e-21
      5.65  1.1102e-29  7.7112e-24  1.3121e-29  7.8542e-24  1.9003e-29  8.1084e-24  3.5247e-29  8.5604e-24  6.697e-29  9.3642e-24  1.3095e-28  1.0794e-23  2.5963e-28  1.3336e-23  5.0313e-28  1.7856e-23  9.1987e-28  2.5898e-23  1.2357e-27  4.061e-23  1.5126e-27  6.5684e-23  1.684e-27  1.1107e-22  1.9302e-27  1.9205e-22  2.2757e-27  3.3689e-22  2.8508e-27  5.9709e-22  3.7799e-27  1.0681e-21  5.4159e-27  1.9321e-21  8.3819e-27  3.5517e-21  1.3898e-26  6.6953e-21
      5.70  1.0757e-29  7.1546e-24  1.3244e-29  7.2945e-24  2.0512e-29  7.5433e-24  4.1505e-29  7.9857e-24  7.5854e-29  8.7724e-24  1.4833e-28  1.0171e-23  2.9629e-28  1.2659e-23  5.6734e-28  1.7084e-23  8.9313e-28  2.4955e-23  1.1358e-27  3.8962e-23  1.3433e-27   6.39e-23  1.5149e-27  1.0833e-22  1.7485e-27  1.876e-22  2.0693e-27  3.2939e-22  2.6131e-27  5.8417e-22  3.5297e-27  1.0455e-21  5.2147e-27  1.911e-21  8.0694e-27  3.4805e-21  1.3546e-26  6.5672e-21
      5.75  1.0147e-29  6.6477e-24  1.2853e-29  6.7809e-24  2.0683e-29  7.0178e-24  4.0977e-29  7.4391e-24  8.1502e-29  8.1882e-24  1.6256e-28  9.5202e-24  3.3462e-28  1.1889e-23  6.0417e-28  1.6102e-23  8.0047e-28  2.3598e-23  9.8156e-28  3.6938e-23  1.1256e-27  6.0685e-23  1.2969e-27   1.03e-22  1.5068e-27  1.7849e-22  1.8339e-27  3.1355e-22  2.3729e-27  5.5627e-22  3.2924e-27  9.9593e-22  4.9361e-27  1.8032e-21  7.9426e-27  3.3192e-21  1.3602e-26  6.2695e-21
      5.80  9.4993e-30  6.2572e-24  1.2179e-29  6.3795e-24  1.9775e-29  6.5971e-24  4.0015e-29  6.984e-24  8.5196e-29  7.672e-24  1.8245e-28  8.8954e-24  3.4496e-28  1.1071e-23  5.4132e-28  1.4941e-23  6.8569e-28  2.1827e-23  8.3604e-28  3.408e-23  9.4863e-28  5.5895e-23  1.1315e-27  9.4762e-23  1.3534e-27  1.6412e-22  1.6874e-27  2.8821e-22  2.2582e-27  5.1127e-22  3.2503e-27  9.1548e-22  5.0272e-27  1.6582e-21  8.3085e-27  3.0544e-21  1.4542e-26  5.776e-21
      5.85  9.1081e-30   5.96e-24  1.2163e-29  6.0753e-24  2.0471e-29  6.2805e-24  4.1942e-29  6.6453e-24  9.3205e-29  7.294e-24  2.0198e-28  8.4474e-24  3.2308e-28  1.0499e-23  4.7863e-28  1.4149e-23  6.0214e-28  2.0642e-23  7.5326e-28  3.2197e-23  8.8633e-28  5.2768e-23  1.0465e-27  8.9422e-23  1.2873e-27  1.5483e-22  1.6632e-27  2.7188e-22  2.3159e-27  4.8232e-22  3.4606e-27  8.6382e-22  5.5328e-27  1.5652e-21  9.3745e-27  2.8852e-21  1.6726e-26  5.4624e-21
      5.90  8.8433e-30  5.7435e-24  1.2558e-29  5.8587e-24  2.2419e-29  6.0636e-24  4.719e-29  6.4278e-24  1.0467e-28  7.0754e-24  2.0622e-28  8.2272e-24  3.2633e-28  1.0276e-23  4.3487e-28  1.3921e-23  5.7482e-28  2.0404e-23  7.102e-28  3.1943e-23  8.4227e-28  5.2484e-23  1.0087e-27  8.9088e-23  1.2838e-27  1.5441e-22  1.7452e-27  2.7132e-22  2.5384e-27  4.8156e-22  3.9519e-27  8.6281e-22  6.5254e-27  1.5642e-21  1.1323e-26  2.8854e-21  2.0569e-26  5.4689e-21
      5.95  8.4724e-30  5.5889e-24  1.259e-29  5.7065e-24  2.3499e-29  5.9156e-24  5.0941e-29  6.2874e-24  1.1283e-28  6.9486e-24  2.1492e-28  8.1244e-24  3.3319e-28  1.0216e-23  4.4542e-28  1.3936e-23  5.6729e-28  2.0761e-23  6.7759e-28  3.2334e-23  8.3472e-28  5.3305e-23  1.0206e-27  9.0675e-23  1.3263e-27  1.5737e-22  1.8613e-27  2.7675e-22  2.8022e-27  4.9147e-22  4.483e-27  8.8099e-22  7.5578e-27  1.598e-21  1.3311e-26  2.9501e-21  2.4457e-26  5.5978e-21
      6.00  7.8266e-30  5.4797e-24  1.1772e-29  5.5977e-24  2.2421e-29  5.8075e-24  5.0674e-29  6.2424e-24  1.1318e-28  6.8439e-24  2.3023e-28  8.0236e-24  3.4266e-28  1.0122e-23  4.5363e-28  1.3855e-23  5.6505e-28  2.0496e-23  6.9495e-28  3.2315e-23  8.5653e-28  5.3356e-23  1.0916e-27  9.0853e-23  1.4739e-27  1.5778e-22  2.145e-27  2.7759e-22  3.3398e-27  4.9314e-22  5.5002e-27  8.8433e-22  9.4598e-27  1.6049e-21  1.6894e-26  2.9652e-21  3.1368e-26  5.6335e-21
      6.05  7.0112e-30  5.4228e-24  1.0341e-29  5.5375e-24  1.9313e-29  5.7414e-24  4.3754e-29  6.1039e-24  1.0287e-28  6.7485e-24  2.3064e-28  7.8945e-24  3.5405e-28  9.9334e-24  4.6549e-28  1.356e-23  5.8006e-28  2.0013e-23  7.1058e-28  3.1496e-23  8.7584e-28  5.1942e-23  1.1449e-27  8.8379e-23  1.6021e-27  1.5342e-22  2.409e-27  2.6987e-22  3.8532e-27  4.7943e-22  6.4672e-27  8.5993e-22  1.1269e-26  1.5614e-21  2.031e-26  2.8871e-21  3.7979e-26  5.4927e-21
      6.10  6.3324e-30  5.3977e-24  9.0804e-30  5.5064e-24  1.6591e-29  5.6998e-24  3.6699e-29  6.0436e-24  8.7234e-29  6.6548e-24  2.0036e-28  7.7416e-24  3.3241e-28  9.6748e-24  4.5627e-28  1.3114e-23  5.6245e-28  1.9233e-23  6.8199e-28  3.0122e-23  8.692e-28  4.951e-23  1.1706e-27  8.4063e-23  1.697e-27  1.4575e-22  2.635e-27  2.5621e-22  4.3138e-27  4.5504e-22  7.3547e-27  8.1624e-22  1.2954e-26  1.4826e-21  2.3518e-26  2.7438e-21  4.4232e-26  5.2274e-21
      6.15  5.9903e-30    5.4e-24  8.5099e-30  5.5008e-24  1.4925e-29  5.6802e-24  3.2068e-29  5.9991e-24  7.3089e-29  6.5661e-24  1.5247e-28  7.5742e-24  2.5025e-28  9.3673e-24  3.8329e-28  1.2557e-23  4.8948e-28  1.8232e-23  6.176e-28  2.8331e-23  8.1852e-28  4.6314e-23  1.1454e-27  7.8365e-23  1.725e-27  1.3559e-22  2.7564e-27  2.3807e-22  4.6113e-27  4.226e-22  7.9749e-27  7.5799e-22  1.4173e-26  1.3773e-21  2.589e-26  2.5508e-21  4.8932e-26  4.8665e-21
      6.20  5.7696e-30  5.4243e-24  8.2384e-30  5.5144e-24  1.4302e-29  5.6746e-24  2.8901e-29  5.9594e-24  5.8199e-29  6.4659e-24  1.1265e-28  7.3665e-24  1.8162e-28  8.9683e-24  2.7203e-28  1.1817e-23  3.8081e-28  1.6886e-23  5.1905e-28  2.5907e-23  7.2149e-28  4.1969e-23  1.067e-27  7.0599e-23  1.6681e-27  1.2172e-22  2.7434e-27  2.1329e-22  4.6763e-27  3.7822e-22  8.1859e-27  6.7813e-22  1.4661e-26  1.2324e-21  2.6923e-26  2.2842e-21  5.1098e-26  4.3641e-21
      6.25  5.2701e-30  5.4663e-24  7.5068e-30  5.5421e-24  1.2716e-29  5.6769e-24  2.324e-29  5.9167e-24  4.405e-29  6.3429e-24  8.2011e-29  7.1009e-24  1.2791e-28  8.4488e-24  1.9352e-28  1.0846e-23  2.816e-28  1.5111e-23  4.0839e-28  2.2701e-23  6.0667e-28  3.6217e-23  9.4597e-28  6.0308e-23  1.5395e-27  1.0333e-22  2.596e-27  1.8041e-22  4.4931e-27  3.1928e-22  7.9408e-27  5.7195e-22  1.4309e-26  1.0394e-21  2.6391e-26  1.9277e-21  5.0269e-26  3.6883e-21
      6.30  4.6089e-30  5.5497e-24  6.3578e-30  5.6102e-24  9.9211e-30  5.7178e-24  1.7833e-29  5.9091e-24  3.176e-29  6.2492e-24  5.772e-29  6.854e-24  8.5535e-29  7.9296e-24  1.3436e-28  9.8424e-24  2.0875e-28  1.3245e-23  3.1543e-28  1.9301e-23  4.9943e-28  3.0084e-23  8.1235e-28  4.9305e-23  1.3663e-27  8.3634e-23  2.3494e-27  1.4515e-22  4.1171e-27  2.5602e-22  7.3311e-27  4.5787e-22  1.3274e-26  8.3164e-22  2.4567e-26  1.5432e-21  4.6943e-26  2.9567e-21
      6.35  4.0095e-30  5.6562e-24  5.1892e-30  5.7041e-24  7.8145e-30  5.7892e-24  1.2899e-29  5.9406e-24  2.3425e-29  6.2098e-24  4.2095e-29  6.6884e-24  5.8892e-29  7.5396e-24  9.0192e-29  9.0534e-24  1.4727e-28  1.1746e-23  2.4734e-28  1.6538e-23  4.0906e-28  2.5071e-23   6.95e-28  4.0282e-23  1.1963e-27  6.7452e-23  2.0894e-27  1.1615e-22  3.6998e-27  2.0395e-22  6.6308e-27  3.6389e-22  1.2056e-26  6.6035e-22  2.2383e-26  1.2256e-21  4.2895e-26  2.3513e-21
      6.40  3.4698e-30  5.7852e-24  4.4628e-30  5.824e-24  6.4942e-30  5.8932e-24  9.9813e-30  6.0161e-24  1.6911e-29  6.2347e-24  3.1302e-29  6.6233e-24  4.4165e-29  7.3144e-24  6.6866e-29  8.5436e-24  1.1085e-28  1.073e-23  1.9531e-28  1.4621e-23  3.475e-28  2.155e-23  6.1573e-28  3.3902e-23  1.0892e-27  5.5967e-23  1.9358e-27  9.5522e-23  3.4656e-27  1.6686e-22  6.2523e-27  2.969e-22  1.1418e-26  5.3819e-22  2.1268e-26  9.9898e-22  4.0886e-26  1.9187e-21
      6.45  2.9917e-30  5.9332e-24  3.9397e-30  5.9653e-24  5.4908e-30  6.0225e-24  8.3712e-30  6.1242e-24  1.3384e-29  6.305e-24  2.3269e-29  6.6264e-24  3.7412e-29  7.1981e-24  5.7609e-29  8.2148e-24  9.7388e-29  1.0023e-23  1.7437e-28  1.3241e-23  3.1904e-28  1.8972e-23  5.8119e-28  2.9188e-23  1.051e-27  4.744e-23  1.8982e-27  8.0164e-23  3.4257e-27  1.3921e-22  6.2129e-27  2.4688e-22  1.1387e-26  4.4685e-22  2.1273e-26  8.293e-22  4.1012e-26  1.5943e-21
      6.50  2.4836e-30  6.0979e-24  3.3696e-30  6.1246e-24  4.5831e-30  6.1722e-24  6.8805e-30  6.2567e-24  1.0794e-29  6.407e-24  1.8577e-29  6.6742e-24  2.9039e-29  7.1494e-24  4.6496e-29  7.9946e-24  7.9862e-29  9.4979e-24  1.4502e-28  1.2173e-23  2.7047e-28  1.6936e-23  5.0584e-28  2.5429e-23  9.3452e-28  4.0601e-23  1.7098e-27  6.7809e-23  3.1146e-27  1.1691e-22  5.6824e-27  2.065e-22  1.0455e-26  3.7301e-22  1.9589e-26  6.9185e-22  3.7866e-26  1.3308e-21
      6.55  2.0592e-30  6.309e-24  2.8229e-30  6.3316e-24  3.7717e-30  6.3718e-24  5.5466e-30  6.4434e-24  8.9152e-30  6.5706e-24  1.5279e-29  6.7969e-24  2.4393e-29  7.1993e-24  3.9096e-29  7.9149e-24  6.888e-29  9.1879e-24  1.2762e-28  1.1453e-23  2.4249e-28  1.5487e-23  4.6157e-28  2.2678e-23  8.6841e-28  3.5527e-23  1.6112e-27  5.8571e-23  2.9608e-27  1.0017e-22  5.4319e-27  1.7609e-22  1.0034e-26  3.1727e-22  1.8854e-26  5.8788e-22  3.6537e-26  1.1309e-21
      6.60  1.7128e-30  6.5377e-24  2.3247e-30  6.5576e-24  3.1004e-30  6.5929e-24  4.5502e-30  6.6557e-24  7.4384e-30  6.7673e-24  1.3255e-29  6.9658e-24  2.1702e-29  7.3187e-24  3.5165e-29  7.9465e-24  6.3071e-29  9.0632e-24  1.1961e-28  1.1051e-23  2.3108e-28  1.4589e-23  4.4593e-28  2.0899e-23  8.4941e-28  3.2173e-23  1.5934e-27  5.2393e-23  2.9542e-27  8.8897e-23  5.4509e-27  1.5554e-22  1.0107e-26  2.7954e-22  1.9044e-26  5.1738e-22  3.6987e-26  9.9514e-22
      6.65  1.426e-30  6.7831e-24  1.8839e-30  6.8012e-24  2.5917e-30  6.8335e-24  3.7172e-30  6.8907e-24  6.1416e-30  6.9926e-24  1.1459e-29  7.1737e-24  1.919e-29  7.4958e-24  3.186e-29  8.0687e-24  5.8732e-29  9.0879e-24  1.1407e-28  1.0902e-23  2.2414e-28  1.4131e-23  4.3787e-28  1.989e-23  8.4286e-28  3.018e-23  1.5963e-27  4.8638e-23  2.9827e-27  8.1964e-23  5.5344e-27  1.4282e-22   1.03e-26  2.5609e-22  1.9458e-26  4.7349e-22  3.787e-26  9.1055e-22
      6.70  1.1864e-30  7.044e-24  1.5052e-30  7.0611e-24  2.0702e-30  7.0915e-24  3.1284e-30  7.1456e-24  5.2862e-30  7.2419e-24  1.0525e-29  7.413e-24  1.9358e-29  7.7173e-24  3.4193e-29  8.2586e-24  6.5786e-29  9.2216e-24  1.3048e-28  1.0935e-23  2.5828e-28  1.3987e-23  5.054e-28  1.9429e-23  9.739e-28  2.9153e-23  1.8464e-27  4.6596e-23  3.4562e-27  7.8094e-23  6.4256e-27  1.3562e-22  1.1978e-26  2.4274e-22  2.2658e-26  4.4841e-22  4.4154e-26  8.6222e-22
      6.75  9.8839e-31  7.3192e-24  1.2024e-30  7.3358e-24  1.7009e-30  7.3654e-24  2.6475e-30  7.4179e-24  4.8453e-30  7.5112e-24  1.0552e-29  7.6772e-24  2.0587e-29  7.9724e-24  3.8495e-29  8.4975e-24  7.6293e-29  9.4317e-24  1.5277e-28  1.1094e-23  3.0177e-28  1.4055e-23  5.8875e-28  1.9334e-23  1.1305e-27  2.8767e-23  2.1399e-27  4.5691e-23  4.0036e-27  7.6253e-23  7.4473e-27  1.3209e-22  1.3894e-26  2.3606e-22  2.6306e-26  4.3581e-22  5.1312e-26  8.3795e-22
      6.80  8.2736e-31  7.6481e-24  9.7033e-31  7.6646e-24  1.3859e-30  7.6938e-24  2.2811e-30  7.7458e-24  4.4761e-30  7.8383e-24  1.0029e-29  8.0027e-24  2.1373e-29  8.2952e-24  4.0958e-29  8.8153e-24  8.2371e-29  9.7407e-24  1.6477e-28  1.1387e-23  3.2433e-28  1.432e-23  6.3089e-28  1.955e-23   1.21e-27  2.8896e-23  2.2897e-27  4.5663e-23  4.2873e-27  7.5945e-23  7.9865e-27  1.3127e-22  1.4923e-26  2.3434e-22  2.8291e-26  4.3241e-22  5.5247e-26  8.314e-22
      6.85  6.9719e-31  7.9947e-24  7.9581e-31  8.0112e-24  1.0971e-30  8.0407e-24  1.9204e-30  8.093e-24  3.9088e-30  8.1862e-24  9.5034e-30  8.3517e-24  2.253e-29  8.6461e-24  4.4659e-29  9.1699e-24  9.1894e-29  1.0102e-23  1.8385e-28  1.176e-23  3.6279e-28  1.4712e-23  7.0483e-28  1.9978e-23  1.3505e-27  2.9389e-23  2.5529e-27  4.6272e-23  4.7777e-27  7.6768e-23  8.901e-27  1.3249e-22  1.664e-26  2.3632e-22  3.157e-26  4.3593e-22  6.1705e-26  8.3822e-22
      6.90  5.9369e-31  8.3583e-24  6.7176e-31  8.3751e-24  9.074e-31  8.4049e-24  1.5978e-30  8.4579e-24  3.6107e-30  8.5522e-24  9.6138e-30  8.7198e-24  2.4341e-29  9.0179e-24  5.0098e-29  9.5482e-24  1.0521e-28  1.0492e-23  2.1151e-28  1.217e-23  4.202e-28  1.516e-23  8.2182e-28  2.0492e-23  1.5772e-27  3.002e-23  2.979e-27  4.7116e-23  5.5663e-27  7.7997e-23  1.0358e-26  1.3444e-22  1.9355e-26  2.3961e-22  3.6722e-26  4.4188e-22  7.1802e-26  8.4974e-22
      6.95  5.1085e-31  8.7383e-24  5.8379e-31  8.7551e-24  8.0004e-31  8.7851e-24  1.4738e-30  8.8384e-24  3.5456e-30  8.9331e-24  9.5376e-30  9.1016e-24  2.4886e-29  9.4011e-24  5.1625e-29  9.934e-24  1.0671e-28  1.0882e-23  2.1371e-28  1.2569e-23  4.2919e-28  1.5573e-23  8.4555e-28  2.093e-23  1.6287e-27  3.0504e-23  3.0821e-27  4.7682e-23  5.7663e-27  7.8715e-23  1.074e-26  1.3544e-22  2.0083e-26  2.4117e-22  3.8134e-26  4.4456e-22  7.4628e-26  8.5487e-22
      7.00  4.5012e-31  9.2253e-24  5.1253e-31  9.1505e-24  7.3089e-31  9.1801e-24  1.3869e-30  9.2325e-24  3.3291e-30  9.3259e-24  9.124e-30  9.4918e-24  2.5161e-29  9.7869e-24   5.22e-29  1.0312e-23  1.0477e-28  1.1245e-23  2.1272e-28  1.2907e-23  4.3158e-28  1.5865e-23  8.563e-28  2.1141e-23  1.6591e-27  3.0571e-23  3.1548e-27  4.749e-23  5.9212e-27  7.8057e-23  1.1051e-26  1.3393e-22  2.0694e-26  2.3811e-22  3.9337e-26  4.3858e-22  7.7059e-26  8.4317e-22
      7.05  3.7041e-31  9.5953e-24  4.3796e-31  9.6112e-24  6.397e-31  9.6394e-24  1.2399e-30  9.6895e-24  3.0404e-30  9.7787e-24  8.3857e-30  9.9372e-24  2.399e-29  1.0219e-23  5.1626e-29  1.072e-23  1.0474e-28  1.1612e-23  2.1387e-28  1.3199e-23  4.3723e-28  1.6024e-23  8.767e-28  2.1062e-23  1.721e-27  3.0065e-23  3.3029e-27  4.6221e-23  6.237e-27  7.541e-23  1.1684e-26  1.2877e-22  2.1929e-26  2.2828e-22  4.1747e-26  4.1983e-22  8.1877e-26  8.0659e-22
      7.10  3.0721e-31  1.0077e-23  3.6705e-31  1.0092e-23  5.4396e-31  1.0118e-23  1.0804e-30  1.0164e-23  2.7095e-30  1.0246e-23  7.6368e-30  1.0391e-23  2.2144e-29  1.065e-23  5.1114e-29  1.111e-23  1.0596e-28  1.1928e-23   2.16e-28  1.3383e-23  4.4176e-28  1.5975e-23  9.037e-28  2.0595e-23  1.8054e-27  2.8853e-23  3.5113e-27  4.3668e-23  6.6878e-27  7.0438e-23  1.2596e-26  1.1938e-22  2.3719e-26  2.1067e-22  4.5248e-26  3.8644e-22  8.8868e-26  7.4149e-22
      7.15  2.5436e-31  1.058e-23  3.0578e-31  1.0593e-23  4.6041e-31  1.0616e-23  9.351e-31  1.0656e-23  2.3982e-30  1.0728e-23  6.6766e-30  1.0856e-23  1.8916e-29  1.1083e-23  4.6477e-29  1.1487e-23  9.315e-29  1.2205e-23  1.8654e-28  1.3482e-23  3.8668e-28  1.5757e-23  8.0513e-28  1.9811e-23  1.642e-27  2.7056e-23  3.2521e-27  4.0054e-23  6.2813e-27  6.354e-23  1.1946e-26  1.0649e-22  2.2639e-26  1.8659e-22  4.3368e-26  3.4087e-22  8.541e-26  6.5263e-22
      7.20  2.0935e-31  1.1104e-23  2.5241e-31  1.1115e-23  3.8345e-31  1.1134e-23  7.8532e-31  1.1168e-23  1.9662e-30  1.1229e-23  5.4359e-30  1.1337e-23  1.4958e-29  1.1529e-23  3.7982e-29  1.187e-23  7.3518e-29  1.2478e-23  1.5043e-28  1.3558e-23  3.173e-28  1.5481e-23  6.7471e-28  1.8908e-23  1.4123e-27  2.5031e-23  2.8675e-27  3.6015e-23  5.6511e-27  5.586e-23  1.0907e-26  9.2149e-23  2.088e-26  1.5985e-22  4.0262e-26  2.9025e-22  7.9632e-26  5.5385e-22
      7.25  1.714e-31  1.1648e-23  2.0608e-31  1.1657e-23  3.1119e-31  1.1673e-23  6.2254e-31  1.1701e-23  1.5338e-30  1.1752e-23  4.1044e-30  1.1842e-23  1.1154e-29  1.2001e-23  2.7649e-29  1.2285e-23  5.4909e-29  1.2789e-23  1.1237e-28  1.3687e-23  2.4003e-28  1.5284e-23  5.2488e-28  1.813e-23  1.1328e-27  2.3213e-23  2.3734e-27  3.2332e-23  4.8013e-27  4.8805e-23  9.4513e-27  7.8927e-23  1.8346e-26  1.3512e-22  3.5703e-26  2.4339e-22  7.1036e-26  4.6227e-22
      7.30  1.3965e-31  1.2277e-23  1.6668e-31  1.2285e-23  2.4661e-31  1.2298e-23  4.8394e-31  1.2322e-23  1.1746e-30  1.2364e-23  3.0555e-30  1.2439e-23  8.0689e-30  1.2572e-23  1.9767e-29  1.2809e-23  4.176e-29  1.323e-23  8.4493e-29  1.398e-23  1.7874e-28  1.5314e-23  4.0057e-28  1.7691e-23  8.9869e-28  2.1936e-23  1.956e-27  2.9549e-23  4.0908e-27  4.3302e-23  8.2618e-27  6.8447e-23  1.6333e-26  1.1536e-22  3.2182e-26  2.0574e-22  6.454e-26  3.8847e-22
      7.35  1.1371e-31  1.2935e-23  1.3402e-31  1.2942e-23  1.9414e-31  1.2953e-23  3.6906e-31  1.2973e-23  8.9227e-31  1.3009e-23  2.2643e-30  1.3073e-23  5.9132e-30  1.3186e-23  1.4761e-29  1.3388e-23  3.2738e-29  1.3747e-23  6.5833e-29  1.4386e-23  1.3961e-28  1.5523e-23  3.1806e-28  1.755e-23  7.3906e-28  2.1169e-23  1.6688e-27  2.7659e-23  3.5983e-27  3.9382e-23  7.4475e-27  6.0813e-23  1.4992e-26  1.0079e-22  2.9908e-26  1.7782e-22  6.047e-26  3.3354e-22
      7.40  9.2631e-32  1.3622e-23  1.0815e-31  1.3627e-23  1.5407e-31  1.3637e-23  2.9057e-31  1.3655e-23  6.8936e-31  1.3686e-23  1.7211e-30  1.3742e-23  4.482e-30  1.3841e-23  1.1761e-29  1.4018e-23  2.7913e-29  1.4332e-23  5.4867e-29  1.489e-23  1.1596e-28  1.5885e-23  2.669e-28  1.7658e-23  6.308e-28  2.0824e-23  1.4618e-27  2.6503e-23  3.2398e-27  3.6758e-23   6.86e-27  5.5505e-23  1.4047e-26  9.0475e-23  2.8359e-26  1.5784e-22  5.7797e-26  2.9403e-22
      7.45  7.5608e-32  1.4336e-23  8.7897e-32  1.4341e-23  1.2311e-31  1.435e-23  2.3052e-31  1.4366e-23  5.4539e-31  1.4394e-23  1.3652e-30  1.4444e-23  3.5647e-30  1.4533e-23  9.4577e-30  1.4692e-23  2.2176e-29  1.4974e-23  4.2772e-29  1.5475e-23  8.9199e-29  1.6369e-23  2.0657e-28  1.7961e-23  4.9739e-28  2.0806e-23  1.1849e-27  2.5908e-23  2.7082e-27  3.5123e-23  5.8959e-27  5.1967e-23  1.2339e-26  8.3384e-23  2.5305e-26  1.439e-22  5.212e-26  2.6622e-22
      7.50  6.1889e-32  1.5078e-23  7.2074e-32  1.5083e-23  1.0247e-31  1.5091e-23  1.9028e-31  1.5106e-23  4.5231e-31  1.5132e-23  1.1256e-30  1.5178e-23  2.9571e-30  1.526e-23  7.9197e-30  1.5406e-23  1.8445e-29  1.5665e-23  3.5515e-29  1.6127e-23  7.2516e-29  1.6949e-23  1.6756e-28  1.8416e-23  4.077e-28  2.1036e-23  9.9217e-28  2.5735e-23  2.3306e-27  3.4221e-23  5.2124e-27  4.9734e-23  1.1154e-26  7.8665e-23  2.3251e-26  1.3438e-22  4.8426e-26  2.4699e-22
      7.55  5.0847e-32  1.5929e-23  5.9754e-32  1.5934e-23  8.6491e-32  1.5941e-23  1.6494e-31  1.5955e-23  3.9699e-31  1.598e-23  9.9224e-31  1.6023e-23  2.6253e-30   1.61e-23  7.0381e-30  1.6238e-23  1.5723e-29  1.6482e-23  3.0569e-29  1.6918e-23  6.1904e-29  1.7693e-23  1.4143e-28  1.9075e-23  3.444e-28  2.1544e-23  8.496e-28  2.5974e-23  2.0424e-27  3.3975e-23  4.6904e-27  4.8599e-23  1.0282e-26  7.5871e-23  2.1841e-26  1.2839e-22  4.6098e-26  2.3451e-22
      7.60  4.1957e-32  1.6818e-23  5.0146e-32  1.6822e-23  7.4913e-32  1.683e-23  1.4772e-31  1.6843e-23  3.6144e-31  1.6867e-23  9.304e-31  1.6908e-23  2.4562e-30  1.6983e-23  6.5091e-30  1.7115e-23  1.3709e-29  1.735e-23  2.6931e-29  1.7768e-23  5.3173e-29  1.8513e-23  1.181e-28  1.9842e-23  2.8273e-28  2.2217e-23  6.9623e-28  2.6477e-23  1.6942e-27  3.4172e-23  3.9693e-27  4.8238e-23  8.8878e-27  7.4466e-23  1.9226e-26  1.2497e-22  4.1128e-26   2.27e-22
      7.65  3.4741e-32  1.7745e-23  4.2462e-32  1.7749e-23  6.6006e-32  1.7756e-23   1.35e-31  1.7769e-23  3.3317e-31  1.7792e-23  8.7616e-31  1.7833e-23  2.3455e-30  1.7906e-23  6.3077e-30  1.8035e-23  1.2153e-29  1.8265e-23  2.4153e-29  1.8673e-23  4.663e-29  1.9402e-23  1.0053e-28  2.0701e-23  2.3504e-28  2.3022e-23  5.7311e-28  2.7188e-23  1.4019e-27  3.4711e-23  3.3367e-27  4.8464e-23  7.6212e-27  7.4109e-23  1.6795e-26  1.2348e-22  3.6456e-26  2.2322e-22
      7.70  2.8728e-32  1.8709e-23  3.6066e-32  1.8713e-23  5.8605e-32  1.8721e-23  1.2432e-31  1.8733e-23  3.151e-31  1.8756e-23  8.4377e-31  1.8797e-23  2.2424e-30  1.8868e-23  5.9307e-30  1.8996e-23  1.1065e-29  1.9224e-23  2.1313e-29  1.9629e-23  4.1267e-29  2.035e-23  8.6494e-29  2.1637e-23  1.9693e-28  2.3936e-23  4.7295e-28  2.8061e-23  1.156e-27  3.5514e-23  2.7838e-27  4.9136e-23  6.4751e-27  7.4537e-23  1.454e-26  1.2344e-22  3.2063e-26  2.2221e-22
      7.75  2.3908e-32  1.9711e-23  3.0909e-32  1.9715e-23  5.2552e-32  1.9723e-23  1.1553e-31  1.9735e-23   2.97e-31  1.9758e-23  8.0576e-31  1.9798e-23  2.1522e-30  1.987e-23  5.5066e-30  1.9998e-23  1.0095e-29  2.0226e-23  1.9125e-29  2.063e-23  3.7179e-29  2.1351e-23  7.5077e-29  2.2637e-23  1.6667e-28  2.4935e-23  3.9217e-28  2.9059e-23  9.5188e-28  3.6509e-23  2.3075e-27  5.0127e-23  5.4521e-27  7.5519e-23  1.2472e-26  1.244e-22  2.7966e-26  2.2312e-22
      7.80  1.9929e-32  2.0854e-23  2.6552e-32  2.0858e-23   4.72e-32  2.0865e-23  1.0704e-31  2.0878e-23  2.7864e-31  2.0901e-23  7.6502e-31  2.0942e-23  2.0707e-30  2.1014e-23  5.066e-30  2.1143e-23  9.2273e-30  2.1372e-23  1.729e-29  2.178e-23  3.3058e-29  2.2506e-23  6.6079e-29  2.3801e-23  1.4218e-28  2.6115e-23  3.2682e-28  3.0268e-23  7.8402e-28  3.7771e-23  1.9047e-27  5.1488e-23  4.5591e-27  7.7063e-23  1.0619e-26  1.2629e-22  2.4237e-26  2.2571e-22
      7.85  1.6589e-32  2.2048e-23  2.2744e-32  2.2052e-23  4.2057e-32  2.2059e-23  9.6941e-32  2.2072e-23  2.5491e-31  2.2096e-23  7.0357e-31  2.2137e-23  1.916e-30  2.221e-23  4.6225e-30  2.234e-23  8.3792e-30  2.2571e-23  1.5534e-29  2.2982e-23  2.9566e-29  2.3716e-23  5.8005e-29  2.5023e-23  1.217e-28  2.736e-23  2.7317e-28  3.1553e-23  6.4588e-28  3.913e-23  1.5666e-27  5.298e-23  3.789e-27  7.8804e-23  8.9806e-27  1.2851e-22  2.0885e-26  2.2888e-22
      7.90  1.378e-32  2.3293e-23  1.9241e-32  2.3298e-23  3.668e-32  2.3305e-23  8.7535e-32  2.3318e-23  2.2961e-31  2.3341e-23  6.3415e-31  2.3383e-23  1.7579e-30  2.3457e-23  3.9716e-30  2.3588e-23  7.2433e-30  2.3821e-23  1.3335e-29  2.4237e-23  2.5217e-29  2.4977e-23  4.8831e-29  2.6297e-23  1.0042e-28  2.8656e-23  2.1977e-28  3.2889e-23  5.1427e-28  4.0537e-23  1.2439e-27  5.4518e-23  3.0374e-27  8.0586e-23  7.3302e-27  1.3076e-22  1.7404e-26  2.3206e-22
      7.95  1.1401e-32  2.4591e-23  1.6184e-32  2.4595e-23  3.1585e-32  2.4602e-23  7.6487e-32  2.4615e-23  2.0357e-31  2.4639e-23  5.5729e-31  2.4681e-23  1.5398e-30  2.4755e-23  3.3627e-30  2.4887e-23  6.1194e-30  2.5122e-23  1.1207e-29  2.554e-23  2.0982e-29  2.6284e-23  4.0359e-29  2.7612e-23  8.1514e-29  2.9986e-23  1.7557e-28  3.4245e-23  4.0258e-28  4.1941e-23  9.6736e-28  5.6009e-23  2.3746e-27  8.2239e-23  5.816e-27  1.3272e-22  1.4076e-26  2.3463e-22
      8.00  9.3836e-33  2.5939e-23  1.3438e-32  2.5943e-23  2.6618e-32  2.5951e-23  6.5184e-32  2.5964e-23  1.7377e-31  2.5988e-23  4.8079e-31  2.6029e-23  1.3198e-30  2.6104e-23  2.7901e-30  2.6236e-23  5.1137e-30  2.6472e-23  9.2337e-30  2.6891e-23  1.7174e-29  2.7637e-23  3.2849e-29  2.8968e-23  6.5334e-29  3.1347e-23  1.382e-28  3.5615e-23  3.1178e-28  4.3328e-23  7.4253e-28  5.7426e-23  1.8258e-27  8.3712e-23  4.5234e-27  1.343e-22  1.1136e-26  2.364e-22
      8.05  7.6795e-33  2.7473e-23  1.1005e-32  2.7477e-23  2.1939e-32  2.7484e-23  5.398e-32  2.7497e-23  1.4406e-31  2.7521e-23  3.9886e-31  2.7563e-23  1.1068e-30  2.7637e-23  2.2653e-30  2.777e-23  4.0674e-30  2.8005e-23  7.3939e-30  2.8424e-23  1.3808e-29  2.9171e-23  2.6252e-29  3.0502e-23  5.1707e-29  3.2882e-23  1.078e-28  3.7153e-23  2.3983e-28  4.4868e-23  5.6344e-28  5.8972e-23  1.393e-27  8.5265e-23  3.4844e-27  1.3586e-22  8.7143e-27  2.3797e-22
      8.10  6.2539e-33  2.9076e-23  8.8995e-33  2.9081e-23  1.7589e-32  2.9088e-23  4.3175e-32  2.9101e-23  1.1601e-31  2.9125e-23  3.2191e-31  2.9166e-23  8.8595e-31  2.9241e-23  1.8016e-30  2.9373e-23  3.2318e-30  2.9607e-23  5.8615e-30  3.0025e-23  1.0803e-29  3.0769e-23  2.0623e-29  3.2097e-23  4.0007e-29  3.4469e-23  8.3084e-29  3.8726e-23  1.8266e-28  4.6417e-23  4.2783e-28  6.0476e-23  1.0516e-27  8.6683e-23  2.6509e-27  1.3711e-22  6.7236e-27  2.3885e-22
      8.15  5.0768e-33  3.0752e-23  7.1288e-33  3.0756e-23  1.3941e-32  3.0764e-23  3.3809e-32  3.0777e-23  9.1394e-32   3.08e-23  2.5379e-31  3.0841e-23  7.0708e-31  3.0915e-23  1.4061e-30  3.1046e-23  2.5489e-30  3.128e-23  4.6129e-30  3.1696e-23  8.3919e-30  3.2436e-23  1.5909e-29  3.3756e-23  3.1004e-29  3.6116e-23  6.2928e-29  4.035e-23  1.371e-28  4.7999e-23  3.1822e-28  6.198e-23  7.8004e-28  8.804e-23  1.9768e-27  1.3817e-22  5.0753e-27  2.3931e-22
      8.20  4.1164e-33   3.25e-23  5.6752e-33  3.2504e-23  1.0901e-32  3.2511e-23  2.6195e-32  3.2524e-23  6.9566e-32  3.2548e-23  1.9613e-31  3.2589e-23  5.478e-31  3.2662e-23  1.0933e-30  3.2792e-23  1.9441e-30  3.3024e-23  3.5146e-30  3.3437e-23  6.4398e-30  3.4173e-23  1.2055e-29  3.5485e-23  2.333e-29  3.7829e-23  4.7676e-29  4.2036e-23  1.0272e-28  4.9635e-23  2.3683e-28  6.3524e-23  5.7951e-28  8.9411e-23  1.4757e-27  1.392e-22  3.8304e-27  2.3962e-22
      8.25  3.3105e-33  3.4321e-23  4.4789e-33  3.4325e-23  8.1416e-33  3.4332e-23  2.0033e-32  3.4345e-23  5.3493e-32  3.4368e-23  1.4944e-31  3.4409e-23  4.1454e-31  3.4482e-23  8.256e-31  3.4612e-23  1.4814e-30  3.4842e-23  2.6779e-30  3.5253e-23  4.8992e-30  3.5984e-23   9.23e-30  3.7287e-23  1.7783e-29  3.9617e-23  3.5891e-29  4.3798e-23  7.6916e-29  5.135e-23  1.7658e-28  6.5152e-23  4.318e-28  9.0874e-23  1.1048e-27  1.4034e-22  2.8961e-27  2.4007e-22
      8.30  2.6957e-33  3.6388e-23  3.5655e-33  3.6392e-23  6.3039e-33  3.6399e-23  1.499e-32  3.6412e-23  4.005e-32  3.6435e-23  1.1233e-31  3.6476e-23  3.1716e-31  3.6549e-23  6.3234e-31  3.6678e-23  1.1339e-30  3.6909e-23  2.0489e-30  3.7319e-23  3.7443e-30  3.8049e-23  6.9775e-30  3.9351e-23  1.3411e-29  4.1678e-23  2.698e-29  4.5853e-23  5.7657e-29  5.3394e-23  1.3142e-28  6.7176e-23  3.2304e-28  9.2856e-23  8.3037e-28  1.4223e-22  2.1966e-27  2.4176e-22
      8.35  2.2005e-33  3.8556e-23  2.8337e-33  3.856e-23   4.84e-33  3.8567e-23  1.1207e-32  3.858e-23  2.9629e-32  3.8603e-23  8.1934e-32  3.8644e-23  2.3401e-31  3.8717e-23  4.6788e-31  3.8847e-23  8.3864e-31  3.9077e-23  1.5151e-30  3.9488e-23  2.7696e-30  4.0219e-23  5.161e-30  4.1523e-23  9.9195e-30  4.3853e-23  1.996e-29  4.8034e-23   4.27e-29  5.5586e-23  9.8003e-29  6.9386e-23  2.4074e-28  9.5096e-23  6.2317e-28  1.4452e-22  1.665e-27  2.4411e-22
      8.40  1.8057e-33  4.0827e-23  2.2599e-33  4.0831e-23  3.7118e-33  4.0839e-23  8.302e-33  4.0852e-23  2.1483e-32  4.0875e-23  5.9281e-32  4.0916e-23  1.6714e-31  4.0989e-23  3.3869e-31  4.1119e-23  6.0695e-31  4.1351e-23  1.0968e-30  4.1764e-23  2.0065e-30  4.2498e-23  3.7442e-30  4.3808e-23  7.2116e-30  4.615e-23  1.4558e-29  5.035e-23  3.1284e-29  5.7937e-23  7.2245e-29  7.1801e-23  1.788e-28  9.7626e-23  4.671e-28  1.4726e-22  1.2617e-27  2.4725e-22
      8.45  1.4953e-33  4.3205e-23  1.8247e-33  4.3209e-23  2.8887e-33  4.3216e-23  5.9701e-33  4.3229e-23  1.5791e-32  4.3253e-23  4.3228e-32  4.3294e-23  1.2145e-31  4.3368e-23  2.4475e-31  4.3499e-23  4.4282e-31  4.3733e-23  8.0037e-31  4.4149e-23  1.4653e-30  4.4889e-23  2.7382e-30  4.621e-23  5.2853e-30  4.8571e-23  1.0704e-29  5.2806e-23  2.3104e-29  6.0456e-23  5.3665e-29  7.4432e-23  1.3375e-28  1.0046e-22  3.4997e-28  1.5048e-22  9.6109e-28  2.5122e-22
      8.50  1.2506e-33  4.5691e-23  1.4929e-33  4.5695e-23  2.2857e-33  4.5703e-23  4.5455e-33  4.5716e-23  1.1655e-32  4.574e-23  3.1679e-32  4.5782e-23  8.9356e-32  4.5857e-23  1.802e-31  4.5989e-23  3.2599e-31  4.6226e-23  5.8931e-31  4.6647e-23  1.0796e-30  4.7396e-23   2.02e-30  4.8733e-23  3.9069e-30  5.1121e-23  7.9357e-30  5.5407e-23   1.72e-29  6.3146e-23  4.0157e-29  7.7286e-23  1.0072e-28  1.0362e-22  2.6727e-28  1.5421e-22  7.3534e-28  2.5607e-22
