# This was generated using Cloudy10 and the columns are ordered 
# as log10 of the fraction of the metallicity to the solar metallicity
# 'h_*_Z' and 'c_*_Z' stands for cooling and heating respectively 
# at * metalicity
#
# NOTE: This was generated separately from loop_coolingcurve_w_UV.py
#       using Output_metals_w_redshift.py.
#
# Redshift = 5.5
# hden = -7.0
#
#     temp   h_-3.00_Z   c_-3.00_Z   h_-2.75_Z   c_-2.75_Z   h_-2.50_Z   c_-2.50_Z   h_-2.25_Z   c_-2.25_Z   h_-2.00_Z   c_-2.00_Z   h_-1.75_Z   c_-1.75_Z   h_-1.50_Z   c_-1.50_Z   h_-1.25_Z   c_-1.25_Z   h_-1.00_Z   c_-1.00_Z   h_-0.75_Z   c_-0.75_Z   h_-0.50_Z   c_-0.50_Z   h_-0.25_Z   c_-0.25_Z    h_0.00_Z    c_0.00_Z    h_0.25_Z    c_0.25_Z    h_0.50_Z    c_0.50_Z    h_0.75_Z    c_0.75_Z    h_1.00_Z    c_1.00_Z    h_1.25_Z    c_1.25_Z    h_1.50_Z    c_1.50_Z 
      4.00  1.2329e-23  1.1607e-21  1.2355e-23  1.1607e-21  1.2401e-23  1.1608e-21  1.2483e-23  1.1608e-21  1.2629e-23  1.1608e-21  1.2888e-23  1.1609e-21  1.3349e-23  1.1610e-21  1.4169e-23  1.1612e-21  1.5626e-23  1.1616e-21  1.8216e-23  1.1622e-21  2.2817e-23  1.1634e-21  3.0983e-23  1.1655e-21  4.5463e-23  1.1692e-21  7.1242e-23  1.1759e-21  1.1797e-22  1.1877e-21  2.0287e-22  1.2088e-21  3.5929e-22  1.2466e-21  6.5364e-22  1.3146e-21  1.2233e-21  1.4382e-21
      4.05  1.1566e-23  1.3023e-21  1.1591e-23  1.3023e-21  1.1634e-23  1.3023e-21  1.1711e-23  1.3023e-21  1.1848e-23  1.3024e-21  1.2091e-23  1.3024e-21  1.2524e-23  1.3026e-21  1.3293e-23  1.3028e-21  1.4661e-23  1.3032e-21  1.7095e-23  1.3040e-21  2.1422e-23  1.3053e-21  2.9117e-23  1.3076e-21  4.2797e-23  1.3118e-21  6.7233e-23  1.3193e-21  1.1146e-22  1.3326e-21  1.9197e-22  1.3563e-21  3.4073e-22  1.3987e-21  6.2169e-22  1.4750e-21  1.1676e-21  1.6136e-21
      4.10  1.0858e-23  1.4611e-21  1.0881e-23  1.4611e-21  1.0921e-23  1.4611e-21  1.0993e-23  1.4611e-21  1.1120e-23  1.4612e-21  1.1347e-23  1.4613e-21  1.1750e-23  1.4614e-21  1.2468e-23  1.4617e-21  1.3744e-23  1.4621e-21  1.6016e-23  1.4630e-21  2.0061e-23  1.4644e-21  2.7271e-23  1.4671e-21  4.0131e-23  1.4718e-21  6.3162e-23  1.4802e-21  1.0480e-22  1.4951e-21  1.8077e-22  1.5217e-21  3.2165e-22  1.5692e-21  5.8911e-22  1.6547e-21  1.1119e-21  1.8099e-21
      4.15  1.0200e-23  1.6393e-21  1.0221e-23  1.6393e-21  1.0259e-23  1.6393e-21  1.0325e-23  1.6393e-21  1.0443e-23  1.6394e-21  1.0652e-23  1.6395e-21  1.1025e-23  1.6396e-21  1.1688e-23  1.6399e-21  1.2869e-23  1.6404e-21  1.4974e-23  1.6414e-21  1.8728e-23  1.6430e-21  2.5437e-23  1.6460e-21  3.7452e-23  1.6512e-21  5.9003e-23  1.6606e-21  9.7947e-23  1.6774e-21  1.6918e-22  1.7071e-21  3.0185e-22  1.7603e-21  5.5534e-22  1.8560e-21  1.0548e-21  2.0296e-21
      4.20  9.5901e-24  1.8392e-21  9.6092e-24  1.8392e-21  9.6433e-24  1.8392e-21  9.7040e-24  1.8392e-21  9.8118e-24  1.8393e-21  1.0004e-23  1.8394e-21  1.0345e-23  1.8396e-21  1.0953e-23  1.8399e-21  1.2036e-23  1.8405e-21  1.3967e-23  1.8415e-21  1.7421e-23  1.8434e-21  2.3614e-23  1.8467e-21  3.4758e-23  1.8525e-21  5.4746e-23  1.8631e-21  9.0874e-23  1.8818e-21  1.5716e-22  1.9151e-21  2.8122e-22  1.9745e-21  5.2005e-22  2.0814e-21  9.9539e-22  2.2753e-21
      4.25  9.0238e-24  2.0634e-21  9.0412e-24  2.0634e-21  9.0720e-24  2.0635e-21  9.1270e-24  2.0635e-21  9.2247e-24  2.0636e-21  9.3986e-24  2.0637e-21  9.7081e-24  2.0639e-21  1.0259e-23  2.0643e-21  1.1242e-23  2.0649e-21  1.2998e-23  2.0661e-21  1.6145e-23  2.0681e-21  2.1810e-23  2.0718e-21  3.2059e-23  2.0784e-21  5.0411e-23  2.0902e-21  8.3617e-23  2.1111e-21  1.4474e-22  2.1482e-21  2.5977e-22  2.2146e-21  4.8311e-22  2.3339e-21  9.3293e-22  2.5502e-21
      4.30  8.4987e-24  2.3151e-21  8.5143e-24  2.3151e-21  8.5420e-24  2.3151e-21  8.5912e-24  2.3152e-21  8.6789e-24  2.3152e-21  8.8348e-24  2.3154e-21  9.1125e-24  2.3156e-21  9.6073e-24  2.3160e-21  1.0490e-23  2.3167e-21  1.2071e-23  2.3180e-21  1.4911e-23  2.3203e-21  2.0043e-23  2.3244e-21  2.9384e-23  2.3317e-21  4.6049e-23  2.3449e-21  7.6261e-23  2.3682e-21  1.3206e-22  2.4097e-21  2.3768e-22  2.4837e-21  4.4465e-22  2.6167e-21  8.6719e-22  2.8577e-21
      4.35  8.0118e-24  2.5974e-21  8.0256e-24  2.5974e-21  8.0503e-24  2.5975e-21  8.0940e-24  2.5975e-21  8.1719e-24  2.5976e-21  8.3106e-24  2.5977e-21  8.5574e-24  2.5980e-21  8.9976e-24  2.5984e-21  9.7839e-24  2.5992e-21  1.1193e-23  2.6007e-21  1.3732e-23  2.6033e-21  1.8339e-23  2.6078e-21  2.6774e-23  2.6160e-21  4.1737e-23  2.6307e-21  6.8945e-23  2.6567e-21  1.1936e-22  2.7029e-21  2.1532e-22  2.7854e-21  4.0517e-22  2.9335e-21  7.9850e-22  3.2018e-21
      4.40  7.5606e-24  2.9142e-21  7.5728e-24  2.9142e-21  7.5945e-24  2.9142e-21  7.6331e-24  2.9143e-21  7.7019e-24  2.9144e-21  7.8242e-24  2.9145e-21  8.0421e-24  2.9148e-21  8.4309e-24  2.9153e-21  9.1258e-24  2.9162e-21  1.0373e-23  2.9178e-21  1.2625e-23  2.9207e-21  1.6726e-23  2.9258e-21  2.4273e-23  2.9349e-21  3.7574e-23  2.9514e-21  6.1842e-23  2.9803e-21  1.0694e-22  3.0318e-21  1.9322e-22  3.1236e-21  3.6547e-22  3.2886e-21  7.2778e-22  3.5871e-21
      4.45  7.1425e-24  3.2696e-21  7.1533e-24  3.2696e-21  7.1724e-24  3.2696e-21  7.2063e-24  3.2697e-21  7.2667e-24  3.2698e-21  7.3742e-24  3.2700e-21  7.5657e-24  3.2703e-21  7.9075e-24  3.2709e-21  8.5188e-24  3.2719e-21  9.6169e-24  3.2737e-21  1.1603e-23  3.2768e-21  1.5230e-23  3.2825e-21  2.1902e-23  3.2927e-21  3.3659e-23  3.3111e-21  5.5135e-23  3.3434e-21  9.5129e-23  3.4008e-21  1.7197e-22  3.5031e-21  3.2659e-22  3.6867e-21  6.5658e-22  4.0188e-21
      4.50  6.7555e-24  3.6683e-21  6.7649e-24  3.6683e-21  6.7817e-24  3.6684e-21  6.8114e-24  3.6684e-21  6.8644e-24  3.6686e-21  6.9588e-24  3.6688e-21  7.1269e-24  3.6691e-21  7.4269e-24  3.6697e-21  7.9637e-24  3.6709e-21  8.9285e-24  3.6729e-21  1.0675e-23  3.6764e-21  1.3871e-23  3.6828e-21  1.9733e-23  3.6942e-21  3.0075e-23  3.7148e-21  4.8979e-23  3.7508e-21  8.4229e-23  3.8148e-21  1.5214e-22  3.9289e-21  2.8964e-22  4.1333e-21  5.8686e-22  4.5028e-21
      4.55  6.3973e-24  4.1157e-21  6.4056e-24  4.1157e-21  6.4203e-24  4.1158e-21  6.4465e-24  4.1158e-21  6.4931e-24  4.1160e-21  6.5761e-24  4.1162e-21  6.7239e-24  4.1166e-21  6.9877e-24  4.1173e-21  7.4597e-24  4.1186e-21  8.3081e-24  4.1208e-21  9.8442e-24  4.1248e-21  1.2657e-23  4.1319e-21  1.7794e-23  4.1447e-21  2.6876e-23  4.1677e-21  4.3478e-23  4.2080e-21  7.4450e-23  4.2794e-21  1.3420e-22  4.4067e-21  2.5562e-22  4.6346e-21  5.2066e-22  5.0459e-21
      4.60  6.0660e-24  4.6176e-21  6.0733e-24  4.6177e-21  6.0863e-24  4.6177e-21  6.1094e-24  4.6178e-21  6.1506e-24  4.6179e-21  6.2238e-24  4.6182e-21  6.3544e-24  4.6186e-21  6.5873e-24  4.6194e-21  7.0040e-24  4.6208e-21  7.7526e-24  4.6233e-21  9.1077e-24  4.6278e-21  1.1588e-23  4.6357e-21  1.6093e-23  4.6502e-21  2.4081e-23  4.6759e-21  3.8679e-23  4.7210e-21  6.5897e-23  4.8008e-21  1.1839e-22  4.9431e-21  2.2520e-22  5.1975e-21  4.5982e-22  5.6557e-21
      4.65  5.7595e-24  5.1808e-21  5.7660e-24  5.1808e-21  5.7776e-24  5.1809e-21  5.7981e-24  5.1810e-21  5.8347e-24  5.1811e-21  5.8998e-24  5.1814e-21  6.0158e-24  5.1819e-21  6.2228e-24  5.1828e-21  6.5928e-24  5.1844e-21  7.2573e-24  5.1872e-21  8.4590e-24  5.1922e-21  1.0656e-23  5.2011e-21  1.4624e-23  5.2174e-21  2.1682e-23  5.2462e-21  3.4570e-23  5.2967e-21  5.8572e-23  5.3862e-21  1.0480e-22  5.5454e-21  1.9875e-22  5.8298e-21  4.0562e-22  6.3414e-21
      4.70  5.4762e-24  5.8126e-21  5.4820e-24  5.8126e-21  5.4924e-24  5.8127e-21  5.5108e-24  5.8128e-21  5.5435e-24  5.8130e-21  5.6019e-24  5.8133e-21  5.7057e-24  5.8139e-21  5.8910e-24  5.8148e-21  6.2221e-24  5.8166e-21  6.8163e-24  5.8198e-21  7.8896e-24  5.8254e-21  9.8483e-24  5.8354e-21  1.3369e-23  5.8538e-21  1.9648e-23  5.8862e-21  3.1101e-23  5.9428e-21  5.2401e-23  6.0431e-21  9.3325e-23  6.2215e-21  1.7628e-22  6.5399e-21  3.5871e-22  7.1115e-21
      4.75  5.2143e-24  6.5215e-21  5.2196e-24  6.5215e-21  5.2289e-24  6.5216e-21  5.2456e-24  6.5217e-21  5.2752e-24  6.5219e-21  5.3278e-24  6.5222e-21  5.4216e-24  6.5229e-21  5.5889e-24  6.5240e-21  5.8877e-24  6.5260e-21  6.4235e-24  6.5295e-21  7.3901e-24  6.5358e-21  9.1508e-24  6.5470e-21  1.2302e-23  6.5679e-21  1.7935e-23  6.6043e-21  2.8201e-23  6.6679e-21  4.7259e-23  6.7805e-21  8.3777e-23  6.9806e-21  1.5752e-22  7.3376e-21  3.1911e-22  7.9775e-21
      4.80  4.9724e-24  7.3168e-21  4.9772e-24  7.3168e-21  4.9858e-24  7.3169e-21  5.0009e-24  7.3170e-21  5.0279e-24  7.3172e-21  5.0758e-24  7.3176e-21  5.1613e-24  7.3183e-21  5.3136e-24  7.3196e-21  5.5855e-24  7.3218e-21  6.0729e-24  7.3258e-21  6.9511e-24  7.3329e-21  8.5479e-24  7.3455e-21  1.1395e-23  7.3692e-21  1.6496e-23  7.4101e-21  2.5783e-23  7.4816e-21  4.2996e-23  7.6082e-21  7.5891e-23  7.8330e-21  1.4204e-22  8.2338e-21  2.8628e-22  8.9514e-21
      4.85  4.7490e-24  8.2090e-21  4.7534e-24  8.2091e-21  4.7613e-24  8.2092e-21  4.7752e-24  8.2093e-21  4.7999e-24  8.2096e-21  4.8440e-24  8.2100e-21  4.9224e-24  8.2108e-21  5.0622e-24  8.2122e-21  5.3118e-24  8.2147e-21  5.7588e-24  8.2192e-21  6.5635e-24  8.2272e-21  8.0245e-24  8.2414e-21  1.0622e-23  8.2683e-21  1.5283e-23  8.3144e-21  2.3763e-23  8.3948e-21  3.9457e-23  8.5371e-21  6.9377e-23  8.7900e-21  1.2932e-22  9.2405e-21  2.5931e-22  1.0047e-20
      4.90  4.5427e-24  9.2101e-21  4.5468e-24  9.2101e-21  4.5540e-24  9.2102e-21  4.5669e-24  9.2104e-21  4.5898e-24  9.2107e-21  4.6305e-24  9.2112e-21  4.7031e-24  9.2121e-21  4.8323e-24  9.2137e-21  5.0631e-24  9.2165e-21  5.4761e-24  9.2215e-21  6.2191e-24  9.2305e-21  7.5666e-24  9.2465e-21  9.9561e-24  9.2771e-21  1.4250e-23  9.3290e-21  2.2058e-23  9.4196e-21  3.6491e-23  9.5798e-21  6.3954e-23  9.8643e-21  1.1879e-22  1.0371e-20  2.3713e-22  1.1277e-20
      4.95  4.3521e-24  1.0333e-20  4.3559e-24  1.0333e-20  4.3626e-24  1.0333e-20  4.3746e-24  1.0334e-20  4.3959e-24  1.0334e-20  4.4338e-24  1.0334e-20  4.5013e-24  1.0335e-20  4.6215e-24  1.0337e-20  4.8361e-24  1.0340e-20  5.2200e-24  1.0346e-20  5.9104e-24  1.0356e-20  7.1613e-24  1.0374e-20  9.3749e-24  1.0409e-20  1.3358e-23  1.0468e-20  2.0595e-23  1.0570e-20  3.3964e-23  1.0750e-20  5.9365e-23  1.1070e-20  1.0995e-22  1.1641e-20  2.1866e-22  1.2661e-20
      5.00  4.1759e-24  1.1593e-20  4.1794e-24  1.1593e-20  4.1857e-24  1.1593e-20  4.1969e-24  1.1594e-20  4.2168e-24  1.1594e-20  4.2522e-24  1.1595e-20  4.3152e-24  1.1596e-20  4.4275e-24  1.1598e-20  4.6280e-24  1.1601e-20  4.9865e-24  1.1608e-20  5.6309e-24  1.1619e-20  6.7959e-24  1.1640e-20  8.8587e-24  1.1679e-20  1.2571e-23  1.1745e-20  1.9314e-23  1.1860e-20  3.1763e-23  1.2063e-20  5.5390e-23  1.2424e-20  1.0236e-22  1.3066e-20  2.0295e-22  1.4215e-20
      5.05  4.0128e-24  1.3007e-20  4.0161e-24  1.3007e-20  4.0220e-24  1.3007e-20  4.0325e-24  1.3007e-20  4.0511e-24  1.3008e-20  4.0843e-24  1.3008e-20  4.1433e-24  1.3010e-20  4.2485e-24  1.3012e-20  4.4362e-24  1.3016e-20  4.7719e-24  1.3023e-20  5.3751e-24  1.3036e-20  6.4627e-24  1.3060e-20  8.3914e-24  1.3104e-20  1.1862e-23  1.3179e-20  1.8164e-23  1.3308e-20  2.9794e-23  1.3537e-20  5.1850e-23  1.3943e-20  9.5633e-23  1.4667e-20  1.8917e-22  1.5960e-20
      5.10  3.8616e-24  1.4593e-20  3.8647e-24  1.4593e-20  3.8702e-24  1.4593e-20  3.8800e-24  1.4593e-20  3.8975e-24  1.4593e-20  3.9286e-24  1.4594e-20  3.9840e-24  1.4596e-20  4.0826e-24  1.4598e-20  4.2585e-24  1.4603e-20  4.5731e-24  1.4611e-20  5.1382e-24  1.4625e-20  6.1550e-24  1.4653e-20  7.9604e-24  1.4703e-20  1.1208e-23  1.4787e-20  1.7106e-23  1.4933e-20  2.7987e-23  1.5190e-20  4.8609e-23  1.5648e-20  8.9504e-23  1.6463e-20  1.7671e-22  1.7920e-20
      5.15  3.7211e-24  1.6372e-20  3.7240e-24  1.6372e-20  3.7291e-24  1.6372e-20  3.7384e-24  1.6372e-20  3.7547e-24  1.6373e-20  3.7839e-24  1.6374e-20  3.8357e-24  1.6375e-20  3.9281e-24  1.6378e-20  4.0930e-24  1.6383e-20  4.3877e-24  1.6392e-20  4.9169e-24  1.6409e-20  5.8671e-24  1.6440e-20  7.5563e-24  1.6497e-20  1.0595e-23  1.6592e-20  1.6112e-23  1.6756e-20  2.6288e-23  1.7046e-20  4.5567e-23  1.7561e-20  8.3766e-23  1.8478e-20  1.6510e-22  2.0118e-20
      5.20  3.5902e-24  1.8367e-20  3.5929e-24  1.8367e-20  3.5977e-24  1.8368e-20  3.6063e-24  1.8368e-20  3.6217e-24  1.8369e-20  3.6489e-24  1.8370e-20  3.6974e-24  1.8371e-20  3.7839e-24  1.8375e-20  3.9380e-24  1.8380e-20  4.2136e-24  1.8391e-20  4.7083e-24  1.8409e-20  5.5947e-24  1.8446e-20  7.1725e-24  1.8510e-20  1.0011e-23  1.8616e-20  1.5163e-23  1.8801e-20  2.4663e-23  1.9128e-20  4.2656e-23  1.9707e-20  7.8280e-23  2.0740e-20  1.5403e-22  2.2585e-20
      5.25  3.4680e-24  2.0606e-20  3.4706e-24  2.0606e-20  3.4751e-24  2.0606e-20  3.4831e-24  2.0607e-20  3.4974e-24  2.0607e-20  3.5228e-24  2.0609e-20  3.5681e-24  2.0611e-20  3.6487e-24  2.0614e-20  3.7925e-24  2.0621e-20  4.0495e-24  2.0632e-20  4.5106e-24  2.0653e-20  5.3350e-24  2.0696e-20  6.8044e-24  2.0768e-20  9.4471e-24  2.0888e-20  1.4244e-23  2.1096e-20  2.3088e-23  2.1463e-20  3.9832e-23  2.2115e-20  7.2964e-23  2.3276e-20  1.4330e-22  2.5352e-20
      5.30  3.3539e-24  2.3117e-20  3.3563e-24  2.3117e-20  3.3605e-24  2.3118e-20  3.3679e-24  2.3118e-20  3.3812e-24  2.3119e-20  3.4049e-24  2.3120e-20  3.4470e-24  2.3122e-20  3.5219e-24  2.3126e-20  3.6556e-24  2.3134e-20  3.8944e-24  2.3147e-20  4.3228e-24  2.3170e-20  5.0871e-24  2.3221e-20  6.4510e-24  2.3302e-20  8.9036e-24  2.3437e-20  1.3355e-23  2.3671e-20  2.1558e-23  2.4084e-20  3.7081e-23  2.4817e-20  6.7767e-23  2.6122e-20  1.3283e-22  2.8454e-20
      5.35  3.2474e-24  2.5934e-20  3.2496e-24  2.5934e-20  3.2535e-24  2.5934e-20  3.2604e-24  2.5935e-20  3.2727e-24  2.5936e-20  3.2946e-24  2.5937e-20  3.3336e-24  2.5940e-20  3.4030e-24  2.5944e-20  3.5268e-24  2.5952e-20  3.7480e-24  2.5967e-20  4.1444e-24  2.5993e-20  4.8507e-24  2.6053e-20  6.1121e-24  2.6145e-20  8.3800e-24  2.6297e-20  1.2495e-23  2.6560e-20  2.0076e-23  2.7024e-20  3.4411e-23  2.7847e-20  6.2713e-23  2.9313e-20  1.2259e-22  3.1932e-20
      5.40  3.1481e-24  2.9093e-20  3.1501e-24  2.9093e-20  3.1537e-24  2.9094e-20  3.1601e-24  2.9094e-20  3.1715e-24  2.9095e-20  3.1917e-24  2.9097e-20  3.2277e-24  2.9099e-20  3.2918e-24  2.9105e-20  3.4060e-24  2.9114e-20  3.6100e-24  2.9130e-20  3.9754e-24  2.9159e-20  4.6260e-24  2.9231e-20  5.7884e-24  2.9335e-20  7.8778e-24  2.9506e-20  1.1668e-23  2.9801e-20  1.8647e-23  3.0322e-20  3.1834e-23  3.1247e-20  5.7829e-23  3.2893e-20  1.1267e-22  3.5831e-20
      5.45  3.0561e-24  3.2636e-20  3.0579e-24  3.2636e-20  3.0612e-24  3.2636e-20  3.0671e-24  3.2637e-20  3.0776e-24  3.2638e-20  3.0962e-24  3.2640e-20  3.1293e-24  3.2643e-20  3.1882e-24  3.2649e-20  3.2932e-24  3.2659e-20  3.4806e-24  3.2678e-20  3.8161e-24  3.2715e-20  4.4137e-24  3.2797e-20  5.4810e-24  3.2914e-20  7.3991e-24  3.3106e-20  1.0877e-23  3.3438e-20  1.7280e-23  3.4022e-20  2.9365e-23  3.5060e-20  5.3149e-23  3.6908e-20  1.0317e-22  4.0204e-20
      5.50  2.9711e-24  3.6609e-20  2.9728e-24  3.6609e-20  2.9759e-24  3.6610e-20  2.9813e-24  3.6610e-20  2.9908e-24  3.6611e-20  3.0079e-24  3.6613e-20  3.0382e-24  3.6617e-20  3.0922e-24  3.6624e-20  3.1884e-24  3.6635e-20  3.3601e-24  3.6656e-20  3.6672e-24  3.6705e-20  4.2143e-24  3.6798e-20  5.1911e-24  3.6930e-20  6.9462e-24  3.7145e-20  1.0128e-23  3.7518e-20  1.5981e-23  3.8174e-20  2.7020e-23  3.9339e-20  4.8708e-23  4.1411e-20  9.4162e-23  4.5107e-20
      5.55  2.8933e-24  4.1064e-20  2.8949e-24  4.1064e-20  2.8977e-24  4.1064e-20  2.9026e-24  4.1065e-20  2.9113e-24  4.1066e-20  2.9269e-24  4.1069e-20  2.9546e-24  4.1073e-20  3.0039e-24  4.1080e-20  3.0918e-24  4.1093e-20  3.2485e-24  4.1116e-20  3.5291e-24  4.1181e-20  4.0285e-24  4.1286e-20  4.9197e-24  4.1435e-20  6.5207e-24  4.1677e-20  9.4221e-24  4.2095e-20  1.4757e-23  4.2832e-20  2.4810e-23  4.4139e-20  4.4527e-23  4.6464e-20  8.5712e-23  5.0606e-20
      5.60  2.8226e-24  4.6058e-20  2.8240e-24  4.6058e-20  2.8265e-24  4.6059e-20  2.8310e-24  4.6060e-20  2.8390e-24  4.6061e-20  2.8532e-24  4.6064e-20  2.8784e-24  4.6068e-20  2.9233e-24  4.6076e-20  3.0033e-24  4.6091e-20  3.1459e-24  4.6117e-20  3.4018e-24  4.6203e-20  3.8564e-24  4.6322e-20  4.6674e-24  4.6489e-20  6.1237e-24  4.6761e-20  8.7622e-24  4.7231e-20  1.3612e-23  4.8058e-20  2.2742e-23  4.9524e-20  4.0622e-23  5.2132e-20  7.7851e-23  5.6775e-20
      5.65  2.7587e-24  5.1656e-20  2.7600e-24  5.1657e-20  2.7623e-24  5.1657e-20  2.7663e-24  5.1658e-20  2.7736e-24  5.1660e-20  2.7865e-24  5.1663e-20  2.8094e-24  5.1668e-20  2.8502e-24  5.1677e-20  2.9228e-24  5.1694e-20  3.0523e-24  5.1723e-20  3.2855e-24  5.1837e-20  3.6983e-24  5.1972e-20  4.4344e-24  5.2161e-20  5.7560e-24  5.2466e-20  8.1497e-24  5.2994e-20  1.2547e-23  5.3922e-20  2.0821e-23  5.5567e-20  3.6999e-23  5.8491e-20  7.0593e-23  6.3699e-20
      5.70  2.7014e-24  5.7931e-20  2.7026e-24  5.7931e-20  2.7047e-24  5.7932e-20  2.7083e-24  5.7933e-20  2.7149e-24  5.7935e-20  2.7266e-24  5.7938e-20  2.7474e-24  5.7944e-20  2.7844e-24  5.7954e-20  2.8502e-24  5.7973e-20  2.9677e-24  5.8011e-20  3.1800e-24  5.8158e-20  3.5542e-24  5.8311e-20  4.2212e-24  5.8524e-20  5.4183e-24  5.8867e-20  7.5860e-24  5.9459e-20  1.1567e-23  6.0501e-20  1.9050e-23  6.2347e-20  3.3664e-23  6.5628e-20  6.3937e-23  7.1465e-20
      5.75  2.6503e-24  6.4962e-20  2.6514e-24  6.4963e-20  2.6533e-24  6.4963e-20  2.6566e-24  6.4964e-20  2.6625e-24  6.4966e-20  2.6731e-24  6.4970e-20  2.6919e-24  6.4977e-20  2.7254e-24  6.4988e-20  2.7851e-24  6.5009e-20  2.8926e-24  6.5083e-20  3.0852e-24  6.5251e-20  3.4243e-24  6.5424e-20  4.0282e-24  6.5664e-20  5.1117e-24  6.6050e-20  7.0731e-24  6.6714e-20  1.0673e-23  6.7883e-20  1.7435e-23  6.9955e-20  3.0623e-23  7.3635e-20  5.7883e-23  8.0179e-20
      5.80  2.6049e-24  7.2839e-20  2.6059e-24  7.2840e-20  2.6076e-24  7.2841e-20  2.6106e-24  7.2842e-20  2.6160e-24  7.2844e-20  2.6256e-24  7.2848e-20  2.6426e-24  7.2856e-20  2.6730e-24  7.2869e-20  2.7270e-24  7.2892e-20  2.8260e-24  7.3018e-20  3.0009e-24  7.3208e-20  3.3084e-24  7.3405e-20  3.8557e-24  7.3674e-20  4.8372e-24  7.4108e-20  6.6132e-24  7.4854e-20  9.8709e-24  7.6166e-20  1.5984e-23  7.8491e-20  2.7889e-23  8.2619e-20  5.2441e-23  8.9958e-20
      5.85  2.5647e-24  8.1662e-20  2.5655e-24  8.1663e-20  2.5671e-24  8.1663e-20  2.5698e-24  8.1665e-20  2.5747e-24  8.1668e-20  2.5835e-24  8.1672e-20  2.5990e-24  8.1680e-20  2.6266e-24  8.1695e-20  2.6757e-24  8.1721e-20  2.7675e-24  8.1920e-20  2.9269e-24  8.2137e-20  3.2065e-24  8.2359e-20  3.7039e-24  8.2663e-20  4.5955e-24  8.3150e-20  6.2081e-24  8.3988e-20  9.1639e-24  8.5460e-20  1.4704e-23  8.8069e-20  2.5473e-23  9.2702e-20  4.7626e-23  1.0093e-19
      5.90  2.5290e-24  9.1541e-20  2.5298e-24  9.1542e-20  2.5312e-24  9.1543e-20  2.5337e-24  9.1544e-20  2.5382e-24  9.1547e-20  2.5462e-24  9.1553e-20  2.5604e-24  9.1562e-20  2.5856e-24  9.1578e-20  2.6304e-24  9.1607e-20  2.7166e-24  9.1908e-20  2.8627e-24  9.2154e-20  3.1184e-24  9.2406e-20  3.5727e-24  9.2747e-20  4.3869e-24  9.3295e-20  5.8586e-24  9.4236e-20  8.5541e-24  9.5889e-20  1.3600e-23  9.8818e-20  2.3387e-23  1.0402e-19  4.3459e-23  1.1325e-19
      5.95  2.4974e-24  1.0260e-19  2.4981e-24  1.0260e-19  2.4994e-24  1.0260e-19  2.5017e-24  1.0260e-19  2.5059e-24  1.0261e-19  2.5132e-24  1.0261e-19  2.5262e-24  1.0262e-19  2.5495e-24  1.0264e-19  2.5923e-24  1.0274e-19  2.6729e-24  1.0311e-19  2.8077e-24  1.0339e-19  3.0433e-24  1.0368e-19  3.4615e-24  1.0406e-19  4.2107e-24  1.0468e-19  5.5641e-24  1.0573e-19  8.0411e-24  1.0759e-19  1.2672e-23  1.1088e-19  2.1635e-23  1.1671e-19  3.9954e-23  1.2708e-19
      6.00  2.4692e-24  1.1497e-19  2.4699e-24  1.1498e-19  2.4711e-24  1.1498e-19  2.4733e-24  1.1498e-19  2.4771e-24  1.1498e-19  2.4839e-24  1.1499e-19  2.4961e-24  1.1500e-19  2.5176e-24  1.1502e-19  2.5601e-24  1.1526e-19  2.6357e-24  1.1568e-19  2.7614e-24  1.1600e-19  2.9806e-24  1.1633e-19  3.3694e-24  1.1676e-19  4.0656e-24  1.1745e-19  5.3228e-24  1.1864e-19  7.6220e-24  1.2072e-19  1.1915e-23  1.2441e-19  2.0209e-23  1.3096e-19  3.7103e-23  1.4260e-19
      6.05  2.4440e-24  1.2882e-19  2.4446e-24  1.2882e-19  2.4458e-24  1.2882e-19  2.4478e-24  1.2882e-19  2.4514e-24  1.2882e-19  2.4578e-24  1.2883e-19  2.4692e-24  1.2884e-19  2.4895e-24  1.2887e-19  2.5328e-24  1.2930e-19  2.6045e-24  1.2979e-19  2.7230e-24  1.3015e-19  2.9294e-24  1.3052e-19  3.2952e-24  1.3100e-19  3.9499e-24  1.3178e-19  5.1318e-24  1.3311e-19  7.2921e-24  1.3546e-19  1.1322e-23  1.3960e-19  1.9094e-23  1.4696e-19  3.4879e-23  1.6002e-19
      6.10  2.4212e-24  1.4429e-19  2.4218e-24  1.4429e-19  2.4229e-24  1.4429e-19  2.4248e-24  1.4430e-19  2.4283e-24  1.4430e-19  2.4344e-24  1.4431e-19  2.4452e-24  1.4432e-19  2.4646e-24  1.4435e-19  2.5097e-24  1.4506e-19  2.5785e-24  1.4561e-19  2.6918e-24  1.4603e-19  2.8886e-24  1.4644e-19  3.2373e-24  1.4699e-19  3.8611e-24  1.4786e-19  4.9870e-24  1.4936e-19  7.0441e-24  1.5199e-19  1.0879e-23  1.5664e-19  1.8264e-23  1.6490e-19  3.3227e-23  1.7956e-19
      6.15  2.4004e-24  1.6158e-19  2.4010e-24  1.6158e-19  2.4020e-24  1.6159e-19  2.4039e-24  1.6159e-19  2.4072e-24  1.6159e-19  2.4131e-24  1.6160e-19  2.4236e-24  1.6162e-19  2.4435e-24  1.6173e-19  2.4904e-24  1.6274e-19  2.5572e-24  1.6337e-19  2.6668e-24  1.6384e-19  2.8570e-24  1.6430e-19  3.1937e-24  1.6492e-19  3.7961e-24  1.6590e-19  4.8830e-24  1.6759e-19  6.8682e-24  1.7054e-19  1.0567e-23  1.7577e-19  1.7683e-23  1.8504e-19  3.2069e-23  2.0151e-19
      6.20  2.3811e-24  1.8090e-19  2.3817e-24  1.8090e-19  2.3828e-24  1.8090e-19  2.3846e-24  1.8090e-19  2.3878e-24  1.8091e-19  2.3936e-24  1.8092e-19  2.4038e-24  1.8094e-19  2.4279e-24  1.8142e-19  2.4742e-24  1.8257e-19  2.5399e-24  1.8329e-19  2.6471e-24  1.8382e-19  2.8330e-24  1.8434e-19  3.1621e-24  1.8504e-19  3.7506e-24  1.8615e-19  4.8123e-24  1.8804e-19  6.7511e-24  1.9135e-19  1.0361e-23  1.9723e-19  1.7300e-23  2.0764e-19  3.1303e-23  2.2613e-19
      6.25  2.3631e-24  2.0245e-19  2.3637e-24  2.0245e-19  2.3647e-24  2.0245e-19  2.3665e-24  2.0246e-19  2.3697e-24  2.0246e-19  2.3754e-24  2.0248e-19  2.3855e-24  2.0250e-19  2.4146e-24  2.0351e-19  2.4607e-24  2.0481e-19  2.5256e-24  2.0563e-19  2.6315e-24  2.0624e-19  2.8148e-24  2.0683e-19  3.1393e-24  2.0762e-19  3.7194e-24  2.0886e-19  4.7657e-24  2.1099e-19  6.6758e-24  2.1471e-19  1.0231e-23  2.2131e-19  1.7057e-23  2.3301e-19  3.0802e-23  2.5378e-19
      6.30  2.3459e-24  2.2649e-19  2.3464e-24  2.2649e-19  2.3474e-24  2.2649e-19  2.3492e-24  2.2650e-19  2.3524e-24  2.2650e-19  2.3580e-24  2.2652e-19  2.3680e-24  2.2654e-19  2.4031e-24  2.2828e-19  2.4491e-24  2.2977e-19  2.5137e-24  2.3071e-19  2.6187e-24  2.3139e-19  2.8003e-24  2.3207e-19  3.1216e-24  2.3295e-19  3.6961e-24  2.3435e-19  4.7320e-24  2.3673e-19  6.6222e-24  2.4092e-19  1.0138e-23  2.4833e-19  1.6879e-23  2.6147e-19  3.0421e-23  2.8480e-19
      6.35  2.3291e-24  2.5328e-19  2.3297e-24  2.5328e-19  2.3307e-24  2.5328e-19  2.3325e-24  2.5329e-19  2.3356e-24  2.5329e-19  2.3412e-24  2.5331e-19  2.3511e-24  2.5333e-19  2.3930e-24  2.5607e-19  2.4390e-24  2.5777e-19  2.5031e-24  2.5883e-19  2.6072e-24  2.5961e-19  2.7870e-24  2.6038e-19  3.1052e-24  2.6137e-19  3.6737e-24  2.6294e-19  4.6987e-24  2.6563e-19  6.5680e-24  2.7033e-19  1.0041e-23  2.7865e-19  1.6691e-23  2.9342e-19  3.0007e-23  3.1963e-19
      6.40  2.3126e-24  2.8310e-19  2.3131e-24  2.8310e-19  2.3141e-24  2.8310e-19  2.3159e-24  2.8311e-19  2.3190e-24  2.8312e-19  2.3244e-24  2.8314e-19  2.3403e-24  2.8392e-19  2.3838e-24  2.8722e-19  2.4296e-24  2.8917e-19  2.4930e-24  2.9039e-19  2.5956e-24  2.9128e-19  2.7728e-24  2.9214e-19  3.0860e-24  2.9326e-19  3.6456e-24  2.9503e-19  4.6539e-24  2.9804e-19  6.4917e-24  3.0333e-19  9.9025e-24  3.1268e-19  1.6418e-23  3.2927e-19  2.9420e-23  3.5873e-19
      6.45  2.2960e-24  3.1627e-19  2.2965e-24  3.1627e-19  2.2974e-24  3.1627e-19  2.2991e-24  3.1628e-19  2.3022e-24  3.1629e-19  2.3075e-24  3.1631e-19  2.3314e-24  3.1835e-19  2.3751e-24  3.2214e-19  2.4205e-24  3.2438e-19  2.4827e-24  3.2578e-19  2.5829e-24  3.2680e-19  2.7557e-24  3.2777e-19  3.0609e-24  3.2904e-19  3.6060e-24  3.3103e-19  4.5877e-24  3.3442e-19  6.3754e-24  3.4036e-19  9.6888e-24  3.5087e-19  1.6003e-23  3.6952e-19  2.8550e-23  4.0263e-19
      6.50  2.2789e-24  3.5311e-19  2.2794e-24  3.5311e-19  2.2804e-24  3.5312e-19  2.2820e-24  3.5312e-19  2.2849e-24  3.5314e-19  2.2900e-24  3.5316e-19  2.3226e-24  3.5687e-19  2.3664e-24  3.6126e-19  2.4111e-24  3.6386e-19  2.4714e-24  3.6547e-19  2.5680e-24  3.6664e-19  2.7340e-24  3.6775e-19  3.0269e-24  3.6918e-19  3.5498e-24  3.7142e-19  4.4909e-24  3.7523e-19  6.2032e-24  3.8191e-19  9.3718e-24  3.9373e-19  1.5394e-23  4.1469e-19  2.7305e-23  4.5192e-19
      6.55  2.2704e-24  3.9559e-19  2.2709e-24  3.9560e-19  2.2717e-24  3.9560e-19  2.2733e-24  3.9561e-19  2.2760e-24  3.9562e-19  2.2808e-24  3.9564e-19  2.3134e-24  3.9991e-19  2.3575e-24  4.0506e-19  2.4011e-24  4.0809e-19  2.4588e-24  4.0997e-19  2.5502e-24  4.1132e-19  2.7067e-24  4.1260e-19  2.9824e-24  4.1422e-19  3.4742e-24  4.1674e-19  4.3587e-24  4.2103e-19  5.9665e-24  4.2854e-19  8.9367e-24  4.4183e-19  1.4566e-23  4.6541e-19  2.5645e-23  5.0728e-19
      6.60  2.2659e-24  4.4386e-19  2.2664e-24  4.4386e-19  2.2672e-24  4.4387e-19  2.2686e-24  4.4388e-19  2.2711e-24  4.4389e-19  2.2755e-24  4.4392e-19  2.3033e-24  4.4790e-19  2.3479e-24  4.5402e-19  2.3903e-24  4.5762e-19  2.4446e-24  4.5985e-19  2.5293e-24  4.6143e-19  2.6734e-24  4.6290e-19  2.9268e-24  4.6474e-19  3.3783e-24  4.6759e-19  4.1898e-24  4.7242e-19  5.6633e-24  4.8088e-19  8.3806e-24  4.9582e-19  1.3515e-23  5.2235e-19  2.3573e-23  5.6947e-19
      6.65  2.2621e-24  4.9802e-19  2.2625e-24  4.9802e-19  2.2632e-24  4.9803e-19  2.2644e-24  4.9804e-19  2.2666e-24  4.9805e-19  2.2706e-24  4.9808e-19  2.2918e-24  5.0128e-19  2.3373e-24  5.0868e-19  2.3784e-24  5.1304e-19  2.4288e-24  5.1572e-19  2.5055e-24  5.1760e-19  2.6347e-24  5.1931e-19  2.8612e-24  5.2142e-19  3.2642e-24  5.2464e-19  3.9879e-24  5.3009e-19  5.3004e-24  5.3960e-19  7.7165e-24  5.5643e-19  1.2268e-23  5.8628e-19  2.1141e-23  6.3932e-19
      6.70  2.2587e-24  5.5879e-19  2.2590e-24  5.5879e-19  2.2596e-24  5.5880e-19  2.2607e-24  5.5881e-19  2.2626e-24  5.5883e-19  2.2660e-24  5.5886e-19  2.2781e-24  5.6041e-19  2.3252e-24  5.6957e-19  2.3654e-24  5.7496e-19  2.4116e-24  5.7826e-19  2.4793e-24  5.8054e-19  2.5918e-24  5.8255e-19  2.7878e-24  5.8498e-19  3.1360e-24  5.8864e-19  3.7606e-24  5.9479e-19  4.8919e-24  6.0551e-19  6.9703e-24  6.2445e-19  1.0874e-23  6.5806e-19  1.8444e-23  7.1777e-19
      6.75  2.2557e-24  6.2697e-19  2.2560e-24  6.2697e-19  2.2565e-24  6.2698e-19  2.2574e-24  6.2699e-19  2.2590e-24  6.2701e-19  2.2618e-24  6.2705e-19  2.2669e-24  6.2711e-19  2.3113e-24  6.3714e-19  2.3511e-24  6.4400e-19  2.3933e-24  6.4819e-19  2.4518e-24  6.5102e-19  2.5466e-24  6.5344e-19  2.7106e-24  6.5626e-19  3.0008e-24  6.6043e-19  3.5204e-24  6.6737e-19  4.4603e-24  6.7946e-19  6.1833e-24  7.0079e-19  9.4079e-24  7.3864e-19  1.5628e-23  8.0589e-19
      6.80  2.2532e-24  7.0347e-19  2.2534e-24  7.0348e-19  2.2538e-24  7.0348e-19  2.2545e-24  7.0350e-19  2.2558e-24  7.0352e-19  2.2580e-24  7.0356e-19  2.2620e-24  7.0363e-19  2.2966e-24  7.1234e-19  2.3366e-24  7.2113e-19  2.3751e-24  7.2645e-19  2.4246e-24  7.2999e-19  2.5021e-24  7.3291e-19  2.6342e-24  7.3620e-19  2.8669e-24  7.4096e-19  3.2826e-24  7.4882e-19  4.0332e-24  7.6244e-19  5.4056e-24  7.8648e-19  7.9638e-24  8.2910e-19  1.2868e-23  9.0484e-19
      6.85  2.2509e-24  7.8931e-19  2.2511e-24  7.8931e-19  2.2514e-24  7.8932e-19  2.2519e-24  7.8934e-19  2.2529e-24  7.8936e-19  2.2546e-24  7.8941e-19  2.2577e-24  7.8949e-19  2.2821e-24  7.9627e-19  2.3227e-24  8.0738e-19  2.3580e-24  8.1409e-19  2.3994e-24  8.1850e-19  2.4610e-24  8.2203e-19  2.5637e-24  8.2587e-19  2.7433e-24  8.3131e-19  3.0633e-24  8.4020e-19  3.6395e-24  8.5557e-19  4.6900e-24  8.8265e-19  6.6388e-24  9.3066e-19  1.0347e-23  1.0160e-18
      6.90  2.2490e-24  8.8562e-19  2.2491e-24  8.8562e-19  2.2493e-24  8.8563e-19  2.2497e-24  8.8565e-19  2.2504e-24  8.8568e-19  2.2517e-24  8.8573e-19  2.2540e-24  8.8582e-19  2.2686e-24  8.9014e-19  2.3102e-24  9.0400e-19  2.3431e-24  9.1234e-19  2.3777e-24  9.1776e-19  2.4256e-24  9.2200e-19  2.5033e-24  9.2647e-19  2.6376e-24  9.3267e-19  2.8757e-24  9.4273e-19  3.3034e-24  9.6007e-19  4.0800e-24  9.9059e-19  5.5126e-24  1.0447e-18  8.2142e-24  1.1408e-18
      6.95  2.2473e-24  9.9368e-19  2.2473e-24  9.9368e-19  2.2475e-24  9.9369e-19  2.2478e-24  9.9371e-19  2.2483e-24  9.9375e-19  2.2493e-24  9.9380e-19  2.2509e-24  9.9391e-19  2.2539e-24  9.9409e-19  2.2959e-24  1.0107e-18  2.3286e-24  1.0216e-18  2.3589e-24  1.0285e-18  2.3968e-24  1.0338e-18  2.4552e-24  1.0391e-18  2.5542e-24  1.0463e-18  2.7284e-24  1.0577e-18  3.0398e-24  1.0773e-18  3.6029e-24  1.1117e-18  4.6348e-24  1.1727e-18  6.5612e-24  1.2809e-18
      7.00  2.2458e-24  1.1149e-18  2.2459e-24  1.1149e-18  2.2460e-24  1.1149e-18  2.2462e-24  1.1150e-18  2.2466e-24  1.1150e-18  2.2472e-24  1.1151e-18  2.2485e-24  1.1152e-18  2.2506e-24  1.1154e-18  2.2800e-24  1.1285e-18  2.3148e-24  1.1430e-18  2.3433e-24  1.1522e-18  2.3748e-24  1.1589e-18  2.4197e-24  1.1654e-18  2.4934e-24  1.1737e-18  2.6217e-24  1.1867e-18  2.8498e-24  1.2089e-18  3.2601e-24  1.2477e-18  4.0072e-24  1.3164e-18  5.3880e-24  1.4384e-18
      7.05  2.2445e-24  1.2510e-18  2.2446e-24  1.2510e-18  2.2447e-24  1.2510e-18  2.2448e-24  1.2510e-18  2.2451e-24  1.2511e-18  2.2456e-24  1.2511e-18  2.2465e-24  1.2513e-18  2.2481e-24  1.2515e-18  2.2616e-24  1.2578e-18  2.3007e-24  1.2775e-18  2.3298e-24  1.2899e-18  2.3580e-24  1.2987e-18  2.3944e-24  1.3066e-18  2.4516e-24  1.3164e-18  2.5491e-24  1.3313e-18  2.7213e-24  1.3564e-18  3.0297e-24  1.4002e-18  3.5879e-24  1.4777e-18  4.6113e-24  1.6152e-18
      7.10  2.2434e-24  1.4036e-18  2.2434e-24  1.4036e-18  2.2435e-24  1.4036e-18  2.2436e-24  1.4037e-18  2.2439e-24  1.4037e-18  2.2443e-24  1.4038e-18  2.2450e-24  1.4039e-18  2.2462e-24  1.4042e-18  2.2484e-24  1.4047e-18  2.2839e-24  1.4252e-18  2.3164e-24  1.4425e-18  2.3442e-24  1.4544e-18  2.3761e-24  1.4645e-18  2.4229e-24  1.4762e-18  2.5008e-24  1.4934e-18  2.6367e-24  1.5219e-18  2.8790e-24  1.5714e-18  3.3158e-24  1.6588e-18  4.1124e-24  1.8138e-18
      7.15  2.2424e-24  1.5749e-18  2.2425e-24  1.5749e-18  2.2425e-24  1.5749e-18  2.2426e-24  1.5749e-18  2.2428e-24  1.5750e-18  2.2431e-24  1.5751e-18  2.2437e-24  1.5752e-18  2.2447e-24  1.5755e-18  2.2465e-24  1.5761e-18  2.2644e-24  1.5873e-18  2.3022e-24  1.6114e-18  2.3316e-24  1.6276e-18  2.3617e-24  1.6407e-18  2.4024e-24  1.6550e-18  2.4675e-24  1.6749e-18  2.5795e-24  1.7074e-18  2.7780e-24  1.7634e-18  3.1346e-24  1.8620e-18  3.7826e-24  2.0367e-18
      7.20  2.2416e-24  1.7670e-18  2.2416e-24  1.7670e-18  2.2417e-24  1.7671e-18  2.2418e-24  1.7671e-18  2.2419e-24  1.7672e-18  2.2422e-24  1.7673e-18  2.2427e-24  1.7675e-18  2.2435e-24  1.7678e-18  2.2451e-24  1.7684e-18  2.2478e-24  1.7694e-18  2.2829e-24  1.7951e-18  2.3173e-24  1.8185e-18  2.3485e-24  1.8365e-18  2.3864e-24  1.8543e-18  2.4437e-24  1.8779e-18  2.5401e-24  1.9152e-18  2.7094e-24  1.9786e-18  3.0126e-24  2.0899e-18  3.5621e-24  2.2868e-18
      7.25  2.2409e-24  1.9826e-18  2.2409e-24  1.9827e-18  2.2409e-24  1.9827e-18  2.2410e-24  1.9827e-18  2.2412e-24  1.9828e-18  2.2414e-24  1.9829e-18  2.2418e-24  1.9831e-18  2.2426e-24  1.9835e-18  2.2439e-24  1.9842e-18  2.2463e-24  1.9854e-18  2.2610e-24  1.9967e-18  2.3025e-24  2.0303e-18  2.3365e-24  2.0547e-18  2.3737e-24  2.0773e-18  2.4262e-24  2.1053e-18  2.5122e-24  2.1480e-18  2.6617e-24  2.2199e-18  2.9282e-24  2.3454e-18  3.4101e-24  2.5674e-18
      7.30  2.2402e-24  2.2246e-18  2.2403e-24  2.2246e-18  2.2403e-24  2.2246e-18  2.2404e-24  2.2246e-18  2.2405e-24  2.2247e-18  2.2407e-24  2.2249e-18  2.2411e-24  2.2251e-18  2.2418e-24  2.2255e-18  2.2430e-24  2.2263e-18  2.2451e-24  2.2276e-18  2.2490e-24  2.2300e-18  2.2862e-24  2.2642e-18  2.3244e-24  2.2972e-18  2.3624e-24  2.3260e-18  2.4125e-24  2.3595e-18  2.4918e-24  2.4087e-18  2.6280e-24  2.4903e-18  2.8694e-24  2.6319e-18  3.3048e-24  2.8819e-18
      7.35  2.2397e-24  2.4960e-18  2.2397e-24  2.4960e-18  2.2398e-24  2.4960e-18  2.2398e-24  2.4961e-18  2.2399e-24  2.4962e-18  2.2401e-24  2.4963e-18  2.2405e-24  2.4966e-18  2.2411e-24  2.4971e-18  2.2422e-24  2.4979e-18  2.2442e-24  2.4994e-18  2.2478e-24  2.5021e-18  2.2669e-24  2.5210e-18  2.3112e-24  2.5659e-18  2.3519e-24  2.6032e-18  2.4015e-24  2.6437e-18  2.4767e-24  2.7007e-18  2.6037e-24  2.7933e-18  2.8277e-24  2.9531e-18  3.2307e-24  3.2345e-18
      7.40  2.2392e-24  2.8006e-18  2.2392e-24  2.8006e-18  2.2393e-24  2.8006e-18  2.2393e-24  2.8007e-18  2.2394e-24  2.8008e-18  2.2396e-24  2.8009e-18  2.2400e-24  2.8012e-18  2.2405e-24  2.8018e-18  2.2416e-24  2.8027e-18  2.2435e-24  2.8044e-18  2.2468e-24  2.8074e-18  2.2529e-24  2.8128e-18  2.3015e-24  2.8696e-18  2.3445e-24  2.9160e-18  2.3937e-24  2.9638e-18  2.4659e-24  3.0290e-18  2.5863e-24  3.1338e-18  2.7978e-24  3.3137e-18  3.1774e-24  3.6301e-18
      7.45  2.2388e-24  3.1423e-18  2.2388e-24  3.1423e-18  2.2388e-24  3.1423e-18  2.2389e-24  3.1424e-18  2.2390e-24  3.1425e-18  2.2392e-24  3.1427e-18  2.2395e-24  3.1430e-18  2.2401e-24  3.1436e-18  2.2411e-24  3.1447e-18  2.2429e-24  3.1466e-18  2.2460e-24  3.1500e-18  2.2518e-24  3.1561e-18  2.2985e-24  3.2180e-18  2.3411e-24  3.2708e-18  2.3888e-24  3.3249e-18  2.4579e-24  3.3984e-18  2.5726e-24  3.5163e-18  2.7736e-24  3.7185e-18  3.1339e-24  4.0740e-18
      7.50  2.2384e-24  3.5257e-18  2.2385e-24  3.5257e-18  2.2385e-24  3.5257e-18  2.2385e-24  3.5258e-18  2.2386e-24  3.5259e-18  2.2388e-24  3.5262e-18  2.2391e-24  3.5265e-18  2.2396e-24  3.5272e-18  2.2406e-24  3.5284e-18  2.2423e-24  3.5306e-18  2.2454e-24  3.5344e-18  2.2509e-24  3.5412e-18  2.2959e-24  3.6086e-18  2.3382e-24  3.6687e-18  2.3848e-24  3.7300e-18  2.4517e-24  3.8129e-18  2.5621e-24  3.9454e-18  2.7553e-24  4.1726e-18  3.1013e-24  4.5719e-18
      7.55  2.2381e-24  3.9559e-18  2.2381e-24  3.9559e-18  2.2382e-24  3.9560e-18  2.2382e-24  3.9560e-18  2.2383e-24  3.9562e-18  2.2385e-24  3.9564e-18  2.2388e-24  3.9568e-18  2.2393e-24  3.9576e-18  2.2402e-24  3.9590e-18  2.2419e-24  3.9614e-18  2.2449e-24  3.9656e-18  2.2502e-24  3.9733e-18  2.2934e-24  4.0463e-18  2.3357e-24  4.1149e-18  2.3816e-24  4.1844e-18  2.4466e-24  4.2778e-18  2.5538e-24  4.4268e-18  2.7409e-24  4.6820e-18  3.0758e-24  5.1305e-18
      7.60  2.2378e-24  4.4386e-18  2.2379e-24  4.4386e-18  2.2379e-24  4.4387e-18  2.2379e-24  4.4387e-18  2.2380e-24  4.4389e-18  2.2382e-24  4.4392e-18  2.2385e-24  4.4396e-18  2.2390e-24  4.4405e-18  2.2399e-24  4.4420e-18  2.2415e-24  4.4447e-18  2.2444e-24  4.4495e-18  2.2496e-24  4.4581e-18  2.2908e-24  4.5367e-18  2.3333e-24  4.6151e-18  2.3786e-24  4.6939e-18  2.4422e-24  4.7992e-18  2.5463e-24  4.9668e-18  2.7277e-24  5.2535e-18  3.0521e-24  5.7571e-18
      7.65  2.2376e-24  4.9802e-18  2.2376e-24  4.9802e-18  2.2376e-24  4.9802e-18  2.2377e-24  4.9803e-18  2.2378e-24  4.9805e-18  2.2379e-24  4.9808e-18  2.2382e-24  4.9814e-18  2.2387e-24  4.9823e-18  2.2396e-24  4.9840e-18  2.2412e-24  4.9871e-18  2.2440e-24  4.9925e-18  2.2491e-24  5.0021e-18  2.2880e-24  5.0856e-18  2.3309e-24  5.1756e-18  2.3759e-24  5.2652e-18  2.4383e-24  5.3841e-18  2.5399e-24  5.5725e-18  2.7166e-24  5.8946e-18  3.0320e-24  6.4601e-18
      7.70  2.2374e-24  5.5878e-18  2.2374e-24  5.5879e-18  2.2374e-24  5.5879e-18  2.2375e-24  5.5880e-18  2.2376e-24  5.5882e-18  2.2377e-24  5.5886e-18  2.2380e-24  5.5892e-18  2.2385e-24  5.5903e-18  2.2394e-24  5.5922e-18  2.2409e-24  5.5956e-18  2.2437e-24  5.6017e-18  2.2487e-24  5.6124e-18  2.2846e-24  5.6994e-18  2.3284e-24  5.8033e-18  2.3734e-24  5.9055e-18  2.4349e-24  6.0398e-18  2.5344e-24  6.2519e-18  2.7070e-24  6.6139e-18  3.0148e-24  7.2489e-18
      7.75  2.2372e-24  6.2697e-18  2.2372e-24  6.2697e-18  2.2373e-24  6.2698e-18  2.2373e-24  6.2699e-18  2.2374e-24  6.2701e-18  2.2375e-24  6.2705e-18  2.2378e-24  6.2712e-18  2.2383e-24  6.2724e-18  2.2392e-24  6.2745e-18  2.2407e-24  6.2784e-18  2.2434e-24  6.2852e-18  2.2483e-24  6.2973e-18  2.2805e-24  6.3848e-18  2.3255e-24  6.5057e-18  2.3708e-24  6.6228e-18  2.4317e-24  6.7750e-18  2.5295e-24  7.0139e-18  2.6987e-24  7.4206e-18  2.9998e-24  8.1337e-18
      7.80  2.2371e-24  7.0347e-18  2.2371e-24  7.0347e-18  2.2371e-24  7.0348e-18  2.2371e-24  7.0349e-18  2.2372e-24  7.0352e-18  2.2374e-24  7.0356e-18  2.2377e-24  7.0364e-18  2.2381e-24  7.0377e-18  2.2390e-24  7.0401e-18  2.2405e-24  7.0444e-18  2.2432e-24  7.0521e-18  2.2480e-24  7.0657e-18  2.2753e-24  7.1490e-18  2.3221e-24  7.2909e-18  2.3680e-24  7.4260e-18  2.4287e-24  7.5990e-18  2.5252e-24  7.8683e-18  2.6914e-24  8.3256e-18  2.9867e-24  9.1264e-18
      7.85  2.2369e-24  7.8930e-18  2.2369e-24  7.8931e-18  2.2370e-24  7.8932e-18  2.2370e-24  7.8933e-18  2.2371e-24  7.8936e-18  2.2372e-24  7.8941e-18  2.2375e-24  7.8949e-18  2.2380e-24  7.8964e-18  2.2388e-24  7.8992e-18  2.2403e-24  7.9040e-18  2.2430e-24  7.9126e-18  2.2477e-24  7.9278e-18  2.2686e-24  7.9990e-18  2.3178e-24  8.1676e-18  2.3649e-24  8.3247e-18  2.4257e-24  8.5221e-18  2.5212e-24  8.8262e-18  2.6850e-24  9.3405e-18  2.9753e-24  1.0240e-17
      7.90  2.2368e-24  8.8561e-18  2.2368e-24  8.8562e-18  2.2368e-24  8.8563e-18  2.2369e-24  8.8564e-18  2.2370e-24  8.8567e-18  2.2371e-24  8.8573e-18  2.2374e-24  8.8582e-18  2.2379e-24  8.8600e-18  2.2387e-24  8.8630e-18  2.2402e-24  8.8684e-18  2.2428e-24  8.8781e-18  2.2475e-24  8.8952e-18  2.2637e-24  8.9568e-18  2.3146e-24  9.1539e-18  2.3625e-24  9.3347e-18  2.4233e-24  9.5587e-18  2.5178e-24  9.9015e-18  2.6794e-24  1.0480e-17  2.9651e-24  1.1490e-17
      7.95  2.2367e-24  9.9367e-18  2.2367e-24  9.9368e-18  2.2367e-24  9.9369e-18  2.2368e-24  9.9371e-18  2.2369e-24  9.9374e-18  2.2370e-24  9.9380e-18  2.2373e-24  9.9391e-18  2.2377e-24  9.9410e-18  2.2386e-24  9.9445e-18  2.2400e-24  9.9505e-18  2.2426e-24  9.9614e-18  2.2473e-24  9.9806e-18  2.2577e-24  1.0025e-17  2.3109e-24  1.0256e-17  2.3599e-24  1.0465e-17  2.4209e-24  1.0720e-17  2.5147e-24  1.1107e-17  2.6743e-24  1.1757e-17  2.9558e-24  1.2892e-17
      8.00  2.2366e-24  1.1149e-17  2.2366e-24  1.1149e-17  2.2367e-24  1.1149e-17  2.2367e-24  1.1150e-17  2.2368e-24  1.1150e-17  2.2369e-24  1.1151e-17  2.2372e-24  1.1152e-17  2.2376e-24  1.1154e-17  2.2385e-24  1.1158e-17  2.2399e-24  1.1165e-17  2.2425e-24  1.1177e-17  2.2471e-24  1.1198e-17  2.2553e-24  1.1237e-17  2.3064e-24  1.1487e-17  2.3568e-24  1.1731e-17  2.4183e-24  1.2022e-17  2.5118e-24  1.2459e-17  2.6698e-24  1.3190e-17  2.9477e-24  1.4465e-17
      8.05  2.2365e-24  1.2510e-17  2.2366e-24  1.2510e-17  2.2366e-24  1.2510e-17  2.2366e-24  1.2510e-17  2.2367e-24  1.2510e-17  2.2369e-24  1.2511e-17  2.2371e-24  1.2513e-17  2.2376e-24  1.2515e-17  2.2384e-24  1.2519e-17  2.2398e-24  1.2527e-17  2.2424e-24  1.2541e-17  2.2469e-24  1.2565e-17  2.2551e-24  1.2608e-17  2.3008e-24  1.2860e-17  2.3533e-24  1.3145e-17  2.4156e-24  1.3479e-17  2.5090e-24  1.3974e-17  2.6658e-24  1.4797e-17  2.9407e-24  1.6230e-17
      8.10  2.2365e-24  1.4036e-17  2.2365e-24  1.4036e-17  2.2365e-24  1.4036e-17  2.2366e-24  1.4037e-17  2.2366e-24  1.4037e-17  2.2368e-24  1.4038e-17  2.2370e-24  1.4039e-17  2.2375e-24  1.4042e-17  2.2383e-24  1.4047e-17  2.2397e-24  1.4056e-17  2.2423e-24  1.4071e-17  2.2468e-24  1.4098e-17  2.2549e-24  1.4146e-17  2.2941e-24  1.4389e-17  2.3491e-24  1.4726e-17  2.4127e-24  1.5111e-17  2.5063e-24  1.5672e-17  2.6622e-24  1.6599e-17  2.9346e-24  1.8209e-17
      8.15  2.2364e-24  1.5749e-17  2.2364e-24  1.5749e-17  2.2365e-24  1.5749e-17  2.2365e-24  1.5749e-17  2.2366e-24  1.5750e-17  2.2367e-24  1.5751e-17  2.2370e-24  1.5752e-17  2.2374e-24  1.5755e-17  2.2382e-24  1.5761e-17  2.2397e-24  1.5771e-17  2.2422e-24  1.5788e-17  2.2467e-24  1.5818e-17  2.2547e-24  1.5873e-17  2.2861e-24  1.6089e-17  2.3442e-24  1.6491e-17  2.4094e-24  1.6937e-17  2.5035e-24  1.7574e-17  2.6588e-24  1.8619e-17  2.9293e-24  2.0429e-17
      8.20  2.2364e-24  1.7670e-17  2.2364e-24  1.7670e-17  2.2364e-24  1.7671e-17  2.2365e-24  1.7671e-17  2.2365e-24  1.7672e-17  2.2367e-24  1.7673e-17  2.2369e-24  1.7675e-17  2.2374e-24  1.7678e-17  2.2382e-24  1.7684e-17  2.2396e-24  1.7695e-17  2.2421e-24  1.7714e-17  2.2466e-24  1.7748e-17  2.2546e-24  1.7809e-17  2.2765e-24  1.7979e-17  2.3384e-24  1.8461e-17  2.4056e-24  1.8979e-17  2.5006e-24  1.9704e-17  2.6557e-24  2.0884e-17  2.9247e-24  2.2918e-17
      8.25  2.2363e-24  1.9826e-17  2.2363e-24  1.9826e-17  2.2364e-24  1.9827e-17  2.2364e-24  1.9827e-17  2.2365e-24  1.9828e-17  2.2366e-24  1.9829e-17  2.2369e-24  1.9831e-17  2.2373e-24  1.9835e-17  2.2381e-24  1.9842e-17  2.2395e-24  1.9854e-17  2.2420e-24  1.9876e-17  2.2465e-24  1.9914e-17  2.2545e-24  1.9983e-17  2.2686e-24  2.0104e-17  2.3317e-24  2.0657e-17  2.4014e-24  2.1262e-17  2.4975e-24  2.2090e-17  2.6527e-24  2.3422e-17  2.9206e-24  2.5710e-17
      8.30  2.2363e-24  2.2246e-17  2.2363e-24  2.2246e-17  2.2363e-24  2.2246e-17  2.2364e-24  2.2246e-17  2.2365e-24  2.2247e-17  2.2366e-24  2.2248e-17  2.2368e-24  2.2251e-17  2.2373e-24  2.2255e-17  2.2381e-24  2.2263e-17  2.2395e-24  2.2277e-17  2.2420e-24  2.2301e-17  2.2464e-24  2.2344e-17  2.2544e-24  2.2421e-17  2.2685e-24  2.2557e-17  2.3239e-24  2.3102e-17  2.3966e-24  2.3812e-17  2.4941e-24  2.4760e-17  2.6497e-24  2.6265e-17  2.9169e-24  2.8839e-17
      8.35  2.2363e-24  2.4960e-17  2.2363e-24  2.4960e-17  2.2363e-24  2.4960e-17  2.2363e-24  2.4961e-17  2.2364e-24  2.4962e-17  2.2366e-24  2.4963e-17  2.2368e-24  2.4966e-17  2.2373e-24  2.4971e-17  2.2380e-24  2.4979e-17  2.2394e-24  2.4995e-17  2.2419e-24  2.5022e-17  2.2464e-24  2.5070e-17  2.2543e-24  2.5157e-17  2.2683e-24  2.5310e-17  2.3149e-24  2.5824e-17  2.3911e-24  2.6661e-17  2.4905e-24  2.7749e-17  2.6467e-24  2.9451e-17  2.9134e-24  3.2348e-17
      8.40  2.2362e-24  2.8005e-17  2.2362e-24  2.8006e-17  2.2363e-24  2.8006e-17  2.2363e-24  2.8006e-17  2.2364e-24  2.8007e-17  2.2365e-24  2.8009e-17  2.2368e-24  2.8012e-17  2.2372e-24  2.8018e-17  2.2380e-24  2.8027e-17  2.2394e-24  2.8045e-17  2.2419e-24  2.8075e-17  2.2463e-24  2.8130e-17  2.2542e-24  2.8226e-17  2.2682e-24  2.8398e-17  2.3047e-24  2.8848e-17  2.3849e-24  2.9841e-17  2.4864e-24  3.1092e-17  2.6436e-24  3.3020e-17  2.9102e-24  3.6281e-17
      8.45  2.2362e-24  3.1423e-17  2.2362e-24  3.1423e-17  2.2362e-24  3.1423e-17  2.2363e-24  3.1424e-17  2.2364e-24  3.1425e-17  2.2365e-24  3.1427e-17  2.2368e-24  3.1430e-17  2.2372e-24  3.1436e-17  2.2380e-24  3.1447e-17  2.2394e-24  3.1467e-17  2.2419e-24  3.1501e-17  2.2463e-24  3.1562e-17  2.2541e-24  3.1670e-17  2.2681e-24  3.1863e-17  2.2930e-24  3.2207e-17  2.3778e-24  3.3388e-17  2.4820e-24  3.4830e-17  2.6404e-24  3.7017e-17  2.9070e-24  4.0689e-17
      8.50  2.2362e-24  3.5257e-17  2.2362e-24  3.5257e-17  2.2362e-24  3.5257e-17  2.2363e-24  3.5258e-17  2.2363e-24  3.5259e-17  2.2365e-24  3.5261e-17  2.2367e-24  3.5265e-17  2.2372e-24  3.5272e-17  2.2380e-24  3.5284e-17  2.2394e-24  3.5306e-17  2.2418e-24  3.5345e-17  2.2462e-24  3.5413e-17  2.2541e-24  3.5535e-17  2.2680e-24  3.5752e-17  2.2929e-24  3.6137e-17  2.3699e-24  3.7341e-17  2.4770e-24  3.9009e-17  2.6369e-24  4.1492e-17  2.9039e-24  4.5629e-17
