# This was generated using Cloudy10 and the columns are ordered 
# as log10 of the fraction of the metallicity to the solar metallicity
# 'h_*_Z' and 'c_*_Z' stands for cooling and heating respectively 
# at * metalicity
#
# Redshift = 3.0
# hden = 4.0
#     temp   h_-3.00_Z   c_-3.00_Z   h_-2.75_Z   c_-2.75_Z   h_-2.50_Z   c_-2.50_Z   h_-2.25_Z   c_-2.25_Z   h_-2.00_Z   c_-2.00_Z   h_-1.75_Z   c_-1.75_Z   h_-1.50_Z   c_-1.50_Z   h_-1.25_Z   c_-1.25_Z   h_-1.00_Z   c_-1.00_Z   h_-0.75_Z   c_-0.75_Z   h_-0.50_Z   c_-0.50_Z   h_-0.25_Z   c_-0.25_Z    h_0.00_Z    c_0.00_Z    h_0.25_Z    c_0.25_Z    h_0.50_Z    c_0.50_Z    h_0.75_Z    c_0.75_Z    h_1.00_Z    c_1.00_Z    h_1.25_Z    c_1.25_Z    h_1.50_Z    c_1.50_Z 
      1.00  9.0722e-28  1.7715e-31  9.0723e-28  1.7846e-31  9.0724e-28  1.8079e-31  9.0727e-28  1.8493e-31  9.0732e-28  1.9229e-31  9.074e-28  2.0538e-31  9.0756e-28  2.2867e-31  9.0783e-28  2.7009e-31  9.0832e-28  3.4377e-31  9.0919e-28  4.7488e-31  9.1075e-28  7.0827e-31  9.1356e-28  1.124e-30  9.1869e-28  1.8654e-30  9.2829e-28  3.189e-30  9.4693e-28  5.5544e-30  9.8358e-28  9.7827e-30  1.0539e-27  1.7333e-29  1.1862e-27  3.0794e-29  1.4329e-27  5.4774e-29
      1.05  9.0721e-28  2.0014e-31  9.0722e-28  2.0186e-31  9.0723e-28  2.0491e-31  9.0726e-28  2.1034e-31  9.0731e-28    2.2e-31  9.0739e-28  2.3717e-31  9.0754e-28  2.677e-31  9.0782e-28  3.2202e-31  9.083e-28  4.1864e-31  9.0916e-28  5.9056e-31  9.107e-28  8.9662e-31  9.1348e-28  1.4405e-30  9.1854e-28  2.4128e-30  9.2801e-28  4.1489e-30  9.4643e-28  7.253e-30  9.8282e-28  1.2805e-29  1.0529e-27  2.2724e-29  1.1848e-27  4.0416e-29  1.4305e-27  7.1941e-29
      1.10  9.072e-28  2.3017e-31  9.0721e-28  2.3238e-31  9.0723e-28  2.3631e-31  9.0725e-28  2.433e-31  9.073e-28  2.5574e-31  9.0739e-28  2.7785e-31  9.0754e-28  3.1718e-31  9.078e-28  3.8713e-31  9.0828e-28  5.1157e-31  9.0914e-28  7.3298e-31  9.1066e-28  1.1271e-30  9.1341e-28  1.8293e-30  9.1842e-28  3.0814e-30  9.2779e-28  5.318e-30  9.4604e-28  9.3133e-30  9.8223e-28  1.6482e-29  1.0521e-27  2.9303e-29  1.1836e-27  5.2194e-29  1.4283e-27  9.3014e-29
      1.15  9.072e-28  2.6364e-31  9.0721e-28  2.6644e-31  9.0722e-28  2.7144e-31  9.0725e-28  2.8031e-31  9.073e-28  2.9609e-31  9.0738e-28  3.2416e-31  9.0753e-28  3.7407e-31  9.0779e-28  4.6285e-31  9.0827e-28  6.2078e-31  9.0911e-28  9.0177e-31  9.1062e-28  1.402e-30  9.1334e-28  2.2929e-30  9.1829e-28  3.882e-30  9.2755e-28  6.722e-30  9.4563e-28  1.1813e-29  9.816e-28  2.0946e-29  1.0512e-27  3.7339e-29  1.1822e-27  6.6663e-29  1.4259e-27  1.1903e-28
      1.20  9.072e-28  3.0098e-31  9.0721e-28  3.045e-31  9.0722e-28  3.1075e-31  9.0725e-28  3.2188e-31  9.0729e-28  3.4166e-31  9.0738e-28  3.7684e-31  9.0752e-28  4.394e-31  9.0779e-28  5.5068e-31  9.0825e-28  7.4861e-31  9.0909e-28  1.1008e-30  9.1058e-28  1.7275e-30  9.1327e-28  2.8439e-30  9.1816e-28  4.8352e-30  9.2731e-28  8.3981e-30  9.4519e-28  1.4806e-29  9.8093e-28  2.6358e-29  1.0502e-27  4.718e-29  1.1808e-27  8.4551e-29  1.4234e-27  1.5147e-28
      1.25  9.072e-28  3.4267e-31  9.072e-28  3.4703e-31  9.0722e-28  3.5479e-31  9.0725e-28  3.6858e-31  9.0729e-28  3.931e-31  9.0737e-28  4.367e-31  9.0752e-28  5.1425e-31  9.0778e-28  6.5216e-31  9.0824e-28  8.9746e-31  9.0906e-28  1.3338e-30  9.1054e-28  2.1103e-30  9.1319e-28  3.4933e-30  9.1802e-28  5.9606e-30  9.2705e-28  1.0383e-29  9.4474e-28  1.8378e-29  9.8022e-28  3.2909e-29  1.0491e-27  5.9276e-29  1.1792e-27  1.0685e-28  1.4207e-27  1.924e-28
      1.30  9.072e-28  3.8929e-31  9.072e-28  3.9464e-31  9.0722e-28  4.0415e-31  9.0724e-28  4.2107e-31  9.0729e-28  4.5116e-31  9.0737e-28  5.0467e-31  9.0752e-28  5.9981e-31  9.0777e-28  7.6902e-31  9.0823e-28  1.0699e-30  9.0904e-28  1.6051e-30  9.105e-28  2.5572e-30  9.1312e-28  4.2525e-30  9.1789e-28  7.2781e-30  9.2679e-28  1.2714e-29  9.4428e-28  2.2618e-29  9.795e-28  4.0838e-29  1.0481e-27  7.4218e-29  1.1775e-27  1.349e-28  1.418e-27  2.4463e-28
      1.35  9.072e-28  4.4141e-31  9.0721e-28  4.4791e-31  9.0722e-28  4.5948e-31  9.0725e-28  4.8005e-31  9.0729e-28  5.1664e-31  9.0737e-28  5.817e-31  9.0751e-28  6.9738e-31  9.0777e-28  9.0308e-31  9.0822e-28  1.2688e-30  9.0902e-28  1.9192e-30  9.1046e-28  3.0757e-30  9.1305e-28  5.1341e-30  9.1775e-28  8.8092e-30  9.2653e-28  1.5433e-29  9.4381e-28  2.763e-29  9.7875e-28  5.0435e-29  1.0469e-27  9.2756e-29  1.1758e-27  1.7041e-28  1.4152e-27  3.1184e-28
      1.40  9.072e-28  4.997e-31  9.0721e-28  5.0755e-31  9.0722e-28  5.2151e-31  9.0725e-28  5.4633e-31  9.0729e-28  5.9048e-31  9.0737e-28  6.6897e-31  9.0751e-28  8.0853e-31  9.0776e-28  1.0567e-30  9.0821e-28  1.4977e-30   9.09e-28  2.2817e-30  9.1042e-28  3.6751e-30  9.1297e-28  6.1539e-30  9.1761e-28  1.0581e-29  9.2627e-28  1.8592e-29  9.4334e-28  3.3538e-29   9.78e-28  6.2056e-29  1.0458e-27  1.1581e-28  1.1741e-27  2.1551e-28  1.4123e-27  3.9853e-28
      1.45  9.072e-28  5.6494e-31  9.0721e-28  5.7436e-31  9.0723e-28  5.9111e-31  9.0725e-28  6.2088e-31  9.0729e-28  6.7383e-31  9.0737e-28  7.6797e-31  9.0751e-28  9.3533e-31  9.0776e-28  1.2328e-30  9.082e-28  1.7615e-30  9.0898e-28  2.7007e-30  9.1038e-28  4.369e-30  9.129e-28  7.3347e-30  9.1747e-28  1.2633e-29  9.2601e-28  2.2262e-29  9.4285e-28  4.0503e-29  9.7723e-28  7.6141e-29  1.0447e-27  1.4447e-28  1.1723e-27  2.7269e-28  1.4095e-27  5.0996e-28
      1.50  9.0721e-28  6.3804e-31  9.0722e-28  6.4932e-31  9.0723e-28  6.6936e-31  9.0725e-28   7.05e-31  9.073e-28  7.6838e-31  9.0738e-28  8.8105e-31  9.0751e-28  1.0813e-30  9.0776e-28  1.4373e-30  9.0819e-28  2.0696e-30  9.0896e-28  3.1924e-30  9.1034e-28  5.1849e-30  9.1283e-28  8.724e-30  9.1733e-28  1.5047e-29  9.2574e-28  2.659e-29  9.4236e-28  4.8817e-29  9.7646e-28  9.3345e-29  1.0435e-27  1.8023e-28  1.1706e-27  3.4507e-28  1.4067e-27  6.5239e-28
      1.55  9.0722e-28  7.2027e-31  9.0722e-28  7.3386e-31  9.0724e-28  7.5801e-31  9.0726e-28  8.0096e-31  9.073e-28  8.7732e-31  9.0738e-28  1.0131e-30  9.0751e-28  1.2543e-30  9.0776e-28  1.683e-30  9.0818e-28  2.4443e-30  9.0895e-28  3.795e-30  9.1031e-28  6.1898e-30  9.1276e-28  1.0439e-29  9.1721e-28  1.8026e-29  9.255e-28  3.1929e-29  9.4191e-28  5.9105e-29  9.7575e-28  1.1485e-28  1.0425e-27  2.2534e-28  1.169e-27  4.3696e-28  1.4041e-27  8.3394e-28
      1.60  9.0722e-28  8.1294e-31  9.0723e-28  8.2959e-31  9.0724e-28  8.592e-31  9.0727e-28  9.1184e-31  9.0731e-28  1.0054e-30  9.0738e-28  1.1718e-30  9.0752e-28  1.4674e-30  9.0776e-28  1.9926e-30  9.0818e-28  2.9248e-30  9.0893e-28  4.5778e-30  9.1028e-28  7.5055e-30  9.1271e-28  1.2693e-29  9.171e-28  2.1948e-29  9.2528e-28  3.8937e-29  9.4148e-28  7.2514e-29  9.7506e-28  1.4269e-28  1.0415e-27  2.8344e-28  1.1675e-27  5.5483e-28  1.4016e-27  1.066e-27
      1.65  9.0723e-28  9.1804e-31  9.0724e-28  9.3915e-31  9.0725e-28  9.7668e-31  9.0728e-28  1.0434e-30  9.0732e-28  1.1621e-30  9.0739e-28  1.373e-30  9.0752e-28  1.7477e-30  9.0776e-28  2.4133e-30  9.0818e-28  3.5943e-30  9.0892e-28  5.6871e-30  9.1026e-28  9.3907e-30  9.1265e-28  1.5944e-29  9.1699e-28  2.7614e-29  9.2506e-28  4.9013e-29  9.4107e-28  9.143e-29  9.744e-28  1.8086e-28  1.0405e-27  3.6117e-28  1.166e-27  7.097e-28  1.3993e-27  1.3671e-27
      1.70  9.0724e-28  1.0384e-30  9.0725e-28  1.0666e-30  9.0726e-28  1.1167e-30  9.0728e-28  1.2058e-30  9.0733e-28  1.3641e-30  9.074e-28  1.6456e-30  9.0753e-28  2.1457e-30  9.0776e-28  3.0338e-30  9.0818e-28  4.6094e-30  9.0892e-28  7.4004e-30  9.1024e-28  1.2336e-29  9.126e-28  2.1058e-29  9.1689e-28  3.6554e-29  9.2486e-28  6.4818e-29  9.4067e-28  1.2036e-28  9.7377e-28  2.3671e-28  1.0396e-27  4.703e-28  1.1646e-27  9.2033e-28  1.3972e-27  1.7671e-27
      1.75  9.0725e-28  1.1783e-30  9.0726e-28  1.2182e-30  9.0727e-28  1.2893e-30  9.073e-28  1.4156e-30  9.0734e-28  1.6402e-30  9.0741e-28  2.0394e-30  9.0754e-28  2.7488e-30  9.0777e-28  4.0083e-30  9.0818e-28  6.2428e-30  9.0891e-28  1.0201e-29  9.1022e-28  1.7198e-29  9.1256e-28  2.9552e-29  9.168e-28  5.1435e-29  9.2467e-28  9.1004e-29  9.4029e-28  1.6717e-28  9.7317e-28  3.2287e-28  1.0387e-27  6.3058e-28  1.1634e-27  1.2175e-27  1.3952e-27  2.314e-27
      1.80  9.0726e-28  1.344e-30  9.0727e-28  1.4039e-30  9.0728e-28  1.5102e-30  9.0731e-28  1.6994e-30  9.0735e-28  2.0357e-30  9.0742e-28  2.6335e-30  9.0755e-28  3.6956e-30  9.0778e-28  5.5819e-30  9.0818e-28  8.9286e-30  9.0891e-28  1.4858e-29  9.102e-28  2.534e-29  9.1252e-28  4.3839e-29  9.1671e-28  7.652e-29  9.2449e-28  1.3501e-28  9.3993e-28  2.4432e-28  9.7259e-28  4.5931e-28  1.0379e-27  8.7284e-28  1.1622e-27  1.6482e-27  1.3933e-27  3.0803e-27
      1.85  9.0728e-28  1.5435e-30  9.0728e-28  1.6362e-30  9.073e-28  1.801e-30  9.0732e-28  2.0941e-30  9.0736e-28  2.6151e-30  9.0743e-28  3.5413e-30  9.0756e-28  5.1872e-30  9.0778e-28  8.1104e-30  9.0819e-28  1.3298e-29  9.089e-28  2.2491e-29  9.1018e-28  3.875e-29  9.1248e-28  6.7441e-29  9.1663e-28  1.1802e-28  9.2432e-28  2.0768e-28  9.3958e-28  3.7029e-28  9.7203e-28  6.7512e-28  1.0371e-27  1.2416e-27  1.161e-27  2.2802e-27  1.3916e-27  4.1685e-27
      1.90  9.0729e-28  1.787e-30  9.073e-28  1.9321e-30  9.0731e-28  2.1899e-30  9.0733e-28  2.6484e-30  9.0737e-28  3.4635e-30  9.0744e-28  4.9125e-30  9.0757e-28  7.4877e-30  9.0779e-28  1.2062e-29  9.0819e-28  2.0182e-29  9.089e-28  3.4577e-29  9.1017e-28  6.0049e-29  9.1245e-28  1.0501e-28  9.1656e-28  1.8417e-28  9.2417e-28  3.2334e-28  9.3929e-28  5.6948e-28  9.7159e-28  1.009e-27  1.0365e-27  1.7956e-27  1.1601e-27  3.2015e-27  1.3902e-27  5.7111e-27
      1.95  9.0731e-28  2.0864e-30  9.0731e-28  2.3104e-30  9.0733e-28  2.7087e-30  9.0735e-28  3.4169e-30  9.0739e-28  4.6761e-30  9.0746e-28  6.9147e-30  9.0758e-28  1.0894e-29  9.0781e-28  1.7963e-29  9.082e-28  3.0514e-29  9.0891e-28  5.2776e-29  9.1017e-28  9.219e-29  9.1243e-28  1.6179e-28  9.1651e-28  2.8425e-28  9.2409e-28  4.9826e-28  9.3928e-28  8.6836e-28  9.7173e-28  1.5019e-27  1.0366e-27  2.5965e-27  1.1601e-27  4.5028e-27  1.3897e-27  7.8368e-27
      2.00  9.0732e-28  2.457e-30  9.0733e-28  2.7965e-30  9.0734e-28  3.4002e-30  9.0736e-28  4.4737e-30  9.074e-28  6.3825e-30  9.0747e-28  9.7758e-30  9.076e-28  1.5807e-29  9.0782e-28  2.6525e-29  9.0821e-28  4.5557e-29  9.0891e-28  7.9319e-29  9.1016e-28  1.3911e-28  9.124e-28  2.4472e-28  9.1644e-28  4.3023e-28  9.2395e-28  7.5349e-28  9.3899e-28  1.3027e-27  9.713e-28  2.2109e-27  1.0361e-27  3.7341e-27  1.1593e-27  6.3271e-27  1.3884e-27  1.0781e-26
      2.05  9.0734e-28  2.9138e-30  9.0735e-28  3.4141e-30  9.0736e-28  4.3038e-30  9.0738e-28  5.8857e-30  9.0742e-28  8.6984e-30  9.0749e-28  1.3699e-29  9.0761e-28  2.2588e-29  9.0783e-28  3.8383e-29  9.0822e-28  6.6436e-29  9.0891e-28  1.1621e-28  9.1015e-28  2.0439e-28  9.1237e-28  3.6017e-28  9.1638e-28  6.3383e-28  9.238e-28  1.1095e-27  9.3865e-28  1.9085e-27  9.7075e-28  3.1939e-27  1.0353e-27  5.2963e-27  1.1583e-27  8.8073e-27  1.3871e-27  1.4747e-26
      2.10  9.0736e-28  3.4698e-30  9.0737e-28  4.1839e-30  9.0738e-28  5.4539e-30  9.074e-28  7.712e-30  9.0744e-28  1.1727e-29  9.0751e-28  1.8866e-29  9.0763e-28  3.1555e-29  9.0785e-28  5.4106e-29  9.0823e-28  9.4162e-29  9.0892e-28  1.6525e-28  9.1015e-28  2.9121e-28  9.1235e-28  5.1364e-28  9.1632e-28  9.0505e-28  9.2366e-28  1.5842e-27  9.3832e-28  2.717e-27  9.7022e-28  4.5017e-27  1.0346e-27  7.3626e-27  1.1574e-27  1.2067e-26  1.3858e-27  1.9928e-26
      2.15  9.0738e-28  4.1366e-30  9.0738e-28  5.1239e-30  9.074e-28  6.8795e-30  9.0742e-28  1.0001e-29  9.0746e-28  1.5552e-29  9.0752e-28  2.5421e-29  9.0765e-28  4.2965e-29  9.0786e-28  7.4145e-29  9.0824e-28  1.2953e-28  9.0893e-28  2.2785e-28  9.1015e-28  4.0211e-28  9.1233e-28  7.0999e-28  9.1627e-28  1.2519e-27  9.2352e-28  2.1922e-27  9.3801e-28  3.7541e-27  9.6971e-28  6.1774e-27  1.034e-27  1.0002e-26  1.1565e-27  1.622e-26  1.3846e-27  2.6512e-26
      2.20  9.074e-28  4.9235e-30  9.074e-28  6.2469e-30  9.0742e-28  8.6002e-30  9.0744e-28  1.2785e-29  9.0748e-28  2.0226e-29  9.0754e-28  3.3455e-29  9.0766e-28  5.6973e-29  9.0788e-28  9.8773e-29  9.0826e-28  1.7303e-28  9.0894e-28  3.0487e-28  9.1015e-28  5.3862e-28  9.1232e-28  9.5182e-28  9.1622e-28  1.6795e-27  9.234e-28  2.9427e-27  9.3771e-28  5.0372e-27  9.6921e-28  8.2515e-27  1.0333e-27  1.3267e-26  1.1557e-27  2.1354e-26  1.3835e-27  3.4654e-26
      2.25  9.0742e-28  5.8367e-30  9.0743e-28  7.5601e-30  9.0744e-28  1.0625e-29  9.0746e-28  1.6074e-29  9.075e-28  2.5764e-29  9.0756e-28  4.2993e-29  9.0768e-28  7.3621e-29  9.0789e-28  1.2806e-28  9.0827e-28  2.2479e-28  9.0895e-28  3.9654e-28  9.1015e-28  7.0113e-28  9.123e-28  1.2398e-27  9.1618e-28  2.1891e-27  9.2329e-28  3.8386e-27  9.3742e-28  6.5729e-27  9.6873e-28  1.0738e-26  1.0327e-27  1.7186e-26  1.1549e-27  2.7525e-26  1.3825e-27  4.4464e-26
      2.30  9.0744e-28  6.8817e-30  9.0745e-28  9.0672e-30  9.0746e-28  1.2954e-29  9.0748e-28  1.9864e-29  9.0752e-28  3.2153e-29  9.0758e-28  5.4002e-29  9.077e-28  9.2845e-29  9.0791e-28  1.6189e-28  9.0829e-28  2.8458e-28  9.0896e-28  5.0245e-28  9.1015e-28  8.8859e-28  9.1229e-28  1.5729e-27  9.1614e-28  2.7788e-27  9.2318e-28  4.8767e-27  9.3714e-28  8.358e-27  9.6826e-28  1.3637e-26  1.0321e-27  2.1765e-26  1.1542e-27  3.4761e-26  1.3815e-27  5.6013e-26
      2.35  9.0746e-28  8.0582e-30  9.0747e-28  1.0764e-29  9.0748e-28  1.5576e-29  9.075e-28  2.4132e-29  9.0754e-28  3.9347e-29  9.0761e-28   6.64e-29  9.0772e-28  1.145e-28  9.0793e-28  1.9999e-28  9.0831e-28  3.5192e-28  9.0897e-28  6.2177e-28  9.1016e-28  1.1002e-27  9.1228e-28  1.9482e-27  9.161e-28  3.444e-27  9.2308e-28  6.0495e-27  9.3687e-28  1.0381e-26  9.6781e-28  1.6934e-26  1.0315e-27  2.6992e-26  1.1534e-27  4.3057e-26  1.3806e-27  6.9322e-26
      2.40  9.0749e-28  9.3619e-30  9.0749e-28  1.2638e-29  9.0751e-28  1.8463e-29  9.0753e-28  2.8821e-29  9.0756e-28  4.7239e-29  9.0763e-28  7.9989e-29  9.0775e-28  1.3822e-28  9.0795e-28  2.4172e-28  9.0832e-28  4.2568e-28  9.0899e-28  7.5244e-28  9.1017e-28  1.3319e-27  9.1228e-28  2.3595e-27  9.1607e-28  4.1734e-27  9.2298e-28  7.3373e-27  9.3661e-28  1.261e-26  9.6736e-28  2.0581e-26  1.031e-27  3.2795e-26  1.1528e-27  5.231e-26  1.3797e-27  8.4245e-26
      2.45  9.0751e-28  1.0785e-29  9.0752e-28  1.4667e-29  9.0753e-28  2.1571e-29  9.0755e-28  3.3847e-29  9.0759e-28  5.5676e-29  9.0765e-28  9.4491e-29  9.0777e-28  1.635e-28  9.0797e-28  2.8619e-28  9.0834e-28  5.0424e-28   9.09e-28  8.9162e-28  9.1017e-28  1.5787e-27  9.1227e-28  2.7978e-27  9.1604e-28  4.951e-27  9.229e-28  8.7123e-27  9.3636e-28  1.4998e-26  9.6693e-28  2.4502e-26  1.0304e-27  3.9057e-26  1.1521e-27  6.2337e-26  1.3789e-27  1.0049e-25
      2.50  9.0754e-28  1.2333e-29  9.0754e-28  1.6857e-29  9.0755e-28   2.49e-29  9.0757e-28  3.9203e-29  9.0761e-28  6.4636e-29  9.0768e-28  1.0986e-28  9.0779e-28  1.9027e-28   9.08e-28  3.3322e-28  9.0836e-28  5.8731e-28  9.0902e-28  1.0388e-27  9.1018e-28  1.8397e-27  9.1227e-28  3.2613e-27  9.1602e-28  5.774e-27  9.2281e-28  1.017e-26  9.3612e-28  1.7538e-26  9.6649e-28  2.8695e-26  1.0299e-27  4.579e-26  1.1514e-27  7.3184e-26  1.3781e-27  1.1819e-25
      2.55  9.0756e-28  1.4013e-29  9.0757e-28  1.9204e-29  9.0758e-28  2.8434e-29  9.076e-28  4.4848e-29  9.0764e-28  7.4036e-29  9.077e-28  1.2594e-28  9.0782e-28  2.1822e-28  9.0802e-28  3.8228e-28  9.0838e-28  6.7391e-28  9.0903e-28  1.1921e-27  9.1019e-28  2.1117e-27  9.1227e-28  3.7445e-27   9.16e-28  6.6326e-27  9.2274e-28  1.1692e-26  9.3589e-28  2.0201e-26  9.6607e-28  3.3115e-26  1.0294e-27  5.2929e-26  1.1508e-27  8.4761e-26  1.3773e-27  1.372e-25
      2.60  9.0759e-28  1.5821e-29  9.0759e-28  2.1697e-29  9.0761e-28  3.2148e-29  9.0763e-28  5.0732e-29  9.0766e-28  8.3778e-29  9.0773e-28  1.4254e-28  9.0784e-28  2.4702e-28  9.0804e-28  4.3278e-28  9.0841e-28  7.6301e-28  9.0905e-28  1.3499e-27  9.1021e-28  2.3915e-27  9.1227e-28  4.2416e-27  9.1598e-28  7.5163e-27  9.2267e-28  1.3262e-26  9.3566e-28  2.2956e-26  9.6565e-28  3.7714e-26  1.0288e-27  6.0402e-26  1.1502e-27  9.6958e-26  1.3766e-27  1.5735e-25
      2.65  9.0762e-28  1.7765e-29  9.0762e-28  2.4342e-29  9.0763e-28  3.6038e-29  9.0765e-28  5.6837e-29  9.0769e-28  9.3823e-29  9.0775e-28  1.5959e-28  9.0787e-28  2.7653e-28  9.0807e-28  4.8445e-28  9.0843e-28  8.5408e-28  9.0907e-28  1.5111e-27  9.1022e-28  2.6773e-27  9.1228e-28  4.7495e-27  9.1596e-28   8.42e-27  9.226e-28  1.4868e-26  9.3544e-28  2.5787e-26  9.6523e-28  4.2471e-26  1.0283e-27  6.8184e-26  1.1495e-27  1.0975e-25  1.3758e-27  1.7862e-25
      2.70  9.0764e-28  1.9855e-29  9.0765e-28  2.7144e-29  9.0766e-28  4.0105e-29  9.0768e-28  6.3152e-29  9.0772e-28  1.0414e-28  9.0778e-28  1.7702e-28  9.0789e-28  3.0661e-28  9.0809e-28  5.3702e-28  9.0845e-28  9.4667e-28  9.0909e-28  1.6749e-27  9.1024e-28  2.9676e-27  9.1228e-28  5.2656e-27  9.1595e-28  9.3385e-27  9.2254e-28  1.6503e-26  9.3524e-28  2.8676e-26  9.6482e-28  4.7357e-26  1.0278e-27  7.6238e-26  1.1489e-27  1.2308e-25  1.3751e-27  2.0095e-25
      2.75  9.0767e-28  2.2098e-29  9.0768e-28   3.01e-29  9.0769e-28  4.433e-29  9.0771e-28  6.9633e-29  9.0774e-28  1.1463e-28  9.0781e-28  1.9464e-28  9.0792e-28  3.3692e-28  9.0812e-28  5.8989e-28  9.0847e-28  1.0397e-27  9.091e-28  1.8392e-27  9.1023e-28  3.2587e-27  9.1226e-28  5.7826e-27  9.1589e-28  1.0257e-26  9.2243e-28  1.8132e-26  9.3507e-28  3.1516e-26  9.6472e-28  5.214e-26  1.0277e-27  8.4285e-26  1.1487e-27  1.3669e-25  1.3747e-27  2.241e-25
      2.80  9.077e-28  2.4532e-29  9.077e-28  3.3255e-29  9.0772e-28  4.8767e-29  9.0773e-28  7.6351e-29  9.0777e-28  1.254e-28  9.0783e-28  2.1263e-28  9.0794e-28  3.6773e-28  9.0814e-28  6.4351e-28  9.0849e-28  1.1338e-27  9.0911e-28  2.0055e-27  9.1023e-28  3.5549e-27  9.1224e-28  6.3054e-27  9.1583e-28  1.1186e-26  9.2231e-28  1.9777e-26  9.3492e-28  3.4383e-26  9.6465e-28  5.6996e-26  1.0276e-27  9.255e-26  1.1485e-27  1.5081e-25  1.3744e-27  2.4834e-25
      2.85  9.0773e-28  2.7172e-29  9.0773e-28  3.6626e-29  9.0774e-28  5.3438e-29  9.0776e-28  8.3335e-29  9.078e-28  1.365e-28  9.0786e-28  2.3103e-28  9.0797e-28  3.9914e-28  9.0816e-28  6.9805e-28  9.085e-28  1.2295e-27  9.0912e-28  2.1744e-27  9.1022e-28  3.8538e-27  9.1221e-28  6.8356e-27  9.1576e-28  1.2128e-26  9.2218e-28  2.1446e-26  9.3476e-28  3.7293e-26  9.6459e-28  6.196e-26  1.0275e-27  1.0109e-25  1.1483e-27  1.6555e-25  1.3741e-27  2.7379e-25
      2.90  9.0775e-28  3.0048e-29  9.0776e-28  4.0246e-29  9.0777e-28  5.8382e-29  9.0779e-28  9.0633e-29  9.0782e-28  1.4798e-28  9.0788e-28  2.4996e-28  9.0799e-28  4.3131e-28  9.0818e-28  7.5376e-28  9.0852e-28  1.3271e-27  9.0913e-28  2.3464e-27  9.1022e-28  4.1584e-27  9.1218e-28  7.3756e-27  9.1569e-28  1.3087e-26  9.2206e-28  2.3146e-26  9.3462e-28  4.0268e-26  9.6451e-28  6.7084e-26  1.0273e-27    1.1e-25  1.148e-27  1.8103e-25  1.3736e-27  3.0064e-25
      2.95  9.0778e-28  3.3192e-29  9.0779e-28  4.4152e-29  9.078e-28  6.3641e-29  9.0782e-28  9.8299e-29  9.0785e-28  1.5993e-28  9.0791e-28  2.6952e-28  9.0801e-28  4.644e-28  9.082e-28  8.1093e-28  9.0854e-28  1.4271e-27  9.0914e-28  2.5226e-27  9.1022e-28   4.47e-27  9.1215e-28  7.9279e-27  9.1563e-28  1.4068e-26  9.2195e-28  2.4888e-26  9.3448e-28  4.3331e-26  9.6437e-28  7.2424e-26  1.0271e-27  1.1936e-25  1.1475e-27  1.974e-25  1.373e-27  3.2913e-25
      3.00  9.0781e-28  3.6644e-29  9.0781e-28  4.8385e-29  9.0782e-28  6.9263e-29  9.0784e-28  1.0639e-28  9.0788e-28  1.7241e-28  9.0793e-28  2.8981e-28  9.0804e-28  4.9858e-28  9.0822e-28  8.6981e-28  9.0856e-28  1.5299e-27  9.0915e-28  2.7035e-27  9.1022e-28   4.79e-27  9.1213e-28  8.4948e-27  9.1559e-28  1.5075e-26  9.2186e-28  2.6678e-26  9.3434e-28  4.6507e-26  9.6414e-28  7.8034e-26  1.0266e-27  1.2928e-25  1.1467e-27  2.1485e-25  1.372e-27  3.5955e-25
      3.05  9.0783e-28  4.0463e-29  9.0784e-28  5.2999e-29  9.0785e-28  7.529e-29  9.0787e-28  1.1493e-28  9.079e-28  1.8542e-28  9.0796e-28  3.1077e-28  9.0806e-28  5.3367e-28  9.0825e-28  9.3003e-28  9.0857e-28  1.6348e-27  9.0916e-28  2.888e-27  9.1022e-28  5.1159e-27  9.1212e-28  9.072e-27  9.1555e-28  1.6101e-26  9.2179e-28  2.8505e-26  9.342e-28  4.9778e-26  9.6379e-28  8.3903e-26  1.0259e-27  1.3975e-25  1.1455e-27  2.3335e-25  1.3704e-27  3.9182e-25
      3.10  9.0786e-28  4.467e-29  9.0786e-28  5.8027e-29  9.0787e-28  8.1778e-29  9.0789e-28  1.2401e-28  9.0792e-28  1.9912e-28  9.0798e-28  3.3268e-28  9.0808e-28  5.7018e-28  9.0827e-28  9.925e-28  9.0859e-28  1.7435e-27  9.0918e-28  3.0787e-27  9.1023e-28  5.4528e-27  9.1212e-28  9.6683e-27  9.1553e-28  1.7161e-26  9.2175e-28  3.0397e-26  9.3406e-28  5.3199e-26  9.6328e-28  9.0141e-26  1.0249e-27  1.5098e-25  1.1437e-27  2.5335e-25  1.3679e-27  4.2676e-25
      3.15  9.0788e-28  4.9354e-29  9.0789e-28  6.3564e-29  9.079e-28  8.8833e-29  9.0791e-28  1.3377e-28  9.0795e-28  2.1368e-28   9.08e-28  3.5577e-28  9.081e-28  6.0845e-28  9.0829e-28  1.0578e-27  9.0861e-28  1.8568e-27  9.0919e-28  3.2775e-27  9.1024e-28  5.8035e-27  9.1212e-28  1.0289e-26  9.1552e-28  1.8264e-26  9.2173e-28  3.2368e-26  9.3391e-28  5.6791e-26  9.6259e-28  9.6797e-26  1.0234e-27  1.6309e-25  1.1411e-27  2.751e-25  1.3642e-27  4.6495e-25
      3.20  9.079e-28  5.458e-29  9.0791e-28  6.9688e-29  9.0792e-28  9.6555e-29  9.0793e-28  1.4433e-28  9.0797e-28  2.2929e-28  9.0802e-28  3.8037e-28  9.0812e-28  6.4904e-28  9.083e-28  1.1268e-27  9.0863e-28  1.9763e-27  9.0921e-28  3.487e-27  9.1025e-28  6.173e-27  9.1212e-28  1.0948e-26  9.1552e-28  1.9425e-26  9.2172e-28  3.4443e-26  9.3376e-28  6.0588e-26  9.6171e-28  1.0393e-25  1.0214e-27  1.7621e-25  1.1374e-27  2.9895e-25  1.3587e-27  5.0717e-25
      3.25  9.0792e-28  6.0422e-29  9.0792e-28  7.6493e-29  9.0793e-28  1.0507e-28  9.0795e-28  1.5589e-28  9.0798e-28  2.4627e-28  9.0804e-28  4.0698e-28  9.0814e-28  6.9277e-28  9.0832e-28  1.201e-27  9.0864e-28  2.1047e-27  9.0922e-28  3.7117e-27  9.1025e-28  6.5692e-27  9.1212e-28  1.1649e-26  9.1551e-28  2.0669e-26  9.217e-28  3.6665e-26  9.336e-28  6.4654e-26  9.6066e-28  1.1163e-25  1.019e-27  1.905e-25  1.1328e-27  3.2525e-25  1.351e-27  5.5441e-25
      3.30  9.0793e-28  6.7054e-29  9.0793e-28  8.4182e-29  9.0794e-28  1.1464e-28  9.0796e-28  1.688e-28  9.0799e-28  2.6512e-28  9.0805e-28  4.3639e-28  9.0815e-28  7.4097e-28  9.0833e-28  1.2826e-27  9.0865e-28  2.2457e-27  9.0923e-28  3.9585e-27  9.1026e-28  7.0041e-27  9.1212e-28  1.2419e-26  9.1549e-28  2.2035e-26  9.2165e-28  3.9104e-26  9.3341e-28  6.9095e-26  9.5948e-28  1.2004e-25  1.0162e-27  2.0619e-25  1.1271e-27  3.5445e-25  1.3411e-27  6.0778e-25
      3.35  9.0794e-28  7.4594e-29  9.0794e-28  9.294e-29  9.0795e-28  1.2557e-28  9.0797e-28  1.8358e-28   9.08e-28  2.8675e-28  9.0806e-28  4.7022e-28  9.0816e-28  7.9648e-28  9.0834e-28  1.3767e-27  9.0866e-28  2.4084e-27  9.0923e-28  4.2432e-27  9.1026e-28  7.506e-27  9.1211e-28  1.3308e-26  9.1546e-28  2.3611e-26  9.2158e-28  4.1916e-26  9.3318e-28  7.4185e-26  9.5824e-28  1.2959e-25  1.0131e-27  2.2395e-25  1.1207e-27  3.8757e-25  1.3292e-27  6.6917e-25
      3.40  9.0793e-28  8.3169e-29  9.0794e-28  1.0292e-28  9.0795e-28  1.3805e-28  9.0797e-28  2.0052e-28   9.08e-28  3.1161e-28  9.0806e-28  5.0916e-28  9.0816e-28  8.6046e-28  9.0834e-28  1.4852e-27  9.0866e-28  2.5962e-27  9.0923e-28  4.5719e-27  9.1025e-28  8.0857e-27  9.1209e-28  1.4335e-26  9.1541e-28  2.5434e-26  9.2149e-28  4.5166e-26  9.3291e-28  8.0043e-26   9.57e-28  1.4048e-25  1.0099e-27  2.4411e-25  1.114e-27  4.2514e-25  1.3159e-27  7.3961e-25
      3.45  9.0792e-28  9.2967e-29  9.0793e-28  1.1438e-28  9.0794e-28  1.5246e-28  9.0796e-28  2.2018e-28  9.0799e-28  3.406e-28  9.0804e-28  5.5475e-28  9.0814e-28  9.3557e-28  9.0832e-28  1.6128e-27  9.0864e-28  2.8172e-27  9.0921e-28  4.9591e-27  9.1023e-28  8.7687e-27  9.1206e-28  1.5544e-26  9.1535e-28  2.7582e-26  9.2137e-28  4.8997e-26  9.3263e-28  8.6929e-26  9.5581e-28  1.5315e-25  1.0068e-27  2.6747e-25  1.1073e-27  4.6844e-25  1.302e-27  8.2102e-25
      3.50  9.079e-28  1.042e-28  9.079e-28  1.276e-28  9.0791e-28  1.6921e-28  9.0793e-28  2.432e-28  9.0796e-28  3.7477e-28  9.0802e-28  6.0876e-28  9.0812e-28  1.0249e-27  9.083e-28  1.7648e-27  9.0862e-28  3.0808e-27  9.0919e-28  5.4213e-27  9.102e-28  9.5842e-27  9.1202e-28  1.6989e-26  9.153e-28  3.0147e-26  9.2126e-28  5.3573e-26  9.3234e-28  9.5138e-26  9.5472e-28  1.6814e-25  1.0038e-27  2.9497e-25  1.1009e-27  5.1908e-25  1.2885e-27  9.1577e-25
      3.55  9.0786e-28  1.1728e-28  9.0786e-28  1.4308e-28  9.0787e-28  1.8895e-28  9.0789e-28  2.7054e-28  9.0792e-28  4.1561e-28  9.0798e-28  6.736e-28  9.0808e-28  1.1324e-27  9.0826e-28  1.9483e-27  9.0858e-28  3.3993e-27  9.0915e-28  5.9801e-27  9.1016e-28  1.0571e-26  9.1198e-28  1.8737e-26  9.1524e-28  3.3251e-26  9.2116e-28  5.9106e-26  9.321e-28  1.0505e-25  9.5377e-28  1.8612e-25  1.001e-27  3.2785e-25  1.0951e-27  5.7933e-25  1.276e-27  1.0277e-24
      3.60  9.078e-28  1.3238e-28  9.0781e-28  1.6109e-28  9.0782e-28  2.1216e-28  9.0784e-28  3.0298e-28  9.0787e-28  4.6448e-28  9.0793e-28  7.5167e-28  9.0803e-28  1.2624e-27  9.0821e-28  2.1707e-27  9.0853e-28  3.786e-27  9.091e-28  6.659e-27  9.1012e-28  1.177e-26  9.1193e-28  2.0862e-26  9.152e-28  3.7044e-26  9.211e-28  6.5827e-26  9.3194e-28  1.1707e-25  9.5307e-28  2.0784e-25  9.9868e-28  3.6743e-25  1.0902e-27  6.5163e-25  1.2654e-27  1.161e-24
      3.65  9.0773e-28  1.4988e-28  9.0773e-28  1.8217e-28  9.0775e-28  2.396e-28  9.0776e-28  3.4172e-28  9.078e-28  5.2333e-28  9.0785e-28  8.4628e-28  9.0796e-28  1.4206e-27  9.0814e-28  2.442e-27  9.0846e-28  4.2585e-27  9.0904e-28  7.4893e-27  9.1007e-28  1.3236e-26  9.1191e-28  2.3462e-26  9.152e-28  4.1663e-26  9.2113e-28  7.4044e-26  9.3198e-28  1.3174e-25  9.5279e-28  2.3422e-25  9.9718e-28  4.1525e-25  1.0868e-27  7.3854e-25  1.258e-27  1.3197e-24
      3.70  9.077e-28  1.7074e-28  9.0771e-28  2.0745e-28  9.0772e-28  2.7274e-28  9.0774e-28  3.8885e-28  9.0777e-28  5.9531e-28  9.0783e-28  9.6248e-28  9.0793e-28  1.6154e-27  9.0812e-28  2.7766e-27  9.0845e-28  4.8417e-27  9.0905e-28  8.5148e-27  9.101e-28  1.5049e-26  9.1198e-28  2.6674e-26  9.1535e-28  4.7366e-26  9.2141e-28  8.4183e-26  9.3244e-28  1.4981e-25  9.5334e-28  2.6653e-25  9.9722e-28  4.7332e-25  1.0863e-27  8.4283e-25  1.2564e-27  1.5063e-24
      3.75  9.0768e-28  2.0091e-28  9.0768e-28  2.4325e-28  9.077e-28  3.1856e-28  9.0772e-28  4.5248e-28  9.0775e-28  6.9063e-28  9.0781e-28  1.1141e-27  9.0792e-28  1.8672e-27  9.0812e-28  3.2066e-27  9.0847e-28  5.5885e-27  9.091e-28  9.8249e-27  9.1021e-28  1.7361e-26  9.122e-28  3.0768e-26  9.1575e-28  5.4628e-26  9.2212e-28  9.7073e-26  9.3368e-28  1.7271e-25  9.5533e-28  3.0721e-25  9.9998e-28  5.4548e-25  1.0909e-27  9.6962e-25  1.2644e-27  1.7241e-24
      3.80  9.4188e-28  2.9002e-28  9.4188e-28  3.3989e-28  9.4189e-28  4.2857e-28  9.419e-28  5.8627e-28  9.4192e-28  8.6671e-28  9.4196e-28  1.3654e-27  9.4204e-28  2.2523e-27  9.4217e-28  3.8294e-27  9.4239e-28  6.634e-27  9.428e-28  1.1622e-26  9.4353e-28  2.0493e-26  9.4483e-28  3.6273e-26  9.4716e-28  6.4344e-26  9.5139e-28  1.1424e-25  9.5927e-28  2.0302e-25  9.7513e-28  3.605e-25  1.014e-27  6.3843e-25  1.1058e-27  1.1275e-24  1.2868e-27  1.9771e-24
      3.85  9.4549e-28  7.816e-28  9.4549e-28  8.4207e-28  9.455e-28  9.4961e-28  9.4552e-28  1.1409e-27  9.4555e-28  1.4809e-27  9.456e-28  2.0857e-27  9.4569e-28  3.1611e-27  9.4585e-28  5.0734e-27  9.4614e-28  8.4739e-27  9.4666e-28  1.452e-26  9.4758e-28  2.5272e-26  9.4923e-28  4.4385e-26  9.5216e-28  7.8351e-26  9.5745e-28  1.3862e-25  9.6712e-28  2.4548e-25  9.8586e-28  4.3382e-25  1.0289e-27  7.6217e-25  1.1286e-27  1.3263e-24  1.3234e-27  2.2625e-24
      3.90  9.4937e-28  3.5961e-27  9.4938e-28  3.6718e-27  9.4939e-28  3.8064e-27  9.4941e-28  4.0458e-27  9.4945e-28  4.4715e-27  9.4952e-28  5.2285e-27  9.4965e-28  6.5746e-27  9.4987e-28  8.9679e-27  9.5026e-28  1.3223e-26  9.5096e-28  2.0787e-26  9.5221e-28  3.4227e-26  9.5444e-28  5.8094e-26  9.5839e-28  1.0037e-25  9.6545e-28  1.7527e-25  9.7815e-28  3.0708e-25  1.0018e-27  5.365e-25  1.0517e-27  9.275e-25  1.1617e-27  1.5717e-24  1.3703e-27  2.5645e-24
      3.95  9.534e-28  1.7569e-26  9.5341e-28  1.7666e-26  9.5343e-28  1.7839e-26  9.5346e-28  1.8146e-26  9.5351e-28  1.8691e-26  9.5361e-28  1.9662e-26  9.5378e-28  2.1387e-26  9.5409e-28  2.4454e-26  9.5464e-28  2.9906e-26  9.5562e-28  3.959e-26  9.5735e-28  5.678e-26  9.6043e-28  8.7249e-26  9.6589e-28  1.4105e-25  9.7554e-28  2.3576e-25  9.926e-28  4.0065e-25  1.0231e-27  6.8203e-25  1.082e-27  1.145e-24  1.2006e-27  1.8625e-24  1.4141e-27  2.8696e-24
