# This was generated using Cloudy10 and the columns are ordered 
# as log10 of the fraction of the metallicity to the solar metallicity
# 'h_*_Z' and 'c_*_Z' stands for cooling and heating respectively 
# at * metalicity
#
# NOTE: This was generated separately from loop_coolingcurve_w_UV.py
#       using Output_metals_w_redshift.py.
#
# Redshift = 6.5
# hden = -4.5
#
#     temp   h_-3.00_Z   c_-3.00_Z   h_-2.75_Z   c_-2.75_Z   h_-2.50_Z   c_-2.50_Z   h_-2.25_Z   c_-2.25_Z   h_-2.00_Z   c_-2.00_Z   h_-1.75_Z   c_-1.75_Z   h_-1.50_Z   c_-1.50_Z   h_-1.25_Z   c_-1.25_Z   h_-1.00_Z   c_-1.00_Z   h_-0.75_Z   c_-0.75_Z   h_-0.50_Z   c_-0.50_Z   h_-0.25_Z   c_-0.25_Z    h_0.00_Z    c_0.00_Z    h_0.25_Z    c_0.25_Z    h_0.50_Z    c_0.50_Z    h_0.75_Z    c_0.75_Z    h_1.00_Z    c_1.00_Z    h_1.25_Z    c_1.25_Z    h_1.50_Z    c_1.50_Z 
      4.00  7.7568e-24  7.2556e-24  7.7586e-24  7.2597e-24  7.7617e-24  7.2671e-24  7.7672e-24  7.2801e-24  7.7771e-24  7.3034e-24  7.7947e-24  7.3448e-24  7.8258e-24  7.4184e-24  7.8813e-24  7.5493e-24  7.9799e-24  7.7821e-24  8.1553e-24  8.1962e-24  8.4672e-24  8.9331e-24  9.0216e-24  1.0245e-23  1.0007e-23  1.2582e-23  1.1759e-23  1.6753e-23  1.4872e-23  2.4216e-23  2.0405e-23  3.7630e-23  3.0242e-23  6.1936e-23  4.7773e-23  1.0657e-22  7.9183e-23  1.9038e-22
      4.05  7.2768e-24  8.0795e-24  7.2785e-24  8.0841e-24  7.2816e-24  8.0921e-24  7.2870e-24  8.1064e-24  7.2967e-24  8.1319e-24  7.3140e-24  8.1771e-24  7.3448e-24  8.2576e-24  7.3994e-24  8.4007e-24  7.4965e-24  8.6552e-24  7.6693e-24  9.1080e-24  7.9765e-24  9.9138e-24  8.5226e-24  1.1348e-23  9.4935e-24  1.3905e-23  1.1219e-23  1.8467e-23  1.4286e-23  2.6634e-23  1.9737e-23  4.1324e-23  2.9430e-23  6.7970e-23  4.6709e-23  1.1700e-22  7.7679e-23  2.0932e-22
      4.10  6.8206e-24  9.0020e-24  6.8223e-24  9.0070e-24  6.8253e-24  9.0160e-24  6.8307e-24  9.0320e-24  6.8403e-24  9.0605e-24  6.8573e-24  9.1112e-24  6.8876e-24  9.2013e-24  6.9414e-24  9.3615e-24  7.0371e-24  9.6465e-24  7.2073e-24  1.0154e-23  7.5099e-24  1.1056e-23  8.0480e-24  1.2662e-23  9.0046e-24  1.5526e-23  1.0705e-23  2.0637e-23  1.3727e-23  2.9791e-23  1.9098e-23  4.6268e-23  2.8652e-23  7.6196e-23  4.5686e-23  1.3137e-22  7.6229e-23  2.3562e-22
      4.15  6.3873e-24  1.0036e-23  6.3890e-24  1.0041e-23  6.3920e-24  1.0052e-23  6.3973e-24  1.0070e-23  6.4067e-24  1.0103e-23  6.4235e-24  1.0161e-23  6.4533e-24  1.0265e-23  6.5064e-24  1.0449e-23  6.6007e-24  1.0777e-23  6.7685e-24  1.1361e-23  7.0668e-24  1.2400e-23  7.5973e-24  1.4249e-23  8.5403e-24  1.7546e-23  1.0217e-23  2.3433e-23  1.3196e-23  3.3981e-23  1.8492e-23  5.2984e-23  2.7913e-23  8.7548e-23  4.4716e-23  1.5142e-22  7.4857e-23  2.7249e-22
      4.20  5.9760e-24  1.1195e-23  5.9777e-24  1.1202e-23  5.9806e-24  1.1215e-23  5.9859e-24  1.1236e-23  5.9952e-24  1.1275e-23  6.0117e-24  1.1344e-23  6.0412e-24  1.1467e-23  6.0935e-24  1.1686e-23  6.1866e-24  1.2075e-23  6.3522e-24  1.2766e-23  6.6465e-24  1.3997e-23  7.1699e-24  1.6190e-23  8.1004e-24  2.0098e-23  9.7544e-24  2.7080e-23  1.2694e-23  3.9595e-23  1.7921e-23  6.2162e-23  2.7221e-23  1.0327e-22  4.3811e-23  1.7939e-22  7.3586e-23  3.2420e-22
      4.25  5.5859e-24  1.2499e-23  5.5876e-24  1.2507e-23  5.5905e-24  1.2522e-23  5.5956e-24  1.2549e-23  5.6048e-24  1.2596e-23  5.6212e-24  1.2680e-23  5.6503e-24  1.2830e-23  5.7020e-24  1.3096e-23  5.7940e-24  1.3570e-23  5.9575e-24  1.4413e-23  6.2484e-24  1.5912e-23  6.7654e-24  1.8583e-23  7.6848e-24  2.3346e-23  9.3191e-24  3.1857e-23  1.2224e-23  4.7120e-23  1.7389e-23  7.4664e-23  2.6581e-23  1.2490e-22  4.2985e-23  2.1814e-22  7.2441e-23  3.9606e-22
      4.30  5.2161e-24  1.3968e-23  5.2178e-24  1.3979e-23  5.2206e-24  1.3997e-23  5.2258e-24  1.4030e-23  5.2349e-24  1.4089e-23  5.2510e-24  1.4194e-23  5.2798e-24  1.4381e-23  5.3310e-24  1.4712e-23  5.4220e-24  1.5301e-23  5.5838e-24  1.6350e-23  5.8716e-24  1.8217e-23  6.3832e-24  2.1542e-23  7.2929e-24  2.7473e-23  8.9101e-24  3.8072e-23  1.1785e-23  5.7088e-23  1.6897e-23  9.1430e-23  2.5996e-23  1.5414e-22  4.2240e-23  2.7073e-22  7.1427e-23  4.9382e-22
      4.35  4.8656e-24  1.5625e-23  4.8673e-24  1.5638e-23  4.8701e-24  1.5662e-23  4.8752e-24  1.5703e-23  4.8842e-24  1.5778e-23  4.9002e-24  1.5910e-23  4.9288e-24  1.6145e-23  4.9795e-24  1.6564e-23  5.0697e-24  1.7308e-23  5.2300e-24  1.8633e-23  5.5152e-24  2.0991e-23  6.0223e-24  2.5190e-23  6.9239e-24  3.2681e-23  8.5267e-24  4.6071e-23  1.1376e-23  7.0102e-23  1.6444e-23  1.1352e-22  2.5465e-23  1.9288e-22  4.1578e-23  3.4064e-22  7.0547e-23  6.2397e-22
      4.40  4.5334e-24  1.7495e-23  4.5350e-24  1.7511e-23  4.5378e-24  1.7541e-23  4.5429e-24  1.7595e-23  4.5518e-24  1.7689e-23  4.5678e-24  1.7858e-23  4.5961e-24  1.8157e-23  4.6464e-24  1.8690e-23  4.7359e-24  1.9638e-23  4.8951e-24  2.1324e-23  5.1782e-24  2.4326e-23  5.6816e-24  2.9672e-23  6.5766e-24  3.9209e-23  8.1678e-24  5.6260e-23  1.0997e-23  8.6868e-23  1.6028e-23  1.4219e-22  2.4988e-23  2.4337e-22  4.0998e-23  4.3195e-22  6.9802e-23  7.9412e-22
      4.45  4.2183e-24  1.9606e-23  4.2199e-24  1.9628e-23  4.2227e-24  1.9666e-23  4.2278e-24  1.9734e-23  4.2367e-24  1.9855e-23  4.2525e-24  2.0070e-23  4.2806e-24  2.0453e-23  4.3307e-24  2.1133e-23  4.4197e-24  2.2344e-23  4.5780e-24  2.4499e-23  4.8595e-24  2.8333e-23  5.3600e-24  3.5164e-23  6.2500e-24  4.7349e-23  7.8323e-24  6.9136e-23  1.0646e-23  1.0825e-22  1.5650e-23  1.7897e-22  2.4565e-23  3.0834e-22  4.0501e-23  5.4964e-22  6.9195e-23  1.0136e-21
      4.50  3.9193e-24  2.1992e-23  3.9209e-24  2.2020e-23  3.9237e-24  2.2069e-23  3.9286e-24  2.2156e-23  3.9375e-24  2.2311e-23  3.9533e-24  2.2586e-23  3.9813e-24  2.3076e-23  4.0312e-24  2.3946e-23  4.1199e-24  2.5495e-23  4.2775e-24  2.8251e-23  4.5579e-24  3.3157e-23  5.0565e-24  4.1896e-23  5.9430e-24  5.7484e-23  7.5193e-24  8.5355e-23  1.0322e-23  1.3540e-22  1.5309e-23  2.2588e-22  2.4195e-23  3.9143e-22  4.0091e-23  7.0028e-22  6.8738e-23  1.2945e-21
      4.55  3.6351e-24  2.4698e-23  3.6367e-24  2.4733e-23  3.6395e-24  2.4795e-23  3.6444e-24  2.4906e-23  3.6533e-24  2.5103e-23  3.6690e-24  2.5454e-23  3.6970e-24  2.6077e-23  3.7468e-24  2.7187e-23  3.8352e-24  2.9160e-23  3.9926e-24  3.2671e-23  4.2724e-24  3.8920e-23  4.7699e-24  5.0053e-23  5.6545e-24  6.9911e-23  7.2276e-24  1.0542e-22  1.0025e-23  1.6917e-22  1.5004e-23  2.8443e-22  2.3880e-23  4.9533e-22  3.9768e-23  8.8881e-22  6.8429e-23  1.6460e-21
      4.60  3.3646e-24  2.7781e-23  3.3662e-24  2.7826e-23  3.3690e-24  2.7905e-23  3.3740e-24  2.8046e-23  3.3828e-24  2.8296e-23  3.3985e-24  2.8741e-23  3.4265e-24  2.9532e-23  3.4762e-24  3.0939e-23  3.5647e-24  3.3442e-23  3.7220e-24  3.7896e-23  4.0017e-24  4.5823e-23  4.4990e-24  5.9945e-23  5.3834e-24  8.5133e-23  6.9562e-24  1.3017e-22  9.7537e-24  2.1102e-22  1.4734e-23  3.5720e-22  2.3616e-23  6.2461e-22  3.9527e-23  1.1235e-21  6.8258e-23  2.0834e-21
      4.65  3.1068e-24  3.1365e-23  3.1084e-24  3.1421e-23  3.1112e-24  3.1520e-23  3.1161e-24  3.1698e-23  3.1250e-24  3.2013e-23  3.1407e-24  3.2574e-23  3.1688e-24  3.3571e-23  3.2186e-24  3.5344e-23  3.3071e-24  3.8499e-23  3.4646e-24  4.4112e-23  3.7446e-24  5.4102e-23  4.2426e-24  7.1899e-23  5.1281e-24  1.0364e-22  6.7030e-24  1.6039e-22  9.5047e-24  2.6226e-22  1.4494e-23  4.4640e-22  2.3396e-23  7.8318e-22  3.9355e-23  1.4112e-21  6.8196e-23  2.6192e-21
      4.70  2.8603e-24  3.5675e-23  2.8619e-24  3.5745e-23  2.8647e-24  3.5870e-23  2.8697e-24  3.6091e-23  2.8785e-24  3.6485e-23  2.8943e-24  3.7186e-23  2.9224e-24  3.8431e-23  2.9723e-24  4.0647e-23  3.0611e-24  4.4588e-23  3.2189e-24  5.1599e-23  3.4995e-24  6.4080e-23  3.9987e-24  8.6311e-23  4.8863e-24  1.2596e-22  6.4650e-24  1.9684e-22  9.2739e-24  3.2406e-22  1.4277e-23  5.5397e-22  2.3209e-23  9.7428e-22  3.9230e-23  1.7576e-21  6.8201e-23  3.2634e-21
      4.75  2.6222e-24  4.1118e-23  2.6238e-24  4.1204e-23  2.6266e-24  4.1358e-23  2.6316e-24  4.1632e-23  2.6405e-24  4.2119e-23  2.6563e-24  4.2985e-23  2.6845e-24  4.4524e-23  2.7345e-24  4.7263e-23  2.8235e-24  5.2134e-23  2.9818e-24  6.0800e-23  3.2632e-24  7.6227e-23  3.7637e-24  1.0370e-22  4.6538e-24  1.5271e-22  6.2369e-24  2.4030e-22  9.0540e-24  3.9749e-22  1.4073e-23  6.8146e-22  2.3036e-23  1.2004e-21  3.9120e-23  2.1669e-21  6.8218e-23  4.0230e-21
      4.80  2.3854e-24  4.8312e-23  2.3870e-24  4.8418e-23  2.3898e-24  4.8606e-23  2.3948e-24  4.8940e-23  2.4037e-24  4.9534e-23  2.4196e-24  5.0591e-23  2.4478e-24  5.2471e-23  2.4979e-24  5.5813e-23  2.5871e-24  6.1759e-23  2.7457e-24  7.2338e-23  3.0278e-24  9.1167e-23  3.5294e-24  1.2470e-22  4.4214e-24  1.8451e-22  6.0080e-24  2.9140e-22  8.8317e-24  4.8319e-22  1.3863e-23  8.2956e-22  2.2850e-23  1.4622e-21  3.8982e-23  2.6396e-21  6.8173e-23  4.8983e-21
      4.85  2.1341e-24  5.7981e-23  2.1357e-24  5.8109e-23  2.1385e-24  5.8335e-23  2.1436e-24  5.8737e-23  2.1525e-24  5.9452e-23  2.1683e-24  6.0724e-23  2.1966e-24  6.2987e-23  2.2467e-24  6.7011e-23  2.3359e-24  7.4168e-23  2.4946e-24  8.6903e-23  2.7767e-24  1.0957e-22  3.2784e-24  1.4994e-22  4.1705e-24  2.2192e-22  5.7575e-24  3.5057e-22  8.5817e-24  5.8134e-22  1.3614e-23  9.9800e-22  2.2605e-23  1.7586e-21  3.8745e-23  3.1731e-21  6.7951e-23  5.8835e-21
      4.90  1.8446e-24  7.0412e-23  1.8462e-24  7.0563e-23  1.8490e-24  7.0831e-23  1.8540e-24  7.1309e-23  1.8628e-24  7.2157e-23  1.8786e-24  7.3666e-23  1.9067e-24  7.6350e-23  1.9567e-24  8.1123e-23  2.0456e-24  8.9614e-23  2.2036e-24  1.0472e-22  2.4846e-24  1.3160e-22  2.9843e-24  1.7949e-22  3.8728e-24  2.6487e-22  5.4533e-24  4.1744e-22  8.2658e-24  6.9108e-22  1.3277e-23  1.1850e-21  2.2230e-23  2.0862e-21  3.8302e-23  3.7608e-21  6.7374e-23  6.9660e-21
      4.95  1.5021e-24  8.4417e-23  1.5037e-24  8.4593e-23  1.5065e-24  8.4906e-23  1.5114e-24  8.5463e-23  1.5202e-24  8.6454e-23  1.5358e-24  8.8215e-23  1.5636e-24  9.1347e-23  1.6130e-24  9.6918e-23  1.7009e-24  1.0683e-22  1.8572e-24  1.2446e-22  2.1351e-24  1.5583e-22  2.6292e-24  2.1172e-22  3.5078e-24  3.1136e-22  5.0702e-24  4.8940e-22  7.8503e-24  8.0866e-22  1.2803e-23  1.3848e-21  2.1650e-23  2.4354e-21  3.7526e-23  4.3865e-21  6.6225e-23  8.1168e-21
      5.00  1.1351e-24  9.7150e-23  1.1366e-24  9.7352e-23  1.1394e-24  9.7707e-23  1.1442e-24  9.8350e-23  1.1528e-24  9.9485e-23  1.1681e-24  1.0151e-22  1.1953e-24  1.0510e-22  1.2437e-24  1.1149e-22  1.3298e-24  1.2285e-22  1.4828e-24  1.4307e-22  1.7548e-24  1.7905e-22  2.2385e-24  2.4314e-22  3.0982e-24  3.5741e-22  4.6267e-24  5.6156e-22  7.3454e-24  9.2761e-22  1.2187e-23  1.5880e-21  2.0834e-23  2.7918e-21  3.6340e-23  5.0259e-21  6.4340e-23  9.2930e-21
      5.05  8.0931e-25  1.0652e-22  8.1079e-25  1.0675e-22  8.1343e-25  1.0715e-22  8.1811e-25  1.0787e-22  8.2644e-25  1.0915e-22  8.4126e-25  1.1143e-22  8.6761e-25  1.1547e-22  9.1446e-25  1.2267e-22  9.9777e-25  1.3547e-22  1.1459e-24  1.5825e-22  1.4091e-24  1.9878e-22  1.8770e-24  2.7097e-22  2.7083e-24  3.9968e-22  4.1854e-24  6.2963e-22  6.8112e-24  1.0419e-21  1.1485e-23  1.7854e-21  1.9827e-23  3.1404e-21  3.4784e-23  5.6535e-21  6.1778e-23  1.0448e-20
      5.10  5.6785e-25  1.1322e-22  5.6924e-25  1.1347e-22  5.7177e-25  1.1392e-22  5.7627e-25  1.1471e-22  5.8426e-25  1.1613e-22  5.9847e-25  1.1865e-22  6.2373e-25  1.2313e-22  6.6865e-25  1.3110e-22  7.4852e-25  1.4528e-22  8.9044e-25  1.7050e-22  1.1426e-24  2.1538e-22  1.5905e-24  2.9532e-22  2.3855e-24  4.3785e-22  3.7968e-24  6.9246e-22  6.3032e-24  1.1489e-21  1.0766e-23  1.9720e-21  1.8745e-23  3.4714e-21  3.3042e-23  6.2512e-21  5.8791e-23  1.1552e-20
      5.15  4.0680e-25  1.1935e-22  4.0815e-25  1.1963e-22  4.1057e-25  1.2012e-22  4.1483e-25  1.2099e-22  4.2244e-25  1.2253e-22  4.3597e-25  1.2529e-22  4.6002e-25  1.3019e-22  5.0276e-25  1.3889e-22  5.7871e-25  1.5439e-22  7.1363e-25  1.8195e-22  9.5315e-25  2.3100e-22  1.3780e-24  3.1836e-22  2.1312e-24  4.7413e-22  3.4661e-24  7.5240e-22  5.8442e-24  1.2512e-21  1.0087e-23  2.1506e-21  1.7663e-23  3.7894e-21  3.1226e-23  6.8276e-21  5.5619e-23  1.2621e-20
      5.20  3.0233e-25  1.2653e-22  3.0361e-25  1.2683e-22  3.0588e-25  1.2736e-22  3.0992e-25  1.2830e-22  3.1711e-25  1.2998e-22  3.2988e-25  1.3295e-22  3.5258e-25  1.3824e-22  3.9291e-25  1.4766e-22  4.6453e-25  1.6440e-22  5.9164e-25  1.9419e-22  8.1696e-25  2.4722e-22  1.2159e-24  3.4167e-22  1.9214e-24  5.1008e-22  3.1799e-24  8.1093e-22  5.4217e-24  1.3503e-21  9.4167e-24  2.3231e-21  1.6548e-23  4.0965e-21  2.9311e-23  7.3868e-21  5.2249e-23  1.3669e-20
      5.25  2.3306e-25  1.3555e-22  2.3425e-25  1.3587e-22  2.3637e-25  1.3643e-22  2.4014e-25  1.3743e-22  2.4685e-25  1.3921e-22  2.5877e-25  1.4238e-22  2.7994e-25  1.4802e-22  3.1752e-25  1.5804e-22  3.8420e-25  1.7587e-22  5.0231e-25  2.0759e-22  7.1117e-25  2.6406e-22  1.0797e-24  3.6467e-22  1.7361e-24  5.4406e-22  2.9057e-24  8.6456e-22  4.9881e-24  1.4393e-21  8.6991e-24  2.4767e-21  1.5324e-23  4.3754e-21  2.7180e-23  7.8974e-21  4.8485e-23  1.4638e-20
      5.30  1.8515e-25  1.4672e-22  1.8625e-25  1.4705e-22  1.8820e-25  1.4764e-22  1.9167e-25  1.4868e-22  1.9783e-25  1.5054e-22  2.0877e-25  1.5384e-22  2.2818e-25  1.5971e-22  2.6261e-25  1.7016e-22  3.2355e-25  1.8874e-22  4.3118e-25  2.2182e-22  6.2070e-25  2.8073e-22  9.5630e-25  3.8568e-22  1.5563e-24  5.7280e-22  2.6239e-24  9.0724e-22  4.5248e-24  1.5073e-21  7.9129e-24  2.5912e-21  1.3962e-23  4.5717e-21  2.4791e-23  8.2609e-21  4.4260e-23  1.5363e-20
      5.35  1.5057e-25  1.6018e-22  1.5155e-25  1.6051e-22  1.5331e-25  1.6109e-22  1.5641e-25  1.6214e-22  1.6193e-25  1.6399e-22  1.7173e-25  1.6729e-22  1.8909e-25  1.7316e-22  2.1981e-25  1.8360e-22  2.7403e-25  2.0218e-22  3.6940e-25  2.3528e-22  5.3658e-25  2.9429e-22  8.3691e-25  3.9930e-22  1.3711e-24  5.8661e-22  2.3219e-24  9.2189e-22  4.0152e-24  1.5236e-21  7.0340e-24  2.6118e-21  1.2427e-23  4.6047e-21  2.2090e-23  8.3308e-21  3.9484e-23  1.5528e-20
      5.40  1.2466e-25  1.7602e-22  1.2550e-25  1.7632e-22  1.2700e-25  1.7686e-22  1.2966e-25  1.7783e-22  1.3439e-25  1.7954e-22  1.4277e-25  1.8259e-22  1.5763e-25  1.8801e-22  1.8387e-25  1.9766e-22  2.3009e-25  2.1486e-22  3.1118e-25  2.4553e-22  4.5465e-25  3.0018e-22  7.1152e-25  3.9741e-22  1.1685e-24  5.7091e-22  1.9819e-24  8.8131e-22  3.4307e-24  1.4392e-21  6.0148e-24  2.4498e-21  1.0634e-23  4.3056e-21  1.8920e-23  7.7951e-21  3.3866e-23  1.4615e-20
      5.45  1.0467e-25  1.9437e-22  1.0535e-25  1.9462e-22  1.0656e-25  1.9507e-22  1.0870e-25  1.9586e-22  1.1251e-25  1.9727e-22  1.1928e-25  1.9978e-22  1.3127e-25  2.0425e-22  1.5248e-25  2.1221e-22  1.8990e-25  2.2638e-22  2.5564e-25  2.5169e-22  3.7269e-25  2.9670e-22  5.8128e-25  3.7685e-22  9.5230e-25  5.1989e-22  1.6126e-24  7.7589e-22  2.7886e-24  1.2363e-21  4.8864e-24  2.0712e-21  8.6367e-24  3.6121e-21  1.5365e-23  6.5114e-21  2.7505e-23  1.2179e-20
      5.50  8.8955e-26  2.1544e-22  8.9490e-26  2.1563e-22  9.0442e-26  2.1597e-22  9.2140e-26  2.1657e-22  9.5151e-26  2.1765e-22  1.0050e-25  2.1956e-22  1.1001e-25  2.2296e-22  1.2685e-25  2.2902e-22  1.5664e-25  2.3982e-22  2.0922e-25  2.5906e-22  3.0279e-25  2.9328e-22  4.6913e-25  3.5425e-22  7.6486e-25  4.6306e-22  1.2911e-24  6.5778e-22  2.2281e-24  1.0113e-21  3.8985e-24  1.6490e-21  6.8825e-24  2.8220e-21  1.2230e-23  5.0318e-21  2.1859e-23  9.3753e-21
      5.55  7.6449e-26  2.3951e-22  7.6888e-26  2.3967e-22  7.7671e-26  2.3995e-22  7.9067e-26  2.4045e-22  8.1554e-26  2.4134e-22  8.5981e-26  2.4292e-22  9.3849e-26  2.4573e-22  1.0781e-25  2.5074e-22  1.3258e-25  2.5965e-22  1.7647e-25  2.7551e-22  2.5433e-25  3.0373e-22  3.9247e-25  3.5403e-22  6.3794e-25  4.4377e-22  1.0746e-24  6.0436e-22  1.8519e-24  8.9304e-22  3.2373e-24  1.4162e-21  5.7104e-24  2.3778e-21  1.0137e-23  4.1861e-21  1.8092e-23  7.7117e-21
      5.60  6.6378e-26  2.6686e-22  6.6760e-26  2.6701e-22  6.7440e-26  2.6726e-22  6.8652e-26  2.6771e-22  7.0812e-26  2.6852e-22  7.4663e-26  2.6995e-22  8.1519e-26  2.7249e-22  9.3694e-26  2.7702e-22  1.1532e-25  2.8507e-22  1.5358e-25  2.9940e-22  2.2136e-25  3.2490e-22  3.4144e-25  3.7035e-22  5.5494e-25  4.5146e-22  9.3474e-25  5.9656e-22  1.6109e-24  8.5740e-22  2.8156e-24  1.3300e-21  4.9655e-24  2.1985e-21  8.8118e-24  3.8304e-21  1.5718e-23  7.0104e-21
      5.65  5.8181e-26  2.9782e-22  5.8522e-26  2.9795e-22  5.9130e-26  2.9820e-22  6.0215e-26  2.9863e-22  6.2144e-26  2.9941e-22  6.5585e-26  3.0078e-22  7.1710e-26  3.0323e-22  8.2613e-26  3.0758e-22  1.0199e-25  3.1533e-22  1.3607e-25  3.2911e-22  1.9645e-25  3.5365e-22  3.0347e-25  3.9737e-22  4.9378e-25  4.7538e-22  8.3233e-25  6.1498e-22  1.4350e-24  8.6597e-22  2.5090e-24  1.3210e-21  4.4255e-24  2.1570e-21  7.8540e-24  3.7300e-21  1.4009e-23  6.7959e-21
      5.70  5.1449e-26  3.3275e-22  5.1754e-26  3.3288e-22  5.2299e-26  3.3312e-22  5.3272e-26  3.3354e-22  5.5001e-26  3.3429e-22  5.8088e-26  3.3562e-22  6.3588e-26  3.3798e-22  7.3374e-26  3.4219e-22  9.0654e-26  3.4968e-22  1.2104e-25  3.6301e-22  1.7489e-25  3.8674e-22  2.7045e-25  4.2902e-22  4.4037e-25  5.0448e-22  7.4268e-25  6.3951e-22  1.2809e-24  8.8234e-22  2.2400e-24  1.3227e-21  3.9519e-24  2.1325e-21  7.0154e-24  3.6579e-21  1.2518e-23  6.6373e-21
      5.75  4.5877e-26  3.7204e-22  4.6147e-26  3.7216e-22  4.6628e-26  3.7238e-22  4.7489e-26  3.7278e-22  4.9024e-26  3.7348e-22  5.1763e-26  3.7473e-22  5.6647e-26  3.7695e-22  6.5264e-26  3.8089e-22  8.0419e-26  3.8791e-22  1.0717e-25  4.0041e-22  1.5457e-25  4.2265e-22  2.3880e-25  4.6229e-22  3.8854e-25  5.3305e-22  6.5495e-25  6.5968e-22  1.1293e-24  8.8746e-22  1.9747e-24  1.3007e-21  3.4840e-24  2.0615e-21  6.1862e-24  3.5126e-21  1.1043e-23  6.3364e-21
      5.80  4.1239e-26  4.1629e-22  4.1474e-26  4.1641e-22  4.1896e-26  4.1661e-22  4.2652e-26  4.1698e-22  4.4001e-26  4.1763e-22  4.6413e-26  4.1879e-22  5.0678e-26  4.2084e-22  5.8173e-26  4.2451e-22  7.1341e-26  4.3102e-22  9.4664e-26  4.4261e-22  1.3600e-25  4.6324e-22  2.0947e-25  5.0001e-22  3.4008e-25  5.6564e-22  5.7244e-25  6.8311e-22  9.8618e-25  8.9441e-22  1.7236e-24  1.2779e-21  3.0401e-24  1.9845e-21  5.3971e-24  3.3186e-21  9.6338e-24  5.9384e-21
      5.85  3.7364e-26  4.6608e-22  3.7572e-26  4.6619e-22  3.7944e-26  4.6638e-22  3.8611e-26  4.6673e-22  3.9809e-26  4.6736e-22  4.1946e-26  4.6847e-22  4.5667e-26  4.7044e-22  5.2218e-26  4.7394e-22  6.3769e-26  4.8018e-22  8.4249e-26  4.9128e-22  1.2053e-25  5.1104e-22  1.8498e-25  5.4624e-22  2.9960e-25  6.0909e-22  5.0352e-25  7.2156e-22  8.6658e-25  9.2387e-22  1.5136e-24  1.2909e-21  2.6686e-24  1.9665e-21  4.7356e-24  3.2406e-21  8.4493e-24  5.7399e-21
      5.90  3.4113e-26  5.2204e-22  3.4298e-26  5.2215e-22  3.4629e-26  5.2235e-22  3.5225e-26  5.2270e-22  3.6295e-26  5.2333e-22  3.8193e-26  5.2444e-22  4.1489e-26  5.2641e-22  4.7276e-26  5.2993e-22  5.7525e-26  5.3619e-22  7.5633e-26  5.4732e-22  1.0774e-25  5.6714e-22  1.6478e-25  6.0246e-22  2.6622e-25  6.6550e-22  4.4670e-25  7.7834e-22  7.6800e-25  9.8130e-22  1.3405e-24  1.3496e-21  2.3623e-24  2.0299e-21  4.1903e-24  3.3254e-21  7.4723e-24  5.8600e-21
      5.95  3.1369e-26  5.8492e-22  3.1533e-26  5.8503e-22  3.1827e-26  5.8523e-22  3.2357e-26  5.8559e-22  3.3309e-26  5.8623e-22  3.4993e-26  5.8737e-22  3.7922e-26  5.8939e-22  4.3043e-26  5.9299e-22  5.2061e-26  5.9940e-22  6.8025e-26  6.1079e-22  9.6361e-26  6.3107e-22  1.4666e-25  6.6722e-22  2.3611e-25  7.3174e-22  3.9527e-25  8.4723e-22  6.7860e-25  1.0550e-21  1.1834e-24  1.4322e-21  2.0840e-24  2.1272e-21  3.6945e-24  3.4533e-21  6.5836e-24  6.0529e-21
      6.00  2.9043e-26  6.5552e-22  2.9185e-26  6.5563e-22  2.9440e-26  6.5584e-22  2.9903e-26  6.5620e-22  3.0736e-26  6.5684e-22  3.2222e-26  6.5798e-22  3.4782e-26  6.6002e-22  3.9234e-26  6.6363e-22  4.7073e-26  6.7007e-22  6.0931e-26  6.8151e-22  8.5516e-26  7.0189e-22  1.2919e-25  7.3820e-22  2.0685e-25  8.0301e-22  3.4500e-25  9.1905e-22  5.9092e-25  1.1279e-21  1.0290e-24  1.5070e-21  1.8103e-24  2.2066e-21  3.2065e-24  3.5290e-21  5.7088e-24  6.1271e-21
      6.05  2.7061e-26  7.3480e-22  2.7181e-26  7.3491e-22  2.7398e-26  7.3511e-22  2.7791e-26  7.3546e-22  2.8502e-26  7.3608e-22  2.9788e-26  7.3719e-22  3.1994e-26  7.3917e-22  3.5796e-26  7.4268e-22  4.2467e-26  7.4893e-22  5.4256e-26  7.6005e-22  7.5157e-26  7.7984e-22  1.1231e-25  8.1511e-22  1.7836e-25  8.7807e-22  2.9588e-25  9.9080e-22  5.0503e-25  1.1937e-21  8.7752e-25  1.5621e-21  1.5416e-24  2.2421e-21  2.7277e-24  3.5299e-21  4.8513e-24  6.0607e-21
      6.10  2.5368e-26  8.2379e-22  2.5468e-26  8.2390e-22  2.5648e-26  8.2408e-22  2.5974e-26  8.2442e-22  2.6568e-26  8.2501e-22  2.7644e-26  8.2606e-22  2.9503e-26  8.2794e-22  3.2703e-26  8.3128e-22  3.8265e-26  8.3722e-22  4.8089e-26  8.4778e-22  6.5533e-26  8.6659e-22  9.6526e-26  9.0011e-22  1.5164e-25  9.5994e-22  2.4970e-25  1.0671e-21  4.2419e-25  1.2599e-21  7.3489e-25  1.6102e-21  1.2887e-24  2.2566e-21  2.2772e-24  3.4793e-21  4.0458e-24  5.8873e-21
      6.15  2.3917e-26  9.2366e-22  2.3999e-26  9.2376e-22  2.4146e-26  9.2394e-22  2.4412e-26  9.2425e-22  2.4892e-26  9.2480e-22  2.5760e-26  9.2578e-22  2.7258e-26  9.2752e-22  2.9888e-26  9.3062e-22  3.4434e-26  9.3614e-22  4.2457e-26  9.4594e-22  5.6694e-26  9.6339e-22  8.1986e-26  9.9450e-22  1.2697e-25  1.0500e-21  2.0698e-25  1.1496e-21  3.4938e-25  1.3287e-21  6.0290e-25  1.6541e-21  1.0547e-24  2.2550e-21  1.8610e-24  3.3922e-21  3.3030e-24  5.6398e-21
      6.20  2.2670e-26  1.0357e-21  2.2735e-26  1.0358e-21  2.2852e-26  1.0360e-21  2.3061e-26  1.0363e-21  2.3438e-26  1.0368e-21  2.4113e-26  1.0376e-21  2.5287e-26  1.0392e-21  2.7342e-26  1.0420e-21  3.0951e-26  1.0470e-21  3.7313e-26  1.0558e-21  4.8585e-26  1.0714e-21  6.8614e-26  1.0994e-21  1.0423e-25  1.1493e-21  1.6758e-25  1.2386e-21  2.8031e-25  1.3995e-21  4.8102e-25  1.6919e-21  8.3869e-25  2.2323e-21  1.4770e-24  3.2613e-21  2.6187e-24  5.3016e-21
      6.25  2.1594e-26  1.1615e-21  2.1644e-26  1.1616e-21  2.1733e-26  1.1617e-21  2.1891e-26  1.1620e-21  2.2176e-26  1.1624e-21  2.2686e-26  1.1631e-21  2.3569e-26  1.1645e-21  2.5130e-26  1.1669e-21  2.7875e-26  1.1711e-21  3.2730e-26  1.1787e-21  4.1338e-26  1.1921e-21  5.6632e-26  1.2160e-21  8.3824e-26  1.2587e-21  1.3219e-25  1.3352e-21  2.1826e-25  1.4730e-21  3.7151e-25  1.7234e-21  6.4462e-25  2.1867e-21  1.1321e-24  3.0670e-21  2.0042e-24  4.8026e-21
      6.30  2.0664e-26  1.3027e-21  2.0700e-26  1.3027e-21  2.0766e-26  1.3028e-21  2.0882e-26  1.3030e-21  2.1090e-26  1.3034e-21  2.1460e-26  1.3040e-21  2.2104e-26  1.3051e-21  2.3245e-26  1.3071e-21  2.5270e-26  1.3105e-21  2.8842e-26  1.3167e-21  3.5191e-26  1.3277e-21  4.6467e-26  1.3473e-21  6.6519e-26  1.3822e-21  1.0218e-25  1.4448e-21  1.6565e-25  1.5575e-21  2.7867e-25  1.7624e-21  4.8011e-25  2.1406e-21  8.3974e-25  2.8576e-21  1.4835e-24  4.2793e-21
      6.35  1.9858e-26  1.4610e-21  1.9885e-26  1.4611e-21  1.9932e-26  1.4612e-21  2.0015e-26  1.4613e-21  2.0164e-26  1.4616e-21  2.0427e-26  1.4621e-21  2.0884e-26  1.4631e-21  2.1698e-26  1.4647e-21  2.3147e-26  1.4675e-21  2.5723e-26  1.4726e-21  3.0292e-26  1.4817e-21  3.8414e-26  1.4978e-21  5.2851e-26  1.5266e-21  7.8532e-26  1.5781e-21  1.2424e-25  1.6708e-21  2.0563e-25  1.8392e-21  3.5075e-25  2.1515e-21  6.0991e-25  2.7408e-21  1.0741e-24  3.9005e-21
      6.40  1.9160e-26  1.6387e-21  1.9179e-26  1.6388e-21  1.9213e-26  1.6389e-21  1.9272e-26  1.6390e-21  1.9378e-26  1.6392e-21  1.9564e-26  1.6397e-21  1.9890e-26  1.6405e-21  2.0469e-26  1.6419e-21  2.1502e-26  1.6443e-21  2.3344e-26  1.6487e-21  2.6624e-26  1.6565e-21  3.2455e-26  1.6703e-21  4.2822e-26  1.6950e-21  6.1265e-26  1.7391e-21  9.4096e-26  1.8186e-21  1.5257e-25  1.9628e-21  2.5686e-25  2.2288e-21  4.4323e-25  2.7307e-21  7.7745e-25  3.7223e-21
      6.45  1.8553e-26  1.8381e-21  1.8567e-26  1.8382e-21  1.8591e-26  1.8382e-21  1.8634e-26  1.8384e-21  1.8710e-26  1.8386e-21  1.8844e-26  1.8390e-21  1.9079e-26  1.8397e-21  1.9496e-26  1.8409e-21  2.0241e-26  1.8431e-21  2.1572e-26  1.8470e-21  2.3947e-26  1.8539e-21  2.8175e-26  1.8661e-21  3.5700e-26  1.8879e-21  4.9094e-26  1.9272e-21  7.2939e-26  1.9975e-21  1.1543e-25  2.1251e-21  1.9125e-25  2.3599e-21  3.2690e-25  2.8021e-21  5.7066e-25  3.6712e-21
      6.50  1.8175e-26  2.0825e-21  1.8034e-26  2.0619e-21  1.8052e-26  2.0619e-21  1.8084e-26  2.0621e-21  1.8140e-26  2.0623e-21  1.8238e-26  2.0626e-21  1.8410e-26  2.0633e-21  1.8717e-26  2.0644e-21  1.9265e-26  2.0664e-21  2.0246e-26  2.0699e-21  2.2000e-26  2.0761e-21  2.5132e-26  2.0872e-21  3.0711e-26  2.1070e-21  4.0646e-26  2.1423e-21  5.8342e-26  2.2058e-21  8.9888e-26  2.3207e-21  1.4622e-25  2.5324e-21  2.4709e-25  2.9289e-21  4.2866e-25  3.6985e-21
      6.55  1.7561e-26  2.3129e-21  1.7569e-26  2.3129e-21  1.7583e-26  2.3130e-21  1.7607e-26  2.3131e-21  1.7649e-26  2.3133e-21  1.7723e-26  2.3136e-21  1.7853e-26  2.3142e-21  1.8084e-26  2.3153e-21  1.8499e-26  2.3171e-21  1.9243e-26  2.3204e-21  2.0576e-26  2.3262e-21  2.2961e-26  2.3365e-21  2.7220e-26  2.3548e-21  3.4813e-26  2.3876e-21  4.8345e-26  2.4464e-21  7.2481e-26  2.5528e-21  1.1561e-25  2.7474e-21  1.9296e-25  3.1107e-21  3.3250e-25  3.8111e-21
      6.60  1.7156e-26  2.5945e-21  1.7162e-26  2.5946e-21  1.7173e-26  2.5946e-21  1.7191e-26  2.5947e-21  1.7224e-26  2.5949e-21  1.7281e-26  2.5952e-21  1.7381e-26  2.5958e-21  1.7559e-26  2.5969e-21  1.7880e-26  2.5987e-21  1.8457e-26  2.6018e-21  1.9493e-26  2.6074e-21  2.1353e-26  2.6172e-21  2.4682e-26  2.6348e-21  3.0627e-26  2.6662e-21  4.1236e-26  2.7225e-21  6.0175e-26  2.8241e-21  9.4058e-26  3.0094e-21  1.5493e-25  3.3535e-21  2.6509e-25  4.0127e-21
      6.65  1.6801e-26  2.9105e-21  1.6806e-26  2.9105e-21  1.6814e-26  2.9106e-21  1.6828e-26  2.9107e-21  1.6853e-26  2.9109e-21  1.6897e-26  2.9112e-21  1.6975e-26  2.9118e-21  1.7115e-26  2.9129e-21  1.7366e-26  2.9147e-21  1.7820e-26  2.9178e-21  1.8639e-26  2.9233e-21  2.0112e-26  2.9330e-21  2.2758e-26  2.9504e-21  2.7494e-26  2.9815e-21  3.5961e-26  3.0371e-21  5.1099e-26  3.1374e-21  7.8228e-26  3.3196e-21  1.2709e-25  3.6564e-21  2.1592e-25  4.2959e-21
      6.70  1.6488e-26  3.2650e-21  1.6492e-26  3.2651e-21  1.6498e-26  3.2651e-21  1.6509e-26  3.2652e-21  1.6528e-26  3.2654e-21  1.6563e-26  3.2657e-21  1.6624e-26  3.2664e-21  1.6735e-26  3.2675e-21  1.6936e-26  3.2693e-21  1.7302e-26  3.2725e-21  1.7964e-26  3.2781e-21  1.9161e-26  3.2880e-21  2.1319e-26  3.3057e-21  2.5195e-26  3.3372e-21  3.2141e-26  3.3936e-21  4.4593e-26  3.4949e-21  6.6983e-26  3.6789e-21  1.0752e-25  4.0173e-21  1.8186e-25  4.6552e-21
      6.75  1.6213e-26  3.6628e-21  1.6216e-26  3.6628e-21  1.6220e-26  3.6629e-21  1.6228e-26  3.6630e-21  1.6243e-26  3.6632e-21  1.6270e-26  3.6635e-21  1.6318e-26  3.6642e-21  1.6406e-26  3.6654e-21  1.6567e-26  3.6673e-21  1.6863e-26  3.6706e-21  1.7400e-26  3.6764e-21  1.8377e-26  3.6867e-21  2.0146e-26  3.7050e-21  2.3336e-26  3.7376e-21  2.9073e-26  3.7959e-21  3.9394e-26  3.9007e-21  5.8037e-26  4.0902e-21  9.2026e-26  4.4375e-21  1.5506e-25  5.0876e-21
      6.80  1.5970e-26  4.1091e-21  1.5972e-26  4.1091e-21  1.5975e-26  4.1092e-21  1.5981e-26  4.1093e-21  1.5992e-26  4.1095e-21  1.6013e-26  4.1098e-21  1.6050e-26  4.1105e-21  1.6118e-26  4.1119e-21  1.6245e-26  4.1139e-21  1.6478e-26  4.1174e-21  1.6906e-26  4.1235e-21  1.7688e-26  4.1344e-21  1.9113e-26  4.1536e-21  2.1695e-26  4.1880e-21  2.6359e-26  4.2494e-21  3.4786e-26  4.3596e-21  5.0088e-26  4.5584e-21  7.8199e-26  4.9214e-21  1.3095e-25  5.5970e-21
      6.85  1.5756e-26  4.6098e-21  1.5757e-26  4.6098e-21  1.5760e-26  4.6099e-21  1.5764e-26  4.6100e-21  1.5772e-26  4.6102e-21  1.5787e-26  4.6105e-21  1.5817e-26  4.6113e-21  1.5871e-26  4.6128e-21  1.5974e-26  4.6150e-21  1.6165e-26  4.6188e-21  1.6519e-26  4.6254e-21  1.7171e-26  4.6370e-21  1.8369e-26  4.6576e-21  2.0551e-26  4.6944e-21  2.4513e-26  4.7601e-21  3.1712e-26  4.8777e-21  4.4877e-26  5.0897e-21  6.9319e-26  5.4758e-21  1.1594e-25  6.1905e-21
      6.90  1.5567e-26  5.1715e-21  1.5568e-26  5.1715e-21  1.5569e-26  5.1716e-21  1.5572e-26  5.1717e-21  1.5578e-26  5.1719e-21  1.5590e-26  5.1723e-21  1.5614e-26  5.1732e-21  1.5660e-26  5.1749e-21  1.5750e-26  5.1773e-21  1.5916e-26  5.1814e-21  1.6231e-26  5.1885e-21  1.6821e-26  5.2011e-21  1.7910e-26  5.2235e-21  1.9905e-26  5.2634e-21  2.3542e-26  5.3345e-21  3.0188e-26  5.4618e-21  4.2438e-26  5.6909e-21  6.5455e-26  6.1070e-21  1.1016e-25  6.8744e-21
      6.95  1.5400e-26  5.8017e-21  1.5401e-26  5.8017e-21  1.5402e-26  5.8018e-21  1.5404e-26  5.8019e-21  1.5408e-26  5.8022e-21  1.5417e-26  5.8026e-21  1.5438e-26  5.8035e-21  1.5476e-26  5.8055e-21  1.5550e-26  5.8082e-21  1.5690e-26  5.8127e-21  1.5964e-26  5.8205e-21  1.6483e-26  5.8343e-21  1.7448e-26  5.8587e-21  1.9224e-26  5.9023e-21  2.2478e-26  5.9799e-21  2.8448e-26  6.1189e-21  3.9522e-26  6.3687e-21  6.0510e-26  6.8214e-21  1.0179e-25  7.6536e-21
      7.00  1.5253e-26  6.5087e-21  1.5253e-26  6.5088e-21  1.5254e-26  6.5089e-21  1.5255e-26  6.5090e-21  1.5259e-26  6.5093e-21  1.5266e-26  6.5098e-21  1.5284e-26  6.5107e-21  1.5318e-26  6.5129e-21  1.5381e-26  6.5160e-21  1.5506e-26  6.5210e-21  1.5754e-26  6.5296e-21  1.6230e-26  6.5447e-21  1.7125e-26  6.5716e-21  1.8782e-26  6.6194e-21  2.1830e-26  6.7045e-21  2.7448e-26  6.8569e-21  3.7916e-26  7.1305e-21  5.7889e-26  7.6254e-21  9.7543e-26  8.5324e-21
      7.05  1.5123e-26  7.3020e-21  1.5123e-26  7.3020e-21  1.5123e-26  7.3021e-21  1.5124e-26  7.3023e-21  1.5127e-26  7.3026e-21  1.5133e-26  7.3031e-21  1.5149e-26  7.3040e-21  1.5181e-26  7.3066e-21  1.5240e-26  7.3101e-21  1.5357e-26  7.3157e-21  1.5594e-26  7.3252e-21  1.6058e-26  7.3418e-21  1.6944e-26  7.3713e-21  1.8599e-26  7.4238e-21  2.1659e-26  7.5174e-21  2.7316e-26  7.6846e-21  3.7893e-26  7.9845e-21  5.8167e-26  8.5261e-21  9.8683e-26  9.5158e-21
      7.10  1.5007e-26  8.1919e-21  1.5008e-26  8.1920e-21  1.5008e-26  8.1921e-21  1.5009e-26  8.1923e-21  1.5011e-26  8.1926e-21  1.5017e-26  8.1932e-21  1.5031e-26  8.1942e-21  1.5062e-26  8.1969e-21  1.5120e-26  8.2010e-21  1.5233e-26  8.2072e-21  1.5464e-26  8.2177e-21  1.5935e-26  8.2360e-21  1.6851e-26  8.2684e-21  1.8580e-26  8.3260e-21  2.1795e-26  8.4287e-21  2.7756e-26  8.6119e-21  3.8932e-26  8.9404e-21  6.0420e-26  9.5325e-21  1.0355e-25  1.0612e-20
      7.15  1.4905e-26  9.1904e-21  1.4906e-26  9.1904e-21  1.4906e-26  9.1905e-21  1.4907e-26  9.1907e-21  1.4909e-26  9.1911e-21  1.4913e-26  9.1917e-21  1.4926e-26  9.1928e-21  1.4953e-26  9.1956e-21  1.5003e-26  9.2004e-21  1.5098e-26  9.2074e-21  1.5299e-26  9.2190e-21  1.5719e-26  9.2391e-21  1.6557e-26  9.2747e-21  1.8168e-26  9.3379e-21  2.1193e-26  9.4504e-21  2.6838e-26  9.6512e-21  3.7454e-26  1.0010e-20  5.7913e-26  1.0657e-20  9.9061e-26  1.1831e-20
      7.20  1.4815e-26  1.0310e-20  1.4815e-26  1.0310e-20  1.4816e-26  1.0311e-20  1.4817e-26  1.0311e-20  1.4818e-26  1.0311e-20  1.4822e-26  1.0312e-20  1.4832e-26  1.0313e-20  1.4855e-26  1.0316e-20  1.4893e-26  1.0321e-20  1.4973e-26  1.0329e-20  1.5142e-26  1.0342e-20  1.5501e-26  1.0364e-20  1.6241e-26  1.0404e-20  1.7699e-26  1.0473e-20  2.0483e-26  1.0596e-20  2.5727e-26  1.0816e-20  3.5643e-26  1.1210e-20  5.4808e-26  1.1916e-20  9.3424e-26  1.3194e-20
      7.25  1.4736e-26  1.1567e-20  1.4736e-26  1.1567e-20  1.4736e-26  1.1567e-20  1.4737e-26  1.1567e-20  1.4738e-26  1.1568e-20  1.4741e-26  1.1569e-20  1.4749e-26  1.1570e-20  1.4766e-26  1.1573e-20  1.4797e-26  1.1579e-20  1.4859e-26  1.1588e-20  1.4993e-26  1.1602e-20  1.5287e-26  1.1627e-20  1.5909e-26  1.1670e-20  1.7174e-26  1.1747e-20  1.9642e-26  1.1882e-20  2.4355e-26  1.2124e-20  3.3333e-26  1.2556e-20  5.0752e-26  1.3331e-20  8.5922e-26  1.4726e-20
      7.30  1.4665e-26  1.2977e-20  1.4665e-26  1.2977e-20  1.4665e-26  1.2977e-20  1.4666e-26  1.2977e-20  1.4667e-26  1.2978e-20  1.4670e-26  1.2979e-20  1.4676e-26  1.2980e-20  1.4688e-26  1.2983e-20  1.4714e-26  1.2989e-20  1.4764e-26  1.3000e-20  1.4867e-26  1.3016e-20  1.5103e-26  1.3044e-20  1.5624e-26  1.3092e-20  1.6720e-26  1.3176e-20  1.8921e-26  1.3326e-20  2.3203e-26  1.3593e-20  3.1449e-26  1.4070e-20  4.7541e-26  1.4922e-20  8.0121e-26  1.6455e-20
      7.35  1.4603e-26  1.4558e-20  1.4603e-26  1.4558e-20  1.4603e-26  1.4558e-20  1.4603e-26  1.4559e-20  1.4604e-26  1.4559e-20  1.4607e-26  1.4560e-20  1.4611e-26  1.4562e-20  1.4622e-26  1.4565e-20  1.4643e-26  1.4571e-20  1.4685e-26  1.4584e-20  1.4770e-26  1.4603e-20  1.4966e-26  1.4633e-20  1.5416e-26  1.4687e-20  1.6395e-26  1.4780e-20  1.8412e-26  1.4947e-20  2.2409e-26  1.5243e-20  3.0202e-26  1.5770e-20  4.5506e-26  1.6713e-20  7.6595e-26  1.8405e-20
      7.40  1.4547e-26  1.6332e-20  1.4547e-26  1.6332e-20  1.4547e-26  1.6332e-20  1.4548e-26  1.6333e-20  1.4549e-26  1.6333e-20  1.4551e-26  1.6334e-20  1.4555e-26  1.6336e-20  1.4564e-26  1.6340e-20  1.4582e-26  1.6346e-20  1.4620e-26  1.6361e-20  1.4694e-26  1.6383e-20  1.4865e-26  1.6417e-20  1.5263e-26  1.6476e-20  1.6152e-26  1.6581e-20  1.8033e-26  1.6766e-20  2.1833e-26  1.7095e-20  2.9325e-26  1.7681e-20  4.4142e-26  1.8728e-20  7.4347e-26  2.0602e-20
      7.45  1.4498e-26  1.8322e-20  1.4498e-26  1.8322e-20  1.4498e-26  1.8323e-20  1.4499e-26  1.8323e-20  1.4500e-26  1.8324e-20  1.4501e-26  1.8325e-20  1.4505e-26  1.8327e-20  1.4513e-26  1.8330e-20  1.4530e-26  1.8339e-20  1.4561e-26  1.8356e-20  1.4622e-26  1.8380e-20  1.4762e-26  1.8419e-20  1.5091e-26  1.8485e-20  1.5844e-26  1.8601e-20  1.7483e-26  1.8807e-20  2.0873e-26  1.9174e-20  2.7667e-26  1.9827e-20  4.1225e-26  2.0992e-20  6.8994e-26  2.3076e-20
      7.50  1.4455e-26  2.0555e-20  1.4455e-26  2.0555e-20  1.4455e-26  2.0555e-20  1.4455e-26  2.0555e-20  1.4456e-26  2.0556e-20  1.4457e-26  2.0557e-20  1.4461e-26  2.0560e-20  1.4468e-26  2.0564e-20  1.4485e-26  2.0575e-20  1.4513e-26  2.0595e-20  1.4566e-26  2.0622e-20  1.4685e-26  2.0665e-20  1.4966e-26  2.0738e-20  1.5622e-26  2.0868e-20  1.7086e-26  2.1098e-20  2.0188e-26  2.1508e-20  2.6514e-26  2.2236e-20  3.9271e-26  2.3536e-20  6.5541e-26  2.5858e-20
      7.55  1.4416e-26  2.3059e-20  1.4416e-26  2.3059e-20  1.4416e-26  2.3059e-20  1.4416e-26  2.3060e-20  1.4417e-26  2.3060e-20  1.4419e-26  2.3062e-20  1.4422e-26  2.3064e-20  1.4428e-26  2.3069e-20  1.4445e-26  2.3084e-20  1.4472e-26  2.3106e-20  1.4520e-26  2.3136e-20  1.4624e-26  2.3185e-20  1.4870e-26  2.3267e-20  1.5451e-26  2.3412e-20  1.6776e-26  2.3670e-20  1.9657e-26  2.4127e-20  2.5656e-26  2.4941e-20  3.7922e-26  2.6393e-20  6.3372e-26  2.8985e-20
      7.60  1.4381e-26  2.5868e-20  1.4381e-26  2.5868e-20  1.4382e-26  2.5868e-20  1.4382e-26  2.5869e-20  1.4383e-26  2.5869e-20  1.4384e-26  2.5871e-20  1.4387e-26  2.5874e-20  1.4393e-26  2.5879e-20  1.4411e-26  2.5899e-20  1.4437e-26  2.5924e-20  1.4480e-26  2.5958e-20  1.4571e-26  2.6012e-20  1.4780e-26  2.6105e-20  1.5271e-26  2.6267e-20  1.6406e-26  2.6555e-20  1.8923e-26  2.7067e-20  2.4267e-26  2.7978e-20  3.5345e-26  2.9601e-20  5.8514e-26  3.2497e-20
      7.65  1.4351e-26  2.9018e-20  1.4351e-26  2.9018e-20  1.4351e-26  2.9019e-20  1.4351e-26  2.9019e-20  1.4352e-26  2.9020e-20  1.4353e-26  2.9022e-20  1.4356e-26  2.9025e-20  1.4362e-26  2.9031e-20  1.4381e-26  2.9057e-20  1.4405e-26  2.9086e-20  1.4445e-26  2.9124e-20  1.4526e-26  2.9184e-20  1.4706e-26  2.9288e-20  1.5124e-26  2.9470e-20  1.6094e-26  2.9792e-20  1.8278e-26  3.0365e-20  2.3001e-26  3.1385e-20  3.2942e-26  3.3201e-20  5.3926e-26  3.6442e-20
      7.70  1.4323e-26  3.2552e-20  1.4323e-26  3.2552e-20  1.4323e-26  3.2552e-20  1.4324e-26  3.2553e-20  1.4324e-26  3.2554e-20  1.4326e-26  3.2556e-20  1.4328e-26  3.2559e-20  1.4335e-26  3.2566e-20  1.4354e-26  3.2600e-20  1.4378e-26  3.2633e-20  1.4415e-26  3.2676e-20  1.4488e-26  3.2744e-20  1.4645e-26  3.2860e-20  1.5003e-26  3.3064e-20  1.5830e-26  3.3425e-20  1.7713e-26  3.4067e-20  2.1854e-26  3.5209e-20  3.0708e-26  3.7243e-20  4.9601e-26  4.0870e-20
      7.75  1.4298e-26  3.6514e-20  1.4298e-26  3.6515e-20  1.4298e-26  3.6515e-20  1.4299e-26  3.6516e-20  1.4299e-26  3.6517e-20  1.4301e-26  3.6519e-20  1.4303e-26  3.6523e-20  1.4311e-26  3.6536e-20  1.4331e-26  3.6575e-20  1.4354e-26  3.6612e-20  1.4389e-26  3.6661e-20  1.4456e-26  3.6737e-20  1.4595e-26  3.6868e-20  1.4903e-26  3.7096e-20  1.5610e-26  3.7501e-20  1.7225e-26  3.8220e-20  2.0829e-26  3.9499e-20  2.8657e-26  4.1778e-20  4.5560e-26  4.5840e-20
      7.80  1.4275e-26  4.0959e-20  1.4275e-26  4.0959e-20  1.4276e-26  4.0959e-20  1.4276e-26  4.0960e-20  1.4277e-26  4.0962e-20  1.4278e-26  4.0964e-20  1.4281e-26  4.0969e-20  1.4290e-26  4.0987e-20  1.4310e-26  4.1033e-20  1.4332e-26  4.1077e-20  1.4367e-26  4.1132e-20  1.4428e-26  4.1218e-20  1.4553e-26  4.1364e-20  1.4822e-26  4.1621e-20  1.5428e-26  4.2074e-20  1.6812e-26  4.2880e-20  1.9934e-26  4.4314e-20  2.6817e-26  4.6867e-20  4.1878e-26  5.1417e-20
      7.85  1.4255e-26  4.5942e-20  1.4255e-26  4.5943e-20  1.4255e-26  4.5943e-20  1.4255e-26  4.5944e-20  1.4256e-26  4.5946e-20  1.4257e-26  4.5949e-20  1.4260e-26  4.5954e-20  1.4271e-26  4.5980e-20  1.4291e-26  4.6035e-20  1.4313e-26  4.6085e-20  1.4347e-26  4.6148e-20  1.4404e-26  4.6245e-20  1.4517e-26  4.6409e-20  1.4754e-26  4.6697e-20  1.5277e-26  4.7206e-20  1.6466e-26  4.8109e-20  1.9162e-26  4.9716e-20  2.5192e-26  5.2577e-20  3.8569e-26  5.7676e-20
      7.90  1.4236e-26  5.1531e-20  1.4236e-26  5.1531e-20  1.4236e-26  5.1532e-20  1.4236e-26  5.1533e-20  1.4237e-26  5.1534e-20  1.4238e-26  5.1538e-20  1.4241e-26  5.1543e-20  1.4254e-26  5.1583e-20  1.4275e-26  5.1647e-20  1.4296e-26  5.1705e-20  1.4328e-26  5.1776e-20  1.4381e-26  5.1886e-20  1.4482e-26  5.2070e-20  1.4690e-26  5.2393e-20  1.5137e-26  5.2963e-20  1.6139e-26  5.3976e-20  1.8416e-26  5.5777e-20  2.3564e-26  5.8984e-20  3.5148e-26  6.4698e-20
      7.95  1.4218e-26  5.7796e-20  1.4218e-26  5.7797e-20  1.4218e-26  5.7797e-20  1.4218e-26  5.7798e-20  1.4219e-26  5.7800e-20  1.4220e-26  5.7804e-20  1.4223e-26  5.7810e-20  1.4238e-26  5.7867e-20  1.4260e-26  5.7942e-20  1.4281e-26  5.8010e-20  1.4311e-26  5.8091e-20  1.4360e-26  5.8214e-20  1.4452e-26  5.8421e-20  1.4635e-26  5.8783e-20  1.5016e-26  5.9423e-20  1.5857e-26  6.0558e-20  1.7754e-26  6.2578e-20  2.2063e-26  6.6173e-20  3.1859e-26  7.2576e-20
      8.00  1.4201e-26  6.4821e-20  1.4201e-26  6.4821e-20  1.4201e-26  6.4822e-20  1.4201e-26  6.4823e-20  1.4202e-26  6.4825e-20  1.4203e-26  6.4829e-20  1.4206e-26  6.4836e-20  1.4224e-26  6.4914e-20  1.4246e-26  6.5004e-20  1.4267e-26  6.5082e-20  1.4295e-26  6.5175e-20  1.4342e-26  6.5314e-20  1.4425e-26  6.5547e-20  1.4587e-26  6.5953e-20  1.4917e-26  6.6670e-20  1.5626e-26  6.7944e-20  1.7202e-26  7.0208e-20  2.0776e-26  7.4238e-20  2.8941e-26  8.1415e-20
      8.05  1.4184e-26  7.2695e-20  1.4185e-26  7.2695e-20  1.4185e-26  7.2696e-20  1.4185e-26  7.2697e-20  1.4186e-26  7.2700e-20  1.4187e-26  7.2704e-20  1.4189e-26  7.2712e-20  1.4211e-26  7.2817e-20  1.4233e-26  7.2925e-20  1.4255e-26  7.3017e-20  1.4282e-26  7.3123e-20  1.4325e-26  7.3280e-20  1.4402e-26  7.3542e-20  1.4547e-26  7.3998e-20  1.4836e-26  7.4803e-20  1.5442e-26  7.6231e-20  1.6765e-26  7.8770e-20  1.9737e-26  8.3288e-20  2.6530e-26  9.1333e-20
      8.10  1.4168e-26  8.1520e-20  1.4169e-26  8.1520e-20  1.4169e-26  8.1521e-20  1.4169e-26  8.1523e-20  1.4170e-26  8.1525e-20  1.4171e-26  8.1530e-20  1.4173e-26  8.1539e-20  1.4198e-26  8.1677e-20  1.4222e-26  8.1808e-20  1.4243e-26  8.1917e-20  1.4270e-26  8.2039e-20  1.4311e-26  8.2218e-20  1.4382e-26  8.2512e-20  1.4514e-26  8.3024e-20  1.4771e-26  8.3927e-20  1.5296e-26  8.5528e-20  1.6417e-26  8.8376e-20  1.8899e-26  9.3441e-20  2.4540e-26  1.0246e-19
      8.15  1.4153e-26  9.1409e-20  1.4153e-26  9.1410e-20  1.4153e-26  9.1411e-20  1.4153e-26  9.1413e-20  1.4154e-26  9.1416e-20  1.4155e-26  9.1421e-20  1.4157e-26  9.1432e-20  1.4185e-26  9.1609e-20  1.4211e-26  9.1771e-20  1.4233e-26  9.1900e-20  1.4259e-26  9.2042e-20  1.4298e-26  9.2244e-20  1.4365e-26  9.2576e-20  1.4487e-26  9.3151e-20  1.4718e-26  9.4164e-20  1.5178e-26  9.5961e-20  1.6138e-26  9.9153e-20  1.8207e-26  1.0483e-19  2.2887e-26  1.1495e-19
      8.20  1.4136e-26  1.0249e-19  1.4136e-26  1.0249e-19  1.4137e-26  1.0249e-19  1.4137e-26  1.0249e-19  1.4137e-26  1.0250e-19  1.4138e-26  1.0250e-19  1.4140e-26  1.0251e-19  1.4172e-26  1.0274e-19  1.4201e-26  1.0294e-19  1.4224e-26  1.0310e-19  1.4250e-26  1.0326e-19  1.4287e-26  1.0349e-19  1.4351e-26  1.0387e-19  1.4464e-26  1.0451e-19  1.4677e-26  1.0565e-19  1.5090e-26  1.0767e-19  1.5931e-26  1.1125e-19  1.7710e-26  1.1762e-19  2.1635e-26  1.2895e-19
      8.25  1.4120e-26  1.1490e-19  1.4120e-26  1.1490e-19  1.4120e-26  1.1490e-19  1.4120e-26  1.1491e-19  1.4121e-26  1.1491e-19  1.4122e-26  1.1492e-19  1.4123e-26  1.1493e-19  1.4159e-26  1.1522e-19  1.4191e-26  1.1547e-19  1.4215e-26  1.1566e-19  1.4241e-26  1.1585e-19  1.4278e-26  1.1611e-19  1.4339e-26  1.1654e-19  1.4447e-26  1.1726e-19  1.4645e-26  1.1854e-19  1.5025e-26  1.2080e-19  1.5776e-26  1.2481e-19  1.7332e-26  1.3196e-19  2.0693e-26  1.4467e-19
      8.30  1.4102e-26  1.2880e-19  1.4102e-26  1.2880e-19  1.4102e-26  1.2881e-19  1.4102e-26  1.2881e-19  1.4103e-26  1.2881e-19  1.4104e-26  1.2882e-19  1.4106e-26  1.2884e-19  1.4146e-26  1.2920e-19  1.4181e-26  1.2951e-19  1.4207e-26  1.2974e-19  1.4234e-26  1.2997e-19  1.4270e-26  1.3027e-19  1.4329e-26  1.3075e-19  1.4432e-26  1.3156e-19  1.4621e-26  1.3300e-19  1.4974e-26  1.3553e-19  1.5662e-26  1.4004e-19  1.7051e-26  1.4805e-19  1.9985e-26  1.6231e-19
      8.35  1.4083e-26  1.4437e-19  1.4083e-26  1.4437e-19  1.4083e-26  1.4437e-19  1.4084e-26  1.4437e-19  1.4084e-26  1.4438e-19  1.4085e-26  1.4439e-19  1.4087e-26  1.4440e-19  1.4132e-26  1.4487e-19  1.4171e-26  1.4526e-19  1.4199e-26  1.4554e-19  1.4227e-26  1.4581e-19  1.4263e-26  1.4615e-19  1.4321e-26  1.4669e-19  1.4421e-26  1.4761e-19  1.4601e-26  1.4922e-19  1.4935e-26  1.5206e-19  1.5574e-26  1.5712e-19  1.6837e-26  1.6611e-19  1.9445e-26  1.8210e-19
      8.40  1.4063e-26  1.6179e-19  1.4063e-26  1.6179e-19  1.4063e-26  1.6179e-19  1.4063e-26  1.6180e-19  1.4064e-26  1.6180e-19  1.4065e-26  1.6181e-19  1.4066e-26  1.6183e-19  1.4117e-26  1.6241e-19  1.4161e-26  1.6291e-19  1.4192e-26  1.6326e-19  1.4220e-26  1.6358e-19  1.4257e-26  1.6397e-19  1.4313e-26  1.6458e-19  1.4411e-26  1.6562e-19  1.4585e-26  1.6742e-19  1.4905e-26  1.7061e-19  1.5507e-26  1.7629e-19  1.6675e-26  1.8637e-19  1.9035e-26  2.0430e-19
      8.45  1.4041e-26  1.8128e-19  1.4041e-26  1.8128e-19  1.4041e-26  1.8128e-19  1.4041e-26  1.8129e-19  1.4042e-26  1.8129e-19  1.4043e-26  1.8131e-19  1.4044e-26  1.8133e-19  1.4101e-26  1.8206e-19  1.4150e-26  1.8269e-19  1.4184e-26  1.8312e-19  1.4214e-26  1.8350e-19  1.4251e-26  1.8396e-19  1.4307e-26  1.8465e-19  1.4403e-26  1.8582e-19  1.4573e-26  1.8784e-19  1.4883e-26  1.9143e-19  1.5458e-26  1.9779e-19  1.6555e-26  2.0910e-19  1.8727e-26  2.2922e-19
      8.50  1.4016e-26  2.0308e-19  1.4016e-26  2.0308e-19  1.4016e-26  2.0309e-19  1.4017e-26  2.0309e-19  1.4017e-26  2.0310e-19  1.4018e-26  2.0311e-19  1.4020e-26  2.0313e-19  1.4084e-26  2.0406e-19  1.4139e-26  2.0486e-19  1.4176e-26  2.0540e-19  1.4208e-26  2.0585e-19  1.4246e-26  2.0638e-19  1.4302e-26  2.0717e-19  1.4397e-26  2.0848e-19  1.4564e-26  2.1076e-19  1.4866e-26  2.1478e-19  1.5421e-26  2.2191e-19  1.6466e-26  2.3460e-19  1.8496e-26  2.5717e-19
