# This was generated using Cloudy10 and the columns are ordered 
# as log10 of the fraction of the metallicity to the solar metallicity
# 'h_*_Z' and 'c_*_Z' stands for cooling and heating respectively 
# at * metalicity
#
# NOTE: This was generated separately from loop_coolingcurve_w_UV.py
#       using Output_metals_w_redshift.py.
#
# Redshift = 8.5
# hden = -10.0
#
#     temp   h_-3.00_Z   c_-3.00_Z   h_-2.75_Z   c_-2.75_Z   h_-2.50_Z   c_-2.50_Z   h_-2.25_Z   c_-2.25_Z   h_-2.00_Z   c_-2.00_Z   h_-1.75_Z   c_-1.75_Z   h_-1.50_Z   c_-1.50_Z   h_-1.25_Z   c_-1.25_Z   h_-1.00_Z   c_-1.00_Z   h_-0.75_Z   c_-0.75_Z   h_-0.50_Z   c_-0.50_Z   h_-0.25_Z   c_-0.25_Z    h_0.00_Z    c_0.00_Z    h_0.25_Z    c_0.25_Z    h_0.50_Z    c_0.50_Z    h_0.75_Z    c_0.75_Z    h_1.00_Z    c_1.00_Z    h_1.25_Z    c_1.25_Z    h_1.50_Z    c_1.50_Z 
      1.00  1.4076e-20  5.0865e-21  1.4076e-20  5.0865e-21  1.4078e-20  5.0866e-21  1.4079e-20  5.0867e-21  1.4083e-20  5.0868e-21  1.4089e-20  5.0871e-21  1.4099e-20  5.0876e-21  1.4118e-20  5.0885e-21  1.4152e-20  5.0900e-21  1.4211e-20  5.0928e-21  1.4317e-20  5.0976e-21  1.4505e-20  5.1063e-21  1.4839e-20  5.1218e-21  1.5437e-20  5.1493e-21  1.6513e-20  5.1981e-21  1.8462e-20  5.2850e-21  2.2055e-20  5.4391e-21  2.9107e-20  5.8118e-21  4.2623e-20  6.3702e-21
      1.05  1.4027e-20  5.7072e-21  1.4028e-20  5.7072e-21  1.4029e-20  5.7072e-21  1.4031e-20  5.7073e-21  1.4034e-20  5.7075e-21  1.4040e-20  5.7078e-21  1.4050e-20  5.7084e-21  1.4068e-20  5.7093e-21  1.4100e-20  5.7111e-21  1.4156e-20  5.7142e-21  1.4257e-20  5.7197e-21  1.4436e-20  5.7295e-21  1.4755e-20  5.7468e-21  1.5325e-20  5.7777e-21  1.6350e-20  5.8327e-21  1.8209e-20  5.9303e-21  2.1633e-20  6.1036e-21  2.8351e-20  6.5177e-21  4.1230e-20  7.1474e-21
      1.10  1.3982e-20  6.4035e-21  1.3982e-20  6.4036e-21  1.3983e-20  6.4036e-21  1.3985e-20  6.4037e-21  1.3988e-20  6.4039e-21  1.3994e-20  6.4043e-21  1.4003e-20  6.4049e-21  1.4020e-20  6.4060e-21  1.4051e-20  6.4080e-21  1.4105e-20  6.4114e-21  1.4201e-20  6.4176e-21  1.4372e-20  6.4286e-21  1.4676e-20  6.4482e-21  1.5220e-20  6.4829e-21  1.6197e-20  6.5447e-21  1.7970e-20  6.6544e-21  2.1233e-20  6.8492e-21  2.7636e-20  7.3091e-21  3.9914e-20  8.0193e-21
      1.15  1.3939e-20  7.1849e-21  1.3940e-20  7.1849e-21  1.3941e-20  7.1850e-21  1.3942e-20  7.1851e-21  1.3945e-20  7.1853e-21  1.3950e-20  7.1857e-21  1.3959e-20  7.1864e-21  1.3976e-20  7.1877e-21  1.4005e-20  7.1899e-21  1.4056e-20  7.1938e-21  1.4148e-20  7.2007e-21  1.4311e-20  7.2131e-21  1.4601e-20  7.2351e-21  1.5120e-20  7.2741e-21  1.6052e-20  7.3436e-21  1.7743e-20  7.4669e-21  2.0854e-20  7.6860e-21  2.6955e-20  8.1961e-21  3.8667e-20  8.9973e-21
      1.20  1.3899e-20  8.0616e-21  1.3900e-20  8.0616e-21  1.3900e-20  8.0617e-21  1.3902e-20  8.0619e-21  1.3905e-20  8.0621e-21  1.3910e-20  8.0625e-21  1.3918e-20  8.0633e-21  1.3934e-20  8.0647e-21  1.3962e-20  8.0672e-21  1.4011e-20  8.0716e-21  1.4098e-20  8.0794e-21  1.4254e-20  8.0933e-21  1.4531e-20  8.1180e-21  1.5026e-20  8.1619e-21  1.5916e-20  8.2400e-21  1.7529e-20  8.3787e-21  2.0495e-20  8.6249e-21  2.6310e-20  9.1902e-21  3.7484e-20  1.0094e-20
      1.25  1.3861e-20  9.0453e-21  1.3862e-20  9.0453e-21  1.3863e-20  9.0454e-21  1.3864e-20  9.0456e-21  1.3867e-20  9.0458e-21  1.3872e-20  9.0463e-21  1.3880e-20  9.0472e-21  1.3895e-20  9.0488e-21  1.3921e-20  9.0515e-21  1.3968e-20  9.0565e-21  1.4052e-20  9.0653e-21  1.4200e-20  9.0809e-21  1.4465e-20  9.1087e-21  1.4937e-20  9.1580e-21  1.5786e-20  9.2458e-21  1.7326e-20  9.4017e-21  2.0157e-20  9.6786e-21  2.5699e-20  1.0305e-20  3.6363e-20  1.1325e-20
      1.30  1.3826e-20  1.0149e-20  1.3827e-20  1.0149e-20  1.3827e-20  1.0149e-20  1.3829e-20  1.0149e-20  1.3831e-20  1.0150e-20  1.3836e-20  1.0150e-20  1.3844e-20  1.0151e-20  1.3858e-20  1.0153e-20  1.3883e-20  1.0156e-20  1.3928e-20  1.0162e-20  1.4008e-20  1.0171e-20  1.4150e-20  1.0189e-20  1.4402e-20  1.0220e-20  1.4853e-20  1.0276e-20  1.5664e-20  1.0374e-20  1.7134e-20  1.0550e-20  1.9836e-20  1.0861e-20  2.5124e-20  1.1559e-20  3.5301e-20  1.2705e-20
      1.35  1.3793e-20  1.1387e-20  1.3794e-20  1.1387e-20  1.3794e-20  1.1387e-20  1.3796e-20  1.1388e-20  1.3798e-20  1.1388e-20  1.3802e-20  1.1389e-20  1.3810e-20  1.1390e-20  1.3824e-20  1.1392e-20  1.3848e-20  1.1395e-20  1.3891e-20  1.1402e-20  1.3967e-20  1.1413e-20  1.4102e-20  1.1432e-20  1.4343e-20  1.1467e-20  1.4774e-20  1.1530e-20  1.5548e-20  1.1641e-20  1.6951e-20  1.1838e-20  1.9531e-20  1.2188e-20  2.4577e-20  1.2964e-20  3.4297e-20  1.4255e-20
      1.40  1.3762e-20  1.2777e-20  1.3763e-20  1.2777e-20  1.3763e-20  1.2777e-20  1.3765e-20  1.2777e-20  1.3767e-20  1.2778e-20  1.3771e-20  1.2778e-20  1.3778e-20  1.2780e-20  1.3791e-20  1.2782e-20  1.3814e-20  1.2786e-20  1.3855e-20  1.2793e-20  1.3928e-20  1.2805e-20  1.4057e-20  1.2827e-20  1.4288e-20  1.2867e-20  1.4700e-20  1.2937e-20  1.5439e-20  1.3062e-20  1.6779e-20  1.3283e-20  1.9243e-20  1.3676e-20  2.4057e-20  1.4540e-20  3.3344e-20  1.5995e-20
      1.45  1.3733e-20  1.4336e-20  1.3734e-20  1.4336e-20  1.3734e-20  1.4336e-20  1.3736e-20  1.4336e-20  1.3738e-20  1.4337e-20  1.3742e-20  1.4338e-20  1.3749e-20  1.4339e-20  1.3761e-20  1.4341e-20  1.3783e-20  1.4346e-20  1.3822e-20  1.4354e-20  1.3892e-20  1.4368e-20  1.4015e-20  1.4393e-20  1.4236e-20  1.4437e-20  1.4629e-20  1.4516e-20  1.5336e-20  1.4656e-20  1.6616e-20  1.4905e-20  1.8969e-20  1.5347e-20  2.3563e-20  1.6307e-20  3.2439e-20  1.7946e-20
      1.50  1.3706e-20  1.6085e-20  1.3707e-20  1.6085e-20  1.3707e-20  1.6085e-20  1.3708e-20  1.6086e-20  1.3710e-20  1.6086e-20  1.3714e-20  1.6087e-20  1.3721e-20  1.6089e-20  1.3733e-20  1.6091e-20  1.3754e-20  1.6096e-20  1.3791e-20  1.6105e-20  1.3858e-20  1.6121e-20  1.3976e-20  1.6149e-20  1.4186e-20  1.6199e-20  1.4563e-20  1.6287e-20  1.5238e-20  1.6445e-20  1.6462e-20  1.6725e-20  1.8710e-20  1.7222e-20  2.3094e-20  1.8287e-20  3.1578e-20  2.0136e-20
      1.55  1.3681e-20  1.8048e-20  1.3681e-20  1.8048e-20  1.3682e-20  1.8048e-20  1.3683e-20  1.8048e-20  1.3685e-20  1.8049e-20  1.3688e-20  1.8050e-20  1.3695e-20  1.8052e-20  1.3706e-20  1.8055e-20  1.3726e-20  1.8060e-20  1.3762e-20  1.8070e-20  1.3826e-20  1.8088e-20  1.3939e-20  1.8120e-20  1.4140e-20  1.8176e-20  1.4500e-20  1.8275e-20  1.5146e-20  1.8452e-20  1.6316e-20  1.8767e-20  1.8464e-20  1.9326e-20  2.2647e-20  2.0508e-20  3.0762e-20  2.2591e-20
      1.60  1.3657e-20  2.0250e-20  1.3657e-20  2.0250e-20  1.3658e-20  2.0250e-20  1.3659e-20  2.0251e-20  1.3661e-20  2.0251e-20  1.3664e-20  2.0252e-20  1.3670e-20  2.0254e-20  1.3681e-20  2.0258e-20  1.3701e-20  2.0264e-20  1.3735e-20  2.0275e-20  1.3796e-20  2.0295e-20  1.3904e-20  2.0331e-20  1.4097e-20  2.0394e-20  1.4441e-20  2.0506e-20  1.5059e-20  2.0705e-20  1.6177e-20  2.1058e-20  1.8231e-20  2.1686e-20  2.2222e-20  2.2997e-20  2.9986e-20  2.5346e-20
      1.65  1.3635e-20  2.2721e-20  1.3635e-20  2.2721e-20  1.3636e-20  2.2721e-20  1.3637e-20  2.2722e-20  1.3638e-20  2.2722e-20  1.3642e-20  2.2723e-20  1.3648e-20  2.2726e-20  1.3658e-20  2.2730e-20  1.3676e-20  2.2737e-20  1.3709e-20  2.2749e-20  1.3767e-20  2.2772e-20  1.3871e-20  2.2812e-20  1.4055e-20  2.2882e-20  1.4385e-20  2.3008e-20  1.4977e-20  2.3232e-20  1.6046e-20  2.3629e-20  1.8011e-20  2.4335e-20  2.1818e-20  2.5786e-20  2.9249e-20  2.8435e-20
      1.70  1.3614e-20  2.5493e-20  1.3614e-20  2.5493e-20  1.3615e-20  2.5494e-20  1.3616e-20  2.5494e-20  1.3617e-20  2.5495e-20  1.3621e-20  2.5496e-20  1.3626e-20  2.5499e-20  1.3636e-20  2.5503e-20  1.3654e-20  2.5511e-20  1.3685e-20  2.5525e-20  1.3741e-20  2.5550e-20  1.3840e-20  2.5595e-20  1.4017e-20  2.5675e-20  1.4332e-20  2.5816e-20  1.4899e-20  2.6068e-20  1.5923e-20  2.6514e-20  1.7803e-20  2.7308e-20  2.1434e-20  2.8912e-20  2.8551e-20  3.1900e-20
      1.75  1.3594e-20  2.8604e-20  1.3595e-20  2.8604e-20  1.3595e-20  2.8604e-20  1.3596e-20  2.8605e-20  1.3598e-20  2.8606e-20  1.3601e-20  2.8607e-20  1.3606e-20  2.8610e-20  1.3616e-20  2.8615e-20  1.3633e-20  2.8624e-20  1.3663e-20  2.8640e-20  1.3716e-20  2.8668e-20  1.3811e-20  2.8718e-20  1.3980e-20  2.8808e-20  1.4283e-20  2.8967e-20  1.4825e-20  2.9249e-20  1.5806e-20  2.9751e-20  1.7605e-20  3.0643e-20  2.1069e-20  3.2415e-20  2.7888e-20  3.5787e-20
      1.80  1.3576e-20  3.2094e-20  1.3576e-20  3.2094e-20  1.3577e-20  3.2094e-20  1.3578e-20  3.2095e-20  1.3579e-20  3.2096e-20  1.3582e-20  3.2098e-20  1.3587e-20  3.2101e-20  1.3597e-20  3.2107e-20  1.3613e-20  3.2117e-20  1.3641e-20  3.2135e-20  1.3693e-20  3.2166e-20  1.3784e-20  3.2223e-20  1.3946e-20  3.2323e-20  1.4236e-20  3.2502e-20  1.4756e-20  3.2819e-20  1.5696e-20  3.3384e-20  1.7418e-20  3.4386e-20  2.0723e-20  3.6342e-20  2.7260e-20  4.0145e-20
      1.85  1.3559e-20  3.6010e-20  1.3559e-20  3.6010e-20  1.3560e-20  3.6011e-20  1.3561e-20  3.6011e-20  1.3562e-20  3.6012e-20  1.3565e-20  3.6014e-20  1.3570e-20  3.6018e-20  1.3579e-20  3.6024e-20  1.3594e-20  3.6036e-20  1.3622e-20  3.6056e-20  1.3671e-20  3.6091e-20  1.3758e-20  3.6155e-20  1.3914e-20  3.6268e-20  1.4192e-20  3.6469e-20  1.4690e-20  3.6825e-20  1.5592e-20  3.7460e-20  1.7241e-20  3.8586e-20  2.0398e-20  4.0758e-20  2.6663e-20  4.5032e-20
      1.90  1.3543e-20  4.0404e-20  1.3543e-20  4.0404e-20  1.3544e-20  4.0405e-20  1.3545e-20  4.0405e-20  1.3546e-20  4.0407e-20  1.3549e-20  4.0409e-20  1.3553e-20  4.0413e-20  1.3562e-20  4.0420e-20  1.3577e-20  4.0433e-20  1.3603e-20  4.0455e-20  1.3650e-20  4.0495e-20  1.3734e-20  4.0567e-20  1.3883e-20  4.0694e-20  1.4150e-20  4.0919e-20  1.4628e-20  4.1320e-20  1.5493e-20  4.2033e-20  1.7074e-20  4.3299e-20  2.0090e-20  4.5709e-20  2.6099e-20  5.0521e-20
      1.95  1.3528e-20  4.5334e-20  1.3528e-20  4.5334e-20  1.3529e-20  4.5335e-20  1.3530e-20  4.5335e-20  1.3531e-20  4.5337e-20  1.3534e-20  4.5339e-20  1.3538e-20  4.5344e-20  1.3546e-20  4.5352e-20  1.3560e-20  4.5366e-20  1.3586e-20  4.5392e-20  1.3631e-20  4.5437e-20  1.3711e-20  4.5517e-20  1.3855e-20  4.5659e-20  1.4111e-20  4.5913e-20  1.4570e-20  4.6364e-20  1.5399e-20  4.7164e-20  1.6916e-20  4.8587e-20  1.9797e-20  5.1259e-20  2.5566e-20  5.6681e-20
      2.00  1.3514e-20  5.0866e-20  1.3514e-20  5.0866e-20  1.3515e-20  5.0866e-20  1.3516e-20  5.0867e-20  1.3517e-20  5.0869e-20  1.3519e-20  5.0872e-20  1.3524e-20  5.0877e-20  1.3531e-20  5.0886e-20  1.3545e-20  5.0902e-20  1.3570e-20  5.0930e-20  1.3613e-20  5.0981e-20  1.3690e-20  5.1071e-20  1.3828e-20  5.1231e-20  1.4074e-20  5.1516e-20  1.4514e-20  5.2023e-20  1.5311e-20  5.2923e-20  1.6767e-20  5.4521e-20  1.9520e-20  5.7482e-20  2.5060e-20  6.3590e-20
      2.05  1.3501e-20  5.7072e-20  1.3501e-20  5.7072e-20  1.3502e-20  5.7073e-20  1.3503e-20  5.7074e-20  1.3504e-20  5.7076e-20  1.3506e-20  5.7079e-20  1.3510e-20  5.7085e-20  1.3518e-20  5.7095e-20  1.3531e-20  5.7113e-20  1.3554e-20  5.7145e-20  1.3596e-20  5.7202e-20  1.3670e-20  5.7303e-20  1.3803e-20  5.7483e-20  1.4039e-20  5.7803e-20  1.4462e-20  5.8372e-20  1.5227e-20  5.9384e-20  1.6626e-20  6.1180e-20  1.9256e-20  6.4458e-20  2.4581e-20  7.1341e-20
      2.10  1.3489e-20  6.4036e-20  1.3489e-20  6.4036e-20  1.3490e-20  6.4037e-20  1.3490e-20  6.4038e-20  1.3492e-20  6.4040e-20  1.3494e-20  6.4044e-20  1.3498e-20  6.4050e-20  1.3505e-20  6.4062e-20  1.3518e-20  6.4082e-20  1.3540e-20  6.4118e-20  1.3580e-20  6.4182e-20  1.3652e-20  6.4296e-20  1.3779e-20  6.4498e-20  1.4006e-20  6.4858e-20  1.4413e-20  6.5497e-20  1.5148e-20  6.6633e-20  1.6492e-20  6.8652e-20  1.9006e-20  7.2277e-20  2.4128e-20  8.0034e-20
      2.15  1.3478e-20  7.1850e-20  1.3478e-20  7.1850e-20  1.3478e-20  7.1851e-20  1.3479e-20  7.1852e-20  1.3480e-20  7.1854e-20  1.3482e-20  7.1858e-20  1.3486e-20  7.1866e-20  1.3493e-20  7.1878e-20  1.3505e-20  7.1901e-20  1.3527e-20  7.1941e-20  1.3565e-20  7.2013e-20  1.3634e-20  7.2141e-20  1.3756e-20  7.2369e-20  1.3975e-20  7.2773e-20  1.4367e-20  7.3491e-20  1.5074e-20  7.4768e-20  1.6366e-20  7.7036e-20  1.8772e-20  8.1063e-20  2.3699e-20  8.9785e-20
      2.20  1.3467e-20  8.0617e-20  1.3467e-20  8.0617e-20  1.3467e-20  8.0618e-20  1.3468e-20  8.0619e-20  1.3469e-20  8.0622e-20  1.3471e-20  8.0626e-20  1.3475e-20  8.0634e-20  1.3482e-20  8.0649e-20  1.3493e-20  8.0674e-20  1.3514e-20  8.0720e-20  1.3551e-20  8.0801e-20  1.3618e-20  8.0944e-20  1.3735e-20  8.1200e-20  1.3946e-20  8.1654e-20  1.4323e-20  8.2461e-20  1.5004e-20  8.3896e-20  1.6246e-20  8.6445e-20  1.8559e-20  9.0969e-20  2.3293e-20  1.0072e-19
      2.25  1.3457e-20  9.0453e-20  1.3457e-20  9.0454e-20  1.3457e-20  9.0455e-20  1.3458e-20  9.0456e-20  1.3459e-20  9.0459e-20  1.3461e-20  9.0464e-20  1.3465e-20  9.0473e-20  1.3471e-20  9.0490e-20  1.3482e-20  9.0518e-20  1.3503e-20  9.0569e-20  1.3538e-20  9.0660e-20  1.3602e-20  9.0821e-20  1.3716e-20  9.1108e-20  1.3919e-20  9.1619e-20  1.4282e-20  9.2526e-20  1.4937e-20  9.4138e-20  1.6134e-20  9.7002e-20  1.8358e-20  1.0209e-19  2.2907e-20  1.1298e-19
      2.30  1.3448e-20  1.0149e-19  1.3448e-20  1.0149e-19  1.3448e-20  1.0149e-19  1.3449e-20  1.0149e-19  1.3450e-20  1.0150e-19  1.3452e-20  1.0150e-19  1.3455e-20  1.0151e-19  1.3461e-20  1.0153e-19  1.3472e-20  1.0156e-19  1.3492e-20  1.0162e-19  1.3526e-20  1.0172e-19  1.3588e-20  1.0190e-19  1.3697e-20  1.0223e-19  1.3893e-20  1.0280e-19  1.4243e-20  1.0382e-19  1.4875e-20  1.0563e-19  1.6027e-20  1.0885e-19  1.8168e-20  1.1456e-19  2.2542e-20  1.2674e-19
      2.35  1.3439e-20  1.1387e-19  1.3439e-20  1.1387e-19  1.3439e-20  1.1388e-19  1.3440e-20  1.1388e-19  1.3441e-20  1.1388e-19  1.3443e-20  1.1389e-19  1.3446e-20  1.1390e-19  1.3452e-20  1.1392e-19  1.3463e-20  1.1396e-19  1.3481e-20  1.1402e-19  1.3515e-20  1.1414e-19  1.3574e-20  1.1434e-19  1.3680e-20  1.1470e-19  1.3868e-20  1.1535e-19  1.4207e-20  1.1649e-19  1.4816e-20  1.1853e-19  1.5926e-20  1.2214e-19  1.7988e-20  1.2856e-19  2.2196e-20  1.4216e-19
      2.40  1.3431e-20  1.2777e-19  1.3431e-20  1.2777e-19  1.3431e-20  1.2777e-19  1.3432e-20  1.2777e-19  1.3433e-20  1.2778e-19  1.3435e-20  1.2778e-19  1.3438e-20  1.2780e-19  1.3444e-20  1.2782e-19  1.3454e-20  1.2786e-19  1.3472e-20  1.2793e-19  1.3504e-20  1.2806e-19  1.3561e-20  1.2829e-19  1.3663e-20  1.2870e-19  1.3845e-20  1.2942e-19  1.4172e-20  1.3071e-19  1.4760e-20  1.3299e-19  1.5832e-20  1.3706e-19  1.7819e-20  1.4427e-19  2.1867e-20  1.5945e-19
      2.45  1.3423e-20  1.4336e-19  1.3423e-20  1.4336e-19  1.3424e-20  1.4336e-19  1.3424e-20  1.4336e-19  1.3425e-20  1.4337e-19  1.3427e-20  1.4338e-19  1.3430e-20  1.4339e-19  1.3436e-20  1.4342e-19  1.3445e-20  1.4346e-19  1.3463e-20  1.4354e-19  1.3494e-20  1.4369e-19  1.3549e-20  1.4395e-19  1.3648e-20  1.4440e-19  1.3824e-20  1.4522e-19  1.4139e-20  1.4666e-19  1.4708e-20  1.4923e-19  1.5742e-20  1.5379e-19  1.7659e-20  1.6190e-19  2.1556e-20  1.7884e-19
      2.50  1.3416e-20  1.6085e-19  1.3416e-20  1.6085e-19  1.3417e-20  1.6085e-19  1.3417e-20  1.6086e-19  1.3418e-20  1.6086e-19  1.3420e-20  1.6087e-19  1.3423e-20  1.6089e-19  1.3428e-20  1.6092e-19  1.3438e-20  1.6097e-19  1.3455e-20  1.6106e-19  1.3485e-20  1.6122e-19  1.3538e-20  1.6151e-19  1.3633e-20  1.6202e-19  1.3804e-20  1.6294e-19  1.4109e-20  1.6456e-19  1.4658e-20  1.6745e-19  1.5658e-20  1.7257e-19  1.7507e-20  1.8168e-19  2.1260e-20  2.0058e-19
      2.55  1.3410e-20  1.8048e-19  1.3410e-20  1.8048e-19  1.3410e-20  1.8048e-19  1.3411e-20  1.8048e-19  1.3411e-20  1.8049e-19  1.3413e-20  1.8050e-19  1.3416e-20  1.8052e-19  1.3421e-20  1.8055e-19  1.3430e-20  1.8061e-19  1.3447e-20  1.8071e-19  1.3476e-20  1.8089e-19  1.3528e-20  1.8122e-19  1.3620e-20  1.8180e-19  1.3785e-20  1.8282e-19  1.4080e-20  1.8465e-19  1.4612e-20  1.8789e-19  1.5578e-20  1.9365e-19  1.7365e-20  2.0388e-19  2.0980e-20  2.2496e-19
      2.60  1.3403e-20  2.0250e-19  1.3404e-20  2.0250e-19  1.3404e-20  2.0250e-19  1.3404e-20  2.0251e-19  1.3405e-20  2.0251e-19  1.3407e-20  2.0252e-19  1.3410e-20  2.0255e-19  1.3415e-20  2.0258e-19  1.3424e-20  2.0265e-19  1.3439e-20  2.0276e-19  1.3468e-20  2.0297e-19  1.3518e-20  2.0333e-19  1.3607e-20  2.0398e-19  1.3767e-20  2.0513e-19  1.4053e-20  2.0718e-19  1.4568e-20  2.1082e-19  1.5503e-20  2.1730e-19  1.7230e-20  2.2879e-19  2.0715e-20  2.5228e-19
      2.65  1.3398e-20  2.2721e-19  1.3398e-20  2.2721e-19  1.3398e-20  2.2721e-19  1.3399e-20  2.2722e-19  1.3399e-20  2.2722e-19  1.3401e-20  2.2724e-19  1.3404e-20  2.2726e-19  1.3409e-20  2.2730e-19  1.3417e-20  2.2737e-19  1.3433e-20  2.2750e-19  1.3460e-20  2.2773e-19  1.3509e-20  2.2814e-19  1.3595e-20  2.2887e-19  1.3750e-20  2.3017e-19  1.4027e-20  2.3247e-19  1.4526e-20  2.3656e-19  1.5433e-20  2.4383e-19  1.7104e-20  2.5674e-19  2.0464e-20  2.8290e-19
      2.70  1.3392e-20  2.5493e-19  1.3392e-20  2.5493e-19  1.3393e-20  2.5494e-19  1.3393e-20  2.5494e-19  1.3394e-20  2.5495e-19  1.3395e-20  2.5496e-19  1.3398e-20  2.5499e-19  1.3403e-20  2.5504e-19  1.3411e-20  2.5512e-19  1.3426e-20  2.5526e-19  1.3453e-20  2.5552e-19  1.3500e-20  2.5598e-19  1.3584e-20  2.5680e-19  1.3734e-20  2.5825e-19  1.4003e-20  2.6084e-19  1.4488e-20  2.6544e-19  1.5366e-20  2.7360e-19  1.6985e-20  2.8810e-19  2.0225e-20  3.1722e-19
      2.75  1.3387e-20  2.8604e-19  1.3387e-20  2.8604e-19  1.3388e-20  2.8604e-19  1.3388e-20  2.8605e-19  1.3389e-20  2.8606e-19  1.3390e-20  2.8607e-19  1.3393e-20  2.8610e-19  1.3398e-20  2.8615e-19  1.3406e-20  2.8625e-19  1.3420e-20  2.8641e-19  1.3446e-20  2.8670e-19  1.3492e-20  2.8722e-19  1.3574e-20  2.8814e-19  1.3720e-20  2.8977e-19  1.3981e-20  2.9268e-19  1.4451e-20  2.9784e-19  1.5304e-20  3.0701e-19  1.6874e-20  3.2330e-19  2.0000e-20  3.5570e-19
      2.80  1.3383e-20  3.2094e-19  1.3383e-20  3.2094e-19  1.3383e-20  3.2095e-19  1.3383e-20  3.2095e-19  1.3384e-20  3.2096e-19  1.3386e-20  3.2098e-19  1.3388e-20  3.2101e-19  1.3393e-20  3.2107e-19  1.3400e-20  3.2117e-19  1.3415e-20  3.2136e-19  1.3440e-20  3.2168e-19  1.3484e-20  3.2227e-19  1.3564e-20  3.2330e-19  1.3706e-20  3.2513e-19  1.3960e-20  3.2840e-19  1.4417e-20  3.3420e-19  1.5246e-20  3.4450e-19  1.6769e-20  3.6280e-19  1.9788e-20  3.9882e-19
      2.85  1.3378e-20  3.6010e-19  1.3378e-20  3.6010e-19  1.3379e-20  3.6011e-19  1.3379e-20  3.6011e-19  1.3380e-20  3.6013e-19  1.3381e-20  3.6015e-19  1.3384e-20  3.6018e-19  1.3388e-20  3.6025e-19  1.3396e-20  3.6036e-19  1.3409e-20  3.6057e-19  1.3434e-20  3.6094e-19  1.3477e-20  3.6159e-19  1.3555e-20  3.6275e-19  1.3693e-20  3.6481e-19  1.3941e-20  3.6847e-19  1.4386e-20  3.7499e-19  1.5192e-20  3.8656e-19  1.6672e-20  4.0712e-19  1.9589e-20  4.4717e-19
      2.90  1.3374e-20  4.0404e-19  1.3374e-20  4.0404e-19  1.3374e-20  4.0405e-19  1.3375e-20  4.0405e-19  1.3376e-20  4.0407e-19  1.3377e-20  4.0409e-19  1.3379e-20  4.0413e-19  1.3384e-20  4.0421e-19  1.3391e-20  4.0434e-19  1.3405e-20  4.0457e-19  1.3428e-20  4.0498e-19  1.3471e-20  4.0571e-19  1.3546e-20  4.0701e-19  1.3681e-20  4.0933e-19  1.3923e-20  4.1345e-19  1.4356e-20  4.2076e-19  1.5141e-20  4.3376e-19  1.6581e-20  4.5685e-19  1.9403e-20  5.0138e-19
      2.95  1.3370e-20  4.5334e-19  1.3370e-20  4.5334e-19  1.3371e-20  4.5335e-19  1.3371e-20  4.5336e-19  1.3372e-20  4.5337e-19  1.3373e-20  4.5340e-19  1.3375e-20  4.5344e-19  1.3380e-20  4.5353e-19  1.3387e-20  4.5367e-19  1.3400e-20  4.5393e-19  1.3423e-20  4.5439e-19  1.3465e-20  4.5522e-19  1.3539e-20  4.5668e-19  1.3670e-20  4.5928e-19  1.3906e-20  4.6390e-19  1.4329e-20  4.7212e-19  1.5094e-20  4.8672e-19  1.6497e-20  5.1265e-19  1.9229e-20  5.6217e-19
      3.00  1.3367e-20  5.0866e-19  1.3367e-20  5.0866e-19  1.3367e-20  5.0867e-19  1.3368e-20  5.0867e-19  1.3368e-20  5.0869e-19  1.3370e-20  5.0872e-19  1.3372e-20  5.0877e-19  1.3376e-20  5.0886e-19  1.3383e-20  5.0903e-19  1.3396e-20  5.0932e-19  1.3419e-20  5.0984e-19  1.3459e-20  5.1076e-19  1.3531e-20  5.1241e-19  1.3660e-20  5.1533e-19  1.3890e-20  5.2052e-19  1.4303e-20  5.2975e-19  1.5051e-20  5.4615e-19  1.6419e-20  5.7527e-19  1.9070e-20  6.3052e-19
      3.05  1.3363e-20  5.7072e-19  1.3364e-20  5.7073e-19  1.3364e-20  5.7073e-19  1.3364e-20  5.7074e-19  1.3365e-20  5.7076e-19  1.3366e-20  5.7079e-19  1.3368e-20  5.7085e-19  1.3372e-20  5.7096e-19  1.3379e-20  5.7114e-19  1.3392e-20  5.7147e-19  1.3414e-20  5.7205e-19  1.3454e-20  5.7309e-19  1.3524e-20  5.7493e-19  1.3650e-20  5.7821e-19  1.3876e-20  5.8404e-19  1.4280e-20  5.9441e-19  1.5010e-20  6.1282e-19  1.6346e-20  6.4553e-19  1.8923e-20  7.0722e-19
      3.10  1.3360e-20  6.4036e-19  1.3361e-20  6.4037e-19  1.3361e-20  6.4037e-19  1.3361e-20  6.4038e-19  1.3362e-20  6.4040e-19  1.3363e-20  6.4044e-19  1.3365e-20  6.4051e-19  1.3369e-20  6.4062e-19  1.3376e-20  6.4083e-19  1.3388e-20  6.4120e-19  1.3410e-20  6.4185e-19  1.3449e-20  6.4302e-19  1.3518e-20  6.4509e-19  1.3642e-20  6.4877e-19  1.3862e-20  6.5532e-19  1.4258e-20  6.6696e-19  1.4972e-20  6.8764e-19  1.6277e-20  7.2437e-19  1.8785e-20  7.9326e-19
      3.15  1.3358e-20  7.1850e-19  1.3358e-20  7.1850e-19  1.3358e-20  7.1851e-19  1.3358e-20  7.1852e-19  1.3359e-20  7.1855e-19  1.3360e-20  7.1859e-19  1.3362e-20  7.1866e-19  1.3366e-20  7.1879e-19  1.3373e-20  7.1902e-19  1.3385e-20  7.1944e-19  1.3406e-20  7.2017e-19  1.3444e-20  7.2148e-19  1.3512e-20  7.2381e-19  1.3633e-20  7.2794e-19  1.3849e-20  7.3529e-19  1.4237e-20  7.4836e-19  1.4937e-20  7.7159e-19  1.6213e-20  8.1284e-19  1.8655e-20  8.8976e-19
      3.20  1.3355e-20  8.0617e-19  1.3355e-20  8.0617e-19  1.3355e-20  8.0618e-19  1.3356e-20  8.0620e-19  1.3356e-20  8.0622e-19  1.3357e-20  8.0627e-19  1.3360e-20  8.0635e-19  1.3363e-20  8.0650e-19  1.3370e-20  8.0676e-19  1.3382e-20  8.0722e-19  1.3403e-20  8.0805e-19  1.3440e-20  8.0952e-19  1.3507e-20  8.1213e-19  1.3625e-20  8.1677e-19  1.3837e-20  8.2503e-19  1.4218e-20  8.3970e-19  1.4903e-20  8.6578e-19  1.6153e-20  9.1211e-19  1.8532e-20  9.9797e-19
      3.25  1.3352e-20  9.0454e-19  1.3353e-20  9.0454e-19  1.3353e-20  9.0455e-19  1.3353e-20  9.0457e-19  1.3354e-20  9.0460e-19  1.3355e-20  9.0465e-19  1.3357e-20  9.0474e-19  1.3361e-20  9.0491e-19  1.3367e-20  9.0520e-19  1.3379e-20  9.0572e-19  1.3399e-20  9.0665e-19  1.3436e-20  9.0830e-19  1.3501e-20  9.1123e-19  1.3618e-20  9.1644e-19  1.3826e-20  9.2571e-19  1.4199e-20  9.4219e-19  1.4872e-20  9.7148e-19  1.6096e-20  1.0235e-18  1.8415e-20  1.1193e-18
      3.30  1.3350e-20  1.0149e-18  1.3350e-20  1.0149e-18  1.3350e-20  1.0149e-18  1.3351e-20  1.0149e-18  1.3351e-20  1.0150e-18  1.3353e-20  1.0150e-18  1.3355e-20  1.0151e-18  1.3358e-20  1.0153e-18  1.3365e-20  1.0157e-18  1.3376e-20  1.0162e-18  1.3396e-20  1.0173e-18  1.3432e-20  1.0191e-18  1.3497e-20  1.0224e-18  1.3611e-20  1.0283e-18  1.3816e-20  1.0387e-18  1.4182e-20  1.0572e-18  1.4842e-20  1.0901e-18  1.6043e-20  1.1485e-18  1.8304e-20  1.2553e-18
      3.35  1.3348e-20  1.1387e-18  1.3348e-20  1.1387e-18  1.3348e-20  1.1388e-18  1.3349e-20  1.1388e-18  1.3349e-20  1.1388e-18  1.3350e-20  1.1389e-18  1.3352e-20  1.1390e-18  1.3356e-20  1.1392e-18  1.3362e-20  1.1396e-18  1.3373e-20  1.1402e-18  1.3393e-20  1.1414e-18  1.3429e-20  1.1435e-18  1.3492e-20  1.1472e-18  1.3605e-20  1.1538e-18  1.3806e-20  1.1654e-18  1.4166e-20  1.1862e-18  1.4814e-20  1.2232e-18  1.5992e-20  1.2888e-18  1.8198e-20  1.4079e-18
      3.40  1.3346e-20  1.2777e-18  1.3346e-20  1.2777e-18  1.3346e-20  1.2777e-18  1.3347e-20  1.2777e-18  1.3347e-20  1.2778e-18  1.3348e-20  1.2778e-18  1.3350e-20  1.2780e-18  1.3354e-20  1.2782e-18  1.3360e-20  1.2786e-18  1.3371e-20  1.2794e-18  1.3391e-20  1.2807e-18  1.3426e-20  1.2830e-18  1.3488e-20  1.2872e-18  1.3599e-20  1.2946e-18  1.3796e-20  1.3077e-18  1.4150e-20  1.3310e-18  1.4788e-20  1.3725e-18  1.5944e-20  1.4461e-18  1.8097e-20  1.5789e-18
      3.45  1.3344e-20  1.4336e-18  1.3344e-20  1.4336e-18  1.3344e-20  1.4336e-18  1.3345e-20  1.4336e-18  1.3345e-20  1.4337e-18  1.3346e-20  1.4338e-18  1.3348e-20  1.4339e-18  1.3352e-20  1.4342e-18  1.3358e-20  1.4346e-18  1.3369e-20  1.4355e-18  1.3388e-20  1.4370e-18  1.3422e-20  1.4396e-18  1.3484e-20  1.4442e-18  1.3593e-20  1.4525e-18  1.3788e-20  1.4673e-18  1.4136e-20  1.4935e-18  1.4763e-20  1.5400e-18  1.5900e-20  1.6227e-18  1.8001e-20  1.7707e-18
      3.50  1.3342e-20  1.6085e-18  1.3342e-20  1.6085e-18  1.3343e-20  1.6085e-18  1.3343e-20  1.6086e-18  1.3344e-20  1.6086e-18  1.3345e-20  1.6087e-18  1.3347e-20  1.6089e-18  1.3350e-20  1.6092e-18  1.3356e-20  1.6097e-18  1.3367e-20  1.6106e-18  1.3386e-20  1.6123e-18  1.3420e-20  1.6152e-18  1.3480e-20  1.6205e-18  1.3587e-20  1.6298e-18  1.3779e-20  1.6463e-18  1.4122e-20  1.6757e-18  1.4739e-20  1.7280e-18  1.5857e-20  1.8209e-18  1.7910e-20  1.9858e-18
      3.55  1.3341e-20  1.8048e-18  1.3341e-20  1.8048e-18  1.3341e-20  1.8048e-18  1.3341e-20  1.8048e-18  1.3342e-20  1.8049e-18  1.3343e-20  1.8050e-18  1.3345e-20  1.8052e-18  1.3348e-20  1.8055e-18  1.3354e-20  1.8061e-18  1.3365e-20  1.8072e-18  1.3383e-20  1.8090e-18  1.3417e-20  1.8123e-18  1.3476e-20  1.8182e-18  1.3582e-20  1.8287e-18  1.3771e-20  1.8472e-18  1.4110e-20  1.8803e-18  1.4717e-20  1.9390e-18  1.5817e-20  2.0433e-18  1.7834e-20  2.2285e-18
      3.60  1.3339e-20  2.0250e-18  1.3339e-20  2.0250e-18  1.3339e-20  2.0250e-18  1.3340e-20  2.0251e-18  1.3340e-20  2.0251e-18  1.3341e-20  2.0253e-18  1.3343e-20  2.0255e-18  1.3347e-20  2.0258e-18  1.3352e-20  2.0265e-18  1.3363e-20  2.0277e-18  1.3381e-20  2.0298e-18  1.3414e-20  2.0335e-18  1.3473e-20  2.0401e-18  1.3578e-20  2.0518e-18  1.3764e-20  2.0727e-18  1.4097e-20  2.1098e-18  1.4696e-20  2.1757e-18  1.5779e-20  2.2928e-18  1.7763e-20  2.5008e-18
      3.65  1.3338e-20  2.2721e-18  1.3338e-20  2.2721e-18  1.3338e-20  2.2721e-18  1.3338e-20  2.2722e-18  1.3339e-20  2.2722e-18  1.3340e-20  2.2724e-18  1.3342e-20  2.2726e-18  1.3345e-20  2.2730e-18  1.3351e-20  2.2738e-18  1.3361e-20  2.2751e-18  1.3379e-20  2.2774e-18  1.3412e-20  2.2816e-18  1.3470e-20  2.2890e-18  1.3573e-20  2.3022e-18  1.3757e-20  2.3256e-18  1.4086e-20  2.3673e-18  1.4676e-20  2.4413e-18  1.5744e-20  2.5728e-18  1.7695e-20  2.8063e-18
      3.70  1.3336e-20  2.5493e-18  1.3337e-20  2.5493e-18  1.3337e-20  2.5494e-18  1.3337e-20  2.5494e-18  1.3338e-20  2.5495e-18  1.3339e-20  2.5496e-18  1.3340e-20  2.5499e-18  1.3344e-20  2.5504e-18  1.3349e-20  2.5512e-18  1.3360e-20  2.5527e-18  1.3378e-20  2.5553e-18  1.3410e-20  2.5600e-18  1.3467e-20  2.5683e-18  1.3569e-20  2.5831e-18  1.3751e-20  2.6094e-18  1.4075e-20  2.6562e-18  1.4658e-20  2.7393e-18  1.5710e-20  2.8870e-18  1.7631e-20  3.1492e-18
      3.75  1.3335e-20  2.8604e-18  1.3335e-20  2.8604e-18  1.3336e-20  2.8604e-18  1.3336e-20  2.8605e-18  1.3336e-20  2.8606e-18  1.3337e-20  2.8608e-18  1.3339e-20  2.8610e-18  1.3342e-20  2.8616e-18  1.3348e-20  2.8625e-18  1.3358e-20  2.8642e-18  1.3376e-20  2.8671e-18  1.3408e-20  2.8724e-18  1.3464e-20  2.8817e-18  1.3565e-20  2.8983e-18  1.3744e-20  2.9279e-18  1.4065e-20  2.9804e-18  1.4640e-20  3.0737e-18  1.5678e-20  3.2396e-18  1.7571e-20  3.5340e-18
      3.80  1.3334e-20  3.2094e-18  1.3334e-20  3.2094e-18  1.3334e-20  3.2095e-18  1.3335e-20  3.2095e-18  1.3335e-20  3.2096e-18  1.3336e-20  3.2098e-18  1.3338e-20  3.2101e-18  1.3341e-20  3.2107e-18  1.3347e-20  3.2118e-18  1.3357e-20  3.2137e-18  1.3374e-20  3.2170e-18  1.3406e-20  3.2229e-18  1.3462e-20  3.2334e-18  1.3561e-20  3.2520e-18  1.3739e-20  3.2852e-18  1.4055e-20  3.3442e-18  1.4624e-20  3.4490e-18  1.5648e-20  3.6352e-18  1.7514e-20  3.9658e-18
      3.85  1.3333e-20  3.6010e-18  1.3333e-20  3.6010e-18  1.3333e-20  3.6011e-18  1.3334e-20  3.6011e-18  1.3334e-20  3.6013e-18  1.3335e-20  3.6015e-18  1.3337e-20  3.6018e-18  1.3340e-20  3.6025e-18  1.3346e-20  3.6037e-18  1.3355e-20  3.6058e-18  1.3373e-20  3.6095e-18  1.3404e-20  3.6161e-18  1.3459e-20  3.6279e-18  1.3558e-20  3.6489e-18  1.3733e-20  3.6861e-18  1.4046e-20  3.7523e-18  1.4608e-20  3.8700e-18  1.5620e-20  4.0791e-18  1.7461e-20  4.4504e-18
      3.90  1.3332e-20  4.0404e-18  1.3332e-20  4.0404e-18  1.3332e-20  4.0405e-18  1.3333e-20  4.0406e-18  1.3333e-20  4.0407e-18  1.3334e-20  4.0409e-18  1.3336e-20  4.0413e-18  1.3339e-20  4.0421e-18  1.3344e-20  4.0434e-18  1.3354e-20  4.0458e-18  1.3371e-20  4.0499e-18  1.3402e-20  4.0574e-18  1.3457e-20  4.0706e-18  1.3554e-20  4.0941e-18  1.3728e-20  4.1359e-18  1.4038e-20  4.2103e-18  1.4593e-20  4.3424e-18  1.5593e-20  4.5772e-18  1.7411e-20  4.9941e-18
      3.95  1.3331e-20  4.5334e-18  1.3331e-20  4.5334e-18  1.3331e-20  4.5335e-18  1.3332e-20  4.5336e-18  1.3332e-20  4.5337e-18  1.3333e-20  4.5340e-18  1.3335e-20  4.5345e-18  1.3338e-20  4.5353e-18  1.3343e-20  4.5368e-18  1.3353e-20  4.5394e-18  1.3370e-20  4.5441e-18  1.3401e-20  4.5525e-18  1.3455e-20  4.5673e-18  1.3551e-20  4.5937e-18  1.3723e-20  4.6407e-18  1.4030e-20  4.7241e-18  1.4579e-20  4.8725e-18  1.5568e-20  5.1361e-18  1.7363e-20  5.6043e-18
