# This was generated using Cloudy10 and the columns are ordered 
# as log10 of the fraction of the metallicity to the solar metallicity
# 'h_*_Z' and 'c_*_Z' stands for cooling and heating respectively 
# at * metalicity
#
# NOTE: This was generated separately from loop_coolingcurve_w_UV.py
#       using Output_metals_w_redshift.py.
#
# Redshift = 3.5
# hden = -1.0
#
#     temp   h_-3.00_Z   c_-3.00_Z   h_-2.75_Z   c_-2.75_Z   h_-2.50_Z   c_-2.50_Z   h_-2.25_Z   c_-2.25_Z   h_-2.00_Z   c_-2.00_Z   h_-1.75_Z   c_-1.75_Z   h_-1.50_Z   c_-1.50_Z   h_-1.25_Z   c_-1.25_Z   h_-1.00_Z   c_-1.00_Z   h_-0.75_Z   c_-0.75_Z   h_-0.50_Z   c_-0.50_Z   h_-0.25_Z   c_-0.25_Z    h_0.00_Z    c_0.00_Z    h_0.25_Z    c_0.25_Z    h_0.50_Z    c_0.50_Z    h_0.75_Z    c_0.75_Z    h_1.00_Z    c_1.00_Z    h_1.25_Z    c_1.25_Z    h_1.50_Z    c_1.50_Z 
      1.00  4.5687e-23  8.7859e-27  4.5688e-23  8.7861e-27  4.5688e-23  8.7865e-27  4.5689e-23  8.7872e-27  4.5691e-23  8.7884e-27  4.5694e-23  8.7905e-27  4.5699e-23  8.7944e-27  4.5708e-23  8.8012e-27  4.5725e-23  8.8133e-27  4.5754e-23  8.8348e-27  4.5807e-23  8.8732e-27  4.5900e-23  8.9413e-27  4.6065e-23  9.0626e-27  4.6360e-23  9.2785e-27  4.6884e-23  9.6633e-27  4.7817e-23  1.0350e-26  4.9477e-23  1.1578e-26  5.2434e-23  1.3786e-26  5.7707e-23  1.7784e-26
      1.05  4.4906e-23  9.6732e-27  4.4906e-23  9.6737e-27  4.4907e-23  9.6746e-27  4.4908e-23  9.6761e-27  4.4909e-23  9.6788e-27  4.4912e-23  9.6836e-27  4.4917e-23  9.6921e-27  4.4927e-23  9.7073e-27  4.4943e-23  9.7342e-27  4.4972e-23  9.7822e-27  4.5024e-23  9.8675e-27  4.5117e-23  1.0019e-26  4.5282e-23  1.0289e-26  4.5575e-23  1.0770e-26  4.6096e-23  1.1628e-26  4.7023e-23  1.3158e-26  4.8673e-23  1.5897e-26  5.1612e-23  2.0825e-26  5.6853e-23  2.9765e-26
      1.10  4.4111e-23  1.0688e-26  4.4112e-23  1.0689e-26  4.4112e-23  1.0690e-26  4.4113e-23  1.0694e-26  4.4115e-23  1.0699e-26  4.4118e-23  1.0710e-26  4.4123e-23  1.0728e-26  4.4132e-23  1.0760e-26  4.4148e-23  1.0817e-26  4.4178e-23  1.0918e-26  4.4229e-23  1.1099e-26  4.4321e-23  1.1421e-26  4.4485e-23  1.1993e-26  4.4776e-23  1.3011e-26  4.5294e-23  1.4826e-26  4.6215e-23  1.8068e-26  4.7854e-23  2.3873e-26  5.0774e-23  3.4327e-26  5.5981e-23  5.3318e-26
      1.15  4.3305e-23  1.1950e-26  4.3305e-23  1.1952e-26  4.3306e-23  1.1955e-26  4.3307e-23  1.1962e-26  4.3308e-23  1.1973e-26  4.3311e-23  1.1993e-26  4.3316e-23  1.2029e-26  4.3325e-23  1.2093e-26  4.3342e-23  1.2207e-26  4.3370e-23  1.2409e-26  4.3422e-23  1.2769e-26  4.3513e-23  1.3408e-26  4.3676e-23  1.4547e-26  4.3965e-23  1.6575e-26  4.4479e-23  2.0189e-26  4.5393e-23  2.6645e-26  4.7021e-23  3.8211e-26  4.9920e-23  5.9052e-26  5.5089e-23  9.6959e-26
      1.20  4.2486e-23  1.3317e-26  4.2486e-23  1.3321e-26  4.2487e-23  1.3327e-26  4.2488e-23  1.3339e-26  4.2489e-23  1.3360e-26  4.2492e-23  1.3398e-26  4.2497e-23  1.3465e-26  4.2506e-23  1.3585e-26  4.2523e-23  1.3797e-26  4.2551e-23  1.4174e-26  4.2602e-23  1.4846e-26  4.2693e-23  1.6041e-26  4.2854e-23  1.8167e-26  4.3141e-23  2.1953e-26  4.3651e-23  2.8703e-26  4.4558e-23  4.0761e-26  4.6173e-23  6.2374e-26  4.9049e-23  1.0134e-25  5.4177e-23  1.7228e-25
      1.25  4.1656e-23  1.4798e-26  4.1656e-23  1.4805e-26  4.1657e-23  1.4817e-26  4.1658e-23  1.4838e-26  4.1659e-23  1.4875e-26  4.1662e-23  1.4941e-26  4.1667e-23  1.5059e-26  4.1676e-23  1.5269e-26  4.1692e-23  1.5641e-26  4.1720e-23  1.6304e-26  4.1771e-23  1.7483e-26  4.1861e-23  1.9580e-26  4.2021e-23  2.3312e-26  4.2305e-23  2.9960e-26  4.2811e-23  4.1812e-26  4.3710e-23  6.2988e-26  4.5311e-23  1.0095e-25  4.8163e-23  1.6944e-25  5.3246e-23  2.9424e-25
      1.30  4.0815e-23  1.6405e-26  4.0815e-23  1.6416e-26  4.0815e-23  1.6435e-26  4.0816e-23  1.6470e-26  4.0818e-23  1.6532e-26  4.0821e-23  1.6641e-26  4.0826e-23  1.6837e-26  4.0835e-23  1.7184e-26  4.0850e-23  1.7801e-26  4.0879e-23  1.8899e-26  4.0929e-23  2.0853e-26  4.1018e-23  2.4328e-26  4.1176e-23  3.0514e-26  4.1458e-23  4.1531e-26  4.1959e-23  6.1175e-26  4.2850e-23  9.6278e-26  4.4437e-23  1.5923e-25  4.7263e-23  2.7284e-25  5.2300e-23  4.8004e-25
      1.35  3.9963e-23  1.8145e-26  3.9963e-23  1.8162e-26  3.9964e-23  1.8193e-26  3.9965e-23  1.8247e-26  3.9966e-23  1.8344e-26  3.9969e-23  1.8517e-26  3.9974e-23  1.8824e-26  3.9983e-23  1.9369e-26  3.9998e-23  2.0340e-26  4.0026e-23  2.2065e-26  4.0076e-23  2.5135e-26  4.0164e-23  3.0597e-26  4.0321e-23  4.0318e-26  4.0600e-23  5.7632e-26  4.1096e-23  8.8509e-26  4.1980e-23  1.4369e-25  4.3551e-23  2.4267e-25  4.6350e-23  4.2138e-25  5.1340e-23  7.4756e-25
      1.40  3.9101e-23  2.0029e-26  3.9101e-23  2.0055e-26  3.9102e-23  2.0101e-26  3.9103e-23  2.0183e-26  3.9104e-23  2.0328e-26  3.9107e-23  2.0586e-26  3.9112e-23  2.1046e-26  3.9121e-23  2.1863e-26  3.9136e-23  2.3316e-26  3.9164e-23  2.5900e-26  3.9213e-23  3.0497e-26  3.9300e-23  3.8675e-26  3.9456e-23  5.3232e-26  3.9732e-23  7.9161e-26  4.0224e-23  1.2540e-25  4.1098e-23  2.0805e-25  4.2654e-23  3.5635e-25  4.5426e-23  6.2419e-25  5.0365e-23  1.1134e-24
      1.45  3.8230e-23  2.2069e-26  3.8230e-23  2.2106e-26  3.8231e-23  2.2172e-26  3.8232e-23  2.2289e-26  3.8233e-23  2.2497e-26  3.8236e-23  2.2867e-26  3.8241e-23  2.3526e-26  3.8250e-23  2.4697e-26  3.8265e-23  2.6780e-26  3.8292e-23  3.0484e-26  3.8341e-23  3.7074e-26  3.8427e-23  4.8798e-26  3.8581e-23  6.9667e-26  3.8855e-23  1.0684e-25  3.9341e-23  1.7314e-25  4.0207e-23  2.9165e-25  4.1747e-23  5.0433e-25  4.4490e-23  8.8860e-25  4.9379e-23  1.5909e-24
      1.50  3.7350e-23  2.4274e-26  3.7351e-23  2.4325e-26  3.7351e-23  2.4416e-26  3.7352e-23  2.4577e-26  3.7354e-23  2.4864e-26  3.7356e-23  2.5375e-26  3.7361e-23  2.6283e-26  3.7370e-23  2.7897e-26  3.7385e-23  3.0768e-26  3.7412e-23  3.5875e-26  3.7460e-23  4.4959e-26  3.7546e-23  6.1121e-26  3.7698e-23  8.9889e-26  3.7968e-23  1.4114e-25  3.8450e-23  2.3254e-25  3.9306e-23  3.9595e-25  4.0830e-23  6.8927e-25  4.3544e-23  1.2194e-24  4.8380e-23  2.1888e-24
      1.55  3.6463e-23  2.6661e-26  3.6463e-23  2.6729e-26  3.6464e-23  2.6850e-26  3.6464e-23  2.7065e-26  3.6466e-23  2.7447e-26  3.6469e-23  2.8127e-26  3.6473e-23  2.9335e-26  3.6482e-23  3.1485e-26  3.6497e-23  3.5307e-26  3.6524e-23  4.2106e-26  3.6571e-23  5.4200e-26  3.6656e-23  7.5719e-26  3.6806e-23  1.1402e-25  3.7074e-23  1.8226e-25  3.7550e-23  3.0397e-25  3.8397e-23  5.2158e-25  3.9904e-23  9.1226e-25  4.2588e-23  1.6186e-24  4.7369e-23  2.9108e-24
      1.60  3.5568e-23  2.9238e-26  3.5568e-23  2.9326e-26  3.5569e-23  2.9482e-26  3.5570e-23  2.9759e-26  3.5571e-23  3.0252e-26  3.5574e-23  3.1130e-26  3.5579e-23  3.2690e-26  3.5587e-23  3.5465e-26  3.5602e-23  4.0400e-26  3.5628e-23  4.9177e-26  3.5675e-23  6.4791e-26  3.5759e-23  9.2572e-26  3.5908e-23  1.4202e-25  3.6172e-23  2.3012e-25  3.6643e-23  3.8726e-25  3.7480e-23  6.6826e-25  3.8969e-23  1.1728e-24  4.1620e-23  2.0853e-24  4.6344e-23  3.7554e-24
      1.65  3.4667e-23  3.2016e-26  3.4667e-23  3.2127e-26  3.4668e-23  3.2323e-26  3.4669e-23  3.2671e-26  3.4670e-23  3.3292e-26  3.4673e-23  3.4394e-26  3.4677e-23  3.6355e-26  3.4686e-23  3.9842e-26  3.4700e-23  4.6044e-26  3.4727e-23  5.7074e-26  3.4773e-23  7.6695e-26  3.4855e-23  1.1161e-25  3.5002e-23  1.7375e-25  3.5263e-23  2.8446e-25  3.5728e-23  4.8197e-25  3.6554e-23  8.3515e-25  3.8024e-23  1.4694e-24  4.0640e-23  2.6168e-24  4.5300e-23  4.7178e-24
      1.70  3.3761e-23  3.5010e-26  3.3761e-23  3.5145e-26  3.3762e-23  3.5386e-26  3.3762e-23  3.5814e-26  3.3764e-23  3.6575e-26  3.3766e-23  3.7929e-26  3.3771e-23  4.0337e-26  3.3779e-23  4.4619e-26  3.3794e-23  5.2235e-26  3.3819e-23  6.5780e-26  3.3865e-23  8.9874e-26  3.3946e-23  1.3275e-25  3.4091e-23  2.0906e-25  3.4348e-23  3.4502e-25  3.4806e-23  5.8757e-25  3.5620e-23  1.0213e-24  3.7068e-23  1.8004e-24  3.9645e-23  3.2101e-24  4.4235e-23  5.7925e-24
      1.75  3.2850e-23  3.8231e-26  3.2850e-23  3.8394e-26  3.2851e-23  3.8684e-26  3.2851e-23  3.9200e-26  3.2853e-23  4.0117e-26  3.2855e-23  4.1748e-26  3.2860e-23  4.4648e-26  3.2868e-23  4.9806e-26  3.2882e-23  5.8980e-26  3.2907e-23  7.5296e-26  3.2952e-23  1.0432e-25  3.3032e-23  1.5596e-25  3.3175e-23  2.4789e-25  3.3427e-23  4.1168e-25  3.3877e-23  7.0387e-25  3.4677e-23  1.2265e-24  3.6101e-23  2.1652e-24  3.8633e-23  3.8642e-24  4.3142e-23  6.9774e-24
      1.80  3.1936e-23  4.1703e-26  3.1936e-23  4.1896e-26  3.1936e-23  4.2240e-26  3.1937e-23  4.2852e-26  3.1938e-23  4.3940e-26  3.1941e-23  4.5875e-26  3.1945e-23  4.9315e-26  3.1953e-23  5.5434e-26  3.1967e-23  6.6316e-26  3.1992e-23  8.5671e-26  3.2036e-23  1.2010e-25  3.2114e-23  1.8136e-25  3.2254e-23  2.9042e-25  3.2502e-23  4.8471e-25  3.2942e-23  8.3134e-25  3.3726e-23  1.4514e-24  3.5121e-23  2.5652e-24  3.7602e-23  4.5813e-24  4.2018e-23  8.2769e-24
      1.85  3.1019e-23  4.5432e-26  3.1019e-23  4.5659e-26  3.1019e-23  4.6062e-26  3.1020e-23  4.6780e-26  3.1021e-23  4.8055e-26  3.1024e-23  5.0324e-26  3.1028e-23  5.4358e-26  3.1036e-23  6.1533e-26  3.1049e-23  7.4293e-26  3.1074e-23  9.6988e-26  3.1117e-23  1.3736e-25  3.1193e-23  2.0919e-25  3.1329e-23  3.3707e-25  3.1571e-23  5.6490e-25  3.2002e-23  9.7138e-25  3.2768e-23  1.6985e-24  3.4129e-23  3.0048e-24  3.6551e-23  5.3695e-24  4.0859e-23  9.7052e-24
      1.90  3.0100e-23  4.9433e-26  3.0101e-23  4.9697e-26  3.0101e-23  5.0166e-26  3.0102e-23  5.1001e-26  3.0103e-23  5.2484e-26  3.0105e-23  5.5123e-26  3.0110e-23  5.9814e-26  3.0117e-23  6.8159e-26  3.0130e-23  8.2998e-26  3.0154e-23  1.0939e-25  3.0196e-23  1.5634e-25  3.0270e-23  2.3989e-25  3.0403e-23  3.8861e-25  3.0638e-23  6.5357e-25  3.1057e-23  1.1263e-24  3.1801e-23  1.9720e-24  3.3126e-23  3.4913e-24  3.5480e-23  6.2420e-24  3.9666e-23  1.1286e-23
      1.95  2.9182e-23  5.3723e-26  2.9182e-23  5.4028e-26  2.9182e-23  5.4570e-26  2.9183e-23  5.5534e-26  2.9184e-23  5.7249e-26  2.9186e-23  6.0299e-26  2.9191e-23  6.5722e-26  2.9198e-23  7.5367e-26  2.9211e-23  9.2521e-26  2.9233e-23  1.2303e-25  2.9274e-23  1.7730e-25  2.9346e-23  2.7387e-25  2.9475e-23  4.4578e-25  2.9703e-23  7.5205e-25  3.0110e-23  1.2985e-24  3.0832e-23  2.2760e-24  3.2116e-23  4.0322e-24  3.4399e-23  7.2117e-24  3.8456e-23  1.3042e-23
      2.00  2.8264e-23  5.8317e-26  2.8264e-23  5.8668e-26  2.8264e-23  5.9294e-26  2.8265e-23  6.0405e-26  2.8266e-23  6.2383e-26  2.8268e-23  6.5899e-26  2.8272e-23  7.2152e-26  2.8279e-23  8.3272e-26  2.8292e-23  1.0305e-25  2.8314e-23  1.3823e-25  2.8353e-23  2.0080e-25  2.8423e-23  3.1214e-25  2.8547e-23  5.1034e-25  2.8767e-23  8.6346e-25  2.9159e-23  1.4935e-24  2.9856e-23  2.6205e-24  3.1095e-23  4.6452e-24  3.3297e-23  8.3109e-24  3.7207e-23  1.5032e-23
      2.05  2.7348e-23  6.3251e-26  2.7348e-23  6.3656e-26  2.7348e-23  6.4375e-26  2.7349e-23  6.5654e-26  2.7350e-23  6.7928e-26  2.7352e-23  7.1973e-26  2.7356e-23  7.9166e-26  2.7363e-23  9.1957e-26  2.7375e-23  1.1471e-25  2.7396e-23  1.5517e-25  2.7433e-23  2.2715e-25  2.7501e-23  3.5522e-25  2.7620e-23  5.8320e-25  2.7832e-23  9.8939e-25  2.8209e-23  1.7141e-24  2.8879e-23  3.0104e-24  3.0069e-23  5.3393e-24  3.2185e-23  9.5553e-24  3.5940e-23  1.7285e-23
      2.10  2.6435e-23  6.8526e-26  2.6435e-23  6.8990e-26  2.6435e-23  6.9815e-26  2.6436e-23  7.1283e-26  2.6437e-23  7.3893e-26  2.6439e-23  7.8533e-26  2.6443e-23  8.6787e-26  2.6449e-23  1.0146e-25  2.6461e-23  1.2757e-25  2.6481e-23  1.7399e-25  2.6517e-23  2.5658e-25  2.6581e-23  4.0353e-25  2.6696e-23  6.6512e-25  2.6899e-23  1.1312e-24  2.7260e-23  1.9627e-24  2.7903e-23  3.4499e-24  2.9044e-23  6.1218e-24  3.1071e-23  1.0958e-23  3.4668e-23  1.9824e-23
      2.15  2.5526e-23  7.4157e-26  2.5526e-23  7.4688e-26  2.5527e-23  7.5632e-26  2.5527e-23  7.7310e-26  2.5529e-23  8.0295e-26  2.5530e-23  8.5603e-26  2.5534e-23  9.5042e-26  2.5540e-23  1.1183e-25  2.5551e-23  1.4168e-25  2.5570e-23  1.9478e-25  2.5605e-23  2.8924e-25  2.5667e-23  4.5731e-25  2.5776e-23  7.5650e-25  2.5971e-23  1.2895e-24  2.6316e-23  2.2405e-24  2.6931e-23  3.9413e-24  2.8023e-23  6.9967e-24  2.9963e-23  1.2527e-23  3.3404e-23  2.2662e-23
      2.20  2.4623e-23  8.0161e-26  2.4624e-23  8.0766e-26  2.4624e-23  8.1841e-26  2.4624e-23  8.3752e-26  2.4625e-23  8.7151e-26  2.4627e-23  9.3195e-26  2.4631e-23  1.0394e-25  2.4637e-23  1.2306e-25  2.4647e-23  1.5706e-25  2.4666e-23  2.1753e-25  2.4699e-23  3.2509e-25  2.4758e-23  5.1648e-25  2.4862e-23  8.5717e-25  2.5048e-23  1.4641e-24  2.5379e-23  2.5470e-24  2.5967e-23  4.4836e-24  2.7011e-23  7.9624e-24  2.8866e-23  1.4258e-23  3.2154e-23  2.5793e-23
      2.25  2.3727e-23  8.6555e-26  2.3727e-23  8.7239e-26  2.3728e-23  8.8456e-26  2.3728e-23  9.0621e-26  2.3729e-23  9.4470e-26  2.3731e-23  1.0131e-25  2.3734e-23  1.1349e-25  2.3740e-23  1.3514e-25  2.3750e-23  1.7363e-25  2.3768e-23  2.4211e-25  2.3799e-23  3.6392e-25  2.3856e-23  5.8065e-25  2.3956e-23  9.6646e-25  2.4134e-23  1.6538e-24  2.4450e-23  2.8799e-24  2.5012e-23  5.0728e-24  2.6011e-23  9.0114e-24  2.7784e-23  1.6138e-23  3.0927e-23  2.9194e-23
      2.30  2.2839e-23  9.3390e-26  2.2839e-23  9.4160e-26  2.2840e-23  9.5530e-26  2.2840e-23  9.7966e-26  2.2841e-23  1.0230e-25  2.2843e-23  1.1000e-25  2.2846e-23  1.2370e-25  2.2851e-23  1.4805e-25  2.2861e-23  1.9137e-25  2.2878e-23  2.6842e-25  2.2908e-23  4.0548e-25  2.2961e-23  6.4935e-25  2.3056e-23  1.0835e-24  2.3225e-23  1.8568e-24  2.3525e-23  3.2364e-24  2.4058e-23  5.7034e-24  2.5006e-23  1.0134e-23  2.6689e-23  1.8149e-23  2.9672e-23  3.2827e-23
      2.35  2.1960e-23  1.0065e-25  2.1961e-23  1.0151e-25  2.1961e-23  1.0304e-25  2.1961e-23  1.0575e-25  2.1962e-23  1.1059e-25  2.1964e-23  1.1918e-25  2.1967e-23  1.3447e-25  2.1972e-23  1.6165e-25  2.1981e-23  2.0999e-25  2.1997e-23  2.9597e-25  2.2026e-23  4.4892e-25  2.2078e-23  7.2106e-25  2.2170e-23  1.2055e-24  2.2332e-23  2.0685e-24  2.2622e-23  3.6079e-24  2.3136e-23  6.3608e-24  2.4050e-23  1.1304e-23  2.5672e-23  2.0247e-23  2.8548e-23  3.6621e-23
      2.40  2.1092e-23  1.0834e-25  2.1092e-23  1.0929e-25  2.1093e-23  1.1098e-25  2.1093e-23  1.1399e-25  2.1094e-23  1.1934e-25  2.1096e-23  1.2885e-25  2.1098e-23  1.4577e-25  2.1103e-23  1.7585e-25  2.1112e-23  2.2934e-25  2.1128e-23  3.2449e-25  2.1156e-23  4.9375e-25  2.1206e-23  7.9490e-25  2.1294e-23  1.3310e-24  2.1451e-23  2.2859e-24  2.1730e-23  3.9895e-24  2.2227e-23  7.0357e-24  2.3108e-23  1.2506e-23  2.4673e-23  2.2400e-23  2.7446e-23  4.0515e-23
      2.45  2.0236e-23  1.1649e-25  2.0236e-23  1.1753e-25  2.0236e-23  1.1939e-25  2.0237e-23  1.2269e-25  2.0238e-23  1.2856e-25  2.0239e-23  1.3900e-25  2.0242e-23  1.5756e-25  2.0247e-23  1.9057e-25  2.0255e-23  2.4928e-25  2.0270e-23  3.5371e-25  2.0297e-23  5.3946e-25  2.0345e-23  8.6996e-25  2.0431e-23  1.4583e-24  2.0582e-23  2.5063e-24  2.0852e-23  4.3758e-24  2.1331e-23  7.7187e-24  2.2181e-23  1.3721e-23  2.3690e-23  2.4578e-23  2.6364e-23  4.4452e-23
      2.50  1.9392e-23  1.2510e-25  1.9393e-23  1.2624e-25  1.9393e-23  1.2826e-25  1.9393e-23  1.3185e-25  1.9394e-23  1.3824e-25  1.9396e-23  1.4960e-25  1.9398e-23  1.6981e-25  1.9403e-23  2.0574e-25  1.9411e-23  2.6965e-25  1.9426e-23  3.8331e-25  1.9452e-23  5.8550e-25  1.9498e-23  9.4526e-25  1.9580e-23  1.5856e-24  1.9727e-23  2.7264e-24  1.9987e-23  4.7613e-24  2.0449e-23  8.3999e-24  2.1269e-23  1.4933e-23  2.2725e-23  2.6748e-23  2.5304e-23  4.8375e-23
      2.55  1.8563e-23  1.3425e-25  1.8563e-23  1.3548e-25  1.8563e-23  1.3766e-25  1.8564e-23  1.4154e-25  1.8565e-23  1.4844e-25  1.8566e-23  1.6070e-25  1.8569e-23  1.8252e-25  1.8573e-23  2.2131e-25  1.8581e-23  2.9030e-25  1.8595e-23  4.1300e-25  1.8620e-23  6.3127e-25  1.8665e-23  1.0196e-24  1.8744e-23  1.7109e-24  1.8886e-23  2.9424e-24  1.9137e-23  5.1391e-24  1.9582e-23  9.0668e-24  2.0374e-23  1.6119e-23  2.1779e-23  2.8871e-23  2.4267e-23  5.2211e-23
      2.60  1.7749e-23  1.4390e-25  1.7749e-23  1.4521e-25  1.7749e-23  1.4755e-25  1.7750e-23  1.5170e-25  1.7750e-23  1.5909e-25  1.7752e-23  1.7222e-25  1.7754e-23  1.9558e-25  1.7758e-23  2.3712e-25  1.7766e-23  3.1100e-25  1.7780e-23  4.4239e-25  1.7804e-23  6.7611e-25  1.7847e-23  1.0920e-24  1.7924e-23  1.8322e-24  1.8060e-23  3.1508e-24  1.8303e-23  5.5030e-24  1.8733e-23  9.7086e-24  1.9498e-23  1.7259e-23  2.0853e-23  3.0912e-23  2.3254e-23  5.5898e-23
      2.65  1.6951e-23  1.5405e-25  1.6951e-23  1.5545e-25  1.6951e-23  1.5793e-25  1.6952e-23  1.6235e-25  1.6952e-23  1.7020e-25  1.6954e-23  1.8417e-25  1.6956e-23  2.0901e-25  1.6960e-23  2.5318e-25  1.6968e-23  3.3173e-25  1.6981e-23  4.7145e-25  1.7004e-23  7.1998e-25  1.7046e-23  1.1622e-24  1.7120e-23  1.9493e-24  1.7252e-23  3.3515e-24  1.7486e-23  5.8526e-24  1.7901e-23  1.0324e-23  1.8640e-23  1.8353e-23  1.9949e-23  3.2868e-23  2.2267e-23  5.9430e-23
      2.70  1.6170e-23  1.6472e-25  1.6170e-23  1.6619e-25  1.6170e-23  1.6882e-25  1.6171e-23  1.7348e-25  1.6172e-23  1.8178e-25  1.6173e-23  1.9654e-25  1.6175e-23  2.2279e-25  1.6179e-23  2.6947e-25  1.6186e-23  3.5248e-25  1.6199e-23  5.0013e-25  1.6222e-23  7.6276e-25  1.6262e-23  1.2301e-24  1.6333e-23  2.0618e-24  1.6461e-23  3.5436e-24  1.6687e-23  6.1865e-24  1.7089e-23  1.0912e-23  1.7802e-23  1.9395e-23  1.9067e-23  3.4731e-23  2.1305e-23  6.2792e-23
      2.75  1.5407e-23  1.7590e-25  1.5408e-23  1.7745e-25  1.5408e-23  1.8021e-25  1.5408e-23  1.8511e-25  1.5409e-23  1.9384e-25  1.5410e-23  2.0935e-25  1.5412e-23  2.3693e-25  1.5416e-23  2.8598e-25  1.5423e-23  3.7323e-25  1.5435e-23  5.2839e-25  1.5457e-23  8.0440e-25  1.5496e-23  1.2955e-24  1.5566e-23  2.1696e-24  1.5689e-23  3.7268e-24  1.5907e-23  6.5042e-24  1.6296e-23  1.1470e-23  1.6986e-23  2.0384e-23  1.8209e-23  3.6498e-23  2.0372e-23  6.5978e-23
      2.80  1.4664e-23  1.8773e-25  1.4664e-23  1.8935e-25  1.4664e-23  1.9223e-25  1.4665e-23  1.9736e-25  1.4665e-23  2.0648e-25  1.4666e-23  2.2270e-25  1.4669e-23  2.5155e-25  1.4672e-23  3.0285e-25  1.4679e-23  3.9408e-25  1.4691e-23  5.5635e-25  1.4712e-23  8.4499e-25  1.4750e-23  1.3586e-24  1.4817e-23  2.2727e-24  1.4936e-23  3.9011e-24  1.5148e-23  6.8055e-24  1.5524e-23  1.1998e-23  1.6191e-23  2.1319e-23  1.7374e-23  3.8168e-23  1.9467e-23  6.8987e-23
      2.85  1.3940e-23  2.0009e-25  1.3940e-23  2.0178e-25  1.3940e-23  2.0478e-25  1.3941e-23  2.1013e-25  1.3941e-23  2.1962e-25  1.3943e-23  2.3651e-25  1.3945e-23  2.6654e-25  1.3948e-23  3.1995e-25  1.3955e-23  4.1494e-25  1.3966e-23  5.8388e-25  1.3987e-23  8.8439e-25  1.4023e-23  1.4191e-24  1.4088e-23  2.3708e-24  1.4204e-23  4.0661e-24  1.4409e-23  7.0899e-24  1.4773e-23  1.2496e-23  1.5419e-23  2.2199e-23  1.6565e-23  3.9737e-23  1.8590e-23  7.1813e-23
      2.90  1.3237e-23  2.1301e-25  1.3237e-23  2.1476e-25  1.3237e-23  2.1788e-25  1.3237e-23  2.2341e-25  1.3238e-23  2.3326e-25  1.3239e-23  2.5077e-25  1.3241e-23  2.8191e-25  1.3245e-23  3.3729e-25  1.3251e-23  4.3578e-25  1.3262e-23  6.1094e-25  1.3282e-23  9.2253e-25  1.3317e-23  1.4769e-24  1.3380e-23  2.4637e-24  1.3492e-23  4.2215e-24  1.3691e-23  7.3566e-24  1.4044e-23  1.2961e-23  1.4670e-23  2.3021e-23  1.5780e-23  4.1203e-23  1.7741e-23  7.4450e-23
      2.95  1.2554e-23  2.2650e-25  1.2555e-23  2.2831e-25  1.2555e-23  2.3153e-25  1.2555e-23  2.3725e-25  1.2556e-23  2.4742e-25  1.2557e-23  2.6551e-25  1.2559e-23  2.9767e-25  1.2562e-23  3.5487e-25  1.2568e-23  4.5659e-25  1.2579e-23  6.3752e-25  1.2598e-23  9.5935e-25  1.2633e-23  1.5320e-24  1.2694e-23  2.5512e-24  1.2802e-23  4.3667e-24  1.2995e-23  7.6048e-24  1.3337e-23  1.3393e-23  1.3944e-23  2.3783e-23  1.5020e-23  4.2559e-23  1.6921e-23  7.6889e-23
      3.00  1.1894e-23  2.4060e-25  1.1894e-23  2.4246e-25  1.1894e-23  2.4577e-25  1.1894e-23  2.5166e-25  1.1895e-23  2.6212e-25  1.1896e-23  2.8074e-25  1.1898e-23  3.1384e-25  1.1901e-23  3.7270e-25  1.1907e-23  4.7739e-25  1.1918e-23  6.6358e-25  1.1936e-23  9.9478e-25  1.1970e-23  1.5841e-24  1.2029e-23  2.6329e-24  1.2134e-23  4.5013e-24  1.2321e-23  7.8336e-24  1.2653e-23  1.3790e-23  1.3242e-23  2.4481e-23  1.4285e-23  4.3801e-23  1.6130e-23  7.9121e-23
      3.05  1.1255e-23  2.5553e-25  1.1255e-23  2.5744e-25  1.1255e-23  2.6084e-25  1.1256e-23  2.6688e-25  1.1256e-23  2.7761e-25  1.1257e-23  2.9671e-25  1.1259e-23  3.3067e-25  1.1262e-23  3.9106e-25  1.1268e-23  4.9847e-25  1.1278e-23  6.8950e-25  1.1296e-23  1.0293e-24  1.1329e-23  1.6339e-24  1.1386e-23  2.7100e-24  1.1488e-23  4.6269e-24  1.1670e-23  8.0457e-24  1.1993e-23  1.4157e-23  1.2565e-23  2.5125e-23  1.3578e-23  4.4944e-23  1.5368e-23  8.1174e-23
      3.10  1.0639e-23  2.7095e-25  1.0639e-23  2.7290e-25  1.0639e-23  2.7637e-25  1.0639e-23  2.8255e-25  1.0640e-23  2.9353e-25  1.0641e-23  3.1306e-25  1.0643e-23  3.4780e-25  1.0646e-23  4.0957e-25  1.0651e-23  5.1942e-25  1.0661e-23  7.1480e-25  1.0679e-23  1.0623e-24  1.0710e-23  1.6807e-24  1.0766e-23  2.7814e-24  1.0866e-23  4.7419e-24  1.1042e-23  8.2385e-24  1.1355e-23  1.4489e-23  1.1911e-23  2.5706e-23  1.2896e-23  4.5975e-23  1.4633e-23  8.3024e-23
      3.15  1.0045e-23  2.8720e-25  1.0045e-23  2.8920e-25  1.0045e-23  2.9274e-25  1.0045e-23  2.9904e-25  1.0046e-23  3.1024e-25  1.0047e-23  3.3016e-25  1.0049e-23  3.6559e-25  1.0052e-23  4.2860e-25  1.0057e-23  5.4065e-25  1.0067e-23  7.3994e-25  1.0084e-23  1.0944e-24  1.0115e-23  1.7252e-24  1.0169e-23  2.8478e-24  1.0265e-23  4.8475e-24  1.0437e-23  8.4140e-24  1.0742e-23  1.4789e-23  1.1283e-23  2.6230e-23  1.2239e-23  4.6903e-23  1.3926e-23  8.4690e-23
      3.20  9.4737e-24  3.0422e-25  9.4738e-24  3.0625e-25  9.4740e-24  3.0986e-25  9.4743e-24  3.1627e-25  9.4748e-24  3.2767e-25  9.4757e-24  3.4794e-25  9.4774e-24  3.8400e-25  9.4804e-24  4.4811e-25  9.4856e-24  5.6214e-25  9.4951e-24  7.6495e-25  9.5118e-24  1.1257e-24  9.5415e-24  1.7676e-24  9.5944e-24  2.9101e-24  9.6883e-24  4.9451e-24  9.8555e-24  8.5745e-24  1.0152e-23  1.5062e-23  1.0677e-23  2.6705e-23  1.1607e-23  4.7742e-23  1.3246e-23  8.6194e-23
      3.25  8.9256e-24  3.2186e-25  8.9256e-24  3.2392e-25  8.9258e-24  3.2758e-25  8.9261e-24  3.3410e-25  8.9266e-24  3.4568e-25  8.9275e-24  3.6628e-25  8.9292e-24  4.0290e-25  8.9320e-24  4.6804e-25  8.9372e-24  5.8389e-25  8.9464e-24  7.8993e-25  8.9626e-24  1.1564e-24  8.9916e-24  1.8085e-24  9.0430e-24  2.9692e-24  9.1344e-24  5.0366e-24  9.2969e-24  8.7239e-24  9.5852e-24  1.5315e-23  1.0096e-23  2.7143e-23  1.1000e-23  4.8514e-23  1.2594e-23  8.7577e-23
      3.30  8.3999e-24  3.4044e-25  8.4000e-24  3.4253e-25  8.4002e-24  3.4625e-25  8.4005e-24  3.5286e-25  8.4010e-24  3.6462e-25  8.4019e-24  3.8553e-25  8.4034e-24  4.2273e-25  8.4063e-24  4.8887e-25  8.4113e-24  6.0650e-25  8.4202e-24  8.1571e-25  8.4360e-24  1.1879e-24  8.4642e-24  1.8500e-24  8.5143e-24  3.0285e-24  8.6033e-24  5.1278e-24  8.7615e-24  8.8718e-24  9.0421e-24  1.5564e-23  9.5397e-24  2.7574e-23  1.0419e-23  4.9275e-23  1.1969e-23  8.8937e-23
      3.35  7.8969e-24  3.5965e-25  7.8970e-24  3.6177e-25  7.8972e-24  3.6555e-25  7.8975e-24  3.7227e-25  7.8979e-24  3.8422e-25  7.8988e-24  4.0548e-25  7.9003e-24  4.4327e-25  7.9031e-24  5.1048e-25  7.9080e-24  6.3002e-25  7.9167e-24  8.4262e-25  7.9321e-24  1.2208e-24  7.9595e-24  1.8936e-24  8.0083e-24  3.0913e-24  8.0951e-24  5.2245e-24  8.2491e-24  9.0291e-24  8.5225e-24  1.5830e-23  9.0070e-24  2.8034e-23  9.8635e-24  5.0084e-23  1.1372e-23  9.0386e-23
      3.40  7.4163e-24  3.7950e-25  7.4164e-24  3.8167e-25  7.4165e-24  3.8552e-25  7.4168e-24  3.9236e-25  7.4173e-24  4.0453e-25  7.4181e-24  4.2617e-25  7.4196e-24  4.6466e-25  7.4223e-24  5.3311e-25  7.4271e-24  6.5485e-25  7.4355e-24  8.7135e-25  7.4506e-24  1.2565e-24  7.4773e-24  1.9417e-24  7.5245e-24  3.1614e-24  7.6094e-24  5.3338e-24  7.7595e-24  9.2083e-24  8.0259e-24  1.6134e-23  8.4979e-24  2.8562e-23  9.3321e-24  5.1016e-23  1.0800e-23  9.2053e-23
      3.45  6.9578e-24  4.0000e-25  6.9579e-24  4.0221e-25  6.9580e-24  4.0615e-25  6.9583e-24  4.1314e-25  6.9587e-24  4.2558e-25  6.9596e-24  4.4770e-25  6.9610e-24  4.8704e-25  6.9637e-24  5.5700e-25  6.9683e-24  6.8142e-25  6.9765e-24  9.0270e-25  6.9912e-24  1.2963e-24  7.0173e-24  1.9967e-24  7.0637e-24  3.2432e-24  7.1461e-24  5.4635e-24  7.2924e-24  9.4234e-24  7.5521e-24  1.6501e-23  8.0121e-24  2.9202e-23  8.8248e-24  5.2148e-23  1.0254e-23  9.4078e-23
      3.50  6.5211e-24  4.2115e-25  6.5211e-24  4.2342e-25  6.5213e-24  4.2746e-25  6.5215e-24  4.3464e-25  6.5220e-24  4.4742e-25  6.5228e-24  4.7014e-25  6.5242e-24  5.1054e-25  6.5268e-24  5.8240e-25  6.5313e-24  7.1019e-25  6.5394e-24  9.3747e-25  6.5537e-24  1.3418e-24  6.5791e-24  2.0611e-24  6.6243e-24  3.3414e-24  6.7047e-24  5.6218e-24  6.8474e-24  9.6888e-24  7.1006e-24  1.6958e-23  7.5491e-24  3.0001e-23  8.3411e-24  5.3563e-23  9.7337e-24  9.6606e-23
      3.55  6.1058e-24  4.4344e-25  6.1059e-24  4.4579e-25  6.1060e-24  4.4996e-25  6.1063e-24  4.5739e-25  6.1067e-24  4.7059e-25  6.1075e-24  4.9407e-25  6.1089e-24  5.3583e-25  6.1113e-24  6.1009e-25  6.1158e-24  7.4215e-25  6.1236e-24  9.7704e-25  6.1376e-24  1.3949e-24  6.1624e-24  2.1382e-24  6.2065e-24  3.4614e-24  6.2849e-24  5.8180e-24  6.4241e-24  1.0021e-23  6.6711e-24  1.7532e-23  7.1084e-24  3.1009e-23  7.8804e-24  5.5349e-23  9.2368e-24  9.9801e-23
      3.60  5.7114e-24  4.6640e-25  5.7115e-24  4.6885e-25  5.7116e-24  4.7319e-25  5.7119e-24  4.8092e-25  5.7123e-24  4.9466e-25  5.7131e-24  5.1909e-25  5.7144e-24  5.6254e-25  5.7168e-24  6.3981e-25  5.7212e-24  7.7723e-25  5.7288e-24  1.0216e-24  5.7424e-24  1.4564e-24  5.7667e-24  2.2299e-24  5.8097e-24  3.6066e-24  5.8862e-24  6.0587e-24  6.0220e-24  1.0431e-23  6.2629e-24  1.8246e-23  6.6893e-24  3.2264e-23  7.4418e-24  5.7575e-23  8.7628e-24  1.0378e-22
      3.65  5.3374e-24  4.9004e-25  5.3375e-24  4.9260e-25  5.3376e-24  4.9715e-25  5.3379e-24  5.0525e-25  5.3383e-24  5.1965e-25  5.3390e-24  5.4526e-25  5.3404e-24  5.9080e-25  5.3427e-24  6.7180e-25  5.3469e-24  8.1583e-25  5.3544e-24  1.0720e-24  5.3677e-24  1.5277e-24  5.3913e-24  2.3384e-24  5.4333e-24  3.7813e-24  5.5079e-24  6.3512e-24  5.6404e-24  1.0934e-23  5.8753e-24  1.9122e-23  6.2911e-24  3.3807e-23  7.0244e-24  6.0311e-23  8.3104e-24  1.0866e-22
      3.70  4.9833e-24  5.1437e-25  4.9834e-24  5.1709e-25  4.9835e-24  5.2192e-25  4.9837e-24  5.3050e-25  4.9841e-24  5.4577e-25  4.9849e-24  5.7293e-25  4.9861e-24  6.2121e-25  4.9885e-24  7.0708e-25  4.9925e-24  8.5980e-25  4.9998e-24  1.1314e-24  5.0128e-24  1.6145e-24  5.0358e-24  2.4741e-24  5.0768e-24  4.0039e-24  5.1495e-24  6.7283e-24  5.2787e-24  1.1586e-23  5.5077e-24  2.0264e-23  5.9128e-24  3.5821e-23  6.6272e-24  6.3881e-23  7.8780e-24  1.1501e-22
      3.75  4.6484e-24  5.3939e-25  4.6485e-24  5.4227e-25  4.6486e-24  5.4740e-25  4.6488e-24  5.5652e-25  4.6492e-24  5.7275e-25  4.6499e-24  6.0160e-25  4.6512e-24  6.5291e-25  4.6534e-24  7.4415e-25  4.6574e-24  9.0642e-25  4.6645e-24  1.1950e-24  4.6772e-24  1.7083e-24  4.6996e-24  2.6216e-24  4.7395e-24  4.2469e-24  4.8103e-24  7.1412e-24  4.9361e-24  1.2301e-23  5.1591e-24  2.1516e-23  5.5535e-24  3.8029e-23  6.2485e-24  6.7787e-23  7.4639e-24  1.2193e-22
      3.80  4.3327e-24  5.6605e-25  4.3327e-24  5.6916e-25  4.3328e-24  5.7468e-25  4.3331e-24  5.8450e-25  4.3335e-24  6.0195e-25  4.3341e-24  6.3300e-25  4.3354e-24  6.8821e-25  4.3376e-24  7.8640e-25  4.3414e-24  9.6101e-25  4.3484e-24  1.2716e-24  4.3606e-24  1.8239e-24  4.3825e-24  2.8066e-24  4.4213e-24  4.5554e-24  4.4902e-24  7.6692e-24  4.6126e-24  1.3219e-23  4.8295e-24  2.3128e-23  5.2130e-24  4.0875e-23  5.8883e-24  7.2824e-23  7.0677e-24  1.3085e-22
      3.85  4.0345e-24  5.9477e-25  4.0345e-24  5.9818e-25  4.0347e-24  6.0423e-25  4.0349e-24  6.1501e-25  4.0352e-24  6.3416e-25  4.0359e-24  6.6823e-25  4.0371e-24  7.2880e-25  4.0392e-24  8.3653e-25  4.0430e-24  1.0281e-24  4.0497e-24  1.3688e-24  4.0617e-24  1.9749e-24  4.0829e-24  3.0530e-24  4.1207e-24  4.9714e-24  4.1877e-24  8.3871e-24  4.3066e-24  1.4474e-23  4.5174e-24  2.5339e-23  4.8900e-24  4.4788e-23  5.5455e-24  7.9771e-23  6.6892e-24  1.4322e-22
      3.90  3.7536e-24  6.3092e-25  3.7537e-24  6.3477e-25  3.7538e-24  6.4161e-25  3.7540e-24  6.5378e-25  3.7544e-24  6.7542e-25  3.7550e-24  7.1391e-25  3.7562e-24  7.8235e-25  3.7582e-24  9.0405e-25  3.7619e-24  1.1205e-24  3.7684e-24  1.5054e-24  3.7801e-24  2.1901e-24  3.8007e-24  3.4081e-24  3.8374e-24  5.5755e-24  3.9026e-24  9.4341e-24  4.0182e-24  1.6310e-23  4.2231e-24  2.8580e-23  4.5852e-24  5.0540e-23  5.2215e-24  9.0023e-23  6.3312e-24  1.6159e-22
      3.95  3.4894e-24  6.9579e-25  3.4894e-24  7.0028e-25  3.4895e-24  7.0826e-25  3.4897e-24  7.2246e-25  3.4901e-24  7.4771e-25  3.4907e-24  7.9260e-25  3.4919e-24  8.7245e-25  3.4939e-24  1.0144e-24  3.4975e-24  1.2669e-24  3.5038e-24  1.7160e-24  3.5151e-24  2.5148e-24  3.5352e-24  3.9357e-24  3.5709e-24  6.4642e-24  3.6344e-24  1.0966e-23  3.7469e-24  1.8987e-23  3.9463e-24  3.3304e-23  4.2986e-24  5.8927e-23  4.9175e-24  1.0501e-22  5.9962e-24  1.8860e-22
