# This was generated using Cloudy10 and the columns are ordered 
# as log10 of the fraction of the metallicity to the solar metallicity
# 'h_*_Z' and 'c_*_Z' stands for cooling and heating respectively 
# at * metalicity
#
# NOTE: This was generated separately from loop_coolingcurve_w_UV.py
#       using Output_metals_w_redshift.py.
#
# Redshift = 1.0
# hden = 1.5
#
#     temp   h_-3.00_Z   c_-3.00_Z   h_-2.75_Z   c_-2.75_Z   h_-2.50_Z   c_-2.50_Z   h_-2.25_Z   c_-2.25_Z   h_-2.00_Z   c_-2.00_Z   h_-1.75_Z   c_-1.75_Z   h_-1.50_Z   c_-1.50_Z   h_-1.25_Z   c_-1.25_Z   h_-1.00_Z   c_-1.00_Z   h_-0.75_Z   c_-0.75_Z   h_-0.50_Z   c_-0.50_Z   h_-0.25_Z   c_-0.25_Z    h_0.00_Z    c_0.00_Z    h_0.25_Z    c_0.25_Z    h_0.50_Z    c_0.50_Z    h_0.75_Z    c_0.75_Z    h_1.00_Z    c_1.00_Z    h_1.25_Z    c_1.25_Z    h_1.50_Z    c_1.50_Z 
      1.00  1.9013e-25  4.2684e-29  1.9013e-25  4.2709e-29  1.9013e-25  4.2755e-29  1.9014e-25  4.2835e-29  1.9014e-25  4.2978e-29  1.9015e-25  4.3232e-29  1.9017e-25  4.3683e-29  1.9021e-25  4.4487e-29  1.9028e-25  4.5915e-29  1.9039e-25  4.8456e-29  1.9060e-25  5.2978e-29  1.9096e-25  6.1024e-29  1.9161e-25  7.5352e-29  1.9277e-25  1.0089e-28  1.9483e-25  1.4647e-28  1.9850e-25  2.2798e-28  2.0504e-25  3.7411e-28  2.1673e-25  6.3686e-28  2.3764e-25  1.1111e-27
      1.05  1.8995e-25  4.8122e-29  1.8995e-25  4.8158e-29  1.8995e-25  4.8221e-29  1.8996e-25  4.8333e-29  1.8996e-25  4.8532e-29  1.8998e-25  4.8887e-29  1.9000e-25  4.9517e-29  1.9003e-25  5.0638e-29  1.9010e-25  5.2632e-29  1.9021e-25  5.6179e-29  1.9042e-25  6.2489e-29  1.9078e-25  7.3715e-29  1.9143e-25  9.3701e-29  1.9258e-25  1.2930e-28  1.9464e-25  1.9280e-28  1.9829e-25  3.0620e-28  2.0481e-25  5.0916e-28  2.1645e-25  8.7329e-28  2.3728e-25  1.5288e-27
      1.10  1.8977e-25  5.4196e-29  1.8977e-25  5.4246e-29  1.8977e-25  5.4334e-29  1.8977e-25  5.4492e-29  1.8978e-25  5.4773e-29  1.8979e-25  5.5272e-29  1.8981e-25  5.6159e-29  1.8985e-25  5.7738e-29  1.8991e-25  6.0544e-29  1.9003e-25  6.5536e-29  1.9023e-25  7.4415e-29  1.9059e-25  9.0209e-29  1.9124e-25  1.1831e-28  1.9239e-25  1.6833e-28  1.9444e-25  2.5743e-28  1.9809e-25  4.1629e-28  2.0458e-25  6.9988e-28  2.1619e-25  1.2071e-27  2.3695e-25  2.1169e-27
      1.15  1.8957e-25  6.0982e-29  1.8958e-25  6.1053e-29  1.8958e-25  6.1180e-29  1.8958e-25  6.1406e-29  1.8959e-25  6.1807e-29  1.8960e-25  6.2520e-29  1.8962e-25  6.3788e-29  1.8966e-25  6.6043e-29  1.8972e-25  7.0054e-29  1.8983e-25  7.7185e-29  1.9004e-25  8.9866e-29  1.9040e-25  1.1242e-28  1.9105e-25  1.5251e-28  1.9219e-25  2.2382e-28  1.9423e-25  3.5061e-28  1.9787e-25  5.7612e-28  2.0435e-25  9.7744e-28  2.1591e-25  1.6924e-27  2.3660e-25  2.9687e-27
      1.20  1.8938e-25  6.8569e-29  1.8938e-25  6.8673e-29  1.8938e-25  6.8857e-29  1.8938e-25  6.9184e-29  1.8939e-25  6.9767e-29  1.8940e-25  7.0802e-29  1.8942e-25  7.2644e-29  1.8946e-25  7.5919e-29  1.8952e-25  8.1742e-29  1.8964e-25  9.2094e-29  1.8984e-25  1.1050e-28  1.9020e-25  1.4321e-28  1.9084e-25  2.0134e-28  1.9199e-25  3.0457e-28  1.9402e-25  4.8779e-28  1.9764e-25  8.1275e-28  2.0410e-25  1.3889e-27  2.1562e-25  2.4109e-27  2.3624e-25  4.2252e-27
      1.25  1.8917e-25  7.7056e-29  1.8917e-25  7.7208e-29  1.8917e-25  7.7479e-29  1.8918e-25  7.7960e-29  1.8918e-25  7.8815e-29  1.8920e-25  8.0335e-29  1.8922e-25  8.3039e-29  1.8925e-25  8.7847e-29  1.8932e-25  9.6395e-29  1.8943e-25  1.1159e-28  1.8963e-25  1.3860e-28  1.8999e-25  1.8658e-28  1.9063e-25  2.7176e-28  1.9177e-25  4.2284e-28  1.9380e-25  6.9044e-28  1.9741e-25  1.1637e-27  2.0384e-25  1.9997e-27  2.1532e-25  3.4757e-27  2.3586e-25  6.0820e-27
      1.30  1.8896e-25  8.6567e-29  1.8896e-25  8.6791e-29  1.8896e-25  8.7189e-29  1.8897e-25  8.7896e-29  1.8897e-25  8.9155e-29  1.8898e-25  9.1392e-29  1.8900e-25  9.5371e-29  1.8904e-25  1.0244e-28  1.8910e-25  1.1502e-28  1.8922e-25  1.3737e-28  1.8942e-25  1.7709e-28  1.8978e-25  2.4761e-28  1.9041e-25  3.7272e-28  1.9155e-25  5.9433e-28  1.9357e-25  9.8608e-28  1.9717e-25  1.6770e-27  2.0358e-25  2.8933e-27  2.1501e-25  5.0320e-27  2.3547e-25  8.7899e-27
      1.35  1.8874e-25  9.7218e-29  1.8874e-25  9.7545e-29  1.8874e-25  9.8126e-29  1.8875e-25  9.9160e-29  1.8875e-25  1.0100e-28  1.8876e-25  1.0427e-28  1.8878e-25  1.1008e-28  1.8882e-25  1.2041e-28  1.8888e-25  1.3878e-28  1.8899e-25  1.7142e-28  1.8920e-25  2.2940e-28  1.8955e-25  3.3232e-28  1.9019e-25  5.1477e-28  1.9132e-25  8.3756e-28  1.9333e-25  1.4072e-27  1.9691e-25  2.4096e-27  2.0330e-25  4.1688e-27  2.1469e-25  7.2515e-27  2.3507e-25  1.2646e-26
      1.40  1.8851e-25  1.0915e-28  1.8851e-25  1.0962e-28  1.8851e-25  1.1046e-28  1.8852e-25  1.1194e-28  1.8852e-25  1.1459e-28  1.8853e-25  1.1929e-28  1.8855e-25  1.2765e-28  1.8859e-25  1.4252e-28  1.8865e-25  1.6894e-28  1.8877e-25  2.1590e-28  1.8897e-25  2.9929e-28  1.8932e-25  4.4725e-28  1.8995e-25  7.0937e-28  1.9108e-25  1.1727e-27  1.9309e-25  1.9891e-27  1.9666e-25  3.4229e-27  2.0302e-25  5.9333e-27  2.1436e-25  1.0321e-26  2.3466e-25  1.7975e-26
      1.45  1.8827e-25  1.2251e-28  1.8827e-25  1.2318e-28  1.8828e-25  1.2435e-28  1.8828e-25  1.2645e-28  1.8829e-25  1.3017e-28  1.8830e-25  1.3679e-28  1.8832e-25  1.4856e-28  1.8835e-25  1.6949e-28  1.8842e-25  2.0668e-28  1.8853e-25  2.7277e-28  1.8873e-25  3.9011e-28  1.8908e-25  5.9824e-28  1.8971e-25  9.6676e-28  1.9083e-25  1.6176e-27  1.9283e-25  2.7631e-27  1.9639e-25  4.7715e-27  2.0272e-25  8.2820e-27  2.1402e-25  1.4405e-26  2.3423e-25  2.5063e-26
      1.50  1.8803e-25  1.3748e-28  1.8803e-25  1.3840e-28  1.8803e-25  1.4002e-28  1.8804e-25  1.4291e-28  1.8804e-25  1.4804e-28  1.8805e-25  1.5717e-28  1.8807e-25  1.7339e-28  1.8811e-25  2.0224e-28  1.8817e-25  2.5351e-28  1.8828e-25  3.4460e-28  1.8848e-25  5.0630e-28  1.8883e-25  7.9304e-28  1.8946e-25  1.3005e-27  1.9058e-25  2.1961e-27  1.9257e-25  3.7708e-27  1.9611e-25  6.5287e-27  2.0242e-25  1.1343e-26  2.1367e-25  1.9729e-26  2.3380e-25  3.4306e-26
      1.55  1.8777e-25  1.5428e-28  1.8778e-25  1.5551e-28  1.8778e-25  1.5770e-28  1.8778e-25  1.6159e-28  1.8779e-25  1.6851e-28  1.8780e-25  1.8081e-28  1.8782e-25  2.0268e-28  1.8785e-25  2.4157e-28  1.8792e-25  3.1068e-28  1.8803e-25  4.3344e-28  1.8822e-25  6.5135e-28  1.8858e-25  1.0377e-27  1.8920e-25  1.7211e-27  1.9031e-25  2.9265e-27  1.9230e-25  5.0446e-27  1.9582e-25  8.7508e-27  2.0210e-25  1.5215e-26  2.1331e-25  2.6468e-26  2.3335e-25  4.6014e-26
      1.60  1.8751e-25  1.7308e-28  1.8751e-25  1.7471e-28  1.8751e-25  1.7759e-28  1.8752e-25  1.8273e-28  1.8752e-25  1.9186e-28  1.8754e-25  2.0809e-28  1.8755e-25  2.3695e-28  1.8759e-25  2.8826e-28  1.8765e-25  3.7944e-28  1.8776e-25  5.4139e-28  1.8796e-25  8.2884e-28  1.8831e-25  1.3383e-27  1.8893e-25  2.2394e-27  1.9004e-25  3.8280e-27  1.9201e-25  6.6179e-27  1.9552e-25  1.1497e-26  2.0178e-25  2.0004e-26  2.1294e-25  3.4810e-26  2.3289e-25  6.0525e-26
      1.65  1.8724e-25  1.9413e-28  1.8724e-25  1.9623e-28  1.8724e-25  1.9997e-28  1.8725e-25  2.0662e-28  1.8725e-25  2.1844e-28  1.8726e-25  2.3947e-28  1.8728e-25  2.7685e-28  1.8732e-25  3.4330e-28  1.8738e-25  4.6138e-28  1.8749e-25  6.7111e-28  1.8769e-25  1.0433e-27  1.8803e-25  1.7029e-27  1.8865e-25  2.8692e-27  1.8976e-25  4.9249e-27  1.9172e-25  8.5337e-27  1.9522e-25  1.4844e-26  2.0145e-25  2.5846e-26  2.1256e-25  4.5001e-26  2.3242e-25  7.8288e-26
      1.70  1.8696e-25  2.1769e-28  1.8696e-25  2.2037e-28  1.8696e-25  2.2515e-28  1.8696e-25  2.3364e-28  1.8697e-25  2.4873e-28  1.8698e-25  2.7557e-28  1.8700e-25  3.2330e-28  1.8703e-25  4.0813e-28  1.8710e-25  5.5887e-28  1.8721e-25  8.2661e-28  1.8740e-25  1.3017e-27  1.8775e-25  2.1436e-27  1.8836e-25  3.6321e-27  1.8946e-25  6.2550e-27  1.9142e-25  1.0859e-26  1.9490e-25  1.8911e-26  2.0110e-25  3.2957e-26  2.1216e-25  5.7431e-26  2.3193e-25  1.0002e-25
      1.75  1.8666e-25  2.4407e-28  1.8666e-25  2.4747e-28  1.8667e-25  2.5351e-28  1.8667e-25  2.6425e-28  1.8668e-25  2.8335e-28  1.8669e-25  3.1731e-28  1.8671e-25  3.7768e-28  1.8674e-25  4.8500e-28  1.8680e-25  6.7572e-28  1.8691e-25  1.0144e-27  1.8711e-25  1.6155e-27  1.8745e-25  2.6805e-27  1.8806e-25  4.5633e-27  1.8916e-25  7.8814e-27  1.9110e-25  1.3707e-26  1.9457e-25  2.3899e-26  2.0074e-25  4.1697e-26  2.1174e-25  7.2756e-26  2.3142e-25  1.2692e-25
      1.80  1.8636e-25  2.7371e-28  1.8636e-25  2.7799e-28  1.8636e-25  2.8561e-28  1.8637e-25  2.9915e-28  1.8637e-25  3.2323e-28  1.8638e-25  3.6605e-28  1.8640e-25  4.4216e-28  1.8644e-25  5.7747e-28  1.8650e-25  8.1791e-28  1.8661e-25  1.2450e-27  1.8680e-25  2.0028e-27  1.8714e-25  3.3456e-27  1.8775e-25  5.7197e-27  1.8884e-25  9.9046e-27  1.9078e-25  1.7255e-26  1.9422e-25  3.0129e-26  2.0036e-25  5.2643e-26  2.1131e-25  9.2023e-26  2.3088e-25  1.6092e-25
      1.85  1.8604e-25  3.0698e-28  1.8605e-25  3.1239e-28  1.8605e-25  3.2200e-28  1.8605e-25  3.3910e-28  1.8606e-25  3.6950e-28  1.8607e-25  4.2355e-28  1.8609e-25  5.1965e-28  1.8612e-25  6.9047e-28  1.8618e-25  9.9404e-28  1.8629e-25  1.5332e-27  1.8648e-25  2.4901e-27  1.8682e-25  4.1858e-27  1.8743e-25  7.1845e-27  1.8851e-25  1.2473e-26  1.9044e-25  2.1770e-26  1.9387e-25  3.8074e-26  1.9997e-25  6.6648e-26  2.1086e-25  1.1677e-25  2.3033e-25  2.0485e-25
      1.90  1.8572e-25  3.4436e-28  1.8572e-25  3.5120e-28  1.8572e-25  3.6337e-28  1.8572e-25  3.8501e-28  1.8573e-25  4.2349e-28  1.8574e-25  4.9192e-28  1.8576e-25  6.1357e-28  1.8579e-25  8.2981e-28  1.8586e-25  1.2141e-27  1.8596e-25  1.8967e-27  1.8615e-25  3.1082e-27  1.8649e-25  5.2557e-27  1.8710e-25  9.0546e-27  1.8817e-25  1.5758e-26  1.9009e-25  2.7556e-26  1.9350e-25  4.8281e-26  1.9957e-25  8.4688e-26  2.1041e-25  1.4877e-25  2.2977e-25  2.6190e-25
      1.95  1.8538e-25  3.8630e-28  1.8538e-25  3.9491e-28  1.8538e-25  4.1022e-28  1.8539e-25  4.3744e-28  1.8539e-25  4.8585e-28  1.8540e-25  5.7193e-28  1.8542e-25  7.2497e-28  1.8546e-25  9.9702e-28  1.8552e-25  1.4805e-27  1.8562e-25  2.3394e-27  1.8581e-25  3.8639e-27  1.8615e-25  6.5668e-27  1.8676e-25  1.1350e-26  1.8783e-25  1.9796e-26  1.8974e-25  3.4672e-26  1.9315e-25  6.0836e-26  1.9921e-25  1.0687e-25  2.1003e-25  1.8810e-25  2.2937e-25  3.3202e-25
      2.00  1.8503e-25  4.3366e-28  1.8503e-25  4.4466e-28  1.8503e-25  4.6421e-28  1.8504e-25  4.9899e-28  1.8504e-25  5.6082e-28  1.8505e-25  6.7077e-28  1.8507e-25  8.6626e-28  1.8511e-25  1.2138e-27  1.8517e-25  1.8314e-27  1.8527e-25  2.9287e-27  1.8546e-25  4.8768e-27  1.8580e-25  8.3317e-27  1.8640e-25  1.4449e-26  1.8747e-25  2.5260e-26  1.8937e-25  4.4329e-26  1.9275e-25  7.7938e-26  1.9878e-25  1.3725e-25  2.0953e-25  2.4228e-25  2.2876e-25  4.2941e-25
      2.05  1.8467e-25  4.8722e-28  1.8467e-25  5.0128e-28  1.8467e-25  5.2629e-28  1.8467e-25  5.7076e-28  1.8468e-25  6.4984e-28  1.8469e-25  7.9046e-28  1.8471e-25  1.0405e-27  1.8474e-25  1.4850e-27  1.8480e-25  2.2750e-27  1.8491e-25  3.6786e-27  1.8510e-25  6.1711e-27  1.8543e-25  1.0593e-26  1.8603e-25  1.8427e-26  1.8709e-25  3.2284e-26  1.8897e-25  5.6764e-26  1.9233e-25  1.0000e-25  1.9832e-25  1.7652e-25  2.0900e-25  3.1258e-25  2.2809e-25  5.5625e-25
      2.10  1.8429e-25  5.4754e-28  1.8429e-25  5.6543e-28  1.8429e-25  5.9724e-28  1.8430e-25  6.5380e-28  1.8430e-25  7.5438e-28  1.8431e-25  9.3323e-28  1.8433e-25  1.2512e-27  1.8436e-25  1.8166e-27  1.8442e-25  2.8215e-27  1.8453e-25  4.6072e-27  1.8472e-25  7.7787e-27  1.8505e-25  1.3407e-26  1.8564e-25  2.3383e-26  1.8669e-25  4.1047e-26  1.8856e-25  7.2292e-26  1.9190e-25  1.2759e-25  1.9784e-25  2.2571e-25  2.0844e-25  4.0078e-25  2.2739e-25  7.1580e-25
      2.15  1.8390e-25  6.1541e-28  1.8390e-25  6.3794e-28  1.8390e-25  6.7802e-28  1.8391e-25  7.4929e-28  1.8391e-25  8.7602e-28  1.8392e-25  1.1014e-27  1.8394e-25  1.5020e-27  1.8397e-25  2.2143e-27  1.8403e-25  3.4807e-27  1.8414e-25  5.7310e-27  1.8432e-25  9.7283e-27  1.8465e-25  1.6824e-26  1.8524e-25  2.9409e-26  1.8628e-25  5.1707e-26  1.8814e-25  9.1202e-26  1.9145e-25  1.6122e-25  1.9735e-25  2.8575e-25  2.0787e-25  5.0858e-25  2.2668e-25  9.1117e-25
      2.20  1.8349e-25  6.9164e-28  1.8350e-25  7.1968e-28  1.8350e-25  7.6956e-28  1.8350e-25  8.5825e-28  1.8351e-25  1.0160e-27  1.8352e-25  1.2964e-27  1.8353e-25  1.7951e-27  1.8357e-25  2.6817e-27  1.8363e-25  4.2577e-27  1.8373e-25  7.0588e-27  1.8391e-25  1.2035e-26  1.8424e-25  2.0871e-26  1.8482e-25  3.6550e-26  1.8586e-25  6.4349e-26  1.8770e-25  1.1364e-25  1.9099e-25  2.0116e-25  1.9684e-25  3.5712e-25  2.0727e-25  6.3686e-25  2.2594e-25  1.1440e-24
      2.25  1.8307e-25  7.7708e-28  1.8308e-25  8.1149e-28  1.8308e-25  8.7269e-28  1.8308e-25  9.8151e-28  1.8309e-25  1.1750e-27  1.8310e-25  1.5191e-27  1.8311e-25  2.1309e-27  1.8315e-25  3.2188e-27  1.8320e-25  5.1527e-27  1.8331e-25  8.5900e-27  1.8349e-25  1.4698e-26  1.8381e-25  2.5545e-26  1.8439e-25  4.4798e-26  1.8542e-25  7.8959e-26  1.8725e-25  1.3958e-25  1.9051e-25  2.4736e-25  1.9631e-25  4.3973e-25  2.0666e-25  7.8548e-25  2.2518e-25  1.4141e-24
      2.30  1.8264e-25  8.7299e-28  1.8264e-25  9.1457e-28  1.8264e-25  9.8851e-28  1.8264e-25  1.1200e-27  1.8265e-25  1.3538e-27  1.8266e-25  1.7696e-27  1.8268e-25  2.5088e-27  1.8271e-25  3.8232e-27  1.8277e-25  6.1601e-27  1.8287e-25  1.0314e-26  1.8305e-25  1.7695e-26  1.8337e-25  3.0807e-26  1.8395e-25  5.4089e-26  1.8496e-25  9.5418e-26  1.8678e-25  1.6882e-25  1.9001e-25  2.9946e-25  1.9576e-25  5.3292e-25  2.0602e-25  9.5325e-25  2.2438e-25  1.7192e-24
      2.35  1.8219e-25  9.8008e-28  1.8219e-25  1.0295e-27  1.8219e-25  1.1175e-27  1.8219e-25  1.2739e-27  1.8220e-25  1.5521e-27  1.8221e-25  2.0467e-27  1.8223e-25  2.9262e-27  1.8226e-25  4.4900e-27  1.8232e-25  7.2702e-27  1.8242e-25  1.2212e-26  1.8260e-25  2.0996e-26  1.8292e-25  3.6601e-26  1.8348e-25  6.4317e-26  1.8449e-25  1.1354e-25  1.8629e-25  2.0102e-25  1.8950e-25  3.5684e-25  1.9521e-25  6.3562e-25  2.0539e-25  1.1382e-24  2.2361e-25  2.0558e-24
      2.40  1.8172e-25  1.0994e-27  1.8172e-25  1.1574e-27  1.8172e-25  1.2604e-27  1.8173e-25  1.4437e-27  1.8173e-25  1.7696e-27  1.8174e-25  2.3490e-27  1.8176e-25  3.3794e-27  1.8179e-25  5.2116e-27  1.8185e-25  8.4690e-27  1.8195e-25  1.4260e-26  1.8213e-25  2.4552e-26  1.8244e-25  4.2840e-26  1.8301e-25  7.5329e-26  1.8401e-25  1.3305e-25  1.8579e-25  2.3569e-25  1.8897e-25  4.1865e-25  1.9464e-25  7.4627e-25  2.0474e-25  1.3376e-24  2.2281e-25  2.4188e-24
      2.45  1.8123e-25  1.2323e-27  1.8124e-25  1.2992e-27  1.8124e-25  1.4182e-27  1.8124e-25  1.6297e-27  1.8125e-25  2.0060e-27  1.8126e-25  2.6749e-27  1.8127e-25  3.8645e-27  1.8130e-25  5.9796e-27  1.8136e-25  9.7403e-27  1.8146e-25  1.6426e-26  1.8164e-25  2.8310e-26  1.8195e-25  4.9429e-26  1.8251e-25  8.6954e-26  1.8351e-25  1.5364e-25  1.8528e-25  2.7229e-25  1.8843e-25  4.8390e-25  1.9405e-25  8.6309e-25  2.0407e-25  1.5481e-24  2.2201e-25  2.8024e-24
      2.50  1.8073e-25  1.3802e-27  1.8073e-25  1.4563e-27  1.8073e-25  1.5918e-27  1.8074e-25  1.8327e-27  1.8074e-25  2.2611e-27  1.8075e-25  3.0230e-27  1.8077e-25  4.3776e-27  1.8080e-25  6.7863e-27  1.8086e-25  1.1069e-26  1.8095e-25  1.8683e-26  1.8113e-25  3.2218e-26  1.8144e-25  5.6273e-26  1.8200e-25  9.9024e-26  1.8298e-25  1.7502e-25  1.8474e-25  3.1028e-25  1.8787e-25  5.5163e-25  1.9344e-25  9.8438e-25  2.0339e-25  1.7668e-24  2.2118e-25  3.2007e-24
      2.55  1.8021e-25  1.5454e-27  1.8021e-25  1.6310e-27  1.8021e-25  1.7834e-27  1.8021e-25  2.0543e-27  1.8022e-25  2.5360e-27  1.8023e-25  3.3926e-27  1.8025e-25  4.9158e-27  1.8028e-25  7.6243e-27  1.8033e-25  1.2440e-26  1.8043e-25  2.1002e-26  1.8061e-25  3.6223e-26  1.8091e-25  6.3278e-26  1.8146e-25  1.1137e-25  1.8244e-25  1.9687e-25  1.8419e-25  3.4910e-25  1.8729e-25  6.2085e-25  1.9282e-25  1.1083e-24  2.0269e-25  1.9902e-24  2.2034e-25  3.6079e-24
      2.60  1.7967e-25  1.7293e-27  1.7967e-25  1.8245e-27  1.7967e-25  1.9938e-27  1.7967e-25  2.2949e-27  1.7968e-25  2.8304e-27  1.7969e-25  3.7825e-27  1.7971e-25  5.4757e-27  1.7974e-25  8.4863e-27  1.7979e-25  1.3840e-26  1.7989e-25  2.3357e-26  1.8006e-25  4.0277e-26  1.8037e-25  7.0355e-26  1.8091e-25  1.2382e-25  1.8189e-25  2.1892e-25  1.8361e-25  3.8826e-25  1.8669e-25  6.9067e-25  1.9218e-25  1.2334e-24  2.0197e-25  2.2156e-24  2.1948e-25  4.0185e-24
      2.65  1.7911e-25  1.9342e-27  1.7911e-25  2.0389e-27  1.7911e-25  2.2252e-27  1.7911e-25  2.5564e-27  1.7912e-25  3.1455e-27  1.7913e-25  4.1930e-27  1.7914e-25  6.0557e-27  1.7918e-25  9.3678e-27  1.7923e-25  1.5257e-26  1.7933e-25  2.5728e-26  1.7950e-25  4.4345e-26  1.7980e-25  7.7439e-26  1.8034e-25  1.3628e-25  1.8131e-25  2.4094e-25  1.8302e-25  4.2738e-25  1.8608e-25  7.6038e-25  1.9152e-25  1.3582e-24  2.0123e-25  2.4406e-24  2.1860e-25  4.4284e-24
      2.70  1.7852e-25  2.1628e-27  1.7853e-25  2.2770e-27  1.7853e-25  2.4800e-27  1.7853e-25  2.8412e-27  1.7854e-25  3.4833e-27  1.7855e-25  4.6252e-27  1.7856e-25  6.6558e-27  1.7859e-25  1.0267e-26  1.7865e-25  1.6687e-26  1.7874e-25  2.8103e-26  1.7891e-25  4.8399e-26  1.7921e-25  8.4482e-26  1.7975e-25  1.4864e-25  1.8071e-25  2.6278e-25  1.8241e-25  4.6615e-25  1.8544e-25  8.2947e-25  1.9084e-25  1.4819e-24  2.0047e-25  2.6635e-24  2.1771e-25  4.8343e-24
      2.75  1.7792e-25  2.4182e-27  1.7792e-25  2.5417e-27  1.7792e-25  2.7612e-27  1.7793e-25  3.1516e-27  1.7793e-25  3.8458e-27  1.7794e-25  5.0803e-27  1.7796e-25  7.2755e-27  1.7799e-25  1.1179e-26  1.7804e-25  1.8120e-26  1.7814e-25  3.0462e-26  1.7831e-25  5.2405e-26  1.7861e-25  9.1419e-26  1.7914e-25  1.6079e-25  1.8009e-25  2.8423e-25  1.8178e-25  5.0418e-25  1.8479e-25  8.9718e-25  1.9015e-25  1.6029e-24  1.9971e-25  2.8812e-24  2.1683e-25  5.2295e-24
      2.80  1.7730e-25  2.7060e-27  1.7730e-25  2.8385e-27  1.7730e-25  3.0743e-27  1.7730e-25  3.4935e-27  1.7731e-25  4.2389e-27  1.7732e-25  5.5645e-27  1.7733e-25  7.9218e-27  1.7736e-25  1.2113e-26  1.7742e-25  1.9567e-26  1.7751e-25  3.2820e-26  1.7768e-25  5.6384e-26  1.7798e-25  9.8282e-26  1.7851e-25  1.7279e-25  1.7945e-25  3.0538e-25  1.8113e-25  5.4166e-25  1.8411e-25  9.6386e-25  1.8943e-25  1.7221e-24  1.9893e-25  3.0953e-24  2.1593e-25  5.6174e-24
      2.85  1.7665e-25  3.0291e-27  1.7665e-25  3.1707e-27  1.7665e-25  3.4224e-27  1.7665e-25  3.8700e-27  1.7666e-25  4.6660e-27  1.7667e-25  6.0815e-27  1.7668e-25  8.5985e-27  1.7671e-25  1.3074e-26  1.7677e-25  2.1033e-26  1.7686e-25  3.5185e-26  1.7703e-25  6.0348e-26  1.7732e-25  1.0509e-25  1.7785e-25  1.8467e-25  1.7878e-25  3.2628e-25  1.8045e-25  5.7866e-25  1.8342e-25  1.0297e-24  1.8870e-25  1.8396e-24  1.9813e-25  3.3062e-24  2.1501e-25  5.9988e-24
      2.90  1.7598e-25  3.3930e-27  1.7598e-25  3.5434e-27  1.7598e-25  3.8109e-27  1.7598e-25  4.2867e-27  1.7599e-25  5.1327e-27  1.7600e-25  6.6371e-27  1.7601e-25  9.3123e-27  1.7604e-25  1.4069e-26  1.7609e-25  2.2529e-26  1.7619e-25  3.7570e-26  1.7635e-25  6.4317e-26  1.7665e-25  1.1188e-25  1.7717e-25  1.9647e-25  1.7810e-25  3.4702e-25  1.7975e-25  6.1535e-25  1.8270e-25  1.0949e-24  1.8794e-25  1.9559e-24  1.9731e-25  3.5149e-24  2.1407e-25  6.3754e-24
      2.95  1.7528e-25  3.8066e-27  1.7528e-25  3.9659e-27  1.7528e-25  4.2491e-27  1.7528e-25  4.7528e-27  1.7529e-25  5.6486e-27  1.7530e-25  7.2415e-27  1.7532e-25  1.0074e-26  1.7534e-25  1.5111e-26  1.7540e-25  2.4068e-26  1.7549e-25  3.9995e-26  1.7565e-25  6.8316e-26  1.7594e-25  1.1868e-25  1.7646e-25  2.0827e-25  1.7739e-25  3.6772e-25  1.7903e-25  6.5191e-25  1.8195e-25  1.1598e-24  1.8716e-25  2.0717e-24  1.9646e-25  3.7224e-24  2.1312e-25  6.7503e-24
      3.00  1.7456e-25  4.2740e-27  1.7456e-25  4.4422e-27  1.7456e-25  4.7412e-27  1.7456e-25  5.2728e-27  1.7457e-25  6.2183e-27  1.7458e-25  7.8996e-27  1.7459e-25  1.0889e-26  1.7462e-25  1.6206e-26  1.7467e-25  2.5660e-26  1.7476e-25  4.2472e-26  1.7493e-25  7.2368e-26  1.7522e-25  1.2554e-25  1.7573e-25  2.2011e-25  1.7665e-25  3.8846e-25  1.7828e-25  6.8852e-25  1.8118e-25  1.2247e-24  1.8635e-25  2.1875e-24  1.9559e-25  3.9299e-24  2.1214e-25  7.1235e-24
      3.05  1.7381e-25  4.8016e-27  1.7381e-25  4.9785e-27  1.7381e-25  5.2930e-27  1.7381e-25  5.8523e-27  1.7382e-25  6.8469e-27  1.7383e-25  8.6156e-27  1.7384e-25  1.1761e-26  1.7387e-25  1.7354e-26  1.7392e-25  2.7300e-26  1.7401e-25  4.4986e-26  1.7418e-25  7.6439e-26  1.7446e-25  1.3238e-25  1.7498e-25  2.3189e-25  1.7588e-25  4.0904e-25  1.7750e-25  7.2480e-25  1.8038e-25  1.2891e-24  1.8552e-25  2.3021e-24  1.9469e-25  4.1350e-24  2.1113e-25  7.4922e-24
      3.10  1.7303e-25  5.3710e-27  1.7303e-25  5.5567e-27  1.7303e-25  5.8869e-27  1.7304e-25  6.4742e-27  1.7304e-25  7.5185e-27  1.7305e-25  9.3755e-27  1.7307e-25  1.2678e-26  1.7309e-25  1.8550e-26  1.7315e-25  2.8994e-26  1.7324e-25  4.7565e-26  1.7340e-25  8.0592e-26  1.7368e-25  1.3933e-25  1.7419e-25  2.4384e-25  1.7509e-25  4.2988e-25  1.7670e-25  7.6149e-25  1.7956e-25  1.3541e-24  1.8466e-25  2.4178e-24  1.9376e-25  4.3422e-24  2.1008e-25  7.8650e-24
      3.15  1.7222e-25  5.9622e-27  1.7222e-25  6.1570e-27  1.7223e-25  6.5033e-27  1.7223e-25  7.1192e-27  1.7223e-25  8.2144e-27  1.7224e-25  1.0162e-26  1.7226e-25  1.3626e-26  1.7229e-25  1.9785e-26  1.7234e-25  3.0737e-26  1.7243e-25  5.0215e-26  1.7259e-25  8.4854e-26  1.7287e-25  1.4646e-25  1.7338e-25  2.5607e-25  1.7427e-25  4.5120e-25  1.7587e-25  7.9900e-25  1.7871e-25  1.4205e-24  1.8377e-25  2.5361e-24  1.9281e-25  4.5537e-24  2.0901e-25  8.2449e-24
      3.20  1.7139e-25  6.5848e-27  1.7139e-25  6.7890e-27  1.7139e-25  7.1521e-27  1.7139e-25  7.7978e-27  1.7140e-25  8.9460e-27  1.7141e-25  1.0988e-26  1.7142e-25  1.4619e-26  1.7145e-25  2.1076e-26  1.7150e-25  3.2559e-26  1.7159e-25  5.2979e-26  1.7175e-25  8.9295e-26  1.7203e-25  1.5389e-25  1.7253e-25  2.6881e-25  1.7342e-25  4.7338e-25  1.7501e-25  8.3801e-25  1.7783e-25  1.4896e-24  1.8285e-25  2.6590e-24  1.9182e-25  4.7733e-24  2.0791e-25  8.6394e-24
      3.25  1.7052e-25  7.2816e-27  1.7052e-25  7.4958e-27  1.7052e-25  7.8768e-27  1.7053e-25  8.5542e-27  1.7053e-25  9.7588e-27  1.7054e-25  1.1901e-26  1.7056e-25  1.5710e-26  1.7058e-25  2.2485e-26  1.7063e-25  3.4531e-26  1.7072e-25  5.5955e-26  1.7088e-25  9.4057e-26  1.7116e-25  1.6183e-25  1.7166e-25  2.8241e-25  1.7254e-25  4.9705e-25  1.7411e-25  8.7964e-25  1.7691e-25  1.5632e-24  1.8190e-25  2.7901e-24  1.9080e-25  5.0081e-24  2.0678e-25  9.0602e-24
      3.30  1.6962e-25  8.0904e-27  1.6962e-25  8.3156e-27  1.6963e-25  8.7162e-27  1.6963e-25  9.4285e-27  1.6963e-25  1.0695e-26  1.6964e-25  1.2948e-26  1.6966e-25  1.6953e-26  1.6969e-25  2.4077e-26  1.6974e-25  3.6745e-26  1.6982e-25  5.9274e-26  1.6998e-25  9.9344e-26  1.7026e-25  1.7062e-25  1.7075e-25  2.9744e-25  1.7163e-25  5.2320e-25  1.7319e-25  9.2561e-25  1.7597e-25  1.6446e-24  1.8092e-25  2.9349e-24  1.8976e-25  5.2667e-24  2.0562e-25  9.5250e-24
      3.35  1.6869e-25  9.0145e-27  1.6869e-25  9.2525e-27  1.6870e-25  9.6756e-27  1.6870e-25  1.0428e-26  1.6870e-25  1.1766e-26  1.6871e-25  1.4146e-26  1.6873e-25  1.8378e-26  1.6876e-25  2.5903e-26  1.6881e-25  3.9286e-26  1.6889e-25  6.3088e-26  1.6905e-25  1.0542e-25  1.6933e-25  1.8073e-25  1.6982e-25  3.1473e-25  1.7069e-25  5.5330e-25  1.7224e-25  9.7856e-25  1.7500e-25  1.7384e-24  1.7991e-25  3.1018e-24  1.8869e-25  5.5653e-24  2.0443e-25  1.0061e-23
      3.40  1.6773e-25  1.0060e-26  1.6773e-25  1.0313e-26  1.6773e-25  1.0763e-26  1.6774e-25  1.1563e-26  1.6774e-25  1.2986e-26  1.6775e-25  1.5516e-26  1.6776e-25  2.0015e-26  1.6779e-25  2.8016e-26  1.6784e-25  4.2245e-26  1.6793e-25  6.7551e-26  1.6808e-25  1.1256e-25  1.6836e-25  1.9264e-25  1.6885e-25  3.3514e-25  1.6971e-25  5.8886e-25  1.7125e-25  1.0412e-24  1.7399e-25  1.8493e-24  1.7887e-25  3.2995e-24  1.8758e-25  5.9194e-24  2.0322e-25  1.0697e-23
      3.45  1.6673e-25  1.1237e-26  1.6673e-25  1.1509e-26  1.6673e-25  1.1991e-26  1.6674e-25  1.2849e-26  1.6674e-25  1.4374e-26  1.6675e-25  1.7086e-26  1.6677e-25  2.1909e-26  1.6679e-25  3.0487e-26  1.6684e-25  4.5742e-26  1.6693e-25  7.2873e-26  1.6708e-25  1.2113e-25  1.6736e-25  2.0700e-25  1.6784e-25  3.5980e-25  1.6870e-25  6.3190e-25  1.7023e-25  1.1170e-24  1.7295e-25  1.9839e-24  1.7780e-25  3.5394e-24  1.8645e-25  6.3491e-24  2.0199e-25  1.1470e-23
      3.50  1.6570e-25  1.2559e-26  1.6570e-25  1.2853e-26  1.6570e-25  1.3375e-26  1.6570e-25  1.4304e-26  1.6571e-25  1.5956e-26  1.6572e-25  1.8893e-26  1.6573e-25  2.4117e-26  1.6576e-25  3.3406e-26  1.6581e-25  4.9927e-26  1.6589e-25  7.9311e-26  1.6605e-25  1.3158e-25  1.6632e-25  2.2458e-25  1.6680e-25  3.9010e-25  1.6765e-25  6.8488e-25  1.6917e-25  1.2105e-24  1.7187e-25  2.1499e-24  1.7669e-25  3.8356e-24  1.8529e-25  6.8801e-24  2.0073e-25  1.2426e-23
      3.55  1.6463e-25  1.4056e-26  1.6463e-25  1.4378e-26  1.6463e-25  1.4950e-26  1.6463e-25  1.5968e-26  1.6464e-25  1.7778e-26  1.6465e-25  2.0996e-26  1.6466e-25  2.6719e-26  1.6469e-25  3.6897e-26  1.6474e-25  5.4999e-26  1.6482e-25  8.7196e-26  1.6497e-25  1.4447e-25  1.6524e-25  2.4638e-25  1.6572e-25  4.2777e-25  1.6657e-25  7.5085e-25  1.6808e-25  1.3270e-24  1.7077e-25  2.3570e-24  1.7555e-25  4.2057e-24  1.8411e-25  7.5434e-24  1.9946e-25  1.3622e-23
      3.60  1.6352e-25  1.5733e-26  1.6352e-25  1.6090e-26  1.6352e-25  1.6724e-26  1.6352e-25  1.7853e-26  1.6353e-25  1.9859e-26  1.6353e-25  2.3428e-26  1.6355e-25  2.9773e-26  1.6358e-25  4.1059e-26  1.6363e-25  6.1130e-26  1.6371e-25  9.6830e-26  1.6386e-25  1.6034e-25  1.6413e-25  2.7335e-25  1.6460e-25  4.7450e-25  1.6545e-25  8.3284e-25  1.6695e-25  1.4720e-24  1.6962e-25  2.6148e-24  1.7438e-25  4.6662e-24  1.8289e-25  8.3703e-24  1.9816e-25  1.5114e-23
      3.65  1.6236e-25  1.7610e-26  1.6236e-25  1.8011e-26  1.6236e-25  1.8724e-26  1.6237e-25  1.9991e-26  1.6237e-25  2.2245e-26  1.6238e-25  2.6253e-26  1.6239e-25  3.3380e-26  1.6242e-25  4.6056e-26  1.6247e-25  6.8601e-26  1.6255e-25  1.0870e-25  1.6271e-25  1.8004e-25  1.6297e-25  3.0699e-25  1.6344e-25  5.3297e-25  1.6428e-25  9.3559e-25  1.6578e-25  1.6539e-24  1.6844e-25  2.9385e-24  1.7318e-25  5.2446e-24  1.8165e-25  9.4088e-24  1.9685e-25  1.6988e-23
      3.70  1.6116e-25  1.9720e-26  1.6116e-25  2.0176e-26  1.6117e-25  2.0988e-26  1.6117e-25  2.2432e-26  1.6117e-25  2.5000e-26  1.6118e-25  2.9566e-26  1.6120e-25  3.7685e-26  1.6122e-25  5.2126e-26  1.6127e-25  7.7810e-26  1.6136e-25  1.2349e-25  1.6151e-25  2.0477e-25  1.6177e-25  3.4940e-25  1.6224e-25  6.0689e-25  1.6308e-25  1.0657e-24  1.6457e-25  1.8844e-24  1.6722e-25  3.3488e-24  1.7195e-25  5.9781e-24  1.8040e-25  1.0726e-23  1.9556e-25  1.9363e-23
      3.75  1.5992e-25  2.2153e-26  1.5992e-25  2.2681e-26  1.5992e-25  2.3622e-26  1.5993e-25  2.5294e-26  1.5993e-25  2.8267e-26  1.5994e-25  3.3555e-26  1.5996e-25  4.2958e-26  1.5998e-25  5.9682e-26  1.6003e-25  8.9425e-26  1.6012e-25  1.4233e-25  1.6027e-25  2.3646e-25  1.6053e-25  4.0397e-25  1.6100e-25  7.0221e-25  1.6184e-25  1.2337e-24  1.6333e-25  2.1821e-24  1.6598e-25  3.8791e-24  1.7071e-25  6.9264e-24  1.7917e-25  1.2426e-23  1.9435e-25  2.2429e-23
      3.80  1.5930e-25  2.5507e-26  1.5930e-25  2.6131e-26  1.5930e-25  2.7242e-26  1.5930e-25  2.9217e-26  1.5931e-25  3.2730e-26  1.5932e-25  3.8976e-26  1.5933e-25  5.0084e-26  1.5936e-25  6.9840e-26  1.5941e-25  1.0498e-25  1.5949e-25  1.6748e-25  1.5964e-25  2.7868e-25  1.5991e-25  4.7658e-25  1.6038e-25  8.2893e-25  1.6122e-25  1.4569e-24  1.6271e-25  2.5776e-24  1.6537e-25  4.5829e-24  1.7011e-25  8.1835e-24  1.7859e-25  1.4679e-23  1.9381e-25  2.6481e-23
      3.85  1.5807e-25  3.3536e-26  1.5808e-25  3.4293e-26  1.5808e-25  3.5640e-26  1.5808e-25  3.8035e-26  1.5809e-25  4.2293e-26  1.5809e-25  4.9867e-26  1.5811e-25  6.3336e-26  1.5814e-25  8.7289e-26  1.5819e-25  1.2989e-25  1.5827e-25  2.0568e-25  1.5843e-25  3.4050e-25  1.5869e-25  5.8045e-25  1.5917e-25  1.0077e-24  1.6003e-25  1.7690e-24  1.6154e-25  3.1278e-24  1.6425e-25  5.5586e-24  1.6907e-25  9.9210e-24  1.7770e-25  1.7781e-23  1.9316e-25  3.2039e-23
      3.90  1.5682e-25  6.6876e-26  1.5682e-25  6.7826e-26  1.5682e-25  6.9516e-26  1.5683e-25  7.2521e-26  1.5683e-25  7.7864e-26  1.5684e-25  8.7367e-26  1.5686e-25  1.0427e-25  1.5689e-25  1.3432e-25  1.5694e-25  1.8778e-25  1.5703e-25  2.8286e-25  1.5718e-25  4.5203e-25  1.5746e-25  7.5306e-25  1.5796e-25  1.2890e-24  1.5884e-25  2.2439e-24  1.6040e-25  3.9477e-24  1.6319e-25  6.9937e-24  1.6816e-25  1.2453e-23  1.7706e-25  2.2267e-23  1.9300e-25  4.0003e-23
      3.95  1.5554e-25  2.1784e-25  1.5554e-25  2.1906e-25  1.5554e-25  2.2124e-25  1.5555e-25  2.2511e-25  1.5555e-25  2.3199e-25  1.5556e-25  2.4423e-25  1.5558e-25  2.6599e-25  1.5561e-25  3.0469e-25  1.5566e-25  3.7353e-25  1.5575e-25  4.9596e-25  1.5592e-25  7.1377e-25  1.5621e-25  1.1013e-24  1.5673e-25  1.7911e-24  1.5765e-25  3.0197e-24  1.5929e-25  5.2101e-24  1.6221e-25  9.1211e-24  1.6742e-25  1.6115e-23  1.7674e-25  2.8635e-23  1.9339e-25  5.1127e-23
