# This was generated using Cloudy10 and the columns are ordered 
# as a log10 of the fraction of the metallicity to the solar metallicity
# 'c_*_Z' and 'h_*_Z' stands for cooling and heating respectively 
# at * metalicity
#
#     temp   h_-3.00_Z   c_-3.00_Z   h_-2.75_Z   c_-2.75_Z   h_-2.50_Z   c_-2.50_Z   h_-2.25_Z   c_-2.25_Z   h_-2.00_Z   c_-2.00_Z   h_-1.75_Z   c_-1.75_Z   h_-1.50_Z   c_-1.50_Z   h_-1.25_Z   c_-1.25_Z   h_-1.00_Z   c_-1.00_Z   h_-0.75_Z   c_-0.75_Z   h_-0.50_Z   c_-0.50_Z   h_-0.25_Z   c_-0.25_Z    h_0.00_Z    c_0.00_Z    h_0.25_Z    c_0.25_Z    h_0.50_Z    c_0.50_Z    h_0.75_Z    c_0.75_Z    h_1.00_Z    c_1.00_Z    h_1.25_Z    c_1.25_Z    h_1.50_Z    c_1.50_Z 
       4.00  1.3318e-33  9.3680e-27  2.3469e-33  9.4066e-27  4.1206e-33  9.4776e-27  7.2056e-33  9.6088e-27  1.2556e-32  9.8510e-27  2.1827e-32  1.0296e-26  3.7853e-32  1.1102e-26  6.5325e-32  1.2539e-26  1.1167e-31  1.5098e-26  1.8694e-31  1.9604e-26  2.9876e-31  2.7397e-26  4.3586e-31  4.0659e-26  5.4748e-31  6.2932e-26  6.9232e-31  1.0133e-25  1.1506e-30  1.7541e-25  5.1983e-30  4.5777e-25  2.1323e-29  1.0654e-24  3.8125e-29  2.6123e-24  1.3328e-29  3.0070e-24
       4.05  1.3318e-33  1.3968e-25  2.3469e-33  1.3978e-25  4.1206e-33  1.3996e-25  7.2056e-33  1.4028e-25  1.2556e-32  1.4085e-25  2.1827e-32  1.4185e-25  3.7853e-32  1.4364e-25  6.5325e-32  1.4679e-25  1.1167e-31  1.5236e-25  1.8694e-31  1.6217e-25  2.9876e-31  1.7927e-25  4.3586e-31  2.0864e-25  5.4748e-31  2.5762e-25  6.9232e-31  3.3470e-25  1.1506e-30  4.4125e-25  5.1983e-30  5.5320e-25  2.1323e-29  7.1650e-25  3.8125e-29  1.2464e-24  1.3328e-29  2.5478e-24
       4.10  1.3318e-33  2.5021e-24  2.3469e-33  2.5027e-24  4.1206e-33  2.5038e-24  7.2056e-33  2.5057e-24  1.2556e-32  2.5092e-24  2.1827e-32  2.5153e-24  3.7853e-32  2.5261e-24  6.5325e-32  2.5454e-24  1.1167e-31  2.5796e-24  1.8694e-31  2.6403e-24  2.9876e-31  2.7480e-24  4.3586e-31  2.9383e-24  5.4748e-31  3.2727e-24  6.9232e-31  3.8537e-24  1.1506e-30  4.8399e-24  5.1983e-30  6.4388e-24  2.1323e-29  8.7857e-24  3.8125e-29  1.1468e-23  1.3328e-29  1.2643e-23
       4.15  1.3318e-33  2.3392e-23  2.3469e-33  2.3395e-23  4.1206e-33  2.3400e-23  7.2056e-33  2.3410e-23  1.2556e-32  2.3428e-23  2.1827e-32  2.3459e-23  3.7853e-32  2.3515e-23  6.5325e-32  2.3614e-23  1.1167e-31  2.3790e-23  1.8694e-31  2.4103e-23  2.9876e-31  2.4660e-23  4.3586e-31  2.5648e-23  5.4748e-31  2.7400e-23  6.9232e-31  3.0504e-23  1.1506e-30  3.5980e-23  5.1983e-30  4.5579e-23  2.1323e-29  6.2190e-23  3.8125e-29  9.0255e-23  1.3328e-29  1.3559e-22
       4.20  1.3318e-33  8.6033e-23  2.3469e-33  8.6043e-23  4.1206e-33  8.6059e-23  7.2056e-33  8.6089e-23  1.2556e-32  8.6141e-23  2.1827e-32  8.6235e-23  3.7853e-32  8.6401e-23  6.5325e-32  8.6696e-23  1.1167e-31  8.7221e-23  1.8694e-31  8.8155e-23  2.9876e-31  8.9815e-23  4.3586e-31  9.2768e-23  5.4748e-31  9.8019e-23  6.9232e-31  1.0736e-22  1.1506e-30  1.2396e-22  5.1983e-30  1.5346e-22  2.1323e-29  2.0590e-22  3.8125e-29  2.9902e-22  1.3328e-29  4.6419e-22
       4.25  1.3318e-33  1.2965e-22  2.3469e-33  1.2966e-22  4.1206e-33  1.2969e-22  7.2056e-33  1.2974e-22  1.2556e-32  1.2982e-22  2.1827e-32  1.2998e-22  3.7853e-32  1.3025e-22  6.5325e-32  1.3073e-22  1.1167e-31  1.3160e-22  1.8694e-31  1.3313e-22  2.9876e-31  1.3585e-22  4.3586e-31  1.4070e-22  5.4748e-31  1.4932e-22  6.9232e-31  1.6467e-22  1.1506e-30  1.9202e-22  5.1983e-30  2.4082e-22  2.1323e-29  3.2810e-22  3.8125e-29  4.8491e-22  1.3328e-29  7.6864e-22
       4.30  1.3318e-33  1.2056e-22  2.3469e-33  1.2058e-22  4.1206e-33  1.2061e-22  7.2056e-33  1.2067e-22  1.2556e-32  1.2077e-22  2.1827e-32  1.2096e-22  3.7853e-32  1.2129e-22  6.5325e-32  1.2188e-22  1.1167e-31  1.2292e-22  1.8694e-31  1.2478e-22  2.9876e-31  1.2809e-22  4.3586e-31  1.3397e-22  5.4748e-31  1.4444e-22  6.9232e-31  1.6308e-22  1.1506e-30  1.9631e-22  5.1983e-30  2.5561e-22  2.1323e-29  3.6182e-22  3.8125e-29  5.5310e-22  1.3328e-29  9.0041e-22
       4.35  1.3318e-33  9.5560e-23  2.3469e-33  9.5583e-23  4.1206e-33  9.5622e-23  7.2056e-33  9.5692e-23  1.2556e-32  9.5817e-23  2.1827e-32  9.6039e-23  3.7853e-32  9.6434e-23  6.5325e-32  9.7136e-23  1.1167e-31  9.8385e-23  1.8694e-31  1.0061e-22  2.9876e-31  1.0456e-22  4.3586e-31  1.1158e-22  5.4748e-31  1.2409e-22  6.9232e-31  1.4636e-22  1.1506e-30  1.8605e-22  5.1983e-30  2.5692e-22  2.1323e-29  3.8386e-22  3.8125e-29  6.1248e-22  1.3328e-29  1.0282e-21
       4.40  1.3318e-33  7.4407e-23  2.3469e-33  7.4435e-23  4.1206e-33  7.4484e-23  7.2056e-33  7.4571e-23  1.2556e-32  7.4726e-23  2.1827e-32  7.5001e-23  3.7853e-32  7.5490e-23  6.5325e-32  7.6360e-23  1.1167e-31  7.7907e-23  1.8694e-31  8.0658e-23  2.9876e-31  8.5552e-23  4.3586e-31  9.4259e-23  5.4748e-31  1.0975e-22  6.9232e-31  1.3734e-22  1.1506e-30  1.8651e-22  5.1983e-30  2.7429e-22  2.1323e-29  4.3151e-22  3.8125e-29  7.1462e-22  1.3328e-29  1.2293e-21
       4.45  1.3318e-33  6.0001e-23  2.3469e-33  6.0036e-23  4.1206e-33  6.0098e-23  7.2056e-33  6.0209e-23  1.2556e-32  6.0406e-23  2.1827e-32  6.0757e-23  3.7853e-32  6.1381e-23  6.5325e-32  6.2490e-23  1.1167e-31  6.4463e-23  1.8694e-31  6.7971e-23  2.9876e-31  7.4211e-23  4.3586e-31  8.5312e-23  5.4748e-31  1.0506e-22  6.9232e-31  1.4023e-22  1.1506e-30  2.0290e-22  5.1983e-30  3.1475e-22  2.1323e-29  5.1495e-22  3.8125e-29  8.7516e-22  1.3328e-29  1.5292e-21
       4.50  1.3318e-33  4.9155e-23  2.3469e-33  4.9200e-23  4.1206e-33  4.9281e-23  7.2056e-33  4.9424e-23  1.2556e-32  4.9679e-23  2.1827e-32  5.0132e-23  3.7853e-32  5.0937e-23  6.5325e-32  5.2370e-23  1.1167e-31  5.4918e-23  1.8694e-31  5.9449e-23  2.9876e-31  6.7508e-23  4.3586e-31  8.1845e-23  5.4748e-31  1.0736e-22  6.9232e-31  1.5277e-22  1.1506e-30  2.3369e-22  5.1983e-30  3.7810e-22  2.1323e-29  6.3652e-22  3.8125e-29  1.1013e-21  1.3328e-29  1.9447e-21
       4.55  1.3318e-33  3.9809e-23  2.3469e-33  3.9868e-23  4.1206e-33  3.9972e-23  7.2056e-33  4.0156e-23  1.2556e-32  4.0485e-23  2.1827e-32  4.1070e-23  3.7853e-32  4.2109e-23  6.5325e-32  4.3958e-23  1.1167e-31  4.7247e-23  1.8694e-31  5.3095e-23  2.9876e-31  6.3496e-23  4.3586e-31  8.2001e-23  5.4748e-31  1.1493e-22  6.9232e-31  1.7355e-22  1.1506e-30  2.7803e-22  5.1983e-30  4.6453e-22  2.1323e-29  7.9843e-22  3.8125e-29  1.3994e-21  1.3328e-29  2.4914e-21
       4.60  1.3318e-33  3.2287e-23  2.3469e-33  3.2686e-23  4.1206e-33  3.2496e-23  7.2056e-33  3.2734e-23  1.2556e-32  3.3156e-23  2.1827e-32  3.3907e-23  3.7853e-32  3.5243e-23  6.5325e-32  3.7618e-23  1.1167e-31  4.1843e-23  1.8694e-31  4.9357e-23  2.9876e-31  6.2721e-23  4.3586e-31  8.6497e-23  5.4748e-31  1.2881e-22  6.9232e-31  2.0415e-22  1.1506e-30  3.3846e-22  5.1983e-30  5.7831e-22  2.1323e-29  1.0080e-21  3.8125e-29  1.7825e-21  1.3328e-29  3.1924e-21
       4.65  1.3318e-33  2.7359e-23  2.3469e-33  2.7455e-23  4.1206e-33  2.7626e-23  7.2056e-33  2.7930e-23  1.2556e-32  2.8470e-23  2.1827e-32  2.9430e-23  3.7853e-32  3.1138e-23  6.5325e-32  3.4175e-23  1.1167e-31  3.9577e-23  1.8694e-31  4.9183e-23  2.9876e-31  6.6271e-23  4.3586e-31  9.6672e-23  5.4748e-31  1.5078e-22  6.9232e-31  2.4714e-22  1.1506e-30  4.1894e-22  5.1983e-30  7.2589e-22  2.1323e-29  1.2763e-21  3.8125e-29  2.2694e-21  1.3328e-29  4.0814e-21
       4.70  1.3318e-33  2.6033e-23  2.3469e-33  2.6417e-23  4.1206e-33  2.6373e-23  7.2056e-33  2.6760e-23  1.2556e-32  2.7448e-23  2.1827e-32  2.8672e-23  3.7853e-32  3.0848e-23  6.5325e-32  3.4719e-23  1.1167e-31  4.1602e-23  1.8694e-31  5.3844e-23  2.9876e-31  7.5621e-23  4.3586e-31  1.1437e-22  5.4748e-31  1.8333e-22  6.9232e-31  3.0617e-22  1.1506e-30  5.2525e-22  5.1983e-30  9.1686e-22  2.1323e-29  1.6197e-21  3.8125e-29  2.8899e-21  1.3328e-29  5.2135e-21
       4.75  1.3318e-33  3.0592e-23  2.3469e-33  3.0747e-23  4.1206e-33  3.1332e-23  7.2056e-33  3.1512e-23  1.2556e-32  3.2383e-23  2.1827e-32  3.3932e-23  3.7853e-32  3.6686e-23  6.5325e-32  4.1584e-23  1.1167e-31  5.0295e-23  1.8694e-31  6.5788e-23  2.9876e-31  9.3350e-23  4.3586e-31  1.4239e-22  5.4748e-31  2.2969e-22  6.9232e-31  3.8522e-22  1.1506e-30  6.6271e-22  5.1983e-30  1.1591e-21  2.1323e-29  2.0509e-21  3.8125e-29  3.6657e-21  1.3328e-29  6.6293e-21
       4.80  1.3318e-33  4.4566e-23  2.3469e-33  4.4762e-23  4.1206e-33  4.5109e-23  7.2056e-33  4.5275e-23  1.2556e-32  4.6364e-23  2.1827e-32  4.8300e-23  3.7853e-32  5.1743e-23  6.5325e-32  5.7866e-23  1.1167e-31  6.8757e-23  1.8694e-31  8.8126e-23  2.9876e-31  1.2258e-22  4.3586e-31  1.8390e-22  5.4748e-31  2.9307e-22  6.9232e-31  4.8760e-22  1.1506e-30  8.3482e-22  5.1983e-30  1.4563e-21  2.1323e-29  2.5744e-21  3.8125e-29  4.6028e-21  1.3328e-29  8.3371e-21
       4.85  1.3318e-33  6.5312e-23  2.3469e-33  6.6205e-23  4.1206e-33  6.5973e-23  7.2056e-33  6.7392e-23  1.2556e-32  6.8061e-23  2.1827e-32  7.0438e-23  3.7853e-32  7.4666e-23  6.5325e-32  8.2184e-23  1.1167e-31  9.5555e-23  1.8694e-31  1.1934e-22  2.9876e-31  1.6165e-22  4.3586e-31  2.3694e-22  5.4748e-31  3.7101e-22  6.9232e-31  6.0998e-22  1.1506e-30  1.0367e-21  5.1983e-30  1.8009e-21  2.1323e-29  3.1773e-21  3.8125e-29  5.6793e-21  1.3328e-29  1.0299e-20
       4.90  1.3318e-33  8.1001e-23  2.3469e-33  8.1284e-23  4.1206e-33  8.1788e-23  7.2056e-33  8.2683e-23  1.2556e-32  8.4275e-23  2.1827e-32  8.7107e-23  3.7853e-32  9.2143e-23  6.5325e-32  1.0110e-22  1.1167e-31  1.1703e-22  1.8694e-31  1.4536e-22  2.9876e-31  1.9576e-22  4.3586e-31  2.8546e-22  5.4748e-31  4.4518e-22  6.9232e-31  7.2991e-22  1.1506e-30  1.2384e-21  5.1983e-30  2.1495e-21  2.1323e-29  3.7914e-21  3.8125e-29  6.7793e-21  1.3328e-29  1.2307e-20
       4.95  1.3318e-33  7.9772e-23  2.3469e-33  8.0097e-23  4.1206e-33  8.0675e-23  7.2056e-33  8.2518e-23  1.2556e-32  8.4363e-23  2.1827e-32  8.6776e-23  3.7853e-32  9.2551e-23  6.5325e-32  1.0282e-22  1.1167e-31  1.2109e-22  1.8694e-31  1.5359e-22  2.9876e-31  2.1140e-22  4.3586e-31  3.1428e-22  5.4748e-31  4.9748e-22  6.9232e-31  8.2408e-22  1.1506e-30  1.4074e-21  5.1983e-30  2.4527e-21  2.1323e-29  4.3370e-21  3.8125e-29  7.7681e-21  1.3328e-29  1.4123e-20
       5.00  1.3318e-33  6.8386e-23  2.3469e-33  6.8748e-23  4.1206e-33  6.9390e-23  7.2056e-33  7.0532e-23  1.2556e-32  7.2564e-23  2.1827e-32  7.6176e-23  3.7853e-32  8.1783e-23  6.5325e-32  9.3095e-23  1.1167e-31  1.1321e-22  1.8694e-31  1.4900e-22  2.9876e-31  2.1267e-22  4.3586e-31  3.2599e-22  5.4748e-31  5.2780e-22  6.9232e-31  8.8762e-22  1.1506e-30  1.5305e-21  5.1983e-30  2.6831e-21  2.1323e-29  4.7627e-21  3.8125e-29  8.5555e-21  1.3328e-29  1.5599e-20
       5.05  1.3318e-33  5.4132e-23  2.3469e-33  5.4499e-23  4.1206e-33  5.5152e-23  7.2056e-33  5.6314e-23  1.2556e-32  5.8380e-23  2.1827e-32  6.2053e-23  3.7853e-32  6.8586e-23  6.5325e-32  8.0205e-23  1.1167e-31  1.0087e-22  1.8694e-31  1.3763e-22  2.9876e-31  2.0302e-22  4.3586e-31  3.1943e-22  5.4748e-31  5.2677e-22  6.9232e-31  8.9654e-22  1.1506e-30  1.5575e-21  5.1983e-30  2.7435e-21  2.1323e-29  4.8863e-21  3.8125e-29  8.8036e-21  1.3328e-29  1.6107e-20
       5.10  1.3318e-33  4.2715e-23  2.3469e-33  4.3073e-23  4.1206e-33  4.3708e-23  7.2056e-33  4.4838e-23  1.2556e-32  4.6848e-23  2.1827e-32  5.0421e-23  3.7853e-32  5.6777e-23  6.5325e-32  6.8079e-23  1.1167e-31  8.8182e-23  1.8694e-31  1.2394e-22  2.9876e-31  1.8757e-22  4.3586e-31  3.0083e-22  5.4748e-31  5.0259e-22  6.9232e-31  8.6253e-22  1.1506e-30  1.5062e-21  5.1983e-30  2.6622e-21  2.1323e-29  4.7539e-21  3.8125e-29  8.5874e-21  1.3328e-29  1.5765e-20
       5.15  1.3318e-33  3.3961e-23  2.3469e-33  3.4660e-23  4.1206e-33  3.4948e-23  7.2056e-33  3.6431e-23  1.2556e-32  3.8067e-23  2.1827e-32  4.1617e-23  3.7853e-32  4.7930e-23  6.5325e-32  5.9158e-23  1.1167e-31  7.9129e-23  1.8694e-31  1.1466e-22  2.9876e-31  1.7787e-22  4.3586e-31  2.9040e-22  5.4748e-31  4.9090e-22  6.9232e-31  8.4866e-22  1.1506e-30  1.4887e-21  5.1983e-30  2.6390e-21  2.1323e-29  4.7229e-21  3.8125e-29  8.5503e-21  1.3328e-29  1.5740e-20
       5.20  1.3318e-33  2.7419e-23  2.3469e-33  2.7785e-23  4.1206e-33  2.8436e-23  7.2056e-33  2.9593e-23  1.2556e-32  3.1650e-23  2.1827e-32  3.5310e-23  3.7853e-32  4.1818e-23  6.5325e-32  5.3391e-23  1.1167e-31  7.3977e-23  1.8694e-31  1.1060e-22  2.9876e-31  1.7576e-22  4.3586e-31  2.9177e-22  5.4748e-31  4.9849e-22  6.9232e-31  8.6742e-22  1.1506e-30  1.5277e-21  5.1983e-30  2.7150e-21  2.1323e-29  4.8684e-21  3.8125e-29  8.8303e-21  1.3328e-29  1.6295e-20
       5.25  1.3318e-33  2.2517e-23  2.3469e-33  2.2894e-23  4.1206e-33  2.3565e-23  7.2056e-33  2.5004e-23  1.2556e-32  2.6877e-23  2.1827e-32  3.0647e-23  3.7853e-32  3.7352e-23  6.5325e-32  4.9277e-23  1.1167e-31  7.0487e-23  1.8694e-31  1.0822e-22  2.9876e-31  1.7536e-22  4.3586e-31  2.9491e-22  5.4748e-31  5.0795e-22  6.9232e-31  8.8824e-22  1.1506e-30  1.5691e-21  5.1983e-30  2.7942e-21  2.1323e-29  5.0186e-21  3.8125e-29  9.1186e-21  1.3328e-29  1.6867e-20
       5.30  1.3318e-33  1.8806e-23  2.3469e-33  1.9190e-23  4.1206e-33  1.9871e-23  7.2056e-33  2.1083e-23  1.2556e-32  2.3238e-23  2.1827e-32  2.7071e-23  3.7853e-32  3.3887e-23  6.5325e-32  4.6009e-23  1.1167e-31  6.7571e-23  1.8694e-31  1.0593e-22  2.9876e-31  1.7419e-22  4.3586e-31  2.9573e-22  5.4748e-31  5.1236e-22  6.9232e-31  8.9915e-22  1.1506e-30  1.5919e-21  5.1983e-30  2.8393e-21  2.1323e-29  5.1069e-21  3.8125e-29  9.2951e-21  1.3328e-29  1.7235e-20
       5.35  1.3318e-33  1.5976e-23  2.3469e-33  1.6366e-23  4.1206e-33  1.7060e-23  7.2056e-33  1.8294e-23  1.2556e-32  2.0487e-23  2.1827e-32  2.4388e-23  3.7853e-32  3.1326e-23  6.5325e-32  4.3666e-23  1.1167e-31  6.5614e-23  1.8694e-31  1.0466e-22  2.9876e-31  1.7415e-22  4.3586e-31  2.9789e-22  5.4748e-31  5.1846e-22  6.9232e-31  9.1237e-22  1.1506e-30  1.6182e-21  5.1983e-30  2.8900e-21  2.1323e-29  5.2048e-21  3.8125e-29  9.4888e-21  1.3328e-29  1.7637e-20
       5.40  1.3318e-33  1.3766e-23  2.3469e-33  1.4146e-23  4.1206e-33  1.4821e-23  7.2056e-33  1.6023e-23  1.2556e-32  1.8160e-23  2.1827e-32  2.1961e-23  3.7853e-32  2.8720e-23  6.5325e-32  4.0741e-23  1.1167e-31  6.2123e-23  1.8694e-31  1.0016e-22  2.9876e-31  1.6787e-22  4.3586e-31  2.8843e-22  5.4748e-31  5.0339e-22  6.9232e-31  8.8738e-22  1.1506e-30  1.5757e-21  5.1983e-30  2.8172e-21  2.1323e-29  5.0798e-21  3.8125e-29  9.2773e-21  1.3328e-29  1.7291e-20
       5.45  1.3318e-33  1.1970e-23  2.3469e-33  1.2289e-23  4.1206e-33  1.2855e-23  7.2056e-33  1.3863e-23  1.2556e-32  1.5654e-23  2.1827e-32  1.8840e-23  3.7853e-32  2.4506e-23  6.5325e-32  3.4584e-23  1.1167e-31  5.2509e-23  1.8694e-31  8.4401e-23  2.9876e-31  1.4116e-22  4.3586e-31  2.4226e-22  5.4748e-31  4.2254e-22  6.9232e-31  7.4471e-22  1.1506e-30  1.3226e-21  5.1983e-30  2.3660e-21  2.1323e-29  4.2714e-21  3.8125e-29  7.8176e-21  1.3328e-29  1.4623e-20
       5.50  1.3318e-33  1.0475e-23  2.3469e-33  1.0704e-23  4.1206e-33  1.1113e-23  7.2056e-33  1.1839e-23  1.2556e-32  1.3131e-23  2.1827e-32  1.5428e-23  3.7853e-32  1.9513e-23  6.5325e-32  2.6778e-23  1.1167e-31  3.9702e-23  1.8694e-31  6.2697e-23  2.9876e-31  1.0363e-22  4.3586e-31  1.7654e-22  5.4748e-31  3.0657e-22  6.9232e-31  5.3904e-22  1.1506e-30  9.5630e-22  5.1983e-30  1.7106e-21  2.1323e-29  3.0905e-21  3.8125e-29  5.6670e-21  1.3328e-29  1.0636e-20
       5.55  1.3318e-33  9.3081e-24  2.3469e-33  9.4808e-24  4.1206e-33  9.7880e-24  7.2056e-33  1.0334e-23  1.2556e-32  1.1305e-23  2.1827e-32  1.3033e-23  3.7853e-32  1.6105e-23  6.5325e-32  2.1568e-23  1.1167e-31  3.1287e-23  1.8694e-31  4.8580e-23  2.9876e-31  7.9361e-23  4.3586e-31  1.3420e-22  5.4748e-31  2.3201e-22  6.9232e-31  4.0692e-22  1.1506e-30  7.2099e-22  5.1983e-30  1.2891e-21  2.1323e-29  2.3299e-21  3.8125e-29  4.2770e-21  1.3328e-29  8.0441e-21
       5.60  1.3318e-33  8.4114e-24  2.3469e-33  8.5613e-24  4.1206e-33  8.8279e-24  7.2056e-33  9.3020e-24  1.2556e-32  1.0145e-23  2.1827e-32  1.1644e-23  3.7853e-32  1.4310e-23  6.5325e-32  1.9053e-23  1.1167e-31  2.7488e-23  1.8694e-31  4.2498e-23  2.9876e-31  6.9217e-23  4.3586e-31  1.1682e-22  5.4748e-31  2.0173e-22  6.9232e-31  3.5359e-22  1.1506e-30  6.2636e-22  5.1983e-30  1.1200e-21  2.1323e-29  2.0249e-21  3.8125e-29  3.7200e-21  1.3328e-29  7.0055e-21
       5.65  1.3318e-33  7.7118e-24  2.3469e-33  7.8549e-24  4.1206e-33  8.1094e-24  7.2056e-33  8.5619e-24  1.2556e-32  9.3666e-24  2.1827e-32  1.0798e-23  3.7853e-32  1.3343e-23  6.5325e-32  1.7870e-23  1.1167e-31  2.5923e-23  1.8694e-31  4.0251e-23  2.9876e-31  6.5758e-23  4.3586e-31  1.1120e-22  5.4748e-31  1.9227e-22  6.9232e-31  3.3727e-22  1.1506e-30  5.9776e-22  5.1983e-30  1.0693e-21  2.1323e-29  1.9342e-21  3.8125e-29  3.5557e-21  1.3328e-29  6.7029e-21
       5.70  1.3318e-33  7.1550e-24  2.3469e-33  7.2951e-24  4.1206e-33  7.5442e-24  7.2056e-33  7.9871e-24  1.2556e-32  8.7748e-24  2.1827e-32  1.0176e-23  3.7853e-32  1.2667e-23  6.5325e-32  1.7098e-23  1.1167e-31  2.4980e-23  1.8694e-31  3.9005e-23  2.9876e-31  6.3972e-23  4.3586e-31  1.0845e-22  5.4748e-31  1.8781e-22  6.9232e-31  3.2977e-22  1.1506e-30  5.8484e-22  5.1983e-30  1.0467e-21  2.1323e-29  1.8943e-21  3.8125e-29  3.4846e-21  1.3328e-29  6.5750e-21
       5.75  1.3318e-33  6.6481e-24  2.3469e-33  6.7815e-24  4.1206e-33  7.0186e-24  7.2056e-33  7.4404e-24  1.2556e-32  8.1905e-24  2.1827e-32  9.5244e-24  3.7853e-32  1.1897e-23  6.5325e-32  1.6116e-23  1.1167e-31  2.3622e-23  1.8694e-31  3.6978e-23  2.9876e-31  6.0754e-23  4.3586e-31  1.0311e-22  5.4748e-31  1.7870e-22  6.9232e-31  3.1391e-22  1.1506e-30  5.5691e-22  5.1983e-30  9.9708e-22  2.1323e-29  1.8053e-21  3.8125e-29  3.3231e-21  1.3328e-29  6.2770e-21
       5.80  1.3318e-33  6.2575e-24  2.3469e-33  6.3800e-24  4.1206e-33  6.5978e-24  7.2056e-33  6.9852e-24  1.2556e-32  7.6741e-24  2.1827e-32  8.8992e-24  3.7853e-32  1.1078e-23  6.5325e-32  1.4953e-23  1.1167e-31  2.1847e-23  1.8694e-31  3.4114e-23  2.9876e-31  5.5951e-23  4.3586e-31  9.4860e-23  5.4748e-31  1.6429e-22  6.9232e-31  2.8851e-22  1.1506e-30  5.1180e-22  5.1983e-30  9.1644e-22  2.1323e-29  1.6599e-21  3.8125e-29  3.0576e-21  1.3328e-29  5.7822e-21
       5.85  1.3318e-33  5.9602e-24  2.3469e-33  6.0757e-24  4.1206e-33  6.2810e-24  7.2056e-33  6.6461e-24  1.2556e-32  7.2955e-24  2.1827e-32  8.4503e-24  3.7853e-32  1.0504e-23  6.5325e-32  1.4157e-23  1.1167e-31  2.0656e-23  1.8694e-31  3.2219e-23  2.9876e-31  5.2805e-23  4.3586e-31  8.9485e-23  5.4748e-31  1.5494e-22  6.9232e-31  2.7207e-22  1.1506e-30  4.8266e-22  5.1983e-30  8.6443e-22  2.1323e-29  1.5663e-21  3.8125e-29  2.8873e-21  1.3328e-29  5.4664e-21
       5.90  1.3318e-33  5.7437e-24  2.3469e-33  5.8589e-24  4.1206e-33  6.0639e-24  7.2056e-33  6.4284e-24  1.2556e-32  7.0766e-24  2.1827e-32  8.2294e-24  3.7853e-32  1.0280e-23  6.5325e-32  1.3926e-23  1.1167e-31  2.0413e-23  1.8694e-31  3.1957e-23  2.9876e-31  5.2507e-23  4.3586e-31  8.9126e-23  5.4748e-31  1.5448e-22  6.9232e-31  2.7143e-22  1.1506e-30  4.8175e-22  5.1983e-30  8.6316e-22  2.1323e-29  1.5648e-21  3.8125e-29  2.8866e-21  1.3328e-29  5.4711e-21
       5.95  1.3318e-33  5.5890e-24  2.3469e-33  5.7067e-24  4.1206e-33  5.9159e-24  7.2056e-33  6.2879e-24  1.2556e-32  6.9496e-24  2.1827e-32  8.1262e-24  3.7853e-32  1.0219e-23  6.5325e-32  1.3941e-23  1.1167e-31  2.0562e-23  1.8694e-31  3.2345e-23  2.9876e-31  5.3322e-23  4.3586e-31  9.0701e-23  5.4748e-31  1.5742e-22  6.9232e-31  2.7682e-22  1.1506e-30  4.9160e-22  5.1983e-30  8.8123e-22  2.1323e-29  1.5984e-21  3.8125e-29  2.9508e-21  1.3328e-29  5.5993e-21
       6.00  1.3318e-33  5.4797e-24  2.3469e-33  5.5978e-24  4.1206e-33  5.8077e-24  7.2056e-33  6.1810e-24  1.2556e-32  6.8448e-24  2.1827e-32  8.0254e-24  3.7853e-32  1.0125e-23  6.5325e-32  1.3860e-23  1.1167e-31  2.0503e-23  1.8694e-31  3.2325e-23  2.9876e-31  5.3372e-23  4.3586e-31  9.0880e-23  5.4748e-31  1.5783e-22  6.9232e-31  2.7767e-22  1.1506e-30  4.9327e-22  5.1983e-30  8.8456e-22  2.1323e-29  1.6053e-21  3.8125e-29  2.9659e-21  1.3328e-29  5.6349e-21
       6.05  1.3318e-33  5.4229e-24  2.3469e-33  5.5376e-24  4.1206e-33  5.7415e-24  7.2056e-33  6.1042e-24  1.2556e-32  6.7492e-24  2.1827e-32  7.8963e-24  3.7853e-32  9.9365e-24  6.5325e-32  1.3565e-23  1.1167e-31  2.0020e-23  1.8694e-31  3.1508e-23  2.9876e-31  5.1960e-23  4.3586e-31  8.8408e-23  5.4748e-31  1.5347e-22  6.9232e-31  2.6996e-22  1.1506e-30  4.7958e-22  5.1983e-30  8.6019e-22  2.1323e-29  1.5618e-21  3.8125e-29  2.8879e-21  1.3328e-29  5.4942e-21
       6.10  1.3318e-33  5.3977e-24  2.3469e-33  5.5065e-24  4.1206e-33  5.6999e-24  7.2056e-33  6.0438e-24  1.2556e-32  6.6555e-24  2.1827e-32  7.7432e-24  3.7853e-32  9.6777e-24  6.5325e-32  1.3119e-23  1.1167e-31  1.9240e-23  1.8694e-31  3.0133e-23  2.9876e-31  4.9528e-23  4.3586e-31  8.4094e-23  5.4748e-31  1.4580e-22  6.9232e-31  2.5630e-22  1.1506e-30  4.5520e-22  5.1983e-30  8.1652e-22  2.1323e-29  1.4831e-21  3.8125e-29  2.7447e-21  1.3328e-29  5.2290e-21
       6.15  1.3318e-33  5.4000e-24  2.3469e-33  5.5009e-24  4.1206e-33  5.6803e-24  7.2056e-33  5.9993e-24  1.2556e-32  6.5666e-24  2.1827e-32  7.5756e-24  3.7853e-32  9.3700e-24  6.5325e-32  1.2562e-23  1.1167e-31  1.8240e-23  1.8694e-31  2.8344e-23  2.9876e-31  4.6335e-23  4.3586e-31  7.8400e-23  5.4748e-31  1.3565e-22  6.9232e-31  2.3818e-22  1.1506e-30  4.2280e-22  5.1983e-30  7.5833e-22  2.1323e-29  1.3779e-21  3.8125e-29  2.5520e-21  1.3328e-29  4.8686e-21
       6.20  1.3318e-33  5.4243e-24  2.3469e-33  5.5144e-24  4.1206e-33  5.6747e-24  7.2056e-33  5.9597e-24  1.2556e-32  6.4665e-24  2.1827e-32  7.3678e-24  3.7853e-32  8.9708e-24  6.5325e-32  1.1822e-23  1.1167e-31  1.6894e-23  1.8694e-31  2.5921e-23  2.9876e-31  4.1995e-23  4.3586e-31  7.0643e-23  5.4748e-31  1.2180e-22  6.9232e-31  2.1343e-22  1.1506e-30  3.7847e-22  5.1983e-30  6.7858e-22  2.1323e-29  1.2332e-21  3.8125e-29  2.2858e-21  1.3328e-29  4.3670e-21
       6.25  1.3318e-33  5.4663e-24  2.3469e-33  5.5421e-24  4.1206e-33  5.6770e-24  7.2056e-33  5.9168e-24  1.2556e-32  6.3434e-24  2.1827e-32  7.1019e-24  3.7853e-32  8.4511e-24  6.5325e-32  1.0851e-23  1.1167e-31  1.5120e-23  1.8694e-31  2.2717e-23  2.9876e-31  3.6246e-23  4.3586e-31  6.0360e-23  5.4748e-31  1.0342e-22  6.9232e-31  1.8057e-22  1.1506e-30  3.1958e-22  5.1983e-30  5.7249e-22  2.1323e-29  1.0403e-21  3.8125e-29  1.9296e-21  1.3328e-29  3.6918e-21
       6.30  1.3318e-33  5.5497e-24  2.3469e-33  5.6102e-24  4.1206e-33  5.7178e-24  7.2056e-33  5.9092e-24  1.2556e-32  6.2495e-24  2.1827e-32  6.8548e-24  3.7853e-32  7.9312e-24  6.5325e-32  9.8459e-24  1.1167e-31  1.3252e-23  1.8694e-31  1.9314e-23  2.9876e-31  3.0109e-23  4.3586e-31  4.9353e-23  5.4748e-31  8.3721e-23  6.9232e-31  1.4531e-22  1.1506e-30  2.5631e-22  5.1983e-30  4.5839e-22  2.1323e-29  8.3258e-22  3.8125e-29  1.5449e-21  1.3328e-29  2.9600e-21
       6.35  1.3318e-33  5.6562e-24  2.3469e-33  5.7041e-24  4.1206e-33  5.7893e-24  7.2056e-33  5.9407e-24  1.2556e-32  6.2100e-24  2.1827e-32  6.6889e-24  3.7853e-32  7.5407e-24  6.5325e-32  9.0558e-24  1.1167e-31  1.1751e-23  1.8694e-31  1.6548e-23  2.9876e-31  2.5091e-23  4.3586e-31  4.0320e-23  5.4748e-31  6.7522e-23  6.9232e-31  1.1628e-22  1.1506e-30  2.0418e-22  5.1983e-30  3.6431e-22  2.1323e-29  6.6113e-22  3.8125e-29  1.2271e-21  1.3328e-29  2.3541e-21
       6.40  1.3318e-33  5.7852e-24  2.3469e-33  5.8241e-24  4.1206e-33  5.8932e-24  7.2056e-33  6.0161e-24  1.2556e-32  6.2348e-24  2.1827e-32  6.6237e-24  3.7853e-32  7.3153e-24  6.5325e-32  8.5455e-24  1.1167e-31  1.0734e-23  1.8694e-31  1.4629e-23  2.9876e-31  2.1566e-23  4.3586e-31  3.3933e-23  5.4748e-31  5.6026e-23  6.9232e-31  9.5631e-23  1.1506e-30  1.6706e-22  5.1983e-30  2.9727e-22  2.1323e-29  5.3886e-22  3.8125e-29  1.0002e-21  1.3328e-29  1.9212e-21
       6.45  1.3318e-33  5.9332e-24  2.3469e-33  5.9653e-24  4.1206e-33  6.0225e-24  7.2056e-33  6.1242e-24  1.2556e-32  6.3051e-24  2.1827e-32  6.6268e-24  3.7853e-32  7.1988e-24  6.5325e-32  8.2164e-24  1.1167e-31  1.0027e-23  1.8694e-31  1.3249e-23  2.9876e-31  1.8987e-23  4.3586e-31  2.9219e-23  5.4748e-31  4.7498e-23  6.9232e-31  8.0272e-23  1.1506e-30  1.3940e-22  5.1983e-30  2.4725e-22  2.1323e-29  4.4753e-22  3.8125e-29  8.3057e-22  1.3328e-29  1.5968e-21
       6.50  1.3318e-33  6.0979e-24  2.3469e-33  6.1247e-24  4.1206e-33  6.1722e-24  7.2056e-33  6.2567e-24  1.2556e-32  6.4071e-24  2.1827e-32  6.6745e-24  3.7853e-32  7.1500e-24  6.5325e-32  7.9959e-24  1.1167e-31  9.5008e-24  1.8694e-31  1.2179e-23  2.9876e-31  1.6949e-23  4.3586e-31  2.5455e-23  5.4748e-31  4.0652e-23  6.9232e-31  6.7905e-23  1.1506e-30  1.1709e-22  5.1983e-30  2.0683e-22  2.1323e-29  3.7362e-22  3.8125e-29  6.9300e-22  1.3328e-29  1.3330e-21
       6.55  1.3318e-33  6.3090e-24  2.3469e-33  6.3316e-24  4.1206e-33  6.3719e-24  7.2056e-33  6.4434e-24  1.2556e-32  6.5707e-24  2.1827e-32  6.7971e-24  3.7853e-32  7.1997e-24  6.5325e-32  7.9159e-24  1.1167e-31  9.1900e-24  1.8694e-31  1.1458e-23  2.9876e-31  1.5497e-23  4.3586e-31  2.2699e-23  5.4748e-31  3.5568e-23  6.9232e-31  5.8648e-23  1.1506e-30  1.0031e-22  5.1983e-30  1.7635e-22  2.1323e-29  3.1777e-22  3.8125e-29  5.8882e-22  1.3328e-29  1.1327e-21
       6.60  1.3318e-33  6.5378e-24  2.3469e-33  6.5576e-24  4.1206e-33  6.5929e-24  7.2056e-33  6.6557e-24  1.2556e-32  6.7674e-24  2.1827e-32  6.9659e-24  3.7853e-32  7.3191e-24  6.5325e-32  7.9473e-24  1.1167e-31  9.0650e-24  1.8694e-31  1.1054e-23  2.9876e-31  1.4597e-23  4.3586e-31  2.0915e-23  5.4748e-31  3.2204e-23  6.9232e-31  5.2454e-23  1.1506e-30  8.9012e-23  5.1983e-30  1.5576e-22  2.1323e-29  2.7994e-22  3.8125e-29  5.1814e-22  1.3328e-29  9.9662e-22
       6.65  1.3318e-33  6.7831e-24  2.3469e-33  6.8013e-24  4.1206e-33  6.8335e-24  7.2056e-33  6.8908e-24  1.2556e-32  6.9927e-24  2.1827e-32  7.1739e-24  3.7853e-32  7.4961e-24  6.5325e-32  8.0694e-24  1.1167e-31  9.0892e-24  1.8694e-31  1.0904e-23  2.9876e-31  1.4138e-23  4.3586e-31  1.9903e-23  5.4748e-31  3.0206e-23  6.9232e-31  4.8687e-23  1.1506e-30  8.2057e-23  5.1983e-30  1.4300e-22  2.1323e-29  2.5642e-22  3.8125e-29  4.7410e-22  1.3328e-29  9.1175e-22
       6.70  1.3318e-33  7.0440e-24  2.3469e-33  7.0611e-24  4.1206e-33  7.0915e-24  7.2056e-33  7.1457e-24  1.2556e-32  7.2419e-24  2.1827e-32  7.4131e-24  3.7853e-32  7.7176e-24  6.5325e-32  8.2593e-24  1.1167e-31  9.2229e-24  1.8694e-31  1.0938e-23  2.9876e-31  1.3993e-23  4.3586e-31  1.9440e-23  5.4748e-31  2.9176e-23  6.9232e-31  4.6640e-23  1.1506e-30  7.8178e-23  5.1983e-30  1.3578e-22  2.1323e-29  2.4303e-22  3.8125e-29  4.4897e-22  1.3328e-29  8.6331e-22
       6.75  1.3318e-33  7.3193e-24  2.3469e-33  7.3359e-24  4.1206e-33  7.3654e-24  7.2056e-33  7.4179e-24  1.2556e-32  7.5113e-24  2.1827e-32  7.6774e-24  3.7853e-32  7.9728e-24  6.5325e-32  8.4982e-24  1.1167e-31  9.4330e-24  1.8694e-31  1.1097e-23  2.9876e-31  1.4060e-23  4.3586e-31  1.9345e-23  5.4748e-31  2.8790e-23  6.9232e-31  4.5734e-23  1.1506e-30  7.6336e-23  5.1983e-30  1.3224e-22  2.1323e-29  2.3635e-22  3.8125e-29  4.3636e-22  1.3328e-29  8.3901e-22
       6.80  1.3318e-33  7.6481e-24  2.3469e-33  7.6646e-24  4.1206e-33  7.6938e-24  7.2056e-33  7.7459e-24  1.2556e-32  7.8384e-24  2.1827e-32  8.0029e-24  3.7853e-32  8.2955e-24  6.5325e-32  8.8159e-24  1.1167e-31  9.7419e-24  1.8694e-31  1.1390e-23  2.9876e-31  1.4326e-23  4.3586e-31  1.9561e-23  5.4748e-31  2.8917e-23  6.9232e-31  4.5703e-23  1.1506e-30  7.6022e-23  5.1983e-30  1.3142e-22  2.1323e-29  2.3461e-22  3.8125e-29  4.3292e-22  1.3328e-29  8.3240e-22
       6.85  1.3318e-33  7.9947e-24  2.3469e-33  8.0113e-24  4.1206e-33  8.0407e-24  7.2056e-33  8.0931e-24  1.2556e-32  8.1862e-24  2.1827e-32  8.3519e-24  3.7853e-32  8.6465e-24  6.5325e-32  9.1705e-24  1.1167e-31  1.0103e-23  1.8694e-31  1.1762e-23  2.9876e-31  1.4718e-23  4.3586e-31  1.9989e-23  5.4748e-31  2.9409e-23  6.9232e-31  4.6312e-23  1.1506e-30  7.6843e-23  5.1983e-30  1.3263e-22  2.1323e-29  2.3659e-22  3.8125e-29  4.3643e-22  1.3328e-29  8.3920e-22
       6.90  1.3318e-33  8.3583e-24  2.3469e-33  8.3751e-24  4.1206e-33  8.4049e-24  7.2056e-33  8.4580e-24  1.2556e-32  8.5523e-24  2.1827e-32  8.7200e-24  3.7853e-32  9.0183e-24  6.5325e-32  9.5489e-24  1.1167e-31  1.0493e-23  1.8694e-31  1.2173e-23  2.9876e-31  1.5166e-23  4.3586e-31  2.0503e-23  5.4748e-31  3.0043e-23  6.9232e-31  4.7160e-23  1.1506e-30  7.8080e-23  5.1983e-30  1.3459e-22  2.1323e-29  2.3990e-22  3.8125e-29  4.4243e-22  1.3328e-29  8.5081e-22
       6.95  1.3318e-33  8.7383e-24  2.3469e-33  8.7552e-24  4.1206e-33  8.7851e-24  7.2056e-33  8.8384e-24  1.2556e-32  8.9332e-24  2.1827e-32  9.1017e-24  3.7853e-32  9.4015e-24  6.5325e-32  9.9347e-24  1.1167e-31  1.0883e-23  1.8694e-31  1.2572e-23  2.9876e-31  1.5579e-23  4.3586e-31  2.0943e-23  5.4748e-31  3.0530e-23  6.9232e-31  4.7731e-23  1.1506e-30  7.8808e-23  5.1983e-30  1.3561e-22  2.1323e-29  2.4149e-22  3.8125e-29  4.4518e-22  1.3328e-29  8.5608e-22
       7.00  1.3318e-33  9.1340e-24  2.3469e-33  9.1506e-24  4.1206e-33  9.1801e-24  7.2056e-33  9.2326e-24  1.2556e-32  9.3259e-24  2.1827e-32  9.4920e-24  3.7853e-32  9.7872e-24  6.5325e-32  1.0312e-23  1.1167e-31  1.1247e-23  1.8694e-31  1.2910e-23  2.9876e-31  1.5873e-23  4.3586e-31  2.1157e-23  5.4748e-31  3.0601e-23  6.9232e-31  4.7547e-23  1.1506e-30  7.8165e-23  5.1983e-30  1.3413e-22  2.1323e-29  2.3849e-22  3.8125e-29  4.3929e-22  1.3328e-29  8.4457e-22
       7.05  1.3318e-33  9.5954e-24  2.3469e-33  9.6113e-24  4.1206e-33  9.6394e-24  7.2056e-33  9.6896e-24  1.2556e-32  9.7788e-24  2.1827e-32  9.9373e-24  3.7853e-32  1.0219e-23  6.5325e-32  1.0721e-23  1.1167e-31  1.1614e-23  1.8694e-31  1.3202e-23  2.9876e-31  1.6032e-23  4.3586e-31  2.1079e-23  5.4748e-31  3.0100e-23  6.9232e-31  4.6288e-23  1.1506e-30  7.5537e-23  5.1983e-30  1.2901e-22  2.1323e-29  2.2873e-22  3.8125e-29  4.2068e-22  1.3328e-29  8.0826e-22
       7.10  1.3318e-33  1.0078e-23  2.3469e-33  1.0092e-23  4.1206e-33  1.0118e-23  7.2056e-33  1.0164e-23  1.2556e-32  1.0246e-23  2.1827e-32  1.0391e-23  3.7853e-32  1.0650e-23  6.5325e-32  1.1111e-23  1.1167e-31  1.1930e-23  1.8694e-31  1.3388e-23  2.9876e-31  1.5984e-23  4.3586e-31  2.0616e-23  5.4748e-31  2.8894e-23  6.9232e-31  4.3751e-23  1.1506e-30  7.0596e-23  5.1983e-30  1.1968e-22  2.1323e-29  2.1123e-22  3.8125e-29  3.8750e-22  1.3328e-29  7.4357e-22
       7.15  1.3318e-33  1.0580e-23  2.3469e-33  1.0593e-23  4.1206e-33  1.0616e-23  7.2056e-33  1.0656e-23  1.2556e-32  1.0728e-23  2.1827e-32  1.0856e-23  3.7853e-32  1.1083e-23  6.5325e-32  1.1487e-23  1.1167e-31  1.2206e-23  1.8694e-31  1.3486e-23  2.9876e-31  1.5766e-23  4.3586e-31  1.9833e-23  5.4748e-31  2.7102e-23  6.9232e-31  4.0146e-23  1.1506e-30  6.3719e-23  5.1983e-30  1.0682e-22  2.1323e-29  1.8723e-22  3.8125e-29  3.4210e-22  1.3328e-29  6.5504e-22
       7.20  1.3318e-33  1.1104e-23  2.3469e-33  1.1115e-23  4.1206e-33  1.1134e-23  7.2056e-33  1.1168e-23  1.2556e-32  1.1229e-23  2.1827e-32  1.1337e-23  3.7853e-32  1.1529e-23  6.5325e-32  1.1871e-23  1.1167e-31  1.2479e-23  1.8694e-31  1.3561e-23  2.9876e-31  1.5489e-23  4.3586e-31  1.8928e-23  5.4748e-31  2.5074e-23  6.9232e-31  3.6105e-23  1.1506e-30  5.6040e-23  5.1983e-30  9.2497e-23  2.1323e-29  1.6051e-22  3.8125e-29  2.9153e-22  1.3328e-29  5.5637e-22
       7.25  1.3318e-33  1.1648e-23  2.3469e-33  1.1657e-23  4.1206e-33  1.1673e-23  7.2056e-33  1.1702e-23  1.2556e-32  1.1752e-23  2.1827e-32  1.1842e-23  3.7853e-32  1.2001e-23  6.5325e-32  1.2285e-23  1.1167e-31  1.2790e-23  1.8694e-31  1.3688e-23  2.9876e-31  1.5289e-23  4.3586e-31  1.8143e-23  5.4748e-31  2.3246e-23  6.9232e-31  3.2403e-23  1.1506e-30  4.8953e-23  5.1983e-30  7.9221e-23  2.1323e-29  1.3569e-22  3.8125e-29  2.4450e-22  1.3328e-29  4.6447e-22
       7.30  1.3318e-33  1.2278e-23  2.3469e-33  1.2285e-23  4.1206e-33  1.2298e-23  7.2056e-33  1.2322e-23  1.2556e-32  1.2364e-23  2.1827e-32  1.2439e-23  3.7853e-32  1.2572e-23  6.5325e-32  1.2809e-23  1.1167e-31  1.3231e-23  1.8694e-31  1.3982e-23  2.9876e-31  1.5319e-23  4.3586e-31  1.7703e-23  5.4748e-31  2.1966e-23  6.9232e-31  2.9616e-23  1.1506e-30  4.3441e-23  5.1983e-30  6.8726e-23  2.1323e-29  1.1591e-22  3.8125e-29  2.0681e-22  1.3328e-29  3.9061e-22
       7.35  1.3318e-33  1.2935e-23  2.3469e-33  1.2942e-23  4.1206e-33  1.2953e-23  7.2056e-33  1.2973e-23  1.2556e-32  1.3009e-23  2.1827e-32  1.3073e-23  3.7853e-32  1.3187e-23  6.5325e-32  1.3389e-23  1.1167e-31  1.3748e-23  1.8694e-31  1.4387e-23  2.9876e-31  1.5527e-23  4.3586e-31  1.7558e-23  5.4748e-31  2.1190e-23  6.9232e-31  2.7708e-23  1.1506e-30  3.9488e-23  5.1983e-30  6.1032e-23  2.1323e-29  1.0123e-22  3.8125e-29  1.7868e-22  1.3328e-29  3.3529e-22
       7.40  1.3318e-33  1.3622e-23  2.3469e-33  1.3627e-23  4.1206e-33  1.3637e-23  7.2056e-33  1.3655e-23  1.2556e-32  1.3686e-23  2.1827e-32  1.3742e-23  3.7853e-32  1.3841e-23  6.5325e-32  1.4018e-23  1.1167e-31  1.4332e-23  1.8694e-31  1.4891e-23  2.9876e-31  1.5887e-23  4.3586e-31  1.7664e-23  5.4748e-31  2.0839e-23  6.9232e-31  2.6537e-23  1.1506e-30  3.6836e-23  5.1983e-30  5.5672e-23  2.1323e-29  9.0815e-23  3.8125e-29  1.5852e-22  1.3328e-29  2.9541e-22
       7.45  1.3318e-33  1.4336e-23  2.3469e-33  1.4341e-23  4.1206e-33  1.4350e-23  7.2056e-33  1.4366e-23  1.2556e-32  1.4394e-23  2.1827e-32  1.4444e-23  3.7853e-32  1.4533e-23  6.5325e-32  1.4692e-23  1.1167e-31  1.4974e-23  1.8694e-31  1.5476e-23  2.9876e-31  1.6370e-23  4.3586e-31  1.7965e-23  5.4748e-31  2.0816e-23  6.9232e-31  2.5932e-23  1.1506e-30  3.5178e-23  5.1983e-30  5.2087e-23  2.1323e-29  8.3634e-23  3.8125e-29  1.4441e-22  1.3328e-29  2.6727e-22
       7.50  1.3318e-33  1.5079e-23  2.3469e-33  1.5083e-23  4.1206e-33  1.5091e-23  7.2056e-33  1.5106e-23  1.2556e-32  1.5132e-23  2.1827e-32  1.5178e-23  3.7853e-32  1.5260e-23  6.5325e-32  1.5406e-23  1.1167e-31  1.5665e-23  1.8694e-31  1.6128e-23  2.9876e-31  1.6951e-23  4.3586e-31  1.8418e-23  5.4748e-31  2.1042e-23  6.9232e-31  2.5751e-23  1.1506e-30  3.4260e-23  5.1983e-30  4.9822e-23  2.1323e-29  7.8853e-23  3.8125e-29  1.3478e-22  1.3328e-29  2.4781e-22
       7.55  1.3318e-33  1.5930e-23  2.3469e-33  1.5934e-23  4.1206e-33  1.5942e-23  7.2056e-33  1.5955e-23  1.2556e-32  1.5980e-23  2.1827e-32  1.6023e-23  3.7853e-32  1.6101e-23  6.5325e-32  1.6238e-23  1.1167e-31  1.6483e-23  1.8694e-31  1.6918e-23  2.9876e-31  1.7693e-23  4.3586e-31  1.9076e-23  5.4748e-31  2.1549e-23  6.9232e-31  2.5985e-23  1.1506e-30  3.4003e-23  5.1983e-30  4.8664e-23  2.1323e-29  7.6015e-23  3.8125e-29  1.2869e-22  1.3328e-29  2.3515e-22
       7.60  1.3318e-33  1.6818e-23  2.3469e-33  1.6823e-23  4.1206e-33  1.6830e-23  7.2056e-33  1.6843e-23  1.2556e-32  1.6867e-23  2.1827e-32  1.6908e-23  3.7853e-32  1.6983e-23  6.5325e-32  1.7115e-23  1.1167e-31  1.7350e-23  1.8694e-31  1.7769e-23  2.9876e-31  1.8514e-23  4.3586e-31  1.9844e-23  5.4748e-31  2.2220e-23  6.9232e-31  2.6485e-23  1.1506e-30  3.4192e-23  5.1983e-30  4.8285e-23  2.1323e-29  7.4573e-23  3.8125e-29  1.2520e-22  1.3328e-29  2.2750e-22
       7.65  1.3318e-33  1.7745e-23  2.3469e-33  1.7749e-23  4.1206e-33  1.7756e-23  7.2056e-33  1.7769e-23  1.2556e-32  1.7792e-23  2.1827e-32  1.7833e-23  3.7853e-32  1.7906e-23  6.5325e-32  1.8035e-23  1.1167e-31  1.8265e-23  1.8694e-31  1.8674e-23  2.9876e-31  1.9402e-23  4.3586e-31  2.0702e-23  5.4748e-31  2.3025e-23  6.9232e-31  2.7193e-23  1.1506e-30  3.4726e-23  5.1983e-30  4.8499e-23  2.1323e-29  7.4190e-23  3.8125e-29  1.2366e-22  1.3328e-29  2.2361e-22
       7.70  1.3318e-33  1.8710e-23  2.3469e-33  1.8714e-23  4.1206e-33  1.8721e-23  7.2056e-33  1.8734e-23  1.2556e-32  1.8756e-23  2.1827e-32  1.8797e-23  3.7853e-32  1.8869e-23  6.5325e-32  1.8997e-23  1.1167e-31  1.9224e-23  1.8694e-31  1.9629e-23  2.9876e-31  2.0351e-23  4.3586e-31  2.1637e-23  5.4748e-31  2.3938e-23  6.9232e-31  2.8065e-23  1.1506e-30  3.5524e-23  5.1983e-30  4.9162e-23  2.1323e-29  7.4598e-23  3.8125e-29  1.2358e-22  1.3328e-29  2.2251e-22
       7.75  1.3318e-33  1.9712e-23  2.3469e-33  1.9716e-23  4.1206e-33  1.9723e-23  7.2056e-33  1.9736e-23  1.2556e-32  1.9758e-23  2.1827e-32  1.9799e-23  3.7853e-32  1.9870e-23  6.5325e-32  1.9998e-23  1.1167e-31  2.0226e-23  1.8694e-31  2.0631e-23  2.9876e-31  2.1352e-23  4.3586e-31  2.2638e-23  5.4748e-31  2.4937e-23  6.9232e-31  2.9062e-23  1.1506e-30  3.6516e-23  5.1983e-30  5.0145e-23  2.1323e-29  7.5565e-23  3.8125e-29  1.2451e-22  1.3328e-29  2.2336e-22
       7.80  1.3318e-33  2.0854e-23  2.3469e-33  2.0858e-23  4.1206e-33  2.0865e-23  7.2056e-33  2.0878e-23  1.2556e-32  2.0901e-23  2.1827e-32  2.0942e-23  3.7853e-32  2.1014e-23  6.5325e-32  2.1143e-23  1.1167e-31  2.1372e-23  1.8694e-31  2.1780e-23  2.9876e-31  2.2506e-23  4.3586e-31  2.3801e-23  5.4748e-31  2.6116e-23  6.9232e-31  3.0270e-23  1.1506e-30  3.7777e-23  5.1983e-30  5.1502e-23  2.1323e-29  7.7098e-23  3.8125e-29  1.2638e-22  1.3328e-29  2.2590e-22
       7.85  1.3318e-33  2.2048e-23  2.3469e-33  2.2052e-23  4.1206e-33  2.2060e-23  7.2056e-33  2.2073e-23  1.2556e-32  2.2096e-23  2.1827e-32  2.2137e-23  3.7853e-32  2.2210e-23  6.5325e-32  2.2340e-23  1.1167e-31  2.2571e-23  1.8694e-31  2.2983e-23  2.9876e-31  2.3716e-23  4.3586e-31  2.5023e-23  5.4748e-31  2.7361e-23  6.9232e-31  3.1555e-23  1.1506e-30  3.9134e-23  5.1983e-30  5.2990e-23  2.1323e-29  7.8830e-23  3.8125e-29  1.2857e-22  1.3328e-29  2.2903e-22
       7.90  1.3318e-33  2.3294e-23  2.3469e-33  2.3298e-23  4.1206e-33  2.3305e-23  7.2056e-33  2.3318e-23  1.2556e-32  2.3341e-23  2.1827e-32  2.3383e-23  3.7853e-32  2.3457e-23  6.5325e-32  2.3588e-23  1.1167e-31  2.3821e-23  1.8694e-31  2.4237e-23  2.9876e-31  2.4977e-23  4.3586e-31  2.6297e-23  5.4748e-31  2.8656e-23  6.9232e-31  3.2890e-23  1.1506e-30  4.0539e-23  5.1983e-30  5.4525e-23  2.1323e-29  8.0605e-23  3.8125e-29  1.3081e-22  1.3328e-29  2.3218e-22
       7.95  1.3318e-33  2.4591e-23  2.3469e-33  2.4595e-23  4.1206e-33  2.4602e-23  7.2056e-33  2.4615e-23  1.2556e-32  2.4639e-23  2.1827e-32  2.4681e-23  3.7853e-32  2.4755e-23  6.5325e-32  2.4887e-23  1.1167e-31  2.5122e-23  1.8694e-31  2.5540e-23  2.9876e-31  2.6284e-23  4.3586e-31  2.7613e-23  5.4748e-31  2.9986e-23  6.9232e-31  3.4246e-23  1.1506e-30  4.1943e-23  5.1983e-30  5.6014e-23  2.1323e-29  8.2252e-23  3.8125e-29  1.3276e-22  1.3328e-29  2.3472e-22
       8.00  1.3318e-33  2.5939e-23  2.3469e-33  2.5943e-23  4.1206e-33  2.5951e-23  7.2056e-33  2.5964e-23  1.2556e-32  2.5988e-23  2.1827e-32  2.6029e-23  3.7853e-32  2.6104e-23  6.5325e-32  2.6236e-23  1.1167e-31  2.6472e-23  1.8694e-31  2.6891e-23  2.9876e-31  2.7637e-23  4.3586e-31  2.8968e-23  5.4748e-31  3.1347e-23  6.9232e-31  3.5616e-23  1.1506e-30  4.3329e-23  5.1983e-30  5.7430e-23  2.1323e-29  8.3722e-23  3.8125e-29  1.3432e-22  1.3328e-29  2.3647e-22
       8.05  1.3318e-33  2.7473e-23  2.3469e-33  2.7477e-23  4.1206e-33  2.7484e-23  7.2056e-33  2.7497e-23  1.2556e-32  2.7521e-23  2.1827e-32  2.7563e-23  3.7853e-32  2.7637e-23  6.5325e-32  2.7769e-23  1.1167e-31  2.8005e-23  1.8694e-31  2.8424e-23  2.9876e-31  2.9171e-23  4.3586e-31  3.0502e-23  5.4748e-31  3.2882e-23  6.9232e-31  3.7153e-23  1.1506e-30  4.4869e-23  5.1983e-30  5.8974e-23  2.1323e-29  8.5272e-23  3.8125e-29  1.3588e-22  1.3328e-29  2.3802e-22
       8.10  1.3318e-33  2.9076e-23  2.3469e-33  2.9081e-23  4.1206e-33  2.9088e-23  7.2056e-33  2.9101e-23  1.2556e-32  2.9125e-23  2.1827e-32  2.9166e-23  3.7853e-32  2.9240e-23  6.5325e-32  2.9372e-23  1.1167e-31  2.9607e-23  1.8694e-31  3.0025e-23  2.9876e-31  3.0769e-23  4.3586e-31  3.2097e-23  5.4748e-31  3.4469e-23  6.9232e-31  3.8727e-23  1.1506e-30  4.6418e-23  5.1983e-30  6.0478e-23  2.1323e-29  8.6688e-23  3.8125e-29  1.3712e-22  1.3328e-29  2.3888e-22
       8.15  1.3318e-33  3.0752e-23  2.3469e-33  3.0756e-23  4.1206e-33  3.0763e-23  7.2056e-33  3.0776e-23  1.2556e-32  3.0800e-23  2.1827e-32  3.0841e-23  3.7853e-32  3.0915e-23  6.5325e-32  3.1046e-23  1.1167e-31  3.1280e-23  1.8694e-31  3.1695e-23  2.9876e-31  3.2436e-23  4.3586e-31  3.3756e-23  5.4748e-31  3.6116e-23  6.9232e-31  4.0350e-23  1.1506e-30  4.7999e-23  5.1983e-30  6.1981e-23  2.1323e-29  8.8043e-23  3.8125e-29  1.3818e-22  1.3328e-29  2.3933e-22
       8.20  1.3318e-33  3.2500e-23  2.3469e-33  3.2504e-23  4.1206e-33  3.2511e-23  7.2056e-33  3.2524e-23  1.2556e-32  3.2547e-23  2.1827e-32  3.2589e-23  3.7853e-32  3.2662e-23  6.5325e-32  3.2792e-23  1.1167e-31  3.3024e-23  1.8694e-31  3.3437e-23  2.9876e-31  3.4173e-23  4.3586e-31  3.5484e-23  5.4748e-31  3.7829e-23  6.9232e-31  4.2035e-23  1.1506e-30  4.9635e-23  5.1983e-30  6.3525e-23  2.1323e-29  8.9413e-23  3.8125e-29  1.3921e-22  1.3328e-29  2.3964e-22
       8.25  1.3318e-33  3.4321e-23  2.3469e-33  3.4325e-23  4.1206e-33  3.4332e-23  7.2056e-33  3.4345e-23  1.2556e-32  3.4368e-23  2.1827e-32  3.4409e-23  3.7853e-32  3.4482e-23  6.5325e-32  3.4611e-23  1.1167e-31  3.4842e-23  1.8694e-31  3.5252e-23  2.9876e-31  3.5983e-23  4.3586e-31  3.7287e-23  5.4748e-31  3.9617e-23  6.9232e-31  4.3798e-23  1.1506e-30  5.1350e-23  5.1983e-30  6.5152e-23  2.1323e-29  9.0874e-23  3.8125e-29  1.4034e-22  1.3328e-29  2.4008e-22
       8.30  1.3318e-33  3.6388e-23  2.3469e-33  3.6392e-23  4.1206e-33  3.6399e-23  7.2056e-33  3.6412e-23  1.2556e-32  3.6435e-23  2.1827e-32  3.6476e-23  3.7853e-32  3.6549e-23  6.5325e-32  3.6678e-23  1.1167e-31  3.6908e-23  1.8694e-31  3.7318e-23  2.9876e-31  3.8048e-23  4.3586e-31  3.9350e-23  5.4748e-31  4.1677e-23  6.9232e-31  4.5852e-23  1.1506e-30  5.3394e-23  5.1983e-30  6.7175e-23  2.1323e-29  9.2856e-23  3.8125e-29  1.4223e-22  1.3328e-29  2.4176e-22
       8.35  1.3318e-33  3.8555e-23  2.3469e-33  3.8560e-23  4.1206e-33  3.8567e-23  7.2056e-33  3.8580e-23  1.2556e-32  3.8603e-23  2.1827e-32  3.8644e-23  3.7853e-32  3.8717e-23  6.5325e-32  3.8846e-23  1.1167e-31  3.9077e-23  1.8694e-31  3.9487e-23  2.9876e-31  4.0218e-23  4.3586e-31  4.1522e-23  5.4748e-31  4.3853e-23  6.9232e-31  4.8033e-23  1.1506e-30  5.5585e-23  5.1983e-30  6.9385e-23  2.1323e-29  9.5095e-23  3.8125e-29  1.4452e-22  1.3328e-29  2.4411e-22
       8.40  1.3318e-33  4.0826e-23  2.3469e-33  4.0831e-23  4.1206e-33  4.0838e-23  7.2056e-33  4.0851e-23  1.2556e-32  4.0874e-23  2.1827e-32  4.0915e-23  3.7853e-32  4.0988e-23  6.5325e-32  4.1119e-23  1.1167e-31  4.1350e-23  1.8694e-31  4.1763e-23  2.9876e-31  4.2497e-23  4.3586e-31  4.3807e-23  5.4748e-31  4.6149e-23  6.9232e-31  5.0349e-23  1.1506e-30  5.7936e-23  5.1983e-30  7.1799e-23  2.1323e-29  9.7624e-23  3.8125e-29  1.4726e-22  1.3328e-29  2.4724e-22
       8.45  1.3318e-33  4.3204e-23  2.3469e-33  4.3208e-23  4.1206e-33  4.3215e-23  7.2056e-33  4.3228e-23  1.2556e-32  4.3252e-23  2.1827e-32  4.3293e-23  3.7853e-32  4.3367e-23  6.5325e-32  4.3498e-23  1.1167e-31  4.3732e-23  1.8694e-31  4.4148e-23  2.9876e-31  4.4889e-23  4.3586e-31  4.6210e-23  5.4748e-31  4.8570e-23  6.9232e-31  5.2805e-23  1.1506e-30  6.0455e-23  5.1983e-30  7.4430e-23  2.1323e-29  1.0046e-22  3.8125e-29  1.5048e-22  1.3328e-29  2.5122e-22
       8.50  1.3318e-33  4.5691e-23  2.3469e-33  4.5695e-23  4.1206e-33  4.5702e-23  7.2056e-33  4.5715e-23  1.2556e-32  4.5739e-23  2.1827e-32  4.5781e-23  3.7853e-32  4.5856e-23  6.5325e-32  4.5989e-23  1.1167e-31  4.6225e-23  1.8694e-31  4.6646e-23  2.9876e-31  4.7395e-23  4.3586e-31  4.8732e-23  5.4748e-31  5.1120e-23  6.9232e-31  5.5406e-23  1.1506e-30  6.3145e-23  5.1983e-30  7.7284e-23  2.1323e-29  1.0362e-22  3.8125e-29  1.5420e-22  1.3328e-29  2.5606e-22
