# This was generated using Cloudy10 and the columns are ordered 
# as log10 of the fraction of the metallicity to the solar metallicity
# 'h_*_Z' and 'c_*_Z' stands for cooling and heating respectively 
# at * metalicity
#
# NOTE: This was generated separately from loop_coolingcurve_w_UV.py
#       using Output_metals_w_redshift.py.
#
# Redshift = 5.5
# hden = 1.0
#
#     temp   h_-3.00_Z   c_-3.00_Z   h_-2.75_Z   c_-2.75_Z   h_-2.50_Z   c_-2.50_Z   h_-2.25_Z   c_-2.25_Z   h_-2.00_Z   c_-2.00_Z   h_-1.75_Z   c_-1.75_Z   h_-1.50_Z   c_-1.50_Z   h_-1.25_Z   c_-1.25_Z   h_-1.00_Z   c_-1.00_Z   h_-0.75_Z   c_-0.75_Z   h_-0.50_Z   c_-0.50_Z   h_-0.25_Z   c_-0.25_Z    h_0.00_Z    c_0.00_Z    h_0.25_Z    c_0.25_Z    h_0.50_Z    c_0.50_Z    h_0.75_Z    c_0.75_Z    h_1.00_Z    c_1.00_Z    h_1.25_Z    c_1.25_Z    h_1.50_Z    c_1.50_Z 
      4.00  2.7383e-25  1.0000e-24  2.7383e-25  1.0020e-24  2.7384e-25  1.0056e-24  2.7384e-25  1.0119e-24  2.7386e-25  1.0233e-24  2.7388e-25  1.0434e-24  2.7391e-25  1.0791e-24  2.7398e-25  1.1427e-24  2.7410e-25  1.2558e-24  2.7431e-25  1.4570e-24  2.7467e-25  1.8147e-24  2.7532e-25  2.4511e-24  2.7648e-25  3.5832e-24  2.7854e-25  5.5979e-24  2.8220e-25  9.1859e-24  2.8872e-25  1.5582e-23  3.0037e-25  2.7000e-23  3.2123e-25  4.7404e-23  3.5859e-25  8.3968e-23
      4.05  2.6954e-25  3.5502e-24  2.6954e-25  3.5529e-24  2.6954e-25  3.5577e-24  2.6955e-25  3.5663e-24  2.6956e-25  3.5815e-24  2.6958e-25  3.6086e-24  2.6962e-25  3.6567e-24  2.6969e-25  3.7422e-24  2.6981e-25  3.8944e-24  2.7003e-25  4.1650e-24  2.7041e-25  4.6461e-24  2.7108e-25  5.5016e-24  2.7229e-25  7.0230e-24  2.7443e-25  9.7293e-24  2.7823e-25  1.4544e-23  2.8502e-25  2.3114e-23  2.9713e-25  3.8365e-23  3.1880e-25  6.5481e-23  3.5752e-25  1.1366e-22
      4.10  2.6115e-25  1.1462e-23  2.6115e-25  1.1465e-23  2.6116e-25  1.1472e-23  2.6116e-25  1.1484e-23  2.6118e-25  1.1505e-23  2.6120e-25  1.1543e-23  2.6124e-25  1.1611e-23  2.6131e-25  1.1730e-23  2.6143e-25  1.1943e-23  2.6165e-25  1.2322e-23  2.6205e-25  1.2995e-23  2.6274e-25  1.4191e-23  2.6398e-25  1.6317e-23  2.6619e-25  2.0097e-23  2.7012e-25  2.6819e-23  2.7711e-25  3.8765e-23  2.8960e-25  5.9975e-23  3.1194e-25  9.7530e-23  3.5182e-25  1.6380e-22
      4.15  2.3647e-25  3.4225e-23  2.3647e-25  3.4231e-23  2.3648e-25  3.4242e-23  2.3648e-25  3.4260e-23  2.3650e-25  3.4293e-23  2.3652e-25  3.4352e-23  2.3656e-25  3.4456e-23  2.3663e-25  3.4642e-23  2.3676e-25  3.4972e-23  2.3698e-25  3.5558e-23  2.3738e-25  3.6600e-23  2.3810e-25  3.8453e-23  2.3937e-25  4.1747e-23  2.4164e-25  4.7603e-23  2.4567e-25  5.8014e-23  2.5285e-25  7.6514e-23  2.6567e-25  1.0936e-22  2.8860e-25  1.6751e-22  3.2956e-25  2.7010e-22
      4.20  1.7257e-25  8.5467e-23  1.7257e-25  8.5477e-23  1.7257e-25  8.5496e-23  1.7258e-25  8.5528e-23  1.7259e-25  8.5587e-23  1.7262e-25  8.5690e-23  1.7265e-25  8.5874e-23  1.7272e-25  8.6202e-23  1.7285e-25  8.6785e-23  1.7307e-25  8.7821e-23  1.7346e-25  8.9663e-23  1.7416e-25  9.2940e-23  1.7541e-25  9.8769e-23  1.7762e-25  1.0914e-22  1.8157e-25  1.2760e-22  1.8859e-25  1.6048e-22  2.0111e-25  2.1911e-22  2.2353e-25  3.2382e-22  2.6379e-25  5.1126e-22
      4.25  9.5895e-26  1.2656e-22  9.5897e-26  1.2658e-22  9.5900e-26  1.2661e-22  9.5905e-26  1.2666e-22  9.5915e-26  1.2674e-22  9.5933e-26  1.2690e-22  9.5964e-26  1.2717e-22  9.6020e-26  1.2767e-22  9.6118e-26  1.2854e-22  9.6294e-26  1.3009e-22  9.6607e-26  1.3285e-22  9.7163e-26  1.3777e-22  9.8152e-26  1.4651e-22  9.9913e-26  1.6208e-22  1.0305e-25  1.8981e-22  1.0863e-25  2.3931e-22  1.1860e-25  3.2787e-22  1.3642e-25  4.8708e-22  1.6853e-25  7.7560e-22
      4.30  5.3348e-26  1.1976e-22  5.3349e-26  1.1978e-22  5.3351e-26  1.1981e-22  5.3354e-26  1.1987e-22  5.3359e-26  1.1998e-22  5.3369e-26  1.2017e-22  5.3385e-26  1.2050e-22  5.3415e-26  1.2109e-22  5.3468e-26  1.2215e-22  5.3563e-26  1.2403e-22  5.3731e-26  1.2737e-22  5.4030e-26  1.3331e-22  5.4773e-26  1.4388e-22  5.6266e-26  1.6270e-22  5.8926e-26  1.9625e-22  6.3669e-26  2.5613e-22  7.2145e-26  3.6336e-22  8.7337e-26  5.5637e-22  1.1470e-25  9.0700e-22
      4.35  3.5783e-26  9.5685e-23  3.5783e-26  9.5707e-23  3.5783e-26  9.5747e-23  3.5783e-26  9.5818e-23  3.5783e-26  9.5945e-23  3.5783e-26  9.6169e-23  3.5782e-26  9.6568e-23  3.5782e-26  9.7278e-23  3.5781e-26  9.8540e-23  3.5798e-26  1.0079e-22  3.6037e-26  1.0478e-22  3.6464e-26  1.1188e-22  3.7224e-26  1.2453e-22  3.8579e-26  1.4704e-22  4.0995e-26  1.8716e-22  4.5313e-26  2.5879e-22  5.3051e-26  3.8708e-22  6.6966e-26  6.1808e-22  9.2035e-26  1.0380e-21
      4.40  2.6764e-26  7.4523e-23  2.6763e-26  7.4551e-23  2.6761e-26  7.4601e-23  2.6758e-26  7.4688e-23  2.6753e-26  7.4845e-23  2.6744e-26  7.5123e-23  2.6727e-26  7.5617e-23  2.6698e-26  7.6496e-23  2.6673e-26  7.8059e-23  2.6798e-26  8.0839e-23  2.7020e-26  8.5784e-23  2.7416e-26  9.4581e-23  2.8122e-26  1.1023e-22  2.9382e-26  1.3811e-22  3.1639e-26  1.8778e-22  3.5690e-26  2.7646e-22  4.2988e-26  4.3526e-22  5.5983e-26  7.2121e-22  7.9233e-26  1.2410e-21
      4.45  1.7913e-26  5.9839e-23  1.7911e-26  5.9874e-23  1.7908e-26  5.9937e-23  1.7902e-26  6.0048e-23  1.7893e-26  6.0247e-23  1.7875e-26  6.0600e-23  1.7845e-26  6.1229e-23  1.7790e-26  6.2346e-23  1.7797e-26  6.4333e-23  1.7915e-26  6.7867e-23  1.8126e-26  7.4152e-23  1.8502e-26  8.5333e-23  1.9174e-26  1.0523e-22  2.0382e-26  1.4065e-22  2.2561e-26  2.0376e-22  2.6474e-26  3.1641e-22  3.3403e-26  5.1808e-22  4.5711e-26  8.8097e-22  6.7756e-26  1.5400e-21
      4.50  9.2147e-27  4.8946e-23  9.2123e-27  4.8992e-23  9.2081e-27  4.9073e-23  9.2006e-27  4.9217e-23  9.1873e-27  4.9472e-23  9.1635e-27  4.9927e-23  9.1214e-27  5.0736e-23  9.0464e-27  5.2175e-23  9.1069e-27  5.4734e-23  9.2166e-27  5.9285e-23  9.4131e-27  6.7379e-23  9.7669e-27  8.1777e-23  1.0408e-26  1.0740e-22  1.1580e-26  1.5300e-22  1.3673e-26  2.3426e-22  1.7355e-26  3.7930e-22  2.3891e-26  6.3888e-22  3.5407e-26  1.1058e-21  5.5797e-26  1.9534e-21
      4.55  4.0084e-27  3.9689e-23  4.0056e-27  3.9748e-23  4.0006e-27  3.9852e-23  3.9918e-27  4.0038e-23  3.9761e-27  4.0367e-23  3.9482e-27  4.0954e-23  3.8985e-27  4.1996e-23  3.8861e-27  4.3851e-23  3.9395e-27  4.7148e-23  4.0355e-27  5.3013e-23  4.2091e-27  6.3445e-23  4.5263e-27  8.2001e-23  5.1128e-27  1.1502e-22  6.1554e-27  1.7381e-22  7.9967e-27  2.7858e-22  1.1267e-26  4.6562e-22  1.6969e-26  8.0051e-22  2.7085e-26  1.4034e-21  4.5184e-26  2.4990e-21
      4.60  1.7540e-27  3.2226e-23  1.7512e-27  3.2301e-23  1.7461e-27  3.2435e-23  1.7371e-27  3.2673e-23  1.7211e-27  3.3097e-23  1.6927e-27  3.3849e-23  1.6489e-27  3.5188e-23  1.6734e-27  3.7568e-23  1.7175e-27  4.1801e-23  1.7971e-27  4.9329e-23  1.9430e-27  6.2719e-23  2.2146e-27  8.6540e-23  2.7008e-27  1.2893e-22  3.5728e-27  2.0442e-22  5.1107e-27  3.3898e-22  7.8327e-27  5.7930e-22  1.2626e-26  1.0099e-21  2.1095e-26  1.7860e-21  3.6284e-26  3.1990e-21
      4.65  8.5232e-28  2.7325e-23  8.4979e-28  2.7421e-23  8.4528e-28  2.7592e-23  8.3727e-28  2.7896e-23  8.2302e-28  2.8437e-23  7.9770e-28  2.9398e-23  7.7864e-28  3.1108e-23  7.9794e-28  3.4149e-23  8.3282e-28  3.9557e-23  8.9661e-28  4.9176e-23  1.0153e-27  6.6284e-23  1.2335e-27  9.6722e-23  1.6275e-27  1.5089e-22  2.3288e-27  2.4737e-22  3.5985e-27  4.1939e-22  5.8261e-27  7.2671e-22  9.7194e-27  1.2778e-21  1.6614e-26  2.2722e-21  2.8996e-26  4.0867e-21
      4.70  4.7848e-28  2.6011e-23  4.7646e-28  2.6133e-23  4.7287e-28  2.6351e-23  4.6649e-28  2.6738e-23  4.5515e-28  2.7427e-23  4.3501e-28  2.8652e-23  4.2433e-28  3.0830e-23  4.3913e-28  3.4703e-23  4.6611e-28  4.1591e-23  5.1614e-28  5.3842e-23  6.1136e-28  7.5634e-23  7.8551e-28  1.1441e-22  1.1068e-27  1.8342e-22  1.6862e-27  3.0634e-22  2.7016e-27  5.2557e-22  4.4678e-27  9.1747e-22  7.5911e-27  1.6208e-21  1.3125e-26  2.8920e-21  2.3066e-26  5.2176e-21
      4.75  3.1086e-28  3.0576e-23  3.0940e-28  3.0731e-23  3.0681e-28  3.1006e-23  3.0222e-28  3.1496e-23  2.9405e-28  3.2368e-23  2.7956e-28  3.3917e-23  2.6987e-28  3.6672e-23  2.8134e-28  4.1572e-23  3.0260e-28  5.0286e-23  3.4306e-28  6.5786e-23  4.2281e-28  9.3357e-23  5.6864e-28  1.4241e-22  8.3011e-28  2.2974e-22  1.2945e-27  3.8533e-22  2.1147e-27  6.6293e-22  3.5554e-27  1.1595e-21  6.0848e-27  2.0516e-21  1.0560e-26  3.6672e-21  1.8620e-26  6.6320e-21
      4.80  2.2399e-28  4.4112e-23  2.2308e-28  4.4306e-23  2.2146e-28  4.4650e-23  2.1859e-28  4.5263e-23  2.1349e-28  4.6352e-23  2.0446e-28  4.8288e-23  1.9431e-28  5.1732e-23  2.0388e-28  5.7856e-23  2.2223e-28  6.8748e-23  2.5901e-28  8.8121e-23  3.3042e-28  1.2258e-22  4.5343e-28  1.8391e-22  6.7651e-28  2.9310e-22  1.0779e-27  4.8766e-22  1.7794e-27  8.3495e-22  3.0093e-27  1.4566e-21  5.1854e-27  2.5748e-21  9.0366e-27  4.6037e-21  1.5991e-26  8.3388e-21
      4.85  1.6311e-28  6.5302e-23  1.6272e-28  6.5540e-23  1.6204e-28  6.5962e-23  1.6084e-28  6.6714e-23  1.5873e-28  6.8051e-23  1.5505e-28  7.0428e-23  1.4874e-28  7.4656e-23  1.5481e-28  8.2175e-23  1.7346e-28  9.5547e-23  2.1048e-28  1.1933e-22  2.7764e-28  1.6164e-22  3.9676e-28  2.3694e-22  6.1148e-28  3.7102e-22  9.8988e-28  6.1000e-22  1.6526e-27  1.0367e-21  2.8125e-27  1.8010e-21  4.8476e-27  3.1775e-21  8.4049e-27  5.6796e-21  1.4802e-26  1.0299e-20
      4.90  1.0974e-28  8.0994e-23  1.0988e-28  8.1277e-23  1.1012e-28  8.1780e-23  1.1058e-28  8.2676e-23  1.1144e-28  8.4268e-23  1.1311e-28  8.7100e-23  1.1658e-28  9.2136e-23  1.2426e-28  1.0109e-22  1.4146e-28  1.1702e-22  1.7968e-28  1.4535e-22  2.5386e-28  1.9575e-22  3.8655e-28  2.8545e-22  6.2537e-28  4.4518e-22  1.0353e-27  7.2990e-22  1.7335e-27  1.2384e-21  2.9235e-27  2.1495e-21  4.9696e-27  3.7913e-21  8.4677e-27  6.7791e-21  1.4731e-26  1.2307e-20
      4.95  6.8952e-29  7.9768e-23  6.9467e-29  8.0093e-23  7.0392e-29  8.0670e-23  7.2075e-29  8.1697e-23  7.5177e-29  8.3524e-23  8.1051e-29  8.6771e-23  9.2606e-29  9.2547e-23  1.1648e-28  1.0282e-22  1.6319e-28  1.2109e-22  2.4791e-28  1.5358e-22  3.9801e-28  2.1139e-22  6.6364e-28  3.1427e-22  1.1188e-27  4.9747e-22  1.8901e-27  8.2406e-22  3.1933e-27  1.4074e-21  5.3972e-27  2.4527e-21  9.1427e-27  4.3369e-21  1.5672e-26  7.7677e-21  2.7356e-26  1.4122e-20
      5.00  4.4321e-29  6.7707e-23  4.4774e-29  6.8065e-23  4.6685e-29  6.9388e-23  4.8282e-29  6.9832e-23  5.2871e-29  7.1843e-23  6.1526e-29  7.5420e-23  7.9585e-29  8.1780e-23  1.1739e-28  9.3092e-23  1.9039e-28  1.1321e-22  3.2350e-28  1.4900e-22  5.4545e-28  2.1266e-22  9.2150e-28  3.2597e-22  1.5486e-27  5.2777e-22  2.5753e-27  8.8758e-22  4.2509e-27  1.5304e-21  7.0253e-27  2.6830e-21  1.1698e-26  4.7625e-21  1.9833e-26  8.5550e-21  3.4226e-26  1.5598e-20
      5.05  3.0949e-29  5.4131e-23  3.1866e-29  5.4498e-23  3.3254e-29  5.5151e-23  3.5990e-29  5.6313e-23  4.1704e-29  5.8378e-23  5.4057e-29  6.2052e-23  7.8902e-29  6.8584e-23  1.3577e-28  8.0202e-23  2.4969e-28  1.0086e-22  4.2433e-28  1.3762e-22  7.1120e-28  2.0301e-22  1.1719e-27  3.1941e-22  1.9001e-27  5.2673e-22  3.0188e-27  8.9647e-22  4.7726e-27  1.5573e-21  7.6071e-27  2.7433e-21  1.2397e-26  4.8859e-21  2.0712e-26  8.8029e-21  3.4997e-26  1.6106e-20
      5.10  2.4200e-29  4.2715e-23  2.5323e-29  4.3503e-23  2.6683e-29  4.3708e-23  3.0274e-29  4.4838e-23  3.9448e-29  4.6847e-23  5.6161e-29  5.0420e-23  9.4620e-29  5.6775e-23  1.8696e-28  6.8076e-23  3.3349e-28  8.8176e-23  5.6078e-28  1.2393e-22  9.0652e-28  1.8755e-22  1.4236e-27  3.0080e-22  2.1823e-27  5.0254e-22  3.2890e-27  8.6244e-22  4.9778e-27  1.5060e-21  7.5613e-27  2.6619e-21  1.1793e-26  4.7534e-21  1.9231e-26  8.5865e-21  3.2445e-26  1.5763e-20
      5.15  2.0446e-29  3.3961e-23  2.1457e-29  3.4316e-23  2.3729e-29  3.4947e-23  3.0010e-29  3.6070e-23  4.2450e-29  3.8066e-23  6.9223e-29  4.1616e-23  1.3355e-28  4.7928e-23  2.5570e-28  5.9155e-23  4.4304e-28  7.9123e-23  7.1930e-28  1.1464e-22  1.1044e-27  1.7785e-22  1.6441e-27  2.9037e-22  2.3991e-27  4.9085e-22  3.4709e-27  8.4856e-22  4.7890e-27  1.4885e-21  7.0056e-27  2.6387e-21  1.0849e-26  4.7225e-21  1.7667e-26  8.5495e-21  2.9891e-26  1.5739e-20
      5.20  1.8400e-29  2.7419e-23  1.9858e-29  2.7785e-23  2.3629e-29  2.8436e-23  3.4197e-29  2.9593e-23  5.3743e-29  3.1966e-23  9.6501e-29  3.5309e-23  1.9908e-28  4.1815e-23  3.4290e-28  5.3387e-23  5.5806e-28  7.3970e-23  8.7334e-28  1.1059e-22  1.2900e-27  1.7574e-22  1.8401e-27  2.9174e-22  2.5582e-27  4.9844e-22  3.2750e-27  8.6734e-22  4.4668e-27  1.5275e-21  6.5404e-27  2.7148e-21  1.0215e-26  4.8680e-21  1.6801e-26  8.8296e-21  2.8741e-26  1.6293e-20
      5.25  1.7356e-29  2.2517e-23  1.9488e-29  2.2894e-23  2.5965e-29  2.3564e-23  4.2164e-29  2.4757e-23  7.5719e-29  2.6876e-23  1.3758e-28  3.0646e-23  2.5790e-28  3.7350e-23  4.2228e-28  4.9272e-23  6.5228e-28  7.0479e-23  9.8253e-28  1.0821e-22  1.4203e-27  1.7534e-22  1.9835e-27  2.9487e-22  2.4332e-27  5.0789e-22  3.1679e-27  8.8815e-22  4.4303e-27  1.5689e-21  6.6355e-27  2.7940e-21  1.0530e-26  5.0182e-21  1.7531e-26  9.1179e-21  3.0385e-26  1.6865e-20
      5.30  1.7045e-29  1.8806e-23  2.1127e-29  1.9190e-23  3.2794e-29  1.9871e-23  6.2560e-29  2.1083e-23  1.0002e-28  2.3238e-23  1.6963e-28  2.7070e-23  2.9881e-28  3.3884e-23  4.6910e-28  4.6005e-23  7.1716e-28  6.7563e-23  1.0399e-27  1.0592e-22  1.5152e-27  1.7417e-22  1.9101e-27  2.9570e-22  2.4023e-27  5.1231e-22  3.1315e-27  8.9907e-22  4.3331e-27  1.5918e-21  6.4296e-27  2.8391e-21  1.0017e-26  5.1066e-21  1.6525e-26  9.2945e-21  2.8552e-26  1.7234e-20
      5.35  1.8246e-29  1.6136e-23  2.4913e-29  1.6366e-23  4.5953e-29  1.7060e-23  7.8034e-29  1.8293e-23  1.1969e-28  2.0487e-23  1.9065e-28  2.4387e-23  3.2225e-28  3.1324e-23  4.9448e-28  4.3662e-23  7.3846e-28  6.5607e-23  1.1166e-27  1.0465e-22  1.5528e-27  1.7413e-22  1.8431e-27  2.9786e-22  2.2841e-27  5.1842e-22  2.9806e-27  9.1231e-22  4.1410e-27  1.6181e-21  6.0585e-27  2.8899e-21  9.4974e-27  5.2045e-21  1.5726e-26  9.4883e-21  2.7290e-26  1.7636e-20
      5.40  1.8702e-29  1.3766e-23  2.8656e-29  1.4146e-23  5.2659e-29  1.4821e-23  8.0814e-29  1.6023e-23  1.2642e-28  1.8160e-23  1.9318e-28  2.1960e-23  3.1127e-28  2.8718e-23  5.0987e-28  4.0737e-23  7.7351e-28  6.2117e-23  1.2105e-27  1.0015e-22  1.4888e-27  1.6785e-22  1.7876e-27  2.8841e-22  2.2558e-27  5.0335e-22  2.9908e-27  8.8731e-22  4.2144e-27  1.5756e-21  6.2193e-27  2.8170e-21  9.7181e-27  5.0795e-21  1.6096e-26  9.2767e-21  2.7952e-26  1.7291e-20
      5.45  1.6929e-29  1.1971e-23  2.4535e-29  1.2289e-23  4.5570e-29  1.2856e-23  7.0243e-29  1.3863e-23  1.0718e-28  1.5654e-23  1.7486e-28  1.8840e-23  2.8457e-28  2.4505e-23  4.6643e-28  3.4581e-23  7.8966e-28  5.2503e-23  1.2681e-27  8.4388e-23  1.5014e-27  1.4114e-22  1.8509e-27  2.4223e-22  2.3781e-27  4.2249e-22  3.1052e-27  7.4461e-22  4.2810e-27  1.3224e-21  6.2407e-27  2.3657e-21  9.6586e-27  4.2709e-21  1.5852e-26  7.8167e-21  2.7443e-26  1.4621e-20
      5.50  1.3981e-29  1.0475e-23  1.6969e-29  1.0705e-23  2.5713e-29  1.1113e-23  5.0173e-29  1.1839e-23  8.4387e-29  1.3131e-23  1.4388e-28  1.5427e-23  2.5137e-28  1.9512e-23  4.4109e-28  2.6776e-23  7.6110e-28  3.9698e-23  1.2151e-27  6.2686e-23  1.5741e-27  1.0361e-22  1.9763e-27  1.7650e-22  2.4206e-27  3.0652e-22  3.0792e-27  5.3895e-22  4.0430e-27  9.5615e-22  5.6587e-27  1.7103e-21  8.4968e-27  3.0901e-21  1.3629e-26  5.6661e-21  2.3200e-26  1.0634e-20
      5.55  1.2572e-29  9.3085e-24  1.3964e-29  9.4812e-24  1.8177e-29  9.7884e-24  3.0331e-29  1.0334e-23  6.2083e-29  1.1306e-23  1.2572e-28  1.3033e-23  2.4176e-28  1.6104e-23  4.4892e-28  2.1566e-23  7.9323e-28  3.1283e-23  1.2109e-27  4.8571e-23  1.6051e-27  7.9345e-23  1.9727e-27  1.3417e-22  2.3553e-27  2.3197e-22  2.8414e-27  4.0686e-22  3.6131e-27  7.2090e-22  4.8662e-27  1.2890e-21  7.0772e-27  2.3296e-21  1.1096e-26  4.2765e-21  1.8548e-26  8.0432e-21
      5.60  1.1947e-29  8.4119e-24  1.3512e-29  8.5618e-24  1.8002e-29  8.8283e-24  3.1058e-29  9.3024e-24  5.6127e-29  1.0145e-23  1.1649e-28  1.1644e-23  2.4977e-28  1.4310e-23  4.7647e-28  1.9051e-23  8.7012e-28  2.7484e-23  1.2041e-27  4.2490e-23  1.5719e-27  6.9204e-23  1.8185e-27  1.1680e-22  2.1017e-27  2.0170e-22  2.5037e-27  3.5355e-22  3.1415e-27  6.2630e-22  4.1765e-27  1.1199e-21  5.9896e-27  2.0248e-21  9.2795e-27  3.7197e-21  1.5378e-26  7.0049e-21
      5.65  1.1506e-29  7.7123e-24  1.3525e-29  7.8554e-24  1.9237e-29  8.1099e-24  3.5706e-29  8.5623e-24  6.7537e-29  9.3670e-24  1.3161e-28  1.0798e-23  2.6292e-28  1.3342e-23  5.0907e-28  1.7868e-23  9.2105e-28  2.5918e-23  1.2130e-27  4.0243e-23  1.5138e-27  6.5745e-23  1.6865e-27  1.1118e-22  1.9351e-27  1.9225e-22  2.2843e-27  3.3724e-22  2.8670e-27  5.9770e-22  3.8110e-27  1.0692e-21  5.4754e-27  1.9341e-21  8.4917e-27  3.5555e-21  1.4103e-26  6.7025e-21
      5.70  1.1090e-29  7.1556e-24  1.3576e-29  7.2957e-24  2.0838e-29  7.5447e-24  4.1809e-29  7.9876e-24  7.6325e-29  8.7751e-24  1.4898e-28  1.0176e-23  2.9696e-28  1.2666e-23  5.7363e-28  1.7095e-23  9.0272e-28  2.4975e-23  1.1367e-27  3.8997e-23  1.3575e-27  6.3961e-23  1.5320e-27  1.0844e-22  1.7531e-27  1.8779e-22  2.0775e-27  3.2974e-22  2.6278e-27  5.8478e-22  3.5576e-27  1.0466e-21  5.1918e-27  1.8941e-21  8.1655e-27  3.4843e-21  1.3725e-26  6.5744e-21
      5.75  1.0425e-29  6.6487e-24  1.3020e-29  6.7821e-24  2.0940e-29  7.0192e-24  4.1273e-29  7.4410e-24  8.2655e-29  8.1908e-24  1.6463e-28  9.5243e-24  3.3541e-28  1.1896e-23  6.0463e-28  1.6113e-23  8.0082e-28  2.3617e-23  9.8256e-28  3.6971e-23  1.1272e-27  6.0743e-23  1.2996e-27  1.0310e-22  1.5112e-27  1.7868e-22  1.8416e-27  3.1388e-22  2.3861e-27  5.5685e-22  3.3163e-27  9.9698e-22  4.9795e-27  1.8051e-21  8.0229e-27  3.3228e-21  1.3752e-26  6.2764e-21
      5.80  9.6456e-30  6.2582e-24  1.2312e-29  6.3807e-24  2.0001e-29  6.5985e-24  4.0629e-29  6.9857e-24  8.5456e-29  7.6743e-24  1.8271e-28  8.8988e-24  3.4540e-28  1.1077e-23  5.4178e-28  1.4950e-23  6.8630e-28  2.1843e-23  8.3700e-28  3.4107e-23  9.5016e-28  5.5942e-23  1.1338e-27  9.4846e-23  1.3574e-27  1.6427e-22  1.6945e-27  2.8848e-22  2.2701e-27  5.1174e-22  3.2714e-27  9.1634e-22  5.0647e-27  1.6597e-21  8.3764e-27  3.0573e-21  1.4667e-26  5.7816e-21
      5.85  9.3047e-30  5.9610e-24  1.2371e-29  6.0764e-24  2.0489e-29  6.2817e-24  4.2148e-29  6.6467e-24  9.4323e-29  7.2958e-24  2.0223e-28  8.4499e-24  3.2333e-28  1.0503e-23  4.7899e-28  1.4155e-23  6.0275e-28  2.0652e-23  7.5405e-28  3.2214e-23  8.8755e-28  5.2797e-23  1.0484e-27  8.9474e-23  1.2905e-27  1.5493e-22  1.6687e-27  2.7205e-22  2.3254e-27  4.8262e-22  3.4763e-27  8.6435e-22  5.5604e-27  1.5662e-21  9.4243e-27  2.8870e-21  1.6817e-26  5.4659e-21
      5.90  9.0219e-30  5.7446e-24  1.2737e-29  5.8598e-24  2.2388e-29  6.0647e-24  4.7371e-29  6.4291e-24  1.0486e-28  7.0770e-24  2.0643e-28  8.2291e-24  3.2656e-28  1.0279e-23  4.3514e-28  1.3925e-23  5.7517e-28  2.0411e-23  7.1073e-28  3.1953e-23  8.4317e-28  5.2502e-23  1.0102e-27  8.9118e-23  1.2863e-27  1.5447e-22  1.7495e-27  2.7141e-22  2.5456e-27  4.8172e-22  3.9642e-27  8.6311e-22  6.5471e-27  1.5647e-21  1.1362e-26  2.8864e-21  2.0641e-26  5.4708e-21
      5.95  8.6289e-30  5.5900e-24  1.2740e-29  5.7076e-24  2.3433e-29  5.9168e-24  5.1089e-29  6.2887e-24  1.1412e-28  6.9499e-24  2.1513e-28  8.1260e-24  3.3338e-28  1.0218e-23  4.4566e-28  1.3939e-23  5.5677e-28  2.0559e-23  6.7803e-28  3.2341e-23  8.3541e-28  5.3315e-23  1.0217e-27  9.0692e-23  1.3282e-27  1.5740e-22  1.8650e-27  2.7680e-22  2.8085e-27  4.9156e-22  4.4940e-27  8.8116e-22  7.5771e-27  1.5983e-21  1.3346e-26  2.9506e-21  2.4521e-26  5.5989e-21
      6.00  7.9647e-30  5.4809e-24  1.1911e-29  5.5989e-24  2.2553e-29  5.8088e-24  4.9849e-29  6.1819e-24  1.1335e-28  6.8453e-24  2.3039e-28  8.0250e-24  3.4621e-28  1.0124e-23  4.5381e-28  1.3857e-23  5.6528e-28  2.0499e-23  6.9527e-28  3.2318e-23  8.5706e-28  5.3362e-23  1.0924e-27  9.0863e-23  1.4756e-27  1.5780e-22  2.1480e-27  2.7762e-22  3.3451e-27  4.9319e-22  5.5094e-27  8.8442e-22  9.4764e-27  1.6051e-21  1.6924e-26  2.9655e-21  3.1423e-26  5.6340e-21
      6.05  7.0694e-30  5.4241e-24  1.0362e-29  5.5388e-24  1.9437e-29  5.7427e-24  4.3864e-29  6.1053e-24  1.0300e-28  6.7498e-24  2.3527e-28  7.9749e-24  3.5420e-28  9.9349e-24  4.6564e-28  1.3562e-23  5.8025e-28  2.0015e-23  7.1082e-28  3.1499e-23  8.7619e-28  5.1945e-23  1.1456e-27  8.8383e-23  1.6034e-27  1.5343e-22  2.4114e-27  2.6988e-22  3.8574e-27  4.7945e-22  6.4748e-27  8.5996e-22  1.1283e-26  1.5614e-21  2.0335e-26  2.8872e-21  3.8027e-26  5.4928e-21
      6.10  6.4415e-30  5.3992e-24  9.1897e-30  5.5079e-24  1.6700e-29  5.7013e-24  3.6807e-29  6.0451e-24  8.7317e-29  6.6563e-24  2.0047e-28  7.7431e-24  3.3253e-28  9.6762e-24  4.5641e-28  1.3115e-23  5.6260e-28  1.9234e-23  6.8219e-28  3.0123e-23  8.6957e-28  4.9511e-23  1.1713e-27  8.4064e-23  1.6981e-27  1.4575e-22  2.6369e-27  2.5621e-22  4.3172e-27  4.5504e-22  7.3608e-27  8.1624e-22  1.2965e-26  1.4826e-21  2.3538e-26  2.7438e-21  4.4270e-26  5.2273e-21
      6.15  6.0885e-30  5.4016e-24  8.6082e-30  5.5025e-24  1.5023e-29  5.6818e-24  3.2166e-29  6.0007e-24  7.3191e-29  6.5677e-24  1.5262e-28  7.5758e-24  2.5036e-28  9.3689e-24  3.8341e-28  1.2558e-23  4.8962e-28  1.8233e-23  6.1778e-28  2.8333e-23  8.1883e-28  4.6315e-23  1.1459e-27  7.8365e-23  1.7259e-27  1.3559e-22  2.7579e-27  2.3807e-22  4.6139e-27  4.2260e-22  7.9795e-27  7.5797e-22  1.4181e-26  1.3772e-21  2.5905e-26  2.5508e-21  4.8961e-26  4.8664e-21
      6.20  5.8584e-30  5.4261e-24  8.3273e-30  5.5162e-24  1.4391e-29  5.6764e-24  2.8993e-29  5.9613e-24  5.8293e-29  6.4678e-24  1.1274e-28  7.3683e-24  1.8180e-28  8.9700e-24  2.7214e-28  1.1819e-23  3.8095e-28  1.6888e-23  5.1921e-28  2.5908e-23  7.2172e-28  4.1970e-23  1.0674e-27  7.0599e-23  1.6687e-27  1.2172e-22  2.7444e-27  2.1329e-22  4.6781e-27  3.7821e-22  8.1890e-27  6.7811e-22  1.4666e-26  1.2324e-21  2.6933e-26  2.2842e-21  5.1117e-26  4.3640e-21
      6.25  5.3509e-30  5.4683e-24  7.5875e-30  5.5442e-24  1.2797e-29  5.6790e-24  2.3323e-29  5.9187e-24  4.4134e-29  6.3450e-24  8.2095e-29  7.1029e-24  1.2800e-28  8.4508e-24  1.9361e-28  1.0848e-23  2.8171e-28  1.5113e-23  4.0852e-28  2.2703e-23  6.0685e-28  3.6218e-23  9.4623e-28  6.0309e-23  1.5399e-27  1.0333e-22  2.5967e-27  1.8040e-22  4.4943e-27  3.1927e-22  7.9428e-27  5.7194e-22  1.4313e-26  1.0393e-21  2.6397e-26  1.9277e-21  5.0281e-26  3.6882e-21
      6.30  4.6828e-30  5.5520e-24  6.4340e-30  5.6125e-24  9.9951e-30  5.7201e-24  1.7907e-29  5.9114e-24  3.1837e-29  6.2515e-24  5.7797e-29  6.8563e-24  8.5613e-29  7.9318e-24  1.3444e-28  9.8446e-24  2.0884e-28  1.3247e-23  3.1553e-28  1.9303e-23  4.9956e-28  3.0085e-23  8.1253e-28  4.9306e-23  1.3665e-27  8.3634e-23  2.3498e-27  1.4515e-22  4.1178e-27  2.5602e-22  7.3323e-27  4.5786e-22  1.3276e-26  8.3162e-22  2.4571e-26  1.5431e-21  4.6950e-26  2.9566e-21
      6.35  4.0774e-30  5.6588e-24  5.3073e-30  5.7067e-24  7.8081e-30  5.7918e-24  1.2967e-29  5.9432e-24  2.3484e-29  6.2124e-24  4.2165e-29  6.6910e-24  5.9023e-29  7.5421e-24  9.0266e-29  9.0559e-24  1.4735e-28  1.1749e-23  2.4742e-28  1.6540e-23  4.0916e-28  2.5073e-23  6.9512e-28  4.0284e-23  1.1964e-27  6.7454e-23  2.0896e-27  1.1615e-22  3.7003e-27  2.0395e-22  6.6315e-27  3.6388e-22  1.2058e-26  6.6034e-22  2.2385e-26  1.2256e-21  4.2898e-26  2.3513e-21
      6.40  3.5325e-30  5.7881e-24  4.5688e-30  5.8270e-24  6.4950e-30  5.8961e-24  1.0140e-29  6.0190e-24  1.6817e-29  6.2376e-24  3.1367e-29  6.6262e-24  4.4228e-29  7.3173e-24  6.6932e-29  8.5465e-24  1.1092e-28  1.0733e-23  1.9539e-28  1.4624e-23  3.4758e-28  2.1552e-23  6.1583e-28  3.3904e-23  1.0893e-27  5.5969e-23  1.9360e-27  9.5524e-23  3.4658e-27  1.6686e-22  6.2526e-27  2.9690e-22  1.1418e-26  5.3818e-22  2.1269e-26  9.9896e-22  4.0888e-26  1.9187e-21
      6.45  3.0496e-30  5.9364e-24  3.9977e-30  5.9686e-24  5.5490e-30  6.0258e-24  8.4296e-30  6.1275e-24  1.3443e-29  6.3082e-24  2.3533e-29  6.6297e-24  3.7523e-29  7.2013e-24  5.7668e-29  8.2180e-24  9.7450e-29  1.0026e-23  1.7443e-28  1.3244e-23  3.1911e-28  1.8975e-23  5.8126e-28  2.9191e-23  1.0511e-27  4.7442e-23  1.8983e-27  8.0166e-23  3.4258e-27  1.3921e-22  6.2131e-27  2.4688e-22  1.1387e-26  4.4685e-22  2.1273e-26  8.2929e-22  4.1012e-26  1.5943e-21
      6.50  2.5375e-30  6.1016e-24  3.4237e-30  6.1283e-24  4.6372e-30  6.1759e-24  6.8701e-30  6.2604e-24  1.0848e-29  6.4107e-24  1.8471e-29  6.6779e-24  2.9092e-29  7.1531e-24  4.6550e-29  7.9982e-24  7.9918e-29  9.5015e-24  1.4508e-28  1.2177e-23  2.7053e-28  1.6940e-23  5.0590e-28  2.5432e-23  9.3458e-28  4.0604e-23  1.7098e-27  6.7811e-23  3.1147e-27  1.1691e-22  5.6824e-27  2.0650e-22  1.0455e-26  3.7300e-22  1.9589e-26  6.9184e-22  3.7866e-26  1.3307e-21
      6.55  2.1096e-30  6.3131e-24  2.8733e-30  6.3357e-24  3.8221e-30  6.3760e-24  5.7015e-30  6.5120e-24  9.1285e-30  6.6405e-24  1.5329e-29  6.8010e-24  2.4442e-29  7.2034e-24  3.9145e-29  7.9190e-24  6.8930e-29  9.1920e-24  1.2767e-28  1.1457e-23  2.4254e-28  1.5491e-23  4.6162e-28  2.2682e-23  8.6846e-28  3.5531e-23  1.6112e-27  5.8574e-23  2.9609e-27  1.0017e-22  5.4320e-27  1.7609e-22  1.0034e-26  3.1727e-22  1.8854e-26  5.8788e-22  3.6537e-26  1.1309e-21
      6.60  1.7601e-30  6.5424e-24  2.3720e-30  6.5622e-24  3.1476e-30  6.5975e-24  4.5972e-30  6.6603e-24  7.4852e-30  6.7719e-24  1.3301e-29  6.9704e-24  2.1748e-29  7.3233e-24  3.5208e-29  7.9511e-24  6.3117e-29  9.0678e-24  1.1966e-28  1.1055e-23  2.3113e-28  1.4594e-23  4.4597e-28  2.0903e-23  8.4945e-28  3.2177e-23  1.5934e-27  5.2397e-23  2.9542e-27  8.8900e-23  5.4509e-27  1.5555e-22  1.0107e-26  2.7954e-22  1.9043e-26  5.1738e-22  3.6987e-26  9.9513e-22
      6.65  1.4707e-30  6.7883e-24  1.9284e-30  6.8064e-24  2.6362e-30  6.8387e-24  3.7615e-30  6.8959e-24  6.1857e-30  6.9978e-24  1.1502e-29  7.1789e-24  1.9231e-29  7.5010e-24  3.1903e-29  8.0739e-24  5.8775e-29  9.0930e-24  1.1412e-28  1.0907e-23  2.2418e-28  1.4137e-23  4.3791e-28  1.9895e-23  8.4289e-28  3.0185e-23  1.5963e-27  4.8643e-23  2.9827e-27  8.1969e-23  5.5344e-27  1.4283e-22  1.0300e-26  2.5610e-22  1.9458e-26  4.7349e-22  3.7870e-26  9.1055e-22
      6.70  1.2173e-30  7.0498e-24  1.5474e-30  7.0669e-24  2.1324e-30  7.0974e-24  3.1705e-30  7.1515e-24  5.2806e-30  7.2477e-24  1.0566e-29  7.4188e-24  1.9536e-29  7.7232e-24  3.4233e-29  8.2645e-24  6.5827e-29  9.2274e-24  1.3052e-28  1.0941e-23  2.5831e-28  1.3993e-23  5.0543e-28  1.9434e-23  9.7392e-28  2.9158e-23  1.8464e-27  4.6601e-23  3.4561e-27  7.8099e-23  6.4255e-27  1.3563e-22  1.1978e-26  2.4274e-22  2.2657e-26  4.4841e-22  4.4153e-26  8.6222e-22
      6.75  1.0287e-30  7.3258e-24  1.2426e-30  7.3424e-24  1.7410e-30  7.3719e-24  2.6876e-30  7.4244e-24  4.9267e-30  7.5178e-24  1.0592e-29  7.6838e-24  2.0626e-29  7.9790e-24  3.8534e-29  8.5041e-24  7.6332e-29  9.4382e-24  1.5281e-28  1.1101e-23  3.0181e-28  1.4061e-23  5.8878e-28  1.9340e-23  1.1306e-27  2.8774e-23  2.1399e-27  4.5697e-23  4.0035e-27  7.6260e-23  7.4471e-27  1.3209e-22  1.3894e-26  2.3607e-22  2.6305e-26  4.3581e-22  5.1310e-26  8.3795e-22
      6.80  8.6578e-31  7.6555e-24  1.0087e-30  7.6719e-24  1.4114e-30  7.7012e-24  2.3194e-30  7.7532e-24  4.5143e-30  7.8457e-24  1.0141e-29  8.0101e-24  2.1411e-29  8.3025e-24  4.0995e-29  8.8227e-24  8.2408e-29  9.7480e-24  1.6481e-28  1.1395e-23  3.2436e-28  1.4328e-23  6.3091e-28  1.9557e-23  1.2100e-27  2.8903e-23  2.2896e-27  4.5670e-23  4.2872e-27  7.5953e-23  7.9863e-27  1.3128e-22  1.4923e-26  2.3435e-22  2.8290e-26  4.3242e-22  5.5246e-26  8.3141e-22
      6.85  7.3398e-31  8.0029e-24  8.3259e-31  8.0195e-24  1.1339e-30  8.0489e-24  1.9575e-30  8.1013e-24  3.9454e-30  8.1944e-24  9.5399e-30  8.3600e-24  2.2566e-29  8.6544e-24  4.4695e-29  9.1781e-24  9.1929e-29  1.0110e-23  1.8388e-28  1.1768e-23  3.6282e-28  1.4721e-23  7.0485e-28  1.9986e-23  1.3505e-27  2.9397e-23  2.5528e-27  4.6280e-23  4.7776e-27  7.6776e-23  8.9008e-27  1.3250e-22  1.6640e-26  2.3633e-22  3.1569e-26  4.3594e-22  6.1703e-26  8.3823e-22
      6.90  6.4078e-31  8.4512e-24  7.0711e-31  8.3843e-24  9.4207e-31  8.4141e-24  1.6199e-30  8.4672e-24  3.6740e-30  8.5614e-24  9.6488e-30  8.7291e-24  2.4376e-29  9.0272e-24  5.0132e-29  9.5575e-24  1.0525e-28  1.0501e-23  2.1154e-28  1.2180e-23  4.2023e-28  1.5169e-23  8.2184e-28  2.0501e-23  1.5772e-27  3.0029e-23  2.9789e-27  4.7125e-23  5.5662e-27  7.8007e-23  1.0358e-26  1.3444e-22  1.9355e-26  2.3962e-22  3.6721e-26  4.4189e-22  7.1800e-26  8.4975e-22
      6.95  5.4492e-31  8.7487e-24  6.1786e-31  8.7655e-24  8.3409e-31  8.7955e-24  1.5077e-30  8.8488e-24  3.5789e-30  8.9435e-24  9.6397e-30  9.1120e-24  2.4919e-29  9.4115e-24  5.1658e-29  9.9443e-24  1.0674e-28  1.0892e-23  2.1374e-28  1.2579e-23  4.2922e-28  1.5583e-23  8.4556e-28  2.0940e-23  1.6287e-27  3.0514e-23  3.0821e-27  4.7692e-23  5.7662e-27  7.8725e-23  1.0739e-26  1.3545e-22  2.0083e-26  2.4118e-22  3.8133e-26  4.4457e-22  7.4626e-26  8.5488e-22
      7.00  4.7452e-31  9.1456e-24  5.4547e-31  9.1622e-24  7.6381e-31  9.1917e-24  1.4198e-30  9.2442e-24  3.3874e-30  9.3375e-24  9.0891e-30  9.5035e-24  2.5194e-29  9.7985e-24  5.2232e-29  1.0323e-23  1.0480e-28  1.1257e-23  2.1275e-28  1.2918e-23  4.3160e-28  1.5877e-23  8.5631e-28  2.1153e-23  1.6591e-27  3.0582e-23  3.1547e-27  4.7502e-23  5.9210e-27  7.8069e-23  1.1051e-26  1.3395e-22  2.0693e-26  2.3812e-22  3.9336e-26  4.3859e-22  7.7057e-26  8.4319e-22
      7.05  4.0224e-31  9.6084e-24  4.6987e-31  9.6243e-24  6.7161e-31  9.6525e-24  1.2718e-30  9.7026e-24  3.0477e-30  9.7917e-24  8.4174e-30  9.9502e-24  2.4021e-29  1.0232e-23  5.1657e-29  1.0733e-23  1.0477e-28  1.1625e-23  2.1390e-28  1.3212e-23  4.3725e-28  1.6037e-23  8.7671e-28  2.1075e-23  1.7210e-27  3.0078e-23  3.3028e-27  4.6234e-23  6.2368e-27  7.5423e-23  1.1683e-26  1.2879e-22  2.1928e-26  2.2830e-22  4.1746e-26  4.1984e-22  8.1874e-26  8.0660e-22
      7.10  3.3823e-31  1.0092e-23  3.9808e-31  1.0107e-23  5.7497e-31  1.0133e-23  1.1114e-30  1.0179e-23  2.7404e-30  1.0260e-23  7.7270e-30  1.0406e-23  2.2175e-29  1.0664e-23  5.1144e-29  1.1124e-23  1.0599e-28  1.1942e-23  2.1602e-28  1.3398e-23  4.4178e-28  1.5990e-23  9.0370e-28  2.0610e-23  1.8054e-27  2.8867e-23  3.5112e-27  4.3683e-23  6.6876e-27  7.0453e-23  1.2595e-26  1.1940e-22  2.3718e-26  2.1069e-22  4.5246e-26  3.8645e-22  8.8866e-26  7.4150e-22
      7.15  2.8461e-31  1.0597e-23  3.3602e-31  1.0610e-23  4.9064e-31  1.0632e-23  9.6532e-31  1.0673e-23  2.4284e-30  1.0744e-23  6.7067e-30  1.0872e-23  1.8946e-29  1.1099e-23  4.6170e-29  1.1503e-23  9.3178e-29  1.2221e-23  1.8657e-28  1.3499e-23  3.8670e-28  1.5773e-23  8.0514e-28  1.9828e-23  1.6420e-27  2.7072e-23  3.2520e-27  4.0071e-23  6.2811e-27  6.3557e-23  1.1945e-26  1.0650e-22  2.2639e-26  1.8661e-22  4.3367e-26  3.4089e-22  8.5408e-26  6.5265e-22
      7.20  2.3891e-31  1.1122e-23  2.8197e-31  1.1133e-23  4.1300e-31  1.1152e-23  8.0797e-31  1.1186e-23  1.9957e-30  1.1247e-23  5.4206e-30  1.1355e-23  1.4987e-29  1.1547e-23  3.8010e-29  1.1889e-23  7.3546e-29  1.2496e-23  1.5045e-28  1.3576e-23  3.1732e-28  1.5499e-23  6.7472e-28  1.8927e-23  1.4123e-27  2.5049e-23  2.8675e-27  3.6033e-23  5.6510e-27  5.5879e-23  1.0906e-26  9.2167e-23  2.0879e-26  1.5987e-22  4.0261e-26  2.9027e-22  7.9630e-26  5.5387e-22
      7.25  2.0035e-31  1.1669e-23  2.3503e-31  1.1678e-23  3.4015e-31  1.1694e-23  6.5148e-31  1.1722e-23  1.5627e-30  1.1773e-23  4.1333e-30  1.1862e-23  1.1091e-29  1.2022e-23  2.7677e-29  1.2306e-23  5.4936e-29  1.2810e-23  1.1239e-28  1.3707e-23  2.4005e-28  1.5305e-23  5.2489e-28  1.8151e-23  1.1328e-27  2.3234e-23  2.3734e-27  3.2353e-23  4.8012e-27  4.8826e-23  9.4510e-27  7.8949e-23  1.8345e-26  1.3515e-22  3.5702e-26  2.4341e-22  7.1034e-26  4.6230e-22
      7.30  1.6807e-31  1.2301e-23  1.9510e-31  1.2308e-23  2.7985e-31  1.2445e-23  5.1234e-31  1.2345e-23  1.2030e-30  1.2387e-23  3.0838e-30  1.2462e-23  8.1654e-30  1.2595e-23  1.9951e-29  1.2832e-23  4.1502e-29  1.3254e-23  8.4518e-29  1.4003e-23  1.7876e-28  1.5337e-23  4.0058e-28  1.7714e-23  8.9868e-28  2.1959e-23  1.9560e-27  2.9573e-23  4.0907e-27  4.3326e-23  8.2616e-27  6.8471e-23  1.6333e-26  1.1538e-22  3.2181e-26  2.0576e-22  6.4538e-26  3.8850e-22
      7.35  1.4164e-31  1.2962e-23  1.6192e-31  1.2968e-23  2.2207e-31  1.2979e-23  4.0040e-31  1.2999e-23  9.2018e-31  1.3035e-23  2.2922e-30  1.3099e-23  5.9410e-30  1.3213e-23  1.4909e-29  1.3414e-23  3.2765e-29  1.3773e-23  6.5855e-29  1.4412e-23  1.3964e-28  1.5549e-23  3.1807e-28  1.7576e-23  7.3906e-28  2.1195e-23  1.6688e-27  2.7686e-23  3.5982e-27  3.9408e-23  7.4473e-27  6.0840e-23  1.4991e-26  1.0082e-22  2.9907e-26  1.7785e-22  6.0468e-26  3.3357e-22
      7.40  1.2012e-31  1.3651e-23  1.3564e-31  1.3657e-23  1.8156e-31  1.3667e-23  3.1805e-31  1.3684e-23  7.1054e-31  1.3716e-23  1.7331e-30  1.3771e-23  4.5094e-30  1.3871e-23  1.1788e-29  1.4047e-23  2.7939e-29  1.4361e-23  5.4893e-29  1.4920e-23  1.1599e-28  1.5914e-23  2.6691e-28  1.7687e-23  6.3081e-28  2.0854e-23  1.4618e-27  2.6532e-23  3.2397e-27  3.6788e-23  6.8598e-27  5.5536e-23  1.4046e-26  9.0507e-23  2.8359e-26  1.5787e-22  5.7795e-26  2.9407e-22
      7.45  1.0270e-31  1.4369e-23  1.1498e-31  1.4374e-23  1.5019e-31  1.4383e-23  2.5761e-31  1.4399e-23  5.7247e-31  1.4427e-23  1.3800e-30  1.4477e-23  3.5917e-30  1.4566e-23  9.4845e-30  1.4725e-23  2.2203e-29  1.5007e-23  4.3062e-29  1.5508e-23  8.9224e-29  1.6402e-23  2.0659e-28  1.7994e-23  4.9740e-28  2.0840e-23  1.1849e-27  2.5942e-23  2.7082e-27  3.5157e-23  5.8958e-27  5.2002e-23  1.2339e-26  8.3420e-23  2.5304e-26  1.4394e-22  5.2119e-26  2.6626e-22
      7.50  8.8606e-32  1.5116e-23  9.8108e-32  1.5120e-23  1.2823e-31  1.5129e-23  2.1700e-31  1.5143e-23  4.7902e-31  1.5169e-23  1.1523e-30  1.5215e-23  3.0099e-30  1.5297e-23  7.9462e-30  1.5443e-23  1.8471e-29  1.5703e-23  3.5540e-29  1.6164e-23  7.2540e-29  1.6987e-23  1.6758e-28  1.8453e-23  4.0772e-28  2.1073e-23  9.9216e-28  2.5773e-23  2.3306e-27  3.4260e-23  5.2123e-27  4.9773e-23  1.1153e-26  7.8706e-23  2.3251e-26  1.3443e-22  4.8424e-26  2.4704e-22
      7.55  7.7222e-32  1.5971e-23  8.6128e-32  1.5976e-23  1.1206e-31  1.5983e-23  1.9131e-31  1.5997e-23  4.2336e-31  1.6022e-23  1.0186e-30  1.6065e-23  2.6516e-30  1.6142e-23  7.0135e-30  1.6280e-23  1.5874e-29  1.6524e-23  3.0594e-29  1.6960e-23  6.1928e-29  1.7735e-23  1.4145e-28  1.9117e-23  3.4442e-28  2.1587e-23  8.4960e-28  2.6017e-23  2.0424e-27  3.4018e-23  4.6903e-27  4.8644e-23  1.0281e-26  7.5918e-23  2.1841e-26  1.2844e-22  4.6097e-26  2.3456e-22
      7.60  6.8016e-32  1.6865e-23  7.6205e-32  1.6870e-23  1.0027e-31  1.6877e-23  1.7377e-31  1.6890e-23  3.8749e-31  1.6914e-23  9.5644e-31  1.6956e-23  2.4821e-30  1.7030e-23  6.5350e-30  1.7162e-23  1.3621e-29  1.7397e-23  2.6956e-29  1.7816e-23  5.3197e-29  1.8561e-23  1.1812e-28  1.9890e-23  2.8274e-28  2.2265e-23  6.9623e-28  2.6525e-23  1.6942e-27  3.4221e-23  3.9692e-27  4.8287e-23  8.8875e-27  7.4518e-23  1.9225e-26  1.2502e-22  4.1127e-26  2.2706e-22
      7.65  6.0504e-32  1.7798e-23  6.8229e-32  1.7802e-23  9.1773e-32  1.7809e-23  1.6076e-31  1.7822e-23  3.6208e-31  1.7845e-23  9.0190e-31  1.7886e-23  2.3711e-30  1.7959e-23  6.2768e-30  1.8088e-23  1.2281e-29  1.8318e-23  2.4178e-29  1.8727e-23  4.6960e-29  1.9455e-23  1.0055e-28  2.0754e-23  2.3506e-28  2.3076e-23  5.7311e-28  2.7242e-23  1.4018e-27  3.4766e-23  3.3366e-27  4.8521e-23  7.6210e-27  7.4168e-23  1.6794e-26  1.2355e-22  3.6455e-26  2.2329e-22
      7.70  5.3952e-32  1.8769e-23  6.1563e-32  1.8773e-23  8.4102e-32  1.8780e-23  1.4981e-31  1.8793e-23  3.3761e-31  1.8816e-23  8.6924e-31  1.8856e-23  2.2887e-30  1.8928e-23  6.0658e-30  1.9056e-23  1.0994e-29  1.9284e-23  2.1337e-29  1.9689e-23  4.1291e-29  2.0410e-23  8.6515e-29  2.1697e-23  1.9695e-28  2.3996e-23  4.7296e-28  2.8122e-23  1.1560e-27  3.5575e-23  2.7837e-27  4.9200e-23  6.4750e-27  7.4604e-23  1.4540e-26  1.2351e-22  3.2062e-26  2.2229e-22
      7.75  4.9155e-32  1.9779e-23  5.6156e-32  1.9783e-23  7.7799e-32  1.9790e-23  1.4078e-31  1.9803e-23  3.2224e-31  1.9825e-23  8.3097e-31  1.9866e-23  2.1977e-30  1.9938e-23  5.5316e-30  2.0066e-23  1.0112e-29  2.0293e-23  1.9123e-29  2.0698e-23  3.6923e-29  2.1419e-23  7.5098e-29  2.2705e-23  1.6669e-28  2.5003e-23  3.9218e-28  2.9128e-23  9.5187e-28  3.6578e-23  2.3075e-27  5.0198e-23  5.4520e-27  7.5594e-23  1.2472e-26  1.2448e-22  2.7965e-26  2.2321e-22
      7.80  4.4944e-32  2.0930e-23  5.1567e-32  2.0934e-23  7.2214e-32  2.0941e-23  1.3205e-31  2.0954e-23  3.0364e-31  2.0977e-23  7.8999e-31  2.1018e-23  2.1352e-30  2.1301e-23  5.1387e-30  2.1219e-23  9.2517e-30  2.1448e-23  1.7295e-29  2.1855e-23  3.2820e-29  2.2582e-23  6.5644e-29  2.3877e-23  1.4220e-28  2.6192e-23  3.2683e-28  3.0345e-23  7.8401e-28  3.7850e-23  1.9046e-27  5.1568e-23  4.5590e-27  7.7148e-23  1.0619e-26  1.2639e-22  2.4236e-26  2.2582e-22
      7.85  4.1232e-32  2.2133e-23  4.7540e-32  2.2137e-23  6.6855e-32  2.2145e-23  1.2267e-31  2.2158e-23  2.7970e-31  2.2181e-23  7.2833e-31  2.2222e-23  1.9407e-30  2.2295e-23  4.6470e-30  2.2425e-23  8.4033e-30  2.2656e-23  1.5559e-29  2.3068e-23  2.9588e-29  2.3801e-23  5.8022e-29  2.5109e-23  1.2172e-28  2.7446e-23  2.7318e-28  3.1640e-23  6.4588e-28  3.9218e-23  1.5666e-27  5.3070e-23  3.7889e-27  7.8899e-23  8.9803e-27  1.2861e-22  2.0885e-26  2.2900e-22
      7.90  3.8377e-32  2.3389e-23  4.3839e-32  2.3393e-23  6.1277e-32  2.3401e-23  1.1129e-31  2.3414e-23  2.5419e-31  2.3437e-23  6.5871e-31  2.3479e-23  1.7823e-30  2.3552e-23  3.9959e-30  2.3684e-23  7.2673e-30  2.3917e-23  1.3358e-29  2.4333e-23  2.5240e-29  2.5073e-23  4.8752e-29  2.6393e-23  1.0044e-28  2.8752e-23  2.2069e-28  3.2986e-23  5.1428e-28  4.0636e-23  1.2439e-27  5.4619e-23  3.0373e-27  8.0693e-23  7.3300e-27  1.3088e-22  1.7404e-26  2.3220e-22
      7.95  3.5812e-32  2.4698e-23  4.0595e-32  2.4702e-23  5.6830e-32  2.4957e-23  1.0016e-31  2.4723e-23  2.2797e-31  2.4746e-23  5.8166e-31  2.4788e-23  1.5641e-30  2.4862e-23  3.3868e-30  2.4994e-23  6.1406e-30  2.5229e-23  1.1222e-29  2.5647e-23  2.0982e-29  2.6392e-23  4.0380e-29  2.7720e-23  8.1533e-29  3.0095e-23  1.7558e-28  3.4355e-23  4.0259e-28  4.2052e-23  9.6734e-28  5.6123e-23  2.3746e-27  8.2359e-23  5.8158e-27  1.3285e-22  1.4076e-26  2.3478e-22
      8.00  3.3625e-32  2.6060e-23  3.7679e-32  2.6064e-23  5.0859e-32  2.6071e-23  8.9422e-32  2.6085e-23  1.9800e-31  2.6108e-23  5.0031e-31  2.6150e-23  1.3568e-30  2.6224e-23  2.8141e-30  2.6357e-23  5.0407e-30  2.6592e-23  9.2570e-30  2.7011e-23  1.7196e-29  2.7758e-23  3.2870e-29  2.9089e-23  6.5353e-29  3.1469e-23  1.3822e-28  3.5738e-23  3.1178e-28  4.3453e-23  7.4252e-28  5.7554e-23  1.8258e-27  8.3846e-23  4.5233e-27  1.3444e-22  1.1136e-26  2.3657e-22
      8.05  3.1770e-32  2.7608e-23  3.5095e-32  2.7612e-23  4.6028e-32  2.7619e-23  7.8067e-32  2.7633e-23  1.6814e-31  2.7656e-23  4.2292e-31  2.7698e-23  1.1200e-30  2.7772e-23  2.2892e-30  2.7905e-23  4.0910e-30  2.8140e-23  7.5572e-30  2.8560e-23  1.3830e-29  2.9306e-23  2.6237e-29  3.0638e-23  5.1727e-29  3.3019e-23  1.0781e-28  3.7291e-23  2.3984e-28  4.5008e-23  5.6630e-28  5.9115e-23  1.3854e-27  8.5416e-23  3.4657e-27  1.3602e-22  8.7140e-27  2.3816e-22
      8.10  3.0212e-32  2.9228e-23  3.2857e-32  2.9232e-23  4.1547e-32  2.9239e-23  6.7129e-32  2.9253e-23  1.3995e-31  2.9276e-23  3.4583e-31  2.9318e-23  9.1855e-31  2.9392e-23  1.8430e-30  2.9524e-23  3.2553e-30  2.9759e-23  5.8847e-30  3.0177e-23  1.0826e-29  3.0921e-23  2.0617e-29  3.2249e-23  4.0345e-29  3.4622e-23  8.3101e-29  3.8881e-23  1.8267e-28  4.6574e-23  4.2782e-28  6.0637e-23  1.0516e-27  8.6851e-23  2.6508e-27  1.3729e-22  6.7233e-27  2.3905e-22
      8.15  2.8921e-32  3.0921e-23  3.0973e-32  3.0925e-23  3.7784e-32  3.0932e-23  5.7651e-32  3.0945e-23  1.1523e-31  3.0969e-23  2.7761e-31  3.1010e-23  7.3084e-31  3.1084e-23  1.4298e-30  3.1215e-23  2.5478e-30  3.1449e-23  4.5923e-30  3.1865e-23  8.4146e-30  3.2605e-23  1.5931e-29  3.3926e-23  3.0966e-29  3.6286e-23  6.3120e-29  4.0521e-23  1.3711e-28  4.8173e-23  3.1666e-28  6.2158e-23  7.8001e-28  8.8226e-23  1.9767e-27  1.3837e-22  5.0751e-27  2.3953e-22
      8.20  2.7865e-32  3.2686e-23  2.9424e-32  3.2690e-23  3.4649e-32  3.2698e-23  4.9941e-32  3.2711e-23  9.3988e-32  3.2734e-23  2.1986e-31  3.2775e-23  5.8244e-31  3.3178e-23  1.1169e-30  3.2979e-23  1.9675e-30  3.3211e-23  3.5377e-30  3.3624e-23  6.4625e-30  3.4360e-23  1.2077e-29  3.5672e-23  2.3543e-29  3.8017e-23  4.7695e-29  4.2225e-23  1.0273e-28  4.9826e-23  2.3570e-28  6.3719e-23  5.7949e-28  8.9612e-23  1.4757e-27  1.3941e-22  3.8303e-27  2.3985e-22
      8.25  2.6980e-32  3.4523e-23  2.8148e-32  3.4527e-23  3.1810e-32  3.4534e-23  4.3701e-32  3.4547e-23  7.7155e-32  3.4570e-23  1.7162e-31  3.4611e-23  4.4224e-31  3.4684e-23  8.4912e-31  3.4814e-23  1.5048e-30  3.5044e-23  2.7011e-30  3.5455e-23  4.9221e-30  3.6186e-23  9.2523e-30  3.7490e-23  1.7804e-29  3.9820e-23  3.5910e-29  4.4002e-23  7.6931e-29  5.1555e-23  1.7575e-28  6.5359e-23  4.3179e-28  9.1083e-23  1.1047e-27  1.4055e-22  2.8960e-27  2.4029e-22
      8.30  2.6300e-32  3.6600e-23  2.7139e-32  3.6604e-23  2.9851e-32  3.6612e-23  3.8451e-32  3.6625e-23  6.3649e-32  3.6648e-23  1.3591e-31  3.6688e-23  3.4070e-31  3.6761e-23  6.5582e-31  3.6891e-23  1.1572e-30  3.7121e-23  2.0721e-30  3.7531e-23  3.7672e-30  3.8261e-23  6.9999e-30  3.9562e-23  1.3432e-29  4.1889e-23  2.6999e-29  4.6063e-23  5.7673e-29  5.3603e-23  1.3206e-28  6.7382e-23  3.2303e-28  9.3057e-23  8.3033e-28  1.4242e-22  2.1965e-27  2.4192e-22
      8.35  2.5751e-32  3.8765e-23  2.6384e-32  3.8770e-23  2.8348e-32  3.8777e-23  3.4652e-32  3.8790e-23  5.2890e-32  3.8813e-23  1.0547e-31  3.8854e-23  2.5751e-31  3.8927e-23  4.9133e-31  3.9056e-23  8.6200e-31  3.9286e-23  1.5384e-30  3.9697e-23  2.7926e-30  4.0427e-23  5.1835e-30  4.1730e-23  9.9412e-30  4.4058e-23  1.9980e-29  4.8235e-23  4.2717e-29  5.5781e-23  9.8014e-29  6.9568e-23  2.4074e-28  9.5255e-23  6.2314e-28  1.4463e-22  1.6649e-27  2.4413e-22
      8.40  2.5299e-32  4.1010e-23  2.5767e-32  4.1015e-23  2.7219e-32  4.1022e-23  3.1731e-32  4.1035e-23  4.4780e-32  4.1058e-23  8.2776e-32  4.1099e-23  1.9225e-31  4.1172e-23  3.6211e-31  4.1302e-23  6.3029e-31  4.1533e-23  1.1200e-30  4.1945e-23  2.0295e-30  4.2678e-23  3.7668e-30  4.3985e-23  7.2335e-30  4.6322e-23  1.4578e-29  5.0513e-23  3.1302e-29  5.8084e-23  7.2258e-29  7.1918e-23  1.7880e-28  9.7687e-23  4.6708e-28  1.4721e-22  1.2617e-27  2.4697e-22
      8.45  2.4966e-32  4.3323e-23  2.5296e-32  4.3327e-23  2.6359e-32  4.3334e-23  2.9386e-32  4.3347e-23  3.9109e-32  4.3371e-23  6.6688e-32  4.3412e-23  1.4489e-31  4.3486e-23  2.6815e-31  4.3616e-23  4.6616e-31  4.3849e-23  8.2360e-31  4.4263e-23  1.4883e-30  4.5001e-23  2.7609e-30  4.6316e-23  5.3074e-30  4.8667e-23  1.0725e-29  5.2884e-23  2.3123e-29  6.0501e-23  5.3679e-29  7.4417e-23  1.3376e-28  1.0034e-22  3.5233e-28  1.5014e-22  9.5433e-28  2.5044e-22
      8.50  2.4691e-32  4.5686e-23  2.4934e-32  4.5690e-23  2.5726e-32  4.5697e-23  2.7986e-32  4.5711e-23  3.4984e-32  4.5734e-23  5.5112e-32  4.5776e-23  1.1277e-31  4.5850e-23  2.0357e-31  4.5982e-23  3.4617e-31  4.6216e-23  6.1256e-31  4.6634e-23  1.1027e-30  4.7378e-23  2.0428e-30  4.8704e-23  3.9292e-30  5.1075e-23  7.9570e-30  5.5328e-23  1.7219e-29  6.3009e-23  4.0174e-29  7.7041e-23  1.0073e-28  1.0317e-22  2.6727e-28  1.5338e-22  7.3531e-28  2.5445e-22
