# This was generated using Cloudy10 and the columns are ordered 
# as log10 of the fraction of the metallicity to the solar metallicity
# 'h_*_Z' and 'c_*_Z' stands for cooling and heating respectively 
# at * metalicity
#
# NOTE: This was generated separately from loop_coolingcurve_w_UV.py
#       using Output_metals_w_redshift.py.
#
# Redshift = 8.5
# hden = -3.0
#
#     temp   h_-3.00_Z   c_-3.00_Z   h_-2.75_Z   c_-2.75_Z   h_-2.50_Z   c_-2.50_Z   h_-2.25_Z   c_-2.25_Z   h_-2.00_Z   c_-2.00_Z   h_-1.75_Z   c_-1.75_Z   h_-1.50_Z   c_-1.50_Z   h_-1.25_Z   c_-1.25_Z   h_-1.00_Z   c_-1.00_Z   h_-0.75_Z   c_-0.75_Z   h_-0.50_Z   c_-0.50_Z   h_-0.25_Z   c_-0.25_Z    h_0.00_Z    c_0.00_Z    h_0.25_Z    c_0.25_Z    h_0.50_Z    c_0.50_Z    h_0.75_Z    c_0.75_Z    h_1.00_Z    c_1.00_Z    h_1.25_Z    c_1.25_Z    h_1.50_Z    c_1.50_Z 
      1.00  2.0725e-22  4.2083e-26  2.0725e-22  4.2083e-26  2.0726e-22  4.2083e-26  2.0726e-22  4.2084e-26  2.0727e-22  4.2086e-26  2.0728e-22  4.2088e-26  2.0731e-22  4.2092e-26  2.0735e-22  4.2100e-26  2.0743e-22  4.2114e-26  2.0756e-22  4.2139e-26  2.0781e-22  4.2183e-26  2.0824e-22  4.2261e-26  2.0902e-22  4.2400e-26  2.1040e-22  4.2648e-26  2.1285e-22  4.3090e-26  2.1721e-22  4.3879e-26  2.2500e-22  4.5291e-26  2.3891e-22  4.7835e-26  2.6387e-22  5.2455e-26
      1.05  1.9655e-22  4.4732e-26  1.9655e-22  4.4733e-26  1.9656e-22  4.4734e-26  1.9656e-22  4.4737e-26  1.9657e-22  4.4741e-26  1.9658e-22  4.4749e-26  1.9660e-22  4.4763e-26  1.9665e-22  4.4788e-26  1.9672e-22  4.4832e-26  1.9685e-22  4.4910e-26  1.9709e-22  4.5050e-26  1.9751e-22  4.5298e-26  1.9825e-22  4.5740e-26  1.9957e-22  4.6526e-26  2.0193e-22  4.7930e-26  2.0612e-22  5.0437e-26  2.1360e-22  5.4935e-26  2.2697e-22  6.3055e-26  2.5096e-22  7.7880e-26
      1.10  1.8626e-22  4.7507e-26  1.8626e-22  4.7509e-26  1.8626e-22  4.7512e-26  1.8626e-22  4.7519e-26  1.8627e-22  4.7529e-26  1.8628e-22  4.7549e-26  1.8631e-22  4.7583e-26  1.8635e-22  4.7645e-26  1.8642e-22  4.7754e-26  1.8654e-22  4.7947e-26  1.8677e-22  4.8292e-26  1.8717e-22  4.8906e-26  1.8789e-22  4.9998e-26  1.8916e-22  5.1944e-26  1.9142e-22  5.5415e-26  1.9545e-22  6.1619e-26  2.0264e-22  7.2757e-26  2.1549e-22  9.2893e-26  2.3856e-22  1.2974e-25
      1.15  1.7636e-22  5.0412e-26  1.7636e-22  5.0416e-26  1.7636e-22  5.0422e-26  1.7637e-22  5.0435e-26  1.7637e-22  5.0456e-26  1.7639e-22  5.0495e-26  1.7641e-22  5.0564e-26  1.7645e-22  5.0687e-26  1.7651e-22  5.0904e-26  1.7664e-22  5.1292e-26  1.7685e-22  5.1981e-26  1.7724e-22  5.3208e-26  1.7793e-22  5.5391e-26  1.7915e-22  5.9280e-26  1.8132e-22  6.6219e-26  1.8520e-22  7.8628e-26  1.9211e-22  1.0091e-25  2.0446e-22  1.4124e-25  2.2664e-22  2.1513e-25
      1.20  1.6686e-22  5.3450e-26  1.6686e-22  5.3457e-26  1.6686e-22  5.3469e-26  1.6687e-22  5.3491e-26  1.6687e-22  5.3530e-26  1.6688e-22  5.3599e-26  1.6691e-22  5.3723e-26  1.6694e-22  5.3942e-26  1.6701e-22  5.4331e-26  1.6713e-22  5.5024e-26  1.6733e-22  5.6257e-26  1.6771e-22  5.8450e-26  1.6837e-22  6.2355e-26  1.6954e-22  6.9312e-26  1.7163e-22  8.1724e-26  1.7536e-22  1.0393e-25  1.8200e-22  1.4382e-25  1.9387e-22  2.1605e-25  2.1520e-22  3.4856e-25
      1.25  1.5775e-22  5.6626e-26  1.5775e-22  5.6637e-26  1.5776e-22  5.6658e-26  1.5776e-22  5.6694e-26  1.5777e-22  5.6759e-26  1.5778e-22  5.6873e-26  1.5780e-22  5.7078e-26  1.5783e-22  5.7440e-26  1.5790e-22  5.8086e-26  1.5801e-22  5.9234e-26  1.5821e-22  6.1276e-26  1.5857e-22  6.4910e-26  1.5920e-22  7.1380e-26  1.6033e-22  8.2906e-26  1.6234e-22  1.0347e-25  1.6592e-22  1.4027e-25  1.7231e-22  2.0641e-25  1.8373e-22  3.2623e-25  2.0423e-22  5.4627e-25
      1.30  1.4904e-22  5.9944e-26  1.4904e-22  5.9962e-26  1.4904e-22  5.9994e-26  1.4904e-22  6.0051e-26  1.4905e-22  6.0152e-26  1.4906e-22  6.0331e-26  1.4908e-22  6.0649e-26  1.4911e-22  6.1215e-26  1.4917e-22  6.2223e-26  1.4928e-22  6.4014e-26  1.4948e-22  6.7201e-26  1.4982e-22  7.2871e-26  1.5043e-22  8.2966e-26  1.5151e-22  1.0095e-25  1.5345e-22  1.3305e-25  1.5689e-22  1.9049e-25  1.6303e-22  2.9375e-25  1.7402e-22  4.8091e-25  1.9374e-22  8.2488e-25
      1.35  1.4070e-22  6.3409e-26  1.4070e-22  6.3436e-26  1.4070e-22  6.3483e-26  1.4071e-22  6.3567e-26  1.4071e-22  6.3717e-26  1.4072e-22  6.3983e-26  1.4074e-22  6.4455e-26  1.4077e-22  6.5296e-26  1.4083e-22  6.6791e-26  1.4094e-22  6.9450e-26  1.4112e-22  7.4181e-26  1.4145e-22  8.2599e-26  1.4204e-22  9.7585e-26  1.4308e-22  1.2429e-25  1.4494e-22  1.7194e-25  1.4826e-22  2.5723e-25  1.5416e-22  4.1058e-25  1.6473e-22  6.8863e-25  1.8370e-22  1.2000e-24
      1.40  1.3274e-22  6.7025e-26  1.3274e-22  6.7063e-26  1.3274e-22  6.7130e-26  1.3274e-22  6.7250e-26  1.3275e-22  6.7462e-26  1.3276e-22  6.7841e-26  1.3278e-22  6.8513e-26  1.3281e-22  6.9709e-26  1.3287e-22  7.1836e-26  1.3297e-22  7.5620e-26  1.3314e-22  8.2351e-26  1.3346e-22  9.4328e-26  1.3403e-22  1.1565e-25  1.3503e-22  1.5365e-25  1.3682e-22  2.2146e-25  1.4000e-22  3.4281e-25  1.4569e-22  5.6107e-25  1.5585e-22  9.5690e-25  1.7411e-22  1.6851e-24
      1.45  1.2514e-22  7.1803e-26  1.2514e-22  7.1855e-26  1.2515e-22  7.1947e-26  1.2515e-22  7.2111e-26  1.2515e-22  7.2403e-26  1.2516e-22  7.2922e-26  1.2518e-22  7.3845e-26  1.2521e-22  7.5487e-26  1.2527e-22  7.8406e-26  1.2536e-22  8.3598e-26  1.2553e-22  9.2834e-26  1.2584e-22  1.0927e-25  1.2638e-22  1.3853e-25  1.2735e-22  1.9067e-25  1.2907e-22  2.8372e-25  1.3213e-22  4.5027e-25  1.3760e-22  7.4982e-25  1.4737e-22  1.2931e-24  1.6494e-22  2.2930e-24
      1.50  1.1790e-22  7.7060e-26  1.1791e-22  7.7129e-26  1.1791e-22  7.7252e-26  1.1791e-22  7.7470e-26  1.1792e-22  7.7858e-26  1.1792e-22  7.8549e-26  1.1794e-22  7.9777e-26  1.1797e-22  8.1960e-26  1.1802e-22  8.5844e-26  1.1812e-22  9.2752e-26  1.1828e-22  1.0504e-25  1.1857e-22  1.2691e-25  1.1910e-22  1.6584e-25  1.2002e-22  2.3521e-25  1.2168e-22  3.5901e-25  1.2462e-22  5.8060e-25  1.2988e-22  9.7914e-25  1.3928e-22  1.7020e-24  1.5617e-22  3.0324e-24
      1.55  1.1101e-22  8.2445e-26  1.1102e-22  8.2534e-26  1.1102e-22  8.2693e-26  1.1102e-22  8.2976e-26  1.1102e-22  8.3480e-26  1.1103e-22  8.4375e-26  1.1105e-22  8.5966e-26  1.1108e-22  8.8797e-26  1.1113e-22  9.3832e-26  1.1122e-22  1.0279e-25  1.1138e-22  1.1872e-25  1.1166e-22  1.4706e-25  1.1216e-22  1.9753e-25  1.1305e-22  2.8745e-25  1.1464e-22  4.4794e-25  1.1747e-22  7.3517e-25  1.2253e-22  1.2517e-24  1.3156e-22  2.1886e-24  1.4780e-22  3.9125e-24
      1.60  1.0446e-22  8.7967e-26  1.0446e-22  8.8080e-26  1.0446e-22  8.8282e-26  1.0447e-22  8.8641e-26  1.0447e-22  8.9280e-26  1.0448e-22  9.0416e-26  1.0450e-22  9.2436e-26  1.0452e-22  9.6028e-26  1.0457e-22  1.0242e-25  1.0466e-22  1.1378e-25  1.0481e-22  1.3399e-25  1.0508e-22  1.6996e-25  1.0556e-22  2.3399e-25  1.0642e-22  3.4808e-25  1.0795e-22  5.5171e-25  1.1067e-22  9.1610e-25  1.1552e-22  1.5713e-24  1.2421e-22  2.7595e-24  1.3981e-22  4.9448e-24
      1.65  9.8236e-23  9.3638e-26  9.8236e-23  9.3780e-26  9.8238e-23  9.4032e-26  9.8240e-23  9.4480e-26  9.8245e-23  9.5277e-26  9.8253e-23  9.6693e-26  9.8268e-23  9.9212e-26  9.8294e-23  1.0369e-25  9.8340e-23  1.1166e-25  9.8422e-23  1.2583e-25  9.8569e-23  1.5104e-25  9.8829e-23  1.9590e-25  9.9292e-23  2.7577e-25  1.0012e-22  4.1807e-25  1.0158e-22  6.7201e-25  1.0419e-22  1.1264e-24  1.0885e-22  1.9433e-24  1.1719e-22  3.4241e-24  1.3218e-22  6.1461e-24
      1.70  9.2326e-23  9.9472e-26  9.2327e-23  9.9647e-26  9.2328e-23  9.9957e-26  9.2331e-23  1.0051e-25  9.2335e-23  1.0149e-25  9.2343e-23  1.0323e-25  9.2357e-23  1.0634e-25  9.2382e-23  1.1185e-25  9.2427e-23  1.2166e-25  9.2506e-23  1.3911e-25  9.2646e-23  1.7015e-25  9.2895e-23  2.2538e-25  9.3340e-23  3.2371e-25  9.4130e-23  4.9889e-25  9.5536e-23  8.1149e-25  9.8042e-23  1.3708e-24  1.0251e-22  2.3760e-24  1.1051e-22  4.1972e-24  1.2490e-22  7.5426e-24
      1.75  8.6723e-23  1.0548e-25  8.6723e-23  1.0570e-25  8.6725e-23  1.0607e-25  8.6727e-23  1.0675e-25  8.6731e-23  1.0794e-25  8.6739e-23  1.1007e-25  8.6752e-23  1.1386e-25  8.6776e-23  1.2059e-25  8.6819e-23  1.3256e-25  8.6895e-23  1.5385e-25  8.7029e-23  1.9172e-25  8.7268e-23  2.5911e-25  8.7694e-23  3.7908e-25  8.8451e-23  5.9281e-25  8.9799e-23  9.7414e-25  9.2201e-23  1.6563e-24  9.6488e-23  2.8819e-24  1.0416e-22  5.1015e-24  1.1795e-22  9.1746e-24
      1.80  8.1414e-23  1.1171e-25  8.1415e-23  1.1196e-25  8.1416e-23  1.1242e-25  8.1418e-23  1.1324e-25  8.1422e-23  1.1469e-25  8.1430e-23  1.1728e-25  8.1442e-23  1.2187e-25  8.1465e-23  1.3004e-25  8.1506e-23  1.4456e-25  8.1579e-23  1.7040e-25  8.1707e-23  2.1636e-25  8.1936e-23  2.9814e-25  8.2344e-23  4.4371e-25  8.3069e-23  7.0305e-25  8.4360e-23  1.1657e-24  8.6660e-23  1.9932e-24  9.0765e-23  3.4794e-24  9.8112e-23  6.1693e-24  1.1132e-22  1.1101e-23
      1.85  7.6389e-23  1.1814e-25  7.6389e-23  1.1845e-25  7.6391e-23  1.1901e-25  7.6393e-23  1.2000e-25  7.6397e-23  1.2176e-25  7.6404e-23  1.2488e-25  7.6416e-23  1.3044e-25  7.6438e-23  1.4033e-25  7.6477e-23  1.5791e-25  7.6546e-23  1.8919e-25  7.6669e-23  2.4482e-25  7.6889e-23  3.4381e-25  7.7279e-23  5.2001e-25  7.7972e-23  8.3388e-25  7.9207e-23  1.3938e-24  8.1408e-23  2.3949e-24  8.5336e-23  4.1926e-24  9.2365e-23  7.4441e-24  1.0501e-22  1.3399e-23
      1.90  7.1636e-23  1.2481e-25  7.1637e-23  1.2519e-25  7.1638e-23  1.2586e-25  7.1640e-23  1.2705e-25  7.1644e-23  1.2918e-25  7.1650e-23  1.3296e-25  7.1662e-23  1.3969e-25  7.1683e-23  1.5165e-25  7.1720e-23  1.7291e-25  7.1786e-23  2.1074e-25  7.1904e-23  2.7803e-25  7.2114e-23  3.9775e-25  7.2486e-23  6.1086e-25  7.3149e-23  9.9046e-25  7.4330e-23  1.6675e-24  7.6433e-23  2.8780e-24  8.0187e-23  5.0507e-24  8.6908e-23  8.9783e-24  9.8998e-23  1.6164e-23
      1.95  6.7144e-23  1.3172e-25  6.7145e-23  1.3218e-25  6.7146e-23  1.3299e-25  6.7148e-23  1.3444e-25  6.7152e-23  1.3701e-25  6.7158e-23  1.4158e-25  6.7169e-23  1.4971e-25  6.7189e-23  1.6417e-25  6.7225e-23  1.8989e-25  6.7288e-23  2.3563e-25  6.7401e-23  3.1699e-25  6.7601e-23  4.6174e-25  6.7957e-23  7.1939e-25  6.8591e-23  1.1783e-24  6.9720e-23  1.9968e-24  7.1731e-23  3.4598e-24  7.5320e-23  6.0851e-24  8.1746e-23  1.0828e-23  9.3311e-23  1.9499e-23
      2.00  6.2903e-23  1.3891e-25  6.2904e-23  1.3946e-25  6.2905e-23  1.4044e-25  6.2907e-23  1.4219e-25  6.2910e-23  1.4529e-25  6.2916e-23  1.5082e-25  6.2927e-23  1.6064e-25  6.2946e-23  1.7810e-25  6.2980e-23  2.0916e-25  6.3040e-23  2.6441e-25  6.3148e-23  3.6268e-25  6.3339e-23  5.3751e-25  6.3679e-23  8.4870e-25  6.4283e-23  1.4030e-24  6.5360e-23  2.3914e-24  6.7278e-23  4.1580e-24  7.0702e-23  7.3272e-24  7.6834e-23  1.3051e-23  8.7874e-23  2.3506e-23
      2.05  5.8901e-23  1.4642e-25  5.8902e-23  1.4709e-25  5.8903e-23  1.4827e-25  5.8905e-23  1.5037e-25  5.8908e-23  1.5411e-25  5.8914e-23  1.6076e-25  5.8924e-23  1.7259e-25  5.8942e-23  1.9363e-25  5.8974e-23  2.3103e-25  5.9032e-23  2.9757e-25  5.9134e-23  4.1591e-25  5.9316e-23  6.2647e-25  5.9640e-23  1.0012e-24  6.0216e-23  1.6687e-24  6.1242e-23  2.8590e-24  6.3070e-23  4.9860e-24  6.6333e-23  8.8014e-24  7.2178e-23  1.5690e-23  8.2704e-23  2.8266e-23
      2.10  5.5128e-23  1.5425e-25  5.5128e-23  1.5505e-25  5.5129e-23  1.5646e-25  5.5131e-23  1.5898e-25  5.5134e-23  1.6346e-25  5.5140e-23  1.7143e-25  5.5149e-23  1.8560e-25  5.5167e-23  2.1080e-25  5.5198e-23  2.5562e-25  5.5252e-23  3.3533e-25  5.5350e-23  4.7712e-25  5.5523e-23  7.2939e-25  5.5831e-23  1.1784e-24  5.6380e-23  1.9780e-24  5.7357e-23  3.4040e-24  5.9097e-23  5.9520e-24  6.2204e-23  1.0522e-23  6.7771e-23  1.8771e-23  7.7800e-23  3.3827e-23
      2.15  5.1572e-23  1.6241e-25  5.1573e-23  1.6336e-25  5.1574e-23  1.6504e-25  5.1576e-23  1.6804e-25  5.1579e-23  1.7337e-25  5.1584e-23  1.8284e-25  5.1593e-23  1.9969e-25  5.1609e-23  2.2966e-25  5.1639e-23  2.8296e-25  5.1691e-23  3.7774e-25  5.1784e-23  5.4634e-25  5.1948e-23  8.4631e-25  5.2242e-23  1.3802e-24  5.2764e-23  2.3311e-24  5.3693e-23  4.0266e-24  5.5349e-23  7.0564e-24  5.8305e-23  1.2490e-23  6.3603e-23  2.2298e-23  7.3151e-23  4.0194e-23
      2.20  4.8225e-23  1.7093e-25  4.8225e-23  1.7205e-25  4.8226e-23  1.7403e-25  4.8228e-23  1.7756e-25  4.8231e-23  1.8384e-25  4.8236e-23  1.9500e-25  4.8244e-23  2.1485e-25  4.8260e-23  2.5014e-25  4.8288e-23  3.1291e-25  4.8338e-23  4.2456e-25  4.8426e-23  6.2315e-25  4.8582e-23  9.7647e-25  4.8861e-23  1.6053e-24  4.9357e-23  2.7253e-24  5.0240e-23  4.7225e-24  5.1815e-23  8.2912e-24  5.4625e-23  1.4692e-23  5.9663e-23  2.6244e-23  6.8746e-23  4.7326e-23
      2.25  4.5075e-23  1.7983e-25  4.5075e-23  1.8113e-25  4.5076e-23  1.8344e-25  4.5078e-23  1.8755e-25  4.5080e-23  1.9486e-25  4.5085e-23  2.0787e-25  4.5094e-23  2.3099e-25  4.5108e-23  2.7211e-25  4.5135e-23  3.4524e-25  4.5182e-23  4.7531e-25  4.5266e-23  7.0668e-25  4.5414e-23  1.1183e-24  4.5679e-23  1.8510e-24  4.6150e-23  3.1559e-24  4.6989e-23  5.4827e-24  4.8485e-23  9.6407e-24  5.1154e-23  1.7099e-23  5.5941e-23  3.0561e-23  6.4575e-23  5.5131e-23
      2.30  4.2113e-23  1.8919e-25  4.2113e-23  1.9069e-25  4.2114e-23  1.9335e-25  4.2116e-23  1.9808e-25  4.2118e-23  2.0650e-25  4.2123e-23  2.2147e-25  4.2131e-23  2.4810e-25  4.2145e-23  2.9544e-25  4.2170e-23  3.7964e-25  4.2214e-23  5.2940e-25  4.2294e-23  7.9578e-25  4.2435e-23  1.2697e-24  4.2686e-23  2.1133e-24  4.3133e-23  3.6157e-24  4.3929e-23  6.2949e-24  4.5347e-23  1.1083e-23  4.7879e-23  1.9671e-23  5.2421e-23  3.5178e-23  6.0617e-23  6.3485e-23
      2.35  3.9329e-23  1.9898e-25  3.9330e-23  2.0068e-25  3.9331e-23  2.0371e-25  3.9332e-23  2.0909e-25  3.9334e-23  2.1866e-25  3.9338e-23  2.3568e-25  3.9346e-23  2.6595e-25  3.9359e-23  3.1977e-25  3.9383e-23  4.1550e-25  3.9426e-23  5.8575e-25  3.9501e-23  8.8859e-25  3.9635e-23  1.4274e-24  3.9873e-23  2.3864e-24  4.0297e-23  4.0946e-24  4.1052e-23  7.1408e-24  4.2397e-23  1.2585e-23  4.4800e-23  2.2352e-23  4.9111e-23  3.9990e-23  5.6892e-23  7.2201e-23
      2.40  3.6715e-23  2.0921e-25  3.6715e-23  2.1112e-25  3.6716e-23  2.1452e-25  3.6717e-23  2.2056e-25  3.6720e-23  2.3131e-25  3.6724e-23  2.5042e-25  3.6731e-23  2.8440e-25  3.6743e-23  3.4482e-25  3.6766e-23  4.5229e-25  3.6806e-23  6.4343e-25  3.6877e-23  9.8343e-25  3.7004e-23  1.5884e-24  3.7230e-23  2.6651e-24  3.7632e-23  4.5829e-24  3.8347e-23  8.0033e-24  3.9622e-23  1.4117e-23  4.1900e-23  2.5086e-23  4.5988e-23  4.4901e-23  5.3370e-23  8.1103e-23
      2.45  3.4260e-23  2.1992e-25  3.4261e-23  2.2204e-25  3.4261e-23  2.2581e-25  3.4263e-23  2.3251e-25  3.4265e-23  2.4443e-25  3.4269e-23  2.6562e-25  3.4275e-23  3.0332e-25  3.4287e-23  3.7035e-25  3.4309e-23  4.8956e-25  3.4347e-23  7.0159e-25  3.4414e-23  1.0788e-24  3.4534e-23  1.7498e-24  3.4748e-23  2.9443e-24  3.5129e-23  5.0718e-24  3.5806e-23  8.8664e-24  3.7013e-23  1.5650e-23  3.9171e-23  2.7823e-23  4.3043e-23  4.9819e-23  5.0039e-23  9.0026e-23
      2.50  3.1957e-23  2.3112e-25  3.1958e-23  2.3345e-25  3.1958e-23  2.3758e-25  3.1960e-23  2.4493e-25  3.1962e-23  2.5800e-25  3.1965e-23  2.8124e-25  3.1972e-23  3.2258e-25  3.1983e-23  3.9608e-25  3.2003e-23  5.2681e-25  3.2039e-23  7.5932e-25  3.2103e-23  1.1729e-24  3.2217e-23  1.9088e-24  3.2419e-23  3.2186e-24  3.2779e-23  5.5519e-24  3.3420e-23  9.7135e-24  3.4562e-23  1.7154e-23  3.6604e-23  3.0508e-23  4.0269e-23  5.4648e-23  4.6892e-23  9.8798e-23
      2.55  2.9798e-23  2.4297e-25  2.9799e-23  2.4549e-25  2.9799e-23  2.4997e-25  2.9800e-23  2.5794e-25  2.9802e-23  2.7212e-25  2.9806e-23  2.9732e-25  2.9812e-23  3.4215e-25  2.9822e-23  4.2188e-25  2.9842e-23  5.6366e-25  2.9876e-23  8.1583e-25  2.9936e-23  1.2644e-24  3.0044e-23  2.0625e-24  3.0235e-23  3.4832e-24  3.0576e-23  6.0140e-24  3.1182e-23  1.0528e-23  3.2264e-23  1.8600e-23  3.4196e-23  3.3091e-23  3.7666e-23  5.9294e-23  4.3939e-23  1.0725e-22
      2.60  2.7775e-23  2.5537e-25  2.7775e-23  2.5807e-25  2.7776e-23  2.6288e-25  2.7777e-23  2.7144e-25  2.7778e-23  2.8665e-25  2.7782e-23  3.1370e-25  2.7787e-23  3.6180e-25  2.7798e-23  4.4735e-25  2.7816e-23  5.9949e-25  2.7848e-23  8.7009e-25  2.7905e-23  1.3514e-24  2.8007e-23  2.2079e-24  2.8188e-23  3.7325e-24  2.8511e-23  6.4484e-24  2.9085e-23  1.1293e-23  3.0108e-23  1.9957e-23  3.1938e-23  3.5514e-23  3.5224e-23  6.3656e-23  4.1166e-23  1.1519e-22
      2.65  2.5879e-23  2.6836e-25  2.5880e-23  2.7123e-25  2.5880e-23  2.7635e-25  2.5881e-23  2.8544e-25  2.5883e-23  3.0160e-25  2.5886e-23  3.3035e-25  2.5891e-23  3.8146e-25  2.5901e-23  4.7237e-25  2.5918e-23  6.3405e-25  2.5949e-23  9.2161e-25  2.6003e-23  1.4331e-24  2.6099e-23  2.3433e-24  2.6271e-23  3.9635e-24  2.6576e-23  6.8499e-24  2.7120e-23  1.1999e-23  2.8089e-23  2.1208e-23  2.9822e-23  3.7749e-23  3.2934e-23  6.7681e-23  3.8565e-23  1.2253e-22
      2.70  2.4105e-23  2.8198e-25  2.4105e-23  2.8501e-25  2.4105e-23  2.9039e-25  2.4106e-23  2.9996e-25  2.4108e-23  3.1699e-25  2.4111e-23  3.4725e-25  2.4116e-23  4.0108e-25  2.4125e-23  4.9681e-25  2.4141e-23  6.6707e-25  2.4170e-23  9.6988e-25  2.4222e-23  1.5085e-24  2.4313e-23  2.4670e-24  2.4476e-23  4.1732e-24  2.4765e-23  7.2129e-24  2.5280e-23  1.2636e-23  2.6199e-23  2.2336e-23  2.7841e-23  3.9763e-23  3.0791e-23  7.1310e-23  3.6132e-23  1.2915e-22
      2.75  2.2444e-23  2.9627e-25  2.2444e-23  2.9943e-25  2.2445e-23  3.0505e-25  2.2446e-23  3.1505e-25  2.2447e-23  3.3282e-25  2.2450e-23  3.6442e-25  2.2455e-23  4.2063e-25  2.2463e-23  5.2058e-25  2.2479e-23  6.9834e-25  2.2506e-23  1.0145e-24  2.2555e-23  1.5769e-24  2.2642e-23  2.5777e-24  2.2796e-23  4.3592e-24  2.3071e-23  7.5333e-24  2.3559e-23  1.3197e-23  2.4431e-23  2.3328e-23  2.5990e-23  4.1532e-23  2.8790e-23  7.4499e-23  3.3861e-23  1.3499e-22
      2.80  2.0891e-23  3.1145e-25  2.0891e-23  3.1472e-25  2.0891e-23  3.2054e-25  2.0892e-23  3.3089e-25  2.0894e-23  3.4930e-25  2.0896e-23  3.8203e-25  2.0901e-23  4.4024e-25  2.0909e-23  5.4377e-25  2.0924e-23  7.2788e-25  2.0950e-23  1.0553e-24  2.0996e-23  1.6379e-24  2.1078e-23  2.6744e-24  2.1225e-23  4.5197e-24  2.1486e-23  7.8074e-24  2.1951e-23  1.3674e-23  2.2779e-23  2.4170e-23  2.4261e-23  4.3034e-23  2.6922e-23  7.7209e-23  3.1744e-23  1.3995e-22
      2.85  1.9438e-23  3.2739e-25  1.9438e-23  3.3076e-25  1.9439e-23  3.3674e-25  1.9440e-23  3.4738e-25  1.9441e-23  3.6630e-25  1.9444e-23  3.9995e-25  1.9448e-23  4.5978e-25  1.9456e-23  5.6619e-25  1.9470e-23  7.5544e-25  1.9494e-23  1.0920e-24  1.9539e-23  1.6908e-24  1.9617e-23  2.7563e-24  1.9757e-23  4.6531e-24  2.0005e-23  8.0329e-24  2.0447e-23  1.4064e-23  2.1236e-23  2.4856e-23  2.2646e-23  4.4256e-23  2.5180e-23  7.9414e-23  2.9773e-23  1.4400e-22
      2.90  1.8081e-23  3.4417e-25  1.8081e-23  3.4760e-25  1.8081e-23  3.5371e-25  1.8082e-23  3.6457e-25  1.8084e-23  3.8387e-25  1.8086e-23  4.1821e-25  1.8090e-23  4.7928e-25  1.8098e-23  5.8788e-25  1.8111e-23  7.8102e-25  1.8134e-23  1.1246e-24  1.8177e-23  1.7357e-24  1.8251e-23  2.8231e-24  1.8384e-23  4.7590e-24  1.8621e-23  8.2086e-24  1.9043e-23  1.4365e-23  1.9794e-23  2.5381e-23  2.1139e-23  4.5190e-23  2.3556e-23  8.1100e-23  2.7936e-23  1.4711e-22
      2.95  1.6813e-23  3.6186e-25  1.6813e-23  3.6534e-25  1.6813e-23  3.7153e-25  1.6814e-23  3.8254e-25  1.6815e-23  4.0211e-25  1.6818e-23  4.3692e-25  1.6822e-23  4.9883e-25  1.6829e-23  6.0892e-25  1.6841e-23  8.0472e-25  1.6864e-23  1.1530e-24  1.6904e-23  1.7725e-24  1.6976e-23  2.8749e-24  1.7102e-23  4.8376e-24  1.7328e-23  8.3348e-24  1.7731e-23  1.4577e-23  1.8449e-23  2.5747e-23  1.9732e-23  4.5837e-23  2.2040e-23  8.2269e-23  2.6223e-23  1.4928e-22
      3.00  1.5629e-23  3.8058e-25  1.5629e-23  3.8408e-25  1.5629e-23  3.9032e-25  1.5630e-23  4.0141e-25  1.5631e-23  4.2113e-25  1.5633e-23  4.5620e-25  1.5637e-23  5.1856e-25  1.5644e-23  6.2947e-25  1.5656e-23  8.2673e-25  1.5678e-23  1.1776e-24  1.5716e-23  1.8017e-24  1.5784e-23  2.9123e-24  1.5905e-23  4.8896e-24  1.6121e-23  8.4131e-24  1.6506e-23  1.4702e-23  1.7191e-23  2.5958e-23  1.8418e-23  4.6205e-23  2.0623e-23  8.2935e-23  2.4620e-23  1.5053e-22
      3.05  1.4523e-23  4.0071e-25  1.4524e-23  4.0422e-25  1.4524e-23  4.1047e-25  1.4525e-23  4.2158e-25  1.4526e-23  4.4133e-25  1.4528e-23  4.7646e-25  1.4531e-23  5.3894e-25  1.4538e-23  6.5005e-25  1.4550e-23  8.4765e-25  1.4570e-23  1.1991e-24  1.4607e-23  1.8244e-24  1.4672e-23  2.9370e-24  1.4788e-23  4.9178e-24  1.4995e-23  8.4478e-24  1.5363e-23  1.4748e-23  1.6019e-23  2.6027e-23  1.7193e-23  4.6317e-23  1.9303e-23  8.3136e-23  2.3130e-23  1.5093e-22
      3.10  1.3492e-23  4.2186e-25  1.3492e-23  4.2536e-25  1.3493e-23  4.3159e-25  1.3493e-23  4.4266e-25  1.3494e-23  4.6234e-25  1.3496e-23  4.9735e-25  1.3500e-23  5.5960e-25  1.3506e-23  6.7032e-25  1.3517e-23  8.6723e-25  1.3537e-23  1.2175e-24  1.3572e-23  1.8405e-24  1.3634e-23  2.9492e-24  1.3746e-23  4.9232e-24  1.3943e-23  8.4409e-24  1.4295e-23  1.4720e-23  1.4923e-23  2.5961e-23  1.6047e-23  4.6187e-23  1.8067e-23  8.2899e-23  2.1730e-23  1.5052e-22
      3.15  1.2530e-23  4.4460e-25  1.2530e-23  4.4807e-25  1.2531e-23  4.5424e-25  1.2531e-23  4.6522e-25  1.2532e-23  4.8474e-25  1.2534e-23  5.1946e-25  1.2537e-23  5.8120e-25  1.2543e-23  6.9100e-25  1.2554e-23  8.8628e-25  1.2573e-23  1.2336e-24  1.2607e-23  1.8515e-24  1.2666e-23  2.9510e-24  1.2773e-23  4.9087e-24  1.2962e-23  8.3975e-24  1.3298e-23  1.4625e-23  1.3899e-23  2.5775e-23  1.4974e-23  4.5840e-23  1.6907e-23  8.2267e-23  2.0411e-23  1.4939e-22
      3.20  1.1633e-23  4.6892e-25  1.1633e-23  4.7234e-25  1.1634e-23  4.7844e-25  1.1634e-23  4.8928e-25  1.1635e-23  5.0856e-25  1.1637e-23  5.4284e-25  1.1640e-23  6.0380e-25  1.1646e-23  7.1222e-25  1.1656e-23  9.0503e-25  1.1674e-23  1.2480e-24  1.1706e-23  1.8581e-24  1.1763e-23  2.9438e-24  1.1865e-23  4.8769e-24  1.2046e-23  8.3219e-24  1.2368e-23  1.4472e-23  1.2942e-23  2.5483e-23  1.3970e-23  4.5300e-23  1.5817e-23  8.1287e-23  1.9168e-23  1.4763e-22
      3.25  1.0797e-23  4.9475e-25  1.0797e-23  4.9812e-25  1.0798e-23  5.0411e-25  1.0798e-23  5.1477e-25  1.0799e-23  5.3374e-25  1.0801e-23  5.6745e-25  1.0804e-23  6.2741e-25  1.0809e-23  7.3405e-25  1.0819e-23  9.2370e-25  1.0836e-23  1.2610e-24  1.0867e-23  1.8611e-24  1.0922e-23  2.9290e-24  1.1019e-23  4.8304e-24  1.1191e-23  8.2190e-24  1.1499e-23  1.4268e-23  1.2048e-23  2.5100e-23  1.3029e-23  4.4597e-23  1.4795e-23  8.0008e-23  1.7996e-23  1.4531e-22
      3.30  1.0018e-23  5.2262e-25  1.0018e-23  5.2592e-25  1.0019e-23  5.3180e-25  1.0019e-23  5.4225e-25  1.0020e-23  5.6084e-25  1.0022e-23  5.9389e-25  1.0025e-23  6.5268e-25  1.0030e-23  7.5722e-25  1.0039e-23  9.4314e-25  1.0056e-23  1.2738e-24  1.0085e-23  1.8622e-24  1.0137e-23  2.9091e-24  1.0230e-23  4.7731e-24  1.0395e-23  8.0953e-24  1.0688e-23  1.4026e-23  1.1212e-23  2.4647e-23  1.2149e-23  4.3764e-23  1.3834e-23  7.8493e-23  1.6890e-23  1.4256e-22
      3.35  9.2928e-24  5.5230e-25  9.2929e-24  5.5553e-25  9.2932e-24  5.6128e-25  9.2937e-24  5.7150e-25  9.2946e-24  5.8967e-25  9.2961e-24  6.2199e-25  9.2989e-24  6.7946e-25  9.3039e-24  7.8167e-25  9.3127e-24  9.6346e-25  9.3284e-24  1.2868e-24  9.3564e-24  1.8620e-24  9.4061e-24  2.8856e-24  9.4944e-24  4.7081e-24  9.6517e-24  7.9564e-24  9.9318e-24  1.3756e-23  1.0431e-23  2.4140e-23  1.1325e-23  4.2836e-23  1.2932e-23  7.6803e-23  1.5845e-23  1.3948e-22
      3.40  8.6173e-24  5.8396e-25  8.6174e-24  5.8712e-25  8.6177e-24  5.9272e-25  8.6182e-24  6.0270e-25  8.6190e-24  6.2043e-25  8.6205e-24  6.5196e-25  8.6232e-24  7.0805e-25  8.6279e-24  8.0778e-25  8.6363e-24  9.8516e-25  8.6513e-24  1.3007e-24  8.6779e-24  1.8619e-24  8.7252e-24  2.8608e-24  8.8094e-24  4.6392e-24  8.9593e-24  7.8089e-24  9.2261e-24  1.3468e-23  9.7021e-24  2.3602e-23  1.0553e-23  4.1848e-23  1.2084e-23  7.5002e-23  1.4859e-23  1.3619e-22
      3.45  7.9886e-24  6.1780e-25  7.9887e-24  6.2088e-25  7.9890e-24  6.2634e-25  7.9894e-24  6.3606e-25  7.9902e-24  6.5335e-25  7.9916e-24  6.8408e-25  7.9942e-24  7.3875e-25  7.9987e-24  8.3596e-25  8.0067e-24  1.0089e-24  8.0209e-24  1.3164e-24  8.0463e-24  1.8635e-24  8.0913e-24  2.8371e-24  8.1715e-24  4.5706e-24  8.3142e-24  7.6602e-24  8.5682e-24  1.3176e-23  9.0214e-24  2.3055e-23  9.8317e-24  4.0843e-23  1.1288e-23  7.3167e-23  1.3928e-23  1.3284e-22
      3.50  7.4035e-24  6.5403e-25  7.4037e-24  6.5702e-25  7.4039e-24  6.6235e-25  7.4043e-24  6.7183e-25  7.4051e-24  6.8868e-25  7.4065e-24  7.1865e-25  7.4089e-24  7.7193e-25  7.4132e-24  8.6671e-25  7.4208e-24  1.0353e-24  7.4343e-24  1.3351e-24  7.4585e-24  1.8684e-24  7.5013e-24  2.8175e-24  7.5776e-24  4.5075e-24  7.7134e-24  7.5195e-24  7.9551e-24  1.2897e-23  8.3863e-24  2.2529e-23  9.1572e-24  3.9871e-23  1.0543e-23  7.1391e-23  1.3053e-23  1.2959e-22
      3.55  6.8594e-24  6.9347e-25  6.8596e-24  6.9639e-25  6.8598e-24  7.0160e-25  6.8602e-24  7.1086e-25  6.8609e-24  7.2731e-25  6.8622e-24  7.5658e-25  6.8645e-24  8.0864e-25  6.8686e-24  9.0121e-25  6.8758e-24  1.0658e-24  6.8887e-24  1.3587e-24  6.9117e-24  1.8796e-24  6.9525e-24  2.8067e-24  7.0251e-24  4.4574e-24  7.1542e-24  7.3996e-24  7.3842e-24  1.2653e-23  7.7943e-24  2.2061e-23  8.5274e-24  3.9003e-23  9.8446e-24  6.9798e-23  1.2231e-23  1.2666e-22
      3.60  6.3535e-24  7.3583e-25  6.3536e-24  7.3870e-25  6.3538e-24  7.4380e-25  6.3542e-24  7.5289e-25  6.3549e-24  7.6904e-25  6.3561e-24  7.9776e-25  6.3583e-24  8.4884e-25  6.3622e-24  9.3968e-25  6.3691e-24  1.1012e-24  6.3814e-24  1.3886e-24  6.4032e-24  1.8998e-24  6.4420e-24  2.8095e-24  6.5111e-24  4.4294e-24  6.6339e-24  7.3165e-24  6.8527e-24  1.2472e-23  7.2428e-24  2.1705e-23  7.9400e-24  3.8332e-23  9.1923e-24  6.8557e-23  1.1460e-23  1.2438e-22
      3.65  5.8832e-24  7.8140e-25  5.8833e-24  7.8425e-25  5.8835e-24  7.8930e-25  5.8839e-24  7.9829e-25  5.8845e-24  8.1427e-25  5.8857e-24  8.4269e-25  5.8878e-24  8.9324e-25  5.8915e-24  9.8313e-25  5.8980e-24  1.1430e-24  5.9097e-24  1.4274e-24  5.9305e-24  1.9332e-24  5.9674e-24  2.8335e-24  6.0331e-24  4.4364e-24  6.1501e-24  7.2935e-24  6.3582e-24  1.2395e-23  6.7294e-24  2.1532e-23  7.3928e-24  3.7987e-23  8.5838e-24  6.7903e-23  1.0739e-23  1.2316e-22
      3.70  5.4461e-24  8.3058e-25  5.4463e-24  8.3345e-25  5.4465e-24  8.3855e-25  5.4468e-24  8.4762e-25  5.4474e-24  8.6376e-25  5.4485e-24  8.9245e-25  5.4505e-24  9.4348e-25  5.4540e-24  1.0342e-24  5.4603e-24  1.1956e-24  5.4714e-24  1.4827e-24  5.4912e-24  1.9934e-24  5.5264e-24  2.9022e-24  5.5890e-24  4.5205e-24  5.7003e-24  7.4049e-24  5.8986e-24  1.2555e-23  6.2520e-24  2.1780e-23  6.8836e-24  3.8395e-23  8.0171e-24  6.8605e-23  1.0068e-23  1.2442e-22
      3.75  5.0402e-24  8.8366e-25  5.0403e-24  8.8657e-25  5.0404e-24  8.9176e-25  5.0408e-24  9.0098e-25  5.0414e-24  9.1738e-25  5.0424e-24  9.4655e-25  5.0443e-24  9.9841e-25  5.0477e-24  1.0907e-24  5.0536e-24  1.2547e-24  5.0642e-24  1.5465e-24  5.0831e-24  2.0656e-24  5.1167e-24  2.9894e-24  5.1763e-24  4.6344e-24  5.2825e-24  7.5663e-24  5.4715e-24  1.2802e-23  5.8084e-24  2.2179e-23  6.4103e-24  3.9070e-23  7.4902e-24  6.9784e-23  9.4428e-24  1.2654e-22
      3.80  4.6632e-24  9.4198e-25  4.6633e-24  9.4502e-25  4.6635e-24  9.5042e-25  4.6638e-24  9.6003e-25  4.6644e-24  9.7712e-25  4.6654e-24  1.0075e-24  4.6672e-24  1.0615e-24  4.6704e-24  1.1577e-24  4.6761e-24  1.3286e-24  4.6862e-24  1.6326e-24  4.7042e-24  2.1734e-24  4.7362e-24  3.1359e-24  4.7932e-24  4.8498e-24  4.8945e-24  7.9046e-24  5.0750e-24  1.3359e-23  5.3966e-24  2.3131e-23  5.9710e-24  4.0732e-23  7.0012e-24  7.2742e-23  8.8630e-24  1.3191e-22
      3.85  4.3133e-24  1.0053e-24  4.3134e-24  1.0085e-24  4.3135e-24  1.0143e-24  4.3138e-24  1.0246e-24  4.3144e-24  1.0430e-24  4.3153e-24  1.0755e-24  4.3171e-24  1.1335e-24  4.3201e-24  1.2365e-24  4.3256e-24  1.4197e-24  4.3353e-24  1.7457e-24  4.3525e-24  2.3255e-24  4.3831e-24  3.3575e-24  4.4376e-24  5.1949e-24  4.5345e-24  8.4701e-24  4.7070e-24  1.4319e-23  5.0144e-24  2.4796e-23  5.5635e-24  4.3670e-23  6.5479e-24  7.8000e-23  8.3262e-24  1.4147e-22
      3.90  3.9885e-24  1.0743e-24  3.9886e-24  1.0779e-24  3.9887e-24  1.0843e-24  3.9890e-24  1.0957e-24  3.9896e-24  1.1160e-24  3.9905e-24  1.1519e-24  3.9921e-24  1.2159e-24  3.9951e-24  1.3298e-24  4.0003e-24  1.5322e-24  4.0096e-24  1.8922e-24  4.0261e-24  2.5328e-24  4.0554e-24  3.6727e-24  4.1076e-24  5.7026e-24  4.2004e-24  9.3208e-24  4.3657e-24  1.5782e-23  4.6602e-24  2.7357e-23  5.1861e-24  4.8212e-23  6.1287e-24  8.6150e-23  7.8308e-24  1.5631e-22
      3.95  3.6872e-24  1.1508e-24  3.6873e-24  1.1549e-24  3.6874e-24  1.1622e-24  3.6877e-24  1.1751e-24  3.6882e-24  1.1981e-24  3.6891e-24  1.2390e-24  3.6907e-24  1.3118e-24  3.6935e-24  1.4411e-24  3.6985e-24  1.6712e-24  3.7074e-24  2.0805e-24  3.7233e-24  2.8086e-24  3.7514e-24  4.1044e-24  3.8016e-24  6.4118e-24  3.8907e-24  1.0525e-23  4.0494e-24  1.7870e-23  4.3323e-24  3.1029e-23  4.8372e-24  5.4741e-23  5.7420e-24  9.7886e-23  7.3751e-24  1.7770e-22
