# This was generated using Cloudy10 and the columns are ordered 
# as log10 of the fraction of the metallicity to the solar metallicity
# 'h_*_Z' and 'c_*_Z' stands for cooling and heating respectively 
# at * metalicity
#
# NOTE: This was generated separately from loop_coolingcurve_w_UV.py
#       using Output_metals_w_redshift.py.
#
# Redshift = 3.0
# hden = -4.0
#
#     temp   h_-3.00_Z   c_-3.00_Z   h_-2.75_Z   c_-2.75_Z   h_-2.50_Z   c_-2.50_Z   h_-2.25_Z   c_-2.25_Z   h_-2.00_Z   c_-2.00_Z   h_-1.75_Z   c_-1.75_Z   h_-1.50_Z   c_-1.50_Z   h_-1.25_Z   c_-1.25_Z   h_-1.00_Z   c_-1.00_Z   h_-0.75_Z   c_-0.75_Z   h_-0.50_Z   c_-0.50_Z   h_-0.25_Z   c_-0.25_Z    h_0.00_Z    c_0.00_Z    h_0.25_Z    c_0.25_Z    h_0.50_Z    c_0.50_Z    h_0.75_Z    c_0.75_Z    h_1.00_Z    c_1.00_Z    h_1.25_Z    c_1.25_Z    h_1.50_Z    c_1.50_Z 
      1.00  3.5652e-22  5.7973e-26  3.5653e-22  5.7973e-26  3.5656e-22  5.7974e-26  3.5660e-22  5.7975e-26  3.5668e-22  5.7977e-26  3.5682e-22  5.7981e-26  3.5707e-22  5.7988e-26  3.5751e-22  5.8001e-26  3.5829e-22  5.8023e-26  3.5967e-22  5.8063e-26  3.6213e-22  5.8134e-26  3.6648e-22  5.8260e-26  3.7419e-22  5.8483e-26  3.8788e-22  5.8882e-26  4.1221e-22  5.9593e-26  4.5547e-22  6.0864e-26  5.3266e-22  6.3145e-26  6.7095e-22  6.7266e-26  9.2009e-22  7.4803e-26
      1.05  3.3706e-22  6.1225e-26  3.3707e-22  6.1226e-26  3.3710e-22  6.1226e-26  3.3714e-22  6.1228e-26  3.3721e-22  6.1230e-26  3.3735e-22  6.1235e-26  3.3759e-22  6.1243e-26  3.3801e-22  6.1257e-26  3.3877e-22  6.1283e-26  3.4011e-22  6.1328e-26  3.4249e-22  6.1409e-26  3.4671e-22  6.1553e-26  3.5418e-22  6.1810e-26  3.6743e-22  6.2266e-26  3.9098e-22  6.3081e-26  4.3284e-22  6.4538e-26  5.0753e-22  6.7156e-26  6.4131e-22  7.1900e-26  8.8233e-22  8.0614e-26
      1.10  3.1871e-22  6.5416e-26  3.1873e-22  6.5417e-26  3.1875e-22  6.5418e-26  3.1879e-22  6.5420e-26  3.1886e-22  6.5423e-26  3.1899e-22  6.5428e-26  3.1923e-22  6.5438e-26  3.1964e-22  6.5455e-26  3.2037e-22  6.5486e-26  3.2168e-22  6.5540e-26  3.2399e-22  6.5637e-26  3.2810e-22  6.5809e-26  3.3536e-22  6.6116e-26  3.4824e-22  6.6664e-26  3.7114e-22  6.7640e-26  4.1181e-22  6.9390e-26  4.8438e-22  7.2540e-26  6.1434e-22  7.8265e-26  8.4854e-22  8.8845e-26
      1.15  3.0141e-22  6.9711e-26  3.0143e-22  6.9711e-26  3.0145e-22  6.9713e-26  3.0149e-22  6.9715e-26  3.0156e-22  6.9719e-26  3.0169e-22  6.9726e-26  3.0192e-22  6.9738e-26  3.0232e-22  6.9760e-26  3.0304e-22  6.9799e-26  3.0431e-22  6.9868e-26  3.0657e-22  6.9991e-26  3.1057e-22  7.0211e-26  3.1766e-22  7.0601e-26  3.3022e-22  7.1298e-26  3.5255e-22  7.2543e-26  3.9219e-22  7.4775e-26  4.6291e-22  7.8803e-26  5.8955e-22  8.6154e-26  8.1787e-22  9.9829e-26
      1.20  2.8510e-22  7.4123e-26  2.8511e-22  7.4123e-26  2.8513e-22  7.4125e-26  2.8517e-22  7.4128e-26  2.8524e-22  7.4134e-26  2.8537e-22  7.4143e-26  2.8559e-22  7.4161e-26  2.8598e-22  7.4191e-26  2.8668e-22  7.4246e-26  2.8793e-22  7.4342e-26  2.9013e-22  7.4515e-26  2.9405e-22  7.4821e-26  3.0098e-22  7.5368e-26  3.1325e-22  7.6343e-26  3.3508e-22  7.8086e-26  3.7381e-22  8.1216e-26  4.4290e-22  8.6877e-26  5.6660e-22  9.7248e-26  7.8972e-22  1.1667e-25
      1.25  2.6970e-22  7.8666e-26  2.6972e-22  7.8668e-26  2.6974e-22  7.8670e-26  2.6978e-22  7.8675e-26  2.6984e-22  7.8684e-26  2.6997e-22  7.8699e-26  2.7018e-22  7.8726e-26  2.7057e-22  7.8774e-26  2.7125e-22  7.8859e-26  2.7247e-22  7.9011e-26  2.7462e-22  7.9281e-26  2.7845e-22  7.9761e-26  2.8522e-22  8.0618e-26  2.9721e-22  8.2147e-26  3.1852e-22  8.4882e-26  3.5632e-22  8.9798e-26  4.2377e-22  9.8707e-26  5.4455e-22  1.1508e-25  7.6247e-22  1.4588e-25
      1.30  2.5517e-22  8.3364e-26  2.5519e-22  8.3366e-26  2.5521e-22  8.3371e-26  2.5525e-22  8.3379e-26  2.5531e-22  8.3394e-26  2.5543e-22  8.3420e-26  2.5564e-22  8.3466e-26  2.5602e-22  8.3549e-26  2.5669e-22  8.3695e-26  2.5787e-22  8.3956e-26  2.5998e-22  8.4420e-26  2.6372e-22  8.5246e-26  2.7035e-22  8.6718e-26  2.8207e-22  8.9347e-26  3.0288e-22  9.4052e-26  3.3983e-22  1.0252e-25  4.0571e-22  1.1787e-25  5.2374e-22  1.4614e-25  7.3675e-22  1.9948e-25
      1.35  2.4146e-22  8.8224e-26  2.4147e-22  8.8228e-26  2.4149e-22  8.8237e-26  2.4152e-22  8.8251e-26  2.4159e-22  8.8278e-26  2.4171e-22  8.8325e-26  2.4191e-22  8.8408e-26  2.4228e-22  8.8556e-26  2.4293e-22  8.8819e-26  2.4410e-22  8.9286e-26  2.4616e-22  9.0119e-26  2.4981e-22  9.1602e-26  2.5630e-22  9.4245e-26  2.6776e-22  9.8964e-26  2.8811e-22  1.0741e-25  3.2424e-22  1.2262e-25  3.8864e-22  1.5023e-25  5.0405e-22  2.0112e-25  7.1239e-22  2.9729e-25
      1.40  2.2849e-22  9.3261e-26  2.2851e-22  9.3269e-26  2.2853e-22  9.3284e-26  2.2856e-22  9.3311e-26  2.2863e-22  9.3358e-26  2.2874e-22  9.3441e-26  2.2894e-22  9.3590e-26  2.2930e-22  9.3855e-26  2.2994e-22  9.4326e-26  2.3108e-22  9.5163e-26  2.3310e-22  9.6654e-26  2.3667e-22  9.9308e-26  2.4302e-22  1.0404e-25  2.5424e-22  1.1249e-25  2.7414e-22  1.2762e-25  3.0949e-22  1.5486e-25  3.7246e-22  2.0434e-25  4.8536e-22  2.9561e-25  6.8921e-22  4.6827e-25
      1.45  2.1624e-22  9.8490e-26  2.1626e-22  9.8505e-26  2.1627e-22  9.8531e-26  2.1631e-22  9.8577e-26  2.1637e-22  9.8658e-26  2.1648e-22  9.8803e-26  2.1668e-22  9.9062e-26  2.1703e-22  9.9521e-26  2.1766e-22  1.0034e-25  2.1877e-22  1.0179e-25  2.2075e-22  1.0438e-25  2.2425e-22  1.0898e-25  2.3046e-22  1.1719e-25  2.4144e-22  1.3185e-25  2.6090e-22  1.5811e-25  2.9547e-22  2.0539e-25  3.5705e-22  2.9133e-25  4.6747e-22  4.4995e-25  6.6692e-22  7.5033e-25
      1.50  2.0466e-22  1.0393e-25  2.0467e-22  1.0395e-25  2.0469e-22  1.0399e-25  2.0473e-22  1.0407e-25  2.0479e-22  1.0421e-25  2.0490e-22  1.0445e-25  2.0509e-22  1.0488e-25  2.0543e-22  1.0564e-25  2.0605e-22  1.0699e-25  2.0713e-22  1.0941e-25  2.0907e-22  1.1370e-25  2.1249e-22  1.2135e-25  2.1857e-22  1.3497e-25  2.2932e-22  1.5932e-25  2.4836e-22  2.0292e-25  2.8219e-22  2.8148e-25  3.4242e-22  4.2432e-25  4.5046e-22  6.8813e-25  6.4562e-22  1.1882e-24
      1.55  1.9370e-22  1.0960e-25  1.9371e-22  1.0964e-25  1.9373e-22  1.0971e-25  1.9377e-22  1.0983e-25  1.9383e-22  1.1004e-25  1.9393e-22  1.1043e-25  1.9412e-22  1.1111e-25  1.9446e-22  1.1231e-25  1.9506e-22  1.1446e-25  1.9612e-22  1.1828e-25  1.9802e-22  1.2508e-25  2.0137e-22  1.3718e-25  2.0732e-22  1.5876e-25  2.1785e-22  1.9731e-25  2.3648e-22  2.6638e-25  2.6959e-22  3.9082e-25  3.2854e-22  6.1721e-25  4.3426e-22  1.0356e-24  6.2527e-22  1.8295e-24
      1.60  1.8333e-22  1.1552e-25  1.8334e-22  1.1558e-25  1.8336e-22  1.1568e-25  1.8339e-22  1.1586e-25  1.8345e-22  1.1619e-25  1.8356e-22  1.1676e-25  1.8374e-22  1.1779e-25  1.8407e-22  1.1961e-25  1.8466e-22  1.2286e-25  1.8570e-22  1.2863e-25  1.8756e-22  1.3890e-25  1.9084e-22  1.5720e-25  1.9667e-22  1.8982e-25  2.0699e-22  2.4807e-25  2.2523e-22  3.5248e-25  2.5764e-22  5.4066e-25  3.1534e-22  8.8314e-25  4.1882e-22  1.5165e-24  6.0581e-22  2.7195e-24
      1.65  1.7351e-22  1.2169e-25  1.7352e-22  1.2177e-25  1.7354e-22  1.2192e-25  1.7357e-22  1.2219e-25  1.7363e-22  1.2265e-25  1.7373e-22  1.2349e-25  1.7391e-22  1.2497e-25  1.7424e-22  1.2761e-25  1.7481e-22  1.3230e-25  1.7583e-22  1.4065e-25  1.7765e-22  1.5551e-25  1.8087e-22  1.8197e-25  1.8658e-22  2.2915e-25  1.9669e-22  3.1343e-25  2.1456e-22  4.6449e-25  2.4629e-22  7.3681e-25  3.0279e-22  1.2326e-24  4.0411e-22  2.1502e-24  5.8721e-22  3.8948e-24
      1.70  1.6420e-22  1.2813e-25  1.6421e-22  1.2824e-25  1.6423e-22  1.2845e-25  1.6426e-22  1.2882e-25  1.6432e-22  1.2947e-25  1.6442e-22  1.3063e-25  1.6460e-22  1.3269e-25  1.6492e-22  1.3635e-25  1.6548e-22  1.4287e-25  1.6648e-22  1.5446e-25  1.6826e-22  1.7510e-25  1.7142e-22  2.1184e-25  1.7701e-22  2.7736e-25  1.8692e-22  3.9441e-25  2.0444e-22  6.0424e-25  2.3552e-22  9.8260e-25  2.9087e-22  1.6718e-24  3.9007e-22  2.9481e-24  5.6939e-22  5.3773e-24
      1.75  1.5538e-22  1.3485e-25  1.5539e-22  1.3501e-25  1.5541e-22  1.3528e-25  1.5544e-22  1.3577e-25  1.5550e-22  1.3664e-25  1.5560e-22  1.3819e-25  1.5577e-22  1.4095e-25  1.5608e-22  1.4585e-25  1.5663e-22  1.5457e-25  1.5762e-22  1.7008e-25  1.5936e-22  1.9768e-25  1.6245e-22  2.4684e-25  1.6794e-22  3.3449e-25  1.7765e-22  4.9110e-25  1.9483e-22  7.7186e-25  2.2527e-22  1.2783e-24  2.7950e-22  2.2011e-24  3.7666e-22  3.9113e-24  5.5229e-22  7.1697e-24
      1.80  1.4702e-22  1.4191e-25  1.4703e-22  1.4211e-25  1.4705e-22  1.4246e-25  1.4708e-22  1.4310e-25  1.4713e-22  1.4422e-25  1.4723e-22  1.4623e-25  1.4740e-22  1.4979e-25  1.4770e-22  1.5612e-25  1.4825e-22  1.6740e-25  1.4921e-22  1.8745e-25  1.5092e-22  2.2314e-25  1.5395e-22  2.8670e-25  1.5933e-22  4.0005e-25  1.6885e-22  6.0256e-25  1.8569e-22  9.6570e-25  2.1551e-22  1.6209e-24  2.6866e-22  2.8152e-24  3.6381e-22  5.0304e-24  5.3585e-22  9.2555e-24
      1.85  1.3909e-22  1.4927e-25  1.3910e-22  1.4952e-25  1.3911e-22  1.4997e-25  1.3914e-22  1.5076e-25  1.3920e-22  1.5218e-25  1.3929e-22  1.5469e-25  1.3946e-22  1.5916e-25  1.3976e-22  1.6710e-25  1.4029e-22  1.8124e-25  1.4123e-22  2.0639e-25  1.4291e-22  2.5115e-25  1.4588e-22  3.3087e-25  1.5115e-22  4.7302e-25  1.6049e-22  7.2704e-25  1.7700e-22  1.1826e-24  2.0622e-22  2.0047e-24  2.5830e-22  3.5041e-24  3.5149e-22  6.2872e-24  5.2001e-22  1.1602e-23
      1.90  1.3156e-22  1.5697e-25  1.3157e-22  1.5727e-25  1.3158e-22  1.5782e-25  1.3161e-22  1.5879e-25  1.3166e-22  1.6051e-25  1.3176e-22  1.6358e-25  1.3192e-22  1.6903e-25  1.3221e-22  1.7874e-25  1.3273e-22  1.9599e-25  1.3366e-22  2.2669e-25  1.3530e-22  2.8134e-25  1.3822e-22  3.7866e-25  1.4339e-22  5.5223e-25  1.5254e-22  8.6239e-25  1.6873e-22  1.4187e-24  1.9736e-22  2.4230e-24  2.4839e-22  4.2554e-24  3.3967e-22  7.6593e-24  5.0476e-22  1.4167e-23
      1.95  1.2441e-22  1.6500e-25  1.2442e-22  1.6537e-25  1.2443e-22  1.6602e-25  1.2446e-22  1.6718e-25  1.2451e-22  1.6923e-25  1.2460e-22  1.7289e-25  1.2476e-22  1.7940e-25  1.2505e-22  1.9097e-25  1.2556e-22  2.1156e-25  1.2647e-22  2.4819e-25  1.2808e-22  3.1339e-25  1.3094e-22  4.2951e-25  1.3601e-22  6.3659e-25  1.4498e-22  1.0067e-24  1.6086e-22  1.6706e-24  1.8892e-22  2.8694e-24  2.3894e-22  5.0578e-24  3.2837e-22  9.1259e-24  4.9010e-22  1.6912e-23
      2.00  1.1762e-22  1.7340e-25  1.1763e-22  1.7383e-25  1.1764e-22  1.7459e-25  1.1767e-22  1.7594e-25  1.1772e-22  1.7835e-25  1.1781e-22  1.8264e-25  1.1797e-22  1.9026e-25  1.1825e-22  2.0381e-25  1.1875e-22  2.2791e-25  1.1964e-22  2.7079e-25  1.2122e-22  3.4712e-25  1.2402e-22  4.8308e-25  1.2900e-22  7.2555e-25  1.3780e-22  1.1589e-24  1.5337e-22  1.9365e-24  1.8090e-22  3.3407e-24  2.2992e-22  5.9049e-24  3.1757e-22  1.0675e-23  4.7607e-22  1.9811e-23
      2.05  1.1117e-22  1.8222e-25  1.1118e-22  1.8272e-25  1.1119e-22  1.8360e-25  1.1122e-22  1.8516e-25  1.1127e-22  1.8794e-25  1.1136e-22  1.9288e-25  1.1151e-22  2.0167e-25  1.1179e-22  2.1731e-25  1.1228e-22  2.4512e-25  1.1315e-22  2.9461e-25  1.1470e-22  3.8269e-25  1.1746e-22  5.3959e-25  1.2234e-22  8.1941e-25  1.3098e-22  1.3196e-24  1.4626e-22  2.2169e-24  1.7327e-22  3.8378e-24  2.2136e-22  6.7983e-24  3.0731e-22  1.2307e-23  4.6275e-22  2.2866e-23
      2.10  1.0504e-22  1.9144e-25  1.0505e-22  1.9201e-25  1.0507e-22  1.9301e-25  1.0509e-22  1.9479e-25  1.0514e-22  1.9797e-25  1.0523e-22  2.0362e-25  1.0538e-22  2.1366e-25  1.0565e-22  2.3152e-25  1.0613e-22  2.6330e-25  1.0699e-22  3.1983e-25  1.0851e-22  4.2045e-25  1.1122e-22  5.9968e-25  1.1601e-22  9.1933e-25  1.2450e-22  1.4907e-24  1.3951e-22  2.5158e-24  1.6604e-22  4.3674e-24  2.1325e-22  7.7494e-24  2.9761e-22  1.4043e-23  4.5018e-22  2.6107e-23
      2.15  9.9220e-23  2.0108e-25  9.9229e-23  2.0172e-25  9.9244e-23  2.0286e-25  9.9271e-23  2.0488e-25  9.9318e-23  2.0849e-25  9.9402e-23  2.1490e-25  9.9552e-23  2.2630e-25  9.9819e-23  2.4657e-25  1.0029e-22  2.8264e-25  1.0114e-22  3.4680e-25  1.0263e-22  4.6102e-25  1.0529e-22  6.6445e-25  1.1000e-22  1.0273e-24  1.1835e-22  1.6757e-24  1.3312e-22  2.8391e-24  1.5920e-22  4.9401e-24  2.0560e-22  8.7767e-24  2.8850e-22  1.5914e-23  4.3840e-22  2.9589e-23
      2.20  9.3687e-23  2.1115e-25  9.3696e-23  2.1187e-25  9.3710e-23  2.1316e-25  9.3737e-23  2.1545e-25  9.3783e-23  2.1953e-25  9.3866e-23  2.2678e-25  9.4014e-23  2.3967e-25  9.4277e-23  2.6260e-25  9.4743e-23  3.0339e-25  9.5573e-23  3.7595e-25  9.7046e-23  5.0511e-25  9.9663e-23  7.3515e-25  1.0430e-22  1.1454e-24  1.1252e-22  1.8785e-24  1.2706e-22  3.1937e-24  1.5274e-22  5.5681e-24  1.9838e-22  9.9019e-24  2.7995e-22  1.7958e-23  4.2739e-22  3.3376e-23
      2.25  8.8429e-23  2.2168e-25  8.8437e-23  2.2250e-25  8.8452e-23  2.2395e-25  8.8477e-23  2.2654e-25  8.8523e-23  2.3114e-25  8.8605e-23  2.3932e-25  8.8751e-23  2.5387e-25  8.9009e-23  2.7975e-25  8.9469e-23  3.2578e-25  9.0286e-23  4.0768e-25  9.1738e-23  5.5344e-25  9.4316e-23  8.1305e-25  9.8888e-23  1.2760e-24  1.0699e-22  2.1031e-24  1.2131e-22  3.5866e-24  1.4661e-22  6.2637e-24  1.9157e-22  1.1147e-23  2.7190e-22  2.0213e-23  4.1707e-22  3.7535e-23
      2.30  8.3431e-23  2.3278e-25  8.3440e-23  2.3370e-25  8.3454e-23  2.3534e-25  8.3479e-23  2.3826e-25  8.3525e-23  2.4344e-25  8.3605e-23  2.5267e-25  8.3749e-23  2.6907e-25  8.4004e-23  2.9825e-25  8.4457e-23  3.5015e-25  8.5263e-23  4.4248e-25  8.6695e-23  6.0681e-25  8.9236e-23  8.9947e-25  9.3744e-23  1.4213e-24  1.0173e-22  2.3535e-24  1.1585e-22  4.0249e-24  1.4080e-22  7.0394e-24  1.8512e-22  1.2533e-23  2.6430e-22  2.2719e-23  4.0733e-22  4.2137e-23
      2.35  7.8683e-23  2.4438e-25  7.8690e-23  2.4542e-25  7.8705e-23  2.4727e-25  7.8730e-23  2.5056e-25  7.8775e-23  2.5641e-25  7.8854e-23  2.6680e-25  7.8996e-23  2.8529e-25  7.9247e-23  3.1818e-25  7.9694e-23  3.7667e-25  8.0489e-23  4.8073e-25  8.1901e-23  6.6593e-25  8.4408e-23  9.9574e-25  8.8855e-23  1.5837e-24  9.6731e-23  2.6340e-24  1.1066e-22  4.5162e-24  1.3528e-22  7.9092e-24  1.7899e-22  1.4086e-23  2.5706e-22  2.5520e-23  3.9808e-22  4.7262e-23
      2.40  7.4170e-23  2.5652e-25  7.4178e-23  2.5769e-25  7.4192e-23  2.5978e-25  7.4217e-23  2.6348e-25  7.4261e-23  2.7007e-25  7.4340e-23  2.8179e-25  7.4479e-23  3.0264e-25  7.4727e-23  3.3971e-25  7.5169e-23  4.0565e-25  7.5953e-23  5.2296e-25  7.7346e-23  7.3172e-25  7.9819e-23  1.1035e-24  8.4206e-23  1.7661e-24  9.1977e-23  2.9495e-24  1.0572e-22  5.0696e-24  1.3001e-22  8.8890e-24  1.7313e-22  1.5835e-23  2.5013e-22  2.8669e-23  3.8920e-22  5.3006e-23
      2.45  6.9884e-23  2.6921e-25  6.9892e-23  2.7054e-25  6.9905e-23  2.7289e-25  6.9930e-23  2.7707e-25  6.9973e-23  2.8450e-25  7.0051e-23  2.9772e-25  7.0189e-23  3.2123e-25  7.0433e-23  3.6304e-25  7.0869e-23  4.3741e-25  7.1642e-23  5.6972e-25  7.3017e-23  8.0517e-25  7.5457e-23  1.2244e-24  7.9785e-23  1.9716e-24  8.7453e-23  3.3057e-24  1.0101e-22  5.6949e-24  1.2498e-22  9.9963e-24  1.6752e-22  1.7810e-23  2.4349e-22  3.2222e-23  3.8065e-22  5.9472e-23
      2.50  6.5813e-23  2.8249e-25  6.5820e-23  2.8398e-25  6.5834e-23  2.8663e-25  6.5858e-23  2.9135e-25  6.5901e-23  2.9974e-25  6.5978e-23  3.1465e-25  6.6114e-23  3.4118e-25  6.6355e-23  3.8836e-25  6.6784e-23  4.7228e-25  6.7548e-23  6.2156e-25  6.8904e-23  8.8722e-25  7.1311e-23  1.3602e-24  7.5581e-23  2.2031e-24  8.3146e-23  3.7078e-24  9.6526e-23  6.4014e-24  1.2017e-22  1.1248e-23  1.6214e-22  2.0043e-23  2.3709e-22  3.6234e-23  3.7237e-22  6.6761e-23
      2.55  6.1948e-23  2.9650e-25  6.1955e-23  2.9818e-25  6.1969e-23  3.0117e-25  6.1993e-23  3.0650e-25  6.2035e-23  3.1596e-25  6.2110e-23  3.3280e-25  6.2244e-23  3.6274e-25  6.2483e-23  4.1598e-25  6.2906e-23  5.1069e-25  6.3659e-23  6.7916e-25  6.4997e-23  9.7894e-25  6.7372e-23  1.5127e-24  7.1584e-23  2.4637e-24  7.9047e-23  4.1611e-24  9.2247e-23  7.1987e-24  1.1557e-22  1.2661e-23  1.5697e-22  2.2563e-23  2.3091e-22  4.0761e-23  3.6438e-22  7.4977e-23
      2.60  5.8279e-23  3.1114e-25  5.8287e-23  3.1304e-25  5.8300e-23  3.1641e-25  5.8324e-23  3.2241e-25  5.8365e-23  3.3308e-25  5.8440e-23  3.5206e-25  5.8572e-23  3.8582e-25  5.8807e-23  4.4585e-25  5.9225e-23  5.5262e-25  5.9967e-23  7.4255e-25  6.1287e-23  1.0805e-24  6.3629e-23  1.6822e-24  6.7785e-23  2.7541e-24  7.5146e-23  4.6670e-24  8.8167e-23  8.0892e-24  1.1118e-22  1.4240e-23  1.5201e-22  2.5379e-23  2.2495e-22  4.5819e-23  3.5663e-22  8.4150e-23
      2.65  5.4799e-23  3.2643e-25  5.4806e-23  3.2856e-25  5.4819e-23  3.3236e-25  5.4843e-23  3.3911e-25  5.4884e-23  3.5112e-25  5.4957e-23  3.7246e-25  5.5088e-23  4.1043e-25  5.5319e-23  4.7795e-25  5.5731e-23  5.9804e-25  5.6464e-23  8.1167e-25  5.7765e-23  1.1918e-24  6.0076e-23  1.8685e-24  6.4174e-23  3.0740e-24  7.1435e-23  5.2248e-24  8.4278e-23  9.0718e-24  1.0698e-22  1.5982e-23  1.4725e-22  2.8487e-23  2.1921e-22  5.1400e-23  3.4911e-22  9.4268e-23
      2.70  5.1499e-23  3.4239e-25  5.1506e-23  3.4478e-25  5.1519e-23  3.4904e-25  5.1541e-23  3.5660e-25  5.1582e-23  3.7006e-25  5.1654e-23  3.9398e-25  5.1783e-23  4.3653e-25  5.2012e-23  5.1220e-25  5.2418e-23  6.4678e-25  5.3140e-23  8.8619e-25  5.4424e-23  1.3122e-24  5.6702e-23  2.0704e-24  6.0744e-23  3.4212e-24  6.7905e-23  5.8309e-24  8.0572e-23  1.0140e-23  1.0296e-22  1.7876e-23  1.4267e-22  3.1867e-23  2.1367e-22  5.7469e-23  3.4182e-22  1.0527e-22
      2.75  4.8370e-23  3.5904e-25  4.8377e-23  3.6171e-25  4.8390e-23  3.6645e-25  4.8412e-23  3.7489e-25  4.8453e-23  3.8989e-25  4.8524e-23  4.1657e-25  4.8651e-23  4.6401e-25  4.8876e-23  5.4839e-25  4.9277e-23  6.9846e-25  4.9989e-23  9.6541e-25  5.1255e-23  1.4404e-24  5.3502e-23  2.2858e-24  5.7488e-23  3.7919e-24  6.4550e-23  6.4782e-24  7.7042e-23  1.1281e-23  9.9120e-23  1.9901e-23  1.3828e-22  3.5479e-23  2.0832e-22  6.3955e-23  3.3475e-22  1.1702e-22
      2.80  4.5406e-23  3.7660e-25  4.5414e-23  3.7956e-25  4.5426e-23  3.8482e-25  4.5448e-23  3.9417e-25  4.5488e-23  4.1079e-25  4.5558e-23  4.4036e-25  4.5683e-23  4.9294e-25  4.5905e-23  5.8645e-25  4.6301e-23  7.5277e-25  4.7003e-23  1.0486e-24  4.8251e-23  1.5750e-24  5.0466e-23  2.5119e-24  5.4397e-23  4.1809e-24  6.1360e-23  7.1574e-24  7.3678e-23  1.2478e-23  9.5449e-23  2.2025e-23  1.3405e-22  3.9269e-23  2.0314e-22  7.0761e-23  3.2787e-22  1.2935e-22
      2.85  4.2600e-23  3.9490e-25  4.2607e-23  3.9815e-25  4.2620e-23  4.0394e-25  4.2642e-23  4.1423e-25  4.2681e-23  4.3252e-25  4.2750e-23  4.6506e-25  4.2873e-23  5.2293e-25  4.3092e-23  6.2584e-25  4.3482e-23  8.0887e-25  4.4174e-23  1.1345e-24  4.5404e-23  1.7137e-24  4.7588e-23  2.7448e-24  5.1462e-23  4.5813e-24  5.8327e-23  7.8565e-24  7.0470e-23  1.3710e-23  9.1934e-23  2.4211e-23  1.2998e-22  4.3171e-23  1.9812e-22  7.7770e-23  3.2114e-22  1.4206e-22
      2.90  3.9945e-23  4.1395e-25  3.9952e-23  4.1751e-25  3.9964e-23  4.2383e-25  3.9986e-23  4.3506e-25  4.0024e-23  4.5505e-25  4.0092e-23  4.9059e-25  4.0214e-23  5.5379e-25  4.0430e-23  6.6619e-25  4.0813e-23  8.6610e-25  4.1496e-23  1.2217e-24  4.2708e-23  1.8544e-24  4.4860e-23  2.9805e-24  4.8677e-23  4.9862e-24  5.5442e-23  8.5630e-24  6.7409e-23  1.4955e-23  8.8561e-23  2.6420e-23  1.2605e-22  4.7115e-23  1.9323e-22  8.4856e-23  3.1452e-22  1.5491e-22
      2.95  3.7434e-23  4.3381e-25  3.7440e-23  4.3766e-25  3.7452e-23  4.4451e-25  3.7474e-23  4.5669e-25  3.7512e-23  4.7834e-25  3.7579e-23  5.1685e-25  3.7698e-23  5.8534e-25  3.7911e-23  7.0714e-25  3.8289e-23  9.2377e-25  3.8961e-23  1.3091e-24  4.0154e-23  1.9947e-24  4.2274e-23  3.2150e-24  4.6034e-23  5.3884e-24  5.2696e-23  9.2642e-24  6.4483e-23  1.6190e-23  8.5317e-23  2.8612e-23  1.2223e-22  5.1027e-23  1.8843e-22  9.1892e-23  3.0797e-22  1.6769e-22
      3.00  3.5060e-23  4.5453e-25  3.5067e-23  4.5867e-25  3.5079e-23  4.6604e-25  3.5100e-23  4.7913e-25  3.5137e-23  5.0241e-25  3.5203e-23  5.4381e-25  3.5321e-23  6.1744e-25  3.5530e-23  7.4838e-25  3.5902e-23  9.8127e-25  3.6563e-23  1.3955e-24  3.7738e-23  2.1326e-24  3.9823e-23  3.4444e-24  4.3524e-23  5.7809e-24  5.0080e-23  9.9475e-24  6.1680e-23  1.7393e-23  8.2186e-23  3.0746e-23  1.1851e-22  5.4840e-23  1.8369e-22  9.8754e-23  3.0145e-22  1.8017e-22
      3.05  3.2819e-23  4.7653e-25  3.2825e-23  4.8095e-25  3.2837e-23  4.8880e-25  3.2857e-23  5.0276e-25  3.2894e-23  5.2759e-25  3.2959e-23  5.7174e-25  3.3075e-23  6.5027e-25  3.3280e-23  7.8991e-25  3.3646e-23  1.0383e-24  3.4296e-23  1.4801e-24  3.5451e-23  2.2661e-24  3.7502e-23  3.6652e-24  4.1140e-23  6.1572e-24  4.7587e-23  1.0601e-23  5.8993e-23  1.8542e-23  7.9156e-23  3.2784e-23  1.1486e-22  5.8483e-23  1.7898e-22  1.0532e-22  2.9491e-22  1.9213e-22
      3.10  3.0703e-23  4.9926e-25  3.0709e-23  5.0393e-25  3.0720e-23  5.1223e-25  3.0741e-23  5.2701e-25  3.0776e-23  5.5328e-25  3.0840e-23  6.0000e-25  3.0954e-23  6.8308e-25  3.1156e-23  8.3083e-25  3.1515e-23  1.0936e-24  3.2154e-23  1.5611e-24  3.3288e-23  2.3928e-24  3.5302e-23  3.8731e-24  3.8876e-23  6.5099e-24  4.5207e-23  1.1212e-23  5.6411e-23  1.9615e-23  7.6216e-23  3.4688e-23  1.1129e-22  6.1889e-23  1.7429e-22  1.1147e-22  2.8830e-22  2.0338e-22
      3.15  2.8707e-23  5.2326e-25  2.8713e-23  5.2816e-25  2.8724e-23  5.3688e-25  2.8744e-23  5.5239e-25  2.8779e-23  5.7996e-25  2.8842e-23  6.2900e-25  2.8953e-23  7.1621e-25  2.9151e-23  8.7130e-25  2.9504e-23  1.1471e-24  3.0130e-23  1.6378e-24  3.1222e-23  2.5106e-24  3.3219e-23  4.0647e-24  3.6724e-23  6.8325e-24  4.2936e-23  1.1769e-23  5.3927e-23  2.0592e-23  7.3359e-23  3.6419e-23  1.0776e-22  6.4988e-23  1.6959e-22  1.1708e-22  2.8162e-22  2.1368e-22
      3.20  2.6825e-23  5.4846e-25  2.6831e-23  5.5356e-25  2.6842e-23  5.6264e-25  2.6862e-23  5.7878e-25  2.6896e-23  6.0749e-25  2.6957e-23  6.5854e-25  2.7067e-23  7.4934e-25  2.7261e-23  9.1080e-25  2.7606e-23  1.1980e-24  2.8220e-23  1.7088e-24  2.9310e-23  2.6178e-24  3.1246e-23  4.2357e-24  3.4681e-23  7.1177e-24  4.0767e-23  1.2258e-23  5.1537e-23  2.1447e-23  7.0578e-23  3.7934e-23  1.0429e-22  6.7707e-23  1.6488e-22  1.2202e-22  2.7484e-22  2.2280e-22
      3.25  2.5053e-23  5.7467e-25  2.5059e-23  5.7994e-25  2.5069e-23  5.8931e-25  2.5088e-23  6.0598e-25  2.5122e-23  6.3562e-25  2.5182e-23  6.8833e-25  2.5289e-23  7.8207e-25  2.5479e-23  9.4878e-25  2.5817e-23  1.2453e-24  2.6417e-23  1.7727e-24  2.7484e-23  2.7112e-24  2.9379e-23  4.3818e-24  3.2741e-23  7.3577e-24  3.8697e-23  1.2666e-23  4.9238e-23  2.2157e-23  6.7874e-23  3.9193e-23  1.0086e-22  6.9970e-23  1.6020e-22  1.2615e-22  2.6800e-22  2.3050e-22
      3.30  2.3384e-23  6.0243e-25  2.3390e-23  6.0782e-25  2.3400e-23  6.1742e-25  2.3419e-23  6.3448e-25  2.3452e-23  6.6481e-25  2.3511e-23  7.1877e-25  2.3615e-23  8.1472e-25  2.3801e-23  9.8536e-25  2.4131e-23  1.2889e-24  2.4704e-23  1.8286e-24  2.5761e-23  2.7894e-24  2.7613e-23  4.4996e-24  3.0899e-23  7.5463e-24  3.6722e-23  1.2982e-23  4.7026e-23  2.2702e-23  6.5246e-23  4.0156e-23  9.7500e-23  7.1706e-23  1.5555e-22  1.2934e-22  2.6111e-22  2.3654e-22
      3.35  2.1815e-23  6.3131e-25  2.1820e-23  6.3678e-25  2.1831e-23  6.4652e-25  2.1849e-23  6.6383e-25  2.1881e-23  6.9461e-25  2.1938e-23  7.4935e-25  2.2040e-23  8.4671e-25  2.2222e-23  1.0199e-24  2.2544e-23  1.3278e-24  2.3117e-23  1.8756e-24  2.4136e-23  2.8504e-24  2.5944e-23  4.5858e-24  2.9153e-23  7.6778e-24  3.4840e-23  1.3195e-23  4.4904e-23  2.3064e-23  6.2699e-23  4.0791e-23  9.4205e-23  7.2859e-23  1.5095e-22  1.3149e-22  2.5422e-22  2.4072e-22
      3.40  2.0339e-23  6.6138e-25  2.0345e-23  6.6689e-25  2.0355e-23  6.7668e-25  2.0372e-23  6.9409e-25  2.0404e-23  7.2505e-25  2.0460e-23  7.8011e-25  2.0559e-23  8.7803e-25  2.0736e-23  1.0522e-24  2.1051e-23  1.3619e-24  2.1610e-23  1.9129e-24  2.2604e-23  2.8934e-24  2.4369e-23  4.6391e-24  2.7501e-23  7.7497e-24  3.3050e-23  1.3301e-23  4.2873e-23  2.3234e-23  6.0242e-23  4.1085e-23  9.1000e-23  7.3402e-23  1.4643e-22  1.3255e-22  2.4740e-22  2.4293e-22
      3.45  1.8953e-23  6.9271e-25  1.8958e-23  6.9820e-25  1.8968e-23  7.0796e-25  1.8985e-23  7.2533e-25  1.9016e-23  7.5620e-25  1.9070e-23  8.1112e-25  1.9167e-23  9.0877e-25  1.9340e-23  1.0825e-24  1.9647e-23  1.3914e-24  2.0192e-23  1.9410e-24  2.1162e-23  2.9189e-24  2.2883e-23  4.6602e-24  2.5937e-23  7.7633e-24  3.1350e-23  1.3302e-23  4.0930e-23  2.3217e-23  5.7874e-23  4.1043e-23  8.7891e-23  7.3341e-23  1.4200e-22  1.3252e-22  2.4070e-22  2.4318e-22
      3.50  1.7651e-23  7.2537e-25  1.7656e-23  7.3081e-25  1.7666e-23  7.4047e-25  1.7683e-23  7.5765e-25  1.7713e-23  7.8821e-25  1.7766e-23  8.4255e-25  1.7860e-23  9.3920e-25  1.8029e-23  1.1111e-24  1.8319e-23  1.4167e-24  1.8860e-23  1.9607e-24  1.9804e-23  2.9286e-24  2.1482e-23  4.6520e-24  2.4459e-23  7.7238e-24  2.9736e-23  1.3208e-23  3.9075e-23  2.3027e-23  5.5596e-23  4.0693e-23  8.4888e-23  7.2721e-23  1.3769e-22  1.3149e-22  2.3412e-22  2.4160e-22
      3.55  1.6430e-23  7.6019e-25  1.6435e-23  7.6553e-25  1.6444e-23  7.7503e-25  1.6461e-23  7.9192e-25  1.6490e-23  8.2196e-25  1.6542e-23  8.7537e-25  1.6634e-23  9.7036e-25  1.6798e-23  1.1393e-24  1.7089e-23  1.4398e-24  1.7607e-23  1.9744e-24  1.8528e-23  2.9259e-24  2.0163e-23  4.6201e-24  2.3064e-23  7.6403e-24  2.8206e-23  1.3033e-23  3.7307e-23  2.2693e-23  5.3410e-23  4.0081e-23  8.1989e-23  7.1630e-23  1.3351e-22  1.2960e-22  2.2768e-22  2.3845e-22
      3.60  1.5285e-23  7.9660e-25  1.5290e-23  8.0182e-25  1.5299e-23  8.1110e-25  1.5315e-23  8.2761e-25  1.5337e-23  8.5692e-25  1.5394e-23  9.0918e-25  1.5484e-23  1.0020e-24  1.5644e-23  1.1672e-24  1.5921e-23  1.4609e-24  1.6432e-23  1.9836e-24  1.7329e-23  2.9137e-24  1.8922e-23  4.5701e-24  2.1748e-23  7.5231e-24  2.6758e-23  1.2797e-23  3.5627e-23  2.2248e-23  5.1319e-23  3.9269e-23  7.9202e-23  7.0173e-23  1.2946e-22  1.2704e-22  2.2141e-22  2.3406e-22
      3.65  1.4212e-23  8.3475e-25  1.4217e-23  8.3983e-25  1.4226e-23  8.4887e-25  1.4241e-23  8.6494e-25  1.4269e-23  8.9352e-25  1.4318e-23  9.4435e-25  1.4406e-23  1.0347e-24  1.4561e-23  1.1955e-24  1.4838e-23  1.4815e-24  1.5330e-23  1.9903e-24  1.6204e-23  2.8959e-24  1.7756e-23  4.5087e-24  2.0510e-23  7.3843e-24  2.5391e-23  1.2522e-23  3.4034e-23  2.1729e-23  4.9329e-23  3.8323e-23  7.6534e-23  6.8473e-23  1.2556e-22  1.2403e-22  2.1536e-22  2.2882e-22
      3.70  1.3207e-23  8.7460e-25  1.3212e-23  8.7954e-25  1.3221e-23  8.8831e-25  1.3231e-23  9.0387e-25  1.3263e-23  9.3167e-25  1.3311e-23  9.8103e-25  1.3396e-23  1.0688e-24  1.3548e-23  1.2249e-24  1.3818e-23  1.5026e-24  1.4297e-23  1.9967e-24  1.5149e-23  2.8761e-24  1.6662e-23  4.4425e-24  1.9346e-23  7.2356e-24  2.4104e-23  1.2227e-23  3.2529e-23  2.1175e-23  4.7442e-23  3.7311e-23  7.3994e-23  6.6648e-23  1.2184e-22  1.2079e-22  2.0956e-22  2.2312e-22
      3.75  1.2267e-23  9.1653e-25  1.2272e-23  9.2132e-25  1.2280e-23  9.2983e-25  1.2295e-23  9.4497e-25  1.2321e-23  9.7189e-25  1.2368e-23  1.0198e-24  1.2451e-23  1.1049e-24  1.2599e-23  1.2563e-24  1.2862e-23  1.5256e-24  1.3330e-23  2.0049e-24  1.4160e-23  2.8578e-24  1.5636e-23  4.3772e-24  1.8254e-23  7.0869e-24  2.2895e-23  1.1930e-23  3.1112e-23  2.0615e-23  4.5661e-23  3.6285e-23  7.1588e-23  6.4796e-23  1.1830e-22  1.1749e-22  2.0403e-22  2.1730e-22
      3.80  1.1388e-23  9.6178e-25  1.1392e-23  9.6643e-25  1.1400e-23  9.7468e-25  1.1415e-23  9.8937e-25  1.1440e-23  1.0155e-24  1.1486e-23  1.0619e-24  1.1567e-23  1.1445e-24  1.1712e-23  1.2914e-24  1.1968e-23  1.5527e-24  1.2425e-23  2.0176e-24  1.3236e-23  2.8451e-24  1.4676e-23  4.3193e-24  1.7231e-23  6.9486e-24  2.1760e-23  1.1649e-23  2.9781e-23  2.0081e-23  4.3984e-23  3.5303e-23  6.9319e-23  6.3016e-23  1.1498e-22  1.1431e-22  1.9879e-22  2.1168e-22
      3.85  1.0565e-23  1.0093e-24  1.0570e-23  1.0139e-24  1.0578e-23  1.0219e-24  1.0592e-23  1.0361e-24  1.0617e-23  1.0615e-24  1.0658e-23  1.1066e-24  1.0741e-23  1.1868e-24  1.0882e-23  1.3295e-24  1.1133e-23  1.5834e-24  1.1579e-23  2.0350e-24  1.2371e-23  2.8390e-24  1.3777e-23  4.2712e-24  1.6273e-23  6.8260e-24  2.0697e-23  1.1394e-23  2.8532e-23  1.9592e-23  4.2406e-23  3.4397e-23  6.7178e-23  6.1372e-23  1.1184e-22  1.1137e-22  1.9385e-22  2.0648e-22
      3.90  9.7974e-24  1.0594e-24  9.8018e-24  1.0638e-24  9.8095e-24  1.0716e-24  9.8233e-24  1.0855e-24  9.8478e-24  1.1102e-24  9.8914e-24  1.1541e-24  9.9690e-24  1.2323e-24  1.0107e-23  1.3712e-24  1.0352e-23  1.6185e-24  1.0788e-23  2.0584e-24  1.1562e-23  2.8414e-24  1.2936e-23  4.2365e-24  1.5376e-23  6.7254e-24  1.9699e-23  1.1176e-23  2.7356e-23  1.9167e-23  4.0916e-23  3.3605e-23  6.5152e-23  5.9930e-23  1.0887e-22  1.0879e-22  1.8915e-22  2.0195e-22
      3.95  9.0802e-24  1.1121e-24  9.0845e-24  1.1164e-24  9.0921e-24  1.1241e-24  9.1031e-24  1.1376e-24  9.1296e-24  1.1618e-24  9.1722e-24  1.2048e-24  9.2480e-24  1.2812e-24  9.3828e-24  1.4171e-24  9.6224e-24  1.6588e-24  1.0048e-23  2.0889e-24  1.0805e-23  2.8547e-24  1.2149e-23  4.2190e-24  1.4534e-23  6.6532e-24  1.8760e-23  1.1007e-23  2.6245e-23  1.8826e-23  3.9505e-23  3.2962e-23  6.3220e-23  5.8758e-23  1.0604e-22  1.0670e-22  1.8468e-22  1.9834e-22
