# This was generated using Cloudy10 and the columns are ordered 
# as log10 of the fraction of the metallicity to the solar metallicity
# 'h_*_Z' and 'c_*_Z' stands for cooling and heating respectively 
# at * metalicity
#
# Redshift = 1.5
# hden = 6.0
#     temp   h_-3.00_Z   c_-3.00_Z   h_-2.75_Z   c_-2.75_Z   h_-2.50_Z   c_-2.50_Z   h_-2.25_Z   c_-2.25_Z   h_-2.00_Z   c_-2.00_Z   h_-1.75_Z   c_-1.75_Z   h_-1.50_Z   c_-1.50_Z   h_-1.25_Z   c_-1.25_Z   h_-1.00_Z   c_-1.00_Z   h_-0.75_Z   c_-0.75_Z   h_-0.50_Z   c_-0.50_Z   h_-0.25_Z   c_-0.25_Z    h_0.00_Z    c_0.00_Z    h_0.25_Z    c_0.25_Z    h_0.50_Z    c_0.50_Z    h_0.75_Z    c_0.75_Z    h_1.00_Z    c_1.00_Z    h_1.25_Z    c_1.25_Z    h_1.50_Z    c_1.50_Z 
      1.00  1.0249e-29  2.5369e-33  1.0248e-29  2.5501e-33  1.0247e-29  2.5736e-33  1.0245e-29  2.6154e-33  1.0241e-29  2.6898e-33  1.0234e-29  2.822e-33  1.0222e-29  3.057e-33  1.0201e-29  3.4747e-33  1.0165e-29  4.2175e-33  1.0113e-29  5.5394e-33  1.0062e-29  7.8971e-33  1.0048e-29  1.2105e-32  1.008e-29  1.9605e-32  1.0167e-29  3.2955e-32  1.0339e-29  5.7396e-32  1.0662e-29  9.902e-32  1.1241e-29  1.7433e-31  1.2273e-29  3.0824e-31  1.4109e-29  5.4596e-31
      1.05  1.0249e-29  2.974e-33  1.0248e-29  2.9913e-33  1.0247e-29  3.0222e-33  1.0245e-29  3.077e-33  1.0242e-29  3.1746e-33  1.0235e-29  3.3481e-33  1.0224e-29  3.6567e-33  1.0203e-29  4.2056e-33  1.0168e-29  5.1828e-33  1.0115e-29  6.9263e-33  1.0063e-29  1.005e-32  1.0048e-29  1.5647e-32  1.0079e-29  2.5628e-32  1.0165e-29  4.3392e-32  1.0338e-29  7.6737e-32  1.0659e-29  1.3122e-31  1.1237e-29  2.313e-31  1.2267e-29  4.0925e-31  1.4099e-29  7.2511e-31
      1.10  1.025e-29  3.4627e-33  1.0249e-29  3.4851e-33  1.0248e-29  3.525e-33  1.0246e-29  3.5959e-33  1.0242e-29  3.7219e-33  1.0236e-29  3.9462e-33  1.0225e-29  4.3452e-33  1.0204e-29  5.0561e-33  1.017e-29  6.3247e-33  1.0116e-29  8.601e-33  1.0062e-29  1.272e-32  1.0046e-29  2.016e-32  1.0078e-29  3.3453e-32  1.0164e-29   5.71e-32  1.0337e-29  1.018e-31  1.0656e-29  1.7392e-31  1.1233e-29  3.0698e-31  1.2261e-29  5.4357e-31  1.4091e-29  9.6351e-31
      1.15  1.025e-29  4.0106e-33  1.025e-29  4.0392e-33  1.0249e-29  4.0901e-33  1.0247e-29  4.1807e-33  1.0243e-29  4.3418e-33  1.0237e-29  4.6287e-33  1.0226e-29  5.1397e-33  1.0206e-29  6.0518e-33  1.0171e-29  7.687e-33  1.0117e-29  1.0651e-32  1.0061e-29  1.6113e-32  1.0045e-29  2.6124e-32  1.0077e-29  4.4071e-32  1.0163e-29  7.6081e-32  1.0336e-29  1.3624e-31  1.0653e-29  2.3335e-31  1.123e-29  4.1254e-31  1.2256e-29  7.3106e-31  1.4081e-29  1.2965e-30
      1.20  1.0252e-29  4.626e-33  1.0251e-29  4.6623e-33  1.025e-29  4.7269e-33  1.0248e-29  4.8417e-33  1.0245e-29  5.0461e-33  1.0239e-29  5.4104e-33  1.0228e-29  6.0604e-33  1.0208e-29  7.2245e-33  1.0173e-29  9.3264e-33  1.0118e-29  1.3197e-32  1.0061e-29  2.0543e-32  1.0045e-29  3.4321e-32  1.0076e-29  5.9143e-32  1.0162e-29  1.0371e-31  1.0335e-29  1.8593e-31  1.0649e-29  3.2017e-31  1.1226e-29  5.6701e-31  1.225e-29  1.0057e-30  1.4072e-29  1.7845e-30
      1.25  1.0253e-29  5.3189e-33  1.0253e-29  5.3648e-33  1.0252e-29  5.4464e-33  1.025e-29  5.5916e-33  1.0246e-29  5.8502e-33  1.024e-29  6.3117e-33  1.0229e-29  7.1371e-33  1.021e-29  8.6224e-33  1.0175e-29  1.1331e-32  1.0119e-29  1.6431e-32  1.0061e-29  2.6512e-32  1.0044e-29  4.602e-32  1.0076e-29  8.138e-32  1.0162e-29  1.4493e-31  1.0334e-29  2.6048e-31  1.0646e-29  4.5178e-31  1.1222e-29  8.0163e-31  1.2244e-29  1.4218e-30  1.4063e-29  2.5267e-30
      1.30  1.0255e-29  6.1031e-33  1.0254e-29  6.1615e-33  1.0253e-29  6.2654e-33  1.0252e-29  6.4503e-33  1.0248e-29  6.7801e-33  1.0242e-29  7.3694e-33  1.0232e-29  8.4265e-33  1.0212e-29  1.034e-32  1.0178e-29  1.3872e-32  1.0121e-29  2.0702e-32  1.0061e-29  3.4878e-32  1.0043e-29  6.3309e-32  1.0075e-29  1.1517e-31  1.0161e-29  2.0815e-31  1.0333e-29  3.7537e-31  1.0642e-29  6.5605e-31  1.1218e-29  1.1662e-30  1.2238e-29  2.0707e-30  1.4054e-29  3.6813e-30
      1.35  1.0257e-29  6.9926e-33  1.0257e-29  7.0691e-33  1.0256e-29  7.2052e-33  1.0254e-29  7.4478e-33  1.0251e-29  7.8805e-33  1.0245e-29  8.6551e-33  1.0234e-29  1.0049e-32  1.0215e-29  1.2586e-32  1.018e-29  1.7326e-32  1.0123e-29  2.6741e-32  1.0061e-29  4.724e-32  1.0042e-29  8.9788e-32  1.0074e-29  1.6783e-31  1.016e-29  3.0718e-31  1.0332e-29  5.5575e-31  1.0639e-29  9.7852e-31  1.1214e-29  1.7414e-30  1.2233e-29  3.095e-30  1.4045e-29  5.5039e-30
      1.40  1.026e-29  8.0096e-33  1.0259e-29  8.1163e-33  1.0258e-29  8.3063e-33  1.0256e-29  8.645e-33  1.0253e-29  9.2496e-33  1.0247e-29  1.0333e-32  1.0237e-29  1.2286e-32  1.0218e-29  1.5855e-32  1.0183e-29  2.2577e-32  1.0125e-29  3.617e-32  1.0061e-29  6.6816e-32  1.0041e-29  1.3207e-31  1.0073e-29  2.5218e-31  1.0159e-29  4.6574e-31  1.0331e-29  8.4454e-31  1.0637e-29  1.4975e-30  1.121e-29  2.6619e-30  1.2227e-29  4.7381e-30  1.4036e-29  8.428e-30
      1.45  1.0262e-29  9.1889e-33  1.0262e-29  9.3528e-33  1.0261e-29  9.6447e-33  1.0259e-29  1.0165e-32  1.0256e-29  1.1094e-32  1.025e-29  1.2758e-32  1.024e-29  1.5758e-32  1.0221e-29  2.1239e-32  1.0186e-29  3.1563e-32  1.0128e-29  5.248e-32  1.0061e-29  1.0014e-31  1.004e-29  2.0273e-31  1.0072e-29  3.9169e-31  1.0159e-29  7.2653e-31  1.033e-29  1.3184e-30  1.0636e-29  2.3481e-30  1.1206e-29  4.1745e-30  1.2222e-29  7.4321e-30  1.4028e-29  1.3222e-29
      1.50  1.0265e-29  1.0588e-32  1.0265e-29  1.0867e-32  1.0264e-29  1.1364e-32  1.0262e-29  1.2249e-32  1.0259e-29  1.3828e-32  1.0253e-29  1.6653e-32  1.0243e-29  2.1736e-32  1.0225e-29  3.0988e-32  1.019e-29  4.8273e-32  1.013e-29  8.277e-32  1.0061e-29  1.6003e-31  1.004e-29  3.2537e-31  1.0071e-29  6.2929e-31  1.0158e-29  1.1666e-30  1.0329e-29  2.1149e-30  1.0634e-29  3.7721e-30  1.1202e-29  6.7119e-30  1.2217e-29  1.1949e-29  1.402e-29  2.1258e-29
      1.55  1.0269e-29  1.2306e-32  1.0268e-29  1.2815e-32  1.0267e-29  1.372e-32  1.0266e-29  1.5332e-32  1.0262e-29  1.8206e-32  1.0257e-29  2.3341e-32  1.0247e-29  3.2553e-32  1.0228e-29  4.9224e-32  1.0194e-29  8.0017e-32  1.0133e-29    1.4e-31  1.0062e-29  2.6965e-31  1.0039e-29  5.4175e-31  1.0071e-29  1.0399e-30  1.0157e-29  1.9198e-30  1.0328e-29  3.4722e-30  1.0633e-29  6.1988e-30  1.1198e-29  1.1025e-29  1.2212e-29  1.9624e-29  1.4013e-29  3.491e-29
      1.60  1.0272e-29  1.4486e-32  1.0272e-29  1.5434e-32  1.0271e-29  1.7122e-32  1.0269e-29  2.0127e-32  1.0266e-29  2.5481e-32  1.0261e-29  3.5031e-32  1.0251e-29  5.212e-32  1.0232e-29  8.2888e-32  1.0198e-29  1.391e-31  1.0136e-29  2.4599e-31  1.0063e-29  4.6761e-31  1.0038e-29  9.206e-31  1.007e-29  1.7459e-30  1.0157e-29  3.2035e-30  1.0328e-29  5.7723e-30  1.0632e-29  1.0313e-29  1.1194e-29  1.8334e-29  1.2207e-29  3.2618e-29  1.4006e-29  5.802e-29
      1.65  1.0276e-29  1.7345e-32  1.0276e-29  1.9094e-32  1.0275e-29  2.2205e-32  1.0273e-29  2.7742e-32  1.027e-29  3.7599e-32  1.0265e-29  5.5167e-32  1.0255e-29  8.6538e-32  1.0237e-29  1.4279e-31  1.0202e-29  2.4469e-31  1.014e-29  4.3462e-31  1.0063e-29  8.1352e-31  1.0038e-29  1.5667e-30  1.0069e-29  2.9319e-30  1.0156e-29  5.3448e-30  1.0327e-29  9.604e-30  1.0631e-29  1.7144e-29  1.119e-29  3.0468e-29  1.2203e-29  5.4178e-29    1.4e-29  9.6359e-29
      1.70  1.028e-29  2.1194e-32  1.028e-29  2.432e-32  1.0279e-29  2.9882e-32  1.0277e-29  3.9775e-32  1.0274e-29  5.7382e-32  1.0269e-29  8.8738e-32  1.0259e-29  1.4465e-31  1.0241e-29  2.4462e-31  1.0206e-29  4.2458e-31  1.0144e-29  7.549e-31  1.0064e-29  1.3927e-30  1.0037e-29  2.6277e-30  1.0069e-29  4.856e-30  1.0156e-29  8.7918e-30  1.0327e-29  1.5767e-29  1.063e-29  2.8121e-29  1.1186e-29  4.9961e-29  1.2198e-29  8.8795e-29  1.3994e-29  1.5791e-28
      1.75  1.0285e-29  2.6449e-32  1.0284e-29  3.1826e-32  1.0283e-29  4.139e-32  1.0282e-29  5.8403e-32  1.0279e-29  8.8669e-32  1.0274e-29  1.4254e-31  1.0264e-29  2.385e-31  1.0246e-29  4.0972e-31  1.0211e-29  7.1654e-31  1.0147e-29  1.2733e-30  1.0065e-29  2.3198e-30  1.0037e-29  4.2977e-30  1.0068e-29  7.8513e-30  1.0155e-29  1.4138e-29  1.0326e-29  2.529e-29  1.0629e-29  4.5064e-29  1.1182e-29  8.0056e-29  1.2194e-29  1.4221e-28  1.3988e-29  2.5289e-28
      1.80  1.0289e-29  3.3657e-32  1.0289e-29  4.254e-32  1.0288e-29  5.8339e-32  1.0286e-29  8.6438e-32  1.0284e-29  1.3642e-31  1.0278e-29  2.2534e-31  1.0269e-29  3.8362e-31  1.0251e-29  6.656e-31  1.0216e-29  1.1692e-30  1.0152e-29  2.0749e-30  1.0066e-29  3.7393e-30  1.0037e-29  6.815e-30  1.0068e-29  1.2311e-29  1.0155e-29  2.2074e-29  1.0325e-29  3.9394e-29  1.0629e-29  7.0133e-29  1.1176e-29  1.246e-28  1.219e-29  2.2127e-28  1.3983e-29  3.9351e-28
      1.85  1.0294e-29  4.3448e-32  1.0294e-29  5.7559e-32  1.0293e-29  8.2651e-32  1.0291e-29  1.2728e-31  1.0289e-29  2.0664e-31  1.0283e-29  3.4779e-31  1.0274e-29  5.9889e-31  1.0256e-29  1.0457e-30  1.0221e-29  1.8416e-30  1.0156e-29  3.263e-30  1.0068e-29  5.8247e-30  1.0036e-29  1.0456e-29  1.0067e-29  1.8706e-29  1.0155e-29  3.3376e-29  1.0325e-29  5.9436e-29  1.0628e-29  1.0572e-28  1.1171e-29  1.8784e-28  1.2186e-29  3.3363e-28  1.3978e-29  5.9354e-28
      1.90  1.0299e-29  5.6566e-32  1.0299e-29  7.8159e-32  1.0298e-29  1.1656e-31  1.0297e-29  1.8484e-31  1.0294e-29  3.0626e-31  1.0288e-29  5.2218e-31  1.0279e-29  9.0608e-31  1.0261e-29  1.5886e-30  1.0225e-29  2.8018e-30  1.0158e-29  4.9562e-30  1.0068e-29  8.7721e-30  1.0036e-29  1.5513e-29  1.0067e-29  2.7512e-29  1.0154e-29  4.8859e-29  1.0325e-29  8.6826e-29  1.0627e-29  1.5431e-28  1.1167e-29  2.7413e-28  1.2183e-29  4.8737e-28  1.3975e-29  8.6782e-28
      1.95  1.0305e-29  7.3779e-32  1.0304e-29  1.0566e-31  1.0303e-29  1.6236e-31  1.0301e-29  2.6318e-31  1.0298e-29  4.4243e-31  1.0292e-29  7.6109e-31  1.0281e-29  1.3274e-30  1.026e-29  2.3334e-30  1.022e-29  4.1176e-30  1.0149e-29  7.2678e-30  1.0061e-29  1.2756e-29  1.0034e-29  2.2285e-29  1.0065e-29  3.9191e-29  1.0154e-29  6.9303e-29  1.0324e-29  1.2289e-28  1.0627e-29  2.1813e-28  1.117e-29  3.8715e-28  1.2186e-29  6.9036e-28  1.3978e-29  1.2316e-27
      2.00  1.031e-29  9.5919e-32  1.031e-29  1.415e-31  1.0309e-29  2.2254e-31  1.0307e-29  3.6663e-31  1.0304e-29  6.2279e-31  1.0297e-29  1.0781e-30  1.0286e-29  1.8871e-30  1.0265e-29  3.3229e-30  1.0225e-29  5.8653e-30  1.0152e-29  1.0333e-29  1.0062e-29  1.8002e-29  1.0034e-29  3.1086e-29  1.0065e-29  5.4232e-29  1.0154e-29  9.5511e-29  1.0324e-29  1.6904e-28  1.0627e-29  2.9977e-28  1.1166e-29  5.3186e-28  1.2183e-29  9.5141e-28  1.3975e-29  1.702e-27
      2.05  1.0316e-29  1.2379e-31  1.0316e-29   1.87e-31  1.0315e-29  2.9938e-31  1.0313e-29  4.9919e-31  1.031e-29  8.5439e-31  1.0304e-29  1.4857e-30  1.0293e-29  2.6069e-30  1.0272e-29  4.5962e-30  1.0232e-29  8.1146e-30  1.0159e-29  1.4277e-29  1.0064e-29  2.4702e-29  1.0033e-29  4.2213e-29  1.0065e-29  7.3068e-29  1.0153e-29  1.2818e-28  1.0324e-29  2.2648e-28  1.0626e-29  4.0133e-28  1.1165e-29  7.1186e-28  1.2179e-29  1.2782e-27  1.397e-29  2.296e-27
      2.10  1.0323e-29  1.5798e-31  1.0322e-29  2.4315e-31  1.0321e-29  3.9459e-31  1.0319e-29  6.6383e-31  1.0316e-29  1.1424e-30  1.031e-29  1.993e-30  1.0299e-29  3.5035e-30  1.0279e-29  6.1825e-30  1.024e-29  1.0917e-29  1.0165e-29  1.919e-29  1.0066e-29  3.3046e-29  1.0033e-29  5.5896e-29  1.0064e-29  9.6051e-29  1.0153e-29  1.679e-28  1.0323e-29  2.962e-28  1.0626e-29  5.2456e-28  1.1164e-29  9.3027e-28  1.2175e-29  1.6774e-27  1.3965e-29  3.031e-27
      2.15  1.0329e-29  1.989e-31  1.0328e-29  3.1061e-31  1.0327e-29  5.0925e-31  1.0326e-29  8.624e-31  1.0323e-29  1.4902e-30  1.0317e-29  2.6057e-30  1.0306e-29  4.5867e-30  1.0286e-29  8.0996e-30  1.0247e-29  1.4305e-29  1.0172e-29  2.5134e-29  1.0069e-29  4.3128e-29  1.0033e-29  7.2302e-29  1.0064e-29  1.2344e-28  1.0153e-29  2.1512e-28  1.0323e-29   3.79e-28  1.0625e-29  6.7089e-28  1.1163e-29  1.1897e-27  1.217e-29  2.1544e-27  1.3961e-29  3.9238e-27
      2.20  1.0336e-29  2.4673e-31  1.0335e-29  3.8961e-31  1.0334e-29  6.4367e-31  1.0332e-29  1.0954e-30  1.0329e-29  1.8983e-30  1.0324e-29  3.3251e-30  1.0313e-29  5.8587e-30  1.0294e-29  1.0351e-29  1.0255e-29  1.8287e-29  1.0179e-29  3.2125e-29  1.0072e-29  5.4997e-29  1.0033e-29  9.1521e-29  1.0064e-29  1.554e-28  1.0152e-29  2.7011e-28  1.0323e-29  4.7542e-28  1.0625e-29  8.4136e-28  1.1162e-29  1.4922e-27  1.2165e-29  2.7122e-27  1.3956e-29  4.9898e-27
      2.25  1.0342e-29  3.0141e-31  1.0342e-29  4.7992e-31  1.0341e-29  7.9734e-31  1.0339e-29  1.3617e-30  1.0336e-29  2.3649e-30  1.0331e-29  4.1476e-30  1.0321e-29  7.3134e-30  1.0301e-29  1.2927e-29  1.0263e-29  2.2844e-29  1.0186e-29  4.0102e-29  1.0074e-29  6.8627e-29  1.0033e-29  1.1354e-28  1.0064e-29  1.9196e-28  1.0152e-29  3.3299e-28  1.0322e-29  5.8567e-28  1.0625e-29  1.0364e-27  1.1162e-29  1.8387e-27  1.216e-29  3.3503e-27  1.3951e-29  6.2405e-27
      2.30  1.035e-29  3.6276e-31  1.0349e-29  5.8104e-31  1.0348e-29  9.6916e-31  1.0347e-29  1.6592e-30  1.0344e-29  2.8859e-30  1.0338e-29  5.0659e-30  1.0328e-29  8.9375e-30  1.0309e-29  1.5804e-29  1.0271e-29  2.7936e-29  1.0194e-29  4.9061e-29  1.0077e-29  8.393e-29  1.0033e-29  1.3828e-28  1.0064e-29   2.33e-28  1.0152e-29  4.0362e-28  1.0322e-29  7.096e-28  1.0624e-29  1.2558e-27  1.1161e-29  2.229e-27  1.2154e-29  4.0643e-27  1.3946e-29  7.6818e-27
      2.35  1.0357e-29  4.3029e-31  1.0356e-29  6.9198e-31  1.0355e-29  1.1573e-30  1.0354e-29  1.9846e-30  1.0351e-29  3.4554e-30  1.0346e-29  6.0693e-30  1.0336e-29  1.0712e-29  1.0317e-29  1.8948e-29  1.0279e-29  3.3505e-29  1.0201e-29  5.8873e-29  1.008e-29  1.0076e-28  1.0033e-29  1.6554e-28  1.0063e-29  2.783e-28  1.0151e-29  4.8167e-28  1.0322e-29  8.4669e-28  1.0624e-29  1.4988e-27  1.1161e-29  2.6619e-27  1.2148e-29  4.8454e-27  1.3941e-29  9.3112e-27
      2.40  1.0364e-29  5.0321e-31  1.0364e-29  8.112e-31  1.0363e-29  1.3588e-30  1.0361e-29  2.3326e-30  1.0359e-29  4.0636e-30  1.0354e-29  7.1404e-30  1.0344e-29  1.2606e-29  1.0325e-29  2.2304e-29  1.0287e-29  3.9452e-29  1.0209e-29  6.9368e-29  1.0084e-29  1.1884e-28  1.0033e-29  1.9491e-28  1.0063e-29  3.2722e-28  1.0151e-29  5.6609e-28  1.0321e-29  9.9514e-28  1.0623e-29  1.7622e-27  1.116e-29  3.1319e-27  1.2141e-29  5.6777e-27  1.3936e-29  1.1108e-26
      2.45  1.0372e-29  5.8064e-31  1.0372e-29  9.369e-31  1.0371e-29  1.5704e-30  1.0369e-29  2.6968e-30  1.0366e-29  4.6994e-30  1.0361e-29  8.2591e-30  1.0352e-29  1.4584e-29  1.0333e-29  2.5808e-29  1.0296e-29  4.5666e-29  1.0217e-29  8.0348e-29  1.0087e-29  1.3784e-28  1.0033e-29  2.259e-28  1.0063e-29  3.7895e-28  1.0151e-29  6.555e-28  1.0321e-29  1.1526e-27  1.0623e-29  2.0419e-27  1.116e-29  3.6318e-27  1.2132e-29  6.5472e-27  1.3931e-29  1.304e-26
      2.50  1.038e-29  6.6258e-31  1.0379e-29  1.0689e-30  1.0379e-29  1.7914e-30  1.0377e-29  3.0761e-30  1.0374e-29  5.3603e-30  1.037e-29  9.4209e-30  1.036e-29  1.6637e-29  1.0342e-29  2.9446e-29  1.0304e-29  5.2121e-29  1.0225e-29  9.1767e-29  1.0091e-29  1.5769e-28  1.0034e-29  2.5846e-28  1.0063e-29  4.3347e-28  1.0151e-29  7.4995e-28  1.0321e-29  1.3191e-27  1.0623e-29  2.3381e-27  1.1159e-29  4.162e-27  1.212e-29  7.4715e-27  1.3925e-29  1.5091e-26
      2.55  1.0388e-29  7.4881e-31  1.0388e-29  1.2063e-30  1.0387e-29  2.0198e-30  1.0385e-29  3.4665e-30  1.0383e-29  6.0387e-30  1.0378e-29  1.0612e-29  1.0369e-29  1.874e-29  1.035e-29  3.3172e-29  1.0313e-29  5.8734e-29  1.0233e-29  1.0348e-28  1.0095e-29  1.7814e-28  1.0034e-29  2.9218e-28  1.0064e-29  4.9014e-28  1.015e-29  8.4833e-28  1.0321e-29  1.4927e-27  1.0623e-29  2.6472e-27  1.1159e-29  4.7161e-27  1.2115e-29  8.4565e-27  1.392e-29  1.7222e-26
      2.60  1.0396e-29  8.3874e-31  1.0396e-29  1.348e-30  1.0395e-29  2.2535e-30  1.0394e-29  3.8637e-30  1.0391e-29  6.7271e-30  1.0386e-29  1.1818e-29  1.0377e-29  2.0869e-29  1.0359e-29  3.6944e-29  1.0322e-29  6.5431e-29  1.0242e-29  1.1535e-28  1.0099e-29  1.9897e-28  1.0034e-29  3.2669e-28  1.0064e-29  5.4833e-28  1.015e-29  9.4953e-28  1.032e-29  1.6715e-27  1.0622e-29  2.9659e-27  1.1159e-29  5.288e-27  1.2113e-29  9.4848e-27  1.3914e-29  1.9386e-26
      2.65  1.0405e-29  9.3221e-31  1.0404e-29  1.4932e-30  1.0403e-29  2.4909e-30  1.0402e-29  4.265e-30   1.04e-29  7.4199e-30  1.0395e-29  1.303e-29  1.0386e-29  2.3005e-29  1.0368e-29  4.0728e-29  1.0331e-29  7.215e-29  1.025e-29  1.2739e-28  1.0103e-29  2.1996e-28  1.0035e-29  3.6169e-28  1.0064e-29  6.075e-28  1.015e-29  1.0526e-27  1.032e-29  1.8538e-27  1.0622e-29  3.2909e-27  1.1158e-29  5.8719e-27  1.2113e-29  1.0541e-26  1.3907e-29  2.1538e-26
      2.70  1.0413e-29  1.0292e-30  1.0413e-29  1.6416e-30  1.0412e-29  2.7307e-30  1.0411e-29  4.6676e-30  1.0408e-29  8.1121e-30  1.0404e-29  1.4238e-29  1.0395e-29  2.5131e-29  1.0377e-29  4.4492e-29  1.034e-29  7.8834e-29  1.0259e-29  1.3928e-28  1.0108e-29  2.4093e-28  1.0035e-29  3.9682e-28  1.0065e-29  6.671e-28  1.0151e-29  1.1566e-27  1.032e-29  2.0378e-27  1.0622e-29  3.6193e-27  1.1158e-29  6.4622e-27  1.2112e-29  1.1611e-26   1.39e-29  2.3636e-26
      2.75  1.0422e-29  1.1294e-30  1.0421e-29  1.7922e-30  1.0421e-29  2.9709e-30  1.0419e-29  5.0671e-30  1.0417e-29  8.7952e-30  1.0412e-29  1.5426e-29  1.0402e-29  2.7218e-29  1.0384e-29  4.8181e-29  1.0345e-29  8.5374e-29  1.026e-29  1.5085e-28  1.0106e-29  2.6097e-28  1.0035e-29  4.3092e-28  1.0066e-29  7.2623e-28  1.0153e-29  1.2605e-27  1.0319e-29  2.2222e-27  1.0621e-29  3.9487e-27  1.1158e-29  7.0547e-27  1.2111e-29  1.2687e-26  1.3893e-29  2.5644e-26
      2.80  1.0431e-29  1.2343e-30  1.043e-29  1.9466e-30  1.0429e-29  3.2133e-30  1.0428e-29  5.4662e-30  1.0425e-29  9.473e-30  1.042e-29   1.66e-29  1.0409e-29  2.9276e-29  1.039e-29  5.1814e-29  1.0348e-29  9.1809e-29  1.026e-29  1.6223e-28  1.0104e-29  2.8064e-28  1.0036e-29  4.6465e-28  1.0068e-29  7.8511e-28  1.0156e-29  1.3643e-27  1.032e-29  2.4064e-27  1.0621e-29  4.2777e-27  1.1157e-29  7.6468e-27  1.2111e-29  1.3765e-26  1.3885e-29  2.7532e-26
      2.85  1.044e-29  1.3444e-30  1.0439e-29  2.1053e-30  1.0438e-29  3.4585e-30  1.0437e-29  5.8652e-30  1.0433e-29  1.0146e-29  1.0428e-29  1.7761e-29  1.0417e-29  3.1306e-29  1.0395e-29  5.5392e-29  1.0352e-29  9.8141e-29  1.026e-29  1.7342e-28  1.0103e-29  2.9999e-28  1.0037e-29  4.9809e-28  1.007e-29  8.4372e-28  1.016e-29  1.4676e-27  1.0327e-29   2.59e-27  1.0627e-29  4.6055e-27  1.1157e-29  8.2368e-27  1.211e-29  1.4838e-26  1.3877e-29  2.929e-26
      2.90  1.0449e-29  1.4606e-30  1.0448e-29  2.2694e-30  1.0447e-29  3.7078e-30  1.0445e-29  6.266e-30  1.0442e-29  1.0816e-29  1.0436e-29  1.8911e-29  1.0424e-29  3.3312e-29  1.0401e-29  5.8922e-29  1.0356e-29  1.0438e-28  1.0261e-29  1.8445e-28  1.0102e-29  3.1914e-28  1.0039e-29  5.3141e-28  1.0073e-29  9.0217e-28  1.0165e-29  1.5707e-27  1.0337e-29  2.7728e-27  1.0643e-29  4.9319e-27  1.1178e-29  8.8236e-27  1.211e-29  1.5905e-26  1.3869e-29  3.0923e-26
      2.95  1.0458e-29  1.5842e-30  1.0458e-29  2.4403e-30  1.0456e-29  3.9627e-30  1.0454e-29  6.6704e-30  1.0451e-29  1.1487e-29  1.0444e-29  2.0055e-29  1.0432e-29   3.53e-29  1.0408e-29  6.2414e-29  1.036e-29  1.1056e-28  1.0263e-29  1.9537e-28  1.0103e-29  3.3823e-28  1.0041e-29  5.6482e-28  1.0077e-29  9.6067e-28  1.0173e-29  1.6736e-27  1.035e-29  2.9552e-27  1.0664e-29  5.2571e-27  1.121e-29  9.4076e-27  1.2142e-29  1.6966e-26  1.386e-29  3.2444e-26
      3.00  1.0468e-29  1.7168e-30  1.0467e-29  2.6196e-30  1.0466e-29  4.2252e-30  1.0464e-29  7.0809e-30  1.046e-29  1.2161e-29  1.0453e-29  2.1198e-29  1.044e-29  3.7277e-29  1.0415e-29  6.5879e-29  1.0366e-29  1.1667e-28  1.0266e-29  2.0621e-28  1.0106e-29  3.5775e-28  1.0044e-29  5.9854e-28  1.0083e-29  1.0195e-27  1.0183e-29  1.7768e-27  1.0367e-29  3.1374e-27  1.0693e-29  5.5815e-27  1.1252e-29  9.9896e-27  1.2189e-29  1.8021e-26  1.3853e-29  3.3891e-26
      3.05  1.0477e-29  1.8607e-30  1.0476e-29  2.8093e-30  1.0475e-29  4.4965e-30  1.0473e-29  7.4974e-30  1.0469e-29  1.2835e-29  1.0462e-29  2.2332e-29  1.0448e-29  3.9229e-29  1.0422e-29  6.9288e-29  1.0372e-29  1.2269e-28  1.0273e-29  2.1689e-28  1.0112e-29  3.7696e-28  1.0049e-29  6.3245e-28  1.009e-29  1.0782e-27  1.0195e-29  1.8792e-27  1.0389e-29  3.3178e-27  1.0729e-29  5.9019e-27  1.1307e-29  1.0563e-26  1.2254e-29  1.906e-26  1.3848e-29  3.5345e-26
      3.10  1.0487e-29  2.0175e-30  1.0486e-29  3.0121e-30  1.0485e-29  4.7811e-30  1.0482e-29  7.9273e-30  1.0478e-29  1.3524e-29  1.0471e-29  2.348e-29  1.0457e-29  4.1195e-29  1.0431e-29  7.2713e-29  1.0381e-29  1.2872e-28  1.0282e-29  2.2762e-28  1.0121e-29  3.9658e-28  1.0055e-29  6.674e-28  1.0098e-29  1.1383e-27  1.021e-29  1.9833e-27  1.0415e-29  3.5004e-27  1.0772e-29  6.2254e-27  1.1375e-29  1.1142e-26  1.2338e-29  2.0106e-26  1.3858e-29  3.6988e-26
      3.15  1.0496e-29  2.1905e-30  1.0495e-29  3.2319e-30  1.0494e-29  5.084e-30  1.0492e-29  8.3781e-30  1.0488e-29  1.4237e-29  1.048e-29  2.4661e-29  1.0466e-29  4.3207e-29  1.044e-29  7.6204e-29  1.039e-29  1.3485e-28  1.0294e-29  2.3855e-28  1.0134e-29  4.1682e-28  1.0061e-29   7.04e-28  1.0107e-29  1.201e-27  1.0226e-29  2.0911e-27  1.0443e-29  3.6882e-27  1.0822e-29  6.5569e-27  1.1454e-29  1.1734e-26  1.244e-29  2.1175e-26  1.3891e-29  3.883e-26
      3.20  1.0506e-29  2.3836e-30  1.0505e-29  3.4738e-30  1.0504e-29  5.4127e-30  1.0501e-29  8.861e-30  1.0497e-29  1.4994e-29  1.049e-29  2.5905e-29  1.0476e-29  4.5316e-29  1.045e-29  7.985e-29  1.0401e-29  1.4124e-28  1.0308e-29  2.4994e-28  1.0151e-29  4.3805e-28  1.0069e-29  7.4311e-28  1.0116e-29  1.2678e-27  1.0242e-29  2.2054e-27  1.0472e-29  3.8866e-27  1.0874e-29  6.9055e-27  1.154e-29  1.2355e-26  1.2558e-29  2.2298e-26  1.3952e-29  4.0834e-26
      3.25  1.0515e-29  2.6017e-30  1.0515e-29  3.7448e-30  1.0513e-29  5.7775e-30  1.0511e-29  9.3926e-30  1.0507e-29  1.5822e-29  1.0499e-29  2.7259e-29  1.0486e-29  4.7605e-29  1.046e-29  8.3799e-29  1.0413e-29  1.4815e-28  1.0325e-29  2.6221e-28  1.0172e-29  4.6087e-28  1.0078e-29  7.8673e-28  1.0124e-29  1.3414e-27  1.0256e-29  2.3312e-27  1.0499e-29  4.1038e-27  1.0923e-29  7.2858e-27  1.1627e-29  1.3031e-26  1.2685e-29  2.3522e-26  1.4037e-29  4.3051e-26
      3.30  1.0525e-29  2.8554e-30  1.0524e-29  4.0581e-30  1.0523e-29  6.1969e-30  1.0521e-29      1e-29  1.0516e-29  1.6765e-29  1.0509e-29  2.8797e-29  1.0495e-29  5.0198e-29  1.0471e-29  8.8265e-29  1.0426e-29  1.5595e-28  1.0341e-29  2.7601e-28  1.0195e-29  4.8627e-28  1.0087e-29  8.3517e-28  1.0131e-29  1.4253e-27  1.0267e-29  2.475e-27  1.0521e-29  4.3519e-27  1.0966e-29  7.7186e-27  1.1709e-29  1.3798e-26  1.2815e-29  2.4915e-26  1.414e-29  4.5594e-26
      3.35  1.0534e-29  3.1504e-30  1.0533e-29  4.4234e-30  1.0532e-29  6.6874e-30  1.053e-29  1.0713e-29  1.0526e-29  1.7873e-29  1.0519e-29  3.0607e-29  1.0505e-29  5.3255e-29  1.0482e-29  9.3534e-29  1.0438e-29  1.6515e-28  1.0358e-29  2.9225e-28  1.0219e-29  5.1576e-28  1.0097e-29  8.914e-28  1.0135e-29  1.5238e-27  1.0274e-29  2.6453e-27  1.0537e-29  4.6466e-27  1.0999e-29  8.2317e-27  1.1779e-29  1.4705e-26  1.2942e-29  2.6563e-26  1.4252e-29  4.8623e-26
      3.40  1.0543e-29  3.4966e-30  1.0543e-29  4.8553e-30  1.0541e-29  7.2714e-30  1.0539e-29  1.1568e-29  1.0535e-29  1.9209e-29  1.0528e-29  3.2797e-29  1.0515e-29  5.6962e-29  1.0492e-29  9.9933e-29  1.0451e-29  1.7633e-28  1.0375e-29  3.1195e-28  1.0243e-29  5.5117e-28  1.0109e-29  9.5822e-28  1.0138e-29  1.6423e-27  1.0278e-29  2.8519e-27  1.0546e-29  5.0062e-27  1.1022e-29  8.8582e-27  1.1834e-29  1.5809e-26  1.3058e-29  2.857e-26  1.4369e-29  5.2329e-26
      3.45  1.0552e-29  3.9058e-30  1.0551e-29  5.3706e-30  1.055e-29  7.9753e-30  1.0548e-29  1.2607e-29  1.0544e-29  2.0844e-29  1.0537e-29  3.5491e-29  1.0525e-29  6.1538e-29  1.0503e-29  1.0785e-28  1.0463e-29  1.9017e-28  1.0391e-29  3.3636e-28  1.0266e-29  5.9471e-28  1.0123e-29  1.0391e-27  1.0141e-29  1.787e-27  1.0279e-29  3.106e-27  1.0549e-29  5.4515e-27  1.1034e-29  9.6355e-27  1.1872e-29  1.7174e-26  1.316e-29  3.1048e-26  1.4483e-29  5.6921e-26
      3.50  1.056e-29  4.3895e-30  1.0559e-29  5.9852e-30  1.0558e-29  8.8227e-30  1.0556e-29  1.3868e-29  1.0552e-29  2.2841e-29  1.0546e-29  3.8796e-29  1.0534e-29  6.7167e-29  1.0513e-29  1.1761e-28  1.0475e-29  2.0726e-28  1.0407e-29  3.6648e-28  1.0289e-29  6.4823e-28  1.0139e-29  1.1372e-27  1.0142e-29  1.963e-27  1.0279e-29  3.4168e-27  1.0549e-29  5.9984e-27  1.1038e-29  1.0593e-26  1.1894e-29  1.8848e-26  1.3245e-29  3.4076e-26  1.4591e-29  6.2551e-26
      3.55  1.0568e-29  4.972e-30  1.0567e-29  6.7301e-30  1.0566e-29  9.8567e-30  1.0564e-29  1.5416e-29  1.056e-29  2.5303e-29  1.0554e-29  4.2882e-29  1.0543e-29  7.414e-29  1.0522e-29  1.2971e-28  1.0486e-29  2.2848e-28  1.0422e-29  4.0389e-28  1.031e-29  7.1457e-28  1.0158e-29  1.2573e-27  1.0144e-29  2.179e-27  1.0277e-29  3.7987e-27  1.0547e-29  6.6721e-27  1.1037e-29  1.1773e-26  1.1905e-29  2.0903e-26  1.3313e-29  3.7766e-26  1.4691e-29  6.9443e-26
      3.60  1.0575e-29  5.6683e-30  1.0574e-29  7.6316e-30  1.0573e-29  1.1123e-29  1.0571e-29  1.7331e-29  1.0568e-29  2.8371e-29  1.0562e-29  4.8001e-29  1.0551e-29  8.2904e-29  1.0532e-29  1.4495e-28  1.0498e-29  2.5523e-28  1.0437e-29  4.5108e-28  1.0331e-29  7.9818e-28  1.0179e-29  1.4073e-27  1.0148e-29  2.4508e-27  1.0278e-29  4.2755e-27  1.0547e-29  7.5125e-27  1.1039e-29  1.3243e-26  1.1917e-29  2.3444e-26  1.3374e-29  4.2263e-26  1.4782e-29  7.7904e-26
      3.65  1.0582e-29  6.5085e-30  1.0581e-29  8.7331e-30  1.058e-29  1.2689e-29  1.0578e-29  1.9723e-29  1.0575e-29  3.2232e-29  1.0569e-29  5.4473e-29  1.0559e-29  9.4017e-29  1.0541e-29  1.6432e-28  1.0509e-29  2.8925e-28  1.0452e-29  5.1112e-28  1.0352e-29  9.0447e-28  1.0204e-29  1.5969e-27  1.0157e-29  2.7904e-27  1.0285e-29  4.8744e-27  1.0559e-29  8.5623e-27  1.106e-29  1.5061e-26  1.1956e-29  2.653e-26  1.3461e-29  4.7583e-26  1.4869e-29  8.8066e-26
      3.70  1.0592e-29  7.5922e-30  1.0591e-29  1.0159e-29  1.059e-29  1.4724e-29  1.0589e-29  2.2842e-29  1.0586e-29  3.7277e-29  1.058e-29  6.2942e-29  1.0571e-29  1.0857e-28  1.0554e-29  1.8969e-28  1.0524e-29  3.3382e-28  1.0471e-29  5.8978e-28  1.0378e-29  1.0435e-27  1.0235e-29  1.8436e-27  1.0177e-29  3.2294e-27  1.0311e-29  5.6435e-27  1.0602e-29  9.8929e-27  1.1133e-29  1.731e-26  1.2074e-29  3.0189e-26  1.364e-29  5.359e-26  1.496e-29  9.9933e-26
      3.75  1.0602e-29  9.6296e-30  1.0602e-29  1.2676e-29  1.0601e-29  1.8094e-29  1.0599e-29  2.7727e-29  1.0597e-29  4.4856e-29  1.0592e-29  7.5312e-29  1.0584e-29  1.2945e-28  1.0569e-29  2.2569e-28  1.0542e-29  3.9664e-28  1.0494e-29  7.0009e-28  1.0411e-29  1.2377e-27  1.028e-29  2.1856e-27  1.0221e-29  3.8313e-27  1.0376e-29  6.6843e-27  1.0711e-29  1.1649e-26  1.1311e-29  2.0138e-26  1.2346e-29  3.4423e-26  1.3955e-29  6.0086e-26  1.505e-29  1.1428e-25
      3.80  1.0973e-29  1.8496e-29  1.0972e-29  2.224e-29  1.0971e-29  2.8898e-29  1.0969e-29  4.0736e-29  1.0966e-29  6.1784e-29  1.096e-29  9.9203e-29  1.0949e-29  1.6571e-28  1.0929e-29  2.8387e-28  1.0895e-29  4.9363e-28  1.0835e-29  8.655e-28  1.0734e-29  1.5229e-27  1.0585e-29  2.6785e-27  1.0473e-29  4.684e-27  1.0584e-29  8.1426e-27  1.0963e-29  1.4009e-26  1.1664e-29  2.363e-26  1.2817e-29  3.895e-26  1.4278e-29  6.7374e-26  1.5104e-29  1.3464e-25
      3.85  1.0991e-29  7.4982e-29  1.099e-29  7.9762e-29  1.099e-29  8.8261e-29  1.0988e-29  1.0337e-28  1.0986e-29  1.3024e-28  1.0981e-29  1.7799e-28  1.0973e-29  2.6283e-28  1.0959e-29  4.1346e-28  1.0935e-29  6.8059e-28  1.0891e-29  1.1532e-27  1.0819e-29  1.9859e-27  1.0716e-29  3.4411e-27  1.0657e-29  5.9419e-27  1.0837e-29  1.0165e-26  1.1331e-29  1.7032e-26  1.2165e-29  2.7515e-26  1.3366e-29  4.3194e-26  1.4427e-29  7.7749e-26  1.5042e-29  1.6797e-25
      3.90  1.1007e-29  4.0866e-28  1.1007e-29  4.1496e-28  1.1007e-29  4.2616e-28  1.1006e-29  4.4606e-28  1.1005e-29  4.8145e-28  1.1003e-29  5.4433e-28    1.1e-29  6.5597e-28  1.0995e-29  8.5397e-28  1.0985e-29  1.2044e-27  1.0969e-29  1.8222e-27  1.0943e-29  2.9039e-27  1.0914e-29  4.7738e-27  1.0948e-29  7.9283e-27  1.1222e-29  1.3069e-26  1.183e-29  2.0897e-26  1.2717e-29  3.1727e-26  1.3757e-29  4.8589e-26  1.4411e-29  9.6308e-26  1.4802e-29  2.2561e-25
      3.95  1.1017e-29  2.1729e-27  1.1017e-29  2.1816e-27  1.1018e-29  2.197e-27  1.1019e-29  2.2244e-27  1.102e-29  2.273e-27  1.1023e-29  2.3595e-27  1.1028e-29  2.5128e-27  1.1037e-29  2.7841e-27  1.1052e-29  3.263e-27  1.108e-29  4.1026e-27  1.1129e-29  5.5584e-27  1.1222e-29  8.0256e-27  1.1412e-29  1.2082e-26  1.181e-29  1.8336e-26  1.2473e-29  2.7064e-26  1.3263e-29  3.8282e-26  1.3993e-29  6.059e-26  1.4405e-29  1.3087e-25  1.4624e-29  3.2357e-25
