# This was generated using Cloudy10 and the columns are ordered 
# as log10 of the fraction of the metallicity to the solar metallicity
# 'h_*_Z' and 'c_*_Z' stands for cooling and heating respectively 
# at * metalicity
#
# NOTE: This was generated separately from loop_coolingcurve_w_UV.py
#       using Output_metals_w_redshift.py.
#
# Redshift = 8.5
# hden = -2.5
#
#     temp   h_-3.00_Z   c_-3.00_Z   h_-2.75_Z   c_-2.75_Z   h_-2.50_Z   c_-2.50_Z   h_-2.25_Z   c_-2.25_Z   h_-2.00_Z   c_-2.00_Z   h_-1.75_Z   c_-1.75_Z   h_-1.50_Z   c_-1.50_Z   h_-1.25_Z   c_-1.25_Z   h_-1.00_Z   c_-1.00_Z   h_-0.75_Z   c_-0.75_Z   h_-0.50_Z   c_-0.50_Z   h_-0.25_Z   c_-0.25_Z    h_0.00_Z    c_0.00_Z    h_0.25_Z    c_0.25_Z    h_0.50_Z    c_0.50_Z    h_0.75_Z    c_0.75_Z    h_1.00_Z    c_1.00_Z    h_1.25_Z    c_1.25_Z    h_1.50_Z    c_1.50_Z 
      4.00  3.2991e-24  9.0992e-25  3.2992e-24  9.1479e-25  3.2993e-24  9.2346e-25  3.2996e-24  9.3887e-25  3.3000e-24  9.6627e-25  3.3008e-24  1.0150e-24  3.3022e-24  1.1017e-24  3.3046e-24  1.2558e-24  3.3090e-24  1.5299e-24  3.3168e-24  2.0175e-24  3.3306e-24  2.8848e-24  3.3552e-24  4.4283e-24  3.3989e-24  7.1764e-24  3.4765e-24  1.2074e-23  3.6143e-24  2.0817e-23  3.8584e-24  3.6471e-23  4.2902e-24  6.4647e-23  5.0524e-24  1.1582e-22  6.3949e-24  2.1022e-22
      4.05  3.0444e-24  1.0218e-24  3.0444e-24  1.0277e-24  3.0446e-24  1.0381e-24  3.0448e-24  1.0567e-24  3.0452e-24  1.0898e-24  3.0460e-24  1.1485e-24  3.0473e-24  1.2531e-24  3.0497e-24  1.4389e-24  3.0539e-24  1.7695e-24  3.0614e-24  2.3575e-24  3.0747e-24  3.4035e-24  3.0983e-24  5.2649e-24  3.1404e-24  8.5792e-24  3.2151e-24  1.4486e-23  3.3475e-24  2.5031e-23  3.5823e-24  4.3915e-23  3.9973e-24  7.7909e-23  4.7290e-24  1.3967e-22  6.0165e-24  2.5368e-22
      4.10  2.8075e-24  1.2446e-24  2.8076e-24  1.2518e-24  2.8077e-24  1.2646e-24  2.8080e-24  1.2874e-24  2.8084e-24  1.3280e-24  2.8091e-24  1.4001e-24  2.8104e-24  1.5283e-24  2.8127e-24  1.7564e-24  2.8167e-24  2.1620e-24  2.8239e-24  2.8834e-24  2.8368e-24  4.1669e-24  2.8596e-24  6.4508e-24  2.9001e-24  1.0517e-23  2.9720e-24  1.7765e-23  3.0996e-24  3.0705e-23  3.3257e-24  5.3878e-23  3.7251e-24  9.5600e-23  4.4287e-24  1.7143e-22  5.6652e-24  3.1144e-22
      4.15  2.5863e-24  1.7070e-24  2.5864e-24  1.7160e-24  2.5865e-24  1.7319e-24  2.5867e-24  1.7603e-24  2.5871e-24  1.8106e-24  2.5878e-24  1.9002e-24  2.5890e-24  2.0595e-24  2.5912e-24  2.3428e-24  2.5952e-24  2.8467e-24  2.6021e-24  3.7430e-24  2.6145e-24  5.3374e-24  2.6366e-24  8.1747e-24  2.6757e-24  1.3226e-23  2.7452e-24  2.2231e-23  2.8685e-24  3.8307e-23  3.0868e-24  6.7097e-23  3.4722e-24  1.1894e-22  4.1506e-24  2.1317e-22  5.3415e-24  3.8721e-22
      4.20  2.3766e-24  2.6328e-24  2.3766e-24  2.6441e-24  2.3768e-24  2.6640e-24  2.3770e-24  2.6995e-24  2.3774e-24  2.7626e-24  2.3780e-24  2.8748e-24  2.3792e-24  3.0744e-24  2.3814e-24  3.4294e-24  2.3852e-24  4.0606e-24  2.3919e-24  5.1834e-24  2.4040e-24  7.1809e-24  2.4254e-24  1.0735e-23  2.4633e-24  1.7065e-23  2.5308e-24  2.8345e-23  2.6503e-24  4.8485e-23  2.8620e-24  8.4555e-23  3.2356e-24  1.4950e-22  3.8928e-24  2.6757e-22  5.0457e-24  4.8566e-22
      4.25  2.1706e-24  4.3495e-24  2.1707e-24  4.3637e-24  2.1708e-24  4.3888e-24  2.1710e-24  4.4335e-24  2.1714e-24  4.5130e-24  2.1720e-24  4.6543e-24  2.1732e-24  4.9057e-24  2.1753e-24  5.3527e-24  2.1790e-24  6.1477e-24  2.1856e-24  7.5618e-24  2.1973e-24  1.0077e-23  2.2182e-24  1.4554e-23  2.2553e-24  2.2525e-23  2.3211e-24  3.6732e-23  2.4378e-24  6.2097e-23  2.6444e-24  1.0752e-22  3.0090e-24  1.8932e-22  3.6504e-24  3.3800e-22  4.7763e-24  6.1264e-22
      4.30  1.9551e-24  7.2263e-24  1.9552e-24  7.2441e-24  1.9553e-24  7.2759e-24  1.9555e-24  7.3323e-24  1.9558e-24  7.4326e-24  1.9565e-24  7.6111e-24  1.9576e-24  7.9285e-24  1.9597e-24  8.4929e-24  1.9634e-24  9.4967e-24  1.9698e-24  1.1282e-23  1.9814e-24  1.4459e-23  2.0019e-24  2.0111e-23  2.0384e-24  3.0175e-23  2.1032e-24  4.8113e-23  2.2180e-24  8.0137e-23  2.4214e-24  1.3749e-22  2.7806e-24  2.4075e-22  3.4133e-24  4.2842e-22  4.5263e-24  7.7497e-22
      4.35  1.7122e-24  1.1430e-23  1.7124e-24  1.1454e-23  1.7125e-24  1.1494e-23  1.7127e-24  1.1565e-23  1.7130e-24  1.1692e-23  1.7136e-24  1.1918e-23  1.7148e-24  1.2320e-23  1.7168e-24  1.3034e-23  1.7204e-24  1.4305e-23  1.7269e-24  1.6567e-23  1.7384e-24  2.0589e-23  1.7587e-24  2.7746e-23  1.7949e-24  4.0489e-23  1.8592e-24  6.3200e-23  1.9732e-24  1.0375e-22  2.1753e-24  1.7636e-22  2.5328e-24  3.0708e-22  3.1646e-24  5.4461e-22  4.2809e-24  9.8305e-22
      4.40  1.4307e-24  1.6501e-23  1.4308e-24  1.6530e-23  1.4309e-24  1.6581e-23  1.4311e-24  1.6672e-23  1.4315e-24  1.6834e-23  1.4321e-24  1.7122e-23  1.4333e-24  1.7634e-23  1.4353e-24  1.8545e-23  1.4389e-24  2.0165e-23  1.4453e-24  2.3046e-23  1.4568e-24  2.8171e-23  1.4771e-24  3.7292e-23  1.5132e-24  5.3532e-23  1.5773e-24  8.2475e-23  1.6913e-24  1.3415e-22  1.8936e-24  2.2667e-22  2.2526e-24  3.9324e-22  2.8900e-24  6.9586e-22  4.0245e-24  1.2543e-21
      4.45  1.1239e-24  2.1113e-23  1.1240e-24  2.1150e-23  1.1241e-24  2.1216e-23  1.1243e-24  2.1333e-23  1.1247e-24  2.1540e-23  1.1253e-24  2.1910e-23  1.1265e-24  2.2567e-23  1.1285e-24  2.3736e-23  1.1321e-24  2.5815e-23  1.1385e-24  2.9512e-23  1.1499e-24  3.6090e-23  1.1702e-24  4.7795e-23  1.2062e-24  6.8635e-23  1.2704e-24  1.0578e-22  1.3844e-24  1.7208e-22  1.5873e-24  2.9081e-22  1.9489e-24  5.0453e-22  2.5946e-24  8.9276e-22  3.7541e-24  1.6089e-21
      4.50  8.3327e-25  2.3814e-23  8.3333e-25  2.3862e-23  8.3345e-25  2.3946e-23  8.3365e-25  2.4097e-23  8.3401e-25  2.4364e-23  8.3465e-25  2.4839e-23  8.3578e-25  2.5684e-23  8.3780e-25  2.7186e-23  8.4140e-25  2.9858e-23  8.4778e-25  3.4611e-23  8.5915e-25  4.3066e-23  8.7937e-25  5.8111e-23  9.1534e-25  8.4899e-23  9.7936e-25  1.3264e-22  1.0933e-24  2.1786e-22  1.2966e-24  3.7046e-22  1.6600e-24  6.4512e-22  2.3123e-24  1.1440e-21  3.4932e-24  2.0639e-21
      4.55  5.9793e-25  2.4214e-23  5.9799e-25  2.4275e-23  5.9810e-25  2.4383e-23  5.9831e-25  2.4576e-23  5.9866e-25  2.4919e-23  5.9930e-25  2.5529e-23  6.0044e-25  2.6613e-23  6.0245e-25  2.8541e-23  6.0603e-25  3.1971e-23  6.1241e-25  3.8071e-23  6.2375e-25  4.8922e-23  6.4393e-25  6.8231e-23  6.7985e-25  1.0261e-22  7.4379e-25  1.6388e-22  8.5773e-25  2.7325e-22  1.0611e-24  4.6908e-22  1.4254e-24  8.2153e-22  2.0814e-24  1.4616e-21  3.2737e-24  2.6415e-21
      4.60  4.2764e-25  2.3124e-23  4.2771e-25  2.3202e-23  4.2782e-25  2.3341e-23  4.2802e-25  2.3587e-23  4.2838e-25  2.4026e-23  4.2901e-25  2.4806e-23  4.3014e-25  2.6194e-23  4.3214e-25  2.8661e-23  4.3571e-25  3.3049e-23  4.4206e-25  4.0854e-23  4.5335e-25  5.4739e-23  4.7345e-25  7.9446e-23  5.0922e-25  1.2344e-22  5.7290e-25  2.0183e-22  6.8639e-25  3.4178e-22  8.8901e-25  5.9235e-22  1.2519e-24  1.0433e-21  1.9055e-24  1.8621e-21  3.0939e-24  3.3714e-21
      4.65  3.0908e-25  2.2143e-23  3.0914e-25  2.2243e-23  3.0925e-25  2.2419e-23  3.0945e-25  2.2734e-23  3.0980e-25  2.3292e-23  3.1042e-25  2.4286e-23  3.1153e-25  2.6053e-23  3.1349e-25  2.9196e-23  3.1699e-25  3.4785e-23  3.2325e-25  4.4727e-23  3.3442e-25  6.2412e-23  3.5430e-25  9.3883e-23  3.8967e-25  1.4991e-22  4.5261e-25  2.4977e-22  5.6474e-25  4.2804e-22  7.6475e-25  7.4721e-22  1.1224e-24  1.3216e-21  1.7649e-24  2.3647e-21  2.9281e-24  4.2875e-21
      4.70  2.2507e-25  2.3203e-23  2.2513e-25  2.3329e-23  2.2524e-25  2.3553e-23  2.2542e-25  2.3950e-23  2.2576e-25  2.4657e-23  2.2635e-25  2.5914e-23  2.2740e-25  2.8150e-23  2.2928e-25  3.2126e-23  2.3267e-25  3.9198e-23  2.3869e-25  5.1776e-23  2.4942e-25  7.4151e-23  2.6850e-25  1.1397e-22  3.0244e-25  1.8486e-22  3.6285e-25  3.1121e-22  4.7044e-25  5.3678e-22  6.6226e-25  9.4067e-22  1.0050e-24  1.6677e-21  1.6201e-24  2.9880e-21  2.7312e-24  5.4225e-21
      4.75  1.6407e-25  2.9147e-23  1.6412e-25  2.9305e-23  1.6422e-25  2.9585e-23  1.6439e-25  3.0083e-23  1.6469e-25  3.0968e-23  1.6523e-25  3.2543e-23  1.6619e-25  3.5343e-23  1.6792e-25  4.0323e-23  1.7101e-25  4.9179e-23  1.7651e-25  6.4932e-23  1.8630e-25  9.2956e-23  2.0372e-25  1.4283e-22  2.3470e-25  2.3162e-22  2.8983e-25  3.8988e-22  3.8800e-25  6.7244e-22  5.6296e-25  1.1785e-21  8.7541e-25  2.0895e-21  1.4354e-24  3.7447e-21  2.4447e-24  6.7985e-21
      4.80  1.1832e-25  4.3369e-23  1.1837e-25  4.3563e-23  1.1845e-25  4.3910e-23  1.1859e-25  4.4525e-23  1.1886e-25  4.5620e-23  1.1932e-25  4.7567e-23  1.2014e-25  5.1030e-23  1.2163e-25  5.7189e-23  1.2428e-25  6.8141e-23  1.2901e-25  8.7622e-23  1.3742e-25  1.2228e-22  1.5237e-25  1.8396e-22  1.7897e-25  2.9378e-22  2.2630e-25  4.8953e-22  3.1055e-25  8.3907e-22  4.6064e-25  1.4652e-21  7.2841e-25  2.5929e-21  1.2076e-24  4.6432e-21  2.0689e-24  8.4298e-21
      4.85  8.0919e-26  6.4917e-23  8.0956e-26  6.5154e-23  8.1023e-26  6.5576e-23  8.1141e-26  6.6326e-23  8.1352e-26  6.7660e-23  8.1727e-26  7.0031e-23  8.2393e-26  7.4248e-23  8.3583e-26  8.1748e-23  8.5718e-26  9.5087e-23  8.9519e-26  1.1881e-22  9.6276e-26  1.6102e-22  1.0830e-25  2.3614e-22  1.2968e-25  3.6990e-22  1.6771e-25  6.0835e-22  2.3538e-25  1.0342e-21  3.5585e-25  1.7972e-21  5.7053e-25  3.1722e-21  9.5398e-25  5.6742e-21  1.6412e-24  1.0302e-20
      4.90  4.9721e-26  8.1128e-23  4.9749e-26  8.1410e-23  4.9801e-26  8.1910e-23  4.9892e-26  8.2801e-23  5.0053e-26  8.4384e-23  5.0341e-26  8.7201e-23  5.0854e-26  9.2209e-23  5.1767e-26  1.0111e-22  5.3394e-26  1.1695e-22  5.6289e-26  1.4513e-22  6.1436e-26  1.9525e-22  7.0591e-26  2.8446e-22  8.6873e-26  4.4331e-22  1.1582e-25  7.2648e-22  1.6727e-25  1.2322e-21  2.5877e-25  2.1385e-21  4.2163e-25  3.7721e-21  7.1193e-25  6.7460e-21  1.2309e-24  1.2252e-20
      4.95  2.8139e-26  8.0577e-23  2.8161e-26  8.0900e-23  2.8199e-26  8.1475e-23  2.8267e-26  8.2497e-23  2.8388e-26  8.4315e-23  2.8604e-26  8.7546e-23  2.8988e-26  9.3294e-23  2.9675e-26  1.0352e-22  3.0901e-26  1.2169e-22  3.3081e-26  1.5403e-22  3.6958e-26  2.1156e-22  4.3848e-26  3.1394e-22  5.6085e-26  4.9626e-22  7.7806e-26  8.2127e-22  1.1636e-25  1.4018e-21  1.8483e-25  2.4422e-21  3.0641e-25  4.3179e-21  5.2283e-25  7.7341e-21  9.0891e-25  1.4064e-20
      5.00  1.6088e-26  6.9046e-23  1.6104e-26  6.9402e-23  1.6132e-26  7.0035e-23  1.6182e-26  7.1161e-23  1.6272e-26  7.3164e-23  1.6432e-26  7.6724e-23  1.6720e-26  8.3057e-23  1.7236e-26  9.4318e-23  1.8160e-26  1.1435e-22  1.9807e-26  1.4997e-22  2.2719e-26  2.1336e-22  2.7879e-26  3.2617e-22  3.7011e-26  5.2708e-22  5.3158e-26  8.8530e-22  8.1709e-26  1.5253e-21  1.3227e-25  2.6730e-21  2.2192e-25  4.7439e-21  3.8131e-25  8.5215e-21  6.6524e-25  1.5540e-20
      5.05  9.8648e-27  5.5842e-23  9.8765e-27  5.6208e-23  9.8973e-27  5.6859e-23  9.9347e-27  5.8016e-23  1.0002e-26  6.0073e-23  1.0124e-26  6.3732e-23  1.0343e-26  7.0239e-23  1.0746e-26  8.1811e-23  1.1474e-26  1.0239e-22  1.2741e-26  1.3900e-22  1.4970e-26  2.0414e-22  1.8885e-26  3.2008e-22  2.5752e-26  5.2659e-22  3.7783e-26  8.9489e-22  5.8929e-26  1.5532e-21  9.6235e-26  2.7346e-21  1.6232e-25  4.8694e-21  2.7968e-25  8.7726e-21  4.8831e-25  1.6052e-20
      5.10  6.5442e-27  4.4732e-23  6.5532e-27  4.5088e-23  6.5696e-27  4.5722e-23  6.5995e-27  4.6849e-23  6.6550e-27  4.8853e-23  6.7543e-27  5.2416e-23  6.9395e-27  5.8754e-23  7.2920e-27  7.0024e-23  7.9010e-27  9.0070e-23  8.9510e-27  1.2573e-22  1.0760e-26  1.8918e-22  1.3879e-26  3.0212e-22  1.9261e-26  5.0332e-22  2.8580e-26  8.6226e-22  4.4859e-26  1.5042e-21  7.3390e-26  2.6570e-21  1.2381e-25  4.7432e-21  2.1343e-25  8.5670e-21  3.7295e-25  1.5727e-20
      5.15  4.6385e-27  3.6272e-23  4.6463e-27  3.6626e-23  4.6608e-27  3.7256e-23  4.6885e-27  3.8376e-23  4.7391e-27  4.0369e-23  4.8332e-27  4.3912e-23  5.0176e-27  5.0212e-23  5.3523e-27  6.1417e-23  5.9179e-27  8.1346e-23  6.8671e-27  1.1680e-22  8.4493e-27  1.7988e-22  1.1116e-26  2.9219e-22  1.5647e-26  4.9228e-22  2.3418e-26  8.4932e-22  3.6675e-26  1.4881e-21  6.0124e-26  2.6361e-21  1.0174e-25  4.7161e-21  1.7576e-25  8.5365e-21  3.0758e-25  1.5715e-20
      5.20  3.4612e-27  3.0037e-23  3.4685e-27  3.0402e-23  3.4830e-27  3.1052e-23  3.5121e-27  3.2207e-23  3.5639e-27  3.4261e-23  3.6673e-27  3.7913e-23  3.8748e-27  4.4409e-23  4.2020e-27  5.5962e-23  4.7470e-27  7.6510e-23  5.6480e-27  1.1306e-22  7.1058e-27  1.7811e-22  9.5029e-27  2.9392e-22  1.3496e-26  5.0027e-22  2.0060e-26  8.6856e-22  3.1650e-26  1.5277e-21  5.2217e-26  2.7130e-21  8.8783e-26  4.8629e-21  1.5387e-25  8.8185e-21  2.6990e-25  1.6272e-20
      5.25  2.6879e-27  2.5469e-23  2.6955e-27  2.5846e-23  2.7113e-27  2.6515e-23  2.7442e-27  2.7706e-23  2.8075e-27  2.9823e-23  2.9206e-27  3.3587e-23  3.1329e-27  4.0282e-23  3.4610e-27  5.2189e-23  3.9828e-27  7.3369e-23  4.8306e-27  1.1105e-22  6.1854e-27  1.7809e-22  8.3725e-27  2.9747e-22  1.1726e-26  5.1021e-22  1.7625e-26  8.8998e-22  2.8070e-26  1.5699e-21  4.6609e-26  2.7934e-21  7.9551e-26  5.0149e-21  1.3821e-25  9.1098e-21  2.4296e-25  1.6849e-20
      5.30  2.1557e-27  2.2129e-23  2.1643e-27  2.2511e-23  2.1843e-27  2.3192e-23  2.2291e-27  2.4403e-23  2.2929e-27  2.6557e-23  2.4093e-27  3.0386e-23  2.6183e-27  3.7195e-23  2.9336e-27  4.9307e-23  3.4388e-27  7.0850e-23  4.2168e-27  1.0918e-22  5.5086e-27  1.7738e-22  7.3246e-27  2.9882e-22  1.0374e-26  5.1528e-22  1.5652e-26  9.0176e-22  2.4943e-26  1.5940e-21  4.1425e-26  2.8405e-21  7.0594e-26  5.1064e-21  1.2260e-25  9.2917e-21  2.1554e-25  1.7227e-20
      5.35  1.7767e-27  1.9710e-23  1.7880e-27  2.0100e-23  1.8162e-27  2.0793e-23  1.8612e-27  2.2026e-23  1.9273e-27  2.4218e-23  2.0402e-27  2.8117e-23  2.2432e-27  3.5050e-23  2.5446e-27  4.7381e-23  3.0171e-27  6.9314e-23  3.7969e-27  1.0833e-22  4.9445e-27  1.7778e-22  6.5109e-27  3.0144e-22  9.2221e-27  5.2188e-22  1.3956e-26  9.1556e-22  2.2297e-26  1.6209e-21  3.6983e-26  2.8921e-21  6.3128e-26  5.2056e-21  1.0974e-25  9.4874e-21  1.9312e-25  1.7632e-20
      5.40  1.4984e-27  1.7960e-23  1.5120e-27  1.8339e-23  1.5424e-27  1.9015e-23  1.5821e-27  2.0215e-23  1.6481e-27  2.2351e-23  1.7512e-27  2.6148e-23  1.9337e-27  3.2901e-23  2.2453e-27  4.4912e-23  2.7082e-27  6.6276e-23  3.4931e-27  1.0428e-22  4.3979e-27  1.7193e-22  5.8136e-27  2.9241e-22  8.2681e-27  5.0719e-22  1.2536e-26  8.9089e-22  2.0041e-26  1.5787e-21  3.3217e-26  2.8192e-21  5.6581e-26  5.0802e-21  9.8286e-26  9.2749e-21  1.7297e-25  1.7284e-20
      5.45  1.2869e-27  1.6680e-23  1.2975e-27  1.6998e-23  1.3242e-27  1.7564e-23  1.3577e-27  1.8570e-23  1.4123e-27  2.0360e-23  1.5085e-27  2.3542e-23  1.6704e-27  2.9203e-23  1.9444e-27  3.9270e-23  2.4291e-27  5.7176e-23  3.1913e-27  8.9033e-23  3.9377e-27  1.4574e-22  5.1993e-27  2.4673e-22  7.3481e-27  4.2683e-22  1.0959e-26  7.4868e-22  1.7264e-26  1.3260e-21  2.8343e-26  2.3684e-21  4.7978e-26  4.2721e-21  8.3011e-26  7.8151e-21  1.4589e-25  1.4615e-20
      5.50  1.1236e-27  1.5761e-23  1.1290e-27  1.5990e-23  1.1419e-27  1.6399e-23  1.1737e-27  1.7124e-23  1.2209e-27  1.8415e-23  1.3021e-27  2.0710e-23  1.4495e-27  2.4791e-23  1.7097e-27  3.2050e-23  2.1541e-27  4.4961e-23  2.8294e-27  6.7933e-23  3.5845e-27  1.0882e-22  4.7097e-27  1.8166e-22  6.3884e-27  3.1158e-22  9.2748e-27  5.4384e-22  1.4200e-26  9.6073e-22  2.2860e-26  1.7143e-21  3.8224e-26  3.0931e-21  6.5630e-26  5.6675e-21  1.1481e-25  1.0633e-20
      5.55  9.9810e-28  1.5242e-23  1.0013e-27  1.5414e-23  1.0089e-27  1.5721e-23  1.0268e-27  1.6267e-23  1.0684e-27  1.7238e-23  1.1499e-27  1.8964e-23  1.2978e-27  2.2033e-23  1.5612e-27  2.7492e-23  2.0053e-27  3.7203e-23  2.6015e-27  5.4481e-23  3.3138e-27  8.5238e-23  4.2473e-27  1.4003e-22  5.6574e-27  2.3778e-22  7.9358e-27  4.1256e-22  1.1865e-26  7.2642e-22  1.8776e-26  1.2942e-21  3.1048e-26  2.3343e-21  5.2956e-26  4.2802e-21  9.2214e-26  8.0450e-21
      5.60  9.0024e-28  1.5070e-23  9.0795e-28  1.5373e-23  9.1058e-28  1.5487e-23  9.2853e-28  1.5961e-23  9.6224e-28  1.6804e-23  1.0380e-27  1.8302e-23  1.1985e-27  2.0967e-23  1.4735e-27  2.5708e-23  1.9529e-27  3.4139e-23  2.4411e-27  4.9143e-23  3.0826e-27  7.5852e-23  3.8158e-27  1.2344e-22  4.9645e-27  2.0833e-22  6.9055e-27  3.6015e-22  1.0280e-26  6.3285e-22  1.6182e-26  1.1264e-21  2.6650e-26  2.0311e-21  4.5330e-26  3.7257e-21  7.8835e-26  7.0113e-21
      5.65  8.2275e-28  1.5184e-23  8.2614e-28  1.5328e-23  8.3447e-28  1.5582e-23  8.5510e-28  1.6034e-23  8.9463e-28  1.6839e-23  9.7242e-28  1.8270e-23  1.1280e-27  2.0815e-23  1.4174e-27  2.5340e-23  1.9063e-27  3.3390e-23  2.3357e-27  4.7716e-23  2.8808e-27  7.3220e-23  3.4880e-27  1.1866e-22  4.5090e-27  1.9972e-22  6.2320e-27  3.4472e-22  9.2575e-27  6.0520e-22  1.4546e-26  1.0767e-21  2.3936e-26  1.9417e-21  4.0690e-26  3.5631e-21  7.0734e-26  6.7103e-21
      5.70  7.6064e-28  1.5540e-23  7.6899e-28  1.5837e-23  7.7385e-28  1.5929e-23  7.9875e-28  1.6372e-23  8.4017e-28  1.7160e-23  9.2520e-28  1.8560e-23  1.0951e-27  2.1051e-23  1.4108e-27  2.5480e-23  1.8105e-27  3.3360e-23  2.1688e-27  4.7383e-23  2.6103e-27  7.2348e-23  3.1772e-27  1.1683e-22  4.0962e-27  1.9618e-22  5.6615e-27  3.3814e-22  8.4184e-27  5.9319e-22  1.3272e-26  1.0551e-21  2.1884e-26  1.9026e-21  3.7266e-26  3.4929e-21  6.4892e-26  6.5832e-21
      5.75  7.1005e-28  1.6057e-23  7.1384e-28  1.6190e-23  7.2374e-28  1.6428e-23  7.4795e-28  1.6849e-23  7.9515e-28  1.7599e-23  8.8819e-28  1.8933e-23  1.0786e-27  2.1304e-23  1.3825e-27  2.5522e-23  1.6419e-27  3.3026e-23  1.9346e-27  4.6379e-23  2.2764e-27  7.0152e-23  2.7994e-27  1.1251e-22  3.6345e-27  1.8808e-22  5.0732e-27  3.2329e-22  7.5887e-27  5.6626e-22  1.2024e-26  1.0064e-21  1.9920e-26  1.8146e-21  3.4047e-26  3.3322e-21  5.9487e-26  6.2859e-21
      5.80  6.6872e-28  1.6815e-23  6.7236e-28  1.6938e-23  6.8179e-28  1.7155e-23  7.0550e-28  1.7543e-23  7.5578e-28  1.8231e-23  8.6275e-28  1.9456e-23  1.0426e-27  2.1633e-23  1.2701e-27  2.5507e-23  1.4693e-27  3.2400e-23  1.7256e-27  4.4664e-23  2.0037e-27  6.6499e-23  2.4951e-27  1.0540e-22  3.2657e-27  1.7482e-22  4.5753e-27  2.9903e-22  6.8805e-27  5.2230e-22  1.0957e-26  9.2689e-22  1.8220e-26  1.6703e-21  3.1257e-26  3.0679e-21  5.4844e-26  5.7922e-21
      5.85  6.3498e-28  1.7806e-23  6.3887e-28  1.7922e-23  6.4880e-28  1.8127e-23  6.7297e-28  1.8492e-23  7.2992e-28  1.9142e-23  8.4825e-28  2.0296e-23  9.8236e-28  2.2350e-23  1.1651e-27  2.6003e-23  1.3367e-27  3.2501e-23  1.5730e-27  4.4066e-23  1.8575e-27  6.4655e-23  2.2867e-27  1.0134e-22  3.0060e-27  1.6681e-22  4.2327e-27  2.8396e-22  6.3983e-27  4.9459e-22  1.0232e-26  8.7641e-22  1.7088e-26  1.5784e-21  2.9437e-26  2.8996e-21  5.1921e-26  5.4791e-21
      5.90  6.0727e-28  1.9036e-23  6.1173e-28  1.9151e-23  6.2313e-28  1.9356e-23  6.5004e-28  1.9720e-23  7.1169e-28  2.0369e-23  8.2064e-28  2.1521e-23  9.5383e-28  2.3571e-23  1.0858e-27  2.7218e-23  1.2674e-27  3.3706e-23  1.4770e-27  4.5252e-23  1.7411e-27  6.5808e-23  2.1422e-27  1.0244e-22  2.8346e-27  1.6781e-22  4.0381e-27  2.8479e-22  6.1507e-27  4.9517e-22  9.9103e-27  8.7667e-22  1.6656e-26  1.5785e-21  2.8875e-26  2.9006e-21  5.1320e-26  5.4857e-21
      5.95  5.8402e-28  2.0503e-23  5.8877e-28  2.0621e-23  6.0084e-28  2.0830e-23  6.3031e-28  2.1202e-23  6.9693e-28  2.1864e-23  8.0645e-28  2.3040e-23  9.3400e-28  2.5133e-23  1.0665e-27  2.8855e-23  1.2138e-27  3.5478e-23  1.3992e-27  4.7262e-23  1.6708e-27  6.8244e-23  2.0601e-27  1.0563e-22  2.7277e-27  1.7236e-22  3.9066e-27  2.9180e-22  5.9920e-27  5.0663e-22  9.7080e-27  8.9635e-22  1.6402e-26  1.6137e-21  2.8592e-26  2.9664e-21  5.1187e-26  5.6154e-21
      6.00  5.6424e-28  2.2214e-23  5.6874e-28  2.2332e-23  5.8037e-28  2.2542e-23  6.0939e-28  2.2915e-23  6.7594e-28  2.3579e-23  7.9846e-28  2.4759e-23  9.2405e-28  2.6858e-23  1.0490e-27  3.0593e-23  1.1914e-27  3.7236e-23  1.3762e-27  4.9059e-23  1.6356e-27  7.0109e-23  2.0446e-27  1.0762e-22  2.7365e-27  1.7458e-22  3.9579e-27  2.9443e-22  6.1313e-27  5.1006e-22  1.0032e-26  9.0140e-22  1.7086e-26  1.6222e-21  3.0024e-26  2.9829e-21  5.4286e-26  5.6520e-21
      6.05  5.4734e-28  2.4199e-23  5.5112e-28  2.4314e-23  5.6110e-28  2.4518e-23  5.8722e-28  2.4880e-23  6.4849e-28  2.5525e-23  7.8081e-28  2.6672e-23  9.1242e-28  2.8711e-23  1.0384e-27  3.2339e-23  1.1788e-27  3.8794e-23  1.3552e-27  5.0280e-23  1.6021e-27  7.0731e-23  2.0166e-27  1.0718e-22  2.7323e-27  1.7224e-22  3.9989e-27  2.8872e-22  6.2605e-27  4.9833e-22  1.0328e-26  8.7892e-22  1.7715e-26  1.5805e-21  3.1353e-26  2.9065e-21  5.7201e-26  5.5127e-21
      6.10  5.3307e-28  2.6465e-23  5.3620e-28  2.6574e-23  5.4438e-28  2.6768e-23  5.6568e-28  2.7112e-23  6.1830e-28  2.7723e-23  7.3523e-28  2.8811e-23  8.7396e-28  3.0746e-23  1.0098e-27  3.4187e-23  1.1372e-27  4.0311e-23  1.2945e-27  5.1209e-23  1.5489e-27  7.0612e-23  1.9699e-27  1.0519e-22  2.7088e-27  1.6693e-22  4.0247e-27  2.7747e-22  6.3757e-27  4.7645e-22  1.0612e-26  8.3792e-22  1.8337e-26  1.5048e-21  3.2682e-26  2.7668e-21  6.0122e-26  5.2519e-21
      6.15  5.2120e-28  2.9038e-23  5.2402e-28  2.9139e-23  5.3112e-28  2.9319e-23  5.4939e-28  2.9638e-23  5.9180e-28  3.0206e-23  6.7423e-28  3.1215e-23  7.7742e-28  3.3010e-23  9.2011e-28  3.6202e-23  1.0435e-27  4.1883e-23  1.2021e-27  5.1992e-23  1.4574e-27  6.9992e-23  1.8809e-27  1.0207e-22  2.6323e-27  1.5935e-22  3.9692e-27  2.6193e-22  6.3674e-27  4.4664e-22  1.0697e-26  7.8233e-22  1.8613e-26  1.4022e-21  3.3387e-26  2.5767e-21  6.1864e-26  4.8941e-21
      6.20  5.1114e-28  3.1947e-23  5.1385e-28  3.2037e-23  5.2034e-28  3.2198e-23  5.3569e-28  3.2483e-23  5.6633e-28  3.2990e-23  6.2318e-28  3.3892e-23  6.9640e-28  3.5496e-23  7.9439e-28  3.8348e-23  9.1669e-28  4.3423e-23  1.0790e-27  5.2455e-23  1.3242e-27  6.8537e-23  1.7458e-27  9.7203e-23  2.4820e-27  1.4839e-22  3.7978e-27  2.4007e-22  6.1583e-27  4.0520e-22  1.0428e-26  7.0546e-22  1.8255e-26  1.2604e-21  3.2923e-26  2.3133e-21  6.1376e-26  4.3952e-21
      6.25  5.0222e-28  3.5225e-23  5.0464e-28  3.5301e-23  5.1017e-28  3.5436e-23  5.2126e-28  3.5677e-23  5.4309e-28  3.6104e-23  5.8287e-28  3.6863e-23  6.3201e-28  3.8213e-23  7.0338e-28  4.0615e-23  8.0173e-28  4.4887e-23  9.4679e-28  5.2490e-23  1.1776e-27  6.6028e-23  1.5747e-27  9.0160e-23  2.2710e-27  1.3325e-22  3.5103e-27  2.1046e-22  5.7325e-27  3.4956e-22  9.7583e-27  6.0263e-22  1.7155e-26  1.0708e-21  3.1065e-26  1.9604e-21  5.8195e-26  3.7232e-21
      6.30  4.9431e-28  3.8940e-23  4.9620e-28  3.9001e-23  5.0000e-28  3.9109e-23  5.0834e-28  3.9300e-23  5.2300e-28  3.9641e-23  5.5029e-28  4.0247e-23  5.8048e-28  4.1325e-23  6.3353e-28  4.3243e-23  7.1547e-28  4.6653e-23  8.3557e-28  5.2723e-23  1.0434e-27  6.3531e-23  1.3988e-27  8.2798e-23  2.0282e-27  1.1721e-22  3.1456e-27  1.7886e-22  5.1519e-27  2.8999e-22  8.7904e-27  4.9228e-22  1.5489e-26  8.6683e-22  2.8124e-26  1.5797e-21  5.2887e-26  2.9957e-21
      6.35  4.8747e-28  4.3121e-23  4.8879e-28  4.3169e-23  4.9154e-28  4.3254e-23  4.9693e-28  4.3406e-23  5.0797e-28  4.3676e-23  5.2759e-28  4.4156e-23  5.4608e-28  4.5009e-23  5.8040e-28  4.6527e-23  6.4285e-28  4.9227e-23  7.5247e-28  5.4032e-23  9.3120e-28  6.2588e-23  1.2474e-27  7.7841e-23  1.8024e-27  1.0508e-22  2.7911e-27  1.5391e-22  4.5717e-27  2.4194e-22  7.8049e-27  4.0228e-22  1.3768e-26  6.9944e-22  2.5050e-26  1.2659e-21  4.7259e-26  2.3936e-21
      6.40  4.8152e-28  4.7821e-23  4.8263e-28  4.7860e-23  4.8474e-28  4.7929e-23  4.8853e-28  4.8053e-23  4.9574e-28  4.8272e-23  5.1075e-28  4.8661e-23  5.2477e-28  4.9353e-23  5.4955e-28  5.0585e-23  5.9722e-28  5.2775e-23  6.8823e-28  5.6674e-23  8.5208e-28  6.3615e-23  1.1410e-27  7.5990e-23  1.6514e-27  9.8095e-23  2.5635e-27  1.3772e-22  4.2098e-27  2.0918e-22  7.2033e-27  3.3943e-22  1.2736e-26  5.8103e-22  2.3236e-26  1.0423e-21  4.4003e-26  1.9626e-21
      6.45  4.7635e-28  5.3098e-23  4.7735e-28  5.3130e-23  4.7898e-28  5.3188e-23  4.8201e-28  5.3289e-23  4.8725e-28  5.3470e-23  4.9771e-28  5.3792e-23  5.1231e-28  5.4363e-23  5.3377e-28  5.5380e-23  5.7579e-28  5.7189e-23  6.5676e-28  6.0408e-23  8.0850e-28  6.6139e-23  1.0832e-27  7.6357e-23  1.5754e-27  9.4611e-23  2.4622e-27  1.2734e-22  4.0600e-27  1.8638e-22  6.9714e-27  2.9403e-22  1.2364e-26  4.9389e-22  2.2630e-26  8.7594e-22  4.3019e-26  1.6396e-21
      6.50  4.7176e-28  5.9018e-23  4.7712e-28  5.9635e-23  4.7394e-28  5.9092e-23  4.7632e-28  5.9176e-23  4.8033e-28  5.9325e-23  4.8820e-28  5.9591e-23  4.9886e-28  6.0064e-23  5.1679e-28  6.0904e-23  5.5098e-28  6.2399e-23  6.1763e-28  6.5059e-23  7.4570e-28  6.9796e-23  9.8572e-28  7.8240e-23  1.4226e-27  9.3327e-23  2.2123e-27  1.2038e-22  3.6421e-27  1.6919e-22  6.2525e-27  2.5822e-22  1.1096e-26  4.2393e-22  2.0336e-26  7.4070e-22  3.8748e-26  1.3752e-21
      6.55  4.6776e-28  6.5686e-23  4.6854e-28  6.5708e-23  4.6951e-28  6.5748e-23  4.7130e-28  6.5818e-23  4.7463e-28  6.5944e-23  4.8077e-28  6.6166e-23  4.8953e-28  6.6563e-23  5.0383e-28  6.7268e-23  5.3289e-28  6.8521e-23  5.9033e-28  7.0752e-23  7.0288e-28  7.4724e-23  9.1780e-28  8.1805e-23  1.3171e-27  9.4456e-23  2.0461e-27  1.1714e-22  3.3703e-27  1.5808e-22  5.7924e-27  2.3278e-22  1.0296e-26  3.7161e-22  1.8906e-26  6.3744e-22  3.6103e-26  1.1701e-21
      6.60  4.6427e-28  7.3160e-23  4.6489e-28  7.3179e-23  4.6569e-28  7.3213e-23  4.7153e-28  7.4007e-23  4.6969e-28  7.3382e-23  4.7498e-28  7.3575e-23  4.8244e-28  7.3917e-23  4.9451e-28  7.4526e-23  5.1993e-28  7.5609e-23  5.7204e-28  7.7536e-23  6.7560e-28  8.0968e-23  8.7630e-28  8.7087e-23  1.2544e-27  9.8019e-23  1.9527e-27  1.1762e-22  3.2305e-27  1.5300e-22  5.5737e-27  2.1757e-22  9.9385e-27  3.3759e-22  1.8300e-26  5.6805e-22  3.5036e-26  1.0296e-21
      6.65  4.6124e-28  8.1534e-23  4.6169e-28  8.1551e-23  4.6239e-28  8.1582e-23  4.6344e-28  8.1636e-23  4.6562e-28  8.1733e-23  4.7026e-28  8.1904e-23  4.7699e-28  8.2210e-23  4.8790e-28  8.2754e-23  5.1186e-28  8.3721e-23  5.6200e-28  8.5442e-23  6.6280e-28  8.8506e-23  8.5997e-28  9.3969e-23  1.2353e-27  1.0373e-22  1.9354e-27  1.2123e-22  3.2906e-27  1.5423e-22  5.7171e-27  2.1303e-22  1.0245e-26  3.2235e-22  1.8934e-26  5.3199e-22  3.6366e-26  9.5332e-22
      6.70  4.5857e-28  9.0916e-23  4.5889e-28  9.0932e-23  4.5946e-28  9.0961e-23  4.6044e-28  9.1012e-23  4.6240e-28  9.1104e-23  4.6713e-28  9.1267e-23  4.7509e-28  9.1556e-23  4.8867e-28  9.2070e-23  5.1802e-28  9.2986e-23  5.7872e-28  9.4615e-23  6.9938e-28  9.7515e-23  9.3377e-28  1.0269e-22  1.3794e-27  1.1193e-22  2.2109e-27  1.2849e-22  3.7461e-27  1.5840e-22  6.5782e-27  2.1299e-22  1.1969e-26  3.1730e-22  2.2225e-26  5.1446e-22  4.4949e-26  9.5528e-22
      6.75  4.5624e-28  1.0143e-22  4.6086e-28  1.0246e-22  4.5693e-28  1.0147e-22  4.5783e-28  1.0152e-22  4.5990e-28  1.0161e-22  4.6512e-28  1.0177e-22  4.7437e-28  1.0205e-22  4.9117e-28  1.0255e-22  5.2698e-28  1.0344e-22  5.9991e-28  1.0502e-22  7.4259e-28  1.0784e-22  1.0183e-27  1.1288e-22  1.5398e-27  1.2186e-22  2.5128e-27  1.3798e-22  4.3104e-27  1.6708e-22  7.8978e-27  2.2756e-22  1.4337e-26  3.3262e-22  2.6984e-26  5.3970e-22  5.2158e-26  9.4904e-22
      6.80  4.5419e-28  1.1324e-22  4.5433e-28  1.1326e-22  4.5477e-28  1.1329e-22  4.5569e-28  1.1334e-22  4.5796e-28  1.1343e-22  4.6354e-28  1.1360e-22  4.7498e-28  1.1390e-22  4.9477e-28  1.1444e-22  5.3654e-28  1.1539e-22  6.1958e-28  1.1708e-22  7.8026e-28  1.2009e-22  1.0888e-27  1.2546e-22  1.6715e-27  1.3505e-22  2.7574e-27  1.5225e-22  4.7661e-27  1.8330e-22  8.4849e-27  2.3997e-22  1.5455e-26  3.4539e-22  2.8882e-26  5.4747e-22  5.5973e-26  9.5689e-22
      6.85  4.5239e-28  1.2647e-22  4.5249e-28  1.2649e-22  4.5280e-28  1.2652e-22  4.5364e-28  1.2657e-22  4.5564e-28  1.2666e-22  4.6117e-28  1.2683e-22  4.7423e-28  1.2713e-22  4.9637e-28  1.2767e-22  5.4363e-28  1.2862e-22  6.3561e-28  1.3032e-22  8.1461e-28  1.3334e-22  1.1567e-27  1.3872e-22  1.8025e-27  1.4833e-22  3.0150e-27  1.6602e-22  5.2478e-27  1.9750e-22  9.3853e-27  2.5496e-22  1.7150e-26  3.6202e-22  3.2123e-26  5.6724e-22  6.2328e-26  9.7919e-22
      6.90  4.5080e-28  1.4129e-22  4.5088e-28  1.4131e-22  4.5112e-28  1.4134e-22  4.5183e-28  1.4139e-22  4.5389e-28  1.4149e-22  4.5996e-28  1.4166e-22  4.7466e-28  1.4197e-22  5.0052e-28  1.4253e-22  5.5581e-28  1.4351e-22  6.6241e-28  1.4525e-22  8.7165e-28  1.4836e-22  1.2742e-27  1.5389e-22  2.0313e-27  1.6379e-22  3.4361e-27  1.8154e-22  6.0287e-27  2.1358e-22  1.0830e-26  2.7207e-22  1.9843e-26  3.8085e-22  3.7236e-26  5.8954e-22  7.2358e-26  1.0084e-21
      6.95  4.4940e-28  1.5789e-22  4.4947e-28  1.5791e-22  4.4970e-28  1.5794e-22  4.5038e-28  1.5799e-22  4.5247e-28  1.5809e-22  4.5855e-28  1.5827e-22  4.7387e-28  1.5858e-22  5.0068e-28  1.5914e-22  5.5589e-28  1.6013e-22  6.6312e-28  1.6189e-22  8.7901e-28  1.6503e-22  1.2961e-27  1.7063e-22  2.0805e-27  1.8064e-22  3.5362e-27  1.9858e-22  6.2243e-27  2.3096e-22  1.1205e-26  2.9008e-22  2.0560e-26  4.0004e-22  3.8630e-26  6.1085e-22  7.5152e-26  1.0340e-21
      7.00  4.4816e-28  1.7648e-22  4.4823e-28  1.7650e-22  4.4846e-28  1.7653e-22  4.4912e-28  1.7659e-22  4.5110e-28  1.7669e-22  4.5683e-28  1.7686e-22  4.7296e-28  1.7717e-22  5.0007e-28  1.7773e-22  5.5276e-28  1.7871e-22  6.6093e-28  1.8046e-22  8.8016e-28  1.8358e-22  1.3055e-27  1.8914e-22  2.1095e-27  1.9907e-22  3.6073e-27  2.1688e-22  6.3773e-27  2.4903e-22  1.1513e-26  3.0772e-22  2.1167e-26  4.1687e-22  3.9829e-26  6.2610e-22  7.7643e-26  1.0506e-21
      7.05  4.4705e-28  1.9736e-22  4.4712e-28  1.9738e-22  4.4732e-28  1.9741e-22  4.4793e-28  1.9747e-22  4.4975e-28  1.9756e-22  4.5512e-28  1.9773e-22  4.7076e-28  1.9803e-22  4.9847e-28  1.9856e-22  5.5171e-28  1.9951e-22  6.6107e-28  2.0121e-22  8.8484e-28  2.0422e-22  1.3250e-27  2.0959e-22  2.1706e-27  2.1918e-22  3.7548e-27  2.3638e-22  6.6929e-27  2.6743e-22  1.2147e-26  3.2409e-22  2.2404e-26  4.2945e-22  4.2263e-26  6.3301e-22  8.2446e-26  1.0396e-21
      7.10  4.4606e-28  2.2076e-22  4.4612e-28  2.2077e-22  4.4630e-28  2.2080e-22  4.4684e-28  2.2085e-22  4.4849e-28  2.2094e-22  4.5344e-28  2.2110e-22  4.6800e-28  2.2138e-22  4.9704e-28  2.2188e-22  5.5203e-28  2.2276e-22  6.6232e-28  2.2434e-22  8.8853e-28  2.2715e-22  1.3512e-27  2.3215e-22  2.2543e-27  2.4109e-22  3.9627e-27  2.5712e-22  7.1436e-27  2.8605e-22  1.3062e-26  3.3912e-22  2.4201e-26  4.3746e-22  4.5759e-26  6.2577e-22  8.9430e-26  1.0031e-21
      7.15  4.4518e-28  2.4697e-22  4.4523e-28  2.4698e-22  4.4539e-28  2.4701e-22  4.4588e-28  2.4705e-22  4.4736e-28  2.4713e-22  4.5166e-28  2.4727e-22  4.6395e-28  2.4753e-22  4.9126e-28  2.4797e-22  5.3843e-28  2.4877e-22  6.3210e-28  2.5019e-22  8.3273e-28  2.5272e-22  1.2521e-27  2.5722e-22  2.0904e-27  2.6526e-22  3.7033e-27  2.7967e-22  6.7374e-27  3.0567e-22  1.2410e-26  3.5308e-22  2.3120e-26  4.4113e-22  4.3876e-26  6.0954e-22  8.5967e-26  9.4642e-22
      7.20  4.4440e-28  2.7633e-22  4.4445e-28  2.7635e-22  4.4458e-28  2.7637e-22  4.4499e-28  2.7641e-22  4.4619e-28  2.7648e-22  4.4964e-28  2.7660e-22  4.5925e-28  2.7682e-22  4.8236e-28  2.7721e-22  5.1804e-28  2.7791e-22  5.9522e-28  2.7915e-22  7.6255e-28  2.8136e-22  1.1208e-27  2.8529e-22  1.8599e-27  2.9230e-22  3.3177e-27  3.0488e-22  6.1059e-27  3.2755e-22  1.1370e-26  3.6887e-22  2.1357e-26  4.4551e-22  4.0766e-26  5.9182e-22  8.0181e-26  8.8368e-22
      7.25  4.4371e-28  3.0924e-22  4.4374e-28  3.0925e-22  4.4385e-28  3.0927e-22  4.4417e-28  3.0931e-22  4.4510e-28  3.0937e-22  4.4770e-28  3.0947e-22  4.5470e-28  3.0967e-22  4.7135e-28  3.1001e-22  4.9874e-28  3.1061e-22  5.5643e-28  3.1169e-22  6.8451e-28  3.1360e-22  9.7008e-28  3.1701e-22  1.5793e-27  3.2310e-22  2.8222e-27  3.3401e-22  5.2541e-27  3.5366e-22  9.9112e-27  3.8944e-22  1.8818e-26  4.5569e-22  3.6197e-26  5.8182e-22  7.1566e-26  8.3247e-22
      7.30  4.4309e-28  3.4618e-22  4.4312e-28  3.4619e-22  4.4321e-28  3.4621e-22  4.4345e-28  3.4624e-22  4.4416e-28  3.4629e-22  4.4606e-28  3.4639e-22  4.5118e-28  3.4656e-22  4.6286e-28  3.4686e-22  4.8493e-28  3.4739e-22  5.2784e-28  3.4834e-22  6.2239e-28  3.5003e-22  8.4475e-28  3.5305e-22  1.3438e-27  3.5842e-22  2.4027e-27  3.6804e-22  4.5404e-27  3.8537e-22  8.7161e-27  4.1686e-22  1.6796e-26  4.7506e-22  3.2657e-26  5.8550e-22  6.5036e-26  8.0388e-22
      7.35  4.4255e-28  3.8758e-22  4.4257e-28  3.8759e-22  4.4263e-28  3.8761e-22  4.4282e-28  3.8763e-22  4.4335e-28  3.8768e-22  4.4472e-28  3.8777e-22  4.4841e-28  3.8792e-22  4.5741e-28  3.8820e-22  4.7528e-28  3.8868e-22  5.0847e-28  3.8955e-22  5.8240e-28  3.9109e-22  7.6110e-28  3.9383e-22  1.1825e-27  3.9871e-22  2.1130e-27  4.0746e-22  4.0434e-27  4.2319e-22  7.8943e-27  4.5174e-22  1.5441e-26  5.0439e-22  3.0359e-26  6.0392e-22  6.0920e-26  7.9962e-22
      7.40  4.4206e-28  4.3398e-22  4.4208e-28  4.3399e-22  4.4213e-28  4.3401e-22  4.4227e-28  4.3403e-22  4.4708e-28  4.3842e-22  4.4372e-28  4.3416e-22  4.4647e-28  4.3430e-22  4.5379e-28  4.3456e-22  4.6987e-28  4.3502e-22  4.9682e-28  4.3583e-22  5.5733e-28  4.3727e-22  7.0882e-28  4.3985e-22  1.0727e-27  4.4444e-22  1.9036e-27  4.5264e-22  3.6811e-27  4.6740e-22  7.3002e-27  4.9414e-22  1.4484e-26  5.4332e-22  2.8790e-26  6.3593e-22  5.8205e-26  8.1695e-22
      7.45  4.4601e-28  4.9085e-22  4.4164e-28  4.8600e-22  4.4169e-28  4.8601e-22  4.4180e-28  4.8604e-22  4.4213e-28  4.8608e-22  4.4295e-28  4.8616e-22  4.4517e-28  4.8630e-22  4.5104e-28  4.8655e-22  4.6366e-28  4.8699e-22  4.8420e-28  4.8778e-22  5.3054e-28  4.8917e-22  6.4774e-28  4.9167e-22  9.3825e-28  4.9611e-22  1.6251e-27  5.0405e-22  3.1472e-27  5.1831e-22  6.3324e-27  5.4412e-22  1.2770e-26  5.9148e-22  2.5723e-26  6.8032e-22  5.2506e-26  8.5293e-22
      7.50  4.4125e-28  5.4428e-22  4.4126e-28  5.4429e-22  4.4129e-28  5.4430e-22  4.4139e-28  5.4433e-22  4.4167e-28  5.4437e-22  4.4235e-28  5.4445e-22  4.4419e-28  5.4459e-22  4.4911e-28  5.4484e-22  4.5967e-28  5.4527e-22  4.7652e-28  5.4606e-22  5.1339e-28  5.4745e-22  6.0819e-28  5.4992e-22  8.4789e-28  5.5433e-22  1.4315e-27  5.6222e-22  2.7683e-27  5.7637e-22  5.6469e-27  6.0195e-22  1.1581e-26  6.4878e-22  2.3663e-26  7.3628e-22  4.8800e-26  9.0532e-22
      7.55  4.4091e-28  6.0970e-22  4.4092e-28  6.0971e-22  4.4095e-28  6.0973e-22  4.4104e-28  6.0975e-22  4.4127e-28  6.0980e-22  4.4188e-28  6.0988e-22  4.4352e-28  6.1002e-22  4.4789e-28  6.1027e-22  4.5660e-28  6.1071e-22  4.7125e-28  6.1151e-22  5.0245e-28  6.1292e-22  5.8172e-28  6.1544e-22  7.8424e-28  6.1992e-22  1.2886e-27  6.2792e-22  2.4798e-27  6.4228e-22  5.1245e-27  6.6821e-22  1.0709e-26  7.1558e-22  2.2253e-26  8.0379e-22  4.6472e-26  9.7326e-22
      7.60  4.4061e-28  6.8304e-22  4.4062e-28  6.8305e-22  4.4503e-28  6.8990e-22  4.4073e-28  6.8309e-22  4.4095e-28  6.8314e-22  4.4152e-28  6.8322e-22  4.4308e-28  6.8337e-22  4.4706e-28  6.8363e-22  4.5419e-28  6.8409e-22  4.6736e-28  6.8491e-22  4.9349e-28  6.8637e-22  5.5823e-28  6.8897e-22  7.2250e-28  6.9361e-22  1.1353e-27  7.0189e-22  2.1320e-27  7.1672e-22  4.4045e-27  7.4349e-22  9.3173e-27  7.9229e-22  1.9642e-26  8.8288e-22  4.1511e-26  1.0561e-21
      7.65  4.4034e-28  7.6526e-22  4.4035e-28  7.6527e-22  4.4038e-28  7.6529e-22  4.4045e-28  7.6531e-22  4.4066e-28  7.6536e-22  4.4122e-28  7.6545e-22  4.4271e-28  7.6560e-22  4.4660e-28  7.6587e-22  4.5242e-28  7.6636e-22  4.6416e-28  7.6722e-22  4.8682e-28  7.6876e-22  5.4062e-28  7.7148e-22  6.7496e-28  7.7634e-22  1.0127e-27  7.8502e-22  1.8407e-27  8.0057e-22  3.7740e-27  8.2859e-22  8.0548e-27  8.7960e-22  1.7219e-26  9.7402e-22  3.6854e-26  1.1537e-21
      7.70  4.4010e-28  8.5744e-22  4.4011e-28  8.5744e-22  4.4014e-28  8.5746e-22  4.4021e-28  8.5749e-22  4.4041e-28  8.5754e-22  4.4095e-28  8.5763e-22  4.4238e-28  8.5779e-22  4.4606e-28  8.5808e-22  4.5115e-28  8.5860e-22  4.6137e-28  8.5952e-22  4.8139e-28  8.6114e-22  5.2664e-28  8.6403e-22  6.3713e-28  8.6919e-22  9.1321e-28  8.7839e-22  1.5963e-27  8.9486e-22  3.2239e-27  9.2452e-22  6.9141e-27  9.7842e-22  1.4975e-26  1.0780e-21  3.2481e-26  1.2667e-21
      7.75  4.3989e-28  9.6078e-22  4.3990e-28  9.6079e-22  4.3992e-28  9.6080e-22  4.3999e-28  9.6083e-22  4.4457e-28  9.7050e-22  4.4071e-28  9.6099e-22  4.4207e-28  9.6116e-22  4.4536e-28  9.6147e-22  4.4994e-28  9.6202e-22  4.5915e-28  9.6300e-22  4.7699e-28  9.6474e-22  5.1559e-28  9.6783e-22  6.0724e-28  9.7334e-22  8.3325e-28  9.8316e-22  1.3938e-27  1.0007e-21  2.7508e-27  1.0324e-21  5.8970e-27  1.0898e-21  1.2918e-26  1.1956e-21  2.8406e-26  1.3955e-21
      7.80  4.3970e-28  1.0767e-21  4.3971e-28  1.0768e-21  4.3973e-28  1.0768e-21  4.3980e-28  1.0768e-21  4.4437e-28  1.0876e-21  4.4049e-28  1.0770e-21  4.4181e-28  1.0772e-21  4.4481e-28  1.0775e-21  4.4904e-28  1.0781e-21  4.5718e-28  1.0791e-21  4.7315e-28  1.0810e-21  5.0648e-28  1.0843e-21  5.8232e-28  1.0903e-21  7.6873e-28  1.1008e-21  1.2276e-27  1.1197e-21  2.3510e-27  1.1537e-21  5.0099e-27  1.2153e-21  1.1076e-26  1.3285e-21  2.4700e-26  1.5417e-21
      7.85  4.3953e-28  1.2068e-21  4.3954e-28  1.2068e-21  4.3956e-28  1.2068e-21  4.4401e-28  1.2189e-21  4.3980e-28  1.2069e-21  4.4026e-28  1.2070e-21  4.4150e-28  1.2072e-21  4.4424e-28  1.2076e-21  4.4808e-28  1.2082e-21  4.5537e-28  1.2094e-21  4.6965e-28  1.2114e-21  4.9853e-28  1.2150e-21  5.6259e-28  1.2214e-21  7.1586e-28  1.2328e-21  1.0910e-27  1.2531e-21  2.0159e-27  1.2898e-21  4.2453e-27  1.3561e-21  9.4482e-27  1.4778e-21  2.1369e-26  1.7060e-21
      7.90  4.3938e-28  1.3526e-21  4.3939e-28  1.3526e-21  4.3941e-28  1.3526e-21  4.3947e-28  1.3526e-21  4.4401e-28  1.3662e-21  4.4005e-28  1.3528e-21  4.4119e-28  1.3531e-21  4.4347e-28  1.3534e-21  4.4684e-28  1.3541e-21  4.5312e-28  1.3554e-21  4.6532e-28  1.3576e-21  4.8950e-28  1.3614e-21  5.4210e-28  1.3684e-21  6.6414e-28  1.3807e-21  9.6087e-28  1.4027e-21  1.6960e-27  1.4423e-21  3.4990e-27  1.5139e-21  7.8079e-27  1.6450e-21  1.7908e-26  1.8901e-21
      7.95  4.3925e-28  1.5161e-21  4.3926e-28  1.5161e-21  4.3928e-28  1.5161e-21  4.3933e-28  1.5161e-21  4.3947e-28  1.5162e-21  4.4424e-28  1.5315e-21  4.4529e-28  1.5317e-21  4.4275e-28  1.5170e-21  4.4557e-28  1.5178e-21  4.5092e-28  1.5191e-21  4.6108e-28  1.5215e-21  4.8112e-28  1.5257e-21  5.2346e-28  1.5332e-21  6.1960e-28  1.5465e-21  8.4843e-28  1.5704e-21  1.4216e-27  1.6132e-21  2.8403e-27  1.6906e-21  6.3014e-27  1.8320e-21  1.4595e-26  2.0956e-21
      8.00  4.3913e-28  1.6994e-21  4.3914e-28  1.6994e-21  4.3915e-28  1.6994e-21  4.3920e-28  1.6995e-21  4.3932e-28  1.6996e-21  4.4405e-28  1.7167e-21  4.4053e-28  1.7000e-21  4.4208e-28  1.7004e-21  4.4444e-28  1.7013e-21  4.4889e-28  1.7027e-21  4.5725e-28  1.7053e-21  4.7366e-28  1.7098e-21  5.0745e-28  1.7180e-21  5.8263e-28  1.7325e-21  7.6031e-28  1.7584e-21  1.1983e-27  1.8048e-21  2.2944e-27  1.8885e-21  5.0144e-27  2.0413e-21  1.1666e-26  2.3251e-21
      8.05  4.3902e-28  1.9051e-21  4.3903e-28  1.9051e-21  4.3904e-28  1.9051e-21  4.3909e-28  1.9052e-21  4.3919e-28  1.9053e-21  4.3947e-28  1.9054e-21  4.4463e-28  1.9248e-21  4.4146e-28  1.9062e-21  4.4341e-28  1.9071e-21  4.4712e-28  1.9087e-21  4.5383e-28  1.9115e-21  4.6706e-28  1.9165e-21  4.9380e-28  1.9253e-21  5.5247e-28  1.9411e-21  6.8888e-28  1.9692e-21  1.0202e-27  2.0196e-21  1.8636e-27  2.1105e-21  3.9792e-27  2.2759e-21  9.2515e-27  2.5821e-21
      8.10  4.3893e-28  2.1358e-21  4.4332e-28  2.1572e-21  4.3895e-28  2.1359e-21  4.3898e-28  2.1359e-21  4.3907e-28  2.1360e-21  4.3930e-28  2.1362e-21  4.3992e-28  2.1365e-21  4.4093e-28  2.1370e-21  4.4249e-28  2.1380e-21  4.4549e-28  2.1398e-21  4.5078e-28  2.1428e-21  4.6141e-28  2.1482e-21  4.8256e-28  2.1578e-21  5.2788e-28  2.1750e-21  6.3201e-28  2.2056e-21  8.8527e-28  2.2605e-21  1.5234e-27  2.3592e-21  3.1480e-27  2.5386e-21  7.2654e-27  2.8696e-21
      8.15  4.3884e-28  2.3945e-21  4.3885e-28  2.3945e-21  4.3886e-28  2.3946e-21  4.3889e-28  2.3946e-21  4.3896e-28  2.3947e-21  4.3915e-28  2.3949e-21  4.3965e-28  2.3953e-21  4.4044e-28  2.3959e-21  4.4174e-28  2.3970e-21  4.4402e-28  2.3988e-21  4.4831e-28  2.4022e-21  4.5652e-28  2.4081e-21  4.7317e-28  2.4186e-21  5.0795e-28  2.4373e-21  5.8660e-28  2.4707e-21  7.7599e-28  2.5305e-21  1.2525e-27  2.6380e-21  2.4753e-27  2.8329e-21  5.6200e-27  3.1915e-21
      8.20  4.3877e-28  2.6847e-21  4.3877e-28  2.6847e-21  4.3878e-28  2.6847e-21  4.3881e-28  2.6848e-21  4.3887e-28  2.6849e-21  4.3902e-28  2.6851e-21  4.3941e-28  2.6855e-21  4.4004e-28  2.6862e-21  4.4106e-28  2.6874e-21  4.4290e-28  2.6894e-21  4.4630e-28  2.6931e-21  4.5276e-28  2.6995e-21  4.6572e-28  2.7110e-21  4.9252e-28  2.7315e-21  5.5228e-28  2.7680e-21  6.9478e-28  2.8333e-21  1.0523e-27  2.9506e-21  1.9750e-27  3.1630e-21  4.3766e-27  3.5525e-21
      8.25  4.3870e-28  3.0101e-21  4.4309e-28  3.0402e-21  4.3871e-28  3.0101e-21  4.3873e-28  3.0102e-21  4.3878e-28  3.0103e-21  4.4329e-28  3.0406e-21  4.3922e-28  3.0109e-21  4.3972e-28  3.0117e-21  4.4055e-28  3.0130e-21  4.4200e-28  3.0153e-21  4.4470e-28  3.0193e-21  4.4980e-28  3.0264e-21  4.5994e-28  3.0390e-21  4.8072e-28  3.0614e-21  5.2649e-28  3.1014e-21  6.3460e-28  3.1729e-21  9.0482e-28  3.3013e-21  1.6044e-27  3.5333e-21  3.4431e-27  3.9575e-21
      8.30  4.3864e-28  3.3752e-21  4.3864e-28  3.3752e-21  4.3865e-28  3.3752e-21  4.3867e-28  3.3753e-21  4.3871e-28  3.3754e-21  4.3881e-28  3.3757e-21  4.3906e-28  3.3761e-21  4.3947e-28  3.3770e-21  4.4013e-28  3.3784e-21  4.4132e-28  3.3809e-21  4.4350e-28  3.3853e-21  4.4758e-28  3.3931e-21  4.5552e-28  3.4070e-21  4.7177e-28  3.4316e-21  5.0722e-28  3.4756e-21  5.9008e-28  3.5542e-21  7.9614e-28  3.6951e-21  1.3303e-27  3.9493e-21  2.7441e-27  4.4130e-21
      8.35  4.3859e-28  3.7846e-21  4.4297e-28  3.8225e-21  4.3860e-28  3.7847e-21  4.3861e-28  3.7848e-21  4.4303e-28  3.8228e-21  4.3872e-28  3.7852e-21  4.3892e-28  3.7857e-21  4.3925e-28  3.7867e-21  4.3979e-28  3.7883e-21  4.4074e-28  3.7910e-21  4.4247e-28  3.7959e-21  4.4572e-28  3.8045e-21  4.5199e-28  3.8197e-21  4.6472e-28  3.8469e-21  4.9223e-28  3.8953e-21  5.5603e-28  3.9818e-21  7.1387e-28  4.1368e-21  1.1232e-27  4.4161e-21  2.2127e-27  4.9244e-21
      8.40  4.3854e-28  4.2438e-21  4.3854e-28  4.2439e-21  4.3855e-28  4.2439e-21  4.4294e-28  4.2865e-21  4.3859e-28  4.2442e-21  4.3865e-28  4.2445e-21  4.3881e-28  4.2450e-21  4.3908e-28  4.2461e-21  4.3951e-28  4.2479e-21  4.4027e-28  4.2510e-21  4.4167e-28  4.2563e-21  4.4426e-28  4.2658e-21  4.4924e-28  4.2827e-21  4.5928e-28  4.3127e-21  4.8078e-28  4.3661e-21  5.3025e-28  4.4615e-21  6.5193e-28  4.6324e-21  9.6712e-28  4.9399e-21  1.8095e-27  5.4985e-21
      8.45  4.3849e-28  4.7589e-21  4.3849e-28  4.7589e-21  4.3850e-28  4.7589e-21  4.3851e-28  4.7590e-21  4.3854e-28  4.7592e-21  4.4297e-28  4.8072e-21  4.3872e-28  4.7602e-21  4.3894e-28  4.7614e-21  4.3930e-28  4.7634e-21  4.3994e-28  4.7668e-21  4.4109e-28  4.7727e-21  4.4321e-28  4.7832e-21  4.4728e-28  4.8019e-21  4.5539e-28  4.8350e-21  4.7257e-28  4.8941e-21  5.1165e-28  4.9996e-21  6.0687e-28  5.1883e-21  8.5237e-28  5.5276e-21  1.5090e-27  6.1427e-21
      8.50  4.3845e-28  5.3364e-21  4.3845e-28  5.3365e-21  4.3846e-28  5.3365e-21  4.3847e-28  5.3367e-21  4.3849e-28  5.3369e-21  4.4292e-28  5.3906e-21  4.3864e-28  5.3379e-21  4.3884e-28  5.3393e-21  4.3915e-28  5.3415e-21  4.3969e-28  5.3453e-21  4.4067e-28  5.3519e-21  4.4246e-28  5.3635e-21  4.4586e-28  5.3842e-21  4.5259e-28  5.4209e-21  4.6664e-28  5.4864e-21  4.9811e-28  5.6031e-21  5.7381e-28  5.8119e-21  7.6729e-28  6.1870e-21  1.2832e-27  6.8656e-21
