# This was generated using Cloudy10 and the columns are ordered 
# as log10 of the fraction of the metallicity to the solar metallicity
# 'h_*_Z' and 'c_*_Z' stands for cooling and heating respectively 
# at * metalicity
#
# NOTE: This was generated separately from loop_coolingcurve_w_UV.py
#       using Output_metals_w_redshift.py.
#
# Redshift = 8.0
# hden = -5.0
#
#     temp   h_-3.00_Z   c_-3.00_Z   h_-2.75_Z   c_-2.75_Z   h_-2.50_Z   c_-2.50_Z   h_-2.25_Z   c_-2.25_Z   h_-2.00_Z   c_-2.00_Z   h_-1.75_Z   c_-1.75_Z   h_-1.50_Z   c_-1.50_Z   h_-1.25_Z   c_-1.25_Z   h_-1.00_Z   c_-1.00_Z   h_-0.75_Z   c_-0.75_Z   h_-0.50_Z   c_-0.50_Z   h_-0.25_Z   c_-0.25_Z    h_0.00_Z    c_0.00_Z    h_0.25_Z    c_0.25_Z    h_0.50_Z    c_0.50_Z    h_0.75_Z    c_0.75_Z    h_1.00_Z    c_1.00_Z    h_1.25_Z    c_1.25_Z    h_1.50_Z    c_1.50_Z 
      4.00  8.2072e-24  4.2668e-23  8.2095e-24  4.2672e-23  8.2136e-24  4.2679e-23  8.2209e-24  4.2693e-23  8.2340e-24  4.2716e-23  8.2571e-24  4.2758e-23  8.2984e-24  4.2832e-23  8.3717e-24  4.2965e-23  8.5020e-24  4.3200e-23  8.7338e-24  4.3619e-23  9.1458e-24  4.4363e-23  9.8784e-24  4.5689e-23  1.1181e-23  4.8052e-23  1.3495e-23  5.2268e-23  1.7605e-23  5.9811e-23  2.4906e-23  7.3371e-23  3.7877e-23  9.7943e-23  6.0974e-23  1.4306e-22  1.0234e-22  2.2775e-22
      4.05  7.6937e-24  4.7855e-23  7.6960e-24  4.7859e-23  7.7000e-24  4.7867e-23  7.7072e-24  4.7881e-23  7.7201e-24  4.7907e-23  7.7429e-24  4.7952e-23  7.7836e-24  4.8032e-23  7.8558e-24  4.8175e-23  7.9842e-24  4.8430e-23  8.2126e-24  4.8882e-23  8.6187e-24  4.9688e-23  9.3406e-24  5.1121e-23  1.0624e-23  5.3676e-23  1.2904e-23  5.8237e-23  1.6955e-23  6.6400e-23  2.4151e-23  8.1086e-23  3.6938e-23  1.0773e-22  5.9715e-23  1.5676e-22  1.0052e-22  2.4909e-22
      4.10  7.2063e-24  5.3675e-23  7.2086e-24  5.3680e-23  7.2126e-24  5.3689e-23  7.2197e-24  5.3705e-23  7.2323e-24  5.3733e-23  7.2548e-24  5.3783e-23  7.2949e-24  5.3872e-23  7.3660e-24  5.4030e-23  7.4926e-24  5.4311e-23  7.7177e-24  5.4811e-23  8.1178e-24  5.5700e-23  8.8292e-24  5.7284e-23  1.0094e-23  6.0107e-23  1.2341e-23  6.5147e-23  1.6333e-23  7.4174e-23  2.3425e-23  9.0429e-23  3.6030e-23  1.1996e-22  5.8488e-23  1.7444e-22  9.8737e-23  2.7742e-22
      4.15  6.7441e-24  6.0208e-23  6.7463e-24  6.0214e-23  6.7503e-24  6.0224e-23  6.7573e-24  6.0242e-23  6.7697e-24  6.0274e-23  6.7919e-24  6.0330e-23  6.8314e-24  6.0431e-23  6.9015e-24  6.0610e-23  7.0263e-24  6.0928e-23  7.2480e-24  6.1495e-23  7.6424e-24  6.2503e-23  8.3435e-24  6.4298e-23  9.5898e-24  6.7497e-23  1.1805e-23  7.3213e-23  1.5740e-23  8.3455e-23  2.2730e-23  1.0192e-22  3.5157e-23  1.3551e-22  5.7304e-23  1.9766e-22  9.7014e-23  3.1562e-22
      4.20  6.3061e-24  6.7541e-23  6.3083e-24  6.7548e-23  6.3122e-24  6.7560e-23  6.3191e-24  6.7581e-23  6.3314e-24  6.7618e-23  6.3532e-24  6.7684e-23  6.3921e-24  6.7801e-23  6.4613e-24  6.8009e-23  6.5843e-24  6.8380e-23  6.8030e-24  6.9040e-23  7.1918e-24  7.0215e-23  7.8831e-24  7.2307e-23  9.1120e-24  7.6037e-23  1.1296e-23  8.2702e-23  1.5176e-23  9.4653e-23  2.2070e-23  1.1622e-22  3.4327e-23  1.5553e-22  5.6178e-23  2.2846e-22  9.5375e-23  3.6750e-22
      4.25  5.8914e-24  7.5773e-23  5.8935e-24  7.5781e-23  5.8974e-24  7.5795e-23  5.9042e-24  7.5820e-23  5.9163e-24  7.5864e-23  5.9379e-24  7.5943e-23  5.9763e-24  7.6084e-23  6.0446e-24  7.6334e-23  6.1659e-24  7.6778e-23  6.3817e-24  7.7568e-23  6.7654e-24  7.8975e-23  7.4476e-24  8.1481e-23  8.6603e-24  8.5951e-23  1.0816e-23  9.3940e-23  1.4645e-23  1.0827e-22  2.1449e-23  1.3416e-22  3.3548e-23  1.8145e-22  5.5124e-23  2.6940e-22  9.3848e-23  4.3779e-22
      4.30  5.4991e-24  8.5017e-23  5.5013e-24  8.5026e-23  5.5051e-24  8.5044e-23  5.5118e-24  8.5074e-23  5.5238e-24  8.5129e-23  5.5451e-24  8.5225e-23  5.5830e-24  8.5397e-23  5.6505e-24  8.5704e-23  5.7704e-24  8.6248e-23  5.9836e-24  8.7217e-23  6.3627e-24  8.8941e-23  7.0366e-24  9.2014e-23  8.2347e-24  9.7493e-23  1.0364e-23  1.0729e-22  1.4148e-23  1.2488e-22  2.0871e-23  1.5668e-22  3.2827e-23  2.1485e-22  5.4154e-23  3.2330e-22  9.2452e-23  5.3169e-22
      4.35  5.1283e-24  9.5395e-23  5.1305e-24  9.5407e-23  5.1342e-24  9.5429e-23  5.1409e-24  9.5467e-23  5.1527e-24  9.5534e-23  5.1738e-24  9.5655e-23  5.2113e-24  9.5870e-23  5.2781e-24  9.6251e-23  5.3967e-24  9.6930e-23  5.6076e-24  9.8137e-23  5.9826e-24  1.0029e-22  6.6494e-24  1.0412e-22  7.8347e-24  1.1095e-22  9.9412e-24  1.2316e-22  1.3684e-23  1.4510e-22  2.0336e-23  1.8480e-22  3.2167e-23  2.5749e-22  5.3277e-23  3.9329e-22  9.1207e-23  6.5501e-22
      4.40  4.7780e-24  1.0705e-22  4.7801e-24  1.0706e-22  4.7838e-24  1.0709e-22  4.7904e-24  1.0714e-22  4.8022e-24  1.0722e-22  4.8231e-24  1.0738e-22  4.8603e-24  1.0765e-22  4.9264e-24  1.0813e-22  5.0439e-24  1.0898e-22  5.2529e-24  1.1050e-22  5.6244e-24  1.1321e-22  6.2851e-24  1.1803e-22  7.4595e-24  1.2663e-22  9.5466e-24  1.4202e-22  1.3255e-23  1.6967e-22  1.9847e-23  2.1971e-22  3.1572e-23  3.1142e-22  5.2500e-23  4.8298e-22  9.0126e-23  8.1437e-22
      4.45  4.4472e-24  1.2013e-22  4.4492e-24  1.2015e-22  4.4529e-24  1.2019e-22  4.4595e-24  1.2025e-22  4.4712e-24  1.2036e-22  4.4919e-24  1.2055e-22  4.5288e-24  1.2089e-22  4.5944e-24  1.2150e-22  4.7110e-24  1.2258e-22  4.9184e-24  1.2451e-22  5.2872e-24  1.2793e-22  5.9428e-24  1.3404e-22  7.1082e-24  1.4493e-22  9.1796e-24  1.6442e-22  1.2860e-23  1.9943e-22  1.9402e-23  2.6283e-22  3.1043e-23  3.7907e-22  5.1829e-23  5.9672e-22  8.9225e-23  1.0177e-21
      4.50  4.1348e-24  1.3483e-22  4.1368e-24  1.3485e-22  4.1405e-24  1.3490e-22  4.1470e-24  1.3497e-22  4.1586e-24  1.3511e-22  4.1793e-24  1.3536e-22  4.2159e-24  1.3579e-22  4.2811e-24  1.3656e-22  4.3971e-24  1.3794e-22  4.6033e-24  1.4039e-22  4.9699e-24  1.4474e-22  5.6217e-24  1.5250e-22  6.7803e-24  1.6635e-22  8.8397e-24  1.9112e-22  1.2500e-23  2.3562e-22  1.9005e-23  3.1619e-22  3.0585e-23  4.6396e-22  5.1274e-23  7.4069e-22  8.8527e-23  1.2763e-21
      4.55  3.8399e-24  1.5134e-22  3.8420e-24  1.5137e-22  3.8456e-24  1.5143e-22  3.8521e-24  1.5153e-22  3.8637e-24  1.5170e-22  3.8842e-24  1.5201e-22  3.9207e-24  1.5256e-22  3.9857e-24  1.5354e-22  4.1011e-24  1.5528e-22  4.3064e-24  1.5838e-22  4.6715e-24  1.6390e-22  5.3207e-24  1.7373e-22  6.4745e-24  1.9127e-22  8.5256e-24  2.2264e-22  1.2171e-23  2.7901e-22  1.8653e-23  3.8106e-22  3.0195e-23  5.6820e-22  5.0832e-23  9.1865e-22  8.8027e-23  1.5970e-21
      4.60  3.5615e-24  1.6991e-22  3.5635e-24  1.6995e-22  3.5672e-24  1.7002e-22  3.5736e-24  1.7015e-22  3.5852e-24  1.7037e-22  3.6057e-24  1.7076e-22  3.6421e-24  1.7145e-22  3.7069e-24  1.7269e-22  3.8221e-24  1.7489e-22  4.0269e-24  1.7881e-22  4.3911e-24  1.8578e-22  5.0388e-24  1.9820e-22  6.1900e-24  2.2036e-22  8.2365e-24  2.5999e-22  1.1875e-23  3.3120e-22  1.8345e-23  4.6008e-22  2.9873e-23  6.9636e-22  5.0503e-23  1.1386e-21  8.7721e-23  1.9945e-21
      4.65  3.2984e-24  1.9086e-22  3.3005e-24  1.9091e-22  3.3018e-24  1.9098e-22  3.3106e-24  1.9115e-22  3.3221e-24  1.9143e-22  3.3426e-24  1.9192e-22  3.3790e-24  1.9279e-22  3.4437e-24  1.9435e-22  3.5588e-24  1.9712e-22  3.7635e-24  2.0205e-22  4.1275e-24  2.1082e-22  4.7748e-24  2.2644e-22  5.9253e-24  2.5432e-22  7.9709e-24  3.0417e-22  1.1608e-23  3.9371e-22  1.8079e-23  5.5575e-22  2.9614e-23  8.5264e-22  5.0273e-23  1.4080e-21  8.7576e-23  2.4817e-21
      4.70  3.0493e-24  2.1461e-22  3.0513e-24  2.1467e-22  3.0550e-24  2.1478e-22  3.0614e-24  2.1497e-22  3.0730e-24  2.1532e-22  3.0935e-24  2.1593e-22  3.1299e-24  2.1703e-22  3.1947e-24  2.1897e-22  3.3099e-24  2.2243e-22  3.5147e-24  2.2859e-22  3.8790e-24  2.3955e-22  4.5267e-24  2.5908e-22  5.6782e-24  2.9391e-22  7.7256e-24  3.5620e-22  1.1366e-23  4.6806e-22  1.7846e-23  6.7040e-22  2.9404e-23  1.0409e-21  5.0118e-23  1.7334e-21  8.7542e-23  3.0703e-21
      4.75  2.8112e-24  2.4177e-22  2.8132e-24  2.4184e-22  2.8169e-24  2.4198e-22  2.8233e-24  2.4222e-22  2.8349e-24  2.4265e-22  2.8554e-24  2.4341e-22  2.8919e-24  2.4477e-22  2.9568e-24  2.4718e-22  3.0722e-24  2.5147e-22  3.2774e-24  2.5910e-22  3.6422e-24  2.7268e-22  4.2910e-24  2.9687e-22  5.4444e-24  3.4004e-22  7.4954e-24  4.1720e-22  1.1143e-23  5.5575e-22  1.7637e-23  8.0624e-22  2.9226e-23  1.2646e-21  5.0005e-23  2.1204e-21  8.7562e-23  3.7701e-21
      4.80  2.5774e-24  2.7316e-22  2.5794e-24  2.7325e-22  2.5831e-24  2.7342e-22  2.5896e-24  2.7372e-22  2.6011e-24  2.7424e-22  2.6217e-24  2.7518e-22  2.6582e-24  2.7684e-22  2.7232e-24  2.7980e-22  2.8388e-24  2.8505e-22  3.0444e-24  2.9441e-22  3.4100e-24  3.1106e-22  4.0598e-24  3.4073e-22  5.2154e-24  3.9364e-22  7.2702e-24  4.8823e-22  1.0925e-23  6.5800e-22  1.7434e-23  9.6483e-22  2.9052e-23  1.5259e-21  4.9891e-23  2.5722e-21  8.7567e-23  4.5858e-21
      4.85  2.3338e-24  3.0977e-22  2.3358e-24  3.0988e-22  2.3395e-24  3.1008e-22  2.3460e-24  3.1044e-22  2.3576e-24  3.1108e-22  2.3781e-24  3.1221e-22  2.4147e-24  3.1422e-22  2.4798e-24  3.1780e-22  2.5955e-24  3.2417e-22  2.8013e-24  3.3551e-22  3.1671e-24  3.5568e-22  3.8176e-24  3.9162e-22  4.9742e-24  4.5570e-22  7.0310e-24  5.7025e-22  1.0690e-23  7.7580e-22  1.7206e-23  1.1471e-21  2.8840e-23  1.8256e-21  4.9711e-23  3.0895e-21  8.7447e-23  5.5180e-21
      4.90  2.0583e-24  3.5235e-22  2.0603e-24  3.5249e-22  2.0639e-24  3.5271e-22  2.0705e-24  3.5315e-22  2.0820e-24  3.5392e-22  2.1026e-24  3.5527e-22  2.1391e-24  3.5768e-22  2.2041e-24  3.6196e-22  2.3196e-24  3.6958e-22  2.5250e-24  3.8313e-22  2.8903e-24  4.0725e-22  3.5397e-24  4.5022e-22  4.6944e-24  5.2684e-22  6.7476e-24  6.6377e-22  1.0400e-23  9.0943e-22  1.6905e-23  1.3530e-21  2.8521e-23  2.1632e-21  4.9362e-23  3.6707e-21  8.7037e-23  6.5627e-21
      4.95  1.7331e-24  4.0066e-22  1.7352e-24  4.0082e-22  1.7388e-24  4.0110e-22  1.7452e-24  4.0161e-22  1.7567e-24  4.0250e-22  1.7771e-24  4.0410e-22  1.8134e-24  4.0694e-22  1.8780e-24  4.1198e-22  1.9928e-24  4.2096e-22  2.1969e-24  4.3693e-22  2.5598e-24  4.6536e-22  3.2050e-24  5.1600e-22  4.3520e-24  6.0629e-22  6.3914e-24  7.6765e-22  1.0019e-23  1.0571e-21  1.6479e-23  1.5795e-21  2.8014e-23  2.5332e-21  4.8708e-23  4.3062e-21  8.6105e-23  7.7030e-21
      5.00  1.3745e-24  4.5297e-22  1.3765e-24  4.5315e-22  1.3801e-24  4.5349e-22  1.3865e-24  4.5407e-22  1.3978e-24  4.5511e-22  1.4179e-24  4.5696e-22  1.4537e-24  4.6025e-22  1.5174e-24  4.6611e-22  1.6306e-24  4.7652e-22  1.8319e-24  4.9505e-22  2.1898e-24  5.2802e-22  2.8259e-24  5.8675e-22  3.9565e-24  6.9146e-22  5.9661e-24  8.7858e-22  9.5395e-24  1.2142e-21  1.5902e-23  1.8198e-21  2.7261e-23  2.9249e-21  4.7635e-23  4.9783e-21  8.4431e-23  8.9082e-21
      5.05  1.0394e-24  5.0762e-22  1.0414e-24  5.0783e-22  1.0449e-24  5.0820e-22  1.0511e-24  5.0887e-22  1.0622e-24  5.1006e-22  1.0818e-24  5.1217e-22  1.1168e-24  5.1592e-22  1.1791e-24  5.2259e-22  1.2897e-24  5.3446e-22  1.4864e-24  5.5558e-22  1.8360e-24  5.9317e-22  2.4572e-24  6.6011e-22  3.5609e-24  7.7948e-22  5.5213e-24  9.9277e-22  9.0053e-24  1.3753e-21  1.5206e-23  2.0655e-21  2.6273e-23  3.3246e-21  4.6135e-23  5.6632e-21  8.2012e-23  1.0136e-20
      5.10  7.7776e-25  5.6511e-22  7.7967e-25  5.6534e-22  7.8306e-25  5.6576e-22  7.8909e-25  5.6651e-22  7.9981e-25  5.6784e-22  8.1887e-25  5.7021e-22  8.5277e-25  5.7441e-22  9.1304e-25  5.8190e-22  1.0202e-24  5.9521e-22  1.2105e-24  6.1889e-22  1.5488e-24  6.6103e-22  2.1494e-24  7.3610e-22  3.2155e-24  8.6995e-22  5.1073e-24  1.1091e-21  8.4660e-24  1.5380e-21  1.4446e-23  2.3135e-21  2.5151e-23  3.7263e-21  4.4354e-23  6.3509e-21  7.8988e-23  1.1368e-20
      5.15  5.9652e-25  6.2772e-22  5.9837e-25  6.2798e-22  6.0161e-25  6.2844e-22  6.0741e-25  6.2927e-22  6.1769e-25  6.3074e-22  6.3599e-25  6.3335e-22  6.6854e-25  6.3800e-22  7.2637e-25  6.4627e-22  8.2914e-25  6.6098e-22  1.0117e-24  6.8715e-22  1.3357e-24  7.3374e-22  1.9105e-24  8.1671e-22  2.9290e-24  9.6467e-22  4.7333e-24  1.2291e-21  7.9480e-24  1.7033e-21  1.3689e-23  2.5590e-21  2.3946e-23  4.1201e-21  4.2336e-23  7.0205e-21  7.5481e-23  1.2569e-20
      5.20  4.7610e-25  6.9778e-22  4.7784e-25  6.9806e-22  4.8093e-25  6.9856e-22  4.8643e-25  6.9946e-22  4.9620e-25  7.0105e-22  5.1359e-25  7.0389e-22  5.4448e-25  7.0893e-22  5.9937e-25  7.1789e-22  6.9685e-25  7.3384e-22  8.6984e-25  7.6222e-22  1.1765e-24  8.1274e-22  1.7192e-24  9.0274e-22  2.6787e-24  1.0633e-21  4.3892e-24  1.3501e-21  7.4391e-24  1.8646e-21  1.2878e-23  2.7935e-21  2.2595e-23  4.4894e-21  4.0018e-23  7.6437e-21  7.1415e-23  1.3688e-20
      5.25  3.9487e-25  7.7702e-22  3.9650e-25  7.7732e-22  3.9939e-25  7.7786e-22  4.0454e-25  7.7881e-22  4.1369e-25  7.8050e-22  4.2995e-25  7.8351e-22  4.5883e-25  7.8886e-22  5.1012e-25  7.9837e-22  6.0111e-25  8.1530e-22  7.6231e-25  8.4543e-22  1.0473e-24  8.9909e-22  1.5502e-24  9.9471e-22  2.4444e-24  1.1653e-21  4.0397e-24  1.4701e-21  6.8812e-24  2.0170e-21  1.1950e-23  3.0052e-21  2.1009e-23  4.8116e-21  3.7257e-23  8.1782e-21  6.6551e-23  1.4650e-20
      5.30  3.3773e-25  8.6681e-22  3.3923e-25  8.6712e-22  3.4188e-25  8.6767e-22  3.4661e-25  8.6865e-22  3.5499e-25  8.7040e-22  3.6989e-25  8.7350e-22  3.9635e-25  8.7902e-22  4.4326e-25  8.8885e-22  5.2633e-25  9.0634e-22  6.7309e-25  9.3748e-22  9.3158e-25  9.9299e-22  1.3882e-24  1.0919e-21  2.2058e-24  1.2683e-21  3.6613e-24  1.5838e-21  6.2546e-24  2.1501e-21  1.0881e-23  3.1746e-21  1.9155e-23  5.0512e-21  3.4005e-23  8.5606e-21  6.0813e-23  1.5350e-20
      5.35  2.9564e-25  9.6836e-22  2.9697e-25  9.6867e-22  2.9934e-25  9.6921e-22  3.0354e-25  9.7018e-22  3.1101e-25  9.7189e-22  3.2428e-25  9.7495e-22  3.4779e-25  9.8038e-22  3.8944e-25  9.9005e-22  4.6300e-25  1.0073e-21  5.9250e-25  1.0380e-21  8.1957e-25  1.0928e-21  1.2265e-24  1.1903e-21  1.9516e-24  1.3643e-21  3.2426e-24  1.6755e-21  5.5432e-24  2.2349e-21  9.6495e-24  3.2483e-21  1.6999e-23  5.1097e-21  3.0208e-23  8.6072e-21  5.4105e-23  1.5405e-20
      5.40  2.6333e-25  1.0830e-21  2.6447e-25  1.0833e-21  2.6649e-25  1.0838e-21  2.7007e-25  1.0846e-21  2.7643e-25  1.0862e-21  2.8773e-25  1.0890e-21  3.0775e-25  1.0939e-21  3.4316e-25  1.1027e-21  4.0562e-25  1.1184e-21  5.1537e-25  1.1464e-21  7.0906e-25  1.1964e-21  1.0564e-24  1.2852e-21  1.6745e-24  1.4437e-21  2.7750e-24  1.7274e-21  4.7368e-24  2.2379e-21  8.2397e-24  3.1641e-21  1.4513e-23  4.8696e-21  2.5803e-23  8.0867e-21  4.6266e-23  1.4391e-20
      5.45  2.3778e-25  1.2122e-21  2.3870e-25  1.2124e-21  2.4033e-25  1.2128e-21  2.4323e-25  1.2135e-21  2.4839e-25  1.2148e-21  2.5755e-25  1.2170e-21  2.7380e-25  1.2211e-21  3.0255e-25  1.2282e-21  3.5334e-25  1.2410e-21  4.4269e-25  1.2639e-21  6.0155e-25  1.3046e-21  8.8505e-25  1.3771e-21  1.3895e-24  1.5064e-21  2.2878e-24  1.7380e-21  3.8888e-24  2.1548e-21  6.7472e-24  2.9115e-21  1.1865e-23  4.3075e-21  2.1074e-23  6.9615e-21  3.7758e-23  1.2162e-20
      5.50  2.1716e-25  1.3575e-21  2.1790e-25  1.3577e-21  2.1920e-25  1.3580e-21  2.2153e-25  1.3586e-21  2.2567e-25  1.3596e-21  2.3302e-25  1.3613e-21  2.4607e-25  1.3645e-21  2.6920e-25  1.3700e-21  3.1014e-25  1.3800e-21  3.8243e-25  1.3977e-21  5.1110e-25  1.4293e-21  7.4025e-25  1.4854e-21  1.1480e-24  1.5857e-21  1.8737e-24  1.7651e-21  3.1665e-24  2.0880e-21  5.4734e-24  2.6769e-21  9.5994e-24  3.7582e-21  1.7009e-23  5.7983e-21  3.0393e-23  9.7991e-21
      5.55  2.0031e-25  1.5211e-21  2.0092e-25  1.5212e-21  2.0202e-25  1.5215e-21  2.0396e-25  1.5219e-21  2.0741e-25  1.5227e-21  2.1355e-25  1.5242e-21  2.2446e-25  1.5267e-21  2.4380e-25  1.5313e-21  2.7811e-25  1.5393e-21  3.3889e-25  1.5537e-21  4.4708e-25  1.5794e-21  6.3952e-25  1.6250e-21  9.8176e-25  1.7065e-21  1.5908e-24  1.8522e-21  2.6755e-24  2.1142e-21  4.6097e-24  2.5892e-21  8.0662e-24  3.4624e-21  1.4263e-23  5.1088e-21  2.5429e-23  8.3169e-21
      5.60  1.8640e-25  1.7049e-21  1.8694e-25  1.7050e-21  1.8789e-25  1.7052e-21  1.8958e-25  1.7056e-21  1.9260e-25  1.7064e-21  1.9798e-25  1.7076e-21  2.0752e-25  1.7099e-21  2.2445e-25  1.7140e-21  2.5448e-25  1.7212e-21  3.0777e-25  1.7341e-21  4.0254e-25  1.7569e-21  5.7101e-25  1.7977e-21  8.7069e-25  1.8704e-21  1.4040e-24  2.0005e-21  2.3536e-24  2.2346e-21  4.0467e-24  2.6631e-21  7.0714e-24  3.5136e-21  1.2490e-23  5.0427e-21  2.2243e-23  8.0463e-21
      5.65  1.7481e-25  1.9114e-21  1.7529e-25  1.9115e-21  1.7614e-25  1.9117e-21  1.7766e-25  1.9121e-21  1.8036e-25  1.9128e-21  1.8517e-25  1.9141e-21  1.9372e-25  1.9163e-21  2.0890e-25  1.9203e-21  2.3582e-25  1.9274e-21  2.8359e-25  1.9400e-21  3.6848e-25  1.9625e-21  5.1922e-25  2.0025e-21  7.8734e-25  2.0739e-21  1.2644e-24  2.2016e-21  2.1141e-24  2.4314e-21  3.6290e-24  2.8476e-21  6.3350e-24  3.6165e-21  1.1184e-23  5.1735e-21  1.9910e-23  8.0820e-21
      5.70  1.6508e-25  2.1432e-21  1.6551e-25  2.1434e-21  1.6627e-25  2.1436e-21  1.6764e-25  2.1440e-21  1.7006e-25  2.1447e-21  1.7438e-25  2.1459e-21  1.8206e-25  2.1482e-21  1.9569e-25  2.1521e-21  2.1979e-25  2.1592e-21  2.6251e-25  2.1718e-21  3.3841e-25  2.1942e-21  4.7329e-25  2.2341e-21  7.1316e-25  2.3053e-21  1.1400e-24  2.4327e-21  1.9003e-24  2.6620e-21  3.2561e-24  3.0774e-21  5.6784e-24  3.8410e-21  1.0021e-23  5.2797e-21  1.7842e-23  8.2978e-21
      5.75  1.5687e-25  2.4035e-21  1.5725e-25  2.4036e-21  1.5793e-25  2.4038e-21  1.5913e-25  2.4042e-21  1.6129e-25  2.4049e-21  1.6512e-25  2.4061e-21  1.7195e-25  2.4083e-21  1.8398e-25  2.4122e-21  2.0526e-25  2.4191e-21  2.4303e-25  2.4313e-21  3.1003e-25  2.4532e-21  4.2917e-25  2.4921e-21  6.4105e-25  2.5615e-21  1.0181e-24  2.6857e-21  1.6897e-24  2.9089e-21  2.8875e-24  3.3137e-21  5.0282e-24  4.0585e-21  8.8671e-24  5.4616e-21  1.5786e-23  8.2727e-21
      5.80  1.4991e-25  2.6956e-21  1.5024e-25  2.6958e-21  1.5084e-25  2.6960e-21  1.5191e-25  2.6963e-21  1.5381e-25  2.6970e-21  1.5719e-25  2.6981e-21  1.6317e-25  2.7002e-21  1.7370e-25  2.7039e-21  1.9234e-25  2.7105e-21  2.2545e-25  2.7222e-21  2.8420e-25  2.7429e-21  3.8866e-25  2.7800e-21  5.7443e-25  2.8460e-21  9.0502e-25  2.9642e-21  1.4939e-24  3.1766e-21  2.5440e-24  3.5616e-21  4.4206e-24  4.2688e-21  7.7857e-24  5.6001e-21  1.3850e-23  8.3654e-21
      5.85  1.4400e-25  3.0236e-21  1.4430e-25  3.0237e-21  1.4483e-25  3.0239e-21  1.4578e-25  3.0242e-21  1.4747e-25  3.0249e-21  1.5048e-25  3.0260e-21  1.5575e-25  3.0281e-21  1.6503e-25  3.0317e-21  1.8151e-25  3.0381e-21  2.1079e-25  3.0496e-21  2.6272e-25  3.0700e-21  3.5501e-25  3.1063e-21  5.1918e-25  3.1711e-21  8.1139e-25  3.2939e-21  1.3317e-24  3.5076e-21  2.2595e-24  3.8948e-21  3.9172e-24  4.6061e-21  6.8883e-24  5.9426e-21  1.2239e-23  8.5670e-21
      5.90  1.3897e-25  3.3916e-21  1.3924e-25  3.3917e-21  1.3972e-25  3.3919e-21  1.4057e-25  3.3923e-21  1.4208e-25  3.3930e-21  1.4478e-25  3.3942e-21  1.4948e-25  3.3963e-21  1.5778e-25  3.4001e-21  1.7252e-25  3.4069e-21  1.9860e-25  3.4188e-21  2.4490e-25  3.4401e-21  3.2720e-25  3.4781e-21  4.7357e-25  3.5458e-21  7.3406e-25  3.6668e-21  1.1979e-24  3.8844e-21  2.0250e-24  4.2787e-21  3.5022e-24  5.0059e-21  6.1488e-24  6.3676e-21  1.0911e-23  9.0161e-21
      5.95  1.3468e-25  3.8046e-21  1.3491e-25  3.8047e-21  1.3534e-25  3.8050e-21  1.3610e-25  3.8053e-21  1.3745e-25  3.8060e-21  1.3986e-25  3.8073e-21  1.4406e-25  3.8095e-21  1.5146e-25  3.8134e-21  1.6454e-25  3.8204e-21  1.8773e-25  3.8327e-21  2.2891e-25  3.8547e-21  3.0206e-25  3.8938e-21  4.3218e-25  3.9636e-21  6.6374e-25  4.0885e-21  1.0761e-24  4.3130e-21  1.8111e-24  4.7195e-21  3.1236e-24  5.4660e-21  5.4738e-24  6.8670e-21  9.7002e-24  9.6371e-21
      6.00  1.3099e-25  4.2681e-21  1.3120e-25  4.2682e-21  1.3157e-25  4.2684e-21  1.3224e-25  4.2688e-21  1.3343e-25  4.2695e-21  1.3556e-25  4.2708e-21  1.3927e-25  4.2731e-21  1.4576e-25  4.2771e-21  1.5723e-25  4.2842e-21  1.7754e-25  4.2969e-21  2.1361e-25  4.3193e-21  2.7772e-25  4.3593e-21  3.9173e-25  4.4307e-21  5.9460e-25  4.5584e-21  9.5581e-25  4.7879e-21  1.5996e-24  5.2044e-21  2.7488e-24  5.9689e-21  4.8053e-24  7.4051e-21  8.4994e-24  1.0200e-20
      6.05  1.2782e-25  4.7881e-21  1.2800e-25  4.7883e-21  1.2832e-25  4.7885e-21  1.2889e-25  4.7889e-21  1.2992e-25  4.7896e-21  1.3177e-25  4.7908e-21  1.3499e-25  4.7931e-21  1.4059e-25  4.7972e-21  1.5045e-25  4.8043e-21  1.6791e-25  4.8168e-21  1.9891e-25  4.8392e-21  2.5402e-25  4.8790e-21  3.5203e-25  4.9501e-21  5.2643e-25  5.0772e-21  8.3690e-25  5.3058e-21  1.3901e-24  5.7210e-21  2.3771e-24  6.4819e-21  4.1421e-24  7.9116e-21  7.3087e-24  1.0695e-20
      6.10  1.2509e-25  5.3717e-21  1.2524e-25  5.3718e-21  1.2550e-25  5.3720e-21  1.2598e-25  5.3724e-21  1.2685e-25  5.3731e-21  1.2841e-25  5.3743e-21  1.3114e-25  5.3766e-21  1.3589e-25  5.3806e-21  1.4421e-25  5.3875e-21  1.5892e-25  5.3999e-21  1.8506e-25  5.4218e-21  2.3153e-25  5.4608e-21  3.1417e-25  5.5304e-21  4.6122e-25  5.6549e-21  7.2296e-25  5.8785e-21  1.1892e-24  6.2833e-21  2.0208e-24  7.0261e-21  3.5068e-24  8.4238e-21  6.1698e-24  1.1134e-20
      6.15  1.2273e-25  6.0264e-21  1.2285e-25  6.0265e-21  1.2307e-25  6.0267e-21  1.2346e-25  6.0271e-21  1.2417e-25  6.0278e-21  1.2545e-25  6.0290e-21  1.2768e-25  6.0312e-21  1.3161e-25  6.0351e-21  1.3846e-25  6.0418e-21  1.5059e-25  6.0537e-21  1.7213e-25  6.0747e-21  2.1041e-25  6.1123e-21  2.7850e-25  6.1792e-21  3.9964e-25  6.2990e-21  6.1524e-25  6.5140e-21  9.9926e-25  6.9037e-21  1.6840e-24  7.6177e-21  2.9070e-24  8.9555e-21  5.0974e-24  1.1554e-20
      6.20  1.2068e-25  6.7610e-21  1.2078e-25  6.7611e-21  1.2096e-25  6.7614e-21  1.2127e-25  6.7617e-21  1.2183e-25  6.7623e-21  1.2284e-25  6.7635e-21  1.2461e-25  6.7657e-21  1.2772e-25  6.7693e-21  1.3320e-25  6.7757e-21  1.4290e-25  6.7869e-21  1.6010e-25  6.8068e-21  1.9067e-25  6.8422e-21  2.4505e-25  6.9053e-21  3.4178e-25  7.0182e-21  5.1394e-25  7.2209e-21  8.2056e-25  7.5873e-21  1.3672e-24  8.2586e-21  2.3435e-24  9.5147e-21  4.0913e-24  1.1941e-20
      6.25  1.1891e-25  7.5853e-21  1.1898e-25  7.5854e-21  1.1912e-25  7.5856e-21  1.1936e-25  7.5859e-21  1.1979e-25  7.5865e-21  1.2056e-25  7.5876e-21  1.2191e-25  7.5897e-21  1.2429e-25  7.5931e-21  1.2850e-25  7.5990e-21  1.3596e-25  7.6093e-21  1.4920e-25  7.6276e-21  1.7274e-25  7.6602e-21  2.1459e-25  7.7182e-21  2.8904e-25  7.8220e-21  4.2155e-25  8.0081e-21  6.5753e-25  8.3444e-21  1.0782e-24  8.9588e-21  1.8296e-24  1.0110e-20  3.1747e-24  1.2322e-20
      6.30  1.1736e-25  8.5101e-21  1.1742e-25  8.5102e-21  1.1752e-25  8.5104e-21  1.1770e-25  8.5107e-21  1.1802e-25  8.5112e-21  1.1858e-25  8.5122e-21  1.1958e-25  8.5143e-21  1.2134e-25  8.5175e-21  1.2447e-25  8.5229e-21  1.3001e-25  8.5324e-21  1.3985e-25  8.5493e-21  1.5733e-25  8.5793e-21  1.8842e-25  8.6326e-21  2.4374e-25  8.7279e-21  3.4218e-25  8.8987e-21  5.1751e-25  9.2073e-21  8.3008e-25  9.7695e-21  1.3883e-24  1.0813e-20  2.3878e-24  1.2823e-20
      6.35  1.1602e-25  9.5477e-21  1.1607e-25  9.5478e-21  1.1614e-25  9.5480e-21  1.1627e-25  9.5483e-21  1.1650e-25  9.5488e-21  1.1690e-25  9.5497e-21  1.1762e-25  9.5519e-21  1.1889e-25  9.5550e-21  1.2115e-25  9.5603e-21  1.2517e-25  9.5694e-21  1.3231e-25  9.5854e-21  1.4499e-25  9.6139e-21  1.6755e-25  9.6647e-21  2.0767e-25  9.7553e-21  2.7908e-25  9.9176e-21  4.0626e-25  1.0209e-20  6.3300e-25  1.0741e-20  1.0379e-24  1.1724e-20  1.7630e-24  1.3576e-20
      6.40  1.1486e-25  1.0712e-20  1.1489e-25  1.0712e-20  1.1494e-25  1.0712e-20  1.1503e-25  1.0712e-20  1.1520e-25  1.0713e-20  1.1549e-25  1.0714e-20  1.1601e-25  1.0716e-20  1.1692e-25  1.0719e-20  1.1855e-25  1.0725e-20  1.2145e-25  1.0734e-20  1.2661e-25  1.0750e-20  1.3577e-25  1.0778e-20  1.5207e-25  1.0829e-20  1.8108e-25  1.0919e-20  2.3270e-25  1.1081e-20  3.2464e-25  1.1371e-20  4.8855e-25  1.1895e-20  7.8134e-25  1.2859e-20  1.3058e-24  1.4660e-20
      6.45  1.1384e-25  1.2018e-20  1.1386e-25  1.2018e-20  1.1390e-25  1.2018e-20  1.1397e-25  1.2019e-20  1.1409e-25  1.2019e-20  1.1430e-25  1.2020e-20  1.1468e-25  1.2022e-20  1.1534e-25  1.2026e-20  1.1653e-25  1.2032e-20  1.1864e-25  1.2041e-20  1.2240e-25  1.2058e-20  1.2908e-25  1.2087e-20  1.4098e-25  1.2139e-20  1.6215e-25  1.2232e-20  1.9983e-25  1.2397e-20  2.6694e-25  1.2694e-20  3.8663e-25  1.3230e-20  6.0051e-25  1.4206e-20  9.8396e-25  1.6017e-20
      6.50  1.1295e-25  1.3484e-20  1.1297e-25  1.3484e-20  1.1300e-25  1.3484e-20  1.1305e-25  1.3484e-20  1.1313e-25  1.3485e-20  1.1329e-25  1.3486e-20  1.1357e-25  1.3488e-20  1.1407e-25  1.3492e-20  1.1495e-25  1.3498e-20  1.1652e-25  1.3508e-20  1.1932e-25  1.3526e-20  1.2431e-25  1.3556e-20  1.3320e-25  1.3611e-20  1.4901e-25  1.3708e-20  1.7716e-25  1.3881e-20  2.2731e-25  1.4191e-20  3.1677e-25  1.4748e-20  4.7668e-25  1.5759e-20  7.6360e-25  1.7624e-20
      6.55  1.1217e-25  1.5128e-20  1.1218e-25  1.5128e-20  1.1221e-25  1.5128e-20  1.1224e-25  1.5128e-20  1.1231e-25  1.5129e-20  1.1243e-25  1.5130e-20  1.1265e-25  1.5133e-20  1.1303e-25  1.5137e-20  1.1371e-25  1.5144e-20  1.1491e-25  1.5155e-20  1.1706e-25  1.5173e-20  1.2089e-25  1.5206e-20  1.2771e-25  1.5264e-20  1.3987e-25  1.5367e-20  1.6153e-25  1.5551e-20  2.0012e-25  1.5880e-20  2.6898e-25  1.6471e-20  3.9216e-25  1.7538e-20  6.1341e-25  1.9489e-20
      6.60  1.1149e-25  1.6972e-20  1.1150e-25  1.6973e-20  1.1152e-25  1.6973e-20  1.1155e-25  1.6973e-20  1.1160e-25  1.6974e-20  1.1169e-25  1.6975e-20  1.1186e-25  1.6978e-20  1.1217e-25  1.6983e-20  1.1270e-25  1.6991e-20  1.1364e-25  1.7002e-20  1.1532e-25  1.7022e-20  1.1833e-25  1.7058e-20  1.2370e-25  1.7120e-20  1.3327e-25  1.7232e-20  1.5033e-25  1.7431e-20  1.8075e-25  1.7786e-20  2.3506e-25  1.8422e-20  3.3231e-25  1.9567e-20  5.0730e-25  2.1649e-20
      6.65  1.1089e-25  1.9042e-20  1.1090e-25  1.9042e-20  1.1091e-25  1.9042e-20  1.1093e-25  1.9043e-20  1.1098e-25  1.9043e-20  1.1105e-25  1.9045e-20  1.1119e-25  1.9049e-20  1.1143e-25  1.9054e-20  1.1185e-25  1.9062e-20  1.1260e-25  1.9075e-20  1.1394e-25  1.9097e-20  1.1634e-25  1.9136e-20  1.2063e-25  1.9205e-20  1.2828e-25  1.9327e-20  1.4194e-25  1.9544e-20  1.6631e-25  1.9932e-20  2.0988e-25  2.0625e-20  2.8800e-25  2.1870e-20  4.2894e-25  2.4125e-20
      6.70  1.1036e-25  2.1364e-20  1.1037e-25  2.1364e-20  1.1038e-25  2.1364e-20  1.1040e-25  2.1365e-20  1.1043e-25  2.1365e-20  1.1049e-25  2.1367e-20  1.1060e-25  2.1371e-20  1.1080e-25  2.1378e-20  1.1114e-25  2.1387e-20  1.1174e-25  2.1402e-20  1.1282e-25  2.1426e-20  1.1477e-25  2.1469e-20  1.1825e-25  2.1544e-20  1.2447e-25  2.1679e-20  1.3560e-25  2.1918e-20  1.5548e-25  2.2345e-20  1.9109e-25  2.3108e-20  2.5517e-25  2.4475e-20  3.7141e-25  2.6942e-20
      6.75  1.0990e-25  2.3969e-20  1.0990e-25  2.3969e-20  1.0991e-25  2.3969e-20  1.0992e-25  2.3970e-20  1.0995e-25  2.3970e-20  1.0999e-25  2.3972e-20  1.1009e-25  2.3977e-20  1.1025e-25  2.3985e-20  1.1052e-25  2.3996e-20  1.1101e-25  2.4012e-20  1.1188e-25  2.4039e-20  1.1346e-25  2.4086e-20  1.1628e-25  2.4170e-20  1.2135e-25  2.4319e-20  1.3042e-25  2.4585e-20  1.4668e-25  2.5057e-20  1.7588e-25  2.5901e-20  2.2866e-25  2.7412e-20  3.2515e-25  3.0135e-20
      6.80  1.0948e-25  2.6891e-20  1.0949e-25  2.6891e-20  1.0949e-25  2.6891e-20  1.0950e-25  2.6892e-20  1.0952e-25  2.6893e-20  1.0956e-25  2.6895e-20  1.0963e-25  2.6900e-20  1.0977e-25  2.6910e-20  1.0999e-25  2.6922e-20  1.1038e-25  2.6940e-20  1.1107e-25  2.6971e-20  1.1232e-25  2.7024e-20  1.1459e-25  2.7117e-20  1.1865e-25  2.7283e-20  1.2596e-25  2.7579e-20  1.3909e-25  2.8105e-20  1.6275e-25  2.9044e-20  2.0574e-25  3.0722e-20  2.8497e-25  3.3736e-20
      6.85  1.0912e-25  3.0169e-20  1.0912e-25  3.0170e-20  1.0913e-25  3.0170e-20  1.0914e-25  3.0170e-20  1.0915e-25  3.0172e-20  1.0918e-25  3.0173e-20  1.0924e-25  3.0179e-20  1.0935e-25  3.0192e-20  1.0953e-25  3.0206e-20  1.0985e-25  3.0226e-20  1.1042e-25  3.0261e-20  1.1144e-25  3.0320e-20  1.1330e-25  3.0424e-20  1.1666e-25  3.0610e-20  1.2271e-25  3.0939e-20  1.3363e-25  3.1527e-20  1.5340e-25  3.2573e-20  1.8960e-25  3.4444e-20  2.5713e-25  3.7798e-20
      6.90  1.0880e-25  3.3847e-20  1.0880e-25  3.3847e-20  1.0881e-25  3.3848e-20  1.0881e-25  3.3848e-20  1.0882e-25  3.3850e-20  1.0884e-25  3.3852e-20  1.0889e-25  3.3858e-20  1.0900e-25  3.3873e-20  1.0915e-25  3.3890e-20  1.0942e-25  3.3913e-20  1.0991e-25  3.3952e-20  1.1080e-25  3.4018e-20  1.1242e-25  3.4135e-20  1.1536e-25  3.4343e-20  1.2067e-25  3.4712e-20  1.3029e-25  3.5369e-20  1.4784e-25  3.6539e-20  1.8027e-25  3.8630e-20  2.4173e-25  4.2374e-20
      6.95  1.0852e-25  3.7973e-20  1.0852e-25  3.7973e-20  1.0852e-25  3.7974e-20  1.0853e-25  3.7975e-20  1.0853e-25  3.7976e-20  1.0855e-25  3.7978e-20  1.0859e-25  3.7985e-20  1.0869e-25  3.8004e-20  1.0882e-25  3.8023e-20  1.0905e-25  3.8050e-20  1.0947e-25  3.8093e-20  1.1024e-25  3.8168e-20  1.1165e-25  3.8299e-20  1.1420e-25  3.8532e-20  1.1885e-25  3.8946e-20  1.2730e-25  3.9682e-20  1.4277e-25  4.0994e-20  1.7158e-25  4.3335e-20  2.2678e-25  4.7524e-20
      7.00  1.0827e-25  4.2601e-20  1.0827e-25  4.2602e-20  1.0827e-25  4.2602e-20  1.0827e-25  4.2603e-20  1.0828e-25  4.2604e-20  1.0829e-25  4.2607e-20  1.0833e-25  4.2613e-20  1.0842e-25  4.2637e-20  1.0854e-25  4.2660e-20  1.0875e-25  4.2691e-20  1.0912e-25  4.2740e-20  1.0982e-25  4.2824e-20  1.1110e-25  4.2972e-20  1.1345e-25  4.3233e-20  1.1771e-25  4.3697e-20  1.2550e-25  4.4523e-20  1.3982e-25  4.5994e-20  1.6665e-25  4.8618e-20  2.1849e-25  5.3311e-20
      7.05  1.0804e-25  4.7793e-20  1.0804e-25  4.7794e-20  1.0804e-25  4.7794e-20  1.0805e-25  4.7795e-20  1.0805e-25  4.7797e-20  1.0807e-25  4.7800e-20  1.0809e-25  4.7805e-20  1.0818e-25  4.7833e-20  1.0830e-25  4.7861e-20  1.0850e-25  4.7898e-20  1.0886e-25  4.7954e-20  1.0953e-25  4.8048e-20  1.1077e-25  4.8214e-20  1.1306e-25  4.8507e-20  1.1724e-25  4.9028e-20  1.2490e-25  4.9955e-20  1.3903e-25  5.1605e-20  1.6563e-25  5.4547e-20  2.1738e-25  5.9806e-20
      7.10  1.0784e-25  5.3617e-20  1.0784e-25  5.3617e-20  1.0784e-25  5.3618e-20  1.0785e-25  5.3619e-20  1.0785e-25  5.3621e-20  1.0786e-25  5.3624e-20  1.0789e-25  5.3630e-20  1.0797e-25  5.3659e-20  1.0810e-25  5.3695e-20  1.0829e-25  5.3738e-20  1.0864e-25  5.3802e-20  1.0931e-25  5.3909e-20  1.1057e-25  5.4096e-20  1.1291e-25  5.4425e-20  1.1720e-25  5.5010e-20  1.2507e-25  5.6049e-20  1.3964e-25  5.7900e-20  1.6717e-25  6.1199e-20  2.2104e-25  6.7091e-20
      7.15  1.0766e-25  6.0150e-20  1.0766e-25  6.0150e-20  1.0766e-25  6.0151e-20  1.0767e-25  6.0152e-20  1.0767e-25  6.0154e-20  1.0768e-25  6.0158e-20  1.0770e-25  6.0164e-20  1.0778e-25  6.0193e-20  1.0791e-25  6.0239e-20  1.0808e-25  6.0290e-20  1.0840e-25  6.0364e-20  1.0902e-25  6.0485e-20  1.1019e-25  6.0695e-20  1.1240e-25  6.1065e-20  1.1647e-25  6.1721e-20  1.2398e-25  6.2887e-20  1.3792e-25  6.4962e-20  1.6427e-25  6.8660e-20  2.1591e-25  7.5259e-20
      7.20  1.0750e-25  6.7477e-20  1.0750e-25  6.7477e-20  1.0750e-25  6.7478e-20  1.0750e-25  6.7479e-20  1.0751e-25  6.7482e-20  1.0752e-25  6.7486e-20  1.0754e-25  6.7493e-20  1.0759e-25  6.7514e-20  1.0772e-25  6.7575e-20  1.0789e-25  6.7638e-20  1.0818e-25  6.7724e-20  1.0874e-25  6.7862e-20  1.0981e-25  6.8098e-20  1.1186e-25  6.8514e-20  1.1568e-25  6.9250e-20  1.2276e-25  7.0558e-20  1.3595e-25  7.2886e-20  1.6094e-25  7.7031e-20  2.0990e-25  8.4423e-20
      7.25  1.0735e-25  7.5695e-20  1.0735e-25  7.5695e-20  1.0736e-25  7.5696e-20  1.0736e-25  7.5698e-20  1.0736e-25  7.5700e-20  1.0737e-25  7.5705e-20  1.0739e-25  7.5713e-20  1.0743e-25  7.5728e-20  1.0755e-25  7.5800e-20  1.0771e-25  7.5879e-20  1.0798e-25  7.5980e-20  1.0847e-25  7.6137e-20  1.0942e-25  7.6404e-20  1.1127e-25  7.6871e-20  1.1477e-25  7.7698e-20  1.2131e-25  7.9166e-20  1.3354e-25  8.1776e-20  1.5673e-25  8.6423e-20  2.0217e-25  9.4706e-20
      7.30  1.0722e-25  8.4912e-20  1.0722e-25  8.4913e-20  1.0722e-25  8.4914e-20  1.0723e-25  8.4915e-20  1.0723e-25  8.4918e-20  1.0724e-25  8.4923e-20  1.0725e-25  8.4933e-20  1.0729e-25  8.4949e-20  1.0739e-25  8.5019e-20  1.0756e-25  8.5120e-20  1.0780e-25  8.5241e-20  1.0823e-25  8.5421e-20  1.0909e-25  8.5723e-20  1.1077e-25  8.6249e-20  1.1400e-25  8.7177e-20  1.2010e-25  8.8824e-20  1.3158e-25  9.1752e-20  1.5342e-25  9.6964e-20  1.9622e-25  1.0625e-19
      7.35  1.0710e-25  9.5249e-20  1.0710e-25  9.5249e-20  1.0710e-25  9.5250e-20  1.0710e-25  9.5252e-20  1.0711e-25  9.5256e-20  1.0712e-25  9.5261e-20  1.0713e-25  9.5272e-20  1.0716e-25  9.5290e-20  1.0724e-25  9.5352e-20  1.0742e-25  9.5483e-20  1.0765e-25  9.5628e-20  1.0805e-25  9.5836e-20  1.0884e-25  9.6178e-20  1.1040e-25  9.6769e-20  1.1344e-25  9.7812e-20  1.1925e-25  9.9660e-20  1.3027e-25  1.0295e-19  1.5131e-25  1.0879e-19  1.9258e-25  1.1920e-19
      7.40  1.0698e-25  1.0684e-19  1.0699e-25  1.0684e-19  1.0699e-25  1.0684e-19  1.0699e-25  1.0684e-19  1.0699e-25  1.0685e-19  1.0700e-25  1.0685e-19  1.0701e-25  1.0687e-19  1.0704e-25  1.0689e-19  1.0710e-25  1.0693e-19  1.0730e-25  1.0710e-19  1.0753e-25  1.0728e-19  1.0791e-25  1.0752e-19  1.0865e-25  1.0791e-19  1.1012e-25  1.0857e-19  1.1303e-25  1.0974e-19  1.1864e-25  1.1182e-19  1.2935e-25  1.1551e-19  1.4988e-25  1.2206e-19  1.9025e-25  1.3374e-19
      7.45  1.0688e-25  1.1984e-19  1.0688e-25  1.1984e-19  1.0688e-25  1.1984e-19  1.0688e-25  1.1984e-19  1.0689e-25  1.1985e-19  1.0689e-25  1.1985e-19  1.0691e-25  1.1987e-19  1.0693e-25  1.1989e-19  1.0701e-25  1.1997e-19  1.0721e-25  1.2017e-19  1.0743e-25  1.2037e-19  1.0778e-25  1.2064e-19  1.0845e-25  1.2107e-19  1.0979e-25  1.2182e-19  1.1245e-25  1.2313e-19  1.1765e-25  1.2546e-19  1.2765e-25  1.2960e-19  1.4692e-25  1.3696e-19  1.8484e-25  1.5005e-19
      7.50  1.0678e-25  1.3441e-19  1.0678e-25  1.3441e-19  1.0678e-25  1.3441e-19  1.0678e-25  1.3442e-19  1.0678e-25  1.3442e-19  1.0679e-25  1.3443e-19  1.0680e-25  1.3444e-19  1.0683e-25  1.3447e-19  1.0694e-25  1.3460e-19  1.0713e-25  1.3482e-19  1.0735e-25  1.3505e-19  1.0768e-25  1.3536e-19  1.0830e-25  1.3585e-19  1.0954e-25  1.3668e-19  1.1202e-25  1.3816e-19  1.1693e-25  1.4077e-19  1.2647e-25  1.4541e-19  1.4492e-25  1.5367e-19  1.8133e-25  1.6835e-19
      7.55  1.0668e-25  1.5075e-19  1.0668e-25  1.5075e-19  1.0668e-25  1.5075e-19  1.0668e-25  1.5076e-19  1.0668e-25  1.5076e-19  1.0669e-25  1.5077e-19  1.0670e-25  1.5079e-19  1.0673e-25  1.5082e-19  1.0687e-25  1.5101e-19  1.0707e-25  1.5127e-19  1.0728e-25  1.5153e-19  1.0760e-25  1.5187e-19  1.0819e-25  1.5242e-19  1.0935e-25  1.5336e-19  1.1169e-25  1.5502e-19  1.1638e-25  1.5795e-19  1.2558e-25  1.6316e-19  1.4354e-25  1.7242e-19  1.7912e-25  1.8890e-19
      7.60  1.0658e-25  1.6907e-19  1.0658e-25  1.6907e-19  1.0658e-25  1.6907e-19  1.0658e-25  1.6907e-19  1.0659e-25  1.6908e-19  1.0659e-25  1.6909e-19  1.0661e-25  1.6911e-19  1.0663e-25  1.6914e-19  1.0682e-25  1.6942e-19  1.0701e-25  1.6972e-19  1.0722e-25  1.7001e-19  1.0753e-25  1.7040e-19  1.0808e-25  1.7102e-19  1.0915e-25  1.7207e-19  1.1130e-25  1.7393e-19  1.1562e-25  1.7722e-19  1.2417e-25  1.8306e-19  1.4094e-25  1.9346e-19  1.7423e-25  2.1195e-19
      7.65  1.0648e-25  1.8960e-19  1.0648e-25  1.8960e-19  1.0648e-25  1.8960e-19  1.0649e-25  1.8961e-19  1.0649e-25  1.8961e-19  1.0650e-25  1.8962e-19  1.0651e-25  1.8964e-19  1.0653e-25  1.8968e-19  1.0676e-25  1.9008e-19  1.0696e-25  1.9042e-19  1.0717e-25  1.9075e-19  1.0747e-25  1.9119e-19  1.0799e-25  1.9188e-19  1.0899e-25  1.9307e-19  1.1098e-25  1.9515e-19  1.1496e-25  1.9884e-19  1.2288e-25  2.0540e-19  1.3851e-25  2.1706e-19  1.6961e-25  2.3781e-19
      7.70  1.0638e-25  2.1261e-19  1.0638e-25  2.1261e-19  1.0638e-25  2.1261e-19  1.0639e-25  2.1261e-19  1.0639e-25  2.1262e-19  1.0640e-25  2.1263e-19  1.0641e-25  2.1266e-19  1.0644e-25  2.1271e-19  1.0671e-25  2.1324e-19  1.0692e-25  2.1363e-19  1.0712e-25  2.1401e-19  1.0742e-25  2.1451e-19  1.0791e-25  2.1529e-19  1.0885e-25  2.1662e-19  1.1070e-25  2.1896e-19  1.1438e-25  2.2311e-19  1.2172e-25  2.3047e-19  1.3626e-25  2.4355e-19  1.6526e-25  2.6683e-19
      7.75  1.0628e-25  2.3839e-19  1.0628e-25  2.3839e-19  1.0628e-25  2.3839e-19  1.0628e-25  2.3840e-19  1.0629e-25  2.3840e-19  1.0629e-25  2.3842e-19  1.0631e-25  2.3844e-19  1.0638e-25  2.3860e-19  1.0666e-25  2.3923e-19  1.0687e-25  2.3968e-19  1.0708e-25  2.4011e-19  1.0737e-25  2.4067e-19  1.0785e-25  2.4155e-19  1.0874e-25  2.4305e-19  1.1047e-25  2.4568e-19  1.1388e-25  2.5033e-19  1.2068e-25  2.5859e-19  1.3419e-25  2.7328e-19  1.6120e-25  2.9940e-19
      7.80  1.0617e-25  2.6727e-19  1.0617e-25  2.6727e-19  1.0617e-25  2.6727e-19  1.0617e-25  2.6728e-19  1.0618e-25  2.6729e-19  1.0618e-25  2.6730e-19  1.0620e-25  2.6733e-19  1.0631e-25  2.6761e-19  1.0661e-25  2.6836e-19  1.0683e-25  2.6889e-19  1.0704e-25  2.6939e-19  1.0733e-25  2.7003e-19  1.0780e-25  2.7102e-19  1.0865e-25  2.7271e-19  1.1027e-25  2.7566e-19  1.1346e-25  2.8088e-19  1.1978e-25  2.9015e-19  1.3234e-25  3.0663e-19  1.5750e-25  3.3594e-19
      7.85  1.0605e-25  2.9962e-19  1.0605e-25  2.9962e-19  1.0605e-25  2.9962e-19  1.0606e-25  2.9963e-19  1.0606e-25  2.9964e-19  1.0607e-25  2.9966e-19  1.0608e-25  2.9969e-19  1.0623e-25  3.0011e-19  1.0655e-25  3.0101e-19  1.0679e-25  3.0165e-19  1.0701e-25  3.0223e-19  1.0729e-25  3.0296e-19  1.0775e-25  3.0408e-19  1.0857e-25  3.0598e-19  1.1011e-25  3.0929e-19  1.1310e-25  3.1515e-19  1.1900e-25  3.2555e-19  1.3070e-25  3.4405e-19  1.5418e-25  3.7695e-19
      7.90  1.0593e-25  3.3585e-19  1.0593e-25  3.3585e-19  1.0593e-25  3.3585e-19  1.0593e-25  3.3586e-19  1.0594e-25  3.3587e-19  1.0594e-25  3.3589e-19  1.0595e-25  3.3593e-19  1.0617e-25  3.3660e-19  1.0651e-25  3.3767e-19  1.0675e-25  3.3842e-19  1.0697e-25  3.3909e-19  1.0726e-25  3.3992e-19  1.0771e-25  3.4118e-19  1.0850e-25  3.4331e-19  1.0997e-25  3.4703e-19  1.1277e-25  3.5360e-19  1.1824e-25  3.6528e-19  1.2907e-25  3.8604e-19  1.5075e-25  4.2296e-19
      7.95  1.0579e-25  3.7640e-19  1.0579e-25  3.7640e-19  1.0579e-25  3.7640e-19  1.0579e-25  3.7641e-19  1.0580e-25  3.7643e-19  1.0580e-25  3.7645e-19  1.0582e-25  3.7649e-19  1.0610e-25  3.7750e-19  1.0646e-25  3.7878e-19  1.0672e-25  3.7965e-19  1.0694e-25  3.8043e-19  1.0723e-25  3.8137e-19  1.0767e-25  3.8280e-19  1.0844e-25  3.8519e-19  1.0984e-25  3.8937e-19  1.1248e-25  3.9675e-19  1.1757e-25  4.0986e-19  1.2756e-25  4.3316e-19  1.4746e-25  4.7460e-19
      8.00  1.0564e-25  4.2178e-19  1.0564e-25  4.2178e-19  1.0564e-25  4.2179e-19  1.0564e-25  4.2180e-19  1.0565e-25  4.2181e-19  1.0565e-25  4.2184e-19  1.0567e-25  4.2188e-19  1.0603e-25  4.2332e-19  1.0641e-25  4.2485e-19  1.0668e-25  4.2590e-19  1.0691e-25  4.2681e-19  1.0720e-25  4.2788e-19  1.0764e-25  4.2949e-19  1.0838e-25  4.3218e-19  1.0973e-25  4.3688e-19  1.1225e-25  4.4517e-19  1.1702e-25  4.5988e-19  1.2627e-25  4.8603e-19  1.4454e-25  5.3254e-19
      8.05  1.0547e-25  4.7255e-19  1.0547e-25  4.7255e-19  1.0547e-25  4.7256e-19  1.0547e-25  4.7257e-19  1.0548e-25  4.7258e-19  1.0548e-25  4.7261e-19  1.0550e-25  4.7267e-19  1.0594e-25  4.7463e-19  1.0635e-25  4.7650e-19  1.0664e-25  4.7776e-19  1.0688e-25  4.7882e-19  1.0717e-25  4.8006e-19  1.0760e-25  4.8188e-19  1.0834e-25  4.8491e-19  1.0965e-25  4.9018e-19  1.1206e-25  4.9949e-19  1.1658e-25  5.1600e-19  1.2523e-25  5.4536e-19  1.4213e-25  5.9755e-19
      8.10  1.0528e-25  5.2932e-19  1.0528e-25  5.2933e-19  1.0528e-25  5.2933e-19  1.0529e-25  5.2934e-19  1.0529e-25  5.2936e-19  1.0530e-25  5.2939e-19  1.0531e-25  5.2945e-19  1.0583e-25  5.3206e-19  1.0629e-25  5.3437e-19  1.0660e-25  5.3590e-19  1.0685e-25  5.3716e-19  1.0714e-25  5.3858e-19  1.0758e-25  5.4065e-19  1.0830e-25  5.4406e-19  1.0958e-25  5.4998e-19  1.1191e-25  5.6043e-19  1.1623e-25  5.7897e-19  1.2439e-25  6.1192e-19  1.4014e-25  6.7051e-19
      8.15  1.0507e-25  5.9277e-19  1.0507e-25  5.9278e-19  1.0507e-25  5.9278e-19  1.0507e-25  5.9280e-19  1.0508e-25  5.9282e-19  1.0508e-25  5.9285e-19  1.0510e-25  5.9292e-19  1.0570e-25  5.9633e-19  1.0621e-25  5.9920e-19  1.0655e-25  6.0108e-19  1.0682e-25  6.0258e-19  1.0712e-25  6.0423e-19  1.0755e-25  6.0658e-19  1.0827e-25  6.1043e-19  1.0952e-25  6.1708e-19  1.1179e-25  6.2882e-19  1.1595e-25  6.4963e-19  1.2371e-25  6.8661e-19  1.3849e-25  7.5236e-19
      8.20  1.0483e-25  6.6365e-19  1.0483e-25  6.6365e-19  1.0483e-25  6.6366e-19  1.0484e-25  6.6367e-19  1.0484e-25  6.6370e-19  1.0485e-25  6.6374e-19  1.0486e-25  6.6381e-19  1.0556e-25  6.6822e-19  1.0613e-25  6.7182e-19  1.0649e-25  6.7414e-19  1.0678e-25  6.7595e-19  1.0709e-25  6.7787e-19  1.0753e-25  6.8054e-19  1.0824e-25  6.8488e-19  1.0948e-25  6.9237e-19  1.1170e-25  7.0554e-19  1.1574e-25  7.2891e-19  1.2320e-25  7.7041e-19  1.3724e-25  8.4421e-19
      8.25  1.0456e-25  7.4277e-19  1.0456e-25  7.4277e-19  1.0457e-25  7.4278e-19  1.0457e-25  7.4280e-19  1.0457e-25  7.4282e-19  1.0458e-25  7.4287e-19  1.0459e-25  7.4295e-19  1.0538e-25  7.4859e-19  1.0602e-25  7.5313e-19  1.0643e-25  7.5602e-19  1.0674e-25  7.5822e-19  1.0706e-25  7.6046e-19  1.0750e-25  7.6351e-19  1.0821e-25  7.6841e-19  1.0944e-25  7.7683e-19  1.1163e-25  7.9163e-19  1.1558e-25  8.1785e-19  1.2283e-25  8.6444e-19  1.3630e-25  9.4727e-19
      8.30  1.0426e-25  8.3103e-19  1.0426e-25  8.3103e-19  1.0426e-25  8.3104e-19  1.0426e-25  8.3106e-19  1.0427e-25  8.3108e-19  1.0427e-25  8.3114e-19  1.0429e-25  8.3123e-19  1.0518e-25  8.3839e-19  1.0591e-25  8.4415e-19  1.0636e-25  8.4777e-19  1.0670e-25  8.5045e-19  1.0704e-25  8.5309e-19  1.0748e-25  8.5659e-19  1.0819e-25  8.6212e-19  1.0941e-25  8.7159e-19  1.1157e-25  8.8821e-19  1.1547e-25  9.1765e-19  1.2254e-25  9.6994e-19  1.3559e-25  1.0629e-18
      8.35  1.0391e-25  9.2939e-19  1.0392e-25  9.2939e-19  1.0392e-25  9.2940e-19  1.0392e-25  9.2942e-19  1.0392e-25  9.2945e-19  1.0393e-25  9.2951e-19  1.0394e-25  9.2961e-19  1.0495e-25  9.3868e-19  1.0577e-25  9.4601e-19  1.0628e-25  9.5057e-19  1.0665e-25  9.5386e-19  1.0701e-25  9.5698e-19  1.0746e-25  9.6099e-19  1.0817e-25  9.6725e-19  1.0939e-25  9.7791e-19  1.1153e-25  9.9658e-19  1.1538e-25  1.0296e-18  1.2233e-25  1.0883e-18  1.3505e-25  1.1926e-18
      8.40  1.0352e-25  1.0389e-18  1.0352e-25  1.0389e-18  1.0353e-25  1.0389e-18  1.0353e-25  1.0389e-18  1.0353e-25  1.0390e-18  1.0354e-25  1.0390e-18  1.0355e-25  1.0392e-18  1.0469e-25  1.0506e-18  1.0562e-25  1.0600e-18  1.0620e-25  1.0657e-18  1.0660e-25  1.0698e-18  1.0697e-25  1.0735e-18  1.0744e-25  1.0781e-18  1.0815e-25  1.0852e-18  1.0937e-25  1.0972e-18  1.1150e-25  1.1182e-18  1.1531e-25  1.1553e-18  1.2217e-25  1.2211e-18  1.3464e-25  1.3382e-18
      8.45  1.0308e-25  1.1607e-18  1.0308e-25  1.1607e-18  1.0308e-25  1.1607e-18  1.0308e-25  1.1608e-18  1.0309e-25  1.1608e-18  1.0309e-25  1.1609e-18  1.0310e-25  1.1610e-18  1.0439e-25  1.1755e-18  1.0545e-25  1.1874e-18  1.0610e-25  1.1947e-18  1.0654e-25  1.1997e-18  1.0694e-25  1.2041e-18  1.0741e-25  1.2094e-18  1.0813e-25  1.2175e-18  1.0935e-25  1.2310e-18  1.1147e-25  1.2546e-18  1.1526e-25  1.2962e-18  1.2205e-25  1.3701e-18  1.3434e-25  1.5015e-18
      8.50  1.0257e-25  1.2960e-18  1.0257e-25  1.2960e-18  1.0258e-25  1.2960e-18  1.0258e-25  1.2960e-18  1.0258e-25  1.2961e-18  1.0259e-25  1.2962e-18  1.0260e-25  1.2963e-18  1.0405e-25  1.3146e-18  1.0525e-25  1.3298e-18  1.0598e-25  1.3391e-18  1.0648e-25  1.3453e-18  1.0690e-25  1.3506e-18  1.0739e-25  1.3568e-18  1.0812e-25  1.3659e-18  1.0933e-25  1.3811e-18  1.1145e-25  1.4076e-18  1.1522e-25  1.4544e-18  1.2196e-25  1.5373e-18  1.3411e-25  1.6848e-18
