# This was generated using Cloudy10 and the columns are ordered 
# as log10 of the fraction of the metallicity to the solar metallicity
# 'h_*_Z' and 'c_*_Z' stands for cooling and heating respectively 
# at * metalicity
#
# Redshift = 0.0
# hden = 4.0
#     temp   h_-3.00_Z   c_-3.00_Z   h_-2.75_Z   c_-2.75_Z   h_-2.50_Z   c_-2.50_Z   h_-2.25_Z   c_-2.25_Z   h_-2.00_Z   c_-2.00_Z   h_-1.75_Z   c_-1.75_Z   h_-1.50_Z   c_-1.50_Z   h_-1.25_Z   c_-1.25_Z   h_-1.00_Z   c_-1.00_Z   h_-0.75_Z   c_-0.75_Z   h_-0.50_Z   c_-0.50_Z   h_-0.25_Z   c_-0.25_Z    h_0.00_Z    c_0.00_Z    h_0.25_Z    c_0.25_Z    h_0.50_Z    c_0.50_Z    h_0.75_Z    c_0.75_Z    h_1.00_Z    c_1.00_Z    h_1.25_Z    c_1.25_Z    h_1.50_Z    c_1.50_Z 
      4.00  5.566e-29  1.6794e-26  5.5661e-29  1.6835e-26  5.5662e-29  1.6908e-26  5.5664e-29  1.7037e-26  5.5668e-29  1.7265e-26  5.5676e-29  1.7669e-26  5.5689e-29  1.8386e-26  5.5712e-29  1.9661e-26  5.5754e-29  2.1924e-26  5.5831e-29  2.5938e-26  5.598e-29  3.3024e-26  5.6288e-29  4.5439e-26  5.6981e-29  6.6904e-26  5.8516e-29  1.0335e-25  6.146e-29  1.6388e-25  6.624e-29  2.6239e-25  7.343e-29  4.248e-25  8.358e-29  7.1752e-25  1.0109e-28  1.3838e-24
      4.05  5.5038e-29  1.4487e-25  5.5044e-29  1.4496e-25  5.5055e-29  1.4511e-25  5.5075e-29  1.4537e-25  5.5111e-29  1.4573e-25  5.5173e-29  1.4673e-25  5.5284e-29  1.4826e-25  5.5482e-29  1.5097e-25  5.5831e-29  1.5578e-25  5.6449e-29  1.643e-25  5.7537e-29  1.7931e-25  5.9433e-29  2.0547e-25  6.2671e-29  2.4999e-25  6.7955e-29  3.2271e-25  7.5781e-29  4.331e-25  8.5328e-29  5.8303e-25  9.3912e-29  7.8055e-25  1.0108e-28  1.1464e-24  1.1211e-28  2.1188e-24
      4.10  5.1501e-29  2.5151e-24  5.1547e-29  2.5157e-24  5.163e-29  2.5166e-24  5.1778e-29  2.5183e-24  5.204e-29  2.5214e-24  5.2505e-29  2.5269e-24  5.3333e-29  2.5366e-24  5.4803e-29  2.5539e-24  5.7413e-29  2.5847e-24  6.2039e-29  2.6392e-24  7.0219e-29  2.736e-24  8.4617e-29  2.9073e-24  1.0976e-28  3.2085e-24   1.53e-28  3.7325e-24  2.2538e-28  4.6237e-24  3.4022e-28  6.0732e-24  5.0298e-28  8.218e-24  6.7559e-28  1.0722e-23  7.1239e-28  1.1934e-23
      4.15  4.3056e-29  2.3401e-23  4.3229e-29  2.3404e-23  4.3538e-29  2.3409e-23  4.4087e-29  2.3418e-23  4.5064e-29  2.3433e-23   4.68e-29  2.3461e-23  4.9888e-29  2.351e-23  5.5378e-29  2.3598e-23  6.5136e-29  2.3754e-23  8.2477e-29  2.4031e-23  1.1328e-28  2.4524e-23  1.6793e-28  2.5399e-23  2.6475e-28  2.6952e-23  4.3575e-28  2.9703e-23  7.3612e-28  3.4559e-23  1.2585e-27  4.3076e-23  2.1505e-27  5.7833e-23  3.6229e-27  8.2829e-23  5.9004e-27  1.2344e-22
      4.20  3.4341e-29  8.6036e-23  3.4613e-29  8.6044e-23  3.5095e-29  8.6058e-23  3.5952e-29  8.6084e-23  3.7476e-29  8.6129e-23  4.0187e-29  8.621e-23  4.5007e-29  8.6354e-23  5.3578e-29  8.6609e-23  6.8819e-29  8.7064e-23  9.592e-29  8.7872e-23  1.4409e-28  8.9309e-23  2.2975e-28  9.1865e-23   3.82e-28  9.6411e-23  6.525e-28  1.0449e-22  1.1326e-27  1.1887e-22  1.9841e-27  1.4443e-22  3.4913e-27  1.899e-22  6.1468e-27  2.707e-22  1.0791e-26  4.1423e-22
      4.25  5.1297e-29  1.2965e-22  5.1297e-29  1.2966e-22  5.1297e-29  1.2968e-22  5.1296e-29  1.2972e-22  5.1296e-29  1.298e-22  5.1294e-29  1.2992e-22  5.1292e-29  1.3015e-22  5.1288e-29  1.3056e-22  5.1282e-29  1.3128e-22  5.1275e-29  1.3256e-22  5.1269e-29  1.3483e-22  5.1286e-29  1.3888e-22  5.1396e-29  1.4609e-22  5.1846e-29  1.5892e-22  5.3391e-29  1.8177e-22  5.8469e-29  2.2254e-22  7.4466e-29  2.9543e-22  1.2401e-28  4.2635e-22  2.7698e-28  6.6324e-22
      4.30  1.2401e-28  1.2076e-22  1.2354e-28  1.2078e-22  1.2272e-28  1.208e-22  1.2125e-28  1.2085e-22  1.1863e-28  1.2094e-22  1.1399e-28  1.2109e-22  1.0573e-28  1.2136e-22  9.1044e-29  1.2183e-22  6.4933e-29  1.2268e-22  5.1584e-29  1.2419e-22  8.2618e-29  1.2688e-22  1.3792e-28  1.3167e-22  2.3663e-28  1.4018e-22  4.1327e-28  1.5533e-22  7.3073e-28  1.8233e-22  1.305e-27  2.3051e-22  2.3541e-27  3.1675e-22  4.2987e-27  4.7185e-22  7.9799e-27  7.5319e-22
      4.35  2.7105e-28  9.6389e-23  2.6999e-28  9.6407e-23  2.6811e-28  9.6439e-23  2.6477e-28  9.6497e-23  2.5882e-28  9.6599e-23  2.4825e-28  9.678e-23  2.2945e-28  9.7102e-23  1.9602e-28  9.7675e-23  1.3658e-28  9.8694e-23  1.0199e-28  1.0051e-22  1.7025e-28  1.0373e-22  2.9193e-28  1.0947e-22  5.0916e-28  1.1967e-22  8.9808e-28  1.3784e-22  1.5973e-27  1.7021e-22  2.8617e-27  2.2799e-22  5.167e-27  3.314e-22  9.4138e-27  5.174e-22  1.7272e-26  8.5489e-22
      4.40  4.2763e-28  7.5842e-23  4.2603e-28  7.5865e-23  4.2317e-28  7.5906e-23  4.181e-28  7.5979e-23  4.0909e-28  7.6109e-23  3.9305e-28  7.634e-23  3.6454e-28  7.6751e-23  3.1385e-28  7.7482e-23  2.2373e-28  7.8783e-23  1.5952e-28  8.1095e-23  2.6848e-28  8.5208e-23  4.6296e-28  9.2525e-23  8.1102e-28  1.0554e-22  1.4363e-27  1.2872e-22  2.5659e-27  1.7001e-22  4.6197e-27  2.4369e-22  8.3769e-27  3.755e-22  1.5078e-26  6.125e-22  2.7189e-26  1.0422e-21
      4.45  4.358e-28  6.0261e-23  4.3375e-28  6.0291e-23  4.301e-28  6.0345e-23  4.2361e-28  6.0441e-23  4.1207e-28  6.0612e-23  3.9154e-28  6.0915e-23  3.5506e-28  6.1454e-23  2.902e-28  6.2413e-23  1.7495e-28  6.4118e-23  2.1754e-28  6.7151e-23  3.6733e-28  7.2544e-23  6.3616e-28  8.2139e-23  1.1211e-27  9.9211e-23  2.0018e-27  1.296e-22  3.612e-27  1.8373e-22  6.5178e-27  2.8032e-22  1.1629e-26  4.5313e-22  2.0712e-26  7.6374e-22  3.7032e-26  1.3267e-21
      4.50  3.2954e-28  4.7646e-23  3.2713e-28  4.7685e-23  3.2284e-28  4.7756e-23  3.1521e-28  4.7882e-23  3.0165e-28  4.8106e-23  2.7754e-28  4.8504e-23  2.3469e-28  4.9213e-23  1.5855e-28  5.0472e-23  1.5399e-28  5.2712e-23  2.5479e-28  5.6695e-23  4.3591e-28  6.378e-23  7.634e-28  7.6382e-23  1.3603e-27  9.8805e-23  2.458e-27  1.3872e-22  4.4159e-27  2.0985e-22  7.848e-27  3.368e-22  1.3949e-26  5.6401e-22  2.476e-26  9.7265e-22  4.438e-26  1.714e-21
      4.55  2.2425e-28  3.7819e-23  2.2164e-28  3.7872e-23   2.17e-28  3.7965e-23  2.0874e-28  3.813e-23  1.9407e-28  3.8424e-23  1.6799e-28  3.8947e-23  1.2164e-28  3.9878e-23  9.4208e-29  4.1532e-23  1.5394e-28  4.4474e-23  2.6114e-28  4.9707e-23  4.5474e-28  5.9014e-23  8.0756e-28  7.5571e-23  1.4582e-27  1.0503e-22  2.6164e-27  1.5748e-22  4.6669e-27  2.5097e-22  8.3215e-27  4.1786e-22  1.4741e-26  7.1671e-22  2.6237e-26  1.2547e-21  4.7159e-26  2.2321e-21
      4.60  1.5233e-28  3.0547e-23  1.4978e-28  3.0615e-23  1.4524e-28  3.0737e-23  1.3716e-28  3.0955e-23  1.2281e-28  3.1341e-23  9.7309e-29  3.2027e-23  5.1999e-29  3.3248e-23  8.3029e-29  3.5419e-23  1.3933e-28  3.928e-23  2.4083e-28  4.6147e-23  4.2554e-28  5.8362e-23  7.6619e-28  8.009e-23  1.3764e-27  1.1876e-22   2.47e-27  1.8761e-22  4.4056e-27  3.1034e-22  7.8363e-27  5.2949e-22  1.3923e-26  9.2208e-22  2.4838e-26  1.6294e-21  4.4731e-26  2.9163e-21
      4.65  1.0779e-28  2.5988e-23  1.0553e-28  2.6078e-23  1.0154e-28  2.6237e-23  9.4478e-29  2.6786e-23  8.1762e-29  2.7027e-23  5.9283e-29  2.7925e-23  4.1916e-29  2.9523e-23  6.8474e-29  3.2364e-23  1.1626e-28  3.7416e-23  2.0299e-28  4.6402e-23  3.6249e-28  6.2385e-23  6.5375e-28  9.082e-23  1.1783e-27  1.4143e-22  2.1119e-27  2.3155e-22  3.7916e-27  3.9221e-22  6.7601e-27  6.7921e-22  1.2007e-26  1.1937e-21  2.1419e-26  2.1215e-21  3.859e-26  3.8129e-21
      4.70  8.0801e-29  2.497e-23  7.9001e-29  2.5087e-23  7.5803e-29  2.5296e-23  7.0117e-29  2.5666e-23  6.0012e-29  2.6324e-23  4.2065e-29  2.7494e-23  3.3789e-29  2.9575e-23  5.465e-29  3.3276e-23  9.2406e-29  3.9858e-23  1.616e-28  5.1565e-23  2.9094e-28  7.2389e-23  5.2645e-28  1.0944e-22  9.5703e-28  1.7538e-22  1.725e-27  2.9284e-22  3.0795e-27  5.023e-22  5.4638e-27  8.767e-22  9.7138e-27  1.5485e-21  1.7333e-26  2.7623e-21  3.1232e-26  4.9813e-21
      4.75  6.4206e-29  2.9759e-23  6.2908e-29  2.991e-23  6.0601e-29  3.0178e-23  5.6501e-29  3.0654e-23  4.9218e-29  3.1502e-23  3.6296e-29  3.3009e-23  2.873e-29  3.5689e-23  4.4741e-29  4.0456e-23  7.4073e-29  4.8933e-23  1.2893e-28  6.4011e-23  2.3446e-28  9.0831e-23  4.2626e-28  1.3855e-22  7.6812e-28  2.2351e-22  1.3736e-27  3.7485e-22  2.4455e-27  6.4488e-22  4.3384e-27  1.1279e-21  7.6982e-27  1.9956e-21  1.3713e-26  3.5668e-21  2.4711e-26  6.4494e-21
      4.80  5.2713e-29  4.346e-23  5.1912e-29  4.3651e-23  5.0489e-29  4.399e-23  4.7964e-29  4.4593e-23  4.3487e-29  4.5664e-23  3.5568e-29  4.7571e-23  2.6972e-29  5.096e-23  3.9768e-29  5.6989e-23  6.3863e-29  6.771e-23  1.1089e-28  8.6779e-23  2.0066e-28  1.207e-22  3.5665e-28  1.8107e-22  6.3439e-28  2.8854e-22  1.1314e-27  4.8005e-22  2.0088e-27  8.2188e-22  3.5552e-27  1.4337e-21  6.3086e-27  2.5343e-21  1.1233e-26  4.531e-21  2.0245e-26  8.2067e-21
      4.85  4.2265e-29  6.4804e-23  4.196e-29  6.5039e-23  4.1419e-29  6.5458e-23  4.0466e-29  6.6203e-23  3.8795e-29  6.7528e-23   3.59e-29  6.9884e-23  3.0995e-29  7.4074e-23  3.8829e-29  8.1525e-23  6.142e-29  9.4776e-23  1.0551e-28  1.1835e-22   1.85e-28  1.6028e-22  3.2373e-28  2.349e-22  5.7369e-28  3.6776e-22  1.0154e-27  6.0458e-22  1.7922e-27  1.0274e-21  3.157e-27  1.7847e-21  5.5586e-27  3.1483e-21  9.8109e-27  5.6267e-21  1.7546e-26  1.0202e-20
      4.90  3.1467e-29  8.0656e-23  3.1653e-29  8.0937e-23  3.199e-29  8.1438e-23  3.2603e-29  8.2329e-23  3.3746e-29  8.3914e-23  3.5935e-29  8.6731e-23  4.0325e-29  9.1741e-23  4.9673e-29  1.0065e-22  6.9831e-29  1.165e-22  1.1131e-28  1.4469e-22  1.9147e-28  1.9483e-22  3.3595e-28  2.8408e-22  5.9508e-28  4.4299e-22  1.0396e-27  7.2626e-22  1.8029e-27  1.2321e-21  3.1137e-27  2.1384e-21  5.3823e-27  3.7713e-21  9.2958e-27  6.7423e-21  1.6361e-26  1.2237e-20
      4.95  2.2713e-29  7.9567e-23  2.3251e-29  7.9892e-23  2.4218e-29  8.0468e-23  2.5977e-29  8.1493e-23  2.9221e-29  8.3315e-23  3.536e-29  8.6556e-23  4.738e-29  9.232e-23  7.2195e-29  1.0257e-22  1.2015e-28  1.208e-22  2.0618e-28  1.5323e-22  3.594e-28  2.1091e-22  6.2993e-28  3.1358e-22  1.093e-27  4.964e-22  1.8797e-27  8.223e-22  3.2127e-27  1.4044e-21  5.4739e-27  2.4475e-21  9.3294e-27  4.3276e-21  1.6071e-26  7.751e-21  2.8182e-26  1.4091e-20
      5.00  1.7383e-29  6.7596e-23  1.8064e-29  6.7954e-23  1.9306e-29  6.859e-23  2.1612e-29  6.972e-23  2.6014e-29  7.1731e-23  3.4731e-29  7.5307e-23  5.3038e-29  8.1666e-23  9.1086e-29  9.2975e-23  1.6347e-28  1.1309e-22  2.9644e-28  1.4887e-22  5.1678e-28  2.1252e-22  8.9007e-28  3.258e-22  1.5133e-27  5.2756e-22  2.5352e-27  8.8728e-22  4.2039e-27   1.53e-21  6.9702e-27  2.6823e-21  1.1634e-26  4.7614e-21  1.976e-26  8.5532e-21  3.4156e-26  1.5595e-20
      5.05  1.4858e-29  5.4071e-23  1.5582e-29  5.4438e-23  1.696e-29  5.5092e-23  1.9686e-29  5.6254e-23  2.5372e-29  5.8321e-23  3.7708e-29  6.1998e-23  6.2747e-29  6.8535e-23  1.1872e-28  8.0161e-23  2.3184e-28  1.0084e-22  4.0465e-28  1.3762e-22  6.8697e-28  2.0306e-22  1.1415e-27  3.1954e-22  1.8591e-27  5.2702e-22  2.9605e-27  8.9704e-22  4.686e-27  1.5584e-21  7.473e-27  2.7452e-21  1.2182e-26  4.8895e-21  2.0358e-26  8.8097e-21   3.44e-26  1.6119e-20
      5.10   1.38e-29  4.2682e-23  1.4588e-29  4.304e-23  1.6248e-29  4.3676e-23  1.9992e-29  4.4807e-23  2.8888e-29  4.6819e-23  4.555e-29  5.0397e-23  8.4119e-29  5.676e-23  1.753e-28  6.8075e-23  3.2088e-28  8.8201e-23  5.4441e-28   1.24e-22  8.854e-28  1.877e-22  1.3946e-27  3.0109e-22  2.1394e-27  5.031e-22  3.2227e-27  8.6345e-22  4.8733e-27  1.5079e-21  7.3919e-27  2.6653e-21  1.1511e-26  4.7595e-21  1.8746e-26  8.5978e-21  3.1589e-26  1.5784e-20
      5.15  1.3486e-29  3.3943e-23  1.4479e-29  3.4298e-23  1.6889e-29  3.493e-23  2.3182e-29  3.6054e-23  3.5633e-29  3.8053e-23  6.2013e-29  4.1608e-23  1.2635e-28  4.793e-23  2.4746e-28  5.9174e-23  4.3347e-28  7.9171e-23  7.0666e-28  1.1475e-22  1.0877e-27  1.7805e-22  1.6202e-27  2.9073e-22  2.364e-27  4.9151e-22  3.415e-27  8.4976e-22  4.7018e-27  1.4907e-21  6.864e-27  2.6426e-21  1.061e-26  4.7296e-21  1.7253e-26  8.5625e-21  2.9155e-26  1.5764e-20
      5.20  1.3581e-29  2.7408e-23  1.5023e-29  2.7775e-23  1.8944e-29  2.8426e-23  2.9302e-29  2.9585e-23  4.7896e-29  3.1645e-23  9.2263e-29  3.5309e-23  1.9569e-28  4.1825e-23  3.3687e-28  5.3414e-23  5.5094e-28  7.4026e-23  8.6439e-28  1.1069e-22  1.2774e-27  1.7594e-22  1.8211e-27  2.9211e-22  2.5296e-27  4.9911e-22  3.2324e-27  8.6854e-22  4.4006e-27  1.5297e-21  6.4318e-27  2.7187e-21  1.0031e-26  4.8751e-21  1.6479e-26  8.8427e-21  2.817e-26  1.6318e-20
      5.25  1.3933e-29  2.2511e-23  1.6198e-29  2.2888e-23  2.2714e-29  2.3559e-23  3.9029e-29  2.4753e-23  7.2855e-29  2.6875e-23  1.339e-28  3.0649e-23  2.5407e-28  3.7361e-23  4.1823e-28  4.9298e-23  6.4719e-28  7.0531e-23  9.7491e-28  1.083e-22  1.4095e-27  1.7552e-22  1.9678e-27  2.952e-22  2.412e-27  5.0848e-22  3.1361e-27  8.892e-22   4.38e-27  1.5708e-21  6.5523e-27  2.7974e-21  1.0385e-26  5.0244e-21  1.7279e-26  9.1294e-21  2.9937e-26  1.6887e-20
      5.30  1.4693e-29  1.8802e-23  1.8639e-29  1.9186e-23  3.0288e-29  1.9868e-23  6.0595e-29  2.108e-23  9.8374e-29  2.3237e-23  1.6857e-28  2.7072e-23  2.9597e-28  3.3892e-23  4.6604e-28  4.6023e-23  7.127e-28  6.7599e-23  1.0334e-27  1.0598e-22  1.5061e-27  1.7429e-22  1.8981e-27  2.9592e-22  2.3846e-27  5.1271e-22  3.1055e-27  8.9979e-22  4.2915e-27  1.5931e-21  6.3586e-27  2.8415e-21  9.8947e-27  5.1109e-21  1.6312e-26  9.3025e-21  2.8173e-26  1.725e-20
      5.35  1.6169e-29  1.5974e-23  2.3301e-29  1.6364e-23  4.4124e-29  1.7058e-23  7.6185e-29  1.8291e-23  1.1896e-28  2.0485e-23  1.9062e-28  2.4387e-23  3.2029e-28  3.1327e-23  4.9165e-28  4.3668e-23  7.3422e-28  6.5621e-23  1.1116e-27  1.0468e-22  1.5452e-27  1.7418e-22  1.8332e-27  2.9795e-22  2.2703e-27  5.1858e-22  2.9591e-27  9.1261e-22  4.106e-27  1.6186e-21  6.0001e-27  2.8909e-21  9.3962e-27  5.2064e-21  1.5548e-26  9.4918e-21  2.6974e-26  1.7643e-20
      5.40  1.7393e-29  1.3764e-23  2.7308e-29  1.4144e-23   5.13e-29  1.4819e-23  7.9417e-29  1.6021e-23  1.2505e-28  1.8158e-23  1.918e-28  2.1957e-23  3.0972e-28  2.8715e-23  5.0756e-28  4.0734e-23  7.6996e-28  6.2113e-23  1.205e-27  1.0015e-22  1.4834e-27  1.6784e-22  1.7792e-27  2.884e-22  2.245e-27  5.0333e-22  2.9742e-27  8.8728e-22  4.1872e-27  1.5755e-21  6.1654e-27  2.8169e-21  9.6243e-27  5.0793e-21  1.5931e-26  9.2765e-21  2.7649e-26  1.729e-20
      5.45  1.5883e-29  1.1969e-23  2.3517e-29  1.2288e-23  4.4971e-29  1.2854e-23  6.9225e-29  1.3861e-23  1.0723e-28  1.5652e-23  1.7397e-28  1.8836e-23  2.8307e-28   2.45e-23  4.6461e-28  3.4574e-23  7.8744e-28  5.2491e-23  1.2643e-27  8.4368e-23  1.4957e-27  1.4111e-22  1.8449e-27  2.4217e-22  2.3678e-27  4.2238e-22  3.0893e-27  7.4442e-22  4.2533e-27  1.3221e-21  6.1921e-27  2.3651e-21  9.5697e-27  4.2698e-21  1.5694e-26  7.8147e-21  2.7154e-26  1.4617e-20
      5.50  1.3195e-29  1.0474e-23  1.6182e-29  1.0703e-23  2.5149e-29  1.1111e-23  4.9882e-29  1.1837e-23  8.4492e-29  1.3128e-23  1.4312e-28  1.5424e-23  2.5012e-28  1.9506e-23  4.3968e-28  2.6768e-23  7.5941e-28  3.9683e-23  1.2122e-27  6.2661e-23  1.5707e-27  1.0356e-22   1.97e-27  1.7643e-22  2.4113e-27  3.0638e-22  3.0647e-27  5.387e-22  4.0167e-27  9.5571e-22  5.6099e-27  1.7095e-21  8.4097e-27  3.0886e-21  1.3469e-26  5.6635e-21  2.2906e-26  1.0629e-20
      5.55  1.1975e-29  9.3075e-24  1.3446e-29  9.4801e-24  1.7556e-29  9.787e-24  2.9738e-29  1.0333e-23  6.1422e-29  1.1303e-23  1.2498e-28  1.3029e-23  2.4076e-28  1.6099e-23  4.4763e-28  2.1558e-23  7.9154e-28  3.1268e-23  1.2092e-27  4.8545e-23  1.6025e-27   7.93e-23  1.968e-27  1.3409e-22  2.3473e-27  2.3183e-22  2.8285e-27  4.0661e-22  3.5903e-27  7.2045e-22  4.8263e-27  1.2882e-21  7.0017e-27  2.3282e-21  1.0955e-26  4.2738e-21  1.8286e-26  8.038e-21
      5.60  1.1446e-29  8.4109e-24  1.3011e-29  8.5607e-24  1.7506e-29  8.8271e-24  3.0587e-29  9.3008e-24  5.5544e-29  1.0143e-23  1.1589e-28  1.1641e-23  2.4659e-28  1.4305e-23  4.7047e-28  1.9043e-23  8.8554e-28  2.7744e-23  1.2028e-27  4.2466e-23  1.5698e-27  6.9161e-23  1.815e-27  1.1672e-22  2.0959e-27  2.0157e-22  2.4941e-27  3.5331e-22  3.124e-27  6.2587e-22  4.1435e-27  1.1191e-21  5.9299e-27  2.0234e-21  9.1688e-27  3.717e-21  1.5173e-26  6.9999e-21
      5.65  1.1094e-29  7.7114e-24  1.3113e-29  7.8544e-24  1.8996e-29  8.1087e-24  3.5251e-29  8.5608e-24  6.6368e-29  9.3649e-24  1.2978e-28  1.0795e-23  2.5968e-28  1.3338e-23  5.032e-28  1.786e-23  9.1984e-28  2.5904e-23  1.2002e-27  4.022e-23  1.5124e-27  6.5704e-23  1.684e-27  1.1111e-22  1.9304e-27  1.9212e-22  2.2764e-27   3.37e-22  2.8524e-27  5.9729e-22  3.7835e-27  1.0685e-21  5.4237e-27  1.9327e-21  8.3971e-27  3.5529e-21  1.3927e-26  6.6976e-21
      5.70  1.0749e-29  7.1547e-24  1.3236e-29  7.2947e-24  2.0505e-29  7.5436e-24  4.1502e-29  7.9861e-24  7.588e-29  8.7731e-24  1.4841e-28  1.0173e-23  2.9346e-28  1.2661e-23  5.6736e-28  1.7088e-23  8.9309e-28  2.4962e-23  1.1247e-27  3.8975e-23  1.3562e-27  6.3921e-23  1.5295e-27  1.0837e-22  1.7489e-27  1.8767e-22  2.0703e-27  3.2951e-22  2.615e-27  5.8438e-22  3.5337e-27  1.0459e-21  5.1477e-27  1.8928e-21  8.0841e-27  3.4818e-21  1.3574e-26  6.5697e-21
      5.75  1.0138e-29  6.6478e-24  1.286e-29  6.7811e-24  2.0472e-29  7.0181e-24  4.0974e-29  7.4395e-24  8.1512e-29  8.1889e-24  1.642e-28  9.5215e-24  3.3476e-28  1.1891e-23  6.0414e-28  1.6106e-23  8.0035e-28  2.3605e-23  9.8163e-28  3.695e-23  1.1258e-27  6.0707e-23  1.2973e-27  1.0304e-22  1.5075e-27  1.7856e-22  1.8351e-27  3.1367e-22  2.3749e-27  5.5649e-22  3.2961e-27  9.9633e-22  4.943e-27  1.8039e-21  7.9561e-27  3.3206e-21  1.3628e-26  6.272e-21
      5.80  9.4788e-30  6.2573e-24  1.2183e-29  6.3797e-24  1.9573e-29  6.5974e-24  4.0007e-29  6.9844e-24  8.4366e-29  7.6727e-24  1.8245e-28  8.8965e-24  3.4499e-28  1.1073e-23  5.4132e-28  1.4945e-23  6.8573e-28  2.1833e-23  8.3615e-28  3.4091e-23  9.489e-28  5.5914e-23  1.1319e-27  9.4797e-23  1.3542e-27  1.6418e-22  1.6889e-27  2.8832e-22  2.2605e-27  5.1147e-22  3.2544e-27  9.1584e-22  5.0343e-27  1.6588e-21  8.3214e-27  3.0556e-21  1.4566e-26  5.7783e-21
      5.85  9.0904e-30  5.9601e-24  1.2156e-29  6.0755e-24  2.0464e-29  6.2807e-24  4.1532e-29  6.6456e-24  9.3196e-29  7.2944e-24  2.0198e-28  8.4482e-24  3.2307e-28  1.0501e-23  4.7863e-28  1.4151e-23  6.0222e-28  2.0646e-23  7.5336e-28  3.2204e-23  8.8654e-28  5.2781e-23  1.0468e-27  8.9446e-23  1.288e-27  1.5488e-22  1.6643e-27  2.7196e-22  2.3178e-27  4.8246e-22  3.4634e-27  8.6406e-22  5.5377e-27  1.5657e-21  9.3834e-27  2.886e-21  1.6743e-26  5.4639e-21
      5.90  8.8365e-30  5.7436e-24  1.2551e-29  5.8588e-24  2.2413e-29  6.0637e-24  4.7173e-29  6.428e-24  1.0467e-28  7.0757e-24  2.1027e-28   8.31e-24  3.2312e-28  1.0277e-23  4.4338e-28  1.4061e-23  5.6921e-28  2.0407e-23  7.1024e-28  3.1947e-23  8.3439e-28  5.2493e-23  1.0089e-27  8.9103e-23  1.2843e-27  1.5444e-22  1.7461e-27  2.7137e-22  2.5397e-27  4.8164e-22  3.9541e-27  8.6296e-22  6.5294e-27  1.5645e-21  1.133e-26  2.8859e-21  2.0583e-26  5.4698e-21
      5.95  8.4662e-30  5.5889e-24  1.2577e-29  5.7066e-24  2.3493e-29  5.9157e-24  5.0924e-29  6.2875e-24  1.1394e-28  6.9488e-24  2.1493e-28  8.1247e-24  3.2991e-28  1.0216e-23  4.4542e-28  1.3937e-23  5.5645e-28  2.0557e-23  6.7761e-28  3.2337e-23  8.3479e-28  5.331e-23  1.0207e-27  9.0684e-23  1.3266e-27  1.5739e-22  1.8622e-27  2.7678e-22  2.8038e-27  4.9152e-22  4.4856e-27  8.8109e-22  7.5624e-27  1.5982e-21  1.3319e-26  2.9504e-21  2.4473e-26  5.5983e-21
      6.00  7.8209e-30  5.4797e-24  1.1767e-29  5.5977e-24  2.2415e-29  5.8075e-24  4.9704e-29  6.1807e-24  1.1317e-28  6.8441e-24  2.3022e-28  8.0238e-24  3.4264e-28  1.0122e-23  4.536e-28  1.3856e-23  5.6502e-28  2.0497e-23  6.9493e-28  3.2316e-23  8.5655e-28  5.3359e-23  1.0916e-27  9.0859e-23  1.4743e-27  1.5779e-22  2.1458e-27  2.7761e-22  3.3413e-27  4.9317e-22  5.5028e-27  8.8438e-22  9.4645e-27  1.605e-21  1.6903e-26  2.9653e-21  3.1385e-26  5.6337e-21
      6.05  7.006e-30  5.4228e-24  1.0233e-29  5.5375e-24  1.9308e-29  5.7414e-24  4.3314e-29  6.1039e-24  1.0286e-28  6.7485e-24  2.3062e-28  7.8946e-24  3.5404e-28  9.9335e-24  4.6546e-28  1.3561e-23  5.8003e-28  2.0014e-23  7.1054e-28  3.1497e-23  8.7579e-28  5.1943e-23  1.145e-27  8.8381e-23  1.6024e-27  1.5343e-22  2.4097e-27  2.6988e-22  3.8544e-27  4.7944e-22  6.4696e-27  8.5995e-22  1.1273e-26  1.5614e-21  2.0318e-26  2.8871e-21  3.7997e-26  5.4927e-21
      6.10  6.3277e-30  5.3977e-24  9.0756e-30  5.5064e-24  1.6586e-29  5.6998e-24  3.6692e-29  6.0436e-24  8.8879e-29  6.7214e-24  2.0035e-28  7.7416e-24  3.3239e-28  9.6748e-24  4.5625e-28  1.3114e-23  5.5702e-28  1.9233e-23  6.8195e-28  3.0122e-23  8.6924e-28  4.951e-23  1.1708e-27  8.4063e-23  1.6973e-27  1.4575e-22  2.6355e-27  2.5621e-22  4.3149e-27  4.5504e-22  7.3568e-27  8.1624e-22  1.2958e-26  1.4826e-21  2.3525e-26  2.7438e-21  4.4247e-26  5.2273e-21
      6.15  5.9862e-30    5.4e-24  8.5011e-30  5.5009e-24  1.5062e-29  5.6802e-24  3.2063e-29  5.9991e-24  7.3083e-29  6.566e-24  1.5246e-28  7.5742e-24  2.5024e-28  9.3673e-24  3.8328e-28  1.2557e-23  4.8947e-28  1.8232e-23  6.1758e-28  2.8331e-23  8.1857e-28  4.6314e-23  1.1455e-27  7.8364e-23  1.7252e-27  1.3559e-22  2.7568e-27  2.3807e-22  4.6121e-27  4.226e-22  7.9764e-27  7.5798e-22  1.4176e-26  1.3772e-21  2.5896e-26  2.5508e-21  4.8943e-26  4.8664e-21
      6.20  5.7659e-30  5.4243e-24  8.2347e-30  5.5144e-24  1.4298e-29  5.6746e-24  2.8897e-29  5.9594e-24  5.8195e-29  6.4659e-24  1.1265e-28  7.3665e-24  1.8162e-28  8.9682e-24  2.7202e-28  1.1817e-23  3.808e-28  1.6886e-23  5.1906e-28  2.5907e-23  7.2151e-28  4.1969e-23  1.0671e-27  7.0598e-23  1.6683e-27  1.2172e-22  2.7437e-27  2.1329e-22  4.6768e-27  3.7821e-22  8.1868e-27  6.7812e-22  1.4662e-26  1.2324e-21  2.6926e-26  2.2842e-21  5.1105e-26  4.364e-21
      6.25  5.2668e-30  5.4663e-24  7.5034e-30  5.5421e-24  1.2712e-29  5.6769e-24  2.3237e-29  5.9167e-24  4.4046e-29  6.3429e-24  8.2008e-29  7.1008e-24  1.2791e-28  8.4488e-24  1.9352e-28  1.0846e-23  2.816e-28  1.5111e-23  4.0839e-28  2.2701e-23  6.0669e-28  3.6217e-23  9.4601e-28  6.0308e-23  1.5396e-27  1.0333e-22  2.5962e-27  1.804e-22  4.4934e-27  3.1928e-22  7.9413e-27  5.7194e-22  1.431e-26  1.0393e-21  2.6393e-26  1.9277e-21  5.0273e-26  3.6883e-21
      6.30  4.606e-30  5.5497e-24  6.3571e-30  5.6102e-24  9.8235e-30  5.7178e-24  1.766e-29  5.9091e-24  3.1757e-29  6.2492e-24  5.7753e-29  6.854e-24  8.5534e-29  7.9295e-24  1.3436e-28  9.8424e-24  2.0875e-28  1.3245e-23  3.1543e-28  1.9301e-23  4.9944e-28  3.0083e-23  8.1237e-28  4.9305e-23  1.3663e-27  8.3633e-23  2.3495e-27  1.4515e-22  4.1172e-27  2.5602e-22  7.3313e-27  4.5787e-22  1.3275e-26  8.3163e-22  2.4568e-26  1.5432e-21  4.6945e-26  2.9566e-21
      6.35  4.0069e-30  5.6562e-24  5.2367e-30  5.7041e-24  7.812e-30  5.7892e-24  1.2896e-29  5.9406e-24  2.3851e-29  6.2719e-24  4.2092e-29  6.6884e-24  5.8952e-29  7.5396e-24  9.0193e-29  9.0533e-24  1.4727e-28  1.1746e-23  2.4734e-28  1.6538e-23  4.0906e-28  2.5071e-23   6.95e-28  4.0282e-23  1.1963e-27  6.7452e-23  2.0894e-27  1.1615e-22  3.6999e-27  2.0395e-22  6.6308e-27  3.6389e-22  1.2057e-26  6.6035e-22  2.2383e-26  1.2256e-21  4.2895e-26  2.3513e-21
      6.40  3.4676e-30  5.7852e-24  4.5037e-30  5.824e-24  6.4919e-30  5.8932e-24  9.9792e-30  6.0161e-24  1.6908e-29  6.2347e-24  3.1301e-29  6.6233e-24  4.4163e-29  7.3144e-24  6.6866e-29  8.5436e-24  1.1085e-28  1.073e-23  1.9531e-28  1.4621e-23  3.475e-28  2.155e-23  6.1573e-28  3.3902e-23  1.0892e-27  5.5967e-23  1.9358e-27  9.5522e-23  3.4656e-27  1.6686e-22  6.2523e-27  2.969e-22  1.1418e-26  5.3818e-22  2.1268e-26  9.9897e-22  4.0886e-26  1.9187e-21
      6.45  2.9896e-30  5.9332e-24  3.9376e-30  5.9653e-24  5.4888e-30  6.0225e-24  8.3692e-30  6.1242e-24  1.326e-29  6.305e-24  2.3473e-29  6.6264e-24  3.8032e-29  7.2701e-24  5.7608e-29  8.2148e-24  9.7388e-29  1.0023e-23  1.7437e-28  1.3241e-23  3.1904e-28  1.8972e-23  5.8119e-28  2.9188e-23  1.051e-27  4.744e-23  1.8982e-27  8.0164e-23  3.4257e-27  1.392e-22  6.2129e-27  2.4688e-22  1.1387e-26  4.4685e-22  2.1273e-26  8.293e-22  4.1011e-26  1.5943e-21
      6.50  2.4818e-30  6.0979e-24  3.3679e-30  6.1246e-24  4.5813e-30  6.1722e-24  6.8786e-30  6.2567e-24  1.0792e-29  6.407e-24  1.8414e-29  6.6742e-24  2.9274e-29  7.1494e-24  4.6496e-29  7.9946e-24  7.9861e-29  9.4979e-24  1.4502e-28  1.2173e-23  2.7047e-28  1.6936e-23  5.0584e-28  2.5428e-23  9.3451e-28  4.0601e-23  1.7098e-27  6.7808e-23  3.1146e-27  1.1691e-22  5.6823e-27  2.065e-22  1.0455e-26   3.73e-22  1.9589e-26  6.9185e-22  3.7866e-26  1.3308e-21
      6.55  2.0576e-30  6.309e-24  2.8212e-30  6.3316e-24  3.7699e-30  6.3718e-24  5.5447e-30  6.4434e-24  8.9131e-30  6.5706e-24  1.5277e-29  6.7969e-24  2.439e-29  7.1993e-24  3.9093e-29  7.9149e-24  6.8878e-29  9.1879e-24  1.2762e-28  1.1453e-23  2.4249e-28  1.5487e-23  4.6156e-28  2.2678e-23  8.6841e-28  3.5527e-23  1.6112e-27  5.857e-23  2.9608e-27  1.0016e-22  5.4319e-27  1.7608e-22  1.0034e-26  3.1727e-22  1.8854e-26  5.8788e-22  3.6537e-26  1.1309e-21
      6.60  1.7114e-30  6.5377e-24  2.3232e-30  6.5576e-24  3.1288e-30  6.5929e-24  4.5484e-30  6.6557e-24  7.368e-30  6.7673e-24  1.3252e-29  6.9658e-24   2.17e-29  7.3187e-24  3.516e-29  7.9465e-24  6.3068e-29  9.0632e-24  1.1961e-28  1.1051e-23  2.3108e-28  1.4589e-23  4.4592e-28  2.0899e-23  8.4941e-28  3.2173e-23  1.5934e-27  5.2393e-23  2.9542e-27  8.8897e-23  5.4509e-27  1.5554e-22  1.0107e-26  2.7954e-22  1.9044e-26  5.1738e-22  3.6987e-26  9.9514e-22
      6.65  1.4248e-30  6.7831e-24  1.8826e-30  6.8012e-24  2.5903e-30  6.8335e-24  3.751e-30  6.8907e-24  6.1397e-30  6.9926e-24  1.1456e-29  7.1737e-24  1.9186e-29  7.4958e-24  3.1858e-29  8.0687e-24  5.873e-29  9.0879e-24  1.1407e-28  1.0902e-23  2.2414e-28  1.4131e-23  4.3787e-28  1.989e-23  8.4286e-28  3.018e-23  1.5963e-27  4.8638e-23  2.9827e-27  8.1964e-23  5.5344e-27  1.4282e-22   1.03e-26  2.5609e-22  1.9458e-26  4.7348e-22  3.787e-26  9.1055e-22
      6.70  1.1855e-30  7.044e-24  1.5041e-30  7.0611e-24  2.089e-30  7.0915e-24  3.1271e-30  7.1456e-24  5.2845e-30  7.2419e-24  1.0525e-29  7.413e-24  1.9356e-29  7.7173e-24  3.4191e-29  8.2586e-24  6.5807e-29  9.2216e-24  1.3048e-28  1.0935e-23  2.5828e-28  1.3987e-23  5.054e-28  1.9429e-23  9.7389e-28  2.9153e-23  1.8464e-27  4.6596e-23  3.4562e-27  7.8093e-23  6.4256e-27  1.3562e-22  1.1978e-26  2.4274e-22  2.2658e-26  4.4841e-22  4.4154e-26  8.6221e-22
      6.75  9.8759e-31  7.3192e-24  1.2016e-30  7.3358e-24  1.6999e-30  7.3654e-24  2.6465e-30  7.4179e-24  4.8849e-30  7.5112e-24  1.0551e-29  7.6772e-24  2.0586e-29  7.9724e-24  3.8494e-29  8.4975e-24  7.6292e-29  9.4317e-24  1.5277e-28  1.1094e-23  3.0177e-28  1.4055e-23  5.8875e-28  1.9334e-23  1.1305e-27  2.8767e-23  2.1399e-27  4.5691e-23  4.0036e-27  7.6253e-23  7.4472e-27  1.3209e-22  1.3894e-26  2.3606e-22  2.6306e-26  4.3581e-22  5.1312e-26  8.3795e-22
      6.80  8.267e-31  7.6481e-24  9.6964e-31  7.6646e-24  1.3852e-30  7.6938e-24  2.2803e-30  7.7458e-24  4.4766e-30  7.8383e-24  1.0028e-29  8.0027e-24  2.1372e-29  8.2952e-24  4.0957e-29  8.8153e-24  8.2371e-29  9.7407e-24  1.6477e-28  1.1387e-23  3.2433e-28  1.432e-23  6.3089e-28  1.955e-23   1.21e-27  2.8896e-23  2.2897e-27  4.5663e-23  4.2873e-27  7.5945e-23  7.9865e-27  1.3127e-22  1.4923e-26  2.3434e-22  2.8291e-26  4.3241e-22  5.5247e-26  8.314e-22
      6.85  6.9664e-31  7.9947e-24  7.9525e-31  8.0112e-24  1.0966e-30  8.0407e-24  1.9198e-30  8.093e-24  3.9081e-30  8.1862e-24  9.506e-30  8.3517e-24  2.2538e-29  8.6461e-24  4.4659e-29  9.1699e-24  9.1894e-29  1.0102e-23  1.8385e-28  1.176e-23  3.6279e-28  1.4712e-23  7.0483e-28  1.9978e-23  1.3505e-27  2.9389e-23  2.5529e-27  4.6272e-23  4.7777e-27  7.6768e-23  8.901e-27  1.3249e-22  1.664e-26  2.3632e-22  3.157e-26  4.3593e-22  6.1705e-26  8.3822e-22
      6.90  5.9324e-31  8.3583e-24  6.7131e-31  8.3751e-24  9.0626e-31  8.4049e-24  1.5841e-30  8.4579e-24  3.6383e-30  8.5522e-24  9.616e-30  8.7198e-24  2.434e-29  9.0179e-24  5.0097e-29  9.5482e-24  1.0521e-28  1.0492e-23  2.1151e-28  1.217e-23  4.202e-28  1.516e-23  8.2182e-28  2.0492e-23  1.5772e-27  3.002e-23  2.979e-27  4.7116e-23  5.5663e-27  7.7997e-23  1.0358e-26  1.3444e-22  1.9355e-26  2.3961e-22  3.6722e-26  4.4188e-22  7.1802e-26  8.4974e-22
      6.95  5.1048e-31  8.7383e-24  5.8341e-31  8.7551e-24  7.9965e-31  8.7851e-24  1.4852e-30  8.8384e-24  3.5445e-30  8.9331e-24  9.5371e-30  9.1016e-24  2.4886e-29  9.4011e-24  5.1625e-29  9.9339e-24  1.0671e-28  1.0882e-23  2.1371e-28  1.2569e-23  4.2919e-28  1.5573e-23  8.4555e-28  2.093e-23  1.6287e-27  3.0504e-23  3.0821e-27  4.7682e-23  5.7663e-27  7.8715e-23  1.074e-26  1.3544e-22  2.0083e-26  2.4117e-22  3.8134e-26  4.4456e-22  7.4628e-26  8.5487e-22
      7.00  4.4128e-31  9.1339e-24  5.1222e-31  9.1505e-24  7.3057e-31   9.18e-24  1.3752e-30  9.2325e-24  3.3284e-30  9.3259e-24  9.056e-30  9.4918e-24  2.5161e-29  9.7869e-24   5.22e-29  1.0312e-23  1.0477e-28  1.1245e-23  2.1272e-28  1.2907e-23  4.3158e-28  1.5865e-23  8.563e-28  2.1141e-23  1.6591e-27  3.0571e-23  3.1548e-27  4.749e-23  5.9212e-27  7.8057e-23  1.1051e-26  1.3393e-22  2.0694e-26  2.3811e-22  3.9337e-26  4.3858e-22  7.7059e-26  8.4317e-22
      7.05  3.7018e-31  9.5953e-24  4.3773e-31  9.6112e-24  6.3947e-31  9.6394e-24  1.2606e-30  9.7864e-24  3.0156e-30  9.7787e-24  8.3855e-30  9.9372e-24  2.381e-29  1.0219e-23  5.1626e-29  1.072e-23  1.0474e-28  1.1612e-23  2.1387e-28  1.3199e-23  4.3723e-28  1.6024e-23  8.767e-28  2.1062e-23  1.721e-27  3.0065e-23  3.3029e-27  4.6221e-23  6.237e-27  7.541e-23  1.1684e-26  1.2877e-22  2.1929e-26  2.2828e-22  4.1747e-26  4.1983e-22  8.1877e-26  8.0659e-22
      7.10  3.0704e-31  1.0077e-23  3.6689e-31  1.0092e-23  5.3889e-31  1.0118e-23  1.0709e-30  1.0164e-23  2.687e-30  1.0246e-23  7.5763e-30  1.0391e-23  2.2145e-29  1.065e-23  5.1114e-29  1.111e-23  1.0596e-28  1.1928e-23   2.16e-28  1.3383e-23  4.4176e-28  1.5975e-23  9.037e-28  2.0595e-23  1.8054e-27  2.8853e-23  3.5113e-27  4.3668e-23  6.6878e-27  7.0438e-23  1.2596e-26  1.1938e-22  2.3719e-26  2.1067e-22  4.5248e-26  3.8644e-22  8.8868e-26  7.4149e-22
      7.15  2.5425e-31  1.058e-23  3.0567e-31  1.0593e-23  4.6029e-31  1.0616e-23  9.3498e-31  1.0656e-23  2.3981e-30  1.0728e-23  6.6765e-30  1.0856e-23  1.9062e-29  1.1083e-23  4.6141e-29  1.1487e-23  9.315e-29  1.2205e-23  1.8654e-28  1.3482e-23  3.8668e-28  1.5757e-23  8.0513e-28  1.9811e-23  1.642e-27  2.7056e-23  3.2521e-27  4.0054e-23  6.2813e-27  6.354e-23  1.1946e-26  1.0649e-22  2.2639e-26  1.8659e-22  4.3368e-26  3.4087e-22  8.541e-26  6.5263e-22
      7.20  2.0928e-31  1.1104e-23  2.5234e-31  1.1115e-23  3.8337e-31  1.1134e-23  7.8524e-31  1.1168e-23  1.9661e-30  1.1229e-23  5.3462e-30  1.1337e-23  1.4957e-29  1.1529e-23  3.7983e-29  1.187e-23  7.3523e-29  1.2478e-23  1.5043e-28  1.3558e-23  3.173e-28  1.5481e-23  6.7471e-28  1.8908e-23  1.4123e-27  2.5031e-23  2.8675e-27  3.6015e-23  5.6511e-27  5.586e-23  1.0907e-26  9.2149e-23  2.088e-26  1.5985e-22  4.0262e-26  2.9025e-22  7.9632e-26  5.5385e-22
      7.25  1.7135e-31  1.1648e-23  2.0603e-31  1.1657e-23  3.1114e-31  1.1673e-23  6.2248e-31  1.1701e-23  1.5338e-30  1.1752e-23  4.1043e-30  1.1842e-23  1.1062e-29  1.2001e-23  2.7649e-29  1.2285e-23  5.4909e-29  1.2789e-23  1.1237e-28  1.3687e-23  2.4003e-28  1.5284e-23  5.2488e-28  1.813e-23  1.1328e-27  2.3213e-23  2.3734e-27  3.2332e-23  4.8013e-27  4.8805e-23  9.4513e-27  7.8927e-23  1.8346e-26  1.3512e-22  3.5703e-26  2.4339e-22  7.1036e-26  4.6227e-22
      7.30  1.3961e-31  1.2277e-23  1.6664e-31  1.2285e-23  2.4657e-31  1.2298e-23  4.8389e-31  1.2322e-23  1.1746e-30  1.2364e-23  3.0554e-30  1.2439e-23  8.0688e-30  1.2572e-23  1.9923e-29  1.2809e-23  4.1472e-29  1.323e-23  8.4492e-29  1.398e-23  1.7875e-28  1.5314e-23  4.0057e-28  1.7691e-23  8.9868e-28  2.1936e-23  1.956e-27  2.9549e-23  4.0908e-27  4.3302e-23  8.2618e-27  6.8447e-23  1.6333e-26  1.1536e-22  3.2182e-26  2.0574e-22  6.454e-26  3.8847e-22
      7.35  1.1367e-31  1.2935e-23  1.3399e-31  1.2942e-23  1.941e-31  1.2953e-23  3.6902e-31  1.2973e-23  8.8414e-31  1.3009e-23  2.2643e-30  1.3073e-23  5.9132e-30  1.3186e-23  1.4761e-29  1.3388e-23  3.297e-29  1.3747e-23  6.5833e-29  1.4386e-23  1.3961e-28  1.5523e-23  3.1806e-28  1.755e-23  7.3906e-28  2.1169e-23  1.6688e-27  2.7659e-23  3.5983e-27  3.9382e-23  7.4475e-27  6.0813e-23  1.4992e-26  1.0079e-22  2.9908e-26  1.7782e-22  6.047e-26  3.3354e-22
      7.40  9.2591e-32  1.3622e-23  1.0811e-31  1.3627e-23  1.5403e-31  1.3637e-23  2.9053e-31  1.3655e-23  6.8932e-31  1.3686e-23  1.721e-30  1.3742e-23  4.482e-30  1.3841e-23  1.1665e-29  1.4018e-23  2.7912e-29  1.4332e-23  5.4867e-29  1.489e-23  1.1596e-28  1.5885e-23  2.669e-28  1.7658e-23  6.308e-28  2.0824e-23  1.4618e-27  2.6503e-23  3.2398e-27  3.6758e-23  6.8599e-27  5.5505e-23  1.4047e-26  9.0475e-23  2.8359e-26  1.5784e-22  5.7796e-26  2.9403e-22
      7.45  7.5575e-32  1.4336e-23  8.7852e-32  1.4341e-23  1.2306e-31  1.435e-23  2.3048e-31  1.4366e-23  5.4535e-31  1.4394e-23  1.3652e-30  1.4444e-23  3.5646e-30  1.4533e-23  9.4576e-30  1.4692e-23  2.2176e-29  1.4974e-23  4.3036e-29  1.5475e-23  8.9199e-29  1.6369e-23  2.0657e-28  1.7961e-23  4.9739e-28  2.0806e-23  1.1849e-27  2.5908e-23  2.7082e-27  3.5123e-23  5.8959e-27  5.1967e-23  1.2339e-26  8.3384e-23  2.5305e-26  1.439e-22  5.212e-26  2.6622e-22
      7.50  6.184e-32  1.5078e-23  7.1342e-32  1.5083e-23  1.0242e-31  1.5091e-23  1.9023e-31  1.5106e-23  4.5227e-31  1.5132e-23  1.1256e-30  1.5178e-23  2.9832e-30  1.526e-23  7.9197e-30  1.5406e-23  1.8587e-29  1.5665e-23  3.5287e-29  1.6127e-23  7.2516e-29  1.6949e-23  1.6756e-28  1.8416e-23  4.077e-28  2.1036e-23  9.9216e-28  2.5735e-23  2.3306e-27  3.4221e-23  5.2124e-27  4.9734e-23  1.1154e-26  7.8665e-23  2.3251e-26  1.3438e-22  4.8426e-26  2.4699e-22
      7.55  5.0796e-32  1.5929e-23  5.9702e-32  1.5934e-23  8.5631e-32  1.5941e-23  1.6489e-31  1.5955e-23  3.9694e-31  1.598e-23  9.9219e-31  1.6023e-23  2.6253e-30   1.61e-23  6.9873e-30  1.6238e-23  1.5723e-29  1.6482e-23  3.0569e-29  1.6918e-23  6.1904e-29  1.7693e-23  1.4143e-28  1.9075e-23  3.444e-28  2.1544e-23  8.496e-28  2.5974e-23  2.0424e-27  3.3975e-23  4.6904e-27  4.8599e-23  1.0282e-26  7.5871e-23  2.1841e-26  1.2839e-22  4.6098e-26  2.3451e-22
      7.60  4.1906e-32  1.6818e-23  5.0095e-32  1.6822e-23  7.4862e-32  1.683e-23  1.4767e-31  1.6843e-23  3.6139e-31  1.6867e-23  9.3035e-31  1.6908e-23  2.4561e-30  1.6983e-23  6.5091e-30  1.7115e-23  1.3596e-29  1.735e-23  2.693e-29  1.7768e-23  5.3173e-29  1.8513e-23  1.181e-28  1.9842e-23  2.8273e-28  2.2217e-23  6.9622e-28  2.6477e-23  1.6942e-27  3.4172e-23  3.9693e-27  4.8238e-23  8.8878e-27  7.4466e-23  1.9226e-26  1.2497e-22  4.1128e-26   2.27e-22
      7.65  3.4688e-32  1.7745e-23  4.2413e-32  1.7749e-23  6.5957e-32  1.7756e-23  1.3495e-31  1.7769e-23  3.3627e-31  1.7792e-23  8.8434e-31  1.7833e-23  2.3669e-30  1.7906e-23  6.1954e-30  1.8035e-23  1.2257e-29  1.8265e-23  2.3968e-29  1.8674e-23  4.663e-29  1.9402e-23  1.0053e-28  2.0701e-23  2.3504e-28  2.3023e-23  5.731e-28  2.7188e-23  1.4018e-27  3.4711e-23  3.3367e-27  4.8464e-23  7.6212e-27  7.4109e-23  1.6795e-26  1.2348e-22  3.6456e-26  2.2322e-22
      7.70  2.8682e-32  1.8709e-23  3.602e-32  1.8713e-23  5.856e-32  1.8721e-23  1.2427e-31  1.8733e-23  3.1208e-31  1.8756e-23  8.4373e-31  1.8797e-23  2.2633e-30  1.8869e-23  5.9307e-30  1.8996e-23  1.0969e-29  1.9224e-23  2.1313e-29  1.9629e-23  4.1267e-29  2.035e-23  8.6494e-29  2.1637e-23  1.9693e-28  2.3936e-23  4.7295e-28  2.8061e-23  1.156e-27  3.5514e-23  2.7838e-27  4.9136e-23  6.4751e-27  7.4538e-23  1.454e-26  1.2344e-22  3.2063e-26  2.2221e-22
      7.75  2.3867e-32  1.9711e-23  3.0867e-32  1.9715e-23  5.251e-32  1.9723e-23  1.1549e-31  1.9735e-23  2.9696e-31  1.9758e-23  8.0572e-31  1.9799e-23  2.1725e-30  1.987e-23  5.5066e-30  1.9998e-23  1.0095e-29  2.0226e-23  1.9099e-29  2.063e-23   3.69e-29  2.1351e-23  7.5329e-29  2.2637e-23  1.6668e-28  2.4935e-23  3.9217e-28  2.9059e-23  9.5188e-28  3.6509e-23  2.3075e-27  5.0127e-23  5.4521e-27  7.5519e-23  1.2472e-26  1.244e-22  2.7966e-26  2.2312e-22
      7.80  1.9892e-32  2.0854e-23  2.6515e-32  2.0858e-23  4.7163e-32  2.0865e-23   1.07e-31  2.0878e-23  2.786e-31  2.0901e-23  7.6498e-31  2.0942e-23  2.0707e-30  2.1014e-23  5.0659e-30  2.1143e-23  9.1435e-30  2.1372e-23  1.729e-29  2.178e-23  3.3058e-29  2.2506e-23  6.6079e-29  2.3801e-23  1.4218e-28  2.6115e-23  3.2682e-28  3.0268e-23  7.8402e-28  3.7772e-23  1.9047e-27  5.1488e-23  4.5591e-27  7.7064e-23  1.0619e-26  1.2629e-22  2.4237e-26  2.2571e-22
      7.85  1.6556e-32  2.2048e-23  2.2709e-32  2.2052e-23  4.2025e-32  2.206e-23  9.7843e-32  2.2072e-23  2.5488e-31  2.2096e-23  7.0354e-31  2.2137e-23  1.916e-30  2.221e-23  4.6224e-30  2.234e-23  8.3791e-30  2.2571e-23  1.5534e-29  2.2983e-23  2.9812e-29  2.3716e-23  5.8001e-29  2.5023e-23  1.217e-28  2.736e-23  2.7317e-28  3.1554e-23  6.4588e-28  3.913e-23  1.5666e-27  5.298e-23  3.789e-27  7.8804e-23  8.9806e-27  1.2851e-22  2.0885e-26  2.2888e-22
      7.90  1.3751e-32  2.3294e-23  1.9213e-32  2.3298e-23  3.6652e-32  2.3305e-23  8.7507e-32  2.3318e-23  2.2958e-31  2.3342e-23  6.3412e-31  2.3383e-23  1.7578e-30  2.3457e-23  3.9716e-30  2.3588e-23  7.2433e-30  2.3821e-23  1.3335e-29  2.4237e-23  2.5185e-29  2.4977e-23  4.8831e-29  2.6297e-23  1.0042e-28  2.8656e-23  2.2069e-28  3.2889e-23  5.1427e-28  4.0537e-23  1.2439e-27  5.4518e-23  3.0374e-27  8.0586e-23  7.3302e-27  1.3076e-22  1.7404e-26  2.3206e-22
      7.95  1.1376e-32  2.4591e-23  1.6159e-32  2.4595e-23  3.156e-32  2.4602e-23  7.6463e-32  2.4615e-23  2.0355e-31  2.4639e-23  5.5726e-31  2.4681e-23  1.5398e-30  2.4755e-23  3.3627e-30  2.4887e-23  6.1194e-30  2.5122e-23  1.1199e-29  2.554e-23  2.0982e-29  2.6284e-23  4.0359e-29  2.7612e-23  8.1293e-29  2.9986e-23  1.7557e-28  3.4246e-23  4.0258e-28  4.1941e-23  9.6736e-28  5.6009e-23  2.3746e-27  8.2239e-23  5.816e-27  1.3272e-22  1.4076e-26  2.3463e-22
      8.00  9.3625e-33  2.5939e-23  1.3417e-32  2.5944e-23  2.6597e-32  2.5951e-23  6.5163e-32  2.5964e-23  1.7375e-31  2.5988e-23  4.7609e-31  2.603e-23  1.3327e-30  2.6104e-23  2.8717e-30  2.6499e-23  5.0637e-30  2.6472e-23  9.2288e-30  2.6891e-23  1.7174e-29  2.7637e-23  3.2849e-29  2.8968e-23  6.5334e-29  3.1347e-23  1.382e-28  3.5615e-23  3.1178e-28  4.3328e-23  7.4253e-28  5.7426e-23  1.8258e-27  8.3712e-23  4.5234e-27  1.343e-22  1.1136e-26  2.364e-22
      8.05  7.6613e-33  2.7473e-23  1.0987e-32  2.7477e-23  2.1921e-32  2.7484e-23  5.3962e-32  2.7498e-23  1.4405e-31  2.7521e-23  3.9884e-31  2.7563e-23  1.1067e-30  2.7637e-23  2.2653e-30  2.777e-23  4.1067e-30  2.8005e-23  7.3939e-30  2.8424e-23  1.382e-29  2.9171e-23  2.6252e-29  3.0502e-23  5.1595e-29  3.2882e-23  1.078e-28  3.7153e-23  2.3983e-28  4.4868e-23  5.6631e-28  5.8972e-23  1.393e-27  8.5265e-23  3.4844e-27  1.3586e-22  8.7143e-27  2.3797e-22
      8.10  6.2382e-33  2.9077e-23  8.8837e-33  2.9081e-23  1.7574e-32  2.9088e-23  4.3159e-32  2.9101e-23  1.1599e-31  2.9125e-23  3.2189e-31  2.9167e-23  8.9467e-31  2.9241e-23  1.8193e-30  2.9373e-23  3.2318e-30  2.9608e-23  5.8615e-30  3.0025e-23  1.0803e-29  3.077e-23  2.0596e-29  3.2097e-23  4.0323e-29  3.447e-23  8.3084e-29  3.8727e-23  1.8191e-28  4.6418e-23  4.2783e-28  6.0476e-23  1.0516e-27  8.6684e-23  2.6509e-27  1.3711e-22  6.7236e-27  2.3885e-22
      8.15  5.0632e-33  3.0752e-23  7.1151e-33  3.0756e-23  1.3927e-32  3.0764e-23  3.3795e-32  3.0777e-23  9.138e-32   3.08e-23  2.5378e-31  3.0842e-23  7.0707e-31  3.0915e-23  1.4061e-30  3.1047e-23  2.5243e-30  3.128e-23  4.5691e-30  3.1696e-23  8.3919e-30  3.2436e-23  1.5909e-29  3.3756e-23  3.0946e-29  3.6116e-23  6.3103e-29  4.035e-23  1.371e-28  4.7999e-23  3.1822e-28  6.198e-23  7.7571e-28  8.8041e-23  1.9768e-27  1.3817e-22  5.0753e-27  2.3931e-22
      8.20  4.1044e-33   3.25e-23  5.7645e-33  3.283e-23  1.0889e-32  3.2512e-23  2.5933e-32  3.2525e-23  7.0235e-32  3.2548e-23  1.9612e-31  3.2589e-23  5.4242e-31  3.2662e-23  1.0933e-30  3.2793e-23  1.9631e-30  3.3025e-23  3.5483e-30  3.3438e-23  6.4397e-30  3.4173e-23  1.2162e-29  3.5485e-23  2.333e-29  3.7829e-23  4.7676e-29  4.2036e-23  1.0272e-28  4.9635e-23  2.3684e-28  6.3525e-23  5.7951e-28  8.9411e-23  1.4757e-27  1.392e-22  3.8304e-27  2.3962e-22
      8.25    3.3e-33  3.4321e-23  4.4684e-33  3.4325e-23  8.1311e-33  3.4332e-23  2.0023e-32  3.4345e-23  5.3482e-32  3.4368e-23  1.4796e-31  3.4409e-23  4.1453e-31  3.4482e-23  8.2559e-31  3.4612e-23  1.4814e-30  3.4842e-23  2.6779e-30  3.5253e-23  4.9912e-30  3.5984e-23  9.1482e-30  3.7288e-23  1.7783e-29  3.9618e-23  3.5891e-29  4.3798e-23  7.6916e-29  5.1351e-23  1.7658e-28  6.5153e-23  4.318e-28  9.0874e-23  1.1048e-27  1.4034e-22  2.8961e-27  2.4007e-22
      8.30  2.6864e-33  3.6388e-23  3.556e-33  3.6392e-23  6.2948e-33   3.64e-23  1.4839e-32  3.6413e-23  4.0041e-32  3.6436e-23  1.1232e-31  3.6477e-23  3.1714e-31  3.6549e-23  6.3233e-31  3.6679e-23  1.1339e-30  3.6909e-23  2.0489e-30  3.7319e-23  3.7443e-30  3.8049e-23  6.9775e-30  3.9351e-23  1.3411e-29  4.1678e-23  2.698e-29  4.5853e-23  5.7656e-29  5.3395e-23  1.3205e-28  6.7176e-23  3.2304e-28  9.2857e-23  8.3037e-28  1.4223e-22  2.1966e-27  2.4176e-22
      8.35  2.1922e-33  3.8556e-23  2.8254e-33  3.856e-23  4.8318e-33  3.8568e-23  1.1199e-32  3.8581e-23  2.9335e-32  3.8604e-23  8.354e-32  3.8645e-23   2.34e-31  3.8717e-23  4.6788e-31  3.8847e-23  8.3863e-31  3.9078e-23  1.5151e-30  3.9488e-23  2.7696e-30  4.0219e-23  5.1609e-30  4.1523e-23  9.9195e-30  4.3853e-23  1.996e-29  4.8034e-23   4.27e-29  5.5586e-23  9.8003e-29  6.9386e-23  2.4074e-28  9.5097e-23  6.2317e-28  1.4452e-22  1.665e-27  2.4411e-22
      8.40  1.7981e-33  4.0827e-23  2.2524e-33  4.0831e-23  3.7043e-33  4.0839e-23  8.2177e-33  4.0852e-23  2.1269e-32  4.0875e-23  5.9273e-32  4.0916e-23  1.6714e-31  4.0989e-23  3.3869e-31  4.112e-23  6.0694e-31  4.1351e-23  1.0968e-30  4.1764e-23  2.0065e-30  4.2498e-23  3.7442e-30  4.3808e-23  7.2116e-30  4.615e-23  1.4558e-29  5.0351e-23  3.1284e-29  5.7938e-23  7.2245e-29  7.1801e-23  1.788e-28  9.7626e-23  4.671e-28  1.4726e-22  1.2617e-27  2.4725e-22
      8.45  1.4888e-33  4.3205e-23  1.8181e-33  4.3209e-23  2.8822e-33  4.3216e-23  5.9636e-33  4.3229e-23  1.5634e-32  4.3253e-23  4.3643e-32  4.3294e-23  1.2144e-31  4.3368e-23  2.4475e-31  4.3499e-23  4.4281e-31  4.3733e-23  8.0036e-31  4.4149e-23  1.4653e-30  4.489e-23  2.7382e-30  4.6211e-23  5.2852e-30  4.8571e-23  1.0703e-29  5.2807e-23  2.3104e-29  6.0456e-23  5.3664e-29  7.4432e-23  1.3375e-28  1.0046e-22  3.5234e-28  1.5048e-22  9.6109e-28  2.5122e-22
      8.50  1.2445e-33  4.5692e-23  1.4868e-33  4.5696e-23  2.2796e-33  4.5703e-23   4.62e-33  4.6178e-23  1.1539e-32  4.574e-23  3.1673e-32  4.5782e-23  8.935e-32  4.5857e-23  1.8019e-31  4.599e-23  3.2598e-31  4.6226e-23  5.8931e-31  4.6647e-23  1.0796e-30  4.7396e-23  2.0199e-30  4.8733e-23  3.9069e-30  5.1122e-23  7.9356e-30  5.5407e-23  1.7199e-29  6.3147e-23  4.0157e-29  7.7286e-23  1.0072e-28  1.0362e-22  2.6727e-28  1.5421e-22  7.3534e-28  2.5607e-22
