# This was generated using Cloudy10 and the columns are ordered 
# as log10 of the fraction of the metallicity to the solar metallicity
# 'h_*_Z' and 'c_*_Z' stands for cooling and heating respectively 
# at * metalicity
#
# Redshift = 4.0
# hden = 5.0
#     temp   h_-3.00_Z   c_-3.00_Z   h_-2.75_Z   c_-2.75_Z   h_-2.50_Z   c_-2.50_Z   h_-2.25_Z   c_-2.25_Z   h_-2.00_Z   c_-2.00_Z   h_-1.75_Z   c_-1.75_Z   h_-1.50_Z   c_-1.50_Z   h_-1.25_Z   c_-1.25_Z   h_-1.00_Z   c_-1.00_Z   h_-0.75_Z   c_-0.75_Z   h_-0.50_Z   c_-0.50_Z   h_-0.25_Z   c_-0.25_Z    h_0.00_Z    c_0.00_Z    h_0.25_Z    c_0.25_Z    h_0.50_Z    c_0.50_Z    h_0.75_Z    c_0.75_Z    h_1.00_Z    c_1.00_Z    h_1.25_Z    c_1.25_Z    h_1.50_Z    c_1.50_Z 
      1.00  6.4421e-29  1.2514e-32  6.4421e-29  1.2664e-32  6.4422e-29  1.293e-32  6.4423e-29  1.3404e-32  6.4426e-29  1.4248e-32  6.443e-29  1.5748e-32  6.4438e-29  1.8416e-32  6.4451e-29  2.3162e-32  6.4477e-29  3.1607e-32  6.4525e-29  4.6642e-32  6.4624e-29  7.3425e-32  6.4863e-29  1.2119e-31  6.5481e-29  2.0647e-31  6.6881e-29  3.5865e-31  6.9644e-29  6.2988e-31  7.4812e-29  1.1153e-30  8.4378e-29  1.9725e-30  1.0231e-28  3.5027e-30  1.3422e-28  6.2226e-30
      1.05  6.443e-29  1.4054e-32  6.443e-29  1.425e-32  6.4431e-29  1.4597e-32  6.4432e-29  1.5216e-32  6.4435e-29  1.6315e-32  6.4439e-29  1.827e-32  6.4446e-29  2.1749e-32  6.446e-29  2.7937e-32  6.4485e-29  3.895e-32  6.4532e-29  5.8563e-32  6.4628e-29  9.3526e-32  6.4858e-29  1.5597e-31  6.5461e-29  2.6771e-31  6.6851e-29  4.6757e-31  6.9607e-29  8.2421e-31  7.4765e-29  1.4652e-30  8.4268e-29  2.5914e-30  1.0212e-28  4.6068e-30  1.3395e-28  8.189e-30
      1.10  6.4439e-29  1.5783e-32  6.444e-29  1.6034e-32  6.444e-29  1.6479e-32  6.4442e-29  1.7272e-32  6.4444e-29  1.8681e-32  6.4448e-29  2.1187e-32  6.4456e-29  2.5646e-32  6.4469e-29  3.358e-32  6.4493e-29  4.7704e-32  6.4539e-29  7.2872e-32  6.4631e-29  1.178e-31  6.4852e-29  1.9828e-31  6.5445e-29  3.4305e-31  6.6828e-29  6.0318e-31  6.9576e-29  1.0686e-30  7.472e-29  1.9064e-30  8.4171e-29  3.3797e-30  1.0194e-28  6.019e-30  1.3369e-28  1.0711e-29
      1.15  6.445e-29  1.8035e-32  6.445e-29  1.8352e-32  6.4451e-29  1.8916e-32  6.4452e-29  1.9918e-32  6.4454e-29   2.17e-32  6.4458e-29  2.4871e-32  6.4466e-29  3.0511e-32  6.4478e-29  4.0551e-32  6.4502e-29  5.8435e-32  6.4546e-29  9.0338e-32  6.4634e-29  1.4743e-31  6.4847e-29  2.5028e-31  6.5428e-29  4.3681e-31  6.6802e-29  7.7546e-31  6.954e-29  1.3843e-30  7.4668e-29  2.4836e-30  8.4063e-29  4.4195e-30  1.0172e-28  7.8936e-30  1.3337e-28  1.407e-29
      1.20  6.4461e-29  2.1268e-32  6.4462e-29  2.1665e-32  6.4463e-29  2.237e-32  6.4464e-29  2.3623e-32  6.4466e-29  2.5854e-32  6.447e-29  2.9821e-32  6.4477e-29  3.6881e-32  6.4489e-29  4.9454e-32  6.4512e-29  7.1869e-32  6.4554e-29  1.1193e-31  6.4638e-29  1.8391e-31  6.4842e-29  3.1481e-31  6.5411e-29  5.5653e-31  6.6774e-29  1.0011e-30  6.9499e-29  1.8053e-30  7.461e-29  3.2659e-30  8.3945e-29  5.8457e-30  1.0148e-28  1.0486e-29  1.3301e-28  1.874e-29
      1.25  6.4474e-29  2.4864e-32  6.4475e-29  2.5356e-32  6.4475e-29  2.623e-32  6.4476e-29  2.7785e-32  6.4479e-29  3.055e-32  6.4482e-29  3.5471e-32  6.4489e-29  4.4232e-32  6.4501e-29  5.9842e-32  6.4523e-29  8.7709e-32  6.4563e-29  1.3765e-31  6.4642e-29  2.2792e-31  6.4836e-29  3.9438e-31  6.5392e-29  7.0948e-31  6.6744e-29  1.3015e-30  6.9455e-29  2.3859e-30  7.4541e-29  4.3601e-30  8.3816e-29  7.867e-30  1.012e-28  1.419e-29  1.3259e-28  2.545e-29
      1.30  6.4488e-29  2.8876e-32  6.4488e-29  2.9481e-32  6.4489e-29  3.0558e-32  6.449e-29  3.2473e-32  6.4492e-29  3.5879e-32  6.4495e-29  4.1943e-32  6.4502e-29  5.2741e-32  6.4514e-29    7.2e-32  6.4534e-29  1.0644e-31  6.4572e-29  1.6837e-31  6.4647e-29  2.8123e-31  6.4831e-29  4.9326e-31  6.5372e-29  9.0813e-31  6.6712e-29  1.7094e-30  6.9406e-29  3.1963e-30  7.4466e-29  5.9192e-30  8.3677e-29  1.0784e-29  1.009e-28  1.9574e-29  1.3214e-28  3.5253e-29
      1.35  6.4502e-29  3.336e-32  6.4502e-29  3.4103e-32  6.4503e-29  3.5425e-32  6.4504e-29  3.7776e-32  6.4506e-29  4.1959e-32  6.4509e-29  4.9406e-32  6.4516e-29  6.2676e-32  6.4527e-29  8.6366e-32  6.4546e-29  1.2881e-31  6.4582e-29  2.0548e-31  6.4652e-29  3.4654e-31  6.4826e-29  6.176e-31  6.5352e-29  1.1693e-30  6.6678e-29  2.2688e-30  6.9355e-29  4.338e-30  7.4386e-29   8.15e-30  8.3537e-29  1.5005e-29  1.0057e-28  2.7394e-29  1.3165e-28  4.9551e-29
      1.40  6.4517e-29  3.8389e-32  6.4517e-29  3.9304e-32  6.4518e-29  4.0932e-32  6.4519e-29  4.3828e-32  6.4521e-29  4.8982e-32  6.4524e-29  5.816e-32  6.453e-29  7.4524e-32  6.454e-29  1.0377e-31  6.4559e-29  1.5628e-31  6.4593e-29  2.5154e-31  6.4658e-29  4.2865e-31  6.4821e-29  7.7731e-31  6.5331e-29  1.5173e-30  6.6643e-29  3.0397e-30  6.9301e-29  5.9432e-30  7.4302e-29  1.1321e-29  8.3394e-29  2.1044e-29  1.0023e-28  3.8612e-29  1.3114e-28  7.0121e-29
      1.45  6.4533e-29  4.4056e-32  6.4533e-29   4.52e-32  6.4534e-29  4.7235e-32  6.4535e-29  5.0855e-32  6.4536e-29  5.7299e-32  6.454e-29  6.8778e-32  6.4545e-29  8.9253e-32  6.4555e-29  1.2588e-31  6.4573e-29  1.9176e-31  6.4604e-29  3.1178e-31  6.4664e-29  5.3698e-31  6.4816e-29  9.9025e-31  6.531e-29  1.9905e-30  6.6607e-29  4.108e-30  6.9246e-29  8.1909e-30  7.4216e-29  1.5784e-29  8.3249e-29  2.9568e-29  9.9883e-29  5.4454e-29  1.3061e-28  9.9207e-29
      1.50  6.4549e-29  5.0497e-32  6.455e-29  5.1973e-32  6.455e-29  5.4598e-32  6.4551e-29  5.9269e-32  6.4553e-29  6.7584e-32  6.4556e-29  8.2398e-32  6.4561e-29  1.0883e-31  6.457e-29  1.5613e-31  6.4587e-29  2.4132e-31  6.4615e-29  3.9688e-31  6.467e-29  6.9058e-31  6.481e-29  1.291e-30  6.5286e-29  2.6559e-30  6.6567e-29  5.609e-30  6.9187e-29  1.1338e-29  7.4126e-29  2.2041e-29  8.3099e-29  4.1504e-29  9.9534e-29  7.6602e-29  1.3008e-28  1.3983e-28
      1.55  6.4567e-29  5.7945e-32  6.4567e-29  5.996e-32  6.4567e-29  6.3545e-32  6.4568e-29  6.9923e-32  6.457e-29  8.1275e-32  6.4573e-29  1.015e-31  6.4578e-29  1.3758e-31  6.4587e-29  2.0214e-31  6.4602e-29  3.1838e-31  6.4629e-29  5.3059e-31  6.4679e-29  9.3136e-31  6.4808e-29  1.7536e-30  6.5266e-29  3.646e-30  6.6533e-29  7.7857e-30  6.9135e-29  1.5842e-29  7.4044e-29  3.0892e-29  8.296e-29  5.8287e-29  9.9208e-29  1.0762e-28  1.2956e-28  1.9652e-28
      1.60  6.4585e-29  6.6714e-32  6.4585e-29  6.9654e-32  6.4586e-29  7.4884e-32  6.4586e-29  8.4189e-32  6.4588e-29  1.0075e-31  6.4591e-29  1.3024e-31  6.4596e-29  1.8283e-31  6.4604e-29  2.7685e-31  6.4618e-29  4.4588e-31  6.4643e-29  7.5353e-31  6.4689e-29  1.3312e-30  6.4807e-29  2.5046e-30  6.5248e-29  5.1855e-30  6.6501e-29  1.104e-29  6.9085e-29  2.2415e-29  7.3965e-29  4.362e-29  8.2827e-29  8.2197e-29  9.8908e-29  1.5156e-28  1.2904e-28  2.7638e-28
      1.65  6.4604e-29  7.7329e-32  6.4604e-29  8.1902e-32  6.4605e-29  9.0036e-32  6.4605e-29  1.0451e-31  6.4607e-29  1.3025e-31  6.461e-29  1.7609e-31  6.4614e-29  2.5777e-31  6.4622e-29  4.0363e-31  6.4635e-29  6.6521e-31  6.4658e-29  1.139e-30   6.47e-29  2.0197e-30  6.4807e-29  3.7715e-30  6.523e-29  7.6691e-30  6.6469e-29  1.6058e-29  6.9037e-29  3.225e-29  7.389e-29  6.2306e-29   8.27e-29  1.1689e-28  9.8635e-29  2.1488e-28  1.2855e-28  3.9068e-28
      1.70  6.4624e-29  9.0601e-32  6.4624e-29  9.8051e-32  6.4624e-29  1.113e-31  6.4625e-29  1.3487e-31  6.4627e-29  1.768e-31  6.4629e-29  2.5141e-31  6.4633e-29  3.8429e-31  6.4641e-29  6.2125e-31  6.4654e-29  1.0451e-30  6.4675e-29  1.8089e-30  6.4712e-29  3.2118e-30  6.4808e-29  5.9304e-30  6.5214e-29  1.1742e-29  6.6439e-29  2.3916e-29  6.8991e-29  4.7211e-29  7.382e-29  9.016e-29  8.2581e-29  1.6794e-28  9.8388e-29  3.0731e-28  1.2807e-28  5.5639e-28
      1.75  6.4645e-29  1.0775e-31  6.4645e-29  1.2016e-31  6.4645e-29  1.4223e-31  6.4646e-29  1.8148e-31  6.4647e-29  2.5129e-31  6.465e-29  3.7549e-31  6.4654e-29  5.9654e-31  6.4661e-29  9.9031e-31  6.4673e-29  1.6931e-30  6.4692e-29  2.9535e-30  6.4725e-29  5.2435e-30  6.4811e-29  9.5671e-30  6.5199e-29  1.8396e-29  6.6411e-29  3.6289e-29  6.8949e-29  7.0042e-29  7.3754e-29  1.3182e-28  8.2471e-29  2.4329e-28  9.8164e-29  4.4267e-28  1.2761e-28  7.9747e-28
      1.80  6.4666e-29  1.3057e-31  6.4666e-29  1.5125e-31  6.4667e-29  1.8802e-31  6.4667e-29  2.5343e-31  6.4669e-29  3.6974e-31  6.4671e-29  5.7663e-31  6.4675e-29  9.4467e-31  6.4682e-29  1.5997e-30  6.4693e-29  2.7668e-30  6.471e-29  4.852e-30  6.4739e-29  8.6072e-30  6.4815e-29  1.5538e-29  6.5185e-29  2.9065e-29  6.6385e-29  5.5487e-29  6.891e-29  1.0453e-28  7.3693e-29  1.9359e-28  8.237e-29  3.5363e-28  9.797e-29  6.393e-28  1.2717e-28  1.1457e-27
      1.85  6.4689e-29  1.6136e-31  6.4689e-29  1.9531e-31  6.4689e-29  2.5569e-31  6.469e-29  3.6306e-31  6.4691e-29  5.5398e-31  6.4693e-29  8.9351e-31  6.4697e-29  1.4973e-30  6.4703e-29  2.5713e-30  6.4714e-29  4.4824e-30  6.473e-29  7.8874e-30  6.4755e-29  1.3978e-29  6.4821e-29  2.5017e-29  6.5172e-29  4.5674e-29  6.636e-29  8.4603e-29  6.8873e-29  1.5563e-28  7.3637e-29  2.8354e-28  8.2278e-29  5.1242e-28  9.7806e-29  9.202e-28  1.2675e-28  1.6407e-27
      1.90  6.4712e-29  2.0312e-31  6.4712e-29  2.575e-31  6.4713e-29  3.542e-31  6.4713e-29  5.2616e-31  6.4714e-29  8.3194e-31  6.4716e-29  1.3757e-30  6.472e-29  2.3424e-30  6.4725e-29  4.0611e-30  6.4735e-29  7.1167e-30  6.4748e-29  1.255e-29  6.4769e-29  2.2222e-29  6.4824e-29  3.9511e-29  6.5162e-29  7.0759e-29  6.6342e-29  1.2752e-28  6.8845e-29  2.294e-28  7.3591e-29  4.1141e-28  8.2199e-29  7.3569e-28  9.7665e-29  1.3123e-27  1.2639e-28  2.3291e-27
      1.95  6.4736e-29  2.5927e-31  6.4736e-29  3.4373e-31  6.4736e-29  4.9392e-31  6.4737e-29  7.6099e-31  6.4738e-29  1.2359e-30  6.4739e-29  2.0802e-30  6.4741e-29  3.5811e-30  6.4745e-29  6.2487e-30  6.475e-29  1.0988e-29  6.4757e-29  1.9403e-29  6.4767e-29  3.4325e-29  6.4813e-29  6.0671e-29  6.516e-29  1.0701e-28  6.6347e-29  1.8844e-28  6.8848e-29  3.3244e-28  7.3575e-29  5.8765e-28  8.2151e-29  1.0402e-27  9.7565e-29  1.8426e-27  1.263e-28  3.2559e-27
      2.00  6.4761e-29  3.3368e-31  6.4761e-29  4.6065e-31  6.4762e-29  6.8644e-31  6.4762e-29  1.0879e-30  6.4763e-29  1.8018e-30  6.4764e-29  3.0709e-30  6.4766e-29  5.3268e-30  6.4769e-29  9.3352e-30  6.4773e-29  1.6453e-29  6.4778e-29  2.9076e-29  6.4783e-29  5.1396e-29  6.4819e-29  9.0469e-29  6.5151e-29  1.5752e-28  6.633e-29  2.7221e-28  6.8823e-29  4.7243e-28  7.3538e-29  8.2494e-28  8.2089e-29  1.4476e-27  9.7455e-29  2.5495e-27  1.2599e-28  4.4896e-27
      2.05  6.4787e-29  4.3036e-31  6.4787e-29  6.1509e-31  6.4788e-29  9.4358e-31  6.4788e-29  1.5277e-30  6.4789e-29  2.5662e-30  6.479e-29  4.4124e-30  6.4792e-29  7.6939e-30  6.4794e-29  1.3524e-29  6.4798e-29  2.3874e-29  6.4803e-29  4.2217e-29  6.4805e-29  7.4544e-29  6.483e-29  1.3094e-28  6.5141e-29  2.2579e-28  6.631e-29  3.8413e-28  6.8795e-29  6.5746e-28  7.3499e-29  1.1359e-27  8.203e-29  1.9784e-27  9.7356e-29  3.4674e-27  1.2564e-28  6.091e-27
      2.10  6.4814e-29  5.527e-31  6.4814e-29  8.1285e-31  6.4815e-29  1.2755e-30  6.4815e-29  2.098e-30  6.4816e-29  3.5605e-30  6.4817e-29  6.1605e-30  6.4818e-29  1.0782e-29  6.4821e-29  1.8991e-29  6.4825e-29  3.3564e-29  6.4828e-29  5.9381e-29  6.4828e-29  1.0485e-28  6.4843e-29  1.8386e-28  6.5133e-29  3.1481e-28  6.629e-29  5.2888e-28  6.877e-29  8.9483e-28  7.3465e-29  1.5323e-27  8.198e-29  2.6523e-27  9.7272e-29  4.6299e-27  1.253e-28   8.12e-27
      2.15  6.4842e-29  7.0343e-31  6.4842e-29  1.0585e-30  6.4842e-29  1.6899e-30  6.4843e-29  2.8126e-30  6.4843e-29  4.8087e-30  6.4845e-29  8.3573e-30  6.4846e-29  1.4664e-29  6.4849e-29  2.587e-29  6.4853e-29  4.5759e-29  6.4855e-29  8.0995e-29  6.4852e-29  1.4303e-28  6.4857e-29  2.506e-28  6.5126e-29  4.2701e-28  6.6273e-29  7.1038e-28  6.8747e-29  1.1909e-27  7.3436e-29  2.0249e-27  8.1938e-29  3.4874e-27  9.7203e-29  6.0689e-27  1.2499e-28  1.0634e-26
      2.20  6.4871e-29  8.8432e-31  6.4871e-29  1.3548e-30  6.4871e-29  2.1914e-30  6.4872e-29  3.679e-30  6.4872e-29  6.324e-30  6.4873e-29  1.1026e-29  6.4875e-29  1.9384e-29  6.4878e-29  3.4234e-29  6.4881e-29  6.0595e-29  6.4883e-29  1.0723e-28  6.4878e-29  1.8954e-28  6.4873e-29  3.3202e-28  6.512e-29  5.6404e-28  6.6257e-29  9.3142e-28  6.8726e-29  1.5505e-27  7.3411e-29  2.6221e-27  8.1903e-29  4.4991e-27  9.7148e-29  7.8124e-27  1.2472e-28  1.3683e-26
      2.25  6.4901e-29  1.096e-30  6.4901e-29  1.7025e-30  6.4901e-29  2.781e-30  6.4901e-29  4.6986e-30  6.4902e-29  8.1084e-30  6.4903e-29  1.417e-29  6.4905e-29  2.4946e-29  6.4908e-29  4.4093e-29  6.4911e-29  7.8087e-29  6.4912e-29  1.3825e-28  6.4905e-29  2.4446e-28  6.4891e-29  4.2833e-28  6.5115e-29  7.2649e-28  6.6243e-29  1.1934e-27  6.8709e-29  1.9764e-27  7.3389e-29  3.3295e-27  8.1875e-29  5.6983e-27  9.7106e-29  9.8812e-27  1.2451e-28  1.7306e-26
      2.30  6.4931e-29  1.3384e-30  6.4932e-29  2.1007e-30  6.4932e-29  3.4562e-30  6.4932e-29  5.8667e-30  6.4933e-29  1.0153e-29  6.4934e-29  1.7773e-29  6.4936e-29  3.1319e-29  6.4938e-29  5.5391e-29  6.4942e-29  9.814e-29  6.4942e-29  1.7383e-28  6.4932e-29  3.0752e-28  6.491e-29  5.3915e-28  6.5112e-29  9.1406e-28  6.623e-29  1.4963e-27  6.8693e-29  2.4696e-27  7.3372e-29  4.1499e-27  8.1853e-29  7.0913e-27  9.7076e-29  1.2289e-26  1.2437e-28  2.1531e-26
      2.35  6.4963e-29   1.61e-30  6.4963e-29  2.5465e-30  6.4964e-29  4.2117e-30  6.4964e-29  7.1729e-30  6.4965e-29  1.2438e-29  6.4966e-29   2.18e-29  6.4968e-29  3.8444e-29  6.497e-29  6.8026e-29  6.4973e-29  1.2057e-28  6.4974e-29  2.1365e-28  6.4961e-29  3.7817e-28  6.493e-29  6.636e-28  6.5109e-29  1.1256e-27  6.6218e-29  1.8388e-27  6.8679e-29  3.0288e-27  7.3358e-29  5.0828e-27  8.1838e-29  8.6794e-27  9.7056e-29  1.504e-26  1.2427e-28  2.637e-26
      2.40  6.4996e-29  1.9066e-30  6.4996e-29  3.0315e-30  6.4996e-29  5.0321e-30  6.4997e-29  8.5894e-30  6.4997e-29  1.4915e-29  6.4998e-29  2.6163e-29    6.5e-29  4.6162e-29  6.5003e-29  8.1712e-29  6.5006e-29  1.4488e-28  6.5006e-29  2.5682e-28  6.4992e-29  4.5486e-28  6.4951e-29  7.9897e-28  6.5108e-29  1.3566e-27  6.6208e-29  2.2141e-27  6.8668e-29  3.6433e-27  7.3347e-29  6.1107e-27  8.1827e-29  1.0434e-26  9.7045e-29  1.8087e-26  1.2424e-28  3.1743e-26
      2.45  6.503e-29  2.2217e-30  6.503e-29  3.5439e-30  6.503e-29  5.8952e-30  6.503e-29  1.0076e-29  6.5031e-29  1.7512e-29  6.5032e-29  3.0733e-29  6.5034e-29  5.4243e-29  6.5037e-29  9.6043e-29  6.504e-29  1.7033e-28  6.5039e-29  3.0207e-28  6.5023e-29  5.3531e-28  6.4974e-29  9.4132e-28  6.5108e-29  1.6005e-27  6.6199e-29  2.6114e-27  6.866e-29  4.2953e-27  7.3337e-29  7.2038e-27  8.1821e-29  1.2303e-26  9.7042e-29  2.1342e-26  1.2423e-28  3.7497e-26
      2.50  6.5064e-29  2.5576e-30  6.5064e-29  4.0867e-30  6.5065e-29  6.806e-30  6.5065e-29  1.1642e-29  6.5066e-29  2.0241e-29  6.5067e-29  3.5533e-29  6.5069e-29  6.2729e-29  6.5072e-29  1.1109e-28  6.5074e-29  1.9707e-28  6.5073e-29  3.4962e-28  6.5055e-29  6.1997e-28  6.4999e-29  1.0915e-27  6.5109e-29  1.8592e-27  6.619e-29  3.0347e-27  6.8653e-29  4.9932e-27  7.333e-29  8.3788e-27  8.1818e-29  1.432e-26  9.7046e-29  2.4862e-26  1.2424e-28  4.374e-26
      2.55   6.51e-29  2.913e-30   6.51e-29  4.6561e-30   6.51e-29  7.7559e-30  6.5101e-29  1.3268e-29  6.5102e-29  2.3072e-29  6.5103e-29  4.0507e-29  6.5105e-29  7.1516e-29  6.5107e-29  1.2667e-28  6.511e-29  2.2476e-28  6.5109e-29  3.9889e-28  6.5089e-29  7.0778e-28  6.5024e-29  1.2476e-27  6.5111e-29  2.1295e-27  6.6183e-29  3.4796e-27  6.8647e-29  5.7303e-27  7.3324e-29  9.6247e-27  8.1817e-29  1.6465e-26  9.7054e-29  2.8617e-26  1.2427e-28  5.0415e-26
      2.60  6.5137e-29  3.285e-30  6.5137e-29  5.2466e-30  6.5137e-29  8.7348e-30  6.5138e-29  1.4938e-29  6.5138e-29  2.5971e-29  6.514e-29  4.5593e-29  6.5141e-29  8.0496e-29  6.5144e-29  1.4259e-28  6.5147e-29  2.5306e-28  6.5145e-29  4.4926e-28  6.5124e-29  7.9768e-28  6.5051e-29  1.4077e-27  6.5113e-29  2.4084e-27  6.6175e-29  3.941e-27  6.8642e-29  6.4984e-27  7.3318e-29  1.0928e-26  8.1817e-29  1.8716e-26  9.7064e-29  3.2567e-26  1.2429e-28  5.7452e-26
      2.65  6.5175e-29  3.6735e-30  6.5175e-29  5.8564e-30  6.5175e-29  9.7384e-30  6.5175e-29  1.6642e-29  6.5176e-29  2.8921e-29  6.5177e-29  5.0761e-29  6.5179e-29  8.9614e-29  6.5182e-29  1.5875e-28  6.5185e-29  2.8178e-28  6.5183e-29  5.0042e-28  6.516e-29  8.8908e-28  6.508e-29  1.5709e-27  6.5117e-29  2.6941e-27  6.6169e-29  4.4166e-27  6.8638e-29  7.2939e-27  7.3311e-29  1.2283e-26  8.1816e-29  2.1063e-26  9.7074e-29  3.6694e-26  1.2432e-28  6.4819e-26
      2.70  6.5213e-29  4.0782e-30  6.5214e-29  6.4839e-30  6.5214e-29  1.0762e-29  6.5214e-29  1.8371e-29  6.5215e-29  3.1904e-29  6.5216e-29  5.5976e-29  6.5218e-29  9.8805e-29  6.5221e-29  1.7503e-28  6.5223e-29  3.1073e-28  6.5221e-29  5.5199e-28  6.5196e-29  9.8131e-28  6.5109e-29  1.7359e-27  6.5122e-29  2.9842e-27  6.6163e-29  4.9025e-27  6.8635e-29  8.1111e-27  7.3304e-29  1.3681e-26  8.1815e-29  2.349e-26  9.7085e-29  4.0969e-26  1.2435e-28  7.2464e-26
      2.75  6.5253e-29  4.4974e-30  6.5253e-29  7.1245e-30  6.5253e-29  1.1796e-29  6.5254e-29  2.0106e-29  6.5254e-29  3.4884e-29  6.5255e-29  6.1175e-29  6.5256e-29  1.0795e-28  6.5257e-29  1.9122e-28  6.5257e-29  3.3951e-28  6.525e-29  6.0322e-28  6.5217e-29  1.0728e-27  6.5116e-29  1.8987e-27  6.5123e-29  3.2662e-27  6.6171e-29  5.3812e-27  6.8646e-29  8.9325e-27  7.3313e-29  1.5104e-26  8.1819e-29  2.5979e-26  9.7099e-29  4.5368e-26  1.2438e-28  8.0345e-26
      2.80  6.5294e-29  4.9365e-30  6.5294e-29  7.7844e-30  6.5294e-29  1.2849e-29  6.5294e-29  2.1857e-29  6.5294e-29  3.7879e-29  6.5295e-29  6.6382e-29  6.5295e-29  1.171e-28  6.5294e-29  2.074e-28  6.5291e-29  3.6825e-28  6.5279e-29  6.5438e-28  6.5236e-29  1.1642e-27  6.5121e-29  2.0612e-27  6.5124e-29  3.5477e-27  6.6181e-29  5.8634e-27  6.866e-29  9.7671e-27  7.3334e-29  1.6557e-26  8.184e-29  2.8528e-26  9.7112e-29  4.9881e-26  1.2442e-28  8.8438e-26
      2.85  6.5336e-29  5.3966e-30  6.5336e-29  8.4648e-30  6.5336e-29  1.3921e-29  6.5336e-29  2.3626e-29  6.5335e-29  4.0888e-29  6.5335e-29   7.16e-29  6.5334e-29  1.2625e-28  6.5332e-29  2.2357e-28  6.5326e-29  3.9695e-28  6.5307e-29  7.0544e-28  6.5254e-29  1.2554e-27  6.5124e-29  2.2236e-27  6.5127e-29  3.8295e-27  6.6193e-29  6.3502e-27  6.8676e-29  1.0616e-26  7.336e-29  1.8041e-26  8.1886e-29  3.1134e-26  9.7195e-29  5.4497e-26  1.245e-28  9.6718e-26
      2.90  6.5379e-29  5.8814e-30  6.5379e-29  9.1698e-30  6.5378e-29  1.5018e-29  6.5378e-29  2.5419e-29  6.5378e-29  4.3921e-29  6.5377e-29  7.6839e-29  6.5375e-29  1.3542e-28  6.537e-29  2.3975e-28  6.5361e-29  4.2565e-28  6.5337e-29  7.5709e-28  6.5274e-29  1.3466e-27  6.513e-29  2.3859e-27  6.5132e-29  4.1129e-27  6.6205e-29  6.8439e-27  6.8693e-29  1.148e-26  7.3389e-29  1.9556e-26  8.1942e-29  3.3796e-26  9.7298e-29  5.921e-26  1.2466e-28  1.0516e-25
      2.95  6.5422e-29  6.3949e-30  6.5422e-29  9.9037e-30  6.5422e-29  1.6144e-29  6.5422e-29  2.7242e-29  6.5421e-29  4.6985e-29  6.5419e-29  8.211e-29  6.5416e-29  1.4463e-28  6.541e-29  2.5596e-28  6.5397e-29  4.5439e-28  6.5368e-29  8.0823e-28  6.5296e-29  1.4377e-27  6.5141e-29  2.5486e-27  6.514e-29  4.3994e-27  6.6217e-29  7.3471e-27  6.871e-29  1.2365e-26  7.342e-29  2.1107e-26  8.2008e-29  3.652e-26  9.7425e-29  6.4022e-26  1.2486e-28  1.1376e-25
      3.00  6.5467e-29  6.9418e-30  6.5467e-29  1.0671e-29  6.5467e-29  1.7304e-29  6.5466e-29  2.9102e-29  6.5465e-29  5.0087e-29  6.5463e-29  8.7424e-29  6.5459e-29  1.5388e-28  6.5451e-29  2.7223e-28  6.5435e-29  4.8318e-28  6.5401e-29  8.5941e-28  6.5323e-29  1.5289e-27  6.5159e-29  2.7118e-27  6.5152e-29  4.6904e-27  6.6227e-29  7.8625e-27  6.8724e-29  1.3273e-26  7.3451e-29   2.27e-26  8.2082e-29  3.931e-26  9.758e-29  6.8935e-26  1.2512e-28  1.2252e-25
      3.05  6.5513e-29  7.5288e-30  6.5513e-29  1.1478e-29  6.5512e-29  1.8501e-29  6.5512e-29  3.0992e-29  6.551e-29  5.3212e-29  6.5508e-29  9.2746e-29  6.5503e-29  1.6311e-28  6.5494e-29  2.8842e-28  6.5476e-29  5.1177e-28  6.5439e-29  9.1017e-28  6.5356e-29  1.6193e-27  6.5187e-29  2.874e-27  6.5169e-29  4.9843e-27  6.6234e-29  8.3879e-27  6.8732e-29  1.4201e-26  7.3477e-29  2.4327e-26  8.216e-29  4.2148e-26  9.776e-29  7.3906e-26  1.2544e-28  1.3133e-25
      3.10  6.556e-29  8.1604e-30  6.556e-29  1.233e-29  6.5559e-29  1.9746e-29  6.5558e-29  3.2936e-29  6.5557e-29  5.6397e-29  6.5554e-29  9.8139e-29  6.5548e-29  1.7243e-28  6.5538e-29  3.0473e-28  6.5519e-29  5.4051e-28  6.5479e-29  9.6107e-28  6.5395e-29  1.7098e-27  6.5226e-29  3.0368e-27  6.5193e-29  5.2843e-27  6.6236e-29  8.9309e-27  6.873e-29  1.5164e-26  7.349e-29  2.6015e-26  8.2231e-29  4.5082e-26  9.7955e-29  7.9011e-26  1.2581e-28  1.4032e-25
      3.15  6.5607e-29  8.847e-30  6.5607e-29  1.3241e-29  6.5607e-29  2.1054e-29  6.5606e-29  3.4951e-29  6.5604e-29  5.9669e-29  6.5601e-29  1.0364e-28  6.5595e-29  1.8191e-28  6.5584e-29  3.2126e-28  6.5564e-29  5.6957e-28  6.5524e-29  1.0124e-27  6.5441e-29  1.8008e-27  6.5277e-29  3.2007e-27  6.5225e-29  5.5912e-27  6.6231e-29  9.4945e-27  6.8711e-29  1.6171e-26  7.3477e-29  2.7784e-26  8.2273e-29  4.8146e-26  9.8142e-29  8.4301e-26  1.2623e-28  1.4956e-25
      3.20  6.5656e-29  9.5994e-30  6.5656e-29  1.4222e-29  6.5655e-29  2.2443e-29  6.5654e-29  3.7064e-29  6.5652e-29  6.3071e-29  6.5649e-29  1.0934e-28  6.5643e-29  1.9166e-28  6.5632e-29  3.3822e-28  6.5612e-29  5.9932e-28  6.5572e-29  1.0648e-27  6.5492e-29  1.895e-27  6.5338e-29  3.3672e-27  6.5267e-29  5.906e-27  6.6217e-29  1.0083e-26  6.8668e-29  1.7231e-26  7.3422e-29  2.9659e-26  8.2259e-29  5.1395e-26  9.8282e-29  8.9869e-26  1.2666e-28  1.5918e-25
      3.25  6.5705e-29  1.0431e-29  6.5705e-29  1.5294e-29  6.5704e-29  2.3941e-29  6.5703e-29  3.932e-29  6.5701e-29  6.6672e-29  6.5698e-29  1.1533e-28  6.5692e-29  2.019e-28  6.5681e-29  3.5599e-28  6.5661e-29  6.3041e-28  6.5623e-29  1.1195e-27  6.5548e-29  1.9915e-27  6.5406e-29  3.5396e-27  6.5319e-29  6.2318e-27  6.6194e-29   1.07e-26  6.8596e-29  1.8357e-26  7.331e-29  3.1675e-26  8.2155e-29  5.491e-26  9.8325e-29  9.5865e-26  1.2704e-28  1.6944e-25
      3.30  6.5755e-29  1.1372e-29  6.5754e-29  1.6492e-29  6.5754e-29  2.5597e-29  6.5753e-29  4.1789e-29  6.5751e-29  7.0588e-29  6.5748e-29  1.2181e-28  6.5742e-29  2.1294e-28  6.5731e-29  3.7512e-28  6.5712e-29  6.6385e-28  6.5675e-29  1.1782e-27  6.5606e-29  2.0949e-27  6.5479e-29  3.7232e-27  6.5381e-29  6.5755e-27  6.6164e-29  1.1358e-26  6.8496e-29  1.9566e-26  7.3134e-29  3.3874e-26  8.1935e-29  5.8794e-26  9.8215e-29  1.025e-25  1.2732e-28  1.8068e-25
      3.35  6.5805e-29  1.2444e-29  6.5804e-29  1.7855e-29  6.5804e-29  2.7477e-29  6.5803e-29  4.4588e-29  6.5801e-29  7.5021e-29  6.5798e-29  1.2915e-28  6.5792e-29  2.2543e-28  6.5782e-29  3.9674e-28  6.5763e-29  7.0166e-28  6.5729e-29  1.2446e-27  6.5665e-29  2.2118e-27  6.5552e-29   3.93e-27  6.5451e-29  6.9559e-27  6.6131e-29  1.2082e-26  6.8375e-29   2.09e-26   7.29e-29  3.6324e-26  8.1587e-29  6.3193e-26  9.7902e-29  1.1009e-25  1.2743e-28  1.9342e-25
      3.40  6.5855e-29  1.3671e-29  6.5855e-29  1.9414e-29  6.5854e-29  2.9626e-29  6.5853e-29  4.7787e-29  6.5851e-29  8.0084e-29  6.5848e-29  1.3752e-28  6.5843e-29  2.3969e-28  6.5833e-29  4.2145e-28  6.5815e-29  7.4488e-28  6.5783e-29  1.3206e-27  6.5725e-29  2.3457e-27  6.5624e-29  4.1664e-27  6.5526e-29  7.3848e-27  6.6102e-29  1.2891e-26  6.8242e-29  2.2386e-26  7.2624e-29  3.9073e-26  8.1122e-29  6.8225e-26  9.7357e-29  1.1892e-25  1.2728e-28  2.0825e-25
      3.45  6.5905e-29  1.5089e-29  6.5905e-29  2.122e-29  6.5904e-29  3.2123e-29  6.5903e-29  5.1512e-29  6.5902e-29  8.5993e-29  6.5899e-29  1.4732e-28  6.5893e-29  2.5638e-28  6.5884e-29  4.5039e-28  6.5867e-29  7.9555e-28  6.5838e-29  1.4098e-27  6.5785e-29  2.5031e-27  6.5695e-29  4.4443e-27  6.5603e-29  7.8846e-27  6.608e-29  1.3821e-26  6.8108e-29  2.4086e-26  7.233e-29  4.2209e-26  8.0573e-29  7.4038e-26  9.6585e-29  1.2935e-25  1.2682e-28  2.2591e-25
      3.50  6.5954e-29  1.6734e-29  6.5954e-29  2.3325e-29  6.5954e-29  3.5047e-29  6.5953e-29  5.5891e-29  6.5951e-29  9.296e-29  6.5949e-29  1.5888e-28  6.5944e-29  2.7613e-28  6.5935e-29  4.8467e-28  6.592e-29  8.5563e-28  6.5892e-29  1.5157e-27  6.5844e-29  2.6901e-27  6.5765e-29  4.7791e-27  6.568e-29  8.4762e-27  6.607e-29  1.4909e-26  6.798e-29  2.6059e-26  7.2039e-29  4.5821e-26  7.9986e-29  8.0742e-26  9.563e-29  1.4161e-25  1.2601e-28  2.469e-25
      3.55  6.6003e-29  1.868e-29  6.6003e-29  2.5826e-29  6.6003e-29  3.8534e-29  6.6002e-29  6.1133e-29    6.6e-29  1.0132e-28  6.5998e-29  1.7279e-28  6.5993e-29  2.9989e-28  6.5986e-29  5.2595e-28  6.5972e-29  9.2805e-28  6.5947e-29  1.6434e-27  6.5904e-29  2.916e-27  6.5835e-29  5.1796e-27  6.5759e-29  9.1896e-27  6.6074e-29  1.6208e-26  6.7867e-29  2.8408e-26  7.177e-29  5.0078e-26  7.9414e-29  8.8585e-26  9.458e-29  1.5605e-25  1.2488e-28  2.7201e-25
      3.60  6.6051e-29  2.0972e-29  6.6051e-29  2.8799e-29  6.605e-29  4.2716e-29  6.605e-29  6.7466e-29  6.6049e-29  1.1148e-28  6.6046e-29  1.8975e-28  6.6042e-29  3.2895e-28  6.6036e-29  5.7651e-28  6.6023e-29  1.0168e-27  6.6002e-29  1.8001e-27  6.5965e-29  3.1935e-27  6.5906e-29  5.6719e-27  6.5842e-29  1.0066e-26  6.6098e-29  1.7794e-26  6.7779e-29  3.1266e-26  7.155e-29  5.5227e-26  7.8921e-29  9.7964e-26  9.3581e-29  1.7323e-25  1.2359e-28  3.021e-25
      3.65  6.6098e-29  2.3691e-29  6.6098e-29  3.2359e-29  6.6098e-29  4.7772e-29  6.6097e-29  7.5182e-29  6.6096e-29  1.2392e-28  6.6094e-29  2.1061e-28  6.6091e-29  3.6476e-28  6.6086e-29  6.3891e-28  6.6076e-29  1.1265e-27  6.6059e-29  1.9938e-27  6.6029e-29  3.5367e-27  6.5983e-29  6.2809e-27  6.5936e-29  1.1149e-26  6.6155e-29  1.9741e-26  6.7741e-29  3.4767e-26  7.1424e-29  6.1494e-26  7.8611e-29  1.0921e-25  9.288e-29  1.9339e-25  1.226e-28  3.3675e-25
      3.70  6.6153e-29  2.7066e-29  6.6153e-29  3.6788e-29  6.6153e-29  5.4074e-29  6.6153e-29  8.4815e-29  6.6152e-29  1.3948e-28  6.6151e-29  2.367e-28  6.6149e-29  4.0958e-28  6.6145e-29  7.1704e-28  6.6139e-29  1.2639e-27  6.6128e-29  2.2365e-27  6.6109e-29  3.9664e-27  6.6081e-29  7.0433e-27  6.6061e-29  1.2502e-26  6.6274e-29  2.216e-26  6.7806e-29  3.9086e-26  7.1489e-29  6.914e-26  7.8667e-29  1.2262e-25  9.2871e-29  2.1634e-25  1.2279e-28  3.7345e-25
      3.75  6.6211e-29  3.2733e-29  6.6211e-29  4.383e-29  6.6211e-29  6.3563e-29  6.6211e-29  9.8654e-29  6.6211e-29  1.6106e-28  6.6211e-29  2.7203e-28  6.6211e-29  4.6937e-28  6.621e-29  8.2031e-28  6.621e-29  1.4444e-27  6.621e-29  2.5544e-27  6.621e-29  4.5283e-27  6.6214e-29  8.0378e-27  6.6245e-29  1.4261e-26  6.6503e-29  2.5277e-26  6.8067e-29  4.4582e-26  7.1906e-29  7.8665e-26  7.9366e-29  1.3862e-25  9.4064e-29  2.4145e-25  1.2523e-28  4.0711e-25
      3.80  6.9329e-29  5.4386e-29  6.9329e-29  6.7361e-29  6.9328e-29  9.0434e-29  6.9325e-29  1.3146e-28  6.9322e-29  2.0443e-28  6.9315e-29  3.3417e-28  6.9303e-29  5.6488e-28  6.9282e-29  9.7512e-28  6.9244e-29  1.7046e-27  6.9178e-29  3.0014e-27  6.9063e-29  5.3061e-27  6.8871e-29  9.3993e-27  6.8586e-29  1.6644e-26  6.8399e-29  2.9443e-26  6.9426e-29  5.1844e-26  7.3205e-29  9.0852e-26  8.1142e-29  1.5766e-25  9.6887e-29  2.6683e-25  1.3021e-28  4.3132e-25
      3.85  6.9537e-29  1.8731e-28  6.9536e-29  2.0301e-28  6.9536e-29  2.3092e-28  6.9535e-29  2.8056e-28  6.9533e-29  3.6882e-28  6.953e-29  5.2577e-28  6.9524e-29  8.0482e-28  6.9514e-29  1.3009e-27  6.9497e-29  2.1827e-27  6.9466e-29  3.7493e-27  6.9414e-29  6.5305e-27  6.933e-29  1.1459e-26  6.9226e-29  2.015e-26  6.9305e-29  3.5395e-26  7.0652e-29  6.1734e-26  7.499e-29  1.0639e-25  8.3845e-29  1.7917e-25  1.0097e-28  2.8846e-25  1.3551e-28  4.5147e-25
      3.90  6.9736e-29  9.6542e-28  6.9736e-29  9.8504e-28  6.9737e-29  1.0199e-27  6.9738e-29  1.082e-27  6.9739e-29  1.1923e-27  6.9742e-29  1.3885e-27  6.9746e-29  1.7372e-27  6.9754e-29  2.3569e-27  6.9768e-29  3.4576e-27  6.9794e-29  5.4108e-27  6.9841e-29  8.8701e-27  6.9928e-29  1.4975e-26  7.0115e-29  2.566e-26  7.0639e-29  4.4151e-26  7.2513e-29  7.5326e-26  7.7513e-29  1.2583e-25  8.7122e-29  2.0193e-25  1.0507e-28  3.0588e-25  1.3776e-28  4.9939e-25
      3.95  6.9904e-29  4.9208e-27  6.9905e-29  4.9461e-27  6.9907e-29  4.9912e-27  6.9911e-29  5.0713e-27  6.9917e-29  5.2137e-27  6.9928e-29  5.4668e-27  6.9948e-29  5.9167e-27  6.9984e-29  6.7155e-27  7.0046e-29  8.1327e-27  7.0157e-29  1.0642e-26  7.0354e-29  1.5069e-26  7.0703e-29  2.2811e-26  7.1329e-29  3.6243e-26  7.2526e-29  5.8955e-26  7.5117e-29  9.5806e-26  8.0564e-29  1.5169e-25  9.0099e-29  2.2851e-25  1.0734e-28  3.3639e-25  1.366e-28  6.0875e-25
