# This was generated using Cloudy10 and the columns are ordered 
# as log10 of the fraction of the metallicity to the solar metallicity
# 'h_*_Z' and 'c_*_Z' stands for cooling and heating respectively 
# at * metalicity
#
# NOTE: This was generated separately from loop_coolingcurve_w_UV.py
#       using Output_metals_w_redshift.py.
#
# Redshift = 1.0
# hden = -10.0
#
#     temp   h_-3.00_Z   c_-3.00_Z   h_-2.75_Z   c_-2.75_Z   h_-2.50_Z   c_-2.50_Z   h_-2.25_Z   c_-2.25_Z   h_-2.00_Z   c_-2.00_Z   h_-1.75_Z   c_-1.75_Z   h_-1.50_Z   c_-1.50_Z   h_-1.25_Z   c_-1.25_Z   h_-1.00_Z   c_-1.00_Z   h_-0.75_Z   c_-0.75_Z   h_-0.50_Z   c_-0.50_Z   h_-0.25_Z   c_-0.25_Z    h_0.00_Z    c_0.00_Z    h_0.25_Z    c_0.25_Z    h_0.50_Z    c_0.50_Z    h_0.75_Z    c_0.75_Z    h_1.00_Z    c_1.00_Z    h_1.25_Z    c_1.25_Z    h_1.50_Z    c_1.50_Z 
      1.00  1.2553e-20  1.0110e-23  1.2559e-20  1.0110e-23  1.2569e-20  1.0110e-23  1.2586e-20  1.0111e-23  1.2617e-20  1.0111e-23  1.2671e-20  1.0112e-23  1.2768e-20  1.0113e-23  1.2941e-20  1.0115e-23  1.3249e-20  1.0118e-23  1.3796e-20  1.0125e-23  1.4771e-20  1.0137e-23  1.6507e-20  1.0158e-23  1.9608e-20  1.0195e-23  2.5161e-20  1.0261e-23  3.5163e-20  1.0378e-23  5.3352e-20  1.0587e-23  8.7027e-20  1.0960e-23  1.5113e-19  1.1626e-23  2.7817e-19  1.2822e-23
      1.05  1.2510e-20  1.1338e-23  1.2516e-20  1.1339e-23  1.2525e-20  1.1339e-23  1.2541e-20  1.1339e-23  1.2571e-20  1.1339e-23  1.2623e-20  1.1340e-23  1.2715e-20  1.1341e-23  1.2880e-20  1.1344e-23  1.3173e-20  1.1348e-23  1.3694e-20  1.1355e-23  1.4624e-20  1.1368e-23  1.6279e-20  1.1392e-23  1.9235e-20  1.1433e-23  2.4529e-20  1.1507e-23  3.4066e-20  1.1638e-23  5.1408e-20  1.1872e-23  8.3493e-20  1.2288e-23  1.4458e-19  1.3033e-23  2.6561e-19  1.4369e-23
      1.10  1.2470e-20  1.2716e-23  1.2475e-20  1.2716e-23  1.2484e-20  1.2717e-23  1.2499e-20  1.2717e-23  1.2527e-20  1.2717e-23  1.2577e-20  1.2718e-23  1.2665e-20  1.2720e-23  1.2822e-20  1.2722e-23  1.3102e-20  1.2727e-23  1.3599e-20  1.2735e-23  1.4485e-20  1.2750e-23  1.6063e-20  1.2776e-23  1.8881e-20  1.2822e-23  2.3929e-20  1.2905e-23  3.3022e-20  1.3051e-23  4.9559e-20  1.3312e-23  8.0142e-20  1.3778e-23  1.3835e-19  1.4611e-23  2.5367e-19  1.6104e-23
      1.15  1.2432e-20  1.4262e-23  1.2437e-20  1.4262e-23  1.2445e-20  1.4262e-23  1.2460e-20  1.4262e-23  1.2487e-20  1.4263e-23  1.2534e-20  1.4264e-23  1.2618e-20  1.4266e-23  1.2768e-20  1.4268e-23  1.3035e-20  1.4274e-23  1.3509e-20  1.4283e-23  1.4353e-20  1.4299e-23  1.5858e-20  1.4328e-23  1.8545e-20  1.4380e-23  2.3358e-20  1.4472e-23  3.2029e-20  1.4637e-23  4.7799e-20  1.4929e-23  7.6961e-20  1.5450e-23  1.3243e-19  1.6380e-23  2.4233e-19  1.8049e-23
      1.20  1.2396e-20  1.5996e-23  1.2401e-20  1.5996e-23  1.2409e-20  1.5996e-23  1.2423e-20  1.5996e-23  1.2449e-20  1.5997e-23  1.2494e-20  1.5998e-23  1.2574e-20  1.6000e-23  1.2717e-20  1.6003e-23  1.2971e-20  1.6009e-23  1.3423e-20  1.6019e-23  1.4228e-20  1.6037e-23  1.5663e-20  1.6070e-23  1.8226e-20  1.6128e-23  2.2816e-20  1.6231e-23  3.1085e-20  1.6415e-23  4.6125e-20  1.6742e-23  7.3932e-20  1.7324e-23  1.2680e-19  1.8365e-23  2.3154e-19  2.0230e-23
      1.25  1.2363e-20  1.7941e-23  1.2367e-20  1.7941e-23  1.2375e-20  1.7941e-23  1.2389e-20  1.7941e-23  1.2413e-20  1.7942e-23  1.2456e-20  1.7943e-23  1.2533e-20  1.7945e-23  1.2669e-20  1.7949e-23  1.2911e-20  1.7955e-23  1.3342e-20  1.7967e-23  1.4108e-20  1.7987e-23  1.5478e-20  1.8024e-23  1.7922e-20  1.8089e-23  2.2299e-20  1.8204e-23  3.0186e-20  1.8409e-23  4.4531e-20  1.8775e-23  7.1051e-20  1.9427e-23  1.2145e-19  2.0591e-23  2.2127e-19  2.2675e-23
      1.30  1.2332e-20  2.0122e-23  1.2336e-20  2.0123e-23  1.2343e-20  2.0123e-23  1.2356e-20  2.0123e-23  1.2379e-20  2.0124e-23  1.2420e-20  2.0125e-23  1.2493e-20  2.0128e-23  1.2623e-20  2.0132e-23  1.2854e-20  2.0139e-23  1.3266e-20  2.0152e-23  1.3998e-20  2.0175e-23  1.5303e-20  2.0216e-23  1.7633e-20  2.0288e-23  2.1808e-20  2.0417e-23  2.9329e-20  2.0647e-23  4.3011e-20  2.1056e-23  6.8307e-20  2.1785e-23  1.1635e-19  2.3087e-23  2.1150e-19  2.5417e-23
      1.35  1.2303e-20  2.2570e-23  1.2307e-20  2.2570e-23  1.2314e-20  2.2571e-23  1.2326e-20  2.2571e-23  1.2348e-20  2.2572e-23  1.2387e-20  2.2573e-23  1.2457e-20  2.2576e-23  1.2581e-20  2.2580e-23  1.2801e-20  2.2588e-23  1.3193e-20  2.2603e-23  1.3891e-20  2.2629e-23  1.5136e-20  2.2674e-23  1.7358e-20  2.2756e-23  2.1340e-20  2.2900e-23  2.8513e-20  2.3157e-23  4.1563e-20  2.3615e-23  6.5691e-20  2.4431e-23  1.1151e-19  2.5887e-23  2.0220e-19  2.8493e-23
      1.40  1.2275e-20  2.5316e-23  1.2279e-20  2.5316e-23  1.2286e-20  2.5316e-23  1.2297e-20  2.5317e-23  1.2318e-20  2.5318e-23  1.2356e-20  2.5319e-23  1.2422e-20  2.5322e-23  1.2540e-20  2.5327e-23  1.2750e-20  2.5337e-23  1.3124e-20  2.5353e-23  1.3790e-20  2.5381e-23  1.4977e-20  2.5433e-23  1.7097e-20  2.5523e-23  2.0894e-20  2.5685e-23  2.7735e-20  2.5973e-23  4.0182e-20  2.6485e-23  6.3197e-20  2.7398e-23  1.0689e-19  2.9027e-23  1.9333e-19  3.1941e-23
      1.45  1.2250e-20  2.8396e-23  1.2253e-20  2.8397e-23  1.2259e-20  2.8397e-23  1.2271e-20  2.8397e-23  1.2291e-20  2.8398e-23  1.2326e-20  2.8400e-23  1.2390e-20  2.8403e-23  1.2502e-20  2.8409e-23  1.2703e-20  2.8419e-23  1.3059e-20  2.8437e-23  1.3694e-20  2.8470e-23  1.4826e-20  2.8527e-23  1.6847e-20  2.8629e-23  2.0469e-20  2.8810e-23  2.6994e-20  2.9132e-23  3.8865e-20  2.9705e-23  6.0816e-20  3.0727e-23  1.0249e-19  3.2549e-23  1.8489e-19  3.5809e-23
      1.50  1.2225e-20  3.1852e-23  1.2229e-20  3.1852e-23  1.2235e-20  3.1853e-23  1.2246e-20  3.1853e-23  1.2265e-20  3.1855e-23  1.2299e-20  3.1857e-23  1.2359e-20  3.1860e-23  1.2466e-20  3.1867e-23  1.2657e-20  3.1878e-23  1.2998e-20  3.1898e-23  1.3603e-20  3.1934e-23  1.4682e-20  3.1998e-23  1.6610e-20  3.2112e-23  2.0063e-20  3.2315e-23  2.6286e-20  3.2676e-23  3.7607e-20  3.3317e-23  5.8544e-20  3.4461e-23  9.8290e-20  3.6500e-23  1.7685e-19  4.0147e-23
      1.55  1.2203e-20  3.5729e-23  1.2206e-20  3.5729e-23  1.2212e-20  3.5730e-23  1.2222e-20  3.5731e-23  1.2240e-20  3.5732e-23  1.2273e-20  3.5734e-23  1.2330e-20  3.5738e-23  1.2433e-20  3.5745e-23  1.2615e-20  3.5758e-23  1.2939e-20  3.5781e-23  1.3516e-20  3.5821e-23  1.4546e-20  3.5893e-23  1.6384e-20  3.6020e-23  1.9676e-20  3.6247e-23  2.5610e-20  3.6651e-23  3.6406e-20  3.7370e-23  5.6373e-20  3.8650e-23  9.4282e-20  4.0932e-23  1.6918e-19  4.5012e-23
      1.60  1.2182e-20  4.0079e-23  1.2185e-20  4.0079e-23  1.2190e-20  4.0080e-23  1.2200e-20  4.0080e-23  1.2217e-20  4.0082e-23  1.2248e-20  4.0084e-23  1.2303e-20  4.0089e-23  1.2401e-20  4.0097e-23  1.2575e-20  4.0111e-23  1.2884e-20  4.0137e-23  1.3434e-20  4.0182e-23  1.4415e-20  4.0262e-23  1.6166e-20  4.0405e-23  1.9307e-20  4.0659e-23  2.4965e-20  4.1111e-23  3.5259e-20  4.1916e-23  5.4299e-20  4.3349e-23  9.0451e-20  4.5904e-23  1.6187e-19  5.0469e-23
      1.65  1.2162e-20  4.4959e-23  1.2165e-20  4.4959e-23  1.2170e-20  4.4959e-23  1.2179e-20  4.4960e-23  1.2196e-20  4.4962e-23  1.2225e-20  4.4965e-23  1.2278e-20  4.4970e-23  1.2371e-20  4.4979e-23  1.2536e-20  4.4995e-23  1.2831e-20  4.5023e-23  1.3356e-20  4.5074e-23  1.4291e-20  4.5164e-23  1.5962e-20  4.5324e-23  1.8955e-20  4.5608e-23  2.4348e-20  4.6114e-23  3.4163e-20  4.7015e-23  5.2317e-20  4.8620e-23  8.6790e-20  5.1480e-23  1.5489e-19  5.6590e-23
      1.70  1.2144e-20  5.0433e-23  1.2146e-20  5.0434e-23  1.2151e-20  5.0434e-23  1.2160e-20  5.0435e-23  1.2176e-20  5.0437e-23  1.2204e-20  5.0440e-23  1.2254e-20  5.0446e-23  1.2343e-20  5.0456e-23  1.2500e-20  5.0474e-23  1.2781e-20  5.0506e-23  1.3281e-20  5.0562e-23  1.4173e-20  5.0663e-23  1.5765e-20  5.0842e-23  1.8618e-20  5.1161e-23  2.3759e-20  5.1728e-23  3.3114e-20  5.2737e-23  5.0421e-20  5.4533e-23  8.3290e-20  5.7736e-23  1.4822e-19  6.3455e-23
      1.75  1.2126e-20  5.6575e-23  1.2129e-20  5.6576e-23  1.2134e-20  5.6576e-23  1.2142e-20  5.6578e-23  1.2157e-20  5.6580e-23  1.2184e-20  5.6583e-23  1.2231e-20  5.6589e-23  1.2316e-20  5.6601e-23  1.2466e-20  5.6621e-23  1.2734e-20  5.6656e-23  1.3210e-20  5.6720e-23  1.4060e-20  5.6833e-23  1.5577e-20  5.7033e-23  1.8296e-20  5.7390e-23  2.3195e-20  5.8025e-23  3.2112e-20  5.9155e-23  4.8608e-20  6.1167e-23  7.9942e-20  6.4753e-23  1.4185e-19  7.1156e-23
      1.80  1.2110e-20  6.3466e-23  1.2113e-20  6.3467e-23  1.2117e-20  6.3468e-23  1.2125e-20  6.3469e-23  1.2139e-20  6.3471e-23  1.2165e-20  6.3475e-23  1.2210e-20  6.3482e-23  1.2291e-20  6.3495e-23  1.2434e-20  6.3517e-23  1.2689e-20  6.3557e-23  1.3143e-20  6.3628e-23  1.3952e-20  6.3755e-23  1.5398e-20  6.3980e-23  1.7988e-20  6.4380e-23  2.2656e-20  6.5091e-23  3.1152e-20  6.6357e-23  4.6873e-20  6.8611e-23  7.6737e-20  7.2629e-23  1.3575e-19  7.9800e-23
      1.85  1.2095e-20  7.1198e-23  1.2097e-20  7.1198e-23  1.2102e-20  7.1199e-23  1.2109e-20  7.1200e-23  1.2123e-20  7.1203e-23  1.2147e-20  7.1207e-23  1.2190e-20  7.1215e-23  1.2267e-20  7.1229e-23  1.2403e-20  7.1255e-23  1.2646e-20  7.1299e-23  1.3079e-20  7.1379e-23  1.3850e-20  7.1521e-23  1.5226e-20  7.1773e-23  1.7694e-20  7.2221e-23  2.2140e-20  7.3018e-23  3.0234e-20  7.4436e-23  4.5211e-20  7.6961e-23  7.3669e-20  8.1460e-23  1.2991e-19  8.9490e-23
      1.90  1.2081e-20  7.9872e-23  1.2083e-20  7.9872e-23  1.2087e-20  7.9873e-23  1.2094e-20  7.9875e-23  1.2107e-20  7.9877e-23  1.2130e-20  7.9882e-23  1.2172e-20  7.9891e-23  1.2245e-20  7.9907e-23  1.2375e-20  7.9935e-23  1.2606e-20  7.9986e-23  1.3018e-20  8.0075e-23  1.3752e-20  8.0234e-23  1.5063e-20  8.0516e-23  1.7412e-20  8.1018e-23  2.1647e-20  8.1911e-23  2.9355e-20  8.3500e-23  4.3621e-20  8.6329e-23  7.0732e-20  9.1369e-23  1.2433e-19  1.0036e-22
      1.95  1.2067e-20  8.9603e-23  1.2070e-20  8.9604e-23  1.2074e-20  8.9605e-23  1.2080e-20  8.9607e-23  1.2093e-20  8.9610e-23  1.2115e-20  8.9615e-23  1.2154e-20  8.9625e-23  1.2223e-20  8.9643e-23  1.2347e-20  8.9675e-23  1.2567e-20  8.9731e-23  1.2959e-20  8.9831e-23  1.3658e-20  9.0009e-23  1.4906e-20  9.0325e-23  1.7143e-20  9.0888e-23  2.1175e-20  9.1888e-23  2.8514e-20  9.3668e-23  4.2098e-20  9.6837e-23  6.7920e-20  1.0248e-22  1.1898e-19  1.1255e-22
      2.00  1.2055e-20  1.0052e-22  1.2057e-20  1.0052e-22  1.2061e-20  1.0052e-22  1.2067e-20  1.0053e-22  1.2079e-20  1.0053e-22  1.2100e-20  1.0054e-22  1.2137e-20  1.0055e-22  1.2204e-20  1.0057e-22  1.2321e-20  1.0060e-22  1.2531e-20  1.0066e-22  1.2904e-20  1.0078e-22  1.3569e-20  1.0098e-22  1.4757e-20  1.0133e-22  1.6885e-20  1.0196e-22  2.0722e-20  1.0308e-22  2.7708e-20  1.0508e-22  4.0640e-20  1.0863e-22  6.5227e-20  1.1495e-22  1.1386e-19  1.2623e-22
      2.05  1.2043e-20  1.1277e-22  1.2045e-20  1.1277e-22  1.2049e-20  1.1277e-22  1.2055e-20  1.1278e-22  1.2066e-20  1.1278e-22  1.2086e-20  1.1279e-22  1.2122e-20  1.1280e-22  1.2185e-20  1.1282e-22  1.2297e-20  1.1286e-22  1.2496e-20  1.1293e-22  1.2851e-20  1.1306e-22  1.3484e-20  1.1328e-22  1.4614e-20  1.1368e-22  1.6639e-20  1.1439e-22  2.0290e-20  1.1564e-22  2.6937e-20  1.1788e-22  3.9243e-20  1.2186e-22  6.2646e-20  1.2895e-22  1.0895e-19  1.4161e-22
      2.10  1.2033e-20  1.2652e-22  1.2034e-20  1.2652e-22  1.2038e-20  1.2652e-22  1.2044e-20  1.2652e-22  1.2054e-20  1.2653e-22  1.2073e-20  1.2653e-22  1.2107e-20  1.2655e-22  1.2167e-20  1.2657e-22  1.2273e-20  1.2662e-22  1.2463e-20  1.2670e-22  1.2801e-20  1.2684e-22  1.3402e-20  1.2709e-22  1.4477e-20  1.2753e-22  1.6403e-20  1.2832e-22  1.9875e-20  1.2973e-22  2.6198e-20  1.3224e-22  3.7905e-20  1.3670e-22  6.0174e-20  1.4465e-22  1.0425e-19  1.5882e-22
      2.15  1.2022e-20  1.4194e-22  1.2024e-20  1.4194e-22  1.2027e-20  1.4194e-22  1.2033e-20  1.4194e-22  1.2043e-20  1.4195e-22  1.2061e-20  1.4196e-22  1.2093e-20  1.4197e-22  1.2150e-20  1.4200e-22  1.2251e-20  1.4205e-22  1.2432e-20  1.4214e-22  1.2752e-20  1.4230e-22  1.3325e-20  1.4258e-22  1.4346e-20  1.4308e-22  1.6177e-20  1.4396e-22  1.9479e-20  1.4554e-22  2.5490e-20  1.4835e-22  3.6626e-20  1.5335e-22  5.7807e-20  1.6225e-22  9.9753e-20  1.7813e-22
      2.20  1.2013e-20  1.5924e-22  1.2015e-20  1.5924e-22  1.2018e-20  1.5924e-22  1.2023e-20  1.5924e-22  1.2033e-20  1.5925e-22  1.2050e-20  1.5926e-22  1.2080e-20  1.5928e-22  1.2134e-20  1.5931e-22  1.2231e-20  1.5936e-22  1.2402e-20  1.5946e-22  1.2707e-20  1.5964e-22  1.3250e-20  1.5995e-22  1.4221e-20  1.6051e-22  1.5962e-20  1.6151e-22  1.9099e-20  1.6328e-22  2.4814e-20  1.6643e-22  3.5398e-20  1.7203e-22  5.5540e-20  1.8201e-22  9.5441e-20  1.9979e-22
      2.25  1.2004e-20  1.7865e-22  1.2006e-20  1.7865e-22  1.2009e-20  1.7865e-22  1.2014e-20  1.7866e-22  1.2023e-20  1.7866e-22  1.2039e-20  1.7867e-22  1.2068e-20  1.7869e-22  1.2119e-20  1.7873e-22  1.2211e-20  1.7879e-22  1.2373e-20  1.7890e-22  1.2663e-20  1.7910e-22  1.3180e-20  1.7945e-22  1.4102e-20  1.8008e-22  1.5756e-20  1.8120e-22  1.8736e-20  1.8318e-22  2.4166e-20  1.8671e-22  3.4224e-20  1.9299e-22  5.3369e-20  2.0417e-22  9.1311e-20  2.2411e-22
      2.30  1.1996e-20  2.0043e-22  1.1997e-20  2.0043e-22  1.2000e-20  2.0043e-22  1.2005e-20  2.0043e-22  1.2014e-20  2.0044e-22  1.2029e-20  2.0045e-22  1.2057e-20  2.0048e-22  1.2105e-20  2.0052e-22  1.2192e-20  2.0059e-22  1.2347e-20  2.0071e-22  1.2622e-20  2.0093e-22  1.3112e-20  2.0133e-22  1.3988e-20  2.0203e-22  1.5558e-20  2.0328e-22  1.8389e-20  2.0551e-22  2.3546e-20  2.0946e-22  3.3100e-20  2.1650e-22  5.1291e-20  2.2904e-22  8.7356e-20  2.5138e-22
      2.35  1.1988e-20  2.2486e-22  1.1990e-20  2.2486e-22  1.1992e-20  2.2487e-22  1.1997e-20  2.2487e-22  1.2005e-20  2.2488e-22  1.2020e-20  2.2489e-22  1.2046e-20  2.2492e-22  1.2092e-20  2.2496e-22  1.2174e-20  2.2504e-22  1.2321e-20  2.2518e-22  1.2582e-20  2.2543e-22  1.3048e-20  2.2587e-22  1.3879e-20  2.2666e-22  1.5370e-20  2.2806e-22  1.8057e-20  2.3056e-22  2.2953e-20  2.3499e-22  3.2026e-20  2.4288e-22  4.9303e-20  2.5693e-22  8.3570e-20  2.8196e-22
      2.40  1.1981e-20  2.5228e-22  1.1982e-20  2.5228e-22  1.1985e-20  2.5228e-22  1.1989e-20  2.5229e-22  1.1997e-20  2.5230e-22  1.2011e-20  2.5231e-22  1.2036e-20  2.5234e-22  1.2080e-20  2.5239e-22  1.2158e-20  2.5248e-22  1.2297e-20  2.5264e-22  1.2545e-20  2.5292e-22  1.2986e-20  2.5341e-22  1.3776e-20  2.5430e-22  1.5190e-20  2.5587e-22  1.7740e-20  2.5866e-22  2.2387e-20  2.6363e-22  3.0998e-20  2.7248e-22  4.7401e-20  2.8823e-22  7.9947e-20  3.1629e-22
      2.45  1.1974e-20  2.8304e-22  1.1975e-20  2.8304e-22  1.1978e-20  2.8304e-22  1.1982e-20  2.8305e-22  1.1989e-20  2.8306e-22  1.2003e-20  2.8308e-22  1.2026e-20  2.8311e-22  1.2068e-20  2.8316e-22  1.2142e-20  2.8326e-22  1.2274e-20  2.8344e-22  1.2509e-20  2.8375e-22  1.2928e-20  2.8431e-22  1.3676e-20  2.8530e-22  1.5018e-20  2.8706e-22  1.7438e-20  2.9019e-22  2.1846e-20  2.9577e-22  3.0024e-20  3.0568e-22  4.5584e-20  3.2334e-22  7.6482e-20  3.5479e-22
      2.50  1.1968e-20  3.1755e-22  1.1969e-20  3.1755e-22  1.1971e-20  3.1756e-22  1.1975e-20  3.1756e-22  1.1982e-20  3.1758e-22  1.1995e-20  3.1760e-22  1.2017e-20  3.1763e-22  1.2057e-20  3.1769e-22  1.2127e-20  3.1780e-22  1.2252e-20  3.1800e-22  1.2475e-20  3.1835e-22  1.2872e-20  3.1898e-22  1.3582e-20  3.2009e-22  1.4854e-20  3.2206e-22  1.7149e-20  3.2558e-22  2.1329e-20  3.3182e-22  2.9079e-20  3.4294e-22  4.3847e-20  3.6273e-22  7.3170e-20  3.9799e-22
      2.55  1.1962e-20  3.5628e-22  1.1963e-20  3.5628e-22  1.1965e-20  3.5628e-22  1.1969e-20  3.5629e-22  1.1976e-20  3.5630e-22  1.1988e-20  3.5632e-22  1.2009e-20  3.5636e-22  1.2046e-20  3.5643e-22  1.2113e-20  3.5656e-22  1.2231e-20  3.5678e-22  1.2443e-20  3.5717e-22  1.2819e-20  3.5787e-22  1.3492e-20  3.5912e-22  1.4698e-20  3.6133e-22  1.6873e-20  3.6527e-22  2.0836e-20  3.7228e-22  2.8184e-20  3.8474e-22  4.2188e-20  4.0693e-22  7.0005e-20  4.4645e-22
      2.60  1.1956e-20  3.9972e-22  1.1958e-20  3.9973e-22  1.1960e-20  3.9973e-22  1.1963e-20  3.9974e-22  1.1969e-20  3.9975e-22  1.1981e-20  3.9978e-22  1.2001e-20  3.9982e-22  1.2036e-20  3.9990e-22  1.2099e-20  4.0004e-22  1.2212e-20  4.0029e-22  1.2412e-20  4.0073e-22  1.2769e-20  4.0151e-22  1.3406e-20  4.0291e-22  1.4549e-20  4.0539e-22  1.6610e-20  4.0981e-22  2.0366e-20  4.1766e-22  2.7330e-20  4.3164e-22  4.0605e-20  4.5651e-22  6.6982e-20  5.0081e-22
      2.65  1.1951e-20  4.4847e-22  1.1952e-20  4.4847e-22  1.1954e-20  4.4848e-22  1.1958e-20  4.4849e-22  1.1964e-20  4.4850e-22  1.1974e-20  4.4853e-22  1.1993e-20  4.4858e-22  1.2027e-20  4.4867e-22  1.2087e-20  4.4882e-22  1.2193e-20  4.4910e-22  1.2383e-20  4.4960e-22  1.2721e-20  4.5048e-22  1.3325e-20  4.5204e-22  1.4407e-20  4.5483e-22  1.6360e-20  4.5978e-22  1.9918e-20  4.6859e-22  2.6516e-20  4.8426e-22  3.9096e-20  5.1215e-22  6.4098e-20  5.6181e-22
      2.70  1.1947e-20  5.0316e-22  1.1948e-20  5.0317e-22  1.1949e-20  5.0317e-22  1.1953e-20  5.0318e-22  1.1958e-20  5.0320e-22  1.1968e-20  5.0323e-22  1.1986e-20  5.0329e-22  1.2018e-20  5.0339e-22  1.2075e-20  5.0356e-22  1.2176e-20  5.0387e-22  1.2355e-20  5.0443e-22  1.2675e-20  5.0542e-22  1.3247e-20  5.0717e-22  1.4273e-20  5.1029e-22  1.6122e-20  5.1585e-22  1.9492e-20  5.2572e-22  2.5741e-20  5.4329e-22  3.7657e-20  5.7456e-22  6.1347e-20  6.3024e-22
      2.75  1.1942e-20  5.6453e-22  1.1943e-20  5.6453e-22  1.1945e-20  5.6454e-22  1.1948e-20  5.6455e-22  1.1953e-20  5.6457e-22  1.1963e-20  5.6461e-22  1.1980e-20  5.6467e-22  1.2010e-20  5.6478e-22  1.2063e-20  5.6498e-22  1.2159e-20  5.6533e-22  1.2329e-20  5.6595e-22  1.2632e-20  5.6706e-22  1.3174e-20  5.6902e-22  1.4144e-20  5.7253e-22  1.5895e-20  5.7875e-22  1.9086e-20  5.8983e-22  2.5003e-20  6.0953e-22  3.6288e-20  6.4459e-22  5.8727e-20  7.0702e-22
      2.80  1.1938e-20  6.3338e-22  1.1939e-20  6.3339e-22  1.1940e-20  6.3340e-22  1.1943e-20  6.3341e-22  1.1948e-20  6.3343e-22  1.1957e-20  6.3347e-22  1.1973e-20  6.3354e-22  1.2002e-20  6.3366e-22  1.2053e-20  6.3388e-22  1.2143e-20  6.3428e-22  1.2304e-20  6.3497e-22  1.2591e-20  6.3622e-22  1.3104e-20  6.3842e-22  1.4023e-20  6.4235e-22  1.5680e-20  6.4933e-22  1.8700e-20  6.6175e-22  2.4302e-20  6.8384e-22  3.4998e-20  7.2316e-22  5.6231e-20  7.9315e-22
      2.85  1.1934e-20  7.1064e-22  1.1935e-20  7.1064e-22  1.1936e-20  7.1065e-22  1.1939e-20  7.1066e-22  1.1944e-20  7.1069e-22  1.1952e-20  7.1073e-22  1.1968e-20  7.1081e-22  1.1995e-20  7.1095e-22  1.2043e-20  7.1120e-22  1.2128e-20  7.1164e-22  1.2281e-20  7.1242e-22  1.2552e-20  7.1381e-22  1.3037e-20  7.1629e-22  1.3907e-20  7.2069e-22  1.5475e-20  7.2852e-22  1.8334e-20  7.4245e-22  2.3635e-20  7.6722e-22  3.3745e-20  8.1131e-22  5.3856e-20  8.8979e-22
      2.90  1.1930e-20  7.9732e-22  1.1931e-20  7.9732e-22  1.1933e-20  7.9733e-22  1.1935e-20  7.9735e-22  1.1940e-20  7.9737e-22  1.1948e-20  7.9742e-22  1.1962e-20  7.9751e-22  1.1988e-20  7.9767e-22  1.2033e-20  7.9794e-22  1.2114e-20  7.9844e-22  1.2258e-20  7.9932e-22  1.2515e-20  8.0088e-22  1.2974e-20  8.0365e-22  1.3797e-20  8.0859e-22  1.5281e-20  8.1737e-22  1.7986e-20  8.3299e-22  2.3002e-20  8.6077e-22  3.2568e-20  9.1021e-22  5.1599e-20  9.9822e-22
      2.95  1.1927e-20  8.9457e-22  1.1928e-20  8.9457e-22  1.1929e-20  8.9458e-22  1.1932e-20  8.9460e-22  1.1936e-20  8.9463e-22  1.1943e-20  8.9469e-22  1.1957e-20  8.9479e-22  1.1981e-20  8.9496e-22  1.2024e-20  8.9527e-22  1.2101e-20  8.9583e-22  1.2237e-20  8.9681e-22  1.2480e-20  8.9856e-22  1.2915e-20  9.0168e-22  1.3693e-20  9.0721e-22  1.5097e-20  9.1706e-22  1.7656e-20  9.3458e-22  2.2401e-20  9.6574e-22  3.1451e-20  1.0212e-21  4.9455e-20  1.1199e-21
      3.00  1.1924e-20  1.0037e-21  1.1925e-20  1.0037e-21  1.1926e-20  1.0037e-21  1.1928e-20  1.0037e-21  1.1932e-20  1.0038e-21  1.1939e-20  1.0038e-21  1.1952e-20  1.0039e-21  1.1975e-20  1.0041e-21  1.2016e-20  1.0045e-21  1.2088e-20  1.0051e-21  1.2217e-20  1.0062e-21  1.2447e-20  1.0082e-21  1.2858e-20  1.0117e-21  1.3595e-20  1.0179e-21  1.4923e-20  1.0289e-21  1.7343e-20  1.0486e-21  2.1832e-20  1.0835e-21  3.0392e-20  1.1457e-21  4.7419e-20  1.2563e-21
      3.05  1.1921e-20  1.1261e-21  1.1922e-20  1.1261e-21  1.1923e-20  1.1261e-21  1.1925e-20  1.1262e-21  1.1929e-20  1.1262e-21  1.1936e-20  1.1263e-21  1.1948e-20  1.1264e-21  1.1969e-20  1.1266e-21  1.2008e-20  1.1270e-21  1.2077e-20  1.1277e-21  1.2199e-20  1.1289e-21  1.2416e-20  1.1311e-21  1.2805e-20  1.1351e-21  1.3502e-20  1.1420e-21  1.4758e-20  1.1544e-21  1.7047e-20  1.1765e-21  2.1292e-20  1.2156e-21  2.9387e-20  1.2854e-21  4.5489e-20  1.4095e-21
      3.10  1.1918e-20  1.2635e-21  1.1919e-20  1.2635e-21  1.1920e-20  1.2635e-21  1.1922e-20  1.2635e-21  1.1926e-20  1.2636e-21  1.1932e-20  1.2637e-21  1.1944e-20  1.2638e-21  1.1964e-20  1.2640e-21  1.2001e-20  1.2645e-21  1.2065e-20  1.2653e-21  1.2181e-20  1.2667e-21  1.2387e-20  1.2691e-21  1.2754e-20  1.2735e-21  1.3413e-20  1.2813e-21  1.4602e-20  1.2952e-21  1.6767e-20  1.3199e-21  2.0782e-20  1.3639e-21  2.8436e-20  1.4421e-21  4.3660e-20  1.5813e-21
      3.15  1.1916e-20  1.4176e-21  1.1916e-20  1.4176e-21  1.1917e-20  1.4176e-21  1.1919e-20  1.4177e-21  1.1923e-20  1.4177e-21  1.1929e-20  1.4178e-21  1.1940e-20  1.4180e-21  1.1959e-20  1.4182e-21  1.1994e-20  1.4187e-21  1.2055e-20  1.4196e-21  1.2164e-20  1.4212e-21  1.2359e-20  1.4239e-21  1.2707e-20  1.4289e-21  1.3330e-20  1.4376e-21  1.4454e-20  1.4532e-21  1.6502e-20  1.4809e-21  2.0299e-20  1.5302e-21  2.7536e-20  1.6180e-21  4.1928e-20  1.7741e-21
      3.20  1.1913e-20  1.5906e-21  1.1914e-20  1.5906e-21  1.1915e-20  1.5906e-21  1.1917e-20  1.5906e-21  1.1920e-20  1.5907e-21  1.1926e-20  1.5908e-21  1.1936e-20  1.5909e-21  1.1954e-20  1.5912e-21  1.1987e-20  1.5918e-21  1.2045e-20  1.5928e-21  1.2148e-20  1.5945e-21  1.2332e-20  1.5976e-21  1.2662e-20  1.6032e-21  1.3251e-20  1.6130e-21  1.4315e-20  1.6305e-21  1.6252e-20  1.6616e-21  1.9842e-20  1.7169e-21  2.6686e-20  1.8153e-21  4.0289e-20  1.9903e-21
      3.25  1.1911e-20  1.7846e-21  1.1912e-20  1.7846e-21  1.1913e-20  1.7846e-21  1.1914e-20  1.7846e-21  1.1917e-20  1.7847e-21  1.1923e-20  1.7848e-21  1.1933e-20  1.7850e-21  1.1950e-20  1.7854e-21  1.1981e-20  1.7860e-21  1.2036e-20  1.7871e-21  1.2133e-20  1.7890e-21  1.2308e-20  1.7925e-21  1.2619e-20  1.7987e-21  1.3177e-20  1.8098e-21  1.4183e-20  1.8294e-21  1.6015e-20  1.8642e-21  1.9411e-20  1.9263e-21  2.5881e-20  2.0366e-21  3.8739e-20  2.2330e-21
      3.30  1.1909e-20  2.0023e-21  1.1909e-20  2.0023e-21  1.1910e-20  2.0023e-21  1.1912e-20  2.0024e-21  1.1915e-20  2.0024e-21  1.1920e-20  2.0026e-21  1.1929e-20  2.0028e-21  1.1946e-20  2.0032e-21  1.1975e-20  2.0039e-21  1.2027e-20  2.0051e-21  1.2119e-20  2.0073e-21  1.2284e-20  2.0112e-21  1.2579e-20  2.0182e-21  1.3107e-20  2.0305e-21  1.4059e-20  2.0525e-21  1.5792e-20  2.0916e-21  1.9004e-20  2.1612e-21  2.5122e-20  2.2850e-21  3.7275e-20  2.5052e-21
      3.35  1.1907e-20  2.2466e-21  1.1907e-20  2.2466e-21  1.1908e-20  2.2466e-21  1.1910e-20  2.2466e-21  1.1913e-20  2.2467e-21  1.1918e-20  2.2469e-21  1.1926e-20  2.2471e-21  1.1942e-20  2.2475e-21  1.1969e-20  2.2483e-21  1.2019e-20  2.2497e-21  1.2106e-20  2.2522e-21  1.2262e-20  2.2566e-21  1.2541e-20  2.2644e-21  1.3041e-20  2.2782e-21  1.3942e-20  2.3029e-21  1.5582e-20  2.3468e-21  1.8620e-20  2.4248e-21  2.4406e-20  2.5637e-21  3.5893e-20  2.8107e-21
      3.40  1.1905e-20  2.5206e-21  1.1906e-20  2.5206e-21  1.1906e-20  2.5207e-21  1.1908e-20  2.5207e-21  1.1911e-20  2.5208e-21  1.1915e-20  2.5210e-21  1.1923e-20  2.5212e-21  1.1938e-20  2.5217e-21  1.1964e-20  2.5226e-21  1.2011e-20  2.5242e-21  1.2094e-20  2.5269e-21  1.2242e-20  2.5319e-21  1.2506e-20  2.5406e-21  1.2979e-20  2.5562e-21  1.3831e-20  2.5838e-21  1.5384e-20  2.6331e-21  1.8258e-20  2.7206e-21  2.3730e-20  2.8763e-21  3.4588e-20  3.1534e-21
      3.45  1.1904e-20  2.8281e-21  1.1904e-20  2.8282e-21  1.1905e-20  2.8282e-21  1.1906e-20  2.8282e-21  1.1909e-20  2.8283e-21  1.1913e-20  2.8285e-21  1.1921e-20  2.8288e-21  1.1935e-20  2.8294e-21  1.1960e-20  2.8304e-21  1.2004e-20  2.8321e-21  1.2082e-20  2.8352e-21  1.2222e-20  2.8407e-21  1.2472e-20  2.8505e-21  1.2920e-20  2.8680e-21  1.3727e-20  2.8991e-21  1.5197e-20  2.9543e-21  1.7917e-20  3.0525e-21  2.3093e-20  3.2271e-21  3.3358e-20  3.5379e-21
      3.50  1.1902e-20  3.1732e-21  1.1902e-20  3.1732e-21  1.1903e-20  3.1732e-21  1.1904e-20  3.1733e-21  1.1907e-20  3.1734e-21  1.1911e-20  3.1736e-21  1.1918e-20  3.1739e-21  1.1932e-20  3.1746e-21  1.1955e-20  3.1757e-21  1.1997e-20  3.1776e-21  1.2071e-20  3.1811e-21  1.2204e-20  3.1873e-21  1.2441e-20  3.1983e-21  1.2865e-20  3.2179e-21  1.3629e-20  3.2527e-21  1.5021e-20  3.3147e-21  1.7596e-20  3.4248e-21  2.2493e-20  3.6207e-21  3.2198e-20  3.9693e-21
      3.55  1.1901e-20  3.5603e-21  1.1901e-20  3.5603e-21  1.1902e-20  3.5604e-21  1.1903e-20  3.5604e-21  1.1905e-20  3.5606e-21  1.1909e-20  3.5608e-21  1.1916e-20  3.5612e-21  1.1929e-20  3.5619e-21  1.1951e-20  3.5631e-21  1.1990e-20  3.5653e-21  1.2061e-20  3.5692e-21  1.2187e-20  3.5761e-21  1.2411e-20  3.5885e-21  1.2813e-20  3.6105e-21  1.3537e-20  3.6495e-21  1.4855e-20  3.7190e-21  1.7294e-20  3.8426e-21  2.1928e-20  4.0624e-21  3.1106e-20  4.4534e-21
      3.60  1.1899e-20  3.9947e-21  1.1900e-20  3.9947e-21  1.1900e-20  3.9947e-21  1.1901e-20  3.9948e-21  1.1904e-20  3.9950e-21  1.1907e-20  3.9952e-21  1.1914e-20  3.9956e-21  1.1926e-20  3.9964e-21  1.1947e-20  3.9978e-21  1.1984e-20  4.0003e-21  1.2051e-20  4.0046e-21  1.2170e-20  4.0124e-21  1.2383e-20  4.0263e-21  1.2764e-20  4.0509e-21  1.3451e-20  4.0948e-21  1.4700e-20  4.1727e-21  1.7010e-20  4.3113e-21  2.1397e-20  4.5579e-21  3.0078e-20  4.9965e-21
      3.65  1.1898e-20  4.4820e-21  1.1898e-20  4.4821e-21  1.1899e-20  4.4821e-21  1.1900e-20  4.4822e-21  1.1902e-20  4.4824e-21  1.1906e-20  4.4826e-21  1.1912e-20  4.4831e-21  1.1923e-20  4.4840e-21  1.1943e-20  4.4855e-21  1.1979e-20  4.4883e-21  1.2042e-20  4.4932e-21  1.2155e-20  4.5020e-21  1.2357e-20  4.5175e-21  1.2718e-20  4.5452e-21  1.3369e-20  4.5943e-21  1.4553e-20  4.6818e-21  1.6742e-20  4.8372e-21  2.0897e-20  5.1138e-21  2.9111e-20  5.6058e-21
      3.70  1.1897e-20  5.0289e-21  1.1897e-20  5.0289e-21  1.1898e-20  5.0289e-21  1.1899e-20  5.0290e-21  1.1901e-20  5.0292e-21  1.1904e-20  5.0295e-21  1.1910e-20  5.0301e-21  1.1921e-20  5.0311e-21  1.1940e-20  5.0328e-21  1.1973e-20  5.0359e-21  1.2034e-20  5.0414e-21  1.2141e-20  5.0512e-21  1.2332e-20  5.0687e-21  1.2675e-20  5.0997e-21  1.3293e-20  5.1548e-21  1.4416e-20  5.2529e-21  1.6491e-20  5.4273e-21  2.0427e-20  5.7376e-21  2.8201e-20  6.2895e-21
      3.75  1.1896e-20  5.6424e-21  1.1896e-20  5.6424e-21  1.1897e-20  5.6425e-21  1.1898e-20  5.6426e-21  1.1899e-20  5.6428e-21  1.1903e-20  5.6432e-21  1.1908e-20  5.6438e-21  1.1918e-20  5.6449e-21  1.1936e-20  5.6468e-21  1.1969e-20  5.6503e-21  1.2026e-20  5.6565e-21  1.2127e-20  5.6675e-21  1.2309e-20  5.6871e-21  1.2635e-20  5.7219e-21  1.3221e-20  5.7837e-21  1.4287e-20  5.8938e-21  1.6255e-20  6.0894e-21  1.9986e-20  6.4375e-21  2.7346e-20  7.0566e-21
      3.80  1.1895e-20  6.3308e-21  1.1895e-20  6.3309e-21  1.1896e-20  6.3309e-21  1.1896e-20  6.3310e-21  1.1898e-20  6.3313e-21  1.1901e-20  6.3317e-21  1.1907e-20  6.3323e-21  1.1916e-20  6.3336e-21  1.1933e-20  6.3358e-21  1.1964e-20  6.3397e-21  1.2018e-20  6.3466e-21  1.2115e-20  6.3590e-21  1.2288e-20  6.3809e-21  1.2597e-20  6.4199e-21  1.3154e-20  6.4894e-21  1.4165e-20  6.6128e-21  1.6033e-20  6.8323e-21  1.9571e-20  7.2228e-21  2.6542e-20  7.9173e-21
      3.85  1.1894e-20  7.1032e-21  1.1894e-20  7.1033e-21  1.1895e-20  7.1033e-21  1.1895e-20  7.1035e-21  1.1897e-20  7.1037e-21  1.1900e-20  7.1042e-21  1.1905e-20  7.1049e-21  1.1914e-20  7.1063e-21  1.1931e-20  7.1088e-21  1.1960e-20  7.1132e-21  1.2011e-20  7.1210e-21  1.2103e-20  7.1348e-21  1.2267e-20  7.1594e-21  1.2561e-20  7.2032e-21  1.3090e-20  7.2811e-21  1.4051e-20  7.4196e-21  1.5825e-20  7.6658e-21  1.9181e-20  8.1039e-21  2.5788e-20  8.8830e-21
      3.90  1.1893e-20  7.9699e-21  1.1893e-20  7.9699e-21  1.1894e-20  7.9700e-21  1.1895e-20  7.9702e-21  1.1896e-20  7.9704e-21  1.1899e-20  7.9709e-21  1.1904e-20  7.9718e-21  1.1912e-20  7.9734e-21  1.1928e-20  7.9761e-21  1.1955e-20  7.9810e-21  1.2005e-20  7.9898e-21  1.2092e-20  8.0053e-21  1.2248e-20  8.0329e-21  1.2528e-20  8.0820e-21  1.3031e-20  8.1694e-21  1.3945e-20  8.3248e-21  1.5630e-20  8.6010e-21  1.8816e-20  9.0924e-21  2.5079e-20  9.9665e-21
      3.95  1.1892e-20  8.9423e-21  1.1892e-20  8.9423e-21  1.1893e-20  8.9424e-21  1.1894e-20  8.9426e-21  1.1895e-20  8.9429e-21  1.1898e-20  8.9434e-21  1.1902e-20  8.9444e-21  1.1911e-20  8.9462e-21  1.1925e-20  8.9493e-21  1.1952e-20  8.9548e-21  1.1998e-20  8.9646e-21  1.2082e-20  8.9820e-21  1.2230e-20  9.0130e-21  1.2496e-20  9.0681e-21  1.2975e-20  9.1661e-21  1.3844e-20  9.3404e-21  1.5446e-20  9.6504e-21  1.8473e-20  1.0202e-20  2.4414e-20  1.1182e-20
