# This was generated using Cloudy10 and the columns are ordered 
# as log10 of the fraction of the metallicity to the solar metallicity
# 'h_*_Z' and 'c_*_Z' stands for cooling and heating respectively 
# at * metalicity
#
# NOTE: This was generated separately from loop_coolingcurve_w_UV.py
#       using Output_metals_w_redshift.py.
#
# Redshift = 7.5
# hden = -4.5
#
#     temp   h_-3.00_Z   c_-3.00_Z   h_-2.75_Z   c_-2.75_Z   h_-2.50_Z   c_-2.50_Z   h_-2.25_Z   c_-2.25_Z   h_-2.00_Z   c_-2.00_Z   h_-1.75_Z   c_-1.75_Z   h_-1.50_Z   c_-1.50_Z   h_-1.25_Z   c_-1.25_Z   h_-1.00_Z   c_-1.00_Z   h_-0.75_Z   c_-0.75_Z   h_-0.50_Z   c_-0.50_Z   h_-0.25_Z   c_-0.25_Z    h_0.00_Z    c_0.00_Z    h_0.25_Z    c_0.25_Z    h_0.50_Z    c_0.50_Z    h_0.75_Z    c_0.75_Z    h_1.00_Z    c_1.00_Z    h_1.25_Z    c_1.25_Z    h_1.50_Z    c_1.50_Z 
      1.00  2.7868e-22  6.4076e-26  2.7868e-22  6.4076e-26  2.7869e-22  6.4077e-26  2.7871e-22  6.4078e-26  2.7873e-22  6.4080e-26  2.7878e-22  6.4084e-26  2.7885e-22  6.4090e-26  2.7899e-22  6.4101e-26  2.7924e-22  6.4121e-26  2.7969e-22  6.4157e-26  2.8047e-22  6.4221e-26  2.8187e-22  6.4334e-26  2.8435e-22  6.4535e-26  2.8875e-22  6.4893e-26  2.9658e-22  6.5532e-26  3.1053e-22  6.6674e-26  3.3555e-22  6.8723e-26  3.8062e-22  7.2425e-26  4.6260e-22  7.9190e-26
      1.05  2.6096e-22  6.7880e-26  2.6097e-22  6.7880e-26  2.6098e-22  6.7881e-26  2.6099e-22  6.7882e-26  2.6101e-22  6.7885e-26  2.6106e-22  6.7889e-26  2.6113e-22  6.7896e-26  2.6126e-22  6.7910e-26  2.6150e-22  6.7933e-26  2.6193e-22  6.7975e-26  2.6268e-22  6.8051e-26  2.6401e-22  6.8184e-26  2.6638e-22  6.8422e-26  2.7057e-22  6.8845e-26  2.7804e-22  6.9601e-26  2.9135e-22  7.0954e-26  3.1520e-22  7.3386e-26  3.5817e-22  7.7794e-26  4.3629e-22  8.5903e-26
      1.10  2.4436e-22  7.1939e-26  2.4436e-22  7.1939e-26  2.4437e-22  7.1940e-26  2.4438e-22  7.1942e-26  2.4440e-22  7.1945e-26  2.4444e-22  7.1950e-26  2.4452e-22  7.1959e-26  2.4465e-22  7.1976e-26  2.4487e-22  7.2006e-26  2.4528e-22  7.2058e-26  2.4601e-22  7.2152e-26  2.4729e-22  7.2318e-26  2.4957e-22  7.2615e-26  2.5361e-22  7.3143e-26  2.6080e-22  7.4087e-26  2.7360e-22  7.5778e-26  2.9655e-22  7.8826e-26  3.3788e-22  8.4374e-26  4.1300e-22  9.4651e-26
      1.15  2.2879e-22  7.6275e-26  2.2879e-22  7.6276e-26  2.2880e-22  7.6277e-26  2.2881e-22  7.6279e-26  2.2884e-22  7.6283e-26  2.2888e-22  7.6290e-26  2.2895e-22  7.6303e-26  2.2907e-22  7.6325e-26  2.2929e-22  7.6365e-26  2.2969e-22  7.6436e-26  2.3039e-22  7.6563e-26  2.3164e-22  7.6788e-26  2.3384e-22  7.7189e-26  2.3776e-22  7.7904e-26  2.4473e-22  7.9181e-26  2.5714e-22  8.1473e-26  2.7938e-22  8.5613e-26  3.1943e-22  9.3176e-26  3.9221e-22  1.0728e-25
      1.20  2.1421e-22  8.0913e-26  2.1421e-22  8.0914e-26  2.1421e-22  8.0912e-26  2.1423e-22  8.0919e-26  2.1425e-22  8.0925e-26  2.1429e-22  8.0936e-26  2.1436e-22  8.0955e-26  2.1448e-22  8.0988e-26  2.1470e-22  8.1049e-26  2.1508e-22  8.1156e-26  2.1576e-22  8.1346e-26  2.1698e-22  8.1685e-26  2.1913e-22  8.2289e-26  2.2295e-22  8.3366e-26  2.2975e-22  8.5292e-26  2.4184e-22  8.8750e-26  2.6351e-22  9.5004e-26  3.0252e-22  1.0646e-25  3.7342e-22  1.2789e-25
      1.25  2.0054e-22  8.5878e-26  2.0054e-22  8.5880e-26  2.0055e-22  8.5883e-26  2.0056e-22  8.5889e-26  2.0058e-22  8.5899e-26  2.0062e-22  8.5917e-26  2.0069e-22  8.5949e-26  2.0081e-22  8.6006e-26  2.0102e-22  8.6108e-26  2.0140e-22  8.6288e-26  2.0207e-22  8.6609e-26  2.0325e-22  8.7181e-26  2.0536e-22  8.8200e-26  2.0910e-22  9.0018e-26  2.1574e-22  9.3267e-26  2.2757e-22  9.9102e-26  2.4874e-22  1.0966e-25  2.8688e-22  1.2899e-25  3.5619e-22  1.6520e-25
      1.30  1.8775e-22  9.1202e-26  1.8775e-22  9.1206e-26  1.8776e-22  9.1211e-26  1.8777e-22  9.1222e-26  1.8779e-22  9.1240e-26  1.8782e-22  9.1273e-26  1.8789e-22  9.1332e-26  1.8801e-22  9.1437e-26  1.8821e-22  9.1622e-26  1.8858e-22  9.1952e-26  1.8924e-22  9.2540e-26  1.9040e-22  9.3586e-26  1.9247e-22  9.5449e-26  1.9613e-22  9.8772e-26  2.0264e-22  1.0471e-25  2.1422e-22  1.1538e-25  2.3496e-22  1.3466e-25  2.7230e-22  1.6994e-25  3.4018e-22  2.3588e-25
      1.35  1.7576e-22  9.6918e-26  1.7577e-22  9.6924e-26  1.7577e-22  9.6935e-26  1.7578e-22  9.6955e-26  1.7580e-22  9.6990e-26  1.7584e-22  9.7052e-26  1.7590e-22  9.7163e-26  1.7602e-22  9.7359e-26  1.7622e-22  9.7709e-26  1.7658e-22  9.8331e-26  1.7723e-22  9.9438e-26  1.7837e-22  1.0141e-25  1.8039e-22  1.0492e-25  1.8398e-22  1.1118e-25  1.9035e-22  1.2237e-25  2.0171e-22  1.4244e-25  2.2202e-22  1.7870e-25  2.5860e-22  2.4497e-25  3.2510e-22  3.6849e-25
      1.40  1.6454e-22  1.0413e-25  1.6454e-22  1.0413e-25  1.6455e-22  1.0416e-25  1.6456e-22  1.0420e-25  1.6458e-22  1.0426e-25  1.6462e-22  1.0438e-25  1.6468e-22  1.0458e-25  1.6480e-22  1.0495e-25  1.6499e-22  1.0560e-25  1.6535e-22  1.0676e-25  1.6598e-22  1.0882e-25  1.6709e-22  1.1248e-25  1.6908e-22  1.1902e-25  1.7259e-22  1.3066e-25  1.7883e-22  1.5148e-25  1.8995e-22  1.8881e-25  2.0983e-22  2.5620e-25  2.4563e-22  3.7920e-25  3.1074e-22  6.0796e-25
      1.45  1.5404e-22  1.1219e-25  1.5405e-22  1.1221e-25  1.5405e-22  1.1225e-25  1.5406e-22  1.1231e-25  1.5408e-22  1.1243e-25  1.5412e-22  1.1264e-25  1.5418e-22  1.1301e-25  1.5429e-22  1.1366e-25  1.5448e-22  1.1483e-25  1.5483e-22  1.1690e-25  1.5544e-22  1.2060e-25  1.5654e-22  1.2717e-25  1.5847e-22  1.3887e-25  1.6191e-22  1.5975e-25  1.6801e-22  1.9704e-25  1.7888e-22  2.6391e-25  1.9830e-22  3.8456e-25  2.3329e-22  6.0458e-25  2.9692e-22  1.0131e-24
      1.50  1.4421e-22  1.2070e-25  1.4422e-22  1.2074e-25  1.4421e-22  1.2080e-25  1.4423e-22  1.2091e-25  1.4425e-22  1.2111e-25  1.4429e-22  1.2147e-25  1.4435e-22  1.2210e-25  1.4445e-22  1.2322e-25  1.4464e-22  1.2521e-25  1.4498e-22  1.2875e-25  1.4558e-22  1.3506e-25  1.4664e-22  1.4627e-25  1.4854e-22  1.6626e-25  1.5189e-22  2.0189e-25  1.5784e-22  2.6554e-25  1.6844e-22  3.7966e-25  1.8737e-22  5.8551e-25  2.2149e-22  9.6070e-25  2.8352e-22  1.6567e-24
      1.55  1.3501e-22  1.2973e-25  1.3502e-22  1.2979e-25  1.3502e-22  1.2989e-25  1.3503e-22  1.3008e-25  1.3505e-22  1.3040e-25  1.3509e-22  1.3097e-25  1.3514e-22  1.3200e-25  1.3525e-22  1.3381e-25  1.3543e-22  1.3704e-25  1.3576e-22  1.4279e-25  1.3635e-22  1.5301e-25  1.3738e-22  1.7121e-25  1.3922e-22  2.0362e-25  1.4249e-22  2.6140e-25  1.4827e-22  3.6464e-25  1.5859e-22  5.4970e-25  1.7700e-22  8.8347e-25  2.1017e-22  1.4916e-24  2.7049e-22  2.6191e-24
      1.60  1.2641e-22  1.3935e-25  1.2641e-22  1.3944e-25  1.2642e-22  1.3960e-25  1.2643e-22  1.3988e-25  1.2645e-22  1.4038e-25  1.2648e-22  1.4126e-25  1.2653e-22  1.4284e-25  1.2663e-22  1.4564e-25  1.2681e-22  1.5063e-25  1.2713e-22  1.5949e-25  1.2770e-22  1.7527e-25  1.2871e-22  2.0335e-25  1.3049e-22  2.5335e-25  1.3366e-22  3.4251e-25  1.3928e-22  5.0179e-25  1.4928e-22  7.8732e-25  1.6714e-22  1.3023e-24  1.9931e-22  2.2404e-24  2.5781e-22  3.9793e-24
      1.65  1.1836e-22  1.4962e-25  1.1836e-22  1.4975e-25  1.1836e-22  1.4999e-25  1.1837e-22  1.5040e-25  1.1839e-22  1.5113e-25  1.1842e-22  1.5244e-25  1.1848e-22  1.5476e-25  1.1858e-22  1.5889e-25  1.1875e-22  1.6623e-25  1.1906e-22  1.7929e-25  1.1961e-22  2.0252e-25  1.2058e-22  2.4387e-25  1.2231e-22  3.1751e-25  1.2538e-22  4.4881e-25  1.3082e-22  6.8337e-25  1.4050e-22  1.1039e-24  1.5778e-22  1.8622e-24  1.8889e-22  3.2439e-24  2.4547e-22  5.8049e-24
      1.70  1.1082e-22  1.6063e-25  1.1083e-22  1.6082e-25  1.1083e-22  1.6114e-25  1.1084e-22  1.6173e-25  1.1086e-22  1.6276e-25  1.1089e-22  1.6460e-25  1.1094e-22  1.6788e-25  1.1104e-22  1.7370e-25  1.1120e-22  1.8407e-25  1.1150e-22  2.0250e-25  1.1203e-22  2.3528e-25  1.1297e-22  2.9364e-25  1.1464e-22  3.9757e-25  1.1761e-22  5.8287e-25  1.2287e-22  9.1392e-25  1.3221e-22  1.5074e-24  1.4889e-22  2.5778e-24  1.7892e-22  4.5283e-24  2.3351e-22  8.1444e-24
      1.75  1.0378e-22  1.7246e-25  1.0378e-22  1.7271e-25  1.0379e-22  1.7316e-25  1.0380e-22  1.7395e-25  1.0381e-22  1.7536e-25  1.0384e-22  1.7786e-25  1.0389e-22  1.8231e-25  1.0398e-22  1.9022e-25  1.0414e-22  2.0429e-25  1.0443e-22  2.2933e-25  1.0494e-22  2.7386e-25  1.0585e-22  3.5313e-25  1.0746e-22  4.9430e-25  1.1032e-22  7.4599e-25  1.1539e-22  1.1957e-24  1.2440e-22  2.0019e-24  1.4048e-22  3.4562e-24  1.6939e-22  6.1068e-24  2.2196e-22  1.1022e-23
      1.80  9.7190e-23  1.8524e-25  9.7192e-23  1.8557e-25  9.7197e-23  1.8615e-25  9.7206e-23  1.8719e-25  9.7222e-23  1.8904e-25  9.7249e-23  1.9232e-25  9.7299e-23  1.9816e-25  9.7386e-23  2.0855e-25  9.7542e-23  2.2703e-25  9.7819e-23  2.5989e-25  9.8311e-23  3.1836e-25  9.9185e-23  4.2242e-25  1.0074e-22  6.0776e-25  1.0349e-22  9.3822e-25  1.0837e-22  1.5286e-24  1.1704e-22  2.5873e-24  1.3251e-22  4.4972e-24  1.6031e-22  7.9792e-24  2.1085e-22  1.4439e-23
      1.85  9.1028e-23  1.9905e-25  9.1031e-23  1.9946e-25  9.1035e-23  2.0021e-25  9.1044e-23  2.0153e-25  9.1059e-23  2.0388e-25  9.1085e-23  2.0807e-25  9.1133e-23  2.1551e-25  9.1217e-23  2.2874e-25  9.1367e-23  2.5228e-25  9.1634e-23  2.9415e-25  9.2107e-23  3.6864e-25  9.2948e-23  5.0122e-25  9.4442e-23  7.3734e-25  9.7092e-23  1.1584e-24  1.0179e-22  1.9106e-24  1.1012e-22  3.2597e-24  1.2500e-22  5.6939e-24  1.5169e-22  1.0133e-23  2.0024e-22  1.8374e-23
      1.90  8.5267e-23  2.1399e-25  8.5269e-23  2.1451e-25  8.5274e-23  2.1544e-25  8.5282e-23  2.1708e-25  8.5296e-23  2.2000e-25  8.5322e-23  2.2519e-25  8.5368e-23  2.3442e-25  8.5449e-23  2.5084e-25  8.5593e-23  2.8005e-25  8.5849e-23  3.3200e-25  8.6304e-23  4.2442e-25  8.7113e-23  5.8892e-25  8.8550e-23  8.8191e-25  9.1098e-23  1.4043e-24  9.5616e-23  2.3379e-24  1.0363e-22  4.0122e-24  1.1792e-22  7.0340e-24  1.4354e-22  1.2547e-23  1.9014e-22  2.2787e-23
      1.95  7.9880e-23  2.3022e-25  7.9883e-23  2.3085e-25  7.9887e-23  2.3197e-25  7.9895e-23  2.3396e-25  7.9909e-23  2.3749e-25  7.9933e-23  2.4379e-25  7.9977e-23  2.5498e-25  8.0055e-23  2.7489e-25  8.0194e-23  3.1029e-25  8.0440e-23  3.7327e-25  8.0878e-23  4.8531e-25  8.1656e-23  6.8473e-25  8.3037e-23  1.0399e-24  8.5488e-23  1.6733e-24  8.9832e-23  2.8052e-24  9.7536e-23  4.8354e-24  1.1126e-22  8.5005e-24  1.3586e-22  1.5190e-23  1.8056e-22  2.7624e-23
      2.00  7.4844e-23  2.4786e-25  7.4847e-23  2.4860e-25  7.4851e-23  2.4993e-25  7.4858e-23  2.5230e-25  7.4872e-23  2.5650e-25  7.4896e-23  2.6397e-25  7.4938e-23  2.7726e-25  7.5013e-23  3.0090e-25  7.5146e-23  3.4295e-25  7.5383e-23  4.1774e-25  7.5804e-23  5.5080e-25  7.6553e-23  7.8763e-25  7.7881e-23  1.2095e-24  8.0238e-23  1.9617e-24  8.4417e-23  3.3061e-24  9.1825e-23  5.7179e-24  1.0501e-22  1.0073e-23  1.2863e-22  1.8025e-23  1.7152e-22  3.2816e-23
      2.05  7.0137e-23  2.6711e-25  7.0139e-23  2.6798e-25  7.0143e-23  2.6953e-25  7.0151e-23  2.7229e-25  7.0164e-23  2.7719e-25  7.0186e-23  2.8591e-25  7.0227e-23  3.0141e-25  7.0299e-23  3.2897e-25  7.0427e-23  3.7800e-25  7.0656e-23  4.6520e-25  7.1061e-23  6.2036e-25  7.1781e-23  8.9653e-25  7.3060e-23  1.3884e-24  7.5329e-23  2.2657e-24  7.9351e-23  3.8336e-24  8.6469e-23  6.6463e-24  9.9149e-23  1.1728e-23  1.2184e-22  2.1009e-23  1.6302e-22  3.8285e-23
      2.10  6.5737e-23  2.8813e-25  6.5740e-23  2.8913e-25  6.5744e-23  2.9090e-25  6.5751e-23  2.9407e-25  6.5763e-23  2.9969e-25  6.5785e-23  3.0969e-25  6.5824e-23  3.2747e-25  6.5894e-23  3.5909e-25  6.6017e-23  4.1533e-25  6.6237e-23  5.1538e-25  6.6627e-23  6.9338e-25  6.7321e-23  1.0102e-24  6.8553e-23  1.5745e-24  7.0739e-23  2.5810e-24  7.4614e-23  4.3800e-24  8.1480e-23  7.6082e-24  9.3671e-23  1.3440e-23  1.1549e-22  2.4097e-23  1.5505e-22  4.3949e-23
      2.15  6.1625e-23  3.1109e-25  6.1627e-23  3.1222e-25  6.1631e-23  3.1423e-25  6.1638e-23  3.1781e-25  6.1650e-23  3.2416e-25  6.1671e-23  3.3547e-25  6.1709e-23  3.5557e-25  6.1776e-23  3.9132e-25  6.1895e-23  4.5491e-25  6.2107e-23  5.6801e-25  6.2484e-23  7.6925e-25  6.3153e-23  1.1274e-24  6.4341e-23  1.7655e-24  6.6449e-23  2.9034e-24  7.0186e-23  4.9376e-24  7.6808e-23  8.5880e-24  8.8555e-23  1.5184e-23  1.0957e-22  2.7243e-23  1.4761e-22  4.9719e-23
      2.20  5.7782e-23  3.3624e-25  5.7784e-23  3.3750e-25  5.7788e-23  3.3974e-25  5.7794e-23  3.4373e-25  5.7806e-23  3.5082e-25  5.7826e-23  3.6343e-25  5.7863e-23  3.8586e-25  5.7927e-23  4.2575e-25  5.8043e-23  4.9669e-25  5.8247e-23  6.2289e-25  5.8611e-23  8.4742e-25  5.9257e-23  1.2471e-24  6.0405e-23  1.9590e-24  6.2441e-23  3.2287e-24  6.6051e-23  5.4986e-24  7.2445e-23  9.5726e-24  8.3785e-23  1.6935e-23  1.0404e-22  3.0400e-23  1.4067e-22  5.5510e-23
      2.25  5.4190e-23  3.6381e-25  5.4192e-23  3.6520e-25  5.4196e-23  3.6767e-25  5.4202e-23  3.7207e-25  5.4213e-23  3.7989e-25  5.4233e-23  3.9379e-25  5.4268e-23  4.1852e-25  5.4331e-23  4.6251e-25  5.4442e-23  5.4074e-25  5.4640e-23  6.7989e-25  5.4992e-23  9.2748e-25  5.5617e-23  1.3682e-24  5.6727e-23  2.1532e-24  5.8697e-23  3.5534e-24  6.2188e-23  6.0566e-24  6.8372e-23  1.0550e-23  7.9336e-23  1.8671e-23  9.8896e-23  3.3527e-23  1.3422e-22  6.1247e-23
      2.30  5.0834e-23  3.9415e-25  5.0835e-23  3.9567e-25  5.0839e-23  3.9837e-25  5.0845e-23  4.0317e-25  5.0856e-23  4.1170e-25  5.0875e-23  4.2687e-25  5.0909e-23  4.5386e-25  5.0970e-23  5.0186e-25  5.1078e-23  5.8723e-25  5.1269e-23  7.3908e-25  5.1610e-23  1.0093e-24  5.2216e-23  1.4902e-24  5.3292e-23  2.3469e-24  5.5200e-23  3.8749e-24  5.8582e-23  6.6068e-24  6.4572e-23  1.1511e-23  7.5189e-23  2.0376e-23  9.4108e-23  3.6596e-23  1.2823e-22  6.6872e-23
      2.35  4.7697e-23  4.2751e-25  4.7699e-23  4.2915e-25  4.7702e-23  4.3207e-25  4.7708e-23  4.3726e-25  4.7718e-23  4.4649e-25  4.7737e-23  4.6290e-25  4.7770e-23  4.9208e-25  4.7829e-23  5.4399e-25  4.7934e-23  6.3631e-25  4.8120e-23  8.0052e-25  4.8450e-23  1.0927e-24  4.9038e-23  1.6128e-24  5.0082e-23  2.5392e-24  5.1933e-23  4.1917e-24  5.5215e-23  7.1461e-24  6.1027e-23  1.2450e-23  7.1326e-23  2.2039e-23  8.9655e-23  3.9586e-23  1.2267e-22  7.2351e-23
      2.40  4.4765e-23  4.6424e-25  4.4767e-23  4.6600e-25  4.4770e-23  4.6913e-25  4.4776e-23  4.7470e-25  4.4786e-23  4.8460e-25  4.4804e-23  5.0221e-25  4.4836e-23  5.3353e-25  4.4894e-23  5.8923e-25  4.4995e-23  6.8829e-25  4.5176e-23  8.6450e-25  4.5498e-23  1.1780e-24  4.6069e-23  1.7361e-24  4.7083e-23  2.7303e-24  4.8883e-23  4.5035e-24  5.2072e-23  7.6740e-24  5.7721e-23  1.3366e-23  6.7729e-23  2.3657e-23  8.5518e-23  4.2492e-23  1.1752e-22  7.7671e-23
      2.45  4.2026e-23  5.0472e-25  4.2027e-23  5.0659e-25  4.2030e-23  5.0993e-25  4.2036e-23  5.1587e-25  4.2046e-23  5.2643e-25  4.2064e-23  5.4520e-25  4.2095e-23  5.7859e-25  4.2151e-23  6.3797e-25  4.2250e-23  7.4358e-25  4.2426e-23  9.3145e-25  4.2739e-23  1.2657e-24  4.3295e-23  1.8607e-24  4.4282e-23  2.9206e-24  4.6034e-23  4.8112e-24  4.9139e-23  8.1914e-24  5.4639e-23  1.4260e-23  6.4380e-23  2.5233e-23  8.1684e-23  4.5318e-23  1.1276e-22  8.2837e-23
      2.50  3.9465e-23  5.4939e-25  3.9467e-23  5.5138e-25  3.9470e-23  5.5492e-25  3.9475e-23  5.6121e-25  3.9485e-23  5.7241e-25  3.9502e-23  5.9232e-25  3.9533e-23  6.2772e-25  3.9587e-23  6.9069e-25  3.9684e-23  8.0269e-25  3.9855e-23  1.0019e-24  4.0160e-23  1.3564e-24  4.0703e-23  1.9873e-24  4.1665e-23  3.1113e-24  4.3374e-23  5.1161e-24  4.6402e-23  8.7006e-24  5.1766e-23  1.5136e-23  6.1264e-23  2.6773e-23  7.8130e-23  4.8074e-23  1.0837e-22  8.7869e-23
      2.55  3.7072e-23  5.9885e-25  3.7074e-23  6.0096e-25  3.7077e-23  6.0470e-25  3.7082e-23  6.1135e-25  3.7091e-23  6.2318e-25  3.7108e-23  6.4421e-25  3.7138e-23  6.8162e-25  3.7191e-23  7.4816e-25  3.7285e-23  8.6649e-25  3.7453e-23  1.0770e-24  3.7751e-23  1.4515e-24  3.8281e-23  2.1182e-24  3.9222e-23  3.3058e-24  4.0891e-23  5.4241e-24  4.3851e-23  9.2116e-24  4.9092e-23  1.6011e-23  5.8373e-23  2.8307e-23  7.4849e-23  5.0816e-23  1.0435e-22  9.2870e-23
      2.60  3.4835e-23  6.5354e-25  3.4837e-23  6.5576e-25  3.4840e-23  6.5969e-25  3.4845e-23  6.6670e-25  3.4854e-23  6.7915e-25  3.4871e-23  7.0130e-25  3.4900e-23  7.4069e-25  3.4952e-23  8.1073e-25  3.5044e-23  9.3532e-25  3.5208e-23  1.1569e-24  3.5500e-23  1.5512e-24  3.6019e-23  2.2531e-24  3.6939e-23  3.5034e-24  3.8574e-23  5.7336e-24  4.1471e-23  9.7211e-24  4.6603e-23  1.6880e-23  5.5689e-23  2.9826e-23  7.1815e-23  5.3523e-23  1.0064e-22  9.7800e-23
      2.65  3.2744e-23  7.1406e-25  3.2745e-23  7.1638e-25  3.2748e-23  7.2052e-25  3.2753e-23  7.2787e-25  3.2762e-23  7.4093e-25  3.2779e-23  7.6417e-25  3.2807e-23  8.0550e-25  3.2858e-23  8.7901e-25  3.2949e-23  1.0097e-24  3.3110e-23  1.2423e-24  3.3396e-23  1.6560e-24  3.3905e-23  2.3925e-24  3.4808e-23  3.7045e-24  3.6411e-23  6.0446e-24  3.9253e-23  1.0229e-23  4.4287e-23  1.7740e-23  5.3202e-23  3.1323e-23  6.9019e-23  5.6188e-23  9.7262e-23  1.0264e-22
      2.70  3.0788e-23  7.8109e-25  3.0790e-23  7.8352e-25  3.0793e-23  7.8784e-25  3.0798e-23  7.9553e-25  3.0807e-23  8.0920e-25  3.0823e-23  8.3350e-25  3.0851e-23  8.7673e-25  3.0901e-23  9.5361e-25  3.0990e-23  1.0903e-24  3.1148e-23  1.3336e-24  3.1429e-23  1.7663e-24  3.1929e-23  2.5366e-24  3.2817e-23  3.9088e-24  3.4393e-23  6.3563e-24  3.7186e-23  1.0732e-23  4.2135e-23  1.8588e-23  5.0899e-23  3.2794e-23  6.6447e-23  5.8796e-23  9.4185e-23  1.0737e-22
      2.75  2.8960e-23  8.5539e-25  2.8961e-23  8.5793e-25  2.8964e-23  8.6243e-25  2.8969e-23  8.7044e-25  2.8978e-23  8.8469e-25  2.8993e-23  9.1003e-25  2.9021e-23  9.5509e-25  2.9070e-23  1.0352e-24  2.9158e-23  1.1778e-24  2.9314e-23  1.4313e-24  2.9591e-23  1.8824e-24  3.0083e-23  2.6854e-24  3.0957e-23  4.1158e-24  3.2509e-23  6.6671e-24  3.5261e-23  1.1229e-23  4.0136e-23  1.9418e-23  4.8769e-23  3.4224e-23  6.4085e-23  6.1325e-23  9.1400e-23  1.1195e-22
      2.80  2.7249e-23  9.3800e-25  2.7251e-23  9.4063e-25  2.7254e-23  9.4531e-25  2.7259e-23  9.5363e-25  2.7267e-23  9.6844e-25  2.7283e-23  9.9476e-25  2.7310e-23  1.0416e-24  2.7359e-23  1.1248e-24  2.7445e-23  1.2729e-24  2.7599e-23  1.5363e-24  2.7872e-23  2.0049e-24  2.8357e-23  2.8391e-24  2.9220e-23  4.3249e-24  3.0751e-23  6.9753e-24  3.3467e-23  1.1714e-23  3.8278e-23  2.0220e-23  4.6800e-23  3.5598e-23  6.1918e-23  6.3744e-23  8.8872e-23  1.1631e-22
      2.85  2.5649e-23  1.0297e-24  2.5651e-23  1.0324e-24  2.5653e-23  1.0373e-24  2.5658e-23  1.0459e-24  2.5667e-23  1.0612e-24  2.5682e-23  1.0884e-24  2.5709e-23  1.1369e-24  2.5757e-23  1.2231e-24  2.5842e-23  1.3763e-24  2.5994e-23  1.6489e-24  2.6264e-23  2.1340e-24  2.6744e-23  2.9974e-24  2.7596e-23  4.5353e-24  2.9110e-23  7.2784e-24  3.1794e-23  1.2182e-23  3.6551e-23  2.0986e-23  4.4977e-23  3.6900e-23  5.9925e-23  6.6023e-23  8.6573e-23  1.2040e-22
      2.90  2.4151e-23  1.1316e-24  2.4153e-23  1.1344e-24  2.4155e-23  1.1394e-24  2.4160e-23  1.1482e-24  2.4168e-23  1.1640e-24  2.4183e-23  1.1921e-24  2.4210e-23  1.2421e-24  2.4258e-23  1.3310e-24  2.4342e-23  1.4890e-24  2.4493e-23  1.7701e-24  2.4760e-23  2.2703e-24  2.5235e-23  3.1605e-24  2.6078e-23  4.7464e-24  2.7576e-23  7.5749e-24  3.0233e-23  1.2631e-23  3.4941e-23  2.1708e-23  4.3284e-23  3.8116e-23  5.8085e-23  6.8136e-23  8.4468e-23  1.2418e-22
      2.95  2.2749e-23  1.2448e-24  2.2750e-23  1.2477e-24  2.2753e-23  1.2528e-24  2.2757e-23  1.2620e-24  2.2766e-23  1.2782e-24  2.2781e-23  1.3071e-24  2.2807e-23  1.3584e-24  2.2854e-23  1.4497e-24  2.2938e-23  1.6120e-24  2.3087e-23  1.9008e-24  2.3351e-23  2.4146e-24  2.3822e-23  3.3292e-24  2.4657e-23  4.9583e-24  2.6141e-23  7.8640e-24  2.8773e-23  1.3058e-23  3.3438e-23  2.2382e-23  4.1706e-23  3.9234e-23  5.6375e-23  7.0063e-23  8.2521e-23  1.2760e-22
      3.00  2.1435e-23  1.3709e-24  2.1436e-23  1.3738e-24  2.1439e-23  1.3791e-24  2.1444e-23  1.3884e-24  2.1452e-23  1.4051e-24  2.1467e-23  1.4346e-24  2.1493e-23  1.4871e-24  2.1539e-23  1.5806e-24  2.1622e-23  1.7467e-24  2.1770e-23  2.0423e-24  2.2032e-23  2.5683e-24  2.2498e-23  3.5044e-24  2.3326e-23  5.1719e-24  2.4796e-23  8.1459e-24  2.7405e-23  1.3462e-23  3.2030e-23  2.3004e-23  4.0227e-23  4.0250e-23  5.4773e-23  7.1794e-23  8.0699e-23  1.3065e-22
      3.05  2.0204e-23  1.5116e-24  2.0205e-23  1.5146e-24  2.0208e-23  1.5200e-24  2.0212e-23  1.5295e-24  2.0221e-23  1.5465e-24  2.0235e-23  1.5766e-24  2.0261e-23  1.6302e-24  2.0307e-23  1.7255e-24  2.0390e-23  1.8950e-24  2.0536e-23  2.1965e-24  2.0796e-23  2.7330e-24  2.1257e-23  3.6878e-24  2.2078e-23  5.3887e-24  2.3535e-23  8.4221e-24  2.6121e-23  1.3845e-23  3.0706e-23  2.3576e-23  3.8834e-23  4.1163e-23  5.3260e-23  7.3327e-23  7.8973e-23  1.3333e-22
      3.10  1.9049e-23  1.6682e-24  1.9051e-23  1.6712e-24  1.9053e-23  1.6767e-24  1.9058e-23  1.6864e-24  1.9066e-23  1.7036e-24  1.9081e-23  1.7343e-24  1.9106e-23  1.7887e-24  1.9152e-23  1.8856e-24  1.9234e-23  2.0580e-24  1.9378e-23  2.3646e-24  1.9636e-23  2.9101e-24  2.0093e-23  3.8810e-24  2.0907e-23  5.6104e-24  2.2351e-23  8.6947e-24  2.4913e-23  1.4208e-23  2.9458e-23  2.4102e-23  3.7516e-23  4.1981e-23  5.1820e-23  7.4673e-23  7.7317e-23  1.3564e-22
      3.15  1.7967e-23  1.8430e-24  1.7968e-23  1.8461e-24  1.7971e-23  1.8516e-24  1.7975e-23  1.8615e-24  1.7983e-23  1.8789e-24  1.7998e-23  1.9100e-24  1.8023e-23  1.9653e-24  1.8068e-23  2.0635e-24  1.8149e-23  2.2383e-24  1.8292e-23  2.5491e-24  1.8547e-23  3.1022e-24  1.9001e-23  4.0866e-24  1.9806e-23  5.8401e-24  2.1236e-23  8.9672e-24  2.3775e-23  1.4557e-23  2.8278e-23  2.4588e-23  3.6263e-23  4.2712e-23  5.0440e-23  7.5847e-23  7.5714e-23  1.3763e-22
      3.20  1.6950e-23  2.0381e-24  1.6952e-23  2.0413e-24  1.6954e-23  2.0469e-24  1.6959e-23  2.0568e-24  1.6967e-23  2.0745e-24  1.6981e-23  2.1059e-24  1.7006e-23  2.1618e-24  1.7051e-23  2.2611e-24  1.7131e-23  2.4379e-24  1.7273e-23  2.7523e-24  1.7525e-23  3.3116e-24  1.7974e-23  4.3072e-24  1.8771e-23  6.0805e-24  2.0187e-23  9.2431e-24  2.2700e-23  1.4896e-23  2.7160e-23  2.5039e-23  3.5068e-23  4.3365e-23  4.9112e-23  7.6864e-23  7.4151e-23  1.3931e-22
      3.25  1.5995e-23  2.2558e-24  1.5997e-23  2.2590e-24  1.5999e-23  2.2646e-24  1.6004e-23  2.2746e-24  1.6012e-23  2.2925e-24  1.6026e-23  2.3242e-24  1.6051e-23  2.3805e-24  1.6095e-23  2.4808e-24  1.6174e-23  2.6591e-24  1.6314e-23  2.9763e-24  1.6564e-23  3.5407e-24  1.7008e-23  4.5452e-24  1.7796e-23  6.3344e-24  1.9197e-23  9.5252e-24  2.1685e-23  1.5228e-23  2.6098e-23  2.5461e-23  3.3926e-23  4.3948e-23  4.7830e-23  7.7736e-23  7.2621e-23  1.4070e-22
      3.30  1.5098e-23  2.4991e-24  1.5099e-23  2.5023e-24  1.5102e-23  2.5080e-24  1.5106e-23  2.5181e-24  1.5114e-23  2.5360e-24  1.5128e-23  2.5679e-24  1.5152e-23  2.6247e-24  1.5196e-23  2.7256e-24  1.5274e-23  2.9051e-24  1.5413e-23  3.2244e-24  1.5660e-23  3.7925e-24  1.6099e-23  4.8037e-24  1.6879e-23  6.6047e-24  1.8264e-23  9.8165e-24  2.0723e-23  1.5557e-23  2.5088e-23  2.5857e-23  3.2832e-23  4.4462e-23  4.6589e-23  7.8463e-23  7.1122e-23  1.4181e-22
      3.35  1.4254e-23  2.7707e-24  1.4255e-23  2.7739e-24  1.4257e-23  2.7796e-24  1.4262e-23  2.7898e-24  1.4269e-23  2.8078e-24  1.4283e-23  2.8398e-24  1.4308e-23  2.8968e-24  1.4351e-23  2.9982e-24  1.4428e-23  3.1784e-24  1.4565e-23  3.4991e-24  1.4809e-23  4.0695e-24  1.5243e-23  5.0849e-24  1.6013e-23  6.8934e-24  1.7382e-23  1.0119e-23  1.9813e-23  1.5883e-23  2.4128e-23  2.6225e-23  3.1784e-23  4.4905e-23  4.5388e-23  7.9037e-23  6.9653e-23  1.4261e-22
      3.40  1.3459e-23  3.0741e-24  1.3460e-23  3.0773e-24  1.3462e-23  3.0830e-24  1.3467e-23  3.0932e-24  1.3474e-23  3.1112e-24  1.3488e-23  3.1433e-24  1.3512e-23  3.2004e-24  1.3555e-23  3.3019e-24  1.3631e-23  3.4824e-24  1.3767e-23  3.8034e-24  1.4008e-23  4.3747e-24  1.4436e-23  5.3915e-24  1.5197e-23  7.2025e-24  1.6550e-23  1.0432e-23  1.8952e-23  1.6204e-23  2.3216e-23  2.6559e-23  3.0784e-23  4.5262e-23  4.4233e-23  7.9433e-23  6.8225e-23  1.4307e-22
      3.45  1.2710e-23  3.4131e-24  1.2711e-23  3.4163e-24  1.2713e-23  3.4220e-24  1.2718e-23  3.4321e-24  1.2725e-23  3.4501e-24  1.2739e-23  3.4822e-24  1.2762e-23  3.5391e-24  1.2805e-23  3.6405e-24  1.2880e-23  3.8207e-24  1.3014e-23  4.1413e-24  1.3252e-23  4.7116e-24  1.3675e-23  5.7268e-24  1.4427e-23  7.5350e-24  1.5763e-23  1.0759e-23  1.8136e-23  1.6522e-23  2.2349e-23  2.6861e-23  2.9827e-23  4.5532e-23  4.3121e-23  7.9641e-23  6.6839e-23  1.4315e-22
      3.50  1.2003e-23  3.7920e-24  1.2005e-23  3.7952e-24  1.2007e-23  3.8008e-24  1.2011e-23  3.8109e-24  1.2019e-23  3.8288e-24  1.2032e-23  3.8607e-24  1.2055e-23  3.9175e-24  1.2097e-23  4.0183e-24  1.2172e-23  4.1978e-24  1.2304e-23  4.5169e-24  1.2539e-23  5.0847e-24  1.2956e-23  6.0954e-24  1.3699e-23  7.8954e-24  1.5019e-23  1.1105e-23  1.7362e-23  1.6842e-23  2.1524e-23  2.7134e-23  2.8914e-23  4.5720e-23  4.2051e-23  7.9671e-23  6.5495e-23  1.4287e-22
      3.55  1.1337e-23  4.2163e-24  1.1338e-23  4.2194e-24  1.1340e-23  4.2251e-24  1.1345e-23  4.2351e-24  1.1352e-23  4.2529e-24  1.1365e-23  4.2846e-24  1.1388e-23  4.3409e-24  1.1429e-23  4.4411e-24  1.1503e-23  4.6193e-24  1.1633e-23  4.9363e-24  1.1865e-23  5.5002e-24  1.2278e-23  6.5039e-24  1.3011e-23  8.2916e-24  1.4315e-23  1.1480e-23  1.6630e-23  1.7177e-23  2.0741e-23  2.7398e-23  2.8042e-23  4.5856e-23  4.1024e-23  7.9569e-23  6.4196e-23  1.4232e-22
      3.60  1.0707e-23  4.6909e-24  1.0708e-23  4.6940e-24  1.0711e-23  4.6996e-24  1.0715e-23  4.7095e-24  1.0722e-23  4.7272e-24  1.0735e-23  4.7586e-24  1.0758e-23  4.8145e-24  1.0799e-23  4.9139e-24  1.0871e-23  5.0907e-24  1.1000e-23  5.4051e-24  1.1229e-23  5.9646e-24  1.1636e-23  6.9603e-24  1.2361e-23  8.7339e-24  1.3648e-23  1.1897e-23  1.5934e-23  1.7549e-23  1.9996e-23  2.7688e-23  2.7209e-23  4.5999e-23  4.0038e-23  7.9442e-23  6.2941e-23  1.4169e-22
      3.65  1.0112e-23  5.2219e-24  1.0113e-23  5.2250e-24  1.0115e-23  5.2305e-24  1.0119e-23  5.2404e-24  1.0126e-23  5.2580e-24  1.0139e-23  5.2892e-24  1.0162e-23  5.3447e-24  1.0202e-23  5.4434e-24  1.0273e-23  5.6190e-24  1.0401e-23  5.9314e-24  1.0627e-23  6.4871e-24  1.1029e-23  7.4762e-24  1.1745e-23  9.2379e-24  1.3016e-23  1.2379e-23  1.5274e-23  1.7994e-23  1.9286e-23  2.8066e-23  2.6412e-23  4.6254e-23  3.9090e-23  7.9476e-23  6.1727e-23  1.4131e-22
      3.70  9.5480e-24  5.8162e-24  9.5493e-24  5.8193e-24  9.5515e-24  5.8248e-24  9.5555e-24  5.8347e-24  9.5625e-24  5.8522e-24  9.5751e-24  5.8833e-24  9.5975e-24  5.9388e-24  9.6372e-24  6.0373e-24  9.7079e-24  6.2126e-24  9.8336e-24  6.5244e-24  1.0057e-23  7.0791e-24  1.0454e-23  8.0664e-24  1.1161e-23  9.8249e-24  1.2416e-23  1.2961e-23  1.4647e-23  1.8565e-23  1.8609e-23  2.8620e-23  2.5649e-23  4.6779e-23  3.8176e-23  7.9950e-23  6.0550e-23  1.4170e-22
      3.75  9.0142e-24  6.4815e-24  9.0155e-24  6.4847e-24  9.0177e-24  6.4902e-24  9.0216e-24  6.5002e-24  9.0286e-24  6.5178e-24  9.0410e-24  6.5491e-24  9.0631e-24  6.6049e-24  9.1023e-24  6.7041e-24  9.1721e-24  6.8805e-24  9.2962e-24  7.1942e-24  9.5168e-24  7.7524e-24  9.9091e-24  8.7459e-24  1.0607e-23  1.0516e-23  1.1846e-23  1.3671e-23  1.4049e-23  1.9312e-23  1.7962e-23  2.9432e-23  2.4917e-23  4.7711e-23  3.7293e-23  8.1109e-23  5.9403e-23  1.4331e-22
      3.80  8.5083e-24  7.2276e-24  8.5095e-24  7.2308e-24  8.5117e-24  7.2365e-24  8.5156e-24  7.2466e-24  8.5225e-24  7.2646e-24  8.5347e-24  7.2966e-24  8.5565e-24  7.3534e-24  8.5953e-24  7.4545e-24  8.6642e-24  7.6343e-24  8.7867e-24  7.9542e-24  9.0045e-24  8.5232e-24  9.3918e-24  9.5361e-24  1.0080e-23  1.1340e-23  1.1304e-23  1.4558e-23  1.3479e-23  2.0309e-23  1.7343e-23  3.0629e-23  2.4212e-23  4.9274e-23  3.6437e-23  8.3355e-23  5.8283e-23  1.4687e-22
      3.85  8.0284e-24  8.0633e-24  8.0296e-24  8.0666e-24  8.0317e-24  8.0725e-24  8.0356e-24  8.0830e-24  8.0424e-24  8.1016e-24  8.0545e-24  8.1347e-24  8.0760e-24  8.1937e-24  8.1142e-24  8.2985e-24  8.1822e-24  8.4848e-24  8.3031e-24  8.8164e-24  8.5181e-24  9.4062e-24  8.9004e-24  1.0456e-23  9.5800e-24  1.2326e-23  1.0788e-23  1.5662e-23  1.2935e-23  2.1625e-23  1.6750e-23  3.2327e-23  2.3532e-23  5.1670e-23  3.5606e-23  8.7049e-23  5.7186e-23  1.5305e-22
      3.90  7.5728e-24  8.9994e-24  7.5740e-24  9.0029e-24  7.5761e-24  9.0092e-24  7.5799e-24  9.0202e-24  7.5866e-24  9.0399e-24  7.5985e-24  9.0749e-24  7.6197e-24  9.1371e-24  7.6575e-24  9.2478e-24  7.7246e-24  9.4447e-24  7.8439e-24  9.7949e-24  8.0561e-24  1.0418e-23  8.4333e-24  1.1527e-23  9.1040e-24  1.3503e-23  1.0296e-23  1.7027e-23  1.2415e-23  2.3328e-23  1.6181e-23  3.4640e-23  2.2876e-23  5.5096e-23  3.4797e-23  9.2545e-23  5.6110e-23  1.6250e-22
      3.95  7.1400e-24  1.0048e-23  7.1412e-24  1.0052e-23  7.1433e-24  1.0059e-23  7.1470e-24  1.0071e-23  7.1536e-24  1.0092e-23  7.1654e-24  1.0130e-23  7.1863e-24  1.0197e-23  7.2236e-24  1.0316e-23  7.2898e-24  1.0528e-23  7.4075e-24  1.0906e-23  7.6169e-24  1.1577e-23  7.9891e-24  1.2772e-23  8.6509e-24  1.4901e-23  9.8273e-24  1.8700e-23  1.1918e-23  2.5493e-23  1.5635e-23  3.7693e-23  2.2242e-23  5.9769e-23  3.4011e-23  1.0023e-22  5.5057e-23  1.7594e-22
