# This was generated using Cloudy10 and the columns are ordered 
# as log10 of the fraction of the metallicity to the solar metallicity
# 'h_*_Z' and 'c_*_Z' stands for cooling and heating respectively 
# at * metalicity
#
# NOTE: This was generated separately from loop_coolingcurve_w_UV.py
#       using Output_metals_w_redshift.py.
#
# Redshift = 7.0
# hden = -10.0
#
#     temp   h_-3.00_Z   c_-3.00_Z   h_-2.75_Z   c_-2.75_Z   h_-2.50_Z   c_-2.50_Z   h_-2.25_Z   c_-2.25_Z   h_-2.00_Z   c_-2.00_Z   h_-1.75_Z   c_-1.75_Z   h_-1.50_Z   c_-1.50_Z   h_-1.25_Z   c_-1.25_Z   h_-1.00_Z   c_-1.00_Z   h_-0.75_Z   c_-0.75_Z   h_-0.50_Z   c_-0.50_Z   h_-0.25_Z   c_-0.25_Z    h_0.00_Z    c_0.00_Z    h_0.25_Z    c_0.25_Z    h_0.50_Z    c_0.50_Z    h_0.75_Z    c_0.75_Z    h_1.00_Z    c_1.00_Z    h_1.25_Z    c_1.25_Z    h_1.50_Z    c_1.50_Z 
      1.00  6.6074e-21  2.5581e-21  6.6080e-21  2.5581e-21  6.6090e-21  2.5581e-21  6.6109e-21  2.5582e-21  6.6143e-21  2.5583e-21  6.6202e-21  2.5584e-21  6.6307e-21  2.5587e-21  6.6495e-21  2.5591e-21  6.6828e-21  2.5599e-21  6.7421e-21  2.5613e-21  6.8474e-21  2.5638e-21  7.0346e-21  2.5683e-21  7.3686e-21  2.5763e-21  7.9659e-21  2.5905e-21  9.0399e-21  2.6157e-21  1.0994e-20  2.6604e-21  1.4605e-20  2.7400e-21  2.1510e-20  2.9020e-21  3.5180e-20  3.2011e-21
      1.05  6.5579e-21  2.8702e-21  6.5585e-21  2.8702e-21  6.5595e-21  2.8703e-21  6.5613e-21  2.8703e-21  6.5644e-21  2.8704e-21  6.5701e-21  2.8706e-21  6.5801e-21  2.8709e-21  6.5979e-21  2.8714e-21  6.6296e-21  2.8723e-21  6.6859e-21  2.8739e-21  6.7860e-21  2.8767e-21  6.9639e-21  2.8817e-21  7.2813e-21  2.8907e-21  7.8490e-21  2.9066e-21  8.8696e-21  2.9349e-21  1.0726e-20  2.9853e-21  1.4156e-20  3.0746e-21  2.0713e-20  3.2538e-21  3.3707e-20  3.5911e-21
      1.10  6.5115e-21  3.2204e-21  6.5120e-21  3.2205e-21  6.5130e-21  3.2205e-21  6.5147e-21  3.2206e-21  6.5177e-21  3.2207e-21  6.5230e-21  3.2208e-21  6.5326e-21  3.2212e-21  6.5495e-21  3.2217e-21  6.5796e-21  3.2227e-21  6.6331e-21  3.2245e-21  6.7282e-21  3.2277e-21  6.8973e-21  3.2334e-21  7.1989e-21  3.2434e-21  7.7386e-21  3.2613e-21  8.7084e-21  3.2932e-21  1.0472e-20  3.3497e-21  1.3731e-20  3.4501e-21  1.9956e-20  3.6481e-21  3.2307e-20  4.0285e-21
      1.15  6.4679e-21  3.6134e-21  6.4684e-21  3.6134e-21  6.4694e-21  3.6135e-21  6.4710e-21  3.6135e-21  6.4738e-21  3.6136e-21  6.4789e-21  3.6138e-21  6.4879e-21  3.6142e-21  6.5040e-21  3.6148e-21  6.5326e-21  3.6160e-21  6.5835e-21  3.6180e-21  6.6739e-21  3.6216e-21  6.8346e-21  3.6279e-21  7.1212e-21  3.6392e-21  7.6341e-21  3.6593e-21  8.5560e-21  3.6951e-21  1.0232e-20  3.7587e-21  1.3328e-20  3.8715e-21  1.9238e-20  4.0911e-21  3.0977e-20  4.5191e-21
      1.20  6.4271e-21  4.0543e-21  6.4276e-21  4.0543e-21  6.4284e-21  4.0544e-21  6.4300e-21  4.0544e-21  6.4327e-21  4.0546e-21  6.4375e-21  4.0548e-21  6.4461e-21  4.0552e-21  6.4614e-21  4.0559e-21  6.4885e-21  4.0572e-21  6.5368e-21  4.0594e-21  6.6228e-21  4.0635e-21  6.7756e-21  4.0706e-21  7.0479e-21  4.0833e-21  7.5352e-21  4.1059e-21  8.4118e-21  4.1461e-21  1.0003e-20  4.2175e-21  1.2945e-20  4.3444e-21  1.8557e-20  4.5882e-21  2.9713e-20  5.0695e-21
      1.25  6.3888e-21  4.5490e-21  6.3892e-21  4.5490e-21  6.3901e-21  4.5491e-21  6.3915e-21  4.5491e-21  6.3941e-21  4.5493e-21  6.3987e-21  4.5495e-21  6.4068e-21  4.5500e-21  6.4213e-21  4.5508e-21  6.4472e-21  4.5522e-21  6.4931e-21  4.5548e-21  6.5747e-21  4.5593e-21  6.7200e-21  4.5673e-21  6.9788e-21  4.5816e-21  7.4419e-21  4.6070e-21  8.2752e-21  4.6522e-21  9.7874e-21  4.7324e-21  1.2582e-20  4.8749e-21  1.7908e-20  5.1456e-21  2.8515e-20  5.6877e-21
      1.30  6.3529e-21  5.1041e-21  6.3533e-21  5.1041e-21  6.3541e-21  5.1041e-21  6.3555e-21  5.1042e-21  6.3579e-21  5.1044e-21  6.3623e-21  5.1047e-21  6.3700e-21  5.1052e-21  6.3838e-21  5.1061e-21  6.4083e-21  5.1077e-21  6.4520e-21  5.1105e-21  6.5295e-21  5.1156e-21  6.6676e-21  5.1246e-21  6.9136e-21  5.1407e-21  7.3538e-21  5.1692e-21  8.1458e-21  5.2200e-21  9.5830e-21  5.3102e-21  1.2238e-20  5.4703e-21  1.7293e-20  5.7705e-21  2.7372e-20  6.3812e-21
      1.35  6.3192e-21  5.7268e-21  6.3196e-21  5.7269e-21  6.3204e-21  5.7269e-21  6.3217e-21  5.7270e-21  6.3240e-21  5.7272e-21  6.3282e-21  5.7275e-21  6.3355e-21  5.7281e-21  6.3486e-21  5.7291e-21  6.3719e-21  5.7309e-21  6.4134e-21  5.7341e-21  6.4871e-21  5.7398e-21  6.6183e-21  5.7500e-21  6.8522e-21  5.7680e-21  7.2704e-21  5.8001e-21  8.0232e-21  5.8571e-21  9.3893e-21  5.9584e-21  1.1911e-20  6.1384e-21  1.6711e-20  6.4711e-21  2.6292e-20  7.1591e-21
      1.40  6.2877e-21  6.4256e-21  6.2881e-21  6.4256e-21  6.2888e-21  6.4257e-21  6.2900e-21  6.4258e-21  6.2923e-21  6.4260e-21  6.2962e-21  6.4264e-21  6.3032e-21  6.4270e-21  6.3156e-21  6.4282e-21  6.3378e-21  6.4302e-21  6.3771e-21  6.4338e-21  6.4472e-21  6.4402e-21  6.5720e-21  6.4516e-21  6.7943e-21  6.4719e-21  7.1918e-21  6.5079e-21  7.9072e-21  6.5720e-21  9.2058e-21  6.6858e-21  1.1602e-20  6.8881e-21  1.6156e-20  7.2564e-21  2.5265e-20  8.0317e-21
      1.45  6.2582e-21  7.2097e-21  6.2585e-21  7.2097e-21  6.2592e-21  7.2098e-21  6.2604e-21  7.2099e-21  6.2625e-21  7.2101e-21  6.2662e-21  7.2105e-21  6.2729e-21  7.2112e-21  6.2847e-21  7.2125e-21  6.3057e-21  7.2148e-21  6.3431e-21  7.2189e-21  6.4097e-21  7.2261e-21  6.5283e-21  7.2389e-21  6.7397e-21  7.2616e-21  7.1175e-21  7.3021e-21  7.7974e-21  7.3741e-21  9.0319e-21  7.5020e-21  1.1308e-20  7.7293e-21  1.5630e-20  8.1368e-21  2.4288e-20  9.0104e-21
      1.50  6.2305e-21  8.0894e-21  6.2309e-21  8.0894e-21  6.2315e-21  8.0895e-21  6.2326e-21  8.0896e-21  6.2346e-21  8.0899e-21  6.2382e-21  8.0903e-21  6.2445e-21  8.0912e-21  6.2557e-21  8.0926e-21  6.2757e-21  8.0951e-21  6.3113e-21  8.0997e-21  6.3745e-21  8.1078e-21  6.4872e-21  8.1222e-21  6.6882e-21  8.1478e-21  7.0473e-21  8.1933e-21  7.6935e-21  8.2742e-21  8.8671e-21  8.4179e-21  1.1031e-20  8.6732e-21  1.5132e-20  9.1264e-21  2.3362e-20  1.0108e-20
      1.55  6.2046e-21  9.0764e-21  6.2049e-21  9.0765e-21  6.2055e-21  9.0765e-21  6.2066e-21  9.0767e-21  6.2085e-21  9.0770e-21  6.2119e-21  9.0775e-21  6.2179e-21  9.0784e-21  6.2286e-21  9.0800e-21  6.2476e-21  9.0829e-21  6.2813e-21  9.0880e-21  6.3415e-21  9.0971e-21  6.4486e-21  9.1133e-21  6.6397e-21  9.1420e-21  6.9812e-21  9.1932e-21  7.5954e-21  9.2840e-21  8.7109e-21  9.4455e-21  1.0767e-20  9.7324e-21  1.4663e-20  1.0242e-20  2.2484e-20  1.1339e-20
      1.60  6.1804e-21  1.0184e-20  6.1807e-21  1.0184e-20  6.1813e-21  1.0184e-20  6.1823e-21  1.0184e-20  6.1841e-21  1.0185e-20  6.1873e-21  1.0185e-20  6.1930e-21  1.0186e-20  6.2031e-21  1.0188e-20  6.2212e-21  1.0191e-20  6.2533e-21  1.0197e-20  6.3105e-21  1.0207e-20  6.4123e-21  1.0225e-20  6.5939e-21  1.0258e-20  6.9187e-21  1.0315e-20  7.5026e-21  1.0417e-20  8.5629e-21  1.0599e-20  1.0518e-20  1.0921e-20  1.4218e-20  1.1493e-20  2.1648e-20  1.2720e-20
      1.65  6.1577e-21  1.1427e-20  6.1580e-21  1.1427e-20  6.1585e-21  1.1427e-20  6.1595e-21  1.1427e-20  6.1612e-21  1.1427e-20  6.1642e-21  1.1428e-20  6.1697e-21  1.1429e-20  6.1793e-21  1.1431e-20  6.1965e-21  1.1435e-20  6.2270e-21  1.1441e-20  6.2813e-21  1.1453e-20  6.3781e-21  1.1473e-20  6.5508e-21  1.1509e-20  6.8597e-21  1.1574e-20  7.4148e-21  1.1689e-20  8.4228e-21  1.1892e-20  1.0281e-20  1.2255e-20  1.3798e-20  1.2898e-20  2.0856e-20  1.4268e-20
      1.70  6.1364e-21  1.2821e-20  6.1367e-21  1.2821e-20  6.1372e-21  1.2821e-20  6.1381e-21  1.2821e-20  6.1398e-21  1.2822e-20  6.1427e-21  1.2822e-20  6.1478e-21  1.2824e-20  6.1570e-21  1.2826e-20  6.1733e-21  1.2830e-20  6.2023e-21  1.2837e-20  6.2540e-21  1.2850e-20  6.3460e-21  1.2873e-20  6.5102e-21  1.2914e-20  6.8039e-21  1.2986e-20  7.3318e-21  1.3115e-20  8.2902e-21  1.3344e-20  1.0057e-20  1.3751e-20  1.3399e-20  1.4473e-20  2.0105e-20  1.6005e-20
      1.75  6.1165e-21  1.4385e-20  6.1168e-21  1.4385e-20  6.1173e-21  1.4385e-20  6.1182e-21  1.4386e-20  6.1197e-21  1.4386e-20  6.1225e-21  1.4387e-20  6.1274e-21  1.4388e-20  6.1361e-21  1.4391e-20  6.1516e-21  1.4395e-20  6.1792e-21  1.4404e-20  6.2283e-21  1.4418e-20  6.3158e-21  1.4444e-20  6.4720e-21  1.4490e-20  6.7514e-21  1.4571e-20  7.2536e-21  1.4716e-20  8.1648e-21  1.4973e-20  9.8450e-21  1.5430e-20  1.3021e-20  1.6242e-20  1.9393e-20  1.7952e-20
      1.80  6.0979e-21  1.6140e-20  6.0982e-21  1.6140e-20  6.0987e-21  1.6141e-20  6.0995e-21  1.6141e-20  6.1010e-21  1.6141e-20  6.1036e-21  1.6142e-20  6.1083e-21  1.6144e-20  6.1165e-21  1.6147e-20  6.1313e-21  1.6152e-20  6.1575e-21  1.6161e-20  6.2042e-21  1.6177e-20  6.2875e-21  1.6206e-20  6.4360e-21  1.6258e-20  6.7017e-21  1.6349e-20  7.1795e-21  1.6512e-20  8.0461e-21  1.6801e-20  9.6438e-21  1.7315e-20  1.2663e-20  1.8226e-20  1.8718e-20  2.0135e-20
      1.85  6.0806e-21  1.8110e-20  6.0808e-21  1.8110e-20  6.0812e-21  1.8110e-20  6.0820e-21  1.8110e-20  6.0834e-21  1.8111e-20  6.0859e-21  1.8112e-20  6.0904e-21  1.8114e-20  6.0982e-21  1.8117e-20  6.1123e-21  1.8123e-20  6.1372e-21  1.8133e-20  6.1817e-21  1.8151e-20  6.2608e-21  1.8184e-20  6.4021e-21  1.8242e-20  6.6549e-21  1.8345e-20  7.1095e-21  1.8527e-20  7.9339e-21  1.8852e-20  9.4532e-21  1.9429e-20  1.2323e-20  2.0453e-20  1.8078e-20  2.2583e-20
      1.90  6.0643e-21  2.0319e-20  6.0645e-21  2.0320e-20  6.0649e-21  2.0320e-20  6.0657e-21  2.0320e-20  6.0670e-21  2.0321e-20  6.0694e-21  2.0322e-20  6.0736e-21  2.0324e-20  6.0811e-21  2.0328e-20  6.0945e-21  2.0334e-20  6.1182e-21  2.0346e-20  6.1605e-21  2.0366e-20  6.2358e-21  2.0403e-20  6.3702e-21  2.0468e-20  6.6108e-21  2.0583e-20  7.0434e-21  2.0788e-20  7.8279e-21  2.1153e-20  9.2729e-21  2.1802e-20  1.2002e-20  2.2952e-20  1.7470e-20  2.5327e-20
      1.95  6.0491e-21  2.2799e-20  6.0493e-21  2.2799e-20  6.0497e-21  2.2799e-20  6.0504e-21  2.2800e-20  6.0517e-21  2.2800e-20  6.0539e-21  2.2802e-20  6.0579e-21  2.2804e-20  6.0651e-21  2.2808e-20  6.0778e-21  2.2815e-20  6.1004e-21  2.2828e-20  6.1406e-21  2.2851e-20  6.2123e-21  2.2892e-20  6.3402e-21  2.2965e-20  6.5692e-21  2.3095e-20  6.9809e-21  2.3326e-20  7.7276e-21  2.3736e-20  9.1025e-21  2.4464e-20  1.1698e-20  2.5757e-20  1.6894e-20  2.8404e-20
      2.00  6.0348e-21  2.5581e-20  6.0351e-21  2.5581e-20  6.0354e-21  2.5581e-20  6.0361e-21  2.5582e-20  6.0373e-21  2.5582e-20  6.0395e-21  2.5584e-20  6.0433e-21  2.5586e-20  6.0501e-21  2.5591e-20  6.0622e-21  2.5599e-20  6.0837e-21  2.5614e-20  6.1220e-21  2.5640e-20  6.1902e-21  2.5686e-20  6.3120e-21  2.5768e-20  6.5300e-21  2.5914e-20  6.9220e-21  2.6173e-20  7.6329e-21  2.6633e-20  8.9413e-21  2.7451e-20  1.1410e-20  2.8904e-20  1.6348e-20  3.1852e-20
      2.05  6.0215e-21  2.8702e-20  6.0217e-21  2.8702e-20  6.0221e-21  2.8702e-20  6.0228e-21  2.8703e-20  6.0239e-21  2.8704e-20  6.0260e-21  2.8706e-20  6.0296e-21  2.8708e-20  6.0361e-21  2.8714e-20  6.0476e-21  2.8723e-20  6.0681e-21  2.8739e-20  6.1045e-21  2.8768e-20  6.1695e-21  2.8820e-20  6.2855e-21  2.8912e-20  6.4930e-21  2.9076e-20  6.8663e-21  2.9367e-20  7.5433e-21  2.9884e-20  8.7888e-21  3.0803e-20  1.1138e-20  3.2435e-20  1.5830e-20  3.5717e-20
      2.10  6.0091e-21  3.2204e-20  6.0093e-21  3.2204e-20  6.0096e-21  3.2205e-20  6.0103e-21  3.2205e-20  6.0114e-21  3.2206e-20  6.0133e-21  3.2208e-20  6.0168e-21  3.2211e-20  6.0229e-21  3.2217e-20  6.0339e-21  3.2228e-20  6.0534e-21  3.2246e-20  6.0882e-21  3.2279e-20  6.1501e-21  3.2337e-20  6.2605e-21  3.2440e-20  6.4582e-21  3.2624e-20  6.8138e-21  3.2951e-20  7.4587e-21  3.3532e-20  8.6448e-21  3.4564e-20  1.0880e-20  3.6397e-20  1.5339e-20  4.0048e-20
      2.15  5.9975e-21  3.6134e-20  5.9977e-21  3.6134e-20  5.9980e-21  3.6134e-20  5.9986e-21  3.6135e-20  5.9996e-21  3.6136e-20  6.0015e-21  3.6138e-20  6.0048e-21  3.6142e-20  6.0107e-21  3.6148e-20  6.0211e-21  3.6160e-20  6.0397e-21  3.6181e-20  6.0728e-21  3.6217e-20  6.1318e-21  3.6283e-20  6.2371e-21  3.6399e-20  6.4255e-21  3.6605e-20  6.7643e-21  3.6973e-20  7.3787e-21  3.7625e-20  8.5088e-21  3.8785e-20  1.0637e-20  4.0844e-20  1.4874e-20  4.4901e-20
      2.20  5.9866e-21  4.0543e-20  5.9868e-21  4.0543e-20  5.9871e-21  4.0543e-20  5.9877e-21  4.0544e-20  5.9887e-21  4.0545e-20  5.9904e-21  4.0548e-20  5.9936e-21  4.0552e-20  5.9992e-21  4.0559e-20  6.0092e-21  4.0572e-20  6.0269e-21  4.0595e-20  6.0584e-21  4.0637e-20  6.1147e-21  4.0710e-20  6.2150e-21  4.0841e-20  6.3946e-21  4.1073e-20  6.7176e-21  4.1485e-20  7.3032e-21  4.2218e-20  8.3801e-21  4.3521e-20  1.0407e-20  4.5834e-20  1.4433e-20  5.0338e-20
      2.25  5.9765e-21  4.5490e-20  5.9766e-21  4.5490e-20  5.9769e-21  4.5490e-20  5.9775e-21  4.5491e-20  5.9784e-21  4.5493e-20  5.9801e-21  4.5495e-20  5.9831e-21  4.5500e-20  5.9885e-21  4.5508e-20  5.9980e-21  4.5523e-20  6.0149e-21  4.5549e-20  6.0450e-21  4.5595e-20  6.0986e-21  4.5678e-20  6.1943e-21  4.5824e-20  6.3656e-21  4.6085e-20  6.6735e-21  4.6548e-20  7.2319e-21  4.7372e-20  8.2585e-21  4.8835e-20  1.0190e-20  5.1433e-20  1.4015e-20  5.6429e-20
      2.30  5.9670e-21  5.1040e-20  5.9672e-21  5.1040e-20  5.9674e-21  5.1041e-20  5.9679e-21  5.1042e-20  5.9689e-21  5.1044e-20  5.9705e-21  5.1046e-20  5.9733e-21  5.1052e-20  5.9784e-21  5.1061e-20  5.9875e-21  5.1077e-20  6.0036e-21  5.1107e-20  6.0323e-21  5.1159e-20  6.0835e-21  5.1251e-20  6.1748e-21  5.1416e-20  6.3383e-21  5.1709e-20  6.6321e-21  5.2229e-20  7.1646e-21  5.3154e-20  8.1436e-21  5.4798e-20  9.9844e-21  5.7716e-20  1.3621e-20  6.3262e-20
      2.35  5.9581e-21  5.7268e-20  5.9583e-21  5.7268e-20  5.9586e-21  5.7269e-20  5.9590e-21  5.7270e-20  5.9599e-21  5.7272e-20  5.9615e-21  5.7275e-20  5.9642e-21  5.7281e-20  5.9691e-21  5.7291e-20  5.9777e-21  5.7310e-20  5.9931e-21  5.7343e-20  6.0205e-21  5.7401e-20  6.0694e-21  5.7505e-20  6.1566e-21  5.7690e-20  6.3126e-21  5.8019e-20  6.5930e-21  5.8603e-20  7.1012e-21  5.9642e-20  8.0351e-21  6.1489e-20  9.7904e-21  6.4767e-20  1.3249e-20  7.0935e-20
      2.40  5.9499e-21  6.4256e-20  5.9500e-21  6.4256e-20  5.9503e-21  6.4257e-20  5.9507e-21  6.4258e-20  5.9516e-21  6.4260e-20  5.9530e-21  6.4264e-20  5.9556e-21  6.4270e-20  5.9603e-21  6.4282e-20  5.9686e-21  6.4303e-20  5.9833e-21  6.4340e-20  6.0095e-21  6.4405e-20  6.0561e-21  6.4522e-20  6.1394e-21  6.4730e-20  6.2884e-21  6.5099e-20  6.5562e-21  6.5756e-20  7.0414e-21  6.6923e-20  7.9327e-21  6.8996e-20  9.6071e-21  7.2679e-20  1.2898e-20  7.9533e-20
      2.45  5.9421e-21  7.2096e-20  5.9423e-21  7.2096e-20  5.9425e-21  7.2097e-20  5.9430e-21  7.2099e-20  5.9438e-21  7.2101e-20  5.9452e-21  7.2105e-20  5.9477e-21  7.2112e-20  5.9521e-21  7.2125e-20  5.9600e-21  7.2149e-20  5.9741e-21  7.2190e-20  5.9991e-21  7.2264e-20  6.0437e-21  7.2395e-20  6.1233e-21  7.2629e-20  6.2656e-21  7.3043e-20  6.5215e-21  7.3781e-20  6.9850e-21  7.5092e-20  7.8361e-21  7.7421e-20  9.4339e-21  8.1558e-20  1.2564e-20  8.9166e-20
      2.50  5.9349e-21  8.0893e-20  5.9351e-21  8.0894e-20  5.9353e-21  8.0894e-20  5.9357e-21  8.0896e-20  5.9365e-21  8.0898e-20  5.9378e-21  8.0903e-20  5.9402e-21  8.0911e-20  5.9445e-21  8.0926e-20  5.9520e-21  8.0952e-20  5.9655e-21  8.0999e-20  5.9894e-21  8.1082e-20  6.0320e-21  8.1229e-20  6.1081e-21  8.1491e-20  6.2443e-21  8.1957e-20  6.4888e-21  8.2785e-20  6.9318e-21  8.4258e-20  7.7449e-21  8.6874e-20  9.2704e-21  9.1520e-20  1.2249e-20  9.9957e-20
      2.55  5.9282e-21  9.0764e-20  5.9283e-21  9.0764e-20  5.9285e-21  9.0765e-20  5.9289e-21  9.0767e-20  5.9297e-21  9.0770e-20  5.9310e-21  9.0775e-20  5.9332e-21  9.0784e-20  5.9373e-21  9.0801e-20  5.9445e-21  9.0830e-20  5.9574e-21  9.0882e-20  5.9803e-21  9.0976e-20  6.0211e-21  9.1141e-20  6.0939e-21  9.1435e-20  6.2241e-21  9.1959e-20  6.4581e-21  9.2889e-20  6.8817e-21  9.4543e-20  7.6590e-21  9.7481e-20  9.1162e-21  1.0270e-19  1.1950e-20  1.1205e-19
      2.60  5.9219e-21  1.0184e-19  5.9220e-21  1.0184e-19  5.9222e-21  1.0184e-19  5.9226e-21  1.0184e-19  5.9233e-21  1.0185e-19  5.9245e-21  1.0185e-19  5.9267e-21  1.0186e-19  5.9306e-21  1.0188e-19  5.9376e-21  1.0191e-19  5.9499e-21  1.0197e-19  5.9718e-21  1.0208e-19  6.0109e-21  1.0226e-19  6.0806e-21  1.0259e-19  6.2052e-21  1.0318e-19  6.4292e-21  1.0423e-19  6.8346e-21  1.0608e-19  7.5780e-21  1.0938e-19  8.9708e-21  1.1525e-19  1.1671e-20  1.2565e-19
      2.65  5.9160e-21  1.1426e-19  5.9161e-21  1.1427e-19  5.9164e-21  1.1427e-19  5.9167e-21  1.1427e-19  5.9174e-21  1.1427e-19  5.9186e-21  1.1428e-19  5.9207e-21  1.1429e-19  5.9244e-21  1.1431e-19  5.9310e-21  1.1435e-19  5.9428e-21  1.1441e-19  5.9638e-21  1.1453e-19  6.0013e-21  1.1474e-19  6.0681e-21  1.1511e-19  6.1875e-21  1.1577e-19  6.4020e-21  1.1695e-19  6.7903e-21  1.1903e-19  7.5019e-21  1.2274e-19  8.8340e-21  1.2932e-19  1.1413e-20  1.4101e-19
      2.70  5.9105e-21  1.2821e-19  5.9107e-21  1.2821e-19  5.9109e-21  1.2821e-19  5.9112e-21  1.2821e-19  5.9119e-21  1.2822e-19  5.9130e-21  1.2822e-19  5.9150e-21  1.2824e-19  5.9186e-21  1.2826e-19  5.9249e-21  1.2830e-19  5.9363e-21  1.2838e-19  5.9564e-21  1.2851e-19  5.9923e-21  1.2874e-19  6.0564e-21  1.2916e-19  6.1709e-21  1.2990e-19  6.3766e-21  1.3122e-19  6.7487e-21  1.3356e-19  7.4305e-21  1.3772e-19  8.7056e-21  1.4512e-19  1.1171e-20  1.5824e-19
      2.75  5.9054e-21  1.4385e-19  5.9055e-21  1.4385e-19  5.9057e-21  1.4385e-19  5.9061e-21  1.4386e-19  5.9067e-21  1.4386e-19  5.9078e-21  1.4387e-19  5.9097e-21  1.4388e-19  5.9131e-21  1.4391e-19  5.9193e-21  1.4396e-19  5.9301e-21  1.4404e-19  5.9495e-21  1.4419e-19  5.9840e-21  1.4445e-19  6.0455e-21  1.4492e-19  6.1554e-21  1.4575e-19  6.3529e-21  1.4723e-19  6.7100e-21  1.4986e-19  7.3638e-21  1.5454e-19  8.5857e-21  1.6284e-19  1.0945e-20  1.7758e-19
      2.80  5.9007e-21  1.6140e-19  5.9008e-21  1.6140e-19  5.9010e-21  1.6141e-19  5.9013e-21  1.6141e-19  5.9019e-21  1.6141e-19  5.9029e-21  1.6142e-19  5.9048e-21  1.6144e-19  5.9081e-21  1.6147e-19  5.9140e-21  1.6152e-19  5.9244e-21  1.6162e-19  5.9430e-21  1.6178e-19  5.9762e-21  1.6208e-19  6.0353e-21  1.6260e-19  6.1411e-21  1.6354e-19  6.3309e-21  1.6520e-19  6.6740e-21  1.6816e-19  7.3020e-21  1.7341e-19  8.4745e-21  1.8273e-19  1.0735e-20  1.9929e-19
      2.85  5.8962e-21  1.8110e-19  5.8963e-21  1.8110e-19  5.8965e-21  1.8110e-19  5.8968e-21  1.8110e-19  5.8974e-21  1.8111e-19  5.8984e-21  1.8112e-19  5.9002e-21  1.8114e-19  5.9034e-21  1.8117e-19  5.9090e-21  1.8123e-19  5.9191e-21  1.8134e-19  5.9370e-21  1.8152e-19  5.9690e-21  1.8185e-19  6.0260e-21  1.8244e-19  6.1278e-21  1.8349e-19  6.3106e-21  1.8536e-19  6.6409e-21  1.8868e-19  7.2451e-21  1.9458e-19  8.3721e-21  2.0505e-19  1.0541e-20  2.2364e-19
      2.90  5.8921e-21  2.0319e-19  5.8922e-21  2.0320e-19  5.8923e-21  2.0320e-19  5.8926e-21  2.0320e-19  5.8932e-21  2.0321e-19  5.8942e-21  2.0322e-19  5.8959e-21  2.0324e-19  5.8990e-21  2.0328e-19  5.9044e-21  2.0334e-19  5.9142e-21  2.0346e-19  5.9315e-21  2.0367e-19  5.9623e-21  2.0404e-19  6.0173e-21  2.0471e-19  6.1156e-21  2.0589e-19  6.2920e-21  2.0798e-19  6.6107e-21  2.1171e-19  7.1933e-21  2.1833e-19  8.2786e-21  2.3009e-19  1.0364e-20  2.5097e-19
      2.95  5.8882e-21  2.2799e-19  5.8883e-21  2.2799e-19  5.8885e-21  2.2799e-19  5.8888e-21  2.2800e-19  5.8893e-21  2.2800e-19  5.8902e-21  2.2802e-19  5.8919e-21  2.2804e-19  5.8949e-21  2.2808e-19  5.9002e-21  2.2816e-19  5.9096e-21  2.2829e-19  5.9263e-21  2.2852e-19  5.9562e-21  2.2894e-19  6.0094e-21  2.2969e-19  6.1045e-21  2.3101e-19  6.2751e-21  2.3336e-19  6.5833e-21  2.3755e-19  7.1461e-21  2.4498e-19  8.1936e-21  2.5819e-19  1.0202e-20  2.8163e-19
      3.00  5.8846e-21  2.5581e-19  5.8847e-21  2.5581e-19  5.8848e-21  2.5581e-19  5.8851e-21  2.5581e-19  5.8856e-21  2.5582e-19  5.8866e-21  2.5584e-19  5.8882e-21  2.5586e-19  5.8911e-21  2.5591e-19  5.8962e-21  2.5600e-19  5.9053e-21  2.5614e-19  5.9216e-21  2.5641e-19  5.9505e-21  2.5688e-19  6.0021e-21  2.5771e-19  6.0943e-21  2.5920e-19  6.2597e-21  2.6184e-19  6.5583e-21  2.6654e-19  7.1032e-21  2.7488e-19  8.1161e-21  2.8971e-19  1.0055e-20  3.1603e-19
      3.05  5.8812e-21  2.8702e-19  5.8813e-21  2.8702e-19  5.8815e-21  2.8702e-19  5.8818e-21  2.8703e-19  5.8823e-21  2.8704e-19  5.8831e-21  2.8706e-19  5.8847e-21  2.8708e-19  5.8875e-21  2.8714e-19  5.8925e-21  2.8723e-19  5.9014e-21  2.8740e-19  5.9172e-21  2.8769e-19  5.9453e-21  2.8822e-19  5.9954e-21  2.8916e-19  6.0850e-21  2.9083e-19  6.2456e-21  2.9379e-19  6.5354e-21  2.9907e-19  7.0639e-21  3.0844e-19  8.0451e-21  3.2508e-19  9.9190e-21  3.5463e-19
      3.10  5.8781e-21  3.2204e-19  5.8782e-21  3.2204e-19  5.8783e-21  3.2205e-19  5.8786e-21  3.2205e-19  5.8791e-21  3.2206e-19  5.8800e-21  3.2208e-19  5.8815e-21  3.2211e-19  5.8842e-21  3.2217e-19  5.8891e-21  3.2228e-19  5.8977e-21  3.2247e-19  5.9131e-21  3.2280e-19  5.9404e-21  3.2339e-19  5.9892e-21  3.2444e-19  6.0763e-21  3.2632e-19  6.2325e-21  3.2965e-19  6.5142e-21  3.3556e-19  7.0275e-21  3.4608e-19  7.9792e-21  3.6477e-19  9.7929e-21  3.9794e-19
      3.15  5.8752e-21  3.6134e-19  5.8753e-21  3.6134e-19  5.8754e-21  3.6134e-19  5.8757e-21  3.6135e-19  5.8761e-21  3.6136e-19  5.8770e-21  3.6138e-19  5.8785e-21  3.6142e-19  5.8811e-21  3.6148e-19  5.8859e-21  3.6160e-19  5.8943e-21  3.6181e-19  5.9092e-21  3.6219e-19  5.9359e-21  3.6285e-19  5.9834e-21  3.6403e-19  6.0682e-21  3.6614e-19  6.2203e-21  3.6987e-19  6.4944e-21  3.7652e-19  6.9934e-21  3.8832e-19  7.9174e-21  4.0930e-19  9.6745e-21  4.4654e-19
      3.20  5.8725e-21  4.0543e-19  5.8725e-21  4.0543e-19  5.8727e-21  4.0543e-19  5.8729e-21  4.0544e-19  5.8734e-21  4.0545e-19  5.8742e-21  4.0548e-19  5.8757e-21  4.0552e-19  5.8783e-21  4.0559e-19  5.8829e-21  4.0573e-19  5.8911e-21  4.0596e-19  5.9057e-21  4.0638e-19  5.9316e-21  4.0713e-19  5.9779e-21  4.0845e-19  6.0606e-21  4.1081e-19  6.2087e-21  4.1501e-19  6.4756e-21  4.2247e-19  6.9612e-21  4.3572e-19  7.8589e-21  4.5927e-19  9.5623e-21  5.0108e-19
      3.25  5.8699e-21  4.5489e-19  5.8700e-21  4.5490e-19  5.8701e-21  4.5490e-19  5.8704e-21  4.5491e-19  5.8708e-21  4.5493e-19  5.8716e-21  4.5495e-19  5.8731e-21  4.5500e-19  5.8756e-21  4.5508e-19  5.8801e-21  4.5523e-19  5.8881e-21  4.5550e-19  5.9023e-21  4.5597e-19  5.9276e-21  4.5681e-19  5.9728e-21  4.5830e-19  6.0534e-21  4.6094e-19  6.1977e-21  4.6565e-19  6.4577e-21  4.7403e-19  6.9304e-21  4.8890e-19  7.8030e-21  5.1534e-19  9.4554e-21  5.6228e-19
      3.30  5.8676e-21  5.1040e-19  5.8676e-21  5.1040e-19  5.8678e-21  5.1041e-19  5.8680e-21  5.1042e-19  5.8685e-21  5.1043e-19  5.8692e-21  5.1046e-19  5.8706e-21  5.1052e-19  5.8731e-21  5.1061e-19  5.8775e-21  5.1078e-19  5.8853e-21  5.1108e-19  5.8991e-21  5.1160e-19  5.9239e-21  5.1255e-19  5.9679e-21  5.1422e-19  6.0465e-21  5.1719e-19  6.1872e-21  5.2248e-19  6.4406e-21  5.3187e-19  6.9008e-21  5.4858e-19  7.7495e-21  5.7826e-19  9.3532e-21  6.3096e-19
      3.35  5.8654e-21  5.7268e-19  5.8654e-21  5.7268e-19  5.8656e-21  5.7269e-19  5.8658e-21  5.7270e-19  5.8662e-21  5.7272e-19  5.8670e-21  5.7275e-19  5.8684e-21  5.7281e-19  5.8708e-21  5.7292e-19  5.8750e-21  5.7310e-19  5.8826e-21  5.7344e-19  5.8962e-21  5.7403e-19  5.9203e-21  5.7509e-19  5.9632e-21  5.7696e-19  6.0399e-21  5.8030e-19  6.1772e-21  5.8624e-19  6.4242e-21  5.9679e-19  6.8725e-21  6.1554e-19  7.6982e-21  6.4886e-19  9.2553e-21  7.0803e-19
      3.40  5.8633e-21  6.4256e-19  5.8634e-21  6.4256e-19  5.8635e-21  6.4257e-19  5.8638e-21  6.4258e-19  5.8642e-21  6.4260e-19  5.8649e-21  6.4264e-19  5.8662e-21  6.4270e-19  5.8686e-21  6.4282e-19  5.8728e-21  6.4303e-19  5.8802e-21  6.4341e-19  5.8934e-21  6.4407e-19  5.9169e-21  6.4526e-19  5.9588e-21  6.4737e-19  6.0337e-21  6.5111e-19  6.1676e-21  6.5778e-19  6.4084e-21  6.6962e-19  6.8452e-21  6.9067e-19  7.6488e-21  7.2808e-19  9.1613e-21  7.9451e-19
      3.45  5.8614e-21  7.2096e-19  5.8615e-21  7.2096e-19  5.8616e-21  7.2097e-19  5.8618e-21  7.2098e-19  5.8622e-21  7.2101e-19  5.8630e-21  7.2105e-19  5.8643e-21  7.2112e-19  5.8666e-21  7.2126e-19  5.8706e-21  7.2149e-19  5.8779e-21  7.2192e-19  5.8908e-21  7.2266e-19  5.9137e-21  7.2399e-19  5.9547e-21  7.2636e-19  6.0277e-21  7.3057e-19  6.1583e-21  7.3805e-19  6.3932e-21  7.5134e-19  6.8190e-21  7.7498e-19  7.6013e-21  8.1697e-19  9.0713e-21  8.9155e-19
      3.50  5.8596e-21  8.0893e-19  5.8597e-21  8.0893e-19  5.8598e-21  8.0894e-19  5.8601e-21  8.0896e-19  5.8605e-21  8.0898e-19  5.8612e-21  8.0903e-19  5.8624e-21  8.0912e-19  5.8647e-21  8.0926e-19  5.8686e-21  8.0953e-19  5.8757e-21  8.1000e-19  5.8883e-21  8.1084e-19  5.9107e-21  8.1234e-19  5.9507e-21  8.1499e-19  6.0220e-21  8.1972e-19  6.1495e-21  8.2811e-19  6.3787e-21  8.4304e-19  6.7938e-21  8.6957e-19  7.5558e-21  9.1672e-19  8.9849e-21  1.0005e-18
      3.55  5.8580e-21  9.0763e-19  5.8581e-21  9.0764e-19  5.8582e-21  9.0765e-19  5.8584e-21  9.0767e-19  5.8588e-21  9.0770e-19  5.8595e-21  9.0775e-19  5.8607e-21  9.0784e-19  5.8629e-21  9.0801e-19  5.8668e-21  9.0831e-19  5.8737e-21  9.0884e-19  5.8860e-21  9.0978e-19  5.9079e-21  9.1146e-19  5.9469e-21  9.1444e-19  6.0165e-21  9.1974e-19  6.1410e-21  9.2917e-19  6.3647e-21  9.4593e-19  6.7696e-21  9.7572e-19  7.5120e-21  1.0287e-18  8.9021e-21  1.1227e-18
      3.60  5.8565e-21  1.0184e-18  5.8565e-21  1.0184e-18  5.8566e-21  1.0184e-18  5.8569e-21  1.0184e-18  5.8572e-21  1.0185e-18  5.8579e-21  1.0185e-18  5.8591e-21  1.0186e-18  5.8612e-21  1.0188e-18  5.8650e-21  1.0191e-18  5.8718e-21  1.0197e-18  5.8838e-21  1.0208e-18  5.9052e-21  1.0227e-18  5.9433e-21  1.0260e-18  6.0113e-21  1.0320e-18  6.1329e-21  1.0426e-18  6.3512e-21  1.0614e-18  6.7463e-21  1.0948e-18  7.4700e-21  1.1542e-18  8.8228e-21  1.2598e-18
      3.65  5.8550e-21  1.1426e-18  5.8551e-21  1.1426e-18  5.8552e-21  1.1427e-18  5.8554e-21  1.1427e-18  5.8558e-21  1.1427e-18  5.8564e-21  1.1428e-18  5.8576e-21  1.1429e-18  5.8597e-21  1.1431e-18  5.8634e-21  1.1435e-18  5.8700e-21  1.1442e-18  5.8818e-21  1.1454e-18  5.9027e-21  1.1475e-18  5.9399e-21  1.1512e-18  6.0063e-21  1.1579e-18  6.1251e-21  1.1698e-18  6.3383e-21  1.1909e-18  6.7239e-21  1.2285e-18  7.4296e-21  1.2952e-18  8.7467e-21  1.4137e-18
      3.70  5.8537e-21  1.2821e-18  5.8538e-21  1.2821e-18  5.8539e-21  1.2821e-18  5.8541e-21  1.2821e-18  5.8544e-21  1.2822e-18  5.8551e-21  1.2822e-18  5.8562e-21  1.2824e-18  5.8583e-21  1.2826e-18  5.8619e-21  1.2830e-18  5.8684e-21  1.2838e-18  5.8798e-21  1.2851e-18  5.9003e-21  1.2875e-18  5.9367e-21  1.2917e-18  6.0016e-21  1.2992e-18  6.1177e-21  1.3125e-18  6.3260e-21  1.3363e-18  6.7025e-21  1.3784e-18  7.3909e-21  1.4533e-18  8.6739e-21  1.5864e-18
      3.75  5.8525e-21  1.4385e-18  5.8525e-21  1.4385e-18  5.8526e-21  1.4385e-18  5.8528e-21  1.4386e-18  5.8532e-21  1.4386e-18  5.8538e-21  1.4387e-18  5.8549e-21  1.4388e-18  5.8569e-21  1.4391e-18  5.8605e-21  1.4396e-18  5.8668e-21  1.4404e-18  5.8780e-21  1.4419e-18  5.8980e-21  1.4446e-18  5.9336e-21  1.4493e-18  5.9971e-21  1.4577e-18  6.1106e-21  1.4727e-18  6.3142e-21  1.4993e-18  6.6819e-21  1.5467e-18  7.3538e-21  1.6308e-18  8.6043e-21  1.7801e-18
      3.80  5.8513e-21  1.6140e-18  5.8514e-21  1.6140e-18  5.8515e-21  1.6141e-18  5.8517e-21  1.6141e-18  5.8520e-21  1.6141e-18  5.8526e-21  1.6142e-18  5.8537e-21  1.6144e-18  5.8557e-21  1.6147e-18  5.8592e-21  1.6152e-18  5.8653e-21  1.6162e-18  5.8763e-21  1.6179e-18  5.8959e-21  1.6208e-18  5.9307e-21  1.6262e-18  5.9928e-21  1.6356e-18  6.1038e-21  1.6524e-18  6.3029e-21  1.6823e-18  6.6623e-21  1.7355e-18  7.3184e-21  1.8299e-18  8.5377e-21  1.9976e-18
      3.85  5.8503e-21  1.8110e-18  5.8503e-21  1.8110e-18  5.8504e-21  1.8110e-18  5.8506e-21  1.8110e-18  5.8509e-21  1.8111e-18  5.8516e-21  1.8112e-18  5.8526e-21  1.8114e-18  5.8545e-21  1.8117e-18  5.8579e-21  1.8123e-18  5.8640e-21  1.8134e-18  5.8747e-21  1.8153e-18  5.8939e-21  1.8186e-18  5.9280e-21  1.8246e-18  5.9887e-21  1.8352e-18  6.0973e-21  1.8541e-18  6.2921e-21  1.8876e-18  6.6435e-21  1.9473e-18  7.2846e-21  2.0533e-18  8.4744e-21  2.2416e-18
      3.90  5.8493e-21  2.0319e-18  5.8493e-21  2.0320e-18  5.8494e-21  2.0320e-18  5.8496e-21  2.0320e-18  5.8499e-21  2.0321e-18  5.8505e-21  2.0322e-18  5.8516e-21  2.0324e-18  5.8535e-21  2.0328e-18  5.8568e-21  2.0335e-18  5.8627e-21  2.0346e-18  5.8732e-21  2.0368e-18  5.8920e-21  2.0405e-18  5.9254e-21  2.0472e-18  5.9849e-21  2.0592e-18  6.0912e-21  2.0804e-18  6.2819e-21  2.1180e-18  6.6258e-21  2.1850e-18  7.2525e-21  2.3040e-18  8.4142e-21  2.5154e-18
      3.95  5.8483e-21  2.2799e-18  5.8484e-21  2.2799e-18  5.8485e-21  2.2799e-18  5.8487e-21  2.2800e-18  5.8490e-21  2.2800e-18  5.8496e-21  2.2802e-18  5.8506e-21  2.2804e-18  5.8525e-21  2.2808e-18  5.8557e-21  2.2816e-18  5.8615e-21  2.2829e-18  5.8718e-21  2.2853e-18  5.8902e-21  2.2895e-18  5.9229e-21  2.2971e-18  5.9813e-21  2.3104e-18  6.0854e-21  2.3342e-18  6.2722e-21  2.3765e-18  6.6089e-21  2.4517e-18  7.2221e-21  2.5853e-18  8.3573e-21  2.8227e-18
