# This was generated using Cloudy10 and the columns are ordered 
# as log10 of the fraction of the metallicity to the solar metallicity
# 'h_*_Z' and 'c_*_Z' stands for cooling and heating respectively 
# at * metalicity
#
# Redshift = 1.0
# hden = 2.5
#     temp   h_-3.00_Z   c_-3.00_Z   h_-2.75_Z   c_-2.75_Z   h_-2.50_Z   c_-2.50_Z   h_-2.25_Z   c_-2.25_Z   h_-2.00_Z   c_-2.00_Z   h_-1.75_Z   c_-1.75_Z   h_-1.50_Z   c_-1.50_Z   h_-1.25_Z   c_-1.25_Z   h_-1.00_Z   c_-1.00_Z   h_-0.75_Z   c_-0.75_Z   h_-0.50_Z   c_-0.50_Z   h_-0.25_Z   c_-0.25_Z    h_0.00_Z    c_0.00_Z    h_0.25_Z    c_0.25_Z    h_0.50_Z    c_0.50_Z    h_0.75_Z    c_0.75_Z    h_1.00_Z    c_1.00_Z    h_1.25_Z    c_1.25_Z    h_1.50_Z    c_1.50_Z 
      4.00  1.8579e-26  3.2658e-25  1.8579e-26  3.2714e-25  1.858e-26  3.2813e-25  1.858e-26  3.299e-25  1.8581e-26  3.3305e-25  1.8583e-26  3.3864e-25  1.8585e-26  3.4859e-25  1.859e-26  3.6628e-25  1.8598e-26  3.9775e-25  1.8612e-26  4.5372e-25  1.8638e-26  5.5337e-25  1.8684e-26  7.3089e-25  1.8765e-26  1.0473e-24  1.8909e-26  1.6109e-24  1.9163e-26  2.6125e-24  1.9611e-26  4.384e-24  2.0398e-26  7.4876e-24  2.1771e-26  1.286e-23  2.4177e-26  2.2031e-23
      4.05  1.8503e-26  1.2682e-24  1.8503e-26  1.2689e-24  1.8504e-26  1.2703e-24  1.8504e-26  1.2728e-24  1.8505e-26  1.2772e-24  1.8507e-26  1.2851e-24  1.851e-26  1.299e-24  1.8515e-26  1.3238e-24  1.8524e-26  1.3678e-24  1.854e-26  1.446e-24  1.8569e-26  1.5851e-24  1.8621e-26  1.8325e-24  1.8712e-26  2.2725e-24  1.8873e-26  3.0543e-24  1.9159e-26  4.4377e-24  1.9661e-26  6.8668e-24  2.0538e-26  1.1075e-23  2.2056e-26  1.8214e-23  2.4674e-26  3.0043e-23
      4.10  1.7981e-26  5.0787e-24  1.7981e-26  5.0801e-24  1.7982e-26  5.0824e-24  1.7982e-26  5.0866e-24  1.7983e-26  5.0939e-24  1.7985e-26  5.1071e-24  1.7989e-26  5.1304e-24  1.7995e-26  5.1718e-24  1.8006e-26  5.2452e-24  1.8025e-26  5.3757e-24  1.8059e-26  5.6075e-24  1.812e-26  6.0193e-24  1.8229e-26  6.7501e-24  1.8421e-26  8.0445e-24  1.876e-26  1.0326e-23  1.9357e-26  1.4312e-23  2.0395e-26  2.116e-23  2.2178e-26  3.2622e-23  2.5176e-26  5.1021e-23
      4.15  1.5505e-26   2.52e-23  1.5506e-26  2.5203e-23  1.5506e-26  2.5209e-23  1.5507e-26  2.522e-23  1.5509e-26  2.5239e-23  1.5511e-26  2.5274e-23  1.5516e-26  2.5334e-23  1.5525e-26  2.5443e-23  1.5541e-26  2.5635e-23  1.557e-26  2.5976e-23  1.562e-26  2.6584e-23  1.571e-26  2.7662e-23  1.5869e-26  2.9577e-23  1.6152e-26  3.2973e-23  1.6652e-26  3.8978e-23  1.7532e-26  4.9545e-23  1.9072e-26  6.7969e-23  2.1723e-26  9.9566e-23  2.6173e-26  1.5217e-22
      4.20  1.0043e-26  8.6071e-23  1.0043e-26  8.608e-23  1.0044e-26  8.6097e-23  1.0045e-26  8.6126e-23  1.0047e-26  8.6178e-23  1.005e-26  8.627e-23  1.0056e-26  8.6435e-23  1.0067e-26  8.6727e-23  1.0086e-26  8.7247e-23  1.012e-26  8.8172e-23  1.0181e-26  8.9816e-23  1.0289e-26  9.2741e-23  1.0481e-26  9.794e-23  1.0822e-26  1.0719e-22  1.1427e-26  1.2364e-22  1.2502e-26  1.5289e-22  1.441e-26  2.0491e-22  1.7784e-26  2.9736e-22  2.3725e-26  4.6157e-22
      4.25  5.1643e-27  1.2947e-22  5.1644e-27  1.2949e-22  5.1644e-27  1.2951e-22  5.1646e-27  1.2956e-22  5.1648e-27  1.2964e-22  5.1652e-27  1.298e-22  5.166e-27  1.3006e-22  5.1673e-27  1.3054e-22  5.1697e-27  1.3139e-22  5.1739e-27  1.3289e-22  5.1813e-27  1.3557e-22  5.1946e-27  1.4034e-22  5.2184e-27  1.4882e-22  5.2609e-27  1.6391e-22  5.3373e-27  1.908e-22  5.4756e-27  2.3877e-22  5.7289e-27  3.2457e-22  6.2017e-27  4.7867e-22  7.1131e-27  7.5758e-22
      4.30  2.814e-27  1.2055e-22  2.8134e-27  1.2056e-22  2.8123e-27  1.206e-22  2.8104e-27  1.2065e-22  2.807e-27  1.2076e-22  2.8009e-27  1.2094e-22  2.7901e-27  1.2127e-22  2.7708e-27  1.2185e-22  2.7526e-27  1.2288e-22  2.7554e-27  1.2471e-22  2.7603e-27  1.2797e-22  2.7691e-27  1.3377e-22  2.7849e-27  1.441e-22  2.8136e-27  1.6247e-22  2.8662e-27  1.9523e-22  2.9637e-27  2.5369e-22  3.1467e-27  3.5836e-22  3.4934e-27  5.4673e-22  4.1516e-27  8.8875e-22
      4.35  1.9266e-27  9.5695e-23  1.9252e-27  9.5717e-23  1.9227e-27  9.5756e-23  1.9182e-27  9.5825e-23  1.9101e-27  9.5949e-23  1.8959e-27  9.6169e-23  1.8705e-27  9.656e-23  1.8255e-27  9.7256e-23  1.8173e-27  9.8493e-23  1.8194e-27  1.0069e-22  1.8232e-27  1.0461e-22  1.8302e-27  1.1157e-22  1.8432e-27  1.2397e-22  1.8678e-27  1.4603e-22  1.9163e-27  1.8536e-22  2.0144e-27  2.5556e-22  2.2172e-27  3.8129e-22  2.6374e-27  6.0765e-22  3.4158e-27  1.019e-21
      4.40  1.5148e-27  7.4687e-23  1.5126e-27  7.4715e-23  1.5087e-27  7.4763e-23  1.5017e-27  7.485e-23  1.4892e-27  7.5004e-23  1.467e-27  7.5279e-23  1.4276e-27  7.5766e-23  1.3575e-27  7.6634e-23  1.3099e-27  7.8176e-23  1.3118e-27  8.092e-23  1.3154e-27   8.58e-23  1.3222e-27  9.4481e-23  1.3359e-27  1.0993e-22  1.3643e-27  1.3743e-22  1.4267e-27  1.8645e-22  1.5678e-27  2.7395e-22  1.8844e-27  4.306e-22  2.3797e-27  7.1262e-22  3.1283e-27  1.225e-21
      4.45  1.0927e-27  6.0072e-23  1.0898e-27  6.0108e-23  1.0846e-27  6.017e-23  1.0754e-27  6.0281e-23  1.059e-27  6.0479e-23  1.0299e-27  6.083e-23  9.7814e-28  6.1455e-23  8.8608e-28  6.2566e-23  8.1198e-28  6.4542e-23  8.1413e-28  6.8057e-23  8.1842e-28  7.4308e-23  8.2749e-28  8.5428e-23  8.4785e-28  1.0521e-22  8.959e-28  1.4044e-22  1.0122e-27  2.032e-22  1.2513e-27  3.1519e-22  1.6207e-27  5.1565e-22  2.1907e-27  8.7622e-22  3.1317e-27  1.5306e-21
      4.50  6.6716e-28  4.8669e-23  6.6371e-28  4.8714e-23  6.5757e-28  4.8795e-23  6.4666e-28  4.8938e-23  6.2725e-28  4.9193e-23  5.9275e-28  4.9647e-23  5.3141e-28  5.0454e-23  4.224e-28  5.1888e-23  4.0841e-28  5.4439e-23  4.1153e-28  5.8976e-23  4.1879e-28  6.7045e-23  4.3666e-28  8.1399e-23  4.8201e-28  1.0694e-22  5.9694e-28  1.524e-22  8.0676e-28  2.3341e-22  1.121e-27  3.7799e-22  1.6182e-27  6.3674e-22  2.302e-27  1.1021e-21  3.3766e-27  1.9466e-21
      4.55  3.9295e-28  3.9107e-23  3.8924e-28  3.9165e-23  3.8264e-28  3.9269e-23  3.709e-28  3.9454e-23  3.5004e-28  3.9782e-23  3.1294e-28  4.0367e-23  2.4701e-28  4.1405e-23  2.001e-28  4.3253e-23  2.0176e-28  4.6538e-23  2.0567e-28  5.2382e-23  2.1552e-28  6.2774e-23  2.414e-28  8.1262e-23  3.1007e-28  1.1416e-22  4.3105e-28  1.7273e-22  6.3202e-28  2.7712e-22  9.8007e-28  4.6347e-22  1.4688e-27  7.9716e-22  2.2536e-27  1.3979e-21  3.5433e-27  2.4894e-21
      4.60  2.5005e-28  3.1657e-23  2.4647e-28  3.1732e-23  2.401e-28  3.1866e-23  2.2876e-28  3.2103e-23  2.0862e-28  3.2524e-23  1.7281e-28  3.3274e-23  1.1402e-28  3.4607e-23  1.1485e-28  3.6977e-23  1.1677e-28  4.1193e-23  1.2158e-28  4.869e-23  1.343e-28  6.2026e-23  1.6904e-28  8.5749e-23  2.3395e-28  1.2797e-22  3.5634e-28  2.0315e-22  5.5941e-28  3.3716e-22  9.024e-28  5.765e-22  1.4336e-27  1.0053e-21   2.28e-27  1.7782e-21  3.7149e-27  3.1854e-21
      4.65  1.7686e-28  2.6861e-23  1.7376e-28  2.6957e-23  1.6824e-28  2.7128e-23  1.5843e-28  2.743e-23  1.4099e-28  2.7969e-23    1.1e-28  2.8927e-23  7.9918e-29  3.0631e-23  8.088e-29  3.366e-23  8.3156e-29  3.9048e-23  8.8945e-29  4.863e-23  1.0452e-28  6.5675e-23  1.3927e-28  9.5998e-23  2.0708e-28  1.4997e-22  3.2786e-28  2.4608e-22  5.6319e-28  4.1745e-22  9.3832e-28  7.2362e-22  1.5293e-27  1.2726e-21  2.4984e-27  2.2633e-21  4.1632e-27  4.0706e-21
      4.70  1.3829e-28  2.5648e-23  1.3585e-28  2.577e-23  1.3151e-28  2.5988e-23  1.238e-28  2.6374e-23  1.1009e-28  2.706e-23  8.5739e-29  2.8281e-23  6.7115e-29  3.0453e-23  6.8355e-29  3.4315e-23  7.1218e-29  4.1182e-23  7.8348e-29  5.3397e-23  9.7282e-29  7.5125e-23  1.3587e-28  1.1378e-22  2.1605e-28  1.8259e-22  3.6577e-28  3.0515e-22  6.1041e-28  5.2374e-22  1.0076e-27  9.1449e-22  1.6822e-27  1.6158e-21  2.8146e-27  2.8832e-21  4.7768e-27  5.2018e-21
      4.75  1.1665e-28  3.0291e-23  1.1489e-28  3.0446e-23  1.1177e-28  3.0721e-23  1.0622e-28  3.121e-23  9.6366e-29  3.2079e-23  7.8866e-29  3.3625e-23  6.3604e-29  3.6375e-23  6.5428e-29  4.1264e-23  6.9526e-29  4.996e-23  7.9484e-29  6.5427e-23  1.0502e-28  9.294e-23  1.5441e-28  1.4189e-22  2.4428e-28  2.2904e-22  4.0074e-28  3.843e-22  6.7483e-28  6.6132e-22  1.1361e-27  1.1568e-21  1.9161e-27  2.0472e-21  3.2428e-27  3.6594e-21  5.5826e-27  6.6182e-21
      4.80  1.0125e-28  4.3886e-23  1.0013e-28  4.4079e-23  9.8136e-29  4.4423e-23   9.46e-29  4.5034e-23  8.8326e-29  4.6122e-23  7.7212e-29  4.8055e-23   6.32e-29  5.1494e-23  6.6072e-29  5.7609e-23   7.25e-29  6.8485e-23  8.8083e-29  8.7829e-23  1.2182e-28  1.2224e-22  1.7787e-28  1.8348e-22  2.8199e-28  2.925e-22  4.6721e-28  4.8678e-22  7.8735e-28  8.3354e-22  1.3352e-27  1.4542e-21  2.2899e-27  2.5708e-21  3.941e-27  4.5967e-21  6.8925e-27  8.3264e-21
      4.85  8.3614e-29  6.5129e-23  8.3087e-29  6.5366e-23  8.2153e-29  6.5788e-23   8.05e-29  6.6539e-23  7.7584e-29  6.7874e-23  7.2473e-29  7.0249e-23  6.3625e-29  7.4472e-23  6.4907e-29  8.1981e-23  7.5335e-29  9.5337e-23  9.7742e-29  1.1909e-22  1.3885e-28  1.6136e-22   2.11e-28  2.3656e-22  3.4238e-28  3.7048e-22  5.7149e-28  6.0917e-22  9.6857e-28  1.0354e-21  1.6552e-27  1.7987e-21  2.8368e-27  3.1734e-21  4.8609e-27  5.6722e-21  8.4646e-27  1.0286e-20
      4.90  6.1457e-29  8.0876e-23  6.1258e-29  8.1159e-23  6.1566e-29  8.1662e-23  6.171e-29  8.2556e-23  6.2016e-29  8.4147e-23  6.2711e-29  8.6976e-23  6.4436e-29  9.2007e-23  6.9028e-29  1.0095e-22  8.0707e-29  1.1687e-22  1.0857e-28  1.4517e-22  1.6415e-28  1.9552e-22  2.6437e-28  2.8513e-22  4.4474e-28  4.4469e-22  7.5097e-28  7.2913e-22  1.264e-27  1.2371e-21  2.125e-27  2.1472e-21  3.5822e-27  3.7872e-21  6.0193e-27  6.7714e-21  1.0347e-26  1.2292e-20
      4.95  4.1426e-29  7.9698e-23  4.1872e-29  8.0022e-23  4.2678e-29   8.06e-23  4.4145e-29  8.1626e-23  4.687e-29  8.3451e-23  5.2072e-29  8.6697e-23  6.2445e-29  9.2469e-23  8.4187e-29  1.0273e-22  1.2728e-28  1.2099e-22  2.0471e-28  1.5346e-22  3.4229e-28  2.1123e-22  5.861e-28  3.1405e-22  1.0008e-27  4.9713e-22  1.7017e-27  8.2351e-22  2.8789e-27  1.4064e-21  4.8596e-27  2.451e-21  8.2062e-27  4.334e-21  1.4017e-26  7.7625e-21  2.4394e-26  1.4112e-20
      5.00  2.8347e-29  6.7668e-23  2.9159e-29  6.8026e-23  3.0313e-29  6.8661e-23  3.2457e-29  6.9792e-23  3.6565e-29  7.1803e-23  4.4779e-29  7.5378e-23  6.2065e-29  8.1736e-23  9.862e-29  9.3044e-23  1.6871e-28  1.1316e-22  2.9705e-28  1.4893e-22  5.1036e-28  2.1257e-22  8.7089e-28  3.2584e-22  1.4703e-27  5.2757e-22  2.4488e-27  8.8724e-22  4.0389e-27  1.5298e-21  6.6621e-27  2.682e-21  1.1065e-26  4.7608e-21  1.8712e-26  8.5519e-21  3.2214e-26  1.5593e-20
      5.05  2.1888e-29  5.4651e-23  2.2291e-29  5.4477e-23  2.3628e-29  5.513e-23  2.628e-29  5.6291e-23  3.1846e-29  5.8356e-23  4.3918e-29  6.2029e-23  6.8344e-29  6.856e-23  1.2412e-28  8.0175e-23  2.3632e-28  1.0083e-22  4.0808e-28  1.3758e-22  6.8851e-28  2.0296e-22  1.1389e-27  3.1933e-22  1.849e-27  5.266e-22  2.9359e-27  8.9627e-22  4.6339e-27  1.557e-21  7.3696e-27  2.7427e-21  1.1984e-26  4.8849e-21  1.9981e-26  8.801e-21  3.3686e-26  1.6103e-20
      5.10  1.8047e-29  4.2703e-23  1.8832e-29  4.3061e-23  2.0334e-29  4.3696e-23  2.4209e-29  4.4826e-23  3.3085e-29  4.6835e-23  4.9643e-29  5.0408e-23  8.7894e-29  5.6761e-23  1.7944e-28  6.8061e-23  3.2489e-28  8.8158e-23  5.4961e-28  1.2391e-22  8.9138e-28  1.8752e-22  1.4016e-27  3.0075e-22  2.1482e-27  5.0247e-22  3.2339e-27  8.6231e-22  4.887e-27  1.5058e-21  7.407e-27  2.6615e-21  1.1526e-26  4.7528e-21  1.8762e-26  8.5854e-21  3.1605e-26  1.5761e-20
      5.15  1.627e-29  3.3955e-23  1.7267e-29  3.4309e-23  1.9679e-29  3.4941e-23  2.5972e-29  3.6063e-23  3.8141e-29  3.8059e-23  6.4794e-29  4.1608e-23  1.2898e-28  4.792e-23  2.4837e-28  5.9145e-23  4.3702e-28  7.9111e-23  7.1143e-28  1.1463e-22  1.0938e-27  1.7783e-22  1.6287e-27  2.9033e-22  2.3757e-27  4.9079e-22  3.4328e-27  8.4846e-22  4.7266e-27  1.4884e-21  6.9007e-27  2.6384e-21  1.0668e-26  4.722e-21  1.735e-26  8.5485e-21  2.9323e-26  1.5737e-20
      5.20  1.5453e-29  2.7415e-23  1.7157e-29  2.8059e-23  2.0824e-29  2.8431e-23  3.1192e-29  2.9588e-23  4.9384e-29  3.1646e-23  9.4185e-29  3.5304e-23  1.9759e-28  4.181e-23  3.3914e-28  5.3381e-23  5.5362e-28  7.3961e-23  8.6782e-28  1.1057e-22  1.2823e-27  1.7572e-22  1.8287e-27  2.9171e-22  2.5402e-27  4.9838e-22  3.2468e-27  8.6724e-22  4.421e-27  1.5274e-21  6.4632e-27  2.7145e-21  1.0082e-26  4.8675e-21  1.6566e-26  8.8287e-21  2.8324e-26  1.6292e-20
      5.25  1.5214e-29  2.2515e-23  1.7481e-29  2.2892e-23  2.3804e-29  2.3562e-23  3.9975e-29  2.4754e-23  7.4165e-29  2.6873e-23  1.3525e-28  3.0643e-23  2.5304e-28  3.7346e-23  4.1961e-28  4.9267e-23  6.4907e-28  7.0472e-23  9.7797e-28  1.082e-22  1.414e-27  1.7532e-22  1.9741e-27  2.9484e-22  2.4195e-27  5.0784e-22  3.1462e-27  8.8806e-22  4.3948e-27  1.5688e-21  6.5753e-27  2.7937e-21  1.0425e-26  5.0177e-21  1.7346e-26  9.117e-21  3.0056e-26  1.6864e-20
      5.30  1.5578e-29  1.8805e-23  1.9367e-29  1.9188e-23  3.1177e-29  1.9869e-23  6.1492e-29  2.1081e-23  9.9282e-29  2.3235e-23  1.6951e-28  2.7067e-23  2.9695e-28  3.3881e-23  4.6708e-28    4.6e-23  7.1461e-28  6.7557e-23  1.0361e-27  1.0591e-22  1.5099e-27  1.7415e-22  1.9026e-27  2.9567e-22  2.3907e-27  5.1226e-22  3.1134e-27  8.9897e-22  4.3031e-27  1.5916e-21  6.3775e-27  2.8388e-21  9.9261e-27  5.106e-21  1.6365e-26  9.2935e-21  2.8267e-26  1.7233e-20
      5.35  1.6773e-29  1.5975e-23  2.3909e-29  1.6365e-23  4.4733e-29  1.7059e-23  7.6799e-29  1.8292e-23  1.1957e-28  2.0485e-23  1.9121e-28  2.4385e-23  3.2089e-28  3.1321e-23  4.9274e-28  4.3657e-23  7.3603e-28   6.56e-23  1.1137e-27  1.0464e-22  1.5483e-27  1.7411e-22  1.837e-27  2.9782e-22  2.275e-27  5.1835e-22  2.9657e-27  9.122e-22  4.116e-27  1.6179e-21  6.0159e-27  2.8895e-21  9.4228e-27  5.2039e-21  1.5594e-26  9.4872e-21  2.7055e-26  1.7634e-20
      5.40  1.7802e-29  1.3765e-23  2.772e-29  1.4145e-23  5.1716e-29  1.482e-23  7.9861e-29  1.6022e-23  1.2545e-28  1.8158e-23  1.9219e-28  2.1958e-23  3.1019e-28  2.8715e-23  5.0853e-28  4.0733e-23  7.7158e-28  6.2111e-23  1.2075e-27  1.0014e-22  1.4854e-27  1.6783e-22  1.7824e-27  2.8838e-22  2.2483e-27  5.0329e-22  2.9786e-27  8.8721e-22  4.1938e-27  1.5754e-21  6.1819e-27  2.8167e-21  9.6525e-27  5.0789e-21  1.598e-26  9.2757e-21  2.7742e-26  1.7289e-20
      5.45  1.6196e-29  1.197e-23  2.3798e-29  1.2288e-23  4.5247e-29  1.2855e-23  6.9499e-29  1.3862e-23  1.0644e-28  1.5653e-23  1.7246e-28  1.8839e-23  2.8363e-28  2.4503e-23  4.6533e-28  3.4579e-23  7.8829e-28  5.2499e-23  1.2659e-27  8.4382e-23  1.4982e-27  1.4113e-22  1.8468e-27  2.4221e-22  2.3716e-27  4.2245e-22  3.0948e-27  7.4455e-22  4.263e-27  1.3223e-21  6.2091e-27  2.3656e-21  9.6023e-27  4.2706e-21  1.5752e-26  7.816e-21  2.7262e-26  1.462e-20
      5.50  1.3421e-29  1.0474e-23  1.6482e-29  1.0704e-23  2.5122e-29  1.1112e-23  5.0046e-29  1.1838e-23  8.3817e-29  1.313e-23  1.4191e-28  1.5426e-23  2.506e-28  1.9511e-23  4.4022e-28  2.6775e-23  7.5998e-28  3.9695e-23  1.2134e-27  6.2682e-23  1.5719e-27  1.036e-22  1.9728e-27  1.7649e-22  2.4153e-27  3.065e-22  3.0706e-27  5.3891e-22  4.0281e-27  9.5608e-22  5.6323e-27  1.7102e-21  8.4502e-27  3.0898e-21  1.3546e-26  5.6657e-21  2.3049e-26  1.0633e-20
      5.55  1.2091e-29  9.308e-24  1.3482e-29  9.4806e-24  1.7837e-29  9.7877e-24  2.9854e-29  1.0334e-23  6.1584e-29  1.1305e-23  1.2516e-28  1.3032e-23  2.4114e-28  1.6103e-23  4.4816e-28  2.1565e-23  7.9223e-28  3.1281e-23  1.2097e-27  4.8567e-23  1.6034e-27  7.934e-23   1.97e-27  1.3416e-22  2.3511e-27  2.3196e-22  2.8345e-27  4.0683e-22  3.6012e-27  7.2085e-22  4.8456e-27  1.2889e-21  7.0405e-27  2.3295e-21  1.103e-26  4.2762e-21  1.8427e-26  8.0425e-21
      5.60  1.1548e-29  8.4113e-24  1.3113e-29  8.5612e-24  1.7603e-29  8.8278e-24  3.0667e-29  9.3017e-24  5.5707e-29  1.0145e-23  1.1495e-28  1.1644e-23  2.4926e-28  1.4309e-23  4.7577e-28  1.905e-23  8.6925e-28  2.7482e-23  1.2031e-27  4.2488e-23  1.5705e-27   6.92e-23  1.8163e-27  1.1679e-22  2.0984e-27  2.0169e-22  2.4982e-27  3.5354e-22  3.1321e-27  6.2626e-22   4.16e-27  1.1198e-21  5.9605e-27  2.0246e-21  9.2273e-27  3.7194e-21  1.5283e-26  7.0045e-21
      5.65  1.108e-29  7.7117e-24  1.308e-29  7.8548e-24  1.8903e-29  8.1092e-24  3.5034e-29  8.5617e-24  6.7173e-29  9.3663e-24  1.3123e-28  1.0797e-23  2.6247e-28  1.3342e-23  5.0854e-28  1.7867e-23  9.2031e-28  2.5916e-23  1.2121e-27  4.0241e-23  1.5126e-27  6.5743e-23  1.6848e-27  1.1118e-22  1.9323e-27  1.9224e-22  2.2798e-27  3.3723e-22  2.8592e-27  5.9769e-22  3.7974e-27  1.0692e-21  5.4513e-27  1.934e-21  8.4486e-27  3.5554e-21  1.4026e-26  6.7022e-21
      5.70  1.0804e-29  7.155e-24  1.3291e-29  7.295e-24  2.0555e-29  7.5441e-24  4.1537e-29  7.9869e-24  7.5289e-29  8.7745e-24  1.4722e-28  1.0175e-23  2.9659e-28  1.2665e-23  5.7319e-28  1.7094e-23  9.0214e-28  2.4974e-23  1.136e-27  3.8996e-23  1.3565e-27  6.3959e-23  1.5305e-27  1.0844e-22  1.7508e-27  1.8779e-22  2.0736e-27  3.2973e-22  2.6213e-27  5.8477e-22  3.5462e-27  1.0466e-21  5.1717e-27  1.8941e-21  8.1296e-27  3.4842e-21  1.366e-26  6.5743e-21
      5.75  1.0181e-29  6.648e-24  1.2887e-29  6.7814e-24  2.0697e-29  7.0186e-24  4.1024e-29  7.4403e-24  8.1597e-29  8.1901e-24  1.6275e-28  9.5236e-24  3.351e-28  1.1895e-23  6.0426e-28  1.6112e-23  8.0035e-28  2.3617e-23  9.8196e-28  3.697e-23  1.1263e-27  6.0743e-23  1.2983e-27  1.031e-22  1.5093e-27  1.7868e-22  1.8384e-27  3.1388e-22  2.3806e-27  5.5685e-22  3.3067e-27  9.9698e-22  4.9626e-27  1.8051e-21  7.9931e-27  3.3228e-21  1.3698e-26  6.2764e-21
      5.80  9.5132e-30  6.2574e-24  1.2097e-29  6.3799e-24  1.9605e-29  6.5977e-24  4.0031e-29  6.985e-24  8.5233e-29  7.6736e-24  1.8249e-28  8.8981e-24  3.4512e-28  1.1076e-23  5.4147e-28  1.495e-23  6.8592e-28  2.1842e-23  8.365e-28  3.4107e-23  9.4947e-28  5.5942e-23  1.1328e-27  9.4846e-23  1.3558e-27  1.6427e-22  1.6918e-27  2.8848e-22  2.2655e-27  5.1175e-22  3.2642e-27  9.1635e-22  5.0506e-27  1.6597e-21  8.3515e-27  3.0573e-21  1.4623e-26  5.7817e-21
      5.85  9.119e-30  5.9602e-24  1.2185e-29  6.0756e-24  2.0301e-29  6.2809e-24  4.1558e-29  6.6459e-24  9.4133e-29  7.295e-24  2.0202e-28  8.4491e-24  3.2311e-28  1.0502e-23  4.7872e-28  1.4154e-23  6.0242e-28  2.0652e-23  7.5363e-28  3.2213e-23  8.8698e-28  5.2797e-23  1.0476e-27  8.9474e-23  1.2892e-27  1.5493e-22  1.6664e-27  2.7205e-22  2.3215e-27  4.8262e-22  3.4695e-27  8.6436e-22  5.5485e-27  1.5662e-21  9.4033e-27  2.8871e-21  1.678e-26  5.466e-21
      5.90  8.8601e-30  5.7436e-24  1.2575e-29  5.8589e-24  2.2225e-29  6.0638e-24  4.675e-29  6.4282e-24  1.0367e-28  7.076e-24  2.0422e-28  8.2283e-24  3.2636e-28  1.0278e-23  4.3491e-28  1.3924e-23  5.749e-28  2.041e-23  7.1039e-28  3.1952e-23  8.4269e-28  5.2501e-23  1.0094e-27  8.9118e-23  1.2851e-27  1.5447e-22  1.7476e-27  2.7142e-22  2.5423e-27  4.8172e-22  3.9584e-27  8.6312e-22  6.537e-27  1.5647e-21  1.1344e-26  2.8864e-21  2.0609e-26  5.4709e-21
      5.95  8.4869e-30  5.589e-24  1.2597e-29  5.7066e-24  2.3514e-29  5.9158e-24  5.0944e-29  6.2876e-24  1.1395e-28  6.9489e-24  2.1497e-28  8.1249e-24  3.3976e-28  1.0319e-23  4.4546e-28  1.3938e-23  5.5654e-28  2.0559e-23  6.7774e-28  3.234e-23   8.35e-28  5.3314e-23  1.0211e-27  9.0691e-23  1.3273e-27  1.574e-22  1.8633e-27  2.768e-22  2.8057e-27  4.9156e-22  4.4891e-27  8.8116e-22  7.5686e-27  1.5983e-21  1.3331e-26  2.9506e-21  2.4495e-26  5.5989e-21
      6.00  7.8396e-30  5.4797e-24  1.1785e-29  5.5977e-24  2.2434e-29  5.8076e-24  4.924e-29  6.1807e-24  1.132e-28  6.8441e-24  2.3025e-28  8.0239e-24  3.5284e-28  1.0224e-23  4.5364e-28  1.3856e-23  5.6508e-28  2.0498e-23  6.9502e-28  3.2317e-23  8.5671e-28  5.3361e-23  1.0919e-27  9.0862e-23  1.4748e-27  1.578e-22  2.1466e-27  2.7762e-22  3.3428e-27  4.9319e-22  5.5055e-27  8.8442e-22  9.4694e-27  1.6051e-21  1.6912e-26  2.9655e-21  3.1402e-26  5.634e-21
      6.05  7.023e-30  5.4228e-24  1.0251e-29  5.5375e-24  1.9325e-29  5.7414e-24  4.3751e-29  6.104e-24  1.0288e-28  6.7486e-24  2.3065e-28  7.8947e-24  3.5407e-28  9.9336e-24  4.6549e-28  1.3561e-23  5.8008e-28  2.0014e-23  7.1061e-28  3.1497e-23  8.7591e-28  5.1944e-23  1.1452e-27  8.8382e-23  1.6028e-27  1.5343e-22  2.4103e-27  2.6988e-22  3.8556e-27  4.7945e-22  6.4717e-27  8.5996e-22  1.1277e-26  1.5614e-21  2.0325e-26  2.8872e-21  3.801e-26  5.4928e-21
      6.10  6.3431e-30  5.3977e-24  9.091e-30  5.5065e-24  1.6601e-29  5.6998e-24  3.6708e-29  6.0436e-24  8.7216e-29  6.6548e-24  2.0037e-28  7.7416e-24  3.3242e-28  9.6748e-24  4.5628e-28  1.3114e-23  5.6246e-28  1.9233e-23  6.8202e-28  3.0122e-23  8.6934e-28  4.951e-23  1.1709e-27  8.4063e-23  1.6976e-27  1.4575e-22  2.636e-27  2.5621e-22  4.3158e-27  4.5504e-22  7.3584e-27  8.1624e-22  1.2961e-26  1.4826e-21  2.3531e-26  2.7438e-21  4.4257e-26  5.2273e-21
      6.15  6.0005e-30    5.4e-24   8.52e-30  5.5009e-24  1.5077e-29  5.6802e-24  3.2077e-29  5.9991e-24  7.3101e-29  6.566e-24  1.5248e-28  7.5742e-24  2.5027e-28  9.3672e-24  3.8331e-28  1.2557e-23  4.8951e-28  1.8232e-23  6.1764e-28  2.8331e-23  8.1866e-28  4.6313e-23  1.1457e-27  7.8364e-23  1.7255e-27  1.3559e-22  2.7572e-27  2.3807e-22  4.6128e-27  4.226e-22  7.9777e-27  7.5797e-22  1.4178e-26  1.3772e-21   2.59e-26  2.5508e-21  4.8951e-26  4.8664e-21
      6.20  5.7794e-30  5.4243e-24  8.2481e-30  5.5144e-24  1.4311e-29  5.6746e-24  2.8913e-29  5.9594e-24  5.8211e-29  6.4659e-24  1.1266e-28  7.3665e-24  1.8164e-28  8.9682e-24  2.7205e-28  1.1817e-23  3.8084e-28  1.6886e-23  5.191e-28  2.5906e-23  7.2159e-28  4.1968e-23  1.0672e-27  7.0597e-23  1.6684e-27  1.2172e-22  2.744e-27  2.1328e-22  4.6774e-27  3.7821e-22  8.1878e-27  6.7812e-22  1.4664e-26  1.2324e-21  2.6929e-26  2.2842e-21  5.1111e-26  4.364e-21
      6.25  5.2772e-30  5.4663e-24  7.5161e-30  5.5421e-24  1.2725e-29  5.6769e-24  2.3251e-29  5.9167e-24  4.4062e-29  6.3429e-24  8.2024e-29  7.1008e-24  1.2793e-28  8.4488e-24  1.9354e-28  1.0846e-23  2.8163e-28  1.5111e-23  4.0843e-28  2.2701e-23  6.0675e-28  3.6216e-23  9.461e-28  6.0307e-23  1.5397e-27  1.0333e-22  2.5964e-27  1.804e-22  4.4939e-27  3.1927e-22  7.9421e-27  5.7194e-22  1.4312e-26  1.0393e-21  2.6395e-26  1.9277e-21  5.0278e-26  3.6883e-21
      6.30  4.618e-30  5.5497e-24  6.3692e-30  5.6102e-24  9.9303e-30  5.7178e-24  1.7842e-29  5.9091e-24  3.1771e-29  6.2492e-24  5.7733e-29  6.854e-24  8.555e-29  7.9295e-24  1.3438e-28  9.8423e-24  2.0878e-28  1.3245e-23  3.1546e-28   1.93e-23  4.9949e-28  3.0083e-23  8.1244e-28  4.9304e-23  1.3664e-27  8.3632e-23  2.3497e-27  1.4515e-22  4.1176e-27  2.5602e-22  7.332e-27  4.5786e-22  1.3276e-26  8.3162e-22  2.457e-26  1.5431e-21  4.6949e-26  2.9566e-21
      6.35  4.0184e-30  5.6562e-24  5.2482e-30  5.7041e-24  7.8236e-30  5.7892e-24  1.2908e-29  5.9406e-24  2.3205e-29  6.2098e-24  4.2106e-29  6.6884e-24  5.8906e-29  7.5395e-24  9.0209e-29  9.0533e-24  1.4729e-28  1.1746e-23  2.4736e-28  1.6538e-23  4.091e-28  2.5071e-23  6.9507e-28  4.0282e-23  1.1964e-27  6.7451e-23  2.0896e-27  1.1615e-22  3.7002e-27  2.0394e-22  6.6314e-27  3.6388e-22  1.2057e-26  6.6034e-22  2.2385e-26  1.2256e-21  4.2898e-26  2.3513e-21
      6.40  3.4452e-30  5.7852e-24  4.4715e-30  5.824e-24  6.503e-30  5.8932e-24  9.9905e-30  6.0161e-24  1.692e-29  6.2347e-24  3.1314e-29  6.6233e-24  4.4177e-29  7.3144e-24  6.6881e-29  8.5436e-24  1.1087e-28  1.073e-23  1.9534e-28  1.4621e-23  3.4753e-28  2.155e-23  6.1579e-28  3.3902e-23  1.0893e-27  5.5967e-23  1.936e-27  9.5521e-23  3.4658e-27  1.6686e-22  6.2527e-27  2.969e-22  1.1418e-26  5.3818e-22  2.1269e-26  9.9896e-22  4.0888e-26  1.9187e-21
      6.45  2.9998e-30  5.9332e-24  3.9479e-30  5.9653e-24  5.4467e-30  6.0225e-24  8.3798e-30  6.1242e-24  1.3393e-29  6.305e-24  2.3278e-29  6.6264e-24  3.7423e-29  7.1981e-24  5.7622e-29  8.2148e-24  9.7404e-29  1.0023e-23  1.7439e-28  1.3241e-23  3.1907e-28  1.8972e-23  5.8123e-28  2.9188e-23  1.0511e-27  4.7439e-23  1.8983e-27  8.0163e-23  3.4259e-27  1.392e-22  6.2132e-27  2.4688e-22  1.1388e-26  4.4684e-22  2.1274e-26  8.2929e-22  4.1013e-26  1.5943e-21
      6.50  2.4914e-30  6.0979e-24  3.3776e-30  6.1247e-24  4.5911e-30  6.1722e-24  6.8886e-30  6.2567e-24  1.0802e-29  6.407e-24  1.8264e-29  6.6742e-24  2.9048e-29  7.1494e-24  4.6507e-29  7.9946e-24  7.9876e-29  9.4979e-24  1.4504e-28  1.2173e-23  2.705e-28  1.6936e-23  5.0587e-28  2.5428e-23  9.3457e-28  4.0601e-23  1.7099e-27  6.7808e-23  3.1148e-27  1.1691e-22  5.6826e-27  2.065e-22  1.0455e-26   3.73e-22  1.959e-26  6.9184e-22  3.7868e-26  1.3307e-21
      6.55  2.0667e-30  6.309e-24  2.8304e-30  6.3316e-24  3.7792e-30  6.3718e-24  5.5541e-30  6.4434e-24  8.9227e-30  6.5706e-24  1.542e-29  6.7969e-24  2.4401e-29  7.1993e-24  3.9107e-29  7.9149e-24  6.8891e-29  9.1879e-24  1.2763e-28  1.1453e-23  2.4251e-28  1.5487e-23  4.6159e-28  2.2678e-23  8.6846e-28  3.5527e-23  1.6112e-27  5.857e-23  2.961e-27  1.0016e-22  5.4322e-27  1.7608e-22  1.0034e-26  3.1727e-22  1.8855e-26  5.8787e-22  3.6538e-26  1.1309e-21
      6.60  1.7201e-30  6.5377e-24  2.332e-30  6.5576e-24  3.1376e-30  6.5929e-24  4.5573e-30  6.6557e-24  7.4453e-30  6.7673e-24  1.3378e-29  6.9658e-24  2.171e-29  7.3187e-24  3.5171e-29  7.9465e-24  6.3081e-29  9.0632e-24  1.1963e-28  1.105e-23  2.311e-28  1.4589e-23  4.4595e-28  2.0899e-23  8.4945e-28  3.2172e-23  1.5934e-27  5.2392e-23  2.9543e-27  8.8896e-23  5.4511e-27  1.5554e-22  1.0107e-26  2.7954e-22  1.9044e-26  5.1737e-22  3.6988e-26  9.9513e-22
      6.65  1.4331e-30  6.7831e-24  1.8909e-30  6.8012e-24  2.5986e-30  6.8335e-24  3.7594e-30  6.8907e-24  6.1483e-30  6.9926e-24  1.1465e-29  7.1737e-24  1.9197e-29  7.4958e-24  3.1868e-29  8.0687e-24  5.8742e-29  9.0879e-24  1.1409e-28  1.0902e-23  2.2415e-28  1.4131e-23  4.3789e-28  1.989e-23  8.429e-28  3.018e-23  1.5964e-27  4.8638e-23  2.9828e-27  8.1964e-23  5.5346e-27  1.4282e-22  1.0301e-26  2.5609e-22  1.9459e-26  4.7348e-22  3.7871e-26  9.1054e-22
      6.70  1.1934e-30  7.044e-24  1.512e-30  7.0611e-24  2.097e-30  7.0915e-24  3.1939e-30  7.2171e-24  5.2928e-30  7.2419e-24  1.0531e-29  7.413e-24  1.9502e-29  7.7173e-24  3.4201e-29  8.2586e-24  6.5795e-29  9.2216e-24  1.3049e-28  1.0935e-23  2.5829e-28  1.3987e-23  5.0542e-28  1.9429e-23  9.7393e-28  2.9153e-23  1.8465e-27  4.6595e-23  3.4562e-27  7.8093e-23  6.4258e-27  1.3562e-22  1.1978e-26  2.4274e-22  2.2658e-26  4.4841e-22  4.4155e-26  8.6221e-22
      6.75  9.9515e-31  7.3192e-24  1.2092e-30  7.3359e-24  1.7076e-30  7.3654e-24  2.6541e-30  7.4179e-24  4.852e-30  7.5112e-24  1.0559e-29  7.6772e-24  2.0594e-29  7.9725e-24  3.8503e-29  8.4975e-24  7.6303e-29  9.4317e-24  1.5278e-28  1.1094e-23  3.0179e-28  1.4055e-23  5.8877e-28  1.9334e-23  1.1306e-27  2.8767e-23  2.1399e-27  4.5691e-23  4.0036e-27  7.6253e-23  7.4474e-27  1.3209e-22  1.3895e-26  2.3606e-22  2.6306e-26  4.3581e-22  5.1312e-26  8.3794e-22
      6.80  8.3396e-31  7.6481e-24  9.7693e-31  7.6646e-24  1.3925e-30  7.6938e-24  2.2876e-30  7.7458e-24  4.4818e-30  7.8383e-24  1.0035e-29  8.0027e-24  2.1381e-29  8.2952e-24  4.0965e-29  8.8153e-24  8.238e-29  9.7407e-24  1.6478e-28  1.1387e-23  3.2434e-28  1.432e-23  6.3091e-28  1.955e-23   1.21e-27  2.8896e-23  2.2897e-27  4.5663e-23  4.2873e-27  7.5945e-23  7.9866e-27  1.3127e-22  1.4923e-26  2.3434e-22  2.8291e-26  4.3241e-22  5.5248e-26  8.314e-22
      6.85  7.0362e-31  7.9947e-24  8.0224e-31  8.0112e-24  1.1036e-30  8.0407e-24  1.9268e-30  8.0931e-24  3.9164e-30  8.1862e-24  9.5788e-30  8.3517e-24  2.2537e-29  8.6462e-24  4.4667e-29  9.1699e-24  9.1903e-29  1.0102e-23  1.8386e-28  1.176e-23  3.628e-28  1.4712e-23  7.0485e-28  1.9978e-23  1.3505e-27  2.9389e-23  2.5529e-27  4.6272e-23  4.7777e-27  7.6768e-23  8.9011e-27  1.3249e-22  1.6641e-26  2.3632e-22  3.1571e-26  4.3593e-22  6.1705e-26  8.3822e-22
      6.90  5.9995e-31  8.3583e-24  6.7803e-31  8.3751e-24  9.1301e-31  8.4049e-24  1.6042e-30  8.4579e-24  3.6451e-30  8.5522e-24  9.6201e-30  8.7198e-24  2.4348e-29  9.0179e-24  5.0105e-29  9.5482e-24  1.0522e-28  1.0492e-23  2.1152e-28  1.217e-23  4.2022e-28  1.516e-23  8.2184e-28  2.0492e-23  1.5772e-27  3.002e-23  2.979e-27  4.7116e-23  5.5664e-27  7.7997e-23  1.0358e-26  1.3444e-22  1.9355e-26  2.3961e-22  3.6722e-26  4.4188e-22  7.1803e-26  8.4974e-22
      6.95  5.1696e-31  8.7383e-24  5.8991e-31  8.7551e-24  8.0616e-31  8.7851e-24  1.4798e-30  8.8384e-24  3.5511e-30  8.9331e-24  9.6121e-30  9.1016e-24  2.4893e-29  9.4011e-24  5.1632e-29  9.934e-24  1.0671e-28  1.0882e-23  2.1372e-28  1.2569e-23  4.292e-28  1.5573e-23  8.4556e-28  2.093e-23  1.6287e-27  3.0504e-23  3.0821e-27  4.7682e-23  5.7664e-27  7.8715e-23  1.074e-26  1.3544e-22  2.0083e-26  2.4117e-22  3.8135e-26  4.4456e-22  7.4628e-26  8.5487e-22
      7.00  4.4755e-31  9.1339e-24  5.1851e-31  9.1505e-24  7.3687e-31  9.1801e-24  1.3929e-30  9.2325e-24  3.3348e-30  9.3259e-24   9.13e-30  9.4918e-24  2.5168e-29  9.7869e-24  5.2207e-29  1.0312e-23  1.0478e-28  1.1245e-23  2.1273e-28  1.2907e-23  4.3159e-28  1.5865e-23  8.5631e-28  2.1141e-23  1.6591e-27  3.0571e-23  3.1548e-27  4.749e-23  5.9212e-27  7.8057e-23  1.1051e-26  1.3393e-22  2.0694e-26  2.3811e-22  3.9337e-26  4.3858e-22  7.7059e-26  8.4317e-22
      7.05  3.7627e-31  9.5953e-24  4.4383e-31  9.6112e-24  6.4558e-31  9.6394e-24  1.2458e-30  9.6895e-24  3.0218e-30  9.7787e-24  8.3917e-30  9.9372e-24  2.4174e-29  1.0219e-23  5.1632e-29  1.072e-23  1.0474e-28  1.1612e-23  2.1388e-28  1.3199e-23  4.3724e-28  1.6024e-23  8.7671e-28  2.1062e-23  1.721e-27  3.0065e-23  3.3029e-27  4.6221e-23  6.237e-27  7.541e-23  1.1684e-26  1.2877e-22  2.1929e-26  2.2828e-22  4.1747e-26  4.1983e-22  8.1877e-26  8.0659e-22
      7.10  3.1297e-31  1.0077e-23  3.7283e-31  1.0092e-23  5.4484e-31  1.0118e-23  1.1048e-30  1.0266e-23  2.693e-30  1.0246e-23  7.7021e-30  1.0391e-23  2.215e-29  1.065e-23  5.1121e-29  1.111e-23  1.0597e-28  1.1928e-23  2.1601e-28  1.3383e-23  4.4177e-28  1.5975e-23  9.0371e-28  2.0595e-23  1.8054e-27  2.8852e-23  3.5113e-27  4.3668e-23  6.6878e-27  7.0438e-23  1.2596e-26  1.1938e-22  2.3719e-26  2.1067e-22  4.5248e-26  3.8644e-22  8.8868e-26  7.4149e-22
      7.15  2.605e-31  1.058e-23  3.1192e-31  1.0593e-23  4.6656e-31  1.0616e-23  9.4127e-31  1.0656e-23  2.4044e-30  1.0728e-23  6.6831e-30  1.0856e-23  1.8922e-29  1.1083e-23  4.6147e-29  1.1487e-23  9.3156e-29  1.2205e-23  1.8655e-28  1.3482e-23  3.8669e-28  1.5757e-23  8.0514e-28  1.9811e-23  1.642e-27  2.7056e-23  3.2521e-27  4.0054e-23  6.2813e-27  6.354e-23  1.1946e-26  1.0648e-22  2.2639e-26  1.8659e-22  4.3368e-26  3.4087e-22  8.5411e-26  6.5263e-22
      7.20  2.153e-31  1.1104e-23  2.5836e-31  1.1115e-23  3.859e-31  1.1134e-23  7.9129e-31  1.1168e-23  1.9723e-30  1.1229e-23  5.3972e-30  1.1337e-23  1.4964e-29  1.1529e-23  3.7988e-29  1.187e-23  7.3524e-29  1.2478e-23  1.5043e-28  1.3558e-23  3.173e-28  1.5481e-23  6.7471e-28  1.8908e-23  1.4123e-27  2.5031e-23  2.8676e-27  3.6015e-23  5.6511e-27  5.586e-23  1.0907e-26  9.2148e-23  2.088e-26  1.5985e-22  4.0262e-26  2.9025e-22  7.9632e-26  5.5385e-22
      7.25  1.7717e-31  1.1648e-23  2.1186e-31  1.1657e-23  3.1698e-31  1.1673e-23  6.2833e-31  1.1701e-23  1.5396e-30  1.1752e-23  4.1102e-30  1.1842e-23  1.1068e-29  1.2001e-23  2.7655e-29  1.2285e-23  5.5285e-29  1.2789e-23  1.1237e-28  1.3687e-23  2.4004e-28  1.5284e-23  5.2488e-28  1.813e-23  1.1328e-27  2.3213e-23  2.3734e-27  3.2332e-23  4.8013e-27  4.8805e-23  9.4513e-27  7.8927e-23  1.8346e-26  1.3512e-22  3.5703e-26  2.4339e-22  7.1036e-26  4.6227e-22
      7.30  1.4527e-31  1.2277e-23  1.723e-31  1.2285e-23  2.5223e-31  1.2298e-23  4.8957e-31  1.2322e-23  1.1803e-30  1.2364e-23  3.0344e-30  1.2439e-23  8.0746e-30  1.2572e-23  1.9772e-29  1.2809e-23  4.1478e-29  1.323e-23  8.4498e-29  1.398e-23  1.7874e-28  1.5314e-23  4.0057e-28  1.7691e-23  8.9869e-28  2.1936e-23  1.956e-27  2.9549e-23  4.0908e-27  4.3302e-23  8.2618e-27  6.8447e-23  1.6333e-26  1.1536e-22  3.2182e-26  2.0574e-22  6.454e-26  3.8847e-22
      7.35  1.1917e-31  1.2935e-23  1.3948e-31  1.2942e-23  1.9961e-31  1.2953e-23  3.7795e-31  1.2973e-23  8.9776e-31  1.3009e-23  2.2497e-30  1.3073e-23  5.9187e-30  1.3186e-23  1.4887e-29  1.3388e-23  3.2976e-29  1.3747e-23  6.5838e-29  1.4386e-23  1.3962e-28  1.5523e-23  3.1806e-28  1.755e-23  7.3906e-28  2.1169e-23  1.6688e-27  2.7659e-23  3.5983e-27  3.9382e-23  7.4475e-27  6.0813e-23  1.4992e-26  1.0079e-22  2.9908e-26  1.7782e-22  6.047e-26  3.3354e-22
      7.40  9.7931e-32  1.3622e-23  1.1345e-31  1.3627e-23  1.5938e-31  1.3637e-23  2.932e-31  1.3655e-23  6.9469e-31  1.3686e-23  1.7264e-30  1.3742e-23  4.4874e-30  1.3841e-23  1.1767e-29  1.4018e-23  2.7918e-29  1.4332e-23  5.4873e-29  1.489e-23  1.1597e-28  1.5885e-23  2.669e-28  1.7658e-23  6.3081e-28  2.0824e-23  1.4618e-27  2.6503e-23  3.2398e-27  3.6758e-23  6.8599e-27  5.5505e-23  1.4047e-26  9.0475e-23  2.8359e-26  1.5784e-22  5.7796e-26  2.9403e-22
      7.45  8.0018e-32  1.4336e-23  9.3036e-32  1.4341e-23  1.2825e-31  1.435e-23  2.3567e-31  1.4366e-23  5.5055e-31  1.4394e-23  1.3704e-30  1.4444e-23  3.5699e-30  1.4533e-23  9.4629e-30  1.4692e-23  2.2182e-29  1.4974e-23  4.3041e-29  1.5475e-23  8.9205e-29  1.6369e-23  2.0657e-28  1.7961e-23  4.974e-28  2.0806e-23  1.1849e-27  2.5908e-23  2.7082e-27  3.5123e-23  5.8959e-27  5.1967e-23  1.2339e-26  8.3384e-23  2.5305e-26  1.439e-22  5.212e-26  2.6622e-22
      7.50  6.6858e-32  1.5078e-23  7.6362e-32  1.5083e-23  1.0649e-31  1.5091e-23  1.9526e-31  1.5106e-23  4.573e-31  1.5132e-23  1.1306e-30  1.5178e-23  2.9621e-30  1.526e-23  7.9248e-30  1.5406e-23  1.845e-29  1.5665e-23  3.5292e-29  1.6127e-23  7.2179e-29  1.6949e-23  1.6756e-28  1.8416e-23  4.0771e-28  2.1036e-23  9.9217e-28  2.5735e-23  2.3306e-27  3.4221e-23  5.2124e-27  4.9734e-23  1.1154e-26  7.8665e-23  2.3251e-26  1.3438e-22  4.8425e-26  2.4699e-22
      7.55  5.5159e-32  1.5929e-23  6.4555e-32  1.5934e-23  9.1296e-32  1.5941e-23  1.6822e-31  1.5955e-23  3.9813e-31  1.598e-23  9.9708e-31  1.6023e-23  2.6302e-30   1.61e-23  6.9922e-30  1.6238e-23  1.5728e-29  1.6482e-23  3.0574e-29  1.6918e-23  6.1909e-29  1.7693e-23  1.4143e-28  1.9075e-23  3.4441e-28  2.1544e-23  8.496e-28  2.5974e-23  2.0424e-27  3.3975e-23  4.6904e-27  4.8599e-23  1.0282e-26  7.5871e-23  2.1841e-26  1.2839e-22  4.6098e-26  2.3451e-22
      7.60  4.6191e-32  1.6818e-23  5.4309e-32  1.6822e-23  7.9553e-32  1.683e-23  1.5236e-31  1.6843e-23  3.6609e-31  1.6867e-23  9.2651e-31  1.6908e-23  2.4609e-30  1.6983e-23  6.5139e-30  1.7115e-23  1.3712e-29  1.735e-23  2.6935e-29  1.7768e-23  5.3177e-29  1.8513e-23  1.1811e-28  1.9842e-23  2.8273e-28  2.2217e-23  6.9623e-28  2.6477e-23  1.6942e-27  3.4172e-23  3.9693e-27  4.8237e-23  8.8878e-27  7.4466e-23  1.9226e-26  1.2497e-22  4.1128e-26   2.27e-22
      7.65  3.922e-32  1.7745e-23  4.6946e-32  1.7749e-23  7.0492e-32  1.7756e-23  1.3949e-31  1.7769e-23  3.4082e-31  1.7792e-23  8.889e-31  1.7833e-23  2.3715e-30  1.7906e-23    6.2e-30  1.8035e-23  1.2365e-29  1.8265e-23  2.3972e-29  1.8673e-23  4.6635e-29  1.9402e-23  1.0053e-28  2.0701e-23  2.3505e-28  2.3022e-23  5.7311e-28  2.7188e-23  1.4019e-27  3.4711e-23  3.3367e-27  4.8464e-23  7.6212e-27  7.4109e-23  1.6795e-26  1.2348e-22  3.6456e-26  2.2322e-22
      7.70  3.3074e-32  1.8709e-23  4.0414e-32  1.8713e-23  6.2955e-32  1.8721e-23  1.2867e-31  1.8733e-23  3.1946e-31  1.8756e-23  8.4022e-31  1.8797e-23  2.2889e-30  1.8868e-23  5.9897e-30  1.8996e-23  1.0973e-29  1.9224e-23  2.1317e-29  1.9629e-23  4.1564e-29  2.035e-23  8.6499e-29  2.1637e-23  1.9694e-28  2.3936e-23  4.7296e-28  2.8061e-23  1.156e-27  3.5513e-23  2.7838e-27  4.9136e-23  6.4752e-27  7.4537e-23  1.454e-26  1.2344e-22  3.2063e-26  2.2221e-22
      7.75  2.814e-32  1.9711e-23  3.5142e-32  1.9715e-23  5.6292e-32  1.9723e-23  1.1977e-31  1.9735e-23  3.0125e-31  1.9758e-23  8.1001e-31  1.9798e-23  2.1768e-30  1.987e-23  5.5085e-30  1.9998e-23   1.01e-29  2.0226e-23  1.9131e-29  2.063e-23  3.6904e-29  2.1351e-23  7.5334e-29  2.2637e-23  1.6668e-28  2.4935e-23  3.9218e-28  2.9059e-23  9.5188e-28  3.6509e-23  2.3075e-27  5.0127e-23  5.4521e-27  7.5519e-23  1.2472e-26  1.244e-22  2.7966e-26  2.2312e-22
      7.80  2.4069e-32  2.0854e-23  3.0693e-32  2.0858e-23  5.1343e-32  2.0865e-23  1.1118e-31  2.0878e-23  2.8279e-31  2.0901e-23  7.6918e-31  2.0942e-23  2.0749e-30  2.1014e-23  5.0702e-30  2.1143e-23  9.2384e-30  2.1372e-23  1.7295e-29  2.178e-23  3.3327e-29  2.2506e-23  6.5627e-29  2.3801e-23  1.4218e-28  2.6115e-23  3.2682e-28  3.0268e-23  7.8402e-28  3.7771e-23  1.9047e-27  5.1488e-23  4.5591e-27  7.7063e-23  1.0619e-26  1.2629e-22  2.4237e-26  2.2571e-22
      7.85  2.0658e-32  2.2048e-23  2.6599e-32  2.2052e-23  4.6129e-32  2.2059e-23  1.0195e-31  2.2072e-23  2.5899e-31  2.2095e-23  7.0766e-31  2.2137e-23  1.9201e-30  2.221e-23  4.6266e-30  2.234e-23  8.3833e-30  2.2571e-23  1.5524e-29  2.2982e-23  2.957e-29  2.3716e-23  5.8005e-29  2.5023e-23  1.217e-28  2.736e-23  2.7317e-28  3.1553e-23  6.4589e-28  3.913e-23  1.5666e-27  5.298e-23  3.789e-27  7.8804e-23  8.9806e-27  1.2851e-22  2.0885e-26  2.2888e-22
      7.90  1.7668e-32  2.3293e-23  2.308e-32  2.3298e-23   4.07e-32  2.3305e-23  9.1558e-32  2.3318e-23  2.3587e-31  2.3341e-23  6.3819e-31  2.3383e-23  1.7617e-30  2.3457e-23  4.0525e-30  2.3588e-23  7.2474e-30  2.3821e-23  1.3339e-29  2.4237e-23  2.5222e-29  2.4977e-23  4.8836e-29  2.6297e-23  1.0043e-28  2.8656e-23  2.2069e-28  3.2889e-23  5.1428e-28  4.0536e-23  1.2439e-27  5.4518e-23  3.0374e-27  8.0586e-23  7.3302e-27  1.3076e-22  1.7404e-26  2.3206e-22
      7.95  1.5382e-32  2.4591e-23  2.0165e-32  2.4595e-23  3.5567e-32  2.4602e-23  7.9738e-32  2.4615e-23  2.0756e-31  2.4639e-23  5.6674e-31  2.4681e-23  1.5438e-30  2.4755e-23  3.3667e-30  2.4887e-23  6.1235e-30  2.5122e-23  1.1204e-29  2.554e-23  2.0986e-29  2.6284e-23  4.0363e-29  2.7612e-23  8.1519e-29  2.9986e-23  1.7557e-28  3.4245e-23  4.007e-28  4.1941e-23  9.6737e-28  5.6009e-23  2.3746e-27  8.2239e-23  5.816e-27  1.3272e-22  1.4076e-26  2.3463e-22
      8.00  1.3339e-32  2.5939e-23  1.7394e-32  2.5943e-23  3.0575e-32  2.5951e-23  6.9144e-32  2.5964e-23  1.7774e-31  2.5988e-23  4.8008e-31  2.6029e-23  1.3497e-30  2.6104e-23  2.8209e-30  2.6236e-23  5.0211e-30  2.6472e-23  9.2378e-30  2.689e-23  1.7178e-29  2.7637e-23  3.2802e-29  2.8968e-23  6.5339e-29  3.1347e-23  1.3821e-28  3.5615e-23  3.104e-28  4.3328e-23  7.4254e-28  5.7426e-23  1.8258e-27  8.3712e-23  4.5234e-27  1.343e-22  1.1136e-26  2.364e-22
      8.05  1.1617e-32  2.7473e-23  1.4943e-32  2.7477e-23  2.5878e-32  2.7484e-23  5.7922e-32  2.7497e-23  1.4801e-31  2.7521e-23  4.0281e-31  2.7563e-23  1.1216e-30  2.7637e-23  2.2693e-30  2.777e-23  4.0714e-30  2.8005e-23  7.4678e-30  2.8424e-23  1.3812e-29  2.9171e-23  2.6256e-29  3.0502e-23  5.1712e-29  3.2882e-23  1.078e-28  3.7153e-23  2.3984e-28  4.4868e-23  5.6633e-28  5.8972e-23  1.393e-27  8.5265e-23  3.4844e-27  1.3586e-22  8.7144e-27  2.3797e-22
      8.10  1.018e-32  2.9076e-23  1.2826e-32  2.9081e-23  2.1517e-32  2.9088e-23  4.7104e-32  2.9101e-23  1.1994e-31  2.9125e-23  3.227e-31  2.9166e-23  8.9864e-31  2.9241e-23  1.8232e-30  2.9373e-23  3.2358e-30  2.9607e-23  5.8655e-30  3.0025e-23  1.0808e-29  3.0769e-23   2.06e-29  3.2097e-23  4.0328e-29  3.4469e-23  8.309e-29  3.8726e-23  1.8192e-28  4.6417e-23  4.2784e-28  6.0476e-23  1.0516e-27  8.6683e-23  2.6509e-27  1.3711e-22  6.7236e-27  2.3885e-22
      8.15  8.9944e-33  3.0752e-23  1.1047e-32  3.0756e-23  1.7859e-32  3.0763e-23  3.7729e-32  3.0777e-23  9.5317e-32   3.08e-23  2.5772e-31  3.0841e-23  7.1102e-31  3.0915e-23  1.4101e-30  3.1046e-23  2.5529e-30  3.128e-23  4.6169e-30  3.1696e-23  8.396e-30  3.2436e-23  1.5775e-29  3.3756e-23  3.095e-29  3.6116e-23  6.3109e-29  4.035e-23  1.3711e-28  4.7999e-23  3.1822e-28  6.198e-23  7.8006e-28  8.804e-23  1.9768e-27  1.3817e-22  5.0754e-27  2.3931e-22
      8.20  8.0283e-33   3.25e-23  9.5875e-33  3.2504e-23  1.4814e-32  3.2511e-23  3.0109e-32  3.2524e-23  7.4164e-32  3.2547e-23  2.0005e-31  3.2589e-23  5.4636e-31  3.2662e-23  1.0972e-30  3.2792e-23  1.9671e-30  3.3024e-23  3.5186e-30  3.3437e-23  6.4438e-30  3.4173e-23  1.2059e-29  3.5485e-23  2.3335e-29  3.7829e-23  4.7681e-29  4.2036e-23  1.0272e-28  4.9635e-23  2.3684e-28  6.3524e-23  5.7952e-28  8.9411e-23  1.4757e-27  1.392e-22  3.8305e-27  2.3962e-22
      8.25  7.2183e-33  3.4321e-23  8.3872e-33  3.4325e-23  1.2051e-32  3.4332e-23  2.3943e-32  3.4345e-23  5.7405e-32  3.4368e-23  1.5189e-31  3.4409e-23  4.2256e-31  3.4482e-23  8.2953e-31  3.4612e-23  1.4854e-30  3.4842e-23  2.6819e-30  3.5253e-23  4.9033e-30  3.5984e-23  9.2342e-30  3.7287e-23  1.7787e-29  3.9617e-23  3.5896e-29  4.3798e-23  7.6641e-29  5.135e-23  1.7659e-28  6.5152e-23  4.3181e-28  9.0874e-23  1.1048e-27  1.4034e-22  2.8961e-27  2.4007e-22
      8.30  6.6006e-33  3.6388e-23  7.4706e-33  3.6392e-23  1.021e-32  3.6399e-23  1.8755e-32  3.6412e-23  4.3959e-32  3.6435e-23  1.1624e-31  3.6476e-23  3.2107e-31  3.6549e-23  6.3627e-31  3.6678e-23  1.1378e-30  3.6909e-23  2.0529e-30  3.7319e-23  3.7483e-30  3.8049e-23  6.9816e-30  3.9351e-23  1.3415e-29  4.1678e-23  2.6985e-29  4.5853e-23  5.7662e-29  5.3394e-23  1.3205e-28  6.7176e-23  3.2304e-28  9.2856e-23  8.3038e-28  1.4223e-22  2.1966e-27  2.4176e-22
      8.35  6.1032e-33  3.8556e-23  6.7365e-33  3.856e-23  8.7434e-33  3.8567e-23  1.5007e-32  3.858e-23  3.3249e-32  3.8603e-23  8.5842e-32  3.8644e-23  2.3792e-31  3.8717e-23  4.7181e-31  3.8847e-23  8.4258e-31  3.9077e-23  1.5191e-30  3.9488e-23  2.7736e-30  4.0219e-23  5.1651e-30  4.1523e-23  9.9238e-30  4.3853e-23  1.9965e-29  4.8034e-23  4.2705e-29  5.5586e-23  9.8009e-29  6.9386e-23  2.4075e-28  9.5096e-23  6.2318e-28  1.4452e-22  1.665e-27  2.4411e-22
      8.40  5.7065e-33  4.0827e-23  6.161e-33  4.0831e-23  7.6135e-33  4.0838e-23  1.2204e-32  4.0852e-23  2.5181e-32  4.0875e-23  6.3187e-32  4.0916e-23  1.7105e-31  4.0989e-23  3.4261e-31  4.1119e-23  6.1088e-31  4.1351e-23  1.1008e-30  4.1763e-23  2.0105e-30  4.2498e-23  3.7483e-30  4.3808e-23  7.2158e-30  4.6149e-23  1.4562e-29  5.035e-23  3.1289e-29  5.7937e-23  7.2251e-29   7.18e-23  1.7881e-28  9.7625e-23  4.6711e-28  1.4726e-22  1.2532e-27  2.4724e-22
      8.45  5.3947e-33  4.3204e-23  5.7243e-33  4.3209e-23  6.7887e-33  4.3216e-23  9.8708e-33  4.3229e-23  1.9543e-32  4.3252e-23  4.7132e-32  4.3294e-23  1.2536e-31  4.3368e-23  2.4867e-31  4.3499e-23  4.4675e-31  4.3733e-23  8.0432e-31  4.4149e-23  1.4693e-30  4.4889e-23  2.7423e-30  4.621e-23  5.2894e-30  4.8571e-23  1.0708e-29  5.2806e-23  2.3109e-29  6.0456e-23  5.367e-29  7.4432e-23  1.3376e-28  1.0046e-22  3.5235e-28  1.5048e-22  9.611e-28  2.5122e-22
      8.50  5.1487e-33  4.5691e-23  5.3912e-33  4.5695e-23  6.1844e-33  4.5703e-23  8.4448e-33  4.5716e-23  1.5446e-32  4.574e-23  3.5581e-32  4.5782e-23  9.3262e-32  4.5857e-23  1.8411e-31  4.5989e-23  3.2991e-31  4.6226e-23  5.9326e-31  4.6647e-23  1.0836e-30  4.7396e-23  2.024e-30  4.8733e-23  3.911e-30  5.1121e-23   7.94e-30  5.5407e-23  1.7204e-29  6.3146e-23  4.0163e-29  7.7286e-23  1.0072e-28  1.0362e-22  2.6728e-28  1.5421e-22  7.3535e-28  2.5607e-22
