# This was generated using Cloudy10 and the columns are ordered 
# as log10 of the fraction of the metallicity to the solar metallicity
# 'h_*_Z' and 'c_*_Z' stands for cooling and heating respectively 
# at * metalicity
#
# Redshift = 4.5
# hden = 6.0
#     temp   h_-3.00_Z   c_-3.00_Z   h_-2.75_Z   c_-2.75_Z   h_-2.50_Z   c_-2.50_Z   h_-2.25_Z   c_-2.25_Z   h_-2.00_Z   c_-2.00_Z   h_-1.75_Z   c_-1.75_Z   h_-1.50_Z   c_-1.50_Z   h_-1.25_Z   c_-1.25_Z   h_-1.00_Z   c_-1.00_Z   h_-0.75_Z   c_-0.75_Z   h_-0.50_Z   c_-0.50_Z   h_-0.25_Z   c_-0.25_Z    h_0.00_Z    c_0.00_Z    h_0.25_Z    c_0.25_Z    h_0.50_Z    c_0.50_Z    h_0.75_Z    c_0.75_Z    h_1.00_Z    c_1.00_Z    h_1.25_Z    c_1.25_Z    h_1.50_Z    c_1.50_Z 
      4.00  5.9529e-30  5.2565e-27  5.953e-30  5.2635e-27  5.9533e-30  5.2757e-27  5.9537e-30  5.2973e-27  5.9545e-30  5.3355e-27  5.9558e-30  5.4032e-27  5.9583e-30  5.5237e-27  5.9627e-30  5.7377e-27  5.9714e-30  6.1168e-27  5.9903e-30  6.7849e-27  6.0354e-30  7.9495e-27  6.1493e-30  9.947e-27  6.4365e-30  1.3302e-26  7.1858e-30  1.8841e-26  9.2275e-30  2.8246e-26  1.3619e-29  4.6835e-26  2.2042e-29  9.3603e-26  3.8624e-29  2.2385e-25  7.1512e-29  5.9505e-25
      4.05  5.8453e-30  1.1037e-25  5.8506e-30  1.1041e-25  5.8599e-30  1.1048e-25  5.8766e-30  1.106e-25  5.9061e-30  1.1081e-25  5.9586e-30  1.1119e-25  6.0515e-30  1.1187e-25  6.216e-30  1.1307e-25  6.5056e-30  1.1519e-25  7.0122e-30  1.1893e-25  7.888e-30  1.2544e-25  9.3689e-30  1.365e-25  1.1771e-29  1.544e-25  1.5359e-29  1.8073e-25  1.9868e-29  2.1236e-25  2.3888e-29  2.3934e-25  2.7135e-29  2.8556e-25  3.3448e-29  4.8248e-25  4.5943e-29  1.1075e-24
      4.10  5.4843e-30  2.5077e-24  5.5315e-30  2.5081e-24  5.6155e-30  2.5088e-24  5.7648e-30   2.51e-24  6.0304e-30  2.5122e-24  6.5023e-30  2.5161e-24  7.3411e-30  2.5231e-24  8.831e-30  2.5354e-24  1.1475e-29  2.5573e-24  1.616e-29  2.5962e-24  2.4439e-29  2.665e-24  3.8997e-29  2.7867e-24  6.4372e-29      3e-24  1.0791e-28  3.3697e-24  1.8047e-28  3.9949e-24  2.9477e-28  5.0031e-24  4.5451e-28  6.4719e-24  6.1789e-28  8.1214e-24  6.3437e-28  8.6725e-24
      4.15  5.9446e-30  2.3539e-23  6.1425e-30  2.3541e-23  6.4942e-30  2.3545e-23  7.1197e-30  2.3551e-23  8.2321e-30  2.3563e-23  1.021e-29  2.3585e-23  1.3727e-29  2.3623e-23  1.9979e-29  2.3692e-23  3.1092e-29  2.3813e-23  5.0839e-29  2.4029e-23  8.5908e-29  2.4412e-23  1.4812e-28  2.5092e-23  2.5827e-28   2.63e-23  4.5267e-28  2.8437e-23  7.9371e-28  3.2207e-23  1.3856e-27  3.8811e-23  2.3934e-27  5.0236e-23  4.0493e-27  6.9554e-23  6.5879e-27  1.0082e-22
      4.20  1.4323e-29  8.5973e-23  1.4742e-29  8.598e-23  1.5486e-29  8.5991e-23  1.681e-29  8.6011e-23  1.9164e-29  8.6047e-23  2.335e-29  8.6111e-23  3.0795e-29  8.6225e-23  4.4033e-29  8.6427e-23  6.7572e-29  8.6787e-23  1.0943e-28  8.7427e-23  1.8385e-28  8.8564e-23  3.1614e-28  9.0587e-23  5.513e-28  9.4184e-23  9.6913e-28  1.0058e-22  1.7109e-27  1.1196e-22  3.0265e-27  1.322e-22  5.3553e-27  1.6821e-22  9.459e-27  2.3226e-22  1.6638e-26  3.462e-22
      4.25  5.094e-29  1.2856e-22  5.149e-29  1.2857e-22  5.2469e-29  1.2859e-22  5.4209e-29  1.2862e-22  5.7303e-29  1.2867e-22  6.2808e-29  1.2877e-22  7.2595e-29  1.2895e-22      9e-29  1.2926e-22  1.2095e-28  1.2982e-22  1.7601e-28  1.3081e-22  2.7395e-28  1.3258e-22  4.4821e-28  1.3571e-22  7.5841e-28  1.4129e-22  1.311e-27  1.5123e-22  2.2969e-27  1.6892e-22  4.0598e-27  2.0051e-22  7.2253e-27  2.5701e-22  1.295e-26  3.5856e-22  2.3428e-26  5.426e-22
      4.30  1.4402e-28  1.1944e-22  1.4422e-28  1.1945e-22  1.4457e-28  1.1947e-22  1.4521e-28  1.1951e-22  1.4633e-28  1.1957e-22  1.4834e-28  1.1969e-22  1.519e-28  1.1989e-22  1.5824e-28  1.2025e-22  1.6952e-28  1.2089e-22  2.0127e-28  1.2202e-22  3.5184e-28  1.2404e-22  6.198e-28  1.2763e-22  1.0969e-27  1.3402e-22  1.9473e-27  1.4539e-22  3.4653e-27  1.6566e-22  6.1825e-27  2.0185e-22  1.1067e-26  2.6665e-22  1.9909e-26  3.833e-22  3.6102e-26  5.9521e-22
      4.35  3.1204e-28  9.5447e-23  3.1159e-28  9.546e-23  3.1078e-28  9.5485e-23  3.0934e-28  9.5528e-23  3.0677e-28  9.5604e-23  3.0222e-28  9.574e-23  2.9412e-28  9.5983e-23  2.7972e-28  9.6413e-23  2.5412e-28  9.7179e-23  2.4043e-28  9.8541e-23  4.1708e-28  1.0096e-22  7.316e-28  1.0527e-22  1.2921e-27  1.1294e-22  2.2923e-27  1.2659e-22  4.0814e-27  1.5093e-22  7.2931e-27  1.9436e-22  1.3089e-26  2.7214e-22  2.363e-26  4.1214e-22  4.2953e-26  6.6649e-22
      4.40  4.6733e-28  7.5224e-23  4.6626e-28  7.5242e-23  4.6434e-28  7.5274e-23  4.6094e-28  7.5331e-23  4.5488e-28  7.5432e-23  4.4411e-28  7.5611e-23  4.2496e-28  7.593e-23  3.9092e-28  7.6497e-23  3.3042e-28  7.7506e-23  2.8156e-28   7.93e-23  4.8464e-28  8.2491e-23  8.4663e-28  8.8167e-23  1.4929e-27  9.8268e-23  2.6496e-27  1.1625e-22  4.727e-27  1.4829e-22  8.4748e-27  2.0546e-22  1.5266e-26  3.0777e-22  2.7434e-26  4.9183e-22   4.95e-26  8.2586e-22
      4.45  4.523e-28  5.9648e-23  4.5075e-28  5.9672e-23  4.4798e-28  5.9716e-23  4.4306e-28  5.9793e-23  4.3432e-28  5.9931e-23  4.1877e-28  6.0176e-23  3.9113e-28  6.0611e-23  3.4201e-28  6.1386e-23  2.5476e-28  6.2763e-23  3.3313e-28  6.5212e-23  5.7113e-28  6.9569e-23  9.9709e-28  7.7319e-23  1.7622e-27  9.1107e-23  3.1425e-27  1.1565e-22  5.6443e-27  1.5938e-22  1.0136e-26  2.374e-22  1.8075e-26  3.7703e-22  3.2205e-26  6.281e-22  5.7691e-26  1.0834e-21
      4.50  3.3252e-28  4.7063e-23  3.3061e-28  4.7096e-23  3.2722e-28  4.7156e-23  3.2118e-28  4.7261e-23  3.1046e-28  4.7449e-23  2.9139e-28  4.7784e-23  2.5751e-28  4.8378e-23  1.9731e-28  4.9435e-23  2.1904e-28  5.1315e-23  3.698e-28  5.4658e-23  6.3977e-28  6.0603e-23  1.1253e-27  7.118e-23  2.0033e-27  8.9999e-23  3.6011e-27  1.235e-22  6.4473e-27  1.8319e-22  1.1462e-26  2.8975e-22  2.0386e-26  4.8049e-22  3.6246e-26  8.2364e-22  6.4946e-26  1.4464e-21
      4.55  2.2403e-28  3.7344e-23  2.2194e-28  3.739e-23  2.1824e-28  3.747e-23  2.1164e-28  3.7614e-23  1.9992e-28  3.7869e-23  1.7909e-28  3.8323e-23  1.4208e-28  3.9131e-23  1.3177e-28  4.0567e-23  2.2071e-28  4.3121e-23  3.7987e-28  4.7663e-23  6.6586e-28  5.5741e-23  1.183e-27  7.0112e-23  2.1259e-27  9.5683e-23  3.803e-27  1.4121e-22  6.7773e-27  2.2236e-22  1.2075e-26  3.6724e-22  2.1424e-26  6.2671e-22  3.8152e-26  1.0939e-21  6.8453e-26  1.9429e-21
      4.60  1.5182e-28  3.018e-23  1.4982e-28  3.0241e-23  1.4634e-28  3.0653e-23  1.3997e-28  3.0544e-23  1.2877e-28  3.0889e-23  1.0886e-28  3.1502e-23  7.3951e-29  3.2593e-23  1.2292e-28  3.4533e-23  2.1045e-28  3.7982e-23  3.675e-28  4.4117e-23  6.5098e-28  5.5029e-23  1.1673e-27  7.4441e-23  2.0896e-27  1.0899e-22  3.7386e-27  1.705e-22  6.6615e-27  2.8015e-22  1.1852e-26  4.7596e-22  2.108e-26  8.2676e-22  3.7612e-26  1.4589e-21  6.7598e-26  2.6094e-21
      4.65  1.0748e-28  2.5703e-23  1.0587e-28  2.5785e-23   1.03e-28  2.5932e-23  9.7891e-29  2.6192e-23  8.8819e-29  2.6655e-23  7.2705e-29  2.7478e-23  6.7373e-29  2.8941e-23  1.1404e-28  3.1543e-23  1.9758e-28  3.6171e-23  3.4789e-28  4.4402e-23  6.2046e-28  5.9043e-23  1.1127e-27  8.5089e-23  1.9949e-27  1.3144e-22  3.5642e-27   2.14e-22  6.3774e-27  3.6117e-22  1.1367e-26  6.2407e-22  2.0225e-26  1.0954e-21  3.6121e-26  1.9454e-21  6.5009e-26  3.4952e-21
      4.70  8.0953e-29  2.4745e-23  7.9937e-29  2.4854e-23  7.8131e-29  2.5049e-23  7.4922e-29  2.5395e-23  6.9223e-29  2.6012e-23  5.911e-29  2.7107e-23  6.5384e-29  2.9056e-23  1.1108e-28  3.2521e-23   1.93e-28  3.8684e-23  3.4075e-28  4.9644e-23  6.098e-28  6.914e-23  1.0938e-27  1.0383e-22  1.966e-27  1.6557e-22  3.5204e-27  2.7554e-22  6.2773e-27  4.7165e-22  1.1166e-26  8.2218e-22  1.9904e-26  1.4512e-21  3.5612e-26  2.5875e-21  6.4231e-26  4.665e-21
      4.75  6.4649e-29  2.956e-23  6.4343e-29  2.9704e-23  6.3798e-29  2.9959e-23  6.2833e-29  3.0414e-23  6.1126e-29  3.1222e-23  5.8119e-29  3.266e-23  6.8683e-29  3.5217e-23  1.1614e-28  3.9764e-23  2.0139e-28  4.785e-23  3.5571e-28  6.2233e-23  6.3814e-28  8.7817e-23  1.1446e-27  1.3334e-22  2.0459e-27  2.1438e-22  3.6481e-27  3.5875e-22  6.4982e-27  6.1632e-22  1.1571e-26  1.077e-21  2.064e-26  1.9047e-21  3.6982e-26  3.403e-21  6.6899e-26  6.1516e-21
      4.80  5.3289e-29  4.3263e-23  5.371e-29  4.3448e-23  5.446e-29  4.3776e-23  5.5797e-29  4.436e-23  5.819e-29  4.5399e-23  6.2488e-29  4.7245e-23  7.5992e-29  5.0529e-23  1.2751e-28  5.6368e-23  2.2047e-28  6.6754e-23  3.8998e-28  8.5226e-23  6.9754e-28  1.1809e-22  1.2409e-27  1.7656e-22  2.2078e-27  2.8067e-22  3.9334e-27  4.6618e-22  7.0039e-27  7.9728e-22  1.2477e-26  1.3899e-21  2.2296e-26  2.4558e-21  4.0054e-26  4.3893e-21  7.2731e-26  7.9476e-21
      4.85  4.271e-29  6.4599e-23  4.3869e-29  6.483e-23  4.5933e-29  6.5241e-23  4.961e-29  6.5971e-23  5.6175e-29  6.7271e-23  6.7927e-29  6.9581e-23  8.9069e-29  7.369e-23  1.4355e-28  8.0997e-23  2.4865e-28  9.3993e-23  4.3946e-28  1.1711e-22  7.7951e-28  1.5823e-22  1.3822e-27  2.3141e-22  2.4584e-27  3.6171e-22  4.3728e-27  5.9394e-22  7.7809e-27  1.0086e-21  1.3861e-26  1.7511e-21  2.477e-26  3.0881e-21  4.4535e-26  5.5176e-21  8.1074e-26  1.0001e-20
      4.90  3.2022e-29  8.0457e-23  3.3974e-29  8.0736e-23  3.7451e-29  8.1232e-23  4.365e-29  8.2114e-23  5.4724e-29  8.3683e-23  7.4577e-29  8.6472e-23  1.1039e-28  9.1433e-23  1.756e-28  1.0026e-22  2.9516e-28  1.1595e-22  5.1347e-28  1.4386e-22  9.0802e-28  1.9351e-22  1.6118e-27  2.8187e-22  2.8668e-27  4.3921e-22  5.0887e-27  7.1967e-22  9.0306e-27  1.2205e-21  1.605e-26  2.1177e-21  2.8648e-26  3.7342e-21  5.151e-26  6.6747e-21  9.4107e-26  1.2112e-20
      4.95  2.4055e-29  7.9406e-23  2.6839e-29  7.9729e-23  3.1802e-29  8.0303e-23  4.0666e-29  8.1325e-23  5.6548e-29  8.3141e-23  8.5165e-29  8.6372e-23  1.3716e-28  9.2117e-23  2.3313e-28  1.0233e-22  4.0708e-28  1.2051e-22  7.1751e-28  1.5283e-22  1.2703e-27  2.1033e-22  2.2508e-27  3.1266e-22  3.9798e-27  4.9489e-22  7.0272e-27  8.1974e-22  1.2409e-26  1.3999e-21  2.1962e-26  2.4396e-21  3.908e-26  4.3134e-21  7.0348e-26  7.7247e-21  1.2906e-25  1.4041e-20
      5.00  2.0255e-29  6.7483e-23  2.3972e-29  6.784e-23  3.0613e-29  6.8476e-23  4.2521e-29  6.9606e-23  6.4001e-29  7.1616e-23  1.0309e-28  7.5191e-23  1.7545e-28  8.1548e-23  3.0924e-28  9.2854e-23  5.5207e-28  1.1296e-22  9.8834e-28  1.4873e-22  1.7475e-27  2.1236e-22  3.0804e-27  3.2561e-22  5.4154e-27  5.273e-22  9.4959e-27  8.869e-22  1.6652e-26  1.5294e-21  2.9335e-26  2.6812e-21  5.2133e-26  4.7594e-21  9.4088e-26  8.5491e-21  1.7361e-25  1.5586e-20
      5.05  1.9328e-29  5.3987e-23  2.4165e-29  5.4354e-23  3.2854e-29  5.5007e-23  4.8585e-29  5.6168e-23  7.7387e-29  5.8233e-23  1.3085e-28  6.1905e-23  2.291e-28  6.8436e-23  4.1465e-28  8.005e-23  7.5845e-28  1.0071e-22  1.3411e-27  1.3745e-22  2.353e-27  2.0282e-22  4.1077e-27  3.1918e-22  7.1445e-27  5.2643e-22  1.2395e-26  8.9604e-22  2.158e-26  1.5567e-21  3.7886e-26  2.7421e-21  6.7429e-26  4.8839e-21  1.2229e-25  8.7989e-21  2.276e-25  1.6097e-20
      5.10  1.9986e-29  4.2621e-23  2.5995e-29  4.2978e-23  3.6938e-29  4.3612e-23  5.7195e-29  4.4739e-23  9.5423e-29  4.6744e-23  1.643e-28  5.0308e-23  2.9571e-28  5.6648e-23  5.5142e-28  6.7922e-23  9.8987e-28  8.7974e-23  1.7336e-27  1.2364e-22  3.0011e-27  1.8711e-22  5.162e-27  3.0009e-22  8.8544e-27  5.0135e-22  1.5217e-26  8.6039e-22  2.6371e-26  1.5024e-21  4.625e-26  2.6555e-21  8.2255e-26  4.7418e-21  1.4974e-25  8.565e-21  2.8097e-25  1.5722e-20
      5.15  2.097e-29  3.3899e-23  2.7978e-29  3.4252e-23  4.1086e-29  3.4881e-23  6.6406e-29  3.5999e-23  1.1264e-28  3.7987e-23  1.9916e-28  4.1523e-23  3.7044e-28  4.781e-23  6.8091e-28  5.8993e-23  1.2042e-27  7.8882e-23  2.077e-27  1.1426e-22  3.5259e-27  1.7722e-22  5.9624e-27  2.8929e-22  1.0107e-26  4.8897e-22  1.7252e-26  8.4526e-22  2.9581e-26  1.4827e-21  5.1748e-26  2.6282e-21  9.2446e-26  4.7035e-21  1.6917e-25  8.5146e-21  3.1953e-25  1.5673e-20
      5.20  2.155e-29  2.7376e-23  2.9211e-29  2.774e-23  4.4191e-29  2.8388e-23  7.4188e-29  2.954e-23  1.2772e-28  3.1589e-23  2.3422e-28  3.5231e-23  4.4784e-28  4.1709e-23  7.8478e-28  5.3231e-23  1.3476e-27  7.3724e-23  2.2811e-27  1.1018e-22  3.7977e-27  1.7505e-22  6.3108e-27  2.9054e-22  1.0561e-26  4.9633e-22  1.7587e-26  8.6361e-22  3.0147e-26  1.5209e-21  5.2908e-26  2.7029e-21  9.487e-26  4.8465e-21  1.7428e-25  8.7899e-21  3.3076e-25  1.6219e-20
      5.25  2.1414e-29  2.2487e-23  2.9394e-29  2.2862e-23  4.6071e-29  2.353e-23  8.0415e-29  2.4717e-23  1.4634e-28  2.6827e-23  2.6432e-28  3.0581e-23  4.8566e-28  3.7256e-23  8.2978e-28  4.9128e-23  1.3787e-27  7.0244e-23  2.276e-27  1.0781e-22  3.7249e-27  1.7466e-22  6.1057e-27  2.9368e-22  9.795e-27  5.0579e-22  1.6333e-26  8.8442e-22  2.8058e-26  1.5623e-21  4.9324e-26  2.782e-21  8.856e-26  4.9965e-21  1.6301e-25  9.0779e-21  3.1036e-25  1.679e-20
      5.30  2.0868e-29  1.8784e-23  2.943e-29  1.9166e-23  4.9288e-29  1.9844e-23  9.4061e-29  2.105e-23  1.5771e-28  2.3196e-23  2.7391e-28  2.7011e-23  4.8289e-28  3.3796e-23  7.9832e-28  4.5863e-23  1.3026e-27  6.7326e-23  2.0839e-27  1.0551e-22  3.3765e-27  1.7346e-22  5.242e-27  2.9446e-22  8.3502e-27  5.1011e-22  1.3772e-26  8.9516e-22  2.3437e-26  1.5848e-21  4.0999e-26  2.8266e-21  7.3367e-26  5.0838e-21  1.3496e-25  9.2524e-21  2.5742e-25  1.7154e-20
      5.35  2.0574e-29  1.5959e-23  3.0926e-29  1.6347e-23  5.7476e-29  1.7037e-23  9.9548e-29  1.8265e-23  1.6032e-28  2.0448e-23  2.6403e-28  2.4329e-23  4.5075e-28  3.1233e-23  7.2295e-28  4.3511e-23  1.1451e-27  6.535e-23  1.8429e-27  1.042e-22  2.8529e-27  1.7335e-22  4.1641e-27  2.9648e-22  6.431e-27  5.1597e-22   1.04e-26  9.0795e-22  1.7487e-26  1.6103e-21  3.0225e-26  2.8758e-21  5.3826e-26  5.179e-21  9.8856e-26  9.4412e-21  1.8866e-25  1.7547e-20
      5.40  2.0016e-29  1.3752e-23  3.1763e-29  1.413e-23  5.8918e-29  1.4803e-23  9.2803e-29  1.5998e-23  1.4859e-28  1.8125e-23  2.3354e-28  2.1906e-23  3.8381e-28  2.8631e-23  6.3841e-28  4.0591e-23  1.0027e-27  6.1865e-23  1.6197e-27  9.9712e-23  2.2251e-27  1.6707e-22  3.1026e-27  2.8704e-22  4.6096e-27  5.0091e-22  7.2061e-27  8.8297e-22  1.1802e-26  1.5678e-21  1.9959e-26  2.803e-21  3.4983e-26  5.054e-21  6.3637e-26  9.2295e-21  1.2074e-25  1.7201e-20
      5.45  1.7126e-29  1.196e-23  2.5485e-29  1.2277e-23  4.8291e-29  1.2841e-23  7.4777e-29  1.3844e-23  1.1696e-28  1.5627e-23  1.9111e-28  1.8799e-23  3.1297e-28  2.4439e-23  5.1776e-28  3.447e-23  8.8204e-28  5.2312e-23  1.4323e-27  8.4056e-23  1.7962e-27  1.4056e-22  2.3828e-27  2.4119e-22  3.3284e-27  4.2065e-22  4.8112e-27  7.4133e-22  7.3517e-27  1.3166e-21  1.1822e-26  2.3551e-21  1.995e-26  4.2516e-21  3.5325e-26  7.7808e-21  6.576e-26  1.4552e-20
      5.50  1.3713e-29  1.0467e-23  1.7012e-29  1.0696e-23  2.6227e-29  1.1103e-23  5.1652e-29  1.1826e-23  8.7307e-29  1.3113e-23  1.4783e-28  1.5401e-23  2.5811e-28  1.9469e-23  4.5385e-28  2.6706e-23  7.851e-28  3.9577e-23  1.2572e-27  6.2478e-23  1.6518e-27  1.0324e-22  2.1145e-27  1.7586e-22  2.6705e-27  3.0537e-22  3.5307e-27  5.369e-22  4.8559e-27  9.5249e-22  7.1348e-27  1.7037e-21  1.1231e-26  3.078e-21  1.8836e-26  5.6437e-21  3.3554e-26  1.0591e-20
      5.55  1.2201e-29  9.3026e-24  1.3742e-29  9.4747e-24  1.8077e-29  9.7808e-24  3.0526e-29  1.0325e-23  6.2138e-29  1.1293e-23  1.2597e-28  1.3014e-23  2.4229e-28  1.6075e-23  4.5008e-28  2.1519e-23  7.9608e-28  3.1201e-23  1.2188e-27  4.843e-23  1.6195e-27  7.9099e-23  1.9972e-27  1.3374e-22  2.3996e-27  2.312e-22  2.9231e-27  4.0549e-22  3.7614e-27  7.1844e-22  5.1362e-27  1.2845e-21  7.5771e-27  2.3216e-21  1.2052e-26  4.2615e-21  2.0484e-26  8.0144e-21
      5.60  1.1651e-29  8.4072e-24  1.3223e-29  8.5566e-24  1.7705e-29  8.8223e-24  3.0807e-29  9.2949e-24  5.568e-29  1.0135e-23  1.161e-28  1.163e-23  2.4921e-28  1.4287e-23  4.7497e-28  1.9013e-23  8.6892e-28  2.742e-23  1.2045e-27  4.2379e-23  1.5728e-27  6.901e-23  1.8201e-27  1.1646e-22  2.1047e-27  2.011e-22  2.5104e-27  3.5248e-22  3.1529e-27  6.2437e-22  4.1939e-27  1.1164e-21  6.0227e-27  2.0184e-21  9.3452e-27  3.7079e-21  1.5531e-26  6.9823e-21
      5.65  1.1259e-29  7.7084e-24  1.3256e-29  7.8511e-24  1.9138e-29  8.1048e-24  3.5356e-29  8.556e-24  6.6978e-29  9.3583e-24  1.3072e-28  1.0785e-23  2.6201e-28  1.3322e-23  5.0787e-28  1.7834e-23  9.1983e-28  2.5861e-23  1.2126e-27  4.0144e-23  1.513e-27  6.5572e-23  1.6848e-27  1.1088e-22  1.9307e-27  1.917e-22  2.2769e-27  3.3627e-22  2.8526e-27  5.9597e-22  3.7821e-27  1.0661e-21  5.4179e-27  1.9284e-21  8.3865e-27  3.5449e-21  1.3912e-26  6.6822e-21
      5.70  1.0868e-29  7.1523e-24  1.3355e-29  7.292e-24  2.0621e-29  7.5403e-24  4.1632e-29  7.9819e-24  7.5821e-29  8.7673e-24  1.4811e-28  1.0164e-23  3.018e-28  1.2774e-23  5.728e-28  1.7064e-23  9.0182e-28  2.4921e-23  1.1355e-27  3.8904e-23  1.3559e-27  6.3798e-23  1.5283e-27  1.0815e-22  1.7468e-27  1.8728e-22  2.0664e-27  3.2883e-22  2.6083e-27  5.8315e-22  3.5197e-27  1.0437e-21  5.1221e-27  1.8888e-21  8.0354e-27  3.4743e-21  1.3484e-26  6.5553e-21
      5.75  1.0238e-29  6.6459e-24  1.296e-29  6.7789e-24  2.076e-29  7.0154e-24  4.1449e-29  7.4359e-24  8.2316e-29  8.1838e-24  1.6408e-28  9.5136e-24  3.3425e-28  1.1878e-23  6.0408e-28  1.6085e-23  8.0057e-28  2.3569e-23  9.809e-28  3.6886e-23  1.1247e-27  6.0595e-23  1.2952e-27  1.0284e-22  1.5042e-27  1.7821e-22  1.8294e-27  3.1304e-22  2.3664e-27  5.5536e-22  3.2809e-27  9.9429e-22  4.9141e-27  1.8002e-21  7.9019e-27  3.3137e-21  1.3527e-26  6.2589e-21
      5.80  9.5616e-30  6.2557e-24  1.2254e-29  6.3779e-24  1.9853e-29  6.5952e-24  4.0497e-29  6.9815e-24  8.5248e-29  7.6685e-24  1.8249e-28  8.8902e-24  3.4484e-28  1.1063e-23  5.4104e-28  1.4928e-23  6.8511e-28  2.1804e-23  8.3522e-28  3.4039e-23  9.4736e-28  5.5823e-23  1.1297e-27  9.4636e-23  1.3505e-27  1.6389e-22  1.6824e-27  2.8781e-22  2.2499e-27  5.1055e-22  3.2377e-27  9.1419e-22  5.0053e-27  1.6558e-21  8.2694e-27   3.05e-21  1.4469e-26  5.7677e-21
      5.85  9.1585e-30  5.9588e-24  1.2224e-29  6.0741e-24  2.0544e-29  6.2791e-24  4.2019e-29  6.6435e-24  9.4209e-29  7.2916e-24  2.0202e-28  8.4439e-24  3.1991e-28  1.0494e-23  4.7852e-28  1.414e-23  6.0174e-28  2.0627e-23  7.5273e-28  3.217e-23  8.8531e-28  5.2722e-23  1.045e-27  8.9341e-23  1.285e-27  1.5469e-22  1.6593e-27  2.7163e-22  2.3095e-27  4.8187e-22  3.4519e-27   8.63e-22  5.5179e-27  1.5637e-21  9.3472e-27  2.8824e-21  1.6675e-26  5.4571e-21
      5.90  8.8943e-30  5.7426e-24  1.2609e-29  5.8578e-24  2.2471e-29  6.0625e-24  4.7256e-29  6.4266e-24  1.0472e-28  7.074e-24  2.0626e-28  8.2252e-24  3.2314e-28  1.0273e-23  4.3061e-28  1.3916e-23  5.7475e-28  2.0397e-23  7.0996e-28  3.1929e-23  8.3376e-28  5.2462e-23  1.0078e-27  8.9049e-23  1.2824e-27  1.5434e-22  1.7428e-27  2.712e-22  2.5337e-27  4.8133e-22  3.944e-27  8.6241e-22  6.5118e-27  1.5635e-21  1.1299e-26  2.8841e-21  2.0522e-26  5.4663e-21
      5.95  8.5147e-30  5.5882e-24  1.2625e-29  5.7058e-24  2.3543e-29  5.9149e-24  5.098e-29  6.2867e-24  1.1399e-28  6.9478e-24  2.1497e-28  8.1236e-24  3.2998e-28  1.0215e-23  4.455e-28  1.3935e-23  5.5649e-28  2.0554e-23  6.7765e-28  3.2333e-23  8.3481e-28  5.3302e-23  1.0206e-27  9.067e-23  1.3264e-27  1.5736e-22  1.8587e-27  2.7674e-22  2.7968e-27  4.9144e-22  4.4737e-27  8.8096e-22  7.5409e-27  1.598e-21  1.328e-26   2.95e-21  2.4398e-26  5.5976e-21
      6.00  7.8624e-30  5.4792e-24  1.181e-29  5.5972e-24  2.2471e-29  5.8071e-24  4.9763e-29  6.1803e-24  1.1324e-28  6.8439e-24  2.3032e-28  8.024e-24  3.4283e-28  1.0123e-23  4.5392e-28  1.3857e-23  5.6549e-28  2.0501e-23  6.9565e-28  3.2323e-23  8.5756e-28  5.3372e-23  1.0928e-27  9.0883e-23  1.4732e-27  1.5784e-22  2.1424e-27  2.7769e-22  3.3337e-27  4.9331e-22  5.4888e-27  8.8464e-22  9.4387e-27  1.6055e-21  1.6854e-26  2.9663e-21  3.1291e-26  5.6356e-21
      6.05  7.0424e-30  5.4225e-24  1.0375e-29  5.5372e-24  1.9548e-29  5.7413e-24  4.3816e-29  6.104e-24  1.0298e-28  6.7491e-24  2.3082e-28  7.8959e-24  3.5435e-28  9.9362e-24  4.6599e-28  1.3566e-23  5.808e-28  2.0023e-23  7.1186e-28  3.1514e-23  8.8642e-28  5.1974e-23  1.1451e-27  8.8437e-23  1.601e-27  1.5353e-22  2.4058e-27  2.7006e-22  3.846e-27  4.7977e-22  6.4524e-27  8.6053e-22  1.1242e-26  1.5625e-21  2.0258e-26  2.8892e-21  3.7881e-26  5.4967e-21
      6.10  6.3601e-30  5.3975e-24  9.1118e-30  5.5063e-24  1.6632e-29  5.6998e-24  3.6776e-29  6.0439e-24  8.7328e-29  6.6557e-24  2.0059e-28  7.7435e-24  3.3276e-28  9.6785e-24  4.568e-28  1.3121e-23  5.6328e-28  1.9245e-23  6.8339e-28  3.0144e-23  8.6952e-28  4.955e-23  1.1701e-27  8.4136e-23  1.6952e-27  1.4588e-22  2.6303e-27  2.5644e-22  4.3039e-27  4.5546e-22  7.3356e-27   8.17e-22  1.2918e-26  1.484e-21  2.3449e-26  2.7464e-21  4.4099e-26  5.2324e-21
      6.15  6.0132e-30  5.3998e-24  8.5354e-30  5.5008e-24  1.5384e-29  5.7371e-24  3.2116e-29  5.9994e-24  7.3166e-29  6.5669e-24  1.5262e-28  7.5759e-24  2.5048e-28  9.3706e-24  3.8361e-28  1.2563e-23  4.8994e-28  1.8243e-23  6.1827e-28  2.8351e-23  8.1813e-28  4.6349e-23  1.1443e-27  7.8428e-23  1.7218e-27  1.357e-22  2.7497e-27  2.3827e-22  4.5983e-27  4.2297e-22  7.9505e-27  7.5864e-22  1.4127e-26  1.3785e-21  2.5804e-26  2.5531e-21  4.8762e-26  4.8709e-21
      6.20  5.7874e-30  5.4241e-24  8.2607e-30  5.5142e-24  1.4321e-29  5.6745e-24  2.8913e-29  5.9595e-24  5.8217e-29  6.4662e-24  1.1271e-28  7.3672e-24  1.816e-28  8.9697e-24  2.7192e-28  1.182e-23  3.8055e-28  1.6891e-23  5.1857e-28  2.5916e-23  7.2054e-28  4.1985e-23  1.0648e-27  7.0628e-23  1.6637e-27  1.2177e-22  2.7351e-27  2.1338e-22  4.6608e-27  3.7839e-22  8.1572e-27  6.7843e-22  1.4607e-26  1.233e-21  2.6822e-26  2.2853e-21  5.0901e-26  4.3661e-21
      6.25  5.2843e-30  5.466e-24  7.5202e-30  5.5418e-24  1.2726e-29  5.6767e-24  2.3233e-29  5.9164e-24  4.4018e-29  6.3425e-24  8.1922e-29  7.1003e-24  1.2769e-28  8.4479e-24  1.9307e-28  1.0845e-23  2.8075e-28  1.5109e-23  4.0677e-28  2.2698e-23  6.0497e-28  3.621e-23  9.4278e-28  6.0296e-23  1.5339e-27  1.0331e-22  2.5861e-27  1.8037e-22  4.4748e-27  3.1921e-22  7.9073e-27  5.7182e-22  1.4248e-26  1.0391e-21  2.6274e-26  1.9273e-21  5.0039e-26  3.6874e-21
      6.30  4.6209e-30  5.5495e-24  6.3726e-30  5.6099e-24  9.9281e-30  5.7174e-24  1.7835e-29  5.9086e-24  3.172e-29  6.2484e-24   5.76e-29  6.8527e-24  8.5293e-29  7.9275e-24  1.3389e-28  9.8388e-24  2.0786e-28  1.3239e-23  3.1376e-28  1.929e-23  4.974e-28  3.0064e-23  8.0925e-28  4.927e-23  1.3606e-27  8.3572e-23  2.3393e-27  1.4504e-22  4.099e-27  2.5582e-22  7.2984e-27  4.5751e-22  1.3214e-26  8.3096e-22  2.4453e-26  1.5419e-21  4.6717e-26  2.9541e-21
      6.35  4.0193e-30  5.656e-24  5.2483e-30  5.7039e-24  7.971e-30  5.8468e-24   1.29e-29  5.9402e-24  2.3393e-29  6.2091e-24  4.2057e-29  6.6873e-24  5.8759e-29  7.5377e-24  8.9924e-29  9.0501e-24  1.4674e-28  1.174e-23  2.463e-28  1.6528e-23  4.0708e-28  2.5053e-23  6.9205e-28  4.0251e-23  1.1912e-27  6.7396e-23  2.0805e-27  1.1605e-22  3.6841e-27  2.0377e-22  6.6023e-27  3.6356e-22  1.2004e-26  6.5974e-22  2.2283e-26  1.2245e-21  4.2695e-26  2.349e-21
      6.40  3.4785e-30  5.785e-24  4.5156e-30  5.8239e-24  6.5007e-30  5.893e-24  1.0085e-29  6.0158e-24  1.6918e-29  6.2342e-24  3.1281e-29  6.6226e-24  4.4114e-29  7.3134e-24  6.6756e-29  8.5418e-24  1.1061e-28  1.0727e-23  1.9481e-28  1.4616e-23  3.4649e-28  2.154e-23  6.1347e-28  3.3885e-23  1.0854e-27  5.5937e-23  1.9294e-27  9.5468e-23  3.4541e-27  1.6677e-22  6.2313e-27  2.9672e-22  1.1379e-26  5.3785e-22  2.1193e-26  9.9834e-22  4.0733e-26  1.9174e-21
      6.45  3.0006e-30  5.933e-24  3.948e-30  5.9652e-24  5.4979e-30  6.0224e-24  8.377e-30  6.124e-24  1.3398e-29  6.3048e-24  2.3478e-29  6.6261e-24  3.7394e-29  7.1976e-24  5.7556e-29  8.2141e-24  9.7257e-29  1.0022e-23  1.7408e-28  1.3239e-23  3.1845e-28  1.8968e-23  5.8005e-28  2.9182e-23  1.0488e-27  4.7428e-23  1.8943e-27  8.0143e-23  3.4185e-27  1.3917e-22  6.1998e-27  2.4681e-22  1.1363e-26  4.4672e-22  2.1224e-26  8.2906e-22  4.0911e-26  1.5938e-21
      6.50  2.4915e-30  6.0978e-24  3.3766e-30  6.1246e-24  4.5898e-30  6.1721e-24  7.016e-30  6.3192e-24  1.0801e-29  6.4069e-24  1.826e-29  6.6741e-24  2.9038e-29  7.1492e-24  4.648e-29  7.9943e-24  7.9809e-29  9.4975e-24  1.4491e-28  1.2172e-23  2.7024e-28  1.6935e-23  5.0537e-28  2.5427e-23  9.3368e-28  4.0598e-23  1.7082e-27  6.7803e-23  3.1117e-27  1.169e-22  5.6768e-27  2.0648e-22  1.0444e-26  3.7297e-22  1.9567e-26  6.9178e-22  3.782e-26  1.3306e-21
      6.55  2.0662e-30  6.3089e-24  2.8295e-30  6.3315e-24  3.7783e-30  6.3718e-24  5.5534e-30  6.4433e-24  8.9224e-30  6.5706e-24  1.5552e-29  6.8648e-24  2.4396e-29  7.1992e-24  3.9094e-29  7.9148e-24  6.8866e-29  9.1878e-24  1.2758e-28  1.1453e-23  2.4241e-28  1.5486e-23  4.6141e-28  2.2678e-23  8.6811e-28  3.5526e-23  1.6106e-27  5.8569e-23  2.9598e-27  1.0016e-22   5.43e-27  1.7608e-22  1.003e-26  3.1726e-22  1.8846e-26  5.8786e-22  3.6519e-26  1.1309e-21
      6.60  1.719e-30  6.5377e-24  2.331e-30  6.5575e-24  3.1365e-30  6.5928e-24  4.5585e-30  6.6556e-24  7.4458e-30  6.7672e-24  1.3262e-29  6.9657e-24  2.1708e-29  7.3187e-24  3.5165e-29  7.9464e-24  6.3069e-29  9.0632e-24  1.196e-28  1.105e-23  2.3106e-28  1.4589e-23  4.4588e-28  2.0899e-23  8.4931e-28  3.2173e-23  1.5932e-27  5.2393e-23  2.9538e-27  8.8897e-23  5.4503e-27  1.5554e-22  1.0106e-26  2.7954e-22  1.9041e-26  5.1738e-22  3.6981e-26  9.9514e-22
      6.65  1.4315e-30  6.7831e-24  1.8898e-30  6.8012e-24  2.5971e-30  6.8334e-24  3.7597e-30  6.8907e-24  6.148e-30  6.9925e-24  1.1465e-29  7.1737e-24  1.9193e-29  7.4958e-24  3.1864e-29  8.0687e-24  5.8733e-29  9.0878e-24  1.1407e-28  1.0902e-23  2.2413e-28  1.4131e-23  4.3785e-28  1.989e-23  8.4283e-28  3.0181e-23  1.5963e-27  4.8638e-23  2.9826e-27  8.1965e-23  5.5342e-27  1.4282e-22   1.03e-26  2.561e-22  1.9457e-26  4.7349e-22  3.7868e-26  9.1055e-22
      6.70  1.1911e-30  7.0439e-24  1.5102e-30  7.061e-24  2.0951e-30  7.0915e-24  3.1333e-30  7.1456e-24  5.2916e-30  7.2418e-24  1.053e-29  7.413e-24  1.9356e-29  7.7173e-24  3.4196e-29  8.2586e-24  6.5787e-29  9.2216e-24  1.3048e-28  1.0935e-23  2.5827e-28  1.3987e-23  5.0578e-28  1.9429e-23  9.7388e-28  2.9153e-23  1.8464e-27  4.6596e-23  3.4561e-27  7.8094e-23  6.4255e-27  1.3563e-22  1.1978e-26  2.4274e-22  2.2657e-26  4.4841e-22  4.4154e-26  8.6222e-22
      6.75  9.9243e-31  7.3192e-24  1.2066e-30  7.3358e-24  1.705e-30  7.3653e-24  2.6518e-30  7.4178e-24  4.8962e-30  7.5112e-24  1.0557e-29  7.6772e-24  2.0591e-29  7.9724e-24  3.8497e-29  8.4975e-24  7.6294e-29  9.4317e-24  1.5277e-28  1.1094e-23  3.0177e-28  1.4055e-23  5.8875e-28  1.9334e-23  1.1305e-27  2.8767e-23  2.1399e-27  4.5691e-23  4.0035e-27  7.6254e-23  7.4472e-27  1.3209e-22  1.3894e-26  2.3607e-22  2.6306e-26  4.3581e-22  5.1311e-26  8.3795e-22
      6.80  8.3085e-31  7.6481e-24  9.7389e-31  7.6645e-24  1.3902e-30  7.6938e-24  2.2847e-30  7.7458e-24   4.48e-30  7.8383e-24  1.0033e-29  8.0027e-24  2.1376e-29  8.2952e-24  4.0959e-29  8.8153e-24  8.2372e-29  9.7407e-24  1.6477e-28  1.1387e-23  3.2433e-28  1.432e-23  6.3089e-28  1.955e-23   1.21e-27  2.8896e-23  2.2897e-27  4.5663e-23  4.2873e-27  7.5946e-23  7.9865e-27  1.3127e-22  1.4923e-26  2.3434e-22  2.829e-26  4.3241e-22  5.5247e-26  8.3141e-22
      6.85  7.0022e-31  7.9947e-24  7.9889e-31  8.0112e-24  1.1003e-30  8.0407e-24  1.9235e-30  8.093e-24  3.9121e-30  8.1861e-24  9.507e-30  8.3517e-24  2.2532e-29  8.6461e-24  4.4661e-29  9.1698e-24  9.1895e-29  1.0101e-23  1.8385e-28  1.176e-23  3.6279e-28  1.4712e-23  7.0483e-28  1.9978e-23  1.3505e-27  2.9389e-23  2.5529e-27  4.6272e-23  4.7777e-27  7.6768e-23  8.901e-27  1.3249e-22  1.664e-26  2.3632e-22  3.157e-26  4.3593e-22  6.1705e-26  8.3822e-22
      6.90  5.9634e-31  8.3583e-24  6.7444e-31  8.3751e-24  9.0946e-31  8.4049e-24  1.6008e-30  8.4579e-24  3.6417e-30  8.5522e-24  9.6169e-30  8.7198e-24  2.4343e-29  9.0179e-24  5.0099e-29  9.5482e-24  1.0521e-28  1.0492e-23  2.1151e-28  1.217e-23  4.202e-28  1.516e-23  8.2182e-28  2.0492e-23  1.5772e-27  3.002e-23  2.979e-27  4.7116e-23  5.5663e-27  7.7997e-23  1.0358e-26  1.3444e-22  1.9355e-26  2.3961e-22  3.6722e-26  4.4188e-22  7.1802e-26  8.4974e-22
      6.95  5.1317e-31  8.7383e-24  5.8612e-31  8.7551e-24  8.024e-31  8.7851e-24  1.4761e-30  8.8384e-24  3.5475e-30  8.9331e-24  9.6086e-30  9.1016e-24  2.4894e-29  9.4011e-24  5.1626e-29  9.9339e-24  1.0671e-28  1.0882e-23  2.1371e-28  1.2569e-23  4.2919e-28  1.5573e-23  8.4555e-28  2.093e-23  1.6287e-27  3.0504e-23  3.0821e-27  4.7682e-23  5.7663e-27  7.8715e-23  1.074e-26  1.3544e-22  2.0083e-26  2.4117e-22  3.8134e-26  4.4456e-22  7.4628e-26  8.5488e-22
      7.00  4.4361e-31  9.1339e-24  5.1457e-31  9.1505e-24  7.3295e-31   9.18e-24  1.3911e-30  9.2325e-24  3.3309e-30  9.3259e-24  9.0588e-30  9.4918e-24  2.5164e-29  9.7869e-24  5.2201e-29  1.0312e-23  1.0477e-28  1.1245e-23  2.1272e-28  1.2907e-23  4.3158e-28  1.5865e-23  8.563e-28  2.1141e-23  1.6591e-27  3.0571e-23  3.1548e-27  4.749e-23  5.9212e-27  7.8057e-23  1.1051e-26  1.3393e-22  2.0694e-26  2.3811e-22  3.9337e-26  4.3858e-22  7.7059e-26  8.4318e-22
      7.05  3.7222e-31  9.5953e-24  4.3978e-31  9.6112e-24  6.4154e-31  9.6394e-24  1.2418e-30  9.6895e-24  3.0423e-30  9.7787e-24  8.3879e-30  9.9372e-24  2.3992e-29  1.0219e-23  5.1627e-29  1.072e-23  1.0474e-28  1.1612e-23  2.1387e-28  1.3199e-23  4.3723e-28  1.6024e-23  8.767e-28  2.1062e-23  1.721e-27  3.0065e-23  3.3029e-27  4.6221e-23  6.237e-27  7.541e-23  1.1684e-26  1.2877e-22  2.1929e-26  2.2828e-22  4.1747e-26  4.1983e-22  8.1877e-26  8.0659e-22
      7.10  3.087e-31  1.0077e-23  3.6855e-31  1.0092e-23  5.4546e-31  1.0118e-23  1.0819e-30  1.0164e-23  2.7154e-30  1.0246e-23  7.6382e-30  1.0391e-23  2.2146e-29  1.065e-23  5.1115e-29  1.111e-23  1.0596e-28  1.1928e-23   2.16e-28  1.3383e-23  4.4176e-28  1.5975e-23  9.037e-28  2.0595e-23  1.8054e-27  2.8853e-23  3.5113e-27  4.3668e-23  6.6878e-27  7.0438e-23  1.2596e-26  1.1938e-22  2.3719e-26  2.1067e-22  4.5248e-26  3.8644e-22  8.8868e-26  7.4149e-22
      7.15  2.556e-31  1.058e-23  3.0701e-31  1.0593e-23  4.6165e-31  1.0616e-23  9.3636e-31  1.0656e-23  2.3996e-30  1.0728e-23  6.6781e-30  1.0856e-23  1.8917e-29  1.1083e-23  4.6142e-29  1.1487e-23  9.3151e-29  1.2205e-23  1.8654e-28  1.3482e-23  3.8668e-28  1.5757e-23  8.0513e-28  1.9811e-23  1.642e-27  2.7056e-23  3.2521e-27  4.0055e-23  6.2813e-27  6.3541e-23  1.1946e-26  1.0649e-22  2.2639e-26  1.8659e-22  4.3368e-26  3.4087e-22  8.5411e-26  6.5264e-22
      7.20  2.1037e-31  1.1104e-23  2.5343e-31  1.1115e-23  3.8447e-31  1.1134e-23  7.8636e-31  1.1168e-23  1.9673e-30  1.1229e-23  5.3923e-30  1.1337e-23  1.4959e-29  1.1529e-23  3.7982e-29  1.187e-23  7.4007e-29  1.2478e-23  1.5043e-28  1.3558e-23  3.173e-28  1.5481e-23  6.7471e-28  1.8908e-23  1.4123e-27  2.5031e-23  2.8676e-27  3.6015e-23  5.6511e-27  5.586e-23  1.0907e-26  9.2149e-23  2.088e-26  1.5985e-22  4.0263e-26  2.9026e-22  7.9633e-26  5.5386e-22
      7.25  1.7224e-31  1.1648e-23  2.0692e-31  1.1657e-23  3.1204e-31  1.1673e-23  6.234e-31  1.1701e-23  1.5347e-30  1.1752e-23  4.1053e-30  1.1842e-23  1.1064e-29  1.2001e-23  2.7651e-29  1.2285e-23  5.4909e-29  1.2789e-23  1.1237e-28  1.3687e-23  2.4003e-28  1.5284e-23  5.2488e-28  1.813e-23  1.1328e-27  2.3214e-23  2.3735e-27  3.2332e-23  4.8013e-27  4.8805e-23  9.4514e-27  7.8928e-23  1.8346e-26  1.3513e-22  3.5704e-26  2.4339e-22  7.1036e-26  4.6228e-22
      7.30  1.4035e-31  1.2277e-23  1.6739e-31  1.2285e-23  2.4731e-31  1.2298e-23  4.8465e-31  1.2322e-23  1.1754e-30  1.2364e-23  3.0562e-30  1.2439e-23  8.138e-30  1.2572e-23  1.9768e-29  1.2809e-23  4.1473e-29  1.323e-23   8.45e-29  1.398e-23  1.7874e-28  1.5314e-23  4.0057e-28  1.7691e-23  8.9869e-28  2.1936e-23  1.956e-27  2.9549e-23  4.0908e-27  4.3302e-23  8.2619e-27  6.8447e-23  1.6334e-26  1.1536e-22  3.2182e-26  2.0574e-22  6.4541e-26  3.8847e-22
      7.35  1.1429e-31  1.2935e-23  1.3461e-31  1.2942e-23  1.9473e-31  1.2953e-23  3.7307e-31  1.2973e-23  8.8478e-31  1.3009e-23  2.2649e-30  1.3073e-23  5.9138e-30  1.3186e-23  1.4882e-29  1.3388e-23  3.2738e-29  1.3747e-23  6.5833e-29  1.4386e-23  1.3962e-28  1.5523e-23  3.1806e-28  1.755e-23  7.3906e-28  2.1169e-23  1.6688e-27  2.7659e-23  3.5983e-27  3.9382e-23  7.4475e-27  6.0814e-23  1.4992e-26  1.0079e-22  2.9908e-26  1.7782e-22  6.0471e-26  3.3355e-22
      7.40  9.3122e-32  1.3622e-23  1.0864e-31  1.3627e-23  1.5456e-31  1.3637e-23  2.9106e-31  1.3655e-23  6.8356e-31  1.3686e-23  1.7215e-30  1.3742e-23  4.4435e-30  1.3841e-23  1.1762e-29  1.4018e-23  2.7913e-29  1.4332e-23  5.4867e-29  1.489e-23  1.1596e-28  1.5885e-23  2.669e-28  1.7658e-23  6.3081e-28  2.0824e-23  1.4618e-27  2.6503e-23  3.2398e-27  3.6758e-23   6.86e-27  5.5505e-23  1.4047e-26  9.0476e-23  2.836e-26  1.5784e-22  5.7797e-26  2.9403e-22
      7.45  7.6021e-32  1.4336e-23  8.8326e-32  1.4341e-23  1.2472e-31  1.435e-23  2.3318e-31  1.4366e-23  5.4581e-31  1.4394e-23  1.3656e-30  1.4444e-23  3.5651e-30  1.4533e-23  9.4581e-30  1.4692e-23  2.2177e-29  1.4974e-23  4.2772e-29  1.5475e-23   8.92e-29  1.6369e-23  2.0657e-28  1.7961e-23  4.974e-28  2.0806e-23  1.185e-27  2.5908e-23  2.7082e-27  3.5123e-23  5.896e-27  5.1967e-23  1.2339e-26  8.3384e-23  2.5305e-26  1.439e-22  5.2121e-26  2.6622e-22
      7.50  6.2235e-32  1.5078e-23  7.242e-32  1.5083e-23  1.0282e-31  1.5091e-23  1.9248e-31  1.5106e-23  4.5709e-31  1.5132e-23  1.1259e-30  1.5178e-23  2.9574e-30  1.526e-23   7.92e-30  1.5406e-23  1.8445e-29  1.5665e-23  3.5287e-29  1.6127e-23  7.2516e-29  1.6949e-23  1.6756e-28  1.8416e-23  4.0771e-28  2.1036e-23  9.9217e-28  2.5735e-23  2.3307e-27  3.4221e-23  5.2124e-27  4.9734e-23  1.1154e-26  7.8666e-23  2.3251e-26  1.3438e-22  4.8426e-26   2.47e-22
      7.55  5.1136e-32  1.5929e-23  6.0043e-32  1.5934e-23  8.678e-32  1.5941e-23  1.6528e-31  1.5955e-23  3.9728e-31  1.598e-23  9.9249e-31  1.6023e-23  2.6255e-30   1.61e-23  7.0472e-30  1.6238e-23  1.5723e-29  1.6482e-23  3.0569e-29  1.6918e-23  6.1904e-29  1.7693e-23  1.4143e-28  1.9075e-23  3.444e-28  2.1544e-23  8.496e-28  2.5974e-23  2.0424e-27  3.3975e-23  4.6904e-27  4.8599e-23  1.0282e-26  7.5872e-23  2.1841e-26  1.2839e-22  4.6098e-26  2.3451e-22
      7.60  4.2198e-32  1.6818e-23  5.0387e-32  1.6822e-23  7.5167e-32  1.683e-23  1.4796e-31  1.6843e-23  3.6181e-31  1.6867e-23  9.3061e-31  1.6908e-23  2.4564e-30  1.6983e-23  6.5093e-30  1.7115e-23  1.3596e-29  1.735e-23  2.7127e-29  1.7768e-23  5.3172e-29  1.8513e-23  1.181e-28  1.9842e-23  2.8273e-28  2.2217e-23  6.9623e-28  2.6477e-23  1.6942e-27  3.4172e-23  3.9693e-27  4.8238e-23  8.8878e-27  7.4466e-23  1.9226e-26  1.2497e-22  4.1129e-26   2.27e-22
      7.65  3.4936e-32  1.7745e-23  4.2661e-32  1.7749e-23  6.6205e-32  1.7756e-23  1.352e-31  1.7769e-23  3.3652e-31  1.7792e-23  8.8456e-31  1.7833e-23  2.3671e-30  1.7906e-23  6.2514e-30  1.8035e-23  1.2153e-29  1.8264e-23  2.3918e-29  1.8673e-23  4.663e-29  1.9402e-23  1.0053e-28  2.0701e-23  2.3504e-28  2.3022e-23  5.7311e-28  2.7188e-23  1.4019e-27  3.4711e-23  3.3367e-27  4.8464e-23  7.6212e-27  7.4109e-23  1.6795e-26  1.2348e-22  3.6456e-26  2.2322e-22
      7.70  2.8891e-32  1.8709e-23  3.6229e-32  1.8713e-23  5.8768e-32  1.8721e-23  1.2448e-31  1.8733e-23  3.1526e-31  1.8756e-23  8.4392e-31  1.8797e-23  2.3053e-30  1.9057e-23  5.9308e-30  1.8996e-23  1.0969e-29  1.9224e-23  2.1274e-29  1.9629e-23  4.156e-29  2.035e-23  8.6494e-29  2.1637e-23  1.9693e-28  2.3936e-23  4.7295e-28  2.8061e-23  1.156e-27  3.5513e-23  2.7838e-27  4.9136e-23  6.4752e-27  7.4537e-23  1.454e-26  1.2344e-22  3.2063e-26  2.2221e-22
      7.75  2.404e-32  1.9711e-23  3.1044e-32  1.9715e-23  5.2684e-32  1.9723e-23  1.1567e-31  1.9735e-23  2.9714e-31  1.9758e-23  8.061e-31  1.9798e-23  2.1523e-30  1.987e-23  5.5067e-30  1.9998e-23  1.0095e-29  2.0226e-23  1.9154e-29  2.063e-23   3.69e-29  2.1351e-23  7.5329e-29  2.2637e-23  1.6667e-28  2.4935e-23  3.9217e-28  2.9059e-23  9.5188e-28  3.6508e-23  2.3075e-27  5.0127e-23  5.4521e-27  7.5519e-23  1.2472e-26  1.244e-22  2.7966e-26  2.2312e-22
      7.80  2.0035e-32  2.0854e-23  2.6658e-32  2.0858e-23  4.7306e-32  2.0865e-23  1.0714e-31  2.0878e-23  2.7875e-31  2.0901e-23  7.6511e-31  2.0942e-23  2.0708e-30  2.1014e-23  5.066e-30  2.1143e-23  9.2342e-30  2.1372e-23  1.725e-29  2.178e-23  3.3058e-29  2.2506e-23  6.6079e-29  2.3801e-23  1.4218e-28  2.6115e-23  3.2681e-28  3.0268e-23  7.8402e-28  3.7771e-23  1.9047e-27  5.1488e-23  4.5591e-27  7.7063e-23  1.0619e-26  1.2629e-22  2.4237e-26  2.2571e-22
      7.85  1.6673e-32  2.2048e-23  2.2826e-32  2.2052e-23  4.2141e-32  2.2059e-23  9.796e-32  2.2072e-23  2.575e-31  2.2095e-23  7.1061e-31  2.2137e-23  1.9161e-30  2.221e-23  4.6667e-30  2.234e-23  8.3791e-30  2.2571e-23  1.5534e-29  2.2982e-23  2.9565e-29  2.3716e-23  5.7861e-29  2.5023e-23  1.217e-28  2.736e-23  2.7316e-28  3.1553e-23  6.4588e-28  3.9129e-23  1.5666e-27  5.2979e-23  3.789e-27  7.8804e-23  8.9806e-27  1.2851e-22  2.0885e-26  2.2888e-22
      7.90  1.3845e-32  2.3293e-23  1.9307e-32  2.3298e-23  3.6746e-32  2.3305e-23  8.7601e-32  2.3318e-23  2.3193e-31  2.3341e-23  6.4041e-31  2.3383e-23  1.7583e-30  2.3457e-23  4.0099e-30  2.3588e-23  7.2433e-30  2.3821e-23  1.3336e-29  2.4237e-23  2.5217e-29  2.4977e-23  4.8831e-29  2.6296e-23  1.0042e-28  2.8655e-23  2.2068e-28  3.2889e-23  5.1427e-28  4.0536e-23  1.2439e-27  5.4517e-23  3.0374e-27  8.0586e-23  7.3302e-27  1.3076e-22  1.7404e-26  2.3206e-22
      7.95  1.1452e-32  2.459e-23  1.6234e-32  2.4595e-23  3.1635e-32  2.4602e-23  7.6538e-32  2.4615e-23  2.0362e-31  2.4639e-23  5.6286e-31  2.468e-23  1.5552e-30  2.4755e-23  3.3962e-30  2.4887e-23  6.1194e-30  2.5122e-23  1.1192e-29  2.554e-23  2.0982e-29  2.6284e-23  4.0358e-29  2.7612e-23  8.1292e-29  2.9986e-23  1.749e-28  3.4245e-23  4.0258e-28  4.1941e-23  9.6736e-28  5.6009e-23  2.3746e-27  8.2238e-23  5.816e-27  1.3272e-22  1.4076e-26  2.3463e-22
      8.00  9.4215e-33  2.5939e-23  1.3476e-32  2.5943e-23  2.6656e-32  2.5951e-23  6.5222e-32  2.5964e-23  1.7382e-31  2.5987e-23  4.8083e-31  2.6029e-23  1.3329e-30  2.6104e-23  2.7901e-30  2.6236e-23  5.1137e-30  2.6471e-23  9.2337e-30  2.689e-23  1.7174e-29  2.7637e-23  3.2848e-29  2.8968e-23  6.5334e-29  3.1346e-23  1.382e-28  3.5615e-23  3.1178e-28  4.3327e-23  7.4253e-28  5.7426e-23  1.8258e-27  8.3711e-23  4.5234e-27  1.343e-22  1.1136e-26  2.364e-22
      8.05  7.707e-33  2.7472e-23  1.1033e-32  2.7477e-23  2.1966e-32  2.7484e-23  5.4008e-32  2.7497e-23  1.4409e-31  2.7521e-23  3.9892e-31  2.7563e-23  1.1068e-30  2.7637e-23  2.2653e-30  2.7769e-23  4.1067e-30  2.8005e-23  7.534e-30  2.8424e-23  1.3808e-29  2.9171e-23  2.6252e-29  3.0502e-23  5.1707e-29  3.2882e-23  1.078e-28  3.7152e-23  2.3983e-28  4.4868e-23  5.6632e-28  5.8971e-23  1.393e-27  8.5265e-23  3.4844e-27  1.3586e-22  8.7143e-27  2.3797e-22
      8.10  6.2728e-33  2.9076e-23  8.9183e-33  2.908e-23  1.7608e-32  2.9088e-23  4.4024e-32  2.9393e-23  1.1603e-31  2.9124e-23  3.2193e-31  2.9166e-23  9.1219e-31  2.9534e-23  1.8016e-30  2.9372e-23  3.2631e-30  2.9607e-23  5.8614e-30  3.0025e-23  1.0895e-29  3.0769e-23  2.0595e-29  3.2097e-23  4.0323e-29  3.4469e-23  8.3084e-29  3.8726e-23  1.8266e-28  4.6417e-23  4.2783e-28  6.0476e-23  1.0516e-27  8.6683e-23  2.6509e-27  1.371e-22  6.7236e-27  2.3885e-22
      8.15  5.0886e-33  3.0752e-23  7.1405e-33  3.0756e-23  1.3952e-32  3.0763e-23  3.3821e-32  3.0776e-23  9.1406e-32   3.08e-23  2.538e-31  3.0841e-23  7.0709e-31  3.0915e-23   1.42e-30  3.1046e-23  2.5489e-30  3.128e-23  4.5691e-30  3.1695e-23  8.3918e-30  3.2436e-23  1.577e-29  3.3756e-23  3.1004e-29  3.6115e-23  6.3103e-29  4.0349e-23  1.371e-28  4.7998e-23  3.1821e-28  6.1979e-23  7.8004e-28  8.804e-23  1.9768e-27  1.3817e-22  5.0753e-27  2.3931e-22
      8.20  4.1223e-33   3.25e-23  5.6811e-33  3.2504e-23  1.0907e-32  3.2511e-23  2.6201e-32  3.2524e-23  7.0253e-32  3.2547e-23  1.9614e-31  3.2588e-23  5.4781e-31  3.2662e-23  1.0826e-30  3.2792e-23  1.9441e-30  3.3024e-23  3.5145e-30  3.3437e-23  6.4397e-30  3.4173e-23  1.2162e-29  3.5484e-23  2.3522e-29  3.7829e-23  4.7676e-29  4.2035e-23  1.0272e-28  4.9635e-23  2.3683e-28  6.3524e-23  5.7951e-28  8.941e-23  1.4757e-27  1.392e-22  3.8304e-27  2.3962e-22
      8.25  3.3115e-33  3.4321e-23   4.48e-33  3.4325e-23  8.1427e-33  3.4332e-23  2.0034e-32  3.4345e-23  5.3494e-32  3.4368e-23  1.4944e-31  3.4409e-23  4.1864e-31  3.4482e-23  8.2559e-31  3.4611e-23  1.4959e-30  3.4842e-23  2.6779e-30  3.5252e-23  4.8992e-30  3.5983e-23  9.1481e-30  3.7287e-23  1.8076e-29  4.0015e-23  3.5891e-29  4.3798e-23  7.6915e-29  5.135e-23  1.7658e-28  6.5152e-23  4.2937e-28  9.0873e-23  1.1048e-27  1.4034e-22  2.8961e-27  2.4007e-22
      8.30  2.6929e-33  3.6388e-23  3.5626e-33  3.6392e-23  6.3013e-33  3.6399e-23  1.4987e-32  3.6412e-23  4.0439e-32  3.6435e-23  1.1233e-31  3.6476e-23  3.1715e-31  3.6549e-23  6.3233e-31  3.6678e-23  1.1338e-30  3.6908e-23  2.0489e-30  3.7318e-23  3.7443e-30  3.8048e-23  6.9774e-30  3.935e-23  1.3411e-29  4.1677e-23  2.698e-29  4.5852e-23  5.7656e-29  5.3394e-23  1.3142e-28  6.7176e-23  3.2303e-28  9.2856e-23  8.3037e-28  1.4223e-22  2.1966e-27  2.4175e-22
      8.35  2.1945e-33  3.8556e-23  2.8277e-33  3.856e-23  4.8341e-33  3.8567e-23  1.1201e-32  3.858e-23  2.9623e-32  3.8603e-23  8.2739e-32  3.8644e-23  2.3401e-31  3.8717e-23  4.6787e-31  3.8846e-23  8.3862e-31  3.9077e-23  1.5151e-30  3.9487e-23  2.7696e-30  4.0219e-23  5.1609e-30  4.1522e-23  9.9194e-30  4.3853e-23  1.996e-29  4.8034e-23   4.27e-29  5.5586e-23  9.8003e-29  6.9385e-23  2.4074e-28  9.5095e-23  6.2317e-28  1.4452e-22  1.665e-27  2.4411e-22
      8.40  1.797e-33  4.0827e-23  2.2513e-33  4.0831e-23  3.7032e-33  4.0838e-23  8.293e-33  4.0851e-23  2.1474e-32  4.0874e-23  5.9858e-32  4.0915e-23  1.688e-31  4.0989e-23  3.3868e-31  4.1119e-23  6.0693e-31  4.1351e-23  1.0968e-30  4.1763e-23  2.0065e-30  4.2498e-23  3.7442e-30  4.3808e-23  7.2115e-30  4.6149e-23  1.4558e-29  5.035e-23  3.1283e-29  5.7937e-23  7.2245e-29   7.18e-23  1.788e-28  9.7625e-23  4.671e-28  1.4726e-22  1.2617e-27  2.4724e-22
      8.45  1.4846e-33  4.3204e-23  1.8139e-33  4.3208e-23  2.878e-33  4.3216e-23  5.9593e-33  4.3229e-23  1.578e-32  4.3252e-23  4.3642e-32  4.3294e-23  1.2265e-31  4.3367e-23  2.4715e-31  4.3499e-23  4.428e-31  4.3732e-23  8.0035e-31  4.4148e-23  1.4653e-30  4.4889e-23  2.7382e-30  4.621e-23  5.2852e-30  4.8571e-23  1.0703e-29  5.2806e-23  2.3104e-29  6.0455e-23  5.3664e-29  7.4431e-23  1.3375e-28  1.0046e-22  3.5234e-28  1.5048e-22  9.6108e-28  2.5122e-22
      8.50  1.2381e-33  4.5691e-23  1.4804e-33  4.5695e-23  2.2732e-33  4.5702e-23  4.533e-33  4.5716e-23  1.1642e-32  4.5739e-23  3.1977e-32  4.5781e-23  9.0232e-32  4.5856e-23  1.8198e-31  4.5989e-23  3.2604e-31  4.6225e-23  5.8929e-31  4.6646e-23  1.0796e-30  4.7396e-23  2.0199e-30  4.8732e-23  3.9068e-30  5.1121e-23  7.9356e-30  5.5406e-23  1.7199e-29  6.3146e-23  4.0157e-29  7.7285e-23  1.0072e-28  1.0362e-22  2.6727e-28  1.5421e-22  7.3534e-28  2.5606e-22
