# This was generated using Cloudy10 and the columns are ordered 
# as log10 of the fraction of the metallicity to the solar metallicity
# 'h_*_Z' and 'c_*_Z' stands for cooling and heating respectively 
# at * metalicity
#
# NOTE: This was generated separately from loop_coolingcurve_w_UV.py
#       using Output_metals_w_redshift.py.
#
# Redshift = 3.5
# hden = 0.0
#
#     temp   h_-3.00_Z   c_-3.00_Z   h_-2.75_Z   c_-2.75_Z   h_-2.50_Z   c_-2.50_Z   h_-2.25_Z   c_-2.25_Z   h_-2.00_Z   c_-2.00_Z   h_-1.75_Z   c_-1.75_Z   h_-1.50_Z   c_-1.50_Z   h_-1.25_Z   c_-1.25_Z   h_-1.00_Z   c_-1.00_Z   h_-0.75_Z   c_-0.75_Z   h_-0.50_Z   c_-0.50_Z   h_-0.25_Z   c_-0.25_Z    h_0.00_Z    c_0.00_Z    h_0.25_Z    c_0.25_Z    h_0.50_Z    c_0.50_Z    h_0.75_Z    c_0.75_Z    h_1.00_Z    c_1.00_Z    h_1.25_Z    c_1.25_Z    h_1.50_Z    c_1.50_Z 
      4.00  1.9394e-24  1.2738e-24  1.9395e-24  1.2791e-24  1.9395e-24  1.2885e-24  1.9395e-24  1.3053e-24  1.9396e-24  1.3351e-24  1.9398e-24  1.3881e-24  1.9400e-24  1.4824e-24  1.9405e-24  1.6501e-24  1.9414e-24  1.9484e-24  1.9429e-24  2.4788e-24  1.9456e-24  3.4224e-24  1.9504e-24  5.1012e-24  1.9589e-24  8.0892e-24  1.9740e-24  1.3411e-23  2.0009e-24  2.2901e-23  2.0488e-24  3.9857e-23  2.1342e-24  7.0268e-23  2.2860e-24  1.2516e-22  2.5575e-24  2.2528e-22
      4.05  1.8434e-24  3.4452e-24  1.8435e-24  3.4521e-24  1.8435e-24  3.4642e-24  1.8435e-24  3.4857e-24  1.8436e-24  3.5241e-24  1.8438e-24  3.5922e-24  1.8440e-24  3.7134e-24  1.8445e-24  3.9289e-24  1.8454e-24  4.3122e-24  1.8469e-24  4.9939e-24  1.8495e-24  6.2065e-24  1.8543e-24  8.3639e-24  1.8628e-24  1.2204e-23  1.8779e-24  1.9042e-23  1.9047e-24  3.1234e-23  1.9524e-24  5.3016e-23  2.0375e-24  9.2069e-23  2.1892e-24  1.6252e-22  2.4611e-24  2.9088e-22
      4.10  1.7385e-24  9.5058e-24  1.7385e-24  9.5146e-24  1.7386e-24  9.5303e-24  1.7386e-24  9.5581e-24  1.7387e-24  9.6075e-24  1.7389e-24  9.6955e-24  1.7391e-24  9.8519e-24  1.7396e-24  1.0130e-23  1.7404e-24  1.0625e-23  1.7419e-24  1.1504e-23  1.7446e-24  1.3069e-23  1.7493e-24  1.5853e-23  1.7576e-24  2.0807e-23  1.7725e-24  2.9629e-23  1.7990e-24  4.5358e-23  1.8462e-24  7.3456e-23  1.9302e-24  1.2382e-22  2.0802e-24  2.1462e-22  2.3496e-24  3.7997e-22
      4.15  1.5974e-24  2.3989e-23  1.5975e-24  2.4001e-23  1.5975e-24  2.4021e-23  1.5975e-24  2.4056e-23  1.5976e-24  2.4120e-23  1.5978e-24  2.4233e-23  1.5980e-24  2.4433e-23  1.5985e-24  2.4790e-23  1.5993e-24  2.5424e-23  1.6007e-24  2.6552e-23  1.6033e-24  2.8558e-23  1.6078e-24  3.2127e-23  1.6159e-24  3.8478e-23  1.6302e-24  4.9789e-23  1.6557e-24  6.9953e-23  1.7013e-24  1.0597e-22  1.7824e-24  1.7052e-22  1.9272e-24  2.8688e-22  2.1870e-24  4.9870e-22
      4.20  1.3592e-24  5.1514e-23  1.3592e-24  5.1528e-23  1.3592e-24  5.1553e-23  1.3593e-24  5.1598e-23  1.3593e-24  5.1677e-23  1.3594e-24  5.1818e-23  1.3597e-24  5.2070e-23  1.3601e-24  5.2516e-23  1.3609e-24  5.3310e-23  1.3622e-24  5.4723e-23  1.3645e-24  5.7236e-23  1.3687e-24  6.1705e-23  1.3761e-24  6.9660e-23  1.3893e-24  8.3826e-23  1.4129e-24  1.0908e-22  1.4548e-24  1.5418e-22  1.5295e-24  2.3501e-22  1.6626e-24  3.8070e-22  1.9009e-24  6.4590e-22
      4.25  9.8385e-25  8.4542e-23  9.8386e-25  8.4559e-23  9.8389e-25  8.4589e-23  9.8392e-25  8.4642e-23  9.8398e-25  8.4737e-23  9.8410e-25  8.4906e-23  9.8430e-25  8.5206e-23  9.8466e-25  8.5740e-23  9.8530e-25  8.6689e-23  9.8643e-25  8.8377e-23  9.8846e-25  9.1381e-23  9.9206e-25  9.6724e-23  9.9846e-25  1.0623e-22  1.0098e-24  1.2317e-22  1.0301e-24  1.5335e-22  1.0662e-24  2.0725e-22  1.1304e-24  3.0382e-22  1.2446e-24  4.7784e-22  1.4483e-24  7.9447e-22
      4.30  6.0252e-25  9.8538e-23  6.0253e-25  9.8557e-23  6.0255e-25  9.8592e-23  6.0258e-25  9.8654e-23  6.0263e-25  9.8765e-23  6.0273e-25  9.8961e-23  6.0289e-25  9.9310e-23  6.0319e-25  9.9930e-23  6.0371e-25  1.0103e-22  6.0464e-25  1.0300e-22  6.0630e-25  1.0649e-22  6.0926e-25  1.1270e-22  6.1450e-25  1.2375e-22  6.2384e-25  1.4343e-22  6.4044e-25  1.7851e-22  6.6995e-25  2.4115e-22  7.2242e-25  3.5337e-22  8.1566e-25  5.5549e-22  9.8139e-25  9.2312e-22
      4.35  3.6448e-25  8.9235e-23  3.6448e-25  8.9258e-23  3.6450e-25  8.9300e-23  3.6452e-25  8.9374e-23  3.6456e-25  8.9505e-23  3.6463e-25  8.9740e-23  3.6476e-25  9.0156e-23  3.6500e-25  9.0897e-23  3.6541e-25  9.2214e-23  3.6615e-25  9.4557e-23  3.6746e-25  9.8724e-23  3.6979e-25  1.0614e-22  3.7393e-25  1.1933e-22  3.8131e-25  1.4282e-22  3.9442e-25  1.8468e-22  4.1775e-25  2.5943e-22  4.5924e-25  3.9334e-22  5.3302e-25  6.3456e-22  6.6415e-25  1.0733e-21
      4.40  2.4522e-25  7.2529e-23  2.4522e-25  7.2558e-23  2.4523e-25  7.2609e-23  2.4525e-25  7.2700e-23  2.4528e-25  7.2863e-23  2.4534e-25  7.3151e-23  2.4543e-25  7.3664e-23  2.4561e-25  7.4577e-23  2.4592e-25  7.6199e-23  2.4647e-25  7.9085e-23  2.4745e-25  8.4218e-23  2.4920e-25  9.3349e-23  2.5231e-25  1.0960e-22  2.5838e-25  1.3853e-22  2.6925e-25  1.9010e-22  2.8862e-25  2.8219e-22  3.2318e-25  4.4716e-22  3.8466e-25  7.4442e-22  4.9432e-25  1.2852e-21
      4.45  1.7579e-25  5.7743e-23  1.7580e-25  5.7780e-23  1.7580e-25  5.7844e-23  1.7582e-25  5.7958e-23  1.7584e-25  5.8162e-23  1.7588e-25  5.8523e-23  1.7595e-25  5.9167e-23  1.7608e-25  6.0311e-23  1.7630e-25  6.2345e-23  1.7670e-25  6.5963e-23  1.7766e-25  7.2398e-23  1.7948e-25  8.3846e-23  1.8271e-25  1.0422e-22  1.8847e-25  1.4049e-22  1.9877e-25  2.0515e-22  2.1709e-25  3.2061e-22  2.4962e-25  5.2750e-22  3.0742e-25  9.0031e-22  4.1045e-25  1.5786e-21
      4.50  1.1694e-25  4.6711e-23  1.1694e-25  4.6757e-23  1.1695e-25  4.6839e-23  1.1696e-25  4.6984e-23  1.1697e-25  4.7242e-23  1.1700e-25  4.7701e-23  1.1705e-25  4.8517e-23  1.1715e-25  4.9969e-23  1.1737e-25  5.2550e-23  1.1793e-25  5.7141e-23  1.1893e-25  6.5307e-23  1.2072e-25  7.9834e-23  1.2391e-25  1.0569e-22  1.2961e-25  1.5171e-22  1.3975e-25  2.3376e-22  1.5769e-25  3.8029e-22  1.8949e-25  6.4282e-22  2.4570e-25  1.1159e-21  3.4525e-25  1.9767e-21
      4.55  6.6204e-26  3.8344e-23  6.6206e-26  3.8403e-23  6.6210e-26  3.8508e-23  6.6218e-26  3.8694e-23  6.6230e-26  3.9024e-23  6.6253e-26  3.9612e-23  6.6294e-26  4.0657e-23  6.6394e-26  4.2516e-23  6.6699e-26  4.5822e-23  6.7242e-26  5.1702e-23  6.8211e-26  6.2160e-23  6.9940e-26  8.0764e-23  7.3035e-26  1.1387e-22  7.8538e-26  1.7282e-22  8.8293e-26  2.7791e-22  1.0558e-25  4.6560e-22  1.3607e-25  8.0191e-22  1.8986e-25  1.4080e-21  2.8465e-25  2.5115e-21
      4.60  3.4368e-26  3.1643e-23  3.4370e-26  3.1719e-23  3.4373e-26  3.1853e-23  3.4378e-26  3.2091e-23  3.4387e-26  3.2515e-23  3.4404e-26  3.3269e-23  3.4433e-26  3.4610e-23  3.4579e-26  3.6994e-23  3.4853e-26  4.1234e-23  3.5343e-26  4.8775e-23  3.6218e-26  6.2189e-23  3.7785e-26  8.6052e-23  4.0576e-26  1.2852e-22  4.5543e-26  2.0415e-22  5.4350e-26  3.3898e-22  6.9968e-26  5.7983e-22  9.7575e-26  1.0116e-21  1.4630e-25  1.7902e-21  2.3227e-25  3.2093e-21
      4.65  1.8854e-26  2.7093e-23  1.8855e-26  2.7189e-23  1.8857e-26  2.7360e-23  1.8861e-26  2.7665e-23  1.8868e-26  2.8207e-23  1.8880e-26  2.9170e-23  1.8920e-26  3.0884e-23  1.9051e-26  3.3931e-23  1.9285e-26  3.9350e-23  1.9703e-26  4.8988e-23  2.0451e-26  6.6132e-23  2.1790e-26  9.6633e-23  2.4176e-26  1.5092e-22  2.8421e-26  2.4760e-22  3.5990e-26  4.2000e-22  4.9392e-26  7.2805e-22  7.3085e-26  1.2806e-21  1.1508e-25  2.2780e-21  1.8952e-25  4.0991e-21
      4.70  1.1907e-26  2.5907e-23  1.1908e-26  2.6030e-23  1.1910e-26  2.6248e-23  1.1913e-26  2.6636e-23  1.1918e-26  2.7326e-23  1.1928e-26  2.8552e-23  1.1968e-26  3.0734e-23  1.2075e-26  3.4613e-23  1.2266e-26  4.1513e-23  1.2608e-26  5.3784e-23  1.3222e-26  7.5611e-23  1.4320e-26  1.1445e-22  1.6284e-26  1.8357e-22  1.9780e-26  3.0671e-22  2.5984e-26  5.2633e-22  3.6973e-26  9.1895e-22  5.6485e-26  1.6237e-21  9.1137e-26  2.8978e-21  1.5278e-25  5.2297e-21
      4.75  8.6564e-27  3.0501e-23  8.6573e-27  3.0656e-23  8.6589e-27  3.0931e-23  8.6617e-27  3.1422e-23  8.6667e-27  3.2294e-23  8.6757e-27  3.3844e-23  8.7065e-27  3.6602e-23  8.7911e-27  4.1506e-23  8.9422e-27  5.0227e-23  9.2138e-27  6.5739e-23  9.7048e-27  9.3332e-23  1.0582e-26  1.4243e-22  1.2142e-26  2.2983e-22  1.4917e-26  3.8555e-22  1.9845e-26  6.6339e-22  2.8589e-26  1.1604e-21  4.4105e-26  2.0535e-21  7.1667e-26  3.6710e-21  1.2076e-25  6.6401e-21
      4.80  6.7451e-27  4.4008e-23  6.7460e-27  4.4202e-23  6.7476e-27  4.4547e-23  6.7505e-27  4.5159e-23  6.7556e-27  4.6248e-23  6.7647e-27  4.8185e-23  6.7862e-27  5.1629e-23  6.8526e-27  5.7754e-23  6.9719e-27  6.8648e-23  7.1882e-27  8.8024e-23  7.5789e-27  1.2249e-22  8.2694e-27  1.8383e-22  9.5017e-27  2.9303e-22  1.1697e-26  4.8763e-22  1.5589e-26  8.3498e-22  2.2490e-26  1.4568e-21  3.4745e-26  2.5753e-21  5.6506e-26  4.6049e-21  9.5266e-26  8.3419e-21
      4.85  4.9915e-27  6.5155e-23  4.9925e-27  6.5393e-23  4.9943e-27  6.5815e-23  4.9976e-27  6.6567e-23  5.0034e-27  6.7903e-23  5.0138e-27  7.0280e-23  5.0326e-27  7.4507e-23  5.0828e-27  8.2024e-23  5.1803e-27  9.5393e-23  5.3575e-27  1.1917e-22  5.6740e-27  1.6147e-22  6.2364e-27  2.3676e-22  7.2392e-27  3.7081e-22  9.0190e-27  6.0974e-22  1.2182e-26  1.0364e-21  1.7758e-26  1.8005e-21  2.7656e-26  3.1768e-21  4.5176e-26  5.6786e-21  7.6351e-26  1.0298e-20
      4.90  3.1341e-27  8.0859e-23  3.1353e-27  8.1142e-23  3.1376e-27  8.1645e-23  3.1416e-27  8.2540e-23  3.1487e-27  8.4132e-23  3.1616e-27  8.6963e-23  3.1851e-27  9.1997e-23  3.2283e-27  1.0095e-22  3.3087e-27  1.1687e-22  3.4583e-27  1.4519e-22  3.7315e-27  1.9558e-22  4.2181e-27  2.8525e-22  5.0860e-27  4.4492e-22  6.6141e-27  7.2955e-22  9.2994e-27  1.2379e-21  1.4019e-26  2.1487e-21  2.2335e-26  3.7900e-21  3.6963e-26  6.7769e-21  6.2974e-26  1.2303e-20
      4.95  1.6722e-27  7.9691e-23  1.6736e-27  8.0015e-23  1.6762e-27  8.0593e-23  1.6808e-27  8.1619e-23  1.6891e-27  8.3445e-23  1.7042e-27  8.6692e-23  1.7321e-27  9.2466e-23  1.7851e-27  1.0273e-22  1.8836e-27  1.2100e-22  2.0603e-27  1.5348e-22  2.3741e-27  2.1127e-22  2.9307e-27  3.1412e-22  3.9032e-27  4.9727e-22  5.5936e-27  8.2376e-22  8.5303e-27  1.4069e-21  1.3635e-26  2.4519e-21  2.2532e-26  4.3356e-21  3.8205e-26  7.7655e-21  6.6109e-26  1.4118e-20
      5.00  8.4003e-28  6.7673e-23  8.4148e-28  6.8031e-23  8.4408e-28  6.8666e-23  8.4881e-28  6.9797e-23  8.5750e-28  7.1808e-23  8.7387e-28  7.5384e-23  9.0564e-28  8.1743e-23  9.6783e-28  9.3051e-23  1.0842e-27  1.1316e-22  1.2945e-27  1.4894e-22  1.6535e-27  2.1259e-22  2.2733e-27  3.2587e-22  3.3337e-27  5.2762e-22  5.1302e-27  8.8732e-22  8.1736e-27  1.5300e-21  1.3377e-26  2.6822e-21  2.2364e-26  4.7612e-21  3.8159e-26  8.5529e-21  6.6147e-26  1.5595e-20
      5.05  4.3528e-28  5.4117e-23  4.3666e-28  5.4484e-23  4.3920e-28  5.5137e-23  4.4400e-28  5.6298e-23  4.5338e-28  5.8364e-23  4.7224e-28  6.2036e-23  5.0866e-28  6.8567e-23  5.8613e-28  8.0182e-23  7.3664e-28  1.0084e-22  9.7634e-28  1.3758e-22  1.3790e-27  2.0296e-22  2.0454e-27  3.1933e-22  3.1392e-27  5.2660e-22  4.9075e-27  8.9625e-22  7.8150e-27  1.5570e-21  1.2699e-26  2.7426e-21  2.1130e-26  4.8848e-21  3.5914e-26  8.8009e-21  6.1689e-26  1.6103e-20
      5.10  2.4307e-28  4.2709e-23  2.4443e-28  4.3066e-23  2.4711e-28  4.3702e-23  2.5266e-28  4.4831e-23  2.6479e-28  4.6841e-23  2.8709e-28  5.0413e-23  3.3548e-28  5.6767e-23  4.4549e-28  6.8066e-23  6.2342e-28  8.8163e-23  9.0661e-28  1.2391e-22  1.3516e-27  1.8752e-22  2.0452e-27  3.0075e-22  3.1176e-27  5.0246e-22  4.7809e-27  8.6230e-22  7.4588e-27  1.5058e-21  1.1800e-26  2.6615e-21  1.9158e-26  4.7527e-21  3.2153e-26  8.5853e-21  5.5237e-26  1.5761e-20
      5.15  1.4818e-28  3.3959e-23  1.4969e-28  3.4314e-23  1.5301e-28  3.4945e-23  1.6091e-28  3.6067e-23  1.7625e-28  3.8063e-23  2.0769e-28  4.1612e-23  2.8085e-28  4.7924e-23  4.1872e-28  5.9150e-23  6.3398e-28  7.9116e-23  9.5996e-28  1.1463e-22  1.4333e-27  1.7783e-22  2.1298e-27  2.9034e-22  3.1634e-27  4.9079e-22  4.7294e-27  8.4847e-22  6.9272e-27  1.4884e-21  1.0708e-26  2.6385e-21  1.7331e-26  4.7220e-21  2.9093e-26  8.5486e-21  5.0099e-26  1.5738e-20
      5.20  9.8437e-29  2.7418e-23  1.0035e-28  2.7784e-23  1.0510e-28  2.8434e-23  1.1693e-28  2.9591e-23  1.3816e-28  3.1649e-23  1.8715e-28  3.5307e-23  2.9874e-28  4.1813e-23  4.5505e-28  5.3384e-23  6.9565e-28  7.3965e-23  1.0561e-27  1.1058e-22  1.5531e-27  1.7573e-22  2.2456e-27  2.9171e-22  3.2167e-27  4.9839e-22  4.3837e-27  8.6726e-22  6.3763e-27  1.5274e-21  9.8739e-27  2.7146e-21  1.6080e-26  4.8676e-21  2.7167e-26  8.8288e-21  4.7108e-26  1.6292e-20
      5.25  7.0720e-29  2.2517e-23  7.3407e-29  2.2894e-23  8.0469e-29  2.3564e-23  9.8326e-29  2.4756e-23  1.3451e-28  2.6875e-23  1.9979e-28  3.0645e-23  3.2739e-28  3.7348e-23  5.0471e-28  4.9270e-23  7.5778e-28  7.0475e-23  1.1290e-27  1.0820e-22  1.6392e-27  1.7533e-22  2.3312e-27  2.9485e-22  3.0102e-27  5.0786e-22  4.1525e-27  8.8809e-22  6.1397e-27  1.5688e-21  9.6340e-27  2.7938e-21  1.5821e-26  5.0178e-21  2.6898e-26  9.1173e-21  4.6997e-26  1.6864e-20
      5.30  5.4644e-29  1.8806e-23  5.8969e-29  1.9189e-23  7.1289e-29  1.9871e-23  1.0279e-28  2.1082e-23  1.4268e-28  2.3237e-23  2.1665e-28  2.7069e-23  3.5075e-28  3.3883e-23  5.3263e-28  4.6003e-23  8.0132e-28  6.7561e-23  1.1606e-27  1.0591e-22  1.7005e-27  1.7416e-22  2.2107e-27  2.9569e-22  2.9079e-27  5.1229e-22  4.0017e-27  8.9903e-22  5.8516e-27  1.5917e-21  9.1009e-27  2.8390e-21  1.4738e-26  5.1064e-21  2.4892e-26  9.2941e-21  4.3400e-26  1.7234e-20
      5.35  4.5446e-29  1.5976e-23  5.2919e-29  1.6366e-23  7.4342e-29  1.7060e-23  1.0747e-28  1.8293e-23  1.5213e-28  2.0487e-23  2.2709e-28  2.4387e-23  3.6272e-28  3.1324e-23  5.4536e-28  4.3661e-23  8.0778e-28  6.5605e-23  1.2185e-27  1.0464e-22  1.7125e-27  1.7412e-22  2.1059e-27  2.9785e-22  2.7303e-27  5.1839e-22  3.7528e-27  9.1227e-22  5.4932e-27  1.6180e-21  8.4420e-27  2.8897e-21  1.3715e-26  5.2043e-21  2.3204e-26  9.4880e-21  4.0566e-26  1.7636e-20
      5.40  3.9578e-29  1.3766e-23  4.9792e-29  1.4146e-23  7.4314e-29  1.4821e-23  1.0339e-28  1.6023e-23  1.5064e-28  1.8160e-23  2.2031e-28  2.1960e-23  3.4357e-28  2.8717e-23  5.5134e-28  4.0736e-23  8.3114e-28  6.2114e-23  1.2966e-27  1.0015e-22  1.6259e-27  1.6784e-22  2.0154e-27  2.8839e-22  2.6447e-27  5.0332e-22  3.6664e-27  8.8725e-22  5.3997e-27  1.5755e-21  8.3112e-27  2.8168e-21  1.3422e-26  5.0791e-21  2.2667e-26  9.2762e-21  3.9620e-26  1.7290e-20
      5.45  3.3185e-29  1.1971e-23  4.1030e-29  1.2289e-23  6.3751e-29  1.2984e-23  8.7930e-29  1.3863e-23  1.2724e-28  1.5654e-23  1.9631e-28  1.8839e-23  3.1030e-28  2.4504e-23  4.9972e-28  3.4579e-23  8.3630e-28  5.2500e-23  1.3384e-27  8.4382e-23  1.6139e-27  1.4113e-22  2.0386e-27  2.4221e-22  2.6993e-27  4.2245e-22  3.6640e-27  7.4455e-22  5.2622e-27  1.3223e-21  7.9732e-27  2.3655e-21  1.2727e-26  4.2706e-21  2.1296e-26  7.8161e-21  3.7110e-26  1.4620e-20
      5.50  2.6979e-29  1.0475e-23  3.0261e-29  1.0705e-23  3.9212e-29  1.1113e-23  6.4732e-29  1.1839e-23  1.0034e-28  1.3131e-23  1.6098e-28  1.5427e-23  2.7187e-28  1.9512e-23  4.6763e-28  2.6775e-23  7.9831e-28  3.9696e-23  1.2713e-27  6.2683e-23  1.6642e-27  1.0360e-22  2.1266e-27  1.7649e-22  2.6779e-27  3.0650e-22  3.5269e-27  5.3891e-22  4.8292e-27  9.5607e-22  7.0468e-27  1.7102e-21  1.0955e-26  3.0898e-21  1.7991e-26  5.6657e-21  3.0947e-26  1.0633e-20
      5.55  2.3137e-29  9.3090e-24  2.4688e-29  9.4817e-24  2.9183e-29  9.7888e-24  4.2107e-29  1.0335e-23  7.4498e-29  1.1306e-23  1.3974e-28  1.3033e-23  2.5863e-28  1.6104e-23  4.7086e-28  2.1566e-23  8.2414e-28  3.1282e-23  1.2579e-27  4.8569e-23  1.6805e-27  7.9342e-23  2.0987e-27  1.3417e-22  2.5713e-27  2.3196e-22  3.2175e-27  4.0684e-22  4.2739e-27  7.2086e-22  6.0332e-27  1.2889e-21  9.1444e-27  2.3295e-21  1.4763e-26  4.2763e-21  2.5062e-26  8.0428e-21
      5.60  2.0622e-29  8.4124e-24  2.2316e-29  8.5623e-24  2.7162e-29  8.8289e-24  4.0668e-29  9.3029e-24  6.6540e-29  1.0146e-23  1.2833e-28  1.1645e-23  2.6414e-28  1.4310e-23  4.9535e-28  1.9051e-23  8.9701e-28  2.7484e-23  1.2453e-27  4.2489e-23  1.6385e-27  6.9202e-23  1.9302e-27  1.1679e-22  2.2936e-27  2.0170e-22  2.8381e-27  3.5354e-22  3.7296e-27  6.2628e-22  5.2157e-27  1.1199e-21  7.8309e-27  2.0247e-21  1.2547e-26  3.7196e-21  2.1182e-26  7.0048e-21
      5.65  1.8808e-29  7.7129e-24  2.0939e-29  7.8560e-24  2.7157e-29  8.1105e-24  4.3875e-29  8.5629e-24  7.6444e-29  9.3676e-24  1.4183e-28  1.0798e-23  2.7546e-28  1.3343e-23  5.2575e-28  1.7868e-23  9.4511e-28  2.5918e-23  1.2502e-27  4.0243e-23  1.5743e-27  6.5745e-23  1.7884e-27  1.1118e-22  2.1106e-27  1.9224e-22  2.5908e-27  3.3723e-22  3.4063e-27  5.9769e-22  4.7644e-27  1.0692e-21  7.1651e-27  1.9341e-21  1.1491e-26  3.5554e-21  1.9431e-26  6.7024e-21
      5.70  1.7414e-29  7.1563e-24  2.0021e-29  7.2964e-24  2.7498e-29  7.5454e-24  4.8852e-29  7.9883e-24  8.4051e-29  8.7758e-24  1.5792e-28  1.0176e-23  3.0805e-28  1.2667e-23  5.8854e-28  1.7096e-23  9.2449e-28  2.4975e-23  1.1706e-27  3.8997e-23  1.4129e-27  6.3960e-23  1.6257e-27  1.0844e-22  1.9149e-27  1.8779e-22  2.3604e-27  3.2973e-22  3.1261e-27  5.8477e-22  4.4388e-27  1.0466e-21  6.7539e-27  1.8941e-21  1.0938e-26  3.4842e-21  1.8651e-26  6.5743e-21
      5.75  1.5906e-29  6.6495e-24  1.8722e-29  6.7829e-24  2.6729e-29  7.0201e-24  4.7803e-29  7.4417e-24  8.9417e-29  8.1916e-24  1.7250e-28  9.5250e-24  3.4525e-28  1.1896e-23  6.1796e-28  1.6114e-23  8.2041e-28  2.3618e-23  1.0132e-27  3.6971e-23  1.1775e-27  6.0743e-23  1.3849e-27  1.0310e-22  1.6588e-27  1.7867e-22  2.0999e-27  3.1387e-22  2.8411e-27  5.5684e-22  4.1211e-27  9.9696e-22  6.4066e-27  1.8051e-21  1.0556e-26  3.3227e-21  1.8253e-26  6.2763e-21
      5.80  1.4528e-29  6.2591e-24  1.7320e-29  6.3816e-24  2.5080e-29  6.5994e-24  4.6022e-29  6.9866e-24  9.1410e-29  7.6752e-24  1.8967e-28  8.8997e-24  3.5411e-28  1.1077e-23  5.5367e-28  1.4951e-23  7.0379e-28  2.1843e-23  8.6446e-28  3.4107e-23  9.9533e-28  5.5942e-23  1.2105e-27  9.4845e-23  1.4900e-27  1.6426e-22  1.9266e-27  2.8847e-22  2.6792e-27  5.1173e-22  3.9952e-27  9.1632e-22  6.3481e-27  1.6597e-21  1.0655e-26  3.0572e-21  1.8715e-26  5.7815e-21
      5.85  1.3561e-29  5.9620e-24  1.6609e-29  6.0775e-24  2.5186e-29  6.2828e-24  4.6940e-29  6.6478e-24  9.9619e-29  7.2968e-24  2.0842e-28  8.4510e-24  3.3112e-28  1.0504e-23  4.8964e-28  1.4156e-23  6.1845e-28  2.0653e-23  7.7874e-28  3.2214e-23  9.2821e-28  5.2798e-23  1.1175e-27  8.9474e-23  1.4101e-27  1.5492e-22  1.8779e-27  2.7204e-22  2.6943e-27  4.8261e-22  4.1289e-27  8.6434e-22  6.7178e-27  1.5662e-21  1.1479e-26  2.8870e-21  2.0468e-26  5.4659e-21
      5.90  1.2836e-29  5.7457e-24  1.6518e-29  5.8610e-24  2.6643e-29  6.0659e-24  5.1674e-29  6.4302e-24  1.0963e-28  7.0781e-24  2.1201e-28  8.2303e-24  3.3359e-28  1.0280e-23  4.4478e-28  1.3926e-23  5.8942e-28  2.0412e-23  7.3318e-28  3.1953e-23  8.8020e-28  5.2502e-23  1.0731e-27  8.9118e-23  1.3953e-27  1.5447e-22  1.9405e-27  2.7141e-22  2.8823e-27  4.8172e-22  4.5600e-27  8.6310e-22  7.6038e-27  1.5647e-21  1.3239e-26  2.8864e-21  2.3974e-26  5.4708e-21
      5.95  1.2080e-29  5.5913e-24  1.6266e-29  5.7090e-24  2.7318e-29  5.9181e-24  5.4987e-29  6.2900e-24  1.1844e-28  6.9513e-24  2.2020e-28  8.1273e-24  3.3980e-28  1.0219e-23  4.5445e-28  1.3940e-23  5.6979e-28  2.0561e-23  6.9858e-28  3.2342e-23  8.6933e-28  5.3316e-23  1.0794e-27  9.0693e-23  1.4282e-27  1.5740e-22  2.0401e-27  2.7680e-22  3.1174e-27  4.9156e-22  5.0407e-27  8.8115e-22  8.5466e-27  1.5983e-21  1.5067e-26  2.9506e-21  2.7580e-26  5.5988e-21
      6.00  1.1114e-29  5.4824e-24  1.5129e-29  5.6004e-24  2.5901e-29  5.8102e-24  5.3406e-29  6.1834e-24  1.1726e-28  6.8468e-24  2.3502e-28  8.0265e-24  3.5207e-28  1.0125e-23  4.6184e-28  1.3858e-23  5.7717e-28  2.0500e-23  7.1403e-28  3.2320e-23  8.8802e-28  5.3363e-23  1.1451e-27  9.0864e-23  1.5668e-27  1.5780e-22  2.3079e-27  2.7762e-22  3.6271e-27  4.9319e-22  6.0084e-27  8.8441e-22  1.0361e-26  1.6051e-21  1.8495e-26  2.9654e-21  3.4215e-26  5.6340e-21
      6.05  1.0031e-29  5.4258e-24  1.3321e-29  5.5405e-24  2.2691e-29  5.7444e-24  4.7129e-29  6.1069e-24  1.0661e-28  6.7515e-24  2.3500e-28  7.8976e-24  3.5953e-28  9.9365e-24  4.7294e-28  1.3564e-23  5.9104e-28  2.0017e-23  7.2781e-28  3.1500e-23  9.0420e-28  5.1946e-23  1.1933e-27  8.8384e-23  1.6859e-27  1.5343e-22  2.5558e-27  2.6988e-22  4.1120e-27  4.7945e-22  6.9255e-27  8.5995e-22  1.2082e-26  1.5614e-21  2.1754e-26  2.8872e-21  4.0548e-26  5.4927e-21
      6.10  9.1267e-30  5.4011e-24  1.1931e-29  5.5098e-24  1.9540e-29  5.7032e-24  3.9823e-29  6.0469e-24  9.0645e-29  6.6582e-24  2.0436e-28  7.7450e-24  3.3740e-28  9.6781e-24  4.6304e-28  1.3117e-23  5.7237e-28  1.9236e-23  6.9752e-28  3.0125e-23  8.9479e-28  4.9512e-23  1.2141e-27  8.4066e-23  1.7722e-27  1.4575e-22  2.7666e-27  2.5621e-22  4.5458e-27  4.5504e-22  7.7653e-27  8.1623e-22  1.3682e-26  1.4826e-21  2.4812e-26  2.7438e-21  4.6533e-26  5.2273e-21
      6.15  8.5946e-30  5.4038e-24  1.1164e-29  5.5046e-24  1.7810e-29  5.6840e-24  3.4969e-29  6.0028e-24  7.6273e-29  6.5698e-24  1.5615e-28  7.5779e-24  2.5483e-28  9.3710e-24  3.8946e-28  1.2560e-23  4.9847e-28  1.8235e-23  6.3161e-28  2.8335e-23  8.4153e-28  4.6317e-23  1.1844e-27  7.8367e-23  1.7923e-27  1.3559e-22  2.8741e-27  2.3807e-22  4.8188e-27  4.2260e-22  8.3419e-27  7.5797e-22  1.4824e-26  1.3772e-21  2.7046e-26  2.5508e-21  5.0987e-26  4.8663e-21
      6.20  8.2118e-30  5.4285e-24  1.0725e-29  5.5186e-24  1.6866e-29  5.6788e-24  3.1609e-29  5.9637e-24  6.1155e-29  6.4701e-24  1.1605e-28  7.3707e-24  1.8581e-28  8.9724e-24  2.7763e-28  1.1821e-23  3.8890e-28  1.6890e-23  5.3159e-28  2.5910e-23  7.4194e-28  4.1972e-23  1.1016e-27  7.0601e-23  1.7277e-27  1.2172e-22  2.8475e-27  2.1329e-22  4.8595e-27  3.7821e-22  8.5098e-27  6.7811e-22  1.5235e-26  1.2324e-21  2.7942e-26  2.2842e-21  5.2910e-26  4.3640e-21
      6.25  7.5728e-30  5.4710e-24  9.8475e-30  5.5468e-24  1.5124e-29  5.6817e-24  2.5771e-29  5.9214e-24  4.6796e-29  6.3476e-24  8.5138e-29  7.1055e-24  1.3172e-28  8.4535e-24  1.9854e-28  1.0851e-23  2.8878e-28  1.5116e-23  4.1939e-28  2.2706e-23  6.2450e-28  3.6221e-23  9.7592e-28  6.0311e-23  1.5910e-27  1.0333e-22  2.6858e-27  1.8041e-22  4.6511e-27  3.1927e-22  8.2200e-27  5.7194e-22  1.4804e-26  1.0393e-21  2.7269e-26  1.9277e-21  5.1830e-26  3.6882e-21
      6.30  6.7910e-30  5.5550e-24  8.5742e-30  5.6155e-24  1.2192e-29  5.7231e-24  2.0205e-29  5.9144e-24  3.4314e-29  6.2545e-24  6.0594e-29  6.8593e-24  8.8979e-29  7.9348e-24  1.3882e-28  9.8476e-24  2.1502e-28  1.3250e-23  3.2490e-28  1.9306e-23  5.1461e-28  3.0088e-23  8.3768e-28  4.9309e-23  1.4097e-27  8.3636e-23  2.4249e-27  1.4515e-22  4.2496e-27  2.5602e-22  7.5652e-27  4.5786e-22  1.3689e-26  8.3161e-22  2.5303e-26  1.5431e-21  4.8250e-26  2.9566e-21
      6.35  6.0873e-30  5.6622e-24  7.3418e-30  5.7101e-24  9.9657e-30  5.7952e-24  1.5133e-29  5.9466e-24  2.5797e-29  6.2157e-24  4.4740e-29  6.6943e-24  6.2003e-29  7.5455e-24  9.4134e-29  9.0592e-24  1.5269e-28  1.1752e-23  2.5538e-28  1.6544e-23  4.2178e-28  2.5076e-23  7.1603e-28  4.0287e-23  1.2321e-27  6.7456e-23  2.1514e-27  1.1615e-22  3.8086e-27  2.0395e-22  6.8227e-27  3.6388e-22  1.2396e-26  6.6034e-22  2.2985e-26  1.2256e-21  4.3965e-26  2.3513e-21
      6.40  5.4576e-30  5.7919e-24  6.5152e-30  5.8307e-24  8.5414e-30  5.8999e-24  1.2192e-29  6.0228e-24  1.9145e-29  6.2413e-24  3.3749e-29  6.6300e-24  4.6988e-29  7.3211e-24  7.0363e-29  8.5503e-24  1.1554e-28  1.0737e-23  2.0213e-28  1.4628e-23  3.5810e-28  2.1556e-23  6.3306e-28  3.3908e-23  1.1185e-27  5.5973e-23  1.9864e-27  9.5526e-23  3.5540e-27  1.6687e-22  6.4079e-27  2.9690e-22  1.1693e-26  5.3818e-22  2.1756e-26  9.9896e-22  4.1752e-26  1.9187e-21
      6.45  4.9014e-30  5.9407e-24  5.8667e-30  5.9728e-24  7.3961e-30  6.0300e-24  1.0384e-29  6.1317e-24  1.5493e-29  6.3125e-24  2.5754e-29  6.6339e-24  3.9994e-29  7.2056e-24  6.0733e-29  8.2222e-24  1.0147e-28  1.0031e-23  1.8017e-28  1.3249e-23  3.2788e-28  1.8979e-23  5.9544e-28  2.9195e-23  1.0749e-27  4.7446e-23  1.9392e-27  8.0169e-23  3.4970e-27  1.3921e-22  6.3383e-27  2.4688e-22  1.1609e-26  4.4685e-22  2.1665e-26  8.2929e-22  4.1708e-26  1.5943e-21
      6.50  4.3261e-30  6.1063e-24  5.2263e-30  6.1331e-24  6.4646e-30  6.1806e-24  8.8061e-30  6.2651e-24  1.2798e-29  6.4154e-24  2.0558e-29  6.6826e-24  3.1425e-29  7.1578e-24  4.9322e-29  8.0030e-24  8.3469e-29  9.5063e-24  1.5002e-28  1.2181e-23  2.7793e-28  1.6944e-23  5.1768e-28  2.5437e-23  9.5416e-28  4.0609e-23  1.7433e-27  6.7816e-23  3.1728e-27  1.1692e-22  5.7843e-27  2.0650e-22  1.0635e-26  3.7301e-22  1.9907e-26  6.9184e-22  3.8431e-26  1.3307e-21
      6.55  3.8435e-30  6.3184e-24  4.6187e-30  6.3410e-24  5.5880e-30  6.3813e-24  7.3992e-30  6.4528e-24  1.0832e-29  6.5801e-24  1.7310e-29  6.8064e-24  2.6625e-29  7.2087e-24  4.1690e-29  7.9243e-24  7.2118e-29  9.1973e-24  1.3200e-28  1.1462e-23  2.4891e-28  1.5496e-23  4.7160e-28  2.2687e-23  8.8487e-28  3.5536e-23  1.6391e-27  5.8579e-23  3.0090e-27  1.0017e-22  5.5163e-27  1.7609e-22  1.0182e-26  3.1727e-22  1.9117e-26  5.8788e-22  3.7003e-26  1.1309e-21
      6.60  3.4466e-30  6.5484e-24  4.0682e-30  6.5682e-24  4.8910e-30  6.6035e-24  6.3412e-30  6.6663e-24  9.2834e-30  6.7779e-24  1.5195e-29  6.9764e-24  2.3812e-29  7.3293e-24  3.7576e-29  7.9571e-24  6.6026e-29  9.0738e-24  1.2353e-28  1.1061e-23  2.3671e-28  1.4600e-23  4.5459e-28  2.0909e-23  8.6348e-28  3.2183e-23  1.6171e-27  5.2403e-23  2.9950e-27  8.8906e-23  5.5221e-27  1.5555e-22  1.0232e-26  2.7955e-22  1.9265e-26  5.1738e-22  3.7379e-26  9.9514e-22
      6.65  3.1158e-30  6.7950e-24  3.5819e-30  6.8131e-24  4.3043e-30  6.8454e-24  5.4557e-30  6.9026e-24  7.9260e-30  7.0045e-24  1.3324e-29  7.1856e-24  2.1352e-29  7.5077e-24  3.4133e-29  8.0806e-24  6.1465e-29  9.0998e-24  1.1763e-28  1.0913e-23  2.2915e-28  1.4143e-23  4.4548e-28  1.9902e-23  8.5508e-28  3.0192e-23  1.6168e-27  4.8650e-23  3.0177e-27  8.1976e-23  5.5954e-27  1.4283e-22  1.0407e-26  2.5610e-22  1.9647e-26  4.7349e-22  3.8205e-26  9.1055e-22
      6.70  2.8377e-30  7.0573e-24  3.1634e-30  7.0744e-24  3.7610e-30  7.1049e-24  4.8215e-30  7.1590e-24  7.0189e-30  7.2552e-24  1.2328e-29  7.4264e-24  2.1286e-29  7.7307e-24  3.6344e-29  8.2720e-24  6.8335e-29  9.2349e-24  1.3374e-28  1.0949e-23  2.6279e-28  1.4000e-23  5.1215e-28  1.9442e-23  9.8461e-28  2.9166e-23  1.8642e-27  4.6609e-23  3.4865e-27  7.8107e-23  6.4783e-27  1.3564e-22  1.2070e-26  2.4275e-22  2.2821e-26  4.4842e-22  4.4443e-26  8.6222e-22
      6.75  2.6057e-30  7.3342e-24  2.8258e-30  7.3508e-24  3.3351e-30  7.3804e-24  4.2767e-30  7.4329e-24  6.5745e-30  7.5262e-24  1.2301e-29  7.6922e-24  2.2453e-29  7.9874e-24  4.0544e-29  8.5125e-24  7.8686e-29  9.4467e-24  1.5577e-28  1.1109e-23  3.0586e-28  1.4070e-23  5.9476e-28  1.9349e-23  1.1400e-27  2.8782e-23  2.1554e-27  4.5706e-23  4.0299e-27  7.6268e-23  7.4929e-27  1.3210e-22  1.3974e-26  2.3608e-22  2.6447e-26  4.3582e-22  5.1561e-26  8.3796e-22
      6.80  2.4148e-30  7.6649e-24  2.5630e-30  7.6814e-24  2.9881e-30  7.7106e-24  3.8999e-30  7.7626e-24  6.1247e-30  7.8551e-24  1.1730e-29  8.0196e-24  2.3168e-29  8.3120e-24  4.2920e-29  8.8321e-24  8.4631e-29  9.7575e-24  1.6756e-28  1.1404e-23  3.2806e-28  1.4337e-23  6.3629e-28  1.9567e-23  1.2184e-27  2.8913e-23  2.3033e-27  4.5680e-23  4.3103e-27  7.5962e-23  8.0263e-27  1.3129e-22  1.4992e-26  2.3436e-22  2.8413e-26  4.3243e-22  5.5464e-26  8.3142e-22
      6.85  2.2582e-30  8.0135e-24  2.3614e-30  8.0301e-24  2.6710e-30  8.0596e-24  3.5088e-30  8.1119e-24  5.5223e-30  8.2050e-24  1.1164e-29  8.3706e-24  2.4272e-29  8.6650e-24  4.6547e-29  9.1887e-24  9.4042e-29  1.0120e-23  1.8646e-28  1.1778e-23  3.6622e-28  1.4731e-23  7.0972e-28  1.9997e-23  1.3579e-27  2.9408e-23  2.5650e-27  4.6291e-23  4.7980e-27  7.6787e-23  8.9359e-27  1.3251e-22  1.6701e-26  2.3634e-22  3.1677e-26  4.3595e-22  6.1894e-26  8.3824e-22
      6.90  2.1314e-30  8.3795e-24  2.2135e-30  8.3962e-24  2.4557e-30  8.4261e-24  3.1595e-30  8.4791e-24  5.2230e-30  8.5734e-24  1.1238e-29  8.7410e-24  2.6037e-29  9.0391e-24  5.1921e-29  9.5694e-24  1.0726e-28  1.0513e-23  2.1396e-28  1.2191e-23  4.2337e-28  1.5181e-23  8.2627e-28  2.0513e-23  1.5839e-27  3.0041e-23  2.9897e-27  4.7137e-23  5.5842e-27  7.8019e-23  1.0389e-26  1.3446e-22  1.9408e-26  2.3964e-22  3.6816e-26  4.4190e-22  7.1967e-26  8.4976e-22
      6.95  2.0279e-30  8.7620e-24  2.1043e-30  8.7789e-24  2.3269e-30  8.8089e-24  3.0116e-30  8.8621e-24  5.1027e-30  8.9569e-24  1.1132e-29  9.1253e-24  2.6542e-29  9.4249e-24  5.3392e-29  9.9577e-24  1.0867e-28  1.0906e-23  2.1603e-28  1.2592e-23  4.3214e-28  1.5596e-23  8.4961e-28  2.0953e-23  1.6347e-27  3.0527e-23  3.0917e-27  4.7706e-23  5.7822e-27  7.8739e-23  1.0767e-26  1.3546e-22  2.0130e-26  2.4119e-22  3.8216e-26  4.4458e-22  7.4772e-26  8.5490e-22
      7.00  1.9402e-30  9.1606e-24  2.0143e-30  9.1772e-24  2.2647e-30  9.2988e-24  2.8925e-30  9.2592e-24  4.8631e-30  9.3525e-24  1.0689e-29  9.5185e-24  2.6781e-29  9.8135e-24  5.3918e-29  1.0338e-23  1.0666e-28  1.1272e-23  2.1492e-28  1.2933e-23  4.3433e-28  1.5892e-23  8.6003e-28  2.1168e-23  1.6645e-27  3.0598e-23  3.1633e-27  4.7517e-23  5.9352e-27  7.8084e-23  1.1075e-26  1.3396e-22  2.0735e-26  2.3814e-22  3.9409e-26  4.3861e-22  7.7186e-26  8.4320e-22
      7.05  1.8528e-30  9.6253e-24  1.9230e-30  9.6411e-24  2.1296e-30  9.6693e-24  2.7383e-30  9.7194e-24  4.5541e-30  9.8086e-24  9.9911e-30  9.9671e-24  2.5580e-29  1.0249e-23  5.3300e-29  1.0750e-23  1.0656e-28  1.1642e-23  2.1596e-28  1.3228e-23  4.3981e-28  1.6054e-23  8.8013e-28  2.1092e-23  1.7260e-27  3.0095e-23  3.3105e-27  4.6251e-23  6.2494e-27  7.5440e-23  1.1705e-26  1.2880e-22  2.1965e-26  2.2831e-22  4.1810e-26  4.1986e-22  8.1988e-26  8.0662e-22
      7.10  1.7751e-30  1.0111e-23  1.8577e-30  1.0227e-23  2.0134e-30  1.0151e-23  2.5621e-30  1.0197e-23  4.2044e-30  1.0279e-23  9.1552e-30  1.0425e-23  2.3704e-29  1.0683e-23  5.2748e-29  1.1143e-23  1.0773e-28  1.1961e-23  2.1800e-28  1.3417e-23  4.4418e-28  1.6008e-23  9.0685e-28  2.0629e-23  1.8099e-27  2.8886e-23  3.5181e-27  4.3702e-23  6.6987e-27  7.0471e-23  1.2614e-26  1.1942e-22  2.3750e-26  2.1070e-22  4.5302e-26  3.8647e-22  8.8964e-26  7.4152e-22
      7.15  1.7093e-30  1.0618e-23  1.7627e-30  1.0631e-23  1.9209e-30  1.0653e-23  2.4019e-30  1.0694e-23  3.8763e-30  1.0766e-23  8.1746e-30  1.0893e-23  2.0595e-29  1.1120e-23  4.7737e-29  1.1524e-23  9.4857e-29  1.2242e-23  1.8845e-28  1.3520e-23  3.8894e-28  1.5794e-23  8.0801e-28  1.9848e-23  1.6460e-27  2.7093e-23  3.2581e-27  4.0090e-23  6.2908e-27  6.3575e-23  1.1961e-26  1.0652e-22  2.2666e-26  1.8662e-22  4.3415e-26  3.4089e-22  8.5492e-26  6.5263e-22
      7.20  1.6528e-30  1.1146e-23  1.6975e-30  1.1157e-23  1.8315e-30  1.1176e-23  2.2386e-30  1.1210e-23  3.4288e-30  1.1271e-23  6.8250e-30  1.1379e-23  1.6464e-29  1.1571e-23  3.9536e-29  1.1912e-23  7.5161e-29  1.2520e-23  1.5222e-28  1.3600e-23  3.1937e-28  1.5522e-23  6.7727e-28  1.8949e-23  1.4158e-27  2.5070e-23  2.8725e-27  3.6051e-23  5.6588e-27  5.5892e-23  1.0919e-26  9.2173e-23  2.0901e-26  1.5986e-22  4.0299e-26  2.9023e-22  7.9695e-26  5.5377e-22
      7.25  1.6045e-30  1.1696e-23  1.6406e-30  1.1705e-23  1.7481e-30  1.1720e-23  2.0636e-30  1.1749e-23  2.9820e-30  1.1799e-23  5.5646e-30  1.1889e-23  1.2541e-29  1.2048e-23  2.9155e-29  1.2332e-23  5.6467e-29  1.2836e-23  1.1402e-28  1.3733e-23  2.4185e-28  1.5329e-23  5.2699e-28  1.8173e-23  1.1355e-27  2.3254e-23  2.3770e-27  3.2366e-23  4.8064e-27  4.8829e-23  9.4593e-27  7.8933e-23  1.8359e-26  1.3509e-22  3.5724e-26  2.4329e-22  7.1070e-26  4.6204e-22
      7.30  1.5637e-30  1.2331e-23  1.5918e-30  1.2338e-23  1.6737e-30  1.2351e-23  1.9146e-30  1.2375e-23  2.6116e-30  1.2417e-23  4.5037e-30  1.2492e-23  9.5370e-30  1.2625e-23  2.1270e-29  1.2862e-23  4.3039e-29  1.3283e-23  8.6171e-29  1.4033e-23  1.8061e-28  1.5367e-23  4.0280e-28  1.7744e-23  9.0154e-28  2.1989e-23  1.9600e-27  2.9603e-23  4.0967e-27  4.3356e-23  8.2713e-27  6.8502e-23  1.6349e-26  1.1541e-22  3.2208e-26  2.0580e-22  6.4587e-26  3.8853e-22
      7.35  1.5296e-30  1.2995e-23  1.5508e-30  1.3001e-23  1.6108e-30  1.3013e-23  1.7939e-30  1.3033e-23  2.3188e-30  1.3069e-23  3.7001e-30  1.3133e-23  7.3653e-30  1.3246e-23  1.6362e-29  1.3448e-23  3.4502e-29  1.3807e-23  6.7457e-29  1.4446e-23  1.4140e-28  1.5583e-23  3.2013e-28  1.7610e-23  7.4165e-28  2.1229e-23  1.6723e-27  2.7720e-23  3.6034e-27  3.9443e-23  7.4555e-27  6.0875e-23  1.5005e-26  1.0086e-22  2.9930e-26  1.7788e-22  6.0508e-26  3.3361e-22
      7.40  1.5013e-30  1.3689e-23  1.5176e-30  1.3694e-23  1.5635e-30  1.3704e-23  1.7038e-30  1.3722e-23  2.1006e-30  1.3753e-23  3.1462e-30  1.3809e-23  5.9207e-30  1.3908e-23  1.3224e-29  1.4085e-23  2.9418e-29  1.4399e-23  5.6449e-29  1.4957e-23  1.1768e-28  1.5952e-23  2.6885e-28  1.7725e-23  6.3318e-28  2.0892e-23  1.4649e-27  2.6570e-23  3.2443e-27  3.6826e-23  6.8668e-27  5.5575e-23  1.4058e-26  9.0547e-23  2.8378e-26  1.5792e-22  5.7829e-26  2.9411e-22
      7.45  1.4779e-30  1.4411e-23  1.4908e-30  1.4416e-23  1.5284e-30  1.4425e-23  1.6367e-30  1.4441e-23  1.9602e-30  1.4469e-23  2.7814e-30  1.4519e-23  4.9923e-30  1.4608e-23  1.0906e-29  1.4767e-23  2.3660e-29  1.5049e-23  4.4320e-29  1.5551e-23  9.0862e-29  1.6444e-23  2.0843e-28  1.8037e-23  4.9962e-28  2.0882e-23  1.1878e-27  2.5984e-23  2.7122e-27  3.5200e-23  5.9019e-27  5.2045e-23  1.2349e-26  8.3465e-23  2.5321e-26  1.4398e-22  5.2147e-26  2.6631e-22
      7.50  1.4585e-30  1.5163e-23  1.4686e-30  1.5167e-23  1.5006e-30  1.5176e-23  1.5902e-30  1.5190e-23  1.8595e-30  1.5216e-23  2.5342e-30  1.5262e-23  4.4016e-30  1.5344e-23  9.3556e-30  1.5490e-23  2.0054e-29  1.5750e-23  3.6810e-29  1.6211e-23  7.4136e-29  1.7034e-23  1.6935e-28  1.8500e-23  4.0981e-28  2.1121e-23  9.9482e-28  2.5820e-23  2.3343e-27  3.4308e-23  5.2178e-27  4.9822e-23  1.1162e-26  7.8756e-23  2.3265e-26  1.3448e-22  4.8449e-26  2.4710e-22
      7.55  1.4569e-30  1.6184e-23  1.4518e-30  1.6028e-23  1.4794e-30  1.6036e-23  1.5578e-30  1.6050e-23  1.7941e-30  1.6074e-23  2.3942e-30  1.6118e-23  4.0593e-30  1.6195e-23  8.4729e-30  1.6332e-23  1.7301e-29  1.6577e-23  3.2071e-29  1.7012e-23  6.3492e-29  1.7787e-23  1.4317e-28  1.9170e-23  3.4641e-28  2.1640e-23  8.5209e-28  2.6070e-23  2.0458e-27  3.4072e-23  4.6953e-27  4.8698e-23  1.0289e-26  7.5973e-23  2.1854e-26  1.2850e-22  4.6119e-26  2.3463e-22
      7.60  1.4290e-30  1.6924e-23  1.4376e-30  1.6929e-23  1.4631e-30  1.6936e-23  1.5373e-30  1.6949e-23  1.7535e-30  1.6973e-23  2.3267e-30  1.7014e-23  3.8601e-30  1.7089e-23  7.9267e-30  1.7221e-23  1.5149e-29  1.7456e-23  2.8415e-29  1.7874e-23  5.4734e-29  1.8620e-23  1.1980e-28  1.9949e-23  2.8467e-28  2.2324e-23  6.9859e-28  2.6585e-23  1.6974e-27  3.4281e-23  3.9738e-27  4.8348e-23  8.8947e-27  7.4580e-23  1.9237e-26  1.2509e-22  4.1147e-26  2.2713e-22
      7.65  1.4178e-30  1.7864e-23  1.4259e-30  1.7868e-23  1.4501e-30  1.7875e-23  1.5203e-30  1.7888e-23  1.7238e-30  1.7911e-23  2.2758e-30  1.7952e-23  3.7652e-30  1.8025e-23  7.6617e-30  1.8154e-23  1.3793e-29  1.8384e-23  2.5439e-29  1.8793e-23  4.8170e-29  1.9521e-23  1.0219e-28  2.0821e-23  2.3692e-28  2.3142e-23  5.7537e-28  2.7308e-23  1.4048e-27  3.4833e-23  3.3408e-27  4.8589e-23  7.6275e-27  7.4237e-23  1.6805e-26  1.2362e-22  3.6473e-26  2.2337e-22
      7.70  1.4082e-30  1.8843e-23  1.4158e-30  1.8847e-23  1.4390e-30  1.8854e-23  1.5058e-30  1.8867e-23  1.6986e-30  1.8890e-23  2.2308e-30  1.8930e-23  3.6356e-30  1.9002e-23  7.3351e-30  1.9130e-23  1.2489e-29  1.9358e-23  2.2733e-29  1.9763e-23  4.2789e-29  2.0484e-23  8.8126e-29  2.1771e-23  1.9876e-28  2.4071e-23  4.7513e-28  2.8197e-23  1.1588e-27  3.5650e-23  2.7877e-27  4.9276e-23  6.4810e-27  7.4681e-23  1.4550e-26  1.2359e-22  3.2078e-26  2.2238e-22
      7.75  1.4001e-30  1.9861e-23  1.4075e-30  1.9865e-23  1.4297e-30  1.9872e-23  1.4937e-30  1.9885e-23  1.6769e-30  1.9908e-23  2.1889e-30  1.9948e-23  3.5614e-30  2.0020e-23  6.9056e-30  2.0148e-23  1.1706e-29  2.0579e-23  2.0576e-29  2.0780e-23  3.8405e-29  2.1502e-23  7.6936e-29  2.2788e-23  1.6847e-28  2.5086e-23  3.9428e-28  2.9211e-23  9.5455e-28  3.6662e-23  2.3112e-27  5.0283e-23  5.4576e-27  7.5681e-23  1.2481e-26  1.2457e-22  2.7980e-26  2.2331e-22
      7.80  1.3933e-30  2.1022e-23  1.4002e-30  2.1026e-23  1.4214e-30  2.1033e-23  1.4822e-30  2.1046e-23  1.6554e-30  2.1069e-23  2.1447e-30  2.1110e-23  3.4556e-30  2.1182e-23  6.4601e-30  2.1311e-23  1.0554e-29  2.1540e-23  1.8709e-29  2.1948e-23  3.4550e-29  2.2674e-23  6.7663e-29  2.3970e-23  1.4393e-28  2.6285e-23  3.2886e-28  3.0439e-23  7.8658e-28  3.7944e-23  1.9081e-27  5.1663e-23  4.5642e-27  7.7245e-23  1.0627e-26  1.2649e-22  2.4250e-26  2.2592e-22
      7.85  1.3874e-30  2.2237e-23  1.3939e-30  2.2241e-23  1.4137e-30  2.2248e-23  1.4694e-30  2.2261e-23  1.6313e-30  2.2284e-23  2.0802e-30  2.2325e-23  3.3159e-30  2.2398e-23  6.0122e-30  2.2528e-23  9.7839e-30  2.2760e-23  1.6966e-29  2.3171e-23  3.1000e-29  2.3905e-23  5.9564e-29  2.5213e-23  1.2299e-28  2.7550e-23  2.7515e-28  3.1745e-23  6.4834e-28  3.9323e-23  1.5699e-27  5.3176e-23  3.7938e-27  7.9007e-23  8.9881e-27  1.2873e-22  2.0898e-26  2.2912e-22
      7.90  1.3824e-30  2.3505e-23  1.3881e-30  2.3509e-23  1.4060e-30  2.3517e-23  1.4576e-30  2.3530e-23  1.6032e-30  2.3553e-23  2.0080e-30  2.3595e-23  3.1531e-30  2.3668e-23  5.3956e-30  2.3800e-23  8.6427e-30  2.4033e-23  1.4758e-29  2.4449e-23  2.6684e-29  2.5189e-23  5.0274e-29  2.6509e-23  1.0210e-28  2.8869e-23  2.2260e-28  3.3103e-23  5.1663e-28  4.0753e-23  1.2470e-27  5.4739e-23  3.0419e-27  8.0814e-23  7.3371e-27  1.3100e-22  1.7416e-26  2.3233e-22
      7.95  1.3780e-30  2.4828e-23  1.3830e-30  2.4832e-23  1.3988e-30  2.4840e-23  1.4436e-30  2.4853e-23  1.5727e-30  2.4876e-23  1.9341e-30  2.4918e-23  2.9150e-30  2.4992e-23  4.7448e-30  2.5124e-23  7.5113e-30  2.5359e-23  1.2834e-29  2.6036e-23  2.2462e-29  2.6522e-23  4.1883e-29  2.7851e-23  8.3163e-29  3.0225e-23  1.7677e-28  3.4486e-23  4.0484e-28  4.2184e-23  9.7032e-28  5.6257e-23  2.3788e-27  8.2495e-23  5.8224e-27  1.3299e-22  1.4086e-26  2.3493e-22
      8.00  1.3742e-30  2.6206e-23  1.3784e-30  2.6210e-23  1.3919e-30  2.6217e-23  1.4311e-30  2.6231e-23  1.5408e-30  2.6254e-23  1.8498e-30  2.6296e-23  2.7052e-30  2.6370e-23  4.1689e-30  2.6503e-23  6.4068e-30  2.6738e-23  1.0643e-29  2.7157e-23  1.8618e-29  2.7904e-23  3.4356e-29  2.9235e-23  6.6795e-29  3.1615e-23  1.4002e-28  3.5885e-23  3.1395e-28  4.3601e-23  7.4533e-28  5.7704e-23  1.8298e-27  8.3999e-23  4.5293e-27  1.3460e-22  1.1145e-26  2.3674e-22
      8.05  1.3708e-30  2.7771e-23  1.3744e-30  2.7776e-23  1.3856e-30  2.7783e-23  1.4177e-30  2.7796e-23  1.5079e-30  2.7820e-23  1.7658e-30  2.7862e-23  2.4769e-30  2.7936e-23  3.6631e-30  2.8069e-23  5.4529e-30  2.8304e-23  8.7970e-30  2.8724e-23  1.5242e-29  2.9470e-23  2.7742e-29  3.0803e-23  5.3297e-29  3.3183e-23  1.0956e-28  3.7456e-23  2.4191e-28  4.5174e-23  5.6607e-28  5.9284e-23  1.3966e-27  8.5587e-23  3.4898e-27  1.3620e-22  8.7229e-27  2.3834e-22
      8.10  1.3680e-30  2.9412e-23  1.3708e-30  2.9416e-23  1.3798e-30  2.9423e-23  1.4202e-30  2.9732e-23  1.4795e-30  2.9460e-23  1.6870e-30  2.9502e-23  2.2538e-30  2.9576e-23  3.1921e-30  2.9708e-23  4.7209e-30  3.0243e-23  7.2586e-30  3.0361e-23  1.2228e-29  3.1106e-23  2.2070e-29  3.2434e-23  4.1886e-29  3.4807e-23  8.4804e-29  3.9066e-23  1.8465e-28  4.6761e-23  4.3032e-28  6.0826e-23  1.0550e-27  8.7045e-23  2.6558e-27  1.3749e-22  6.7313e-27  2.3927e-22
      8.15  1.3655e-30  3.1128e-23  1.3677e-30  3.1132e-23  1.3748e-30  3.1140e-23  1.3951e-30  3.1153e-23  1.4534e-30  3.1176e-23  1.6172e-30  3.1218e-23  2.0660e-30  3.1292e-23  2.7902e-30  3.1423e-23  3.9268e-30  3.1657e-23  6.0484e-30  3.2072e-23  9.8081e-30  3.2813e-23  1.7369e-29  3.4134e-23  3.2484e-29  3.6495e-23  6.4604e-29  4.0731e-23  1.3902e-28  4.8384e-23  3.2058e-28  6.2373e-23  7.7885e-28  8.8446e-23  1.9813e-27  1.3860e-22  5.0823e-27  2.3978e-22
      8.20  1.3634e-30  3.2922e-23  1.3651e-30  3.2926e-23  1.3706e-30  3.2934e-23  1.3860e-30  3.2947e-23  1.4310e-30  3.2970e-23  1.5581e-30  3.3011e-23  1.9065e-30  3.3084e-23  2.4505e-30  3.3215e-23  3.3188e-30  3.3447e-23  4.9351e-30  3.3860e-23  7.9082e-30  3.4596e-23  1.3609e-29  3.5909e-23  2.5037e-29  3.8255e-23  4.9313e-29  4.2464e-23  1.0457e-28  5.0068e-23  2.3907e-28  6.3965e-23  5.8243e-28  8.9866e-23  1.4799e-27  1.3968e-22  3.8367e-27  2.4015e-22
      8.25  1.3616e-30  3.4795e-23  1.3629e-30  3.4799e-23  1.3667e-30  3.4806e-23  1.3790e-30  3.4819e-23  1.4130e-30  3.4842e-23  1.5100e-30  3.4883e-23  1.7811e-30  3.4956e-23  2.1995e-30  3.5086e-23  2.8676e-30  3.5316e-23  4.0603e-30  3.5727e-23  6.3006e-30  3.6459e-23  1.0583e-29  3.7763e-23  1.9278e-29  4.0095e-23  3.7493e-29  4.4278e-23  7.8708e-29  5.1836e-23  1.7871e-28  6.5647e-23  4.3453e-28  9.1385e-23  1.1086e-27  1.4088e-22  2.9018e-27  2.4066e-22
      8.30  1.3601e-30  3.6920e-23  1.3610e-30  3.6924e-23  1.3639e-30  3.6931e-23  1.3728e-30  3.6944e-23  1.3985e-30  3.6967e-23  1.4717e-30  3.7008e-23  1.6782e-30  3.7081e-23  1.9963e-30  3.7210e-23  2.5031e-30  3.7441e-23  3.4275e-30  3.7851e-23  5.1395e-30  3.8582e-23  8.4023e-30  3.9885e-23  1.4888e-29  4.2213e-23  2.8551e-29  4.6392e-23  5.9394e-29  5.3939e-23  1.3408e-28  6.7731e-23  3.2560e-28  9.3430e-23  8.3387e-28  1.4284e-22  2.2018e-27  2.4242e-22
      8.35  1.3588e-30  3.9152e-23  1.3595e-30  3.9156e-23  1.3617e-30  3.9164e-23  1.3682e-30  3.9177e-23  1.3869e-30  3.9200e-23  1.4403e-30  3.9241e-23  1.5938e-30  3.9314e-23  1.8303e-30  3.9443e-23  2.2056e-30  3.9674e-23  2.8903e-30  4.0085e-23  4.1594e-30  4.0817e-23  6.5768e-30  4.2122e-23  1.1382e-29  4.4454e-23  2.1505e-29  4.8639e-23  4.4391e-29  5.6197e-23  9.9954e-29  7.0009e-23  2.4315e-28  9.5739e-23  6.2641e-28  1.4520e-22  1.6697e-27  2.4485e-22
      8.40  1.3577e-30  4.1496e-23  1.3582e-30  4.1500e-23  1.3598e-30  4.1508e-23  1.3646e-30  4.1521e-23  1.3780e-30  4.1544e-23  1.4167e-30  4.1585e-23  1.5259e-30  4.1658e-23  1.6997e-30  4.1789e-23  1.9720e-30  4.2021e-23  2.4690e-30  4.2434e-23  3.3916e-30  4.3169e-23  5.1484e-30  4.4480e-23  8.6602e-30  4.6824e-23  1.6079e-29  5.1029e-23  3.2933e-29  5.8623e-23  7.4124e-29  7.2499e-23  1.8108e-28  9.8347e-23  4.7011e-28  1.4802e-22  1.2660e-27  2.4808e-22
      8.45  1.3568e-30  4.3955e-23  1.3572e-30  4.3960e-23  1.3583e-30  4.3967e-23  1.3616e-30  4.3980e-23  1.3718e-30  4.4003e-23  1.3999e-30  4.4045e-23  1.4792e-30  4.4119e-23  1.6069e-30  4.4250e-23  1.8062e-30  4.4484e-23  2.1701e-30  4.4901e-23  2.8463e-30  4.5642e-23  4.1395e-30  4.6965e-23  6.7224e-30  4.9328e-23  1.2204e-29  5.3568e-23  2.4718e-29  6.1226e-23  5.5481e-29  7.5216e-23  1.3593e-28  1.0127e-22  3.5516e-28  1.5134e-22  9.6503e-28  2.5216e-22
      8.50  1.3560e-30  4.6534e-23  1.3563e-30  4.6538e-23  1.3572e-30  4.6546e-23  1.3596e-30  4.6559e-23  1.3669e-30  4.6582e-23  1.3876e-30  4.6625e-23  1.4463e-30  4.6699e-23  1.5389e-30  4.6832e-23  1.6879e-30  4.7069e-23  1.9568e-30  4.7490e-23  2.4571e-30  4.8241e-23  3.4154e-30  4.9579e-23  5.3341e-30  5.1971e-23  9.4193e-30  5.6261e-23  1.8784e-29  6.4010e-23  4.1920e-29  7.8166e-23  1.0217e-28  1.0453e-22  2.6992e-28  1.5517e-22  7.3899e-28  2.5712e-22
