# This was generated using Cloudy10 and the columns are ordered 
# as log10 of the fraction of the metallicity to the solar metallicity
# 'h_*_Z' and 'c_*_Z' stands for cooling and heating respectively 
# at * metalicity
#
# NOTE: This was generated separately from loop_coolingcurve_w_UV.py
#       using Output_metals_w_redshift.py.
#
# Redshift = 0.0
# hden = -5.0
#
#     temp   h_-3.00_Z   c_-3.00_Z   h_-2.75_Z   c_-2.75_Z   h_-2.50_Z   c_-2.50_Z   h_-2.25_Z   c_-2.25_Z   h_-2.00_Z   c_-2.00_Z   h_-1.75_Z   c_-1.75_Z   h_-1.50_Z   c_-1.50_Z   h_-1.25_Z   c_-1.25_Z   h_-1.00_Z   c_-1.00_Z   h_-0.75_Z   c_-0.75_Z   h_-0.50_Z   c_-0.50_Z   h_-0.25_Z   c_-0.25_Z    h_0.00_Z    c_0.00_Z    h_0.25_Z    c_0.25_Z    h_0.50_Z    c_0.50_Z    h_0.75_Z    c_0.75_Z    h_1.00_Z    c_1.00_Z    h_1.25_Z    c_1.25_Z    h_1.50_Z    c_1.50_Z 
      4.00  9.9367e-24  1.0008e-24  9.9415e-24  1.0050e-24  9.9501e-24  1.0125e-24  9.9653e-24  1.0258e-24  9.9924e-24  1.0496e-24  1.0041e-23  1.0917e-24  1.0126e-23  1.1668e-24  1.0279e-23  1.3002e-24  1.0550e-23  1.5376e-24  1.1031e-23  1.9599e-24  1.1887e-23  2.7117e-24  1.3410e-23  4.0513e-24  1.6115e-23  6.4414e-24  2.0923e-23  1.0717e-23  2.9467e-23  1.8397e-23  4.4670e-23  3.2295e-23  7.1828e-23  5.7741e-23  1.2086e-22  1.0520e-22  2.1071e-22  1.9644e-22
      4.05  9.2254e-24  1.0423e-24  9.2301e-24  1.0465e-24  9.2385e-24  1.0540e-24  9.2492e-24  1.0672e-24  9.2798e-24  1.0908e-24  9.3269e-24  1.1327e-24  9.4106e-24  1.2073e-24  9.5593e-24  1.3399e-24  9.8239e-24  1.5758e-24  1.0294e-23  1.9955e-24  1.1130e-23  2.7428e-24  1.2617e-23  4.0743e-24  1.5259e-23  6.4504e-24  1.9954e-23  1.0702e-23  2.8298e-23  1.8343e-23  4.3146e-23  3.2180e-23  6.9685e-23  5.7545e-23  1.1762e-22  1.0496e-22  2.0560e-22  1.9639e-22
      4.10  8.5594e-24  1.0860e-24  8.5640e-24  1.0902e-24  8.5722e-24  1.0977e-24  8.5867e-24  1.1111e-24  8.6126e-24  1.1350e-24  8.6585e-24  1.1773e-24  8.7402e-24  1.2527e-24  8.8855e-24  1.3868e-24  9.1438e-24  1.6252e-24  9.6030e-24  2.0496e-24  1.0420e-23  2.8051e-24  1.1871e-23  4.1514e-24  1.4451e-23  6.5543e-24  1.9035e-23  1.0855e-23  2.7183e-23  1.8589e-23  4.1683e-23  3.2607e-23  6.7616e-23  5.8341e-23  1.1448e-22  1.0656e-22  2.0062e-22  1.9989e-22
      4.15  7.9363e-24  1.1329e-24  7.9408e-24  1.1373e-24  7.9488e-24  1.1451e-24  7.9629e-24  1.1590e-24  7.9850e-24  1.1837e-24  8.0330e-24  1.2277e-24  8.1128e-24  1.3058e-24  8.2547e-24  1.4448e-24  8.5070e-24  1.6921e-24  8.9555e-24  2.1321e-24  9.7530e-24  2.9156e-24  1.1171e-23  4.3120e-24  1.3690e-23  6.8047e-24  1.8167e-23  1.1268e-23  2.6125e-23  1.9299e-23  4.0288e-23  3.3871e-23  6.5634e-23  6.0669e-23  1.1146e-22  1.1103e-22  1.9582e-22  2.0889e-22
      4.20  7.3537e-24  1.1853e-24  7.3580e-24  1.1900e-24  7.3658e-24  1.1984e-24  7.3797e-24  1.2133e-24  7.4044e-24  1.2398e-24  7.4482e-24  1.2870e-24  7.5262e-24  1.3710e-24  7.6649e-24  1.5203e-24  7.9114e-24  1.7858e-24  8.3498e-24  2.2585e-24  9.1293e-24  3.1001e-24  1.0515e-23  4.6002e-24  1.2977e-23  7.2787e-24  1.7353e-23  1.2076e-23  2.5132e-23  2.0715e-23  3.8977e-23  3.6409e-23  6.3771e-23  6.5328e-23  1.0862e-22  1.1986e-22  1.9130e-22  2.2623e-22
      4.25  6.8092e-24  1.2464e-24  6.8135e-24  1.2517e-24  6.8212e-24  1.2611e-24  6.8347e-24  1.2778e-24  6.8589e-24  1.3076e-24  6.9018e-24  1.3605e-24  6.9782e-24  1.4546e-24  7.1139e-24  1.6221e-24  7.3553e-24  1.9200e-24  7.7845e-24  2.4501e-24  8.5475e-24  3.3942e-24  9.9039e-24  5.0772e-24  1.2315e-23  8.0830e-24  1.6599e-23  1.3469e-23  2.4214e-23  2.3174e-23  3.7770e-23  4.0825e-23  6.2064e-23  7.3415e-23  1.0604e-22  1.3507e-22  1.8719e-22  2.5579e-22
      4.30  6.3009e-24  1.3229e-24  6.3051e-24  1.3291e-24  6.3126e-24  1.3402e-24  6.3260e-24  1.3598e-24  6.3497e-24  1.3948e-24  6.3918e-24  1.4569e-24  6.4667e-24  1.5675e-24  6.6000e-24  1.7641e-24  6.8369e-24  2.1139e-24  7.2581e-24  2.7365e-24  8.0070e-24  3.8453e-24  9.3383e-24  5.8220e-24  1.1704e-23  9.3530e-24  1.5909e-23  1.5682e-23  2.3383e-23  2.7093e-23  3.6690e-23  4.7868e-23  6.0557e-23  8.6292e-23  1.0380e-22  1.5917e-22  1.8364e-22  3.0237e-22
      4.35  5.8263e-24  1.4184e-24  5.8305e-24  1.4260e-24  5.8379e-24  1.4395e-24  5.8510e-24  1.4636e-24  5.8743e-24  1.5063e-24  5.9158e-24  1.5824e-24  5.9896e-24  1.7176e-24  6.1208e-24  1.9582e-24  6.3541e-24  2.3862e-24  6.7690e-24  3.1479e-24  7.5064e-24  4.5045e-24  8.8174e-24  6.9232e-24  1.1147e-23  1.1244e-23  1.5288e-23  1.8991e-23  2.2648e-23  3.2963e-23  3.5753e-23  5.8418e-23  5.9278e-23  1.0556e-22  1.0195e-22  1.9513e-22  1.8074e-22  3.7160e-22
      4.40  5.3832e-24  1.5390e-24  5.3873e-24  1.5486e-24  5.3946e-24  1.5656e-24  5.4075e-24  1.5959e-24  5.4306e-24  1.6499e-24  5.4716e-24  1.7458e-24  5.5446e-24  1.9163e-24  5.6743e-24  2.2197e-24  5.9049e-24  2.7594e-24  6.3130e-24  3.7199e-24  7.0438e-24  5.4308e-24  8.3395e-24  8.4810e-24  1.0642e-23  1.3931e-23  1.4734e-23  2.3702e-23  2.2008e-23  4.1328e-23  3.4960e-23  7.3453e-23  5.8233e-23  1.3300e-22  1.0049e-22  2.4622e-22  1.7852e-22  4.6973e-22
      4.45  4.9692e-24  1.6904e-24  4.9733e-24  1.7027e-24  4.9805e-24  1.7246e-24  4.9934e-24  1.7635e-24  5.0162e-24  1.8327e-24  5.0569e-24  1.9558e-24  5.1293e-24  2.1746e-24  5.2579e-24  2.5639e-24  5.4866e-24  3.2565e-24  5.8933e-24  4.4892e-24  6.6163e-24  6.6845e-24  7.9013e-24  1.0599e-23  1.0185e-23  1.7592e-23  1.4243e-23  3.0131e-23  2.1456e-23  5.2753e-23  3.4301e-23  9.3987e-23  5.7404e-23  1.7046e-22  9.9386e-23  3.1588e-22  1.7691e-22  6.0338e-22
      4.50  4.5821e-24  1.8775e-24  4.5861e-24  1.8936e-24  4.5933e-24  1.9221e-24  4.6061e-24  1.9727e-24  4.6289e-24  2.0628e-24  4.6694e-24  2.2231e-24  4.7413e-24  2.5081e-24  4.8693e-24  3.0152e-24  5.0968e-24  3.9172e-24  5.5013e-24  5.5226e-24  6.2204e-24  8.3817e-24  7.4986e-24  1.3480e-23  9.7698e-24  2.2588e-23  1.3805e-23  3.8918e-23  2.0978e-23  6.8379e-23  3.3753e-23  1.2208e-22  5.6754e-23  2.2170e-22  9.8580e-23  4.1108e-22  1.7581e-22  7.8588e-22
      4.55  4.2198e-24  2.1060e-24  4.2238e-24  2.1267e-24  4.2310e-24  2.1634e-24  4.2438e-24  2.2288e-24  4.2664e-24  2.3452e-24  4.3068e-24  2.5520e-24  4.3785e-24  2.9199e-24  4.5061e-24  3.5743e-24  4.7329e-24  4.7385e-24  5.1362e-24  6.8105e-24  5.8530e-24  1.0501e-23  7.1270e-24  1.7080e-23  9.3909e-24  2.8835e-23  1.3413e-23  4.9912e-23  2.0563e-23  8.7934e-23  3.3298e-23  1.5724e-22  5.6246e-23  2.8583e-22  9.8005e-23  5.3027e-22  1.7511e-22  1.0145e-21
      4.60  3.8801e-24  2.3734e-24  3.8841e-24  2.3999e-24  3.8913e-24  2.4471e-24  3.9040e-24  2.5309e-24  3.9259e-24  2.6800e-24  3.9670e-24  2.9453e-24  4.0386e-24  3.4171e-24  4.1660e-24  4.2563e-24  4.3925e-24  5.7493e-24  4.7951e-24  8.4064e-24  5.5109e-24  1.3139e-23  6.7831e-24  2.1576e-23  9.0435e-24  3.6652e-23  1.3059e-23  6.3683e-23  2.0199e-23  1.1245e-22  3.2920e-23  2.0134e-22  5.5856e-23  3.6627e-22  9.7620e-23  6.7986e-22  1.7475e-22  1.3017e-21
      4.65  3.5613e-24  2.6896e-24  3.5653e-24  2.7234e-24  3.5725e-24  2.7835e-24  3.5852e-24  2.8903e-24  3.6078e-24  3.0803e-24  3.6481e-24  3.4182e-24  3.7198e-24  4.0191e-24  3.8471e-24  5.0880e-24  4.0736e-24  6.9896e-24  4.4762e-24  1.0374e-23  5.1918e-24  1.6402e-23  6.4638e-24  2.7150e-23  8.7239e-24  4.6354e-23  1.2740e-23  8.0790e-23  1.9881e-23  1.4291e-22  3.2609e-23  2.5617e-22  5.5564e-23  4.6629e-22  9.7394e-23  8.6593e-22  1.7467e-22  1.6591e-21
      4.70  3.2617e-24  3.0770e-24  3.2658e-24  3.1196e-24  3.2724e-24  3.1953e-24  3.2857e-24  3.3302e-24  3.3084e-24  3.5699e-24  3.3487e-24  3.9961e-24  3.4204e-24  4.7542e-24  3.5478e-24  6.1027e-24  3.7744e-24  8.5018e-24  4.1774e-24  1.2772e-23  4.8936e-24  2.0377e-23  6.1666e-24  3.3938e-23  8.4288e-24  5.8168e-23  1.2449e-23  1.0162e-22  1.9600e-23  1.8000e-22  3.2353e-23  3.2294e-22  5.5351e-23  5.8810e-22  9.7293e-23  1.0926e-21  1.7482e-22  2.0948e-21
      4.75  2.9800e-24  3.5845e-24  2.9841e-24  3.6377e-24  2.9912e-24  3.7322e-24  3.0040e-24  3.9003e-24  3.0267e-24  4.1993e-24  3.0671e-24  4.7310e-24  3.1388e-24  5.6766e-24  3.2664e-24  7.3586e-24  3.4933e-24  1.0351e-23  3.8967e-24  1.5678e-23  4.6137e-24  2.5164e-23  5.8883e-24  4.2081e-23  8.1536e-24  7.2310e-23  1.2180e-23  1.2652e-22  1.9346e-23  2.2436e-22  3.2132e-23  4.0267e-22  5.5183e-23  7.3356e-22  9.7259e-23  1.3634e-21  1.7508e-22  2.6154e-21
      4.80  2.7141e-24  4.2973e-24  2.7181e-24  4.3627e-24  2.7253e-24  4.4791e-24  2.7381e-24  4.6861e-24  2.7608e-24  5.0541e-24  2.8012e-24  5.7085e-24  2.8730e-24  6.8726e-24  3.0006e-24  8.9431e-24  3.2276e-24  1.2627e-23  3.6312e-24  1.9184e-23  4.3487e-24  3.0862e-23  5.6241e-24  5.1688e-23  7.8913e-24  8.8905e-23  1.1923e-23  1.5566e-22  1.9099e-23  2.7614e-22  3.1914e-23  4.9588e-22  5.5007e-23  9.0357e-22  9.7198e-23  1.6800e-21  1.7528e-22  3.2242e-21
      4.85  2.4600e-24  5.3418e-24  2.4640e-24  5.4211e-24  2.4712e-24  5.5622e-24  2.4839e-24  5.8131e-24  2.5066e-24  6.2592e-24  2.5469e-24  7.0526e-24  2.6186e-24  8.4638e-24  2.7461e-24  1.0974e-23  2.9728e-24  1.5440e-23  3.3758e-24  2.3389e-23  4.0924e-24  3.7548e-23  5.3664e-24  6.2798e-23  7.6313e-24  1.0793e-22  1.1660e-23  1.8888e-22  1.8834e-23  3.3501e-22  3.1655e-23  6.0159e-22  5.4750e-23  1.0963e-21  9.6981e-23  2.0389e-21  1.7520e-22  3.9147e-21
      4.90  2.2107e-24  6.8660e-24  2.2147e-24  6.9606e-24  2.2218e-24  7.1287e-24  2.2345e-24  7.4277e-24  2.2571e-24  7.9594e-24  2.2972e-24  8.9049e-24  2.3685e-24  1.0587e-23  2.4954e-24  1.3578e-23  2.7210e-24  1.8901e-23  3.1222e-24  2.8375e-23  3.8354e-24  4.5250e-23  5.1035e-24  7.5344e-23  7.3584e-24  1.2914e-22  1.1370e-23  2.2564e-22  1.8518e-23  3.9989e-22  3.1300e-23  7.1786e-22  5.4318e-23  1.3082e-21  9.6449e-23  2.4335e-21  1.7453e-22  4.6747e-21
      4.95  1.9555e-24  8.9633e-24  1.9595e-24  9.0739e-24  1.9666e-24  9.2705e-24  1.9791e-24  9.6203e-24  2.0015e-24  1.0242e-23  2.0412e-24  1.1348e-23  2.1118e-24  1.3316e-23  2.2375e-24  1.6815e-23  2.4608e-24  2.3042e-23  2.8580e-24  3.4125e-23  3.5643e-24  5.3868e-23  4.8200e-24  8.9082e-23  7.0532e-24  1.5203e-22  1.1027e-23  2.6499e-22  1.8111e-23  4.6900e-22  3.0784e-23  8.4140e-22  5.3635e-23  1.5328e-21  9.5459e-23  2.8523e-21  1.7305e-22  5.4827e-21
      5.00  1.6835e-24  1.1543e-23  1.6874e-24  1.1670e-23  1.6944e-24  1.1895e-23  1.7067e-24  1.2296e-23  1.7287e-24  1.3008e-23  1.7678e-24  1.4274e-23  1.8372e-24  1.6527e-23  1.9608e-24  2.0534e-23  2.1804e-24  2.7663e-23  2.5710e-24  4.0354e-23  3.2654e-24  6.2962e-23  4.5002e-24  1.0329e-22  6.6963e-24  1.7539e-22  1.0605e-23  3.0482e-22  1.7573e-23  5.3866e-22  3.0046e-23  9.6574e-22  5.2581e-23  1.7589e-21  9.3806e-23  3.2742e-21  1.7033e-22  6.2995e-21
      5.05  1.3918e-24  1.4212e-23  1.3956e-24  1.4354e-23  1.4024e-24  1.4606e-23  1.4145e-24  1.5054e-23  1.4359e-24  1.5852e-23  1.4740e-24  1.7270e-23  1.5417e-24  1.9793e-23  1.6621e-24  2.4280e-23  1.8762e-24  3.2265e-23  2.2570e-24  4.6479e-23  2.9340e-24  7.1802e-23  4.1378e-24  1.1698e-22  6.2787e-24  1.9779e-22  1.0089e-23  3.4288e-22  1.6883e-23  6.0519e-22  2.9047e-23  1.0846e-21  5.1081e-23  1.9747e-21  9.1359e-23  3.6788e-21  1.6617e-22  7.0880e-21
      5.10  1.0948e-24  1.6307e-23  1.0985e-24  1.6462e-23  1.1051e-24  1.6738e-23  1.1167e-24  1.7228e-23  1.1374e-24  1.8101e-23  1.1742e-24  1.9652e-23  1.2396e-24  2.2412e-23  1.3559e-24  2.7322e-23  1.5626e-24  3.6058e-23  1.9303e-24  5.1611e-23  2.5840e-24  7.9324e-23  3.7462e-24  1.2878e-22  5.8128e-24  2.1728e-22  9.4905e-24  3.7627e-22  1.6048e-23  6.6393e-22  2.7820e-23  1.1894e-21  4.9135e-23  2.1666e-21  8.8104e-23  4.0418e-21  1.6053e-22  7.8047e-21
      5.15  8.2130e-25  1.7308e-23  8.2482e-25  1.7474e-23  8.3107e-25  1.7769e-23  8.4219e-25  1.8295e-23  8.6197e-25  1.9229e-23  8.9714e-25  2.0890e-23  9.5966e-25  2.3845e-23  1.0708e-24  2.9101e-23  1.2685e-24  3.8456e-23  1.6200e-24  5.5112e-23  2.2448e-24  8.4800e-23  3.3553e-24  1.3780e-22  5.3295e-24  2.3270e-22  8.8418e-24  4.0335e-22  1.5110e-23  7.1216e-22  2.6391e-23  1.2758e-21  4.6792e-23  2.3267e-21  8.4106e-23  4.3483e-21  1.5350e-22  8.4219e-21
      5.20  5.9640e-25  1.7149e-23  5.9972e-25  1.7321e-23  6.0563e-25  1.7628e-23  6.1615e-25  1.8172e-23  6.3487e-25  1.9140e-23  6.6813e-25  2.0862e-23  7.2727e-25  2.3925e-23  8.3243e-25  2.9374e-23  1.0194e-24  3.9072e-23  1.3517e-24  5.6344e-23  1.9424e-24  8.7143e-23  2.9919e-24  1.4216e-22  4.8571e-24  2.4075e-22  8.1737e-24  4.1825e-22  1.4117e-23  7.3853e-22  2.4794e-23  1.3246e-21  4.4104e-23  2.4192e-21  7.9427e-23  4.5313e-21  1.4515e-22  8.8077e-21
      5.25  4.2807e-25  1.6163e-23  4.3118e-25  1.6336e-23  4.3671e-25  1.6643e-23  4.4655e-25  1.7190e-23  4.6405e-25  1.8163e-23  4.9515e-25  1.9894e-23  5.5046e-25  2.2972e-23  6.4880e-25  2.8450e-23  8.2361e-25  3.8200e-23  1.1343e-24  5.5573e-23  1.6862e-24  8.6565e-23  2.6666e-24  1.4197e-22  4.4079e-24  2.4137e-22  7.5138e-24  4.1987e-22  1.3074e-23  7.4236e-22  2.3058e-23  1.3332e-21  4.1111e-23  2.4386e-21  7.4124e-23  4.5779e-21  1.3552e-22  8.9308e-21
      5.30  3.0941e-25  1.4779e-23  3.1229e-25  1.4948e-23  3.1741e-25  1.5248e-23  3.2651e-25  1.5782e-23  3.4269e-25  1.6731e-23  3.7146e-25  1.8419e-23  4.2262e-25  2.1422e-23  5.1356e-25  2.6767e-23  6.7520e-25  3.6284e-23  9.6239e-25  5.3246e-23  1.4725e-24  8.3526e-23  2.3780e-24  1.3771e-22  3.9873e-24  2.3490e-22  6.8634e-24  4.0900e-22  1.2005e-23  7.2407e-22  2.1233e-23  1.3017e-21  3.7906e-23  2.3849e-21  6.8358e-23  4.4926e-21  1.2489e-22  8.7922e-21
      5.35  2.2800e-25  1.3317e-23  2.3064e-25  1.3477e-23  2.3533e-25  1.3761e-23  2.4368e-25  1.4265e-23  2.5852e-25  1.5162e-23  2.8490e-25  1.6758e-23  3.3181e-25  1.9598e-23  4.1519e-25  2.4652e-23  5.6337e-25  3.3653e-23  8.2659e-25  4.9700e-23  1.2939e-24  7.8363e-23  2.1232e-24  1.2970e-22  3.6011e-24  2.2141e-22  6.2381e-24  3.8598e-22  1.0950e-23  6.8393e-22  1.9400e-23  1.2302e-21  3.4647e-23  2.2542e-21  6.2431e-23  4.2424e-21  1.1384e-22  8.3146e-21
      5.40  1.7233e-25  1.1946e-23  1.7473e-25  1.2092e-23  1.7901e-25  1.2352e-23  1.8663e-25  1.2814e-23  2.0017e-25  1.3636e-23  2.2425e-25  1.5099e-23  2.6706e-25  1.7700e-23  3.4314e-25  2.2331e-23  4.7834e-25  3.0578e-23  7.1847e-25  4.5284e-23  1.1447e-24  7.1556e-23  1.9015e-24  1.1856e-22  3.2514e-24  2.0239e-22  5.6574e-24  3.5293e-22  9.9540e-24  6.2528e-22  1.7651e-23  1.1244e-21  3.1511e-23  2.0589e-21  5.6691e-23  3.8713e-21  1.0305e-22  7.5760e-21
      5.45  1.3382e-25  1.0741e-23  1.3602e-25  1.0872e-23  1.3992e-25  1.1104e-23  1.4687e-25  1.1518e-23  1.5924e-25  1.2253e-23  1.8121e-25  1.3562e-23  2.2029e-25  1.5889e-23  2.8974e-25  2.0031e-23  4.1313e-25  2.7409e-23  6.3228e-25  4.0560e-23  1.0212e-24  6.4044e-23  1.7132e-24  1.0592e-22  2.9460e-24  1.8070e-22  5.1426e-24  3.1495e-22  9.0622e-24  5.5757e-22  1.6075e-23  1.0015e-21  2.8679e-23  1.8408e-21  5.1493e-23  3.4491e-21  9.3243e-23  6.7127e-21
      5.50  1.0670e-25  9.7016e-24  1.0871e-25  9.8197e-24  1.1230e-25  1.0030e-23  1.1868e-25  1.0403e-23  1.3003e-25  1.1067e-23  1.5021e-25  1.2249e-23  1.8609e-25  1.4350e-23  2.4986e-25  1.8090e-23  3.6315e-25  2.4718e-23  5.6434e-25  3.6556e-23  9.2154e-25  5.7670e-23  1.5577e-24  9.5274e-23  2.6901e-24  1.6278e-22  4.7069e-24  2.8356e-22  8.3039e-24  5.0160e-22  1.4733e-23  8.9971e-22  2.6268e-23  1.6405e-21  4.7085e-23  3.0641e-21  8.4990e-23  5.9248e-21
      5.55  8.7176e-26  8.8446e-24  8.9043e-26  8.9519e-24  9.2364e-26  9.1428e-24  9.8271e-26  9.4823e-24  1.0878e-25  1.0086e-23  1.2747e-25  1.1160e-23  1.6070e-25  1.3070e-23  2.1974e-25  1.6468e-23  3.2464e-25  2.2516e-23  5.1087e-25  3.3289e-23  8.4191e-25  5.2474e-23  1.4311e-24  8.6669e-23  2.4798e-24  1.4776e-22  4.3472e-24  2.5730e-22  7.6767e-24  4.5491e-22  1.3625e-23  8.1523e-22  2.4285e-23  1.4843e-21  4.3490e-23  2.7668e-21  7.8355e-23  5.3312e-21
      5.60  7.2815e-26  8.1489e-24  7.4554e-26  8.2486e-24  7.7646e-26  8.4258e-24  8.3147e-26  8.7410e-24  9.2932e-26  9.3016e-24  1.1033e-25  1.0299e-23  1.4126e-25  1.2072e-23  1.9622e-25  1.5227e-23  2.9383e-25  2.0842e-23  4.6707e-25  3.0840e-23  7.7542e-25  4.8639e-23  1.3239e-24  8.0373e-23  2.3000e-24  1.3710e-22  4.0383e-24  2.4020e-22  7.1374e-24  4.4004e-22  1.2672e-23  7.8885e-22  2.2589e-23  1.4363e-21  4.0443e-23  2.6738e-21  7.2822e-23  5.1693e-21
      5.65  6.2020e-26  7.6006e-24  6.3638e-26  7.7028e-24  6.6515e-26  7.8846e-24  7.1636e-26  8.2078e-24  8.0741e-26  8.7825e-24  9.6932e-26  9.8047e-24  1.2572e-25  1.1623e-23  1.7686e-25  1.4858e-23  2.6767e-25  2.0614e-23  4.2885e-25  3.0863e-23  7.1562e-25  4.9111e-23  1.2256e-24  8.1646e-23  2.1332e-24  1.3977e-22  3.7494e-24  2.4398e-22  6.6305e-24  4.3196e-22  1.1776e-23  7.7653e-22  2.0996e-23  1.4145e-21  3.7595e-23  2.6329e-21  6.7695e-23  5.0644e-21
      5.70  5.3743e-26  7.1539e-24  5.5241e-26  7.2506e-24  5.7905e-26  7.4227e-24  6.2647e-26  7.7286e-24  7.1080e-26  8.2726e-24  8.6073e-26  9.2401e-24  1.1272e-25  1.0961e-23  1.6005e-25  1.4023e-23  2.4390e-25  1.9473e-23  3.9296e-25  2.9173e-23  6.5814e-25  4.6445e-23  1.1298e-24  7.7241e-23  1.9691e-24  1.3226e-22  3.4636e-24  2.3092e-22  6.1277e-24  4.0886e-22  1.0886e-23  7.3342e-22  1.9408e-23  1.3358e-21  3.4750e-23  2.5828e-21  6.2563e-23  4.9692e-21
      5.75  4.7291e-26  6.7523e-24  4.8674e-26  6.8477e-24  5.1134e-26  7.0173e-24  5.5512e-26  7.3188e-24  6.3300e-26  7.8551e-24  7.7148e-26  8.8088e-24  1.0175e-25  1.0505e-23  1.4534e-25  1.3524e-23  2.2255e-25  1.8896e-23  3.6005e-25  2.8458e-23  6.0445e-25  4.5485e-23  1.0392e-24  7.5839e-23  1.8127e-24  1.3006e-22  3.1898e-24  2.2724e-22  5.6443e-24  4.0247e-22  1.0026e-23  7.2177e-22  1.7872e-23  1.3149e-21  3.1981e-23  2.4614e-21  5.7525e-23  4.7623e-21
      5.80  4.2195e-26  6.4626e-24  4.3477e-26  6.5568e-24  4.5759e-26  6.7243e-24  4.9818e-26  7.0221e-24  5.7044e-26  7.5518e-24  6.9883e-26  8.4936e-24  9.2654e-26  1.0169e-23  1.3295e-25  1.3150e-23  2.0445e-25  1.8453e-23  3.3175e-25  2.7891e-23  5.5802e-25  4.4699e-23  9.6042e-25  7.4661e-23  1.6764e-24  1.2817e-22  2.9509e-24  2.2404e-22  5.2220e-24  3.9681e-22  9.2747e-24  7.1123e-22  1.6525e-23  1.2931e-21  2.9547e-23  2.4836e-21  5.3077e-23  4.7632e-21
      5.85  3.8129e-26  6.2624e-24  3.9329e-26  6.3603e-24  4.1464e-26  6.5344e-24  4.5264e-26  6.8439e-24  5.2027e-26  7.3942e-24  6.4047e-26  8.3727e-24  8.5298e-26  1.0114e-23  1.2292e-25  1.3210e-23  1.8983e-25  1.8720e-23  3.0880e-25  2.8525e-23  5.2024e-25  4.5988e-23  8.9625e-25  7.7114e-23  1.5653e-24  1.3270e-22  2.7561e-24  2.3228e-22  4.8777e-24  4.1165e-22  8.6624e-24  7.3808e-22  1.5429e-23  1.3416e-21  2.7573e-23  2.4889e-21  4.9480e-23  4.7777e-21
      5.90  3.4845e-26  6.1310e-24  3.5974e-26  6.2311e-24  3.7985e-26  6.4091e-24  4.1565e-26  6.7256e-24  4.7934e-26  7.2883e-24  5.9243e-26  8.2891e-24  7.9224e-26  1.0069e-23  1.1462e-25  1.3236e-23  1.7764e-25  1.8870e-23  2.8960e-25  2.8898e-23  4.8859e-25  4.6754e-23  8.4248e-25  7.8582e-23  1.4721e-24  1.3546e-22  2.5928e-24  2.3731e-22  4.5892e-24  4.2079e-22  8.1501e-24  7.5630e-22  1.4516e-23  1.3746e-21  2.5933e-23  2.5491e-21  4.6517e-23  4.8730e-21
      5.95  3.2157e-26  6.0592e-24  3.3219e-26  6.1612e-24  3.5110e-26  6.3427e-24  3.8478e-26  6.6653e-24  4.4472e-26  7.2389e-24  5.5113e-26  8.2590e-24  7.3922e-26  1.0074e-23  1.0729e-25  1.3302e-23  1.6658e-25  1.9046e-23  2.7194e-25  2.9268e-23  4.5925e-25  4.7471e-23  7.9231e-25  7.9919e-23  1.3849e-24  1.3786e-22  2.4397e-24  2.4173e-22  4.3186e-24  4.2881e-22  7.6700e-24  7.6926e-22  1.3661e-23  1.3992e-21  2.4405e-23  2.5961e-21  4.3770e-23  5.0090e-21
      6.00  2.9930e-26  6.0370e-24  3.0922e-26  6.1394e-24  3.2689e-26  6.3215e-24  3.5836e-26  6.6454e-24  4.1441e-26  7.2212e-24  5.1413e-26  8.2451e-24  6.9042e-26  1.0067e-23  1.0030e-25  1.3307e-23  1.5581e-25  1.9072e-23  2.5441e-25  2.9334e-23  4.2971e-25  4.7606e-23  7.4146e-25  8.0180e-23  1.2961e-24  1.3836e-22  2.2833e-24  2.4260e-22  4.0419e-24  4.3094e-22  7.1785e-24  7.7343e-22  1.2784e-23  1.4085e-21  2.2837e-23  2.6153e-21  4.0952e-23  5.0110e-21
      6.05  2.8068e-26  6.0730e-24  2.8989e-26  6.1723e-24  3.0628e-26  6.3489e-24  3.3549e-26  6.6629e-24  3.8755e-26  7.2211e-24  4.8023e-26  8.2138e-24  6.4472e-26  9.9793e-24  9.3564e-26  1.3121e-23  1.4519e-25  1.8710e-23  2.3688e-25  2.8666e-23  3.9991e-25  4.6387e-23  6.8986e-25  7.7979e-23  1.2057e-24  1.3441e-22  2.1239e-24  2.3565e-22  3.7594e-24  4.1812e-22  6.6762e-24  7.5160e-22  1.1889e-23  1.3683e-21  2.1233e-23  2.5438e-21  3.8063e-23  4.8826e-21
      6.10  2.6501e-26  6.1480e-24  2.7351e-26  6.2415e-24  2.8864e-26  6.4078e-24  3.1560e-26  6.7034e-24  3.6365e-26  7.2290e-24  4.4921e-26  8.1637e-24  6.0138e-26  9.8257e-24  8.7071e-26  1.2783e-23  1.3479e-25  1.8045e-23  2.1956e-25  2.7411e-23  3.7030e-25  4.4090e-23  6.3839e-25  7.3824e-23  1.1154e-24  1.2694e-22  1.9644e-24  2.2217e-22  3.4766e-24  3.9386e-22  6.1735e-24  7.0663e-22  1.0993e-23  1.2868e-21  1.9632e-23  2.3977e-21  3.5190e-23  4.6059e-21
      6.15  2.5169e-26  6.2579e-24  2.5947e-26  6.3424e-24  2.7330e-26  6.4926e-24  2.9795e-26  6.7597e-24  3.4181e-26  7.2347e-24  4.1994e-26  8.0792e-24  5.5882e-26  9.5812e-24  8.0516e-26  1.2253e-23  1.2419e-25  1.7007e-23  2.0177e-25  2.5469e-23  3.3970e-25  4.0539e-23  5.8503e-25  6.7408e-23  1.0215e-24  1.1541e-22  1.7985e-24  2.0148e-22  3.1826e-24  3.5674e-22  5.6514e-24  6.4045e-22  1.0064e-23  1.1669e-21  1.7978e-23  2.1735e-21  3.2237e-23  4.1910e-21
      6.20  2.4021e-26  6.4004e-24  2.4718e-26  6.4728e-24  2.5959e-26  6.6016e-24  2.8166e-26  6.8306e-24  3.2093e-26  7.2378e-24  3.9083e-26  7.9619e-24  5.1503e-26  9.2498e-24  7.3548e-26  1.1540e-23  1.1270e-25  1.5616e-23  1.8228e-25  2.2870e-23  3.0597e-25  3.5789e-23  5.2596e-25  5.8828e-23  9.1741e-25  9.9998e-23  1.6143e-24  1.7384e-22  2.8559e-24  3.0716e-22  5.0713e-24  5.5056e-22  9.0335e-24  1.0037e-21  1.6145e-23  1.8743e-21  2.8974e-23  3.6208e-21
      6.25  2.3019e-26  6.5749e-24  2.3627e-26  6.6330e-24  2.4708e-26  6.7364e-24  2.6631e-26  6.9203e-24  3.0050e-26  7.2473e-24  3.6130e-26  7.8292e-24  4.6932e-26  8.8639e-24  6.6133e-26  1.0704e-23  1.0024e-25  1.3977e-23  1.6087e-25  1.9803e-23  2.6868e-25  3.0180e-23  4.6045e-25  4.8687e-23  8.0170e-25  8.1765e-23  1.4093e-24  1.4112e-22  2.4920e-24  2.4838e-22  4.4245e-24  4.4454e-22  7.8828e-24  8.1135e-22  1.4096e-23  1.5198e-21  2.5318e-23  2.9509e-21
      6.30  2.2145e-26  6.8083e-24  2.2662e-26  6.8534e-24  2.3581e-26  6.9335e-24  2.5216e-26  7.0761e-24  2.8118e-26  7.3298e-24  3.3276e-26  7.7815e-24  4.2441e-26  8.5845e-24  5.8742e-26  1.0012e-23  8.7731e-26  1.2552e-23  1.3926e-25  1.7091e-23  2.3089e-25  2.5157e-23  3.9389e-25  3.9543e-23  6.8396e-25  6.5260e-23  1.2004e-24  1.1142e-22  2.1208e-24  1.9485e-22  3.7639e-24  3.4806e-22  6.7047e-24  6.3420e-22  1.1990e-23  1.1869e-21  2.1540e-23  2.3254e-21
      6.35  2.1389e-26  7.0827e-24  2.1822e-26  7.1184e-24  2.2593e-26  7.1819e-24  2.3962e-26  7.2948e-24  2.6394e-26  7.4958e-24  3.0708e-26  7.8537e-24  3.8377e-26  8.4902e-24  5.2024e-26  9.6214e-24  7.6293e-26  1.1634e-23  1.1946e-25  1.5215e-23  1.9622e-25  2.1595e-23  3.3277e-25  3.2973e-23  5.7575e-25  5.3313e-23  1.0083e-24  8.9855e-23  1.7793e-24  1.5588e-22  3.1552e-24  2.7677e-22  5.6172e-24  5.0441e-22  1.0040e-23  9.4571e-22  1.8026e-23  1.8359e-21
      6.40  2.0738e-26  7.3975e-24  2.1099e-26  7.4267e-24  2.1741e-26  7.4788e-24  2.2880e-26  7.5714e-24  2.4903e-26  7.7362e-24  2.8490e-26  8.0297e-24  3.4863e-26  8.5517e-24  4.6211e-26  9.4795e-24  6.6393e-26  1.1130e-23  1.0229e-25  1.4067e-23  1.6614e-25  1.9298e-23  2.7971e-25  2.8629e-23  4.8180e-25  4.5342e-23  8.4155e-25  7.5311e-23  1.4825e-24  1.2988e-22  2.6262e-24  2.2949e-22  4.6713e-24  4.1542e-22  8.3416e-24  7.7658e-22  1.4960e-23  1.5072e-21
      6.45  2.0178e-26  7.7518e-24  2.0478e-26  7.7763e-24  2.1010e-26  7.8198e-24  2.1957e-26  7.8973e-24  2.3635e-26  8.0352e-24  2.6609e-26  8.2807e-24  3.1888e-26  8.7175e-24  4.1298e-26  9.4937e-24  5.8032e-26  1.0874e-23  8.7795e-26  1.3331e-23  1.4074e-25  1.7737e-23  2.3491e-25  2.5565e-23  4.0247e-25  3.9560e-23  7.0073e-25  6.4693e-23  1.2320e-24  1.1013e-22  2.1795e-24  1.9330e-22  3.8728e-24  3.4872e-22  6.9082e-24  6.4910e-22  1.2372e-23  1.2588e-21
      6.50  1.9696e-26  8.1464e-24  1.9946e-26  8.1669e-24  2.0390e-26  8.2034e-24  2.1177e-26  8.2683e-24  2.2575e-26  8.3837e-24  2.5049e-26  8.5893e-24  2.9443e-26  8.9550e-24  3.7277e-26  9.6051e-24  5.1208e-26  1.0761e-23  7.5987e-26  1.2819e-23  1.2006e-25  1.6483e-23  1.9847e-25  2.3018e-23  3.3796e-25  3.4700e-23  5.8624e-25  5.5671e-23  1.0284e-24  9.3589e-23  1.8166e-24  1.6302e-22  3.2242e-24  2.9276e-22  5.7445e-24  5.4335e-22  1.0274e-23  1.0554e-21
      6.55  1.9283e-26  8.6136e-24  1.9494e-26  8.6308e-24  1.9868e-26  8.6615e-24  2.0532e-26  8.7162e-24  2.1709e-26  8.8133e-24  2.3795e-26  8.9862e-24  2.7498e-26  9.2940e-24  3.4102e-26  9.8410e-24  4.5847e-26  1.0814e-23  6.6738e-26  1.2545e-23  1.0390e-25  1.5627e-23  1.7000e-25  2.1125e-23  2.8762e-25  3.0953e-23  4.9692e-25  4.8597e-23  8.6959e-25  8.0494e-23  1.5337e-24  1.3888e-22  2.7190e-24  2.4798e-22  4.8391e-24  4.5879e-22  8.6431e-24  8.8788e-22
      6.60  1.8927e-26  9.1284e-24  1.9108e-26  9.1432e-24  1.9427e-26  9.1695e-24  1.9995e-26  9.2163e-24  2.1003e-26  9.2996e-24  2.2787e-26  9.4478e-24  2.5957e-26  9.7116e-24  3.1610e-26  1.0180e-23  4.1664e-26  1.1014e-23  5.9548e-26  1.2498e-23  9.1363e-26  1.5140e-23  1.4796e-25  1.9851e-23  2.4866e-25  2.8274e-23  4.2785e-25  4.3391e-23  7.4685e-25  7.0722e-23  1.3152e-24  1.2074e-22  2.3290e-24  2.1420e-22  4.1409e-24  3.9457e-22  7.3881e-24  7.6115e-22
      6.65  1.8620e-26  9.6936e-24  1.8775e-26  9.7066e-24  1.9052e-26  9.7296e-24  1.9543e-26  9.7706e-24  2.0415e-26  9.8435e-24  2.1960e-26  9.9732e-24  2.4706e-26  1.0204e-23  2.9602e-26  1.0615e-23  3.8310e-26  1.1344e-23  5.3804e-26  1.2643e-23  8.1368e-26  1.4955e-23  1.3041e-25  1.9079e-23  2.1766e-25  2.6449e-23  3.7292e-25  3.9683e-23  6.4930e-25  6.3606e-23  1.1416e-24  1.0737e-22  2.0195e-24  1.8912e-22  3.5878e-24  3.4685e-22  6.3955e-24  6.6825e-22
      6.70  1.8352e-26  1.0313e-23  1.8487e-26  1.0324e-23  1.8728e-26  1.0345e-23  1.9155e-26  1.0381e-23  1.9915e-26  1.0446e-23  2.1261e-26  1.0562e-23  2.3656e-26  1.0769e-23  2.7925e-26  1.1135e-23  3.5518e-26  1.1788e-23  4.9029e-26  1.2948e-23  7.3067e-26  1.5013e-23  1.1584e-25  1.8697e-23  1.9194e-25  2.5282e-23  3.2736e-25  3.7100e-23  5.6840e-25  5.8461e-23  9.9770e-25  9.7540e-23  1.7630e-24  1.7051e-22  3.1296e-24  3.1150e-22  5.5751e-24  5.9773e-22
      6.75  1.8117e-26  1.0989e-23  1.8235e-26  1.1000e-23  1.8445e-26  1.1018e-23  1.8819e-26  1.1052e-23  1.9483e-26  1.1111e-23  2.0661e-26  1.1216e-23  2.2757e-26  1.1404e-23  2.6493e-26  1.1738e-23  3.3140e-26  1.2331e-23  4.4966e-26  1.3386e-23  6.6011e-26  1.5265e-23  1.0346e-25  1.8616e-23  1.7009e-25  2.4605e-23  2.8866e-25  3.5352e-23  4.9971e-25  5.4779e-23  8.7554e-25  9.0363e-23  1.5454e-24  1.5673e-22  2.7410e-24  2.8508e-22  4.8795e-24  5.4958e-22
      6.80  1.7911e-26  1.1768e-23  1.8015e-26  1.1778e-23  1.8199e-26  1.1795e-23  1.8526e-26  1.1826e-23  1.9108e-26  1.1881e-23  2.0142e-26  1.1979e-23  2.1983e-26  1.2153e-23  2.5264e-26  1.2463e-23  3.1103e-26  1.3014e-23  4.1493e-26  1.3994e-23  5.9984e-26  1.5739e-23  9.2891e-26  1.8851e-23  1.5145e-25  2.4412e-23  2.5566e-25  3.4393e-23  4.4115e-25  5.2832e-23  7.7145e-25  8.6146e-23  1.3601e-24  1.4850e-22  2.4104e-24  2.6846e-22  4.2881e-24  5.1110e-22
      6.85  1.7730e-26  1.2619e-23  1.7821e-26  1.2628e-23  1.7983e-26  1.2645e-23  1.8271e-26  1.2675e-23  1.8783e-26  1.2728e-23  1.9694e-26  1.2822e-23  2.1317e-26  1.2989e-23  2.4210e-26  1.3288e-23  2.9358e-26  1.3817e-23  3.8521e-26  1.4759e-23  5.4833e-26  1.6435e-23  8.3866e-26  1.9424e-23  1.3554e-25  2.4767e-23  2.2751e-25  3.4354e-23  3.9121e-25  5.1677e-23  6.8273e-25  8.3448e-23  1.2022e-24  1.4262e-22  2.1293e-24  2.5666e-22  3.7871e-24  4.8717e-22
      6.90  1.7571e-26  1.3549e-23  1.7651e-26  1.3558e-23  1.7794e-26  1.3574e-23  1.8047e-26  1.3603e-23  1.8498e-26  1.3655e-23  1.9302e-26  1.3746e-23  2.0736e-26  1.3909e-23  2.3291e-26  1.4200e-23  2.7839e-26  1.4716e-23  3.5932e-26  1.5633e-23  5.0342e-26  1.7266e-23  7.5999e-26  2.0178e-23  1.2167e-25  2.5381e-23  2.0296e-25  3.4719e-23  3.4766e-25  5.1635e-23  6.0534e-25  8.2522e-23  1.0646e-24  1.4014e-22  1.8841e-24  2.5111e-22  3.3495e-24  4.7542e-22
      6.95  1.7430e-26  1.4564e-23  1.7501e-26  1.4573e-23  1.7627e-26  1.4589e-23  1.7850e-26  1.4618e-23  1.8248e-26  1.4669e-23  1.8958e-26  1.4759e-23  2.0224e-26  1.4921e-23  2.2483e-26  1.5209e-23  2.6500e-26  1.5720e-23  3.3649e-26  1.6627e-23  4.6387e-26  1.8243e-23  6.9072e-26  2.1123e-23  1.0946e-25  2.6272e-23  1.8135e-25  3.5531e-23  3.0934e-25  5.2242e-23  5.3727e-25  8.2797e-23  9.4349e-25  1.3979e-22  1.6684e-24  2.4959e-22  2.9650e-24  4.7145e-22
      7.00  1.7306e-26  1.5672e-23  1.7368e-26  1.5681e-23  1.7479e-26  1.5697e-23  1.7676e-26  1.5726e-23  1.8026e-26  1.5776e-23  1.8652e-26  1.5866e-23  1.9768e-26  1.6026e-23  2.1762e-26  1.6313e-23  2.5305e-26  1.6821e-23  3.1616e-26  1.7722e-23  4.2865e-26  1.9327e-23  6.2904e-26  2.2187e-23  9.8590e-26  2.7299e-23  1.6213e-25  3.6489e-23  2.7527e-25  5.3081e-23  4.7677e-25  8.3423e-23  8.3593e-25  1.4002e-22  1.4770e-24  2.4904e-22  2.6240e-24  4.6958e-22
      7.05  1.7195e-26  1.6934e-23  1.7250e-26  1.6943e-23  1.7347e-26  1.6958e-23  1.7520e-26  1.6986e-23  1.7827e-26  1.7036e-23  1.8376e-26  1.7124e-23  1.9357e-26  1.7281e-23  2.1110e-26  1.7563e-23  2.4227e-26  1.8062e-23  2.9780e-26  1.8948e-23  3.9683e-26  2.0523e-23  5.7339e-26  2.3331e-23  8.8805e-26  2.8350e-23  1.4485e-25  3.7355e-23  2.4468e-25  5.3651e-23  4.2251e-25  8.3429e-23  7.3957e-25  1.3900e-22  1.3057e-24  2.4605e-22  2.3193e-24  4.6281e-22
      7.10  1.7096e-26  1.8314e-23  1.7144e-26  1.8322e-23  1.7228e-26  1.8337e-23  1.7379e-26  1.8364e-23  1.7646e-26  1.8411e-23  1.8123e-26  1.8496e-23  1.8976e-26  1.8646e-23  2.0502e-26  1.8916e-23  2.3217e-26  1.9395e-23  2.8049e-26  2.0243e-23  3.6667e-26  2.1750e-23  5.2049e-26  2.4438e-23  7.9484e-26  2.9240e-23  1.2838e-25  3.7858e-23  2.1550e-25  5.3431e-23  3.7076e-25  8.1941e-23  6.4771e-25  1.3513e-22  1.1426e-24  2.3764e-22  2.0298e-24  4.4538e-22
      7.15  1.7008e-26  1.9823e-23  1.7049e-26  1.9831e-23  1.7121e-26  1.9845e-23  1.7249e-26  1.9870e-23  1.7478e-26  1.9914e-23  1.7886e-26  1.9992e-23  1.8613e-26  2.0132e-23  1.9917e-26  2.0382e-23  2.2237e-26  2.0826e-23  2.6363e-26  2.1613e-23  3.3726e-26  2.3011e-23  4.6875e-26  2.5501e-23  7.0349e-26  2.9950e-23  1.1222e-25  3.7934e-23  1.8686e-25  5.2362e-23  3.1995e-25  7.8753e-23  5.5745e-25  1.2806e-22  9.8214e-25  2.2315e-22  1.7441e-24  4.1572e-22
      7.20  1.6928e-26  2.1476e-23  1.6962e-26  2.1483e-23  1.7023e-26  2.1496e-23  1.7130e-26  2.1518e-23  1.7321e-26  2.1558e-23  1.7661e-26  2.1628e-23  1.8269e-26  2.1754e-23  1.9353e-26  2.1978e-23  2.1290e-26  2.2381e-23  2.4734e-26  2.3091e-23  3.0879e-26  2.4350e-23  4.1856e-26  2.6594e-23  6.1473e-26  3.0602e-23  9.6500e-26  3.7792e-23  1.5900e-25  5.0784e-23  2.7052e-25  7.4565e-23  4.6966e-25  1.1897e-22  8.2599e-25  2.0459e-22  1.4660e-24  3.7802e-22
      7.25  1.6857e-26  2.3286e-23  1.6885e-26  2.3293e-23  1.6934e-26  2.3304e-23  1.7022e-26  2.3324e-23  1.7179e-26  2.3359e-23  1.7458e-26  2.3421e-23  1.7955e-26  2.3533e-23  1.8840e-26  2.3731e-23  2.0426e-26  2.4090e-23  2.3245e-26  2.4722e-23  2.8271e-26  2.5841e-23  3.7257e-26  2.7832e-23  5.3327e-26  3.1388e-23  8.2061e-26  3.7768e-23  1.3339e-25  4.9295e-23  2.2505e-25  7.0379e-23  3.8885e-25  1.0975e-22  6.8216e-25  1.8568e-22  1.2095e-24  3.3934e-22
      7.30  1.6794e-26  2.5335e-23  1.6816e-26  2.5341e-23  1.6857e-26  2.5350e-23  1.6928e-26  2.5368e-23  1.7055e-26  2.5399e-23  1.7282e-26  2.5455e-23  1.7685e-26  2.5554e-23  1.8404e-26  2.5730e-23  1.9690e-26  2.6048e-23  2.1983e-26  2.6613e-23  2.6064e-26  2.7609e-23  3.3361e-26  2.9380e-23  4.6431e-26  3.2539e-23  6.9835e-26  3.8204e-23  1.1171e-25  4.8439e-23  1.8659e-25  6.7159e-23  3.2054e-25  1.0209e-22  5.6062e-25  1.6943e-22  9.9272e-25  3.0564e-22
      7.35  1.6737e-26  2.7584e-23  1.6756e-26  2.7589e-23  1.6789e-26  2.7598e-23  1.6847e-26  2.7614e-23  1.6951e-26  2.7642e-23  1.7135e-26  2.7692e-23  1.7464e-26  2.7781e-23  1.8051e-26  2.7939e-23  1.9098e-26  2.8224e-23  2.0974e-26  2.8736e-23  2.4306e-26  2.9633e-23  3.0266e-26  3.1225e-23  4.0955e-26  3.4064e-23  6.0135e-26  3.9154e-23  9.4519e-26  4.8348e-23  1.5611e-25  6.5155e-23  2.6642e-25  9.6513e-23  4.6439e-25  1.5691e-22  8.2120e-25  2.7901e-22
      7.40  1.6687e-26  3.0054e-23  1.6703e-26  3.0059e-23  1.6730e-26  3.0067e-23  1.6778e-26  3.0081e-23  1.6863e-26  3.0107e-23  1.7016e-26  3.0153e-23  1.7288e-26  3.0234e-23  1.7773e-26  3.0378e-23  1.8637e-26  3.0636e-23  2.0193e-26  3.1110e-23  2.2954e-26  3.1933e-23  2.7889e-26  3.3389e-23  3.6749e-26  3.5983e-23  5.2676e-26  4.0634e-23  8.1293e-26  4.9030e-23  1.3265e-25  6.4375e-23  2.2480e-25  9.2993e-23  3.9041e-25  1.4808e-22  6.8943e-25  2.5935e-22
      7.45  1.6642e-26  3.2769e-23  1.6655e-26  3.2773e-23  1.6678e-26  3.2781e-23  1.6718e-26  3.2794e-23  1.6791e-26  3.2818e-23  1.6919e-26  3.2861e-23  1.7147e-26  3.2936e-23  1.7555e-26  3.3071e-23  1.8286e-26  3.3315e-23  1.9598e-26  3.3760e-23  2.1920e-26  3.4529e-23  2.6069e-26  3.5886e-23  3.3518e-26  3.8303e-23  4.6925e-26  4.2634e-23  7.1060e-26  5.0453e-23  1.1447e-25  6.4739e-23  1.9249e-25  9.1370e-23  3.3289e-25  1.4260e-22  5.8673e-25  2.4599e-22
      7.50  1.6602e-26  3.5754e-23  1.6613e-26  3.5758e-23  1.6632e-26  3.5765e-23  1.6667e-26  3.5778e-23  1.6729e-26  3.5800e-23  1.6839e-26  3.5841e-23  1.7034e-26  3.5913e-23  1.7383e-26  3.6040e-23  1.8016e-26  3.6280e-23  1.9143e-26  3.6706e-23  2.1133e-26  3.7438e-23  2.4687e-26  3.8728e-23  3.1069e-26  4.1025e-23  4.2569e-26  4.5139e-23  6.3314e-26  5.2565e-23  1.0072e-25  6.6131e-23  1.6810e-25  9.1406e-23  2.8959e-25  1.4000e-22  5.0960e-25  2.3799e-22
      7.55  1.6565e-26  3.9119e-23  1.6575e-26  3.9123e-23  1.6592e-26  3.9130e-23  1.6622e-26  3.9142e-23  1.6675e-26  3.9164e-23  1.6771e-26  3.9203e-23  1.6942e-26  3.9273e-23  1.7246e-26  3.9396e-23  1.7804e-26  3.9638e-23  1.8790e-26  4.0055e-23  2.0525e-26  4.0767e-23  2.3621e-26  4.2018e-23  2.9178e-26  4.4245e-23  3.9194e-26  4.8233e-23  5.7292e-26  5.5429e-23  8.9998e-26  6.8572e-23  1.4906e-25  9.3051e-23  2.5580e-25  1.4009e-22  4.4955e-25  2.3485e-22
      7.60  1.6531e-26  4.2826e-23  1.6539e-26  4.2830e-23  1.6554e-26  4.2836e-23  1.6581e-26  4.2849e-23  1.6629e-26  4.2870e-23  1.6713e-26  4.2909e-23  1.6864e-26  4.2977e-23  1.7133e-26  4.3099e-23  1.7635e-26  4.3351e-23  1.8510e-26  4.3766e-23  2.0045e-26  4.4471e-23  2.2780e-26  4.5706e-23  2.7683e-26  4.7903e-23  3.6514e-26  5.1836e-23  5.2473e-26  5.8934e-23  8.1347e-26  7.1894e-23  1.3358e-25  9.6021e-23  2.2813e-25  1.4236e-22  3.9996e-25  2.3564e-22
      7.65  1.6499e-26  4.6911e-23  1.6507e-26  4.6915e-23  1.6520e-26  4.6922e-23  1.6544e-26  4.6934e-23  1.6587e-26  4.6956e-23  1.6662e-26  4.6994e-23  1.6797e-26  4.7063e-23  1.7038e-26  4.7185e-23  1.7496e-26  4.7453e-23  1.8282e-26  4.7873e-23  1.9656e-26  4.8581e-23  2.2101e-26  4.9819e-23  2.6478e-26  5.2018e-23  3.4352e-26  5.5955e-23  4.8575e-26  6.3058e-23  7.4324e-26  7.6025e-23  1.2097e-25  1.0016e-22  2.0552e-25  1.4649e-22  3.5937e-25  2.3967e-22
      7.70  1.6469e-26  5.1415e-23  1.6476e-26  5.1419e-23  1.6488e-26  5.1426e-23  1.6510e-26  5.1439e-23  1.6548e-26  5.1461e-23  1.6616e-26  5.1500e-23  1.6738e-26  5.1569e-23  1.6956e-26  5.1693e-23  1.7379e-26  5.1984e-23  1.8091e-26  5.2416e-23  1.9333e-26  5.3135e-23  2.1536e-26  5.4390e-23  2.5477e-26  5.6617e-23  3.2558e-26  6.0601e-23  4.5335e-26  6.7790e-23  6.8465e-26  8.0911e-23  1.1040e-25  1.0533e-22  1.8652e-25  1.5217e-22  3.2519e-25  2.4633e-22
      7.75  1.6440e-26  5.6384e-23  1.6446e-26  5.6388e-23  1.6457e-26  5.6395e-23  1.6477e-26  5.6407e-23  1.6512e-26  5.6430e-23  1.6573e-26  5.6470e-23  1.6684e-26  5.6540e-23  1.6888e-26  5.6681e-23  1.7278e-26  5.6990e-23  1.7926e-26  5.7437e-23  1.9054e-26  5.8174e-23  2.1052e-26  5.9456e-23  2.4620e-26  6.1728e-23  3.1022e-26  6.5793e-23  4.2558e-26  7.3124e-23  6.3431e-26  8.6504e-23  1.0129e-25  1.1139e-22  1.7007e-25  1.5913e-22  2.9552e-25  2.5502e-22
      7.80  1.6412e-26  6.1970e-23  1.6418e-26  6.1974e-23  1.6428e-26  6.1981e-23  1.6445e-26  6.1994e-23  1.6477e-26  6.2017e-23  1.6533e-26  6.2058e-23  1.6633e-26  6.2131e-23  1.6825e-26  6.2292e-23  1.7186e-26  6.2624e-23  1.7779e-26  6.3091e-23  1.8806e-26  6.3853e-23  2.0623e-26  6.5171e-23  2.3861e-26  6.7504e-23  2.9663e-26  7.1676e-23  4.0105e-26  7.9199e-23  5.8978e-26  9.2926e-23  9.3206e-26  1.1845e-22  1.5545e-25  1.6739e-22  2.6909e-25  2.6564e-22
      7.85  1.6384e-26  6.8141e-23  1.6389e-26  6.8145e-23  1.6398e-26  6.8152e-23  1.6414e-26  6.8166e-23  1.6443e-26  6.8189e-23  1.6494e-26  6.8231e-23  1.6585e-26  6.8306e-23  1.6767e-26  6.8492e-23  1.7102e-26  6.8853e-23  1.7644e-26  6.9344e-23  1.8580e-26  7.0133e-23  2.0230e-26  7.1490e-23  2.3168e-26  7.3890e-23  2.8425e-26  7.8177e-23  3.7872e-26  8.5906e-23  5.4928e-26  1.0001e-22  8.5847e-26  1.2622e-22  1.4210e-25  1.7646e-22  2.4492e-25  2.7724e-22
      7.90  1.6355e-26  7.4959e-23  1.6360e-26  7.4963e-23  1.6368e-26  7.4971e-23  1.6383e-26  7.4985e-23  1.6409e-26  7.5009e-23  1.6455e-26  7.5052e-23  1.6537e-26  7.5128e-23  1.6714e-26  7.5358e-23  1.7024e-26  7.5748e-23  1.7519e-26  7.6263e-23  1.8368e-26  7.7079e-23  1.9862e-26  7.8476e-23  2.2518e-26  8.0940e-23  2.7264e-26  8.5340e-23  3.5781e-26  9.3271e-23  5.1132e-26  1.0774e-22  7.8933e-26  1.3462e-22  1.2951e-25  1.8612e-22  2.2198e-25  2.8934e-22
      7.95  1.6326e-26  8.2495e-23  1.6330e-26  8.2499e-23  1.6338e-26  8.2507e-23  1.6351e-26  8.2521e-23  1.6374e-26  8.2546e-23  1.6416e-26  8.2590e-23  1.6490e-26  8.2668e-23  1.6663e-26  8.2950e-23  1.6950e-26  8.3376e-23  1.7400e-26  8.3917e-23  1.8167e-26  8.4760e-23  1.9513e-26  8.6193e-23  2.1902e-26  8.8714e-23  2.6166e-26  9.3213e-23  3.3805e-26  1.0132e-22  4.7551e-26  1.1610e-22  7.2397e-26  1.4356e-22  1.1755e-25  1.9613e-22  2.0007e-25  3.0144e-22
      8.00  1.6296e-26  9.0825e-23  1.6299e-26  9.0829e-23  1.6306e-26  9.0837e-23  1.6318e-26  9.0851e-23  1.6339e-26  9.0877e-23  1.6376e-26  9.0921e-23  1.6442e-26  9.1001e-23  1.6612e-26  9.1349e-23  1.6879e-26  9.1818e-23  1.7287e-26  9.2389e-23  1.7975e-26  9.3257e-23  1.9181e-26  9.4722e-23  2.1317e-26  9.7292e-23  2.5125e-26  1.0187e-22  3.1935e-26  1.1012e-22  4.4171e-26  1.2516e-22  6.6251e-26  1.5310e-22  1.0631e-25  2.0653e-22  1.7945e-25  3.1345e-22
      8.05  1.6263e-26  1.0017e-22  1.6267e-26  1.0017e-22  1.6273e-26  1.0018e-22  1.6283e-26  1.0020e-22  1.6301e-26  1.0022e-22  1.6334e-26  1.0027e-22  1.6393e-26  1.0035e-22  1.6562e-26  1.0078e-22  1.6810e-26  1.0130e-22  1.7179e-26  1.0191e-22  1.7794e-26  1.0280e-22  1.8867e-26  1.0430e-22  2.0765e-26  1.0692e-22  2.4144e-26  1.1157e-22  3.0181e-26  1.1996e-22  4.1008e-26  1.3523e-22  6.0514e-26  1.6358e-22  9.5846e-26  2.1778e-22  1.6026e-25  3.2611e-22
      8.10  1.6229e-26  1.1050e-22  1.6232e-26  1.1051e-22  1.6237e-26  1.1052e-22  1.6246e-26  1.1053e-22  1.6262e-26  1.1056e-22  1.6291e-26  1.1060e-22  1.6343e-26  1.1069e-22  1.6513e-26  1.1122e-22  1.6745e-26  1.1181e-22  1.7078e-26  1.1245e-22  1.7625e-26  1.1338e-22  1.8575e-26  1.1491e-22  2.0251e-26  1.1757e-22  2.3231e-26  1.2229e-22  2.8551e-26  1.3078e-22  3.8078e-26  1.4624e-22  5.5215e-26  1.7493e-22  8.6200e-26  2.2971e-22  1.4260e-25  3.3908e-22
      8.15  1.6191e-26  1.2194e-22  1.6194e-26  1.2194e-22  1.6198e-26  1.2195e-22  1.6206e-26  1.2197e-22  1.6221e-26  1.2199e-22  1.6246e-26  1.2204e-22  1.6291e-26  1.2212e-22  1.6463e-26  1.2278e-22  1.6682e-26  1.2345e-22  1.6984e-26  1.2416e-22  1.7470e-26  1.2512e-22  1.8306e-26  1.2668e-22  1.9779e-26  1.2937e-22  2.2395e-26  1.3415e-22  2.7060e-26  1.4274e-22  3.5403e-26  1.5837e-22  5.0385e-26  1.8734e-22  7.7423e-26  2.4262e-22  1.2653e-25  3.5282e-22
      8.20  1.6150e-26  1.3459e-22  1.6152e-26  1.3459e-22  1.6156e-26  1.3460e-22  1.6163e-26  1.3462e-22  1.6176e-26  1.3464e-22  1.6198e-26  1.3469e-22  1.6237e-26  1.3478e-22  1.6413e-26  1.3558e-22  1.6623e-26  1.3637e-22  1.6898e-26  1.3714e-22  1.7329e-26  1.3815e-22  1.8064e-26  1.3975e-22  1.9354e-26  1.4248e-22  2.1642e-26  1.4732e-22  2.5718e-26  1.5600e-22  3.3002e-26  1.7180e-22  4.6065e-26  2.0106e-22  6.9593e-26  2.5682e-22  1.1225e-25  3.6779e-22
      8.25  1.6105e-26  1.4858e-22  1.6107e-26  1.4858e-22  1.6110e-26  1.4859e-22  1.6116e-26  1.4861e-22  1.6127e-26  1.4863e-22  1.6146e-26  1.4868e-22  1.6181e-26  1.4877e-22  1.6362e-26  1.4976e-22  1.6567e-26  1.5070e-22  1.6819e-26  1.5155e-22  1.7202e-26  1.5262e-22  1.7848e-26  1.5426e-22  1.8976e-26  1.5704e-22  2.0973e-26  1.6195e-22  2.4529e-26  1.7075e-22  3.0877e-26  1.8673e-22  4.2246e-26  2.1632e-22  6.2695e-26  2.7263e-22  9.9711e-26  3.8449e-22
      8.30  1.6054e-26  1.6422e-22  1.6056e-26  1.6423e-22  1.6059e-26  1.6423e-22  1.6064e-26  1.6425e-22  1.6074e-26  1.6428e-22  1.6090e-26  1.6432e-22  1.6120e-26  1.6441e-22  1.6309e-26  1.6564e-22  1.6514e-26  1.6676e-22  1.6747e-26  1.6773e-22  1.7090e-26  1.6888e-22  1.7657e-26  1.7058e-22  1.8644e-26  1.7343e-22  2.0387e-26  1.7844e-22  2.3486e-26  1.8739e-22  2.9015e-26  2.0366e-22  3.8908e-26  2.3374e-22  5.6685e-26  2.9091e-22  8.8789e-26  4.0426e-22
      8.35  1.5998e-26  1.8151e-22  1.5999e-26  1.8152e-22  1.6002e-26  1.8153e-22  1.6007e-26  1.8154e-22  1.6015e-26  1.8157e-22  1.6029e-26  1.8162e-22  1.6055e-26  1.8171e-22  1.6255e-26  1.8323e-22  1.6462e-26  1.8460e-22  1.6682e-26  1.8572e-22  1.6990e-26  1.8696e-22  1.7491e-26  1.8874e-22  1.8354e-26  1.9168e-22  1.9877e-26  1.9680e-22  2.2581e-26  2.0596e-22  2.7400e-26  2.2258e-22  3.6018e-26  2.5327e-22  5.1479e-26  3.1153e-22  7.9368e-26  4.2680e-22
      8.40  1.5935e-26  2.0063e-22  1.5936e-26  2.0063e-22  1.5938e-26  2.0064e-22  1.5942e-26  2.0066e-22  1.5949e-26  2.0069e-22  1.5962e-26  2.0074e-22  1.5985e-26  2.0083e-22  1.6198e-26  2.0272e-22  1.6412e-26  2.0440e-22  1.6623e-26  2.0571e-22  1.6903e-26  2.0707e-22  1.7346e-26  2.0895e-22  1.8104e-26  2.1199e-22  1.9436e-26  2.1727e-22  2.1799e-26  2.2668e-22  2.6008e-26  2.4372e-22  3.3528e-26  2.7517e-22  4.7006e-26  3.3479e-22  7.1284e-26  4.5250e-22
      8.45  1.5863e-26  2.2173e-22  1.5865e-26  2.2174e-22  1.5866e-26  2.2175e-22  1.5870e-26  2.2176e-22  1.5876e-26  2.2179e-22  1.5887e-26  2.2184e-22  1.5907e-26  2.2194e-22  1.6138e-26  2.2430e-22  1.6362e-26  2.2638e-22  1.6568e-26  2.2793e-22  1.6825e-26  2.2945e-22  1.7220e-26  2.3145e-22  1.7888e-26  2.3463e-22  1.9058e-26  2.4009e-22  2.1128e-26  2.4980e-22  2.4814e-26  2.6736e-22  3.1395e-26  2.9974e-22  4.3177e-26  3.6101e-22  6.4374e-26  4.8173e-22
      8.50  1.5785e-26  2.4504e-22  1.5786e-26  2.4505e-22  1.5788e-26  2.4506e-22  1.5791e-26  2.4508e-22  1.5796e-26  2.4511e-22  1.5806e-26  2.4516e-22  1.5823e-26  2.4526e-22  1.6073e-26  2.4818e-22  1.6312e-26  2.5079e-22  1.6517e-26  2.5264e-22  1.6756e-26  2.5435e-22  1.7111e-26  2.5651e-22  1.7703e-26  2.5985e-22  1.8733e-26  2.6553e-22  2.0553e-26  2.7559e-22  2.3791e-26  2.9378e-22  2.9568e-26  3.2725e-22  3.9904e-26  3.9050e-22  5.8477e-26  5.1486e-22
