# This was generated using Cloudy10 and the columns are ordered 
# as log10 of the fraction of the metallicity to the solar metallicity
# 'h_*_Z' and 'c_*_Z' stands for cooling and heating respectively 
# at * metalicity
#
# NOTE: This was generated separately from loop_coolingcurve_w_UV.py
#       using Output_metals_w_redshift.py.
#
# Redshift = 2.0
# hden = -1.0
#
#     temp   h_-3.00_Z   c_-3.00_Z   h_-2.75_Z   c_-2.75_Z   h_-2.50_Z   c_-2.50_Z   h_-2.25_Z   c_-2.25_Z   h_-2.00_Z   c_-2.00_Z   h_-1.75_Z   c_-1.75_Z   h_-1.50_Z   c_-1.50_Z   h_-1.25_Z   c_-1.25_Z   h_-1.00_Z   c_-1.00_Z   h_-0.75_Z   c_-0.75_Z   h_-0.50_Z   c_-0.50_Z   h_-0.25_Z   c_-0.25_Z    h_0.00_Z    c_0.00_Z    h_0.25_Z    c_0.25_Z    h_0.50_Z    c_0.50_Z    h_0.75_Z    c_0.75_Z    h_1.00_Z    c_1.00_Z    h_1.25_Z    c_1.25_Z    h_1.50_Z    c_1.50_Z 
      4.00  3.4453e-24  8.3150e-25  3.4454e-24  8.3668e-25  3.4456e-24  8.4590e-25  3.4459e-24  8.6230e-25  3.4464e-24  8.9145e-25  3.4473e-24  9.4330e-25  3.4489e-24  1.0355e-24  3.4518e-24  1.1994e-24  3.4569e-24  1.4910e-24  3.4661e-24  2.0096e-24  3.4823e-24  2.9320e-24  3.5111e-24  4.5729e-24  3.5622e-24  7.4932e-24  3.6531e-24  1.2693e-23  3.8143e-24  2.1961e-23  4.0996e-24  3.8511e-23  4.6028e-24  6.8157e-23  5.4853e-24  1.2158e-22  7.0189e-24  2.1884e-22
      4.05  3.2029e-24  1.1567e-24  3.2030e-24  1.1631e-24  3.2031e-24  1.1744e-24  3.2034e-24  1.1944e-24  3.2039e-24  1.2301e-24  3.2048e-24  1.2936e-24  3.2064e-24  1.4065e-24  3.2092e-24  1.6073e-24  3.2143e-24  1.9644e-24  3.2232e-24  2.5995e-24  3.2391e-24  3.7291e-24  3.2673e-24  5.7387e-24  3.3175e-24  9.3153e-24  3.4065e-24  1.5684e-23  3.5645e-24  2.7039e-23  3.8440e-24  4.7319e-23  4.3370e-24  8.3671e-23  5.2010e-24  1.4923e-22  6.7013e-24  2.6881e-22
      4.10  2.9742e-24  1.9862e-24  2.9743e-24  1.9941e-24  2.9745e-24  2.0081e-24  2.9747e-24  2.0331e-24  2.9752e-24  2.0775e-24  2.9761e-24  2.1564e-24  2.9777e-24  2.2968e-24  2.9805e-24  2.5465e-24  2.9854e-24  2.9905e-24  2.9942e-24  3.7803e-24  3.0097e-24  5.1850e-24  3.0374e-24  7.6842e-24  3.0867e-24  1.2132e-23  3.1741e-24  2.0054e-23  3.3290e-24  3.4178e-23  3.6032e-24  5.9414e-23  4.0866e-24  1.0467e-22  4.9333e-24  1.8635e-22  6.4020e-24  3.3555e-22
      4.15  2.7534e-24  3.9177e-24  2.7535e-24  3.9275e-24  2.7536e-24  3.9451e-24  2.7539e-24  3.9764e-24  2.7544e-24  4.0320e-24  2.7553e-24  4.1308e-24  2.7568e-24  4.3067e-24  2.7595e-24  4.6193e-24  2.7644e-24  5.1754e-24  2.7730e-24  6.1643e-24  2.7883e-24  7.9234e-24  2.8155e-24  1.1053e-23  2.8638e-24  1.6624e-23  2.9497e-24  2.6545e-23  3.1018e-24  4.4237e-23  3.3709e-24  7.5853e-23  3.8451e-24  1.3257e-22  4.6751e-24  2.3501e-22  6.1129e-24  4.2233e-22
      4.20  2.5262e-24  7.9378e-24  2.5263e-24  7.9502e-24  2.5264e-24  7.9722e-24  2.5267e-24  8.0113e-24  2.5272e-24  8.0809e-24  2.5280e-24  8.2045e-24  2.5295e-24  8.4245e-24  2.5322e-24  8.8156e-24  2.5370e-24  9.5113e-24  2.5454e-24  1.0748e-23  2.5605e-24  1.2949e-23  2.5872e-24  1.6865e-23  2.6348e-24  2.3834e-23  2.7191e-24  3.6247e-23  2.8686e-24  5.8384e-23  3.1329e-24  9.7949e-23  3.5986e-24  1.6895e-22  4.4128e-24  2.9724e-22  5.8210e-24  5.3198e-22
      4.25  2.2642e-24  1.5182e-23  2.2643e-24  1.5197e-23  2.2645e-24  1.5225e-23  2.2647e-24  1.5273e-23  2.2652e-24  1.5359e-23  2.2660e-24  1.5513e-23  2.2675e-24  1.5786e-23  2.2702e-24  1.6271e-23  2.2748e-24  1.7135e-23  2.2832e-24  1.8670e-23  2.2980e-24  2.1402e-23  2.3243e-24  2.6261e-23  2.3711e-24  3.4911e-23  2.4541e-24  5.0318e-23  2.6012e-24  7.7795e-23  2.8614e-24  1.2691e-22  3.3192e-24  2.1506e-22  4.1191e-24  3.7438e-22  5.5007e-24  6.6599e-22
      4.30  1.9313e-24  2.5752e-23  1.9314e-24  2.5771e-23  1.9315e-24  2.5805e-23  1.9318e-24  2.5864e-23  1.9322e-24  2.5971e-23  1.9331e-24  2.6159e-23  1.9345e-24  2.6495e-23  1.9371e-24  2.7092e-23  1.9417e-24  2.8154e-23  1.9499e-24  3.0043e-23  1.9645e-24  3.3402e-23  1.9904e-24  3.9380e-23  2.0365e-24  5.0019e-23  2.1182e-24  6.8970e-23  2.2630e-24  1.0277e-22  2.5189e-24  1.6319e-22  2.9692e-24  2.7163e-22  3.7557e-24  4.6767e-22  5.1141e-24  8.2657e-22
      4.35  1.5248e-24  3.6717e-23  1.5249e-24  3.6741e-23  1.5250e-24  3.6782e-23  1.5253e-24  3.6856e-23  1.5257e-24  3.6986e-23  1.5265e-24  3.7219e-23  1.5280e-24  3.7633e-23  1.5305e-24  3.8369e-23  1.5350e-24  3.9677e-23  1.5430e-24  4.2005e-23  1.5572e-24  4.6145e-23  1.5825e-24  5.3512e-23  1.6274e-24  6.6623e-23  1.7071e-24  8.9980e-23  1.8484e-24  1.3164e-22  2.0982e-24  2.0612e-22  2.5378e-24  3.3982e-22  3.3066e-24  5.8163e-22  4.6385e-24  1.0245e-21
      4.40  1.1195e-24  4.3007e-23  1.1196e-24  4.3036e-23  1.1197e-24  4.3088e-23  1.1199e-24  4.3180e-23  1.1204e-24  4.3344e-23  1.1211e-24  4.3635e-23  1.1225e-24  4.4152e-23  1.1249e-24  4.5072e-23  1.1292e-24  4.6708e-23  1.1368e-24  4.9619e-23  1.1503e-24  5.4796e-23  1.1743e-24  6.4007e-23  1.2171e-24  8.0403e-23  1.2929e-24  1.0961e-22  1.4274e-24  1.6171e-22  1.6654e-24  2.5487e-22  2.0853e-24  4.2216e-22  2.8227e-24  7.2486e-22  4.1097e-24  1.2797e-21
      4.45  8.0631e-25  4.2722e-23  8.0638e-25  4.2759e-23  8.0650e-25  4.2824e-23  8.0672e-25  4.2941e-23  8.0712e-25  4.3148e-23  8.0782e-25  4.3516e-23  8.0906e-25  4.4171e-23  8.1128e-25  4.5337e-23  8.1522e-25  4.7409e-23  8.2222e-25  5.1095e-23  8.3467e-25  5.7651e-23  8.5680e-25  6.9317e-23  8.9614e-25  9.0082e-23  9.6604e-25  1.2707e-22  1.0902e-24  1.9307e-22  1.3104e-24  3.1108e-22  1.7006e-24  5.2309e-22  2.3905e-24  9.0685e-22  3.6089e-24  1.6106e-21
      4.50  6.0380e-25  3.8360e-23  6.0386e-25  3.8407e-23  6.0398e-25  3.8490e-23  6.0418e-25  3.8638e-23  6.0453e-25  3.8902e-23  6.0517e-25  3.9372e-23  6.0630e-25  4.0206e-23  6.0831e-25  4.1690e-23  6.1189e-25  4.4330e-23  6.1825e-25  4.9025e-23  6.2956e-25  5.7376e-23  6.4967e-25  7.2235e-23  6.8544e-25  9.8685e-23  7.4907e-25  1.4581e-22  8.6227e-25  2.2987e-22  1.0636e-24  3.8024e-22  1.4218e-24  6.5043e-22  2.0594e-24  1.1396e-21  3.1978e-24  2.0371e-21
      4.55  4.7714e-25  3.2961e-23  4.7720e-25  3.3021e-23  4.7730e-25  3.3128e-23  4.7749e-25  3.3318e-23  4.7782e-25  3.3655e-23  4.7840e-25  3.4255e-23  4.7944e-25  3.5323e-23  4.8129e-25  3.7221e-23  4.8458e-25  4.0596e-23  4.9043e-25  4.6600e-23  5.0084e-25  5.7280e-23  5.1935e-25  7.6282e-23  5.5229e-25  1.1011e-22  6.1093e-25  1.7037e-22  7.1533e-25  2.7790e-22  9.0119e-25  4.7025e-22  1.2325e-24  8.1593e-22  1.8246e-24  1.4420e-21  2.8881e-24  2.5908e-21
      4.60  3.9013e-25  2.8149e-23  3.9018e-25  2.8225e-23  3.9028e-25  2.8362e-23  3.9045e-25  2.8605e-23  3.9076e-25  2.9038e-23  3.9131e-25  2.9807e-23  3.9228e-25  3.1175e-23  3.9401e-25  3.3607e-23  3.9709e-25  3.7933e-23  4.0256e-25  4.5627e-23  4.1230e-25  5.9313e-23  4.2962e-25  8.3666e-23  4.6047e-25  1.2702e-22  5.1538e-25  2.0425e-22  6.1308e-25  3.4207e-22  7.8704e-25  5.8864e-22  1.0973e-24  1.0318e-21  1.6522e-24  1.8345e-21  2.6501e-24  3.3080e-21
      4.65  3.2529e-25  2.4891e-23  3.2534e-25  2.4990e-23  3.2543e-25  2.5165e-23  3.2559e-25  2.5475e-23  3.2588e-25  2.6028e-23  3.2639e-25  2.7011e-23  3.2730e-25  2.8759e-23  3.2892e-25  3.1868e-23  3.3185e-25  3.7396e-23  3.3708e-25  4.7230e-23  3.4638e-25  6.4723e-23  3.6294e-25  9.5848e-23  3.9242e-25  1.5126e-22  4.4485e-25  2.4998e-22  5.3811e-25  4.2616e-22  7.0412e-25  7.4139e-22  9.9996e-25  1.3080e-21  1.5282e-24  2.3347e-21  2.4750e-24  4.2202e-21
      4.70  2.7856e-25  2.4223e-23  2.7861e-25  2.4348e-23  2.7869e-25  2.4570e-23  2.7884e-25  2.4964e-23  2.7911e-25  2.5666e-23  2.7958e-25  2.6913e-23  2.8042e-25  2.9131e-23  2.8194e-25  3.3076e-23  2.8467e-25  4.0091e-23  2.8952e-25  5.2570e-23  2.9816e-25  7.4767e-23  3.1355e-25  1.1427e-22  3.4091e-25  1.8459e-22  3.8957e-25  3.0989e-22  4.7615e-25  5.3353e-22  6.3026e-25  9.3378e-22  9.0492e-25  1.6535e-21  1.3953e-24  2.9584e-21  2.2735e-24  5.3571e-21
      4.75  2.4522e-25  2.8289e-23  2.4526e-25  2.8446e-23  2.4534e-25  2.8724e-23  2.4547e-25  2.9219e-23  2.4571e-25  3.0100e-23  2.4613e-25  3.1666e-23  2.4689e-25  3.4450e-23  2.4826e-25  3.9402e-23  2.5071e-25  4.8210e-23  2.5507e-25  6.3875e-23  2.6283e-25  9.1743e-23  2.7663e-25  1.4133e-22  3.0117e-25  2.2963e-22  3.4483e-25  3.8699e-22  4.2250e-25  6.6789e-22  5.6072e-25  1.1708e-21  8.0697e-25  2.0757e-21  1.2463e-24  3.7181e-21  2.0321e-24  6.7419e-21
      4.80  2.1405e-25  4.0002e-23  2.1408e-25  4.0197e-23  2.1415e-25  4.0542e-23  2.1427e-25  4.1155e-23  2.1448e-25  4.2247e-23  2.1485e-25  4.4187e-23  2.1551e-25  4.7638e-23  2.1671e-25  5.3776e-23  2.1884e-25  6.4691e-23  2.2265e-25  8.4107e-23  2.2942e-25  1.1865e-22  2.4147e-25  1.8011e-22  2.6289e-25  2.8956e-22  3.0098e-25  4.8464e-22  3.6874e-25  8.3297e-22  4.8927e-25  1.4569e-21  7.0385e-25  2.5803e-21  1.0862e-24  4.6218e-21  1.7689e-24  8.3884e-21
      4.85  1.7076e-25  5.9035e-23  1.7079e-25  5.9272e-23  1.7085e-25  5.9692e-23  1.7095e-25  6.0440e-23  1.7113e-25  6.1771e-23  1.7145e-25  6.4136e-23  1.7203e-25  6.8343e-23  1.7305e-25  7.5825e-23  1.7490e-25  8.9131e-23  1.7818e-25  1.1280e-22  1.8401e-25  1.5490e-22  1.9438e-25  2.2984e-22  2.1282e-25  3.6327e-22  2.4562e-25  6.0113e-22  3.0392e-25  1.0259e-21  4.0758e-25  1.7871e-21  5.9197e-25  3.1585e-21  9.2018e-25  5.6539e-21  1.5052e-24  1.0267e-20
      4.90  1.1351e-25  7.4954e-23  1.1354e-25  7.5235e-23  1.1359e-25  7.5735e-23  1.1368e-25  7.6623e-23  1.1383e-25  7.8203e-23  1.1411e-25  8.1012e-23  1.1461e-25  8.6008e-23  1.1550e-25  9.4892e-23  1.1709e-25  1.1069e-22  1.1991e-25  1.3880e-22  1.2493e-25  1.8880e-22  1.3386e-25  2.7778e-22  1.4973e-25  4.3624e-22  1.7794e-25  7.1872e-22  2.2804e-25  1.2232e-21  3.1706e-25  2.1273e-21  4.7528e-25  3.7569e-21  7.5662e-25  6.7235e-21  1.2577e-24  1.2215e-20
      4.95  6.2358e-26  7.6158e-23  6.2382e-26  7.6480e-23  6.2426e-26  7.7053e-23  6.2503e-26  7.8073e-23  6.2640e-26  7.9886e-23  6.2885e-26  8.3111e-23  6.3321e-26  8.8845e-23  6.4100e-26  9.9042e-23  6.5490e-26  1.1718e-22  6.7963e-26  1.4944e-22  7.2360e-26  2.0683e-22  8.0175e-26  3.0898e-22  9.4050e-26  4.9087e-22  1.1867e-25  8.1514e-22  1.6237e-25  1.3943e-21  2.3991e-25  2.4324e-21  3.7755e-25  4.3040e-21  6.2213e-25  7.7129e-21  1.0572e-24  1.4030e-20
      5.00  3.1011e-26  6.6074e-23  3.1032e-26  6.6429e-23  3.1070e-26  6.7061e-23  3.1137e-26  6.8184e-23  3.1256e-26  7.0181e-23  3.1468e-26  7.3732e-23  3.1849e-26  8.0047e-23  3.2531e-26  9.1279e-23  3.3751e-26  1.1125e-22  3.5924e-26  1.4679e-22  3.9770e-26  2.1000e-22  4.6590e-26  3.2251e-22  5.8671e-26  5.2289e-22  8.0053e-26  8.8017e-22  1.1790e-25  1.5185e-21  1.8495e-25  2.6632e-21  3.0387e-25  4.7290e-21  5.1513e-25  8.4978e-21  8.9079e-25  1.5501e-20
      5.05  1.5319e-26  5.3452e-23  1.5337e-26  5.3817e-23  1.5369e-26  5.4466e-23  1.5426e-26  5.5620e-23  1.5528e-26  5.7672e-23  1.5713e-26  6.1321e-23  1.6043e-26  6.7810e-23  1.6643e-26  7.9350e-23  1.7723e-26  9.9875e-23  1.9615e-26  1.3639e-22  2.2956e-26  2.0135e-22  2.8845e-26  3.1697e-22  3.9219e-26  5.2292e-22  5.7479e-26  8.9024e-22  8.9693e-26  1.5468e-21  1.4666e-25  2.7252e-21  2.4769e-25  4.8545e-21  4.2712e-25  8.7484e-21  7.4588e-25  1.6012e-20
      5.10  7.8960e-27  4.2429e-23  7.9113e-27  4.2785e-23  7.9387e-27  4.3417e-23  7.9882e-27  4.4542e-23  8.0785e-27  4.6543e-23  8.2399e-27  5.0100e-23  8.5355e-27  5.6427e-23  9.0852e-27  6.7677e-23  1.0045e-26  8.7688e-23  1.1718e-26  1.2329e-22  1.4633e-26  1.8662e-22  1.9717e-26  2.9937e-22  2.8591e-26  5.0023e-22  4.4117e-26  8.5855e-22  7.1427e-26  1.4994e-21  1.1957e-25  2.6503e-21  2.0485e-25  4.7332e-21  3.5641e-25  8.5512e-21  6.2597e-25  1.5702e-20
      5.15  4.3245e-27  3.3834e-23  4.3380e-27  3.4188e-23  4.3626e-27  3.4817e-23  4.4084e-27  3.5937e-23  4.4910e-27  3.7927e-23  4.6421e-27  4.1467e-23  4.9281e-27  4.7761e-23  5.4443e-27  5.8956e-23  6.3318e-27  7.8867e-23  7.8534e-27  1.1429e-22  1.0452e-26  1.7731e-22  1.4924e-26  2.8951e-22  2.2664e-26  4.8942e-22  3.6143e-26  8.4613e-22  5.9539e-26  1.4843e-21  1.0102e-25  2.6314e-21  1.7468e-25  4.7096e-21  3.0568e-25  8.5270e-21  5.3875e-25  1.5700e-20
      5.20  2.5253e-27  2.7358e-23  2.5377e-27  2.7723e-23  2.5611e-27  2.8372e-23  2.6062e-27  2.9526e-23  2.6864e-27  3.1579e-23  2.8403e-27  3.5229e-23  3.1380e-27  4.1720e-23  3.6257e-27  5.3264e-23  4.4551e-27  7.3797e-23  5.8625e-27  1.1032e-22  8.2197e-27  1.7532e-22  1.2215e-26  2.9104e-22  1.9051e-26  4.9725e-22  3.0660e-26  8.6527e-22  5.1223e-26  1.5239e-21  8.7744e-26  2.7085e-21  1.5268e-25  4.8569e-21  2.6821e-25  8.8100e-21  4.7392e-25  1.6260e-20
      5.25  1.5677e-27  2.2486e-23  1.5795e-27  2.2862e-23  1.6031e-27  2.3531e-23  1.6496e-27  2.4721e-23  1.7372e-27  2.6837e-23  1.8936e-27  3.0599e-23  2.1831e-27  3.7290e-23  2.6485e-27  4.9189e-23  3.4141e-27  7.0355e-23  4.6952e-27  1.0801e-22  6.8209e-27  1.7502e-22  1.0380e-26  2.9432e-22  1.6166e-26  5.0693e-22  2.6389e-26  8.8646e-22  4.4525e-26  1.5660e-21  7.6739e-26  2.7887e-21  1.3400e-25  5.0090e-21  2.3590e-25  9.1018e-21  4.1754e-25  1.6837e-20
      5.30  1.0292e-27  1.8790e-23  1.0414e-27  1.9172e-23  1.0677e-27  1.9853e-23  1.1239e-27  2.1063e-23  1.2079e-27  2.3216e-23  1.3601e-27  2.7043e-23  1.6333e-27  3.3850e-23  2.0624e-27  4.5956e-23  2.7703e-27  6.7490e-23  3.9086e-27  1.0580e-22  5.8291e-27  1.7397e-22  8.8052e-27  2.9536e-22  1.3872e-26  5.1172e-22  2.2747e-26  8.9803e-22  3.8434e-26  1.5899e-21  6.6290e-26  2.8359e-21  1.1569e-25  5.1009e-21  2.0366e-25  9.2847e-21  3.6057e-25  1.7217e-20
      5.35  7.1089e-28  1.5967e-23  7.2497e-28  1.6357e-23  7.5837e-28  1.7049e-23  8.1276e-28  1.8282e-23  8.9525e-28  2.0473e-23  1.0374e-27  2.4370e-23  1.2923e-27  3.1300e-23  1.6870e-27  4.3625e-23  2.3251e-27  6.5549e-23  3.4006e-27  1.0455e-22  5.0756e-27  1.7397e-22  7.5735e-27  2.9758e-22  1.1941e-26  5.1792e-22  1.9620e-26  9.1144e-22  3.3198e-26  1.6165e-21  5.7198e-26  2.8872e-21  9.9906e-26  5.1998e-21  1.7597e-25  9.4801e-21  3.1173e-25  1.7622e-20
      5.40  5.1270e-28  1.3760e-23  5.2856e-28  1.4139e-23  5.6320e-28  1.4814e-23  6.1022e-28  1.6014e-23  6.8940e-28  1.8148e-23  8.1580e-28  2.1943e-23  1.0397e-27  2.8691e-23  1.4260e-27  4.0694e-23  2.0215e-27  6.2043e-23  3.0444e-27  1.0003e-22  4.3701e-27  1.6763e-22  6.5315e-27  2.8802e-22  1.0312e-26  5.0266e-22  1.6937e-26  8.8610e-22  2.8635e-26  1.5735e-21  4.9265e-26  2.8132e-21  8.5886e-26  5.0728e-21  1.5117e-25  9.2650e-21  2.6778e-25  1.7270e-20
      5.45  3.8134e-28  1.1967e-23  3.9365e-28  1.2285e-23  4.2352e-28  1.2850e-23  4.6286e-28  1.3856e-23  5.2753e-28  1.5644e-23  6.4170e-28  1.8824e-23  8.3567e-28  2.4480e-23  1.1669e-27  3.4538e-23  1.7544e-27  5.2429e-23  2.7005e-27  8.4258e-23  3.7702e-27  1.4092e-22  5.6062e-27  2.4182e-22  8.7757e-27  4.2177e-22  1.4203e-26  7.4334e-22  2.3735e-26  1.3202e-21  4.0556e-26  2.3617e-21  7.0400e-26  4.2639e-21  1.2359e-25  7.8043e-21  2.1876e-25  1.4599e-20
      5.50  2.9085e-28  1.0473e-23  2.9761e-28  1.0702e-23  3.1293e-28  1.1110e-23  3.4916e-28  1.1835e-23  4.0437e-28  1.3125e-23  4.9967e-28  1.5419e-23  6.7221e-28  1.9498e-23  9.7744e-28  2.6752e-23  1.5019e-27  3.9656e-23  2.3204e-27  6.2614e-23  3.3279e-27  1.0348e-22  4.8825e-27  1.7628e-22  7.3758e-27  3.0612e-22  1.1678e-26  5.3824e-22  1.9120e-26  9.5488e-22  3.2257e-26  1.7080e-21  5.5582e-26  3.0861e-21  9.7146e-26  5.6591e-21  1.7150e-25  1.0622e-20
      5.55  2.2858e-28  9.3079e-24  2.3306e-28  9.4805e-24  2.4261e-28  9.7874e-24  2.6431e-28  1.0333e-23  3.1253e-28  1.1304e-23  4.0597e-28  1.3029e-23  5.7499e-28  1.6098e-23  8.7622e-28  2.1557e-23  1.3874e-27  3.1266e-23  2.1026e-27  4.8541e-23  3.0258e-27  7.9294e-23  4.3341e-27  1.3408e-22  6.3893e-27  2.3181e-22  9.8496e-27  4.0657e-22  1.5911e-26  7.2039e-22  2.6570e-26  1.2881e-21  4.5507e-26  2.3280e-21  7.9271e-26  4.2737e-21  1.3962e-25  8.0383e-21
      5.60  1.8450e-28  8.4121e-24  1.8865e-28  8.5619e-24  1.9772e-28  8.8284e-24  2.1893e-28  9.3022e-24  2.5850e-28  1.0145e-23  3.4464e-28  1.1643e-23  5.2364e-28  1.4308e-23  8.3170e-28  1.9047e-23  1.3698e-27  2.7477e-23  1.9618e-27  4.2478e-23  2.7877e-27  6.9181e-23  3.8483e-27  1.1676e-22  5.5795e-27  2.0163e-22  8.5562e-27  3.5343e-22  1.3773e-26  6.2607e-22  2.2950e-26  1.1195e-21  3.9243e-26  2.0241e-21  6.8282e-26  3.7185e-21  1.2017e-25  7.0029e-21
      5.65  1.5220e-28  7.7131e-24  1.5652e-28  7.8562e-24  1.6649e-28  8.1105e-24  1.9007e-28  8.5629e-24  2.3482e-28  9.3673e-24  3.2187e-28  1.0798e-23  4.9400e-28  1.3342e-23  8.1269e-28  1.7866e-23  1.3541e-27  2.5914e-23  1.8757e-27  4.0236e-23  2.5850e-27  6.5732e-23  3.4841e-27  1.1116e-22  5.0418e-27  1.9220e-22  7.6899e-27  3.3716e-22  1.2337e-26  5.9756e-22  2.0544e-26  1.0690e-21  3.5123e-26  1.9337e-21  6.1107e-26  3.5547e-21  1.0756e-25  6.7012e-21
      5.70  1.2787e-28  7.1569e-24  1.3243e-28  7.2969e-24  1.4337e-28  7.5459e-24  1.7087e-28  7.9886e-24  2.1701e-28  8.7759e-24  3.1032e-28  1.0176e-23  4.9501e-28  1.2666e-23  8.4254e-28  1.7094e-23  1.2828e-27  2.4971e-23  1.7236e-27  3.8989e-23  2.3117e-27  6.3946e-23  3.1395e-27  1.0841e-22  4.5222e-27  1.8774e-22  6.9121e-27  3.2965e-22  1.1136e-26  5.8463e-22  1.8597e-26  1.0463e-21  3.1846e-26  1.8937e-21  5.5475e-26  3.4835e-21  9.7766e-26  6.5731e-21
      5.75  1.0889e-28  6.6504e-24  1.1344e-28  6.7837e-24  1.2452e-28  7.0208e-24  1.5106e-28  7.4423e-24  2.0241e-28  8.1920e-24  3.0279e-28  9.5249e-24  5.0631e-28  1.1895e-23  8.3339e-28  1.6112e-23  1.1337e-27  2.3613e-23  1.4995e-27  3.6962e-23  1.9712e-27  6.0726e-23  2.7251e-27  1.0307e-22  3.9709e-27  1.7862e-22  6.1400e-27  3.1377e-22  9.9542e-27  5.5667e-22  1.6699e-26  9.9665e-22  2.8702e-26  1.8046e-21  5.0133e-26  3.3218e-21  8.8561e-26  6.2747e-21
      5.80  9.4243e-29  6.3229e-24  9.8218e-29  6.3827e-24  1.0868e-28  6.6004e-24  1.3443e-28  6.9876e-24  1.8836e-28  7.6760e-24  3.0178e-28  8.9001e-24  4.9314e-28  1.1077e-23  7.4101e-28  1.4950e-23  9.7656e-28  2.1840e-23  1.2891e-27  3.4101e-23  1.6898e-27  5.5929e-23  2.3848e-27  9.4821e-23  3.5175e-27  1.6422e-22  5.4710e-27  2.8839e-22  8.9212e-27  5.1159e-22  1.5034e-26  9.1607e-22  2.5918e-26  1.6593e-21  4.5394e-26  3.0565e-21  8.0432e-26  5.7803e-21
      5.85  8.2230e-29  5.9635e-24  8.6733e-29  6.0789e-24  9.7595e-29  6.2842e-24  1.2360e-28  6.6491e-24  1.8383e-28  7.2981e-24  3.0605e-28  8.4520e-24  4.5254e-28  1.0505e-23  6.5375e-28  1.4156e-23  8.5809e-28  2.0652e-23  1.1526e-27  3.2211e-23  1.5407e-27  5.2791e-23  2.1540e-27  8.9461e-23  3.2127e-27  1.5490e-22  5.0097e-27  2.7200e-22  8.2108e-27  4.8253e-22  1.3886e-26  8.6420e-22  2.4016e-26  1.5659e-21  4.2188e-26  2.8866e-21  7.5026e-26  5.4652e-21
      5.90  7.2906e-29  5.7475e-24  7.7992e-29  5.8628e-24  9.0151e-29  6.0676e-24  1.1900e-28  6.4320e-24  1.8374e-28  7.0798e-24  2.9816e-28  8.2318e-24  4.4110e-28  1.0281e-23  5.9042e-28  1.3927e-23  8.0282e-28  2.0412e-23  1.0670e-27  3.1952e-23  1.4282e-27  5.2499e-23  2.0019e-27  8.9111e-23  3.0014e-27  1.5445e-22  4.7508e-27  2.7139e-22  7.8341e-27  4.8167e-22  1.3320e-26  8.6302e-22  2.3136e-26  1.5646e-21  4.0814e-26  2.8862e-21  7.2966e-26  5.4704e-21
      5.95  6.5363e-29  5.5934e-24  7.0642e-29  5.7111e-24  8.3635e-29  5.9202e-24  1.1475e-28  6.2920e-24  1.8545e-28  6.9532e-24  2.9909e-28  8.1291e-24  4.3595e-28  1.0221e-23  5.8506e-28  1.3942e-23  7.6163e-28  2.0561e-23  9.9930e-28  3.2341e-23  1.3637e-27  5.3314e-23  1.9181e-27  9.0687e-23  2.8791e-27  1.5739e-22  4.5798e-27  2.7678e-22  7.5931e-27  4.9151e-22  1.2959e-26  8.8108e-22  2.2588e-26  1.5982e-21  3.9996e-26  2.9504e-21  7.1871e-26  5.5985e-21
      6.00  5.9115e-29  5.5396e-24  6.3794e-29  5.6028e-24  7.6310e-29  5.8126e-24  1.0691e-28  6.1857e-24  1.7628e-28  6.8491e-24  3.0383e-28  8.0287e-24  4.3836e-28  1.0127e-23  5.7915e-28  1.3860e-23  7.4965e-28  2.0501e-23  9.8457e-28  3.2319e-23  1.3329e-27  5.3361e-23  1.9001e-27  9.0858e-23  2.8733e-27  1.5779e-22  4.5948e-27  2.7760e-22  7.6577e-27  4.9314e-22  1.3140e-26  8.8433e-22  2.3007e-26  1.6049e-21  4.0947e-26  2.9652e-21  7.4105e-26  5.6335e-21
      6.05  5.3099e-29  5.4286e-24  5.7360e-29  5.5432e-24  6.8188e-29  5.7471e-24  9.5388e-29  6.1096e-24  1.5978e-28  6.7542e-24  2.9688e-28  7.9002e-24  4.3705e-28  9.9388e-24  5.7814e-28  1.3566e-23  7.4543e-28  2.0018e-23  9.6970e-28  3.1500e-23  1.3016e-27  5.1945e-23  1.8673e-27  8.8379e-23  2.8519e-27  1.5342e-22  4.5965e-27  2.6986e-22  7.7083e-27  4.7941e-22  1.3288e-26  8.5988e-22  2.3364e-26  1.5613e-21  4.1783e-26  2.8869e-21  7.6134e-26  5.4923e-21
      6.10  4.8368e-29  5.4042e-24  5.1949e-29  5.5129e-24  6.0940e-29  5.7063e-24  8.3678e-29  6.0500e-24  1.3886e-28  6.6612e-24  2.6037e-28  7.7479e-24  4.0722e-28  9.6809e-24  5.5746e-28  1.3120e-23  7.1047e-28  1.9238e-23  9.1329e-28  3.0126e-23  1.2487e-27  4.9512e-23  1.8136e-27  8.4062e-23  2.8085e-27  1.4574e-22  4.5796e-27  2.5619e-22  7.7400e-27  4.5501e-22  1.3416e-26  8.1617e-22  2.3700e-26  1.4825e-21  4.2597e-26  2.7436e-21  7.8131e-26  5.2269e-21
      6.15  4.4640e-29  5.4073e-24  4.7899e-29  5.5082e-24  5.5771e-29  5.6875e-24  7.5109e-29  6.0064e-24  1.2028e-28  6.5733e-24  2.0706e-28  7.5813e-24  3.1801e-28  9.3742e-24  4.7444e-28  1.2563e-23  6.2223e-28  1.8238e-23  8.2431e-28  2.8336e-23  1.1568e-27  4.6317e-23  1.7176e-27  7.8364e-23  2.7132e-27  1.3558e-22  4.4843e-27  2.3805e-22  7.6546e-27  4.2256e-22  1.3357e-26  7.5791e-22  2.3715e-26  1.3771e-21  4.2831e-26  2.5506e-21  7.9029e-26  4.8660e-21
      6.20  4.1565e-29  5.4325e-24  4.4683e-29  5.5226e-24  5.1901e-29  5.6828e-24  6.8553e-29  5.9676e-24  1.0149e-28  6.4740e-24  1.6245e-28  7.3745e-24  2.4297e-28  8.9760e-24  3.5391e-28  1.1825e-23  4.9922e-28  1.6893e-23  7.0242e-28  2.5912e-23  1.0204e-27  4.1972e-23  1.5713e-27  7.0598e-23  2.5376e-27  1.2171e-22  4.2624e-27  2.1327e-22  7.3503e-27  3.7817e-22  1.2914e-26  6.7805e-22  2.3041e-26  1.2322e-21  4.1799e-26  2.2840e-21  7.7525e-26  4.3636e-21
      6.25  3.8636e-29  5.4755e-24  4.1431e-29  5.5514e-24  4.7632e-29  5.6862e-24  5.9919e-29  5.9259e-24  8.3859e-29  6.3521e-24  1.2740e-28  7.1099e-24  1.8322e-28  8.4576e-24  2.6646e-28  1.0855e-23  3.8590e-28  1.5119e-23  5.6845e-28  2.2708e-23  8.6592e-28  3.6221e-23  1.3816e-27  6.0308e-23  2.2887e-27  1.0332e-22  3.9029e-27  1.8039e-22  6.7917e-27  3.1924e-22  1.2003e-26  5.7187e-22  2.1508e-26  1.0392e-21  3.9166e-26  1.9274e-21  7.2962e-26  3.6878e-21
      6.30  3.5896e-29  5.5601e-24  3.8114e-29  5.6206e-24  4.2506e-29  5.7282e-24  5.1892e-29  5.9195e-24  6.8438e-29  6.2595e-24  9.9058e-29  6.8642e-24  1.3516e-28  7.9396e-24  1.9872e-28  9.8521e-24  2.9934e-28  1.3254e-23  4.5263e-28  1.9309e-23  7.1954e-28  3.0090e-23  1.1799e-27  4.9308e-23  1.9959e-27  8.3631e-23  3.4453e-27  1.4513e-22  6.0419e-27  2.5599e-22  1.0730e-26  4.5780e-22  1.9295e-26  8.3151e-22  3.5250e-26  1.5429e-21  6.5916e-26  2.9562e-21
      6.35  3.3514e-29  5.6680e-24  3.5127e-29  5.7158e-24  3.8383e-29  5.8010e-24  4.4675e-29  5.9523e-24  5.7554e-29  6.2214e-24  7.9817e-29  6.7000e-24  1.0339e-28  7.5510e-24  1.4675e-28  9.0645e-24  2.2527e-28  1.1757e-23  3.6346e-28  1.6548e-23  5.9300e-28  2.5079e-23  9.9952e-28  4.0288e-23  1.7152e-27  6.7454e-23  2.9896e-27  1.1614e-22  5.2781e-27  2.0393e-22  9.4149e-27  3.6384e-22  1.6985e-26  6.6026e-22  3.1124e-26  1.2255e-21  5.8417e-26  2.3510e-21
      6.40  3.1446e-29  5.7983e-24  3.2792e-29  5.8372e-24  3.5332e-29  5.9063e-24  3.9893e-29  6.0292e-24  4.8461e-29  6.2478e-24  6.5925e-29  6.6363e-24  8.4273e-29  7.3274e-24  1.1673e-28  8.5564e-24  1.7807e-28  1.0743e-23  2.9339e-28  1.4633e-23  5.0045e-28  2.1561e-23  8.6627e-28  3.3911e-23  1.5133e-27  5.5973e-23  2.6684e-27  9.5523e-23  4.7470e-27  1.6686e-22  8.5094e-27  2.9688e-22  1.5410e-26  5.3812e-22  2.8346e-26  9.9886e-22  5.3451e-26  1.9185e-21
      6.45  2.9655e-29  5.9480e-24  3.0816e-29  5.9801e-24  3.2850e-29  6.0373e-24  3.6520e-29  6.1390e-24  4.2931e-29  6.3197e-24  5.5496e-29  6.6412e-24  7.3837e-29  7.2127e-24  1.0188e-28  8.2293e-24  1.5562e-28  1.0038e-23  2.5741e-28  1.3255e-23  4.4620e-28  1.8985e-23  7.8681e-28  2.9200e-23  1.3961e-27  4.7449e-23  2.4914e-27  8.0169e-23  4.4601e-27  1.3920e-22  8.0319e-27  2.4687e-22  1.4601e-26  4.4681e-22  2.6968e-26  8.2922e-22  5.1118e-26  1.5942e-21
      6.50  2.8019e-29  6.1145e-24  2.9076e-29  6.1413e-24  3.0682e-29  6.1888e-24  3.3620e-29  6.2733e-24  3.8668e-29  6.4236e-24  4.8296e-29  6.6908e-24  6.2725e-29  7.1659e-24  8.6309e-29  8.0110e-24  1.3099e-28  9.5142e-24  2.1627e-28  1.2189e-23  3.7749e-28  1.6952e-23  6.7646e-28  2.5443e-23  1.2183e-27  4.0614e-23  2.1946e-27  6.7819e-23  3.9572e-27  1.1691e-22  7.1609e-27  2.0649e-22  1.3065e-26  3.7298e-22  2.4210e-26  6.9180e-22  4.6064e-26  1.3307e-21
      6.55  2.6622e-29  6.3276e-24  2.7553e-29  6.3503e-24  2.8799e-29  6.3905e-24  3.1102e-29  6.4621e-24  3.5406e-29  6.5893e-24  4.3558e-29  6.8155e-24  5.5480e-29  7.2179e-24  7.5433e-29  7.9334e-24  1.1455e-28  9.2063e-24  1.8987e-28  1.1471e-23  3.3424e-28  1.5505e-23  6.0577e-28  2.2695e-23  1.1059e-27  3.5543e-23  2.0145e-27  5.8585e-23  3.6591e-27  1.0018e-22  6.6547e-27  1.7609e-22  1.2189e-26  3.1726e-22  2.2668e-26  5.8785e-22  4.3301e-26  1.1308e-21
      6.60  2.5434e-29  6.5587e-24  2.6187e-29  6.5786e-24  2.7243e-29  6.6139e-24  2.9106e-29  6.6766e-24  3.2849e-29  6.7882e-24  3.9988e-29  6.9867e-24  5.0910e-29  7.3396e-24  6.8782e-29  7.9674e-24  1.0454e-28  9.0840e-24  1.7503e-28  1.1071e-23  3.1131e-28  1.4610e-23  5.7026e-28  2.0919e-23  1.0522e-27  3.2192e-23  1.9356e-27  5.2411e-23  3.5445e-27  8.8912e-23  6.4823e-27  1.5556e-22  1.1923e-26  2.7955e-22  2.2254e-26  5.1737e-22  4.2678e-26  9.9510e-22
      6.65  2.4618e-29  6.8747e-24  2.4994e-29  6.8248e-24  2.5915e-29  6.8570e-24  2.7454e-29  6.9143e-24  3.0514e-29  7.0161e-24  3.7117e-29  7.1972e-24  4.6860e-29  7.5193e-24  6.3533e-29  8.0922e-24  9.6878e-29  9.1113e-24  1.6413e-28  1.0925e-23  2.9537e-28  1.4155e-23  5.4677e-28  1.9913e-23  1.0187e-27  3.0203e-23  1.8913e-27  4.8659e-23  3.4895e-27  8.1984e-23  6.4177e-27  1.4284e-22  1.1853e-26  2.5611e-22  2.2202e-26  4.7349e-22  4.2732e-26  9.1053e-22
      6.70  2.3537e-29  7.0704e-24  2.3959e-29  7.0875e-24  2.4728e-29  7.1179e-24  2.6091e-29  7.1720e-24  2.8826e-29  7.2683e-24  3.5174e-29  7.4394e-24  4.5734e-29  7.7437e-24  6.3819e-29  8.2850e-24  1.0118e-28  9.2479e-24  1.7614e-28  1.0962e-23  3.2218e-28  1.4013e-23  6.0175e-28  1.9455e-23  1.1279e-27  2.9178e-23  2.1030e-27  4.6621e-23  3.8952e-27  7.8118e-23  7.1891e-27  1.3565e-22  1.3318e-26  2.4276e-22  2.5024e-26  4.4842e-22  4.8345e-26  8.6222e-22
      6.75  2.2779e-29  7.3489e-24  2.3071e-29  7.3655e-24  2.3739e-29  7.3950e-24  2.4967e-29  7.4475e-24  2.7705e-29  7.5409e-24  3.4254e-29  7.7069e-24  4.5860e-29  8.0021e-24  6.6568e-29  8.5271e-24  1.0935e-28  9.4612e-24  1.9468e-28  1.1124e-23  3.5942e-28  1.4084e-23  6.7439e-28  1.9363e-23  1.2660e-27  2.8797e-23  2.3638e-27  4.5719e-23  4.3849e-27  7.6282e-23  8.1085e-27  1.3211e-22  1.5053e-26  2.3609e-22  2.8350e-26  4.3583e-22  5.4930e-26  8.3796e-22
      6.80  2.2126e-29  7.6814e-24  2.2346e-29  7.6978e-24  2.2899e-29  7.7271e-24  2.4038e-29  7.7791e-24  2.6665e-29  7.8715e-24  3.2986e-29  8.0360e-24  4.5694e-29  8.3284e-24  6.7709e-29  8.8486e-24  1.1344e-28  9.7739e-24  2.0353e-28  1.1421e-23  3.7675e-28  1.4353e-23  7.0761e-28  1.9583e-23  1.3300e-27  2.8929e-23  2.4864e-27  4.5695e-23  4.6207e-27  7.5978e-23  8.5629e-27  1.3131e-22  1.5931e-26  2.3437e-22  3.0067e-26  4.3244e-22  5.8390e-26  8.3143e-22
      6.85  2.1563e-29  8.0320e-24  2.1728e-29  8.0485e-24  2.2149e-29  8.0780e-24  2.3184e-29  8.1304e-24  2.5550e-29  8.2235e-24  3.1814e-29  8.3890e-24  4.6183e-29  8.6834e-24  7.0279e-29  9.2072e-24  1.2129e-28  1.0139e-23  2.1994e-28  1.1797e-23  4.1082e-28  1.4750e-23  7.7407e-28  2.0015e-23  1.4574e-27  2.9426e-23  2.7269e-27  4.6309e-23  5.0709e-27  7.6805e-23  9.4064e-27  1.3253e-22  1.7523e-26  2.3636e-22  3.3123e-26  4.3596e-22  6.4450e-26  8.3825e-22
      6.90  2.1077e-29  8.4002e-24  2.1207e-29  8.4169e-24  2.1553e-29  8.4467e-24  2.2429e-29  8.4998e-24  2.4800e-29  8.5940e-24  3.1361e-29  8.7617e-24  4.7136e-29  9.0598e-24  7.4736e-29  9.5901e-24  1.3315e-28  1.0533e-23  2.4530e-28  1.2212e-23  4.6440e-28  1.5202e-23  8.8454e-28  2.0533e-23  1.6728e-27  3.0062e-23  3.1331e-27  4.7157e-23  5.8246e-27  7.8039e-23  1.0802e-26  1.3448e-22  2.0128e-26  2.3966e-22  3.8080e-26  4.4192e-22  7.4201e-26  8.4978e-22
      6.95  2.0656e-29  8.7853e-24  2.0780e-29  8.8021e-24  2.1088e-29  8.8321e-24  2.1912e-29  8.8853e-24  2.4284e-29  8.9801e-24  3.0790e-29  9.1485e-24  4.7050e-29  9.4481e-24  7.5411e-29  9.9809e-24  1.3338e-28  1.0929e-23  2.4551e-28  1.2616e-23  4.7012e-28  1.5620e-23  9.0269e-28  2.0977e-23  1.7146e-27  3.0551e-23  3.2194e-27  4.7729e-23  5.9948e-27  7.8762e-23  1.1130e-26  1.3548e-22  2.0762e-26  2.4121e-22  3.9326e-26  4.4461e-22  7.6732e-26  8.5492e-22
      7.00  2.0288e-29  9.1866e-24  2.0404e-29  9.2032e-24  2.0702e-29  9.2328e-24  2.1500e-29  9.2852e-24  2.3695e-29  9.3786e-24  2.9872e-29  9.5445e-24  4.6776e-29  9.8396e-24  7.5236e-29  1.0364e-23  1.3033e-28  1.1298e-23  2.4278e-28  1.2959e-23  4.6963e-28  1.5918e-23  9.0857e-28  2.1194e-23  1.7366e-27  3.0623e-23  3.2773e-27  4.7543e-23  6.1236e-27  7.8110e-23  1.1395e-26  1.3399e-22  2.1291e-26  2.3816e-22  4.0384e-26  4.3863e-22  7.8905e-26  8.4323e-22
      7.05  1.9952e-29  9.6545e-24  2.0059e-29  9.6703e-24  2.0325e-29  9.6985e-24  2.1055e-29  9.7487e-24  2.3077e-29  9.8378e-24  2.8880e-29  9.9963e-24  4.5118e-29  1.0278e-23  7.3997e-29  1.0779e-23  1.2932e-28  1.1671e-23  2.4238e-28  1.3258e-23  4.7274e-28  1.6083e-23  9.2465e-28  2.1121e-23  1.7911e-27  3.0124e-23  3.4123e-27  4.6280e-23  6.4163e-27  7.5469e-23  1.1987e-26  1.2883e-22  2.2454e-26  2.2834e-22  4.2666e-26  4.1989e-22  8.3495e-26  8.0665e-22
      7.10  1.9653e-29  1.0144e-23  1.9744e-29  1.0158e-23  1.9985e-29  1.0184e-23  2.0628e-29  1.0230e-23  2.2450e-29  1.0312e-23  2.7778e-29  1.0458e-23  4.2833e-29  1.0716e-23  7.2881e-29  1.1176e-23  1.2965e-28  1.1994e-23  2.4309e-28  1.3450e-23  4.7491e-28  1.6041e-23  9.4763e-28  2.0662e-23  1.8685e-27  2.8919e-23  3.6084e-27  4.3734e-23  6.8455e-27  7.0504e-23  1.2861e-26  1.1945e-22  2.4176e-26  2.1073e-22  4.6046e-26  3.8650e-22  9.0272e-26  7.4155e-22
      7.15  1.9390e-29  1.0655e-23  1.9471e-29  1.0668e-23  1.9677e-29  1.0690e-23  2.0245e-29  1.0731e-23  2.1872e-29  1.0802e-23  2.6442e-29  1.0930e-23  3.9200e-29  1.1157e-23  6.7346e-29  1.1561e-23  1.1599e-28  1.2279e-23  2.1230e-28  1.3557e-23  4.1761e-28  1.5831e-23  8.4527e-28  1.9885e-23  1.6985e-27  2.7129e-23  3.3377e-27  4.0127e-23  6.4186e-27  6.3612e-23  1.2175e-26  1.0655e-22  2.3032e-26  1.8666e-22  4.4052e-26  3.4093e-22  8.6612e-26  6.5267e-22
      7.20  1.9158e-29  1.1187e-23  1.9226e-29  1.1198e-23  1.9400e-29  1.1217e-23  1.9879e-29  1.1252e-23  2.1198e-29  1.1312e-23  2.4867e-29  1.1420e-23  3.4866e-29  1.1612e-23  5.8656e-29  1.1954e-23  9.6046e-29  1.2561e-23  1.7489e-28  1.3641e-23  3.4608e-28  1.5564e-23  7.1116e-28  1.8990e-23  1.4624e-27  2.5111e-23  2.9418e-27  3.6093e-23  5.7685e-27  5.5934e-23  1.1101e-26  9.2214e-23  2.1210e-26  1.5990e-22  4.0834e-26  2.9028e-22  8.0634e-26  5.5381e-22
      7.25  1.8954e-29  1.1742e-23  1.9008e-29  1.1751e-23  1.9149e-29  1.1767e-23  1.9524e-29  1.1795e-23  2.0548e-29  1.1846e-23  2.3318e-29  1.1935e-23  3.0627e-29  1.2095e-23  4.7830e-29  1.2378e-23  7.6192e-29  1.2882e-23  1.3561e-28  1.3779e-23  2.6676e-28  1.5375e-23  5.5779e-28  1.8220e-23  1.1767e-27  2.3300e-23  2.4369e-27  3.2413e-23  4.8995e-27  4.8876e-23  9.6111e-27  7.8980e-23  1.8615e-26  1.3514e-22  3.6167e-26  2.4334e-22  7.1844e-26  4.6209e-22
      7.30  1.8951e-29  1.2506e-23  1.8817e-29  1.2390e-23  1.8926e-29  1.2403e-23  1.9215e-29  1.2427e-23  1.9996e-29  1.2469e-23  2.2037e-29  1.2544e-23  2.7329e-29  1.2677e-23  3.9507e-29  1.2913e-23  6.2062e-29  1.3334e-23  1.0661e-28  1.4082e-23  2.0358e-28  1.5415e-23  4.3023e-28  1.7788e-23  9.3690e-28  2.2028e-23  2.0094e-27  2.9631e-23  4.1711e-27  4.3365e-23  8.3899e-27  6.8476e-23  1.6546e-26  1.1532e-22  3.2544e-26  2.0558e-22  6.5164e-26  3.8806e-22
      7.35  1.8617e-29  1.3053e-23  1.8650e-29  1.3060e-23  1.8734e-29  1.3071e-23  1.8954e-29  1.3091e-23  1.9547e-29  1.3127e-23  2.1046e-29  1.3191e-23  2.4912e-29  1.3304e-23  3.4243e-29  1.3505e-23  5.2942e-29  1.3863e-23  8.6959e-29  1.4500e-23  1.6278e-28  1.5635e-23  3.4483e-28  1.7656e-23  7.7220e-28  2.1267e-23  1.7132e-27  2.7741e-23  3.6627e-27  3.9434e-23  7.5472e-27  6.0812e-23  1.5154e-26  1.0069e-22  3.0179e-26  1.7752e-22  6.0928e-26  3.3286e-22
      7.40  1.8479e-29  1.3754e-23  1.8506e-29  1.3760e-23  1.8571e-29  1.3769e-23  1.8742e-29  1.3787e-23  1.9193e-29  1.3818e-23  2.0333e-29  1.3874e-23  2.3262e-29  1.3973e-23  3.0807e-29  1.4149e-23  4.7354e-29  1.4461e-23  7.5458e-29  1.5018e-23  1.3771e-28  1.6008e-23  2.9126e-28  1.7774e-23  6.5980e-28  2.0928e-23  1.4990e-27  2.6584e-23  3.2915e-27  3.6799e-23  6.9371e-27  5.5472e-23  1.4168e-26  9.0303e-23  2.8558e-26  1.5740e-22  5.8122e-26  2.9304e-22
      7.45  1.8359e-29  1.4485e-23  1.8379e-29  1.4490e-23  1.8432e-29  1.4498e-23  1.8570e-29  1.4514e-23  1.8936e-29  1.4542e-23  1.9832e-29  1.4592e-23  2.2162e-29  1.4681e-23  2.8245e-29  1.4838e-23  4.1236e-29  1.5119e-23  6.2700e-29  1.5617e-23  1.0996e-28  1.6506e-23  2.2926e-28  1.8089e-23  5.2349e-28  2.0918e-23  1.2171e-27  2.5992e-23  2.7509e-27  3.5155e-23  5.9572e-27  5.1904e-23  1.2432e-26  8.3143e-23  2.5452e-26  1.4331e-22  5.2353e-26  2.6494e-22
      7.50  1.8253e-29  1.5245e-23  1.8271e-29  1.5250e-23  1.8315e-29  1.5258e-23  1.8429e-29  1.5272e-23  1.8735e-29  1.5298e-23  1.9480e-29  1.5344e-23  2.1428e-29  1.5425e-23  2.6497e-29  1.5570e-23  3.7218e-29  1.5828e-23  5.4519e-29  1.6286e-23  9.2563e-29  1.7102e-23  1.8905e-28  1.8558e-23  4.3175e-28  2.1159e-23  1.0207e-27  2.5823e-23  2.3671e-27  3.4248e-23  5.2625e-27  4.9647e-23  1.1227e-26  7.8365e-23  2.3363e-26  1.3367e-22  4.8594e-26  2.4545e-22
      7.55  1.8161e-29  1.6116e-23  1.8177e-29  1.6121e-23  1.8215e-29  1.6128e-23  1.8315e-29  1.6142e-23  1.8581e-29  1.6166e-23  1.9241e-29  1.6209e-23  2.0968e-29  1.6286e-23  2.5456e-29  1.6422e-23  3.4286e-29  1.6664e-23  4.9489e-29  1.7096e-23  8.1460e-29  1.7864e-23  1.6211e-28  1.9234e-23  3.6707e-28  2.1682e-23  8.7577e-28  2.6072e-23  2.0747e-27  3.4002e-23  4.7332e-27  4.8497e-23  1.0342e-26  7.5527e-23  2.1930e-26  1.2758e-22  4.6227e-26  2.3275e-22
      7.60  1.8255e-29  1.7198e-23  1.8094e-29  1.7032e-23  1.8129e-29  1.7039e-23  1.8398e-29  1.7223e-23  1.8464e-29  1.7076e-23  1.9072e-29  1.7117e-23  2.0693e-29  1.7191e-23  2.4842e-29  1.7322e-23  3.2119e-29  1.7554e-23  4.5639e-29  1.7969e-23  7.2410e-29  1.8706e-23  1.3827e-28  2.0022e-23  3.0454e-28  2.2373e-23  7.2093e-28  2.6590e-23  1.7240e-27  3.4209e-23  4.0077e-27  4.8133e-23  8.9406e-27  7.4098e-23  1.9301e-26  1.2409e-22  4.1234e-26  2.2509e-22
      7.65  1.8008e-29  1.7980e-23  1.8197e-29  1.8164e-23  1.8054e-29  1.7992e-23  1.8140e-29  1.8004e-23  1.8368e-29  1.8027e-23  1.8957e-29  1.8067e-23  2.0473e-29  1.8139e-23  2.4423e-29  1.8267e-23  3.0563e-29  1.8494e-23  4.2540e-29  1.8899e-23  6.5672e-29  1.9620e-23  1.2040e-28  2.0905e-23  2.5639e-28  2.3202e-23  5.9703e-28  2.7323e-23  1.4303e-27  3.4766e-23  3.3728e-27  4.8373e-23  7.6702e-27  7.3744e-23  1.6864e-26  1.2259e-22  3.6551e-26  2.2125e-22
      7.70  1.7945e-29  1.8973e-23  1.8133e-29  1.9167e-23  1.7989e-29  1.8985e-23  1.8069e-29  1.8997e-23  1.8284e-29  1.9020e-23  1.8850e-29  1.9060e-23  2.0318e-29  1.9131e-23  2.4078e-29  1.9257e-23  2.9299e-29  1.9482e-23  3.9760e-29  1.9883e-23  6.0202e-29  2.0597e-23  1.0622e-28  2.1869e-23  2.1806e-28  2.4144e-23  4.9655e-28  2.8225e-23  1.1839e-27  3.5597e-23  2.8191e-27  4.9073e-23  6.5229e-27  7.4200e-23  1.4608e-26  1.2257e-22  3.2157e-26  2.2027e-22
      7.75  1.7889e-29  2.0008e-23  1.7901e-29  2.0012e-23  1.7930e-29  2.0019e-23  1.8007e-29  2.0031e-23  1.8211e-29  2.0054e-23  1.8746e-29  2.0094e-23  2.0166e-29  2.0165e-23  2.3548e-29  2.0292e-23  2.8366e-29  2.0517e-23  3.7533e-29  2.0917e-23  5.6051e-29  2.1631e-23  9.5000e-29  2.2903e-23  1.8775e-28  2.5178e-23  4.1571e-28  2.9259e-23  9.7974e-28  3.6631e-23  2.3429e-27  5.0109e-23  5.5001e-27  7.5238e-23  1.2540e-26  1.2361e-22  2.8064e-26  2.2129e-22
      7.80  1.7840e-29  2.1187e-23  1.7851e-29  2.1191e-23  1.7879e-29  2.1198e-23  1.7951e-29  2.1210e-23  1.8143e-29  2.1233e-23  1.8662e-29  2.1273e-23  2.0012e-29  2.1345e-23  2.3112e-29  2.1473e-23  2.7370e-29  2.1700e-23  3.5667e-29  2.2103e-23  5.1909e-29  2.2823e-23  8.5734e-29  2.4105e-23  1.6326e-28  2.6398e-23  3.5041e-28  3.0512e-23  8.1203e-28  3.7944e-23  1.9404e-27  5.1530e-23  4.6080e-27  7.6862e-23  1.0690e-26  1.2562e-22  2.4427e-26  2.2613e-22
      7.85  1.7797e-29  2.2421e-23  1.7806e-29  2.2425e-23  1.7833e-29  2.2432e-23  1.7899e-29  2.2445e-23  1.8079e-29  2.2468e-23  1.8562e-29  2.2509e-23  1.9831e-29  2.2581e-23  2.2584e-29  2.2710e-23  2.6487e-29  2.2940e-23  3.3902e-29  2.3348e-23  4.8391e-29  2.4075e-23  7.7643e-29  2.5371e-23  1.4279e-28  2.7689e-23  2.9681e-28  3.1848e-23  6.7404e-28  3.9361e-23  1.6027e-27  5.3096e-23  3.8564e-27  7.9206e-23  9.0866e-27  1.2894e-22  2.1060e-26  2.2935e-22
      7.90  1.7758e-29  2.3712e-23  1.7767e-29  2.3716e-23  1.7791e-29  2.3724e-23  1.7853e-29  2.3737e-23  1.8017e-29  2.3760e-23  1.8460e-29  2.3802e-23  1.9640e-29  2.3875e-23  2.2003e-29  2.4007e-23  2.5503e-29  2.4240e-23  3.1877e-29  2.4656e-23  4.4384e-29  2.5396e-23  6.9110e-29  2.6717e-23  1.2268e-28  2.9077e-23  2.4645e-28  3.3313e-23  5.4629e-28  4.0965e-23  1.2870e-27  5.4955e-23  3.1003e-27  8.1037e-23  7.4282e-27  1.3124e-22  1.7565e-26  2.3259e-22
      7.95  1.7724e-29  2.5060e-23  1.7732e-29  2.5064e-23  1.7753e-29  2.5072e-23  1.7808e-29  2.5085e-23  1.7953e-29  2.5109e-23  1.8344e-29  2.5150e-23  1.9392e-29  2.5225e-23  2.1333e-29  2.5357e-23  2.4233e-29  2.5592e-23  2.9633e-29  2.6010e-23  3.9981e-29  2.6755e-23  6.0363e-29  2.8084e-23  1.0331e-28  3.0459e-23  2.0053e-28  3.4722e-23  4.3320e-28  4.2422e-23  1.0080e-27  5.6499e-23  2.4332e-27  8.2745e-23  5.9063e-27  1.3325e-22  1.4223e-26  2.3522e-22
      8.00  1.7694e-29  2.6466e-23  1.7876e-29  2.6736e-23  1.7719e-29  2.6478e-23  1.7942e-29  2.6757e-23  1.8069e-29  2.6780e-23  1.8227e-29  2.6557e-23  1.9129e-29  2.6631e-23  2.0704e-29  2.6763e-23  2.3161e-29  2.6999e-23  2.7566e-29  2.7418e-23  3.6014e-29  2.8165e-23  5.2592e-29  2.9497e-23  8.6684e-29  3.1878e-23  1.6241e-28  3.6150e-23  3.4106e-28  4.3868e-23  7.8084e-28  5.7976e-23  1.8802e-27  8.4280e-23  4.6063e-27  1.3490e-22  1.1270e-26  2.3706e-22
      8.05  1.7667e-29  2.8064e-23  1.7673e-29  2.8068e-23  1.7688e-29  2.8075e-23  1.7904e-29  2.8370e-23  1.7833e-29  2.8112e-23  1.8113e-29  2.8154e-23  1.8866e-29  2.8229e-23  2.0127e-29  2.8361e-23  2.2050e-29  2.8597e-23  2.5701e-29  2.9016e-23  3.2499e-29  2.9764e-23  4.5750e-29  3.1096e-23  7.2525e-29  3.3478e-23  1.3128e-28  3.7752e-23  2.6784e-28  4.5474e-23  6.0238e-28  5.9589e-23  1.4434e-27  8.5903e-23  3.5603e-27  1.3653e-22  8.8355e-27  2.3871e-22
      8.10  1.7643e-29  2.9740e-23  1.7648e-29  2.9744e-23  1.7661e-29  2.9752e-23  1.7869e-29  3.0063e-23  1.7956e-29  3.0087e-23  1.8188e-29  3.0129e-23  1.8812e-29  3.0204e-23  1.9616e-29  3.0036e-23  2.1187e-29  3.0271e-23  2.4123e-29  3.0690e-23  2.9828e-29  3.1750e-23  3.9862e-29  3.2763e-23  6.0861e-29  3.5138e-23  1.0588e-28  3.9399e-23  2.0947e-28  4.7097e-23  4.5965e-28  6.1169e-23  1.0983e-27  8.7399e-23  2.7202e-27  1.3786e-22  6.8330e-27  2.3967e-22
      8.15  1.7797e-29  3.1812e-23  1.7801e-29  3.1816e-23  1.7636e-29  3.1508e-23  1.7663e-29  3.1521e-23  1.7731e-29  3.1544e-23  1.7914e-29  3.1586e-23  1.8402e-29  3.1660e-23  1.9178e-29  3.1791e-23  2.0419e-29  3.2025e-23  2.2682e-29  3.2441e-23  2.6893e-29  3.3182e-23  3.4825e-29  3.4504e-23  5.1121e-29  3.6866e-23  8.5096e-29  4.1104e-23  1.6282e-28  4.8762e-23  3.5023e-28  6.2757e-23  8.1894e-28  8.8843e-23  2.0400e-27  1.3902e-22  5.1739e-27  2.4024e-22
      8.20  1.7778e-29  3.3670e-23  1.7607e-29  3.3339e-23  1.7615e-29  3.3347e-23  1.7636e-29  3.3360e-23  1.7690e-29  3.3383e-23  1.7833e-29  3.3424e-23  1.8216e-29  3.3497e-23  1.8806e-29  3.3628e-23  1.9785e-29  3.3860e-23  2.1545e-29  3.4274e-23  2.4808e-29  3.5010e-23  3.1024e-29  3.6324e-23  4.3329e-29  3.8671e-23  6.9275e-29  4.2883e-23  1.2743e-28  5.0491e-23  2.6709e-28  6.4396e-23  6.1961e-28  9.0312e-23  1.5333e-27  1.4015e-22  3.9192e-27  2.4066e-22
      8.25  1.7762e-29  3.5612e-23  1.7765e-29  3.5616e-23  1.7771e-29  3.5624e-23  1.7613e-29  3.5282e-23  1.7655e-29  3.5305e-23  1.7944e-29  3.5701e-23  1.8062e-29  3.5419e-23  1.8717e-29  3.5906e-23  1.9274e-29  3.5780e-23  2.0610e-29  3.6191e-23  2.3150e-29  3.6923e-23  2.7921e-29  3.8229e-23  3.7806e-29  4.0969e-23  5.6981e-29  4.4748e-23  1.0074e-28  5.2311e-23  2.0526e-28  6.6131e-23  4.6911e-28  9.1885e-23  1.1574e-27  1.4140e-22  2.9761e-27  2.4124e-22
      8.30  1.7573e-29  3.7440e-23  1.7750e-29  3.7820e-23  1.7580e-29  3.7451e-23  1.7768e-29  3.7840e-23  1.7625e-29  3.7487e-23  1.7711e-29  3.7528e-23  1.7940e-29  3.7601e-23  1.8297e-29  3.7730e-23  1.8874e-29  3.7961e-23  1.9924e-29  3.8372e-23  2.1858e-29  3.9103e-23  2.5517e-29  4.0407e-23  3.2707e-29  4.2737e-23  4.7621e-29  4.6919e-23  8.0690e-29  5.4472e-23  1.5933e-28  6.8274e-23  3.5789e-28  9.3991e-23  8.7867e-28  1.4343e-22  2.2688e-27  2.4307e-22
      8.35  1.7735e-29  4.0135e-23  1.7736e-29  4.0140e-23  1.7740e-29  4.0147e-23  1.7751e-29  4.0160e-23  1.7601e-29  3.9783e-23  1.7665e-29  3.9824e-23  1.7838e-29  3.9897e-23  1.8109e-29  4.0027e-23  1.8546e-29  4.0258e-23  1.9340e-29  4.0669e-23  2.0804e-29  4.1402e-23  2.3568e-29  4.2708e-23  2.8990e-29  4.5042e-23  4.0210e-29  4.9230e-23  6.5047e-29  5.6795e-23  1.2408e-28  7.0618e-23  2.7345e-28  9.6369e-23  6.6767e-28  1.4586e-22  1.7305e-27  2.4558e-22
      8.40  1.7549e-29  4.2151e-23  1.7550e-29  4.2155e-23  1.7553e-29  4.2162e-23  1.7561e-29  4.2175e-23  1.7580e-29  4.2199e-23  1.7628e-29  4.2240e-23  1.7754e-29  4.2313e-23  1.7958e-29  4.2444e-23  1.8285e-29  4.2676e-23  1.8878e-29  4.3089e-23  1.9972e-29  4.3825e-23  2.2037e-29  4.5138e-23  2.6087e-29  4.7484e-23  3.4469e-29  5.1693e-23  5.3036e-29  5.9294e-23  9.7272e-29  7.3183e-23  2.0965e-28  9.9054e-23  5.0831e-28  1.4877e-22  1.3214e-27  2.4890e-22
      8.45  1.7713e-29  4.5140e-23  1.7715e-29  4.5145e-23  1.7543e-29  4.4701e-23  1.7548e-29  4.4715e-23  1.7738e-29  4.5189e-23  1.7600e-29  4.4780e-23  1.7694e-29  4.4854e-23  1.7849e-29  4.4985e-23  1.8279e-29  4.5675e-23  1.8544e-29  4.5636e-23  1.9371e-29  4.6378e-23  2.0933e-29  4.7702e-23  2.3992e-29  5.0068e-23  3.0322e-29  5.4313e-23  4.4344e-29  6.1978e-23  7.7789e-29  7.5983e-23  1.6300e-28  1.0207e-22  3.9071e-28  1.5218e-22  1.0157e-27  2.5308e-22
      8.50  1.7705e-29  4.7836e-23  1.7706e-29  4.7840e-23  1.7533e-29  4.7370e-23  1.7538e-29  4.7383e-23  1.7549e-29  4.7407e-23  1.7577e-29  4.7449e-23  1.7650e-29  4.7524e-23  1.7766e-29  4.7657e-23  1.7957e-29  4.7894e-23  1.8301e-29  4.8316e-23  1.8934e-29  4.9067e-23  2.0129e-29  5.0407e-23  2.2469e-29  5.2801e-23  2.7304e-29  5.7097e-23  3.8000e-29  6.4855e-23  6.3505e-29  7.9026e-23  1.2860e-28  1.0542e-22  3.0137e-28  1.5611e-22  7.8560e-28  2.5815e-22
